#####################################################################
# Alchemist log file - simulation started at: 2019-03-09T20:36+0000 #
#####################################################################
# seed = 2.0, bandwidth = 1333521.4321633242, propagationDelay = 3.1622776601683795, baserange = 316.2277660168379
#
# The columns have the following meaning: 
# time neighbor_count[Sum] <value>@neighbor_count[Sum] packet_size[Mean] mean_delay[Mean] crowd[Sum] overcrowded[Sum] risk[Sum] 
0.0 NaN NaN NaN NaN NaN NaN NaN 
2.0005829790527505 NaN NaN 4988.0 NaN 1497.0 0.0 1497.0 
4.00007424466531 17877.0 NaN 4988.929859719439 0.21846937046592682 1497.0 0.0 1497.0 
6.0005829790527505 51288.0 NaN 4995.543086172344 1.8357275198182372 1497.0 0.0 1497.0 
8.00008624297266 51288.0 NaN 4995.3560454241815 2.4517660664438186 1497.0 0.0 1497.0 
10.000582979052751 51288.0 NaN 4993.841015364062 1.835728275504659 1495.0 2.0 1495.0 
12.00008624297266 51290.0 NaN 4993.800935203741 2.451699403823877 1495.0 2.0 1495.0 
14.000582979052751 51294.0 NaN 4994.773547094188 1.8356572567900253 1495.0 2.0 1495.0 
16.00008624297266 51295.0 NaN 4994.762859051436 2.4527369793962936 1495.0 2.0 1495.0 
18.00058297905275 51298.0 NaN 4993.806279225117 1.8376109373047083 1495.0 2.0 1495.0 
20.000086242972657 51298.0 NaN 4993.814295257181 2.4543362601859067 1495.0 2.0 1495.0 
22.00058297905275 51306.0 NaN 4994.74415497662 1.8408175940119733 1495.0 2.0 1495.0 
24.000086242972657 51307.0 NaN 4994.725450901804 2.4534653967581916 1495.0 2.0 1495.0 
26.00058297905275 51342.0 NaN 4993.792919171677 1.8360375982805868 1495.0 2.0 1495.0 
28.000086242972657 51340.0 NaN 4993.808951235805 2.4534980425340773 1495.0 2.0 1495.0 
30.00058297905275 51346.0 NaN 4994.746826987308 1.8376142245138796 1495.0 2.0 1495.0 
32.00008624297266 51362.0 NaN 4994.754843019372 2.4532630682228413 1495.0 2.0 1495.0 
34.00058297905275 51400.0 NaN 4993.87040748163 1.8380268052531412 1495.0 2.0 1495.0 
36.00008624297266 51363.0 NaN 4993.87040748163 2.453130713761396 1495.0 2.0 1495.0 
38.00058297905275 51368.0 NaN 4994.75751503006 1.836819810699875 1495.0 2.0 1495.0 
40.00008624297266 51357.0 NaN 4994.760187040748 2.456306088197598 1495.0 2.0 1495.0 
42.00058297905275 51363.0 NaN 4993.854375417502 1.8431776453716766 1495.0 2.0 1495.0 
44.00008624297266 51365.0 NaN 4993.83032732131 2.4553490466336547 1495.0 2.0 1495.0 
46.00058297905275 51411.0 NaN 4994.765531062124 1.8404882641721663 1495.0 2.0 1495.0 
48.00008624297266 51346.0 NaN 4994.802939211757 2.4567134986061645 1495.0 2.0 1495.0 
50.00058297905275 51357.0 NaN 4993.875751503006 1.842079347878926 1495.0 2.0 1495.0 
52.00008624297266 51364.0 NaN 4993.8810955243825 2.4554056767439008 1495.0 2.0 1495.0 
54.00058297905275 51406.0 NaN 4994.776219104877 1.8393988672049946 1495.0 2.0 1495.0 
56.00008624297266 51373.0 NaN 4994.786907147629 2.4574474508494646 1495.0 2.0 1495.0 
58.00058297905275 51386.0 NaN 4993.87040748163 1.840778033190614 1495.0 2.0 1495.0 
60.00008624297266 51370.0 NaN 4993.867735470942 2.459750367713704 1495.0 2.0 1495.0 
62.00058297905275 51405.0 NaN 1516.1790247161 1.84156513966219 839.0 0.0 363.0 
64.00058297905275 51418.0 NaN 1519.2598530394116 2.455115520051673 790.0 0.0 364.0 
66.00058297905275 51491.0 NaN 1519.281229124918 1.8405699534554874 666.0 2.0 362.0 
68.00058297905275 51472.0 NaN 1519.2117568470271 2.4558118481955757 647.0 3.0 361.0 
70.00058297905275 51499.0 NaN 1519.230460921845 1.8432098456760098 600.0 4.0 360.0 
72.00058297905275 51463.0 NaN 1519.230460921845 2.454752630351251 593.0 3.0 361.0 
74.00058297905275 51495.0 NaN 1522.2471609886452 1.842314552866726 576.0 3.0 362.0 
76.00058297905275 51456.0 NaN 1525.3279893119573 2.4526334191563355 567.0 3.0 363.0 
78.00058297905275 51473.0 NaN 1525.3413493653973 1.8412104034148253 554.0 2.0 364.0 
80.00058297905275 51447.0 NaN 1528.4248496994 2.4518263566794163 548.0 2.0 365.0 
82.00058297905275 51482.0 NaN 1528.3660654642636 1.842115537626019 543.0 2.0 365.0 
84.00058297905275 51464.0 NaN 1528.374081496327 2.4517723151446944 541.0 2.0 365.0 
86.00058297905275 51480.0 NaN 1531.4682698730817 1.8445362564935341 536.0 2.0 366.0 
88.00058297905275 51489.0 NaN 1531.4468937875752 2.4493870864319502 535.0 2.0 366.0 
90.00058297905275 51540.0 NaN 1531.4094856379427 1.8406547457556457 534.0 2.0 366.0 
92.00058297905275 51530.0 NaN 1531.4094856379427 2.4502172704219465 533.0 2.0 366.0 
94.00058297905275 51550.0 NaN 1531.4362057448243 1.8416814539326396 532.0 2.0 366.0 
96.00058297905275 51530.0 NaN 1531.4468937875752 2.4497029651252396 532.0 2.0 366.0 
98.00058297905275 51562.0 NaN 1531.4201736806938 1.841835991548864 530.0 2.0 366.0 
100.00058297905275 51546.0 NaN 1531.4255177020727 2.451171863435374 530.0 2.0 366.0 
102.00058297905275 51577.0 NaN 1534.5384101536395 1.8487648990500087 527.0 5.0 364.0 
104.00058297905275 51504.0 NaN 1534.5384101536395 2.448890091596505 526.0 5.0 364.0 
106.00058297905275 51520.0 NaN 1534.4956579826332 1.8419722309820674 524.0 5.0 364.0 
108.00058297905275 51501.0 NaN 1537.560454241818 2.449688530520273 523.0 5.0 365.0 
110.00058297905275 51522.0 NaN 1537.5764863059455 1.8430032301044101 522.0 5.0 365.0 
112.00058297905275 51509.0 NaN 1537.5791583166338 2.4484491507157142 522.0 5.0 365.0 
114.00058297905275 51558.0 NaN 1537.5444221776906 1.8435319829668468 523.0 4.0 366.0 
116.00058297905275 51517.0 NaN 1540.6305945223787 2.4477496567894943 526.0 3.0 368.0 
118.00058297905275 51549.0 NaN 1546.7975951903818 1.8432590704222624 526.0 3.0 370.0 
120.00058297905275 51532.0 NaN 1546.8136272545091 2.448753137531738 526.0 3.0 370.0 
122.00058297905275 51573.0 NaN 1546.7788911155635 1.8435607727061463 527.0 2.0 371.0 
124.00058297905275 51525.0 NaN 1546.7842351369393 2.450049800115729 527.0 2.0 371.0 
126.00058297905275 51545.0 NaN 1546.8056112224456 1.843070463835562 527.0 2.0 371.0 
128.00058297905275 51522.0 NaN 1546.8697394789574 2.4513068860767686 527.0 2.0 371.0 
130.00058297905275 51545.0 NaN 1546.7682030728117 1.8440355970229987 527.0 2.0 371.0 
132.00058297905275 51505.0 NaN 1543.7034068136272 2.4508549320675477 527.0 2.0 370.0 
134.00058297905275 51525.0 NaN 1543.778223112891 1.8436994251981293 528.0 2.0 370.0 
136.00058297905275 51461.0 NaN 1546.8456913827636 2.450749943189962 528.0 2.0 371.0 
138.00058297905275 51482.0 NaN 1543.7060788243155 1.841509436515148 527.0 2.0 370.0 
140.00058297905275 51440.0 NaN 1546.8056112224456 2.4501191862412695 528.0 2.0 371.0 
142.00058297905275 51475.0 NaN 1549.923847695391 1.8421181762604477 526.0 2.0 372.0 
144.00058297905275 51424.0 NaN 1549.926519706079 2.4502943125880043 526.0 2.0 372.0 
146.00058297905275 51456.0 NaN 1549.8997995992 1.8428643679237326 525.0 2.0 372.0 
148.00058297905275 51411.0 NaN 1546.8376753507002 2.451452754871155 524.0 3.0 370.0 
150.00058297905275 51432.0 NaN 1546.8403473613907 1.844279046027493 527.0 2.0 371.0 
152.00058297905275 51389.0 NaN 1540.6893787575154 2.4494799940680343 525.0 2.0 369.0 
154.00058297905275 51397.0 NaN 1537.5951903807634 1.8426081434793073 525.0 2.0 368.0 
156.00058297905275 51322.0 NaN 1540.6840347361392 2.449038505118844 524.0 2.0 369.0 
158.00058297905275 51369.0 NaN 1540.662658650636 1.8462246367288688 524.0 3.0 368.0 
160.00058297905275 51293.0 NaN 1540.6680026720092 2.4504008479062422 524.0 3.0 368.0 
162.00058297905275 51326.0 NaN 1540.6653306613216 1.8455140248640842 525.0 2.0 369.0 
164.00058297905275 51194.0 NaN 1540.6760187040727 2.4489490297746217 525.0 2.0 369.0 
166.00058297905275 51216.0 NaN 1543.7488309953244 1.8419773020830355 523.0 2.0 370.0 
168.00058297905275 51163.0 NaN 1543.743486973948 2.449567423275607 524.0 2.0 370.0 
170.00058297905275 51185.0 NaN 1549.873079492318 1.8478488379434093 523.0 2.0 372.0 
172.00058297905275 51086.0 NaN 1543.7488309953249 2.4490310890743134 524.0 2.0 370.0 
174.00058297905275 51099.0 NaN 1543.8022712090842 1.8439291458571474 525.0 2.0 370.0 
176.00058297905275 51032.0 NaN 1543.8129592518362 2.447742562171676 525.0 2.0 370.0 
178.00058297905275 51061.0 NaN 1540.6599866399451 1.8444321341761176 525.0 2.0 369.0 
180.00058297905275 50998.0 NaN 1537.573814295257 2.448879900917978 525.0 2.0 368.0 
182.00058297905275 51019.0 NaN 1540.713426853709 1.8427293335663997 525.0 2.0 369.0 
184.00058297905275 50947.0 NaN 1537.6352705410818 2.448889276821476 523.0 2.0 368.0 
186.00058297905275 50970.0 NaN 1534.551770207082 1.849017942772295 522.0 2.0 367.0 
188.00058297905275 50897.0 NaN 1534.5544422177697 2.446998715633999 521.0 2.0 367.0 
190.00058297905275 50933.0 NaN 1537.5978623914482 1.841330345448692 520.0 2.0 368.0 
192.00058297905275 50894.0 NaN 1537.6165664662635 2.4478089245271146 520.0 2.0 368.0 
194.00058297905275 50924.0 NaN 1537.648630594521 1.8438322860801726 520.0 2.0 368.0 
196.00058297905275 50866.0 NaN 1540.7401469605884 2.447129267998402 520.0 2.0 369.0 
198.00058297905275 50894.0 NaN 1540.7187708750819 1.8431071213893113 521.0 2.0 369.0 
200.00058297905275 50843.0 NaN 1540.7214428857728 2.4475449638322146 523.0 2.0 369.0 
202.00058297905275 50863.0 NaN 1543.7862391449546 1.8421789946531786 523.0 2.0 370.0 
204.00058297905275 50802.0 NaN 1546.843019372079 2.4458306541517216 522.0 2.0 371.0 
206.00058297905275 50842.0 NaN 1543.8370073480273 1.8435368936902514 523.0 2.0 370.0 
208.00058297905275 50769.0 NaN 1543.8209752838998 2.4449237111885997 523.0 2.0 370.0 
210.00058297905275 50803.0 NaN 1543.7381429525728 1.84256551405955 521.0 2.0 370.0 
212.00058297905275 50745.0 NaN 1537.5871743486975 2.445280660748804 520.0 2.0 368.0 
214.00058297905275 50758.0 NaN 1540.7160988643973 1.8403873367866133 518.0 2.0 369.0 
216.00058297905275 50715.0 NaN 1543.7915831663336 2.4475882656051406 517.0 2.0 370.0 
218.00058297905275 50731.0 NaN 1543.7221108884453 1.848889140835945 517.0 2.0 370.0 
220.00058297905275 50665.0 NaN 1537.573814295257 2.4480232101958066 518.0 2.0 368.0 
222.00058297905275 50682.0 NaN 1540.6680026720094 1.8454081568002483 519.0 2.0 369.0 
224.00058297905275 50622.0 NaN 1540.6546426185728 2.4517410429870794 520.0 2.0 369.0 
226.00058297905275 50651.0 NaN 1540.6599866399454 1.8549741570286835 520.0 2.0 369.0 
228.00058297905275 50557.0 NaN 1540.6519706078818 2.451003919141417 520.0 2.0 369.0 
230.00058297905275 50608.0 NaN 1534.5597862391458 1.8518983330507353 517.0 2.0 367.0 
232.00058297905275 50552.0 NaN 1540.7241148964608 2.4487591136018962 517.0 2.0 369.0 
234.00058297905275 50594.0 NaN 1540.630594522379 1.8427494234070536 516.0 2.0 369.0 
236.00058297905275 50572.0 NaN 1540.630594522379 2.452289191780668 516.0 2.0 369.0 
238.00058297905275 50641.0 NaN 1540.6680026720092 1.8543514725074566 518.0 2.0 369.0 
240.00058297905275 50558.0 NaN 1537.5764863059455 2.4501152109476494 518.0 2.0 368.0 
242.00058297905275 50608.0 NaN 1534.4475617902458 1.8412173941711958 516.0 2.0 367.0 
244.00058297905275 50556.0 NaN 1534.4422177688725 2.4525963056153732 516.0 2.0 367.0 
246.00058297905275 50580.0 NaN 1531.4575818303274 1.8429537098551807 518.0 2.0 366.0 
248.00058297905275 50502.0 NaN 1531.446893787575 2.4541162186909555 518.0 2.0 366.0 
250.00058297905275 50540.0 NaN 1531.4308617234456 1.84183914708904 517.0 2.0 366.0 
252.00058297905275 50498.0 NaN 1528.3500334001337 2.455176209775414 516.0 2.0 365.0 
254.00058297905275 50541.0 NaN 1528.3660654642633 1.8414539737383153 515.0 2.0 365.0 
256.00058297905275 50502.0 NaN 1528.355377421509 2.456781388087332 515.0 2.0 365.0 
258.00058297905275 50549.0 NaN 1531.372077488309 1.8483178468533603 517.0 2.0 366.0 
260.00058297905275 50458.0 NaN 1531.369405477621 2.45717119317696 517.0 2.0 366.0 
262.00058297905275 50506.0 NaN 1528.3660654642633 1.845546422432139 518.0 2.0 365.0 
264.0004807860187 50438.0 NaN 1525.3066132264541 2.4580267207634066 518.0 2.0 364.0 
266.00058297905275 50464.0 NaN 1528.3340013360062 1.8491216706917628 518.0 2.0 365.0 
268.0004807860187 50345.0 NaN 1537.5845023380089 2.459154048675677 520.0 2.0 368.0 
270.00058297905275 50366.0 NaN 1540.6305945223794 1.849399911306632 517.0 2.0 369.0 
272.0004807860187 50297.0 NaN 1540.6172344689364 2.4574089202002045 517.0 2.0 369.0 
274.00058297905275 50343.0 NaN 1543.6366065464276 1.8462910076043235 517.0 2.0 370.0 
276.0004807860187 50215.0 NaN 1537.488309953239 2.458198288605787 516.0 2.0 368.0 
278.00058297905275 50242.0 NaN 1540.5931863727455 1.8477103269072268 516.0 2.0 369.0 
280.0004807860187 50103.0 NaN 1540.571810287243 2.4583861268825187 518.0 2.0 369.0 
282.00058297905275 50144.0 NaN 1540.529058116234 1.8457698269806386 518.0 2.0 369.0 
284.0004807860187 50070.0 NaN 1534.3807615230453 2.458885196493147 518.0 2.0 367.0 
286.00058297905275 50113.0 NaN 1534.4529058116248 1.8495226945226089 517.0 2.0 367.0 
288.0004807860187 49973.0 NaN 1534.4422177688728 2.4576008462092456 516.0 2.0 367.0 
290.00058297905275 49997.0 NaN 1534.3486973947909 1.8453409078719836 516.0 2.0 367.0 
292.0004807860187 49912.0 NaN 1531.2625250501 2.457551013397046 516.0 2.0 366.0 
294.00058297905275 49941.0 NaN 1531.4068136272545 1.843153154316996 515.0 2.0 366.0 
296.0004807860187 49850.0 NaN 1531.4041416165658 2.45843200691479 514.0 2.0 366.0 
298.00058297905275 49887.0 NaN 1534.3861055444206 1.8488296936888846 514.0 2.0 367.0 
300.0004807860187 49762.0 NaN 1534.3941215764885 2.4584014121551814 514.0 2.0 367.0 
302.00058297905275 49787.0 NaN 1531.4255177020727 1.847023655416732 512.0 2.0 366.0 
304.0004807860187 49709.0 NaN 1525.2852371409479 2.459764131578913 512.0 2.0 364.0 
306.00058297905275 49757.0 NaN 1531.3453573814272 1.8494451689298246 510.0 2.0 366.0 
308.0004807860187 49616.0 NaN 1531.3213092852363 2.4578351100076308 510.0 2.0 366.0 
310.00058297905275 49664.0 NaN 1531.4442217768885 1.844179973903548 510.0 2.0 366.0 
312.0004807860187 49583.0 NaN 1528.3340013360066 2.459893466699295 509.0 2.0 365.0 
314.00058297905275 49602.0 NaN 1528.2351369405453 1.8450488281461244 509.0 2.0 365.0 
316.0004807860187 49505.0 NaN 1522.089512358048 2.4584222891161747 507.0 2.0 363.0 
318.00058297905275 49529.0 NaN 1522.225784903139 1.8498291245438925 509.0 2.0 363.0 
320.0004807860187 49413.0 NaN 1525.322645290582 2.4585283862939713 508.0 2.0 364.0 
322.00058297905275 49458.0 NaN 1525.2718770875092 1.8463437465575163 508.0 2.0 364.0 
324.0004807860187 49406.0 NaN 1528.3259853039428 2.4611780626542465 508.0 2.0 365.0 
326.00058297905275 49432.0 NaN 1531.4762859051455 1.8518804636026414 507.0 2.0 366.0 
328.0004807860187 49292.0 NaN 1531.4415497662003 2.458669837219258 507.0 2.0 366.0 
330.00058297905275 49313.0 NaN 1531.3533734134935 1.8436197653252826 508.0 2.0 366.0 
332.0004807860187 49272.0 NaN 1528.2565130260523 2.4589031646557307 509.0 2.0 365.0 
334.00058297905275 49303.0 NaN 1528.2832331329334 1.8442880105104167 510.0 2.0 365.0 
336.0004807860187 49243.0 NaN 1531.3854375417513 2.457750805943595 509.0 2.0 366.0 
338.00058297905275 49283.0 NaN 1531.337341349364 1.8541964817713954 508.0 2.0 366.0 
340.0004807860187 49205.0 NaN 1525.1863727454909 2.4535633795623397 507.0 2.0 364.0 
342.00058297905275 49253.0 NaN 1528.3527054108213 1.845340045367997 510.0 2.0 365.0 
344.0004807860187 49194.0 NaN 1528.344689378757 2.4556490497687133 510.0 2.0 365.0 
346.00058297905275 49225.0 NaN 1525.1970607882452 1.8506837313018247 510.0 2.0 364.0 
348.0004807860187 49129.0 NaN 1522.1135604542426 2.4524117259822997 510.0 2.0 363.0 
350.00058297905275 49151.0 NaN 1522.19906479626 1.8477206519393354 511.0 2.0 363.0 
352.0004807860187 49115.0 NaN 1522.2284569138271 2.4516150918386064 511.0 2.0 363.0 
354.00058297905275 49168.0 NaN 1522.1402805611212 1.8450657379581457 511.0 2.0 363.0 
356.0004807860187 49104.0 NaN 1519.0460921843696 2.4524006654321404 509.0 2.0 362.0 
358.00058297905275 49144.0 NaN 1519.1262525050088 1.8510574065778265 509.0 2.0 362.0 
360.0004807860187 49060.0 NaN 1519.0941883767546 2.451801848194263 510.0 2.0 362.0 
362.00058297905275 49095.0 NaN 1519.027388109554 1.8501477577307053 509.0 2.0 362.0 
364.0004807860187 49014.0 NaN 1522.0948563794266 2.451472117121719 511.0 2.0 363.0 
366.00058297905275 49056.0 NaN 1522.142952571809 1.8470507191474017 512.0 2.0 363.0 
368.0004807860187 48993.0 NaN 1503.7568470273889 2.4520900618782826 512.0 2.0 357.0 
370.00058297905275 49032.0 NaN 1500.5664662658644 1.8438763718575872 511.0 2.0 356.0 
372.0004807860187 48994.0 NaN 1497.4428857715436 2.454824742016199 512.0 2.0 355.0 
374.00058297905275 49029.0 NaN 1506.7922511690056 1.850002597467794 513.0 2.0 358.0 
376.0004807860187 48949.0 NaN 1503.7034068136272 2.4524001303915406 513.0 2.0 357.0 
378.00058297905275 48985.0 NaN 1503.6472945891787 1.847802933518272 514.0 2.0 357.0 
380.0004807860187 48892.0 NaN 1500.56112224449 2.4523086169343444 515.0 2.0 356.0 
382.00058297905275 48925.0 NaN 1497.5577822311284 1.8459092260761372 514.0 2.0 355.0 
384.0004807860187 48862.0 NaN 1497.5738142952566 2.454964949419933 515.0 2.0 355.0 
386.00058297905275 48904.0 NaN 1506.728122912491 1.8486485078264936 516.0 2.0 358.0 
388.0004807860187 48823.0 NaN 1506.6907147628576 2.453203013429417 516.0 2.0 358.0 
390.00058297905275 48855.0 NaN 1503.7595190380757 1.8441413438924987 515.0 2.0 357.0 
392.0004807860187 48790.0 NaN 1506.8136272545091 2.454008345186143 515.0 2.0 358.0 
394.00058297905275 48810.0 NaN 1512.80694722779 1.8460061810723702 517.0 2.0 360.0 
396.0004807860187 48744.0 NaN 1509.7207748831 2.454868711491104 518.0 2.0 359.0 
398.00058297905275 48785.0 NaN 1509.8276553106205 1.849376815919579 518.0 2.0 359.0 
400.0004807860187 48695.0 NaN 1506.7548430193729 2.456470304564823 518.0 2.0 358.0 
402.00058297905275 48736.0 NaN 1509.8303273213091 1.8508206684093964 520.0 2.0 359.0 
404.0004807860187 48655.0 NaN 1512.895123580494 2.4551876439176805 521.0 2.0 360.0 
406.00058297905275 48679.0 NaN 1519.171676686707 1.855874634137775 521.0 2.0 362.0 
408.00058297905275 48576.0 NaN 1516.0534402137614 2.451203831916875 521.0 2.0 361.0 
410.00058297905275 48629.0 NaN 1528.2965931863728 1.845002191818312 521.0 2.0 365.0 
412.00058297905275 48593.0 NaN 1528.2618570474272 2.4520033941037553 522.0 2.0 365.0 
414.00058297905275 48624.0 NaN 1534.458249833 1.8466447697343182 521.0 2.0 367.0 
416.00058297905275 48542.0 NaN 1534.4448897795608 2.4496780198419557 522.0 2.0 367.0 
418.00058297905275 48612.0 NaN 1534.3914495657996 1.846302052868499 523.0 2.0 367.0 
420.00058297905275 48570.0 NaN 1518.9899799599189 2.448532210919498 523.0 2.0 362.0 
422.00058297905275 48620.0 NaN 1519.0567802271205 1.843699792899951 523.0 2.0 362.0 
424.00058297905275 48563.0 NaN 1512.9325317301273 2.449428071093608 521.0 2.0 360.0 
426.00058297905275 48606.0 NaN 1512.80694722779 1.8485141066145625 517.0 2.0 360.0 
428.00058297905275 48525.0 NaN 1509.7474949899809 2.4489223491289787 516.0 2.0 359.0 
430.00058297905275 48574.0 NaN 1515.9572478289908 1.844189803049252 518.0 2.0 361.0 
432.00058297905275 48521.0 NaN 1512.9031396125577 2.4487405209425304 517.0 2.0 360.0 
434.00058297905275 48550.0 NaN 1515.9331997328 1.8443764736088066 520.0 2.0 361.0 
436.00058297905275 48496.0 NaN 1528.2324649298607 2.4485619539748096 524.0 2.0 365.0 
438.00058297905275 48540.0 NaN 1528.2645290581177 1.8453229373102236 526.0 2.0 365.0 
440.00058297905275 48500.0 NaN 1528.2511690046754 2.4485141091456444 526.0 2.0 365.0 
442.00058297905275 48554.0 NaN 1531.2545090180365 1.8484229493084658 526.0 2.0 366.0 
444.00058297905275 48493.0 NaN 1531.2358049432185 2.4490593914115855 525.0 2.0 366.0 
446.00058297905275 48523.0 NaN 1537.4589178356725 1.850369664397416 527.0 2.0 368.0 
448.00058297905275 48455.0 NaN 1534.4021376085516 2.4516411593841956 528.0 2.0 367.0 
450.00058297905275 48502.0 NaN 1543.5644622578484 1.8537793884302125 529.0 2.0 370.0 
452.00058297905275 48439.0 NaN 1540.5023380093521 2.44872325664019 528.0 2.0 369.0 
454.00058297905275 48475.0 NaN 1543.695390781564 1.8436416881950772 527.0 2.0 370.0 
456.00058297905275 48426.0 NaN 1546.7575150300609 2.44906535138351 527.0 2.0 371.0 
458.00058297905275 48462.0 NaN 1552.8042752171 1.848640860103278 525.0 2.0 373.0 
460.00058297905275 48391.0 NaN 1549.7020708082819 2.446841874165467 525.0 2.0 372.0 
462.00058297905275 48423.0 NaN 1549.774215096861 1.845466469564226 524.0 2.0 372.0 
464.00058297905275 48386.0 NaN 1540.582498329993 2.4505333225002635 525.0 2.0 369.0 
466.00058297905275 48426.0 NaN 1543.583166332664 1.8492043154831956 523.0 2.0 370.0 
468.00058297905275 48341.0 NaN 1543.5243820975272 2.4479711648347435 524.0 2.0 370.0 
470.00058297905275 48379.0 NaN 1540.5771543086182 1.8439435295609734 523.0 2.0 369.0 
472.00058297905275 48356.0 NaN 1534.4048096192366 2.447324514672603 521.0 2.0 367.0 
474.00058297905275 48384.0 NaN 1531.219772879091 1.8429875487172462 521.0 2.0 366.0 
476.00058297905275 48331.0 NaN 1518.9392117568461 2.450178564494421 519.0 2.0 362.0 
478.00058297905275 48373.0 NaN 1519.0140280561113 1.8453907463330292 517.0 2.0 362.0 
480.0004807860187 48323.0 NaN 1518.9953239812971 2.4470960362509833 517.0 2.0 362.0 
482.00058297905275 48384.0 NaN 1515.8984635938546 1.8414569508990262 516.0 3.0 360.0 
484.0004807860187 48384.0 NaN 1512.8096192384758 2.446853419474615 517.0 3.0 359.0 
486.00058297905275 48460.0 NaN 1512.8977955911816 1.8446625280619637 514.0 2.0 360.0 
488.0004807860187 48416.0 NaN 1503.668670674682 2.446620720238307 514.0 2.0 357.0 
490.00058297905275 48491.0 NaN 1503.5911823647284 1.8442620970969936 514.0 2.0 357.0 
492.0004807860187 48434.0 NaN 1494.3834335337353 2.4481332663373396 514.0 2.0 354.0 
494.00058297905275 48485.0 NaN 1497.5364061456253 1.8446144409959806 511.0 3.0 354.0 
496.0004807860187 48469.0 NaN 1491.4308617234462 2.451401055752879 510.0 3.0 352.0 
498.00058297905275 48542.0 NaN 1491.4094856379434 1.852094463872788 510.0 3.0 352.0 
500.0004807860187 48504.0 NaN 1488.288577154309 2.450307058369563 512.0 3.0 351.0 
502.00058297905275 48557.0 NaN 1488.3740814963267 1.848308230323324 511.0 3.0 351.0 
504.0004807860187 48520.0 NaN 1491.4388777555102 2.4483378284637953 514.0 3.0 352.0 
506.00058297905275 48564.0 NaN 1497.5230460921837 1.8446770277162239 513.0 3.0 354.0 
508.0004807860187 48536.0 NaN 1491.369405477621 2.4508695167249153 513.0 3.0 352.0 
510.00058297905275 48627.0 NaN 1500.6332665330656 1.8507869035134807 515.0 3.0 355.0 
512.0004807860187 48593.0 NaN 1500.6145624582489 2.45225223456446 515.0 3.0 355.0 
514.0005829790528 48619.0 NaN 1500.56112224449 1.8466076366062802 515.0 3.0 355.0 
516.0004807860187 48588.0 NaN 1482.1376085504353 2.449814996628173 514.0 3.0 349.0 
518.0005829790528 48658.0 NaN 1479.1716766867075 1.8436576448670017 512.0 3.0 348.0 
520.0004807860187 48609.0 NaN 1472.9779559118247 2.4519303299617907 512.0 3.0 346.0 
522.0005829790528 48635.0 NaN 1472.9779559118247 1.847806421417758 512.0 2.0 347.0 
524.0004807860187 48598.0 NaN 1460.6760187040738 2.449648660139928 511.0 2.0 343.0 
526.0005829790528 48652.0 NaN 1463.7755511022033 1.8463831363932433 509.0 2.0 344.0 
528.0004807860187 48603.0 NaN 1457.6619906479632 2.449376371093571 508.0 2.0 342.0 
530.0005829790528 48657.0 NaN 1457.6032064128265 1.8481107028309727 506.0 2.0 342.0 
532.0004807860187 48605.0 NaN 1457.5764863059455 2.4504072641712478 505.0 2.0 342.0 
534.0005829790528 48628.0 NaN 1460.7481629926524 1.8444442844378093 508.0 2.0 343.0 
536.0004807860187 48621.0 NaN 1460.7348029392112 2.4469635002952184 508.0 2.0 343.0 
538.0005829790528 48691.0 NaN 1460.676018704074 1.8505728287815686 508.0 2.0 343.0 
540.0004807860187 48635.0 NaN 1460.6733466933877 2.4474969169127596 508.0 2.0 343.0 
542.0005829790528 48657.0 NaN 1463.8022712090844 1.850184559982433 509.0 2.0 344.0 
544.0004807860187 48610.0 NaN 1463.791583166333 2.4452000247922956 511.0 2.0 344.0 
546.0005829790528 48661.0 NaN 1463.716766867067 1.845178237800571 513.0 2.0 344.0 
548.0004807860187 48621.0 NaN 1460.633266533066 2.4502343808955076 516.0 2.0 343.0 
550.0005829790528 48660.0 NaN 1463.7381429525722 1.8556235565629515 517.0 2.0 344.0 
552.0004807860187 48539.0 NaN 1463.6953907815637 2.4450075306946903 517.0 2.0 344.0 
554.0005829790528 48571.0 NaN 1469.838343353373 1.8415934254854092 515.0 2.0 346.0 
556.0004807860187 48586.0 NaN 1469.8196392785567 2.446658452489219 514.0 2.0 346.0 
558.0005829790528 48677.0 NaN 1463.7595190380762 1.8474666682047334 512.0 2.0 344.0 
560.0004807860187 48634.0 NaN 1454.570474281897 2.4455099485330094 510.0 2.0 341.0 
562.0005829790528 48689.0 NaN 1454.5090180360728 1.8460116832307154 507.0 2.0 341.0 
564.0004807860187 48663.0 NaN 1457.6085504342016 2.443330257372914 506.0 2.0 342.0 
566.0005829790528 48734.0 NaN 1463.8557114228454 1.8479031670843833 503.0 2.0 344.0 
568.0004807860187 48699.0 NaN 1463.8263193052771 2.443910918408414 504.0 2.0 344.0 
570.0005829790528 48770.0 NaN 1476.0774883099537 1.8492969393638181 505.0 2.0 348.0 
572.0004807860187 48738.0 NaN 1476.045424181697 2.4430107838278037 510.0 2.0 348.0 
574.0005829790528 48779.0 NaN 1482.2498329993325 1.8490456926517846 510.0 2.0 350.0 
576.0004807860187 48735.0 NaN 1485.346693386773 2.444125393676231 511.0 2.0 351.0 
578.0005829790528 48801.0 NaN 1488.3206412825646 1.8535702377613872 509.0 3.0 351.0 
580.0004807860187 48742.0 NaN 1485.2531730126911 2.442637470677111 508.0 3.0 350.0 
582.0005829790528 48804.0 NaN 1485.338677354709 1.8506579221872628 510.0 7.0 346.0 
584.0004807860187 48762.0 NaN 1485.3360053440206 2.4403788287121073 510.0 7.0 346.0 
586.0005829790528 48846.0 NaN 1488.3340013360062 1.8470986782506622 514.0 7.0 347.0 
588.0004807860187 48797.0 NaN 1491.4068136272545 2.440962288274885 516.0 7.0 348.0 
590.0005829790528 48855.0 NaN 1494.5090180360728 1.8472167694269783 518.0 7.0 349.0 
592.0004807860187 48758.0 NaN 1491.4468937875745 2.441312288324163 521.0 7.0 348.0 
594.0005829790528 48811.0 NaN 1491.3961255845013 1.8484197071866788 523.0 7.0 348.0 
596.0004807860187 48776.0 NaN 1494.4635938543745 2.4457356940816752 525.0 7.0 349.0 
598.0005829790528 48851.0 NaN 1491.422845691382 1.851863481716991 524.0 7.0 348.0 
600.0004807860187 48767.0 NaN 1488.3420173680704 2.443849964608861 526.0 7.0 347.0 
602.0005829790528 48829.0 NaN 1494.4849699398803 1.8498865011328292 526.0 7.0 349.0 
604.0004807860187 48748.0 NaN 1491.4148296593182 2.4436911770708263 523.0 7.0 348.0 
606.0005829790528 48831.0 NaN 1497.6352705410818 1.8502303419812922 523.0 7.0 350.0 
608.0004807860187 48743.0 NaN 1497.6085504342013 2.4432790159330735 524.0 7.0 350.0 
610.0005829790528 48824.0 NaN 1497.6138944555787 1.8473135074767573 520.0 7.0 350.0 
612.0004807860187 48774.0 NaN 1494.5143620574472 2.4436534949894284 516.0 7.0 349.0 
614.0005829790528 48822.0 NaN 1494.591850367401 1.8458559041220344 516.0 7.0 349.0 
616.0004807860187 48769.0 NaN 1494.5544422177697 2.445165838517548 517.0 7.0 349.0 
618.0005829790528 48840.0 NaN 1497.5657982631922 1.849689635062924 517.0 7.0 350.0 
620.0004807860187 48806.0 NaN 1494.4876419505667 2.445975116686863 517.0 7.0 349.0 
622.0005829790528 48886.0 NaN 1497.6058784235122 1.8513509882336223 515.0 8.0 349.0 
624.0004807860187 48805.0 NaN 1500.6813627254517 2.448468696557055 513.0 8.0 350.0 
626.0005829790528 48846.0 NaN 1500.6786907147634 1.8542371243887747 512.0 8.0 350.0 
628.0004807860187 48724.0 NaN 1503.7648630594535 2.4450562982768016 510.0 8.0 351.0 
630.0005829790528 48779.0 NaN 1506.9151636606543 1.8488599783523665 510.0 8.0 352.0 
632.0004807860187 48691.0 NaN 1506.9151636606543 2.4442073892109972 509.0 8.0 352.0 
634.0005829790528 48721.0 NaN 1513.0420841683363 1.84523841021491 509.0 8.0 354.0 
636.0004807860187 48669.0 NaN 1513.0714762859059 2.444473733837653 512.0 8.0 354.0 
638.0005829790528 48719.0 NaN 1516.1523046092182 1.8491919686868958 514.0 8.0 355.0 
640.0004807860187 48672.0 NaN 1516.1336005344012 2.442232570990186 514.0 8.0 355.0 
642.0005829790528 48731.0 NaN 1516.061456245826 1.8486190756879433 520.0 8.0 355.0 
644.0004807860187 48648.0 NaN 1509.8864395457574 2.445632872235285 519.0 8.0 353.0 
646.0005829790528 48699.0 NaN 1510.0146960587836 1.8535034830234638 519.0 8.0 353.0 
648.0004807860187 48641.0 NaN 1513.071476285906 2.4412171989355334 519.0 8.0 354.0 
650.0005829790528 48697.0 NaN 1522.2150968603878 1.8487744174960112 516.0 7.0 358.0 
652.0004807860187 48637.0 NaN 1525.2692050768192 2.4435816142656024 515.0 7.0 359.0 
654.0005829790528 48681.0 NaN 1525.3627254509008 1.8521219072265998 515.0 7.0 359.0 
656.0004807860187 48587.0 NaN 1525.3841015364071 2.442521217393979 513.0 7.0 359.0 
658.0005829790528 48683.0 NaN 1534.567802271209 1.8524919704362952 509.0 7.0 362.0 
660.0004807860187 48614.0 NaN 1534.5597862391458 2.4410081614391888 508.0 7.0 362.0 
662.0005829790528 48664.0 NaN 1537.5818303273204 1.8462886564835792 508.0 7.0 363.0 
664.0004807860187 48596.0 NaN 1540.6252505010011 2.442750158898181 510.0 7.0 364.0 
#####################################################################
# End of data export. Simulation finished at: 2019-03-09T20:51+0000 #
#####################################################################
