#####################################################################
# Alchemist log file - simulation started at: 2019-03-18T19:52+0000 #
#####################################################################
# seed = 9.0, bandwidth = 1000.0, propagationDelay = 1.0, baserange = 562.341325190349
#
# The columns have the following meaning: 
# time neighbor_count[Sum] <value>@neighbor_count[Sum] packet_size[Mean] mean_delay[Mean] crowd[Sum] overcrowded[Sum] risk[Sum] 
0.0 NaN NaN NaN NaN NaN NaN NaN 
2.0003374459614243 NaN NaN 4988.0 NaN 1497.0 0.0 1497.0 
4.000337445961424 NaN NaN 4988.0 NaN 1497.0 0.0 1497.0 
6.000337445961424 NaN NaN 4988.0 NaN 1497.0 0.0 1497.0 
8.000337445961424 98210.0 NaN 4995.911823647295 1.004335675700148 1497.0 0.0 1497.0 
10.000337445961424 98210.0 NaN 4996.857715430861 3.004335675700148 1497.0 0.0 1497.0 
12.000337445961424 98210.0 NaN 4996.857715430861 5.003880531764335 1497.0 0.0 1497.0 
14.000337445961424 98230.0 NaN 4995.89044756179 1.0110847196871675 1497.0 0.0 1497.0 
16.000337445961424 98230.0 NaN 4993.875751503006 3.0110847196871675 1497.0 0.0 1497.0 
18.000337445961424 98230.0 NaN 4993.875751503006 5.010803182558389 1497.0 0.0 1497.0 
20.000337445961424 98276.0 NaN 4995.503006012024 1.008549210396764 1495.0 2.0 1495.0 
22.000337445961424 98276.0 NaN 4996.251169004676 3.008549210396764 1495.0 2.0 1495.0 
24.000337445961424 98276.0 NaN 4996.251169004676 5.008267933763795 1495.0 2.0 1495.0 
26.000337445961424 98306.0 NaN 4996.350033400134 1.5678077553615477 1494.0 3.0 1494.0 
28.000337445961424 98307.0 NaN 4993.325317301269 2.734004967159049 1495.0 2.0 1495.0 
30.000337445961424 98307.0 NaN 4992.855043420173 4.73372369052608 1495.0 2.0 1495.0 
32.00033744596142 98375.0 NaN 4994.0253841015365 2.0600673317411413 1496.0 1.0 1496.0 
34.00033744596142 98392.0 NaN 4994.078824315297 2.5230661716700653 1495.0 2.0 1495.0 
36.00033744596142 98392.0 NaN 4994.255177020708 4.5227848950370975 1495.0 2.0 1495.0 
38.00033744596142 98426.0 NaN 4994.364729458918 2.40209199693058 1496.0 1.0 1496.0 
40.00033744596142 98432.0 NaN 4993.931863727455 2.47658995912368 1495.0 2.0 1495.0 
42.00033744596142 98432.0 NaN 4993.557782231129 4.342784725564849 1495.0 2.0 1495.0 
44.0002111449745 98506.0 NaN 4993.573814295257 2.483845576957369 1496.0 1.0 1496.0 
46.00033744596142 98520.0 NaN 4993.763527054109 2.7707745437484026 1496.0 1.0 1496.0 
48.00033744596142 98523.0 NaN 4993.694054776219 4.118927368072825 1497.0 0.0 1497.0 
50.00033744596142 98551.0 NaN 4993.608550434202 2.441294926980837 1497.0 0.0 1497.0 
52.00033744596142 98559.0 NaN 4993.712758851036 3.100089183637986 1496.0 1.0 1496.0 
54.00033744596142 98574.0 NaN 4993.9559118236475 3.9361506204940757 1494.0 3.0 1494.0 
56.00033744596142 98651.0 NaN 4993.557782231129 2.3194842292393987 1494.0 3.0 1494.0 
58.0002111449745 98669.0 NaN 4993.790247160989 3.267014240941455 1496.0 1.0 1496.0 
60.00033744596142 98682.0 NaN 4994.5250501002 3.898809208634424 1496.0 1.0 1496.0 
62.00033744596142 98762.0 NaN 1519.6339345357367 2.0776921284236423 824.0 1.0 363.0 
64.00033744596142 98796.0 NaN 1522.6239144956576 2.571495528936677 731.0 2.0 363.0 
66.00033744596142 98813.0 NaN 1522.6800267201088 2.0890871692812336 680.0 3.0 362.0 
68.00033744596142 98810.0 NaN 1522.551770207082 1.5775532231923988 601.0 3.0 362.0 
70.00033744596142 98827.0 NaN 1522.4822979291907 1.928822737259031 577.0 4.0 361.0 
72.0002111449745 98861.0 NaN 1522.503674014697 1.8159081290908548 553.0 2.0 363.0 
74.00033744596142 98884.0 NaN 1525.6085504342004 1.5281165013309215 542.0 4.0 362.0 
76.00033744596142 98905.0 NaN 1525.4535738142938 1.8805213243429837 532.0 6.0 360.0 
78.00033744596142 98908.0 NaN 1528.6359385437547 1.9445445247421094 531.0 6.0 361.0 
80.00033744596142 98891.0 NaN 1531.7114228456908 1.5542331247384027 532.0 5.0 363.0 
82.00033744596142 98915.0 NaN 1531.6633266533067 1.7808165703876697 533.0 4.0 364.0 
84.00033744596142 98924.0 NaN 1534.7975951903818 1.9406832507433884 533.0 2.0 367.0 
86.00033744596142 98928.0 NaN 1534.8216432865727 1.6221935101294835 527.0 6.0 363.0 
88.00033744596142 98943.0 NaN 1534.7975951903818 1.6788002191604292 528.0 4.0 365.0 
90.00033744596142 98977.0 NaN 1534.8243152972614 1.9214800453566776 527.0 5.0 364.0 
92.0002111449745 98959.0 NaN 1534.9365397461581 1.7530576814280012 529.0 2.0 367.0 
94.00033744596142 98960.0 NaN 1534.8430193720787 1.6528668238164854 528.0 2.0 367.0 
96.00033744596142 98985.0 NaN 1534.7281229124908 1.86952083597524 524.0 4.0 365.0 
98.00033744596142 99014.0 NaN 1534.7682030728117 1.784376000516697 525.0 3.0 366.0 
100.00033744596142 99009.0 NaN 1534.7762191048757 1.6313820281387346 523.0 5.0 364.0 
102.00033744596142 99010.0 NaN 1537.8623914495638 1.7907150941081946 524.0 4.0 366.0 
104.00033744596142 99003.0 NaN 1537.979959919839 1.8059536412026713 524.0 4.0 366.0 
106.0002111449745 99014.0 NaN 1537.9665998664002 1.7378382805281718 525.0 3.0 367.0 
108.00033744596142 99030.0 NaN 1537.9185036740153 1.7212690044626626 521.0 5.0 365.0 
110.00033744596142 99065.0 NaN 1541.0527722110905 1.800615077543022 523.0 3.0 368.0 
112.00033744596142 99102.0 NaN 1540.999331997327 1.8174385482147368 523.0 3.0 368.0 
114.00033744596142 99115.0 NaN 1540.9325317301273 1.7006146897278278 524.0 2.0 369.0 
116.00033744596142 99113.0 NaN 1547.0728122912485 1.7725545975548558 525.0 3.0 370.0 
118.00033744596142 99098.0 NaN 1550.257849031397 1.8515587240254738 525.0 3.0 371.0 
120.00033744596142 99083.0 NaN 1550.3112892451568 1.7309946650799701 525.0 3.0 371.0 
122.00033744596142 99104.0 NaN 1550.2391449565816 1.6993614029968027 526.0 3.0 371.0 
124.00033744596142 99087.0 NaN 1547.1503006012022 1.8709590125506332 526.0 4.0 369.0 
126.00033744596142 99066.0 NaN 1544.2565130260523 1.789221107214339 528.0 2.0 370.0 
128.0003374459614 99011.0 NaN 1547.4068136272545 1.6494768951397423 527.0 3.0 370.0 
130.0003374459614 99002.0 NaN 1547.315965263861 1.8235912871337927 526.0 4.0 369.0 
132.0003374459614 99021.0 NaN 1547.3079492317975 1.8218564720467585 526.0 4.0 369.0 
134.0003374459614 99016.0 NaN 1544.1202404809635 1.6413256879055373 524.0 6.0 366.0 
136.0003374459614 99019.0 NaN 1541.1783567134273 1.778434064340274 525.0 5.0 366.0 
138.0003374459614 99006.0 NaN 1544.3259853039426 1.862208652372035 523.0 7.0 365.0 
140.0003374459614 98995.0 NaN 1544.1710086840362 1.687560211127504 521.0 7.0 365.0 
142.0003374459614 99037.0 NaN 1541.1382765531064 1.7109896939044384 519.0 7.0 364.0 
144.00021114497451 99030.0 NaN 1541.0661322645274 1.8500430930509548 513.0 9.0 362.0 
146.0003374459614 99025.0 NaN 1544.1950567802273 1.7078178778769284 515.0 7.0 365.0 
148.0003374459614 99015.0 NaN 1544.224448897797 1.6803204582301299 518.0 6.0 366.0 
150.0003374459614 99012.0 NaN 1544.2591850367394 1.8386417730593971 521.0 3.0 369.0 
152.0003374459614 99050.0 NaN 1544.2458249832998 1.7382465189696032 520.0 4.0 368.0 
154.0003374459614 99033.0 NaN 1544.267201068803 1.676618981785223 519.0 6.0 366.0 
156.0003374459614 99013.0 NaN 1532.0026720106882 1.803138793722605 519.0 5.0 363.0 
158.0003374459614 99001.0 NaN 1531.9599198396795 1.7738441184582523 513.0 6.0 362.0 
160.0003374459614 99004.0 NaN 1535.0167000667998 1.7139248510061411 516.0 5.0 364.0 
162.0003374459614 99040.0 NaN 1534.9018036072152 1.774232294203727 514.0 6.0 363.0 
164.00021114497451 99041.0 NaN 1541.0661322645274 1.7797415603654958 517.0 4.0 367.0 
166.0003374459614 99016.0 NaN 1541.1088844355365 1.7662396960611 516.0 5.0 366.0 
168.0003374459614 99006.0 NaN 1541.1783567134273 1.7217739908520426 515.0 5.0 366.0 
170.0003374459614 98996.0 NaN 1541.2130928523727 1.750396502733792 514.0 6.0 365.0 
172.0003374459614 99011.0 NaN 1541.0875083500339 1.777551792430995 515.0 6.0 365.0 
174.0003374459614 99018.0 NaN 1544.1576486305937 1.7216415331223829 513.0 8.0 364.0 
176.0003374459614 99009.0 NaN 1537.9425517702089 1.744608556273111 512.0 9.0 361.0 
178.00021114497451 99000.0 NaN 1537.9826319305273 1.8095498702874928 514.0 9.0 361.0 
180.0003374459614 98996.0 NaN 1534.8537074148294 1.745826180595075 520.0 5.0 364.0 
182.0003374459614 99012.0 NaN 1537.8650634602548 1.6835612774982363 521.0 4.0 366.0 
184.0003374459614 99013.0 NaN 1537.8436873747482 1.8001992380941365 520.0 5.0 365.0 
186.0003374459614 99003.0 NaN 1534.8750835003343 1.785922617101468 516.0 8.0 361.0 
188.0003374459614 99005.0 NaN 1534.936539746158 1.6798310553443738 519.0 4.0 365.0 
190.0003374459614 98985.0 NaN 1531.847695390782 1.7956795794825053 517.0 5.0 363.0 
192.0003374459614 98978.0 NaN 1531.8129592518362 1.7680320391429718 516.0 5.0 363.0 
194.0003374459614 98979.0 NaN 1528.7454909819635 1.6777195297846665 516.0 5.0 362.0 
196.0003374459614 98960.0 NaN 1528.7428189712755 1.8049999181252823 517.0 4.0 363.0 
198.00021114497451 98952.0 NaN 1531.842351369406 1.8052269168805786 519.0 3.0 365.0 
200.0003374459614 98946.0 NaN 1534.789579158318 1.7066387760441557 521.0 2.0 367.0 
202.0003374459614 98961.0 NaN 1537.776887107548 1.769962838168112 521.0 2.0 368.0 
204.0003374459614 98959.0 NaN 1540.964595858382 1.85774499162393 520.0 3.0 368.0 
206.0003374459614 98946.0 NaN 1537.9986639946546 1.7340632537501441 515.0 8.0 362.0 
208.0003374459614 98934.0 NaN 1537.9425517702089 1.7659545147719007 513.0 10.0 360.0 
210.0003374459614 98911.0 NaN 1537.979959919839 1.8104077087109232 512.0 10.0 360.0 
212.0003374459614 98901.0 NaN 1537.9291917167661 1.7152015691248854 510.0 9.0 361.0 
214.0003374459614 98899.0 NaN 1534.8189712758845 1.7827678756155692 510.0 6.0 363.0 
216.0003374459614 98879.0 NaN 1531.6339345357364 1.8303681237222769 514.0 4.0 364.0 
218.0003374459614 98843.0 NaN 1534.746826987309 1.768942899466979 513.0 5.0 364.0 
220.0003374459614 98832.0 NaN 1534.8002672010698 1.7610821721767196 514.0 6.0 363.0 
222.0003374459614 98837.0 NaN 1531.7648630594542 1.8284778974876976 518.0 3.0 365.0 
224.0003374459614 98822.0 NaN 1531.647294589179 1.7685400407241083 515.0 5.0 363.0 
226.0003374459614 98822.0 NaN 1534.6185704742816 1.7647338185634287 515.0 6.0 363.0 
228.0003374459614 98793.0 NaN 1534.6185704742816 1.8267902092869375 513.0 7.0 362.0 
230.00021114497451 98795.0 NaN 1534.6987307949244 1.7871949532821627 513.0 6.0 363.0 
232.0003374459614 98813.0 NaN 1537.7528390113546 1.7890986630800825 510.0 9.0 361.0 
234.0003374459614 98804.0 NaN 1537.8276553106207 1.8318202499903629 511.0 5.0 365.0 
236.0003374459614 98793.0 NaN 1534.5918503674002 1.788438433086262 510.0 5.0 364.0 
238.0003374459614 98769.0 NaN 1540.676018704073 1.8050329866685653 508.0 7.0 364.0 
240.0003374459614 98740.0 NaN 1534.5410821643275 1.7782836199402927 509.0 7.0 362.0 
242.0003374459614 98734.0 NaN 1534.5945223780907 1.760695021771789 509.0 7.0 362.0 
244.0003374459614 98728.0 NaN 1531.5297261189062 1.8031779097821492 513.0 5.0 363.0 
246.0003374459614 98708.0 NaN 1531.5350701402817 1.7595220900049333 515.0 4.0 364.0 
248.0003374459614 98689.0 NaN 1531.5698062792271 1.7525738207534862 516.0 3.0 365.0 
250.0003374459614 98636.0 NaN 1531.647294589179 1.786922487230987 518.0 1.0 367.0 
252.0003374459614 98642.0 NaN 1531.6312625250516 1.7920703086413938 518.0 1.0 367.0 
254.0003374459614 98640.0 NaN 1531.6900467601881 1.7516415936266836 517.0 3.0 365.0 
256.0002111449745 98619.0 NaN 1528.555778223112 1.8145124893134152 517.0 1.0 366.0 
258.0003374459614 98596.0 NaN 1528.427521710088 1.810531349770046 516.0 1.0 366.0 
260.0003374459614 98574.0 NaN 1528.4782899131608 1.724386401100069 516.0 2.0 365.0 
262.0003374459614 98564.0 NaN 1525.4348697394794 1.8428914500364406 517.0 3.0 363.0 
264.0003374459614 98542.0 NaN 1531.6098864395453 1.8233371111650798 516.0 3.0 365.0 
266.0003374459614 98524.0 NaN 1531.4762859051452 1.762392885865156 516.0 2.0 366.0 
268.0003374459614 98482.0 NaN 1531.4816299265183 1.825757621116663 514.0 4.0 364.0 
270.0003374459614 98471.0 NaN 1528.5050100200392 1.8246945088364936 514.0 4.0 363.0 
272.0003374459614 98449.0 NaN 1534.5277221108886 1.791618907639906 515.0 3.0 366.0 
274.0003374459614 98418.0 NaN 1531.524382097527 1.801674705854228 515.0 3.0 365.0 
276.0002111449745 98369.0 NaN 1534.5784903139615 1.8642100324510638 516.0 1.0 368.0 
278.0003374459614 98333.0 NaN 1540.9084836339364 1.774760226002245 510.0 6.0 365.0 
280.0003374459614 98296.0 NaN 1537.814295257182 1.7956964006341152 509.0 8.0 362.0 
282.0003374459614 98276.0 NaN 1537.6032064128271 1.865681864389027 509.0 8.0 362.0 
284.0003374459614 98234.0 NaN 1537.7501670006666 1.7569707880538368 510.0 7.0 363.0 
286.0003374459614 98208.0 NaN 1537.7100868403456 1.8286468987297624 512.0 5.0 365.0 
288.0003374459614 98193.0 NaN 1534.511690046761 1.866622647896226 513.0 2.0 367.0 
290.0002111449745 98151.0 NaN 1534.6693386773545 1.7746167208481582 512.0 2.0 367.0 
292.0003374459614 98112.0 NaN 1531.5778223112907 1.8021112465213585 514.0 0.0 368.0 
294.0003374459614 98070.0 NaN 1531.5965263861065 1.8405996744838324 515.0 0.0 368.0 
296.0003374459614 98024.0 NaN 1531.6232464929844 1.7657285284611433 509.0 2.0 366.0 
298.0003374459614 97985.0 NaN 1531.6686706746818 1.777851254470682 506.0 6.0 362.0 
300.0003374459614 97987.0 NaN 1534.6639946559794 1.8460195723082586 506.0 6.0 363.0 
302.0003374459614 97944.0 NaN 1531.660654642618 1.770883060567193 500.0 10.0 358.0 
304.0002111449745 97923.0 NaN 1534.7682030728113 1.7893521079452241 506.0 4.0 365.0 
306.0003374459614 97879.0 NaN 1531.7301269205088 1.8426882166099587 507.0 2.0 366.0 
308.0003374459614 97844.0 NaN 1531.5911823647275 1.7506252215474698 506.0 2.0 366.0 
310.0003374459614 97848.0 NaN 1531.6419505678 1.800773795799736 506.0 2.0 366.0 
312.0003374459614 97831.0 NaN 1534.6158984635933 1.8474008554804175 505.0 5.0 364.0 
314.0003374459614 97788.0 NaN 1534.5945223780907 1.7734715319336352 503.0 6.0 363.0 
316.0003374459614 97737.0 NaN 1537.7047428189724 1.8215664930393498 502.0 6.0 364.0 
318.0003374459614 97711.0 NaN 1534.7414829659301 1.8525573401745015 505.0 2.0 367.0 
320.0003374459614 97676.0 NaN 1534.7815631262542 1.7771659215430495 504.0 3.0 366.0 
322.0003374459614 97636.0 NaN 1534.794923179691 1.8108666127936945 506.0 2.0 367.0 
324.0003374459614 97609.0 NaN 1534.7655310621246 1.8635958721052903 502.0 5.0 364.0 
326.0003374459614 97558.0 NaN 1534.6372745490999 1.7967443031994015 505.0 5.0 364.0 
328.0003374459614 97532.0 NaN 1534.5170340681366 1.809916888307977 506.0 5.0 364.0 
330.0003374459614 97499.0 NaN 1531.5938543754182 1.8520995775881643 502.0 5.0 363.0 
332.0003374459614 97438.0 NaN 1531.6927187708748 1.8085168607886313 502.0 5.0 363.0 
334.0003374459614 97381.0 NaN 1528.5958583834338 1.8207398078235904 503.0 4.0 363.0 
336.0003374459614 97351.0 NaN 1528.537074148297 1.8713635920414384 504.0 5.0 362.0 
338.0003374459614 97294.0 NaN 1528.4943219772883 1.8034719660620098 503.0 6.0 361.0 
340.0003374459614 97245.0 NaN 1531.5991983967936 1.8101949636926584 504.0 4.0 364.0 
342.0003374459614 97194.0 NaN 1525.402805611221 1.8595007704965432 502.0 6.0 360.0 
344.0003374459614 97156.0 NaN 1525.456245824982 1.813051445958705 503.0 6.0 360.0 
346.0003374459614 97115.0 NaN 1525.5230460921846 1.8519741803194998 503.0 5.0 361.0 
348.0002111449745 97072.0 NaN 1528.4969939879754 1.8201446449599217 504.0 5.0 362.0 
350.0003374459614 97052.0 NaN 1525.448229792918 1.810373402138151 503.0 5.0 361.0 
352.0003374459614 97015.0 NaN 1525.4375417501667 1.858072690103196 502.0 6.0 360.0 
354.0003374459614 96970.0 NaN 1519.3213092852363 1.8327408657058248 508.0 4.0 360.0 
356.0003374459614 96935.0 NaN 1519.3132932531726 1.7916508684612618 507.0 4.0 360.0 
358.0003374459614 96923.0 NaN 1519.142284569137 1.8328340166699355 506.0 6.0 358.0 
360.0003374459614 96903.0 NaN 1522.332665330663 1.8185067465436537 503.0 9.0 356.0 
362.0003374459614 96869.0 NaN 1522.3166332665337 1.7682601982441455 503.0 9.0 356.0 
364.0003374459614 96824.0 NaN 1522.4181696726794 1.8281148286264388 503.0 8.0 357.0 
366.0003374459614 96795.0 NaN 1522.3754175016702 1.8420827896265515 506.0 7.0 358.0 
368.0003374459614 96794.0 NaN 1522.3112892451568 1.769800788769667 511.0 3.0 362.0 
370.0003374459614 96754.0 NaN 1519.2251169004667 1.8422063300115588 511.0 3.0 361.0 
372.0003374459614 96726.0 NaN 1522.076152304609 1.8703830271826694 511.0 3.0 362.0 
374.0002111449745 96697.0 NaN 1522.1723446893795 1.7811895125287027 511.0 3.0 362.0 
376.0003374459614 96686.0 NaN 1525.1890447561796 1.8492555705166613 512.0 3.0 363.0 
378.0003374459614 96687.0 NaN 1512.7909151636613 1.858848043731749 512.0 3.0 359.0 
380.0003374459614 96665.0 NaN 1509.8650634602545 1.8184276767038523 513.0 3.0 358.0 
382.0003374459614 96637.0 NaN 1509.9879759519029 1.819340460567896 512.0 4.0 357.0 
384.0003374459614 96597.0 NaN 1509.9959919839669 1.8605036314584067 515.0 5.0 356.0 
386.0003374459614 96547.0 NaN 1506.9819639278546 1.8310600543560884 514.0 4.0 356.0 
388.0002111449745 96524.0 NaN 1510.0601202404816 1.845269357863286 513.0 3.0 358.0 
390.0003374459614 96499.0 NaN 1509.9104876419515 1.8603554435854206 513.0 3.0 358.0 
392.0003374459614 96469.0 NaN 1509.8623914495647 1.8005553408258488 514.0 5.0 356.0 
394.0003374459614 96424.0 NaN 1513.0020040080174 1.8783728598025842 514.0 6.0 356.0 
396.0003374459614 96356.0 NaN 1516.104208416834 1.8102654230730064 517.0 5.0 358.0 
398.0003374459614 96307.0 NaN 1513.047428189712 1.7677727735986035 514.0 6.0 356.0 
400.0003374459614 96271.0 NaN 1516.2164328657304 1.8269649722822703 516.0 4.0 359.0 
402.0002111449745 96245.0 NaN 1522.3513694054789 1.7913004101524908 517.0 4.0 361.0 
404.0003374459614 96193.0 NaN 1519.3319973279904 1.7278954480037247 517.0 4.0 360.0 
406.0003374459614 96129.0 NaN 1516.2084168336667 1.8442065797220168 515.0 5.0 358.0 
408.0003374459614 96114.0 NaN 1519.3239812959268 1.816920476330274 518.0 4.0 360.0 
410.0003374459614 96113.0 NaN 1516.1389445557786 1.7278323301430867 517.0 4.0 359.0 
412.0003374459614 96100.0 NaN 1519.2518370073478 1.850750367019194 518.0 4.0 360.0 
414.0003374459614 96087.0 NaN 1522.4342017368085 1.8561571460974433 518.0 6.0 359.0 
416.0002111449745 96086.0 NaN 1519.142284569137 1.7766556979286996 517.0 6.0 358.0 
418.0003374459614 96086.0 NaN 1519.209084836339 1.8431398542980304 518.0 5.0 359.0 
420.0003374459614 96086.0 NaN 1516.1336005344006 1.915260164014339 519.0 5.0 358.0 
422.0003374459614 96090.0 NaN 1516.2030728122909 1.7940047117543299 516.0 4.0 359.0 
424.0003374459614 96083.0 NaN 1510.030728122912 1.851451215463575 515.0 4.0 357.0 
426.0003374459614 96027.0 NaN 1503.9198396793577 1.9347531127906532 513.0 6.0 353.0 
428.0003374459614 96011.0 NaN 1513.0394121576478 1.8204468200748158 517.0 4.0 358.0 
430.0003374459614 95972.0 NaN 1516.0213760855036 1.8083477465061257 520.0 3.0 360.0 
432.0003374459614 95934.0 NaN 1516.1255845023372 1.924221337606901 520.0 3.0 360.0 
434.0003374459614 95912.0 NaN 1531.4789579158307 1.8165743208444134 521.0 6.0 362.0 
436.0002111449745 95859.0 NaN 1522.2872411489636 1.7951336077993083 519.0 6.0 359.0 
438.0003374459614 95810.0 NaN 1519.1636606546433 1.8874153063557157 518.0 7.0 357.0 
440.0003374459614 95796.0 NaN 1522.2952571810279 1.8628940417744182 524.0 4.0 361.0 
442.0003374459614 95768.0 NaN 1531.5885103540425 1.8109443522110351 523.0 5.0 363.0 
444.0003374459614 95718.0 NaN 1537.5818303273209 1.8479694300430156 526.0 4.0 366.0 
446.0003374459614 95706.0 NaN 1534.6025384101545 1.8360829672865033 526.0 3.0 366.0 
448.0003374459614 95672.0 NaN 1534.5303941215757 1.8129817676163866 528.0 2.0 367.0 
450.0002111449745 95687.0 NaN 1531.6499665998663 1.8487633513139405 527.0 3.0 365.0 
452.0003374459614 95654.0 NaN 1531.6018704074818 1.8567040060961355 525.0 3.0 365.0 
454.0003374459614 95654.0 NaN 1537.6486305945211 1.8505765045786877 523.0 6.0 364.0 
456.0003374459614 95644.0 NaN 1543.9465597862388 1.8282335360051707 522.0 7.0 365.0 
458.0003374459614 95634.0 NaN 1537.7341349365392 1.8115679518627341 521.0 7.0 363.0 
460.0003374459614 95618.0 NaN 1540.7401469605884 1.8432552626662784 519.0 8.0 363.0 
462.0003374459614 95607.0 NaN 1537.6833667334663 1.8168605224958196 522.0 6.0 364.0 
464.0002111449745 95570.0 NaN 1534.722778891116 1.7786353174336438 523.0 3.0 366.0 
466.0003374459614 95548.0 NaN 1537.8089512358063 1.8623704955731937 524.0 2.0 368.0 
468.0003374459614 95557.0 NaN 1534.672010688043 1.827031969328298 526.0 1.0 368.0 
470.0003374459614 95529.0 NaN 1531.4843019372086 1.7672829629330615 525.0 2.0 366.0 
472.0003374459614 95491.0 NaN 1531.380093520373 1.8247998471759468 522.0 2.0 366.0 
474.0003374459614 95493.0 NaN 1528.4141616566453 1.8190032246477916 520.0 4.0 363.0 
476.0003374459614 95495.0 NaN 1528.3340013360062 1.7652211957683204 518.0 4.0 363.0 
478.0002111449745 95488.0 NaN 1525.2424849699391 1.8262702318503548 516.0 4.0 362.0 
480.0003374459614 95519.0 NaN 1522.3353373413483 1.8484654483381284 520.0 2.0 363.0 
482.0003374459614 95514.0 NaN 1522.2952571810279 1.7640079708348408 519.0 2.0 363.0 
484.0003374459614 95529.0 NaN 1522.1536406145638 1.798203678237833 518.0 2.0 363.0 
486.0003374459614 95532.0 NaN 1509.7982631930536 1.8424114822293214 515.0 4.0 357.0 
488.0003374459614 95529.0 NaN 1506.8029392117555 1.7450131790365666 516.0 3.0 357.0 
490.0003374459614 95562.0 NaN 1500.8443553774205 1.7986378801388245 516.0 0.0 358.0 
492.0003374459614 95552.0 NaN 1497.744822979291 1.8380735382354478 516.0 1.0 356.0 
494.0003374459614 95565.0 NaN 1497.899799599199 1.7535686503090895 514.0 2.0 355.0 
496.0003374459614 95568.0 NaN 1494.7067468269881 1.773662690704905 514.0 2.0 354.0 
498.0002111449745 95562.0 NaN 1491.6579826319296 1.8222483360877415 516.0 2.0 353.0 
500.0003374459614 95571.0 NaN 1485.536406145625 1.743654818712752 508.0 5.0 348.0 
502.0003374459614 95565.0 NaN 1482.3861055444213 1.771606491244963 509.0 4.0 348.0 
504.0003374459614 95582.0 NaN 1479.2651970607888 1.7963357279234171 512.0 3.0 348.0 
506.0003374459614 95591.0 NaN 1479.305277221109 1.7735091500856504 510.0 4.0 347.0 
508.0003374459614 95583.0 NaN 1482.4876419505665 1.7635138851951233 509.0 3.0 349.0 
510.0003374459614 95587.0 NaN 1488.5397461589837 1.8284405231211123 508.0 6.0 348.0 
512.0003374459613 95580.0 NaN 1485.4989979959912 1.7796027344551264 510.0 4.0 349.0 
514.0003374459613 95563.0 NaN 1485.5150300601194 1.7809786944673611 502.0 7.0 346.0 
516.0003374459613 95536.0 NaN 1488.6786907147634 1.8047873319444157 509.0 4.0 350.0 
518.0002111449744 95540.0 NaN 1485.5283901135613 1.7320957822959235 510.0 3.0 350.0 
520.0003374459613 95583.0 NaN 1479.3587174348706 1.7922721690094423 509.0 3.0 348.0 
522.0003374459613 95605.0 NaN 1473.2692050768192 1.799232702053385 509.0 4.0 345.0 
524.0003374459613 95607.0 NaN 1466.9953239812971 1.770932804366656 510.0 3.0 344.0 
526.0003374459613 95574.0 NaN 1460.8149632598538 1.7909338934704613 505.0 5.0 340.0 
528.0003374459613 95580.0 NaN 1470.196392785572 1.8478701643745195 508.0 5.0 343.0 
530.0003374459613 95640.0 NaN 1470.2070808283243 1.756242675210885 510.0 3.0 345.0 
532.0003374459613 95648.0 NaN 1463.9839679358722 1.8139413315445618 505.0 4.0 342.0 
534.0003374459613 95643.0 NaN 1470.0948563794261 1.861588497384636 510.0 4.0 344.0 
536.0003374459613 95631.0 NaN 1470.1456245824988 1.7383369347919435 510.0 6.0 342.0 
538.0003374459613 95630.0 NaN 1470.0093520374087 1.7877483094129905 508.0 5.0 343.0 
540.0003374459613 95654.0 NaN 1466.9926519706084 1.8393748754727914 514.0 2.0 345.0 
542.0003374459613 95697.0 NaN 1467.0006680026725 1.8016535825832218 514.0 1.0 346.0 
544.0003374459613 95714.0 NaN 1470.1776887107544 1.8141185741598047 512.0 2.0 346.0 
546.0003374459613 95675.0 NaN 1467.1209084836346 1.8331710881806422 515.0 0.0 347.0 
548.0003374459613 95663.0 NaN 1466.9472277889101 1.76991249976788 515.0 0.0 347.0 
550.0003374459613 95703.0 NaN 1473.116900467601 1.7586422889461018 513.0 4.0 345.0 
552.0003374459613 95728.0 NaN 1470.0467601870396 1.8164647309496118 510.0 6.0 342.0 
554.0003374459613 95736.0 NaN 1470.0654642618565 1.7674369428407948 511.0 7.0 341.0 
556.0003374459613 95746.0 NaN 1463.9305277221101 1.755730190409879 508.0 10.0 336.0 
558.0003374459613 95761.0 NaN 1466.9418837675357 1.7690722881075145 511.0 6.0 341.0 
560.0003374459613 95802.0 NaN 1466.8537074148292 1.7704386520359665 510.0 4.0 343.0 
562.0003374459613 95904.0 NaN 1470.0013360053447 1.7924114331107046 514.0 1.0 347.0 
564.0003374459613 95912.0 NaN 1470.1482965931853 1.789916320048295 511.0 3.0 345.0 
566.0003374459613 95936.0 NaN 1467.1048764195061 1.7557389815411224 509.0 5.0 342.0 
568.0002111449744 95965.0 NaN 1470.0708082832336 1.7666363603061572 512.0 1.0 347.0 
570.0003374459613 95998.0 NaN 1473.2611890447556 1.78000519343766 514.0 2.0 347.0 
572.0003374459613 96021.0 NaN 1482.3727454909817 1.74477182704581 516.0 0.0 352.0 
574.0003374459613 96018.0 NaN 1488.5076820307277 1.7936722187564291 515.0 2.0 352.0 
576.0003374459613 96038.0 NaN 1488.5798263193062 1.7918380967164298 517.0 1.0 353.0 
578.0003374459613 96096.0 NaN 1482.5384101536395 1.7499226377427164 517.0 1.0 351.0 
580.0003374459613 96119.0 NaN 1485.6165664662647 1.8321024457627377 517.0 2.0 351.0 
582.0003374459613 96162.0 NaN 1488.6599866399454 1.8145980563216617 518.0 1.0 353.0 
584.0003374459613 96170.0 NaN 1485.4615898463605 1.7661227350733395 519.0 2.0 351.0 
586.0003374459613 96183.0 NaN 1485.4295257181018 1.834094775462582 519.0 3.0 350.0 
588.0003374459613 96223.0 NaN 1485.4856379425528 1.82980081263644 515.0 5.0 348.0 
590.0003374459613 96218.0 NaN 1491.6793587174354 1.7928529201421537 513.0 6.0 349.0 
592.0003374459613 96167.0 NaN 1494.607882431529 1.8544463360655012 513.0 7.0 349.0 
594.0002111449744 96160.0 NaN 1488.5183700734808 1.8784119274374793 514.0 6.0 348.0 
596.0003374459613 96126.0 NaN 1488.4782899131603 1.7962061843888224 512.0 6.0 348.0 
598.0003374459613 96136.0 NaN 1485.456245824983 1.8075494423347584 511.0 8.0 345.0 
600.0003374459613 96132.0 NaN 1488.4622578490305 1.8811831434603863 516.0 4.0 350.0 
602.0003374459613 96089.0 NaN 1497.7287909151637 1.8020637635466645 518.0 3.0 354.0 
604.0003374459613 96062.0 NaN 1494.5811623246484 1.818508207881493 515.0 3.0 353.0 
606.0003374459613 96028.0 NaN 1494.5624582498333 1.8694250757336 518.0 7.0 349.0 
608.0003374459613 96042.0 NaN 1497.7020708082828 1.8033433219937183 517.0 7.0 350.0 
610.0003374459613 96047.0 NaN 1494.5036740146968 1.8170214872770716 517.0 6.0 350.0 
612.0003374459613 96036.0 NaN 1494.5143620574472 1.8491388064076855 516.0 5.0 351.0 
614.0003374459613 96028.0 NaN 1497.7528390113555 1.8106638380249933 516.0 6.0 351.0 
616.0003374459613 96025.0 NaN 1506.9979959919829 1.8262402128484032 514.0 7.0 353.0 
618.0003374459613 96039.0 NaN 1510.054776219106 1.8459386187119131 516.0 7.0 354.0 
620.0003374459613 95978.0 NaN 1510.0334001335998 1.7899326332427588 521.0 4.0 357.0 
622.0003374459613 95992.0 NaN 1510.097528390112 1.7915676712805428 522.0 2.0 359.0 
624.0003374459613 95988.0 NaN 1516.1656646626575 1.793253605298168 523.0 3.0 360.0 
626.0003374459613 95982.0 NaN 1519.147628590515 1.7930053007216822 517.0 7.0 357.0 
628.0003374459613 95997.0 NaN 1519.2972611890455 1.8062902244941477 516.0 8.0 356.0 
630.0003374459613 95989.0 NaN 1525.536406145625 1.817066883140665 517.0 8.0 358.0 
632.0002111449744 95971.0 NaN 1525.4776219104886 1.7724868847180413 514.0 8.0 358.0 
634.0003374459613 95956.0 NaN 1525.4455577822303 1.8383622926810603 517.0 6.0 360.0 
636.0003374459613 95926.0 NaN 1519.3319973279902 1.8319593570899024 518.0 9.0 355.0 
638.0003374459613 95920.0 NaN 1519.1289245156993 1.7567520808197896 519.0 8.0 356.0 
640.0003374459613 95920.0 NaN 1519.1663326653302 1.8395753226089397 518.0 9.0 355.0 
642.0003374459613 95928.0 NaN 1519.3747494989993 1.862964088840258 520.0 11.0 353.0 
644.0003374459613 95927.0 NaN 1522.3700734802933 1.7648837543547484 519.0 10.0 355.0 
646.0003374459613 95920.0 NaN 1522.3727454909817 1.8515144042016105 519.0 10.0 355.0 
648.0003374459613 95940.0 NaN 1522.2899131596537 1.858828775637906 516.0 13.0 352.0 
650.0003374459613 95942.0 NaN 1519.356045424182 1.7872403496526994 518.0 10.0 354.0 
652.0002111449744 95945.0 NaN 1519.4415497662 1.8394446675171396 522.0 5.0 359.0 
654.0003374459613 95921.0 NaN 1513.2157648630605 1.9244154659030948 521.0 5.0 357.0 
656.0003374459613 95948.0 NaN 1525.6406145624576 1.820408293168217 520.0 4.0 362.0 
658.0003374459613 95971.0 NaN 1528.6332665330654 1.8181254615577098 516.0 5.0 362.0 
660.0003374459613 95977.0 NaN 1528.7080828323303 1.8847897220266616 513.0 7.0 360.0 
662.0003374459613 95943.0 NaN 1534.8697394789576 1.8412868493064296 514.0 6.0 363.0 
664.0003374459613 95915.0 NaN 1534.6452905811627 1.8269705954121729 511.0 6.0 363.0 
#####################################################################
# End of data export. Simulation finished at: 2019-03-18T21:03+0000 #
#####################################################################
