#####################################################################
# Alchemist log file - simulation started at: 2019-03-09T09:52+0000 #
#####################################################################
# seed = 2.0, bandwidth = 316227.76601683797, propagationDelay = 3.1622776601683795, baserange = 17.78279410038923
#
# The columns have the following meaning: 
# time neighbor_count[Sum] <value>@neighbor_count[Sum] packet_size[Mean] mean_delay[Mean] crowd[Sum] overcrowded[Sum] risk[Sum] 
0.0 NaN NaN NaN NaN NaN NaN NaN 
2.0005829790527505 NaN NaN 4988.0 NaN 1497.0 0.0 1497.0 
4.000034949958109 389.0 NaN 4988.5824983299935 0.24389176787817984 1497.0 0.0 1497.0 
6.0005829790527505 1118.0 NaN 4994.736138944556 1.822173815603087 1497.0 0.0 1497.0 
8.000009651736827 1118.0 NaN 4993.539078156313 2.463546326724666 1497.0 0.0 1497.0 
10.000582979052751 1118.0 NaN 4992.822979291917 1.8351046599873717 1497.0 0.0 1497.0 
12.000009651736828 1117.0 NaN 4991.823647294589 2.476138629527035 1496.0 1.0 1496.0 
14.000582979052751 1120.0 NaN 4992.002672010688 1.8355332990657347 1496.0 1.0 1496.0 
16.00000965173683 1118.0 NaN 4991.404141616566 2.4801910198201167 1495.0 2.0 1495.0 
18.00058297905275 1117.0 NaN 4991.297261189045 1.8258870265820855 1491.0 6.0 1491.0 
20.00000965173683 1116.0 NaN 4990.995323981296 2.475408207114545 1490.0 7.0 1490.0 
22.00058297905275 1116.0 NaN 4991.473613894455 1.8265784750081817 1490.0 7.0 1490.0 
24.00000965173683 1117.0 NaN 4991.489645958583 2.480599917781289 1490.0 7.0 1490.0 
26.00058297905275 1118.0 NaN 4990.979291917168 1.8491438649572767 1490.0 7.0 1490.0 
28.00000965173683 1118.0 NaN 4990.821643286573 2.4801880568730543 1490.0 7.0 1490.0 
30.00058297905275 1122.0 NaN 4991.3640614562455 1.8306928381473229 1490.0 7.0 1490.0 
32.000009651736825 1120.0 NaN 4991.3213092852375 2.4707390291535622 1490.0 7.0 1490.0 
34.00058297905275 1122.0 NaN 4991.000668002672 1.8477563060344366 1490.0 7.0 1490.0 
36.00000965173683 1118.0 NaN 4990.96325985304 2.466332125287968 1490.0 7.0 1490.0 
38.00058297905275 1119.0 NaN 4991.11289245157 1.8268393998445176 1490.0 7.0 1490.0 
40.00000965173683 1123.0 NaN 4991.016700066801 2.4776775225971925 1490.0 7.0 1490.0 
42.00058297905275 1129.0 NaN 4990.98997995992 1.8624663957224363 1490.0 7.0 1490.0 
44.00000965173683 1131.0 NaN 4990.936539746159 2.4831736748945192 1490.0 7.0 1490.0 
46.00058297905275 1135.0 NaN 4991.179692718771 1.8450509997329059 1490.0 7.0 1490.0 
48.00000965173683 1138.0 NaN 4991.3667334669335 2.4578394974081714 1490.0 7.0 1490.0 
50.00058297905275 1144.0 NaN 4990.864395457582 1.8369050253352317 1490.0 7.0 1490.0 
52.00000965173683 1147.0 NaN 4990.685370741483 2.47178959076711 1490.0 7.0 1490.0 
54.00058297905275 1164.0 NaN 4991.396125584502 1.8917595660570112 1490.0 7.0 1490.0 
56.00000965173683 1154.0 NaN 4991.382765531062 2.475889644090057 1490.0 7.0 1490.0 
58.00058297905275 1156.0 NaN 4991.016700066801 1.8644793958421562 1490.0 7.0 1490.0 
60.00000965173683 1147.0 NaN 4991.08617234469 2.4781912847418672 1490.0 7.0 1490.0 
62.00058297905275 1147.0 NaN 971.4014696058803 1.8747299049099324 487.0 6.0 180.0 
64.00033953125316 1143.0 NaN 977.7100868403454 2.4713281800139186 487.0 6.0 182.0 
66.00058297905275 1148.0 NaN 983.6392785571168 1.9274560334618096 486.0 6.0 184.0 
68.00033953125318 1134.0 NaN 983.6259185036728 2.4598858312217122 480.0 6.0 184.0 
70.00058297905275 1139.0 NaN 983.5804943219806 1.8840850849074307 470.0 6.0 184.0 
72.00033953125318 1135.0 NaN 983.5430861723456 2.4582625551146906 446.0 6.0 184.0 
74.00058297905275 1141.0 NaN 983.6526386105545 1.9108802885436746 408.0 6.0 184.0 
76.00033953125318 1121.0 NaN 980.6012024048089 2.457180739833087 397.0 6.0 183.0 
78.00058297905275 1116.0 NaN 980.496993987974 1.8392979427649205 373.0 6.0 183.0 
80.00033953125318 1116.0 NaN 980.5317301269196 2.4328628502501415 365.0 6.0 183.0 
82.00058297905275 1120.0 NaN 980.5130260521014 1.8728144018215915 354.0 6.0 183.0 
84.00033953125318 1118.0 NaN 983.5537742150988 2.4426402943822323 348.0 6.0 184.0 
86.00058297905275 1125.0 NaN 986.6399465597831 1.8820416643047975 337.0 6.0 185.0 
88.00033953125318 1118.0 NaN 986.7040748163001 2.4555235490827387 333.0 6.0 185.0 
90.00058297905275 1122.0 NaN 986.5891783567104 1.882646430080607 332.0 6.0 185.0 
92.00033953125318 1116.0 NaN 983.5751503006 2.459321184472403 329.0 6.0 184.0 
94.00058297905275 1121.0 NaN 986.621242484971 1.8992357937383215 327.0 6.0 185.0 
96.00033953125318 1114.0 NaN 986.7014028056088 2.4850310594390645 326.0 6.0 185.0 
98.00058297905275 1121.0 NaN 986.6800267201094 1.8891573707475797 319.0 6.0 185.0 
100.00033953125318 1112.0 NaN 986.6506346025361 2.4504630592860144 315.0 6.0 185.0 
102.00058297905275 1114.0 NaN 989.6967267869093 1.885769824054228 310.0 6.0 186.0 
104.00033953125318 1102.0 NaN 989.7020708082816 2.446980223966369 305.0 6.0 186.0 
106.00058297905275 1102.0 NaN 989.7341349365383 1.865877394460173 299.0 6.0 186.0 
108.00033953125318 1107.0 NaN 992.8577154308638 2.4265990569119342 298.0 6.0 187.0 
110.00058297905275 1120.0 NaN 992.8229792919184 1.8715738608575898 298.0 6.0 187.0 
112.00033953125318 1116.0 NaN 992.830995323982 2.4574714172283305 297.0 6.0 187.0 
114.00058297905275 1119.0 NaN 1002.0280561122261 1.9118421786246589 297.0 6.0 190.0 
116.00033953125318 1107.0 NaN 995.8770875083469 2.449370755165593 292.0 6.0 188.0 
118.00058297905275 1117.0 NaN 998.9605878423532 1.9140324371595228 291.0 6.0 189.0 
120.00033953125318 1101.0 NaN 986.7094188376747 2.4695022266716307 286.0 6.0 185.0 
122.00058297905275 1104.0 NaN 989.7448229792907 1.8988210252388296 283.0 6.0 186.0 
124.00033953125318 1095.0 NaN 986.7468269873094 2.462748124446907 282.0 6.0 185.0 
126.00058297905275 1101.0 NaN 986.7548430193729 1.8459079201616155 281.0 6.0 185.0 
128.00033953125316 1108.0 NaN 986.7548430193729 2.4482089505600424 279.0 6.0 185.0 
130.00058297905275 1125.0 NaN 986.7040748163001 1.8815976014706868 281.0 6.0 185.0 
132.00033953125313 1121.0 NaN 980.5237140948545 2.4739890347634943 281.0 6.0 183.0 
134.00058297905275 1133.0 NaN 983.5778223112909 1.8908641728860065 279.0 6.0 184.0 
136.00033953125313 1118.0 NaN 992.8176352705428 2.4788441857298458 277.0 6.0 187.0 
138.00058297905275 1123.0 NaN 992.7989311957248 1.885417655020302 278.0 6.0 187.0 
140.00033953125313 1126.0 NaN 995.8984635938546 2.4625910280356518 280.0 6.0 188.0 
142.00058297905275 1136.0 NaN 995.906479625918 1.8925743242636028 281.0 6.0 188.0 
144.00033953125313 1135.0 NaN 999.0247160988635 2.4545474017639157 281.0 6.0 189.0 
146.00058297905275 1149.0 NaN 1002.0360721442887 1.8917567436031772 282.0 6.0 190.0 
148.00033953125313 1143.0 NaN 989.8223112892456 2.4616977567645835 283.0 6.0 186.0 
150.00058297905275 1146.0 NaN 992.793587174348 1.8792714291167991 283.0 6.0 187.0 
152.00033953125313 1143.0 NaN 986.6853707414816 2.452338131651875 284.0 6.0 185.0 
154.00058297905275 1158.0 NaN 986.6987307949246 1.904584941368364 285.0 6.0 185.0 
156.00033953125313 1147.0 NaN 980.5798263193062 2.4580676207242127 285.0 6.0 183.0 
158.00058297905275 1159.0 NaN 983.6793587174363 1.908465562847373 285.0 6.0 184.0 
160.00033953125313 1153.0 NaN 986.7975951903821 2.464363549363734 281.0 6.0 185.0 
162.00058297905275 1164.0 NaN 986.7414829659335 1.8850670735780604 283.0 6.0 185.0 
164.00033953125313 1159.0 NaN 986.6800267201093 2.501749913445932 284.0 6.0 185.0 
166.00058297905275 1171.0 NaN 989.750167000666 1.9301720481060773 283.0 6.0 186.0 
168.00033953125313 1152.0 NaN 983.6152304609204 2.5030902592480824 283.0 6.0 184.0 
170.00058297905275 1153.0 NaN 986.6533066132275 1.910776676613108 282.0 6.0 185.0 
172.00033953125313 1142.0 NaN 992.8737474949911 2.4874468600632187 281.0 6.0 187.0 
174.00058297905275 1147.0 NaN 995.9011356045435 1.9055227900540754 282.0 6.0 188.0 
176.00033953125313 1138.0 NaN 992.8630594522365 2.4969940063892944 282.0 6.0 187.0 
178.00058297905275 1145.0 NaN 995.8957915831656 1.8954521408938028 281.0 6.0 188.0 
180.00033953125313 1137.0 NaN 986.7521710086819 2.476949093157362 278.0 6.0 185.0 
182.00058297905275 1142.0 NaN 986.680026720109 1.9081995060971877 279.0 6.0 185.0 
184.00033953125313 1133.0 NaN 971.3346693386786 2.501002260746128 280.0 6.0 180.0 
186.00058297905275 1141.0 NaN 968.261857047427 1.934808042611661 279.0 6.0 179.0 
188.00033953125313 1132.0 NaN 968.2351369405455 2.481756513283393 279.0 6.0 179.0 
190.00058297905275 1142.0 NaN 968.200400801603 1.9055885339607614 279.0 6.0 179.0 
192.00033953125313 1131.0 NaN 968.243152972612 2.4694634897989434 280.0 6.0 179.0 
194.00058297905275 1140.0 NaN 974.3433533734121 1.9045703333729702 280.0 6.0 181.0 
196.00033953125313 1135.0 NaN 974.3032732130911 2.4838514251165345 279.0 6.0 181.0 
198.00058297905275 1149.0 NaN 974.3593854375425 1.9039509967358734 280.0 6.0 181.0 
200.00033953125313 1140.0 NaN 974.4128256513026 2.4654276505878467 281.0 6.0 181.0 
202.00058297905275 1148.0 NaN 977.4642618570456 1.8903001918903761 283.0 6.0 182.0 
204.00033953125313 1150.0 NaN 980.5076820307271 2.4424644093369325 282.0 6.0 183.0 
206.00058297905275 1158.0 NaN 980.5210420841701 1.8877494218335382 281.0 6.0 183.0 
208.00033953125313 1150.0 NaN 977.4188376753518 2.4906132382193613 279.0 6.0 182.0 
210.00058297905275 1160.0 NaN 980.5878423513706 1.9528861631399441 278.0 6.0 183.0 
212.00033953125313 1148.0 NaN 977.4802939211752 2.519577978885978 276.0 6.0 182.0 
214.00058297905275 1146.0 NaN 977.4348697394795 1.9059729530243323 274.0 6.0 182.0 
216.00033953125313 1140.0 NaN 977.4615898463609 2.4667087661336358 273.0 7.0 181.0 
218.00058297905275 1144.0 NaN 977.4642618570456 1.8664115305386462 271.0 7.0 181.0 
220.00033953125313 1140.0 NaN 971.275885103539 2.4516927269351805 273.0 6.0 180.0 
222.00058297905275 1152.0 NaN 971.2945891783545 1.9059690134128904 271.0 11.0 175.0 
224.00033953125313 1149.0 NaN 974.3647294589183 2.4943103237983726 269.0 11.0 176.0 
226.00058297905275 1160.0 NaN 974.3807615230454 1.9589548768465874 276.0 6.0 181.0 
228.00033953125313 1144.0 NaN 962.0975283901122 2.494322891782945 274.0 6.0 177.0 
230.00058297905275 1158.0 NaN 968.2431529726117 1.9374324007030088 275.0 6.0 179.0 
232.00033953125313 1146.0 NaN 962.0868403473637 2.46601813217928 273.0 6.0 177.0 
234.00058297905275 1153.0 NaN 965.1489645958575 1.8959029639404568 273.0 6.0 178.0 
236.00033953125313 1153.0 NaN 958.9766199064818 2.476813772756338 270.0 6.0 176.0 
238.00058297905275 1168.0 NaN 965.1382765531067 1.9483807859734017 272.0 6.0 178.0 
240.00033953125313 1148.0 NaN 965.1115564462273 2.5142887069684416 269.0 6.0 178.0 
242.00058297905275 1150.0 NaN 971.3106212424839 1.920194764812059 270.0 6.0 180.0 
244.00033953125313 1142.0 NaN 965.1249164996661 2.518539178529966 269.0 6.0 178.0 
246.00058297905275 1142.0 NaN 965.1275885103547 1.920464040836888 270.0 6.0 178.0 
248.00033953125313 1131.0 NaN 962.0895123580483 2.492364727335368 269.0 6.0 177.0 
250.00058297905275 1138.0 NaN 962.0173680694728 1.9170684481032312 267.0 6.0 177.0 
252.00033953125313 1125.0 NaN 955.8610554442213 2.475893788963463 263.0 6.0 175.0 
254.00058297905275 1130.0 NaN 955.8744154976636 1.8859581263629648 261.0 6.0 175.0 
256.00033953125313 1126.0 NaN 955.8343353373425 2.490436750070365 260.0 6.0 175.0 
258.00058297905275 1132.0 NaN 955.906479625918 1.9448000658008426 266.0 6.0 175.0 
260.0003395312532 1123.0 NaN 952.8283233132939 2.495941444159758 267.0 6.0 174.0 
262.00058297905275 1136.0 NaN 958.9739478957908 1.9112783127451123 266.0 6.0 176.0 
264.0003395312532 1123.0 NaN 958.9579158316637 2.486155587018962 266.0 6.0 176.0 
266.00058297905275 1134.0 NaN 961.9986639946546 1.95608130948118 269.0 6.0 177.0 
268.0003395312532 1126.0 NaN 955.8824315297275 2.519634983456712 268.0 6.0 175.0 
270.00058297905275 1124.0 NaN 955.8610554442217 1.9092241937900822 270.0 6.0 175.0 
272.0003395312532 1113.0 NaN 955.9118236472945 2.510370702211658 273.0 6.0 175.0 
274.00058297905275 1119.0 NaN 958.923179692718 1.9181355689239963 277.0 6.0 176.0 
276.0003395312532 1112.0 NaN 958.9098196392786 2.516031331719217 274.0 6.0 176.0 
278.00058297905275 1113.0 NaN 958.9525718102873 1.9043495091019778 274.0 6.0 176.0 
280.0003395312532 1110.0 NaN 971.2438209752819 2.5346034877976544 272.0 6.0 180.0 
282.00058297905275 1116.0 NaN 974.2712090848363 1.9189009586572723 275.0 6.0 181.0 
284.0003395312532 1105.0 NaN 974.2872411489634 2.531680547978808 272.0 6.0 181.0 
286.00058297905275 1102.0 NaN 971.2251169004664 1.9073799119841055 270.0 6.0 180.0 
288.0003395312532 1094.0 NaN 962.0146960587847 2.5357557265340724 267.0 6.0 177.0 
290.00058297905275 1094.0 NaN 962.0387441549759 1.8879096038713468 267.0 6.0 177.0 
292.0003395312532 1089.0 NaN 968.1790247161002 2.5123264659908515 268.0 6.0 179.0 
294.00058297905275 1099.0 NaN 977.3841015364056 1.8472745211482082 271.0 6.0 182.0 
296.0003395312532 1098.0 NaN 974.3246492985969 2.5080058505834417 272.0 6.0 181.0 
298.00058297905275 1109.0 NaN 977.3466933867725 1.860861931475876 273.0 6.0 182.0 
300.0003395312532 1110.0 NaN 971.1850367401454 2.53154497917511 272.0 6.0 180.0 
302.00058297905275 1118.0 NaN 971.2438209752817 1.9235515487073973 274.0 6.0 180.0 
304.0003395312532 1113.0 NaN 962.0093520374093 2.5280825609598976 274.0 6.0 177.0 
306.00058297905275 1120.0 NaN 965.0501002003998 1.9140957919653905 275.0 6.0 178.0 
308.0003395312532 1104.0 NaN 961.9772879091511 2.5010029951187955 275.0 6.0 177.0 
310.00058297905275 1102.0 NaN 958.8911155644635 1.9207783190779615 276.0 6.0 176.0 
312.0003395312532 1091.0 NaN 952.7588510354041 2.48369753329549 277.0 6.0 174.0 
314.00058297905275 1094.0 NaN 958.9098196392778 1.8928943155228686 276.0 6.0 176.0 
316.0003395312532 1090.0 NaN 961.9559118236455 2.4967726024437202 276.0 6.0 177.0 
318.00058297905275 1092.0 NaN 968.109552438209 1.9053253671233479 276.0 6.0 179.0 
320.0003395312532 1087.0 NaN 968.1202404809636 2.460701206433439 276.0 6.0 179.0 
322.00058297905275 1097.0 NaN 968.1549766199055 1.8623953587334805 276.0 6.0 179.0 
324.0003395312532 1099.0 NaN 958.8403473613909 2.4500527782756487 274.0 6.0 176.0 
326.00058297905275 1111.0 NaN 962.0146960587856 1.8886945928219123 277.0 6.0 177.0 
328.0003395312532 1105.0 NaN 952.8042752170999 2.508771274896042 274.0 6.0 174.0 
330.00058297905275 1115.0 NaN 961.9826319305272 1.9597532209499233 276.0 6.0 177.0 
332.0003395312532 1099.0 NaN 961.9799599198404 2.4996835182138812 274.0 6.0 177.0 
334.00058297905275 1102.0 NaN 965.0233800935183 1.8964001332099738 273.0 6.0 178.0 
336.0003395312532 1096.0 NaN 958.9044756179042 2.4504657687150386 276.0 6.0 176.0 
338.00058297905275 1101.0 NaN 958.9178356713413 1.8959449069583338 277.0 6.0 176.0 
340.0003395312532 1094.0 NaN 961.939879759518 2.4713128717999697 277.0 6.0 177.0 
342.00058297905275 1102.0 NaN 962.0146960587857 1.9738247350193652 276.0 6.0 177.0 
344.0003395312532 1089.0 NaN 949.6806947227783 2.4596341191509854 273.0 6.0 173.0 
346.00058297905275 1096.0 NaN 952.7748830995316 1.8969427297180865 272.0 6.0 174.0 
348.0003395312532 1083.0 NaN 949.6272545090183 2.469437225315124 272.0 6.0 173.0 
350.00058297905275 1084.0 NaN 949.6887107548423 1.933494383187584 272.0 6.0 173.0 
352.0003395312532 1077.0 NaN 946.6158984635941 2.4886077601546064 268.0 6.0 172.0 
354.00058297905275 1083.0 NaN 961.950567802272 1.9489738648008916 271.0 6.0 177.0 
356.0003395312532 1067.0 NaN 958.8724114896453 2.4981631586596373 271.0 6.0 176.0 
358.00058297905275 1067.0 NaN 958.859051436205 1.9064291308426886 272.0 6.0 176.0 
360.0003395312532 1061.0 NaN 952.6867067468273 2.4820915802904606 269.0 6.0 174.0 
362.00058297905275 1068.0 NaN 952.7775551102186 1.878123836463255 268.0 6.0 174.0 
364.0003395312532 1074.0 NaN 946.5838343353362 2.484188387793108 266.0 6.0 172.0 
366.00058297905275 1089.0 NaN 952.7615230460915 1.8996012150856951 267.0 6.0 174.0 
368.0003395312532 1082.0 NaN 937.4054776219097 2.512790080282125 267.0 6.0 169.0 
370.00058297905275 1084.0 NaN 937.3734134936548 1.9005346337413656 267.0 6.0 169.0 
372.0003395312532 1078.0 NaN 931.2090848363403 2.4900488168532684 265.0 6.0 167.0 
374.00058297905275 1084.0 NaN 931.1957247829 1.9311926996651856 268.0 6.0 167.0 
376.0003395312532 1061.0 NaN 937.3600534402137 2.455161402920665 268.0 6.0 169.0 
378.00058297905275 1066.0 NaN 937.3680694722774 1.846355711187456 267.0 6.0 169.0 
380.0003395312532 1070.0 NaN 937.392117568469 2.44742762299125 265.0 6.0 169.0 
382.00058297905275 1078.0 NaN 940.454241816968 1.8978815462334584 266.0 6.0 170.0 
384.0003395312532 1074.0 NaN 925.0901803607222 2.4467518611142562 264.0 6.0 165.0 
386.00058297905275 1091.0 NaN 931.3453573814276 1.8933458959156977 266.0 6.0 167.0 
388.0003395312532 1088.0 NaN 928.2672010688046 2.496573070624829 261.0 6.0 166.0 
390.00058297905275 1102.0 NaN 931.3186372745502 1.9729774703645915 262.0 6.0 167.0 
392.0003395312532 1083.0 NaN 925.1649966599863 2.537159637789293 259.0 6.0 165.0 
394.00058297905275 1079.0 NaN 925.17568470274 1.9416268907011334 260.0 6.0 165.0 
396.0003395312532 1064.0 NaN 925.1462925851691 2.481191673349275 259.0 6.0 165.0 
398.00058297905275 1079.0 NaN 931.3667334669324 1.8972514318256102 260.0 6.0 167.0 
400.0003395312532 1072.0 NaN 931.3159652638597 2.4806050960428268 260.0 6.0 167.0 
402.00058297905275 1077.0 NaN 931.3319973279904 1.908367001964196 258.0 6.0 167.0 
404.0003395312532 1079.0 NaN 922.1482965931863 2.4604995717395393 258.0 6.0 164.0 
406.00058297905275 1096.0 NaN 925.2291249165002 1.9315645497422973 257.0 6.0 165.0 
408.0003395312532 1088.0 NaN 915.9519038076143 2.513599981251977 254.0 6.0 162.0 
410.00058297905275 1103.0 NaN 916.0240480961911 1.978804813860583 259.0 6.0 162.0 
412.0003395312532 1085.0 NaN 906.7949231796913 2.4758352620040696 257.0 6.0 159.0 
414.00058297905275 1084.0 NaN 906.7468269873094 1.8928205190482594 256.0 6.0 159.0 
416.0003395312532 1075.0 NaN 903.6900467601863 2.4839576225797177 255.0 6.0 158.0 
418.00058297905275 1089.0 NaN 912.8817635270547 1.9131697538493595 255.0 6.0 161.0 
420.0003395312532 1080.0 NaN 912.8176352705414 2.47561881259687 255.0 6.0 161.0 
422.00058297905275 1081.0 NaN 919.0460921843685 1.90376279882871 254.0 6.0 163.0 
424.0003395312532 1079.0 NaN 918.9792919171679 2.4540485315253178 256.0 6.0 163.0 
426.00058297905275 1083.0 NaN 918.9899799599184 1.8904740299274383 257.0 6.0 163.0 
428.0003395312532 1074.0 NaN 912.8523714094863 2.4570462010922274 257.0 6.0 161.0 
430.00058297905275 1089.0 NaN 915.8931195724774 1.961929504118862 255.0 6.0 162.0 
432.0003395312532 1079.0 NaN 906.7014028056096 2.47897331768217 252.0 6.0 159.0 
434.00058297905275 1083.0 NaN 909.832999331996 1.8868252228290543 252.0 6.0 160.0 
436.0003395312532 1079.0 NaN 906.7361389445558 2.4631909108061087 249.0 6.0 159.0 
438.00058297905275 1092.0 NaN 915.9118236472956 1.8962698665231497 249.0 6.0 162.0 
440.0003395312532 1092.0 NaN 919.0167000667998 2.4804763481698355 248.0 6.0 163.0 
442.00058297905275 1106.0 NaN 919.0220440881774 1.9349534819830034 250.0 6.0 163.0 
444.0003395312532 1096.0 NaN 918.9659318637272 2.5048134963365722 249.0 6.0 163.0 
446.00058297905275 1101.0 NaN 922.1643286573135 1.89351016234418 247.0 6.0 164.0 
448.0003395312532 1095.0 NaN 925.2077488309955 2.514774288557872 248.0 6.0 165.0 
450.00058297905275 1102.0 NaN 928.2752171008683 1.9540621635267734 247.0 6.0 166.0 
452.0003395312532 1088.0 NaN 925.1676686706733 2.5077031198948063 248.0 6.0 165.0 
454.00058297905275 1089.0 NaN 925.1783567134274 1.894787675483075 246.0 6.0 165.0 
456.0003395312532 1078.0 NaN 925.1676686706733 2.468280704987022 246.0 6.0 165.0 
458.00058297905275 1092.0 NaN 928.2645290581178 1.901716707633974 248.0 6.0 166.0 
460.0003395312532 1087.0 NaN 922.0307281229136 2.4938889643358126 245.0 8.0 162.0 
462.00058297905275 1097.0 NaN 922.1055444221773 1.9016955244152172 248.0 7.0 163.0 
464.0003395312532 1091.0 NaN 918.9953239812954 2.5142608880210506 247.0 7.0 162.0 
466.00058297905275 1090.0 NaN 919.0006680026728 1.9345056836984322 244.0 12.0 157.0 
468.0003395312532 1082.0 NaN 915.8877755511008 2.5201328298431727 242.0 13.0 155.0 
470.00058297905275 1091.0 NaN 915.9919839679364 1.920210779121059 241.0 14.0 154.0 
472.0003395312532 1079.0 NaN 919.0327321309278 2.5110952051326314 239.0 15.0 154.0 
474.00058297905275 1080.0 NaN 922.1028724114905 1.9381780571299827 239.0 15.0 155.0 
476.0003395312532 1070.0 NaN 916.0026720106872 2.5372523624679175 238.0 14.0 154.0 
478.00058297905275 1070.0 NaN 919.0140280561129 1.939241081093152 237.0 16.0 153.0 
480.0003395312532 1065.0 NaN 918.9766199064812 2.5009076948347237 239.0 14.0 155.0 
482.00058297905275 1074.0 NaN 919.1155644622584 1.938723617961079 241.0 13.0 156.0 
484.0003395312532 1062.0 NaN 912.9298597194401 2.5035368529453255 239.0 13.0 154.0 
486.00058297905275 1059.0 NaN 912.8977955911816 1.901750902432159 244.0 8.0 159.0 
488.0003395312532 1058.0 NaN 915.9812959251826 2.470238817592336 247.0 7.0 161.0 
490.00058297905275 1078.0 NaN 922.1616566466274 1.9430056739668697 248.0 6.0 164.0 
492.0003395312532 1062.0 NaN 919.062124248496 2.492236797721727 245.0 6.0 163.0 
494.00058297905275 1066.0 NaN 919.1422845691368 1.8982618535348357 247.0 6.0 163.0 
496.0003395312532 1062.0 NaN 916.0133600534409 2.475510311024205 248.0 6.0 162.0 
498.00058297905275 1067.0 NaN 916.0133600534409 1.8937216526433314 247.0 6.0 162.0 
500.0003395312532 1067.0 NaN 912.857715430863 2.4641524040090435 246.0 6.0 161.0 
502.00058297905275 1077.0 NaN 915.9278557114227 1.917433618498934 247.0 6.0 162.0 
504.0003395312532 1067.0 NaN 912.8443553774221 2.45236706012251 245.0 6.0 161.0 
506.00058297905275 1066.0 NaN 909.8944555778227 1.871049108456665 244.0 6.0 160.0 
508.0003395312532 1066.0 NaN 903.7194388777543 2.4499566522746257 243.0 6.0 158.0 
510.00058297905275 1080.0 NaN 900.6840347361401 1.9432521272996819 241.0 6.0 157.0 
512.0003395312532 1068.0 NaN 891.4709418837681 2.5070104513517535 239.0 6.0 154.0 
514.0005829790528 1068.0 NaN 891.4709418837681 1.8995233263347784 239.0 6.0 154.0 
516.0003395312531 1068.0 NaN 891.3827655310625 2.493897290111395 239.0 6.0 154.0 
518.0005829790528 1073.0 NaN 894.5464261857045 1.9012361420588841 240.0 6.0 155.0 
520.0003395312531 1061.0 NaN 894.4635938543764 2.4824917327928135 239.0 6.0 155.0 
522.0005829790528 1059.0 NaN 894.5464261857045 1.923284818333792 239.0 6.0 155.0 
524.0003395312531 1043.0 NaN 888.4088176352714 2.4957282573830106 237.0 6.0 153.0 
526.0005829790528 1035.0 NaN 888.3366733466938 1.8871319263957085 236.0 6.0 153.0 
528.0003395312531 1036.0 NaN 888.2992651970605 2.451821556096363 236.0 6.0 153.0 
530.0005829790528 1051.0 NaN 888.400801603206 1.9195259391691308 237.0 6.0 153.0 
532.0003395312531 1039.0 NaN 876.0721442885774 2.4893001081348665 237.0 6.0 149.0 
534.0005829790528 1038.0 NaN 876.0614562458254 1.8791459893599858 237.0 6.0 149.0 
536.0003395312531 1043.0 NaN 888.4034736138954 2.432783729110532 239.0 6.0 153.0 
538.0005829790528 1065.0 NaN 891.5136940547771 1.9125914788853626 242.0 6.0 154.0 
540.0003395312531 1052.0 NaN 885.376085504341 2.4522995770188483 242.0 6.0 152.0 
542.0005829790528 1057.0 NaN 885.3306613226455 1.8789209543617849 241.0 6.0 152.0 
544.0003395312531 1055.0 NaN 888.3847695390774 2.4860697821386566 241.0 6.0 153.0 
546.0005829790528 1057.0 NaN 891.5110220440879 1.9090171838285754 242.0 6.0 154.0 
548.0003395312531 1050.0 NaN 885.3012692050772 2.4589956015869503 242.0 6.0 152.0 
550.0005829790528 1057.0 NaN 885.3760855043411 1.899551231551337 242.0 6.0 152.0 
552.0003395312531 1049.0 NaN 882.2979291917168 2.4850628708311637 241.0 6.0 151.0 
554.0005829790528 1052.0 NaN 888.3660654642619 1.9140643379239264 241.0 6.0 153.0 
556.0003395312531 1046.0 NaN 885.2398129592518 2.4689789610668433 243.0 6.0 152.0 
558.0005829790528 1066.0 NaN 894.570474281897 1.9384994999500706 247.0 6.0 155.0 
560.0003395312531 1051.0 NaN 894.5010020040089 2.4807148299955832 247.0 6.0 155.0 
562.0005829790528 1058.0 NaN 894.623914495659 1.8889707612896345 248.0 6.0 155.0 
564.0003395312531 1051.0 NaN 894.5063460253833 2.494740138598098 248.0 6.0 155.0 
566.0005829790528 1066.0 NaN 900.6973947895788 1.9735685724305416 249.0 6.0 157.0 
568.0003395312531 1046.0 NaN 897.5925183700728 2.481494081609204 247.0 6.0 156.0 
570.0005829790528 1052.0 NaN 897.5551102204408 1.8938459107712136 248.0 6.0 156.0 
572.0003395312531 1052.0 NaN 897.5310621242485 2.4480438628503025 249.0 6.0 156.0 
574.0005829790528 1063.0 NaN 900.6519706078819 1.8640286827162251 249.0 6.0 157.0 
576.0003395312531 1064.0 NaN 900.6225784903136 2.4493341375534183 250.0 6.0 157.0 
578.0005829790528 1077.0 NaN 903.7515030060123 1.9269194699671324 249.0 6.0 158.0 
580.0003395312531 1065.0 NaN 903.6713426853712 2.445736936884543 247.0 6.0 158.0 
582.0005829790528 1070.0 NaN 903.6980627922501 1.926574089060683 249.0 6.0 158.0 
584.0003395312531 1063.0 NaN 894.5090180360728 2.472227784842923 247.0 6.0 155.0 
586.0005829790528 1074.0 NaN 900.6359385437545 1.9606968349445084 249.0 6.0 157.0 
588.0003395312531 1061.0 NaN 903.7114228456908 2.4912773696781563 249.0 6.0 158.0 
590.0005829790528 1076.0 NaN 906.8403473613898 1.9204625196846534 253.0 6.0 159.0 
592.0003395312531 1069.0 NaN 900.6947227788909 2.4573439155015175 253.0 6.0 157.0 
594.0005829790528 1074.0 NaN 906.8563794255183 1.8841950195298962 252.0 6.0 159.0 
596.0003395312531 1078.0 NaN 906.7682030728128 2.4546718871137867 255.0 6.0 159.0 
598.0005829790528 1096.0 NaN 909.9024716098863 1.939027630388475 256.0 6.0 160.0 
600.0003395312531 1077.0 NaN 909.8597194388772 2.4604890318790993 256.0 6.0 160.0 
602.0005829790528 1083.0 NaN 916.0267201068813 1.9054250315768004 256.0 6.0 162.0 
604.0003395312531 1082.0 NaN 912.903139612559 2.470211303223176 254.0 6.0 161.0 
606.0005829790528 1092.0 NaN 916.0026720106875 1.9818718550057182 256.0 6.0 162.0 
608.0003395312531 1081.0 NaN 909.8223112892456 2.457915144577537 253.0 6.0 160.0 
610.0005829790528 1102.0 NaN 916.0240480961918 1.9129911216513025 255.0 6.0 162.0 
612.0003395312531 1090.0 NaN 916.0187040748172 2.41951271130075 256.0 6.0 162.0 
614.0005829790528 1097.0 NaN 925.2077488309956 1.885407407849954 258.0 6.0 165.0 
616.0003395312531 1103.0 NaN 928.2565130260509 2.455665930618383 257.0 6.0 166.0 
618.0005829790528 1120.0 NaN 934.4555778223096 1.9731959000809751 259.0 6.0 168.0 
620.0003395312531 1099.0 NaN 928.3313293253182 2.4779172259259736 259.0 6.0 166.0 
622.0005829790528 1096.0 NaN 928.3179692718774 1.9107049766062418 256.0 6.0 166.0 
624.0003395312531 1092.0 NaN 928.2672010688046 2.41226578923355 256.0 6.0 166.0 
626.0005829790528 1108.0 NaN 937.5657982631913 1.9262809175337794 257.0 6.0 169.0 
628.0003395312531 1100.0 NaN 928.2084168336683 2.44418872074369 254.0 6.0 166.0 
630.0005829790528 1109.0 NaN 931.4121576486315 1.9752381884156662 256.0 6.0 167.0 
632.0003395312531 1080.0 NaN 925.2745490981954 2.4608863263923233 254.0 6.0 165.0 
634.0005829790528 1080.0 NaN 934.4662658650636 1.9102882335744829 258.0 6.0 168.0 
636.0003395312531 1085.0 NaN 937.5444221776906 2.454062139974129 256.0 6.0 169.0 
638.0005829790528 1109.0 NaN 943.7007348029402 1.9732188608431833 258.0 6.0 171.0 
640.0003395312531 1100.0 NaN 949.8597194388775 2.464861102806041 259.0 6.0 173.0 
642.0005829790528 1118.0 NaN 956.1042084168326 1.9337081693799927 261.0 6.0 175.0 
644.0003395312531 1111.0 NaN 955.9919839679366 2.4703778446196374 263.0 6.0 175.0 
646.0005829790528 1130.0 NaN 962.2444889779547 1.9285477577514423 266.0 6.0 177.0 
648.0003395312531 1115.0 NaN 962.2017368069456 2.4652668451452366 265.0 7.0 176.0 
650.0005829790528 1122.0 NaN 962.113560454242 1.982809352712166 270.0 6.0 177.0 
652.0003395312531 1089.0 NaN 962.0654642618578 2.4733421171316117 272.0 6.0 177.0 
654.0005829790528 1084.0 NaN 962.1055444221785 1.9473240676920238 274.0 6.0 177.0 
656.0003395312531 1078.0 NaN 962.0627922511693 2.4677159305443457 275.0 6.0 177.0 
658.0005829790528 1110.0 NaN 977.5230460921846 1.9426352811570788 274.0 6.0 182.0 
660.0003395312531 1093.0 NaN 983.6232464929844 2.4868999262471263 274.0 6.0 184.0 
662.0005829790528 1098.0 NaN 980.6359385437546 1.8950765183272675 273.0 6.0 183.0 
664.0003395312531 1096.0 NaN 983.6713426853726 2.480047399373592 273.0 6.0 184.0 
#####################################################################
# End of data export. Simulation finished at: 2019-03-09T09:55+0000 #
#####################################################################
