#####################################################################
# Alchemist log file - simulation started at: 2019-03-05T22:56+0000 #
#####################################################################
# seed = 3.0, bandwidth = 1333521.4321633242, propagationDelay = 1.0, baserange = 562.341325190349
#
# The columns have the following meaning: 
# time neighbor_count[Sum] <value>@neighbor_count[Sum] packet_size[Mean] mean_delay[Mean] crowd[Sum] overcrowded[Sum] risk[Sum] 
0.0 NaN NaN NaN NaN NaN NaN NaN 
2.0005923698108097 48861.0 NaN 4989.191716766867 0.25783321024776196 1497.0 0.0 1497.0 
4.00059236981081 98210.0 NaN 4994.557114228457 1.0010435975355605 1497.0 0.0 1497.0 
6.000084666035003 98210.0 NaN 4994.0253841015365 1.0017219308491512 1495.0 2.0 1495.0 
8.00059236981081 98210.0 NaN 4994.081496325985 1.0010495483085833 1495.0 2.0 1495.0 
10.00033353340315 98210.0 NaN 4994.0253841015365 1.0017224928936912 1495.0 2.0 1495.0 
12.00059236981081 98210.0 NaN 4994.081496325985 1.001060139727557 1495.0 2.0 1495.0 
14.00059236981081 98209.0 NaN 4994.0013360053445 1.00105069135574 1495.0 2.0 1495.0 
16.000084666035004 98235.0 NaN 4994.073480293921 1.0017323345004727 1495.0 2.0 1495.0 
18.00059236981081 98266.0 NaN 4994.0013360053445 1.0016942311272377 1495.0 2.0 1495.0 
20.00033353340315 98262.0 NaN 4994.073480293921 1.0019315165912102 1495.0 2.0 1495.0 
22.00059236981081 98264.0 NaN 4994.0120240480965 1.0012636809024535 1495.0 2.0 1495.0 
24.00059236981081 98266.0 NaN 4994.076152304609 1.0012960221610288 1495.0 2.0 1495.0 
26.000084666035004 98294.0 NaN 4994.0521042084165 1.001953906465747 1495.0 2.0 1495.0 
28.00059236981081 98341.0 NaN 4994.105544422177 1.0023784855428055 1495.0 2.0 1495.0 
30.00033353340315 98333.0 NaN 4994.0467601870405 1.0023349308515428 1495.0 2.0 1495.0 
32.00059236981081 98332.0 NaN 4994.121576486306 1.0016421573100611 1495.0 2.0 1495.0 
34.00059236981081 98340.0 NaN 4994.0521042084165 1.002222149605863 1495.0 2.0 1495.0 
36.00008466603501 98381.0 NaN 4994.124248496994 1.0019578432178644 1495.0 2.0 1495.0 
38.00059236981081 98448.0 NaN 4994.0521042084165 1.0016059562744701 1495.0 2.0 1495.0 
40.00033353340315 98429.0 NaN 4994.12959251837 1.00196844980407 1495.0 2.0 1495.0 
42.00059236981081 98426.0 NaN 4994.0574482297925 1.001325810056871 1495.0 2.0 1495.0 
44.00059236981081 98430.0 NaN 4994.121576486306 1.0009141441679306 1495.0 2.0 1495.0 
46.00008466603501 98448.0 NaN 4994.0494321977285 1.0027685716347847 1495.0 2.0 1495.0 
48.00059236981081 98480.0 NaN 4994.110888443553 1.0030876990115225 1495.0 2.0 1495.0 
50.00033353340315 98444.0 NaN 4994.0521042084165 1.0026566891250095 1495.0 2.0 1495.0 
52.00059236981081 98442.0 NaN 4994.113560454241 1.0020519584613028 1495.0 2.0 1495.0 
54.00059236981081 98440.0 NaN 4994.0334001336005 1.002406002987062 1495.0 2.0 1495.0 
56.00008466603501 98461.0 NaN 4994.105544422177 1.002589686482372 1495.0 2.0 1495.0 
58.00059236981081 98517.0 NaN 4994.0334001336005 1.0021668837871767 1495.0 2.0 1495.0 
60.00033353340315 98521.0 NaN 4994.105544422177 1.0025481693828189 1495.0 2.0 1495.0 
62.00059236981081 98535.0 NaN 1522.0013360053451 0.9991186994663931 775.0 0.0 365.0 
64.00059236981082 98543.0 NaN 1521.9585838343364 0.9979596002264569 668.0 2.0 363.0 
66.00008466603501 98599.0 NaN 1521.9078156312637 0.999097788239071 598.0 2.0 363.0 
68.00059236981082 98638.0 NaN 1521.902471609888 0.9986253373945866 569.0 2.0 363.0 
70.00033353340315 98638.0 NaN 1524.9832999332002 0.9990115418563751 547.0 2.0 364.0 
72.00059236981082 98655.0 NaN 1524.9619238476937 0.9984560249168638 538.0 2.0 364.0 
74.00059236981082 98654.0 NaN 1524.9592518370087 0.9989486716312679 533.0 2.0 364.0 
76.00008466603501 98670.0 NaN 1524.9726118904457 0.9994205566136317 532.0 2.0 364.0 
78.00059236981082 98667.0 NaN 1531.123580494321 0.9983945160457613 532.0 2.0 366.0 
80.00033353340315 98686.0 NaN 1534.2204408817638 0.9990518178827594 531.0 2.0 367.0 
82.00059236981082 98716.0 NaN 1534.2097528390093 0.9984216183432094 531.0 2.0 367.0 
84.00059236981082 98727.0 NaN 1534.2097528390093 0.9985474772561211 529.0 2.0 367.0 
86.00008466603501 98751.0 NaN 1534.2070808283243 0.9997039732716333 528.0 2.0 367.0 
88.00059236981082 98736.0 NaN 1534.2070808283243 0.9986909719312693 528.0 2.0 367.0 
90.00033353340315 98749.0 NaN 1537.2879091516363 0.9994268627586452 528.0 2.0 368.0 
92.00059236981082 98770.0 NaN 1537.2611890447547 0.9987758733343386 527.0 2.0 368.0 
94.00059236981082 98763.0 NaN 1537.2424849699394 0.9992169864747649 526.0 2.0 368.0 
96.00008466603501 98787.0 NaN 1540.334001336006 1.0007817427979768 526.0 2.0 369.0 
98.00059236981082 98690.0 NaN 1540.307281229125 0.9990004321238811 526.0 2.0 369.0 
100.00033353340315 98677.0 NaN 1540.3206412825639 0.9995130628955046 526.0 2.0 369.0 
102.00059236981082 98693.0 NaN 1540.3152972611906 0.9988826416295201 526.0 2.0 369.0 
104.00059236981082 98693.0 NaN 1540.3179692718757 0.9989815899414284 526.0 2.0 369.0 
106.00008466603501 98736.0 NaN 1540.3233132932544 0.9998904332463253 526.0 2.0 369.0 
108.00059236981082 98740.0 NaN 1540.3233132932544 0.9991554832249816 525.0 2.0 369.0 
110.00033353340315 98736.0 NaN 1540.3259853039424 0.9994084741588346 525.0 2.0 369.0 
112.00059236981082 98754.0 NaN 1540.3259853039424 0.9989314258179903 525.0 2.0 369.0 
114.00059236981082 98756.0 NaN 1540.334001336006 0.9988209602395218 526.0 2.0 369.0 
116.00008466603501 98784.0 NaN 1549.568470273882 0.9997382874075923 528.0 2.0 372.0 
118.00059236981082 98777.0 NaN 1549.5283901135608 0.9986483739051538 528.0 2.0 372.0 
120.00033353340315 98768.0 NaN 1552.6065464261849 0.9993146993975379 528.0 2.0 373.0 
122.00059236981082 98764.0 NaN 1552.5905143620573 0.998661227086534 528.0 2.0 373.0 
124.00059236981082 98753.0 NaN 1552.6118904475636 0.9984147432525657 528.0 2.0 373.0 
126.00008466603501 98778.0 NaN 1549.5444221776906 0.9991859355643281 528.0 2.0 372.0 
128.00059236981082 98775.0 NaN 1546.4716098864392 0.998492157577554 528.0 2.0 371.0 
130.00033353340314 98770.0 NaN 1546.4796259185027 0.9993788417292125 528.0 2.0 371.0 
132.00059236981082 98775.0 NaN 1546.4716098864392 0.9985695063281007 528.0 2.0 371.0 
134.00059236981082 98769.0 NaN 1546.4689378757519 0.9987846289639793 528.0 2.0 371.0 
136.000084666035 98780.0 NaN 1546.4983299933183 0.999447846335771 527.0 2.0 371.0 
138.00059236981082 98770.0 NaN 1546.4822979291907 0.9985862489109791 526.0 2.0 371.0 
140.00033353340314 98742.0 NaN 1546.5143620574481 0.9992677360548081 525.0 2.0 371.0 
142.00059236981082 98728.0 NaN 1549.581830327321 0.9984471790784302 522.0 3.0 371.0 
144.00059236981082 98729.0 NaN 1549.5738142952573 0.9984379840297729 523.0 3.0 371.0 
146.000084666035 98755.0 NaN 1543.4655978623907 0.9991685764202317 522.0 3.0 369.0 
148.00059236981082 98777.0 NaN 1543.446893787575 0.9987228886028805 522.0 3.0 369.0 
150.00033353340314 98762.0 NaN 1543.4281897127578 0.9997667340093459 523.0 2.0 370.0 
152.00059236981082 98742.0 NaN 1543.3961255845004 0.9991302027849749 522.0 2.0 370.0 
154.00059236981082 98733.0 NaN 1540.360721442885 0.9989716365033329 522.0 3.0 368.0 
156.000084666035 98765.0 NaN 1540.3259853039424 1.0000547456744944 523.0 3.0 368.0 
158.00059236981082 98782.0 NaN 1543.4335337341363 0.9992798084963245 522.0 3.0 369.0 
160.00033353340314 98764.0 NaN 1543.41215764863 1.0000524998896663 521.0 2.0 370.0 
162.00059236981082 98750.0 NaN 1543.454909819639 0.9992078564821568 518.0 2.0 370.0 
164.00059236981082 98759.0 NaN 1543.420173680694 0.9990736195767793 519.0 2.0 370.0 
166.000084666035 98767.0 NaN 1546.5330661322635 0.9999928910908822 520.0 2.0 371.0 
168.00059236981082 98769.0 NaN 1549.5577822311272 0.9996247511471418 520.0 2.0 372.0 
170.00033353340314 98719.0 NaN 1549.5845023380089 1.0001338106938455 522.0 2.0 372.0 
172.00059236981082 98703.0 NaN 1549.5497661990635 0.9992662999047673 523.0 2.0 372.0 
174.00059236981082 98705.0 NaN 1546.5063460253818 0.9991909823474378 523.0 2.0 371.0 
176.000084666035 98711.0 NaN 1540.352705410821 1.0002592667432668 521.0 2.0 369.0 
178.00059236981082 98697.0 NaN 1537.3066132264544 0.999473143626045 521.0 2.0 368.0 
180.00033353340314 98647.0 NaN 1540.3607214428846 1.000036140112534 520.0 2.0 369.0 
182.00059236981082 98656.0 NaN 1537.3039412157636 0.9991985586593553 521.0 2.0 368.0 
184.00059236981082 98650.0 NaN 1537.2638610554454 0.9987267549957761 520.0 2.0 368.0 
186.000084666035 98664.0 NaN 1537.3039412157636 0.9997955760245504 520.0 2.0 368.0 
188.00059236981082 98651.0 NaN 1537.2772211088845 0.999515459834647 518.0 2.0 368.0 
190.00033353340314 98576.0 NaN 1537.3012692050756 0.9996027592982036 518.0 2.0 368.0 
192.00059236981082 98552.0 NaN 1534.1830327321302 0.9988778913523825 517.0 2.0 367.0 
194.00059236981082 98543.0 NaN 1534.2124248497 0.9988875112638147 517.0 2.0 367.0 
196.000084666035 98549.0 NaN 1534.1910487641937 0.999748811707761 517.0 2.0 367.0 
198.00059236981082 98536.0 NaN 1534.2177688710756 0.9997099306264546 517.0 2.0 367.0 
200.00033353340314 98471.0 NaN 1537.285237140948 0.999723057332761 518.0 2.0 368.0 
202.00059236981082 98451.0 NaN 1540.3927855711427 0.9990404939038371 519.0 2.0 369.0 
204.00059236981082 98466.0 NaN 1540.392785571143 0.9986551252823176 517.0 2.0 369.0 
206.000084666035 98501.0 NaN 1540.4355377421516 0.9998933531273673 517.0 2.0 369.0 
208.00059236981082 98484.0 NaN 1540.3874415497662 0.9993541813518597 517.0 2.0 369.0 
210.00033353340314 98445.0 NaN 1531.169004676018 1.0000229529151494 519.0 2.0 366.0 
212.00059236981082 98420.0 NaN 1534.209752839009 0.998736963853659 522.0 2.0 367.0 
214.00059236981082 98421.0 NaN 1531.1369405477633 0.9990093733027328 517.0 2.0 366.0 
216.000084666035 98440.0 NaN 1531.1663326653302 1.0002827550226436 514.0 2.0 366.0 
218.00059236981082 98402.0 NaN 1531.1877087508362 0.9988447397242365 514.0 2.0 366.0 
220.00033353340314 98372.0 NaN 1531.1770207080817 1.0000765094079525 513.0 2.0 366.0 
222.00059236981082 98327.0 NaN 1531.1529726118908 0.9985944103639522 512.0 2.0 366.0 
224.00059236981082 98315.0 NaN 1531.1422845691368 0.9990850932280345 513.0 2.0 366.0 
226.000084666035 98389.0 NaN 1531.1663326653302 0.9992347063721975 513.0 2.0 366.0 
228.00059236981082 98405.0 NaN 1537.3333333333337 0.9989509060473433 513.0 2.0 368.0 
230.00033353340314 98357.0 NaN 1537.3173012692062 0.9992476301690162 513.0 2.0 368.0 
232.00059236981082 98339.0 NaN 1537.319973279891 0.998926066871601 512.0 2.0 368.0 
234.00059236981082 98341.0 NaN 1540.3847695390791 0.9989378799882576 512.0 2.0 369.0 
236.000084666035 98348.0 NaN 1540.3687374749484 0.9999847485651379 513.0 2.0 369.0 
238.00059236981082 98322.0 NaN 1537.2772211088845 0.999253873745729 513.0 2.0 368.0 
240.00033353340314 98287.0 NaN 1531.1315965263848 0.9999886089712859 513.0 2.0 366.0 
242.00059236981082 98251.0 NaN 1534.2124248497 0.9987140328973292 513.0 2.0 367.0 
244.00059236981082 98251.0 NaN 1534.1482965931846 0.9991612763970195 513.0 2.0 367.0 
246.000084666035 98245.0 NaN 1534.1803607214429 0.9998076835596806 515.0 2.0 367.0 
248.00059236981082 98202.0 NaN 1528.0267201068816 0.9991407867140014 514.0 2.0 365.0 
250.00033353340314 98153.0 NaN 1528.032064128255 0.9999985765949028 513.0 2.0 365.0 
252.00059236981082 98130.0 NaN 1528.032064128255 0.9988995188271154 513.0 2.0 365.0 
254.00059236981082 98125.0 NaN 1524.9726118904457 0.9993150428776328 511.0 2.0 364.0 
256.00008466603504 98109.0 NaN 1524.9859719438882 0.9997761164631199 514.0 2.0 364.0 
258.0005923698108 98050.0 NaN 1524.9726118904457 0.9996239474710935 513.0 2.0 364.0 
260.00033353340314 97961.0 NaN 1524.9699398797607 0.9994477332038744 515.0 2.0 364.0 
262.0005923698108 97931.0 NaN 1528.0293921175698 0.998826680689497 515.0 2.0 365.0 
264.0005923698108 97886.0 NaN 1528.0187040748178 0.9989321271840913 515.0 2.0 365.0 
266.00008466603504 97909.0 NaN 1531.1102204408817 0.9997180639206831 515.0 2.0 366.0 
268.0005923698108 97856.0 NaN 1540.339345357382 0.9992366591794443 513.0 2.0 369.0 
270.00033353340314 97787.0 NaN 1537.2798931195728 0.9999901629996326 513.0 2.0 368.0 
272.0005923698108 97734.0 NaN 1534.1910487641937 0.9984116138238386 513.0 2.0 367.0 
274.0005923698108 97729.0 NaN 1534.2017368069457 0.9993100600221738 513.0 2.0 367.0 
276.00008466603504 97761.0 NaN 1531.1209084836341 1.0006431386226058 512.0 2.0 366.0 
278.0005923698108 97700.0 NaN 1537.25851703407 0.9999598036231243 515.0 2.0 368.0 
280.00033353340314 97654.0 NaN 1540.3366733466928 1.0002862142250761 516.0 2.0 369.0 
282.0005923698108 97629.0 NaN 1540.3340013360066 0.9997231710293725 516.0 2.0 369.0 
284.0005923698108 97594.0 NaN 1537.2424849699387 0.9994891573284395 516.0 2.0 368.0 
286.00008466603504 97591.0 NaN 1534.1857047428182 1.0006530457736145 514.0 2.0 367.0 
288.0005923698108 97531.0 NaN 1534.180360721443 1.0002813639415002 512.0 2.0 367.0 
290.00033353340314 97495.0 NaN 1534.180360721443 1.0005086531719558 511.0 2.0 367.0 
292.0005923698108 97443.0 NaN 1534.1750167000662 0.9999166493993548 511.0 2.0 367.0 
294.0005923698108 97400.0 NaN 1534.1723446893795 0.9995395638843463 511.0 2.0 367.0 
296.00008466603504 97399.0 NaN 1534.1750167000662 1.0002414018624277 510.0 2.0 367.0 
298.0005923698108 97358.0 NaN 1537.2825651302612 0.9995504697525607 510.0 2.0 368.0 
300.00033353340314 97328.0 NaN 1537.2772211088843 1.0001211172609374 508.0 2.0 368.0 
302.0005923698108 97270.0 NaN 1537.2932531730119 0.9990596716867703 508.0 2.0 368.0 
304.0005923698108 97218.0 NaN 1537.2852371409479 0.9989136114507063 508.0 2.0 368.0 
306.00008466603504 97213.0 NaN 1534.2444889779547 1.0005423798839106 509.0 2.0 367.0 
308.0005923698108 97158.0 NaN 1534.1536406145638 0.9995586390058455 508.0 1.0 368.0 
310.00033353340314 97137.0 NaN 1531.0808283233116 1.0003101830446768 505.0 3.0 365.0 
312.0005923698108 97072.0 NaN 1531.078156312627 0.9996741542256219 504.0 3.0 365.0 
314.0005923698108 97018.0 NaN 1534.1376085504362 0.9998955767279022 504.0 3.0 366.0 
316.00008466603504 96997.0 NaN 1537.205076820309 1.0010809886950602 506.0 3.0 367.0 
318.0005923698108 96912.0 NaN 1537.1890447561793 1.0001730187830564 508.0 3.0 367.0 
320.00033353340314 96872.0 NaN 1537.19973279893 1.000538151276589 506.0 3.0 367.0 
322.0005923698108 96819.0 NaN 1540.3152972611908 0.9998346995221522 506.0 3.0 368.0 
324.0005923698108 96777.0 NaN 1540.3179692718752 1.0003241617533647 505.0 3.0 368.0 
326.00008466603504 96774.0 NaN 1540.3420173680704 1.001157091763004 506.0 3.0 368.0 
328.0005923698108 96712.0 NaN 1537.2451569806271 1.0005908599794715 505.0 3.0 367.0 
330.00033353340314 96673.0 NaN 1540.3259853039428 1.000701175815052 505.0 3.0 368.0 
332.0005923698108 96626.0 NaN 1540.2912491649975 0.9998943794624316 505.0 3.0 368.0 
334.0005923698108 96589.0 NaN 1540.339345357382 1.0008657017690274 506.0 3.0 368.0 
336.00008466603504 96573.0 NaN 1531.134268537073 1.0007952040560115 506.0 3.0 365.0 
338.0005923698108 96502.0 NaN 1531.1476285905153 0.999732598147307 508.0 3.0 365.0 
340.00033353340314 96454.0 NaN 1528.0454241816974 1.0007281131781314 508.0 3.0 364.0 
342.0005923698108 96376.0 NaN 1528.061456245827 0.999559436105888 508.0 3.0 364.0 
344.0005923698108 96347.0 NaN 1528.064128256512 0.9998078894451922 508.0 3.0 364.0 
346.00008466603504 96348.0 NaN 1531.1396125584515 1.0002528710951473 508.0 3.0 365.0 
348.0005923698108 96307.0 NaN 1528.0534402137612 0.9994314618930858 506.0 3.0 364.0 
350.00033353340314 96275.0 NaN 1525.0233800935189 1.0001071714166248 510.0 3.0 363.0 
352.0005923698108 96236.0 NaN 1524.9325317301273 0.9992795023464089 511.0 3.0 363.0 
354.0005923698108 96190.0 NaN 1524.9806279225115 0.9996470150501499 514.0 3.0 363.0 
356.00008466603504 96197.0 NaN 1524.9779559118242 1.0002506661922956 513.0 3.0 363.0 
358.0005923698108 96163.0 NaN 1524.9939879759522 0.9996639277663006 511.0 3.0 363.0 
360.00033353340314 96109.0 NaN 1528.0614562458268 0.99977656017567 512.0 3.0 364.0 
362.0005923698108 96077.0 NaN 1528.0561122244485 0.9993146136461367 514.0 3.0 364.0 
364.0005923698108 96046.0 NaN 1524.9539078156304 0.9990734523691062 513.0 3.0 363.0 
366.00008466603504 96045.0 NaN 1503.428189712758 0.9999592800503946 515.0 3.0 356.0 
368.0005923698108 95995.0 NaN 1500.368737474949 0.9992032905414907 514.0 3.0 355.0 
370.00033353340314 95957.0 NaN 1509.584502338009 1.001349014585905 512.0 3.0 358.0 
372.0005923698108 95913.0 NaN 1509.536406145625 0.9994202480185786 512.0 3.0 358.0 
374.0005923698108 95878.0 NaN 1509.54442217769 0.9997348274392577 513.0 3.0 358.0 
376.00008466603504 95894.0 NaN 1509.547094188376 1.00074109470321 513.0 3.0 358.0 
378.0005923698108 95848.0 NaN 1509.5524382097535 1.000268468260834 516.0 3.0 358.0 
380.00033353340314 95778.0 NaN 1509.536406145625 1.0000157880110938 514.0 3.0 358.0 
382.0005923698108 95762.0 NaN 1506.4742818971272 0.9992759765304825 513.0 3.0 357.0 
384.0005923698108 95736.0 NaN 1512.649298597194 0.9993740780593542 515.0 3.0 359.0 
386.00008466603504 95747.0 NaN 1521.9051436205734 1.000300054768228 517.0 3.0 362.0 
388.0005923698108 95714.0 NaN 1509.6165664662644 0.9999386994995028 516.0 3.0 358.0 
390.00033353340314 95683.0 NaN 1509.6299265197067 1.0001798627645622 513.0 3.0 358.0 
392.0005923698108 95652.0 NaN 1512.6920507682025 0.9994530226988164 514.0 3.0 359.0 
394.0005923698108 95611.0 NaN 1512.6840347361388 0.9994282312473828 515.0 3.0 359.0 
396.00008466603504 95607.0 NaN 1512.649298597194 1.0007108411075598 517.0 3.0 359.0 
398.0005923698108 95565.0 NaN 1509.579158316634 0.9992842910976857 518.0 3.0 358.0 
400.00033353340314 95549.0 NaN 1512.6786907147637 1.0000438330934194 518.0 3.0 359.0 
402.0005923698108 95524.0 NaN 1512.6680026720098 0.9997020776736799 519.0 3.0 359.0 
404.0005923698108 95474.0 NaN 1518.8082832331331 1.001037579924236 518.0 3.0 361.0 
406.00008466603504 95470.0 NaN 1518.8456913827642 0.9999608805622751 520.0 3.0 361.0 
408.0005923698108 95416.0 NaN 1524.999331997327 0.9993766084945273 519.0 3.0 363.0 
410.00033353340314 95349.0 NaN 1528.0801603206423 0.9994824826600662 520.0 3.0 364.0 
412.0005923698108 95332.0 NaN 1528.0561122244485 0.9988360480606241 522.0 3.0 364.0 
414.0005923698108 95313.0 NaN 1528.0427521710092 0.9990577376965082 522.0 3.0 364.0 
416.00008466603504 95308.0 NaN 1528.0400801603203 1.00049303951578 527.0 3.0 364.0 
418.0005923698108 95275.0 NaN 1528.0400801603203 0.9996953750855846 526.0 3.0 364.0 
420.00033353340314 95267.0 NaN 1515.7221108884446 0.9999899510133932 527.0 3.0 360.0 
422.0005923698108 95242.0 NaN 1515.7060788243157 0.9990555431313862 527.0 3.0 360.0 
424.0005923698108 95258.0 NaN 1506.4983299933192 0.9994358536779216 525.0 3.0 357.0 
426.00008466603504 95242.0 NaN 1512.6973947895794 1.0006834053584788 519.0 2.0 360.0 
428.0005923698108 95218.0 NaN 1506.530394121576 1.0000680998136493 519.0 2.0 358.0 
430.00033353340314 95200.0 NaN 1506.5143620574474 1.0006384770195302 517.0 2.0 358.0 
432.0005923698108 95179.0 NaN 1503.4335337341354 0.9999879539182585 518.0 2.0 357.0 
434.0005923698108 95147.0 NaN 1506.487641950567 1.0010500635331814 518.0 2.0 358.0 
436.00008466603504 95145.0 NaN 1518.8269873079485 1.0006259283503658 520.0 2.0 362.0 
438.0005923698108 95127.0 NaN 1521.8891115564456 1.0000008642309006 522.0 2.0 363.0 
440.00033353340314 95096.0 NaN 1518.8216432865727 1.0004156893220149 521.0 2.0 362.0 
442.0005923698108 95077.0 NaN 1521.9158316633273 0.9997702174644143 523.0 2.0 363.0 
444.0005923698108 95048.0 NaN 1524.9565798263181 0.9993507636159586 523.0 2.0 364.0 
446.00008466603504 95064.0 NaN 1531.131596526385 1.0001938292675345 525.0 2.0 366.0 
448.0005923698108 95072.0 NaN 1537.2505010020031 0.9998628074837146 527.0 2.0 368.0 
450.00033353340314 95058.0 NaN 1540.3340013360062 1.0003657773237828 527.0 2.0 369.0 
452.0005923698108 95051.0 NaN 1549.5337341349364 0.9996738048267648 526.0 2.0 372.0 
454.0005923698108 95028.0 NaN 1549.568470273882 0.998522613164905 527.0 2.0 372.0 
456.00008466603504 95054.0 NaN 1552.6546426185726 0.9995396931412717 527.0 2.0 373.0 
458.0005923698108 95055.0 NaN 1549.5898463593849 0.9994492416630223 527.0 2.0 372.0 
460.00033353340314 95015.0 NaN 1549.5444221776904 0.9995963175868635 525.0 2.0 372.0 
462.0005923698108 95012.0 NaN 1549.520374081497 0.9988673385915156 525.0 2.0 372.0 
464.0005923698108 94999.0 NaN 1549.5310621242481 0.9994331200440745 526.0 2.0 372.0 
466.00008466603504 95016.0 NaN 1546.460921843688 1.0000281798201573 526.0 2.0 371.0 
468.0005923698108 95022.0 NaN 1546.4128256513025 1.0001324693774947 527.0 2.0 371.0 
470.00033353340314 94980.0 NaN 1546.468937875752 1.0002613800248954 525.0 2.0 371.0 
472.0005923698108 94956.0 NaN 1540.3072812291252 0.999282594603366 524.0 2.0 369.0 
474.0005923698108 94950.0 NaN 1531.0941883767546 0.9981884096977854 521.0 2.0 366.0 
476.00008466603504 94988.0 NaN 1528.0053440213758 0.9988516266181856 521.0 2.0 365.0 
478.0005923698108 95039.0 NaN 1521.8784235136932 0.998051122801093 519.0 2.0 363.0 
480.00033353340314 95055.0 NaN 1524.9378757515024 0.9995069734077643 517.0 2.0 364.0 
482.0005923698108 95031.0 NaN 1521.857047428191 0.9981832781742702 519.0 2.0 363.0 
484.0005923698108 95016.0 NaN 1512.6092184368729 0.9980002952465207 517.0 2.0 360.0 
486.00008466603504 95055.0 NaN 1509.5604542418175 0.9985127179436142 515.0 2.0 359.0 
488.0005923698108 95120.0 NaN 1500.3473613894453 0.9984415516568661 514.0 2.0 356.0 
490.00033353340314 95082.0 NaN 1497.3039412157643 0.9991897686075553 515.0 2.0 355.0 
492.0005923698108 95054.0 NaN 1491.1289245156988 0.9979224914596747 515.0 2.0 353.0 
494.0005923698108 95050.0 NaN 1497.2879091516363 0.9979154660621475 512.0 2.0 355.0 
496.00008466603504 95074.0 NaN 1494.2284569138274 0.9989395956773551 509.0 2.0 354.0 
498.0005923698108 95083.0 NaN 1494.2257849031387 0.9981042853161823 511.0 2.0 354.0 
500.00033353340314 95072.0 NaN 1494.2257849031387 0.9991044946982919 509.0 2.0 354.0 
502.0005923698108 95046.0 NaN 1488.0614562458263 0.9980508766452156 515.0 1.0 353.0 
504.0005923698108 95028.0 NaN 1484.9859719438887 0.9981538318491593 512.0 3.0 350.0 
506.00008466603504 95023.0 NaN 1485.0180360721452 0.9986960760084257 513.0 3.0 350.0 
508.0005923698108 95029.0 NaN 1488.0774883099539 0.9981426499753967 512.0 3.0 351.0 
510.00033353340314 95044.0 NaN 1491.169004676018 0.9992317973486057 511.0 3.0 352.0 
512.0005923698109 95026.0 NaN 1494.2124248497 0.9982368313421922 510.0 3.0 353.0 
514.0005923698109 95019.0 NaN 1494.2338009352027 0.9979604057698346 510.0 3.0 353.0 
516.000084666035 95039.0 NaN 1491.169004676018 0.9989689202613798 512.0 3.0 352.0 
518.0005923698109 95058.0 NaN 1478.9311957247821 0.9985229059575117 508.0 3.0 348.0 
520.0003335334031 95055.0 NaN 1475.8156312625263 0.9999991418524115 509.0 3.0 347.0 
522.0005923698109 95038.0 NaN 1475.8423513694063 0.9987604497272906 510.0 3.0 347.0 
524.0005923698109 95039.0 NaN 1460.4328657314634 1.000428744835843 504.0 3.0 342.0 
526.000084666035 95093.0 NaN 1460.4622578490303 0.9999253065229041 503.0 3.0 342.0 
528.0005923698109 95183.0 NaN 1460.4462257849025 0.9996875030012717 502.0 3.0 342.0 
530.0003335334031 95180.0 NaN 1463.5136940547752 1.0005915300758514 506.0 3.0 343.0 
532.0005923698109 95187.0 NaN 1463.473613894455 0.9995834991486878 510.0 3.0 343.0 
534.0005923698109 95204.0 NaN 1466.5624582498335 0.9993360884313982 510.0 3.0 344.0 
536.000084666035 95236.0 NaN 1466.570474281898 1.0006263255714727 510.0 3.0 344.0 
538.0005923698109 95284.0 NaN 1472.7321309285246 1.000465730358892 509.0 3.0 346.0 
540.0003335334031 95271.0 NaN 1472.7214428857724 1.0014541156323544 510.0 3.0 346.0 
542.0005923698109 95281.0 NaN 1472.7160988643968 0.9994587687747802 510.0 3.0 346.0 
544.0005923698109 95303.0 NaN 1478.8777555110212 0.9994501534529642 512.0 3.0 348.0 
546.000084666035 95316.0 NaN 1478.9071476285908 1.0005450336325503 511.0 3.0 348.0 
548.0005923698109 95333.0 NaN 1478.848363393454 1.0000695358343787 511.0 3.0 348.0 
550.0003335334031 95323.0 NaN 1472.7668670674693 1.0002767527576202 511.0 3.0 346.0 
552.0005923698109 95359.0 NaN 1475.7301269205082 0.9995694007056654 516.0 3.0 347.0 
554.0005923698109 95422.0 NaN 1481.9024716098877 0.999511455679184 519.0 3.0 349.0 
556.000084666035 95459.0 NaN 1478.8109552438202 1.000286508410041 520.0 3.0 348.0 
558.0005923698109 95486.0 NaN 1481.8891115564459 0.999198916912346 520.0 3.0 349.0 
560.0003335334031 95494.0 NaN 1469.6138944555782 1.0002833990958506 518.0 3.0 345.0 
562.0005923698109 95518.0 NaN 1469.6272545090183 0.9994463321123379 513.0 3.0 345.0 
564.0005923698109 95489.0 NaN 1472.681362725451 0.9994422015423895 514.0 3.0 346.0 
566.000084666035 95447.0 NaN 1475.7889111556449 0.9998048004670906 516.0 2.0 348.0 
568.0005923698109 95453.0 NaN 1481.9318637274546 0.9990638704796858 518.0 2.0 350.0 
570.0003335334031 95454.0 NaN 1481.9452237808946 1.0012290595822524 521.0 2.0 350.0 
572.0005923698109 95454.0 NaN 1481.923847695391 1.0007361417063447 520.0 2.0 350.0 
574.0005923698109 95364.0 NaN 1485.036740146961 1.0008803012223908 520.0 3.0 350.0 
576.000084666035 95299.0 NaN 1494.241816967267 1.0007685530592227 522.0 2.0 354.0 
578.0005923698109 95326.0 NaN 1491.147628590515 1.0006606376959717 525.0 2.0 353.0 
580.0003335334031 95318.0 NaN 1488.0855043420179 1.001456835571915 526.0 2.0 352.0 
582.0005923698109 95279.0 NaN 1488.093520374082 1.0003628041750892 523.0 2.0 352.0 
584.0005923698109 95308.0 NaN 1485.002004008017 1.0008736092589539 525.0 2.0 351.0 
586.000084666035 95308.0 NaN 1481.9185036740153 1.0008607180956357 527.0 2.0 350.0 
588.0005923698109 95321.0 NaN 1485.0073480293918 1.0005769714934434 528.0 2.0 351.0 
590.0003335334031 95325.0 NaN 1484.9966599866393 1.0013816673350662 525.0 2.0 351.0 
592.0005923698109 95301.0 NaN 1491.1422845691377 1.0002362375825065 526.0 2.0 353.0 
594.0005923698109 95336.0 NaN 1488.0507682030725 0.9998714055749462 528.0 2.0 352.0 
596.000084666035 95329.0 NaN 1488.0694722778896 0.9999520542287192 528.0 2.0 352.0 
598.0005923698109 95362.0 NaN 1478.843019372078 0.9996266593718114 527.0 2.0 349.0 
600.0003335334031 95390.0 NaN 1484.9779559118242 0.9997054577924993 528.0 2.0 351.0 
602.0005923698109 95412.0 NaN 1481.9024716098872 0.9992190933523506 528.0 2.0 350.0 
604.0005923698109 95421.0 NaN 1481.9078156312632 0.9995949261323211 527.0 2.0 350.0 
606.000084666035 95396.0 NaN 1485.015364061456 0.9991965057403023 525.0 2.0 351.0 
608.0005923698109 95464.0 NaN 1491.1476285905153 1.0000528289058324 528.0 2.0 353.0 
610.0003335334031 95465.0 NaN 1497.32531730127 0.9998866080425967 528.0 2.0 355.0 
612.0005923698109 95473.0 NaN 1497.2959251837 0.9994013234018462 527.0 2.0 355.0 
614.0005923698109 95460.0 NaN 1497.2879091516363 0.9994993197764661 529.0 2.0 355.0 
616.000084666035 95436.0 NaN 1494.215096860388 1.0000847849179912 527.0 2.0 354.0 
618.0005923698109 95464.0 NaN 1491.1262525050092 0.9989985337602459 527.0 2.0 353.0 
620.0003335334031 95488.0 NaN 1497.3119572478286 0.9995620142809644 528.0 2.0 355.0 
622.0005923698109 95481.0 NaN 1500.3901135604547 0.9989829275342592 525.0 2.0 356.0 
624.0005923698109 95472.0 NaN 1503.4789579158307 0.9993084904033553 524.0 2.0 357.0 
626.000084666035 95424.0 NaN 1506.5517702070817 0.9995710526548828 527.0 2.0 358.0 
628.0005923698109 95428.0 NaN 1506.5624582498335 0.9989094885039502 530.0 2.0 358.0 
630.0003335334031 95442.0 NaN 1512.7374749499 0.9994513541598589 530.0 2.0 360.0 
632.0005923698109 95422.0 NaN 1512.7428189712748 0.9989276910662659 528.0 3.0 359.0 
634.0005923698109 95403.0 NaN 1512.718770875083 0.9996607959995512 525.0 3.0 359.0 
636.000084666035 95350.0 NaN 1515.7862391449557 0.9999973960473219 525.0 3.0 360.0 
638.0005923698109 95254.0 NaN 1515.775551102203 1.0001225760873567 527.0 3.0 360.0 
640.0003335334031 95205.0 NaN 1512.7428189712748 1.0001559674012135 527.0 3.0 359.0 
642.0005923698109 95200.0 NaN 1515.8102872411482 0.9997547190529199 528.0 2.0 361.0 
644.0005923698109 95196.0 NaN 1509.68069472278 0.9995518736508464 528.0 2.0 359.0 
646.000084666035 95197.0 NaN 1509.6860387441545 1.0005781136913368 523.0 2.0 359.0 
648.0005923698109 95168.0 NaN 1515.8343353373425 0.9998177005323696 528.0 2.0 361.0 
650.0003335334031 95149.0 NaN 1518.9124916499654 1.0003646222596108 522.0 2.0 362.0 
652.0005923698109 95164.0 NaN 1515.8076152304618 0.9989793857814139 522.0 2.0 361.0 
654.0005923698109 95185.0 NaN 1515.799599198398 0.9995236658716288 521.0 2.0 361.0 
656.000084666035 95217.0 NaN 1515.7835671342696 0.9998304066692659 521.0 2.0 361.0 
658.0005923698109 95217.0 NaN 1521.9345357381437 0.9988135352551306 518.0 2.0 363.0 
660.0003335334031 95207.0 NaN 1531.2037408149638 0.9988608322303734 517.0 2.0 366.0 
662.0005923698109 95228.0 NaN 1531.128924515699 0.9988326668345511 515.0 2.0 366.0 
664.0005923698109 95206.0 NaN 1531.1529726118908 0.9992596525744801 517.0 2.0 366.0 
#####################################################################
# End of data export. Simulation finished at: 2019-03-05T23:22+0000 #
#####################################################################
