#####################################################################
# Alchemist log file - simulation started at: 2019-03-13T12:29+0000 #
#####################################################################
# seed = 6.0, bandwidth = 1333521.4321633242, propagationDelay = 0.0031622776601683794, baserange = 17.78279410038923
#
# The columns have the following meaning: 
# time neighbor_count[Sum] <value>@neighbor_count[Sum] packet_size[Mean] mean_delay[Mean] crowd[Sum] overcrowded[Sum] risk[Sum] 
0.0 NaN NaN NaN NaN NaN NaN NaN 
2.000572537123497 1118.0 NaN 4993.891783567135 0.4973348693533829 1497.0 0.0 1497.0 
4.000572537123497 1118.0 NaN 4995.762191048764 0.49732918721847713 1496.0 1.0 1496.0 
6.000572537123497 1118.0 NaN 4993.234468937876 0.49733242079920975 1489.0 8.0 1489.0 
8.000572537123498 1118.0 NaN 4993.28256513026 0.49937980594185805 1487.0 10.0 1487.0 
10.000572537123498 1118.0 NaN 4993.295925183701 0.5041049062274008 1487.0 10.0 1487.0 
12.000572537123498 1112.0 NaN 4992.237808951236 0.49671415009930453 1487.0 10.0 1487.0 
14.000572537123498 1112.0 NaN 4992.7267869071475 0.4967133654032132 1487.0 10.0 1487.0 
16.000572537123496 1115.0 NaN 4992.347361389446 0.4961594552975968 1487.0 10.0 1487.0 
18.000572537123496 1118.0 NaN 4992.339345357382 0.5081057576164988 1487.0 10.0 1487.0 
20.000572537123496 1113.0 NaN 4992.539746158985 0.49806671441651207 1487.0 10.0 1487.0 
22.000572537123496 1114.0 NaN 4991.770207080828 0.4973217106487846 1487.0 10.0 1487.0 
24.000572537123496 1114.0 NaN 4992.35537742151 0.5014367408204915 1487.0 10.0 1487.0 
26.000572537123496 1113.0 NaN 4992.048096192385 0.4974646475908938 1487.0 10.0 1487.0 
28.000572537123496 1121.0 NaN 4991.978623914496 0.4981534669405327 1487.0 10.0 1487.0 
30.000572537123496 1123.0 NaN 4992.216432865732 0.5033012913822307 1487.0 10.0 1487.0 
32.000572537123496 1123.0 NaN 4991.967935871743 0.49945568155137193 1487.0 10.0 1487.0 
34.000572537123496 1125.0 NaN 4992.021376085504 0.5010794352836024 1487.0 10.0 1487.0 
36.000572537123496 1130.0 NaN 4991.930527722111 0.502805499688848 1487.0 10.0 1487.0 
38.000572537123496 1134.0 NaN 4991.951903807615 0.5154032532845887 1487.0 10.0 1487.0 
40.000572537123496 1134.0 NaN 4992.093520374082 0.5073173750854176 1487.0 10.0 1487.0 
42.000572537123496 1131.0 NaN 4991.802271209085 0.5007677992142456 1487.0 10.0 1487.0 
44.000572537123496 1131.0 NaN 4991.783567134268 0.5085393879051229 1487.0 10.0 1487.0 
46.000572537123496 1136.0 NaN 4992.008016032064 0.5033905844546128 1487.0 10.0 1487.0 
48.000572537123496 1145.0 NaN 4992.195056780227 0.5059593144521184 1487.0 10.0 1487.0 
50.000572537123496 1146.0 NaN 4991.76753507014 0.5058890237452605 1487.0 10.0 1487.0 
52.000572537123496 1150.0 NaN 4992.048096192385 0.5054246530943395 1487.0 10.0 1487.0 
54.000572537123496 1140.0 NaN 4991.855711422846 0.5079179216532245 1487.0 10.0 1487.0 
56.000572537123496 1135.0 NaN 4991.866399465598 0.5010660258919902 1487.0 10.0 1487.0 
58.000572537123496 1140.0 NaN 4992.25918503674 0.5176456355571009 1487.0 10.0 1487.0 
60.000572537123496 1126.0 NaN 4991.815631262525 0.5049359318259051 1487.0 10.0 1487.0 
62.001304213596484 1125.0 NaN 983.9946559786259 0.5139642402510757 481.0 9.0 181.0 
64.00130421359648 1114.0 NaN 983.738142952573 0.5011084922006985 472.0 9.0 181.0 
66.00130421359648 1118.0 NaN 983.7114228456907 0.5015400750317721 411.0 9.0 181.0 
68.00130421359648 1126.0 NaN 983.7301269205091 0.5091551858845652 368.0 9.0 181.0 
70.00130421359648 1124.0 NaN 980.6332665330652 0.5040792473362101 337.0 9.0 180.0 
72.00130421359648 1122.0 NaN 980.6145624582475 0.4995400658480915 325.0 9.0 180.0 
74.00130421359648 1121.0 NaN 980.5531062124257 0.5022349415221471 317.0 9.0 180.0 
76.00130421359648 1121.0 NaN 980.5103540414182 0.5155839121643065 307.0 9.0 180.0 
78.00130421359648 1121.0 NaN 980.4916499666001 0.5021699753608038 296.0 9.0 180.0 
80.00130421359648 1120.0 NaN 980.4462257849016 0.5086683622050917 292.0 9.0 180.0 
82.00130421359648 1118.0 NaN 980.4221776887091 0.5079173806736652 291.0 9.0 180.0 
84.00130421359648 1117.0 NaN 980.4542418169655 0.509916673259294 286.0 9.0 180.0 
86.00130421359648 1116.0 NaN 980.4809619238454 0.509864846343798 285.0 9.0 180.0 
88.00130421359648 1122.0 NaN 989.7287909151637 0.5164717383253992 282.0 9.0 183.0 
90.00130421359648 1114.0 NaN 986.7628590514364 0.5051592406677713 282.0 9.0 182.0 
92.00130421359648 1115.0 NaN 989.8329993319983 0.501016842092316 281.0 9.0 183.0 
94.00130421359648 1114.0 NaN 992.8657314629274 0.5031753066135722 282.0 9.0 184.0 
96.00130421359648 1123.0 NaN 996.0427521710093 0.5022520427971406 283.0 9.0 185.0 
98.00130421359648 1127.0 NaN 999.0674682698726 0.5197275065314406 282.0 9.0 186.0 
100.00130421359648 1115.0 NaN 996.016032064127 0.5105284551975506 282.0 9.0 185.0 
102.00130421359648 1108.0 NaN 996.0133600534381 0.5153097870091321 279.0 9.0 185.0 
104.00130421359648 1112.0 NaN 995.79425517702 0.5007280743730941 281.0 9.0 185.0 
106.00130421359648 1112.0 NaN 998.9151636606546 0.5140179580271673 282.0 9.0 186.0 
108.00130421359648 1102.0 NaN 998.9044756179017 0.5126226390602485 281.0 9.0 186.0 
110.00130421359648 1107.0 NaN 998.8590514362076 0.5114661368722335 281.0 9.0 186.0 
112.00130421359648 1107.0 NaN 995.8209752838997 0.5068375937261773 279.0 9.0 185.0 
114.00130421359648 1104.0 NaN 992.6973947895799 0.5063070064135496 276.0 9.0 184.0 
116.00130421359648 1109.0 NaN 983.5217100868384 0.5194860770344104 276.0 9.0 181.0 
118.00130421359648 1096.0 NaN 983.5778223112911 0.515064937880336 273.0 9.0 181.0 
120.00130421359648 1092.0 NaN 980.537074148298 0.507118581678554 270.0 9.0 180.0 
122.00130421359648 1094.0 NaN 980.5103540414184 0.51326026381876 270.0 9.0 180.0 
124.00130421359648 1085.0 NaN 977.3867735470928 0.508912433556599 271.0 9.0 179.0 
126.00130421359648 1105.0 NaN 980.5290581162342 0.5150295922542856 272.0 9.0 180.0 
128.00130421359648 1105.0 NaN 977.5390781563117 0.49850451086511643 272.0 9.0 179.0 
130.00130421359648 1119.0 NaN 980.4408817635274 0.5002140103320233 272.0 9.0 180.0 
132.00130421359648 1121.0 NaN 983.5217100868392 0.5134030995790064 270.0 9.0 181.0 
134.00130421359648 1108.0 NaN 986.5838343353362 0.5085693349441441 268.0 9.0 182.0 
136.00130421359648 1120.0 NaN 986.5998663994635 0.5110725647936888 268.0 9.0 182.0 
138.00130421359648 1133.0 NaN 995.8984635938546 0.518421496523677 271.0 9.0 185.0 
140.00130421359648 1135.0 NaN 998.9525718102885 0.5145414597884453 274.0 9.0 186.0 
142.00130421359648 1139.0 NaN 1002.1349365397452 0.5084978809970481 275.0 9.0 187.0 
144.00130421359648 1135.0 NaN 1002.0948563794274 0.5020116212445837 275.0 9.0 187.0 
146.00130421359648 1144.0 NaN 999.1075484301931 0.5073214700834874 273.0 9.0 186.0 
148.00130421359648 1144.0 NaN 999.1048764195067 0.5339744396045254 272.0 9.0 186.0 
150.00130421359648 1138.0 NaN 992.8657314629273 0.5101099016189449 271.0 9.0 184.0 
152.00130421359648 1149.0 NaN 992.916499666 0.5082585710883276 269.0 9.0 184.0 
154.00130421359648 1147.0 NaN 995.9652638610543 0.507408330266175 268.0 9.0 185.0 
156.00130421359648 1149.0 NaN 995.9706078824296 0.5032876775197921 269.0 9.0 185.0 
158.00130421359648 1152.0 NaN 992.9084836339365 0.5136727820554126 271.0 9.0 184.0 
160.00130421359648 1150.0 NaN 992.7748830995338 0.5088573804104942 275.0 9.0 184.0 
162.00130421359648 1154.0 NaN 986.6078824315299 0.5090515678000176 277.0 9.0 182.0 
164.00130421359648 1149.0 NaN 983.5030060120247 0.5102011439357762 279.0 9.0 181.0 
166.00130421359648 1147.0 NaN 983.5751503006002 0.5176400193420823 279.0 9.0 181.0 
168.00130421359648 1140.0 NaN 983.6446225784911 0.527050079061005 277.0 9.0 181.0 
170.00130421359648 1135.0 NaN 983.6285905143636 0.5040109259949845 276.0 9.0 181.0 
172.00130421359648 1139.0 NaN 989.7742150968614 0.5175442157777522 277.0 9.0 183.0 
174.00130421359648 1132.0 NaN 992.7962591850362 0.5073850205703595 277.0 9.0 184.0 
176.00130421359648 1143.0 NaN 989.7688710754841 0.5118323192584123 276.0 9.0 183.0 
178.00130421359648 1140.0 NaN 974.5303941215755 0.5193163272280406 276.0 9.0 178.0 
180.00130421359648 1135.0 NaN 977.5390781563117 0.5208479340837061 275.0 9.0 179.0 
182.00130421359648 1127.0 NaN 977.4669338677367 0.5049129393865067 276.0 9.0 179.0 
184.00130421359648 1123.0 NaN 974.4208416833661 0.5095391427423756 275.0 9.0 178.0 
186.00130421359648 1130.0 NaN 974.415497661991 0.5223506709569596 275.0 9.0 178.0 
188.00130421359648 1130.0 NaN 980.5076820307271 0.5053421983444117 274.0 9.0 180.0 
190.00130421359648 1125.0 NaN 980.5771543086184 0.5081498848699292 274.0 9.0 180.0 
192.00130421359648 1124.0 NaN 980.4889779559114 0.5152033096562667 271.0 9.0 180.0 
194.00130421359648 1122.0 NaN 980.4676018704091 0.5029981024015469 271.0 9.0 180.0 
196.00130421359648 1136.0 NaN 980.5023380093521 0.5072832138429374 272.0 9.0 180.0 
198.00130421359648 1147.0 NaN 980.4702738810978 0.5163454790209612 273.0 9.0 180.0 
200.00130421359648 1142.0 NaN 980.4889779559111 0.5094146675136086 274.0 9.0 180.0 
202.00130421359648 1140.0 NaN 980.4275217100887 0.5163462615791703 274.0 9.0 180.0 
204.00130421359648 1141.0 NaN 983.4736138944542 0.5074548752327788 271.0 9.0 181.0 
206.00130421359648 1157.0 NaN 980.4542418169658 0.5184951386517977 270.0 9.0 180.0 
208.00130421359648 1159.0 NaN 983.5457581830343 0.5194654858486767 271.0 9.0 181.0 
210.00130421359648 1147.0 NaN 983.5724782899111 0.5028203324389701 270.0 9.0 181.0 
212.00130421359648 1149.0 NaN 983.5457581830343 0.5144917376117585 271.0 9.0 181.0 
214.00130421359648 1151.0 NaN 983.5030060120255 0.5054645600946028 269.0 9.0 181.0 
216.00130421359648 1157.0 NaN 986.6452905811635 0.53351555198599 272.0 9.0 182.0 
218.00130421359648 1158.0 NaN 989.7528390113546 0.5307255234333698 277.0 9.0 183.0 
220.00130421359648 1141.0 NaN 983.5270541082181 0.5085469809732347 278.0 9.0 181.0 
222.00130421359648 1140.0 NaN 974.3807615230453 0.5146906854931241 276.0 9.0 178.0 
224.00130421359648 1141.0 NaN 974.3193052772205 0.5159498948763662 270.0 9.0 178.0 
226.00130421359648 1139.0 NaN 971.2732130928547 0.5161698952902999 271.0 9.0 177.0 
228.00130421359648 1144.0 NaN 974.3780895123572 0.5344661183508611 271.0 9.0 178.0 
230.00130421359648 1129.0 NaN 965.1142284569156 0.5113184822850039 268.0 9.0 175.0 
232.00130421359648 1135.0 NaN 965.1596526386091 0.5091046945206507 269.0 9.0 175.0 
234.00130421359648 1137.0 NaN 965.0554442217754 0.5111552407945585 267.0 9.0 175.0 
236.00130421359648 1151.0 NaN 962.1082164328636 0.5277020009274803 271.0 9.0 174.0 
238.00130421359648 1142.0 NaN 965.1917167668665 0.5345249454678225 265.0 9.0 175.0 
240.00130421359648 1136.0 NaN 962.0681362725455 0.5090108466909637 264.0 9.0 174.0 
242.00130421359648 1142.0 NaN 965.1356045424182 0.5183996465822608 264.0 9.0 175.0 
244.00130421359648 1134.0 NaN 965.1649966599882 0.5098486306057107 264.0 9.0 175.0 
246.00130421359648 1134.0 NaN 965.2398129592519 0.5118083149882663 263.0 9.0 175.0 
248.00130421359648 1133.0 NaN 962.169672678691 0.5177100362210688 259.0 9.0 174.0 
250.00130421359648 1121.0 NaN 962.0788243152974 0.5149339930429614 258.0 9.0 174.0 
252.00130421359648 1120.0 NaN 962.0654642618573 0.499515116591523 258.0 9.0 174.0 
254.00130421359648 1125.0 NaN 962.0227120908481 0.5197988070036218 259.0 9.0 174.0 
256.0013042135965 1125.0 NaN 962.0200400801612 0.5109601008725362 262.0 9.0 174.0 
258.0013042135965 1128.0 NaN 958.9873079492336 0.5212363204169363 262.0 9.0 173.0 
260.0013042135965 1124.0 NaN 955.8263193052757 0.5207217126482881 261.0 9.0 172.0 
262.0013042135965 1130.0 NaN 959.0247160988635 0.5114246066311027 261.0 9.0 173.0 
264.0013042135965 1127.0 NaN 962.1215764863065 0.5117922294445777 261.0 9.0 174.0 
266.0013042135965 1125.0 NaN 962.1002004008 0.522713564903945 262.0 9.0 174.0 
268.0013042135965 1129.0 NaN 962.0654642618579 0.5359159085348734 265.0 9.0 174.0 
270.0013042135965 1120.0 NaN 958.9686038744148 0.5090887589750074 268.0 9.0 173.0 
272.0013042135965 1121.0 NaN 959.0567802271216 0.5237773804196969 268.0 9.0 173.0 
274.0013042135965 1110.0 NaN 959.0033400133598 0.5104798374356895 268.0 9.0 173.0 
276.0013042135965 1113.0 NaN 958.9205076820311 0.5108519739391005 269.0 9.0 173.0 
278.0013042135965 1123.0 NaN 971.3026052104211 0.540411796939719 268.0 9.0 177.0 
280.0013042135965 1106.0 NaN 968.2191048764183 0.5204274596275171 263.0 9.0 176.0 
282.0013042135965 1098.0 NaN 968.2752171008694 0.5204301912938585 263.0 9.0 176.0 
284.0013042135965 1095.0 NaN 965.0581162324637 0.5027518833954369 263.0 9.0 175.0 
286.0013042135965 1096.0 NaN 965.1169004676001 0.5070769241915152 263.0 9.0 175.0 
288.0013042135965 1102.0 NaN 977.3493653974638 0.5143844692097604 267.0 9.0 179.0 
290.0013042135965 1095.0 NaN 977.2611890447545 0.5113378807243949 266.0 9.0 179.0 
292.0013042135965 1089.0 NaN 974.3166332665329 0.5027319805121712 265.0 9.0 178.0 
294.0013042135965 1096.0 NaN 983.5056780227125 0.49805833265488997 266.0 9.0 181.0 
296.0013042135965 1106.0 NaN 983.5591182364726 0.5066120826924561 267.0 9.0 181.0 
298.0013042135965 1117.0 NaN 980.4702738810964 0.5281486703613563 268.0 9.0 180.0 
300.0013042135965 1100.0 NaN 977.4134936539725 0.507564595204954 269.0 9.0 179.0 
302.0013042135965 1100.0 NaN 968.1897127588508 0.5244587220638144 268.0 9.0 176.0 
304.0013042135965 1093.0 NaN 965.076820307282 0.5133881516450383 267.0 9.0 175.0 
306.0013042135965 1086.0 NaN 958.9498997996002 0.5214730668779554 268.0 9.0 173.0 
308.0013042135965 1097.0 NaN 961.9746158984638 0.5183265613639766 271.0 9.0 174.0 
310.0013042135965 1095.0 NaN 968.1309285237146 0.5018808210651827 271.0 9.0 176.0 
312.0013042135965 1100.0 NaN 968.2030728122908 0.5021453898060089 270.0 9.0 176.0 
314.0013042135965 1100.0 NaN 968.152304609218 0.5194668915237101 268.0 9.0 176.0 
316.0013042135965 1096.0 NaN 971.2651970607876 0.5175464423088565 270.0 9.0 177.0 
318.0013042135965 1104.0 NaN 974.3086172344695 0.523662964983326 274.0 9.0 178.0 
320.0013042135965 1103.0 NaN 977.4001336005364 0.49774921639117914 272.0 9.0 179.0 
322.0013042135965 1109.0 NaN 980.5023380093514 0.5076490250626183 274.0 9.0 180.0 
324.0013042135965 1106.0 NaN 968.1736806947234 0.5133323992123908 274.0 9.0 176.0 
326.0013042135965 1106.0 NaN 962.0467601870406 0.5297062703119001 272.0 9.0 174.0 
328.0013042135965 1107.0 NaN 968.152304609218 0.5146011822714024 272.0 9.0 176.0 
330.0013042135965 1103.0 NaN 968.0748162992638 0.5015485109342909 273.0 9.0 176.0 
332.0013042135965 1103.0 NaN 968.1148964595864 0.5165234892575399 271.0 9.0 176.0 
334.0013042135965 1091.0 NaN 965.0394121576496 0.5014274618079818 265.0 9.0 175.0 
336.0013042135965 1101.0 NaN 958.923179692718 0.5252519351233225 265.0 9.0 173.0 
338.0013042135965 1112.0 NaN 965.1329325317313 0.5314118053010022 269.0 9.0 175.0 
340.0013042135965 1095.0 NaN 965.0955243820958 0.5095393660198269 268.0 9.0 175.0 
342.0013042135965 1093.0 NaN 965.0821643286586 0.5178966384400778 268.0 9.0 175.0 
344.0013042135965 1084.0 NaN 965.0875083500322 0.5018271317972001 268.0 9.0 175.0 
346.0013042135965 1088.0 NaN 952.8630594522372 0.5148203750367429 269.0 9.0 171.0 
348.0013042135965 1086.0 NaN 952.7588510354046 0.5308309486927978 271.0 9.0 171.0 
350.0013042135965 1070.0 NaN 962.0334001335998 0.5005862429367268 270.0 9.0 174.0 
352.0013042135965 1068.0 NaN 962.0681362725455 0.5115694995359359 269.0 9.0 174.0 
354.0013042135965 1062.0 NaN 962.0414161656635 0.5104842513621627 268.0 9.0 174.0 
356.0013042135965 1069.0 NaN 961.9933199732816 0.5180158389601652 264.0 9.0 174.0 
358.0013042135965 1089.0 NaN 952.8390113560454 0.5120469539878912 266.0 9.0 171.0 
360.0013042135965 1087.0 NaN 943.604542418169 0.5152201483262926 264.0 9.0 168.0 
362.0013042135965 1083.0 NaN 940.4756179024729 0.5073228130018513 264.0 9.0 167.0 
364.0013042135965 1077.0 NaN 937.3199732798917 0.5090357634589983 261.0 9.0 166.0 
366.0013042135965 1082.0 NaN 931.2197728790909 0.5179037270351374 258.0 9.0 164.0 
368.0013042135965 1083.0 NaN 931.2144288577146 0.5275374988243784 261.0 9.0 164.0 
370.0013042135965 1069.0 NaN 928.1442885771546 0.5085669618020286 257.0 9.0 163.0 
372.0013042135965 1056.0 NaN 925.0875083500327 0.5031865332569117 259.0 9.0 162.0 
374.0013042135965 1055.0 NaN 925.1035404141626 0.5015147626803713 258.0 9.0 162.0 
376.0013042135965 1065.0 NaN 919.0193720774874 0.5039053754879872 258.0 9.0 160.0 
378.0013042135965 1071.0 NaN 919.0220440881774 0.5158479530203941 260.0 9.0 160.0 
380.0013042135965 1069.0 NaN 919.0006680026728 0.49941696111210987 261.0 9.0 160.0 
382.0013042135965 1076.0 NaN 922.1082164328642 0.5056642730556715 261.0 9.0 161.0 
384.0013042135965 1072.0 NaN 922.1028724114904 0.5136182791224347 256.0 9.0 161.0 
386.0013042135965 1070.0 NaN 919.0861723446901 0.5276378795246627 254.0 9.0 160.0 
388.0013042135965 1078.0 NaN 915.9973279893126 0.5151304450157675 252.0 9.0 159.0 
390.0013042135965 1060.0 NaN 916.0881763527045 0.520251191896204 250.0 9.0 159.0 
392.0013042135965 1057.0 NaN 916.0454241816964 0.5131432935491207 248.0 9.0 159.0 
394.0013042135965 1062.0 NaN 916.0026720106873 0.5149635759792289 248.0 9.0 159.0 
396.0013042135965 1065.0 NaN 916.0855043420182 0.5128806911860838 248.0 9.0 159.0 
398.0013042135965 1079.0 NaN 915.9625918503677 0.5201573379732224 250.0 9.0 159.0 
400.0013042135965 1070.0 NaN 912.9245156980638 0.5123623964746374 249.0 9.0 158.0 
402.0013042135965 1081.0 NaN 909.9051436205734 0.5158565018199015 250.0 9.0 157.0 
404.0013042135965 1087.0 NaN 909.8329993319965 0.5040076553809221 250.0 9.0 157.0 
406.0013042135965 1096.0 NaN 903.826319305277 0.5330086177976173 247.0 9.0 155.0 
408.0013042135965 1084.0 NaN 903.81028724115 0.5459116009022592 246.0 9.0 155.0 
410.0013042135965 1074.0 NaN 906.7788911155634 0.5012071249934799 247.0 9.0 156.0 
412.0013042135965 1083.0 NaN 913.0287241148961 0.5184302454954545 250.0 9.0 158.0 
414.0013042135965 1086.0 NaN 915.981295925182 0.5098789841602767 251.0 9.0 159.0 
416.0013042135965 1087.0 NaN 916.0507682030727 0.5232963094480734 251.0 9.0 159.0 
418.0013042135965 1085.0 NaN 916.0 0.5183507697163005 248.0 9.0 159.0 
420.0013042135965 1077.0 NaN 919.0354041416178 0.5089920611852475 248.0 9.0 160.0 
422.0013042135965 1075.0 NaN 922.1402805611217 0.5093673228034288 250.0 9.0 161.0 
424.0013042135965 1076.0 NaN 919.0006680026729 0.5088520646335769 250.0 9.0 160.0 
426.0013042135965 1079.0 NaN 919.0487641950549 0.531163546188523 249.0 9.0 160.0 
428.0013042135965 1067.0 NaN 912.8924515698055 0.5222177278002874 244.0 9.0 158.0 
430.0013042135965 1055.0 NaN 912.8764195056775 0.5225351487851502 243.0 9.0 158.0 
432.0013042135965 1061.0 NaN 909.8784235136945 0.5086857422815404 242.0 9.0 157.0 
434.0013042135965 1064.0 NaN 909.8062792251177 0.5060255342919381 241.0 9.0 157.0 
436.0013042135965 1083.0 NaN 916.0347361389455 0.5161984757928435 245.0 9.0 159.0 
438.0013042135965 1089.0 NaN 916.0160320641272 0.5079935393465912 244.0 9.0 159.0 
440.0013042135965 1083.0 NaN 918.9819639278544 0.5136589688045259 243.0 9.0 160.0 
442.0013042135965 1095.0 NaN 925.2745490981957 0.518347416693081 242.0 9.0 162.0 
444.0013042135965 1086.0 NaN 925.2264529058127 0.49863883656912333 244.0 9.0 162.0 
446.0013042135965 1110.0 NaN 934.4742818971272 0.5209765968808737 248.0 9.0 165.0 
448.0013042135965 1103.0 NaN 937.4722778891123 0.5286897662105305 248.0 9.0 166.0 
450.0013042135965 1098.0 NaN 937.541750167 0.510344798468905 248.0 10.0 165.0 
452.0013042135965 1096.0 NaN 937.5283901135604 0.5177566896026561 241.0 15.0 160.0 
454.0013042135965 1086.0 NaN 937.480293921176 0.5069775692407829 239.0 17.0 158.0 
456.0013042135965 1101.0 NaN 934.3914495657995 0.5204192146008584 242.0 17.0 157.0 
458.0013042135965 1097.0 NaN 937.4562458249821 0.5150497485844682 242.0 17.0 158.0 
460.0013042135965 1094.0 NaN 937.4482297929181 0.517903158636337 241.0 18.0 157.0 
462.0013042135965 1090.0 NaN 937.5123580494333 0.5288074993953379 240.0 18.0 157.0 
464.0013042135965 1082.0 NaN 937.4161656646637 0.5043402848849966 240.0 18.0 157.0 
466.0013042135965 1092.0 NaN 940.4782899131607 0.5444480120764569 243.0 18.0 158.0 
468.0013042135965 1082.0 NaN 937.437541750167 0.5193426142710327 241.0 18.0 157.0 
470.0013042135965 1081.0 NaN 937.4509018036088 0.5123892924800084 242.0 18.0 157.0 
472.0013042135965 1070.0 NaN 937.448229792918 0.5221685229763681 243.0 17.0 158.0 
474.0013042135965 1056.0 NaN 937.4161656646637 0.521312966535315 249.0 12.0 163.0 
476.0013042135965 1063.0 NaN 940.5210420841689 0.5109234865786761 249.0 10.0 166.0 
478.0013042135965 1065.0 NaN 934.396793587173 0.523256322433003 248.0 9.0 165.0 
480.0013042135965 1055.0 NaN 931.2625250501 0.5188394377688557 246.0 10.0 163.0 
482.0013042135965 1058.0 NaN 925.1169004676004 0.5080008756913896 243.0 10.0 161.0 
484.0013042135965 1050.0 NaN 925.1409485637948 0.5047433180917597 243.0 10.0 161.0 
486.0013042135965 1073.0 NaN 925.1409485637948 0.5143145280826243 244.0 9.0 162.0 
488.0013042135965 1075.0 NaN 918.9979959919822 0.5179296077564376 245.0 9.0 160.0 
490.0013042135965 1072.0 NaN 915.9038076152311 0.5118445604961149 242.0 9.0 159.0 
492.0013042135965 1070.0 NaN 919.0006680026728 0.5038935341831919 243.0 9.0 160.0 
494.0013042135965 1068.0 NaN 918.9044756179039 0.5097684875058605 246.0 9.0 160.0 
496.0013042135965 1072.0 NaN 909.7635270541092 0.5246227752875763 242.0 9.0 157.0 
498.0013042135965 1062.0 NaN 909.7154308617228 0.5147260111279452 242.0 9.0 157.0 
500.0013042135965 1066.0 NaN 906.6265865063452 0.5163984465078276 242.0 9.0 156.0 
502.0013042135965 1066.0 NaN 906.6720106880416 0.5015920673102571 244.0 9.0 156.0 
504.0013042135965 1064.0 NaN 906.6319305277228 0.5137641126726351 242.0 9.0 156.0 
506.0013042135965 1071.0 NaN 903.6045424181689 0.5269886229198986 241.0 9.0 155.0 
508.0013042135965 1066.0 NaN 900.5424181696728 0.5100332495492467 240.0 9.0 154.0 
510.0013042135965 1063.0 NaN 894.3780895123593 0.5168773153153684 237.0 10.0 151.0 
512.0013042135965 1059.0 NaN 891.404141616567 0.5008480658637232 233.0 14.0 146.0 
514.0013042135965 1057.0 NaN 891.3587174348693 0.5099071443508318 237.0 10.0 150.0 
516.0013042135965 1057.0 NaN 894.4689378757511 0.5135814533689596 238.0 9.0 152.0 
518.0013042135965 1046.0 NaN 891.3774215096864 0.5128210193217507 236.0 9.0 151.0 
520.0013042135965 1042.0 NaN 891.3453573814285 0.5030327473162262 236.0 9.0 151.0 
522.0013042135965 1043.0 NaN 894.4368737474956 0.5108579020418336 236.0 9.0 152.0 
524.0013042135965 1038.0 NaN 891.3800935203739 0.5034898653519624 235.0 9.0 151.0 
526.0013042135965 1043.0 NaN 885.2611890447558 0.508470672684577 234.0 9.0 149.0 
528.0013042135965 1036.0 NaN 872.9432197728792 0.5238324854024491 235.0 9.0 145.0 
530.0013042135965 1032.0 NaN 875.9973279893118 0.5262398860044875 234.0 9.0 146.0 
532.0013042135965 1023.0 NaN 876.0961923847698 0.4990145068637466 233.0 9.0 146.0 
534.0013042135965 1024.0 NaN 876.0213760855046 0.4951779778284667 233.0 9.0 146.0 
536.0013042135965 1041.0 NaN 879.1609886439546 0.512773905013151 235.0 9.0 147.0 
538.0013042135965 1049.0 NaN 885.2985971943891 0.5092743662756283 239.0 9.0 149.0 
540.0013042135965 1058.0 NaN 888.3607214428864 0.5013088882232507 238.0 9.0 150.0 
542.0013042135965 1067.0 NaN 888.3660654642617 0.517427140917453 238.0 9.0 150.0 
544.0013042135965 1059.0 NaN 888.2832331329321 0.5129162465248779 238.0 9.0 150.0 
546.0013042135965 1063.0 NaN 888.3767535070136 0.5070109460242715 238.0 9.0 150.0 
548.0013042135965 1069.0 NaN 885.2317969271878 0.5349281929482068 237.0 9.0 149.0 
550.0013042135965 1056.0 NaN 888.2885771543091 0.5091786230514932 239.0 9.0 150.0 
552.0013042135965 1055.0 NaN 891.4308617234469 0.5093242559819859 245.0 9.0 151.0 
554.0013042135965 1052.0 NaN 888.3527054108225 0.5055375377339553 245.0 9.0 150.0 
556.0013042135965 1058.0 NaN 894.5170340681364 0.5017809704860922 243.0 9.0 152.0 
558.0013042135965 1060.0 NaN 894.4662658650636 0.5209979146296307 245.0 9.0 152.0 
560.0013042135965 1064.0 NaN 900.6225784903136 0.5247282557523555 242.0 9.0 154.0 
562.0013042135965 1050.0 NaN 900.6412825651305 0.517325393202107 242.0 9.0 154.0 
564.0013042135965 1052.0 NaN 900.6359385437545 0.5130981439409789 242.0 9.0 154.0 
566.0013042135965 1046.0 NaN 903.7381429525726 0.5093348429851091 243.0 9.0 155.0 
568.0013042135965 1059.0 NaN 903.7434869739484 0.5160576695970347 247.0 9.0 155.0 
570.0013042135965 1054.0 NaN 900.6626586506347 0.5203857185747766 246.0 9.0 154.0 
572.0013042135965 1054.0 NaN 900.7882431529728 0.49899293110903303 246.0 9.0 154.0 
574.0013042135965 1057.0 NaN 903.8209752839001 0.5161020456030936 247.0 9.0 155.0 
576.0013042135965 1053.0 NaN 903.7995991983968 0.5181788655574731 245.0 9.0 155.0 
578.0013042135965 1059.0 NaN 906.851035404141 0.5210010783402268 245.0 9.0 156.0 
580.0013042135965 1064.0 NaN 906.7949231796924 0.5147212967463853 245.0 9.0 156.0 
582.0013042135965 1059.0 NaN 906.8750835003334 0.5118159691668076 245.0 9.0 156.0 
584.0013042135965 1057.0 NaN 900.7080828323318 0.51661737239913 245.0 9.0 154.0 
586.0013042135965 1053.0 NaN 900.7107548430195 0.5086106155003586 246.0 9.0 154.0 
588.0013042135965 1068.0 NaN 900.6973947895787 0.5155123209557828 245.0 9.0 154.0 
590.0013042135965 1065.0 NaN 903.7194388777547 0.5131661154902516 249.0 9.0 155.0 
592.0013042135965 1069.0 NaN 909.9158316633273 0.5002297901771051 250.0 9.0 157.0 
594.0013042135965 1073.0 NaN 912.9672678690717 0.5026684978827188 250.0 9.0 158.0 
596.0013042135965 1071.0 NaN 912.9672678690717 0.5103807995529077 252.0 9.0 158.0 
598.0013042135965 1089.0 NaN 925.3119572478279 0.5350167051014008 255.0 9.0 162.0 
600.0013042135965 1075.0 NaN 925.1863727454909 0.5147050997577679 254.0 9.0 162.0 
602.0013042135965 1078.0 NaN 922.1883767535085 0.5088725087784226 253.0 9.0 161.0 
604.0013042135965 1076.0 NaN 919.1155644622581 0.5056057849463425 252.0 9.0 160.0 
606.0013042135965 1082.0 NaN 915.9893119572489 0.5255422734401262 250.0 9.0 159.0 
608.0013042135965 1082.0 NaN 919.1128924515689 0.5398162211584316 253.0 9.0 160.0 
610.0013042135965 1068.0 NaN 922.0921843687362 0.5245334912353371 256.0 9.0 161.0 
612.0013042135965 1074.0 NaN 922.2444889779553 0.5119334455797098 257.0 9.0 161.0 
614.0013042135965 1066.0 NaN 922.2418169672683 0.5071074514945166 259.0 9.0 161.0 
616.0013042135965 1078.0 NaN 922.1937207748824 0.5145202592279723 262.0 9.0 161.0 
618.0013042135965 1095.0 NaN 940.6359385437546 0.5445716564908296 259.0 9.0 167.0 
620.0013042135965 1074.0 NaN 931.4522378089507 0.5161129468651663 257.0 9.0 164.0 
622.0013042135965 1067.0 NaN 928.4061456245817 0.5181064438175994 260.0 9.0 163.0 
624.0013042135965 1061.0 NaN 931.4816299265187 0.5037261303062246 260.0 9.0 164.0 
626.0013042135965 1080.0 NaN 934.5651302605222 0.5170746389714966 260.0 9.0 165.0 
628.0013042135965 1104.0 NaN 940.7855711422859 0.5288488913308399 262.0 9.0 167.0 
630.0013042135965 1080.0 NaN 943.7755511022045 0.5263760664018112 262.0 9.0 168.0 
632.0013042135965 1079.0 NaN 940.6733466933863 0.5332970811437742 262.0 9.0 167.0 
634.0013042135965 1066.0 NaN 943.7274549098186 0.5095150194463904 262.0 9.0 168.0 
636.0013042135965 1085.0 NaN 953.0287241148957 0.5134950035384539 263.0 9.0 171.0 
638.0013042135965 1118.0 NaN 956.1496325985311 0.5316812301406366 263.0 9.0 172.0 
640.0013042135965 1097.0 NaN 956.0454241816963 0.5238961689265329 263.0 9.0 172.0 
642.0013042135965 1106.0 NaN 962.1589846359366 0.5258472369580955 263.0 9.0 174.0 
644.0013042135965 1095.0 NaN 962.150968603873 0.5068190006426143 261.0 9.0 174.0 
646.0013042135965 1105.0 NaN 968.3366733466943 0.5238598284202513 262.0 9.0 176.0 
648.0013042135965 1098.0 NaN 971.4468937875757 0.5390351289872006 265.0 9.0 177.0 
650.0013042135965 1065.0 NaN 971.4121576486303 0.5076166120563882 267.0 9.0 177.0 
652.0013042135965 1070.0 NaN 974.4609218436877 0.5256861720248968 269.0 9.0 178.0 
654.0013042135965 1057.0 NaN 974.4609218436877 0.5088025787602575 266.0 9.0 178.0 
656.0013042135965 1082.0 NaN 980.6199064796272 0.5081499011932942 266.0 9.0 180.0 
658.0013042135965 1101.0 NaN 989.9345357381429 0.5175063248006982 274.0 9.0 183.0 
660.0013042135965 1093.0 NaN 993.0153640614548 0.5123680605072143 273.0 9.0 184.0 
662.0013042135965 1095.0 NaN 989.8757515030061 0.5096111417941278 271.0 9.0 183.0 
664.0013042135965 1090.0 NaN 989.7742150968608 0.5162281917751944 271.0 9.0 183.0 
#####################################################################
# End of data export. Simulation finished at: 2019-03-13T12:33+0000 #
#####################################################################
