#####################################################################
# Alchemist log file - simulation started at: 2019-03-01T22:15+0000 #
#####################################################################
# seed = 0.0, bandwidth = 4216.965034285822, propagationDelay = 1.0, baserange = 17.78279410038923
#
# The columns have the following meaning: 
# time neighbor_count[Sum] <value>@neighbor_count[Sum] packet_size[Mean] mean_delay[Mean] crowd[Sum] overcrowded[Sum] risk[Sum] 
0.0 NaN NaN NaN NaN NaN NaN NaN 
10.000405536260626 1120.0 NaN 4993.579158316633 0.8558976512052403 1496.0 1.0 1496.0 
20.000405536260626 1126.0 NaN 4991.083500334002 1.8964976753177039 1490.0 7.0 1490.0 
30.000405536260626 1133.0 NaN 4990.829659318637 2.0764328810369905 1490.0 7.0 1490.0 
40.00040553626063 1154.0 NaN 4990.979291917168 1.050756245106953 1490.0 7.0 1490.0 
50.00040553626063 1168.0 NaN 4990.912491649967 2.0893499881269926 1490.0 7.0 1490.0 
60.00040553626063 1200.0 NaN 4988.072144288577 2.4641589576384417 1489.0 7.0 1489.0 
70.00040553626063 1221.0 NaN 996.109552438209 1.780068740173688 377.0 6.0 188.0 
80.00040553626063 1214.0 NaN 995.9091516366078 2.3114178010566784 321.0 6.0 188.0 
90.00040553626063 1195.0 NaN 1001.9986639946544 2.1677255463230036 300.0 6.0 190.0 
100.00040553626063 1194.0 NaN 1014.2712090848363 1.7747128054592292 291.0 6.0 194.0 
110.00040553626063 1202.0 NaN 1017.3520374081467 2.28856770857056 292.0 6.0 195.0 
120.00040553626063 1209.0 NaN 1017.3226452905819 2.478398111521328 290.0 6.0 195.0 
130.00040553626064 1224.0 NaN 1026.634602538409 2.065728079504638 291.0 6.0 198.0 
140.00040553626064 1217.0 NaN 1017.3253173012711 2.6254797816338358 289.0 6.0 195.0 
150.00040553626064 1228.0 NaN 1020.5130260521016 2.2877292834716085 287.0 6.0 196.0 
160.00040553626064 1256.0 NaN 1023.4789579158291 1.7253653962828606 289.0 6.0 197.0 
170.00040553626064 1283.0 NaN 1026.5891783567104 2.4909529227372427 292.0 6.0 198.0 
180.00040553626064 1280.0 NaN 1017.3627254509 2.7340764630272703 292.0 6.0 195.0 
190.00040553626064 1255.0 NaN 1020.4301937207726 2.205020331151451 287.0 6.0 196.0 
200.00040553626064 1252.0 NaN 1017.3734134936548 2.523773454981349 290.0 6.0 195.0 
210.00040553626064 1255.0 NaN 1008.2244488977987 2.624233112443552 290.0 6.0 192.0 
220.00040553626064 1248.0 NaN 1008.1763527054093 2.1095369611237738 289.0 7.0 191.0 
230.00040553626064 1272.0 NaN 1026.5758183032726 2.644993281053106 285.0 12.0 192.0 
240.00040553626064 1276.0 NaN 1020.3633934535725 2.823119931468583 290.0 6.0 196.0 
250.00040553626064 1254.0 NaN 1008.2645290581182 2.6654010932749936 287.0 6.0 192.0 
260.00040553626064 1237.0 NaN 1008.0988643954555 2.8098887246318616 288.0 6.0 192.0 
270.00040553626064 1225.0 NaN 1001.8810955243816 2.7409065393279026 284.0 6.0 190.0 
280.00040553626064 1221.0 NaN 1011.2197728790908 2.4953366890348554 289.0 6.0 193.0 
290.00040553626064 1202.0 NaN 1004.9752839011365 2.9479229135939216 286.0 6.0 191.0 
300.00040553626064 1198.0 NaN 1011.1422845691362 2.7805890591561164 291.0 6.0 193.0 
310.00040553626064 1189.0 NaN 1008.1229124916525 2.2001591558385627 284.0 6.0 192.0 
320.00040553626064 1205.0 NaN 1002.0467601870388 2.6135522125832016 279.0 6.0 190.0 
330.00040553626064 1209.0 NaN 1002.0227120908484 2.676043998347173 283.0 6.0 190.0 
340.00040553626064 1192.0 NaN 1011.1690046760181 2.177396160311788 288.0 6.0 193.0 
350.00040553626064 1194.0 NaN 1001.8704074816307 2.80803441924862 290.0 6.0 190.0 
360.00040553626064 1177.0 NaN 1001.9131596526362 2.9719890751705798 288.0 6.0 190.0 
370.00040553626064 1166.0 NaN 998.8323313293274 2.5847243817710077 287.0 6.0 189.0 
380.00040553626064 1155.0 NaN 1001.8249832999342 2.547474522417376 289.0 6.0 190.0 
390.00040553626064 1170.0 NaN 977.325317301269 2.5208276014104234 283.0 6.0 182.0 
400.00040553626064 1175.0 NaN 974.3433533734125 2.260620230272916 280.0 6.0 181.0 
410.00040553626064 1212.0 NaN 962.0788243152967 2.8444232422195768 281.0 6.0 177.0 
420.00040553626064 1208.0 NaN 949.8196392785571 2.954821067672639 271.0 6.0 173.0 
430.00040553626064 1193.0 NaN 940.6332665330664 2.572498855313761 262.0 6.0 170.0 
440.00040553626064 1198.0 NaN 959.0193720774884 2.8555912545871256 261.0 6.0 176.0 
450.00040553626064 1206.0 NaN 962.0681362725456 3.0058483419244695 266.0 6.0 177.0 
460.00040553626064 1220.0 NaN 952.8657314629272 2.4824462281139774 266.0 7.0 173.0 
470.00040553626064 1216.0 NaN 962.0440881763545 2.7958443387349665 256.0 14.0 169.0 
480.00040553626064 1184.0 NaN 958.9712758851027 2.984699509777573 255.0 14.0 168.0 
490.00040553626064 1185.0 NaN 959.0701402805614 2.6237248184396864 253.0 14.0 168.0 
500.00040553626064 1165.0 NaN 952.7828991315971 2.7065053052240624 252.0 14.0 166.0 
510.00040553626064 1157.0 NaN 934.3112892451583 2.40548747953997 250.0 13.0 161.0 
520.0004055362606 1138.0 NaN 922.124248496995 2.223054037268986 253.0 6.0 164.0 
530.0004055362606 1139.0 NaN 915.9038076152311 2.622372219517782 250.0 6.0 162.0 
540.0004055362606 1136.0 NaN 922.038744154977 2.5018387403308338 250.0 6.0 164.0 
550.0004055362606 1136.0 NaN 912.9806279225127 2.4698322954586294 252.0 6.0 161.0 
560.0004055362606 1141.0 NaN 912.9405477621908 2.7343071109242185 255.0 6.0 161.0 
570.0004055362606 1177.0 NaN 912.9645958583824 2.658088253474314 253.0 6.0 161.0 
580.0004055362606 1190.0 NaN 909.9265197060781 2.532530504703542 251.0 6.0 160.0 
590.0004055362606 1186.0 NaN 916.0347361389455 2.782157738594697 258.0 6.0 162.0 
600.0004055362606 1193.0 NaN 934.3780895123591 2.883512490585349 263.0 6.0 168.0 
610.0004055362606 1209.0 NaN 943.7140948563781 2.512609034465943 267.0 6.0 171.0 
620.0004055362606 1223.0 NaN 959.0113560454238 2.896748146124041 270.0 6.0 176.0 
630.0004055362606 1229.0 NaN 962.2017368069457 3.035620056001845 268.0 6.0 177.0 
640.0004055362606 1285.0 NaN 989.8570474281906 2.740230078518402 270.0 6.0 186.0 
650.0004055362606 1304.0 NaN 995.9358717434878 3.184406294342381 279.0 6.0 188.0 
660.0004055362606 1284.0 NaN 1005.0848363393454 3.0103731189678165 282.0 6.0 191.0 
#####################################################################
# End of data export. Simulation finished at: 2019-03-01T22:20+0000 #
#####################################################################
