#####################################################################
# Alchemist log file - simulation started at: 2019-03-06T12:06+0000 #
#####################################################################
# seed = 4.0, bandwidth = 17782.79410038923, propagationDelay = 0.01, baserange = 17.78279410038923
#
# The columns have the following meaning: 
# time neighbor_count[Sum] <value>@neighbor_count[Sum] packet_size[Mean] mean_delay[Mean] crowd[Sum] overcrowded[Sum] risk[Sum] 
0.0 NaN NaN NaN NaN NaN NaN NaN 
2.0002833139128735 1070.0 NaN 4991.500334001336 0.4834978082332855 1497.0 0.0 1497.0 
4.00042902272939 1118.0 NaN 4996.056112224449 0.4988875272696288 1497.0 0.0 1497.0 
6.000479336559067 1118.0 NaN 4994.209752839011 0.4990469378105242 1496.0 1.0 1496.0 
8.000479336559067 1118.0 NaN 4993.226452905812 0.49927695269876843 1493.0 4.0 1493.0 
10.000479336559067 1118.0 NaN 4993.207748830995 0.5016108878726402 1490.0 7.0 1490.0 
12.000479336559067 1120.0 NaN 4993.138276553106 0.5143071293281669 1490.0 7.0 1490.0 
14.000058377382798 1120.0 NaN 4992.619906479626 0.5265878356457023 1490.0 7.0 1490.0 
16.000058377382796 1126.0 NaN 4992.309953239813 0.5461273092678283 1490.0 7.0 1490.0 
18.0000583773828 1126.0 NaN 4992.6706746826985 0.5713502363768304 1490.0 7.0 1490.0 
20.000479336559067 1126.0 NaN 4992.192384769539 0.5965568826576203 1490.0 7.0 1490.0 
22.000479336559067 1126.0 NaN 4992.350033400134 0.6218115945461453 1490.0 7.0 1490.0 
24.000283313912874 1128.0 NaN 4992.438209752839 0.6472882573811235 1490.0 7.0 1490.0 
26.000479336559067 1134.0 NaN 4992.040080160321 0.66466978174974 1490.0 7.0 1490.0 
28.000479336559067 1134.0 NaN 4992.304609218437 0.6966134199549016 1490.0 7.0 1490.0 
30.000479336559067 1140.0 NaN 4992.419505678023 0.7186077898608513 1490.0 7.0 1490.0 
32.00047933655907 1138.0 NaN 4991.796927187709 0.6739740441508761 1490.0 7.0 1490.0 
34.00042902272939 1136.0 NaN 4992.144288577154 0.6768327200585844 1490.0 7.0 1490.0 
36.00005837738279 1142.0 NaN 4992.395457581831 0.7120219324096559 1490.0 7.0 1490.0 
38.00005837738279 1138.0 NaN 4991.895791583166 0.6383240774335824 1490.0 7.0 1490.0 
40.00005837738279 1142.0 NaN 4992.088176352705 0.6726020796060707 1490.0 7.0 1490.0 
42.00047933655907 1146.0 NaN 4992.093520374082 0.7056340682958392 1490.0 7.0 1490.0 
44.00042902272939 1146.0 NaN 4991.583166332665 0.7519485693882372 1490.0 7.0 1490.0 
46.000283313912874 1162.0 NaN 4991.86372745491 0.7676345122919482 1490.0 7.0 1490.0 
48.00047933655907 1162.0 NaN 4992.291249164997 0.7558364022175303 1490.0 7.0 1490.0 
50.00047933655907 1168.0 NaN 4991.746158984636 0.8063172095957156 1490.0 7.0 1490.0 
52.00047933655907 1166.0 NaN 4991.772879091516 0.7751534307116267 1490.0 7.0 1490.0 
54.00042902272939 1172.0 NaN 4992.171008684035 0.7929824387223942 1490.0 7.0 1490.0 
56.00047933655907 1183.0 NaN 4991.663326653306 0.8504898847649357 1490.0 7.0 1490.0 
58.00005837738279 1184.0 NaN 4991.925183700735 0.8647202879082443 1490.0 7.0 1490.0 
60.00005837738279 1192.0 NaN 4992.208416833667 0.9432513439638587 1490.0 7.0 1490.0 
62.00047933655907 1193.0 NaN 977.7875751502999 0.9818484119732105 491.0 6.0 182.0 
64.00042902272939 1201.0 NaN 986.8189712758831 0.9907119730656646 478.0 6.0 185.0 
66.00047933655907 1202.0 NaN 986.8697394789558 1.037430075513253 426.0 6.0 185.0 
68.00047933655907 1197.0 NaN 986.7575150300622 1.049990334312097 372.0 6.0 185.0 
70.00047933655907 1201.0 NaN 986.7548430193729 1.1291129592967044 350.0 6.0 185.0 
72.00047933655907 1200.0 NaN 989.7555110220455 1.1699771157958112 336.0 6.0 186.0 
74.00042902272939 1198.0 NaN 989.6700066800275 1.190500592267351 329.0 6.0 186.0 
76.00047933655907 1186.0 NaN 989.6726786907168 1.0197405563743642 318.0 6.0 186.0 
78.00047933655907 1178.0 NaN 989.6726786907168 1.0144214579276756 310.0 6.0 186.0 
80.00047933655907 1178.0 NaN 989.6486305945193 1.0837426102737426 308.0 6.0 186.0 
82.00047933655907 1168.0 NaN 989.6352705410817 1.0271129221901913 308.0 6.0 186.0 
84.00042902272939 1170.0 NaN 992.7160988643988 1.02526507042217 301.0 6.0 187.0 
86.00047933655907 1175.0 NaN 995.8209752838997 1.0513743535804814 294.0 6.0 188.0 
88.00047933655907 1167.0 NaN 998.9498997996002 0.9802609507906419 290.0 6.0 189.0 
90.00047933655907 1166.0 NaN 995.917167668673 0.9360858336486939 287.0 6.0 188.0 
92.00047933655907 1168.0 NaN 995.837007348027 0.9473111689852263 288.0 6.0 188.0 
94.00042902272939 1167.0 NaN 995.8423513694077 0.9934281903497049 288.0 6.0 188.0 
96.00047933655907 1178.0 NaN 1002.0013360053456 1.0666362998586083 289.0 6.0 190.0 
98.00047933655907 1177.0 NaN 1002.0280561122258 1.1458988854584433 290.0 6.0 190.0 
100.00047933655907 1180.0 NaN 1005.1062124248467 1.1710500530439607 290.0 6.0 191.0 
102.00047933655907 1178.0 NaN 1005.1890447561805 1.166435353200943 288.0 6.0 191.0 
104.00042902272939 1172.0 NaN 1005.1302605210442 1.123864517779385 289.0 6.0 191.0 
106.00047933655907 1172.0 NaN 998.8991315965275 1.108514227353377 289.0 6.0 189.0 
108.00047933655907 1173.0 NaN 998.9979959919816 1.1919042173708763 289.0 6.0 189.0 
110.00047933655907 1184.0 NaN 1002.0280561122258 1.2528209923491536 289.0 6.0 190.0 
112.00040372335839 1184.0 NaN 998.9044756179017 1.3074175574863545 289.0 6.0 189.0 
114.00040372335839 1183.0 NaN 998.9285237140925 1.3259768744520342 288.0 6.0 189.0 
116.00040372335839 1177.0 NaN 1002.0200400801623 1.2235365107676528 287.0 6.0 190.0 
118.00040372335839 1182.0 NaN 1008.162992651973 1.279342562306402 286.0 7.0 191.0 
120.00040372335839 1179.0 NaN 1008.2565130260532 1.3131310323837595 287.0 7.0 191.0 
122.00040372335839 1172.0 NaN 1008.1175684702724 1.1062827574097518 284.0 7.0 191.0 
124.00040372335839 1179.0 NaN 1008.1870407481638 1.197069957185539 285.0 6.0 192.0 
126.00040372335839 1184.0 NaN 1011.299933199735 1.2559929022954905 286.0 6.0 193.0 
128.00040372335837 1189.0 NaN 1011.2491649966623 1.22970905471831 285.0 6.0 193.0 
130.00040372335837 1198.0 NaN 1014.4342017368094 1.1853608913086637 285.0 6.0 194.0 
132.00040372335837 1198.0 NaN 1011.3747494990002 1.2017923467011602 281.0 6.0 193.0 
134.00040372335837 1202.0 NaN 1005.1596526386089 1.275601322218574 280.0 6.0 191.0 
136.00040372335837 1200.0 NaN 1008.2484969939892 1.2825827878022655 281.0 6.0 192.0 
138.00040372335837 1192.0 NaN 1008.2351369405451 1.1663296501179683 281.0 6.0 192.0 
140.00040372335837 1201.0 NaN 1011.3613894455559 1.1061033467104635 281.0 6.0 193.0 
142.00047933655907 1207.0 NaN 1014.431529726118 1.0639510071425589 283.0 6.0 194.0 
144.0004290227294 1210.0 NaN 1017.5310621242469 1.1696006627096525 284.0 6.0 195.0 
146.00047933655907 1202.0 NaN 1017.4909819639271 1.1733222935785015 283.0 6.0 195.0 
148.00047933655907 1199.0 NaN 1017.405477621909 1.1259271636957728 283.0 6.0 195.0 
150.00047933655907 1209.0 NaN 1017.3841015364076 1.081530057840773 284.0 6.0 195.0 
152.00047933655907 1220.0 NaN 1017.4295257181014 0.9889265677106783 282.0 6.0 195.0 
154.0004290227294 1227.0 NaN 1020.4782899131623 0.9832246938173274 286.0 6.0 196.0 
156.00047933655907 1233.0 NaN 1020.4916499666001 0.9987028707627057 287.0 6.0 196.0 
158.00047933655907 1226.0 NaN 1017.4562458249817 1.011483655320859 286.0 6.0 195.0 
160.00047933655907 1229.0 NaN 1017.4321977287909 1.0389572881294635 288.0 6.0 195.0 
162.00047933655907 1236.0 NaN 1023.5858383433547 0.9994805598337938 289.0 6.0 197.0 
164.00040372335837 1242.0 NaN 1020.4782899131624 1.0727423608772897 290.0 6.0 196.0 
166.00040372335837 1246.0 NaN 1014.3193052772197 1.152197325584915 294.0 6.0 194.0 
168.00040372335837 1249.0 NaN 1014.3674014696078 1.2224546389778284 294.0 6.0 194.0 
170.00047933655907 1263.0 NaN 1017.4161656646639 1.1938357245233422 293.0 6.0 195.0 
172.00047933655907 1255.0 NaN 1017.4295257181013 1.1520090933577876 292.0 6.0 195.0 
174.0004290227294 1255.0 NaN 1017.4295257181013 1.2148654810809167 290.0 6.0 195.0 
176.00047933655907 1252.0 NaN 1020.464929859718 1.2992584893803227 288.0 6.0 196.0 
178.00047933655907 1250.0 NaN 1023.6045424181716 1.302939470751141 288.0 6.0 197.0 
180.00047933655907 1260.0 NaN 1011.3667334669351 1.3265473353425834 288.0 6.0 193.0 
182.00047933655907 1243.0 NaN 1008.1549766199078 1.2761969178661217 288.0 6.0 192.0 
184.00040372335837 1227.0 NaN 1008.0828323313272 1.1913217436632588 287.0 6.0 192.0 
186.00040372335837 1225.0 NaN 1008.0961923847716 1.2309664083614773 286.0 6.0 192.0 
188.00040372335837 1225.0 NaN 1005.0126920507652 1.290969502893305 286.0 6.0 191.0 
190.00040372335837 1239.0 NaN 1008.1202404809635 1.3460644490542626 287.0 6.0 192.0 
192.00047933655907 1229.0 NaN 1008.152304609218 1.304319663911834 286.0 6.0 192.0 
194.0004290227294 1225.0 NaN 1008.1202404809635 1.2928250474394367 286.0 6.0 192.0 
196.00047933655907 1218.0 NaN 1004.9966599866382 1.287435731258938 286.0 6.0 191.0 
198.00047933655907 1217.0 NaN 1005.0554442217745 1.298466051455072 286.0 6.0 191.0 
200.00047933655907 1228.0 NaN 998.9819639278543 1.2622809768615582 287.0 6.0 189.0 
202.00047933655907 1224.0 NaN 992.8149632598545 1.2046411438989872 290.0 6.0 187.0 
204.00040372335837 1224.0 NaN 992.753507014027 1.36193172015653 292.0 6.0 187.0 
206.00040372335837 1229.0 NaN 992.7855711422833 1.4747043727708855 291.0 6.0 187.0 
208.00040372335837 1225.0 NaN 995.8370073480272 1.3076815954163559 291.0 6.0 188.0 
210.00040372335837 1237.0 NaN 998.9739478957908 1.3179998946199438 290.0 6.0 189.0 
212.00040372335837 1226.0 NaN 998.9071476285911 1.3572331080099986 288.0 6.0 189.0 
214.00040372335837 1234.0 NaN 1001.9906479625907 1.4681758207863982 285.0 8.0 188.0 
216.00040372335837 1235.0 NaN 1008.1603206412816 1.492572334491148 285.0 12.0 186.0 
218.00040372335837 1237.0 NaN 1008.1656646626564 1.521356554678397 285.0 12.0 186.0 
220.00040372335837 1243.0 NaN 1011.3052772211092 1.4382330421140481 282.0 12.0 187.0 
222.00040372335837 1234.0 NaN 1017.4883099532378 1.233544623095293 284.0 12.0 189.0 
224.00040372335837 1238.0 NaN 1020.4943219772898 1.317545760067954 286.0 12.0 190.0 
226.00040372335837 1232.0 NaN 1023.5404141616544 1.2580574897620183 283.0 12.0 191.0 
228.00040372335837 1245.0 NaN 1023.6686706746816 1.3760403482109393 283.0 12.0 191.0 
230.00040372335837 1243.0 NaN 1026.7147628590535 1.427074275815451 285.0 12.0 192.0 
232.00047933655907 1239.0 NaN 1023.5965263861077 1.3626591131298036 289.0 12.0 191.0 
234.0004290227294 1244.0 NaN 1023.5778223112909 1.383614742311565 289.0 11.0 192.0 
236.00040372335837 1252.0 NaN 1029.7742150968627 1.501836776114843 294.0 6.0 199.0 
238.00040372335837 1250.0 NaN 1029.8036072144273 1.5479400235280139 294.0 6.0 199.0 
240.00040372335837 1261.0 NaN 1026.7414829659283 1.5633379045215396 293.0 6.0 198.0 
242.00040372335837 1243.0 NaN 1020.4916499666001 1.5555127846503969 293.0 6.0 196.0 
244.00040372335837 1238.0 NaN 1011.2945891783544 1.664287008062909 291.0 6.0 193.0 
246.00040372335837 1233.0 NaN 1005.1275885103547 1.5737222452354 290.0 6.0 191.0 
248.00040372335837 1228.0 NaN 1005.0981963927834 1.5550426445057552 290.0 6.0 191.0 
250.00047933655907 1228.0 NaN 1002.076152304609 1.5965447421420504 289.0 6.0 190.0 
252.00047933655907 1212.0 NaN 998.9498997996002 1.5416467474451805 289.0 6.0 189.0 
254.0004290227294 1206.0 NaN 995.7942551770194 1.4613425720562496 288.0 6.0 188.0 
256.00047933655907 1212.0 NaN 995.8129592518362 1.2479059158383432 286.0 6.0 188.0 
258.00047933655907 1215.0 NaN 998.9819639278543 1.315582535123928 286.0 6.0 189.0 
260.00047933655907 1207.0 NaN 995.8530394121557 1.258157012397738 281.0 6.0 188.0 
262.00047933655907 1206.0 NaN 995.8263193052738 1.2776909266227756 282.0 6.0 188.0 
264.0004290227294 1205.0 NaN 1002.0521042084182 1.2528459438860835 283.0 6.0 190.0 
266.00047933655907 1211.0 NaN 1002.0066800267181 1.3454962162529196 287.0 6.0 190.0 
268.00047933655907 1209.0 NaN 1001.9372077488287 1.3175669379603534 288.0 6.0 190.0 
270.00047933655907 1206.0 NaN 1001.9879759519014 1.367797636817926 290.0 6.0 190.0 
272.00047933655907 1205.0 NaN 1002.0013360053455 1.4047859880718256 291.0 6.0 190.0 
274.0004290227294 1200.0 NaN 1001.9452237808922 1.5055143855883657 291.0 6.0 190.0 
276.00047933655907 1209.0 NaN 1011.2491649966622 1.4778391591259035 291.0 6.0 193.0 
278.00047933655907 1210.0 NaN 1014.3193052772194 1.48965953899819 292.0 6.0 194.0 
280.00047933655907 1206.0 NaN 1011.1556446225807 1.5160881276454188 291.0 6.0 193.0 
282.00047933655907 1199.0 NaN 1011.1823647294558 1.5227292963034298 289.0 6.0 193.0 
284.0004290227294 1193.0 NaN 1008.037408149635 1.5135047548321428 288.0 6.0 192.0 
286.00047933655907 1188.0 NaN 1008.0320641282543 1.5436601894902453 288.0 6.0 192.0 
288.00047933655907 1187.0 NaN 1008.1576486305923 1.623295423179049 288.0 6.0 192.0 
290.00047933655907 1186.0 NaN 1008.069472277891 1.6869525627760769 287.0 6.0 192.0 
292.00047933655907 1178.0 NaN 1001.8837675350709 1.57048119490858 287.0 6.0 190.0 
294.0004290227294 1178.0 NaN 1014.2925851703379 1.6113179530347805 289.0 6.0 194.0 
296.00047933655907 1177.0 NaN 1011.2010688042745 1.5015299358521035 287.0 6.0 193.0 
298.00047933655907 1180.0 NaN 1011.1983967935892 1.4584530636249042 286.0 6.0 193.0 
300.00047933655907 1173.0 NaN 1001.9799599198383 1.2066770938401905 283.0 6.0 190.0 
302.00047933655907 1170.0 NaN 1001.9265197060798 1.086997163924407 283.0 6.0 190.0 
304.0004290227294 1173.0 NaN 1001.9185036740159 1.0949360727619613 283.0 6.0 190.0 
306.00047933655907 1178.0 NaN 1005.0207080828344 1.0926382324862185 284.0 6.0 191.0 
308.00047933655907 1176.0 NaN 1001.8997995992003 1.1302250461641223 281.0 6.0 190.0 
310.00047933655907 1172.0 NaN 995.847695390782 1.229168831418556 279.0 6.0 188.0 
312.00047933655907 1174.0 NaN 992.7962591850363 1.3635352133800425 280.0 6.0 187.0 
314.0004290227294 1166.0 NaN 992.7054108216458 1.3674534736413033 279.0 6.0 187.0 
316.00047933655907 1176.0 NaN 998.8697394789566 1.4076219048115077 282.0 6.0 189.0 
318.00047933655907 1176.0 NaN 995.8316633266545 1.251702515675897 285.0 6.0 188.0 
320.00047933655907 1187.0 NaN 1002.0120240480977 1.2653758628897782 286.0 6.0 190.0 
322.00047933655907 1185.0 NaN 995.861055444221 1.1998056263192307 287.0 6.0 188.0 
324.0004290227294 1186.0 NaN 992.8229792919184 1.2187501592950483 287.0 6.0 187.0 
326.00047933655907 1179.0 NaN 989.7314629258516 1.1525784388630387 287.0 6.0 186.0 
328.00047933655907 1170.0 NaN 992.7989311957239 1.185822095491184 288.0 6.0 187.0 
330.00047933655907 1171.0 NaN 989.7742150968603 1.206001471331507 286.0 6.0 186.0 
332.00047933655907 1176.0 NaN 992.7828991315965 1.2448011635724694 287.0 6.0 187.0 
334.0004290227294 1181.0 NaN 989.6406145624584 1.3735297424399846 289.0 6.0 186.0 
336.00047933655907 1184.0 NaN 989.6673346693399 1.4009668728381937 290.0 6.0 186.0 
338.00047933655907 1176.0 NaN 992.6092184368725 1.3516738409714604 288.0 6.0 187.0 
340.00047933655907 1177.0 NaN 989.568470273882 1.4971941480188662 288.0 6.0 186.0 
342.00047933655907 1173.0 NaN 986.5063460253817 1.2988040509150212 289.0 6.0 185.0 
344.0004290227294 1173.0 NaN 986.4769539078139 1.3605484670482182 289.0 6.0 185.0 
346.00047933655907 1177.0 NaN 992.6733466933869 1.4539300177786685 291.0 6.0 187.0 
348.00047933655907 1170.0 NaN 989.6432865731452 1.5063180524391075 292.0 6.0 186.0 
350.00047933655907 1166.0 NaN 986.5945223780909 1.5312599819449861 290.0 6.0 185.0 
352.00047933655907 1158.0 NaN 986.5330661322635 1.4949676957160922 288.0 6.0 185.0 
354.0004290227294 1155.0 NaN 986.6158984635949 1.6586913455497418 288.0 6.0 185.0 
356.00047933655907 1163.0 NaN 986.5678022712091 1.7215651326348491 288.0 6.0 185.0 
358.00047933655907 1161.0 NaN 989.568470273882 1.8067496645751047 287.0 6.0 186.0 
360.00047933655907 1158.0 NaN 989.6753507014038 1.7696932449646379 285.0 6.0 186.0 
362.00047933655907 1150.0 NaN 992.6840347361401 1.6444869692437007 286.0 6.0 187.0 
364.0004290227294 1144.0 NaN 989.5711422845689 1.5003992352379552 287.0 6.0 186.0 
366.00047933655907 1141.0 NaN 983.4655978623907 1.4766664058584618 287.0 6.0 184.0 
368.00047933655907 1129.0 NaN 986.4983299933184 1.3020069046174139 287.0 6.0 185.0 
370.00047933655907 1136.0 NaN 983.4495657982637 1.2913734747890846 284.0 6.0 184.0 
372.00047933655907 1138.0 NaN 980.3847695390778 1.3456259351551734 284.0 6.0 183.0 
374.0004290227294 1139.0 NaN 983.4175016700057 1.3966326909458002 281.0 6.0 184.0 
376.00047933655907 1145.0 NaN 986.5437541750182 1.4052155374052417 282.0 6.0 185.0 
378.00047933655907 1147.0 NaN 971.2625250501 1.3251756446477785 281.0 6.0 180.0 
380.00047933655907 1151.0 NaN 974.3380093520361 1.224922679763578 281.0 6.0 181.0 
382.00047933655907 1152.0 NaN 977.3440213760861 1.1656109880076144 280.0 6.0 182.0 
384.0004290227294 1150.0 NaN 968.1950567802273 1.199387376143182 279.0 6.0 179.0 
386.00047933655907 1160.0 NaN 971.2010688042768 1.2776442271041555 278.0 6.0 180.0 
388.00047933655907 1153.0 NaN 968.128256513027 1.3167934967860841 277.0 6.0 179.0 
390.00047933655907 1171.0 NaN 965.1195724782912 1.3192731013564751 278.0 6.0 178.0 
392.00047933655907 1170.0 NaN 965.1302605210416 1.2859295116282305 276.0 6.0 178.0 
394.0004290227294 1163.0 NaN 965.1810287241144 1.1918527162377959 273.0 6.0 178.0 
396.00047933655907 1175.0 NaN 965.1436205744816 1.2336956693878989 274.0 6.0 178.0 
398.00047933655907 1172.0 NaN 962.0788243152967 1.3160110276130936 274.0 6.0 177.0 
400.00047933655907 1183.0 NaN 962.0868403473638 1.451320201664736 275.0 6.0 177.0 
402.00047933655907 1180.0 NaN 946.6987307949231 1.4947944286990678 271.0 6.0 172.0 
404.0004290227294 1182.0 NaN 943.6526386105545 1.506447147059406 272.0 6.0 171.0 
406.00047933655907 1184.0 NaN 943.6686706746816 1.4945301325600682 267.0 6.0 171.0 
408.00047933655907 1179.0 NaN 943.660654642618 1.5092124649497438 266.0 8.0 169.0 
410.00047933655907 1183.0 NaN 943.6873747495002 1.5474194887724613 261.0 12.0 165.0 
412.00047933655907 1194.0 NaN 949.8410153640638 1.4357531066935205 261.0 14.0 165.0 
414.0004290227294 1186.0 NaN 946.7601870407492 1.385735105236996 260.0 13.0 165.0 
416.00047933655907 1189.0 NaN 949.8383433533725 1.4530289119574222 261.0 11.0 168.0 
418.00047933655907 1184.0 NaN 943.7087508350028 1.5255322448763544 261.0 10.0 167.0 
420.00047933655907 1183.0 NaN 943.7167668670668 1.608768225294376 263.0 8.0 169.0 
422.00047933655907 1180.0 NaN 937.5711422845696 1.5819273751290654 261.0 10.0 165.0 
424.0004290227294 1170.0 NaN 940.585170340682 1.3721047118175946 265.0 6.0 170.0 
426.00047933655907 1172.0 NaN 940.6279225116912 1.3334008008366458 265.0 6.0 170.0 
428.00047933655907 1170.0 NaN 937.5818303273209 1.4426929951539051 262.0 6.0 169.0 
430.00047933655907 1165.0 NaN 931.4094856379423 1.3751580510521602 259.0 6.0 167.0 
432.00047933655907 1159.0 NaN 937.4856379425516 1.4010965473413024 261.0 6.0 169.0 
434.0004290227294 1161.0 NaN 940.5798263193059 1.5155061309185442 263.0 6.0 170.0 
436.00047933655907 1170.0 NaN 943.5804943219787 1.4226731771770507 266.0 6.0 171.0 
438.00047933655907 1174.0 NaN 949.7715430861729 1.5670794034329405 267.0 6.0 173.0 
440.00047933655907 1181.0 NaN 952.8229792919185 1.5725758223859847 268.0 6.0 174.0 
442.00047933655907 1176.0 NaN 955.9144956579817 1.5221877155215466 267.0 6.0 175.0 
444.0004290227294 1172.0 NaN 959.0247160988633 1.515754945151952 268.0 6.0 176.0 
446.00047933655907 1175.0 NaN 962.0307281229119 1.6132639333227432 266.0 6.0 177.0 
448.00047933655907 1175.0 NaN 968.2030728122908 1.6101063819796564 265.0 6.0 179.0 
450.00047933655907 1192.0 NaN 968.1950567802273 1.657042329577771 269.0 6.0 179.0 
452.00047933655907 1200.0 NaN 962.028056112225 1.629839936389393 270.0 6.0 177.0 
454.0004290227294 1198.0 NaN 961.9959919839661 1.5494632843361618 266.0 8.0 175.0 
456.00047933655907 1193.0 NaN 959.0033400133608 1.608268017140087 258.0 13.0 169.0 
458.00047933655907 1189.0 NaN 958.92050768203 1.4071343013009063 256.0 13.0 169.0 
460.00047933655907 1191.0 NaN 958.9552438209752 1.2922518879362428 257.0 13.0 169.0 
462.00047933655907 1190.0 NaN 962.0521042084181 1.3051785278739563 256.0 14.0 169.0 
464.0004290227294 1187.0 NaN 962.0467601870389 1.391623242437856 253.0 16.0 167.0 
466.00047933655907 1189.0 NaN 965.1302605210433 1.4487766418531423 257.0 16.0 168.0 
468.00047933655907 1187.0 NaN 968.2351369405453 1.5946432426495738 258.0 16.0 169.0 
470.00047933655907 1180.0 NaN 965.0981963927846 1.4728039091581373 259.0 14.0 170.0 
472.00047933655907 1155.0 NaN 958.9285237140937 1.380219102788557 257.0 16.0 166.0 
474.0004290227294 1151.0 NaN 955.8663994656 1.468453238082858 257.0 16.0 165.0 
476.00047933655907 1145.0 NaN 952.8096192384758 1.4208626023171524 256.0 15.0 165.0 
478.00047933655907 1141.0 NaN 949.7047428189726 1.5365376802021935 253.0 16.0 163.0 
480.00047933655907 1152.0 NaN 958.955243820975 1.5962171750915886 253.0 16.0 166.0 
482.00047933655907 1155.0 NaN 958.9605878423524 1.5611094110574528 256.0 15.0 167.0 
484.0004290227294 1154.0 NaN 958.8964595858364 1.5513690069191262 255.0 15.0 167.0 
486.00047933655907 1161.0 NaN 965.1115564462273 1.5733409838219021 256.0 15.0 169.0 
488.00047933655907 1150.0 NaN 958.8804275217088 1.5387087180807006 255.0 16.0 166.0 
490.00047933655907 1153.0 NaN 958.8937875751521 1.4588852793698865 255.0 16.0 166.0 
492.00047933655907 1140.0 NaN 946.6666666666667 1.2689644954640211 251.0 17.0 161.0 
494.0004290227294 1139.0 NaN 946.6132264529059 1.3744258348456433 251.0 16.0 162.0 
496.00047933655907 1142.0 NaN 946.5918503674002 1.3820271210519688 256.0 11.0 167.0 
498.00047933655907 1135.0 NaN 946.6025384101548 1.2238980813344325 255.0 12.0 166.0 
500.00047933655907 1143.0 NaN 940.4782899131595 1.1721397689675064 259.0 9.0 167.0 
502.00047933655907 1140.0 NaN 934.3353373413496 1.220497425735181 258.0 7.0 167.0 
504.0004290227294 1132.0 NaN 931.2304609218452 1.2507389665563635 259.0 7.0 166.0 
506.00047933655907 1141.0 NaN 928.1816967267864 1.2880339714719258 258.0 6.0 166.0 
508.00047933655907 1136.0 NaN 925.1062124248499 1.2944784368320363 256.0 6.0 165.0 
510.00047933655907 1141.0 NaN 919.0300601202409 1.4096881322860861 254.0 7.0 162.0 
512.000479336559 1131.0 NaN 915.9144956579818 1.2649613653879417 254.0 7.0 161.0 
514.0004290227293 1131.0 NaN 915.890447561791 1.2589153627171341 253.0 7.0 161.0 
516.000479336559 1131.0 NaN 919.0140280561133 1.2437802306264412 252.0 7.0 162.0 
518.000479336559 1122.0 NaN 918.9739478957908 1.1579708844759493 251.0 7.0 162.0 
520.000479336559 1125.0 NaN 918.968603874414 1.265694130642297 247.0 6.0 163.0 
522.000479336559 1121.0 NaN 912.8363393453586 1.3215508365585074 247.0 6.0 161.0 
524.0004290227293 1115.0 NaN 912.8229792919184 1.2374410421681832 247.0 6.0 161.0 
526.000479336559 1120.0 NaN 909.7929191716773 1.3041385045802125 245.0 6.0 160.0 
528.000479336559 1118.0 NaN 909.7688710754859 1.4085490549698365 243.0 6.0 160.0 
530.000479336559 1116.0 NaN 906.6987307949227 1.431435458333126 243.0 6.0 159.0 
532.000479336559 1116.0 NaN 909.7474949899813 1.421976918621526 243.0 6.0 160.0 
534.0004290227293 1112.0 NaN 909.8116232464914 1.497868476276536 244.0 6.0 160.0 
536.000479336559 1127.0 NaN 922.15631262525 1.5430860104394921 248.0 6.0 164.0 
538.000479336559 1130.0 NaN 922.1269205076817 1.4240892983323976 247.0 6.0 164.0 
540.000479336559 1134.0 NaN 922.172344689378 1.4486751076851565 248.0 6.0 164.0 
542.000479336559 1124.0 NaN 928.2591850367409 1.2919870310077417 246.0 6.0 166.0 
544.0004290227293 1114.0 NaN 928.2645290581178 1.2725278998494989 249.0 6.0 166.0 
546.000479336559 1113.0 NaN 919.0621242484963 1.1862811940042444 252.0 6.0 163.0 
548.000479336559 1106.0 NaN 912.9218436873741 1.1622577282953515 251.0 6.0 161.0 
550.000479336559 1115.0 NaN 912.9432197728785 1.189610306131376 252.0 6.0 161.0 
552.000479336559 1111.0 NaN 909.9211756847033 1.198226090473581 252.0 6.0 160.0 
554.0004290227293 1119.0 NaN 909.8810955243817 1.2521197290519226 254.0 6.0 160.0 
556.000479336559 1125.0 NaN 909.9185036740136 1.3638776501756054 253.0 6.0 160.0 
558.000479336559 1125.0 NaN 909.9398797595182 1.4466217804438157 252.0 6.0 160.0 
560.000479336559 1128.0 NaN 909.9104876419499 1.4581827587484009 251.0 6.0 160.0 
562.000479336559 1124.0 NaN 909.9265197060782 1.4126296733566264 251.0 6.0 160.0 
564.0004290227293 1141.0 NaN 916.0668002671999 1.5015398787990593 254.0 6.0 162.0 
566.000479336559 1150.0 NaN 912.9565798263181 1.454990420759607 257.0 6.0 161.0 
568.000479336559 1141.0 NaN 912.8951235804956 1.3665175993384115 257.0 6.0 161.0 
570.000479336559 1154.0 NaN 916.0641282565136 1.4522169096347937 260.0 6.0 162.0 
572.000479336559 1167.0 NaN 925.231796927187 1.4675175931999693 257.0 6.0 165.0 
574.0004290227293 1172.0 NaN 925.2825651302597 1.4949329876417083 255.0 6.0 165.0 
576.000479336559 1164.0 NaN 925.3600534402135 1.343957085766042 255.0 6.0 165.0 
578.000479336559 1163.0 NaN 925.2825651302597 1.4002532760332347 253.0 6.0 165.0 
580.000479336559 1174.0 NaN 928.3233132932539 1.466883910543392 255.0 6.0 166.0 
582.000479336559 1174.0 NaN 922.1750167000673 1.5319711525964577 254.0 6.0 164.0 
584.0004290227293 1173.0 NaN 925.1703406813637 1.5553532476086938 254.0 6.0 165.0 
586.000479336559 1180.0 NaN 922.2044088176364 1.4187607635018258 256.0 6.0 164.0 
588.000479336559 1167.0 NaN 925.2424849699408 1.3594247183512265 256.0 6.0 165.0 
590.000479336559 1161.0 NaN 928.2752171008682 1.4658302623122552 259.0 6.0 166.0 
592.000479336559 1159.0 NaN 931.3213092852363 1.5987421484207274 259.0 6.0 167.0 
594.0004290227293 1164.0 NaN 934.4074816299274 1.709363668887091 260.0 6.0 168.0 
596.000479336559 1175.0 NaN 949.7715430861728 1.668428908775621 265.0 6.0 173.0 
598.000479336559 1167.0 NaN 949.7421509686043 1.5362223333427125 268.0 6.0 173.0 
600.000479336559 1170.0 NaN 946.6800267201089 1.461275068669284 268.0 6.0 172.0 
602.000479336559 1166.0 NaN 940.5103540414176 1.3469537365100095 268.0 6.0 170.0 
604.0004290227293 1158.0 NaN 937.4028056112228 1.4395495965707061 266.0 6.0 169.0 
606.000479336559 1161.0 NaN 937.5497661990635 1.2760083100197146 266.0 6.0 169.0 
608.000479336559 1169.0 NaN 940.5691382765541 1.4126304328917851 266.0 6.0 170.0 
610.000479336559 1181.0 NaN 937.4989979959907 1.3880614064851653 271.0 6.0 169.0 
612.000479336559 1195.0 NaN 959.0647962591853 1.4314696479282782 275.0 6.0 176.0 
614.0004290227293 1190.0 NaN 959.0674682698726 1.461360986726374 275.0 6.0 176.0 
616.000479336559 1187.0 NaN 959.0407481629912 1.4901634351718411 274.0 6.0 176.0 
618.000479336559 1174.0 NaN 959.0086840347365 1.5201818157139892 273.0 6.0 176.0 
620.000479336559 1183.0 NaN 958.9659318637272 1.6898810214904592 273.0 6.0 176.0 
622.000479336559 1193.0 NaN 962.1536406145633 1.7159688733529739 274.0 6.0 177.0 
624.0004290227293 1197.0 NaN 959.1583166332672 1.7114929855591219 276.0 6.0 176.0 
626.000479336559 1196.0 NaN 959.112892451569 1.6060969074965628 277.0 6.0 176.0 
628.000479336559 1184.0 NaN 956.0507682030727 1.4819242711404172 275.0 6.0 175.0 
630.000479336559 1201.0 NaN 962.2017368069459 1.5279128223374383 271.0 6.0 177.0 
632.000479336559 1210.0 NaN 974.5010020040093 1.6340250389021984 272.0 6.0 181.0 
634.0004290227293 1218.0 NaN 971.505678022713 1.6592928200489199 272.0 6.0 180.0 
636.000479336559 1252.0 NaN 974.5678022712091 1.6399646578498335 273.0 6.0 181.0 
638.000479336559 1251.0 NaN 977.6005344021364 1.6438617973331504 272.0 6.0 182.0 
640.000479336559 1263.0 NaN 983.6927187708759 1.7039455451696095 275.0 6.0 184.0 
642.000479336559 1254.0 NaN 989.9639278557121 1.6777967636054811 274.0 9.0 183.0 
644.0004290227293 1255.0 NaN 989.8864395457576 1.7685086646059849 268.0 15.0 177.0 
646.000479336559 1264.0 NaN 996.1229124916521 1.813153507351023 267.0 17.0 177.0 
648.000479336559 1246.0 NaN 996.1923847695388 1.7509485521009547 269.0 15.0 179.0 
650.000479336559 1242.0 NaN 993.0020040080182 1.8420545900454657 269.0 15.0 178.0 
652.000479336559 1227.0 NaN 989.9665998664002 1.8165014875699914 271.0 16.0 176.0 
654.0004290227293 1228.0 NaN 986.8617234468936 1.780217082794149 272.0 15.0 176.0 
656.000479336559 1248.0 NaN 989.9078156312639 1.7676664050638393 273.0 17.0 175.0 
658.000479336559 1258.0 NaN 999.1503006012019 1.8737425328505575 272.0 19.0 176.0 
660.000479336559 1256.0 NaN 999.2251169004659 1.921083008561296 274.0 19.0 176.0 
662.000479336559 1232.0 NaN 1002.217768871075 1.6480068097863585 274.0 19.0 177.0 
664.0004290227293 1235.0 NaN 1002.2097528390091 1.7103044670470084 274.0 18.0 178.0 
#####################################################################
# End of data export. Simulation finished at: 2019-03-06T12:10+0000 #
#####################################################################
