#####################################################################
# Alchemist log file - simulation started at: 2019-03-19T20:29+0000 #
#####################################################################
# seed = 9.0, bandwidth = 17782.79410038923, propagationDelay = 10.0, baserange = 1000.0
#
# The columns have the following meaning: 
# time neighbor_count[Sum] <value>@neighbor_count[Sum] packet_size[Mean] mean_delay[Mean] crowd[Sum] overcrowded[Sum] risk[Sum] 
0.0 NaN NaN NaN NaN NaN NaN NaN 
2.0003374459614243 NaN NaN 4988.0 NaN 1497.0 0.0 1497.0 
4.000337445961424 NaN NaN 4988.0 NaN 1497.0 0.0 1497.0 
6.000337445961424 NaN NaN 4988.0 NaN 1497.0 0.0 1497.0 
8.000337445961424 NaN NaN 4988.0 NaN 1497.0 0.0 1497.0 
10.000337445961424 NaN NaN 4988.0 NaN 1497.0 0.0 1497.0 
12.000337445961424 201197.0 NaN 4993.63794255177 0.7406921615798372 1497.0 0.0 1497.0 
14.000337445961424 210024.0 NaN 4995.591182364729 2.7189491683900107 1497.0 0.0 1497.0 
16.000337445961424 210024.0 NaN 4995.591182364729 4.718949168390011 1497.0 0.0 1497.0 
18.000337445961424 210024.0 NaN 4995.591182364729 6.718949168390011 1497.0 0.0 1497.0 
20.000337445961424 210024.0 NaN 4995.591182364729 8.718949168390012 1497.0 0.0 1497.0 
22.00032526382862 210046.0 NaN 4995.577822311289 7.846205833246726 1497.0 0.0 1497.0 
24.000337445961424 210112.0 NaN 4995.187708750835 1.726456147605023 1497.0 0.0 1497.0 
26.000337445961424 210112.0 NaN 4994.626586506346 3.726456147605023 1497.0 0.0 1497.0 
28.000337445961424 210112.0 NaN 4994.642618570474 5.726456147605023 1497.0 0.0 1497.0 
30.000337445961424 210112.0 NaN 4994.658650634603 7.726456147605023 1497.0 0.0 1497.0 
32.00033744596142 210112.0 NaN 4994.658650634603 9.726456147605022 1497.0 0.0 1497.0 
34.00033744596142 210244.0 NaN 4993.525718102873 1.2097865678682025 1496.0 1.0 1496.0 
36.00033744596142 210252.0 NaN 4993.931863727455 2.7396276695980353 1496.0 1.0 1496.0 
38.00033744596142 210252.0 NaN 4993.934535738143 4.739627669598035 1496.0 1.0 1496.0 
40.00033744596142 210252.0 NaN 4993.934535738143 6.739627669598035 1496.0 1.0 1496.0 
42.00033744596142 210233.0 NaN 4993.934535738143 8.727671056095604 1496.0 1.0 1496.0 
44.00032526382862 210274.0 NaN 4994.0173680694725 7.853704028258199 1497.0 0.0 1497.0 
46.00033744596142 210409.0 NaN 4995.4308617234465 1.7396589081050042 1497.0 0.0 1497.0 
48.00033744596142 210409.0 NaN 4994.800267201069 3.739658908105004 1497.0 0.0 1497.0 
50.00033744596142 210409.0 NaN 4994.800267201069 5.739658908105004 1497.0 0.0 1497.0 
52.00033744596142 210394.0 NaN 4994.816299265197 7.736511621116914 1497.0 0.0 1497.0 
54.00033744596142 210339.0 NaN 4994.816299265197 9.72632110122406 1497.0 0.0 1497.0 
56.00033744596142 210506.0 NaN 4994.859051436206 1.220917314331756 1497.0 0.0 1497.0 
58.00033744596142 210520.0 NaN 4994.570474281897 2.7504559918659113 1497.0 0.0 1497.0 
60.00033744596142 210520.0 NaN 4994.517034068136 4.750455991865912 1497.0 0.0 1497.0 
62.00033744596142 210520.0 NaN 1521.979959919839 6.750455991865912 840.0 0.0 365.0 
64.00033744596142 210463.0 NaN 1521.979959919839 8.73774503357191 840.0 0.0 365.0 
66.00032526382863 210505.0 NaN 1522.0708082832336 7.873408960315931 798.0 0.0 365.0 
68.00033744596142 210640.0 NaN 1522.6158984635936 1.7753382361298602 668.0 1.0 364.0 
70.00033744596142 210640.0 NaN 1522.4929859719452 3.77533823612986 668.0 1.0 364.0 
72.00033744596142 210640.0 NaN 1522.4929859719452 5.77533823612986 669.0 1.0 364.0 
74.00033744596142 210614.0 NaN 1525.5711422845698 7.766267771320302 669.0 1.0 365.0 
76.00033744596142 210517.0 NaN 1525.565798263191 9.74160890865854 670.0 1.0 365.0 
78.00033744596142 210698.0 NaN 1528.6145624582489 1.0739769349063717 605.0 3.0 364.0 
80.00033744596142 210699.0 NaN 1528.561122244491 2.966518770695644 605.0 3.0 364.0 
82.00033744596142 210699.0 NaN 1528.5771543086184 4.966518770695644 605.0 3.0 364.0 
84.00033744596142 210699.0 NaN 1528.5744822979273 6.966518770695644 605.0 3.0 364.0 
86.00033744596142 210450.0 NaN 1528.553106212425 8.925852181121217 605.0 3.0 364.0 
88.00033744596142 210553.0 NaN 1528.555778223112 6.296352746147803 595.0 3.0 364.0 
90.00033744596142 210705.0 NaN 1531.9118236472939 1.9449972148462644 577.0 6.0 362.0 
92.00033744596142 210705.0 NaN 1531.8049432197727 3.944997214846264 577.0 6.0 362.0 
94.00033744596142 210705.0 NaN 1531.7889111556456 5.944997214846264 577.0 6.0 362.0 
96.00033744596142 210660.0 NaN 1531.7889111556456 7.937798023065541 577.0 6.0 362.0 
98.00033744596142 210556.0 NaN 1531.7889111556456 9.920492740725289 577.0 6.0 362.0 
100.00033744596142 210801.0 NaN 1531.794255177021 1.0417197194134922 552.0 6.0 362.0 
102.00033744596142 210801.0 NaN 1534.835003340012 2.9340994090605617 552.0 6.0 363.0 
104.00033744596142 210801.0 NaN 1534.835003340012 4.934099409060562 552.0 6.0 363.0 
106.00033744596142 210801.0 NaN 1534.835003340012 6.934099409060562 551.0 6.0 363.0 
108.00033744596142 210688.0 NaN 1534.8483633934547 8.917353771617218 551.0 6.0 363.0 
110.00033744596142 210761.0 NaN 1537.9478957915821 6.289038392877241 546.0 5.0 365.0 
112.00033744596142 210854.0 NaN 1537.8383433533725 1.9280375074431844 538.0 7.0 363.0 
114.00033744596142 210854.0 NaN 1537.6619906479636 3.9280375074431846 538.0 7.0 363.0 
116.00033744596142 210854.0 NaN 1540.710754843018 5.928037507443184 539.0 7.0 364.0 
118.00033744596142 210804.0 NaN 1540.694722778891 7.922773833567055 539.0 7.0 364.0 
120.00033744596142 210750.0 NaN 1540.694722778891 9.916397251529057 540.0 6.0 365.0 
122.00033744596142 210836.0 NaN 1547.070140280561 1.0364913989184967 533.0 6.0 367.0 
124.00033744596142 210837.0 NaN 1547.1422845691366 2.9288324612057024 533.0 6.0 367.0 
126.00033744596142 210837.0 NaN 1544.0828323313274 4.928832461205702 533.0 6.0 366.0 
128.0003374459614 210837.0 NaN 1544.0801603206426 6.928832461205702 533.0 6.0 366.0 
130.0003374459614 210755.0 NaN 1544.0748162992638 8.919160701885101 533.0 6.0 366.0 
132.0003374459614 210808.0 NaN 1547.1663326653302 6.302234845927794 533.0 5.0 368.0 
134.0003374459614 210885.0 NaN 1547.1289245157 1.9332966996742758 531.0 6.0 367.0 
136.0003374459614 210885.0 NaN 1543.890447561791 3.9332966996742758 531.0 6.0 366.0 
138.0003374459614 210885.0 NaN 1537.7715430861729 5.933296699674275 531.0 6.0 364.0 
140.0003374459614 210838.0 NaN 1537.7768871075482 7.9273171935436215 530.0 7.0 363.0 
142.0003374459614 210784.0 NaN 1534.7120908483637 9.91721255246357 530.0 7.0 362.0 
144.0003374459614 210893.0 NaN 1540.961923847694 1.0379423142229551 529.0 6.0 365.0 
146.0003374459614 210894.0 NaN 1544.0748162992638 2.930355816673542 530.0 6.0 366.0 
148.0003374459614 210894.0 NaN 1544.0587842351363 4.930355816673542 530.0 6.0 366.0 
150.0003374459614 210894.0 NaN 1544.0748162992638 6.930355816673542 530.0 6.0 366.0 
152.0003374459614 210796.0 NaN 1544.0748162992638 8.917012706088654 530.0 6.0 366.0 
154.0003374459614 210842.0 NaN 1544.0908483633937 6.29720695757792 531.0 5.0 367.0 
156.0003374459614 210912.0 NaN 1543.9679358717456 1.9335748361098748 532.0 5.0 367.0 
158.0003374459614 210912.0 NaN 1537.688710754843 3.933574836109875 532.0 5.0 365.0 
160.0003374459614 210912.0 NaN 1534.6078824315298 5.933574836109875 532.0 5.0 364.0 
162.0003374459614 210878.0 NaN 1534.6078824315298 7.928243641223836 532.0 5.0 364.0 
164.0003374459614 210832.0 NaN 1534.6052104208425 9.920673204418692 532.0 5.0 364.0 
166.0003374459614 210957.0 NaN 1540.8657314629272 1.0467507443068373 528.0 7.0 364.0 
168.0003374459614 210957.0 NaN 1540.801603206412 2.9377611580051655 528.0 7.0 364.0 
170.0003374459614 210957.0 NaN 1540.790915163661 4.9377611580051655 528.0 7.0 364.0 
172.0003374459614 210957.0 NaN 1540.790915163661 6.9377611580051655 528.0 7.0 364.0 
174.0003374459614 210835.0 NaN 1540.7882431529729 8.9184955342066 528.0 7.0 364.0 
176.0003374459614 210871.0 NaN 1540.8122912491638 6.2955502750523165 525.0 7.0 364.0 
178.0003374459614 210923.0 NaN 1544.2057448229793 1.933894265622072 529.0 5.0 367.0 
180.0003374459614 210923.0 NaN 1537.9104876419517 3.933894265622072 529.0 5.0 365.0 
182.0003374459614 210923.0 NaN 1534.8643954575818 5.9338942656220715 529.0 5.0 364.0 
184.0003374459614 210880.0 NaN 1534.8697394789574 7.928134781139855 529.0 5.0 364.0 
186.0003374459614 210815.0 NaN 1528.7160988643973 9.918300105348262 528.0 5.0 362.0 
188.0003374459614 210944.0 NaN 1534.8483633934547 1.042794456616821 526.0 7.0 362.0 
190.0003374459614 210944.0 NaN 1534.8697394789574 2.934038848865849 526.0 7.0 362.0 
192.0003374459614 210944.0 NaN 1531.7915831663336 4.934038848865849 526.0 7.0 361.0 
194.0003374459614 210944.0 NaN 1528.7160988643973 6.934038848865849 526.0 7.0 360.0 
196.0003374459614 210847.0 NaN 1528.6973947895792 8.919680800568537 526.0 7.0 360.0 
198.0003374459614 210887.0 NaN 1528.6867067468274 6.302006585658558 526.0 7.0 360.0 
200.0003374459614 210939.0 NaN 1535.0033400133607 1.945254527706869 528.0 6.0 363.0 
202.0003374459614 210939.0 NaN 1534.8643954575818 3.945254527706869 528.0 6.0 363.0 
204.0003374459614 210939.0 NaN 1534.8483633934547 5.945254527706869 528.0 6.0 363.0 
206.0003374459614 210880.0 NaN 1531.7835671342698 7.93599502030516 527.0 6.0 362.0 
208.0003374459614 210809.0 NaN 1531.7675350701393 9.927876315555327 527.0 6.0 362.0 
210.0003374459614 211002.0 NaN 1537.9906479625906 1.0587538896036357 525.0 7.0 363.0 
212.0003374459614 211004.0 NaN 1537.9612558450244 2.953856816048656 525.0 7.0 363.0 
214.0003374459614 211004.0 NaN 1531.828991315964 4.953856816048655 524.0 7.0 361.0 
216.0003374459614 211004.0 NaN 1531.8156312625272 6.953856816048655 523.0 7.0 361.0 
218.0003374459614 210859.0 NaN 1531.8102872411482 8.92131132537502 522.0 7.0 361.0 
220.0003374459614 210941.0 NaN 1534.9018036072152 6.302867139234039 522.0 6.0 363.0 
222.0003374459614 211057.0 NaN 1531.644622578491 1.9495236505016529 523.0 6.0 362.0 
224.0003374459614 211057.0 NaN 1531.489645958582 3.949523650501653 522.0 6.0 362.0 
226.0003374459614 211057.0 NaN 1531.4816299265183 5.949523650501653 523.0 6.0 362.0 
228.0003374459614 211012.0 NaN 1531.4762859051452 7.940333366212702 523.0 6.0 362.0 
230.0003374459614 210946.0 NaN 1531.4762859051452 9.930497011640032 523.0 6.0 362.0 
232.0003374459614 211146.0 NaN 1537.88376753507 1.0688998379032255 518.0 8.0 362.0 
234.0003374459614 211148.0 NaN 1537.9665998664002 2.96162220898204 518.0 8.0 362.0 
236.0003374459614 211148.0 NaN 1534.907147628591 4.96162220898204 517.0 8.0 361.0 
238.0003374459614 211148.0 NaN 1534.9018036072152 6.96162220898204 518.0 8.0 361.0 
240.0003374459614 211010.0 NaN 1531.8102872411482 8.924177625316137 518.0 8.0 360.0 
242.0003374459614 211098.0 NaN 1531.8129592518362 6.304198495458658 516.0 8.0 360.0 
244.0003374459614 211209.0 NaN 1534.904475617902 1.94638766699199 516.0 6.0 363.0 
246.0003374459614 211209.0 NaN 1534.746826987309 3.94638766699199 516.0 6.0 363.0 
248.0003374459614 211209.0 NaN 1528.5958583834338 5.94638766699199 516.0 6.0 361.0 
250.0003374459614 211139.0 NaN 1528.5958583834338 7.93487714935783 516.0 6.0 361.0 
252.0003374459614 211059.0 NaN 1528.5691382765544 9.922318025101436 516.0 6.0 361.0 
254.0003374459614 211262.0 NaN 1528.590514362057 1.0502779729434433 515.0 7.0 360.0 
256.0003374459614 211263.0 NaN 1525.5871743486975 2.9436158548940212 514.0 7.0 359.0 
258.0003374459614 211263.0 NaN 1522.5170340681366 4.943615854894022 514.0 7.0 358.0 
260.0003374459614 211263.0 NaN 1522.5490981963912 6.943615854894021 514.0 7.0 358.0 
262.0003374459614 211143.0 NaN 1522.5490981963912 8.922552256602033 515.0 7.0 358.0 
264.0003374459614 211198.0 NaN 1525.6513026052094 6.300009494184546 514.0 7.0 359.0 
266.0003374459614 211306.0 NaN 1525.4482297929183 1.945135612990085 515.0 6.0 360.0 
268.0003374459614 211306.0 NaN 1525.2879091516363 3.945135612990085 514.0 6.0 360.0 
270.0003374459614 211306.0 NaN 1519.1369405477633 5.945135612990085 514.0 6.0 358.0 
272.0003374459614 211235.0 NaN 1525.239812959252 7.933704020653573 515.0 6.0 360.0 
274.0003374459614 211139.0 NaN 1525.2585170340699 9.923412778538081 515.0 6.0 360.0 
276.0003374459614 211452.0 NaN 1537.8009352037398 1.0542721163578728 515.0 7.0 363.0 
278.0003374459614 211455.0 NaN 1537.7314629258522 2.9470260593898367 514.0 7.0 363.0 
280.0003374459614 211455.0 NaN 1531.6018704074818 4.947026059389837 514.0 7.0 361.0 
282.0003374459614 211455.0 NaN 1531.5885103540427 6.947026059389837 514.0 7.0 361.0 
284.0003374459614 211296.0 NaN 1531.5831663326637 8.923438193631169 513.0 7.0 361.0 
286.0003374459614 211383.0 NaN 1534.7014028056092 6.309132892407655 513.0 7.0 362.0 
288.0003374459614 211500.0 NaN 1534.8670674682705 1.9513575962909726 513.0 6.0 363.0 
290.0003374459614 211500.0 NaN 1534.7094188376752 3.9513575962909724 513.0 6.0 363.0 
292.0003374459614 211500.0 NaN 1528.5771543086182 5.951357596290973 512.0 6.0 361.0 
294.0003374459614 211411.0 NaN 1528.6118904475634 7.940714032654002 510.0 6.0 361.0 
296.0003374459614 211300.0 NaN 1525.5257181028728 9.927128367222625 510.0 6.0 360.0 
298.0003374459614 211478.0 NaN 1528.6973947895792 1.0717953970885867 510.0 6.0 361.0 
300.0003374459614 211478.0 NaN 1528.710754843018 2.961317081287086 510.0 6.0 361.0 
302.0003374459614 211478.0 NaN 1519.5056780227117 4.961317081287086 511.0 5.0 359.0 
304.0003374459614 211478.0 NaN 1522.6052104208427 6.961317081287086 510.0 5.0 360.0 
306.0003374459614 211239.0 NaN 1522.5918503674002 8.929465758912603 509.0 5.0 360.0 
308.0003374459614 211332.0 NaN 1522.5918503674002 6.3090986165250955 508.0 5.0 360.0 
310.0003374459614 211473.0 NaN 1531.6793587174361 1.9672336813993723 509.0 5.0 363.0 
312.0003374459614 211473.0 NaN 1531.4789579158307 3.9672336813993723 509.0 5.0 363.0 
314.0003374459614 211473.0 NaN 1522.236472945891 5.967233681399372 508.0 4.0 361.0 
316.0003374459614 211347.0 NaN 1522.236472945891 7.952202770235644 508.0 4.0 361.0 
318.0003374459614 211193.0 NaN 1522.236472945891 9.931407782556626 507.0 4.0 361.0 
320.0003374459614 211442.0 NaN 1531.692718770875 1.0766332495985873 508.0 5.0 363.0 
322.0003374459614 211444.0 NaN 1531.7114228456908 2.966244627548054 507.0 5.0 363.0 
324.0003374459614 211444.0 NaN 1525.5845023380089 4.966244627548054 506.0 5.0 361.0 
326.0003374459614 211444.0 NaN 1525.5845023380089 6.966244627548054 506.0 5.0 361.0 
328.0003374459614 211192.0 NaN 1525.5764863059455 8.930657765131793 506.0 5.0 361.0 
330.0003374459614 211285.0 NaN 1525.5978623914484 6.307281160974311 504.0 5.0 361.0 
332.0003374459614 211417.0 NaN 1531.6820307281246 1.9677682059632755 507.0 4.0 364.0 
334.0003374459614 211417.0 NaN 1531.4736138944545 3.9677682059632757 507.0 4.0 364.0 
336.0003374459614 211417.0 NaN 1525.3146292585184 5.967768205963275 507.0 4.0 362.0 
338.0003374459614 211306.0 NaN 1525.3012692050756 7.9527292584545295 508.0 4.0 362.0 
340.0003374459614 211146.0 NaN 1525.2959251836999 9.930432645722284 507.0 4.0 362.0 
342.0003374459614 211346.0 NaN 1531.6526386105547 1.0798772814734507 507.0 5.0 363.0 
344.0003374459614 211346.0 NaN 1531.7221108884453 2.965259689742948 507.0 5.0 363.0 
346.0003374459614 211346.0 NaN 1525.5657982631913 4.965259689742949 506.0 5.0 361.0 
348.0003374459614 211346.0 NaN 1525.5497661990635 6.965259689742949 508.0 5.0 361.0 
350.0003374459614 211053.0 NaN 1528.638610554443 8.927292974014678 508.0 5.0 362.0 
352.0003374459614 211116.0 NaN 1528.6466265865065 6.3033801472872915 512.0 4.0 363.0 
354.0003374459614 211208.0 NaN 1525.5978623914484 1.9586169495166401 508.0 4.0 362.0 
356.0003374459614 211208.0 NaN 1519.2438209752822 3.95861694951664 507.0 4.0 360.0 
358.0003374459614 211208.0 NaN 1519.2224448897814 5.958616949516641 507.0 4.0 360.0 
360.0003374459614 211102.0 NaN 1519.219772879091 7.945931717474161 506.0 5.0 359.0 
362.0003374459614 210932.0 NaN 1519.201068804275 9.92715758378721 507.0 5.0 359.0 
364.0003374459614 211166.0 NaN 1519.2678690714758 1.0782079585587183 510.0 5.0 359.0 
366.0003374459614 211168.0 NaN 1519.2625250501 2.9637845791821817 510.0 5.0 359.0 
368.0003374459614 211168.0 NaN 1513.1302605210424 4.963784579182182 510.0 5.0 357.0 
370.0003374459614 211168.0 NaN 1510.0601202404819 6.963784579182182 509.0 5.0 356.0 
372.0003374459614 210918.0 NaN 1510.0467601870394 8.93292738452115 509.0 5.0 356.0 
374.0003374459614 210998.0 NaN 1510.0734802939205 6.310011602514531 509.0 4.0 357.0 
376.0003374459614 211113.0 NaN 1513.1489645958575 1.9759383535562798 510.0 5.0 357.0 
378.0003374459614 211113.0 NaN 1512.9779559118244 3.97593835355628 510.0 5.0 357.0 
380.0003374459614 211113.0 NaN 1503.7782231128917 5.97593835355628 510.0 5.0 354.0 
382.0003374459614 210970.0 NaN 1503.7915831663336 7.959270143018156 509.0 5.0 354.0 
384.0003374459614 210761.0 NaN 1506.8750835003345 9.93534502920879 510.0 5.0 355.0 
386.0003374459614 210988.0 NaN 1506.9472277889101 1.1016102296086485 514.0 5.0 355.0 
388.0003374459614 210991.0 NaN 1506.8136272545091 2.991046854320638 514.0 5.0 355.0 
390.0003374459614 210991.0 NaN 1506.8162992651978 4.991046854320638 514.0 5.0 355.0 
392.0003374459614 210991.0 NaN 1503.772879091517 6.991046854320638 515.0 5.0 354.0 
394.0003374459614 210526.0 NaN 1503.772879091517 8.945045566680156 515.0 5.0 354.0 
396.0003374459614 210662.0 NaN 1506.8964595858374 6.323057308015278 516.0 4.0 356.0 
398.0003374459614 210828.0 NaN 1516.4141616566455 2.00138581100601 517.0 5.0 358.0 
400.0003374459614 210828.0 NaN 1516.2591850367392 4.00138581100601 516.0 5.0 358.0 
402.0003374459614 210828.0 NaN 1513.2130928523723 6.00138581100601 518.0 5.0 357.0 
404.0003374459614 210664.0 NaN 1510.1349365397455 7.9759683802645185 518.0 5.0 356.0 
406.0003374459614 210435.0 NaN 1510.1162324649295 9.937204187739285 518.0 5.0 356.0 
408.0003374459614 210749.0 NaN 1519.417501670007 1.0899067963800004 518.0 4.0 360.0 
410.0003374459614 210758.0 NaN 1522.3032732130916 2.9814086349334374 518.0 4.0 361.0 
412.0003374459614 210758.0 NaN 1516.1736806947242 4.981408634933437 518.0 4.0 359.0 
414.0003374459614 210758.0 NaN 1516.1629926519718 6.981408634933437 518.0 4.0 359.0 
416.0003374459614 210417.0 NaN 1513.092852371409 8.937023461131824 517.0 4.0 358.0 
418.0003374459614 210562.0 NaN 1519.2598530394114 6.314351986072688 517.0 4.0 360.0 
420.0003374459614 210764.0 NaN 1522.5731462925849 1.98299452223361 517.0 4.0 361.0 
422.0003374459614 210764.0 NaN 1519.356045424182 3.98299452223361 517.0 4.0 360.0 
424.0003374459614 210764.0 NaN 1507.107548430193 5.98299452223361 515.0 4.0 356.0 
426.0003374459614 210603.0 NaN 1507.115564462257 7.964492370380642 515.0 4.0 356.0 
428.0003374459614 210372.0 NaN 1513.2505010020031 9.935726709636127 516.0 4.0 358.0 
430.0003374459614 210627.0 NaN 1534.8563794255183 1.088581970884476 521.0 4.0 365.0 
432.0003374459614 210629.0 NaN 1534.5971943887787 2.9807205829495937 521.0 4.0 365.0 
434.0003374459614 210629.0 NaN 1531.5484301937204 4.980720582949594 521.0 4.0 364.0 
436.0003374459614 210629.0 NaN 1528.4809619238463 6.980720582949594 521.0 4.0 363.0 
438.0003374459614 210235.0 NaN 1528.4809619238463 8.934116536472487 520.0 4.0 363.0 
440.0003374459614 210370.0 NaN 1534.6506346025371 6.319021409404587 523.0 4.0 365.0 
442.0003374459614 210555.0 NaN 1546.992651970609 1.98137905048842 526.0 4.0 369.0 
444.0003374459614 210555.0 NaN 1537.6513026052094 3.98137905048842 526.0 4.0 366.0 
446.0003374459614 210555.0 NaN 1534.5651302605206 5.98137905048842 526.0 4.0 365.0 
448.0003374459614 210431.0 NaN 1534.543754175018 7.963651684061565 526.0 4.0 365.0 
450.0003374459614 210218.0 NaN 1537.6245824983298 9.938013033180175 526.0 4.0 366.0 
452.0003374459614 210551.0 NaN 1547.0086840347365 1.1018579845403207 526.0 4.0 369.0 
454.0003374459614 210554.0 NaN 1550.022712090848 2.9894263847103533 526.0 4.0 370.0 
456.0003374459614 210554.0 NaN 1534.6319305277211 4.989426384710353 526.0 4.0 365.0 
458.0003374459614 210554.0 NaN 1531.5858383433547 6.989426384710353 525.0 4.0 364.0 
460.0003374459614 210232.0 NaN 1531.5591182364726 8.938781366552227 524.0 4.0 364.0 
462.0003374459614 210339.0 NaN 1531.5591182364726 6.3356684228417 522.0 5.0 363.0 
464.0003374459614 210502.0 NaN 1537.8223112892456 1.9917719268938385 525.0 3.0 367.0 
466.0003374459614 210502.0 NaN 1540.7348029392117 3.9917719268938385 525.0 3.0 368.0 
468.0003374459614 210502.0 NaN 1525.3760855043424 5.991771926893839 523.0 3.0 363.0 
470.0003374459614 210351.0 NaN 1525.3573814295269 7.970441913616218 524.0 3.0 363.0 
472.0003374459614 210124.0 NaN 1525.349365397463 9.93882458967985 524.0 3.0 363.0 
474.0003374459614 210383.0 NaN 1528.5076820307272 1.111557058645295 519.0 4.0 363.0 
476.0003374459614 210384.0 NaN 1528.427521710088 3.0004772902153616 519.0 4.0 363.0 
478.0003374459614 210384.0 NaN 1519.2037408149638 5.000477290215361 518.0 4.0 360.0 
480.0003374459614 210384.0 NaN 1519.1823647294575 7.000477290215361 519.0 4.0 360.0 
482.0003374459614 210023.0 NaN 1522.2471609886452 8.945838412697663 518.0 4.0 361.0 
484.0003374459614 210169.0 NaN 1522.2845691382756 6.327042932405738 517.0 4.0 361.0 
486.0003374459614 210349.0 NaN 1519.2625250501 2.0019265826192028 518.0 3.0 361.0 
488.0003374459614 210349.0 NaN 1506.8804275217092 4.001926582619203 517.0 3.0 357.0 
490.0003374459614 210349.0 NaN 1494.5865063460262 6.001926582619203 517.0 3.0 353.0 
492.0003374459614 210200.0 NaN 1494.5838343353366 7.977675524789489 517.0 3.0 353.0 
494.0003374459614 209949.0 NaN 1494.5998663994646 9.935808495147581 517.0 3.0 353.0 
496.0003374459614 210261.0 NaN 1497.6940547762185 1.0916927092645636 519.0 3.0 354.0 
498.0003374459614 210262.0 NaN 1497.539078156312 2.98194910794614 520.0 3.0 354.0 
500.0003374459614 210262.0 NaN 1479.1075484301932 4.98194910794614 519.0 3.0 348.0 
502.0003374459614 210262.0 NaN 1476.026720106881 6.98194910794614 519.0 3.0 347.0 
504.0003374459614 209970.0 NaN 1479.107548430193 8.935858844159494 521.0 3.0 348.0 
506.0003374459614 210098.0 NaN 1482.2124248497 6.298864511561704 519.0 3.0 349.0 
508.0003374459614 210253.0 NaN 1491.8236472945898 1.9829971517411178 516.0 3.0 352.0 
510.0003374459614 210253.0 NaN 1494.7628590514364 3.982997151741118 516.0 3.0 353.0 
512.0003374459613 210253.0 NaN 1482.4903139612552 5.982997151741118 515.0 3.0 349.0 
514.0003374459613 210130.0 NaN 1482.4876419505667 7.964733489354347 515.0 3.0 349.0 
516.0003374459613 209941.0 NaN 1482.450233800936 9.938552054554288 515.0 3.0 349.0 
518.0003374459613 210282.0 NaN 1485.5417501670001 1.095977671119516 513.0 3.0 350.0 
520.0003374459613 210283.0 NaN 1482.3139612558455 2.9899904623374676 513.0 3.0 349.0 
522.0003374459613 210283.0 NaN 1473.1142284569148 4.989990462337468 513.0 3.0 346.0 
524.0003374459613 210283.0 NaN 1466.9766199064807 6.989990462337468 513.0 3.0 344.0 
526.0003374459613 209951.0 NaN 1463.9091516366072 8.942671922471137 512.0 3.0 343.0 
528.0003374459613 210115.0 NaN 1476.2378089512365 6.299221381883611 519.0 3.0 347.0 
530.0003374459613 210325.0 NaN 1485.7020708082828 1.9969035423063333 519.0 3.0 350.0 
532.0003374459613 210325.0 NaN 1479.4682698730808 3.9969035423063333 519.0 3.0 348.0 
534.0003374459613 210325.0 NaN 1470.2525050100194 5.996903542306334 519.0 3.0 345.0 
536.0003374459613 210192.0 NaN 1470.2231128924523 7.970253616039431 518.0 3.0 345.0 
538.0003374459613 209993.0 NaN 1470.2284569138271 9.942076793353877 518.0 3.0 345.0 
540.0003374459613 210253.0 NaN 1473.4134936539738 1.0955610727806144 517.0 3.0 346.0 
542.0003374459613 210254.0 NaN 1473.1917167668664 2.9883778675029307 516.0 3.0 346.0 
544.0003374459613 210254.0 NaN 1463.9946559786247 4.988377867502931 516.0 3.0 343.0 
546.0003374459613 210254.0 NaN 1467.0594522378092 6.988377867502931 516.0 3.0 344.0 
548.0003374459613 209916.0 NaN 1467.040748162992 8.935276292438642 517.0 3.0 344.0 
550.0003374459613 210089.0 NaN 1473.221108884436 6.276249195273117 518.0 3.0 346.0 
552.0003374459613 210326.0 NaN 1479.310621242484 1.9824560631630666 521.0 2.0 349.0 
554.0003374459613 210326.0 NaN 1476.114896459585 3.9824560631630668 521.0 2.0 348.0 
556.0003374459613 210326.0 NaN 1463.8370073480285 5.982456063163067 520.0 2.0 344.0 
558.0003374459613 210217.0 NaN 1466.9231796927183 7.966887358956868 520.0 2.0 345.0 
560.0003374459613 210043.0 NaN 1463.8744154976625 9.944426474852895 519.0 2.0 344.0 
562.0003374459613 210410.0 NaN 1473.274549098197 1.1063042852393403 514.0 3.0 346.0 
564.0003374459613 210417.0 NaN 1473.1730126920515 2.9977979721087684 514.0 3.0 346.0 
566.0003374459613 210417.0 NaN 1467.0300601202398 4.997797972108769 512.0 3.0 344.0 
568.0003374459613 210417.0 NaN 1470.1108884435541 6.997797972108769 512.0 3.0 345.0 
570.0003374459613 210045.0 NaN 1470.1295925183704 8.941867484670302 513.0 3.0 345.0 
572.0003374459613 210216.0 NaN 1479.377421509685 6.284727979737072 512.0 3.0 348.0 
574.0003374459613 210434.0 NaN 1494.8857715430854 1.99064596176196 517.0 2.0 354.0 
576.0003374459613 210434.0 NaN 1491.6873747494997 3.99064596176196 517.0 2.0 353.0 
578.0003374459613 210434.0 NaN 1482.4502338009363 5.9906459617619605 516.0 2.0 350.0 
580.0003374459613 210285.0 NaN 1485.5310621242475 7.968487199264031 516.0 2.0 351.0 
582.0003374459613 210075.0 NaN 1485.563126252506 9.938667791686932 516.0 2.0 351.0 
584.0003374459613 210490.0 NaN 1488.7695390781557 1.0955777341130102 519.0 3.0 351.0 
586.0003374459613 210502.0 NaN 1488.662658650635 2.98755608131216 520.0 3.0 351.0 
588.0003374459613 210502.0 NaN 1488.6252505010011 4.98755608131216 520.0 3.0 351.0 
590.0003374459613 210502.0 NaN 1488.6412825651294 6.98755608131216 519.0 3.0 351.0 
592.0003374459613 210170.0 NaN 1491.7060788243164 8.942756438907931 520.0 3.0 352.0 
594.0003374459613 210306.0 NaN 1491.7140948563801 6.290117700356365 522.0 3.0 352.0 
596.0003374459613 210514.0 NaN 1491.5965263861062 1.991228771866514 527.0 2.0 353.0 
598.0003374459613 210514.0 NaN 1491.473613894455 3.9912287718665143 527.0 2.0 353.0 
600.0003374459613 210514.0 NaN 1488.4328657314636 5.991228771866514 528.0 2.0 352.0 
602.0003374459613 210366.0 NaN 1494.5704742818982 7.969138039819189 528.0 2.0 354.0 
604.0003374459613 210147.0 NaN 1491.4736138944547 9.937862154466414 527.0 2.0 353.0 
606.0003374459613 210538.0 NaN 1497.808951235806 1.0895314851000557 531.0 3.0 354.0 
608.0003374459613 210541.0 NaN 1497.6780227120908 2.9811406605363033 529.0 3.0 354.0 
610.0003374459613 210541.0 NaN 1491.5323981295921 4.981140660536303 529.0 3.0 352.0 
612.0003374459613 210541.0 NaN 1491.5083500334 6.981140660536303 529.0 3.0 352.0 
614.0003374459613 210242.0 NaN 1494.5891783567122 8.936853449640411 530.0 3.0 353.0 
616.0003374459613 210383.0 NaN 1506.936539746158 6.28932950818528 527.0 3.0 357.0 
618.0003374459613 210586.0 NaN 1513.3734134936547 1.9861143443073646 531.0 2.0 360.0 
620.0003374459613 210586.0 NaN 1513.2478289913172 3.9861143443073646 531.0 2.0 360.0 
622.0003374459613 210586.0 NaN 1507.1235804943212 5.9861143443073646 531.0 2.0 358.0 
624.0003374459613 210459.0 NaN 1507.1235804943212 7.9678510062923324 533.0 2.0 358.0 
626.0003374459613 210297.0 NaN 1507.1075484301928 9.944236837815852 532.0 2.0 358.0 
628.0003374459613 210664.0 NaN 1522.5437541750173 1.115268652716463 528.0 3.0 362.0 
630.0003374459613 210674.0 NaN 1522.3433533734126 2.9992163520364934 528.0 3.0 362.0 
632.0003374459613 210674.0 NaN 1522.3486973947902 4.999216352036493 528.0 3.0 362.0 
634.0003374459613 210674.0 NaN 1522.3513694054789 6.999216352036493 530.0 3.0 362.0 
636.0003374459613 210284.0 NaN 1522.3406813627264 8.94276464638633 531.0 3.0 362.0 
638.0003374459613 210443.0 NaN 1525.4428857715436 6.302738687923523 532.0 3.0 363.0 
640.0003374459613 210639.0 NaN 1525.6219104876425 1.9900384621091487 534.0 2.0 364.0 
642.0003374459613 210639.0 NaN 1525.5096860387448 3.9900384621091485 534.0 2.0 364.0 
644.0003374459613 210639.0 NaN 1519.3854375417511 5.9900384621091485 532.0 2.0 362.0 
646.0003374459613 210490.0 NaN 1516.304609218436 7.967497312363094 533.0 2.0 361.0 
648.0003374459613 210293.0 NaN 1516.3179692718757 9.935611306845498 533.0 2.0 361.0 
650.0003374459613 210592.0 NaN 1522.5330661322637 1.093185542932667 531.0 3.0 362.0 
652.0003374459613 210597.0 NaN 1522.3754175016707 2.9741924548224454 531.0 3.0 362.0 
654.0003374459613 210597.0 NaN 1516.264529058117 4.974192454822445 531.0 3.0 360.0 
656.0003374459613 210597.0 NaN 1519.3453573814284 6.974192454822445 531.0 3.0 361.0 
658.0003374459613 210284.0 NaN 1519.3774215096848 8.93057992313878 530.0 3.0 361.0 
660.0003374459613 210441.0 NaN 1531.748830995325 6.2852187485446755 530.0 3.0 365.0 
662.0003374459613 210672.0 NaN 1534.81095524382 1.968408238231962 521.0 2.0 367.0 
664.0003374459613 210672.0 NaN 1534.6586506346018 3.968408238231962 520.0 2.0 367.0 
#####################################################################
# End of data export. Simulation finished at: 2019-03-19T22:09+0000 #
#####################################################################
