#####################################################################
# Alchemist log file - simulation started at: 2019-03-01T19:20+0000 #
#####################################################################
# seed = 0.0, bandwidth = 1000.0, propagationDelay = 0.31622776601683794, baserange = 56.234132519034915
#
# The columns have the following meaning: 
# time neighbor_count[Sum] <value>@neighbor_count[Sum] packet_size[Mean] mean_delay[Mean] crowd[Sum] overcrowded[Sum] risk[Sum] 
0.0 NaN NaN NaN NaN NaN NaN NaN 
10.000405536260626 6162.0 NaN 4994.746826987308 3.6889025697029334 1497.0 0.0 1497.0 
20.000405536260626 6178.0 NaN 4994.992651970608 1.6939860856754214 1481.0 16.0 1481.0 
30.000034337382637 6209.0 NaN 4992.47828991316 4.280628868670836 1475.0 22.0 1475.0 
40.00040553626063 6248.0 NaN 4992.272545090181 3.7667158765525306 1465.0 32.0 1465.0 
50.00040553626063 6336.0 NaN 4993.082164328657 1.8481303977521457 1464.0 33.0 1464.0 
60.00006692832061 6414.0 NaN 4993.766199064797 4.402224267656626 1467.0 30.0 1467.0 
70.0000032934105 6484.0 NaN 1527.9545758183026 2.151811509482579 538.0 30.0 337.0 
80.0000032934105 6533.0 NaN 1537.2104208416822 1.3606762550014275 496.0 37.0 333.0 
90.0000032934105 6462.0 NaN 1537.0688042752183 2.471985847384023 488.0 38.0 332.0 
100.0000032934105 6458.0 NaN 1540.0133600534396 2.2437203065695783 493.0 31.0 340.0 
110.0000032934105 6443.0 NaN 1540.1549766199064 1.2597769907067973 494.0 31.0 340.0 
120.0000032934105 6454.0 NaN 1540.1229124916515 2.443374242545005 495.0 31.0 340.0 
130.00000329341051 6502.0 NaN 1540.1229124916517 2.336336613609015 496.0 32.0 339.0 
140.00000329341051 6546.0 NaN 1534.0227120908482 1.4534049996525538 498.0 30.0 339.0 
150.00000329341051 6552.0 NaN 1530.8697394789579 2.5635967446518544 495.0 31.0 337.0 
160.00000329341051 6511.0 NaN 1530.8563794255183 2.450196121084105 492.0 32.0 336.0 
170.00000329341051 6513.0 NaN 1537.052772211091 1.5807667139359034 491.0 32.0 338.0 
180.00000329341051 6500.0 NaN 1540.1683366733453 2.734659392030263 490.0 34.0 337.0 
190.00000329341051 6464.0 NaN 1537.092852371409 2.377373020207141 484.0 35.0 335.0 
200.00000329341051 6434.0 NaN 1540.232464929861 1.6138811917248823 488.0 34.0 337.0 
210.00000329341051 6397.0 NaN 1533.9585838343364 2.630650709186957 480.0 37.0 332.0 
220.00000329341051 6362.0 NaN 1530.8216432865727 2.487308319939309 486.0 31.0 337.0 
230.00000329341051 6351.0 NaN 1534.0440881763545 1.721505852811828 481.0 35.0 334.0 
240.00000329341051 6297.0 NaN 1530.9686038744157 2.7070768644596144 486.0 31.0 337.0 
250.00000329341051 6251.0 NaN 1527.7648630594542 2.519484808838064 488.0 31.0 336.0 
260.0000032934105 6213.0 NaN 1521.6619906479636 1.6368375019747088 485.0 32.0 333.0 
270.0000032934105 6197.0 NaN 1530.9018036072152 2.6969250066126316 489.0 29.0 339.0 
280.0000032934105 6156.0 NaN 1546.1589846359366 2.622944837605251 489.0 31.0 342.0 
290.0000032934105 6156.0 NaN 1540.0 1.8192130942589728 485.0 31.0 340.0 
300.0000032934105 6098.0 NaN 1536.9325317301273 2.797317066395524 482.0 31.0 339.0 
310.0000032934105 6051.0 NaN 1527.730126920509 2.655268231124585 478.0 32.0 335.0 
320.0000032934105 5985.0 NaN 1527.7995991983976 1.7974499593403073 478.0 31.0 336.0 
330.0000032934105 5968.0 NaN 1530.8243152972614 2.6874322830207444 478.0 31.0 337.0 
340.0000032934105 5964.0 NaN 1533.9131596526363 2.3608453274499395 478.0 31.0 338.0 
350.0000032934105 5984.0 NaN 1530.8857715430852 1.569415004725331 479.0 31.0 337.0 
360.0000032934105 6000.0 NaN 1524.7134268537086 2.678342224907137 481.0 31.0 335.0 
370.0000032934105 5968.0 NaN 1515.382765531063 2.485829754245979 481.0 32.0 331.0 
380.0000032934105 6017.0 NaN 1515.4415497662 1.809843277298575 485.0 33.0 330.0 
390.0000032934105 5998.0 NaN 1515.430861723446 2.821192352113929 484.0 36.0 327.0 
400.0000032934105 6022.0 NaN 1518.5063460253823 2.6709587161464166 489.0 32.0 332.0 
410.0000032934105 6034.0 NaN 1533.8784235136934 1.7738934677736844 493.0 31.0 338.0 
420.0000032934105 6048.0 NaN 1524.630594522379 2.837957466728342 490.0 31.0 335.0 
430.0000032934105 6072.0 NaN 1518.4689378757523 2.829885250016546 482.0 37.0 327.0 
440.0000032934105 6036.0 NaN 1533.8677354709425 2.0660295092748515 493.0 34.0 335.0 
450.0000032934105 6000.0 NaN 1533.9505678022724 3.0098333909114245 488.0 41.0 328.0 
460.0000032934105 5978.0 NaN 1549.2424849699394 2.593991082242303 487.0 37.0 337.0 
470.0000032934105 6003.0 NaN 1546.0387441549756 1.7769120591555778 491.0 36.0 337.0 
480.0000032934105 5992.0 NaN 1527.660654642618 2.8124011694076296 488.0 33.0 334.0 
490.0000032934105 5963.0 NaN 1512.2297929191727 2.5223006368472602 482.0 36.0 326.0 
500.0000032934105 5919.0 NaN 1496.935203740816 1.8079962937355847 477.0 32.0 325.0 
510.0000032934105 5912.0 NaN 1506.1349365397455 2.866001940914659 484.0 32.0 328.0 
520.0000032934105 5897.0 NaN 1487.8102872411482 2.5809597985453143 482.0 31.0 323.0 
530.0000032934105 5914.0 NaN 1463.1983967935882 1.6789677432644057 474.0 32.0 314.0 
540.0000032934105 5958.0 NaN 1472.3820975283907 2.6634989402909506 471.0 35.0 314.0 
550.0000032934105 5947.0 NaN 1475.3800935203735 2.4217841509078037 478.0 31.0 319.0 
560.0000032934105 5959.0 NaN 1475.3934535738151 1.6831265634690487 480.0 30.0 320.0 
570.0000032934105 6002.0 NaN 1484.718770875083 2.7487844542294173 479.0 30.0 323.0 
580.0000032934105 6039.0 NaN 1484.7267869071468 2.503440992946439 483.0 29.0 324.0 
590.0000032934105 6080.0 NaN 1487.802271209084 2.025521170698507 488.0 30.0 324.0 
600.0000032934105 6040.0 NaN 1496.937875751502 3.0797943920997946 492.0 31.0 326.0 
610.0000032934105 6046.0 NaN 1506.2017368069467 2.8565169944774254 505.0 29.0 331.0 
620.0000032934105 6048.0 NaN 1503.128924515699 1.9006856225809456 503.0 29.0 330.0 
630.0000032934105 6148.0 NaN 1512.384769539079 2.746462808211186 498.0 29.0 333.0 
640.0000032934105 6200.0 NaN 1521.6593186372736 2.654751211110861 504.0 29.0 336.0 
650.0000032934105 6252.0 NaN 1524.6386105544432 2.0295333610303445 496.0 29.0 337.0 
660.0000032934105 6221.0 NaN 1530.8643954575818 3.017127150092212 489.0 34.0 334.0 
#####################################################################
# End of data export. Simulation finished at: 2019-03-01T19:27+0000 #
#####################################################################
