#####################################################################
# Alchemist log file - simulation started at: 2019-03-02T04:23+0000 #
#####################################################################
# seed = 0.0, bandwidth = 74989.42093324558, propagationDelay = 3.1622776601683795, baserange = 177.82794100389228
#
# The columns have the following meaning: 
# time neighbor_count[Sum] <value>@neighbor_count[Sum] packet_size[Mean] mean_delay[Mean] crowd[Sum] overcrowded[Sum] risk[Sum] 
0.0 NaN NaN NaN NaN NaN NaN NaN 
10.000405536260626 26552.0 NaN 4993.787575150301 1.7708986526497672 1494.0 3.0 1494.0 
20.000405536260626 26564.0 NaN 4993.63794255177 2.5816595626975976 1494.0 3.0 1494.0 
30.000405536260626 26606.0 NaN 4995.030060120241 1.7818503768979372 1494.0 3.0 1494.0 
40.00040553626063 26649.0 NaN 4995.088844355378 2.5914483955177694 1494.0 3.0 1494.0 
50.00040553626063 26684.0 NaN 4993.723446893788 1.8037437360913755 1494.0 3.0 1494.0 
60.00040553626063 26704.0 NaN 4990.637274549098 2.593502134369522 1493.0 3.0 1493.0 
70.00040553626063 26771.0 NaN 1528.6733466933879 1.8276245294248705 602.0 3.0 364.0 
80.00040553626063 26827.0 NaN 1534.738810955245 2.500374808829381 549.0 2.0 367.0 
90.00040553626063 26831.0 NaN 1537.7822311289244 1.8378937097675327 534.0 2.0 368.0 
100.00040553626063 26809.0 NaN 1540.812291249164 2.50091066226572 531.0 2.0 369.0 
110.00040553626063 26810.0 NaN 1540.8977955911816 1.835527150364253 528.0 2.0 369.0 
120.00040553626063 26781.0 NaN 1540.8416833667336 2.516380108431422 528.0 2.0 369.0 
130.00040553626064 26728.0 NaN 1537.7234468937882 1.8312211188533114 528.0 2.0 368.0 
140.00040553626064 26701.0 NaN 1531.6392785571152 2.49373096103501 525.0 2.0 366.0 
150.00040553626064 26718.0 NaN 1531.722110888445 1.826120976647839 524.0 2.0 366.0 
160.00040553626064 26670.0 NaN 1531.700734802939 2.5000641622194157 525.0 2.0 366.0 
170.00040553626064 26629.0 NaN 1534.752171008682 1.8418535296671845 523.0 2.0 367.0 
180.00040553626064 26565.0 NaN 1531.6873747495001 2.4963232431032654 525.0 1.0 367.0 
190.00040553626064 26514.0 NaN 1531.7568470273884 1.8733665475995325 519.0 3.0 365.0 
200.00040553626064 26418.0 NaN 1537.902471609888 2.5136640068272573 521.0 3.0 367.0 
210.00040553626064 26335.0 NaN 1534.7628590514364 1.8356089571677383 516.0 3.0 366.0 
220.00040553626064 26293.0 NaN 1528.5771543086184 2.53409819424257 516.0 3.0 364.0 
230.00040553626064 26184.0 NaN 1531.7354709418819 1.8435830647023457 514.0 3.0 365.0 
240.00040553626064 26090.0 NaN 1528.638610554443 2.4985731481718934 513.0 3.0 364.0 
250.00040553626064 26087.0 NaN 1525.4909819639272 1.8589331139804384 515.0 3.0 363.0 
260.00040553626064 25962.0 NaN 1525.402805611221 2.500129110441877 515.0 3.0 363.0 
270.00040553626064 25875.0 NaN 1531.7114228456908 1.8428555007162029 514.0 3.0 365.0 
280.00040553626064 25796.0 NaN 1537.7849031396117 2.5098405567718824 514.0 3.0 367.0 
290.00040553626064 25743.0 NaN 1534.6639946559794 1.8395851591032157 512.0 2.0 367.0 
300.00040553626064 25658.0 NaN 1528.4889779559114 2.5097928159930216 510.0 2.0 365.0 
310.00040553626064 25574.0 NaN 1531.6900467601884 1.8657687755821184 508.0 2.0 366.0 
320.00040553626064 25471.0 NaN 1534.7281229124908 2.4986497308045656 507.0 2.0 367.0 
330.00040553626064 25408.0 NaN 1537.7100868403456 1.8465488171466358 508.0 2.0 368.0 
340.00040553626064 25363.0 NaN 1528.5344021376093 2.5067489061396615 509.0 2.0 365.0 
350.00040553626064 25372.0 NaN 1531.5484301937208 1.8536163369723397 515.0 2.0 366.0 
360.00040553626064 25356.0 NaN 1525.4776219104883 2.4971446379889604 513.0 2.0 364.0 
370.00040553626064 25293.0 NaN 1513.1302605210426 1.8597604293759238 516.0 2.0 360.0 
380.00040553626064 25241.0 NaN 1510.006680026719 2.5122153868560737 517.0 2.0 359.0 
390.00040553626064 25183.0 NaN 1507.0140280561116 1.851668884582521 515.0 2.0 358.0 
400.00040553626064 25110.0 NaN 1507.0514362057454 2.5225570649072027 518.0 2.0 358.0 
410.00040553626064 25058.0 NaN 1525.4749498998 1.8530828684134752 522.0 2.0 364.0 
420.00040553626064 25019.0 NaN 1516.1870407481638 2.5180576443557565 519.0 2.0 361.0 
430.00040553626064 24941.0 NaN 1500.8229792919178 1.8515138397227833 517.0 2.0 356.0 
440.00040553626064 24892.0 NaN 1513.100868403473 2.513633470686701 521.0 2.0 360.0 
450.00040553626064 24907.0 NaN 1531.4281897127576 1.837750720059263 527.0 2.0 366.0 
460.00040553626064 24906.0 NaN 1543.7541750167002 2.5018895092882447 525.0 2.0 370.0 
470.00040553626064 24926.0 NaN 1537.6619906479636 1.8675833260315164 523.0 2.0 368.0 
480.00040553626064 24901.0 NaN 1519.1396125584515 2.5066930413366553 515.0 2.0 362.0 
490.00040553626064 24966.0 NaN 1506.8670674682708 1.848435757155728 513.0 3.0 357.0 
500.00040553626064 24956.0 NaN 1491.5457581830335 2.507029379550965 515.0 3.0 352.0 
510.00040553626064 25007.0 NaN 1497.760855043419 1.8583855469061934 515.0 2.0 355.0 
520.0004055362606 25007.0 NaN 1479.2892451569815 2.5089904963088774 508.0 7.0 344.0 
530.0004055362606 25071.0 NaN 1463.8557114228454 1.8565104327888988 498.0 7.0 339.0 
540.0004055362606 25054.0 NaN 1466.9899799599193 2.5064354666969817 498.0 7.0 340.0 
550.0004055362606 25082.0 NaN 1470.0734802939205 1.8637162491681307 502.0 7.0 341.0 
560.0004055362606 25029.0 NaN 1470.0494321977283 2.4979693060557002 503.0 7.0 341.0 
570.0004055362606 25102.0 NaN 1476.184368737474 1.8518477141107532 501.0 8.0 342.0 
580.0004055362606 25079.0 NaN 1479.2438209752831 2.519186694186882 510.0 3.0 348.0 
590.0004055362606 25143.0 NaN 1479.227788911155 1.85888016019315 518.0 2.0 349.0 
600.0004055362606 25177.0 NaN 1488.4355377421516 2.5157071117895766 521.0 2.0 352.0 
610.0004055362606 25271.0 NaN 1503.7808951235809 1.886066972996244 527.0 2.0 357.0 
620.0004055362606 25246.0 NaN 1500.7321309285244 2.514575976276161 525.0 2.0 356.0 
630.0004055362606 25253.0 NaN 1519.2224448897812 1.8513230779661838 521.0 2.0 362.0 
640.0004055362606 25260.0 NaN 1513.074148296592 2.5153248736712377 525.0 2.0 360.0 
650.0004055362606 25206.0 NaN 1522.3112892451566 1.8490560152767657 520.0 2.0 363.0 
660.0004055362606 25194.0 NaN 1525.3279893119566 2.527350784877765 518.0 2.0 364.0 
#####################################################################
# End of data export. Simulation finished at: 2019-03-02T04:36+0000 #
#####################################################################
