#####################################################################
# Alchemist log file - simulation started at: 2019-03-16T04:57+0000 #
#####################################################################
# seed = 8.0, bandwidth = 316227.76601683797, propagationDelay = 0.001, baserange = 1000.0
#
# The columns have the following meaning: 
# time neighbor_count[Sum] <value>@neighbor_count[Sum] packet_size[Mean] mean_delay[Mean] crowd[Sum] overcrowded[Sum] risk[Sum] 
0.0 NaN NaN NaN NaN NaN NaN NaN 
2.0006217106462856 210006.0 NaN 4995.86372745491 0.49915551850469 1497.0 0.0 1497.0 
4.000621710646286 210022.0 NaN 4994.303273213093 0.49919716714302403 1497.0 0.0 1497.0 
6.000198348008885 210022.0 NaN 4993.889111556447 0.49920028614241574 1497.0 0.0 1497.0 
8.000558465093082 210022.0 NaN 4994.364729458918 0.49920449348242324 1496.0 1.0 1496.0 
10.000583763314363 210022.0 NaN 4995.393453573814 0.4992069944497078 1496.0 1.0 1496.0 
12.000583763314363 210045.0 NaN 4994.495657982632 0.499203512875258 1497.0 0.0 1497.0 
14.000583763314363 210051.0 NaN 4993.9425517702075 0.4991931818984057 1497.0 0.0 1497.0 
16.000198348008887 210054.0 NaN 4994.078824315297 0.49918660175778756 1497.0 0.0 1497.0 
18.00062171064629 210068.0 NaN 4994.949899799599 0.49962088593708986 1497.0 0.0 1497.0 
20.00062171064629 210066.0 NaN 4995.714094856379 0.4992171547395795 1497.0 0.0 1497.0 
22.00062171064629 210086.0 NaN 4994.773547094188 0.49927153443561084 1494.0 3.0 1494.0 
24.00062171064629 210089.0 NaN 4994.313961255845 0.4993240732402652 1493.0 4.0 1493.0 
26.000198348008887 210129.0 NaN 4994.479625918504 0.49976033424050353 1496.0 1.0 1496.0 
28.000583763314367 210135.0 NaN 4995.3373413493655 0.49982333286506114 1497.0 0.0 1497.0 
30.000583763314367 210128.0 NaN 4996.162992651971 0.49926280603416257 1496.0 1.0 1496.0 
32.00058376331437 210154.0 NaN 4994.746826987308 0.4994498935741787 1493.0 4.0 1493.0 
34.00057111420372 210157.0 NaN 4993.854375417502 0.4993291274299283 1496.0 1.0 1496.0 
36.00019834800889 210232.0 NaN 4994.158984635938 0.49939728845598913 1497.0 0.0 1497.0 
38.000621710646286 210266.0 NaN 4994.936539746159 0.5000072080152925 1496.0 1.0 1496.0 
40.000621710646286 210252.0 NaN 4996.085504342017 0.4993155675347856 1496.0 1.0 1496.0 
42.000621710646286 210275.0 NaN 4995.193052772211 0.49936211674007475 1497.0 0.0 1497.0 
44.00055846509308 210285.0 NaN 4994.231128924515 0.4994123203032727 1496.0 1.0 1496.0 
46.00019834800889 210336.0 NaN 4994.137608550434 0.4994838109728884 1496.0 1.0 1496.0 
48.00058376331436 210335.0 NaN 4994.805611222445 0.5003983424836668 1497.0 0.0 1497.0 
50.00058376331436 210319.0 NaN 4995.799599198397 0.49934210173756194 1497.0 0.0 1497.0 
52.00057111420372 210343.0 NaN 4994.891115564462 0.4995128911242279 1494.0 3.0 1494.0 
54.000621710646286 210350.0 NaN 4994.396793587174 0.5000024051157904 1492.0 5.0 1492.0 
56.00019834800889 210385.0 NaN 4994.530394121576 0.4994523607199406 1495.0 2.0 1495.0 
58.000621710646286 210396.0 NaN 4995.072812291249 0.4998249728987469 1494.0 3.0 1494.0 
60.000621710646286 210408.0 NaN 4995.837007348029 0.5002866239997855 1496.0 1.0 1496.0 
62.00042575550556 210319.0 NaN 1519.3026052104208 0.499215821197927 778.0 3.0 361.0 
64.00042575550556 210329.0 NaN 1522.426185704743 0.5001481257029846 614.0 5.0 360.0 
66.0001983480089 210364.0 NaN 1522.6479625918514 0.5007118777789193 578.0 5.0 360.0 
68.00042575550556 210359.0 NaN 1522.7281229124908 0.5009879736987198 542.0 7.0 358.0 
70.00042575550556 210372.0 NaN 1525.8303273213091 0.501097084302183 528.0 8.0 358.0 
72.00042575550556 210299.0 NaN 1525.7661990647969 0.5002582759985503 525.0 6.0 360.0 
74.00042575550556 210308.0 NaN 1525.6860387441545 0.5003150062745622 525.0 6.0 360.0 
76.0001983480089 210333.0 NaN 1531.700734802939 0.5004213172356178 525.0 6.0 362.0 
78.00042575550556 210333.0 NaN 1531.644622578491 0.5004218393518465 523.0 5.0 363.0 
80.00042575550556 210385.0 NaN 1531.580494321979 0.5006750052464124 522.0 5.0 363.0 
82.00042575550556 210364.0 NaN 1531.6312625250514 0.5002409010743509 522.0 6.0 362.0 
84.00042575550556 210361.0 NaN 1534.810955243821 0.5004030597141271 524.0 5.0 364.0 
86.0001983480089 210355.0 NaN 1534.8911155644635 0.5002345873409979 522.0 5.0 364.0 
88.00042575550556 210364.0 NaN 1534.9792919171666 0.5002083658208005 523.0 5.0 364.0 
90.00042575550556 210487.0 NaN 1534.9445557782242 0.5005406488830254 522.0 6.0 363.0 
92.00042575550556 210454.0 NaN 1534.810955243821 0.5004108272722433 520.0 8.0 361.0 
94.00042575550556 210442.0 NaN 1534.7441549766183 0.5003403417123574 522.0 6.0 363.0 
96.0001983480089 210437.0 NaN 1537.8410153640634 0.5002309777107954 524.0 4.0 366.0 
98.00042575550556 210471.0 NaN 1537.7608550434184 0.5002722825560618 523.0 5.0 365.0 
100.00042575550556 210655.0 NaN 1537.8410153640634 0.5004597039849871 522.0 6.0 364.0 
102.00042575550556 210632.0 NaN 1537.9211756847028 0.5003656934142537 521.0 7.0 363.0 
104.00042575550556 210615.0 NaN 1537.9719438877753 0.5004850168718774 521.0 6.0 364.0 
106.0001983480089 210601.0 NaN 1538.0734802939207 0.5003314124528003 521.0 7.0 363.0 
108.00042575550556 210599.0 NaN 1538.185704742818 0.5003231145852253 520.0 7.0 363.0 
110.00042575550556 210675.0 NaN 1538.1670006680026 0.5003041113021225 522.0 5.0 365.0 
112.00042575550556 210670.0 NaN 1541.0955243820977 0.5003468834229161 522.0 5.0 366.0 
114.00042575550556 210665.0 NaN 1540.9164996659997 0.5004239237776418 523.0 4.0 367.0 
116.0001983480089 210651.0 NaN 1537.6646626586517 0.5002477657648486 524.0 4.0 366.0 
118.00042575550556 210666.0 NaN 1543.828991315964 0.5003797243359926 526.0 4.0 368.0 
120.00042575550556 210666.0 NaN 1546.9873079492334 0.5005164149764301 526.0 4.0 369.0 
122.00042575550556 210656.0 NaN 1547.0754843019363 0.5003627157132248 525.0 5.0 368.0 
124.00042575550556 210667.0 NaN 1544.0454241816972 0.5003307509523894 525.0 5.0 367.0 
126.0001983480089 210659.0 NaN 1544.2191048764182 0.5004380802054172 522.0 6.0 366.0 
128.00042575550555 210675.0 NaN 1544.1683366733455 0.5002263895228531 522.0 6.0 366.0 
130.00042575550555 210660.0 NaN 1541.0340681362727 0.5002866912152355 523.0 5.0 366.0 
132.00042575550555 210660.0 NaN 1541.0153640614546 0.5003405833200584 521.0 5.0 366.0 
134.00042575550555 210679.0 NaN 1537.7955911823633 0.5004333783534177 520.0 4.0 366.0 
136.0001983480089 210689.0 NaN 1531.690046760188 0.5002693238695675 519.0 4.0 364.0 
138.00042575550555 210688.0 NaN 1534.789579158318 0.5004767032090794 515.0 4.0 365.0 
140.00042575550555 210704.0 NaN 1537.9505678022724 0.5003620016814445 517.0 4.0 366.0 
142.00042575550555 210706.0 NaN 1543.9946559786242 0.5002716305973753 515.0 7.0 365.0 
144.00042575550555 210722.0 NaN 1544.0106880427522 0.5003412246013437 515.0 7.0 365.0 
146.0001983480089 210707.0 NaN 1543.885103540415 0.5003017214992125 517.0 5.0 367.0 
148.00042575550555 210701.0 NaN 1550.0948563794273 0.5002299242217725 518.0 4.0 370.0 
150.00042575550555 210733.0 NaN 1550.2017368069455 0.5006544890754488 519.0 4.0 370.0 
152.00042575550555 210707.0 NaN 1540.9832999332002 0.5001997525372627 519.0 5.0 366.0 
154.00042575550555 210736.0 NaN 1538.0467601870394 0.500381091556261 517.0 4.0 366.0 
156.0001983480089 210739.0 NaN 1541.124916499666 0.5003740881106812 515.0 4.0 367.0 
158.00042575550555 210732.0 NaN 1541.1783567134273 0.5003990157864306 517.0 4.0 367.0 
160.00042575550555 210747.0 NaN 1541.1035404141635 0.5005563971578992 518.0 4.0 367.0 
162.00042575550555 210755.0 NaN 1541.1062124248485 0.5005067620459849 516.0 4.0 367.0 
164.00042575550555 210732.0 NaN 1544.0988643954574 0.5002903349969292 515.0 5.0 367.0 
166.0001983480089 210714.0 NaN 1544.0828323313274 0.5001643087312787 516.0 4.0 368.0 
168.00042575550555 210725.0 NaN 1540.9031396125577 0.5004791597499503 516.0 4.0 367.0 
170.00042575550555 210732.0 NaN 1540.780227120909 0.5003203713082137 517.0 4.0 367.0 
172.00042575550555 210742.0 NaN 1546.9445557782244 0.500334135438718 520.0 4.0 369.0 
174.00042575550555 210736.0 NaN 1546.9659318637273 0.500248544636199 519.0 4.0 369.0 
176.0001983480089 210723.0 NaN 1544.136272545091 0.5002236122779596 518.0 4.0 368.0 
178.00042575550555 210739.0 NaN 1544.2084168336664 0.5004249782851979 517.0 5.0 367.0 
180.00042575550555 210745.0 NaN 1544.3179692718754 0.5003314793894627 518.0 4.0 368.0 
182.00042575550555 210762.0 NaN 1538.1002004008 0.5003746008798529 517.0 4.0 366.0 
184.00042575550555 210741.0 NaN 1538.0253841015365 0.5001848472272996 516.0 4.0 366.0 
186.0001983480089 210723.0 NaN 1537.8891115564454 0.5002711602472154 516.0 5.0 365.0 
188.00042575550555 210739.0 NaN 1540.8229792919183 0.5002051913875949 516.0 5.0 366.0 
190.00042575550555 210742.0 NaN 1534.7601870407482 0.5003773219553226 514.0 5.0 364.0 
192.00042575550555 210754.0 NaN 1534.7762191048755 0.50055914849906 514.0 6.0 363.0 
194.00042575550555 210718.0 NaN 1537.9719438877753 0.5004512785759379 515.0 5.0 365.0 
196.0001983480089 210694.0 NaN 1538.076152304609 0.5002105715711338 514.0 6.0 364.0 
198.00042575550555 210708.0 NaN 1535.1636606546429 0.5007617206182943 514.0 6.0 363.0 
200.00042575550555 210704.0 NaN 1541.2157648630607 0.500234228236197 515.0 6.0 365.0 
202.00042575550555 210704.0 NaN 1541.0100200400816 0.5001996488125694 517.0 6.0 365.0 
204.00042575550555 210812.0 NaN 1540.9031396125577 0.5004288684420647 517.0 6.0 365.0 
206.0001983480089 210790.0 NaN 1540.790915163661 0.5002179890542011 517.0 6.0 365.0 
208.00042575550555 210791.0 NaN 1534.6693386773545 0.5003944247660631 517.0 4.0 365.0 
210.00042575550555 210810.0 NaN 1531.7301269205088 0.5004533823805983 513.0 4.0 364.0 
212.00042575550555 210811.0 NaN 1528.6225784903154 0.5007643218009489 513.0 4.0 363.0 
214.00042575550555 210873.0 NaN 1531.7595190380757 0.5004479617177457 513.0 4.0 364.0 
216.0001983480089 210826.0 NaN 1534.9044756179023 0.5002758010245442 514.0 4.0 365.0 
218.00042575550555 210847.0 NaN 1528.7134268537088 0.5012171322072184 512.0 5.0 362.0 
220.00042575550555 210815.0 NaN 1528.7748830995333 0.5004319543835383 509.0 7.0 360.0 
222.00042575550555 210833.0 NaN 1525.613894455579 0.5000650974571037 512.0 4.0 362.0 
224.00042575550555 210897.0 NaN 1522.4983299933185 0.500502037495657 511.0 5.0 360.0 
226.0001983480089 210854.0 NaN 1525.5043420173665 0.5000657602423809 511.0 5.0 361.0 
228.00042575550555 210865.0 NaN 1528.6145624582489 0.5006557286661794 509.0 5.0 362.0 
230.00042575550555 210851.0 NaN 1528.6012024048089 0.5001919205528015 508.0 5.0 362.0 
232.00042575550555 210875.0 NaN 1534.8189712758845 0.5001705843950257 508.0 5.0 364.0 
234.00042575550555 210923.0 NaN 1534.9178356713428 0.5004158672380059 506.0 7.0 362.0 
236.0001983480089 210874.0 NaN 1534.9472277889092 0.5001406197892534 507.0 6.0 363.0 
238.00042575550555 210871.0 NaN 1534.9498997996 0.5003705755187611 507.0 6.0 363.0 
240.00042575550555 210898.0 NaN 1531.8049432197727 0.5001080007069431 507.0 6.0 362.0 
242.00042575550555 210903.0 NaN 1531.7862391449548 0.5000327929130501 508.0 6.0 362.0 
244.00042575550555 211000.0 NaN 1525.5444221776904 0.5002173447882846 509.0 5.0 361.0 
246.0001983480089 210982.0 NaN 1525.5310621242481 0.5002514610661492 510.0 4.0 362.0 
248.00042575550555 210981.0 NaN 1528.6546426185726 0.5003016424476359 509.0 5.0 362.0 
250.00042575550555 210997.0 NaN 1525.6780227120908 0.4999643152713165 510.0 4.0 362.0 
252.00042575550555 211014.0 NaN 1525.774215096861 0.5000641005474391 510.0 4.0 362.0 
254.00042575550555 211014.0 NaN 1525.5818303273209 0.5003712435602565 508.0 5.0 361.0 
256.0001983480089 210989.0 NaN 1525.4295257181025 0.5001387235265093 509.0 5.0 361.0 
258.00042575550555 210975.0 NaN 1525.4268537074154 0.5001620718124421 510.0 6.0 360.0 
260.00042575550555 210992.0 NaN 1522.3193052772206 0.49992110347862634 511.0 5.0 360.0 
262.00042575550555 211004.0 NaN 1516.3633934535726 0.49994334861923867 509.0 6.0 357.0 
264.00042575550555 211046.0 NaN 1516.513026052103 0.5001841159625714 508.0 5.0 358.0 
266.0001983480089 211125.0 NaN 1516.6252505010007 0.5000315690923849 507.0 5.0 358.0 
268.00042575550555 211130.0 NaN 1525.862391449564 0.5006370470566229 509.0 5.0 361.0 
270.00042575550555 211143.0 NaN 1532.0347361389454 0.4999597169365033 508.0 5.0 363.0 
272.00042575550555 211138.0 NaN 1531.7354709418819 0.5000103455505732 508.0 5.0 363.0 
274.00042575550555 211123.0 NaN 1534.6746826987298 0.5000097156992216 511.0 4.0 365.0 
276.0001983480089 211144.0 NaN 1531.6045424181702 0.4999915680188748 511.0 5.0 363.0 
278.00042575550555 211153.0 NaN 1528.4916499666 0.5002393219978987 511.0 4.0 363.0 
280.00042575550555 211138.0 NaN 1531.6766867067454 0.500143562729434 511.0 4.0 364.0 
282.00042575550555 211133.0 NaN 1531.674014696057 0.5001363367269659 511.0 4.0 364.0 
284.00042575550555 211142.0 NaN 1531.7007348029385 0.5007919638894839 513.0 4.0 364.0 
286.0001983480089 211099.0 NaN 1531.7541750167002 0.4999305147791425 512.0 4.0 364.0 
288.00042575550555 211113.0 NaN 1531.9011356045432 0.5008136428687833 511.0 4.0 364.0 
290.00042575550555 211086.0 NaN 1534.869739478957 0.5000884359434973 509.0 5.0 364.0 
292.00042575550555 211097.0 NaN 1534.7628590514364 0.5003100410432813 508.0 5.0 364.0 
294.00042575550555 211058.0 NaN 1534.6399465597842 0.5002179961126653 508.0 5.0 364.0 
296.0001983480089 211029.0 NaN 1537.6245824983293 0.4998786563498267 508.0 5.0 365.0 
298.00042575550555 211055.0 NaN 1537.6272545090183 0.5005749551101348 507.0 5.0 365.0 
300.00042575550555 211025.0 NaN 1540.7294589178366 0.5002811124832321 505.0 7.0 364.0 
302.00042575550555 211034.0 NaN 1540.8042752171 0.5004169996154153 505.0 7.0 364.0 
304.00042575550555 210978.0 NaN 1531.7515030060113 0.5004622412829015 506.0 6.0 362.0 
306.0001983480089 210953.0 NaN 1541.0901803607205 0.5001414957744333 506.0 5.0 366.0 
308.00042575550555 210979.0 NaN 1537.8997995992 0.5013589770620476 504.0 5.0 365.0 
310.00042575550555 210917.0 NaN 1534.6399465597842 0.5000747081618222 504.0 5.0 364.0 
312.00042575550555 210960.0 NaN 1534.519706078825 0.5001646595534804 504.0 5.0 364.0 
314.00042575550555 210959.0 NaN 1534.495657982634 0.5004688075425061 505.0 6.0 363.0 
316.0001983480089 210925.0 NaN 1531.5110220440886 0.4999540979363343 506.0 6.0 362.0 
318.00042575550555 210943.0 NaN 1537.7047428189726 0.5001270967281448 505.0 7.0 363.0 
320.00042575550555 210973.0 NaN 1531.5831663326637 0.5002904911609541 505.0 5.0 363.0 
322.00042575550555 211002.0 NaN 1531.625918503673 0.500630157135575 506.0 4.0 364.0 
324.00042575550555 210962.0 NaN 1537.814295257182 0.5002170417736908 505.0 4.0 366.0 
326.0001983480089 210942.0 NaN 1537.843687374748 0.49996837629339774 506.0 4.0 366.0 
328.00042575550555 210947.0 NaN 1540.9191716766884 0.5002215881684614 505.0 5.0 366.0 
330.00042575550555 210948.0 NaN 1543.981295925182 0.5002445986292601 505.0 6.0 366.0 
332.00042575550555 210951.0 NaN 1540.7695390781548 0.5003810758461481 504.0 6.0 365.0 
334.00042575550555 210905.0 NaN 1537.6539746158999 0.500333585759845 506.0 5.0 365.0 
336.0001983480089 210859.0 NaN 1534.6265865063453 0.5000185862539241 508.0 4.0 365.0 
338.00042575550555 210860.0 NaN 1531.580494321979 0.5006345973411417 508.0 4.0 364.0 
340.00042575550555 210850.0 NaN 1531.660654642618 0.5002362895074244 507.0 4.0 364.0 
342.00042575550555 210868.0 NaN 1537.923847695391 0.5005381584234673 506.0 4.0 366.0 
344.00042575550555 210807.0 NaN 1537.8196392785571 0.5004468126135921 510.0 4.0 366.0 
346.0001983480089 210761.0 NaN 1537.9131596526365 0.4999699681968827 509.0 5.0 365.0 
348.00042575550555 210762.0 NaN 1534.8296593186362 0.5003634069546249 507.0 7.0 362.0 
350.00042575550555 210742.0 NaN 1531.7274549098186 0.5002027076867211 507.0 7.0 361.0 
352.00042575550555 210751.0 NaN 1531.7114228456908 0.5004057696842362 509.0 7.0 361.0 
354.00042575550555 210715.0 NaN 1528.582498329993 0.5005448869804099 509.0 7.0 360.0 
356.0001983480089 210678.0 NaN 1528.6225784903152 0.4999819136586992 510.0 5.0 362.0 
358.00042575550555 210712.0 NaN 1528.5985303941213 0.5002451031482228 510.0 4.0 363.0 
360.00042575550555 210715.0 NaN 1528.6012024048089 0.500641108281159 510.0 4.0 363.0 
362.00042575550555 210646.0 NaN 1528.4488977955907 0.5003442107066779 512.0 4.0 363.0 
364.00042575550555 210631.0 NaN 1525.3734134936547 0.5006976203851236 514.0 4.0 362.0 
366.0001983480089 210596.0 NaN 1525.3520374081486 0.5002556633711175 515.0 4.0 362.0 
368.00042575550555 210604.0 NaN 1506.9205076820303 0.5005848360540447 512.0 5.0 355.0 
370.00042575550555 210585.0 NaN 1506.987307949233 0.500776484545384 513.0 5.0 355.0 
372.00042575550555 210466.0 NaN 1510.1616566466273 0.5007456678125572 512.0 6.0 355.0 
374.00042575550555 210379.0 NaN 1513.293253173012 0.5004748802258187 514.0 5.0 357.0 
376.0001983480089 210328.0 NaN 1519.4121576486298 0.5000259364395662 513.0 5.0 359.0 
378.00042575550555 210365.0 NaN 1513.3947895791575 0.5004210432515559 513.0 5.0 357.0 
380.00042575550555 210346.0 NaN 1513.293253173012 0.5006196058600166 513.0 5.0 357.0 
382.00042575550555 210275.0 NaN 1510.1509686038737 0.5005417157557248 513.0 6.0 355.0 
384.00042575550555 210201.0 NaN 1516.1897127588516 0.5003818391659436 512.0 6.0 357.0 
386.0001983480089 210171.0 NaN 1516.1042084168341 0.5003008215326002 512.0 7.0 356.0 
388.00042575550555 210218.0 NaN 1510.049432197728 0.5009394976458283 510.0 7.0 354.0 
390.00042575550555 210179.0 NaN 1510.1215764863066 0.5012304708829614 511.0 7.0 354.0 
392.00042575550555 210109.0 NaN 1510.252505010019 0.5011204519765018 512.0 5.0 356.0 
394.00042575550555 210042.0 NaN 1513.2985971943901 0.5008812724235691 513.0 5.0 357.0 
396.0001983480089 209971.0 NaN 1513.3841015364067 0.5003248301627204 513.0 5.0 357.0 
398.00042575550555 210089.0 NaN 1510.1776887107544 0.5005109034127045 518.0 4.0 357.0 
400.00042575550555 210081.0 NaN 1507.0674682698727 0.5008732163716366 517.0 4.0 356.0 
402.00042575550555 210057.0 NaN 1507.0541082164334 0.5007756579105461 516.0 4.0 356.0 
404.00042575550555 210031.0 NaN 1513.0875083500339 0.500450010962772 517.0 4.0 358.0 
406.0001983480089 210004.0 NaN 1516.1122244488995 0.5002955011665352 518.0 5.0 358.0 
408.00042575550555 210123.0 NaN 1522.3460253841006 0.5010236251557108 519.0 4.0 361.0 
410.00042575550555 210104.0 NaN 1525.5257181028728 0.5008851972544361 519.0 4.0 362.0 
412.00042575550555 210081.0 NaN 1522.4876419505667 0.500791080804328 520.0 4.0 361.0 
414.00042575550555 210037.0 NaN 1525.736806947227 0.5007814707645581 519.0 5.0 361.0 
416.0001983480089 210005.0 NaN 1522.5704742818975 0.5002941622386691 519.0 5.0 360.0 
418.00042575550555 210031.0 NaN 1522.5998663994642 0.500605702714985 520.0 5.0 360.0 
420.00042575550555 210040.0 NaN 1510.2124248497 0.5005827667556499 521.0 5.0 356.0 
422.00042575550555 210033.0 NaN 1510.1002004008008 0.5009621357798256 520.0 5.0 356.0 
424.00042575550555 210017.0 NaN 1507.040748162992 0.5007339396886594 515.0 6.0 354.0 
426.0001983480089 209971.0 NaN 1506.9926519706084 0.500275565789767 512.0 6.0 354.0 
428.00042575550555 209991.0 NaN 1507.0300601202396 0.5004641529264172 513.0 6.0 354.0 
430.00042575550555 209984.0 NaN 1500.959251837008 0.5006822407170102 512.0 7.0 351.0 
432.00042575550555 209963.0 NaN 1513.3653974615906 0.5004400796440609 513.0 6.0 356.0 
434.00042575550555 209952.0 NaN 1519.4415497662 0.5005753557083744 515.0 5.0 359.0 
436.0001983480089 209923.0 NaN 1525.4802939211752 0.5007670346321348 523.0 4.0 362.0 
438.00042575550555 209972.0 NaN 1525.4295257181025 0.5005847134740461 523.0 4.0 362.0 
440.00042575550555 209995.0 NaN 1525.4161656646636 0.5009613949546856 523.0 5.0 361.0 
442.00042575550555 209956.0 NaN 1534.7548430193729 0.5005345138599915 524.0 4.0 365.0 
444.00042575550555 209927.0 NaN 1531.708750835003 0.5006855017880424 525.0 5.0 363.0 
446.0001983480089 209905.0 NaN 1534.8537074148294 0.5004722632049952 524.0 5.0 364.0 
448.00042575550555 209929.0 NaN 1531.828991315964 0.5008266945072023 522.0 6.0 362.0 
450.00042575550555 209941.0 NaN 1534.8483633934545 0.5009577177520579 522.0 6.0 363.0 
452.00042575550555 209913.0 NaN 1534.7788911155635 0.5007951384499388 522.0 5.0 364.0 
454.00042575550555 209892.0 NaN 1543.9225116900457 0.5008689282214928 522.0 5.0 367.0 
456.0001983480089 209839.0 NaN 1546.9873079492336 0.5005214120695592 523.0 5.0 368.0 
458.00042575550555 209846.0 NaN 1543.9225116900457 0.5005725708899651 520.0 5.0 367.0 
460.00042575550555 209858.0 NaN 1543.8824315297275 0.5007576502858387 518.0 6.0 366.0 
462.00042575550555 209838.0 NaN 1540.9245156980637 0.5006665759148404 521.0 6.0 365.0 
464.00042575550555 209839.0 NaN 1537.8650634602545 0.5010893775739849 520.0 6.0 364.0 
466.0001983480089 209782.0 NaN 1537.8463593854362 0.5010085929986042 519.0 6.0 364.0 
468.00042575550555 209753.0 NaN 1537.8677354709425 0.5008477402580553 519.0 6.0 364.0 
470.00042575550555 209701.0 NaN 1531.6766867067456 0.5008359611762722 516.0 7.0 361.0 
472.00042575550555 209650.0 NaN 1528.4809619238458 0.5005519745885806 517.0 5.0 362.0 
474.00042575550555 209686.0 NaN 1525.3841015364067 0.5012084120829575 516.0 4.0 362.0 
476.0001983480089 209655.0 NaN 1522.281897127589 0.5007877513105565 516.0 4.0 361.0 
478.00042575550555 209659.0 NaN 1525.3947895791575 0.5006789072777453 515.0 4.0 362.0 
480.00042575550555 209694.0 NaN 1528.4889779559117 0.5007601292310443 513.0 5.0 362.0 
482.00042575550555 209667.0 NaN 1519.2865731462916 0.5005088243786362 513.0 4.0 360.0 
484.00042575550555 209669.0 NaN 1519.3907815631273 0.5005807053575184 514.0 4.0 360.0 
486.0001983480089 209648.0 NaN 1513.3146292585184 0.5008910570018604 510.0 4.0 358.0 
488.00042575550555 209677.0 NaN 1507.1209084836344 0.500707510747481 508.0 4.0 356.0 
490.00042575550555 209750.0 NaN 1507.0701402805616 0.5007809959719377 507.0 5.0 355.0 
492.00042575550555 209739.0 NaN 1500.9084836339355 0.5006556300433685 507.0 4.0 354.0 
494.00042575550555 209727.0 NaN 1491.5911823647284 0.5009036666483285 508.0 4.0 351.0 
496.0001983480089 209709.0 NaN 1491.6312625250514 0.5006140321348478 505.0 4.0 351.0 
498.00042575550555 209699.0 NaN 1494.7147628590524 0.5006758142606756 503.0 4.0 352.0 
500.00042575550555 209728.0 NaN 1494.7334669338666 0.5008675386627224 506.0 5.0 351.0 
502.00042575550555 209688.0 NaN 1494.8243152972618 0.5008946445777454 508.0 5.0 351.0 
504.00042575550555 209656.0 NaN 1491.8183032732122 0.5006806128051469 508.0 6.0 349.0 
506.0001983480089 209649.0 NaN 1494.8857715430852 0.5007113557428975 509.0 5.0 351.0 
508.00062171064627 209679.0 NaN 1491.7301269205084 0.5007968416763156 514.0 4.0 351.0 
510.00062171064627 209747.0 NaN 1494.6773547094183 0.5007887499768945 513.0 4.0 352.0 
512.000558465093 209715.0 NaN 1488.467601870408 0.5010878287740462 513.0 4.0 350.0 
514.0005837633144 209663.0 NaN 1488.5344021376093 0.5009252104574387 511.0 4.0 350.0 
516.0001983480089 209660.0 NaN 1488.5584502338002 0.500607989534633 508.0 4.0 350.0 
518.0005837633144 209681.0 NaN 1482.5544422177697 0.5011728705760853 508.0 4.0 348.0 
520.0005711142038 209730.0 NaN 1482.549098196392 0.5007966982074777 506.0 4.0 348.0 
522.0006217106463 209717.0 NaN 1476.5370741482973 0.5011397866111207 506.0 4.0 346.0 
524.0006217106463 209680.0 NaN 1461.1115564462266 0.5012022141930192 504.0 4.0 341.0 
526.0001983480089 209675.0 NaN 1464.1496325985297 0.5007601850037324 500.0 4.0 342.0 
528.0006217106463 209677.0 NaN 1464.173680694724 0.5006339737632683 498.0 4.0 342.0 
530.0005584650931 209688.0 NaN 1464.0293921175694 0.50074087410365 496.0 4.0 342.0 
532.0005837633144 209666.0 NaN 1464.0587842351363 0.5007511421858285 501.0 4.0 342.0 
534.0005837633144 209649.0 NaN 1467.107548430193 0.5005809267706789 502.0 4.0 343.0 
536.0001983480089 209667.0 NaN 1467.2037408149636 0.5004419556981596 503.0 4.0 343.0 
538.0005711142038 209668.0 NaN 1467.1690046760182 0.5005570022199832 505.0 4.0 343.0 
540.0006217106463 209800.0 NaN 1467.1957247828996 0.5009525845513859 506.0 4.0 343.0 
542.0006217106463 209746.0 NaN 1467.158316633266 0.5008107235398904 508.0 5.0 342.0 
544.0006217106463 209713.0 NaN 1464.0801603206419 0.5006320448932869 509.0 5.0 341.0 
546.0001983480089 209719.0 NaN 1464.1282565130266 0.5008786790443511 509.0 5.0 341.0 
548.0005584650931 209696.0 NaN 1467.1102204408817 0.5004379091243513 509.0 5.0 342.0 
550.0005837633144 209778.0 NaN 1464.042752171009 0.5008152124719756 509.0 4.0 342.0 
552.0005837633144 209715.0 NaN 1476.3420173680702 0.5010863223779302 508.0 4.0 346.0 
554.0005837633144 209753.0 NaN 1476.414161656646 0.5011806801575863 508.0 6.0 344.0 
556.0001983480089 209739.0 NaN 1473.3600534402144 0.5005803970411395 508.0 6.0 343.0 
558.0006217106463 209727.0 NaN 1470.3807615230455 0.5006971326594717 508.0 6.0 342.0 
560.0006217106463 209803.0 NaN 1467.1556446225788 0.5009140176544972 505.0 7.0 340.0 
562.0006217106463 209750.0 NaN 1467.1315965263857 0.5008831310065657 503.0 8.0 339.0 
564.0006217106463 209832.0 NaN 1470.2257849031394 0.5010954447118844 504.0 8.0 340.0 
566.0001983480089 209813.0 NaN 1470.1055444221784 0.5004307296799185 506.0 7.0 341.0 
568.0005837633144 209803.0 NaN 1470.1242484969937 0.5007885614290987 508.0 4.0 344.0 
570.0005837633144 209840.0 NaN 1470.108216432865 0.5009828032974584 511.0 4.0 344.0 
572.0005837633144 209797.0 NaN 1473.2558450233805 0.5005724523463873 509.0 4.0 345.0 
574.0005711142038 209894.0 NaN 1476.4168336673351 0.5010594414106208 506.0 6.0 344.0 
576.0001983480089 209843.0 NaN 1476.5076820307277 0.5004665296355337 506.0 8.0 342.0 
578.0006217106463 209846.0 NaN 1476.4889779559114 0.5006077421469494 507.0 7.0 343.0 
580.0006217106463 209880.0 NaN 1479.5297261189055 0.5008307913242018 510.0 4.0 347.0 
582.0006217106463 209837.0 NaN 1476.3954575818295 0.5008607739139268 505.0 7.0 343.0 
584.0005584650931 209912.0 NaN 1488.643954575818 0.5009417099805505 510.0 7.0 347.0 
586.0001983480089 209951.0 NaN 1485.5230460921837 0.5010169838095941 514.0 6.0 347.0 
588.0005837633144 209895.0 NaN 1482.527722110889 0.5004053135445465 515.0 5.0 347.0 
590.0005837633144 209896.0 NaN 1485.6860387441545 0.5006721415881729 514.0 8.0 345.0 
592.0005711142038 209876.0 NaN 1488.8069472277896 0.5004934137093889 515.0 8.0 346.0 
594.0006217106463 209968.0 NaN 1485.8036072144284 0.5007515400452549 517.0 5.0 348.0 
596.0001983480089 210001.0 NaN 1485.7154308617241 0.5009207331202759 515.0 5.0 348.0 
598.0006217106463 209933.0 NaN 1488.6786907147632 0.5004661521079672 517.0 5.0 349.0 
600.0006217106463 209948.0 NaN 1494.7949231796922 0.5002936384531439 523.0 6.0 350.0 
602.0005584650931 209980.0 NaN 1497.7795591182362 0.5004852234770898 523.0 5.0 352.0 
604.0005837633144 210048.0 NaN 1494.6452905811627 0.5009297541883245 526.0 4.0 352.0 
606.0001983480089 210063.0 NaN 1494.714762859052 0.5009813204690381 525.0 6.0 350.0 
608.0005837633144 209966.0 NaN 1491.706078824316 0.500429489929978 525.0 6.0 349.0 
610.0005711142038 209967.0 NaN 1497.929191716766 0.5003045500517456 522.0 7.0 350.0 
612.0006217106463 209987.0 NaN 1501.1142284569148 0.5007904194232858 518.0 6.0 352.0 
614.0006217106463 209986.0 NaN 1513.3841015364071 0.5011273636634662 523.0 4.0 358.0 
616.0001983480089 210021.0 NaN 1513.4482297929183 0.5009147050015428 523.0 5.0 357.0 
618.0006217106463 209930.0 NaN 1510.3380093520366 0.5007025168734032 522.0 5.0 356.0 
620.0005584650931 209920.0 NaN 1507.2277889111547 0.5004162878890726 521.0 5.0 355.0 
622.0005837633144 209934.0 NaN 1510.1776887107544 0.5007639244253569 521.0 5.0 356.0 
624.0005837633144 209974.0 NaN 1513.1516366065457 0.5008678064709018 518.0 6.0 356.0 
626.0001983480089 209995.0 NaN 1516.2137608550443 0.5009739950514767 519.0 6.0 357.0 
628.0005711142038 209958.0 NaN 1519.3426853707424 0.5006257661999641 524.0 5.0 359.0 
630.0006217106463 209974.0 NaN 1522.578490313962 0.5005777153825873 527.0 4.0 361.0 
632.0006217106463 209992.0 NaN 1519.4736138944547 0.5005620656934131 527.0 4.0 360.0 
634.0006217106463 210038.0 NaN 1525.5764863059455 0.5005280591626605 529.0 4.0 362.0 
636.0001983480089 210030.0 NaN 1525.4963259853032 0.50049500638507 533.0 4.0 362.0 
638.0005584650931 210033.0 NaN 1525.4856379425528 0.5004462654187115 529.0 4.0 362.0 
640.0005837633144 210071.0 NaN 1519.3907815631271 0.5003455346478414 526.0 5.0 359.0 
642.0005837633144 210094.0 NaN 1519.5136940547754 0.5002188085680006 523.0 6.0 358.0 
644.0005837633144 210136.0 NaN 1519.5831663326649 0.5006314664847757 521.0 7.0 357.0 
646.0001983480089 210121.0 NaN 1522.6853707414818 0.5004166020592387 522.0 6.0 359.0 
648.0004257555055 210119.0 NaN 1519.6072144288567 0.5003516324575776 524.0 4.0 360.0 
650.0004257555055 210194.0 NaN 1519.6392785571152 0.500522270905019 520.0 5.0 359.0 
652.0004257555055 210230.0 NaN 1525.8276553106202 0.5004649849900463 520.0 5.0 361.0 
654.0004257555055 210276.0 NaN 1525.878423513693 0.5005304939182068 518.0 5.0 361.0 
656.0001983480089 210244.0 NaN 1528.7080828323303 0.5002542426816892 518.0 5.0 362.0 
658.0004257555055 210279.0 NaN 1528.6706746826992 0.5009599090338226 515.0 6.0 361.0 
660.0004257555055 210302.0 NaN 1528.6252505010011 0.5008116705666846 516.0 6.0 361.0 
662.0004257555055 210304.0 NaN 1528.598530394121 0.5006982110473527 517.0 5.0 362.0 
664.0004257555055 210329.0 NaN 1540.9138276553101 0.5007135857639509 513.0 4.0 367.0 
#####################################################################
# End of data export. Simulation finished at: 2019-03-16T07:44+0000 #
#####################################################################
