#####################################################################
# Alchemist log file - simulation started at: 2019-03-16T03:30+0000 #
#####################################################################
# seed = 8.0, bandwidth = 74989.42093324558, propagationDelay = 10.0, baserange = 100.0
#
# The columns have the following meaning: 
# time neighbor_count[Sum] <value>@neighbor_count[Sum] packet_size[Mean] mean_delay[Mean] crowd[Sum] overcrowded[Sum] risk[Sum] 
0.0 NaN NaN NaN NaN NaN NaN NaN 
2.000927030832833 NaN NaN 4988.0 NaN 1497.0 0.0 1497.0 
4.000927030832833 NaN NaN 4988.0 NaN 1497.0 0.0 1497.0 
6.000198348008885 NaN NaN 4988.0 NaN 1497.0 0.0 1497.0 
8.000927030832834 NaN NaN 4988.0 NaN 1497.0 0.0 1497.0 
10.000927030832834 NaN NaN 4988.0 NaN 1497.0 0.0 1497.0 
12.000927030832834 13096.0 NaN 4995.620574482298 0.9384251957410136 1497.0 0.0 1497.0 
14.000927030832834 13126.0 NaN 4996.069472277889 2.9365865730495457 1497.0 0.0 1497.0 
16.000198348008887 13126.0 NaN 4995.991983967936 4.935666609848074 1497.0 0.0 1497.0 
18.000927030832834 13126.0 NaN 4996.0 6.936586573049546 1497.0 0.0 1497.0 
20.000927030832834 13126.0 NaN 4996.066800267201 8.936586573049546 1497.0 0.0 1497.0 
22.00054436333931 13139.0 NaN 4996.817635270541 6.172473257031754 1497.0 0.0 1497.0 
24.000927030832834 13157.0 NaN 4994.148296593186 1.960832124114101 1491.0 6.0 1491.0 
26.000198348008887 13157.0 NaN 4993.167668670675 3.959912160912629 1491.0 6.0 1491.0 
28.000927030832834 13157.0 NaN 4993.175684702739 5.960832124114101 1491.0 6.0 1491.0 
30.000927030832834 13157.0 NaN 4993.181028724115 7.960832124114101 1491.0 6.0 1491.0 
32.000927030832834 13157.0 NaN 4993.194388777555 9.9608321241141 1491.0 6.0 1491.0 
34.000927030832834 13234.0 NaN 4994.818971275885 1.0470300801713346 1490.0 7.0 1490.0 
36.00019834800889 13230.0 NaN 4994.987307949232 3.0057392334059285 1490.0 7.0 1490.0 
38.000927030832834 13209.0 NaN 4994.96325985304 4.967266955457673 1490.0 7.0 1490.0 
40.000927030832834 13209.0 NaN 4994.955243820976 6.967266955457673 1490.0 7.0 1490.0 
42.000927030832834 13209.0 NaN 4994.97661990648 8.967266955457672 1490.0 7.0 1490.0 
44.000491022482024 13253.0 NaN 4995.730126920507 6.201182238090801 1488.0 9.0 1488.0 
46.00019834800889 13308.0 NaN 4994.247160988644 2.0250873199967163 1487.0 10.0 1487.0 
48.000927030832834 13280.0 NaN 4993.579158316633 3.978516504467094 1487.0 10.0 1487.0 
50.000927030832834 13275.0 NaN 4993.560454241817 5.972727890053436 1487.0 10.0 1487.0 
52.000927030832834 13275.0 NaN 4993.568470273881 7.972727890053435 1487.0 10.0 1487.0 
54.000927030832834 13275.0 NaN 4993.595190380762 9.972727890053436 1487.0 10.0 1487.0 
56.00019834800889 13379.0 NaN 4994.629258517034 1.0912658302998062 1486.0 11.0 1486.0 
58.000927030832834 13371.0 NaN 4994.51169004676 3.0467651293044704 1486.0 11.0 1486.0 
60.000927030832834 13328.0 NaN 4994.463593854375 4.996641348972018 1486.0 11.0 1486.0 
62.000927030832834 13328.0 NaN 1522.7735470941882 6.996641348972018 830.0 9.0 356.0 
64.00092703083283 13328.0 NaN 1522.7735470941882 8.996641348972018 830.0 9.0 356.0 
66.0001709773383 13376.0 NaN 1523.0380761523063 6.261554879273028 769.0 6.0 359.0 
68.00092703083283 13430.0 NaN 1522.5651302605208 2.1403317762610667 664.0 6.0 359.0 
70.00092703083283 13341.0 NaN 1522.2017368069457 4.047648945274987 664.0 6.0 359.0 
72.00092703083283 13338.0 NaN 1522.193720774882 6.045404042164473 664.0 6.0 359.0 
74.00092703083283 13338.0 NaN 1522.2097528390093 8.045404042164474 664.0 6.0 359.0 
76.0001983480089 13338.0 NaN 1522.2231128924518 10.044489965382024 663.0 6.0 359.0 
78.00092703083283 13467.0 NaN 1528.8363393453571 1.226985166496528 589.0 16.0 351.0 
80.00092703083283 13453.0 NaN 1528.513026052103 3.1863569156594225 590.0 16.0 351.0 
82.00092703083283 13358.0 NaN 1528.4809619238456 5.035588073111619 591.0 16.0 351.0 
84.00092703083283 13358.0 NaN 1531.5591182364726 7.035588073111619 591.0 16.0 352.0 
86.0001983480089 13358.0 NaN 1531.5564462257846 9.034671482827475 591.0 16.0 352.0 
88.00092703083283 13409.0 NaN 1531.775551102203 5.806814131018661 584.0 13.0 355.0 
90.00092703083283 13458.0 NaN 1531.5511022044093 2.200617937545802 563.0 20.0 348.0 
92.00092703083283 13383.0 NaN 1531.3987975951911 4.111184307630477 563.0 20.0 348.0 
94.00092703083283 13372.0 NaN 1531.3800935203728 6.09349491337862 563.0 20.0 348.0 
96.0001983480089 13372.0 NaN 1534.458249833 8.092580000295362 563.0 20.0 349.0 
98.00092703083283 13372.0 NaN 1534.458249833 10.093494913378619 563.0 20.0 349.0 
100.00092703083283 13447.0 NaN 1534.9873079492334 1.2931492136242948 542.0 16.0 353.0 
102.00092703083283 13433.0 NaN 1534.5918503674002 3.2663277874017744 542.0 16.0 353.0 
104.00092703083283 13332.0 NaN 1534.5811623246484 5.083118645402584 542.0 16.0 353.0 
106.0001983480089 13332.0 NaN 1534.589178356712 7.082201214209922 543.0 15.0 354.0 
108.00092703083283 13332.0 NaN 1534.5865063460271 9.083118645402584 542.0 15.0 354.0 
110.00092703083283 13386.0 NaN 1534.752171008682 5.868747038876704 535.0 17.0 352.0 
112.00092703083283 13458.0 NaN 1537.6192384769547 2.261552832819279 517.0 28.0 342.0 
114.00092703083283 13348.0 NaN 1537.4455577822303 4.072027675823647 516.0 28.0 342.0 
116.0001983480089 13344.0 NaN 1537.432197728791 6.068018610976908 516.0 28.0 342.0 
118.00092703083283 13344.0 NaN 1537.4081496325998 8.068936042169568 517.0 28.0 342.0 
120.00092703083283 13344.0 NaN 1537.4081496325998 10.068936042169568 517.0 28.0 342.0 
122.00092703083283 13507.0 NaN 1547.1823647294575 1.2563552046483828 520.0 19.0 354.0 
124.00092703083283 13486.0 NaN 1546.8376753507 3.230006233297359 520.0 19.0 354.0 
126.0001983480089 13396.0 NaN 1543.7889111556456 5.0824892032736955 520.0 19.0 353.0 
128.00092703083283 13396.0 NaN 1543.778223112891 7.083405793557838 520.0 19.0 353.0 
130.00092703083283 13396.0 NaN 1543.7648630594545 9.083405793557839 520.0 19.0 353.0 
132.00092703083283 13461.0 NaN 1543.9091516366063 5.875054023531312 517.0 21.0 351.0 
134.00092703083283 13535.0 NaN 1540.6573146292576 2.2679990592352595 515.0 21.0 350.0 
136.0001983480089 13398.0 NaN 1537.4856379425519 4.0786082015630285 514.0 21.0 349.0 
138.00092703083283 13389.0 NaN 1531.356045424182 6.074719482661326 514.0 21.0 347.0 
140.00092703083283 13389.0 NaN 1531.3453573814274 8.074719482661326 515.0 20.0 348.0 
142.00092703083283 13389.0 NaN 1534.4609218436879 10.074719482661326 516.0 20.0 349.0 
144.00092703083283 13544.0 NaN 1544.0855043420183 1.2242670919339782 520.0 15.0 357.0 
146.0001983480089 13516.0 NaN 1543.7889111556456 3.188188216290201 520.0 15.0 357.0 
148.00092703083283 13385.0 NaN 1546.8617234468938 5.045071846540316 520.0 15.0 358.0 
150.00092703083283 13385.0 NaN 1546.8216432865727 7.045071846540316 520.0 15.0 358.0 
152.00092703083283 13385.0 NaN 1543.7515030060117 9.045071846540315 520.0 15.0 357.0 
154.00092703083283 13440.0 NaN 1543.906479625918 5.832896603415174 511.0 21.0 351.0 
156.0001983480089 13497.0 NaN 1546.909819639279 2.2325458329772223 510.0 22.0 351.0 
158.00092703083283 13374.0 NaN 1543.7595190380757 4.11993754991128 510.0 22.0 350.0 
160.00092703083283 13365.0 NaN 1537.587174348697 6.114682017985348 510.0 22.0 348.0 
162.00092703083283 13365.0 NaN 1537.5845023380089 8.114682017985347 510.0 22.0 348.0 
164.00092703083283 13365.0 NaN 1537.565798263191 10.114682017985347 511.0 21.0 349.0 
166.0001983480089 13456.0 NaN 1544.0106880427522 1.3327950816281013 517.0 18.0 354.0 
168.00092703083283 13429.0 NaN 1543.7221108884453 3.2928087084690327 517.0 18.0 354.0 
170.00092703083283 13284.0 NaN 1540.662658650636 5.062124883731551 517.0 18.0 353.0 
172.00092703083283 13284.0 NaN 1540.6359385437547 7.062124883731551 517.0 18.0 353.0 
174.00092703083283 13284.0 NaN 1540.6012024048089 9.062124883731551 517.0 18.0 353.0 
176.0001983480089 13342.0 NaN 1543.8156312625272 5.829952875038945 518.0 17.0 355.0 
178.00092703083283 13407.0 NaN 1546.7414829659301 2.2036173619294077 517.0 17.0 356.0 
180.00092703083283 13256.0 NaN 1546.6319305277211 4.058455135140149 517.0 17.0 356.0 
182.00092703083283 13243.0 NaN 1540.4863059452246 6.0471975663499045 518.0 16.0 355.0 
184.00092703083283 13243.0 NaN 1537.4001336005363 8.047197566349904 518.0 16.0 354.0 
186.0001983480089 13243.0 NaN 1537.4108216432883 10.046280135157245 518.0 16.0 354.0 
188.00092703083283 13349.0 NaN 1541.0073480293909 1.220011864817813 521.0 13.0 358.0 
190.00092703083283 13310.0 NaN 1537.6058784235117 3.184778629554241 520.0 13.0 357.0 
192.00092703083283 13193.0 NaN 1534.5197060788248 5.083592079123731 520.0 13.0 356.0 
194.00092703083283 13193.0 NaN 1534.5116900467608 7.083592079123731 520.0 13.0 356.0 
196.0001983480089 13193.0 NaN 1534.5277221108886 9.082677166040474 520.0 13.0 356.0 
198.00092703083283 13247.0 NaN 1534.6399465597847 5.862760917080304 517.0 13.0 356.0 
200.00092703083283 13317.0 NaN 1534.503674014697 2.2743553973633204 512.0 20.0 349.0 
202.00092703083283 13194.0 NaN 1534.4208416833662 4.088872623968007 512.0 20.0 349.0 
204.00092703083283 13184.0 NaN 1534.394121576488 6.082106429098982 512.0 20.0 349.0 
206.0001983480089 13184.0 NaN 1534.4154976619911 8.08118899790632 512.0 20.0 349.0 
208.00092703083283 13184.0 NaN 1531.3613894455573 10.082106429098982 512.0 20.0 348.0 
210.00092703083283 13308.0 NaN 1531.7621910487635 1.4164745011547992 507.0 22.0 346.0 
212.00092703083283 13277.0 NaN 1531.444221776888 3.3844234592443154 507.0 22.0 346.0 
214.00092703083283 13138.0 NaN 1525.3119572478274 5.226438772136222 507.0 22.0 344.0 
216.0001983480089 13138.0 NaN 1525.3279893119573 7.225522181852078 507.0 22.0 344.0 
218.00092703083283 13138.0 NaN 1525.319973279891 9.226438772136222 507.0 22.0 344.0 
220.00092703083283 13179.0 NaN 1528.478289913161 6.089058776178642 507.0 21.0 346.0 
222.00092703083283 13226.0 NaN 1528.344689378757 2.542443512321675 498.0 27.0 340.0 
224.00092703083283 13041.0 NaN 1519.0594522378092 4.121591181824474 498.0 27.0 337.0 
226.0001983480089 13024.0 NaN 1522.1295925183701 6.0780371368690185 497.0 27.0 338.0 
228.00092703083283 13024.0 NaN 1522.1215764863064 8.078961351286763 497.0 27.0 338.0 
230.00092703083283 13024.0 NaN 1522.1322645290575 10.078961351286763 495.0 27.0 338.0 
232.00092703083283 13147.0 NaN 1531.7942551770207 1.3177878210738476 492.0 27.0 341.0 
234.00092703083283 13112.0 NaN 1531.4789579158305 3.2701390221538498 492.0 27.0 341.0 
236.0001983480089 12969.0 NaN 1531.4682698730817 5.12693608508058 492.0 27.0 341.0 
238.00092703083283 12969.0 NaN 1531.4602538410156 7.127854358726126 493.0 27.0 341.0 
240.00092703083283 12969.0 NaN 1528.3794255177002 9.127854358726125 492.0 27.0 340.0 
242.00092703083283 13019.0 NaN 1528.5023380093521 5.980833297215491 491.0 25.0 342.0 
244.00092703083283 13085.0 NaN 1525.1623246492998 2.4065063423460367 493.0 22.0 344.0 
246.0001983480089 12917.0 NaN 1522.0120240480971 4.170189877524372 493.0 22.0 343.0 
248.00092703083283 12905.0 NaN 1521.9959919839666 6.150219546018487 493.0 22.0 343.0 
250.00092703083283 12905.0 NaN 1518.907147628591 8.150219546018489 492.0 22.0 342.0 
252.00092703083283 12905.0 NaN 1518.9258517034089 10.150219546018489 492.0 22.0 342.0 
254.00092703083283 13028.0 NaN 1519.3132932531726 1.4138569596244024 497.0 19.0 345.0 
256.0001983480089 12984.0 NaN 1519.0701402805612 3.333665872534886 499.0 18.0 346.0 
258.0009270308328 12821.0 NaN 1515.9866399465607 5.087122746608372 500.0 18.0 345.0 
260.0009270308328 12821.0 NaN 1515.9812959251822 7.087122746608372 500.0 18.0 345.0 
262.0009270308328 12821.0 NaN 1512.9432197728793 9.087122746608372 501.0 18.0 344.0 
264.0009270308328 12889.0 NaN 1513.0233800935187 5.914782987888465 494.0 20.0 342.0 
266.0001983480089 12965.0 NaN 1512.9298597194388 2.3037189641890463 499.0 16.0 346.0 
268.0009270308328 12834.0 NaN 1515.9732798931184 4.126483943304221 499.0 16.0 347.0 
270.0009270308328 12821.0 NaN 1512.876419505679 6.116008121668303 498.0 16.0 346.0 
272.0009270308328 12821.0 NaN 1515.9625918503664 8.116008121668303 499.0 16.0 347.0 
274.0009270308328 12821.0 NaN 1518.9792919171666 10.116008121668303 499.0 16.0 348.0 
276.0001983480089 12994.0 NaN 1531.732798931197 1.4397450976247674 502.0 14.0 354.0 
278.0009270308328 12957.0 NaN 1531.29191716767 3.388000736905971 502.0 14.0 354.0 
280.0009270308328 12827.0 NaN 1531.289245156982 5.1813633948650715 502.0 14.0 354.0 
282.0009270308328 12827.0 NaN 1531.281229124918 7.1813633948650715 502.0 14.0 354.0 
284.0009270308328 12827.0 NaN 1531.2945891783547 9.181363394865071 502.0 14.0 354.0 
286.0001983480089 12880.0 NaN 1537.5791583166338 6.091578749027418 496.0 19.0 351.0 
288.0009270308328 12934.0 NaN 1537.4134936539729 2.5299964777329462 500.0 18.0 352.0 
290.0009270308328 12743.0 NaN 1534.2712090848363 4.1714680073490005 500.0 18.0 351.0 
292.0009270308328 12731.0 NaN 1528.141616566466 6.163085263342042 499.0 18.0 349.0 
294.0009270308328 12731.0 NaN 1531.2277889111544 8.163085263342042 499.0 18.0 350.0 
296.0001983480089 12731.0 NaN 1531.2358049432182 10.162164453028966 497.0 18.0 350.0 
298.0009270308328 12855.0 NaN 1534.792251169006 1.4577882379317564 496.0 18.0 351.0 
300.0009270308328 12817.0 NaN 1534.4154976619911 3.3883112702944933 496.0 18.0 351.0 
302.0009270308328 12651.0 NaN 1534.402137608552 5.119825319105727 496.0 18.0 351.0 
304.0009270308328 12651.0 NaN 1531.3239812959273 7.119825319105727 496.0 18.0 350.0 
306.0001983480089 12651.0 NaN 1534.4074816299274 9.118905355904255 496.0 18.0 351.0 
308.0009270308328 12691.0 NaN 1537.5898463593844 5.967610987140475 491.0 22.0 348.0 
310.0009270308328 12736.0 NaN 1540.6118904475634 2.3767869591839172 492.0 19.0 352.0 
312.0009270308328 12566.0 NaN 1534.3353373413481 4.137533850925699 493.0 18.0 351.0 
314.0009270308328 12551.0 NaN 1528.1736806947247 6.124042129005496 493.0 18.0 349.0 
316.0001983480089 12551.0 NaN 1528.1950567802273 8.12312385535995 494.0 18.0 349.0 
318.0009270308328 12551.0 NaN 1528.189712758852 10.124042129005495 494.0 18.0 349.0 
320.0009270308328 12657.0 NaN 1528.676018704073 1.3905825769219895 492.0 18.0 349.0 
322.0009270308328 12631.0 NaN 1528.3927855711427 3.3457587274218517 492.0 18.0 349.0 
324.0009270308328 12511.0 NaN 1531.4495657982636 5.118479454406543 491.0 18.0 350.0 
326.0001983480089 12511.0 NaN 1531.4575818303274 7.117559491205071 492.0 18.0 350.0 
328.0009270308328 12511.0 NaN 1531.446893787575 9.118479454406543 492.0 18.0 350.0 
330.0009270308328 12566.0 NaN 1531.5297261189062 5.947272906852179 490.0 20.0 348.0 
332.0009270308328 12626.0 NaN 1534.3914495657998 2.368199156002853 492.0 18.0 351.0 
334.0009270308328 12500.0 NaN 1534.2605210420838 4.120816352516692 493.0 18.0 351.0 
336.0001983480089 12489.0 NaN 1522.020040080161 6.105785276614165 492.0 18.0 347.0 
338.0009270308328 12489.0 NaN 1521.9933199732816 8.106706086927241 492.0 18.0 347.0 
340.0009270308328 12489.0 NaN 1521.987975951903 10.10670608692724 492.0 18.0 347.0 
342.0009270308328 12587.0 NaN 1531.7354709418819 1.3535407097262853 489.0 20.0 348.0 
344.0009270308328 12570.0 NaN 1531.3453573814274 3.311493916117882 489.0 20.0 348.0 
346.0001983480089 12476.0 NaN 1525.1997327989302 5.10599290412241 488.0 20.0 346.0 
348.0009270308328 12476.0 NaN 1522.1135604542424 7.106912021769469 488.0 20.0 345.0 
350.0009270308328 12476.0 NaN 1522.0948563794268 9.10691202176947 488.0 20.0 345.0 
352.0009270308328 12538.0 NaN 1522.185704742818 5.929672802185718 490.0 23.0 342.0 
354.0009270308328 12627.0 NaN 1522.0601202404819 2.325986897757302 491.0 20.0 345.0 
356.0001983480089 12516.0 NaN 1518.9258517034086 4.113339321816919 489.0 20.0 344.0 
358.0009270308328 12505.0 NaN 1518.8937875751515 6.088386431728916 488.0 20.0 344.0 
360.0009270308328 12505.0 NaN 1518.9205076820306 8.088386431728916 488.0 20.0 344.0 
362.0009270308328 12505.0 NaN 1522.0307281229123 10.088386431728916 488.0 20.0 345.0 
364.0009270308328 12637.0 NaN 1522.3941215764878 1.367994934639185 492.0 20.0 345.0 
366.0001983480089 12621.0 NaN 1525.1008684034728 3.317559435354223 491.0 20.0 346.0 
368.0009270308328 12523.0 NaN 1500.5370741482968 5.156045134993305 490.0 20.0 338.0 
370.0009270308328 12523.0 NaN 1500.5557782231122 7.156045134993305 490.0 20.0 338.0 
372.0009270308328 12523.0 NaN 1500.5718102872422 9.156045134993306 490.0 20.0 338.0 
374.0009270308328 12575.0 NaN 1503.7221108884446 6.017581276535431 488.0 23.0 336.0 
376.0001983480089 12632.0 NaN 1512.836339345357 2.45876525946051 492.0 20.0 342.0 
378.0009270308328 12496.0 NaN 1512.7615230460915 4.175683177899323 492.0 20.0 342.0 
380.0009270308328 12482.0 NaN 1509.7154308617244 6.155942146503263 491.0 20.0 341.0 
382.0009270308328 12482.0 NaN 1506.6559786239152 8.155942146503264 491.0 20.0 340.0 
384.0009270308328 12482.0 NaN 1509.7314629258524 10.155942146503264 491.0 20.0 341.0 
386.0001983480089 12599.0 NaN 1510.054776219106 1.527394845736439 495.0 20.0 341.0 
388.0009270308328 12569.0 NaN 1506.666666666666 3.4627899702928504 494.0 20.0 340.0 
390.0009270308328 12440.0 NaN 1509.7929191716757 5.183181761254381 495.0 20.0 341.0 
392.0009270308328 12440.0 NaN 1509.763527054109 7.183181761254381 495.0 20.0 341.0 
394.0009270308328 12440.0 NaN 1506.6720106880432 9.18318176125438 495.0 20.0 340.0 
396.0001983480089 12495.0 NaN 1516.0293921175696 6.065230032132131 493.0 23.0 340.0 
398.0009270308328 12562.0 NaN 1519.0354041416176 2.508115702022249 501.0 20.0 344.0 
400.0009270308328 12403.0 NaN 1515.8957915831659 4.1618498040533565 501.0 20.0 343.0 
402.0009270308328 12392.0 NaN 1509.768871075484 6.142686826601875 501.0 20.0 341.0 
404.0009270308328 12392.0 NaN 1509.7314629258524 8.142686826601876 502.0 20.0 341.0 
406.0001983480089 12392.0 NaN 1509.7314629258524 10.141768552956329 502.0 20.0 341.0 
408.0009270308328 12525.0 NaN 1522.3914495657993 1.3994530633015667 501.0 20.0 345.0 
410.0009270308328 12501.0 NaN 1525.1356045424182 3.3354866612636744 501.0 20.0 346.0 
412.0009270308328 12394.0 NaN 1515.8931195724788 5.127037538133323 501.0 20.0 343.0 
414.0009270308328 12394.0 NaN 1515.853039412157 7.127037538133323 500.0 21.0 342.0 
416.0001983480089 12394.0 NaN 1512.7802271209093 9.126120106940663 500.0 21.0 341.0 
418.0009270308328 12455.0 NaN 1516.0213760855033 5.956365836395433 496.0 25.0 338.0 
420.0009270308328 12533.0 NaN 1521.8891115564454 2.405288906264865 500.0 21.0 344.0 
422.0009270308328 12419.0 NaN 1506.4582498329999 4.162744643281881 501.0 21.0 339.0 
424.0009270308328 12408.0 NaN 1497.2157648630605 6.1516194645464735 501.0 20.0 337.0 
426.0001983480089 12408.0 NaN 1497.2157648630605 8.150704551463217 500.0 20.0 337.0 
428.0009270308328 12408.0 NaN 1497.2157648630605 10.151619464546474 501.0 20.0 337.0 
430.0009270308328 12559.0 NaN 1506.904475617902 1.4593617497924014 499.0 20.0 340.0 
432.0009270308328 12542.0 NaN 1509.6967267869081 3.4080383891621295 498.0 20.0 341.0 
434.0009270308328 12424.0 NaN 1506.6185704742816 5.136747265595498 498.0 20.0 340.0 
436.0001983480089 12424.0 NaN 1506.5971943887787 7.135833188813049 498.0 20.0 340.0 
438.0009270308328 12424.0 NaN 1506.6052104208425 9.136747265595497 497.0 20.0 340.0 
440.0009270308328 12473.0 NaN 1512.9084836339355 5.98564345457501 493.0 25.0 337.0 
442.0009270308328 12526.0 NaN 1531.2999331997335 2.426519730346433 502.0 24.0 344.0 
444.0009270308328 12398.0 NaN 1528.0587842351363 4.154063417728604 503.0 24.0 343.0 
446.0001983480089 12384.0 NaN 1518.8643954575818 6.1389926161557336 503.0 24.0 340.0 
448.0009270308328 12384.0 NaN 1518.8830995323995 8.139907529238991 502.0 24.0 340.0 
450.0009270308328 12384.0 NaN 1518.8643954575818 10.139907529238991 502.0 24.0 340.0 
452.0009270308328 12483.0 NaN 1534.6960587842361 1.4679604314777108 504.0 22.0 347.0 
454.0009270308328 12456.0 NaN 1540.427521710088 3.4024929236621086 504.0 22.0 349.0 
456.0001983480089 12363.0 NaN 1534.305945223782 5.17398276194225 504.0 22.0 347.0 
458.0009270308328 12363.0 NaN 1531.2064128256518 7.1748968387247 503.0 22.0 346.0 
460.0009270308328 12363.0 NaN 1531.2277889111542 9.1748968387247 502.0 22.0 346.0 
462.0009270308328 12419.0 NaN 1531.3640614562453 6.074534052887539 498.0 26.0 342.0 
464.0009270308328 12487.0 NaN 1537.4081496325998 2.503095513303077 503.0 22.0 348.0 
466.0001983480089 12347.0 NaN 1537.2772211088845 4.182337375302569 504.0 22.0 348.0 
468.0009270308328 12333.0 NaN 1531.1022044088184 6.154583405933617 505.0 21.0 347.0 
470.0009270308328 12333.0 NaN 1528.0748162992638 8.154583405933616 505.0 21.0 346.0 
472.0009270308328 12333.0 NaN 1528.0507682030725 10.154583405933616 505.0 21.0 346.0 
474.0009270308328 12466.0 NaN 1531.4415497662003 1.4354292064704433 501.0 21.0 347.0 
476.0001983480089 12439.0 NaN 1531.134268537073 3.3754354807473606 500.0 21.0 347.0 
478.0009270308328 12324.0 NaN 1528.0774883099543 5.111730936638782 500.0 21.0 346.0 
480.0009270308328 12324.0 NaN 1528.064128256512 7.111730936638783 502.0 21.0 346.0 
482.0009270308328 12324.0 NaN 1525.0126920507664 9.111730936638782 501.0 21.0 345.0 
484.0009270308328 12374.0 NaN 1528.2244488977972 5.962050882451267 495.0 26.0 341.0 
486.0001983480089 12431.0 NaN 1531.238476953909 2.3984195474921366 497.0 22.0 346.0 
488.0009270308328 12307.0 NaN 1521.8997995991997 4.1795544814066945 496.0 22.0 343.0 
490.0009270308328 12299.0 NaN 1515.7915831663333 6.150102833015804 498.0 22.0 341.0 
492.0009270308328 12299.0 NaN 1506.5838343353364 8.150102833015804 498.0 22.0 338.0 
494.0009270308328 12299.0 NaN 1503.5083500334 10.150102833015803 497.0 22.0 337.0 
496.0001983480089 12426.0 NaN 1506.9098196392795 1.4473835922034515 497.0 21.0 339.0 
498.0009270308328 12402.0 NaN 1506.5250501002 3.397508873475103 498.0 21.0 339.0 
500.0009270308328 12296.0 NaN 1500.4248496993998 5.146444167982209 498.0 21.0 337.0 
502.0009270308328 12296.0 NaN 1500.3874415497658 7.146444167982209 499.0 21.0 337.0 
504.0009270308328 12296.0 NaN 1500.3981295925182 9.146444167982208 499.0 21.0 337.0 
506.0001983480089 12362.0 NaN 1512.8283233132927 6.04879280049504 493.0 26.0 336.0 
508.0009270308328 12437.0 NaN 1509.672678690715 2.463850772310781 499.0 22.0 339.0 
510.0009270308328 12299.0 NaN 1506.5277221108888 4.161438645086041 499.0 21.0 339.0 
512.0009270308328 12290.0 NaN 1500.350033400134 6.154070747947428 498.0 21.0 337.0 
514.0009270308328 12290.0 NaN 1500.371409485637 8.154070747947427 498.0 21.0 337.0 
516.0001983480089 12290.0 NaN 1500.355377421509 10.153158339188304 498.0 21.0 337.0 
518.0009270308328 12439.0 NaN 1503.8690714762847 1.4554473093918785 498.0 20.0 339.0 
520.0009270308328 12420.0 NaN 1503.4923179692728 3.3660474243410907 496.0 21.0 338.0 
522.0009270308328 12324.0 NaN 1475.8717434869734 5.115864391175163 494.0 21.0 329.0 
524.0009270308328 12324.0 NaN 1469.7474949899809 7.115864391175163 494.0 21.0 327.0 
526.0001983480089 12324.0 NaN 1469.7314629258524 9.114950314392713 494.0 21.0 327.0 
528.0009270308328 12394.0 NaN 1476.0320641282556 5.946641170612271 491.0 25.0 325.0 
530.0009270308328 12485.0 NaN 1488.2217768871083 2.354994320275123 491.0 21.0 333.0 
532.0009270308328 12379.0 NaN 1481.9719438877746 4.101399581063733 491.0 21.0 331.0 
534.0009270308328 12375.0 NaN 1469.69138276553 6.096813543821731 492.0 21.0 327.0 
536.0001983480089 12375.0 NaN 1472.7695390781557 8.095900301812598 493.0 21.0 328.0 
538.0009270308328 12375.0 NaN 1472.7641950567809 10.096813543821732 496.0 21.0 328.0 
540.0009270308328 12555.0 NaN 1482.3299933199726 1.355557378852026 498.0 17.0 335.0 
542.0009270308328 12543.0 NaN 1485.0073480293918 3.3242352098093817 500.0 17.0 336.0 
544.0009270308328 12473.0 NaN 1475.786239144956 5.148176052530364 501.0 17.0 333.0 
546.0001983480089 12473.0 NaN 1475.7755511022033 7.147269434216675 502.0 17.0 333.0 
548.0009270308328 12473.0 NaN 1478.8537074148292 9.148176052530365 502.0 17.0 334.0 
550.0009270308328 12543.0 NaN 1478.9392117568464 6.03518284096289 498.0 20.0 331.0 
552.0009270308328 12619.0 NaN 1491.2518370073474 2.5194502722326244 500.0 18.0 337.0 
554.0009270308328 12462.0 NaN 1491.1529726118908 4.2554432979430326 501.0 18.0 337.0 
556.0001983480089 12446.0 NaN 1481.9024716098877 6.235065917132804 502.0 18.0 334.0 
558.0009270308328 12446.0 NaN 1485.002004008017 8.235972535446493 503.0 18.0 335.0 
560.0009270308328 12446.0 NaN 1478.8590514362063 10.235972535446495 503.0 18.0 333.0 
562.0009270308328 12586.0 NaN 1482.2631930527727 1.6324951282788966 500.0 17.0 335.0 
564.0009270308328 12548.0 NaN 1481.923847695391 3.4966003321622328 500.0 17.0 335.0 
566.0001983480089 12418.0 NaN 1472.7241148964602 5.142195692238337 500.0 17.0 332.0 
568.0009270308328 12418.0 NaN 1472.7401469605882 7.143110605321594 500.0 17.0 332.0 
570.0009270308328 12418.0 NaN 1472.7027388109548 9.143110605321594 503.0 17.0 332.0 
572.0009270308328 12509.0 NaN 1482.1028724114901 5.975479983736916 495.0 20.0 332.0 
574.0009270308328 12619.0 NaN 1482.0788243152979 2.4290971146647986 494.0 20.0 332.0 
576.0001983480089 12509.0 NaN 1485.0607882431534 4.137500429940634 495.0 20.0 333.0 
578.0009270308328 12501.0 NaN 1481.969271877088 6.130087657491226 495.0 20.0 332.0 
580.0009270308328 12501.0 NaN 1481.9639278557104 8.130087657491226 495.0 20.0 332.0 
582.0009270308328 12501.0 NaN 1478.8750835003345 10.130087657491227 495.0 20.0 331.0 
584.0009270308328 12707.0 NaN 1494.680026720108 1.5324200243935913 501.0 17.0 339.0 
586.0001983480089 12665.0 NaN 1491.1663326653302 3.4475729262737853 503.0 17.0 338.0 
588.0009270308328 12527.0 NaN 1488.0988643954565 5.259439417306458 503.0 17.0 337.0 
590.0009270308328 12527.0 NaN 1488.0721442885763 7.259439417306457 503.0 17.0 337.0 
592.0009270308328 12527.0 NaN 1488.0668002672 9.259439417306458 504.0 17.0 337.0 
594.0009270308328 12630.0 NaN 1488.1710086840353 6.214047371695723 510.0 16.0 338.0 
596.0001983480089 12741.0 NaN 1494.3246492985984 2.7306314838786685 513.0 14.0 342.0 
598.0009270308328 12505.0 NaN 1497.3279893119563 4.2477364733555785 513.0 14.0 343.0 
600.0009270308328 12486.0 NaN 1500.430193720774 6.214090722457576 514.0 14.0 344.0 
602.0009270308328 12486.0 NaN 1503.4789579158307 8.214090722457575 514.0 14.0 345.0 
604.0009270308328 12486.0 NaN 1503.4415497662 10.214090722457575 514.0 14.0 345.0 
606.0001983480089 12718.0 NaN 1506.8643954575818 1.5749422279274228 526.0 13.0 347.0 
608.0009270308328 12673.0 NaN 1506.4609218436879 3.4716402788787155 525.0 13.0 347.0 
610.0009270308328 12537.0 NaN 1494.207080828324 5.175128353078725 523.0 13.0 343.0 
612.0009270308328 12537.0 NaN 1497.253173012691 7.175128353078726 522.0 13.0 344.0 
614.0009270308328 12537.0 NaN 1500.3126252505 9.175128353078726 524.0 13.0 345.0 
616.0001983480089 12637.0 NaN 1512.692050768202 6.051777271212223 518.0 15.0 347.0 
618.0009270308328 12741.0 NaN 1518.8350033400122 2.5209076881156585 520.0 14.0 350.0 
620.0009270308328 12597.0 NaN 1512.6359385437547 4.187034420198755 517.0 14.0 348.0 
622.0009270308328 12577.0 NaN 1512.6332665330654 6.162089862312012 518.0 14.0 348.0 
624.0009270308328 12577.0 NaN 1509.541750167 8.162089862312012 518.0 13.0 348.0 
626.0001983480089 12577.0 NaN 1509.547094188376 10.161167353086919 518.0 13.0 348.0 
628.0009270308328 12795.0 NaN 1528.5584502338002 1.5496768055485364 520.0 13.0 354.0 
630.0009270308328 12767.0 NaN 1531.0781563126263 3.4914545245765836 521.0 14.0 354.0 
632.0009270308328 12624.0 NaN 1518.8296593186367 5.215001625097722 520.0 14.0 350.0 
634.0009270308328 12624.0 NaN 1518.837675350701 7.215001625097722 520.0 14.0 350.0 
636.0001983480089 12624.0 NaN 1518.8136272545091 9.214082507450662 520.0 14.0 350.0 
638.0009270308328 12706.0 NaN 1525.074148296592 6.109064138744182 517.0 19.0 347.0 
640.0009270308328 12805.0 NaN 1525.2638610554445 2.5914068049176007 516.0 22.0 344.0 
642.0009270308328 12613.0 NaN 1522.1616566466273 4.183987563763666 516.0 21.0 344.0 
644.0009270308328 12590.0 NaN 1522.100200400801 6.151558503477501 516.0 21.0 344.0 
646.0001983480089 12590.0 NaN 1522.0521042084174 8.150636844491325 516.0 21.0 344.0 
648.0009270308328 12590.0 NaN 1522.078824315298 10.151558503477501 516.0 21.0 344.0 
650.0009270308328 12787.0 NaN 1528.5958583834345 1.4754077888720538 511.0 21.0 346.0 
652.0009270308328 12744.0 NaN 1531.2491649966607 3.4043621986867385 512.0 20.0 348.0 
654.0009270308328 12570.0 NaN 1528.1122244488988 5.159948067612658 509.0 20.0 347.0 
656.0001983480089 12570.0 NaN 1528.0961923847706 7.159028104411185 509.0 20.0 347.0 
658.0009270308328 12570.0 NaN 1528.1202404809624 9.159948067612657 509.0 20.0 347.0 
660.0009270308328 12662.0 NaN 1534.4074816299271 6.010400719808844 505.0 24.0 345.0 
662.0009270308328 12770.0 NaN 1537.472277889111 2.49398169630886 506.0 20.0 350.0 
664.0009270308328 12570.0 NaN 1534.2738810955252 4.200846051772411 506.0 19.0 350.0 
#####################################################################
# End of data export. Simulation finished at: 2019-03-16T03:55+0000 #
#####################################################################
