#####################################################################
# Alchemist log file - simulation started at: 2019-03-05T14:37+0000 #
#####################################################################
# seed = 3.0, bandwidth = 17782.79410038923, propagationDelay = 0.03162277660168379, baserange = 316.2277660168379
#
# The columns have the following meaning: 
# time neighbor_count[Sum] <value>@neighbor_count[Sum] packet_size[Mean] mean_delay[Mean] crowd[Sum] overcrowded[Sum] risk[Sum] 
0.0 NaN NaN NaN NaN NaN NaN NaN 
2.0002966077973445 48995.0 NaN 4993.205076820307 0.4734627692369111 1497.0 0.0 1497.0 
4.0002966077973445 51288.0 NaN 4993.309285237141 0.4959459270806775 1497.0 0.0 1497.0 
6.000084666035003 51288.0 NaN 4995.123580494322 0.4960174487880513 1496.0 1.0 1496.0 
8.000296607797345 51288.0 NaN 4994.201736806947 0.49601887281198437 1497.0 0.0 1497.0 
10.000296607797345 51291.0 NaN 4995.00334001336 0.49599526090839796 1497.0 0.0 1497.0 
12.000296607797345 51294.0 NaN 4995.561790247161 0.4960416673905001 1497.0 0.0 1497.0 
14.000296607797345 51294.0 NaN 4993.819639278557 0.49599755459651657 1497.0 0.0 1497.0 
16.000084666035004 51329.0 NaN 4994.172344689378 0.49666600861058163 1497.0 0.0 1497.0 
18.000296607797345 51332.0 NaN 4995.64462257849 0.49920156367315344 1497.0 0.0 1497.0 
20.000296607797345 51335.0 NaN 4994.704074816299 0.5031822242611106 1497.0 0.0 1497.0 
22.000296607797345 51348.0 NaN 4994.418169672679 0.5070447655361855 1497.0 0.0 1497.0 
24.000296607797345 51354.0 NaN 4995.22244488978 0.5114412495490653 1497.0 0.0 1497.0 
26.000084666035004 51398.0 NaN 4993.915831663327 0.5152028517562459 1497.0 0.0 1497.0 
28.000296607797345 51414.0 NaN 4994.578490313961 0.5190117889423458 1497.0 0.0 1497.0 
30.000296607797345 51420.0 NaN 4996.12291249165 0.5249179618412342 1497.0 0.0 1497.0 
32.000296607797345 51424.0 NaN 4994.199064796259 0.5307111404472934 1497.0 0.0 1497.0 
34.000296607797345 51424.0 NaN 4994.16967267869 0.5362995313058637 1497.0 0.0 1497.0 
36.00008466603501 51457.0 NaN 4995.3319973279895 0.5422913674623808 1497.0 0.0 1497.0 
38.000296607797345 51465.0 NaN 4994.332665330661 0.537419193259396 1497.0 0.0 1497.0 
40.000296607797345 51475.0 NaN 4995.062124248497 0.5270246831212001 1497.0 0.0 1497.0 
42.000296607797345 51475.0 NaN 4995.591182364729 0.5305973644088824 1497.0 0.0 1497.0 
44.000296607797345 51480.0 NaN 4993.907815631263 0.5398686509626102 1497.0 0.0 1497.0 
46.00008466603501 51513.0 NaN 4994.223112892451 0.5495200638352591 1497.0 0.0 1497.0 
48.000296607797345 51526.0 NaN 4995.663326653306 0.5584117506578952 1497.0 0.0 1497.0 
50.000296607797345 51504.0 NaN 4994.7708750835 0.5479362336936581 1497.0 0.0 1497.0 
52.000296607797345 51518.0 NaN 4994.49832999332 0.5591166224557835 1497.0 0.0 1497.0 
54.000296607797345 51520.0 NaN 4995.22244488978 0.5707386628887658 1497.0 0.0 1497.0 
56.00008466603501 51539.0 NaN 4993.9853039412155 0.5838332559405913 1497.0 0.0 1497.0 
58.000296607797345 51566.0 NaN 4994.615898463594 0.5887762543595717 1497.0 0.0 1497.0 
60.000296607797345 51526.0 NaN 4996.088176352705 0.5608643067015079 1497.0 0.0 1497.0 
62.00001515813446 51527.0 NaN 1522.4956579826332 0.5582987940288631 777.0 1.0 364.0 
64.00001515813446 51526.0 NaN 1522.5838343353364 0.5831443892120824 624.0 7.0 358.0 
66.00001515813445 51557.0 NaN 1522.639946559785 0.5601203026691914 572.0 8.0 357.0 
68.00001515813445 51654.0 NaN 1522.5784903139615 0.5642673943796521 541.0 9.0 356.0 
70.00001515813445 51627.0 NaN 1525.7154308617241 0.5587137473878746 525.0 10.0 356.0 
72.00001515813445 51636.0 NaN 1525.6299265197065 0.5652604558482291 524.0 8.0 358.0 
74.00001515813445 51638.0 NaN 1525.6406145624576 0.5671499087865318 523.0 8.0 358.0 
76.00001515813445 51643.0 NaN 1525.6379425517703 0.5683368229102574 524.0 8.0 358.0 
78.00001515813445 51646.0 NaN 1534.9953239812971 0.5704239743474059 522.0 8.0 361.0 
80.00001515813445 51642.0 NaN 1534.9552438209755 0.5536686086665914 520.0 9.0 360.0 
82.00001515813445 51646.0 NaN 1534.8697394789576 0.5545094627947741 520.0 9.0 360.0 
84.00001515813445 51642.0 NaN 1534.9231796927181 0.5546609119640887 519.0 10.0 359.0 
86.00001515813445 51684.0 NaN 1534.880427521709 0.5646915158964282 517.0 10.0 359.0 
88.00001515813445 51701.0 NaN 1534.8937875751515 0.5641855232486851 518.0 9.0 360.0 
90.00001515813445 51669.0 NaN 1538.0093520374091 0.5574169846849081 518.0 9.0 361.0 
92.00001515813445 51672.0 NaN 1537.8383433533725 0.5558103527260123 519.0 8.0 362.0 
94.00001515813445 51670.0 NaN 1537.907815631264 0.5594093493317165 519.0 8.0 362.0 
96.00001515813445 51692.0 NaN 1541.0447561790247 0.5669835211606916 520.0 7.0 364.0 
98.00001515813445 51694.0 NaN 1541.047428189712 0.5614337658098651 520.0 7.0 364.0 
100.00001515813445 51673.0 NaN 1541.0260521042092 0.5618078234806599 519.0 8.0 363.0 
102.00001515813445 51679.0 NaN 1540.9832999332002 0.553256811781212 520.0 7.0 364.0 
104.00001515813445 51676.0 NaN 1540.9592518370087 0.5384786325036881 520.0 7.0 364.0 
106.00001515813445 51695.0 NaN 1540.9539078156304 0.5458062005395963 520.0 7.0 364.0 
108.00001515813445 51713.0 NaN 1541.0688042752183 0.5518491618149174 519.0 7.0 364.0 
110.00001515813445 51717.0 NaN 1540.9672678690724 0.5579394094700009 518.0 8.0 363.0 
112.00001515813445 51747.0 NaN 1540.9726118904457 0.557474857130926 519.0 7.0 364.0 
114.00001515813445 51742.0 NaN 1541.0046760187029 0.5542995707628393 520.0 7.0 364.0 
116.00001515813445 51760.0 NaN 1547.0941883767546 0.5646245419587093 520.0 8.0 365.0 
118.00001515813445 51767.0 NaN 1550.2150968603878 0.5594077097839727 521.0 8.0 366.0 
120.00001515813445 51770.0 NaN 1553.3600534402153 0.565521168092003 520.0 9.0 366.0 
122.00001515813445 51802.0 NaN 1553.2371409485636 0.5747767383768523 521.0 8.0 367.0 
124.00001515813445 51768.0 NaN 1553.2638610554454 0.5681322988757211 521.0 8.0 367.0 
126.00001515813445 51786.0 NaN 1547.1396125584517 0.5785525254498027 521.0 8.0 365.0 
128.00001515813443 51747.0 NaN 1547.1903807615245 0.5584296433264702 521.0 8.0 365.0 
130.00001515813446 51727.0 NaN 1547.1823647294573 0.5555186634292635 520.0 9.0 364.0 
132.00001515813446 51742.0 NaN 1547.2037408149638 0.5600954180666174 522.0 7.0 366.0 
134.00001515813446 51736.0 NaN 1544.069472277891 0.5682549577443393 519.0 7.0 365.0 
136.00001515813446 51742.0 NaN 1547.1315965263848 0.5661546451599341 517.0 7.0 366.0 
138.00001515813446 51725.0 NaN 1547.2785571142272 0.5634614699236908 516.0 7.0 366.0 
140.00001515813446 51719.0 NaN 1547.2090848363391 0.5673294244464998 518.0 8.0 365.0 
142.00001515813446 51738.0 NaN 1550.2605210420843 0.5732852379509861 518.0 7.0 367.0 
144.00001515813446 51714.0 NaN 1553.3173012692062 0.569530444637378 518.0 7.0 368.0 
146.00001515813446 51724.0 NaN 1544.0801603206423 0.5671431032979404 516.0 7.0 365.0 
148.00001515813446 51680.0 NaN 1544.1469605878428 0.5472273530715385 515.0 7.0 365.0 
150.00001515813446 51660.0 NaN 1544.2084168336667 0.5496390809254756 513.0 9.0 363.0 
152.00001515813446 51641.0 NaN 1544.0293921175696 0.55245659160872 513.0 9.0 363.0 
154.00001515813446 51630.0 NaN 1540.9325317301273 0.553071619561016 514.0 9.0 362.0 
156.00001515813446 51663.0 NaN 1540.9726118904457 0.5589124426889145 516.0 9.0 362.0 
158.00001515813446 51643.0 NaN 1547.2117568470271 0.5527126815364096 514.0 9.0 364.0 
160.00001515813446 51617.0 NaN 1544.1175684702725 0.5553490826228866 510.0 10.0 362.0 
162.00001515813446 51622.0 NaN 1544.1282565130273 0.5573687546849839 511.0 8.0 364.0 
164.00001515813446 51610.0 NaN 1544.0106880427522 0.5635527634365965 512.0 8.0 364.0 
166.00001515813446 51622.0 NaN 1547.155644622579 0.5771144666523194 512.0 9.0 364.0 
168.00001515813446 51603.0 NaN 1550.30861723447 0.5731328614085528 512.0 9.0 365.0 
170.00001515813446 51550.0 NaN 1550.2712090848363 0.5758786064109255 515.0 9.0 365.0 
172.00001515813446 51551.0 NaN 1550.2070808283245 0.5851791625534748 515.0 7.0 367.0 
174.00001515813446 51520.0 NaN 1544.1175684702725 0.5924426204521958 516.0 6.0 366.0 
176.00001515813446 51506.0 NaN 1541.0046760187026 0.6001985801175774 516.0 6.0 365.0 
178.00001515813446 51499.0 NaN 1541.0714762859063 0.606961722942983 516.0 7.0 364.0 
180.00001515813446 51447.0 NaN 1541.114228456915 0.5977569995123329 512.0 9.0 362.0 
182.00001515813446 51434.0 NaN 1537.9585838343364 0.5978414982901513 515.0 6.0 364.0 
184.00001515813446 51342.0 NaN 1537.9532398129609 0.5967871813493659 512.0 8.0 362.0 
186.00001515813446 51324.0 NaN 1537.9986639946544 0.5909692053183497 516.0 5.0 365.0 
188.00001515813446 51315.0 NaN 1538.0040080160334 0.5799405488565867 515.0 5.0 365.0 
190.00001515813446 51250.0 NaN 1537.9772879091518 0.5720983165821569 512.0 7.0 363.0 
192.00001515813446 51241.0 NaN 1534.8857715430852 0.5748546702495806 513.0 6.0 363.0 
194.00001515813446 51229.0 NaN 1534.8724114896452 0.57150622982833 513.0 6.0 363.0 
196.00001515813446 51233.0 NaN 1534.8724114896452 0.5849272516626292 512.0 7.0 362.0 
198.00001515813446 51208.0 NaN 1535.0354041416178 0.5903811873906493 514.0 6.0 363.0 
200.00001515813446 51173.0 NaN 1538.0547762191063 0.5868734057171675 511.0 9.0 361.0 
202.00001515813446 51137.0 NaN 1544.221776887109 0.5916795977929608 511.0 10.0 362.0 
204.00001515813446 51128.0 NaN 1541.1409485637937 0.5779838954445501 508.0 11.0 360.0 
206.00001515813446 51131.0 NaN 1541.1008684034728 0.5659360670450482 509.0 9.0 362.0 
208.00001515813446 51120.0 NaN 1541.156980627921 0.5697145822101037 511.0 9.0 362.0 
210.00001515813446 51097.0 NaN 1531.9225116900457 0.5704328424004403 516.0 6.0 362.0 
212.00001515813446 51058.0 NaN 1534.8563794255183 0.5583778692702374 516.0 7.0 362.0 
214.00001515813446 51045.0 NaN 1531.8316633266543 0.5559835602561181 510.0 8.0 360.0 
216.00001515813446 51062.0 NaN 1531.7515030060115 0.5654155387588662 507.0 8.0 360.0 
218.00001515813446 51041.0 NaN 1528.7401469605884 0.5728070521051736 510.0 6.0 361.0 
220.00001515813446 50996.0 NaN 1528.7454909819635 0.5696397554545479 508.0 6.0 361.0 
222.00001515813446 50973.0 NaN 1528.649298597194 0.5729758628044125 510.0 4.0 363.0 
224.00001515813446 50973.0 NaN 1528.643954575818 0.5784518091604093 509.0 6.0 361.0 
226.00001515813446 51005.0 NaN 1528.6118904475634 0.5952962310527794 505.0 9.0 358.0 
228.00001515813446 50984.0 NaN 1531.842351369406 0.6034317930865752 506.0 7.0 361.0 
230.00001515813446 50966.0 NaN 1531.7915831663336 0.6186129352318456 501.0 13.0 355.0 
232.00001515813446 50940.0 NaN 1534.8002672010698 0.631707442458942 505.0 9.0 360.0 
234.00001515813446 50941.0 NaN 1537.9505678022726 0.6504066514432858 506.0 7.0 363.0 
236.00001515813446 51029.0 NaN 1540.969939879761 0.6581614865037502 507.0 9.0 362.0 
238.00001515813446 50995.0 NaN 1534.8537074148294 0.6543086501174924 510.0 5.0 364.0 
240.00001515813446 50989.0 NaN 1528.798931195725 0.6482036308186729 506.0 7.0 360.0 
242.00001515813446 50950.0 NaN 1531.7862391449548 0.6479446905151912 506.0 6.0 362.0 
244.00001515813446 50931.0 NaN 1531.7568470273884 0.6583241223201515 507.0 7.0 361.0 
246.00001515813446 50951.0 NaN 1531.7969271877091 0.6147484608259544 506.0 9.0 359.0 
248.00001515813446 50907.0 NaN 1528.7535070140273 0.5874123785403874 507.0 8.0 359.0 
250.00001515813446 50897.0 NaN 1528.7348029392117 0.5937063399338383 505.0 10.0 357.0 
252.00001515813446 50884.0 NaN 1525.6432865731454 0.5918673894733432 507.0 8.0 358.0 
254.00001515813446 50876.0 NaN 1525.5871743486975 0.6029997315854775 505.0 9.0 357.0 
256.00001515813443 50909.0 NaN 1525.613894455579 0.6089193948084854 508.0 8.0 358.0 
258.00001515813443 50868.0 NaN 1525.6753507014025 0.5973256518248353 507.0 9.0 357.0 
260.00001515813443 50843.0 NaN 1525.613894455579 0.591159138743087 507.0 10.0 356.0 
262.00001515813443 50820.0 NaN 1528.6973947895792 0.5785257920520338 509.0 8.0 359.0 
264.00001515813443 50816.0 NaN 1528.676018704073 0.57140686611853 508.0 9.0 358.0 
266.00001515813443 50852.0 NaN 1534.8430193720787 0.587504618599412 505.0 9.0 360.0 
268.00001515813443 50828.0 NaN 1534.8643954575818 0.5929567934845782 504.0 9.0 360.0 
270.00001515813443 50788.0 NaN 1531.85036740147 0.5973001426702695 502.0 9.0 359.0 
272.00001515813443 50774.0 NaN 1528.7241148964608 0.612839797948902 502.0 9.0 358.0 
274.00001515813443 50734.0 NaN 1528.6519706078816 0.6236633172275853 502.0 9.0 358.0 
276.00001515813443 50744.0 NaN 1528.662658650636 0.6251226410964356 502.0 9.0 358.0 
278.00001515813443 50725.0 NaN 1537.8997995992 0.6316147689270097 507.0 8.0 362.0 
280.00001515813443 50718.0 NaN 1537.886439545757 0.625665565814321 505.0 10.0 360.0 
282.00001515813443 50694.0 NaN 1537.923847695391 0.6346710036012713 505.0 9.0 361.0 
284.00001515813443 50666.0 NaN 1534.7468269873093 0.6410409368115874 505.0 9.0 360.0 
286.00001515813443 50656.0 NaN 1534.7869071476273 0.6464391456302331 506.0 8.0 361.0 
288.00001515813443 50502.0 NaN 1534.7869071476273 0.6237221515644675 505.0 9.0 360.0 
290.00001515813443 50469.0 NaN 1534.7788911155635 0.6285888756885354 504.0 10.0 359.0 
292.00001515813443 50429.0 NaN 1534.7869071476273 0.5987178320309607 504.0 9.0 360.0 
294.00001515813443 50386.0 NaN 1534.6853707414816 0.6014980207965485 504.0 8.0 361.0 
296.00001515813443 50400.0 NaN 1534.733466933866 0.6179828749700405 503.0 9.0 360.0 
298.00001515813443 50337.0 NaN 1537.8543754175 0.6181429493302133 503.0 9.0 361.0 
300.00001515813443 50297.0 NaN 1537.857047428191 0.6166700240327416 501.0 10.0 360.0 
302.00001515813443 50278.0 NaN 1537.8757515030065 0.6206627328825596 502.0 8.0 362.0 
304.00001515813443 50230.0 NaN 1537.8329993319976 0.6228329600641568 501.0 9.0 361.0 
306.00001515813443 50209.0 NaN 1534.7788911155635 0.625607272954968 503.0 9.0 360.0 
308.00001515813443 50161.0 NaN 1531.7568470273886 0.617123421723193 500.0 9.0 359.0 
310.00001515813443 50116.0 NaN 1534.8056112224456 0.6046122653562799 500.0 9.0 360.0 
312.00001515813443 50064.0 NaN 1531.7274549098183 0.601848213798976 498.0 9.0 359.0 
314.00001515813443 50035.0 NaN 1534.7441549766183 0.6132858769549515 498.0 9.0 360.0 
316.00001515813443 50011.0 NaN 1534.789579158318 0.6236683605471002 500.0 9.0 360.0 
318.00001515813443 49957.0 NaN 1537.8650634602548 0.6129089335608363 503.0 8.0 362.0 
320.00001515813443 49937.0 NaN 1537.9024716098882 0.6035528647200573 500.0 10.0 360.0 
322.00001515813443 49889.0 NaN 1540.9913159652635 0.5944084980496702 500.0 9.0 362.0 
324.00001515813443 49856.0 NaN 1540.9138276553092 0.6031398647084284 499.0 9.0 362.0 
326.00001515813443 49835.0 NaN 1541.002004008018 0.6150174157889164 501.0 8.0 363.0 
328.00001515813443 49799.0 NaN 1537.9291917167661 0.6209489127536627 499.0 9.0 361.0 
330.00001515813443 49780.0 NaN 1540.9806279225115 0.6194801924252967 498.0 10.0 361.0 
332.00001515813443 49726.0 NaN 1540.9752839011364 0.615137823348611 499.0 9.0 362.0 
334.00001515813443 49708.0 NaN 1537.8784235136934 0.6253332392021195 501.0 8.0 362.0 
336.00001515813443 49697.0 NaN 1531.7274549098183 0.6054482881551081 500.0 9.0 359.0 
338.00001515813443 49669.0 NaN 1531.772879091518 0.6092921889610641 501.0 9.0 359.0 
340.00001515813443 49659.0 NaN 1528.6680026720094 0.6235771464118918 501.0 10.0 357.0 
342.00001515813443 49636.0 NaN 1528.6653306613216 0.622372837015427 503.0 8.0 359.0 
344.00001515813443 49610.0 NaN 1528.6118904475634 0.6263462826909086 502.0 9.0 358.0 
346.00001515813443 49577.0 NaN 1531.7568470273884 0.6127540497385048 502.0 9.0 359.0 
348.00001515813443 49541.0 NaN 1528.6867067468274 0.61103229249409 500.0 9.0 358.0 
350.00001515813443 49529.0 NaN 1525.6325985303934 0.6244658776759997 502.0 9.0 357.0 
352.00001515813443 49520.0 NaN 1525.6058784235122 0.6313065406213306 507.0 9.0 357.0 
354.00001515813443 49530.0 NaN 1525.5230460921841 0.6478927771217217 508.0 9.0 357.0 
356.00001515813443 49521.0 NaN 1525.568470273882 0.6216401325586366 507.0 9.0 357.0 
358.00001515813443 49475.0 NaN 1525.6352705410818 0.6157278100576933 506.0 8.0 358.0 
360.00001515813443 49460.0 NaN 1528.627922511691 0.6276890831805123 505.0 10.0 357.0 
362.00001515813443 49425.0 NaN 1528.6599866399451 0.6212168361520669 507.0 9.0 358.0 
364.00001515813443 49398.0 NaN 1525.5043420173668 0.6216555418677868 507.0 9.0 357.0 
366.00001515813443 49426.0 NaN 1510.1402805611212 0.618616877951925 509.0 8.0 353.0 
368.00001515813443 49407.0 NaN 1500.959251837008 0.6153220139164012 506.0 9.0 349.0 
370.00001515813443 49400.0 NaN 1510.148296593185 0.61717375381248 505.0 10.0 351.0 
372.00001515813443 49365.0 NaN 1510.1295925183706 0.6110464326316085 505.0 9.0 352.0 
374.00001515813443 49337.0 NaN 1510.1055444221786 0.6125461002468269 507.0 8.0 353.0 
376.00001515813443 49324.0 NaN 1510.1509686038737 0.5963896966692198 508.0 9.0 352.0 
378.00001515813443 49312.0 NaN 1510.1883767535082 0.5965035385477317 510.0 9.0 352.0 
380.00001515813443 49309.0 NaN 1510.1883767535082 0.5999444428796128 508.0 10.0 351.0 
382.00001515813443 49294.0 NaN 1507.1102204408817 0.6065267662107658 509.0 8.0 352.0 
384.00001515813443 49272.0 NaN 1513.1997327989304 0.6131521511820871 510.0 9.0 353.0 
386.00001515813443 49281.0 NaN 1525.5951903807631 0.6278758657785926 509.0 11.0 355.0 
388.00001515813443 49239.0 NaN 1510.2872411489636 0.616196689303809 510.0 8.0 353.0 
390.00001515813443 49210.0 NaN 1507.171676686707 0.6208525224077239 508.0 7.0 353.0 
392.00001515813443 49190.0 NaN 1513.333333333334 0.6168591090551349 510.0 7.0 355.0 
394.00001515813443 49159.0 NaN 1513.2611890447552 0.6187401587654091 510.0 6.0 356.0 
396.00001515813443 49163.0 NaN 1513.2478289913176 0.6221185899345374 512.0 8.0 354.0 
398.00001515813443 49140.0 NaN 1510.2658650634608 0.6184226997810036 513.0 6.0 355.0 
400.00001515813443 49102.0 NaN 1513.3199732798914 0.6130114058759512 513.0 8.0 354.0 
402.00001515813443 49071.0 NaN 1513.2879091516363 0.6013734148556807 515.0 5.0 357.0 
404.00001515813443 49070.0 NaN 1519.4655978623907 0.6156846865183307 513.0 8.0 356.0 
406.00001515813443 49077.0 NaN 1522.5116900467604 0.6238615386180018 515.0 6.0 359.0 
408.00001515813443 49059.0 NaN 1522.5437541750175 0.6220624205161429 515.0 6.0 359.0 
410.00001515813443 49050.0 NaN 1522.551770207082 0.6308786403215109 513.0 9.0 356.0 
412.00001515813443 49046.0 NaN 1525.5845023380089 0.6422994888457039 514.0 8.0 358.0 
414.00001515813443 49032.0 NaN 1525.5337341349364 0.6591110594294851 519.0 8.0 358.0 
416.00001515813443 49050.0 NaN 1525.5524382097537 0.6797869107877652 520.0 9.0 357.0 
418.00001515813443 48985.0 NaN 1525.6272545090183 0.6676472807149982 521.0 7.0 359.0 
420.00001515813443 48925.0 NaN 1513.2638610554447 0.6339183836046768 521.0 8.0 354.0 
422.00001515813443 48911.0 NaN 1507.0968603874421 0.6372076773067848 521.0 8.0 352.0 
424.00001515813443 48915.0 NaN 1504.0534402137612 0.6396079502369947 516.0 8.0 351.0 
426.00001515813443 48929.0 NaN 1513.2638610554447 0.6181330210405641 510.0 10.0 352.0 
428.00001515813443 48914.0 NaN 1504.0774883099537 0.6046037737065504 509.0 8.0 351.0 
430.00001515813443 48889.0 NaN 1504.0721442885765 0.5867093317460621 510.0 9.0 350.0 
432.00001515813443 48856.0 NaN 1500.8977955911819 0.5745212343138393 512.0 8.0 350.0 
434.00001515813443 48855.0 NaN 1503.9866399465604 0.5808698669830851 513.0 8.0 351.0 
436.00001515813443 48860.0 NaN 1516.3019372077483 0.591398827600062 517.0 9.0 354.0 
438.00001515813443 48870.0 NaN 1519.3747494989989 0.5915415360575729 520.0 7.0 357.0 
440.00001515813443 48840.0 NaN 1516.3366733466928 0.5840882726782541 518.0 8.0 355.0 
442.00001515813443 48825.0 NaN 1516.2965931863728 0.5877571357524854 519.0 8.0 355.0 
444.00001515813443 48832.0 NaN 1522.460921843688 0.6007740985925576 517.0 8.0 357.0 
446.00001515813443 48844.0 NaN 1528.5824983299929 0.616305883532508 520.0 8.0 359.0 
448.00001515813443 48840.0 NaN 1534.7922511690056 0.6291399220425128 523.0 7.0 362.0 
450.00001515813443 48830.0 NaN 1543.9519038076157 0.6235993519780627 523.0 8.0 364.0 
452.00001515813443 48785.0 NaN 1547.0861723446906 0.623999476118395 523.0 7.0 366.0 
454.00001515813443 48765.0 NaN 1547.0781563126268 0.6295509065065936 521.0 8.0 365.0 
456.00001515813443 48753.0 NaN 1550.1643286573153 0.6442427623496505 521.0 8.0 366.0 
458.00001515813443 48748.0 NaN 1547.0754843019363 0.6521099744316363 523.0 7.0 366.0 
460.00001515813443 48736.0 NaN 1547.1182364729455 0.6522930297738895 518.0 9.0 364.0 
462.00001515813443 48707.0 NaN 1547.0728122912483 0.6301988639713024 520.0 8.0 365.0 
464.00001515813443 48683.0 NaN 1547.0460921843696 0.6354811989332034 520.0 8.0 365.0 
466.00001515813443 48673.0 NaN 1543.922511690046 0.6163419147790096 520.0 9.0 363.0 
468.00001515813443 48677.0 NaN 1543.9786239144967 0.6302486328115012 521.0 9.0 363.0 
470.00001515813443 48669.0 NaN 1544.0347361389454 0.6271559599593806 515.0 10.0 362.0 
472.00001515813443 48658.0 NaN 1534.802939211755 0.5986988282585329 516.0 8.0 361.0 
474.00001515813443 48666.0 NaN 1528.6252505010007 0.6001733607051629 518.0 3.0 364.0 
476.00001515813443 48665.0 NaN 1525.520374081497 0.5904728825574688 516.0 3.0 363.0 
478.00001515813443 48673.0 NaN 1522.5170340681366 0.5915304096195769 511.0 9.0 356.0 
480.00001515813443 48672.0 NaN 1525.6138944555787 0.5923626600950025 506.0 12.0 354.0 
482.00001515813443 48668.0 NaN 1522.482297929191 0.5986975730517624 510.0 10.0 355.0 
484.00001515813443 48717.0 NaN 1513.3440213760846 0.5918345181279027 512.0 7.0 355.0 
486.00001515813443 48717.0 NaN 1510.126920507682 0.5913583301060503 512.0 6.0 355.0 
488.00001515813443 48737.0 NaN 1500.9752839011362 0.591795140260497 510.0 6.0 352.0 
490.00001515813443 48736.0 NaN 1497.9532398129606 0.5942436780501107 511.0 7.0 350.0 
492.00001515813443 48721.0 NaN 1491.7621910487637 0.5748807658984332 512.0 7.0 348.0 
494.00001515813443 48733.0 NaN 1497.9719438877746 0.5835835288548068 507.0 6.0 351.0 
496.00001515813443 48778.0 NaN 1494.8162992651978 0.5857784926243331 504.0 7.0 349.0 
498.00001515813443 48811.0 NaN 1494.8804275217094 0.5945729983771519 510.0 3.0 353.0 
500.00001515813443 48793.0 NaN 1494.925851703408 0.5956467051816836 506.0 5.0 351.0 
502.00001515813443 48792.0 NaN 1488.7107548430185 0.5963577886391949 510.0 7.0 347.0 
504.00001515813443 48793.0 NaN 1485.5604542418175 0.6095086587617359 508.0 9.0 344.0 
506.00001515813443 48862.0 NaN 1488.6492985971938 0.6189369867710406 511.0 5.0 349.0 
508.00001515813443 48868.0 NaN 1488.7935871743477 0.627266982938186 509.0 5.0 349.0 
510.00001515813443 48889.0 NaN 1491.8530394121567 0.622446542585163 510.0 4.0 351.0 
512.0000151581345 48864.0 NaN 1494.853707414829 0.6104260332521044 510.0 3.0 353.0 
514.0000151581345 48843.0 NaN 1494.8243152972618 0.6213109839523024 511.0 3.0 353.0 
516.0000151581345 48895.0 NaN 1491.7889111556453 0.6278154358475249 511.0 3.0 352.0 
518.0000151581345 48882.0 NaN 1479.5778223112898 0.6173417218072299 507.0 3.0 348.0 
520.0000151581345 48890.0 NaN 1473.4268537074156 0.6127180513018582 508.0 4.0 345.0 
522.0000151581345 48880.0 NaN 1470.3139612558455 0.6167882830196562 511.0 3.0 345.0 
524.0000151581345 48868.0 NaN 1461.082164328657 0.6260132424989939 504.0 3.0 342.0 
526.0000151581345 48901.0 NaN 1457.9853039412164 0.6059872125441604 505.0 3.0 341.0 
528.0000151581345 48920.0 NaN 1458.0734802939205 0.6061311976231201 503.0 3.0 341.0 
530.0000151581345 48913.0 NaN 1461.0928523714092 0.5989497511649613 501.0 5.0 340.0 
532.0000151581345 48925.0 NaN 1464.1576486305937 0.6025857803777817 508.0 3.0 343.0 
534.0000151581345 48927.0 NaN 1464.0801603206423 0.606132312844429 507.0 4.0 342.0 
536.0000151581345 48946.0 NaN 1467.190380761524 0.6106473317465112 509.0 3.0 344.0 
538.0000151581345 48937.0 NaN 1470.300601202406 0.6131992250171717 510.0 3.0 345.0 
540.0000151581345 48931.0 NaN 1470.2738810955252 0.6247945362599265 508.0 4.0 344.0 
542.0000151581345 48945.0 NaN 1470.2818971275892 0.6263122758205969 510.0 3.0 345.0 
544.0000151581345 48949.0 NaN 1476.392785571143 0.6303407443680066 512.0 3.0 347.0 
546.0000151581345 48966.0 NaN 1476.4542418169667 0.6393533504786404 511.0 3.0 347.0 
548.0000151581345 48954.0 NaN 1476.486305945224 0.6347728425562378 511.0 3.0 347.0 
550.0000151581345 48956.0 NaN 1470.354041416165 0.6314408580004405 509.0 4.0 344.0 
552.0000151581345 48961.0 NaN 1476.4889779559112 0.6300853443259743 516.0 3.0 347.0 
554.0000151581345 48977.0 NaN 1479.4468937875745 0.6323481348000882 518.0 3.0 348.0 
556.0000151581345 49009.0 NaN 1479.5591182364726 0.6137280587985295 519.0 2.0 349.0 
558.0000151581345 49040.0 NaN 1479.4896459585832 0.6161862631376916 518.0 3.0 348.0 
560.0000151581345 49035.0 NaN 1467.2037408149636 0.6019901386057884 515.0 4.0 343.0 
562.0000151581345 49061.0 NaN 1467.1476285905146 0.606205468770914 511.0 3.0 344.0 
564.0000151581345 49030.0 NaN 1470.2364729458914 0.6073482912283467 509.0 5.0 343.0 
566.0000151581345 49059.0 NaN 1473.3440213760853 0.6222041598500049 509.0 7.0 342.0 
568.0000151581345 49082.0 NaN 1479.513694054776 0.6259516333871842 510.0 6.0 345.0 
570.0000151581345 49105.0 NaN 1479.5270541082168 0.6252527688372406 510.0 8.0 343.0 
572.0000151581345 49168.0 NaN 1479.4843019372083 0.6291496765090927 510.0 7.0 344.0 
574.0000151581345 49099.0 NaN 1482.5090180360726 0.6216435529421436 510.0 7.0 345.0 
576.0000151581345 49092.0 NaN 1491.7568470273889 0.6344702075544446 513.0 8.0 347.0 
578.0000151581345 49109.0 NaN 1485.645958583835 0.6494305207644878 511.0 10.0 343.0 
580.0000151581345 49118.0 NaN 1485.587174348698 0.6437558884937226 511.0 12.0 341.0 
582.0000151581345 49161.0 NaN 1485.6753507014018 0.6583730258745517 509.0 11.0 342.0 
584.0000151581345 49190.0 NaN 1482.4903139612554 0.6692199154753798 515.0 11.0 341.0 
586.0000151581345 49186.0 NaN 1482.5250501002 0.6479420963813188 513.0 11.0 341.0 
588.0000151581345 49200.0 NaN 1482.527722110889 0.6338702458202041 513.0 11.0 341.0 
590.0000151581345 49221.0 NaN 1485.6058784235124 0.6385684817365687 512.0 12.0 341.0 
592.0000151581345 49235.0 NaN 1491.7301269205082 0.6462641123324115 515.0 11.0 344.0 
594.0000151581345 49225.0 NaN 1488.6546426185714 0.6060313542219745 516.0 11.0 343.0 
596.0000151581345 49190.0 NaN 1488.7107548430185 0.6020824937501763 516.0 12.0 342.0 
598.0000151581345 49236.0 NaN 1479.5484301937204 0.6192674674965796 513.0 12.0 339.0 
600.0000151581345 49272.0 NaN 1485.587174348698 0.6388900653220481 517.0 12.0 341.0 
602.0000151581345 49235.0 NaN 1482.5330661322641 0.6423761160564707 516.0 12.0 340.0 
604.0000151581345 49227.0 NaN 1482.4822979291912 0.6310478881100119 515.0 12.0 340.0 
606.0000151581345 49189.0 NaN 1488.705410821644 0.6147933920240755 513.0 12.0 342.0 
608.0000151581345 49216.0 NaN 1491.7808951235809 0.6233735924256366 516.0 12.0 343.0 
610.0000151581345 49258.0 NaN 1497.9505678022717 0.6268974720094532 516.0 12.0 345.0 
612.0000151581345 49266.0 NaN 1497.849031396126 0.6278342800663131 517.0 12.0 345.0 
614.0000151581345 49274.0 NaN 1497.8329993319983 0.6276390106528331 515.0 12.0 345.0 
616.0000151581345 49226.0 NaN 1494.7842351369395 0.6246351061565334 516.0 12.0 344.0 
618.0000151581345 49227.0 NaN 1491.8049432197727 0.6307746300716439 515.0 12.0 343.0 
620.0000151581345 49244.0 NaN 1500.967267869072 0.6176448931869437 516.0 12.0 346.0 
622.0000151581345 49241.0 NaN 1500.9886439545746 0.6257074476165372 514.0 12.0 346.0 
624.0000151581345 49241.0 NaN 1504.018704074817 0.6374902318269685 513.0 12.0 347.0 
626.0000151581345 49192.0 NaN 1507.169004676018 0.6335194398099728 511.0 12.0 348.0 
628.0000151581345 49178.0 NaN 1510.3059452237817 0.6265646665694482 517.0 12.0 349.0 
630.0000151581345 49180.0 NaN 1507.241148964597 0.6356173628046916 516.0 12.0 348.0 
632.0000151581345 49169.0 NaN 1510.257849031397 0.6392646415113963 513.0 12.0 349.0 
634.0000151581345 49163.0 NaN 1516.4248496993998 0.651132006029993 513.0 12.0 351.0 
636.0000151581345 49163.0 NaN 1516.4328657314636 0.6526444595547024 515.0 12.0 351.0 
638.0000151581345 49115.0 NaN 1516.4408817635274 0.6430790940161795 514.0 12.0 351.0 
640.0000151581345 49092.0 NaN 1513.3493653974624 0.6324131645618303 514.0 12.0 350.0 
642.0000151581345 49071.0 NaN 1516.3927855711433 0.6146480207486903 514.0 12.0 351.0 
644.0000151581345 49078.0 NaN 1510.2391449565807 0.6192893460823564 511.0 12.0 349.0 
646.0000151581345 49067.0 NaN 1510.2444889779554 0.6112727998165973 510.0 12.0 349.0 
648.0000151581345 49056.0 NaN 1516.427521710088 0.6117676805735482 511.0 12.0 351.0 
650.0000151581345 49042.0 NaN 1519.5030060120253 0.6066182438778686 507.0 12.0 352.0 
652.0000151581345 49032.0 NaN 1516.3981295925182 0.6163108263513069 507.0 12.0 351.0 
654.0000151581345 49045.0 NaN 1516.3580494321989 0.6242117441344787 507.0 12.0 351.0 
656.0000151581345 49082.0 NaN 1516.3874415497655 0.6278311006860344 506.0 12.0 351.0 
658.0000151581345 49109.0 NaN 1522.5571142284562 0.6332774336322177 505.0 12.0 353.0 
660.0000151581345 49109.0 NaN 1531.802271209084 0.6383902510441182 501.0 13.0 355.0 
662.0000151581345 49094.0 NaN 1531.7942551770202 0.637381752256517 500.0 13.0 355.0 
664.0000151581345 49066.0 NaN 1531.68470273881 0.6406509641006698 505.0 12.0 356.0 
#####################################################################
# End of data export. Simulation finished at: 2019-03-05T14:55+0000 #
#####################################################################
