#####################################################################
# Alchemist log file - simulation started at: 2019-03-21T17:00+0000 #
#####################################################################
# seed = 9.0, bandwidth = 5623413.251903491, propagationDelay = 10.0, baserange = 56.234132519034915
#
# The columns have the following meaning: 
# time neighbor_count[Sum] <value>@neighbor_count[Sum] packet_size[Mean] mean_delay[Mean] crowd[Sum] overcrowded[Sum] risk[Sum] 
0.0 NaN NaN NaN NaN NaN NaN NaN 
2.0003374459614243 NaN NaN 4988.0 NaN 1497.0 0.0 1497.0 
4.000337445961424 NaN NaN 4988.0 NaN 1497.0 0.0 1497.0 
6.000337445961424 NaN NaN 4988.0 NaN 1497.0 0.0 1497.0 
8.000337445961424 NaN NaN 4988.0 NaN 1497.0 0.0 1497.0 
10.000337445961424 NaN NaN 4988.0 NaN 1497.0 0.0 1497.0 
12.000337445961424 6164.0 NaN 4996.0 1.005800320987799 1497.0 0.0 1497.0 
14.000337445961424 6164.0 NaN 4995.706078824315 3.0058003209877993 1497.0 0.0 1497.0 
16.000337445961424 6164.0 NaN 4995.551102204408 5.005800320987799 1497.0 0.0 1497.0 
18.000337445961424 6164.0 NaN 4995.583166332665 7.005800320987799 1497.0 0.0 1497.0 
20.000337445961424 6164.0 NaN 4995.559118236473 9.005800320987799 1497.0 0.0 1497.0 
22.00000141013254 6176.0 NaN 4997.140948563794 5.494227274183997 1497.0 0.0 1497.0 
24.000337445961424 6189.0 NaN 4994.196392785571 2.026464602172304 1490.0 7.0 1490.0 
26.000337445961424 6189.0 NaN 4993.11957247829 4.026464602172304 1490.0 7.0 1490.0 
28.000337445961424 6189.0 NaN 4993.148964595858 6.026464602172304 1490.0 7.0 1490.0 
30.000337445961424 6189.0 NaN 4993.13293253173 8.026464602172304 1490.0 7.0 1490.0 
32.00033744596142 6185.0 NaN 4993.130260521042 10.005350321231653 1490.0 7.0 1490.0 
34.00033744596142 6224.0 NaN 4995.072812291249 1.0544455380959243 1479.0 18.0 1479.0 
36.00033744596142 6224.0 NaN 4994.287241148964 3.054445538095924 1479.0 18.0 1479.0 
38.00033744596142 6224.0 NaN 4994.215096860387 5.054445538095925 1479.0 18.0 1479.0 
40.00033744596142 6224.0 NaN 4994.201736806947 7.054445538095925 1479.0 18.0 1479.0 
42.00033744596142 6214.0 NaN 4994.191048764195 9.03760697327046 1479.0 18.0 1479.0 
44.00000141013254 6238.0 NaN 4995.382765531062 5.487791738464803 1480.0 17.0 1480.0 
46.00033744596142 6274.0 NaN 4993.58450233801 2.0603723201637667 1475.0 22.0 1475.0 
48.00033744596142 6274.0 NaN 4992.836339345357 4.060372320163767 1475.0 22.0 1475.0 
50.00033744596142 6274.0 NaN 4992.825651302605 6.060372320163767 1475.0 22.0 1475.0 
52.00033744596142 6274.0 NaN 4992.798931195724 8.060372320163767 1475.0 22.0 1475.0 
54.00033744596142 6228.0 NaN 4992.833667334669 10.006416573580427 1474.0 23.0 1474.0 
56.00033744596142 6339.0 NaN 4994.284569138276 1.090556006591613 1472.0 25.0 1472.0 
58.00033744596142 6339.0 NaN 4993.782231128925 3.090556006591613 1471.0 26.0 1471.0 
60.00033744596142 6339.0 NaN 4993.691382765531 5.090556006591613 1471.0 26.0 1471.0 
62.00033744596142 6339.0 NaN 1522.2952571810274 7.090556006591613 813.0 24.0 341.0 
64.00033744596142 6307.0 NaN 1522.297929191718 9.054857349233535 813.0 24.0 341.0 
66.00000141013254 6325.0 NaN 1522.6586506346027 5.50194359633671 734.0 24.0 341.0 
68.00033744596142 6386.0 NaN 1522.37541750167 2.1298999153894616 640.0 30.0 335.0 
70.00033744596142 6386.0 NaN 1522.0654642618572 4.129899915389462 640.0 30.0 335.0 
72.00033744596142 6386.0 NaN 1522.054776219106 6.129899915389461 640.0 30.0 335.0 
74.00033744596142 6386.0 NaN 1525.1356045424182 8.129899915389462 640.0 30.0 336.0 
76.00033744596142 6259.0 NaN 1525.1302605210424 10.005600177672795 639.0 30.0 336.0 
78.00033744596142 6391.0 NaN 1528.6118904475636 1.1388501939051063 576.0 32.0 335.0 
80.00033744596142 6391.0 NaN 1528.072144288576 3.1388501939051063 576.0 32.0 335.0 
82.00033744596142 6391.0 NaN 1528.0480961923845 5.138850193905107 576.0 32.0 335.0 
84.00033744596142 6391.0 NaN 1528.064128256512 7.138850193905107 576.0 32.0 335.0 
86.00033744596142 6339.0 NaN 1528.0801603206426 9.086690865142122 574.0 32.0 335.0 
88.00033744596142 6297.0 NaN 1528.2484969939883 5.506779318950396 563.0 33.0 334.0 
90.00033744596142 6331.0 NaN 1531.1342685370728 2.1164320552592453 546.0 37.0 331.0 
92.00033744596142 6331.0 NaN 1530.9311957247817 4.116432055259245 546.0 37.0 331.0 
94.00033744596142 6331.0 NaN 1530.9472277889092 6.116432055259244 546.0 37.0 331.0 
96.00033744596142 6331.0 NaN 1530.9579158316637 8.116432055259244 545.0 37.0 331.0 
98.00033744596142 6228.0 NaN 1530.963259853039 10.007055121721194 545.0 37.0 331.0 
100.00033744596142 6306.0 NaN 1531.3426853707424 1.0798302096856935 517.0 39.0 329.0 
102.00033744596142 6306.0 NaN 1533.9692718770877 3.079830209685694 518.0 38.0 331.0 
104.00033744596142 6306.0 NaN 1533.9692718770877 5.079830209685694 518.0 38.0 331.0 
106.00033744596142 6306.0 NaN 1533.9746158984635 7.079830209685694 517.0 38.0 331.0 
108.00033744596142 6277.0 NaN 1533.9772879091518 9.0390013372257 517.0 38.0 331.0 
110.00033744596142 6283.0 NaN 1537.2130928523725 5.4984113896126345 509.0 41.0 329.0 
112.00033744596142 6326.0 NaN 1537.047428189712 2.123130516786834 497.0 47.0 323.0 
114.00033744596142 6326.0 NaN 1536.9325317301273 4.1231305167868335 497.0 47.0 323.0 
116.00033744596142 6326.0 NaN 1536.9164996659997 6.123130516786834 497.0 47.0 323.0 
118.00033744596142 6326.0 NaN 1536.9271877087515 8.123130516786834 497.0 47.0 323.0 
120.00033744596142 6240.0 NaN 1536.9512358049453 10.006449334091498 496.0 48.0 322.0 
122.00033744596142 6366.0 NaN 1546.5063460253818 1.1676331165233664 489.0 48.0 325.0 
124.00033744596142 6366.0 NaN 1546.209752839009 3.1676331165233664 492.0 45.0 328.0 
126.00033744596142 6366.0 NaN 1546.2017368069457 5.167633116523366 492.0 45.0 328.0 
128.0003374459614 6366.0 NaN 1546.1696726786909 7.167633116523366 492.0 45.0 328.0 
130.0003374459614 6315.0 NaN 1546.1696726786909 9.112544138931074 492.0 45.0 328.0 
132.0003374459614 6306.0 NaN 1549.4375417501667 5.515475764897945 489.0 47.0 327.0 
134.0003374459614 6365.0 NaN 1546.1803607214429 2.1667054574193414 487.0 48.0 325.0 
136.0003374459614 6365.0 NaN 1543.0273881095545 4.166705457419342 485.0 49.0 323.0 
138.0003374459614 6365.0 NaN 1536.8844355377425 6.166705457419342 486.0 48.0 322.0 
140.0003374459614 6365.0 NaN 1536.9004676018726 8.166705457419342 486.0 48.0 322.0 
142.0003374459614 6242.0 NaN 1533.8223112892456 10.008075937292864 487.0 47.0 322.0 
144.0003374459614 6392.0 NaN 1540.4542418169667 1.1645301173880713 502.0 31.0 340.0 
146.0003374459614 6392.0 NaN 1540.128256513027 3.1645301173880718 502.0 31.0 340.0 
148.0003374459614 6392.0 NaN 1540.1442885771546 5.164530117388071 502.0 31.0 340.0 
150.0003374459614 6392.0 NaN 1540.1736806947245 7.164530117388072 502.0 31.0 340.0 
152.0003374459614 6328.0 NaN 1540.1469605878426 9.097561972106666 502.0 31.0 340.0 
154.0003374459614 6309.0 NaN 1543.5136940547757 5.5753891452340305 496.0 37.0 335.0 
156.0003374459614 6361.0 NaN 1543.289245156982 2.252847989071623 501.0 34.0 338.0 
158.0003374459614 6361.0 NaN 1537.047428189712 4.252847989071623 501.0 34.0 336.0 
160.0003374459614 6361.0 NaN 1533.9692718770877 6.252847989071623 501.0 34.0 335.0 
162.0003374459614 6361.0 NaN 1533.9532398129606 8.252847989071624 501.0 34.0 335.0 
164.0003374459614 6205.0 NaN 1533.9906479625906 10.006384926407048 501.0 34.0 335.0 
166.0003374459614 6305.0 NaN 1540.3687374749484 1.1076613720812483 494.0 38.0 333.0 
168.0003374459614 6305.0 NaN 1540.0855043420183 3.107661372081248 495.0 37.0 334.0 
170.0003374459614 6305.0 NaN 1540.0908483633937 5.107661372081249 493.0 39.0 332.0 
172.0003374459614 6305.0 NaN 1540.0801603206426 7.107661372081249 493.0 39.0 332.0 
174.0003374459614 6252.0 NaN 1540.0694722778908 9.064461747014038 493.0 39.0 332.0 
176.0003374459614 6244.0 NaN 1543.409485637943 5.559889104631813 495.0 37.0 335.0 
178.0003374459614 6301.0 NaN 1546.2899131596544 2.2072511202005094 499.0 34.0 339.0 
180.0003374459614 6301.0 NaN 1540.024048096191 4.207251120200509 501.0 32.0 339.0 
182.0003374459614 6301.0 NaN 1540.0 6.207251120200509 501.0 32.0 339.0 
184.0003374459614 6301.0 NaN 1539.983967935873 8.20725112020051 501.0 32.0 339.0 
186.0003374459614 6175.0 NaN 1533.8704074816296 10.005562656394902 499.0 33.0 336.0 
188.0003374459614 6294.0 NaN 1540.3954575818298 1.154436392836319 494.0 36.0 335.0 
190.0003374459614 6294.0 NaN 1537.0821643286572 3.154436392836319 494.0 36.0 334.0 
192.0003374459614 6294.0 NaN 1533.9612558450244 5.1544363928363195 494.0 36.0 333.0 
194.0003374459614 6294.0 NaN 1530.8937875751517 7.1544363928363195 494.0 36.0 332.0 
196.0003374459614 6228.0 NaN 1530.9525718102882 9.092218944938702 493.0 37.0 331.0 
198.0003374459614 6202.0 NaN 1531.1716766867069 5.560166273248177 492.0 38.0 330.0 
200.0003374459614 6253.0 NaN 1534.0627922511699 2.2031157455070383 496.0 36.0 333.0 
202.0003374459614 6253.0 NaN 1533.9131596526363 4.203115745507039 495.0 37.0 332.0 
204.0003374459614 6253.0 NaN 1533.9398797595181 6.203115745507038 495.0 37.0 332.0 
206.0003374459614 6253.0 NaN 1530.8937875751517 8.203115745507038 494.0 37.0 331.0 
208.0003374459614 6106.0 NaN 1530.8991315965275 10.006303931590606 494.0 37.0 331.0 
210.0003374459614 6194.0 NaN 1537.3306613226455 1.2675797631970005 481.0 49.0 321.0 
212.0003374459614 6194.0 NaN 1536.9672678690727 3.267579763197002 481.0 49.0 321.0 
214.0003374459614 6194.0 NaN 1530.8162992651974 5.267579763197001 480.0 49.0 319.0 
216.0003374459614 6194.0 NaN 1530.8189712758845 7.267579763197001 479.0 49.0 319.0 
218.0003374459614 6131.0 NaN 1530.8136272545091 9.15470549691213 477.0 50.0 318.0 
220.0003374459614 6114.0 NaN 1534.1189044756184 5.547614440923255 475.0 52.0 317.0 
222.0003374459614 6177.0 NaN 1530.880427521709 2.1758313018154785 479.0 48.0 320.0 
224.0003374459614 6177.0 NaN 1530.7628590514364 4.175831301815478 478.0 48.0 320.0 
226.0003374459614 6177.0 NaN 1530.7735470941884 6.175831301815478 479.0 48.0 320.0 
228.0003374459614 6177.0 NaN 1530.7735470941884 8.175831301815478 479.0 48.0 320.0 
230.0003374459614 6033.0 NaN 1530.794923179691 10.00490538318091 479.0 48.0 320.0 
232.0003374459614 6133.0 NaN 1537.1917167668666 1.215330107106586 485.0 43.0 327.0 
234.0003374459614 6133.0 NaN 1536.8924515698066 3.215330107106586 485.0 43.0 327.0 
236.0003374459614 6133.0 NaN 1533.8383433533727 5.215330107106586 484.0 43.0 326.0 
238.0003374459614 6133.0 NaN 1533.857047428191 7.215330107106586 485.0 43.0 326.0 
240.0003374459614 6059.0 NaN 1530.794923179691 9.1273079596952 486.0 42.0 326.0 
242.0003374459614 6018.0 NaN 1530.960587842352 5.560661401121361 478.0 46.0 322.0 
244.0003374459614 6067.0 NaN 1533.8543754175003 2.237241560856585 475.0 47.0 322.0 
246.0003374459614 6067.0 NaN 1530.725450901803 4.237241560856585 476.0 46.0 322.0 
248.0003374459614 6067.0 NaN 1524.598530394121 6.237241560856586 477.0 45.0 321.0 
250.0003374459614 6067.0 NaN 1524.58784235137 8.237241560856587 477.0 45.0 321.0 
252.0003374459614 5963.0 NaN 1524.58784235137 10.005164652632676 476.0 45.0 321.0 
254.0003374459614 6059.0 NaN 1527.8663994655997 1.19355865205225 478.0 43.0 324.0 
256.0003374459614 6059.0 NaN 1524.5771543086182 3.19355865205225 478.0 42.0 324.0 
258.0003374459614 6059.0 NaN 1521.496325985303 5.19355865205225 478.0 42.0 323.0 
260.0003374459614 6059.0 NaN 1524.5744822979275 7.19355865205225 478.0 42.0 324.0 
262.0003374459614 6004.0 NaN 1521.5203740814973 9.1090935510922 477.0 42.0 323.0 
264.0003374459614 5989.0 NaN 1524.6920507682025 5.569160324562257 476.0 42.0 324.0 
266.0003374459614 6042.0 NaN 1524.6172344689367 2.2559985376382348 477.0 42.0 324.0 
268.0003374459614 6042.0 NaN 1524.5851703406818 4.255998537638234 476.0 42.0 324.0 
270.0003374459614 6042.0 NaN 1518.439545758182 6.255998537638234 475.0 42.0 322.0 
272.0003374459614 6042.0 NaN 1524.5290581162335 8.255998537638234 476.0 42.0 324.0 
274.0003374459614 5903.0 NaN 1524.5718102872424 10.00789330172264 475.0 42.0 324.0 
276.0003374459614 5998.0 NaN 1537.0554442217756 1.2441158521502502 476.0 43.0 327.0 
278.0003374459614 5998.0 NaN 1536.8390113560454 3.2441158521502507 475.0 43.0 327.0 
280.0003374459614 5998.0 NaN 1533.774215096861 5.2441158521502516 475.0 43.0 326.0 
282.0003374459614 5998.0 NaN 1533.763527054109 7.2441158521502516 475.0 43.0 326.0 
284.0003374459614 5941.0 NaN 1533.7661990647973 9.133403280816895 474.0 42.0 327.0 
286.0003374459614 5916.0 NaN 1533.8997995992 5.556518395353924 475.0 42.0 327.0 
288.0003374459614 5966.0 NaN 1533.8383433533727 2.266334053882325 477.0 40.0 329.0 
290.0003374459614 5966.0 NaN 1530.7281229124908 4.266334053882325 477.0 40.0 328.0 
292.0003374459614 5966.0 NaN 1527.6526386105547 6.266334053882325 477.0 40.0 327.0 
294.0003374459614 5966.0 NaN 1527.7060788243157 8.266334053882325 474.0 40.0 327.0 
296.0003374459614 5804.0 NaN 1524.6118904475634 10.007181350070354 474.0 40.0 326.0 
298.0003374459614 5884.0 NaN 1527.8717434869727 1.2958699806399419 481.0 34.0 333.0 
300.0003374459614 5884.0 NaN 1527.5457581830337 3.2958699806399414 481.0 34.0 333.0 
302.0003374459614 5884.0 NaN 1518.3460253841001 5.295869980639941 481.0 34.0 330.0 
304.0003374459614 5884.0 NaN 1518.3567134268546 7.2958699806399405 479.0 34.0 330.0 
306.0003374459614 5827.0 NaN 1518.3593854375426 9.19854986065832 478.0 34.0 330.0 
308.0003374459614 5804.0 NaN 1521.565798263191 5.532368122470235 478.0 34.0 331.0 
310.0003374459614 5845.0 NaN 1530.8296593186365 2.2188319644106302 479.0 34.0 334.0 
312.0003374459614 5845.0 NaN 1530.7094188376752 4.21883196441063 479.0 34.0 334.0 
314.0003374459614 5845.0 NaN 1524.5718102872424 6.21883196441063 477.0 34.0 332.0 
316.0003374459614 5845.0 NaN 1524.5691382765542 8.21883196441063 477.0 34.0 332.0 
318.0003374459614 5761.0 NaN 1521.493653974618 10.005701269298827 475.0 34.0 331.0 
320.0003374459614 5851.0 NaN 1530.9392117568457 1.2488927339031786 477.0 35.0 333.0 
322.0003374459614 5851.0 NaN 1530.706746826988 3.2488927339031783 476.0 35.0 333.0 
324.0003374459614 5851.0 NaN 1524.5771543086184 5.248892733903179 474.0 35.0 331.0 
326.0003374459614 5851.0 NaN 1524.5931863727455 7.248892733903178 474.0 35.0 331.0 
328.0003374459614 5797.0 NaN 1524.5718102872424 9.160032924148064 474.0 35.0 331.0 
330.0003374459614 5778.0 NaN 1524.7428189712755 5.497352396824493 468.0 40.0 326.0 
332.0003374459614 5828.0 NaN 1530.8456913827638 2.165608941624481 470.0 40.0 328.0 
334.0003374459614 5828.0 NaN 1527.6980627922514 4.16560894162448 469.0 40.0 327.0 
336.0003374459614 5828.0 NaN 1527.695390781564 6.165608941624481 470.0 40.0 327.0 
338.0003374459614 5828.0 NaN 1527.6392785571152 8.16560894162448 469.0 40.0 327.0 
340.0003374459614 5741.0 NaN 1527.6098864395453 10.005799898617747 468.0 40.0 327.0 
342.0003374459614 5845.0 NaN 1534.094856379427 1.270441270347024 467.0 43.0 326.0 
344.0003374459614 5845.0 NaN 1533.7448229792908 3.270441270347024 467.0 43.0 326.0 
346.0003374459614 5845.0 NaN 1527.6285905143634 5.270441270347023 466.0 43.0 324.0 
348.0003374459614 5845.0 NaN 1530.680026720109 7.270441270347024 468.0 42.0 326.0 
350.0003374459614 5799.0 NaN 1530.680026720109 9.16634027104269 467.0 43.0 325.0 
352.0003374459614 5785.0 NaN 1530.8056112224456 5.5332492670395705 474.0 39.0 329.0 
354.0003374459614 5835.0 NaN 1527.6579826319298 2.1719806364678726 476.0 34.0 333.0 
356.0003374459614 5835.0 NaN 1521.4028056112213 4.171980636467873 475.0 34.0 331.0 
358.0003374459614 5835.0 NaN 1521.432197728791 6.171980636467873 475.0 34.0 331.0 
360.0003374459614 5835.0 NaN 1521.4375417501667 8.171980636467874 474.0 34.0 331.0 
362.0003374459614 5769.0 NaN 1521.4241816967274 10.004645896779223 474.0 34.0 331.0 
364.0003374459614 5855.0 NaN 1527.935871743488 1.2528048297386714 478.0 34.0 333.0 
366.0003374459614 5855.0 NaN 1527.5858383433547 3.2528048297386722 478.0 34.0 333.0 
368.0003374459614 5855.0 NaN 1521.4081496325994 5.252804829738671 477.0 34.0 331.0 
370.0003374459614 5855.0 NaN 1518.3700734802933 7.252804829738672 476.0 34.0 330.0 
372.0003374459614 5801.0 NaN 1518.3567134268546 9.154741000349201 478.0 33.0 331.0 
374.0003374459614 5780.0 NaN 1521.667334669337 5.56307146931876 479.0 33.0 332.0 
376.0003374459614 5839.0 NaN 1521.5070140280552 2.256207991089083 480.0 33.0 332.0 
378.0003374459614 5839.0 NaN 1521.317301269206 4.2562079910890835 480.0 33.0 332.0 
380.0003374459614 5839.0 NaN 1512.1362725450908 6.2562079910890835 480.0 33.0 329.0 
382.0003374459614 5839.0 NaN 1512.146960587843 8.256207991089083 478.0 34.0 328.0 
384.0003374459614 5745.0 NaN 1512.1549766199068 10.005728635981573 478.0 34.0 328.0 
386.0003374459614 5861.0 NaN 1512.5878423513702 1.3163325861706905 483.0 34.0 328.0 
388.0003374459614 5861.0 NaN 1509.1569806279213 3.3163325861706907 483.0 34.0 327.0 
390.0003374459614 5861.0 NaN 1509.1489645958575 5.316332586170691 483.0 34.0 327.0 
392.0003374459614 5861.0 NaN 1506.0788243152979 7.316332586170691 484.0 34.0 326.0 
394.0003374459614 5815.0 NaN 1506.070808283234 9.181656234811665 484.0 34.0 326.0 
396.0003374459614 5813.0 NaN 1512.513026052103 5.519047695258141 484.0 34.0 328.0 
398.0003374459614 5870.0 NaN 1515.444221776888 2.242411056601729 487.0 34.0 329.0 
400.0003374459614 5870.0 NaN 1512.2805611222454 4.242411056601728 486.0 34.0 328.0 
402.0003374459614 5870.0 NaN 1515.361389445557 6.242411056601729 488.0 33.0 330.0 
404.0003374459614 5870.0 NaN 1512.3046092184363 8.242411056601728 488.0 33.0 329.0 
406.0003374459614 5755.0 NaN 1512.2271209084824 10.008078882176818 486.0 33.0 329.0 
408.0003374459614 5895.0 NaN 1521.8062792251176 1.22451839645981 489.0 33.0 332.0 
410.0003374459614 5895.0 NaN 1518.4021376085516 3.2245183964598105 489.0 33.0 331.0 
412.0003374459614 5895.0 NaN 1512.2458249832998 5.2245183964598105 488.0 33.0 329.0 
414.0003374459614 5895.0 NaN 1512.2565130260527 7.2245183964598105 488.0 33.0 329.0 
416.0003374459614 5850.0 NaN 1509.1703406813635 9.136527490937139 486.0 33.0 328.0 
418.0003374459614 5848.0 NaN 1521.6887107548434 5.604681038152972 484.0 33.0 332.0 
420.0003374459614 5900.0 NaN 1518.6052104208425 2.342184596835783 484.0 33.0 331.0 
422.0003374459614 5900.0 NaN 1515.3854375417511 4.342184596835783 483.0 33.0 330.0 
424.0003374459614 5900.0 NaN 1503.1342685370735 6.342184596835783 482.0 33.0 326.0 
426.0003374459614 5900.0 NaN 1506.2311289245163 8.342184596835784 483.0 33.0 327.0 
428.0003374459614 5741.0 NaN 1512.3340013360062 10.006129145637981 483.0 33.0 329.0 
430.0003374459614 5859.0 NaN 1534.263193052773 1.4232416503972307 490.0 33.0 336.0 
432.0003374459614 5859.0 NaN 1530.6372745490992 3.4232416503972307 491.0 33.0 335.0 
434.0003374459614 5859.0 NaN 1527.599198396793 5.42324165039723 490.0 33.0 334.0 
436.0003374459614 5859.0 NaN 1524.513026052103 7.42324165039723 490.0 33.0 333.0 
438.0003374459614 5786.0 NaN 1524.5263861055453 9.242285043844685 489.0 33.0 333.0 
440.0003374459614 5777.0 NaN 1530.8697394789574 5.5448567117757905 492.0 33.0 335.0 
442.0003374459614 5847.0 NaN 1543.1476285905153 2.276171829828011 494.0 34.0 338.0 
444.0003374459614 5847.0 NaN 1539.9305277221094 4.276171829828011 494.0 34.0 337.0 
446.0003374459614 5847.0 NaN 1536.8470273881092 6.276171829828011 494.0 34.0 336.0 
448.0003374459614 5847.0 NaN 1536.8416833667338 8.276171829828012 494.0 34.0 336.0 
450.0003374459614 5749.0 NaN 1539.938543754173 10.006638370004827 493.0 34.0 337.0 
452.0003374459614 5865.0 NaN 1552.630594522379 1.2132821531378672 492.0 37.0 338.0 
454.0003374459614 5865.0 NaN 1549.1623246493 3.2132821531378677 491.0 37.0 337.0 
456.0003374459614 5865.0 NaN 1543.0167000667998 5.213282153137868 491.0 37.0 335.0 
458.0003374459614 5865.0 NaN 1539.9305277221094 7.213282153137868 490.0 37.0 334.0 
460.0003374459614 5819.0 NaN 1539.9438877755515 9.135656315979253 489.0 37.0 334.0 
462.0003374459614 5809.0 NaN 1543.2251169004667 5.576764611931008 483.0 41.0 331.0 
464.0003374459614 5859.0 NaN 1540.1603206412817 2.304741519149443 482.0 42.0 329.0 
466.0003374459614 5859.0 NaN 1543.0460921843699 4.304741519149444 482.0 42.0 330.0 
468.0003374459614 5859.0 NaN 1530.7441549766186 6.304741519149443 481.0 42.0 326.0 
470.0003374459614 5859.0 NaN 1530.7655310621249 8.304741519149443 482.0 41.0 327.0 
472.0003374459614 5715.0 NaN 1530.7227788911157 10.0029740681328 482.0 41.0 327.0 
474.0003374459614 5795.0 NaN 1534.0814963259845 1.2278029275304012 484.0 37.0 332.0 
476.0003374459614 5795.0 NaN 1533.7207748831001 3.227802927530401 484.0 37.0 332.0 
478.0003374459614 5795.0 NaN 1524.5290581162335 5.2278029275304005 484.0 37.0 329.0 
480.0003374459614 5795.0 NaN 1524.4969939879752 7.2278029275304005 484.0 37.0 329.0 
482.0003374459614 5755.0 NaN 1527.5457581830335 9.141396802992316 482.0 37.0 330.0 
484.0003374459614 5757.0 NaN 1527.7247828991303 5.571661790767436 483.0 37.0 330.0 
486.0003374459614 5811.0 NaN 1521.6806947227794 2.236520571131452 483.0 35.0 330.0 
488.0003374459614 5811.0 NaN 1506.19906479626 4.236520571131452 482.0 35.0 325.0 
490.0003374459614 5811.0 NaN 1500.0694722778899 6.236520571131452 481.0 35.0 323.0 
492.0003374459614 5811.0 NaN 1500.0507682030725 8.236520571131452 481.0 35.0 323.0 
494.0003374459614 5683.0 NaN 1497.0474281897118 10.00331705237429 480.0 35.0 322.0 
496.0003374459614 5771.0 NaN 1500.331329325318 1.2514190336479178 485.0 35.0 323.0 
498.0003374459614 5771.0 NaN 1493.6940547762185 3.2514190336479185 485.0 35.0 321.0 
500.0003374459614 5771.0 NaN 1478.3674014696064 5.251419033647918 484.0 35.0 316.0 
502.0003374459614 5771.0 NaN 1475.2972611890452 7.251419033647918 484.0 35.0 315.0 
504.0003374459614 5729.0 NaN 1475.3373413493648 9.15306806959479 484.0 35.0 315.0 
506.0003374459614 5719.0 NaN 1484.7828991315969 5.57757402184733 485.0 35.0 318.0 
508.0003374459614 5757.0 NaN 1491.0006680026725 2.2410972749691025 481.0 36.0 319.0 
510.0003374459614 5757.0 NaN 1490.8430193720787 4.2410972749691025 481.0 36.0 319.0 
512.0003374459613 5757.0 NaN 1481.6459585838352 6.2410972749691025 479.0 36.0 316.0 
514.0003374459613 5757.0 NaN 1481.6753507014018 8.241097274969102 479.0 36.0 316.0 
516.0003374459613 5676.0 NaN 1478.5918503674006 10.004895402374855 478.0 36.0 315.0 
518.0003374459613 5788.0 NaN 1481.7768871075477 1.1678156766878989 477.0 37.0 315.0 
520.0003374459613 5788.0 NaN 1478.4422177688718 3.167815676687899 477.0 37.0 314.0 
522.0003374459613 5788.0 NaN 1472.2965931863728 5.167815676687899 477.0 37.0 312.0 
524.0003374459613 5788.0 NaN 1466.1803607214435 7.1678156766878995 476.0 38.0 309.0 
526.0003374459613 5749.0 NaN 1463.1476285905153 9.105549655380065 474.0 38.0 308.0 
528.0003374459613 5754.0 NaN 1475.572478289912 5.563576739474319 480.0 38.0 312.0 
530.0003374459613 5808.0 NaN 1481.65130260521 2.265802292176737 482.0 38.0 314.0 
532.0003374459613 5808.0 NaN 1475.4281897127578 4.265802292176737 481.0 38.0 312.0 
534.0003374459613 5808.0 NaN 1469.32531730127 6.265802292176737 480.0 38.0 310.0 
536.0003374459613 5808.0 NaN 1469.3012692050759 8.265802292176737 480.0 38.0 310.0 
538.0003374459613 5687.0 NaN 1469.2798931195728 10.005183614725494 479.0 38.0 310.0 
540.0003374459613 5797.0 NaN 1472.5664662658644 1.266175106034283 480.0 37.0 312.0 
542.0003374459613 5797.0 NaN 1472.2672010688032 3.266175106034282 479.0 37.0 312.0 
544.0003374459613 5797.0 NaN 1466.1536406145633 5.266175106034283 478.0 37.0 310.0 
546.0003374459613 5797.0 NaN 1469.2077488309944 7.266175106034283 478.0 37.0 311.0 
548.0003374459613 5736.0 NaN 1469.1783567134273 9.14956499865837 478.0 37.0 311.0 
550.0003374459613 5731.0 NaN 1478.5838343353366 5.54392515091743 483.0 36.0 315.0 
552.0003374459613 5800.0 NaN 1481.5818303273204 2.228489062853638 487.0 35.0 317.0 
554.0003374459613 5800.0 NaN 1475.3640614562455 4.2284890628536385 487.0 35.0 315.0 
556.0003374459613 5800.0 NaN 1466.207080828324 6.2284890628536385 486.0 35.0 312.0 
558.0003374459613 5800.0 NaN 1469.2531730126914 8.228489062853638 486.0 35.0 313.0 
560.0003374459613 5705.0 NaN 1466.217768871075 10.00857336010281 484.0 35.0 312.0 
562.0003374459613 5806.0 NaN 1472.6038744154987 1.173104320707446 479.0 35.0 314.0 
564.0003374459613 5806.0 NaN 1472.272545090181 3.173104320707447 479.0 35.0 314.0 
566.0003374459613 5806.0 NaN 1466.1456245824988 5.173104320707447 477.0 35.0 312.0 
568.0003374459613 5806.0 NaN 1469.1890447561796 7.173104320707447 477.0 35.0 313.0 
570.0003374459613 5763.0 NaN 1469.1730126920515 9.092292643908406 477.0 35.0 313.0 
572.0003374459613 5792.0 NaN 1475.4762859051446 5.5795095272835304 479.0 35.0 315.0 
574.0003374459613 5871.0 NaN 1490.8670674682708 2.3216995863140615 485.0 34.0 321.0 
576.0003374459613 5871.0 NaN 1484.6118904475625 4.321699586314061 485.0 34.0 319.0 
578.0003374459613 5871.0 NaN 1478.4769539078163 6.321699586314061 484.0 34.0 317.0 
580.0003374459613 5871.0 NaN 1481.5497661990637 8.321699586314061 483.0 34.0 318.0 
582.0003374459613 5713.0 NaN 1481.5684702738818 10.007647409135453 482.0 34.0 318.0 
584.0003374459613 5841.0 NaN 1484.8630594522374 1.386645724465938 487.0 34.0 319.0 
586.0003374459613 5841.0 NaN 1484.6012024048089 3.386645724465937 487.0 34.0 319.0 
588.0003374459613 5841.0 NaN 1484.603874415499 5.386645724465937 487.0 34.0 319.0 
590.0003374459613 5841.0 NaN 1484.6172344689373 7.386645724465937 486.0 34.0 319.0 
592.0003374459613 5764.0 NaN 1487.668670674682 9.223625066765702 486.0 34.0 320.0 
594.0003374459613 5748.0 NaN 1494.0066800267193 5.6134166137724115 489.0 34.0 322.0 
596.0003374459613 5832.0 NaN 1490.8830995323988 2.3838983193757497 494.0 34.0 321.0 
598.0003374459613 5832.0 NaN 1490.7842351369397 4.38389831937575 493.0 34.0 321.0 
600.0003374459613 5832.0 NaN 1490.789579158317 6.38389831937575 493.0 34.0 321.0 
602.0003374459613 5832.0 NaN 1496.916499665999 8.38389831937575 493.0 34.0 323.0 
604.0003374459613 5656.0 NaN 1493.873079492318 10.00338775986267 491.0 34.0 322.0 
606.0003374459613 5839.0 NaN 1500.3233132932537 1.3135414498267635 497.0 34.0 324.0 
608.0003374459613 5839.0 NaN 1496.8470273881092 3.3135414498267632 496.0 34.0 323.0 
610.0003374459613 5839.0 NaN 1490.728122912491 5.313541449826762 496.0 34.0 321.0 
612.0003374459613 5839.0 NaN 1490.7094188376748 7.313541449826762 496.0 34.0 321.0 
614.0003374459613 5777.0 NaN 1490.7040748163 9.179244676732814 497.0 34.0 321.0 
616.0003374459613 5781.0 NaN 1503.2598530394112 5.568138199810911 493.0 35.0 324.0 
618.0003374459613 5865.0 NaN 1509.432197728791 2.24201091325134 494.0 36.0 325.0 
620.0003374459613 5865.0 NaN 1509.271877087509 4.24201091325134 494.0 36.0 325.0 
622.0003374459613 5865.0 NaN 1503.131596526385 6.242010913251339 493.0 36.0 323.0 
624.0003374459613 5865.0 NaN 1503.131596526385 8.24201091325134 495.0 36.0 323.0 
626.0003374459613 5752.0 NaN 1503.1663326653304 10.002562235943216 494.0 36.0 323.0 
628.0003374459613 6006.0 NaN 1518.7788911155637 1.3302227638230135 488.0 42.0 322.0 
630.0003374459613 6006.0 NaN 1518.4368737474938 3.3302227638230137 488.0 42.0 322.0 
632.0003374459613 6006.0 NaN 1518.4849699398806 5.330222763823014 487.0 42.0 322.0 
634.0003374459613 6006.0 NaN 1518.4876419505667 7.330222763823015 487.0 42.0 322.0 
636.0003374459613 5925.0 NaN 1518.5303941215757 9.187527869588106 485.0 42.0 322.0 
638.0003374459613 5909.0 NaN 1521.8196392785567 5.627883559848564 493.0 41.0 324.0 
640.0003374459613 5994.0 NaN 1524.6733466933879 2.3038935384706107 497.0 36.0 330.0 
642.0003374459613 5994.0 NaN 1524.4836339345366 4.303893538470613 496.0 37.0 329.0 
644.0003374459613 5994.0 NaN 1524.4756179024728 6.3038935384706125 494.0 37.0 329.0 
646.0003374459613 5994.0 NaN 1521.3894455577818 8.303893538470613 494.0 37.0 328.0 
648.0003374459613 5791.0 NaN 1521.3787575150293 10.005033199856447 492.0 37.0 328.0 
650.0003374459613 5965.0 NaN 1527.8503674014705 1.3414210959727324 498.0 35.0 332.0 
652.0003374459613 5965.0 NaN 1521.4455577822303 3.3414210959727324 499.0 35.0 330.0 
654.0003374459613 5965.0 NaN 1512.2725450901808 5.341421095972733 499.0 35.0 327.0 
656.0003374459613 5965.0 NaN 1515.3640614562453 7.341421095972732 498.0 35.0 328.0 
658.0003374459613 5892.0 NaN 1515.4094856379436 9.191447425549892 496.0 35.0 328.0 
660.0003374459613 5878.0 NaN 1521.7715430861729 5.618357009069539 491.0 37.0 328.0 
662.0003374459613 5962.0 NaN 1527.7595190380757 2.2795288403405616 482.0 39.0 328.0 
664.0003374459613 5962.0 NaN 1527.6472945891787 4.279528840340561 481.0 39.0 328.0 
#####################################################################
# End of data export. Simulation finished at: 2019-03-21T17:19+0000 #
#####################################################################
