#####################################################################
# Alchemist log file - simulation started at: 2019-03-05T20:56+0000 #
#####################################################################
# seed = 3.0, bandwidth = 316227.76601683797, propagationDelay = 10.0, baserange = 31.622776601683796
#
# The columns have the following meaning: 
# time neighbor_count[Sum] <value>@neighbor_count[Sum] packet_size[Mean] mean_delay[Mean] crowd[Sum] overcrowded[Sum] risk[Sum] 
0.0 NaN NaN NaN NaN NaN NaN NaN 
2.0005923698108097 NaN NaN 4988.0 NaN 1497.0 0.0 1497.0 
4.00059236981081 NaN NaN 4988.0 NaN 1497.0 0.0 1497.0 
6.000084666035003 NaN NaN 4988.0 NaN 1497.0 0.0 1497.0 
8.00059236981081 NaN NaN 4988.0 NaN 1497.0 0.0 1497.0 
10.00033353340315 NaN NaN 4988.0 NaN 1497.0 0.0 1497.0 
12.00059236981081 2794.0 NaN 4996.181696726787 0.9808753221148662 1497.0 0.0 1497.0 
14.00059236981081 2794.0 NaN 4994.578490313961 2.980875322114866 1497.0 0.0 1497.0 
16.000084666035004 2794.0 NaN 4994.062792251169 4.979456882398554 1497.0 0.0 1497.0 
18.00059236981081 2794.0 NaN 4994.076152304609 6.9808753221148665 1497.0 0.0 1497.0 
20.00033353340315 2794.0 NaN 4994.062792251169 8.979456882398555 1497.0 0.0 1497.0 
22.00040810620521 2802.0 NaN 4997.116900467602 5.742061419147656 1496.0 1.0 1496.0 
24.00059236981081 2810.0 NaN 4993.528390113561 2.041547492434702 1492.0 5.0 1492.0 
26.000084666035004 2810.0 NaN 4991.67134268537 4.040131061839801 1492.0 5.0 1492.0 
28.00059236981081 2810.0 NaN 4991.655310621242 6.041547492434702 1492.0 5.0 1492.0 
30.00033353340315 2810.0 NaN 4991.682030728123 8.040131061839801 1492.0 5.0 1492.0 
32.00059236981081 2809.0 NaN 4991.660654642618 10.036248764302176 1492.0 5.0 1492.0 
34.00059236981081 2818.0 NaN 4995.3694054776215 1.0510503430939553 1480.0 17.0 1480.0 
36.00008466603501 2818.0 NaN 4993.098196392785 3.0496379137154244 1480.0 17.0 1480.0 
38.00059236981081 2818.0 NaN 4992.924515698062 5.051050343093955 1480.0 17.0 1480.0 
40.00033353340315 2818.0 NaN 4992.927187708751 7.049637913715425 1480.0 17.0 1480.0 
42.00059236981081 2818.0 NaN 4992.924515698062 9.051050343093955 1480.0 17.0 1480.0 
44.00040810620521 2818.0 NaN 4994.599866399466 5.738679437719612 1471.0 26.0 1471.0 
46.00008466603501 2844.0 NaN 4992.363393453574 2.055380310623347 1457.0 40.0 1457.0 
48.00059236981081 2844.0 NaN 4991.217100868404 4.056796741218248 1457.0 40.0 1457.0 
50.00033353340315 2844.0 NaN 4991.214428857716 6.055380310623347 1457.0 40.0 1457.0 
52.00059236981081 2844.0 NaN 4991.155644622579 8.056796741218248 1457.0 40.0 1457.0 
54.00059236981081 2839.0 NaN 4991.177020708083 10.043488441343655 1457.0 40.0 1457.0 
56.00008466603501 2874.0 NaN 4994.0120240480965 1.1692697804514902 1440.0 57.0 1440.0 
58.00059236981081 2874.0 NaN 4993.108884435538 3.170684207608492 1440.0 57.0 1440.0 
60.00033353340315 2874.0 NaN 4992.945891783567 5.16926978045149 1440.0 57.0 1440.0 
62.00059236981081 2874.0 NaN 1521.493653974618 7.170684207608492 651.0 55.0 310.0 
64.00059236981082 2874.0 NaN 1521.5150300601185 9.170684207608492 651.0 55.0 310.0 
66.00008466603501 2844.0 NaN 1522.097528390112 5.749335399555164 600.0 63.0 302.0 
68.00059236981082 2869.0 NaN 1524.684034736139 2.0858074504519983 565.0 62.0 304.0 
70.00033353340315 2869.0 NaN 1524.3420173680702 4.084384975345313 565.0 62.0 304.0 
72.00059236981082 2869.0 NaN 1524.3233132932544 6.085807450451998 565.0 62.0 304.0 
74.00059236981082 2869.0 NaN 1524.3340013360062 8.085807450451998 565.0 62.0 304.0 
76.00008466603501 2857.0 NaN 1524.3126252504999 10.063741091027978 563.0 64.0 302.0 
78.00059236981082 2904.0 NaN 1531.1850367401457 1.1366544551926818 494.0 72.0 296.0 
80.00033353340315 2904.0 NaN 1530.567802271209 3.1352360154763703 494.0 72.0 296.0 
82.00059236981082 2904.0 NaN 1530.5330661322637 5.136654455192682 494.0 72.0 296.0 
84.00059236981082 2904.0 NaN 1530.5597862391458 7.136654455192683 494.0 72.0 296.0 
86.00008466603501 2904.0 NaN 1530.5116900467606 9.13523601547637 494.0 72.0 296.0 
88.00027805237796 2870.0 NaN 1534.0093520374091 5.68612403895511 483.0 68.0 301.0 
90.00033353340315 2887.0 NaN 1533.6219104876425 2.179046958123788 473.0 65.0 304.0 
92.00059236981082 2887.0 NaN 1533.3653974615909 4.1804653978401 473.0 65.0 304.0 
94.00059236981082 2887.0 NaN 1533.37875751503 6.180465397840099 473.0 65.0 304.0 
96.00008466603501 2887.0 NaN 1533.3680694722789 8.179046958123788 473.0 65.0 304.0 
98.00059236981082 2864.0 NaN 1533.4001336005363 10.143375533479983 474.0 64.0 305.0 
100.00033353340315 2839.0 NaN 1537.1863727454909 1.1508117273354566 450.0 66.0 304.0 
102.00059236981082 2839.0 NaN 1536.6252505010002 3.1522321818809114 450.0 66.0 304.0 
104.00059236981082 2839.0 NaN 1533.560454241818 5.152232181880911 450.0 66.0 303.0 
106.00008466603501 2839.0 NaN 1533.5390781563121 7.150811727335457 450.0 66.0 303.0 
108.00059236981082 2839.0 NaN 1533.584502338009 9.152232181880912 449.0 67.0 302.0 
110.00027805237796 2821.0 NaN 1533.9425517702086 5.668762164810118 440.0 67.0 302.0 
112.00059236981082 2852.0 NaN 1536.7027388109543 2.1367561954803165 433.0 69.0 301.0 
114.00059236981082 2852.0 NaN 1536.4676018704085 4.1367561954803165 433.0 69.0 301.0 
116.00008466603501 2852.0 NaN 1536.4515698062792 6.135343766101785 430.0 71.0 299.0 
118.00059236981082 2852.0 NaN 1536.5156980627912 8.136756195480316 431.0 70.0 300.0 
120.00033353340315 2837.0 NaN 1536.4916499666 10.088664524339839 432.0 69.0 301.0 
122.00059236981082 2881.0 NaN 1552.4328657314638 1.3097973801055005 424.0 74.0 301.0 
124.00059236981082 2881.0 NaN 1552.0080160320636 3.3097973801055005 424.0 74.0 301.0 
126.00008466603501 2881.0 NaN 1551.9652638610544 5.308394855561322 424.0 74.0 301.0 
128.00059236981082 2881.0 NaN 1552.0106880427522 7.3097973801055005 425.0 73.0 302.0 
130.00033353340314 2881.0 NaN 1551.9946559786242 9.308394855561321 425.0 73.0 302.0 
132.00027805237795 2813.0 NaN 1552.4168336673363 5.769265606633872 425.0 68.0 307.0 
134.00059236981082 2841.0 NaN 1552.018704074818 2.323563960132087 429.0 64.0 311.0 
136.000084666035 2841.0 NaN 1548.753507014027 4.322161435587908 430.0 63.0 311.0 
138.00059236981082 2841.0 NaN 1548.753507014027 6.323563960132087 430.0 63.0 311.0 
140.00033353340314 2841.0 NaN 1548.7855711422847 8.322161435587908 430.0 63.0 311.0 
142.00059236981082 2812.0 NaN 1545.6887107548432 10.203929671337205 427.0 63.0 310.0 
144.00059236981082 2837.0 NaN 1561.7100868403454 1.2294229987207104 422.0 66.0 312.0 
146.000084666035 2837.0 NaN 1558.1482965931846 3.228006568125809 422.0 66.0 311.0 
148.00059236981082 2837.0 NaN 1545.8623914495638 5.22942299872071 421.0 66.0 307.0 
150.00033353340314 2837.0 NaN 1545.87040748163 7.228006568125808 421.0 66.0 307.0 
152.00059236981082 2837.0 NaN 1545.8677354709423 9.22942299872071 421.0 66.0 307.0 
154.00027805237795 2835.0 NaN 1543.2277889111542 5.704629279135016 425.0 63.0 309.0 
156.000084666035 2887.0 NaN 1542.901803607215 2.176816936045262 427.0 62.0 310.0 
158.00059236981082 2887.0 NaN 1542.7682030728117 4.178235375761573 427.0 62.0 310.0 
160.00033353340314 2887.0 NaN 1536.6225784903152 6.176816936045262 426.0 63.0 307.0 
162.00059236981082 2887.0 NaN 1536.6012024048089 8.178235375761572 426.0 63.0 307.0 
164.00059236981082 2868.0 NaN 1536.6145624582489 10.12658046868262 426.0 63.0 307.0 
166.000084666035 2898.0 NaN 1543.3132932531726 1.244435745047133 418.0 72.0 300.0 
168.00059236981082 2898.0 NaN 1542.8323313293272 3.245852175642034 418.0 72.0 300.0 
170.00033353340314 2898.0 NaN 1542.8269873079485 5.2444357450471335 419.0 71.0 301.0 
172.00059236981082 2898.0 NaN 1542.8082832331334 7.245852175642034 418.0 72.0 300.0 
174.00059236981082 2898.0 NaN 1539.7568470273882 9.245852175642035 418.0 71.0 300.0 
176.000084666035 2845.0 NaN 1543.1823647294573 5.754230135580208 423.0 63.0 309.0 
178.00059236981082 2882.0 NaN 1545.9879759519026 2.307844164810658 418.0 63.0 310.0 
180.00033353340314 2882.0 NaN 1542.7361389445546 4.306423710265203 418.0 63.0 309.0 
182.00059236981082 2882.0 NaN 1542.7094188376752 6.307844164810659 418.0 63.0 309.0 
184.00059236981082 2882.0 NaN 1542.7094188376752 8.307844164810659 418.0 63.0 309.0 
186.000084666035 2854.0 NaN 1539.6659986639936 10.205571546600678 417.0 63.0 308.0 
188.00059236981082 2861.0 NaN 1543.1342685370728 1.2722936032471561 413.0 70.0 302.0 
190.00033353340314 2861.0 NaN 1539.695390781564 3.2708791760901548 413.0 70.0 301.0 
192.00059236981082 2861.0 NaN 1533.539078156312 5.272293603247156 413.0 70.0 299.0 
194.00059236981082 2861.0 NaN 1533.541750167 7.272293603247157 412.0 70.0 299.0 
196.000084666035 2861.0 NaN 1533.541750167 9.270879176090155 411.0 71.0 298.0 
198.00027805237795 2800.0 NaN 1536.9352037408155 5.747110384111727 416.0 66.0 304.0 
200.00033353340314 2840.0 NaN 1539.8797595190365 2.3246215171319418 423.0 60.0 311.0 
202.00059236981082 2840.0 NaN 1539.6793587174363 4.326027986892843 423.0 60.0 311.0 
204.00059236981082 2840.0 NaN 1539.6873747495001 6.326027986892843 423.0 60.0 311.0 
206.000084666035 2840.0 NaN 1539.6873747495001 8.324621517131943 422.0 61.0 310.0 
208.00059236981082 2811.0 NaN 1539.655310621243 10.224415333226057 422.0 61.0 310.0 
210.00033353340314 2831.0 NaN 1546.3567134268546 1.2823250618441075 405.0 77.0 296.0 
212.00059236981082 2831.0 NaN 1545.88376753507 3.2837275863882867 405.0 77.0 296.0 
214.00059236981082 2831.0 NaN 1545.8436873747482 5.283727586388287 405.0 77.0 296.0 
216.000084666035 2831.0 NaN 1542.7815631262545 7.282325061844107 405.0 77.0 295.0 
218.00059236981082 2831.0 NaN 1542.794923179691 9.283727586388286 406.0 76.0 296.0 
220.00027805237795 2796.0 NaN 1546.1482965931846 5.742323781343168 409.0 74.0 299.0 
222.00059236981082 2836.0 NaN 1545.8997995991997 2.3200899030323736 407.0 73.0 300.0 
224.00059236981082 2836.0 NaN 1539.5885103540425 4.320089903032374 408.0 72.0 299.0 
226.000084666035 2836.0 NaN 1539.5885103540425 6.3186873784881925 407.0 72.0 299.0 
228.00059236981082 2836.0 NaN 1539.5751503006 8.320089903032372 407.0 71.0 300.0 
230.00033353340314 2816.0 NaN 1539.5804943219791 10.259963467707822 408.0 71.0 300.0 
232.00059236981082 2815.0 NaN 1546.2578490313974 1.3092005534663926 401.0 75.0 298.0 
234.00059236981082 2815.0 NaN 1542.7949231796908 3.309200553466393 401.0 75.0 297.0 
236.000084666035 2815.0 NaN 1542.8029392117546 5.307798028922213 401.0 75.0 297.0 
238.00059236981082 2815.0 NaN 1536.681362725452 7.309200553466393 400.0 75.0 295.0 
240.00033353340314 2815.0 NaN 1530.5010020040093 9.307798028922214 400.0 75.0 293.0 
242.00027805237795 2756.0 NaN 1533.8543754175003 5.777760649903089 399.0 75.0 294.0 
244.00059236981082 2782.0 NaN 1536.58784235137 2.339326788143296 396.0 75.0 295.0 
246.000084666035 2782.0 NaN 1536.4756179024728 4.337932088003828 396.0 75.0 295.0 
248.00059236981082 2782.0 NaN 1536.4836339345366 6.339326788143297 397.0 74.0 296.0 
250.00033353340314 2782.0 NaN 1536.5023380093521 8.337932088003827 396.0 74.0 296.0 
252.00059236981082 2764.0 NaN 1536.4756179024728 10.26120750271468 397.0 73.0 297.0 
254.00059236981082 2763.0 NaN 1536.9138276553092 1.2901264210271852 391.0 75.0 295.0 
256.00008466603504 2763.0 NaN 1536.5637942551757 3.2887238964830057 391.0 75.0 295.0 
258.0005923698108 2763.0 NaN 1530.4315297261182 5.2901264210271846 391.0 75.0 293.0 
260.00033353340314 2763.0 NaN 1530.4074816299274 7.288723896483005 392.0 74.0 294.0 
262.0005923698108 2763.0 NaN 1530.4021376085516 9.290126421027184 392.0 74.0 294.0 
264.00027805237795 2721.0 NaN 1530.714762859052 5.689853664735179 394.0 72.0 296.0 
266.00008466603504 2755.0 NaN 1521.322645290582 2.265621990289285 395.0 69.0 296.0 
268.0005923698108 2755.0 NaN 1518.1215764863066 4.267018638333976 395.0 69.0 295.0 
270.00033353340314 2755.0 NaN 1515.000668002673 6.265621990289285 394.0 69.0 294.0 
272.0005923698108 2755.0 NaN 1515.011356045425 8.267018638333978 393.0 69.0 294.0 
274.0005923698108 2741.0 NaN 1518.0494321977276 10.217959905472767 392.0 70.0 294.0 
276.00008466603504 2749.0 NaN 1533.9104876419515 1.3675655643855493 393.0 69.0 300.0 
278.0005923698108 2749.0 NaN 1539.6045424181702 3.3689661246096376 394.0 68.0 303.0 
280.00033353340314 2749.0 NaN 1539.5404141616548 5.36756556438555 394.0 68.0 303.0 
282.0005923698108 2749.0 NaN 1539.53774215097 7.368966124609638 394.0 68.0 303.0 
284.0005923698108 2749.0 NaN 1539.527054108218 9.368966124609637 394.0 68.0 303.0 
286.00008466603504 2682.0 NaN 1539.8797595190367 5.792554931090233 405.0 60.0 311.0 
288.0005923698108 2715.0 NaN 1542.749498997997 2.5266344708133017 411.0 56.0 316.0 
290.00033353340314 2715.0 NaN 1533.3814295257184 4.5252319462691215 409.0 56.0 313.0 
292.0005923698108 2715.0 NaN 1533.3653974615909 6.526634470813302 409.0 56.0 313.0 
294.0005923698108 2715.0 NaN 1533.3440213760846 8.5266344708133 409.0 56.0 313.0 
296.00008466603504 2694.0 NaN 1527.217100868403 10.412932952630054 408.0 56.0 311.0 
298.0005923698108 2667.0 NaN 1527.7301269205088 1.2663092633794377 399.0 62.0 305.0 
300.00033353340314 2667.0 NaN 1524.2191048764184 3.2649008126752124 399.0 62.0 304.0 
302.0005923698108 2667.0 NaN 1521.0981963927848 5.266309263379439 399.0 62.0 303.0 
304.0005923698108 2667.0 NaN 1521.0955243820977 7.266309263379438 400.0 61.0 304.0 
306.00008466603504 2667.0 NaN 1518.0467601870394 9.264900812675213 398.0 61.0 303.0 
308.00027805237795 2639.0 NaN 1518.3994655978634 5.642754119230826 402.0 59.0 305.0 
310.00033353340314 2675.0 NaN 1524.184368737473 2.2906150614305685 400.0 59.0 307.0 
312.0005923698108 2675.0 NaN 1520.9485637942544 4.292013662829172 400.0 59.0 306.0 
314.0005923698108 2675.0 NaN 1517.8650634602548 6.292013662829169 399.0 59.0 305.0 
316.00008466603504 2675.0 NaN 1517.8543754175005 8.29061506143057 398.0 59.0 305.0 
318.0005923698108 2659.0 NaN 1517.9318637274544 10.217596316469143 397.0 59.0 305.0 
320.00033353340314 2663.0 NaN 1530.6559786239152 1.2964945552895775 396.0 62.0 306.0 
322.0005923698108 2663.0 NaN 1527.3186372745483 3.2978951155136667 396.0 62.0 305.0 
324.0005923698108 2663.0 NaN 1521.1169004676003 5.2978951155136675 396.0 62.0 303.0 
326.00008466603504 2663.0 NaN 1521.1169004676003 7.296494555289577 394.0 62.0 303.0 
328.0005923698108 2663.0 NaN 1521.1730126920515 9.297895115513667 394.0 62.0 303.0 
330.00027805237795 2620.0 NaN 1527.5671342685362 5.705676337444304 400.0 60.0 307.0 
332.0005923698108 2642.0 NaN 1524.240480961924 2.2837988674590255 404.0 57.0 309.0 
334.0005923698108 2642.0 NaN 1524.061456245827 4.283798867459027 404.0 57.0 309.0 
336.00008466603504 2642.0 NaN 1520.9832999332002 6.282396342914847 403.0 57.0 308.0 
338.0005923698108 2642.0 NaN 1517.9372077488304 8.283798867459028 402.0 57.0 307.0 
340.00033353340314 2629.0 NaN 1514.8109552438204 10.230392204934226 401.0 57.0 306.0 
342.0005923698108 2675.0 NaN 1524.8069472277907 1.1874024835614834 398.0 61.0 305.0 
344.0005923698108 2675.0 NaN 1524.3152972611906 3.187402483561484 398.0 61.0 305.0 
346.00008466603504 2675.0 NaN 1524.2805611222457 5.186003882162882 398.0 61.0 305.0 
348.0005923698108 2675.0 NaN 1521.2505010020031 7.187402483561483 397.0 61.0 304.0 
350.00033353340314 2675.0 NaN 1524.2752171008697 9.186003882162883 398.0 61.0 305.0 
352.00027805237795 2662.0 NaN 1527.665998663994 5.698686206498017 401.0 59.0 308.0 
354.0005923698108 2688.0 NaN 1530.4929859719452 2.309637520631605 399.0 60.0 308.0 
356.00008466603504 2688.0 NaN 1524.171008684036 4.3082408725869135 398.0 60.0 306.0 
358.0005923698108 2688.0 NaN 1524.2110888443544 6.309637520631605 398.0 60.0 306.0 
360.00033353340314 2688.0 NaN 1524.1603206412817 8.308240872586914 398.0 60.0 306.0 
362.0005923698108 2670.0 NaN 1524.152304609218 10.2432396967118 397.0 61.0 305.0 
364.0005923698108 2695.0 NaN 1521.7074148296606 1.4056066572405659 397.0 62.0 303.0 
366.00008466603504 2695.0 NaN 1521.1810287241155 3.4042080558419645 397.0 62.0 303.0 
368.0005923698108 2695.0 NaN 1515.0567802271207 5.405606657240566 397.0 62.0 301.0 
370.00033353340314 2695.0 NaN 1518.0868403473632 7.404208055841964 397.0 62.0 302.0 
372.0005923698108 2695.0 NaN 1518.0975283901123 9.405606657240567 397.0 62.0 302.0 
374.00027805237795 2653.0 NaN 1521.4829659318634 5.698048365580878 398.0 61.0 304.0 
376.00008466603504 2686.0 NaN 1524.2725450901814 2.362091120311546 401.0 60.0 306.0 
378.0005923698108 2686.0 NaN 1511.858383433534 4.363495614693568 399.0 60.0 302.0 
380.00033353340314 2686.0 NaN 1508.7454909819635 6.362091120311548 399.0 60.0 301.0 
382.0005923698108 2686.0 NaN 1508.764195056781 8.36349561469357 398.0 60.0 301.0 
384.0005923698108 2658.0 NaN 1508.7027388109545 10.254888777242645 398.0 60.0 301.0 
386.00008466603504 2708.0 NaN 1524.6786907147637 1.2993882991488388 399.0 67.0 299.0 
388.0005923698108 2708.0 NaN 1515.0621242484976 3.3007829992883084 397.0 67.0 296.0 
390.00033353340314 2708.0 NaN 1505.8436873747487 5.299388299148839 396.0 68.0 292.0 
392.0005923698108 2708.0 NaN 1505.8383433533727 7.300782999288309 395.0 68.0 292.0 
394.0005923698108 2708.0 NaN 1505.8303273213091 9.300782999288307 396.0 67.0 293.0 
396.00008466603504 2667.0 NaN 1512.304609218436 5.787650118311744 402.0 65.0 297.0 
398.0005923698108 2701.0 NaN 1512.0026720106885 2.562295665966862 406.0 61.0 301.0 
400.00033353340314 2701.0 NaN 1511.842351369406 4.560900965827391 404.0 62.0 300.0 
402.0005923698108 2701.0 NaN 1508.7882431529729 6.562295665966861 403.0 63.0 298.0 
404.0005923698108 2701.0 NaN 1508.7241148964606 8.562295665966861 403.0 63.0 298.0 
406.00008466603504 2675.0 NaN 1508.7321309285244 10.445327298832579 402.0 63.0 298.0 
408.0005923698108 2698.0 NaN 1518.6452905811632 1.467668570162762 404.0 65.0 299.0 
410.00033353340314 2698.0 NaN 1518.1616566466273 3.466266045618582 405.0 64.0 300.0 
412.0005923698108 2698.0 NaN 1518.1482965931848 5.46766857016276 406.0 63.0 301.0 
414.0005923698108 2698.0 NaN 1518.0788243152977 7.46766857016276 406.0 63.0 301.0 
416.00008466603504 2698.0 NaN 1515.0167000667998 9.466266045618582 405.0 63.0 300.0 
418.00027805237795 2658.0 NaN 1524.5851703406818 5.690584876434114 407.0 61.0 305.0 
420.00033353340314 2708.0 NaN 1521.2772211088843 2.326569659811214 414.0 56.0 309.0 
422.0005923698108 2708.0 NaN 1514.912491649966 4.327990114356669 414.0 56.0 307.0 
424.0005923698108 2708.0 NaN 1511.8156312625265 6.327990114356669 413.0 56.0 306.0 
426.00008466603504 2708.0 NaN 1508.764195056781 8.326569659811213 411.0 56.0 305.0 
428.0005923698108 2689.0 NaN 1505.704742818972 10.251824127717686 410.0 56.0 304.0 
430.00033353340314 2710.0 NaN 1524.6680026720098 1.4909931944297126 411.0 59.0 307.0 
432.0005923698108 2710.0 NaN 1511.9358717434877 3.492411634146023 411.0 58.0 304.0 
434.0005923698108 2710.0 NaN 1502.661322645291 5.4924116341460225 411.0 58.0 301.0 
436.00008466603504 2710.0 NaN 1505.7635270541089 7.490993194429711 410.0 58.0 302.0 
438.0005923698108 2710.0 NaN 1502.722778891116 9.492411634146022 409.0 58.0 301.0 
440.00027805237795 2636.0 NaN 1509.2772211088839 5.6884660606560695 415.0 54.0 307.0 
442.0005923698108 2685.0 NaN 1515.0247160988638 2.338702532221261 418.0 55.0 308.0 
444.0005923698108 2685.0 NaN 1505.6646626586517 4.3387025322212605 417.0 55.0 305.0 
446.00008466603504 2685.0 NaN 1508.756179024717 6.337269867464815 417.0 55.0 306.0 
448.0005923698108 2685.0 NaN 1514.8804275217092 8.338702532221262 417.0 55.0 308.0 
450.00033353340314 2665.0 NaN 1514.8857715430852 10.269712980452699 417.0 55.0 308.0 
452.0005923698108 2696.0 NaN 1533.8917835671357 1.4631723322779722 419.0 60.0 309.0 
454.0005923698108 2696.0 NaN 1530.3727454909817 3.4631723322779724 418.0 60.0 308.0 
456.00008466603504 2696.0 NaN 1527.3266533066121 5.46173141008777 418.0 59.0 308.0 
458.0005923698108 2696.0 NaN 1527.3373413493644 7.463172332277971 417.0 60.0 307.0 
460.00033353340314 2696.0 NaN 1527.310621242484 9.46173141008777 416.0 60.0 307.0 
462.00027805237795 2619.0 NaN 1524.5237140948552 5.764238338809032 422.0 54.0 312.0 
464.0005923698108 2645.0 NaN 1530.4342017368083 2.361084698719947 426.0 53.0 315.0 
466.00008466603504 2645.0 NaN 1530.2712090848363 4.359649978490391 426.0 53.0 315.0 
468.0005923698108 2645.0 NaN 1530.252505010019 6.3610846987199485 425.0 53.0 315.0 
470.00033353340314 2645.0 NaN 1530.2124248497 8.359649978490392 424.0 53.0 315.0 
472.0005923698108 2621.0 NaN 1527.091516366064 10.27007032185722 422.0 53.0 314.0 
474.0005923698108 2626.0 NaN 1530.6239144956573 1.3754820133735444 422.0 56.0 312.0 
476.00008466603504 2626.0 NaN 1527.169004676018 3.3740675862165412 421.0 56.0 311.0 
478.0005923698108 2626.0 NaN 1524.082832331328 5.375482013373542 419.0 56.0 310.0 
480.00033353340314 2626.0 NaN 1524.0881763527063 7.374067586216543 418.0 56.0 310.0 
482.0005923698108 2626.0 NaN 1520.9619238476937 9.375482013373546 418.0 56.0 309.0 
484.00027805237795 2591.0 NaN 1521.2745490981972 5.7833551278012525 421.0 51.0 314.0 
486.00008466603504 2630.0 NaN 1521.0741482965916 2.371576658196242 426.0 49.0 316.0 
488.0005923698108 2630.0 NaN 1511.7942551770202 4.372987095431784 425.0 49.0 313.0 
490.00033353340314 2630.0 NaN 1511.8209752839002 6.37157665819624 425.0 49.0 313.0 
492.0005923698108 2630.0 NaN 1508.7054108216444 8.372987095431782 425.0 49.0 312.0 
494.0005923698108 2607.0 NaN 1508.716098864397 10.238943349299062 424.0 49.0 312.0 
496.00008466603504 2609.0 NaN 1518.2952571810279 1.2591187431261452 420.0 55.0 309.0 
498.0005923698108 2609.0 NaN 1514.9018036072152 3.260531172504676 420.0 55.0 308.0 
500.00033353340314 2609.0 NaN 1496.4756179024725 5.259118743126146 418.0 54.0 303.0 
502.0005923698108 2609.0 NaN 1493.4108216432878 7.260531172504677 417.0 54.0 302.0 
504.0005923698108 2609.0 NaN 1493.3867735470933 9.260531172504677 417.0 54.0 302.0 
506.00008466603504 2584.0 NaN 1499.8583834335345 5.731566136190338 419.0 51.0 307.0 
508.0005923698108 2623.0 NaN 1499.6579826319296 2.286005167355702 416.0 53.0 305.0 
510.00033353340314 2623.0 NaN 1493.40547762191 4.284592737977169 415.0 53.0 303.0 
512.0005923698109 2623.0 NaN 1490.2979291917172 6.2860051673557 414.0 53.0 302.0 
514.0005923698109 2623.0 NaN 1490.2899131596535 8.286005167355702 414.0 53.0 302.0 
516.000084666035 2611.0 NaN 1490.2899131596535 10.239032393569005 412.0 53.0 302.0 
518.0005923698109 2628.0 NaN 1496.9325317301273 1.193532241513078 410.0 56.0 301.0 
520.0003335334031 2628.0 NaN 1493.4909819639272 3.1921138017967654 410.0 56.0 300.0 
522.0005923698109 2628.0 NaN 1475.0220440881753 5.193532241513078 408.0 56.0 294.0 
524.0005923698109 2628.0 NaN 1468.8309953239818 7.193532241513078 407.0 57.0 291.0 
526.000084666035 2628.0 NaN 1468.8203072812282 9.192113801796765 404.0 57.0 291.0 
528.0002780523779 2619.0 NaN 1466.0253841015365 5.74361653771319 405.0 55.0 292.0 
530.0003335334031 2649.0 NaN 1465.8944555778212 2.3451321914818037 405.0 54.0 293.0 
532.0005923698109 2649.0 NaN 1462.706746826988 4.346544620860335 406.0 54.0 292.0 
534.0005923698109 2649.0 NaN 1456.5424181696726 6.346544620860334 406.0 54.0 290.0 
536.000084666035 2649.0 NaN 1456.521042084169 8.345132191481802 405.0 54.0 290.0 
538.0005923698109 2629.0 NaN 1456.5424181696726 10.269165922281028 405.0 54.0 290.0 
540.0003335334031 2656.0 NaN 1469.3921175684707 1.37554674236152 400.0 56.0 292.0 
542.0005923698109 2656.0 NaN 1465.7982631930533 3.3769611695185215 400.0 56.0 291.0 
544.0005923698109 2656.0 NaN 1459.6259185036733 5.376961169518521 401.0 55.0 290.0 
546.000084666035 2656.0 NaN 1459.631262525051 7.37554674236152 402.0 55.0 290.0 
548.0005923698109 2656.0 NaN 1459.6526386105547 9.376961169518522 403.0 54.0 291.0 
550.0002780523779 2600.0 NaN 1469.221108884436 5.728026595405914 405.0 51.0 297.0 
552.0005923698109 2634.0 NaN 1472.0133600534398 2.4032128624955265 410.0 49.0 300.0 
554.0005923698109 2634.0 NaN 1465.731462925852 4.403212862495525 410.0 49.0 298.0 
556.000084666035 2634.0 NaN 1462.6452905811627 6.401796431900625 409.0 49.0 297.0 
558.0005923698109 2634.0 NaN 1462.682698730795 8.403212862495526 409.0 49.0 297.0 
560.0003335334031 2616.0 NaN 1456.5317301269197 10.311436859027069 407.0 49.0 295.0 
562.0005923698109 2626.0 NaN 1463.1529726118908 1.5247980112895385 407.0 54.0 292.0 
564.0005923698109 2626.0 NaN 1462.7094188376757 3.5247980112895365 407.0 54.0 292.0 
566.000084666035 2626.0 NaN 1453.4989979959912 5.523377556744082 405.0 54.0 289.0 
568.0005923698109 2626.0 NaN 1453.5177020708088 7.524798011289536 403.0 54.0 289.0 
570.0003335334031 2626.0 NaN 1453.5524382097533 9.523377556744084 403.0 54.0 289.0 
572.0002780523779 2577.0 NaN 1463.032732130928 5.749495822455451 402.0 56.0 290.0 
574.0005923698109 2623.0 NaN 1465.8116232464922 2.434898226526619 401.0 56.0 291.0 
576.000084666035 2623.0 NaN 1471.8557114228454 4.433473725102117 404.0 55.0 294.0 
578.0005923698109 2623.0 NaN 1468.8122912491644 6.434898226526618 404.0 55.0 293.0 
580.0003335334031 2623.0 NaN 1465.7635270541086 8.433473725102116 404.0 55.0 292.0 
582.0005923698109 2594.0 NaN 1465.7528390113555 10.305759115445376 404.0 55.0 292.0 
584.0005923698109 2626.0 NaN 1481.5257181028728 1.3828292699008289 414.0 54.0 298.0 
586.000084666035 2626.0 NaN 1481.1302605210426 3.381408815355375 414.0 54.0 298.0 
588.0005923698109 2626.0 NaN 1478.1055444221786 5.38282926990083 413.0 54.0 297.0 
590.0003335334031 2626.0 NaN 1478.0574482297923 7.381408815355375 412.0 54.0 297.0 
592.0005923698109 2626.0 NaN 1478.0440881763534 9.38282926990083 412.0 54.0 297.0 
594.0002780523779 2598.0 NaN 1481.4509018036078 5.7906864246256 414.0 54.0 298.0 
596.000084666035 2647.0 NaN 1490.4048096192378 2.5100058916647523 423.0 48.0 307.0 
598.0005923698109 2647.0 NaN 1487.281229124917 4.511424331381063 422.0 48.0 306.0 
600.0003335334031 2647.0 NaN 1484.184368737474 6.510005891664752 421.0 48.0 305.0 
602.0005923698109 2647.0 NaN 1481.1008684034732 8.511424331381063 420.0 48.0 304.0 
604.0005923698109 2617.0 NaN 1481.1169004676012 10.349114484854539 419.0 48.0 304.0 
606.000084666035 2636.0 NaN 1490.7949231796922 1.3798771664032432 426.0 51.0 304.0 
608.0005923698109 2636.0 NaN 1490.3299933199728 3.381295606119556 426.0 51.0 304.0 
610.0003335334031 2636.0 NaN 1487.2705410821638 5.3798771664032445 426.0 51.0 303.0 
612.0005923698109 2636.0 NaN 1484.1683366733462 7.381295606119556 425.0 51.0 302.0 
614.0005923698109 2636.0 NaN 1484.1469605878428 9.381295606119556 425.0 51.0 302.0 
616.000084666035 2602.0 NaN 1487.569806279226 5.734500167068479 426.0 49.0 305.0 
618.0005923698109 2650.0 NaN 1496.6359385437545 2.4199750140095326 426.0 50.0 307.0 
620.0003335334031 2650.0 NaN 1493.4268537074154 4.4185585834146295 426.0 50.0 306.0 
622.0005923698109 2650.0 NaN 1487.2625250501 6.419975014009532 425.0 50.0 304.0 
624.0005923698109 2650.0 NaN 1484.1950567802273 8.419975014009532 424.0 50.0 303.0 
626.000084666035 2626.0 NaN 1484.1923847695386 10.308650674663706 422.0 50.0 303.0 
628.0005923698109 2710.0 NaN 1515.4682698730808 1.450648043275727 418.0 62.0 301.0 
630.0003335334031 2710.0 NaN 1515.1022044088184 3.4492296035594148 419.0 61.0 302.0 
632.0005923698109 2710.0 NaN 1508.9485637942546 5.450648043275727 417.0 62.0 299.0 
634.0005923698109 2710.0 NaN 1508.916499665999 7.450648043275727 415.0 63.0 298.0 
636.000084666035 2710.0 NaN 1508.94321977288 9.449229603559415 414.0 63.0 298.0 
638.0002780523779 2691.0 NaN 1512.3580494321989 5.7548897471789555 413.0 61.0 301.0 
640.0003335334031 2776.0 NaN 1527.4468937875745 2.5036350486881687 419.0 61.0 306.0 
642.0005923698109 2776.0 NaN 1518.0895123580485 4.505049475845168 420.0 60.0 304.0 
644.0005923698109 2776.0 NaN 1511.9331997328 6.505049475845168 420.0 60.0 302.0 
646.000084666035 2776.0 NaN 1511.9625918503666 8.503635048688167 419.0 61.0 301.0 
648.0005923698109 2746.0 NaN 1511.95991983968 10.438392996786867 420.0 60.0 302.0 
650.0003335334031 2732.0 NaN 1527.6793587174354 1.4869362285880514 417.0 63.0 304.0 
652.0005923698109 2732.0 NaN 1527.2758851035394 3.488354668304362 417.0 63.0 304.0 
654.0005923698109 2732.0 NaN 1521.1249164996652 5.488354668304362 416.0 63.0 302.0 
656.000084666035 2732.0 NaN 1521.1649966599878 7.486936228588052 417.0 62.0 303.0 
658.0005923698109 2732.0 NaN 1521.1596526386102 9.488354668304362 416.0 62.0 303.0 
660.0002780523779 2661.0 NaN 1530.8136272545091 5.740815696489717 413.0 60.0 308.0 
662.0005923698109 2725.0 NaN 1539.748830995325 2.4477697620555867 413.0 58.0 313.0 
664.0005923698109 2725.0 NaN 1536.4916499666 4.447769762055587 413.0 58.0 312.0 
#####################################################################
# End of data export. Simulation finished at: 2019-03-05T21:00+0000 #
#####################################################################
