#####################################################################
# Alchemist log file - simulation started at: 2019-03-07T09:39+0000 #
#####################################################################
# seed = 2.0, bandwidth = 1000.0, propagationDelay = 0.001, baserange = 562.341325190349
#
# The columns have the following meaning: 
# time neighbor_count[Sum] <value>@neighbor_count[Sum] packet_size[Mean] mean_delay[Mean] crowd[Sum] overcrowded[Sum] risk[Sum] 
0.0 NaN NaN NaN NaN NaN NaN NaN 
2.0005829790527505 NaN NaN 4988.0 NaN 1497.0 0.0 1497.0 
4.0005829790527505 NaN NaN 4988.0 NaN 1497.0 0.0 1497.0 
6.0005829790527505 49404.0 NaN 4989.205076820307 0.2537604815904393 1497.0 0.0 1497.0 
8.000582979052751 98210.0 NaN 4994.773547094188 2.001694265457971 1497.0 0.0 1497.0 
10.000582979052751 98210.0 NaN 4994.773547094188 4.001212119488202 1497.0 0.0 1497.0 
12.000582979052751 98210.0 NaN 4994.5250501002 1.008442012267118 1497.0 0.0 1497.0 
14.000582979052751 98210.0 NaN 4993.9478957915835 3.008442012267118 1497.0 0.0 1497.0 
16.00058297905275 98222.0 NaN 4993.931863727455 2.501123028210595 1496.0 1.0 1496.0 
18.00058297905275 98234.0 NaN 4993.939879759519 2.000636741573244 1494.0 3.0 1494.0 
20.00058297905275 98234.0 NaN 4993.929191716767 4.0002083850512316 1494.0 3.0 1494.0 
22.00058297905275 98265.0 NaN 4993.9612558450235 1.8691176777251994 1494.0 3.0 1494.0 
24.00058297905275 98270.0 NaN 4993.9612558450235 2.568126710882987 1495.0 2.0 1495.0 
26.00058297905275 98286.0 NaN 4993.9612558450235 3.155805854284442 1495.0 2.0 1495.0 
28.00058297905275 98322.0 NaN 4993.9452237808955 2.2322483606759738 1495.0 2.0 1495.0 
30.00058297905275 98326.0 NaN 4993.931863727455 3.2040744332399775 1495.0 2.0 1495.0 
32.00058297905275 98350.0 NaN 4993.9585838343355 2.2758678151361726 1495.0 2.0 1495.0 
34.00058297905275 98370.0 NaN 4993.9959919839675 2.8697713007595045 1495.0 2.0 1495.0 
36.00058297905275 98403.0 NaN 4993.9986639946555 2.436189248276888 1495.0 2.0 1495.0 
38.00058297905275 98443.0 NaN 4993.9665998663995 2.6878971282587387 1495.0 2.0 1495.0 
40.00058297905275 98449.0 NaN 4993.9665998663995 3.5071770822999335 1495.0 2.0 1495.0 
42.00058297905275 98477.0 NaN 4993.9986639946555 1.5648227164365778 1495.0 2.0 1495.0 
44.00058297905275 98480.0 NaN 4993.9986639946555 3.327871284995348 1495.0 2.0 1495.0 
46.00058297905275 98509.0 NaN 4993.9986639946555 2.7500438512346475 1495.0 2.0 1495.0 
48.00058297905275 98540.0 NaN 4993.9826319305275 1.9706420954102937 1495.0 2.0 1495.0 
50.00058297905275 98540.0 NaN 4993.9665998663995 3.9564298377191016 1495.0 2.0 1495.0 
52.00058297905275 98582.0 NaN 4994.0146960587845 1.8784970572799726 1495.0 2.0 1495.0 
54.00058297905275 98595.0 NaN 4993.9853039412155 2.6110266860965523 1495.0 2.0 1495.0 
56.00058297905275 98628.0 NaN 4993.9879759519035 3.1984876182612227 1495.0 2.0 1495.0 
58.00058297905275 98687.0 NaN 4993.9986639946555 2.2814321912063034 1495.0 2.0 1495.0 
60.00058297905275 98689.0 NaN 4990.931195724783 3.2415294008814173 1494.0 2.0 1494.0 
62.000562649975805 98718.0 NaN 1518.8991315965272 2.0822629937354145 824.0 0.0 364.0 
64.0005626499758 98766.0 NaN 1521.9612558450242 1.7055872787257749 695.0 0.0 365.0 
66.00056264997582 98772.0 NaN 1521.8944555778212 1.1482036207414632 621.0 2.0 363.0 
68.00056264997582 98833.0 NaN 1521.8597194388788 1.4079559421014511 571.0 2.0 363.0 
70.00056264997582 98878.0 NaN 1521.8597194388788 1.2262945549618909 549.0 2.0 363.0 
72.00056264997582 98876.0 NaN 1521.8597194388788 0.92762107167241 537.0 3.0 362.0 
74.00056264997582 98895.0 NaN 1521.8597194388788 1.4367717976545042 532.0 3.0 362.0 
76.00056264997582 98890.0 NaN 1524.9405477621908 1.1981887254465429 530.0 3.0 363.0 
78.00056264997582 98914.0 NaN 1528.0053440213758 0.9543715656407966 530.0 2.0 365.0 
80.00056264997582 98945.0 NaN 1531.0888443553788 1.461114631126364 528.0 2.0 366.0 
82.00056264997582 98938.0 NaN 1531.0754843019363 1.1564941229151025 528.0 2.0 366.0 
84.00056264997582 98961.0 NaN 1534.1616566466275 0.9993489991591847 529.0 2.0 367.0 
86.00056264997582 98953.0 NaN 1534.1616566466275 1.4342454166425156 529.0 2.0 367.0 
88.00056264997582 98965.0 NaN 1534.1456245824997 1.1777352324670551 528.0 2.0 367.0 
90.00056264997582 99007.0 NaN 1534.140280561121 1.0149472322802588 528.0 2.0 367.0 
92.00056264997582 99001.0 NaN 1534.1349365397452 1.3876280869979671 528.0 2.0 367.0 
94.00056264997582 99030.0 NaN 1534.1349365397452 1.2196559120299253 526.0 2.0 367.0 
96.00056264997582 99015.0 NaN 1534.1349365397452 0.9850415383966955 526.0 2.0 367.0 
98.00056264997582 99021.0 NaN 1534.150968603873 1.4079790889633554 526.0 2.0 367.0 
100.00056264997582 99041.0 NaN 1534.1482965931848 1.2363288628333609 526.0 2.0 367.0 
102.00056264997582 99029.0 NaN 1537.2264529058118 0.9467392537654652 526.0 2.0 368.0 
104.00056264997582 99022.0 NaN 1537.2157648630605 1.4411834770755063 526.0 2.0 368.0 
106.00056264997582 99018.0 NaN 1537.2157648630605 1.201211759081015 525.0 2.0 368.0 
108.00056264997582 99036.0 NaN 1540.2965931863728 0.9644238170433608 525.0 2.0 369.0 
110.00056264997582 99089.0 NaN 1540.2805611222457 1.4655541644035481 525.0 2.0 369.0 
112.00056264997582 99116.0 NaN 1540.2805611222457 1.1700306543262775 526.0 2.0 369.0 
114.00056264997582 99143.0 NaN 1540.2805611222457 1.0086726664428711 526.0 2.0 369.0 
116.00056264997582 99136.0 NaN 1543.3613894455573 1.443610168274326 527.0 2.0 370.0 
118.00056264997582 99103.0 NaN 1543.3453573814274 1.1953837194904002 528.0 2.0 370.0 
120.00056264997582 99094.0 NaN 1543.3747494989998 1.0238790889544938 528.0 2.0 370.0 
122.00056264997582 99087.0 NaN 1549.5337341349364 1.3862007006604264 528.0 2.0 372.0 
124.00056264997582 99078.0 NaN 1546.426185704743 1.2140381819989552 528.0 2.0 371.0 
126.00056264997582 99072.0 NaN 1543.3640614562453 0.9811784246954064 528.0 2.0 370.0 
128.00056264997582 99046.0 NaN 1543.369405477621 1.3898682454567541 528.0 2.0 370.0 
130.00056264997582 99040.0 NaN 1546.4529058116243 1.225968112054405 528.0 2.0 371.0 
132.00056264997582 99021.0 NaN 1546.4422177688728 0.9360523020925 528.0 2.0 371.0 
134.00056264997582 99013.0 NaN 1546.4475617902456 1.418393218139926 528.0 2.0 371.0 
136.00056264997582 99010.0 NaN 1546.4395457581818 1.1838120467806894 528.0 2.0 371.0 
138.00056264997582 99022.0 NaN 1543.35871743487 0.9646449014193059 525.0 2.0 370.0 
140.00056264997582 99017.0 NaN 1546.458249833 1.443612971870664 522.0 2.0 371.0 
142.00056264997582 99004.0 NaN 1543.3827655310636 1.151408912162594 521.0 2.0 370.0 
144.00056264997582 99039.0 NaN 1543.3854375417511 1.00150476964269 521.0 2.0 370.0 
146.00056264997582 99018.0 NaN 1549.5577822311272 1.4020953655259432 521.0 2.0 372.0 
148.00056264997582 99028.0 NaN 1546.4876419505667 1.1708277630191757 522.0 3.0 370.0 
150.00056264997582 99025.0 NaN 1543.3747494989998 1.015930402477196 522.0 3.0 369.0 
152.00056264997582 99005.0 NaN 1540.309953239812 1.365338913166749 521.0 3.0 368.0 
154.00056264997582 99038.0 NaN 1540.2965931863728 1.2019732057510661 517.0 3.0 368.0 
156.00056264997582 99037.0 NaN 1540.2965931863728 0.9840861123769955 514.0 3.0 368.0 
158.00056264997582 99050.0 NaN 1540.3152972611908 1.389053252185115 514.0 3.0 368.0 
160.00056264997582 99038.0 NaN 1540.3206412825637 1.2101908116536961 517.0 3.0 368.0 
162.00056264997582 99012.0 NaN 1540.2645290581181 0.9425986342506149 517.0 3.0 368.0 
164.00056264997582 99031.0 NaN 1543.3533734134937 1.4085684243331613 519.0 3.0 369.0 
166.00056264997582 99043.0 NaN 1549.5364061456246 1.1800811744873132 518.0 3.0 371.0 
168.00056264997582 99038.0 NaN 1549.5257181028728 0.9650996530285483 520.0 2.0 372.0 
170.00056264997582 99033.0 NaN 1549.5257181028728 1.4294503046128013 518.0 2.0 372.0 
172.00056264997582 99021.0 NaN 1543.404141616566 1.1509473620123545 520.0 2.0 370.0 
174.00056264997582 99029.0 NaN 1543.3747494989998 0.9975918332487558 520.0 2.0 370.0 
176.00056264997582 99021.0 NaN 1543.3774215096846 1.4080144541190724 521.0 2.0 370.0 
178.00056264997582 99027.0 NaN 1537.2344689378754 1.1724376574070337 521.0 2.0 368.0 
180.00056264997582 99024.0 NaN 1537.2344689378754 1.0157306794772591 521.0 2.0 368.0 
182.00056264997582 99010.0 NaN 1537.2291249165 1.37716532070441 520.0 2.0 368.0 
184.00056264997582 99035.0 NaN 1534.1696726786909 1.1937828987382564 520.0 2.0 367.0 
186.00056264997582 99021.0 NaN 1534.1643286573153 0.9845181776036291 518.0 2.0 367.0 
188.00056264997582 99030.0 NaN 1534.1509686038728 1.3904918415551304 517.0 2.0 367.0 
190.00056264997582 99008.0 NaN 1537.2398129592518 1.2086411374848152 518.0 2.0 368.0 
192.00056264997582 98981.0 NaN 1537.2371409485636 0.9592863628419227 518.0 2.0 368.0 
194.00056264997582 98985.0 NaN 1537.2291249165 1.4226589714857532 518.0 2.0 368.0 
196.00056264997582 98970.0 NaN 1540.3500334001337 1.1866208129968576 518.0 2.0 369.0 
198.00056264997582 98985.0 NaN 1543.4201736806938 0.9913023650640491 519.0 2.0 370.0 
200.00056264997582 98970.0 NaN 1543.4148296593182 1.4544786520822324 519.0 2.0 370.0 
202.00056264997582 98934.0 NaN 1543.4148296593182 1.1685303938295644 521.0 2.0 370.0 
204.00056264997582 98941.0 NaN 1543.401469605879 1.0174528101408586 521.0 2.0 370.0 
206.00056264997582 98939.0 NaN 1540.3313293253182 1.4234136696722903 521.0 2.0 369.0 
208.00056264997582 98950.0 NaN 1543.41215764863 1.1997518038584718 521.0 2.0 370.0 
210.00056264997582 98933.0 NaN 1543.3907815631273 1.0471867519830083 517.0 2.0 370.0 
212.00056264997582 98917.0 NaN 1540.3179692718754 1.4102881671265584 515.0 2.0 369.0 
214.00056264997582 98880.0 NaN 1543.3747494989998 1.218917890547879 516.0 2.0 370.0 
216.00056264997582 98839.0 NaN 1543.356045424182 1.013877604106597 515.0 2.0 370.0 
218.00056264997582 98830.0 NaN 1543.2999331997337 1.4196616559613882 517.0 2.0 370.0 
220.00056264997582 98798.0 NaN 1540.2645290581181 1.2340089223493265 518.0 2.0 369.0 
222.00056264997582 98781.0 NaN 1540.2645290581181 1.0007872477274808 518.0 2.0 369.0 
224.00056264997582 98788.0 NaN 1540.2832331329334 1.4545572471385158 517.0 2.0 369.0 
226.00056264997582 98802.0 NaN 1540.3072812291252 1.2213146566817266 518.0 2.0 369.0 
228.00056264997582 98835.0 NaN 1540.2965931863728 1.011685664271299 518.0 2.0 369.0 
230.00056264997582 98822.0 NaN 1537.2371409485636 1.466427239384145 515.0 2.0 368.0 
232.00056264997582 98792.0 NaN 1540.3259853039426 1.1991750582131193 513.0 2.0 369.0 
234.00056264997582 98785.0 NaN 1540.2859051436203 1.0381026035868606 513.0 2.0 369.0 
236.00056264997582 98784.0 NaN 1540.2885771543092 1.4483715227626037 514.0 2.0 369.0 
238.00056264997582 98772.0 NaN 1540.269873079491 1.2064713848665856 516.0 2.0 369.0 
240.00056264997582 98768.0 NaN 1540.227120908482 1.0564442728629686 515.0 2.0 369.0 
242.00056264997582 98765.0 NaN 1537.1409485637937 1.4178867298883346 514.0 2.0 368.0 
244.00056264997582 98741.0 NaN 1534.0734802939207 1.2280780554542965 513.0 2.0 367.0 
246.00056264997582 98727.0 NaN 1534.1028724114908 1.0244216318793795 514.0 2.0 367.0 
248.00056264997582 98723.0 NaN 1537.2024048096182 1.4194458225916526 515.0 2.0 368.0 
250.00056264997582 98698.0 NaN 1534.1028724114908 1.2552354768218759 513.0 2.0 367.0 
252.00056264997582 98661.0 NaN 1534.1082164328639 1.0069281771200995 514.0 2.0 367.0 
254.00056264997582 98650.0 NaN 1534.1215764863064 1.4222911212405354 514.0 2.0 367.0 
256.0005626499758 98623.0 NaN 1534.0841683366727 1.2208864584942944 513.0 2.0 367.0 
258.0005626499758 98622.0 NaN 1534.0841683366727 1.0152768327998725 514.0 2.0 367.0 
260.0005626499758 98631.0 NaN 1534.0841683366727 1.457980926258435 515.0 2.0 367.0 
262.0005626499758 98562.0 NaN 1531.0354041416178 1.2137832055776463 515.0 2.0 366.0 
264.0005626499758 98540.0 NaN 1531.0941883767546 1.0361557509145214 515.0 2.0 366.0 
266.0005626499758 98523.0 NaN 1528.0133600534393 1.4395850489216409 516.0 2.0 365.0 
268.0005626499758 98487.0 NaN 1531.0728122912483 1.2377653139121458 514.0 2.0 366.0 
270.0005626499758 98471.0 NaN 1531.0541082164336 1.066078736240156 515.0 2.0 366.0 
272.0005626499758 98443.0 NaN 1527.9519038076155 1.43602970100339 515.0 2.0 365.0 
274.0005626499758 98455.0 NaN 1540.3072812291255 1.2455536634989506 514.0 2.0 369.0 
276.0005626499758 98419.0 NaN 1537.1997327989297 1.0366045467973182 512.0 2.0 368.0 
278.0005626499758 98394.0 NaN 1537.1837007348024 1.4397823583369682 512.0 2.0 368.0 
280.0005626499758 98356.0 NaN 1540.269873079491 1.2720355155840082 514.0 2.0 369.0 
282.0005626499758 98285.0 NaN 1537.1676686706728 1.0165982897228971 514.0 2.0 368.0 
284.0005626499758 98274.0 NaN 1534.094856379427 1.4483565585040543 516.0 2.0 367.0 
286.0005626499758 98244.0 NaN 1534.0788243152977 1.235369121278692 515.0 2.0 367.0 
288.0005626499758 98203.0 NaN 1534.0788243152977 1.0266507864177732 516.0 2.0 367.0 
290.0005626499758 98190.0 NaN 1534.0814963259843 1.4681401107540129 514.0 2.0 367.0 
292.0005626499758 98129.0 NaN 1531.0060120240478 1.2103072394032406 513.0 2.0 366.0 
294.0005626499758 98127.0 NaN 1527.9412157648637 1.0412084630355025 512.0 2.0 365.0 
296.0005626499758 98106.0 NaN 1524.8630594522365 1.4296511384171098 510.0 2.0 364.0 
298.0005626499758 98061.0 NaN 1527.943887775552 1.2198937865207473 512.0 2.0 365.0 
300.0005626499758 98008.0 NaN 1531.0327321309273 1.0624909342147009 509.0 2.0 366.0 
302.0005626499758 97952.0 NaN 1527.9358717434882 1.3962331067748872 509.0 2.0 365.0 
304.0005626499758 97956.0 NaN 1524.876419505679 1.2432421433598744 508.0 2.0 364.0 
306.0005626499758 97961.0 NaN 1528.0 1.041424545688728 507.0 2.0 365.0 
308.0005626499758 97947.0 NaN 1531.0701402805612 1.423417230317488 507.0 2.0 366.0 
310.0005626499758 97894.0 NaN 1534.089512358048 1.2700216114271152 506.0 2.0 367.0 
312.0005626499758 97854.0 NaN 1531.0086840347365 1.0166116428314427 505.0 2.0 366.0 
314.0005626499758 97827.0 NaN 1527.9545758183024 1.4534954030838645 507.0 1.0 366.0 
316.0005626499758 97793.0 NaN 1524.8871075484296 1.2593767813406918 507.0 1.0 365.0 
318.0005626499758 97757.0 NaN 1524.8817635270545 1.043784470527323 507.0 3.0 363.0 
320.0005626499758 97748.0 NaN 1524.849699398798 1.4775416697764747 506.0 3.0 363.0 
322.0005626499758 97661.0 NaN 1527.9946559786247 1.2332795243658934 507.0 3.0 364.0 
324.0005626499758 97614.0 NaN 1534.1215764863066 1.0448640601400243 508.0 2.0 367.0 
326.0005626499758 97595.0 NaN 1537.1756847027386 1.43857136989877 507.0 2.0 368.0 
328.0005626499758 97547.0 NaN 1537.2024048096182 1.2420421908536756 508.0 2.0 368.0 
330.0005626499758 97503.0 NaN 1537.2184368737455 1.0794577563214256 508.0 2.0 368.0 
332.0005626499758 97473.0 NaN 1534.1349365397452 1.4299645744693215 508.0 2.0 367.0 
334.0005626499758 97408.0 NaN 1531.080828323312 1.2706951904879575 509.0 2.0 366.0 
336.0005626499758 97386.0 NaN 1534.1295925183701 1.0677145180353569 509.0 2.0 367.0 
338.0005626499758 97344.0 NaN 1527.9438877755515 1.4546252084588294 508.0 2.0 365.0 
340.0005626499758 97277.0 NaN 1521.8062792251178 1.2982712036429753 507.0 2.0 363.0 
342.0005626499758 97199.0 NaN 1524.873747494991 1.0303159805379627 510.0 2.0 364.0 
344.0005626499758 97137.0 NaN 1521.8169672678698 1.4580080179977737 509.0 2.0 363.0 
346.0005626499758 97132.0 NaN 1524.9138276553094 1.258385276976096 513.0 2.0 364.0 
348.0005626499758 97091.0 NaN 1524.8710754843005 1.0374134390265752 512.0 2.0 364.0 
350.0005626499758 97081.0 NaN 1524.857715430863 1.4871924455671781 513.0 2.0 364.0 
352.0005626499758 97039.0 NaN 1524.830995323982 1.2374395428323186 514.0 2.0 364.0 
354.0005626499758 96963.0 NaN 1521.7581830327333 1.0591713639068339 515.0 2.0 363.0 
356.0005626499758 96949.0 NaN 1521.7581830327333 1.452322790581432 514.0 2.0 363.0 
358.0005626499758 96920.0 NaN 1518.6880427521721 1.2476853012959905 513.0 2.0 362.0 
360.0005626499758 96922.0 NaN 1518.6746826987303 1.0785966762924093 512.0 2.0 362.0 
362.0005626499758 96873.0 NaN 1518.682698730794 1.426381600715958 511.0 2.0 362.0 
364.0005626499758 96812.0 NaN 1518.6880427521721 1.2474231353474141 514.0 2.0 362.0 
366.0005626499758 96802.0 NaN 1518.677354709418 1.0422400954440758 517.0 2.0 362.0 
368.0005626499758 96798.0 NaN 1506.399465597863 1.4451362431540318 516.0 2.0 358.0 
370.0005626499758 96759.0 NaN 1500.2672010688036 1.2842860429007554 513.0 2.0 356.0 
372.0005626499758 96713.0 NaN 1500.2458249832998 1.0226628584973985 514.0 2.0 356.0 
374.0005626499758 96677.0 NaN 1506.388777555109 1.4497799903947224 516.0 2.0 358.0 
376.0005626499758 96667.0 NaN 1506.3727454909817 1.2624681458938352 517.0 2.0 358.0 
378.0005626499758 96675.0 NaN 1506.3593854375424 1.0501855346499593 516.0 2.0 358.0 
380.0005626499758 96692.0 NaN 1506.3674014696066 1.503941714068126 517.0 2.0 358.0 
382.0005626499758 96656.0 NaN 1503.33199732799 1.2523063010933069 513.0 2.0 357.0 
384.0005626499758 96603.0 NaN 1503.342685370742 1.0729861353080536 515.0 2.0 357.0 
386.0005626499758 96561.0 NaN 1506.4048096192373 1.4628974559657655 517.0 2.0 358.0 
388.0005626499758 96529.0 NaN 1506.3887775551093 1.2581627409857379 517.0 2.0 358.0 
390.0005626499758 96495.0 NaN 1503.382765531063 1.0997762158356796 517.0 2.0 357.0 
392.0005626499758 96458.0 NaN 1506.4288577154305 1.4350458208461694 515.0 2.0 358.0 
394.0005626499758 96403.0 NaN 1509.5337341349364 1.270144588133713 518.0 2.0 359.0 
396.0005626499758 96367.0 NaN 1506.463593854375 1.0398049882723879 516.0 2.0 358.0 
398.0005626499758 96310.0 NaN 1506.4288577154302 1.4071193643506796 517.0 2.0 358.0 
400.0005626499758 96292.0 NaN 1509.4936539746175 1.2619927897325254 518.0 2.0 359.0 
402.0005626499758 96236.0 NaN 1512.6225784903152 0.9852381535885554 520.0 2.0 360.0 
404.0005626499758 96206.0 NaN 1515.7140948563797 1.4259983840037407 521.0 2.0 361.0 
406.0005626499758 96209.0 NaN 1515.706078824316 1.2340902519886567 521.0 2.0 361.0 
408.0005626499758 96165.0 NaN 1518.7735470941884 1.0073612691112295 521.0 2.0 362.0 
410.0005626499758 96138.0 NaN 1521.8784235136936 1.4598035617199705 521.0 2.0 363.0 
412.0005626499758 96089.0 NaN 1524.9298597194388 1.203481668033658 521.0 2.0 364.0 
414.0005626499758 96077.0 NaN 1530.984635938545 1.0625899974643698 521.0 2.0 366.0 
416.0005626499758 96071.0 NaN 1527.9091516366066 1.4689376277096196 522.0 2.0 365.0 
418.0005626499758 96098.0 NaN 1512.5557782231122 1.2566368224758078 523.0 2.0 360.0 
420.0005626499758 96140.0 NaN 1512.5557782231122 1.122054615506658 523.0 2.0 360.0 
422.0005626499758 96128.0 NaN 1512.5584502338 1.464792448803772 523.0 2.0 360.0 
424.0005626499758 96095.0 NaN 1509.4802939211747 1.3090515541012269 520.0 2.0 359.0 
426.0005626499758 96060.0 NaN 1515.615230460921 1.102673181149046 517.0 2.0 361.0 
428.0005626499758 96047.0 NaN 1515.6018704074818 1.4830675250094838 516.0 2.0 361.0 
430.0005626499758 96010.0 NaN 1509.4696058784243 1.3422087477004347 518.0 2.0 359.0 
432.0005626499758 95929.0 NaN 1509.480293921175 1.0606278882348357 517.0 2.0 359.0 
434.0005626499758 95901.0 NaN 1512.5156980627917 1.4774080456997276 518.0 2.0 360.0 
436.0005626499758 95897.0 NaN 1515.5885103540422 1.2834651521357947 520.0 2.0 361.0 
438.0005626499758 95833.0 NaN 1515.5858383433545 1.0391315236664311 520.0 2.0 361.0 
440.0005626499758 95807.0 NaN 1527.922511690046 1.47269941411537 524.0 2.0 365.0 
442.0005626499758 95728.0 NaN 1527.906479625918 1.2368722691886505 524.0 2.0 365.0 
444.0005626499758 95710.0 NaN 1527.8984635938546 1.0674758810156455 525.0 1.0 366.0 
446.0005626499758 95708.0 NaN 1534.0414161656636 1.4409110795588234 528.0 1.0 368.0 
448.0005626499758 95679.0 NaN 1534.028056112225 1.2499155452398403 528.0 1.0 368.0 
450.0005626499758 95685.0 NaN 1543.2839011356027 1.0991579736826576 529.0 1.0 371.0 
452.0005626499758 95647.0 NaN 1537.1356045424182 1.4275163677121379 529.0 1.0 369.0 
454.0005626499758 95650.0 NaN 1537.1462925851706 1.280389039624883 528.0 1.0 369.0 
456.0005626499758 95670.0 NaN 1549.485637942552 1.0786982703508328 528.0 1.0 373.0 
458.0005626499758 95667.0 NaN 1549.4402137608542 1.456985672474978 527.0 1.0 373.0 
460.0005626499758 95647.0 NaN 1546.3727454909817 1.3188091080948854 525.0 1.0 372.0 
462.0005626499758 95600.0 NaN 1546.3620574482297 1.038512815430208 525.0 1.0 372.0 
464.0005626499758 95611.0 NaN 1543.2999331997335 1.4487181531036855 526.0 1.0 371.0 
466.0005626499758 95584.0 NaN 1540.2271209084822 1.2629680260951235 525.0 1.0 370.0 
468.0005626499758 95528.0 NaN 1540.1736806947245 1.0250679537229603 525.0 1.0 370.0 
470.0005626499758 95523.0 NaN 1537.0875083500339 1.4562000188048771 524.0 1.0 369.0 
472.0005626499758 95497.0 NaN 1530.941883767536 1.2294060246570717 523.0 1.0 367.0 
474.0005626499758 95522.0 NaN 1530.9739478957908 1.0520067887700988 522.0 1.0 367.0 
476.0005626499758 95548.0 NaN 1521.7768871075477 1.4350611533267472 518.0 1.0 364.0 
478.0005626499758 95555.0 NaN 1521.7982631930538 1.2434726954373987 515.0 1.0 364.0 
480.0005626499758 95552.0 NaN 1521.7768871075477 1.0702464916018815 516.0 1.0 364.0 
482.0005626499758 95524.0 NaN 1515.6579826319296 1.3969500848255283 517.0 1.0 362.0 
484.0005626499758 95547.0 NaN 1515.660654642618 1.2502423463288435 516.0 1.0 362.0 
486.0005626499758 95592.0 NaN 1515.641950567801 1.048804864142655 515.0 1.0 362.0 
488.0005626499758 95584.0 NaN 1515.6579826319296 1.4143839390253203 514.0 1.0 362.0 
490.0005626499758 95585.0 NaN 1509.5096860387448 1.2729957577693056 514.0 1.0 360.0 
492.0005626499758 95561.0 NaN 1500.2992651970617 1.0130890022723364 514.0 1.0 357.0 
494.0005626499758 95590.0 NaN 1500.31529726119 1.4390694677183091 513.0 1.0 357.0 
496.0005626499758 95594.0 NaN 1497.2558450233807 1.2281461310295594 511.0 1.0 356.0 
498.0005626499758 95590.0 NaN 1497.2638610554447 1.0048198626706362 513.0 1.0 356.0 
500.0005626499758 95582.0 NaN 1497.2478289913172 1.4192532389720658 511.0 1.0 356.0 
502.0005626499758 95563.0 NaN 1494.18303273213 1.185265025693872 509.0 1.0 355.0 
504.0005626499758 95594.0 NaN 1494.1937207748824 1.0357737535428049 510.0 1.0 355.0 
506.0005626499758 95594.0 NaN 1500.31529726119 1.4101513787493285 513.0 1.0 357.0 
508.0005626499758 95588.0 NaN 1503.3613894455568 1.2167593576743676 513.0 1.0 358.0 
510.0005626499758 95582.0 NaN 1506.4315297261182 1.0496000101241754 514.0 1.0 359.0 
512.0005626499758 95557.0 NaN 1503.3587174348706 1.3781610930187498 515.0 1.0 358.0 
514.0005626499758 95597.0 NaN 1497.2077488309944 1.247530005168802 515.0 1.0 356.0 
516.0005626499758 95618.0 NaN 1491.1022044088184 1.04210394983321 512.0 1.0 354.0 
518.0005626499758 95614.0 NaN 1487.9919839679364 1.4027885666129993 512.0 1.0 353.0 
520.0005626499758 95621.0 NaN 1478.7548430193726 1.250740803386213 508.0 1.0 350.0 
522.0005626499758 95589.0 NaN 1475.7381429525724 0.9981591052418625 506.0 2.0 348.0 
524.0005626499758 95615.0 NaN 1466.498329993319 1.4050358310975646 503.0 2.0 345.0 
526.0005626499758 95626.0 NaN 1457.2879091516363 1.2200699472386514 507.0 2.0 342.0 
528.0005626499758 95612.0 NaN 1463.4495657982636 1.0105827399058702 505.0 2.0 344.0 
530.0005626499758 95648.0 NaN 1457.3279893119568 1.4267591553709291 503.0 2.0 342.0 
532.0005626499758 95644.0 NaN 1457.3039412157643 1.2027003279152728 501.0 2.0 342.0 
534.0005626499758 95687.0 NaN 1463.478957915831 1.0475310542411667 506.0 2.0 344.0 
536.0005626499758 95691.0 NaN 1463.4495657982636 1.4188197975248813 505.0 2.0 344.0 
538.0005626499758 95743.0 NaN 1466.5303941215757 1.2300065457285707 506.0 2.0 345.0 
540.0005626499758 95725.0 NaN 1460.411489645958 1.077515335024185 507.0 2.0 343.0 
542.0005626499758 95683.0 NaN 1463.4923179692723 1.3891302426546857 508.0 2.0 344.0 
544.0005626499758 95710.0 NaN 1463.465597862391 1.2368275297499556 510.0 2.0 344.0 
546.0005626499758 95720.0 NaN 1463.4602538410159 1.0653288802752388 510.0 2.0 344.0 
548.0005626499758 95736.0 NaN 1466.5384101536404 1.4211719175940039 510.0 2.0 345.0 
550.0005626499758 95744.0 NaN 1469.5390781563124 1.2662983319157481 515.0 2.0 346.0 
552.0005626499758 95728.0 NaN 1463.3720774883095 1.0183956425026097 514.0 2.0 344.0 
554.0005626499758 95766.0 NaN 1469.539078156312 1.425885497841494 514.0 2.0 346.0 
556.0005626499758 95785.0 NaN 1472.6225784903147 1.2145306524748962 511.0 2.0 347.0 
558.0005626499758 95866.0 NaN 1460.3420173680697 1.0327285729814515 509.0 2.0 343.0 
560.0005626499758 95878.0 NaN 1457.2798931195728 1.4231922884839565 509.0 2.0 342.0 
562.0005626499758 95907.0 NaN 1457.2905811623245 1.1711024975529787 506.0 2.0 342.0 
564.0001715784554 95955.0 NaN 1463.473613894455 1.0398108704995708 505.0 2.0 344.0 
566.0005626499758 95975.0 NaN 1466.495657982632 1.3764407564113026 505.0 2.0 345.0 
568.0005626499758 95985.0 NaN 1466.5010020040088 1.1930535476035398 507.0 2.0 345.0 
570.0001715784554 96006.0 NaN 1475.7488309953242 1.0525254241891617 508.0 2.0 348.0 
572.0005626499758 96003.0 NaN 1478.837675350701 1.355360765906949 509.0 2.0 349.0 
574.0005626499758 96046.0 NaN 1481.9318637274546 1.2361312192532539 510.0 2.0 350.0 
576.0001715784554 96069.0 NaN 1485.0313961255843 1.0514311252605635 511.0 2.0 351.0 
578.0005626499758 96095.0 NaN 1478.861723446893 1.4004994841951917 512.0 2.0 349.0 
580.0005626499758 96118.0 NaN 1481.9345357381435 1.27495446686359 510.0 2.0 350.0 
582.0001715784554 96139.0 NaN 1481.9318637274546 1.0329237111733818 510.0 2.0 350.0 
584.0005626499758 96168.0 NaN 1481.9131596526377 1.4366063870284302 512.0 2.0 350.0 
586.0005626499758 96141.0 NaN 1484.9645958583828 1.2654295043442672 516.0 2.0 351.0 
588.0001715784554 96136.0 NaN 1488.0587842351363 1.0775401066086379 517.0 2.0 352.0 
590.0005626499758 96153.0 NaN 1491.1289245156986 1.4617189030312057 518.0 2.0 353.0 
592.0005626499758 96164.0 NaN 1488.0080160320638 1.240948134539057 517.0 2.0 352.0 
594.0001715784554 96156.0 NaN 1488.0080160320638 1.097470326693055 519.0 2.0 352.0 
596.0005626499758 96072.0 NaN 1491.0861723446899 1.4292319394682218 524.0 2.0 353.0 
598.0005626499758 96052.0 NaN 1488.0106880427527 1.2576467902744164 523.0 2.0 352.0 
600.0001715784554 96049.0 NaN 1487.9786239144964 1.1138063339586737 526.0 2.0 352.0 
602.0005626499758 96007.0 NaN 1484.9138276553101 1.4051294987317973 526.0 2.0 351.0 
604.0005626499758 96061.0 NaN 1484.9352037408157 1.258532265419171 524.0 2.0 351.0 
606.0001715784554 96049.0 NaN 1494.191048764194 1.0767690634695437 523.0 2.0 354.0 
608.0005626499758 96067.0 NaN 1497.226452905811 1.4257134438847225 524.0 2.0 355.0 
610.0005626499758 96059.0 NaN 1491.0915163660648 1.2841652012556475 523.0 2.0 353.0 
612.0001715784554 96014.0 NaN 1491.0781563126259 1.0529106113889284 522.0 2.0 353.0 
614.0005626499758 96054.0 NaN 1491.0594522378092 1.435358081685113 522.0 2.0 353.0 
616.0005626499758 96047.0 NaN 1487.9866399465607 1.2176129617048408 521.0 2.0 352.0 
618.0001715784554 96049.0 NaN 1497.2638610554447 1.0474443727313836 523.0 2.0 355.0 
620.0005626499758 96081.0 NaN 1494.167000668002 1.4376922406707504 522.0 2.0 354.0 
622.0005626499758 96054.0 NaN 1497.2451569806274 1.208824650450189 521.0 2.0 355.0 
624.0001715784554 96084.0 NaN 1497.2505010020031 1.075315613799949 520.0 2.0 355.0 
626.0005626499758 96055.0 NaN 1497.2665330661334 1.4098659087633747 518.0 2.0 355.0 
628.0005626499758 96026.0 NaN 1506.5437541750173 1.2307287708211216 517.0 2.0 358.0 
630.0001715784554 96008.0 NaN 1506.4956579826332 1.0862848222513009 515.0 3.0 357.0 
632.0005626499758 95977.0 NaN 1506.5010020040093 1.384699531915385 515.0 2.0 358.0 
634.0005626499758 96004.0 NaN 1512.6332665330656 1.2350901314204086 517.0 2.0 360.0 
636.0001715784554 96011.0 NaN 1509.6058784235122 1.064074371821122 516.0 2.0 359.0 
638.0005626499758 95975.0 NaN 1509.5978623914484 1.4124241533788993 517.0 2.0 359.0 
640.0005626499758 95990.0 NaN 1515.7675350701395 1.2737448347486806 525.0 2.0 361.0 
642.0001715784554 95945.0 NaN 1515.7408149632606 1.0416292940107408 526.0 2.0 361.0 
644.0005626499758 95949.0 NaN 1506.527722110889 1.4404706610569933 528.0 2.0 358.0 
646.0005626499758 95950.0 NaN 1512.6760187040738 1.247186864285948 526.0 2.0 360.0 
648.0001715784554 95945.0 NaN 1515.727454909819 1.0739962987852745 525.0 2.0 361.0 
650.0005626499758 95963.0 NaN 1518.8136272545091 1.4686267934746515 523.0 2.0 362.0 
652.0005626499758 95956.0 NaN 1515.7648630594533 1.2561209167217682 521.0 2.0 361.0 
654.0001715784554 95958.0 NaN 1518.8804275217092 1.1225366442202187 522.0 2.0 362.0 
656.0005626499758 95951.0 NaN 1518.859051436206 1.4534324286347915 518.0 2.0 362.0 
658.0005626499758 95965.0 NaN 1531.1583166332657 1.2892814110705337 515.0 2.0 366.0 
660.0001715784554 95998.0 NaN 1531.0995323981283 1.1542103776918442 514.0 2.0 366.0 
662.0005626499758 95982.0 NaN 1531.0941883767546 1.4664765495063017 513.0 2.0 366.0 
664.0005626499758 95960.0 NaN 1534.1536406145638 1.3174264323297666 515.0 2.0 367.0 
#####################################################################
# End of data export. Simulation finished at: 2019-03-07T10:11+0000 #
#####################################################################
