#####################################################################
# Alchemist log file - simulation started at: 2019-03-06T22:24+0000 #
#####################################################################
# seed = 4.0, bandwidth = 5623413.251903491, propagationDelay = 0.03162277660168379, baserange = 56.234132519034915
#
# The columns have the following meaning: 
# time neighbor_count[Sum] <value>@neighbor_count[Sum] packet_size[Mean] mean_delay[Mean] crowd[Sum] overcrowded[Sum] risk[Sum] 
0.0 NaN NaN NaN NaN NaN NaN NaN 
2.0004793365590676 6160.0 NaN 4996.157648630595 0.501320487017523 1496.0 1.0 1496.0 
4.00042902272939 6162.0 NaN 4998.645290581162 0.5013897117578996 1491.0 6.0 1491.0 
6.000479336559067 6162.0 NaN 4996.061456245825 0.5013905512028176 1487.0 10.0 1487.0 
8.000479336559067 6162.0 NaN 4996.793587174348 0.5017350013495281 1465.0 32.0 1465.0 
10.000479336559067 6164.0 NaN 4995.3453573814295 0.5015098988992988 1464.0 33.0 1464.0 
12.000479336559067 6170.0 NaN 4995.3480293921175 0.5017039325484196 1460.0 37.0 1460.0 
14.00042902272939 6172.0 NaN 4994.490313961256 0.50168988693289 1460.0 37.0 1460.0 
16.000479336559067 6187.0 NaN 4995.238476953908 0.5026914861939085 1446.0 51.0 1446.0 
18.000479336559067 6187.0 NaN 4994.0307281229125 0.5028413729694796 1454.0 43.0 1454.0 
20.000479336559067 6186.0 NaN 4994.883099532398 0.5021858880776223 1450.0 47.0 1450.0 
22.000479336559067 6186.0 NaN 4993.651302605211 0.5015130915309154 1448.0 49.0 1448.0 
24.000429022729392 6188.0 NaN 4994.60788243153 0.5014928126299237 1450.0 47.0 1450.0 
26.000479336559067 6207.0 NaN 4993.603206412826 0.5048490049710199 1451.0 46.0 1451.0 
28.000479336559067 6204.0 NaN 4994.554442217769 0.5044843990897563 1447.0 50.0 1447.0 
30.000479336559067 6208.0 NaN 4993.691382765531 0.5028496939713107 1452.0 45.0 1452.0 
32.00047933655907 6202.0 NaN 4994.482297929192 0.5028048727419618 1452.0 45.0 1452.0 
34.00042902272939 6199.0 NaN 4993.645958583835 0.5018132063272179 1456.0 41.0 1456.0 
36.00047933655907 6228.0 NaN 4994.36205744823 0.5039767616509073 1451.0 46.0 1451.0 
38.00047933655907 6225.0 NaN 4993.576486305945 0.5025138168945252 1452.0 45.0 1452.0 
40.00047933655907 6222.0 NaN 4994.562458249833 0.5027177794780383 1452.0 45.0 1452.0 
42.00047933655907 6218.0 NaN 4993.547094188377 0.5033184079192008 1451.0 46.0 1451.0 
44.00042902272939 6217.0 NaN 4994.329993319973 0.5020065525726837 1452.0 45.0 1452.0 
46.00047933655907 6271.0 NaN 4993.619238476954 0.5030821579583986 1451.0 46.0 1451.0 
48.00047933655907 6271.0 NaN 4994.378089512358 0.5033937884566108 1452.0 45.0 1452.0 
50.00047933655907 6285.0 NaN 4993.568470273881 0.5028879135849547 1451.0 46.0 1451.0 
52.00047933655907 6275.0 NaN 4994.308617234469 0.5049815300640302 1451.0 46.0 1451.0 
54.00042902272939 6272.0 NaN 4993.437541750167 0.5037142360096384 1445.0 52.0 1445.0 
56.00047933655907 6302.0 NaN 4994.287241148964 0.5085844775730449 1445.0 52.0 1445.0 
58.00047933655907 6259.0 NaN 4993.63794255177 0.5048646390810575 1445.0 52.0 1445.0 
60.00047933655907 6266.0 NaN 4991.3159652638615 0.504271829627033 1445.0 52.0 1444.0 
62.00029589711329 6269.0 NaN 1522.1536406145638 0.5091863856277825 721.0 56.0 309.0 
64.00029589711328 6251.0 NaN 1521.9158316633273 0.50429229409289 558.0 62.0 303.0 
66.00029589711328 6285.0 NaN 1524.8176352705425 0.5043011816803803 527.0 56.0 310.0 
68.00029589711328 6290.0 NaN 1524.8042752171 0.5065655003534938 487.0 59.0 307.0 
70.00029589711328 6286.0 NaN 1524.8470273881092 0.5039982704941504 469.0 62.0 304.0 
72.00029589711328 6289.0 NaN 1527.890447561791 0.5053279079736763 478.0 51.0 316.0 
74.00029589711328 6280.0 NaN 1530.9231796927181 0.5038498732124141 475.0 52.0 316.0 
76.00029589711328 6296.0 NaN 1531.006012024048 0.507061730247977 474.0 53.0 315.0 
78.00029589711328 6295.0 NaN 1533.9719438877753 0.5074821357570231 477.0 49.0 320.0 
80.00029589711328 6305.0 NaN 1537.1275885103548 0.5044345891465152 474.0 52.0 318.0 
82.00029589711328 6292.0 NaN 1537.0607882431543 0.5090259696910262 465.0 62.0 308.0 
84.00029589711328 6271.0 NaN 1537.0420841683363 0.5033234207941532 472.0 55.0 315.0 
86.00029589711328 6279.0 NaN 1537.1382765531064 0.504640540249602 464.0 60.0 310.0 
88.00029589711328 6276.0 NaN 1537.0207080828332 0.5065452889172403 466.0 57.0 313.0 
90.00029589711328 6270.0 NaN 1537.1516366065453 0.5046709446394819 463.0 61.0 309.0 
92.00029589711328 6261.0 NaN 1537.0100200400816 0.5085532721357076 471.0 52.0 318.0 
94.00029589711328 6241.0 NaN 1537.0394121576483 0.5023464342272264 471.0 52.0 318.0 
96.00029589711328 6261.0 NaN 1537.1169004676003 0.5037629189239458 470.0 53.0 317.0 
98.00029589711328 6263.0 NaN 1536.9645958583822 0.5040389662634797 469.0 54.0 316.0 
100.00029589711328 6269.0 NaN 1540.1683366733457 0.504460943004875 468.0 55.0 316.0 
102.00029589711328 6266.0 NaN 1540.1336005344003 0.5062202971604023 470.0 53.0 318.0 
104.00029589711328 6262.0 NaN 1540.1523046092182 0.5066671876244391 470.0 53.0 318.0 
106.00029589711328 6266.0 NaN 1540.1629926519724 0.5049525597948054 467.0 56.0 315.0 
108.00029589711328 6262.0 NaN 1540.1977287909156 0.5124306331055877 470.0 54.0 317.0 
110.00029589711328 6260.0 NaN 1540.157648630594 0.506205363171689 464.0 60.0 311.0 
112.00029589711328 6256.0 NaN 1540.1629926519724 0.5080473696245206 467.0 56.0 315.0 
114.00029589711328 6243.0 NaN 1540.114896459585 0.5037847789970651 467.0 57.0 314.0 
116.00029589711328 6260.0 NaN 1540.1683366733457 0.5055145595650935 467.0 58.0 313.0 
118.00029589711328 6287.0 NaN 1546.3486973947906 0.504756257091078 470.0 56.0 317.0 
120.00029589711328 6307.0 NaN 1549.4749498998 0.505617188466465 472.0 55.0 319.0 
122.00029589711328 6283.0 NaN 1549.4161656646638 0.5087930000742497 474.0 53.0 321.0 
124.00029589711328 6280.0 NaN 1549.3947895791573 0.5033722473673664 470.0 56.0 318.0 
126.00029589711328 6301.0 NaN 1549.4589178356728 0.5048088073102801 474.0 52.0 322.0 
128.0002958971133 6310.0 NaN 1549.3680694722789 0.507039334286334 473.0 53.0 321.0 
130.0002958971133 6300.0 NaN 1546.458249833 0.5083270780833368 471.0 54.0 319.0 
132.0002958971133 6296.0 NaN 1543.29191716767 0.5111279430772475 475.0 48.0 324.0 
134.0002958971133 6273.0 NaN 1540.2859051436205 0.5056839417596088 472.0 51.0 320.0 
136.0002958971133 6266.0 NaN 1540.1977287909153 0.5057449627618876 477.0 47.0 324.0 
138.0002958971133 6266.0 NaN 1543.265197060788 0.5054376887434039 470.0 53.0 319.0 
140.0002958971133 6290.0 NaN 1540.2645290581181 0.5085631837559924 467.0 54.0 317.0 
142.0002958971133 6302.0 NaN 1546.412825651303 0.5116811754238265 465.0 55.0 318.0 
144.0002958971133 6284.0 NaN 1549.5551102204392 0.505866974336354 470.0 52.0 322.0 
146.0002958971133 6291.0 NaN 1546.3700734802937 0.5060265649119671 465.0 56.0 317.0 
148.0002958971133 6283.0 NaN 1552.5103540414182 0.5101399966775373 462.0 59.0 316.0 
150.0002958971133 6294.0 NaN 1552.5931863727455 0.5109136631053072 468.0 52.0 323.0 
152.0002958971133 6283.0 NaN 1549.3974615898453 0.5126421464089482 465.0 55.0 319.0 
154.0002958971133 6247.0 NaN 1543.2972611890457 0.5074958446049078 459.0 58.0 314.0 
156.0002958971133 6242.0 NaN 1543.2331329325302 0.506690712682038 458.0 57.0 315.0 
158.0002958971133 6221.0 NaN 1543.2331329325302 0.5129846535888722 458.0 59.0 313.0 
160.0002958971133 6249.0 NaN 1543.219772879091 0.5095795755041348 462.0 56.0 316.0 
162.0002958971133 6227.0 NaN 1543.2171008684031 0.5084892532387584 462.0 56.0 316.0 
164.0002958971133 6205.0 NaN 1543.1422845691366 0.5051149977527549 461.0 56.0 316.0 
166.0002958971133 6229.0 NaN 1546.2284569138271 0.5086594091033865 459.0 58.0 315.0 
168.0002958971133 6212.0 NaN 1543.1476285905153 0.5102893127967014 461.0 55.0 317.0 
170.0002958971133 6242.0 NaN 1543.201068804275 0.50764308830174 464.0 52.0 320.0 
172.0002958971133 6233.0 NaN 1543.2518370073478 0.5137247927152132 466.0 52.0 320.0 
174.0002958971133 6195.0 NaN 1537.0714762859063 0.5070879872043724 463.0 53.0 317.0 
176.0002958971133 6206.0 NaN 1540.1763527054093 0.510340867266445 464.0 52.0 319.0 
178.0002958971133 6195.0 NaN 1540.0668002671998 0.512087274248044 462.0 54.0 317.0 
180.0002958971133 6209.0 NaN 1540.1629926519727 0.5070142333746007 464.0 53.0 318.0 
182.0002958971133 6192.0 NaN 1537.0714762859063 0.5061647636326043 461.0 55.0 315.0 
184.0002958971133 6191.0 NaN 1537.0607882431543 0.504758510788943 456.0 59.0 311.0 
186.0002958971133 6194.0 NaN 1540.1496325985297 0.505944057632532 458.0 58.0 313.0 
188.0002958971133 6191.0 NaN 1537.0581162324636 0.5086302654011996 456.0 60.0 310.0 
190.0002958971133 6187.0 NaN 1534.105544422179 0.5077327234745999 454.0 62.0 307.0 
192.0002958971133 6174.0 NaN 1537.0848363393457 0.5085849056888881 453.0 63.0 307.0 
194.0002958971133 6152.0 NaN 1537.1489645958575 0.5115756830003799 454.0 62.0 308.0 
196.0002958971133 6134.0 NaN 1537.0340681362727 0.5090436214383466 456.0 60.0 310.0 
198.0002958971133 6135.0 NaN 1537.0688042752186 0.5090965829638715 454.0 63.0 307.0 
200.0002958971133 6137.0 NaN 1537.0394121576483 0.5086017628996768 458.0 58.0 312.0 
202.0002958971133 6129.0 NaN 1543.251837007348 0.5086010483032762 454.0 63.0 309.0 
204.0002958971133 6112.0 NaN 1546.2818971275888 0.5065035695180621 461.0 58.0 315.0 
206.0002958971133 6110.0 NaN 1546.233800935203 0.5167551208621036 452.0 65.0 308.0 
208.0002958971133 6099.0 NaN 1536.956579826318 0.5181373789949453 452.0 64.0 306.0 
210.0002958971133 6096.0 NaN 1537.071476285906 0.5091170725267168 449.0 67.0 303.0 
212.0002958971133 6103.0 NaN 1536.9619238476937 0.514163285931308 450.0 65.0 305.0 
214.0002958971133 6068.0 NaN 1539.975951903809 0.5082776656012343 459.0 57.0 314.0 
216.0002958971133 6083.0 NaN 1536.921843687373 0.5101128635405165 454.0 62.0 308.0 
218.0002958971133 6078.0 NaN 1536.9245156980637 0.5072870121447163 453.0 59.0 311.0 
220.0002958971133 6088.0 NaN 1536.9859719438882 0.5133274330324024 453.0 59.0 311.0 
222.0002958971133 6057.0 NaN 1533.9452237808937 0.5134723711794429 456.0 57.0 312.0 
224.0002958971133 6026.0 NaN 1533.8223112892456 0.5076219040820676 453.0 59.0 310.0 
226.0002958971133 6048.0 NaN 1536.873747494991 0.5083540012447243 450.0 61.0 309.0 
228.0002958971133 6054.0 NaN 1543.0541082164336 0.5124287667413111 451.0 64.0 308.0 
230.0002958971133 6042.0 NaN 1543.163660654643 0.51325737889917 456.0 57.0 315.0 
232.0002958971133 6021.0 NaN 1543.0594522378092 0.5134002210217092 457.0 57.0 315.0 
234.0002958971133 6004.0 NaN 1546.175016700066 0.5086559571847816 454.0 60.0 313.0 
236.0002958971133 6004.0 NaN 1539.9545758183024 0.509358614247873 454.0 58.0 313.0 
238.0002958971133 5998.0 NaN 1539.9893119572475 0.5122140736802613 452.0 60.0 311.0 
240.0002958971133 6001.0 NaN 1536.9539078156301 0.5094217137771607 454.0 59.0 311.0 
242.0002958971133 5998.0 NaN 1533.7795591182362 0.5114241063159722 455.0 57.0 312.0 
244.0002958971133 5983.0 NaN 1533.7715430861729 0.5087064602567865 461.0 52.0 317.0 
246.0002958971133 5990.0 NaN 1533.7875751503 0.5140079661326126 456.0 57.0 312.0 
248.0002958971133 5977.0 NaN 1533.7929191716755 0.513638667170914 451.0 60.0 309.0 
250.0002958971133 5968.0 NaN 1533.81696726787 0.5080544354084502 459.0 53.0 316.0 
252.0002958971133 5963.0 NaN 1530.714762859052 0.5128017185952781 458.0 54.0 314.0 
254.0002958971133 5942.0 NaN 1527.6633266533067 0.5061953753755496 459.0 52.0 315.0 
256.0002958971133 5962.0 NaN 1527.6633266533067 0.5146800471564943 459.0 52.0 315.0 
258.0002958971133 5926.0 NaN 1527.644622578491 0.5042541269023934 460.0 53.0 314.0 
260.0002958971133 5930.0 NaN 1524.6599866399454 0.511341535349539 460.0 53.0 313.0 
262.0002958971133 5945.0 NaN 1527.5991983967933 0.5100956410959335 460.0 52.0 315.0 
264.0002958971133 5911.0 NaN 1527.695390781564 0.5077538481277397 462.0 52.0 315.0 
266.0002958971133 5925.0 NaN 1543.0060120240475 0.5123445958202351 458.0 52.0 320.0 
268.0002958971133 5902.0 NaN 1543.054108216434 0.5088589428000879 458.0 53.0 319.0 
270.0002958971133 5894.0 NaN 1543.0487641950544 0.5080252072985084 453.0 58.0 314.0 
272.0002958971133 5898.0 NaN 1533.763527054109 0.515733643774707 450.0 59.0 310.0 
274.0002958971133 5883.0 NaN 1533.7555110220455 0.511249969274095 450.0 58.0 311.0 
276.0002958971133 5900.0 NaN 1536.9138276553092 0.5097533907254133 453.0 56.0 314.0 
278.0002958971133 5889.0 NaN 1539.8824315297275 0.5117549072683013 461.0 50.0 321.0 
280.0002958971133 5884.0 NaN 1539.8824315297275 0.5124841453401473 461.0 50.0 321.0 
282.0002958971133 5863.0 NaN 1539.9225116900454 0.5139358937615081 463.0 50.0 321.0 
284.0002958971133 5820.0 NaN 1533.6673346693365 0.5090167431954564 461.0 51.0 318.0 
286.0002958971133 5851.0 NaN 1533.790247160991 0.5136169529348082 461.0 49.0 320.0 
288.0002958971133 5848.0 NaN 1533.718102872411 0.5162232635395323 462.0 49.0 320.0 
290.0002958971133 5823.0 NaN 1530.6479625918519 0.5090491024454619 458.0 49.0 319.0 
292.0002958971133 5835.0 NaN 1530.594522378091 0.5117149353467385 459.0 49.0 319.0 
294.0002958971133 5819.0 NaN 1536.7855711422842 0.5090240726515505 459.0 49.0 321.0 
296.0002958971133 5815.0 NaN 1536.849699398798 0.5124136447262936 459.0 49.0 321.0 
298.0002958971133 5794.0 NaN 1539.853039412157 0.5103021373353644 459.0 49.0 322.0 
300.0002958971133 5801.0 NaN 1539.9732798931182 0.5086345851510803 458.0 49.0 322.0 
302.0002958971133 5786.0 NaN 1536.7160988643975 0.5126969973833903 458.0 49.0 321.0 
304.0002958971133 5768.0 NaN 1536.724114896461 0.5140907439563258 456.0 49.0 321.0 
306.0002958971133 5795.0 NaN 1530.6399465597844 0.5103881113852142 457.0 49.0 319.0 
308.0002958971133 5779.0 NaN 1530.6853707414816 0.5075757503856069 456.0 49.0 319.0 
310.0002958971133 5771.0 NaN 1530.6639946559794 0.5108565952050292 455.0 49.0 319.0 
312.0002958971133 5781.0 NaN 1533.7528390113546 0.5133210536328394 456.0 49.0 320.0 
314.0002958971133 5769.0 NaN 1533.7875751503 0.5065527401731512 458.0 49.0 320.0 
316.0002958971133 5784.0 NaN 1533.7448229792908 0.5142018582924422 458.0 49.0 320.0 
318.0002958971133 5751.0 NaN 1533.81696726787 0.5116528315673161 458.0 49.0 320.0 
320.0002958971133 5748.0 NaN 1533.8543754175003 0.5071121853794981 457.0 49.0 320.0 
322.0002958971133 5759.0 NaN 1530.6533066132274 0.5106841438770231 457.0 49.0 319.0 
324.0002958971133 5743.0 NaN 1530.7468269873093 0.5076952136427615 457.0 49.0 319.0 
326.0002958971133 5754.0 NaN 1530.6239144956576 0.5099248285407415 456.0 50.0 318.0 
328.0002958971133 5744.0 NaN 1533.7261189044755 0.5072041869898609 453.0 53.0 316.0 
330.0002958971133 5762.0 NaN 1530.6559786239152 0.5061898547720526 452.0 52.0 316.0 
332.0002958971133 5773.0 NaN 1527.6072144288573 0.5132372533150213 455.0 49.0 318.0 
334.0002958971133 5750.0 NaN 1533.7127588510366 0.5046806696448093 457.0 49.0 320.0 
336.0002958971133 5767.0 NaN 1527.6766867067456 0.5110165876957656 457.0 49.0 318.0 
338.0002958971133 5765.0 NaN 1527.5110220440883 0.5075101937578627 457.0 49.0 318.0 
340.0002958971133 5779.0 NaN 1527.5885103540422 0.5118955246888343 458.0 49.0 318.0 
342.0002958971133 5798.0 NaN 1527.5591182364726 0.5127900202616796 460.0 49.0 318.0 
344.0002958971133 5765.0 NaN 1533.6486305945211 0.505149082595351 463.0 49.0 320.0 
346.0002958971133 5784.0 NaN 1533.694054776218 0.5076288409580701 463.0 49.0 320.0 
348.0002958971133 5772.0 NaN 1530.7281229124908 0.5064351982983863 462.0 49.0 319.0 
350.0002958971133 5776.0 NaN 1524.4996659986634 0.5098196481946702 461.0 49.0 317.0 
352.0002958971133 5789.0 NaN 1524.4408817635274 0.5131715091707193 464.0 49.0 317.0 
354.0002958971133 5773.0 NaN 1524.408817635272 0.5049097017602808 463.0 49.0 317.0 
356.0002958971133 5786.0 NaN 1524.4649298597187 0.5102604948091775 462.0 49.0 317.0 
358.0002958971133 5771.0 NaN 1524.5263861055455 0.5138795608221001 462.0 49.0 317.0 
360.0002958971133 5754.0 NaN 1524.480961923846 0.508769717410446 463.0 48.0 318.0 
362.0002958971133 5762.0 NaN 1524.4275217100878 0.5116124980297228 466.0 48.0 318.0 
364.0002958971133 5737.0 NaN 1524.4008016032067 0.5115478161118989 462.0 50.0 316.0 
366.0002958971133 5755.0 NaN 1515.2331329325305 0.5133436384346524 464.0 48.0 315.0 
368.0002958971133 5742.0 NaN 1512.1790247161 0.5053478136486029 464.0 48.0 314.0 
370.0002958971133 5763.0 NaN 1509.1569806279215 0.50988814104 466.0 48.0 313.0 
372.0002958971133 5785.0 NaN 1512.168336673346 0.5189631706710676 468.0 48.0 314.0 
374.0002958971133 5753.0 NaN 1509.1249164996655 0.509544921189056 464.0 51.0 310.0 
376.0002958971133 5768.0 NaN 1509.047428189712 0.5056753200635636 464.0 49.0 312.0 
378.0002958971133 5763.0 NaN 1505.9478957915826 0.5062377355959966 465.0 51.0 309.0 
380.0002958971133 5779.0 NaN 1505.9478957915826 0.5128662481420037 465.0 50.0 310.0 
382.0002958971133 5782.0 NaN 1508.9325317301273 0.5232862675887198 463.0 52.0 309.0 
384.0002958971133 5753.0 NaN 1512.1282565130266 0.5031173082298869 465.0 49.0 313.0 
386.0002958971133 5778.0 NaN 1515.1636606546433 0.5062862946519892 464.0 52.0 311.0 
388.0002958971133 5766.0 NaN 1515.219772879091 0.5116153857413672 463.0 53.0 310.0 
390.0002958971133 5758.0 NaN 1509.0794923179697 0.5100309633975807 466.0 50.0 311.0 
392.0002958971133 5787.0 NaN 1509.1676686706735 0.5126387556378359 466.0 49.0 312.0 
394.0002958971133 5770.0 NaN 1509.0768203072819 0.508395836454706 463.0 52.0 309.0 
396.0002958971133 5795.0 NaN 1512.235136940546 0.5117251189711742 463.0 52.0 310.0 
398.0002958971133 5782.0 NaN 1509.0768203072819 0.5076221969006163 468.0 49.0 312.0 
400.0002958971133 5780.0 NaN 1506.0654642618567 0.5117079508938293 465.0 52.0 308.0 
402.0002958971133 5816.0 NaN 1512.2725450901812 0.5201077401186506 470.0 48.0 314.0 
404.0002958971133 5783.0 NaN 1509.1649966599878 0.5072900963764905 471.0 48.0 313.0 
406.0002958971133 5817.0 NaN 1512.3126252505 0.5097462409389136 470.0 49.0 313.0 
408.0002958971133 5826.0 NaN 1515.4816299265187 0.5106215189921179 470.0 50.0 313.0 
410.0002958971133 5830.0 NaN 1518.4342017368085 0.5129266615546405 469.0 50.0 314.0 
412.0002958971133 5829.0 NaN 1524.6573146292576 0.5239786295339821 469.0 50.0 316.0 
414.0002958971133 5782.0 NaN 1527.6659986639938 0.5129978300875543 470.0 49.0 318.0 
416.0002958971133 5799.0 NaN 1524.6412825651298 0.513256778303273 472.0 49.0 317.0 
418.0002958971133 5782.0 NaN 1515.2705410821636 0.5172068171639378 468.0 48.0 315.0 
420.0002958971133 5791.0 NaN 1512.2404809619243 0.514185347113846 466.0 48.0 314.0 
422.0002958971133 5772.0 NaN 1515.235804943219 0.5267507670009616 465.0 49.0 314.0 
424.0002958971133 5749.0 NaN 1512.1843687374735 0.5101875060736063 468.0 49.0 313.0 
426.0002958971133 5755.0 NaN 1512.1442885771546 0.5195997908545197 467.0 49.0 313.0 
428.0002958971133 5731.0 NaN 1515.2331329325305 0.5112559088531254 467.0 48.0 315.0 
430.0002958971133 5755.0 NaN 1509.0554442217758 0.512112967364477 473.0 48.0 313.0 
432.0002958971133 5739.0 NaN 1515.2331329325305 0.5175975173312646 471.0 50.0 313.0 
434.0002958971133 5727.0 NaN 1521.360053440215 0.5092743388838792 468.0 54.0 311.0 
436.0002958971133 5733.0 NaN 1524.4649298597187 0.5140790695743079 471.0 48.0 318.0 
438.0002958971133 5727.0 NaN 1527.649966599866 0.5099523244823337 475.0 48.0 319.0 
440.0002958971133 5757.0 NaN 1527.5457581830335 0.5168044162016043 476.0 48.0 319.0 
442.0002958971133 5764.0 NaN 1527.625918503673 0.5151051168321061 477.0 48.0 319.0 
444.0002958971133 5762.0 NaN 1524.4969939879752 0.5080150500438055 476.0 48.0 318.0 
446.0002958971133 5763.0 NaN 1518.3059452237817 0.5147152500566574 475.0 48.0 316.0 
448.0002958971133 5755.0 NaN 1536.8630594522367 0.5180518312079209 476.0 48.0 322.0 
450.0002958971133 5791.0 NaN 1546.0681362725456 0.5151577054229464 477.0 48.0 325.0 
452.0002958971133 5763.0 NaN 1549.1142284569148 0.5113034031820909 476.0 48.0 326.0 
454.0002958971133 5754.0 NaN 1549.1703406813635 0.5078786032338756 476.0 48.0 326.0 
456.0002958971133 5755.0 NaN 1549.1409485637937 0.5126072120934486 474.0 48.0 326.0 
458.0002958971133 5745.0 NaN 1549.092852371409 0.5143952740320394 474.0 48.0 326.0 
460.0002958971133 5777.0 NaN 1546.0040080160334 0.5185841436198206 473.0 49.0 324.0 
462.0002958971133 5758.0 NaN 1542.8937875751517 0.5167945966968803 470.0 49.0 323.0 
464.0002958971133 5745.0 NaN 1542.9819639278544 0.5105620421694739 471.0 49.0 323.0 
466.0002958971133 5750.0 NaN 1545.9532398129609 0.5144344656580598 473.0 49.0 324.0 
468.0002958971133 5734.0 NaN 1542.904475617902 0.5100854704156892 472.0 49.0 323.0 
470.0002958971133 5744.0 NaN 1542.9338677354724 0.5187222613750295 472.0 49.0 323.0 
472.0002958971133 5737.0 NaN 1539.7621910487635 0.5201439105709111 473.0 49.0 322.0 
474.0002958971133 5747.0 NaN 1530.6533066132274 0.5162314097750833 469.0 50.0 318.0 
476.0002958971133 5755.0 NaN 1524.408817635272 0.5169935183828803 465.0 53.0 313.0 
478.0002958971133 5742.0 NaN 1521.3333333333342 0.5120407772843036 468.0 50.0 315.0 
480.0002958971133 5758.0 NaN 1524.4355377421516 0.5150591709328725 468.0 49.0 317.0 
482.0002958971133 5721.0 NaN 1524.5023380093523 0.516970285033199 461.0 56.0 310.0 
484.0002958971133 5711.0 NaN 1524.4221776887098 0.513934045487051 467.0 49.0 317.0 
486.0002958971133 5737.0 NaN 1512.1870407481636 0.5213143424460615 465.0 49.0 313.0 
488.0002958971133 5697.0 NaN 1509.0581162324643 0.5140348309144962 464.0 49.0 312.0 
490.0002958971133 5715.0 NaN 1490.7227788911161 0.5107618854857661 463.0 49.0 306.0 
492.0002958971133 5708.0 NaN 1490.6907147628576 0.520216430889291 461.0 49.0 306.0 
494.0002958971133 5698.0 NaN 1493.7742150968613 0.5163911154669405 458.0 49.0 307.0 
496.0002958971133 5700.0 NaN 1493.7074148296606 0.5132224151263246 455.0 49.0 307.0 
498.0002958971133 5690.0 NaN 1490.6319305277211 0.5133879102942152 455.0 49.0 306.0 
500.0002958971133 5694.0 NaN 1481.3894455577818 0.5096697435245002 460.0 49.0 303.0 
502.0002958971133 5692.0 NaN 1481.4375417501665 0.5177111190211728 460.0 50.0 302.0 
504.0002958971133 5682.0 NaN 1484.518370073481 0.5110289946492713 458.0 51.0 302.0 
506.0002958971133 5720.0 NaN 1493.750167000667 0.5169094379449749 460.0 51.0 305.0 
508.0002958971133 5702.0 NaN 1484.6065464261847 0.5057030232178562 458.0 51.0 302.0 
510.0002958971133 5710.0 NaN 1490.7254509018028 0.5090086090800361 454.0 54.0 301.0 
512.0002958971132 5715.0 NaN 1490.7975951903816 0.5179072339052491 457.0 53.0 302.0 
514.0002958971132 5691.0 NaN 1478.362057448229 0.5102469634191473 458.0 53.0 298.0 
516.0002958971132 5712.0 NaN 1478.4448897795608 0.5186714930948975 455.0 54.0 297.0 
518.0002958971132 5695.0 NaN 1459.9679358717444 0.5062107718603904 456.0 53.0 292.0 
520.0002958971132 5736.0 NaN 1460.0668002672003 0.5153221896537653 459.0 50.0 295.0 
522.0002958971132 5712.0 NaN 1460.0053440213755 0.5131691949192558 456.0 50.0 295.0 
524.0002958971132 5697.0 NaN 1463.1556446225793 0.5062828294812672 452.0 51.0 295.0 
526.0002958971132 5719.0 NaN 1453.8356713426847 0.5187214675671494 452.0 50.0 293.0 
528.0002958971132 5686.0 NaN 1450.8430193720785 0.5159543109172511 451.0 49.0 293.0 
530.0002958971132 5679.0 NaN 1453.8490313961263 0.5143465882980713 451.0 51.0 292.0 
532.0002958971132 5689.0 NaN 1463.1636606546433 0.510844929922978 451.0 51.0 295.0 
534.0002958971132 5693.0 NaN 1463.1155644622572 0.5083022600241835 450.0 49.0 297.0 
536.0002958971132 5713.0 NaN 1460.173680694724 0.5151925108775606 452.0 50.0 295.0 
538.0002958971132 5695.0 NaN 1463.2117568470271 0.5130558653601707 451.0 51.0 295.0 
540.0002958971132 5707.0 NaN 1466.407481629927 0.513270805102924 454.0 49.0 298.0 
542.0002958971132 5702.0 NaN 1472.3660654642626 0.5150440058682646 453.0 51.0 298.0 
544.0002958971132 5710.0 NaN 1475.5377421509693 0.5062142072157039 459.0 49.0 301.0 
546.0002958971132 5738.0 NaN 1472.3179692718766 0.5174321433917974 457.0 51.0 298.0 
548.0002958971132 5708.0 NaN 1469.2424849699391 0.5132494826742745 460.0 48.0 300.0 
550.0002958971132 5710.0 NaN 1469.213092852372 0.510318601443417 460.0 50.0 298.0 
552.0002958971132 5701.0 NaN 1469.2558450233807 0.5186683508910161 461.0 48.0 300.0 
554.0002958971132 5726.0 NaN 1469.218436873747 0.5086375267553394 459.0 50.0 298.0 
556.0002958971132 5751.0 NaN 1469.1489645958577 0.5136167097024569 462.0 48.0 300.0 
558.0002958971132 5727.0 NaN 1469.247828991317 0.5119851361196697 456.0 55.0 293.0 
560.0002958971132 5728.0 NaN 1459.973279893119 0.514293471327536 457.0 49.0 296.0 
562.0002958971132 5725.0 NaN 1459.954575818303 0.5126246353332529 452.0 54.0 291.0 
564.0002958971132 5734.0 NaN 1456.964595858383 0.5118237100819114 455.0 51.0 293.0 
566.0002958971132 5738.0 NaN 1463.1796927187713 0.513246801454701 458.0 49.0 297.0 
568.0002958971132 5746.0 NaN 1484.7241148964604 0.5097236456963464 455.0 52.0 301.0 
570.0002958971132 5768.0 NaN 1484.8844355377425 0.5167566727425238 458.0 52.0 301.0 
572.0002958971132 5750.0 NaN 1481.6913827655303 0.5187809644884896 458.0 51.0 301.0 
574.0002958971132 5755.0 NaN 1478.5918503674009 0.5150591675212656 454.0 55.0 296.0 
576.0002958971132 5755.0 NaN 1487.8289913159647 0.5201209671091251 456.0 53.0 301.0 
578.0002958971132 5721.0 NaN 1481.6566466265872 0.5145842645688374 453.0 55.0 297.0 
580.0002958971132 5726.0 NaN 1487.7915831663333 0.5287474235189694 454.0 56.0 298.0 
582.0002958971132 5703.0 NaN 1487.8129592518364 0.515997242271469 460.0 51.0 303.0 
584.0002958971132 5724.0 NaN 1490.81095524382 0.5115104059177565 459.0 51.0 304.0 
586.0002958971132 5737.0 NaN 1487.7327989311968 0.5177688271383669 464.0 51.0 303.0 
588.0002958971132 5699.0 NaN 1487.8129592518364 0.5166113588351223 467.0 51.0 303.0 
590.0002958971132 5714.0 NaN 1490.7842351369395 0.517431199813317 467.0 51.0 304.0 
592.0002958971132 5690.0 NaN 1487.7221108884441 0.5109085215603986 467.0 52.0 302.0 
594.0002958971132 5697.0 NaN 1490.8269873079485 0.5094045225567881 466.0 54.0 301.0 
596.0002958971132 5712.0 NaN 1487.7381429525724 0.5167818041254256 474.0 51.0 303.0 
598.0002958971132 5671.0 NaN 1487.6392785571147 0.5173916167485516 475.0 51.0 303.0 
600.0002958971132 5680.0 NaN 1487.7728790915169 0.5140261801527255 473.0 52.0 302.0 
602.0002958971132 5693.0 NaN 1499.9171676686713 0.5159529798262209 474.0 53.0 305.0 
604.0002958971132 5715.0 NaN 1496.8630594522374 0.5106537345916232 475.0 51.0 306.0 
606.0002958971132 5744.0 NaN 1500.0053440213758 0.5173251112291664 473.0 51.0 307.0 
608.0002958971132 5731.0 NaN 1506.1295925183708 0.509178642353878 472.0 52.0 308.0 
610.0002958971132 5743.0 NaN 1512.3179692718757 0.511774186314614 471.0 54.0 308.0 
612.0002958971132 5742.0 NaN 1509.3146292585182 0.5150604458349505 469.0 55.0 306.0 
614.0002958971132 5738.0 NaN 1506.1937207748826 0.5123827669017668 468.0 56.0 304.0 
616.0002958971132 5772.0 NaN 1506.1750167000657 0.5215959500394509 468.0 55.0 305.0 
618.0002958971132 5778.0 NaN 1503.1342685370737 0.5120232268043532 469.0 54.0 305.0 
620.0002958971132 5841.0 NaN 1512.3927855711433 0.5141609590678436 469.0 54.0 308.0 
622.0002958971132 5862.0 NaN 1524.6546426185719 0.5215075765022005 467.0 58.0 308.0 
624.0002958971132 5853.0 NaN 1521.5845023380089 0.5125798767748315 464.0 58.0 307.0 
626.0002958971132 5879.0 NaN 1524.6786907147637 0.5144663600533507 460.0 61.0 305.0 
628.0002958971132 5873.0 NaN 1524.6412825651294 0.506859490704637 467.0 56.0 310.0 
630.0002958971132 5915.0 NaN 1518.5250501002 0.5170704456914723 465.0 57.0 307.0 
632.0002958971132 5899.0 NaN 1521.6700066800274 0.5178048653063851 463.0 58.0 307.0 
634.0002958971132 5864.0 NaN 1524.646626586507 0.5098218052785498 466.0 53.0 313.0 
636.0002958971132 5880.0 NaN 1521.5951903807627 0.5192713275284663 471.0 53.0 312.0 
638.0002958971132 5840.0 NaN 1518.5036740146968 0.5082270738538373 473.0 54.0 310.0 
640.0002958971132 5856.0 NaN 1521.5791583166342 0.5118415797820949 462.0 64.0 301.0 
642.0002958971132 5840.0 NaN 1524.8176352705423 0.5240742975179198 471.0 59.0 307.0 
644.0002958971132 5802.0 NaN 1521.5818303273202 0.5134101429821523 471.0 57.0 308.0 
646.0002958971132 5847.0 NaN 1521.6700066800274 0.5164293296222827 465.0 59.0 306.0 
648.0002958971132 5835.0 NaN 1524.7000668002665 0.5089301720967687 464.0 59.0 307.0 
650.0002958971132 5843.0 NaN 1521.7902471609898 0.5182555667264905 462.0 57.0 308.0 
652.0002958971132 5827.0 NaN 1524.6332665330654 0.5140003354229303 462.0 57.0 309.0 
654.0002958971132 5815.0 NaN 1524.7508350033393 0.5082907186430381 463.0 55.0 311.0 
656.0002958971132 5847.0 NaN 1534.0173680694727 0.5206124944825811 466.0 51.0 318.0 
658.0002958971132 5813.0 NaN 1543.3987975951911 0.5093596694616621 464.0 52.0 320.0 
660.0002958971132 5828.0 NaN 1543.2732130928537 0.5147997439308727 464.0 52.0 320.0 
662.0002958971132 5825.0 NaN 1543.2999331997335 0.5171102171911713 463.0 51.0 321.0 
664.0002958971132 5815.0 NaN 1540.0480961923838 0.5108390013415434 463.0 50.0 321.0 
#####################################################################
# End of data export. Simulation finished at: 2019-03-06T22:30+0000 #
#####################################################################
