#####################################################################
# Alchemist log file - simulation started at: 2019-03-20T01:28+0000 #
#####################################################################
# seed = 9.0, bandwidth = 74989.42093324558, propagationDelay = 0.1, baserange = 10.0
#
# The columns have the following meaning: 
# time neighbor_count[Sum] <value>@neighbor_count[Sum] packet_size[Mean] mean_delay[Mean] crowd[Sum] overcrowded[Sum] risk[Sum] 
0.0 NaN NaN NaN NaN NaN NaN NaN 
2.0003374459614243 477.0 NaN 4990.271209084836 0.5244090498196096 1497.0 0.0 1497.0 
4.000337445961424 486.0 NaN 4992.042752171009 0.5319676056028829 1497.0 0.0 1497.0 
6.000337445961424 486.0 NaN 4990.663994655979 0.532049851278057 1497.0 0.0 1497.0 
8.000337445961424 486.0 NaN 4989.9425517702075 0.5321106450384591 1497.0 0.0 1497.0 
10.000337445961424 486.0 NaN 4989.723446893788 0.5321443208996924 1497.0 0.0 1497.0 
12.000337445961424 486.0 NaN 4989.520374081496 0.5321547194034824 1497.0 0.0 1497.0 
14.000337445961424 486.0 NaN 4989.581830327321 0.5321523694423809 1497.0 0.0 1497.0 
16.000337445961424 488.0 NaN 4989.498997995992 0.5337900630253664 1497.0 0.0 1497.0 
18.000337445961424 492.0 NaN 4989.547094188377 0.535377684373188 1497.0 0.0 1497.0 
20.000337445961424 492.0 NaN 4989.477621910488 0.545276914047865 1497.0 0.0 1497.0 
22.000337445961424 492.0 NaN 4989.533734134937 0.5716866253496287 1497.0 0.0 1497.0 
24.000337445961424 490.0 NaN 4989.520374081496 0.5599783814936208 1497.0 0.0 1497.0 
26.000337445961424 488.0 NaN 4989.541750167001 0.5310824690708627 1497.0 0.0 1497.0 
28.000337445961424 490.0 NaN 4989.573814295257 0.5349385474667055 1497.0 0.0 1497.0 
30.000337445961424 494.0 NaN 4989.424181696727 0.5479112476841282 1497.0 0.0 1497.0 
32.00033744596142 493.0 NaN 4989.539078156313 0.5519609487904591 1497.0 0.0 1497.0 
34.00033744596142 497.0 NaN 4989.576486305945 0.5366215155346684 1497.0 0.0 1497.0 
36.00033744596142 502.0 NaN 4989.552438209753 0.5375206460122947 1497.0 0.0 1497.0 
38.00033744596142 502.0 NaN 4989.464261857048 0.5671293014615518 1497.0 0.0 1497.0 
40.00033744596142 503.0 NaN 4989.571142284569 0.599616757674713 1497.0 0.0 1497.0 
42.00033744596142 499.0 NaN 4989.670006680027 0.5862617834821815 1497.0 0.0 1497.0 
44.00033744596142 503.0 NaN 4989.600534402138 0.5873010121192449 1497.0 0.0 1497.0 
46.00033744596142 507.0 NaN 4989.627254509018 0.5445334181474526 1497.0 0.0 1497.0 
48.00033744596142 512.0 NaN 4989.619238476954 0.559001082990006 1497.0 0.0 1497.0 
50.00033744596142 517.0 NaN 4989.694054776219 0.5609025596500384 1497.0 0.0 1497.0 
52.00033744596142 520.0 NaN 4989.694054776219 0.5710018053683769 1497.0 0.0 1497.0 
54.00033744596142 522.0 NaN 4989.656646626587 0.586659488300709 1497.0 0.0 1497.0 
56.00033744596142 522.0 NaN 4989.686038744155 0.5757389900086937 1497.0 0.0 1497.0 
58.00033744596142 525.0 NaN 4989.74749498998 0.6048861111742687 1497.0 0.0 1497.0 
60.00033744596142 518.0 NaN 4989.787575150301 0.596604653953397 1497.0 0.0 1497.0 
62.000056033023824 511.0 NaN 602.7922511690044 0.569398994363255 311.0 0.0 66.0 
64.00005603302382 507.0 NaN 602.6960587842348 0.6065641192798925 310.0 0.0 66.0 
66.00005603302381 506.0 NaN 605.7314629258517 0.6247197415338114 309.0 0.0 67.0 
68.00005603302381 503.0 NaN 605.734134936541 0.6062449558786522 296.0 0.0 67.0 
70.00005603302381 511.0 NaN 608.8256513026048 0.6694321513518579 265.0 0.0 68.0 
72.00005603302381 500.0 NaN 608.7748830995316 0.5925005196414319 231.0 0.0 68.0 
74.00005603302381 498.0 NaN 608.7855711422847 0.5792491049000031 205.0 0.0 68.0 
76.00005603302381 495.0 NaN 611.8877755511014 0.5482615978770693 178.0 0.0 69.0 
78.00005603302381 497.0 NaN 611.8423513694047 0.5973195815393001 164.0 0.0 69.0 
80.00005603302381 498.0 NaN 611.7969271877092 0.6182806186416089 155.0 0.0 69.0 
82.00005603302381 494.0 NaN 611.786239144956 0.5562749376726734 151.0 0.0 69.0 
84.00005603302381 490.0 NaN 611.786239144956 0.5821637282661833 144.0 0.0 69.0 
86.00005603302381 491.0 NaN 611.786239144956 0.6644213189354223 139.0 0.0 69.0 
88.00005603302381 491.0 NaN 611.786239144956 0.5691547886338407 141.0 0.0 69.0 
90.00005603302381 486.0 NaN 611.786239144956 0.5442406023377477 139.0 0.0 69.0 
92.00005603302381 490.0 NaN 608.7214428857715 0.5734277988762218 137.0 0.0 68.0 
94.00005603302381 486.0 NaN 605.6566466265863 0.5211918695691391 134.0 0.0 67.0 
96.00005603302381 488.0 NaN 605.6566466265863 0.5454176099165068 135.0 0.0 67.0 
98.00005603302381 490.0 NaN 608.7374749499002 0.5556299505540895 133.0 0.0 68.0 
100.00005603302381 493.0 NaN 611.8076152304606 0.5754225604292932 136.0 0.0 69.0 
102.00005603302381 492.0 NaN 611.7995991983965 0.5778356366432813 135.0 0.0 69.0 
104.00005603302381 488.0 NaN 608.729458917836 0.5363939774667992 131.0 0.0 68.0 
106.00005603302381 484.0 NaN 608.729458917836 0.5195194053257729 127.0 0.0 68.0 
108.00005603302381 490.0 NaN 608.729458917836 0.5524300800817585 128.0 0.0 68.0 
110.00005603302381 488.0 NaN 608.729458917836 0.5729239584064033 127.0 0.0 68.0 
112.00005603302381 488.0 NaN 608.7348029392119 0.5715267721546392 128.0 0.0 68.0 
114.00005603302381 485.0 NaN 608.729458917836 0.5901723458444945 127.0 0.0 68.0 
116.00005603302381 485.0 NaN 608.7561790247165 0.5877441919807376 124.0 0.0 68.0 
118.00005603302381 483.0 NaN 602.6346025384096 0.574216224651544 124.0 0.0 66.0 
120.00005603302381 482.0 NaN 596.5050100200403 0.5462704848706568 123.0 0.0 64.0 
122.00005603302381 481.0 NaN 599.5991983967939 0.5431503973440971 123.0 0.0 65.0 
124.00005603302381 486.0 NaN 596.5531062124246 0.5132730016451298 124.0 0.0 64.0 
126.00005603302381 491.0 NaN 599.5804943219773 0.5269582961585859 124.0 0.0 65.0 
128.0000560330238 493.0 NaN 599.5564462257851 0.5706015823790221 124.0 0.0 65.0 
130.00005603302384 500.0 NaN 599.5511022044092 0.5930583317019833 124.0 0.0 65.0 
132.00005603302384 492.0 NaN 599.5511022044092 0.5207022284526623 124.0 0.0 65.0 
134.00005603302384 500.0 NaN 605.712758851036 0.5141480870113436 128.0 0.0 67.0 
136.00005603302384 505.0 NaN 605.6913827655314 0.5329252379337892 125.0 0.0 67.0 
138.00005603302384 508.0 NaN 605.6887107548426 0.5684597484089539 125.0 0.0 67.0 
140.00005603302384 509.0 NaN 614.8911155644623 0.5666293852315377 124.0 0.0 70.0 
142.00005603302384 509.0 NaN 614.9098196392786 0.5292209506365259 124.0 0.0 70.0 
144.00005603302384 510.0 NaN 611.8183032732138 0.5404809336902452 124.0 0.0 69.0 
146.00005603302384 508.0 NaN 611.8183032732138 0.5521945224863839 124.0 0.0 69.0 
148.00005603302384 511.0 NaN 608.7481629926517 0.5354388321756045 124.0 0.0 68.0 
150.00005603302384 515.0 NaN 608.726786907147 0.5255251635954952 126.0 0.0 68.0 
152.00005603302384 521.0 NaN 611.8209752839001 0.5934933336988353 128.0 0.0 69.0 
154.00005603302384 523.0 NaN 614.8724114896454 0.6237181794060976 131.0 0.0 70.0 
156.00005603302384 506.0 NaN 614.8563794255183 0.5389895377938195 133.0 0.0 70.0 
158.00005603302384 508.0 NaN 611.8102872411497 0.566249265093153 135.0 0.0 69.0 
160.00005603302384 509.0 NaN 611.788911155645 0.5802614152871857 133.0 0.0 69.0 
162.00005603302384 507.0 NaN 608.7535070140277 0.594604810187223 131.0 0.0 68.0 
164.00005603302384 505.0 NaN 605.6619906479632 0.5793188152928104 131.0 0.0 67.0 
166.00005603302384 499.0 NaN 608.7428189712759 0.5582611595059384 133.0 0.0 68.0 
168.00005603302384 500.0 NaN 608.7588510354045 0.5739117636365276 134.0 0.0 68.0 
170.00005603302384 507.0 NaN 608.748162992652 0.6036308452427784 134.0 0.0 68.0 
172.00005603302384 504.0 NaN 608.7561790247162 0.5982534037237259 134.0 0.0 68.0 
174.00005603302384 509.0 NaN 605.6993987975956 0.6073564929350884 134.0 0.0 67.0 
176.00005603302384 507.0 NaN 608.7748830995316 0.6005318999376468 136.0 0.0 68.0 
178.00005603302384 503.0 NaN 608.7401469605879 0.5976407913002391 134.0 0.0 68.0 
180.00005603302384 498.0 NaN 608.700066800268 0.5596820882324981 131.0 0.0 68.0 
182.00005603302384 498.0 NaN 608.7107548430197 0.624342197966627 130.0 0.0 68.0 
184.00005603302384 489.0 NaN 608.6947227788909 0.5545751422007958 128.0 0.0 68.0 
186.00005603302384 486.0 NaN 605.6245824983299 0.5909888252184435 126.0 0.0 67.0 
188.00005603302384 484.0 NaN 605.6192384769541 0.6182386217269746 126.0 0.0 67.0 
190.00005603302384 496.0 NaN 614.9258517034071 0.6112268437036791 124.0 0.0 70.0 
192.00005603302384 496.0 NaN 618.0334001335998 0.5098578564312235 122.0 0.0 71.0 
194.00005603302384 497.0 NaN 617.9853039412158 0.5053074639920567 121.0 0.0 71.0 
196.00005603302384 507.0 NaN 617.9425517702069 0.5091694841067893 123.0 0.0 71.0 
198.00005603302384 506.0 NaN 614.8724114896454 0.516368319630864 123.0 0.0 70.0 
200.00005603302384 515.0 NaN 614.8884435537742 0.5656111879092254 124.0 0.0 70.0 
202.00005603302384 514.0 NaN 614.8777555110222 0.574466397310904 124.0 0.0 70.0 
204.00005603302384 511.0 NaN 614.8670674682703 0.5438246585720582 122.0 0.0 70.0 
206.00005603302384 520.0 NaN 627.2037408149637 0.5469860510688463 123.0 0.0 74.0 
208.00005603302384 518.0 NaN 624.1229124916499 0.5270431873874618 125.0 0.0 73.0 
210.00005603302384 523.0 NaN 624.1442885771546 0.5681627722424398 124.0 0.0 73.0 
212.00005603302384 526.0 NaN 624.1576486305952 0.6288241729294203 124.0 0.0 73.0 
214.00005603302384 520.0 NaN 621.0821643286571 0.6352463631632692 123.0 0.0 72.0 
216.00005603302384 512.0 NaN 621.100868403473 0.5503870104323291 124.0 0.0 72.0 
218.00005603302384 514.0 NaN 618.00668002672 0.5496743096452379 123.0 0.0 71.0 
220.00005603302384 506.0 NaN 618.0146960587846 0.5373088446606914 122.0 0.0 71.0 
222.00005603302384 507.0 NaN 617.99331997328 0.5902577936656199 122.0 0.0 71.0 
224.00005603302384 495.0 NaN 617.99331997328 0.5482278829605605 120.0 0.0 71.0 
226.00005603302384 494.0 NaN 618.0253841015362 0.5654363029689038 121.0 0.0 71.0 
228.00005603302384 498.0 NaN 618.0013360053438 0.6008453103712725 122.0 0.0 71.0 
230.00005603302384 492.0 NaN 617.9799599198391 0.5818351043341271 119.0 0.0 71.0 
232.00005603302384 494.0 NaN 614.931195724782 0.6403778356940413 117.0 0.0 70.0 
234.00005603302384 495.0 NaN 614.9285237140955 0.567254512343909 118.0 0.0 70.0 
236.00005603302384 500.0 NaN 618.0040080160318 0.5154989215329953 117.0 0.0 71.0 
238.00005603302384 503.0 NaN 614.9418837675346 0.5366710961038859 117.0 0.0 70.0 
240.00005603302384 501.0 NaN 614.9285237140955 0.5502946112002423 117.0 0.0 70.0 
242.00005603302384 508.0 NaN 618.0200400801608 0.5618345450560355 120.0 0.0 71.0 
244.00005603302384 510.0 NaN 621.0981963927863 0.575677298197922 119.0 0.0 72.0 
246.00005603302384 510.0 NaN 624.152304609218 0.5655098798420556 120.0 0.0 73.0 
248.00005603302384 511.0 NaN 627.2545090180365 0.5846964295975924 122.0 0.0 74.0 
250.00005603302384 509.0 NaN 627.1903807615226 0.5703950287891687 124.0 0.0 74.0 
252.00005603302384 508.0 NaN 627.2037408149637 0.5651530432816736 124.0 0.0 74.0 
254.00005603302384 513.0 NaN 627.1503006012032 0.5610319524995322 125.0 0.0 74.0 
256.00005603302384 514.0 NaN 627.1369405477624 0.556710413358069 124.0 0.0 74.0 
258.00005603302384 518.0 NaN 627.2064128256513 0.6131878416650552 125.0 0.0 74.0 
260.00005603302384 513.0 NaN 627.1957247829 0.6325683403833662 124.0 0.0 74.0 
262.00005603302384 503.0 NaN 627.1743486973954 0.6298731999734013 124.0 0.0 74.0 
264.00005603302384 493.0 NaN 627.1930527722105 0.5518853678454643 121.0 0.0 74.0 
266.00005603302384 501.0 NaN 627.1315965263865 0.5949079247468805 124.0 0.0 74.0 
268.00005603302384 507.0 NaN 630.2444889779557 0.602800403236099 123.0 0.0 75.0 
270.00005603302384 506.0 NaN 630.2124248497001 0.5735909375042668 124.0 0.0 75.0 
272.00005603302384 504.0 NaN 630.2044088176366 0.6263688143667836 124.0 0.0 75.0 
274.00005603302384 504.0 NaN 630.2124248497001 0.5954110627889325 121.0 0.0 75.0 
276.00005603302384 500.0 NaN 627.1422845691377 0.5778361800525011 121.0 0.0 74.0 
278.00005603302384 504.0 NaN 627.1396125584499 0.6177508263679948 121.0 0.0 74.0 
280.00005603302384 498.0 NaN 624.0881763527046 0.5597316269398496 120.0 0.0 73.0 
282.00005603302384 495.0 NaN 614.8804275217091 0.5425217665257355 119.0 0.0 70.0 
284.00005603302384 495.0 NaN 614.8937875751499 0.5414404585912012 118.0 0.0 70.0 
286.00005603302384 504.0 NaN 611.847695390782 0.5776146516452761 118.0 0.0 69.0 
288.00005603302384 503.0 NaN 611.8316633266526 0.565800485652111 120.0 0.0 69.0 
290.00005603302384 505.0 NaN 608.7481629926518 0.5452697656925571 118.0 0.0 68.0 
292.00005603302384 499.0 NaN 608.7561790247164 0.5243737164367712 118.0 0.0 68.0 
294.00005603302384 502.0 NaN 605.6940547762181 0.5286951982631644 118.0 0.0 67.0 
296.00005603302384 507.0 NaN 602.6452905811618 0.5901869914815081 119.0 0.0 66.0 
298.00005603302384 505.0 NaN 602.6292585170345 0.6006579623612315 115.0 0.0 66.0 
300.00005603302384 496.0 NaN 602.6132264529062 0.5617366488340687 114.0 0.0 66.0 
302.00005603302384 493.0 NaN 602.6078824315299 0.6238586710544464 114.0 0.0 66.0 
304.00005603302384 483.0 NaN 605.7234468937882 0.5529077358918459 115.0 0.0 67.0 
306.00005603302384 484.0 NaN 605.704742818971 0.5533939790200255 115.0 0.0 67.0 
308.00005603302384 478.0 NaN 605.7314629258519 0.5645331287859948 115.0 0.0 67.0 
310.00005603302384 476.0 NaN 605.7421509686045 0.5536829091628295 114.0 0.0 67.0 
312.00005603302384 474.0 NaN 605.7261189044756 0.5178378182126775 113.0 0.0 67.0 
314.00005603302384 478.0 NaN 608.8042752171 0.5521880756506997 113.0 0.0 68.0 
316.00005603302384 478.0 NaN 608.7722110888456 0.5707916002535479 114.0 0.0 68.0 
318.00005603302384 480.0 NaN 602.6399465597865 0.5694875105623306 115.0 0.0 66.0 
320.00005603302384 475.0 NaN 590.3780895123591 0.5518966458628918 116.0 0.0 62.0 
322.00005603302384 472.0 NaN 587.2758851035411 0.5065989837752116 116.0 0.0 61.0 
324.00005603302384 477.0 NaN 587.2758851035411 0.5425289070396794 115.0 0.0 61.0 
326.00005603302384 482.0 NaN 587.2438209752839 0.5714233992741603 113.0 0.0 61.0 
328.00005603302384 482.0 NaN 587.2545090180365 0.6112901712605698 111.0 0.0 61.0 
330.00005603302384 482.0 NaN 590.319305277221 0.5956586642671792 110.0 0.0 62.0 
332.00005603302384 477.0 NaN 590.3246492985978 0.5656171641734524 109.0 0.0 62.0 
334.00005603302384 480.0 NaN 590.3166332665335 0.5606774022192582 110.0 0.0 62.0 
336.00005603302384 481.0 NaN 590.321977287909 0.5289825506969571 107.0 0.0 62.0 
338.00005603302384 491.0 NaN 590.340681362725 0.56376804070973 110.0 0.0 62.0 
340.00005603302384 496.0 NaN 593.4054776219108 0.5638565321996617 108.0 0.0 63.0 
342.00005603302384 493.0 NaN 593.3894455577818 0.5782308662516733 111.0 0.0 63.0 
344.00005603302384 492.0 NaN 593.3894455577818 0.5891958864447644 111.0 0.0 63.0 
346.00005603302384 491.0 NaN 590.3326653306613 0.5500554514574271 111.0 0.0 62.0 
348.00005603302384 494.0 NaN 587.2812291249161 0.5544343264928002 110.0 0.0 61.0 
350.00005603302384 492.0 NaN 587.2651970607885 0.5866195999120213 110.0 0.0 61.0 
352.00005603302384 490.0 NaN 590.3353373413498 0.6109832948949383 110.0 0.0 62.0 
354.00005603302384 484.0 NaN 590.3486973947892 0.6065093039389303 110.0 0.0 62.0 
356.00005603302384 480.0 NaN 593.4028056112228 0.552027091650296 110.0 0.0 63.0 
358.00005603302384 488.0 NaN 590.3353373413498 0.5678260806053991 112.0 0.0 62.0 
360.00005603302384 484.0 NaN 590.3406813627253 0.5648459352034954 108.0 0.0 62.0 
362.00005603302384 483.0 NaN 590.3380093520368 0.5229924047803265 107.0 0.0 62.0 
364.00005603302384 479.0 NaN 590.3486973947893 0.5240958660667745 108.0 0.0 62.0 
366.00005603302384 481.0 NaN 590.3486973947893 0.5659958173147214 108.0 0.0 62.0 
368.00005603302384 481.0 NaN 584.2217768871076 0.5739850284184045 109.0 0.0 60.0 
370.00005603302384 488.0 NaN 581.1142284569136 0.6164300984258524 108.0 0.0 59.0 
372.00005603302384 481.0 NaN 581.1088844355378 0.5693228071273547 109.0 0.0 59.0 
374.00005603302384 481.0 NaN 584.1736806947226 0.5620225899079084 110.0 0.0 60.0 
376.00005603302384 480.0 NaN 587.2331329325318 0.5416949199032255 109.0 0.0 61.0 
378.00005603302384 483.0 NaN 590.3326653306613 0.5761616163220625 110.0 0.0 62.0 
380.00005603302384 482.0 NaN 590.3700734802939 0.5843676441400413 110.0 0.0 62.0 
382.00005603302384 479.0 NaN 590.3593854375414 0.5969599808616227 110.0 0.0 62.0 
384.00005603302384 473.0 NaN 593.4428857715429 0.5633165736336415 108.0 0.0 63.0 
386.00005603302384 466.0 NaN 593.4268537074154 0.5244925114849333 107.0 0.0 63.0 
388.00005603302384 474.0 NaN 596.5156980627927 0.5650759350690746 109.0 0.0 64.0 
390.00005603302384 476.0 NaN 596.5156980627927 0.6094504289113863 108.0 0.0 64.0 
392.00005603302384 480.0 NaN 599.65798263193 0.6034129399019084 109.0 0.0 65.0 
394.00005603302384 477.0 NaN 599.6285905143619 0.5596999753314554 109.0 0.0 65.0 
396.00005603302384 485.0 NaN 608.8657314629259 0.5626226285385056 110.0 0.0 68.0 
398.00005603302384 485.0 NaN 608.8764195056772 0.6396943764553654 112.0 0.0 68.0 
400.00005603302384 487.0 NaN 608.8203072812289 0.6414788178114974 112.0 0.0 68.0 
402.00005603302384 485.0 NaN 615.0113560454241 0.5717862696391111 114.0 0.0 70.0 
404.00005603302384 484.0 NaN 614.9579158316637 0.5448376825616946 115.0 0.0 70.0 
406.00005603302384 489.0 NaN 614.9525718102866 0.6006345560035801 115.0 0.0 70.0 
408.00005603302384 487.0 NaN 614.9258517034075 0.5850254390444777 115.0 0.0 70.0 
410.00005603302384 482.0 NaN 614.9018036072138 0.5114249962630342 115.0 0.0 70.0 
412.00005603302384 495.0 NaN 614.9498997995998 0.5691585871930714 115.0 0.0 70.0 
414.00005603302384 494.0 NaN 618.0173680694728 0.6020845939889788 115.0 0.0 71.0 
416.00005603302384 486.0 NaN 618.0574482297927 0.5947882817800804 116.0 0.0 71.0 
418.00005603302384 494.0 NaN 618.0146960587846 0.5621544172703521 116.0 0.0 71.0 
420.00005603302384 492.0 NaN 617.9772879091514 0.562771994877649 116.0 0.0 71.0 
422.00005603302384 504.0 NaN 624.1362725450908 0.5495623959828663 118.0 0.0 73.0 
424.00005603302384 505.0 NaN 627.1957247828999 0.5859355689838042 122.0 0.0 74.0 
426.00005603302384 501.0 NaN 627.158316633267 0.5756995352253893 124.0 0.0 74.0 
428.00005603302384 501.0 NaN 627.1796927187713 0.6308257912222497 125.0 0.0 74.0 
430.00005603302384 500.0 NaN 630.2444889779555 0.627717894606907 126.0 0.0 75.0 
432.00005603302384 491.0 NaN 633.3627254509012 0.5761944437362795 128.0 0.0 76.0 
434.00005603302384 487.0 NaN 633.3173012692044 0.5507707732068909 128.0 0.0 76.0 
436.00005603302384 483.0 NaN 639.4869739478955 0.5571026051911604 126.0 0.0 78.0 
438.00005603302384 486.0 NaN 633.3279893119579 0.5989622629073313 127.0 0.0 76.0 
440.00005603302384 477.0 NaN 633.3547094188375 0.5261269417299543 127.0 0.0 76.0 
442.00005603302384 478.0 NaN 633.2585170340683 0.5523320134726182 128.0 0.0 76.0 
444.00005603302384 487.0 NaN 636.3233132932537 0.626264158561872 129.0 0.0 77.0 
446.00005603302384 479.0 NaN 639.4442217768866 0.622743534137657 130.0 0.0 78.0 
448.00005603302384 484.0 NaN 642.5357381429537 0.678163065403738 130.0 0.0 79.0 
450.00005603302384 483.0 NaN 636.4008016032058 0.6167415598927977 129.0 0.0 77.0 
452.00005603302384 484.0 NaN 639.4468937875761 0.5906326006666057 130.0 0.0 78.0 
454.00005603302384 483.0 NaN 639.409485637942 0.5884702152928322 128.0 0.0 78.0 
456.00005603302384 487.0 NaN 639.4255177020718 0.5972685229286196 129.0 0.0 78.0 
458.00005603302384 489.0 NaN 639.4121576486307 0.6577850018351658 129.0 0.0 78.0 
460.00005603302384 489.0 NaN 642.5116900467593 0.551132832224236 128.0 0.0 79.0 
462.00005603302384 489.0 NaN 642.4983299933194 0.5339139379279252 126.0 0.0 79.0 
464.00005603302384 490.0 NaN 642.482297929191 0.5370297825115291 127.0 0.0 79.0 
466.00005603302384 488.0 NaN 642.5010020040091 0.5587698092853185 127.0 0.0 79.0 
468.00005603302384 491.0 NaN 642.4555778223103 0.6333430071012599 128.0 0.0 79.0 
470.00005603302384 485.0 NaN 642.4555778223103 0.6625792498057581 128.0 0.0 79.0 
472.00005603302384 480.0 NaN 642.4609218436864 0.6382224198173487 127.0 0.0 79.0 
474.00005603302384 464.0 NaN 639.3720774883091 0.5580548520875354 126.0 0.0 78.0 
476.00005603302384 466.0 NaN 630.1803607214421 0.5582499077794025 124.0 0.0 75.0 
478.00005603302384 471.0 NaN 630.188376753508 0.5574010214222084 125.0 0.0 75.0 
480.00005603302384 472.0 NaN 630.1563126252498 0.5893715699031682 124.0 0.0 75.0 
482.00005603302384 466.0 NaN 630.1563126252498 0.5819955953232195 124.0 0.0 75.0 
484.00005603302384 465.0 NaN 630.1429525718102 0.6055438014644449 125.0 0.0 75.0 
486.00005603302384 461.0 NaN 630.1643286573135 0.4857172228098876 126.0 0.0 75.0 
488.00005603302384 469.0 NaN 624.0267201068807 0.506882062996071 125.0 0.0 73.0 
490.00005603302384 474.0 NaN 624.0534402137604 0.550560233401879 127.0 0.0 73.0 
492.00005603302384 478.0 NaN 621.0100200400805 0.5734288200782579 125.0 0.0 72.0 
494.00005603302384 483.0 NaN 621.0020040080167 0.5472544936653622 124.0 0.0 72.0 
496.00005603302384 478.0 NaN 614.8964595858382 0.5396141677180065 122.0 0.0 70.0 
498.00005603302384 482.0 NaN 608.7561790247163 0.5642554876696537 120.0 0.0 68.0 
500.00005603302384 478.0 NaN 605.6806947227788 0.5466681610981755 119.0 0.0 67.0 
502.00005603302384 472.0 NaN 605.6753507014025 0.5369173448355923 119.0 0.0 67.0 
504.00005603302384 476.0 NaN 602.5784903139611 0.570266791214196 117.0 0.0 66.0 
506.00005603302384 476.0 NaN 593.3787575150296 0.58264961860186 115.0 0.0 63.0 
508.00005603302384 481.0 NaN 593.370741482966 0.5557301246646645 113.0 0.0 63.0 
510.00005603302384 476.0 NaN 590.2818971275886 0.5457067791760231 113.0 0.0 62.0 
512.0000560330238 478.0 NaN 590.3299933199729 0.6156909593844406 113.0 0.0 62.0 
514.000056033024 475.0 NaN 590.3086172344688 0.5884766146065254 113.0 0.0 62.0 
516.000056033024 471.0 NaN 584.2057448229796 0.5661458677627951 109.0 0.0 60.0 
518.000056033024 472.0 NaN 581.0928523714093 0.6365308932614732 109.0 0.0 59.0 
520.000056033024 470.0 NaN 581.0875083500333 0.6115224761515498 108.0 0.0 59.0 
522.000056033024 464.0 NaN 581.1462925851705 0.6018019300655738 106.0 0.0 59.0 
524.000056033024 461.0 NaN 581.1115564462258 0.5359442889536604 107.0 0.0 59.0 
526.000056033024 461.0 NaN 578.0627922511693 0.5193019874651211 107.0 0.0 58.0 
528.000056033024 464.0 NaN 578.014696058784 0.579857784078569 105.0 0.0 58.0 
530.000056033024 463.0 NaN 578.014696058784 0.6103591132888962 105.0 0.0 58.0 
532.000056033024 466.0 NaN 575.0220440881762 0.5920045776531795 105.0 0.0 57.0 
534.000056033024 466.0 NaN 578.0921843687374 0.6068837958522373 103.0 0.0 58.0 
536.000056033024 466.0 NaN 578.1135604542419 0.5964791801466007 106.0 0.0 58.0 
538.000056033024 463.0 NaN 578.065464261857 0.5748024521123832 104.0 0.0 58.0 
540.000056033024 466.0 NaN 578.065464261857 0.6090565241090458 105.0 0.0 58.0 
542.000056033024 466.0 NaN 581.1970607882431 0.5380973715036863 105.0 0.0 59.0 
544.000056033024 470.0 NaN 584.2378089512359 0.5635605669353327 107.0 0.0 60.0 
546.000056033024 471.0 NaN 584.2324649298597 0.5768524400886851 108.0 0.0 60.0 
548.000056033024 475.0 NaN 584.2110888443556 0.5926670936075227 111.0 0.0 60.0 
550.000056033024 475.0 NaN 584.2110888443556 0.6080420415297297 108.0 0.0 60.0 
552.000056033024 478.0 NaN 584.2324649298597 0.6242016300904718 110.0 0.0 60.0 
554.000056033024 477.0 NaN 584.2164328657313 0.5674878172127601 109.0 0.0 60.0 
556.000056033024 479.0 NaN 581.1569806279226 0.6100164622690889 108.0 0.0 59.0 
558.000056033024 475.0 NaN 581.1356045424182 0.6357410960698847 109.0 0.0 59.0 
560.000056033024 468.0 NaN 578.052104208417 0.5863867329990852 108.0 0.0 58.0 
562.000056033024 472.0 NaN 578.046760187041 0.6105601227428453 108.0 0.0 58.0 
564.000056033024 478.0 NaN 578.052104208417 0.6120351988275886 111.0 0.0 58.0 
566.000056033024 473.0 NaN 578.0601202404807 0.6103871634736069 111.0 0.0 58.0 
568.000056033024 471.0 NaN 578.0734802939211 0.6387618235656601 111.0 0.0 58.0 
570.000056033024 467.0 NaN 578.0948563794256 0.6008653772620038 111.0 0.0 58.0 
572.000056033024 468.0 NaN 578.1028724114898 0.5979432585689495 110.0 0.0 58.0 
574.000056033024 464.0 NaN 578.0788243152973 0.6017603438181763 109.0 0.0 58.0 
576.000056033024 461.0 NaN 578.0601202404807 0.5560635281430465 110.0 0.0 58.0 
578.000056033024 462.0 NaN 578.052104208417 0.5622333853635122 109.0 0.0 58.0 
580.000056033024 461.0 NaN 578.0761523046091 0.5977705245406646 108.0 0.0 58.0 
582.000056033024 470.0 NaN 574.9979959919841 0.6107031497484272 109.0 0.0 57.0 
584.000056033024 465.0 NaN 574.9979959919841 0.5732244097756115 110.0 0.0 57.0 
586.000056033024 465.0 NaN 574.9953239812959 0.578134745824914 109.0 0.0 57.0 
588.000056033024 470.0 NaN 581.1569806279226 0.6308264796029295 109.0 0.0 59.0 
590.000056033024 475.0 NaN 584.2271209084837 0.6810854702289688 110.0 0.0 60.0 
592.000056033024 474.0 NaN 584.2271209084837 0.6296917962944243 111.0 0.0 60.0 
594.000056033024 466.0 NaN 584.1950567802273 0.5643717039705235 109.0 0.0 60.0 
596.000056033024 464.0 NaN 584.1816967267866 0.5673647424564474 108.0 0.0 60.0 
598.000056033024 471.0 NaN 584.1950567802273 0.6349512079431756 108.0 0.0 60.0 
600.000056033024 464.0 NaN 584.1897127588511 0.5917144630734 108.0 0.0 60.0 
602.000056033024 471.0 NaN 590.3433533734137 0.5728210913208579 109.0 0.0 62.0 
604.000056033024 474.0 NaN 590.321977287909 0.5987580819649468 110.0 0.0 62.0 
606.000056033024 471.0 NaN 590.3326653306614 0.6080133534050194 110.0 0.0 62.0 
608.000056033024 479.0 NaN 593.424181696727 0.6108084289144631 111.0 0.0 63.0 
610.000056033024 479.0 NaN 593.424181696727 0.6125766101160138 112.0 0.0 63.0 
612.000056033024 476.0 NaN 599.5751503006015 0.5543779500027766 113.0 0.0 65.0 
614.000056033024 476.0 NaN 599.5617902471612 0.5489843039992297 113.0 0.0 65.0 
616.000056033024 484.0 NaN 587.3052772211091 0.5785824103564282 110.0 0.0 61.0 
618.000056033024 492.0 NaN 590.3941215764864 0.6176764033447092 109.0 0.0 62.0 
620.000056033024 490.0 NaN 590.3754175016703 0.5969959650612462 108.0 0.0 62.0 
622.000056033024 492.0 NaN 590.3834335337342 0.6327936246426139 108.0 0.0 62.0 
624.000056033024 494.0 NaN 590.4101536406141 0.6474203433281406 107.0 0.0 62.0 
626.000056033024 490.0 NaN 596.5237140948568 0.5525117536833201 109.0 0.0 64.0 
628.000056033024 502.0 NaN 596.5103540414158 0.6028014750372039 115.0 0.0 64.0 
630.000056033024 502.0 NaN 599.545758183032 0.655498386132424 117.0 0.0 65.0 
632.000056033024 500.0 NaN 605.7555110220436 0.6320955523794229 123.0 0.0 67.0 
634.000056033024 496.0 NaN 608.8016032064135 0.5808451949158537 123.0 0.0 68.0 
636.000056033024 496.0 NaN 608.7935871743481 0.6215637333038369 124.0 0.0 68.0 
638.000056033024 496.0 NaN 605.6619906479633 0.6039034413938449 124.0 0.0 67.0 
640.000056033024 492.0 NaN 608.8229792919178 0.5563633213043555 125.0 0.0 68.0 
642.000056033024 493.0 NaN 614.9392117568474 0.5664072989545831 126.0 0.0 70.0 
644.000056033024 494.0 NaN 617.9772879091518 0.577400279339414 127.0 0.0 71.0 
646.000056033024 494.0 NaN 617.9826319305273 0.6131870222526017 127.0 0.0 71.0 
648.000056033024 491.0 NaN 620.9886439545754 0.6154330252589352 128.0 0.0 72.0 
650.000056033024 483.0 NaN 621.0020040080161 0.5889748394170529 130.0 0.0 72.0 
652.000056033024 487.0 NaN 617.9185036740141 0.5820890483143308 132.0 0.0 71.0 
654.000056033024 490.0 NaN 614.8884435537747 0.5670175582140141 134.0 0.0 70.0 
656.000056033024 490.0 NaN 614.8884435537747 0.6169415955372907 134.0 0.0 70.0 
658.000056033024 492.0 NaN 614.8991315965269 0.6043983154262047 131.0 0.0 70.0 
660.000056033024 492.0 NaN 617.9692718770866 0.5870740355950808 132.0 0.0 71.0 
662.000056033024 491.0 NaN 627.1877087508348 0.5949284539308736 133.0 0.0 74.0 
664.000056033024 493.0 NaN 624.1202404809617 0.6479498353231066 131.0 0.0 73.0 
#####################################################################
# End of data export. Simulation finished at: 2019-03-20T01:44+0000 #
#####################################################################
