#####################################################################
# Alchemist log file - simulation started at: 2019-03-07T09:51+0000 #
#####################################################################
# seed = 5.0, bandwidth = 17782.79410038923, propagationDelay = 0.0031622776601683794, baserange = 17.78279410038923
#
# The columns have the following meaning: 
# time neighbor_count[Sum] <value>@neighbor_count[Sum] packet_size[Mean] mean_delay[Mean] crowd[Sum] overcrowded[Sum] risk[Sum] 
0.0 NaN NaN NaN NaN NaN NaN NaN 
2.000101793669918 1067.0 NaN 4991.625918503674 0.4808272394496229 1497.0 0.0 1497.0 
4.000101793669918 1118.0 NaN 4996.205744822979 0.500247906932629 1497.0 0.0 1497.0 
6.0000883287682925 1118.0 NaN 4994.086840347361 0.5000374190978947 1496.0 1.0 1496.0 
8.000088328768292 1118.0 NaN 4993.464261857048 0.5034325073645289 1496.0 1.0 1496.0 
10.000088328768292 1118.0 NaN 4992.79091516366 0.5101488908139243 1495.0 2.0 1495.0 
12.000088328768292 1118.0 NaN 4992.903139612558 0.5165854941665752 1491.0 6.0 1491.0 
14.000088328768292 1118.0 NaN 4992.692050768203 0.5223593489135381 1490.0 7.0 1490.0 
16.000088328768292 1122.0 NaN 4992.456913827656 0.5319757363960923 1490.0 7.0 1490.0 
18.000088328768292 1126.0 NaN 4992.269873079493 0.5471818866832908 1490.0 7.0 1490.0 
20.000088328768292 1127.0 NaN 4992.261857047428 0.5653328408800201 1490.0 7.0 1490.0 
22.000088328768292 1128.0 NaN 4992.106880427522 0.587765244562036 1490.0 7.0 1490.0 
24.000088328768292 1128.0 NaN 4992.422177688711 0.6160008416077721 1490.0 7.0 1490.0 
26.000088328768292 1129.0 NaN 4991.74081496326 0.6462145024571018 1490.0 7.0 1490.0 
28.000088328768292 1135.0 NaN 4992.117568470274 0.6513119341846803 1490.0 7.0 1490.0 
30.000088328768292 1132.0 NaN 4992.307281229125 0.6375099880608738 1490.0 7.0 1490.0 
32.00008832876829 1135.0 NaN 4991.76753507014 0.6643507527007667 1490.0 7.0 1490.0 
34.000088328768285 1137.0 NaN 4991.807615230461 0.6998054827432689 1490.0 7.0 1490.0 
36.000088328768285 1140.0 NaN 4992.053440213761 0.7283687713628072 1490.0 7.0 1490.0 
38.000088328768285 1137.0 NaN 4991.869071476286 0.704274224653036 1490.0 7.0 1490.0 
40.000088328768285 1149.0 NaN 4991.954575818303 0.7018762917992285 1490.0 7.0 1490.0 
42.000088328768285 1150.0 NaN 4992.034736138945 0.6676486868724453 1490.0 7.0 1490.0 
44.000088328768285 1156.0 NaN 4991.967935871743 0.6792011614952819 1490.0 7.0 1490.0 
46.000088328768285 1163.0 NaN 4991.89044756179 0.6851824289706052 1490.0 7.0 1490.0 
48.000088328768285 1171.0 NaN 4992.165664662659 0.7405930793523582 1490.0 7.0 1490.0 
50.000088328768285 1178.0 NaN 4991.834335337341 0.7780347485916613 1490.0 7.0 1490.0 
52.000088328768285 1179.0 NaN 4991.97327989312 0.7818285518857926 1490.0 7.0 1490.0 
54.000088328768285 1182.0 NaN 4992.088176352705 0.7592681236829965 1490.0 7.0 1490.0 
56.000088328768285 1184.0 NaN 4991.778223112892 0.776562341047181 1490.0 7.0 1490.0 
58.000088328768285 1193.0 NaN 4992.085504342017 0.8306002861835705 1490.0 7.0 1490.0 
60.000088328768285 1198.0 NaN 4992.315297261189 0.9025230875804826 1490.0 7.0 1490.0 
62.00010179366992 1200.0 NaN 983.9118236472922 0.9500182674506265 488.0 6.0 184.0 
64.00010179366993 1210.0 NaN 986.8483633934549 0.9955422318574346 479.0 6.0 185.0 
66.00010179366993 1212.0 NaN 992.9191716766899 0.9845021599759806 423.0 6.0 187.0 
68.00010179366993 1213.0 NaN 993.0046760187012 1.0510045687245446 377.0 6.0 187.0 
70.00010179366993 1214.0 NaN 992.977955911826 1.066801350474258 349.0 6.0 187.0 
72.00010179366993 1207.0 NaN 992.8657314629274 1.1102917058503827 340.0 6.0 187.0 
74.00010179366993 1208.0 NaN 992.8577154308639 1.1516249611008162 332.0 6.0 187.0 
76.00010179366993 1206.0 NaN 992.8203072812271 1.2141873121573519 317.0 6.0 187.0 
78.00010179366993 1202.0 NaN 992.8176352705444 1.2401955239893945 310.0 6.0 187.0 
80.00010179366993 1185.0 NaN 992.7428189712738 1.1312890308661072 303.0 6.0 187.0 
82.00010179366993 1176.0 NaN 992.8122912491635 1.104191778204728 304.0 6.0 187.0 
84.00010179366993 1175.0 NaN 992.8443553774191 0.9982379311390597 296.0 6.0 187.0 
86.00010179366993 1176.0 NaN 992.7695390781544 1.0048408939089906 293.0 6.0 187.0 
88.00010179366993 1180.0 NaN 999.0354041416184 0.9802207740178427 290.0 6.0 189.0 
90.00010179366993 1176.0 NaN 998.9605878423534 1.0452216400616452 289.0 6.0 189.0 
92.00010179366993 1168.0 NaN 998.9071476285911 0.9812552521500404 289.0 6.0 189.0 
94.00010179366993 1182.0 NaN 1005.0821643286558 1.0414133138315622 288.0 6.0 191.0 
96.00010179366993 1172.0 NaN 1002.0307281229107 1.0368981007316214 289.0 6.0 190.0 
98.00010179366993 1177.0 NaN 1008.1282565130274 1.0257882607701698 288.0 6.0 192.0 
100.00010179366993 1172.0 NaN 1008.2244488977989 1.030702728479361 287.0 6.0 192.0 
102.00010179366993 1172.0 NaN 1008.1950567802273 1.0941255388382207 285.0 6.0 192.0 
104.00010179366993 1176.0 NaN 1008.1202404809637 1.1758034598369165 286.0 6.0 192.0 
106.00010179366993 1164.0 NaN 1008.093520374082 1.129809555206031 288.0 6.0 192.0 
108.00010179366993 1170.0 NaN 1011.2064128256534 1.2024893562678034 289.0 6.0 193.0 
110.00010179366993 1170.0 NaN 1011.2197728790908 1.0990204084923696 289.0 6.0 193.0 
112.00010179366993 1174.0 NaN 1011.2037408149638 1.2143438709159553 289.0 6.0 193.0 
114.00010179366993 1180.0 NaN 1008.0855043420183 1.2952753152940535 289.0 6.0 192.0 
116.00010179366993 1175.0 NaN 1008.130928523717 1.1920794527857748 288.0 6.0 192.0 
118.00010179366993 1184.0 NaN 1014.3139612558457 1.146657626139033 287.0 6.0 194.0 
120.00010179366993 1186.0 NaN 1011.2438209752816 1.1334221654246697 287.0 6.0 193.0 
122.00010179366993 1183.0 NaN 1014.2658650634623 1.1399730785438091 288.0 6.0 194.0 
124.00010179366993 1180.0 NaN 1017.3360053440192 1.1501212383118575 287.0 6.0 195.0 
126.00010179366993 1182.0 NaN 1020.4141616566453 1.1913353539984952 287.0 6.0 196.0 
128.00010179366993 1191.0 NaN 1020.4408817635274 1.0880611213843405 287.0 6.0 196.0 
130.00010179366993 1194.0 NaN 1023.4789579158289 1.090072715512925 288.0 6.0 197.0 
132.00010179366993 1191.0 NaN 1020.4488977955907 1.106771045004526 286.0 6.0 196.0 
134.00010179366993 1197.0 NaN 1017.333333333335 1.0849882382506302 286.0 6.0 195.0 
136.00010179366993 1195.0 NaN 1014.2685370741468 1.110425531952335 283.0 6.0 194.0 
138.00010179366993 1209.0 NaN 1014.2952571810272 1.1690507880297718 284.0 6.0 194.0 
140.00010179366993 1204.0 NaN 1020.507682030727 1.1120188314389365 285.0 6.0 196.0 
142.00010179366993 1204.0 NaN 1017.4535738142923 1.1655696910464453 285.0 6.0 195.0 
144.00010179366993 1210.0 NaN 1017.4856379425531 1.1582251379751547 285.0 6.0 195.0 
146.00010179366993 1211.0 NaN 1017.3707414829634 1.2215403066851134 286.0 6.0 195.0 
148.00010179366993 1225.0 NaN 1023.5671342685362 1.2369961234146067 289.0 6.0 197.0 
150.00010179366993 1224.0 NaN 1023.612558450235 1.0680391997890781 287.0 6.0 197.0 
152.00010179366993 1222.0 NaN 1023.5965263861077 1.0217693840612927 287.0 6.0 197.0 
154.00010179366993 1232.0 NaN 1026.6639946559806 1.0428351298103846 288.0 6.0 198.0 
156.00010179366993 1236.0 NaN 1026.7227788911168 1.0723881575030492 288.0 6.0 198.0 
158.00010179366993 1238.0 NaN 1023.6045424181715 1.138003243592301 288.0 6.0 197.0 
160.00010179366993 1239.0 NaN 1026.709418837674 1.1126848626599837 290.0 6.0 198.0 
162.00010179366993 1231.0 NaN 1026.6426185704725 1.1033657371896364 290.0 6.0 198.0 
164.00010179366993 1245.0 NaN 1017.4589178356728 1.1538609963613242 291.0 6.0 195.0 
166.00010179366993 1243.0 NaN 1017.3921175684713 1.1812126161962722 290.0 6.0 195.0 
168.00010179366993 1249.0 NaN 1020.4889779559104 1.2297977604797214 290.0 6.0 196.0 
170.00010179366993 1249.0 NaN 1020.4943219772896 1.2871648735999426 290.0 6.0 196.0 
172.00010179366993 1246.0 NaN 1026.6987307949262 1.3156124471665944 288.0 6.0 198.0 
174.00010179366993 1253.0 NaN 1023.6259185036727 1.3170980968640287 288.0 6.0 197.0 
176.00010179366993 1248.0 NaN 1017.4642618570452 1.350991920379035 288.0 6.0 195.0 
178.00010179366993 1253.0 NaN 1020.5103540414184 1.4497016018117717 288.0 6.0 196.0 
180.00010179366993 1239.0 NaN 1014.3754175016714 1.316000449899617 287.0 6.0 194.0 
182.00010179366993 1232.0 NaN 1014.3433533734108 1.2663938736793696 287.0 6.0 194.0 
184.00010179366993 1239.0 NaN 1011.3213092852361 1.2009514356176196 285.0 6.0 193.0 
186.00010179366993 1223.0 NaN 1008.2004008016013 1.1250621057478105 281.0 6.0 192.0 
188.00010179366993 1225.0 NaN 1008.1576486305926 1.2321868382282843 281.0 6.0 192.0 
190.00010179366993 1217.0 NaN 1008.1175684702723 1.20699064708202 280.0 6.0 192.0 
192.00010179366993 1209.0 NaN 1005.0420841683363 1.243734092065737 280.0 6.0 191.0 
194.00010179366993 1223.0 NaN 1011.246492985973 1.2648314868984407 281.0 6.0 193.0 
196.00010179366993 1216.0 NaN 1011.2331329325286 1.2646676245862332 281.0 6.0 193.0 
198.00010179366993 1227.0 NaN 1005.0901803607198 1.276768707080757 285.0 6.0 191.0 
200.00010179366993 1222.0 NaN 995.9251837007363 1.2879158821708152 286.0 6.0 188.0 
202.00010179366993 1222.0 NaN 992.7748830995341 1.3644956284504728 287.0 6.0 187.0 
204.00010179366993 1231.0 NaN 998.9552438209744 1.3817370557718014 286.0 6.0 189.0 
206.00010179366993 1223.0 NaN 998.869739478956 1.2492619750126417 287.0 6.0 189.0 
208.00010179366993 1228.0 NaN 1001.9612558450257 1.116462465028574 288.0 6.0 190.0 
210.00010179366993 1229.0 NaN 1005.0260521042093 1.1139608416319087 287.0 6.0 191.0 
212.00010179366993 1232.0 NaN 1002.0253841015362 1.1666215414240346 285.0 6.0 190.0 
214.00010179366993 1234.0 NaN 1001.9746158984638 1.1493342119840901 285.0 6.0 190.0 
216.00010179366993 1220.0 NaN 1005.0794923179708 1.1408518273896766 286.0 6.0 191.0 
218.00010179366993 1222.0 NaN 1008.0801603206434 1.204025519509046 287.0 6.0 192.0 
220.00010179366993 1230.0 NaN 1008.1068804275204 1.2791226859965197 287.0 7.0 191.0 
222.00010179366993 1233.0 NaN 1008.1362725450911 1.337969810539224 281.0 12.0 186.0 
224.00010179366993 1242.0 NaN 1011.198396793589 1.4860278247130752 282.0 12.0 187.0 
226.00010179366993 1226.0 NaN 1008.0641282565113 1.492552673619337 279.0 12.0 186.0 
228.00010179366993 1241.0 NaN 1008.1122244489001 1.618350641750989 278.0 12.0 186.0 
230.00010179366993 1231.0 NaN 1008.1469605878435 1.4688362018809096 277.0 12.0 186.0 
232.00010179366993 1235.0 NaN 1014.2925851703378 1.3147813388184693 281.0 11.0 189.0 
234.00010179366993 1243.0 NaN 1014.2284569138271 1.3234792063759235 290.0 6.0 194.0 
236.00010179366993 1240.0 NaN 1011.2144288577168 1.4076947391336285 289.0 6.0 193.0 
238.00010179366993 1241.0 NaN 1011.2358049432181 1.4649067719891558 287.0 6.0 193.0 
240.00010179366993 1238.0 NaN 1014.239144956582 1.4209609629009545 287.0 6.0 194.0 
242.00010179366993 1243.0 NaN 1011.2571810287262 1.5129035156941228 286.0 6.0 193.0 
244.00010179366993 1232.0 NaN 1011.299933199735 1.5096575211335783 286.0 6.0 193.0 
246.00010179366993 1219.0 NaN 1002.0734802939195 1.4758956668738588 285.0 6.0 190.0 
248.00010179366993 1216.0 NaN 1002.0146960587832 1.5368456161217736 283.0 6.0 190.0 
250.00010179366993 1215.0 NaN 1001.9559118236454 1.5623886379670602 283.0 6.0 190.0 
252.00010179366993 1215.0 NaN 1001.9692718770893 1.5861657902704234 282.0 6.0 190.0 
254.00010179366993 1218.0 NaN 998.8804275217088 1.4712754453814512 281.0 6.0 189.0 
256.00010179366996 1217.0 NaN 998.8510354041441 1.3983104004749147 281.0 6.0 189.0 
258.00010179366996 1215.0 NaN 995.7969271877092 1.3951182764953707 280.0 6.0 188.0 
260.00010179366996 1206.0 NaN 995.7889111556457 1.3017634546149954 280.0 6.0 188.0 
262.00010179366996 1199.0 NaN 995.8717434869728 1.2673077276941325 280.0 6.0 188.0 
264.00010179366996 1197.0 NaN 992.7588510354016 1.2045368117855095 280.0 6.0 187.0 
266.00010179366996 1198.0 NaN 992.7401469605895 1.2587699119763238 279.0 6.0 187.0 
268.00010179366996 1205.0 NaN 992.7561790247183 1.3581938307123538 280.0 6.0 187.0 
270.00010179366996 1203.0 NaN 989.6913827655289 1.3601020036235547 282.0 6.0 186.0 
272.00010179366996 1202.0 NaN 992.7428189712743 1.3319147888435285 283.0 6.0 187.0 
274.00010179366996 1208.0 NaN 1002.0120240480985 1.405277170989063 285.0 6.0 190.0 
276.00010179366996 1210.0 NaN 999.0220440881743 1.4957228811230514 285.0 6.0 189.0 
278.00010179366996 1211.0 NaN 1002.1162324649289 1.531027725324853 286.0 6.0 190.0 
280.00010179366996 1210.0 NaN 1002.0814963259835 1.500786841634306 287.0 6.0 190.0 
282.00010179366996 1204.0 NaN 1001.9746158984638 1.6209418713666481 287.0 6.0 190.0 
284.00010179366996 1188.0 NaN 1002.0414161656635 1.604934289831653 286.0 6.0 190.0 
286.00010179366996 1176.0 NaN 998.8830995324001 1.5142743468204494 285.0 6.0 189.0 
288.00010179366996 1176.0 NaN 995.823647294591 1.5390505641753212 284.0 6.0 188.0 
290.00010179366996 1177.0 NaN 992.6813627254523 1.4952225646467032 282.0 6.0 187.0 
292.00010179366996 1181.0 NaN 992.6973947895797 1.5581843141737015 284.0 6.0 187.0 
294.00010179366996 1177.0 NaN 998.8911155644637 1.4267267410784037 286.0 6.0 189.0 
296.00010179366996 1175.0 NaN 1001.9906479625906 1.4885504723921688 282.0 6.0 190.0 
298.00010179366996 1189.0 NaN 1008.0801603206436 1.3002735758003185 280.0 6.0 192.0 
300.00010179366996 1178.0 NaN 1001.993319973282 1.184390485790254 280.0 6.0 190.0 
302.00010179366996 1173.0 NaN 998.8323313293275 1.0193682272541689 278.0 6.0 189.0 
304.00010179366996 1170.0 NaN 995.7621910487634 1.0633212376158403 279.0 6.0 188.0 
306.00010179366996 1174.0 NaN 992.6573146292573 1.0987906291113902 280.0 6.0 187.0 
308.00010179366996 1174.0 NaN 989.6272545090183 1.2034888293952324 280.0 6.0 186.0 
310.00010179366996 1170.0 NaN 989.6299265197061 1.2405972333751363 280.0 6.0 186.0 
312.00010179366996 1169.0 NaN 986.5250501001998 1.2740216193290719 280.0 6.0 185.0 
314.00010179366996 1169.0 NaN 992.6947227788908 1.3380191596219992 281.0 6.0 187.0 
316.00010179366996 1171.0 NaN 998.8670674682701 1.356630957024159 284.0 6.0 189.0 
318.00010179366996 1175.0 NaN 998.907147628591 1.4081878254883093 287.0 6.0 189.0 
320.00010179366996 1172.0 NaN 992.7481629926515 1.3531209848401573 286.0 6.0 187.0 
322.00010179366996 1175.0 NaN 995.7995991983973 1.2309558368723477 286.0 6.0 188.0 
324.00010179366996 1181.0 NaN 995.8690714762845 1.2302889390569274 287.0 6.0 188.0 
326.00010179366996 1181.0 NaN 1008.2404809619246 1.2129580879388098 288.0 6.0 192.0 
328.00010179366996 1177.0 NaN 1008.1870407481638 1.2372943633514313 288.0 6.0 192.0 
330.00010179366996 1168.0 NaN 1008.1336005343999 1.204080718258552 288.0 6.0 192.0 
332.00010179366996 1169.0 NaN 1004.9939879759518 1.2297717522502196 286.0 6.0 191.0 
334.00010179366996 1171.0 NaN 1001.923847695391 1.2306945680704156 287.0 6.0 190.0 
336.00010179366996 1171.0 NaN 1005.0126920507668 1.279400474023326 286.0 6.0 191.0 
338.00010179366996 1174.0 NaN 1008.0721442885758 1.226931309273981 286.0 6.0 192.0 
340.00010179366996 1175.0 NaN 1008.09619238477 1.2617329844307683 287.0 6.0 192.0 
342.00010179366996 1180.0 NaN 1004.9886439545758 1.3276841820210359 288.0 6.0 191.0 
344.00010179366996 1182.0 NaN 998.8537074148305 1.3437881264089202 289.0 6.0 189.0 
346.00010179366996 1187.0 NaN 995.7221108884455 1.393802852974453 288.0 6.0 188.0 
348.00010179366996 1182.0 NaN 998.8911155644636 1.4483685725317856 289.0 6.0 189.0 
350.00010179366996 1177.0 NaN 998.8777555110217 1.3763920711210178 292.0 6.0 189.0 
352.00010179366996 1169.0 NaN 998.8483633934547 1.457568389486125 293.0 6.0 189.0 
354.00010179366996 1162.0 NaN 998.826987307949 1.5454400648785205 293.0 6.0 189.0 
356.00010179366996 1156.0 NaN 1001.9452237808943 1.552273820471114 289.0 6.0 190.0 
358.00010179366996 1149.0 NaN 1001.9318637274545 1.5956626566454666 289.0 6.0 190.0 
360.00010179366996 1160.0 NaN 1008.0988643954573 1.453945455605452 289.0 6.0 192.0 
362.00010179366996 1157.0 NaN 1004.9458917835669 1.4761209746518928 288.0 6.0 191.0 
364.00010179366996 1154.0 NaN 1008.0748162992637 1.3524179225465183 290.0 6.0 192.0 
366.00010179366996 1152.0 NaN 1008.0855043420183 1.4040319388827707 289.0 6.0 192.0 
368.00010179366996 1148.0 NaN 1008.093520374082 1.4106806938628642 287.0 6.0 192.0 
370.00010179366996 1147.0 NaN 1008.0293921175698 1.3880554280372484 287.0 6.0 192.0 
372.00010179366996 1145.0 NaN 1004.9325317301274 1.426507745726164 287.0 6.0 191.0 
374.00010179366996 1149.0 NaN 995.8129592518362 1.4035384564850157 289.0 6.0 188.0 
376.00010179366996 1147.0 NaN 989.5791583166334 1.2857804347884632 289.0 6.0 186.0 
378.00010179366996 1146.0 NaN 980.3633934535726 1.323419415139044 286.0 6.0 183.0 
380.00010179366996 1148.0 NaN 989.6245824983303 1.209637207584911 287.0 6.0 186.0 
382.00010179366996 1149.0 NaN 980.4168336673363 1.2484994498499062 283.0 6.0 183.0 
384.00010179366996 1152.0 NaN 971.2812291249181 1.2221748173146239 281.0 6.0 180.0 
386.00010179366996 1147.0 NaN 961.9906479625907 1.2580274171809125 278.0 6.0 177.0 
388.00010179366996 1151.0 NaN 965.0875083500329 1.3033832665217004 279.0 6.0 178.0 
390.00010179366996 1150.0 NaN 965.1970607882454 1.2533011714848223 277.0 6.0 178.0 
392.00010179366996 1145.0 NaN 971.3800935203728 1.1337099396281722 277.0 6.0 180.0 
394.00010179366996 1159.0 NaN 968.2351369405454 1.1805062845387746 278.0 6.0 179.0 
396.00010179366996 1162.0 NaN 965.1756847027394 1.3404399649303933 277.0 6.0 178.0 
398.00010179366996 1173.0 NaN 962.1349365397452 1.4843933577847341 276.0 6.0 177.0 
400.00010179366996 1175.0 NaN 959.0247160988633 1.4439371902743268 273.0 6.0 176.0 
402.00010179366996 1169.0 NaN 952.8203072812273 1.3356769028349713 272.0 6.0 174.0 
404.00010179366996 1177.0 NaN 955.9786239144967 1.4419988264161216 277.0 6.0 175.0 
406.00010179366996 1173.0 NaN 955.9866399465601 1.4153975063941975 274.0 6.0 175.0 
408.00010179366996 1173.0 NaN 959.0514362057456 1.3448190454492297 275.0 7.0 175.0 
410.00010179366996 1169.0 NaN 959.0754843019362 1.378227423615507 267.0 12.0 170.0 
412.00010179366996 1175.0 NaN 946.8136272545091 1.4182577248162838 261.0 14.0 164.0 
414.00010179366996 1186.0 NaN 949.8490313961273 1.5485160753774418 262.0 14.0 165.0 
416.00010179366996 1176.0 NaN 946.8056112224457 1.485129988372016 264.0 11.0 167.0 
418.00010179366996 1177.0 NaN 940.7374749499 1.5013784530032108 261.0 11.0 165.0 
420.00010179366996 1177.0 NaN 937.6700066800275 1.578927487025192 261.0 11.0 164.0 
422.00010179366996 1177.0 NaN 937.6299265197066 1.6752835830055608 259.0 11.0 164.0 
424.00010179366996 1165.0 NaN 940.7241148964608 1.4903607817736113 258.0 10.0 166.0 
426.00010179366996 1157.0 NaN 937.581830327321 1.50600175292077 259.0 9.0 166.0 
428.00010179366996 1158.0 NaN 937.5764863059455 1.543718089661722 262.0 7.0 168.0 
430.00010179366996 1163.0 NaN 934.431529726118 1.6099036912979825 264.0 6.0 168.0 
432.00010179366996 1162.0 NaN 937.4883099532394 1.575325772537704 264.0 6.0 169.0 
434.00010179366996 1151.0 NaN 940.5611222444909 1.2048833086594546 263.0 6.0 170.0 
436.00010179366996 1163.0 NaN 946.6933867735455 1.2618061612897105 261.0 6.0 172.0 
438.00010179366996 1169.0 NaN 949.806279225118 1.2477374411729512 263.0 6.0 173.0 
440.00010179366996 1173.0 NaN 955.9492317969273 1.2740416392240752 264.0 6.0 175.0 
442.00010179366996 1184.0 NaN 965.0714762859067 1.352133955590385 266.0 6.0 178.0 
444.00010179366996 1193.0 NaN 965.159652638609 1.4249877232259165 265.0 6.0 178.0 
446.00010179366996 1187.0 NaN 965.1890447561796 1.3287141650356995 263.0 6.0 178.0 
448.00010179366996 1196.0 NaN 962.1242484969933 1.4225058158844979 263.0 6.0 177.0 
450.00010179366996 1201.0 NaN 962.0253841015362 1.5294111607459917 262.0 6.0 177.0 
452.00010179366996 1201.0 NaN 962.0414161656635 1.511686705233593 258.0 10.0 173.0 
454.00010179366996 1204.0 NaN 965.1302605210433 1.4665797704825094 262.0 12.0 172.0 
456.00010179366996 1212.0 NaN 968.1469605878434 1.597796383683515 261.0 13.0 172.0 
458.00010179366996 1216.0 NaN 968.1576486305933 1.6188677658375281 260.0 13.0 172.0 
460.00010179366996 1204.0 NaN 968.2137608550454 1.5012285628682234 261.0 13.0 172.0 
462.00010179366996 1199.0 NaN 968.1202404809635 1.336001312574528 262.0 13.0 172.0 
464.00010179366996 1197.0 NaN 962.0013360053454 1.3369008782054383 260.0 13.0 170.0 
466.00010179366996 1177.0 NaN 962.0013360053454 1.390354326574727 261.0 13.0 170.0 
468.00010179366996 1179.0 NaN 965.0848363393454 1.3523968907344648 264.0 13.0 171.0 
470.00010179366996 1168.0 NaN 965.082164328657 1.415706068340414 265.0 13.0 171.0 
472.00010179366996 1172.0 NaN 968.1603206412816 1.532690894577129 265.0 13.0 172.0 
474.00010179366996 1167.0 NaN 965.012692050766 1.5705634753707889 265.0 13.0 171.0 
476.00010179366996 1161.0 NaN 968.1496325985293 1.6848581284487643 264.0 13.0 172.0 
478.00010179366996 1157.0 NaN 965.0714762859066 1.7051502309302198 265.0 13.0 171.0 
480.00010179366996 1156.0 NaN 961.9986639946546 1.7341264367493405 264.0 13.0 170.0 
482.00010179366996 1157.0 NaN 955.8503674014705 1.5343095314027462 262.0 13.0 168.0 
484.00010179366996 1151.0 NaN 955.8957915831659 1.5128305009406346 260.0 13.0 168.0 
486.00010179366996 1147.0 NaN 955.8824315297276 1.473140930722344 259.0 13.0 168.0 
488.00010179366996 1148.0 NaN 958.9579158316637 1.4059523265806126 258.0 13.0 169.0 
490.00010179366996 1157.0 NaN 962.0120240480978 1.4322570664039436 258.0 13.0 170.0 
492.00010179366996 1157.0 NaN 958.9579158316637 1.4075630273345237 261.0 12.0 170.0 
494.00010179366996 1158.0 NaN 958.9018036072158 1.4227343886328614 265.0 7.0 175.0 
496.00010179366996 1150.0 NaN 958.907147628591 1.4287968424916628 264.0 6.0 176.0 
498.00010179366996 1146.0 NaN 955.7755511022025 1.383265082572408 264.0 6.0 175.0 
500.00010179366996 1147.0 NaN 955.8503674014704 1.369494358982443 262.0 6.0 175.0 
502.00010179366996 1148.0 NaN 949.7501670006665 1.2694248791042642 264.0 6.0 173.0 
504.00010179366996 1149.0 NaN 940.5397461589853 1.2695243758856094 263.0 6.0 170.0 
506.00010179366996 1145.0 NaN 937.4188376753503 1.34969687809111 260.0 6.0 169.0 
508.00010179366996 1143.0 NaN 937.42150968604 1.3001151594411862 260.0 6.0 169.0 
510.00010179366996 1140.0 NaN 928.2511690046769 1.309824298542776 257.0 6.0 166.0 
512.00010179367 1132.0 NaN 928.2004008016041 1.2407847000340333 257.0 6.0 166.0 
514.00010179367 1132.0 NaN 918.9632598530403 1.2447704252078537 254.0 6.0 163.0 
516.00010179367 1120.0 NaN 912.8496993987961 1.1566368372929863 253.0 6.0 161.0 
518.00010179367 1121.0 NaN 909.7955911823634 1.2287949760944108 251.0 6.0 160.0 
520.00010179367 1124.0 NaN 903.6686706746817 1.277349238575427 250.0 6.0 158.0 
522.00010179367 1120.0 NaN 906.6693386773545 1.3366875330259176 248.0 6.0 159.0 
524.00010179367 1115.0 NaN 906.6907147628591 1.3422369810494679 246.0 6.0 159.0 
526.00010179367 1116.0 NaN 906.6907147628591 1.3901251345651469 246.0 6.0 159.0 
528.00010179367 1113.0 NaN 903.6152304609228 1.3811698546305102 247.0 6.0 158.0 
530.00010179367 1113.0 NaN 906.7281229124908 1.4081830853870858 246.0 6.0 159.0 
532.00010179367 1112.0 NaN 909.8116232464913 1.3857599625517834 246.0 6.0 160.0 
534.00010179367 1121.0 NaN 906.8082832331316 1.3022957663369754 250.0 6.0 159.0 
536.00010179367 1123.0 NaN 912.9164996659994 1.2389292281922073 251.0 6.0 161.0 
538.00010179367 1128.0 NaN 912.8817635270547 1.3475029061542365 250.0 6.0 161.0 
540.00010179367 1133.0 NaN 906.8002672010682 1.425320765956111 248.0 6.0 159.0 
542.00010179367 1117.0 NaN 903.7007348029397 1.2933834370306054 247.0 6.0 158.0 
544.00010179367 1110.0 NaN 906.7388109552445 1.2362553319149518 249.0 6.0 159.0 
546.00010179367 1108.0 NaN 903.6392785571136 1.2581773034958825 251.0 6.0 158.0 
548.00010179367 1112.0 NaN 900.6599866399455 1.2908528641768315 253.0 6.0 157.0 
550.00010179367 1107.0 NaN 903.7247828991319 1.2433064143685701 253.0 6.0 158.0 
552.00010179367 1104.0 NaN 903.69806279225 1.1571191347440501 251.0 6.0 158.0 
554.00010179367 1107.0 NaN 903.7114228456908 1.1011116631701647 252.0 6.0 158.0 
556.00010179367 1114.0 NaN 900.6492985971954 1.2105054423443735 252.0 6.0 157.0 
558.00010179367 1116.0 NaN 900.662658650635 1.245996853562847 252.0 6.0 157.0 
560.00010179367 1127.0 NaN 900.6840347361394 1.3554608372655435 252.0 6.0 157.0 
562.00010179367 1130.0 NaN 900.6118904475622 1.2335536071011524 251.0 6.0 157.0 
564.00010179367 1153.0 NaN 909.870407481631 1.2983477258346663 251.0 6.0 160.0 
566.00010179367 1156.0 NaN 909.9318637274545 1.3086879145309667 252.0 6.0 160.0 
568.00010179367 1154.0 NaN 909.923847695391 1.3116665706263646 251.0 6.0 160.0 
570.00010179367 1157.0 NaN 909.9211756847036 1.3589903807636048 252.0 6.0 160.0 
572.00010179367 1170.0 NaN 909.942551770208 1.4687137571860804 253.0 6.0 160.0 
574.00010179367 1178.0 NaN 913.026052104209 1.4875273575509504 256.0 6.0 161.0 
576.00010179367 1177.0 NaN 912.9993319973273 1.5689438744891444 256.0 6.0 161.0 
578.00010179367 1178.0 NaN 916.05344021376 1.5592574240444064 256.0 6.0 162.0 
580.00010179367 1176.0 NaN 916.133600534401 1.59788717526211 256.0 6.0 162.0 
582.00010179367 1180.0 NaN 916.0507682030727 1.5245094739994824 256.0 6.0 162.0 
584.00010179367 1188.0 NaN 916.096192384769 1.5741369285267008 258.0 6.0 162.0 
586.00010179367 1174.0 NaN 919.1235804943228 1.6621817914361403 258.0 6.0 163.0 
588.00010179367 1171.0 NaN 922.2284569138272 1.6825572289071709 257.0 6.0 164.0 
590.00010179367 1164.0 NaN 925.3841015364052 1.5284160427873883 257.0 6.0 165.0 
592.00010179367 1164.0 NaN 928.3527054108228 1.6117811331965082 259.0 6.0 166.0 
594.00010179367 1167.0 NaN 934.4475617902459 1.6147594477346192 261.0 6.0 168.0 
596.00010179367 1155.0 NaN 937.5791583166323 1.5963215487005529 262.0 6.0 169.0 
598.00010179367 1166.0 NaN 940.6145624582498 1.580776235786783 266.0 6.0 170.0 
600.00010179367 1167.0 NaN 934.5784903139598 1.5488604720601036 263.0 6.0 168.0 
602.00010179367 1151.0 NaN 934.4742818971272 1.3075434864544286 261.0 6.0 168.0 
604.00010179367 1150.0 NaN 928.3794255177003 1.3076067801203024 263.0 6.0 166.0 
606.00010179367 1155.0 NaN 940.6225784903135 1.3297361896958226 265.0 6.0 170.0 
608.00010179367 1170.0 NaN 943.7247828991318 1.4440575523795274 268.0 6.0 171.0 
610.00010179367 1175.0 NaN 946.8189712758858 1.434572942822079 266.0 6.0 172.0 
612.00010179367 1185.0 NaN 946.8724114896453 1.3795105175297744 267.0 6.0 172.0 
614.00010179367 1183.0 NaN 946.8376753507002 1.4402486446228293 264.0 6.0 172.0 
616.00010179367 1182.0 NaN 946.7708750834998 1.5484934340201058 265.0 6.0 172.0 
618.00010179367 1183.0 NaN 952.9164996659998 1.5838347189427524 265.0 6.0 174.0 
620.00010179367 1185.0 NaN 949.9104876419502 1.728727358027605 264.0 6.0 173.0 
622.00010179367 1178.0 NaN 949.8329993319961 1.7363606468199746 264.0 6.0 173.0 
624.00010179367 1183.0 NaN 955.9759519038089 1.58707607193567 265.0 6.0 175.0 
626.00010179367 1184.0 NaN 962.1589846359366 1.6421088025928654 267.0 6.0 177.0 
628.00010179367 1201.0 NaN 965.2959251837 1.7304992101830659 267.0 6.0 178.0 
630.00010179367 1214.0 NaN 962.2578490313957 1.8517523084149359 268.0 6.0 177.0 
632.00010179367 1210.0 NaN 962.2418169672679 1.5614152451570502 269.0 6.0 177.0 
634.00010179367 1226.0 NaN 965.2211088844365 1.6288854199949565 267.0 6.0 178.0 
636.00010179367 1221.0 NaN 965.3653974615911 1.5106230881712603 266.0 6.0 178.0 
638.00010179367 1235.0 NaN 968.382097528391 1.5178241124873881 268.0 6.0 179.0 
640.00010179367 1243.0 NaN 968.4702738810955 1.5476107671343053 269.0 6.0 179.0 
642.00010179367 1245.0 NaN 974.5544422177682 1.6631148168144212 270.0 6.0 181.0 
644.00010179367 1250.0 NaN 983.8824315297275 1.733464626212829 270.0 7.0 183.0 
646.00010179367 1260.0 NaN 983.8637274549089 1.8286532446142416 265.0 15.0 175.0 
648.00010179367 1252.0 NaN 983.845023380094 1.8410496398991272 265.0 15.0 175.0 
650.00010179367 1238.0 NaN 977.6513026052093 1.849778251750065 266.0 15.0 173.0 
652.00010179367 1245.0 NaN 986.8937875751516 1.7853157173287046 270.0 15.0 176.0 
654.00010179367 1250.0 NaN 989.9665998664002 1.7858470204417316 274.0 12.0 180.0 
656.00010179367 1243.0 NaN 993.0581162324637 1.852831428792148 272.0 14.0 179.0 
658.00010179367 1249.0 NaN 996.02939211757 1.7596921569836572 270.0 17.0 177.0 
660.00010179367 1242.0 NaN 996.0801603206427 1.6724069511754185 267.0 17.0 177.0 
662.00010179367 1243.0 NaN 1002.1670006680023 1.6755711095983594 270.0 17.0 179.0 
664.00010179367 1232.0 NaN 1002.2017368069455 1.7599473681843667 272.0 17.0 179.0 
#####################################################################
# End of data export. Simulation finished at: 2019-03-07T09:55+0000 #
#####################################################################
