#####################################################################
# Alchemist log file - simulation started at: 2019-03-02T07:43+0000 #
#####################################################################
# seed = 0.0, bandwidth = 1333521.4321633242, propagationDelay = 0.001, baserange = 56.234132519034915
#
# The columns have the following meaning: 
# time neighbor_count[Sum] <value>@neighbor_count[Sum] packet_size[Mean] mean_delay[Mean] crowd[Sum] overcrowded[Sum] risk[Sum] 
0.0 NaN NaN NaN NaN NaN NaN NaN 
10.00013794676859 6170.0 NaN 4995.310621242485 0.49976423910765555 1464.0 33.0 1464.0 
20.00013794676859 6184.0 NaN 4994.848363393454 0.5028748684477863 1458.0 39.0 1458.0 
30.00013794676859 6219.0 NaN 4993.61122244489 0.5015017091082891 1458.0 39.0 1458.0 
40.00013794676859 6244.0 NaN 4994.348697394789 0.5036755051105436 1462.0 35.0 1462.0 
50.00013794676859 6292.0 NaN 4993.434869739479 0.5042727228326012 1460.0 37.0 1460.0 
60.00013794676859 6322.0 NaN 4994.177688710754 0.5106610610192637 1461.0 36.0 1461.0 
70.00015718990393 6291.0 NaN 1527.623246492985 0.5054151909884872 496.0 37.0 330.0 
80.00015718990393 6290.0 NaN 1537.036740146961 0.5061734954542706 478.0 46.0 324.0 
90.00015718990393 6270.0 NaN 1536.9164996659997 0.5047268853301766 485.0 40.0 330.0 
100.00015718990393 6275.0 NaN 1539.935871743488 0.5028170134981522 485.0 39.0 332.0 
110.00015718990393 6283.0 NaN 1539.8663994655997 0.5081868017144507 484.0 40.0 331.0 
120.00015718990393 6291.0 NaN 1539.9706078824302 0.5075149712763101 485.0 42.0 329.0 
130.00015718990392 6297.0 NaN 1536.8176352705425 0.5055694826287385 485.0 40.0 330.0 
140.00015718990392 6288.0 NaN 1530.8403473613907 0.5086683979178327 484.0 38.0 330.0 
150.00015718990392 6271.0 NaN 1533.862391449564 0.5048584287079994 477.0 44.0 325.0 
160.00015718990392 6242.0 NaN 1530.8216432865727 0.5027881332944113 481.0 38.0 330.0 
170.00015718990392 6234.0 NaN 1536.9512358049453 0.5038058633690312 480.0 39.0 331.0 
180.00015718990392 6202.0 NaN 1530.8537074148294 0.5078278443826919 479.0 41.0 327.0 
190.00015718990392 6169.0 NaN 1533.9345357381428 0.5049841854481232 472.0 42.0 327.0 
200.00015718990392 6143.0 NaN 1537.0848363393457 0.5061468129007185 465.0 52.0 318.0 
210.00015718990392 6121.0 NaN 1527.7060788243155 0.512139511467881 460.0 51.0 316.0 
220.00015718990392 6090.0 NaN 1527.7541750167002 0.5061315903468708 467.0 45.0 322.0 
230.00015718990392 6056.0 NaN 1530.8697394789574 0.5120179927070116 459.0 53.0 315.0 
240.00015718990392 5982.0 NaN 1527.7434869739477 0.5050440271356548 449.0 62.0 305.0 
250.00015718990392 5961.0 NaN 1524.5771543086182 0.5073499362152993 465.0 45.0 321.0 
260.0001571899039 5960.0 NaN 1524.5851703406818 0.5070811317499619 469.0 43.0 323.0 
270.0001571899039 5895.0 NaN 1530.7254509018028 0.5057870431545386 466.0 45.0 323.0 
280.0001571899039 5874.0 NaN 1536.873747494991 0.5060035897390404 476.0 38.0 332.0 
290.0001571899039 5858.0 NaN 1530.5971943887791 0.5129049096055259 471.0 37.0 331.0 
300.0001571899039 5791.0 NaN 1533.7421509686023 0.5069016761918964 470.0 37.0 332.0 
310.0001571899039 5791.0 NaN 1530.733466933866 0.5100170163289978 467.0 39.0 329.0 
320.0001571899039 5771.0 NaN 1536.9084836339364 0.5112281092533885 463.0 43.0 327.0 
330.0001571899039 5785.0 NaN 1536.8016032064118 0.5076083332610034 467.0 39.0 331.0 
340.0001571899039 5791.0 NaN 1533.739478957916 0.5100359308838033 473.0 36.0 333.0 
350.0001571899039 5803.0 NaN 1527.6980627922514 0.5068462075497037 477.0 37.0 330.0 
360.0001571899039 5782.0 NaN 1524.579826319306 0.5097980335711693 476.0 37.0 329.0 
370.0001571899039 5778.0 NaN 1506.1616566466273 0.5019199032673477 471.0 42.0 318.0 
380.0001571899039 5791.0 NaN 1509.1890447561798 0.5124104283526534 473.0 42.0 319.0 
390.0001571899039 5797.0 NaN 1512.2698730794916 0.5125067400274282 475.0 41.0 321.0 
400.0001571899039 5825.0 NaN 1509.1863727454909 0.51166204474748 483.0 35.0 326.0 
410.0001571899039 5836.0 NaN 1521.5016700066813 0.5189488755777348 486.0 36.0 329.0 
420.0001571899039 5780.0 NaN 1512.3420173680704 0.5182776701072991 476.0 38.0 324.0 
430.0001571899039 5765.0 NaN 1512.2992651970617 0.5164352214427088 482.0 36.0 326.0 
440.0001571899039 5758.0 NaN 1518.501002004009 0.511027914855145 489.0 37.0 327.0 
450.0001571899039 5797.0 NaN 1539.9198396793577 0.5093003380930897 490.0 38.0 333.0 
460.0001571899039 5776.0 NaN 1539.890447561791 0.5141984557440518 486.0 38.0 333.0 
470.0001571899039 5759.0 NaN 1530.6559786239154 0.5118811479162783 482.0 37.0 331.0 
480.0001571899039 5738.0 NaN 1518.394121576488 0.518652247778761 478.0 37.0 327.0 
490.0001571899039 5721.0 NaN 1499.973279893119 0.5180887909032111 475.0 36.0 322.0 
500.0001571899039 5714.0 NaN 1490.7201068804272 0.5114562108317869 466.0 41.0 314.0 
510.0001571899039 5704.0 NaN 1496.8363393453565 0.508737266915486 471.0 37.0 320.0 
520.0001571899039 5727.0 NaN 1466.2872411489639 0.5113898609209678 469.0 36.0 311.0 
530.0001571899039 5717.0 NaN 1447.7648630594533 0.509546072721853 465.0 38.0 303.0 
540.0001571899039 5726.0 NaN 1466.148296593185 0.5084279863208172 467.0 40.0 307.0 
550.0001571899039 5737.0 NaN 1466.0627922511696 0.5114869925045669 475.0 35.0 312.0 
560.0001571899039 5758.0 NaN 1460.0400801603205 0.5066411034831438 467.0 43.0 302.0 
570.0001571899039 5761.0 NaN 1472.5531062124248 0.51449939522708 471.0 39.0 310.0 
580.0001571899039 5750.0 NaN 1475.4094856379431 0.5170699742690071 474.0 38.0 312.0 
590.0001571899039 5730.0 NaN 1478.4822979291914 0.5206171443702166 478.0 39.0 312.0 
600.0001571899039 5712.0 NaN 1487.644622578491 0.5175809819016908 485.0 39.0 315.0 
610.0001571899039 5765.0 NaN 1493.8810955243816 0.5145699318665918 488.0 38.0 318.0 
620.0001571899039 5838.0 NaN 1497.0420841683363 0.513201892399167 482.0 42.0 315.0 
630.0001571899039 5913.0 NaN 1506.1776887107544 0.5156802710799823 473.0 47.0 313.0 
640.0001571899039 5899.0 NaN 1506.0921843687365 0.5309615656708128 480.0 46.0 314.0 
650.0001571899039 5864.0 NaN 1521.6593186372736 0.5172764162080791 467.0 52.0 313.0 
660.0001571899039 5829.0 NaN 1530.8269873079485 0.5188889438054414 471.0 44.0 324.0 
#####################################################################
# End of data export. Simulation finished at: 2019-03-02T07:50+0000 #
#####################################################################
