#####################################################################
# Alchemist log file - simulation started at: 2019-03-07T18:00+0000 #
#####################################################################
# seed = 2.0, bandwidth = 1000.0, propagationDelay = 10.0, baserange = 17.78279410038923
#
# The columns have the following meaning: 
# time neighbor_count[Sum] <value>@neighbor_count[Sum] packet_size[Mean] mean_delay[Mean] crowd[Sum] overcrowded[Sum] risk[Sum] 
0.0 NaN NaN NaN NaN NaN NaN NaN 
2.0005829790527505 NaN NaN 4988.0 NaN 1497.0 0.0 1497.0 
4.0005829790527505 NaN NaN 4988.0 NaN 1497.0 0.0 1497.0 
6.0005829790527505 NaN NaN 4988.0 NaN 1497.0 0.0 1497.0 
8.000582979052751 NaN NaN 4988.0 NaN 1497.0 0.0 1497.0 
10.000582979052751 NaN NaN 4988.0 NaN 1497.0 0.0 1497.0 
12.000582979052751 NaN NaN 4988.0 NaN 1497.0 0.0 1497.0 
14.000582979052751 NaN NaN 4988.0 NaN 1497.0 0.0 1497.0 
16.00058297905275 563.0 NaN 4988.758851035404 0.3094522085773685 1497.0 0.0 1497.0 
18.00058297905275 1116.0 NaN 4994.15631262525 2.0032042639124876 1497.0 0.0 1497.0 
20.00058297905275 1116.0 NaN 4991.842351369405 4.003204263912488 1497.0 0.0 1497.0 
22.00058297905275 1116.0 NaN 4991.858383433534 6.003204263912488 1497.0 0.0 1497.0 
24.00058297905275 1116.0 NaN 4991.853039412158 8.003204263912489 1497.0 0.0 1497.0 
26.00058297905275 1116.0 NaN 4991.858383433534 10.003204263912489 1497.0 0.0 1497.0 
28.00058297905275 1116.0 NaN 4991.847695390781 12.003204263912489 1497.0 0.0 1497.0 
30.00029930575021 1116.0 NaN 4991.837007348029 14.003204263912489 1497.0 0.0 1497.0 
32.00058297905275 1132.0 NaN 4994.746826987308 1.1812299751861077 1496.0 1.0 1496.0 
34.00058297905275 1132.0 NaN 4990.843019372078 3.181229975186108 1496.0 1.0 1496.0 
36.00058297905275 1132.0 NaN 4990.618570474282 5.181229975186108 1496.0 1.0 1496.0 
38.00058297905275 1132.0 NaN 4990.626586506346 7.181229975186108 1496.0 1.0 1496.0 
40.00058297905275 1132.0 NaN 4990.629258517034 9.181229975186108 1496.0 1.0 1496.0 
42.00058297905275 1132.0 NaN 4990.597194388778 11.181229975186108 1496.0 1.0 1496.0 
44.00058297905275 1132.0 NaN 4990.597194388778 13.181229975186108 1496.0 1.0 1496.0 
46.00058297905275 1141.0 NaN 4991.796927187709 7.860290871221268 1496.0 1.0 1496.0 
48.00058297905275 1152.0 NaN 4991.462925851703 2.3114455188748075 1495.0 2.0 1495.0 
50.00058297905275 1152.0 NaN 4990.925851703407 4.311445518874807 1495.0 2.0 1495.0 
52.00058297905275 1152.0 NaN 4990.912491649967 6.311445518874807 1495.0 2.0 1495.0 
54.00058297905275 1152.0 NaN 4990.907147628591 8.311445518874807 1495.0 2.0 1495.0 
56.00058297905275 1152.0 NaN 4990.891115564462 10.311445518874807 1495.0 2.0 1495.0 
58.00058297905275 1152.0 NaN 4990.888443553774 12.311445518874807 1495.0 2.0 1495.0 
60.0003048462023 1152.0 NaN 4990.89378757515 14.311445518874807 1495.0 2.0 1495.0 
62.00058297905275 1166.0 NaN 968.5637942551742 7.424058545611643 486.0 6.0 179.0 
64.00058297905275 1181.0 NaN 977.7287909151637 2.9117254193277637 486.0 6.0 182.0 
66.00058297905275 1181.0 NaN 977.6085504342001 4.911725419327764 485.0 6.0 182.0 
68.00058297905275 1181.0 NaN 977.6005344021364 6.911725419327764 485.0 6.0 182.0 
70.00058297905275 1181.0 NaN 977.5925183700725 8.911725419327764 485.0 6.0 182.0 
72.00058297905275 1186.0 NaN 977.6513026052091 9.195611138738855 483.0 6.0 182.0 
74.00058297905275 1194.0 NaN 977.5657982631909 7.4084259259092065 477.0 6.0 182.0 
76.00058297905275 1166.0 NaN 977.6406145624561 7.767036650507616 469.0 6.0 182.0 
78.00058297905275 1149.0 NaN 977.7154308617257 5.6656084012330465 469.0 6.0 182.0 
80.00058297905275 1155.0 NaN 980.6359385437547 5.795029036151683 469.0 6.0 183.0 
82.00058297905275 1155.0 NaN 980.5744822979271 7.4961401472627935 464.0 6.0 183.0 
84.00058297905275 1157.0 NaN 980.521042084171 6.166405406104367 452.0 6.0 183.0 
86.00058297905275 1158.0 NaN 980.5103540414183 5.9257934888085275 430.0 6.0 183.0 
88.00058297905275 1160.0 NaN 980.5103540414183 7.635774310424339 428.0 6.0 183.0 
90.00058297905275 1161.0 NaN 980.5023380093531 9.622038106955085 428.0 6.0 183.0 
92.00058297905275 1136.0 NaN 983.6392785571169 9.704060462829947 426.0 6.0 184.0 
94.00058297905275 1148.0 NaN 989.8436873747468 6.162070465546775 410.0 6.0 186.0 
96.00058297905275 1154.0 NaN 989.7608550434179 3.309007641331535 377.0 6.0 186.0 
98.00058297905275 1155.0 NaN 989.7341349365378 4.7999606801283585 374.0 6.0 186.0 
100.00058297905275 1156.0 NaN 989.7314629258533 6.753774142833415 374.0 6.0 186.0 
102.00058297905275 1156.0 NaN 989.7154308617261 8.753774142833416 374.0 6.0 186.0 
104.00058297905275 1154.0 NaN 992.7882431529729 10.34918794252781 373.0 6.0 187.0 
106.00058297905275 1160.0 NaN 989.7368069472271 8.569845899430934 360.0 6.0 186.0 
108.00058297905275 1143.0 NaN 992.8844355377439 5.974139982459692 350.0 6.0 187.0 
110.00058297905275 1157.0 NaN 996.0 4.94628547959153 350.0 6.0 188.0 
112.00058297905275 1159.0 NaN 995.8503674014712 6.027788743286493 350.0 6.0 188.0 
114.00058297905275 1158.0 NaN 1001.9906479625907 7.870153197828649 348.0 6.0 190.0 
116.00058297905275 1161.0 NaN 1005.0634602538439 7.9400619502664656 345.0 6.0 191.0 
118.00058297905275 1162.0 NaN 1008.152304609218 6.130441360192749 334.0 6.0 192.0 
120.00058297905275 1165.0 NaN 1008.1202404809637 7.535549310434368 332.0 6.0 192.0 
122.00058297905275 1160.0 NaN 1001.9853039412169 8.567677495356538 332.0 6.0 190.0 
124.00058297905275 1141.0 NaN 1001.9853039412169 7.9332162665428605 329.0 6.0 190.0 
126.00058297905275 1148.0 NaN 1005.1249164996651 7.300441923200936 326.0 6.0 191.0 
128.00058297905275 1157.0 NaN 1005.0554442217741 5.309546323737196 319.0 6.0 191.0 
130.00058297905275 1158.0 NaN 1005.0394121576468 4.993201764004884 317.0 6.0 191.0 
132.00058297905275 1166.0 NaN 1008.0988643954558 6.704163130628601 317.0 6.0 192.0 
134.00058297905275 1168.0 NaN 1008.0908483633923 8.600247233781051 317.0 6.0 192.0 
136.00058297905275 1153.0 NaN 989.7368069472271 10.010656012115598 312.0 6.0 186.0 
138.00058297905275 1157.0 NaN 989.7314629258527 8.709667574752768 311.0 6.0 186.0 
140.00058297905275 1162.0 NaN 999.0701402805615 5.0893334056532495 307.0 6.0 189.0 
142.00058297905275 1172.0 NaN 1002.1643286573162 4.446414726116825 309.0 6.0 190.0 
144.00058297905275 1174.0 NaN 1002.0627922511708 5.7775310462185026 309.0 6.0 190.0 
146.00058297905275 1169.0 NaN 1002.076152304609 7.629217497681234 309.0 6.0 190.0 
148.00058297905275 1165.0 NaN 1002.036072144289 9.083142096703188 309.0 6.0 190.0 
150.00058297905275 1176.0 NaN 1008.1843687374725 7.58178658844478 310.0 6.0 192.0 
152.00058297905275 1176.0 NaN 998.9311957247816 6.7097458702077 308.0 6.0 189.0 
154.00058297905275 1173.0 NaN 998.992651970609 6.942541567119476 308.0 6.0 189.0 
156.00058297905275 1176.0 NaN 1005.1810287241162 7.258458567006168 308.0 6.0 191.0 
158.00058297905275 1185.0 NaN 1011.3747494990002 7.2771040555964035 308.0 6.0 193.0 
160.00058297905275 1196.0 NaN 1011.2999331997345 6.779292110404859 308.0 6.0 193.0 
162.00058297905275 1200.0 NaN 1005.1035404141638 5.018940333693919 301.0 6.0 191.0 
164.00058297905275 1204.0 NaN 1008.1549766199073 6.453967275393411 302.0 6.0 192.0 
166.00058297905275 1211.0 NaN 1008.1362725450911 8.011559487487483 303.0 6.0 192.0 
168.00058297905275 1208.0 NaN 1001.9585838343367 8.74140022089322 307.0 6.0 190.0 
170.00058297905275 1200.0 NaN 1005.028724114898 9.101377840474624 307.0 6.0 191.0 
172.00058297905275 1204.0 NaN 1014.3834335337367 6.214724759013882 305.0 6.0 194.0 
174.00058297905275 1208.0 NaN 1014.2792251168997 4.564159742223871 303.0 6.0 194.0 
176.00058297905275 1210.0 NaN 1011.1770207080816 5.920123725959109 304.0 6.0 193.0 
178.00058297905275 1212.0 NaN 1008.0961923847711 7.750364034736314 304.0 6.0 192.0 
180.00058297905275 1203.0 NaN 1001.9799599198378 9.403084472453816 304.0 6.0 190.0 
182.00058297905275 1203.0 NaN 995.7942551770201 8.826537975823685 305.0 6.0 188.0 
184.00058297905275 1202.0 NaN 995.8156312625274 6.071456644244702 303.0 6.0 188.0 
186.00058297905275 1199.0 NaN 995.8156312625274 6.377707345892743 304.0 6.0 188.0 
188.00058297905275 1193.0 NaN 1001.9826319305272 6.749749758809383 303.0 6.0 190.0 
190.00058297905275 1191.0 NaN 1005.0180360721457 7.296508568419093 302.0 6.0 191.0 
192.00058297905275 1189.0 NaN 1005.0260521042093 8.384285307161068 302.0 6.0 191.0 
194.00058297905275 1195.0 NaN 1005.0233800935181 7.0736253371102755 298.0 6.0 191.0 
196.00058297905275 1195.0 NaN 1001.9853039412166 6.4107014695765265 294.0 6.0 190.0 
198.00058297905275 1195.0 NaN 998.8456913827637 7.006687611815484 292.0 6.0 189.0 
200.00058297905275 1196.0 NaN 983.4923179692729 8.102835778261982 292.0 6.0 184.0 
202.00058297905275 1179.0 NaN 986.6533066132275 8.689984495297212 293.0 6.0 185.0 
204.00058297905275 1184.0 NaN 986.5918503674001 7.370850912727702 291.0 6.0 185.0 
206.00058297905275 1195.0 NaN 983.6232464929841 4.767448509871217 290.0 6.0 184.0 
208.00058297905275 1198.0 NaN 983.5671342685362 5.741408100587677 289.0 6.0 184.0 
210.00058297905275 1200.0 NaN 983.5404141616544 7.470147396119463 291.0 6.0 184.0 
212.00058297905275 1203.0 NaN 986.6506346025363 8.596747563381728 290.0 6.0 185.0 
214.00058297905275 1196.0 NaN 986.6132264529072 9.027321224101216 290.0 6.0 185.0 
216.00058297905275 1196.0 NaN 986.6452905811635 7.118757195431656 288.0 7.0 184.0 
218.00058297905275 1190.0 NaN 986.6479625918524 5.975598860178278 287.0 7.0 184.0 
220.00058297905275 1196.0 NaN 983.5724782899115 6.263890058106437 291.0 7.0 183.0 
222.00058297905275 1189.0 NaN 983.5911823647272 7.163925186545336 290.0 7.0 183.0 
224.00058297905275 1190.0 NaN 986.6052104208428 8.562314755445515 292.0 7.0 184.0 
226.00058297905275 1194.0 NaN 989.7234468937888 8.188488029266026 292.0 7.0 185.0 
228.00058297905275 1199.0 NaN 989.7100868403454 5.723397320407564 285.0 11.0 181.0 
230.00058297905275 1210.0 NaN 983.561790247161 6.481514519366159 282.0 11.0 179.0 
232.00058297905275 1207.0 NaN 980.5504342017363 7.516777554344071 280.0 11.0 178.0 
234.00058297905275 1195.0 NaN 980.5317301269209 8.312787598676868 280.0 11.0 178.0 
236.00058297905275 1193.0 NaN 980.563794255176 8.424042876535022 280.0 11.0 178.0 
238.00058297905275 1210.0 NaN 983.6553106212428 6.488698238690027 278.0 11.0 179.0 
240.00058297905275 1210.0 NaN 983.5831663326637 6.013180697336497 274.0 11.0 179.0 
242.00058297905275 1217.0 NaN 983.6900467601885 6.967219130035148 275.0 10.0 180.0 
244.00058297905275 1217.0 NaN 986.6960587842362 7.917836769677088 278.0 6.0 185.0 
246.00058297905275 1209.0 NaN 977.5364061456252 9.320481996370967 277.0 6.0 182.0 
248.00058297905275 1208.0 NaN 977.4829659318636 8.570129830330266 276.0 6.0 182.0 
250.00058297905275 1203.0 NaN 974.3807615230453 5.949193810805834 271.0 6.0 181.0 
252.00058297905275 1199.0 NaN 971.2812291249181 6.1045473370037655 271.0 6.0 180.0 
254.00058297905275 1196.0 NaN 965.1543086172364 7.268041134720238 268.0 6.0 178.0 
256.00058297905275 1186.0 NaN 965.1543086172364 8.264818725882755 270.0 6.0 178.0 
258.00058297905275 1182.0 NaN 962.1242484969933 8.772293852681742 270.0 6.0 177.0 
260.00058297905275 1183.0 NaN 965.1436205744816 6.74610321270009 269.0 6.0 178.0 
262.00058297905275 1183.0 NaN 962.0841683366725 6.15798651256809 268.0 7.0 176.0 
264.00058297905275 1186.0 NaN 962.0494321977274 6.921631971463324 266.0 7.0 176.0 
266.00058297905275 1180.0 NaN 962.0921843687361 7.625163737560697 268.0 7.0 176.0 
268.00058297905275 1177.0 NaN 962.0814963259849 8.481365584287584 268.0 7.0 176.0 
270.00058297905275 1186.0 NaN 962.0521042084181 8.12862778435317 269.0 7.0 176.0 
272.00058297905275 1181.0 NaN 962.0921843687361 5.6582804005349905 270.0 7.0 176.0 
274.00058297905275 1184.0 NaN 962.0601202404819 6.036147973362354 268.0 12.0 171.0 
276.00058297905275 1190.0 NaN 965.1863727454909 7.575705037330679 272.0 12.0 172.0 
278.00058297905275 1183.0 NaN 965.167668670673 8.87759813216643 273.0 11.0 173.0 
280.00058297905275 1179.0 NaN 977.4802939211758 9.461176869974926 271.0 11.0 177.0 
282.00058297905275 1177.0 NaN 986.7201068804271 6.9776399082833285 274.0 11.0 180.0 
284.00058297905275 1168.0 NaN 986.6800267201091 6.029684724216485 272.0 12.0 179.0 
286.00058297905275 1170.0 NaN 983.591182364727 6.955298097854282 271.0 12.0 178.0 
288.00058297905275 1164.0 NaN 977.4615898463609 7.533711381003956 268.0 11.0 177.0 
290.00058297905275 1149.0 NaN 977.3814295257182 8.578525861877477 272.0 7.0 181.0 
292.00058297905275 1148.0 NaN 974.332665330661 8.330314048695481 271.0 7.0 180.0 
294.00058297905275 1147.0 NaN 971.2171008684032 6.230471430932072 272.0 6.0 180.0 
296.00058297905275 1140.0 NaN 974.2845691382755 6.511597737085569 272.0 6.0 181.0 
298.00058297905275 1140.0 NaN 974.3086172344697 7.127874640371505 272.0 6.0 181.0 
300.00058297905275 1135.0 NaN 977.3627254509001 8.028871014005714 273.0 6.0 182.0 
302.00058297905275 1138.0 NaN 974.324649298597 8.441116105033988 272.0 6.0 181.0 
304.00058297905275 1138.0 NaN 971.2064128256515 5.936466501447053 270.0 6.0 180.0 
306.00058297905275 1141.0 NaN 974.2899131596545 5.373559502111278 271.0 6.0 181.0 
308.00058297905275 1144.0 NaN 977.3894455577816 6.758121712396428 272.0 6.0 182.0 
310.00058297905275 1141.0 NaN 974.2979291917181 8.047909532782318 271.0 6.0 181.0 
312.00058297905275 1135.0 NaN 974.2979291917181 8.762083299575773 271.0 6.0 181.0 
314.00058297905275 1152.0 NaN 977.3760855043422 7.861243726948433 274.0 6.0 182.0 
316.00058297905275 1156.0 NaN 977.3573814295273 5.524667878702062 277.0 6.0 182.0 
318.00058297905275 1156.0 NaN 974.2925851703392 5.7687275788869465 277.0 6.0 181.0 
320.00058297905275 1152.0 NaN 968.1068804275218 6.890680293437203 277.0 6.0 179.0 
322.00058297905275 1149.0 NaN 968.152304609218 8.335540626938556 277.0 6.0 179.0 
324.00058297905275 1144.0 NaN 964.9832999332001 9.459554237567026 276.0 6.0 178.0 
326.00058297905275 1149.0 NaN 968.109552438209 7.4021097369451505 278.0 6.0 179.0 
328.00058297905275 1149.0 NaN 971.1449565798274 5.896330273116792 279.0 6.0 180.0 
330.00058297905275 1152.0 NaN 965.0313961255861 6.580061441446633 280.0 6.0 178.0 
332.00058297905275 1146.0 NaN 965.0420841683363 7.312752262594507 281.0 6.0 178.0 
334.00058297905275 1141.0 NaN 971.1583166332679 7.775955002861824 279.0 6.0 180.0 
336.00058297905275 1147.0 NaN 968.1068804275228 7.42572599707137 280.0 6.0 179.0 
338.00058297905275 1147.0 NaN 961.9425517702089 5.604541236027878 279.0 6.0 177.0 
340.00058297905275 1148.0 NaN 965.0501002003998 6.570856072676866 276.0 6.0 178.0 
342.00058297905275 1151.0 NaN 958.8964595858367 7.780435410014213 277.0 6.0 176.0 
344.00058297905275 1142.0 NaN 958.8830995323997 8.324546469469272 278.0 6.0 176.0 
346.00058297905275 1139.0 NaN 958.8964595858367 8.843630896095405 279.0 6.0 176.0 
348.00058297905275 1143.0 NaN 958.8937875751499 6.537416743183822 281.0 6.0 176.0 
350.00058297905275 1149.0 NaN 955.7808951235811 5.552108105434292 281.0 6.0 175.0 
352.00058297905275 1155.0 NaN 958.896459585837 6.878881215977473 285.0 6.0 176.0 
354.00058297905275 1153.0 NaN 955.780895123581 8.406644791597587 287.0 6.0 175.0 
356.00058297905275 1139.0 NaN 952.7535070140272 9.55484603683518 287.0 6.0 174.0 
358.00058297905275 1141.0 NaN 958.8911155644632 8.92099648807793 285.0 6.0 176.0 
360.00058297905275 1133.0 NaN 958.8590514362049 6.098442162656781 285.0 6.0 176.0 
362.00058297905275 1128.0 NaN 955.786239144955 6.062333760252624 285.0 6.0 175.0 
364.00058297905275 1123.0 NaN 958.8643954575818 6.6838122366008585 285.0 6.0 176.0 
366.00058297905275 1121.0 NaN 958.8590514362049 7.895828547883188 286.0 6.0 176.0 
368.00058297905275 1115.0 NaN 955.8076152304595 8.80825952816101 282.0 6.0 175.0 
370.00058297905275 1119.0 NaN 955.8102872411503 7.279192366561887 282.0 6.0 175.0 
372.00058297905275 1118.0 NaN 955.7915831663316 6.455383367472458 283.0 6.0 175.0 
374.00058297905275 1123.0 NaN 955.7515030060132 7.323831561232824 283.0 6.0 175.0 
376.00058297905275 1121.0 NaN 955.7728790915178 8.040334085375335 281.0 6.0 175.0 
378.00058297905275 1114.0 NaN 955.8236472945904 8.122591031967783 279.0 6.0 175.0 
380.00058297905275 1115.0 NaN 943.537742150968 7.298437759446337 277.0 6.0 171.0 
382.00058297905275 1112.0 NaN 943.5671342685363 5.176210503483167 276.0 6.0 171.0 
384.00058297905275 1112.0 NaN 949.6806947227776 6.1674599178501675 273.0 6.0 173.0 
386.00058297905275 1118.0 NaN 943.5804943219773 7.593994978599293 273.0 6.0 171.0 
388.00058297905275 1113.0 NaN 940.4782899131588 8.532137942649623 273.0 6.0 170.0 
390.00058297905275 1114.0 NaN 937.3947895791592 9.015006993420881 270.0 6.0 169.0 
392.00058297905275 1120.0 NaN 940.475617902473 6.47419084945511 268.0 6.0 170.0 
394.00058297905275 1121.0 NaN 934.3273213092865 4.909787681031092 265.0 6.0 168.0 
396.00058297905275 1125.0 NaN 934.3273213092865 6.110189946907935 263.0 6.0 168.0 
398.00058297905275 1126.0 NaN 934.3112892451578 7.550013858598406 262.0 6.0 168.0 
400.00058297905275 1123.0 NaN 937.3653974615911 8.931895813885241 263.0 6.0 169.0 
402.00058297905275 1136.0 NaN 940.4702738810954 8.564385482221512 263.0 6.0 170.0 
404.00058297905275 1140.0 NaN 937.3493653974625 6.2364920009305065 266.0 6.0 169.0 
406.00058297905275 1143.0 NaN 931.2518370073492 6.633238497240693 266.0 6.0 167.0 
408.00058297905275 1145.0 NaN 934.3994655978629 6.8655560599487755 266.0 6.0 168.0 
410.00058297905275 1136.0 NaN 928.1897127588497 7.581606809331821 266.0 6.0 166.0 
412.00058297905275 1141.0 NaN 925.1569806279228 8.591849210624238 266.0 6.0 165.0 
414.00058297905275 1144.0 NaN 925.1623246492993 7.05557298914083 266.0 6.0 165.0 
416.00058297905275 1138.0 NaN 919.0140280561129 6.486630408822723 260.0 6.0 163.0 
418.00058297905275 1141.0 NaN 912.8790915163676 7.421546126154522 261.0 6.0 161.0 
420.00058297905275 1144.0 NaN 909.8089512358044 8.299445225870091 262.0 6.0 160.0 
422.00058297905275 1143.0 NaN 909.814295257182 8.802296676785776 261.0 6.0 160.0 
424.00058297905275 1145.0 NaN 915.9973279893129 7.280279138368185 259.0 6.0 162.0 
426.00058297905275 1134.0 NaN 915.9732798931184 5.266353144422944 256.0 6.0 162.0 
428.00058297905275 1142.0 NaN 912.8550434201725 6.393437827883199 255.0 6.0 161.0 
430.00058297905275 1147.0 NaN 912.847027388109 7.73442232204834 254.0 6.0 161.0 
432.00058297905275 1134.0 NaN 912.9058116232452 8.768070811651123 253.0 6.0 161.0 
434.00058297905275 1129.0 NaN 915.9732798931184 9.414932628546426 255.0 6.0 162.0 
436.00058297905275 1132.0 NaN 915.983967935873 7.129040167227489 255.0 6.0 162.0 
438.00058297905275 1134.0 NaN 916.05611222445 5.57623922058517 256.0 6.0 162.0 
440.00058297905275 1142.0 NaN 919.0407481629915 5.936203857865101 255.0 6.0 163.0 
442.00058297905275 1143.0 NaN 922.1322645290591 7.328974403545364 256.0 6.0 164.0 
444.00058297905275 1146.0 NaN 925.1970607882452 8.688372728105556 256.0 6.0 165.0 
446.00058297905275 1153.0 NaN 937.5577822311274 8.3530433354121 256.0 6.0 169.0 
448.00058297905275 1152.0 NaN 937.456245824982 6.213480512512989 255.0 6.0 169.0 
450.00058297905275 1152.0 NaN 937.4696058784231 7.008190362620585 254.0 6.0 169.0 
452.00058297905275 1147.0 NaN 931.3106212424858 7.49733397769351 250.0 6.0 167.0 
454.00058297905275 1138.0 NaN 931.3854375417502 7.50830087085594 250.0 6.0 167.0 
456.00058297905275 1148.0 NaN 931.4228456913817 8.261626210116985 252.0 6.0 167.0 
458.00058297905275 1155.0 NaN 931.3426853707409 6.749256120400882 252.0 6.0 167.0 
460.00058297905275 1160.0 NaN 934.4048096192366 6.313867064396875 256.0 6.0 168.0 
462.00058297905275 1159.0 NaN 934.4475617902458 7.392058922565964 256.0 6.0 168.0 
464.00058297905275 1152.0 NaN 934.3994655978634 8.443608984184456 256.0 6.0 168.0 
466.00058297905275 1146.0 NaN 934.4261857047414 8.89568178442913 254.0 7.0 167.0 
468.00058297905275 1152.0 NaN 934.4208416833676 7.745402318044141 254.0 7.0 167.0 
470.00058297905275 1145.0 NaN 934.3887775551088 5.025887792747663 249.0 12.0 162.0 
472.00058297905275 1146.0 NaN 934.3861055444227 5.800409753292443 252.0 12.0 162.0 
474.00058297905275 1138.0 NaN 934.3486973947906 7.159669942671193 254.0 12.0 162.0 
476.00058297905275 1131.0 NaN 928.229792919173 8.517975002942826 253.0 12.0 160.0 
478.00058297905275 1131.0 NaN 928.2404809619228 9.517116185742093 252.0 12.0 160.0 
480.00058297905275 1129.0 NaN 934.3460253841004 7.7189511765375345 251.0 12.0 162.0 
482.00058297905275 1136.0 NaN 940.486305945223 6.475696132282238 249.0 13.0 163.0 
484.00058297905275 1132.0 NaN 934.3273213092862 6.5271388129155445 249.0 13.0 161.0 
486.00058297905275 1122.0 NaN 931.3266533066134 7.516346119381404 247.0 14.0 159.0 
488.00058297905275 1113.0 NaN 931.2865731462912 8.425128550406901 248.0 14.0 159.0 
490.00058297905275 1121.0 NaN 931.2919171676684 7.9246532355519195 247.0 14.0 159.0 
492.00058297905275 1121.0 NaN 934.3807615230454 6.150396537588648 248.0 14.0 160.0 
494.00058297905275 1126.0 NaN 940.5183700734816 7.030553665776339 250.0 14.0 162.0 
496.00058297905275 1123.0 NaN 940.513026052104 7.9819587387260444 249.0 14.0 162.0 
498.00058297905275 1120.0 NaN 934.3994655978635 8.11111420876821 247.0 14.0 160.0 
500.00058297905275 1122.0 NaN 934.4181696726778 8.265204053819732 247.0 14.0 160.0 
502.00058297905275 1117.0 NaN 934.4154976619911 6.290934546133694 246.0 14.0 160.0 
504.00058297905275 1118.0 NaN 934.3780895123589 5.729413191948964 245.0 14.0 160.0 
506.00058297905275 1117.0 NaN 925.2398129592505 6.933421877825096 244.0 14.0 157.0 
508.00058297905275 1114.0 NaN 922.167000668004 8.319368118554232 244.0 14.0 156.0 
510.00058297905275 1108.0 NaN 919.062124248496 9.396085244723961 243.0 14.0 155.0 
512.0005829790528 1109.0 NaN 912.9058116232452 8.268280421572886 243.0 14.0 153.0 
514.0005829790528 1109.0 NaN 909.8196392785583 5.027809342106368 244.0 13.0 153.0 
516.0005829790528 1108.0 NaN 909.8383433533726 5.723792674734945 244.0 12.0 154.0 
518.0005829790528 1103.0 NaN 906.7441549766188 6.615469752770565 244.0 8.0 157.0 
520.0005829790528 1092.0 NaN 906.7174348697403 7.841613868894929 244.0 8.0 157.0 
522.0005829790528 1090.0 NaN 906.7601870407494 8.862539308013508 245.0 8.0 157.0 
524.0005829790528 1087.0 NaN 903.6873747495001 7.386018141534679 244.0 8.0 156.0 
526.0005829790528 1091.0 NaN 903.7114228456908 6.609580563428486 245.0 7.0 157.0 
528.0005829790528 1094.0 NaN 900.6118904475629 6.8722103167589355 243.0 8.0 155.0 
530.0005829790528 1092.0 NaN 900.5905143620583 7.367804278420591 244.0 6.0 157.0 
532.0005829790528 1089.0 NaN 897.5070140280553 8.207637691181434 243.0 6.0 156.0 
534.0005829790528 1087.0 NaN 894.4368737474956 7.271255315586335 243.0 6.0 155.0 
536.0005829790528 1096.0 NaN 900.601202404809 5.352566257691473 245.0 6.0 157.0 
538.0005829790528 1100.0 NaN 894.4368737474956 6.354323754777641 244.0 6.0 155.0 
540.0005829790528 1101.0 NaN 894.3967935871739 7.868801869447726 244.0 6.0 155.0 
542.0005829790528 1098.0 NaN 891.3239812959258 8.554927682801594 242.0 7.0 153.0 
544.0005829790528 1093.0 NaN 897.5230460921849 8.199428017563914 244.0 6.0 156.0 
546.0005829790528 1089.0 NaN 897.5283901135602 6.066835569580899 243.0 6.0 156.0 
548.0005829790528 1091.0 NaN 897.5043420173682 5.458788540096524 243.0 6.0 156.0 
550.0005829790528 1096.0 NaN 891.3774215096864 6.30227894406805 243.0 6.0 154.0 
552.0005829790528 1094.0 NaN 885.274549098196 7.779513226752033 241.0 6.0 152.0 
554.0005829790528 1089.0 NaN 885.2371409485636 9.022866656452518 240.0 6.0 152.0 
556.0005829790528 1098.0 NaN 888.3313293253177 8.475299261032344 243.0 6.0 153.0 
558.0005829790528 1099.0 NaN 888.2939211756848 6.005878050073747 246.0 6.0 153.0 
560.0005829790528 1102.0 NaN 885.2398129592518 5.741551211172143 248.0 6.0 152.0 
562.0005829790528 1105.0 NaN 885.2424849699405 6.87848119641113 249.0 6.0 152.0 
564.0005829790528 1110.0 NaN 888.3286573146293 7.809303351623395 249.0 6.0 153.0 
566.0005829790528 1106.0 NaN 888.3714094856381 8.535887300840837 248.0 6.0 153.0 
568.0005829790528 1110.0 NaN 891.4201736806953 6.975522226430224 247.0 6.0 154.0 
570.0005829790528 1113.0 NaN 891.4014696058775 6.546195418172069 248.0 6.0 154.0 
572.0005829790528 1122.0 NaN 894.5036740146955 7.486063095711477 249.0 6.0 155.0 
574.0005829790528 1118.0 NaN 894.4529058116227 7.848047322657417 250.0 6.0 155.0 
576.0005829790528 1110.0 NaN 894.4582498329997 8.267358408945041 250.0 6.0 155.0 
578.0005829790528 1116.0 NaN 897.5390781563134 7.268761859161851 252.0 6.0 156.0 
580.0005829790528 1118.0 NaN 903.6713426853711 5.385100974818132 252.0 6.0 158.0 
582.0005829790528 1122.0 NaN 903.6900467601864 6.179135786760636 252.0 6.0 158.0 
584.0005829790528 1121.0 NaN 903.6793587174349 7.4659083893850395 252.0 6.0 158.0 
586.0005829790528 1114.0 NaN 903.7247828991319 8.595866431314773 252.0 6.0 158.0 
588.0005829790528 1116.0 NaN 903.6927187708756 8.962096450427278 252.0 6.0 158.0 
590.0005829790528 1117.0 NaN 912.9271877087501 6.711239402109929 254.0 6.0 161.0 
592.0005829790528 1120.0 NaN 919.1022044088184 5.396748448460952 254.0 6.0 163.0 
594.0005829790528 1116.0 NaN 919.0781563126261 6.345407426621631 253.0 6.0 163.0 
596.0005829790528 1115.0 NaN 916.0160320641273 7.670203222785292 256.0 6.0 162.0 
598.0005829790528 1113.0 NaN 915.9759519038083 8.743614944067062 255.0 6.0 162.0 
600.0005829790528 1125.0 NaN 915.9278557114226 8.362775556380855 256.0 6.0 162.0 
602.0005829790528 1131.0 NaN 915.9438877755499 6.353249793801294 258.0 6.0 162.0 
604.0005829790528 1131.0 NaN 919.0113560454233 6.514336720042172 257.0 6.0 163.0 
606.0005829790528 1137.0 NaN 915.9465597862401 7.540755705019073 259.0 6.0 162.0 
608.0005829790528 1130.0 NaN 919.0247160988636 7.568572653143925 259.0 6.0 163.0 
610.0005829790528 1138.0 NaN 925.1222444889771 8.280111834471747 264.0 6.0 165.0 
612.0005829790528 1156.0 NaN 928.2912491649962 6.502460940001246 261.0 6.0 166.0 
614.0005829790528 1158.0 NaN 928.2351369405465 6.039026673350693 262.0 6.0 166.0 
616.0005829790528 1155.0 NaN 928.2698730794918 7.136470962397986 261.0 6.0 166.0 
618.0005829790528 1165.0 NaN 940.5637942551774 8.118931420078965 261.0 6.0 170.0 
620.0005829790528 1168.0 NaN 943.6045424181691 8.957279565482665 260.0 6.0 171.0 
622.0005829790528 1164.0 NaN 940.5718102872409 7.942979144549935 257.0 6.0 170.0 
624.0005829790528 1167.0 NaN 937.4909819639271 5.684393734151695 257.0 6.0 169.0 
626.0005829790528 1174.0 NaN 943.7114228456908 6.386766987352896 257.0 6.0 171.0 
628.0005829790528 1177.0 NaN 940.5584502337999 7.6684550961199935 257.0 6.0 170.0 
630.0005829790528 1162.0 NaN 940.5397461589854 8.741680277061196 257.0 6.0 170.0 
632.0005829790528 1165.0 NaN 940.6199064796265 9.39380871282838 257.0 6.0 170.0 
634.0005829790528 1176.0 NaN 937.5337341349364 7.278889757702245 259.0 6.0 169.0 
636.0005829790528 1176.0 NaN 937.5203740814954 6.671250402772237 260.0 6.0 169.0 
638.0005829790528 1179.0 NaN 940.5691382765539 7.348796755040425 260.0 6.0 170.0 
640.0005829790528 1184.0 NaN 943.6873747495001 7.887241154115877 260.0 6.0 171.0 
642.0005829790528 1166.0 NaN 955.9839679358729 8.55331645127501 264.0 6.0 175.0 
644.0005829790528 1165.0 NaN 955.9492317969273 8.038464594382617 265.0 6.0 175.0 
646.0005829790528 1175.0 NaN 968.2538410153636 6.375616877247799 268.0 6.0 179.0 
648.0005829790528 1183.0 NaN 968.2378089512365 6.698495114877301 269.0 6.0 179.0 
650.0005829790528 1183.0 NaN 968.2297929191728 7.73413821526512 270.0 6.0 179.0 
652.0005829790528 1176.0 NaN 968.1683366733457 8.549916283879504 273.0 6.0 179.0 
654.0005829790528 1167.0 NaN 965.095524382096 9.038183549453786 271.0 6.0 178.0 
656.0005829790528 1168.0 NaN 958.9979959919822 6.929837102113001 272.0 6.0 176.0 
658.0005829790528 1178.0 NaN 962.0146960587856 6.327363187282764 272.0 6.0 177.0 
660.0005829790528 1188.0 NaN 974.3567134268546 7.371354902694002 273.0 6.0 181.0 
662.0005829790528 1189.0 NaN 977.4134936539729 8.330840698526808 272.0 6.0 182.0 
664.0005829790528 1174.0 NaN 980.5076820307271 8.771092322952075 272.0 6.0 183.0 
#####################################################################
# End of data export. Simulation finished at: 2019-03-07T18:04+0000 #
#####################################################################
