#####################################################################
# Alchemist log file - simulation started at: 2019-03-06T06:46+0000 #
#####################################################################
# seed = 3.0, bandwidth = 1.0E8, propagationDelay = 10.0, baserange = 31.622776601683796
#
# The columns have the following meaning: 
# time neighbor_count[Sum] <value>@neighbor_count[Sum] packet_size[Mean] mean_delay[Mean] crowd[Sum] overcrowded[Sum] risk[Sum] 
0.0 NaN NaN NaN NaN NaN NaN NaN 
2.0005923698108097 NaN NaN 4988.0 NaN 1497.0 0.0 1497.0 
4.00059236981081 NaN NaN 4988.0 NaN 1497.0 0.0 1497.0 
6.000084666035003 NaN NaN 4988.0 NaN 1497.0 0.0 1497.0 
8.00059236981081 NaN NaN 4988.0 NaN 1497.0 0.0 1497.0 
10.00033353340315 NaN NaN 4988.0 NaN 1497.0 0.0 1497.0 
12.00059236981081 2794.0 NaN 4996.36873747495 0.996624101305067 1497.0 0.0 1497.0 
14.00059236981081 2794.0 NaN 4994.567802271209 2.9966241013050667 1497.0 0.0 1497.0 
16.000084666035004 2794.0 NaN 4994.089512358049 4.995205661588755 1497.0 0.0 1497.0 
18.00059236981081 2794.0 NaN 4994.102872411489 6.996624101305067 1497.0 0.0 1497.0 
20.00033353340315 2794.0 NaN 4994.089512358049 8.995205661588756 1497.0 0.0 1497.0 
22.00059236981081 2802.0 NaN 4997.261189044756 5.543720484117914 1496.0 1.0 1496.0 
24.00059236981081 2810.0 NaN 4993.490981963928 2.057327195700162 1492.0 5.0 1492.0 
26.000084666035004 2810.0 NaN 4991.682030728123 4.055910765105261 1492.0 5.0 1492.0 
28.00059236981081 2810.0 NaN 4991.665998663994 6.057327195700163 1492.0 5.0 1492.0 
30.00033353340315 2810.0 NaN 4991.692718770875 8.055910765105262 1492.0 5.0 1492.0 
32.00059236981081 2796.0 NaN 4991.676686706747 9.996420822398616 1492.0 5.0 1492.0 
34.00059236981081 2818.0 NaN 4995.460253841015 1.0668417771357617 1480.0 17.0 1480.0 
36.00008466603501 2818.0 NaN 4993.098196392785 3.065429347757231 1480.0 17.0 1480.0 
38.00059236981081 2818.0 NaN 4992.929859719439 5.066841777135762 1480.0 17.0 1480.0 
40.00033353340315 2818.0 NaN 4992.932531730127 7.065429347757231 1480.0 17.0 1480.0 
42.00059236981081 2807.0 NaN 4992.929859719439 9.028778064487453 1480.0 17.0 1480.0 
44.00059236981081 2819.0 NaN 4994.677354709419 5.539105271636559 1471.0 26.0 1471.0 
46.00008466603501 2844.0 NaN 4992.36873747495 2.071154446336929 1457.0 40.0 1457.0 
48.00059236981081 2844.0 NaN 4991.238476953908 4.07257087693183 1457.0 40.0 1457.0 
50.00033353340315 2844.0 NaN 4991.23580494322 6.071154446336928 1457.0 40.0 1457.0 
52.00059236981081 2844.0 NaN 4991.185036740147 8.07257087693183 1457.0 40.0 1457.0 
54.00059236981081 2815.0 NaN 4991.217100868404 9.996630528384683 1457.0 40.0 1457.0 
56.00008466603501 2874.0 NaN 4994.153640614562 1.185042728998567 1440.0 57.0 1440.0 
58.00059236981081 2874.0 NaN 4993.143620574482 3.186457156155569 1440.0 57.0 1440.0 
60.00033353340315 2874.0 NaN 4992.991315965264 5.185042728998567 1440.0 57.0 1440.0 
62.00059236981081 2874.0 NaN 1521.493653974618 7.186457156155568 651.0 55.0 310.0 
64.00059236981082 2847.0 NaN 1521.5230460921844 9.088294163504179 649.0 55.0 310.0 
66.00008466603501 2844.0 NaN 1522.0708082832336 5.555683095349884 597.0 65.0 300.0 
68.00059236981082 2867.0 NaN 1524.676018704073 2.098931728469061 563.0 64.0 302.0 
70.00033353340315 2867.0 NaN 1524.339345357382 4.097509253362375 563.0 64.0 302.0 
72.00059236981082 2867.0 NaN 1524.3233132932544 6.0989317284690605 563.0 64.0 302.0 
74.00059236981082 2867.0 NaN 1524.339345357382 8.098931728469061 563.0 64.0 302.0 
76.00008466603501 2827.0 NaN 1524.3233132932544 9.996207094000729 562.0 65.0 301.0 
78.00059236981082 2908.0 NaN 1531.169004676018 1.1519011944261384 492.0 74.0 294.0 
80.00033353340315 2908.0 NaN 1530.5571142284568 3.150482754709827 492.0 74.0 294.0 
82.00059236981082 2908.0 NaN 1530.5223780895117 5.151901194426139 492.0 74.0 294.0 
84.00059236981082 2908.0 NaN 1530.5490981963912 7.151901194426139 492.0 74.0 294.0 
86.00008466603501 2878.0 NaN 1530.5116900467606 9.06630311557758 494.0 72.0 296.0 
88.00059236981082 2869.0 NaN 1533.9986639946546 5.587270428387125 481.0 70.0 299.0 
90.00033353340315 2887.0 NaN 1533.603206412827 2.1886124341213558 472.0 66.0 303.0 
92.00059236981082 2887.0 NaN 1533.3466933867726 4.190030873837667 472.0 66.0 303.0 
94.00059236981082 2887.0 NaN 1533.360053440215 6.190030873837667 472.0 66.0 303.0 
96.00008466603501 2887.0 NaN 1533.3466933867726 8.188612434121355 472.0 66.0 303.0 
98.00059236981082 2795.0 NaN 1533.3921175684704 9.995613446305256 475.0 63.0 306.0 
100.00033353340315 2839.0 NaN 1537.1222444889788 1.1603742215421475 451.0 65.0 305.0 
102.00059236981082 2839.0 NaN 1536.6359385437547 3.1617946760876023 451.0 65.0 305.0 
104.00059236981082 2839.0 NaN 1533.5711422845698 5.161794676087602 451.0 65.0 304.0 
106.00008466603501 2839.0 NaN 1533.5444221776904 7.160374221542147 451.0 65.0 304.0 
108.00059236981082 2813.0 NaN 1533.5898463593849 9.085927968832884 449.0 66.0 303.0 
110.00033353340315 2818.0 NaN 1533.9425517702086 5.573207101701243 441.0 65.0 304.0 
112.00059236981082 2852.0 NaN 1536.7080828323303 2.1462428916725482 432.0 69.0 301.0 
114.00059236981082 2852.0 NaN 1536.4729458917823 4.146242891672548 432.0 69.0 301.0 
116.00008466603501 2852.0 NaN 1536.4569138276545 6.144830462294017 429.0 71.0 299.0 
118.00059236981082 2852.0 NaN 1536.5210420841693 8.146242891672548 430.0 70.0 300.0 
120.00033353340315 2794.0 NaN 1536.5050100200394 9.994588910400411 431.0 69.0 301.0 
122.00059236981082 2881.0 NaN 1552.39545758183 1.3192668811427501 425.0 72.0 303.0 
124.00059236981082 2881.0 NaN 1551.9973279893118 3.31926688114275 425.0 72.0 303.0 
126.00008466603501 2881.0 NaN 1551.9545758183028 5.317864356598571 425.0 72.0 303.0 
128.00059236981082 2881.0 NaN 1552.0 7.319266881142751 426.0 71.0 304.0 
130.00033353340314 2831.0 NaN 1552.0053440213758 9.190735678424302 425.0 71.0 304.0 
132.00059236981082 2808.0 NaN 1552.3767535070153 5.652501190037646 428.0 65.0 310.0 
134.00059236981082 2841.0 NaN 1548.929859719439 2.3330587419442326 433.0 60.0 314.0 
136.000084666035 2841.0 NaN 1548.7294589178366 4.331656217400052 434.0 59.0 315.0 
138.00059236981082 2841.0 NaN 1548.7294589178366 6.333058741944233 434.0 59.0 315.0 
140.00033353340314 2841.0 NaN 1548.761523046091 8.331656217400052 434.0 59.0 315.0 
142.00059236981082 2746.0 NaN 1545.6806947227792 9.99608591344079 430.0 59.0 314.0 
144.00059236981082 2837.0 NaN 1561.7341349365392 1.238987345041158 426.0 62.0 316.0 
146.000084666035 2837.0 NaN 1552.0106880427522 3.237570914446257 425.0 62.0 313.0 
148.00059236981082 2837.0 NaN 1545.857047428191 5.238987345041158 425.0 62.0 311.0 
150.00033353340314 2837.0 NaN 1545.8757515030063 7.237570914446258 425.0 62.0 311.0 
152.00059236981082 2810.0 NaN 1545.8784235136936 9.116918698283516 424.0 62.0 311.0 
154.00059236981082 2833.0 NaN 1543.2358049432185 5.5716171197204 426.0 62.0 310.0 
156.000084666035 2887.0 NaN 1542.880427521709 2.186484108381909 427.0 62.0 310.0 
158.00059236981082 2887.0 NaN 1542.7468269873093 4.187902548098222 427.0 62.0 310.0 
160.00033353340314 2887.0 NaN 1536.5905143620573 6.18648410838191 426.0 63.0 307.0 
162.00059236981082 2887.0 NaN 1536.5718102872424 8.187902548098222 426.0 63.0 307.0 
164.00059236981082 2823.0 NaN 1536.5771543086184 9.997619946024077 424.0 64.0 306.0 
166.000084666035 2898.0 NaN 1543.2732130928543 1.2539955883862035 421.0 69.0 303.0 
168.00059236981082 2898.0 NaN 1542.7949231796908 3.2554120189811053 421.0 69.0 303.0 
170.00033353340314 2898.0 NaN 1542.7682030728117 5.2539955883862035 421.0 69.0 303.0 
172.00059236981082 2898.0 NaN 1542.7388109552453 7.255412018981104 421.0 69.0 303.0 
174.00059236981082 2850.0 NaN 1539.695390781564 9.13456231259403 421.0 68.0 303.0 
176.000084666035 2843.0 NaN 1543.1315965263846 5.677835658556647 423.0 63.0 309.0 
178.00059236981082 2881.0 NaN 1542.8323313293272 2.3092118439273914 419.0 62.0 310.0 
180.00033353340314 2881.0 NaN 1539.6125584502338 4.307791389381937 419.0 62.0 309.0 
182.00059236981082 2881.0 NaN 1539.5751503006 6.309211843927392 419.0 62.0 309.0 
184.00059236981082 2881.0 NaN 1539.5644622578482 8.30921184392739 419.0 62.0 309.0 
186.000084666035 2771.0 NaN 1536.4943219772883 9.99452560245741 417.0 63.0 307.0 
188.00059236981082 2864.0 NaN 1540.0213760855033 1.2872234507611786 418.0 65.0 306.0 
190.00033353340314 2864.0 NaN 1533.5551102204392 3.285809023604176 418.0 65.0 304.0 
192.00059236981082 2864.0 NaN 1530.4822979291907 5.287223450761178 418.0 65.0 303.0 
194.00059236981082 2864.0 NaN 1530.4849699398815 7.287223450761178 417.0 65.0 303.0 
196.000084666035 2808.0 NaN 1530.503674014697 9.157209932256462 418.0 64.0 304.0 
198.00059236981082 2797.0 NaN 1533.923847695391 5.644531052570584 420.0 62.0 307.0 
200.00033353340314 2840.0 NaN 1536.7855711422847 2.334113605120579 423.0 60.0 310.0 
202.00059236981082 2840.0 NaN 1536.5798263193062 4.335520074881479 422.0 61.0 309.0 
204.00059236981082 2840.0 NaN 1536.5931863727455 6.335520074881479 422.0 61.0 309.0 
206.000084666035 2840.0 NaN 1536.5771543086184 8.33411360512058 422.0 61.0 309.0 
208.00059236981082 2742.0 NaN 1536.5905143620573 9.996935371697079 422.0 59.0 311.0 
210.00033353340314 2831.0 NaN 1543.2758851035392 1.291798513343154 415.0 67.0 305.0 
212.00059236981082 2831.0 NaN 1542.789579158318 3.293201037887334 415.0 67.0 305.0 
214.00059236981082 2831.0 NaN 1542.7441549766183 5.293201037887332 415.0 67.0 305.0 
216.000084666035 2831.0 NaN 1539.6766867067456 7.291798513343153 415.0 67.0 304.0 
218.00059236981082 2796.0 NaN 1539.700734802939 9.149189297691652 415.0 67.0 304.0 
220.00033353340314 2795.0 NaN 1546.0734802939207 5.66761808507853 418.0 65.0 308.0 
222.00059236981082 2836.0 NaN 1545.8971275885092 2.3295341057175554 415.0 65.0 308.0 
224.00059236981082 2836.0 NaN 1539.6179024716089 4.329534105717555 416.0 64.0 307.0 
226.000084666035 2836.0 NaN 1539.607214428857 6.328131581173375 415.0 64.0 307.0 
228.00059236981082 2836.0 NaN 1539.6179024716089 8.329534105717554 414.0 64.0 307.0 
230.00033353340314 2743.0 NaN 1539.5991983967936 9.994697109939207 415.0 64.0 307.0 
232.00059236981082 2815.0 NaN 1546.2792251169 1.3171055284706443 404.0 72.0 301.0 
234.00059236981082 2815.0 NaN 1542.7254509018028 3.3171055284706443 404.0 72.0 300.0 
236.000084666035 2815.0 NaN 1542.7281229124908 5.315703003926465 404.0 72.0 300.0 
238.00059236981082 2815.0 NaN 1536.6172344689364 7.317105528470646 403.0 72.0 298.0 
240.00033353340314 2772.0 NaN 1530.5223780895117 9.157536080211532 402.0 72.0 296.0 
242.00059236981082 2757.0 NaN 1533.806279225118 5.672102471304806 400.0 74.0 295.0 
244.00059236981082 2783.0 NaN 1536.6519706078818 2.349907011783597 397.0 73.0 297.0 
246.000084666035 2783.0 NaN 1536.4809619238456 4.348512311644126 397.0 73.0 297.0 
248.00059236981082 2783.0 NaN 1536.5076820307272 6.349907011783596 397.0 73.0 297.0 
250.00033353340314 2783.0 NaN 1536.510354041418 8.348512311644127 397.0 72.0 298.0 
252.00059236981082 2701.0 NaN 1536.5317301269183 9.995440342460883 398.0 71.0 299.0 
254.00059236981082 2763.0 NaN 1537.074148296591 1.2995442230661831 394.0 72.0 298.0 
256.00008466603504 2763.0 NaN 1533.4589178356728 3.2981416985220045 394.0 72.0 297.0 
258.0005923698108 2763.0 NaN 1530.4048096192366 5.299544223066183 394.0 72.0 296.0 
260.00033353340314 2763.0 NaN 1530.3727454909817 7.298141698522004 395.0 71.0 297.0 
262.0005923698108 2722.0 NaN 1530.386105544421 9.146815297572296 393.0 71.0 297.0 
264.0005923698108 2718.0 NaN 1530.7014028056094 5.591980677887504 392.0 74.0 294.0 
266.00008466603504 2755.0 NaN 1521.3547094188368 2.275007157840666 394.0 70.0 295.0 
268.0005923698108 2755.0 NaN 1518.1215764863066 4.276403805885359 394.0 70.0 294.0 
270.00033353340314 2755.0 NaN 1515.027388109554 6.275007157840665 393.0 70.0 293.0 
272.0005923698108 2755.0 NaN 1515.0193720774887 8.276403805885359 392.0 70.0 293.0 
274.0005923698108 2675.0 NaN 1518.0841683366725 9.998778617232892 391.0 70.0 294.0 
276.00008466603504 2749.0 NaN 1533.9559118236457 1.3768839836854518 395.0 67.0 302.0 
278.0005923698108 2749.0 NaN 1539.5911823647275 3.3782845439095395 396.0 66.0 305.0 
280.00033353340314 2749.0 NaN 1539.5297261189062 5.3768839836854525 396.0 66.0 305.0 
282.0005923698108 2749.0 NaN 1539.527054108218 7.37828454390954 396.0 66.0 305.0 
284.0005923698108 2698.0 NaN 1539.5511022044093 9.192144036318574 396.0 66.0 305.0 
286.00008466603504 2683.0 NaN 1539.8209752838998 5.728783484541867 407.0 58.0 313.0 
288.0005923698108 2715.0 NaN 1542.784235136939 2.5360207931852945 412.0 55.0 317.0 
290.00033353340314 2715.0 NaN 1533.368069472279 4.534618268641113 410.0 55.0 314.0 
292.0005923698108 2715.0 NaN 1533.357381429527 6.536020793185295 410.0 55.0 314.0 
294.0005923698108 2715.0 NaN 1533.3306613226455 8.536020793185292 410.0 55.0 314.0 
296.00008466603504 2607.0 NaN 1527.241148964597 9.998168200220084 406.0 55.0 312.0 
298.0005923698108 2667.0 NaN 1527.6873747495001 1.2756650996344492 401.0 60.0 307.0 
300.00033353340314 2667.0 NaN 1521.1436205744817 3.2742566489302254 401.0 60.0 305.0 
302.0005923698108 2667.0 NaN 1521.0875083500339 5.275665099634449 401.0 60.0 305.0 
304.0005923698108 2667.0 NaN 1521.1008684034728 7.275665099634449 401.0 60.0 305.0 
306.00008466603504 2634.0 NaN 1518.0494321977276 9.133072339259398 397.0 60.0 304.0 
308.0005923698108 2636.0 NaN 1518.3593854375424 5.55873212253768 402.0 59.0 305.0 
310.00033353340314 2675.0 NaN 1524.1977287909156 2.2998980159402365 400.0 59.0 307.0 
312.0005923698108 2675.0 NaN 1520.9859719438882 4.301296617338836 400.0 59.0 306.0 
314.0005923698108 2675.0 NaN 1517.891783567136 6.3012966173388385 399.0 59.0 305.0 
316.00008466603504 2675.0 NaN 1517.891783567136 8.299898015940235 398.0 59.0 305.0 
318.0005923698108 2611.0 NaN 1517.9398797595181 9.998986702901055 397.0 59.0 305.0 
320.00033353340314 2663.0 NaN 1530.6720106880427 1.305744897867332 396.0 62.0 306.0 
322.0005923698108 2663.0 NaN 1521.1115564462268 3.3071454580914215 396.0 62.0 303.0 
324.0005923698108 2663.0 NaN 1521.092852371409 5.307145458091421 396.0 62.0 303.0 
326.00008466603504 2663.0 NaN 1521.0875083500339 7.305744897867331 394.0 62.0 303.0 
328.0005923698108 2630.0 NaN 1521.1382765531064 9.162409912504236 393.0 62.0 303.0 
330.00033353340314 2617.0 NaN 1527.580494321979 5.631350642925432 400.0 60.0 307.0 
332.0005923698108 2642.0 NaN 1524.2965931863728 2.293075961436875 404.0 57.0 309.0 
334.0005923698108 2642.0 NaN 1524.136272545091 4.293075961436874 404.0 57.0 309.0 
336.00008466603504 2642.0 NaN 1521.071476285906 6.291673436892696 403.0 57.0 308.0 
338.0005923698108 2642.0 NaN 1517.9906479625906 8.293075961436875 402.0 57.0 307.0 
340.00033353340314 2589.0 NaN 1514.8750835003343 9.996752181816168 400.0 57.0 306.0 
342.0005923698108 2675.0 NaN 1524.7882431529729 1.1966673588006453 399.0 60.0 306.0 
344.0005923698108 2675.0 NaN 1524.2965931863728 3.196667358800645 399.0 60.0 306.0 
346.00008466603504 2675.0 NaN 1524.2698730794912 5.195268757402045 399.0 60.0 306.0 
348.0005923698108 2675.0 NaN 1521.2424849699394 7.196667358800645 398.0 60.0 305.0 
350.00033353340314 2652.0 NaN 1524.277889111555 9.107589742258394 399.0 60.0 306.0 
352.0005923698108 2659.0 NaN 1527.6018704074818 5.604423336145764 403.0 57.0 310.0 
354.0005923698108 2688.0 NaN 1527.4014696058787 2.3189324111210627 403.0 56.0 311.0 
356.00008466603504 2688.0 NaN 1524.1870407481638 4.317535763076371 402.0 56.0 310.0 
358.0005923698108 2688.0 NaN 1524.2110888443544 6.318932411121063 402.0 56.0 310.0 
360.00033353340314 2688.0 NaN 1524.1629926519724 8.31753576307637 402.0 56.0 310.0 
362.0005923698108 2613.0 NaN 1524.1736806947245 10.0003662583826 402.0 56.0 310.0 
364.0005923698108 2695.0 NaN 1521.5577822311277 1.4149164309505378 398.0 61.0 304.0 
366.00008466603504 2695.0 NaN 1521.095524382098 3.4135178295519375 398.0 61.0 304.0 
368.0005923698108 2695.0 NaN 1514.9579158316637 5.414916430950538 398.0 61.0 302.0 
370.00033353340314 2695.0 NaN 1518.0173680694727 7.413517829551937 398.0 61.0 303.0 
372.0005923698108 2656.0 NaN 1518.028056112225 9.221799584776154 399.0 60.0 304.0 
374.0005923698108 2652.0 NaN 1521.2879091516363 5.6182677240972625 401.0 58.0 307.0 
376.00008466603504 2686.0 NaN 1524.2885771543092 2.3714060245235338 404.0 57.0 309.0 
378.0005923698108 2686.0 NaN 1508.793587174348 4.372810518905558 402.0 57.0 304.0 
380.00033353340314 2686.0 NaN 1508.7855711422842 6.3714060245235355 402.0 57.0 304.0 
382.0005923698108 2686.0 NaN 1508.7775551102188 8.372810518905558 401.0 57.0 304.0 
384.0005923698108 2599.0 NaN 1508.716098864397 9.999886278957655 401.0 57.0 304.0 
386.00008466603504 2708.0 NaN 1524.649298597194 1.3087460925918109 403.0 63.0 303.0 
388.0005923698108 2708.0 NaN 1511.9866399465607 3.310140792731281 402.0 62.0 300.0 
390.00033353340314 2708.0 NaN 1505.803607214428 5.30874609259181 402.0 62.0 298.0 
392.0005923698108 2708.0 NaN 1505.7849031396122 7.310140792731281 401.0 62.0 298.0 
394.0005923698108 2665.0 NaN 1505.7795591182362 9.144580837543343 400.0 61.0 299.0 
396.00008466603504 2660.0 NaN 1512.1923847695386 5.709359631135178 407.0 60.0 302.0 
398.0005923698108 2701.0 NaN 1511.9331997328002 2.571637049987924 410.0 57.0 305.0 
400.00033353340314 2701.0 NaN 1511.8022712090842 4.570242349848454 409.0 57.0 305.0 
402.0005923698108 2701.0 NaN 1508.7508350033393 6.571637049987924 409.0 57.0 304.0 
404.0005923698108 2701.0 NaN 1508.6813627254517 8.571637049987926 409.0 57.0 304.0 
406.00008466603504 2595.0 NaN 1508.6893787575157 9.998869981342496 405.0 57.0 304.0 
408.0005923698108 2698.0 NaN 1518.5918503674006 1.4770334572499644 409.0 60.0 304.0 
410.00033353340314 2698.0 NaN 1518.1750167000662 3.475630932705785 409.0 60.0 304.0 
412.0005923698108 2698.0 NaN 1518.1723446893795 5.477033457249963 409.0 60.0 304.0 
414.0005923698108 2698.0 NaN 1518.1028724114904 7.477033457249965 409.0 60.0 304.0 
416.00008466603504 2651.0 NaN 1515.0327321309278 9.223137237761982 406.0 60.0 303.0 
418.0005923698108 2656.0 NaN 1524.5985303941213 5.601032980729225 411.0 58.0 308.0 
420.00033353340314 2708.0 NaN 1521.2718770875092 2.3359700214832686 414.0 56.0 309.0 
422.0005923698108 2708.0 NaN 1514.9018036072152 4.337390476028723 414.0 56.0 307.0 
424.0005923698108 2708.0 NaN 1511.7995991983976 6.337390476028722 413.0 56.0 306.0 
426.00008466603504 2708.0 NaN 1508.7374749499 8.335970021483268 411.0 56.0 305.0 
428.0005923698108 2620.0 NaN 1505.6726786907152 9.999484198621895 410.0 56.0 304.0 
430.00033353340314 2710.0 NaN 1524.7241148964606 1.5004331095159602 411.0 59.0 307.0 
432.0005923698108 2710.0 NaN 1505.7849031396122 3.501851549232272 411.0 58.0 302.0 
434.0005923698108 2710.0 NaN 1502.6773547094183 5.501851549232271 411.0 58.0 301.0 
436.00008466603504 2710.0 NaN 1505.7635270541089 7.500433109515957 410.0 58.0 302.0 
438.0005923698108 2652.0 NaN 1502.7307949231806 9.277155110726023 408.0 59.0 300.0 
440.00033353340314 2633.0 NaN 1509.2531730126911 5.62005323504337 415.0 54.0 307.0 
442.0005923698108 2685.0 NaN 1515.0273881095534 2.348214245426575 418.0 55.0 308.0 
444.0005923698108 2685.0 NaN 1505.699398797594 4.348214245426575 417.0 55.0 305.0 
446.00008466603504 2685.0 NaN 1508.785571142284 6.34678158067013 417.0 55.0 306.0 
448.0005923698108 2685.0 NaN 1514.9151636606543 8.348214245426576 417.0 55.0 308.0 
450.00033353340314 2609.0 NaN 1514.9525718102882 9.998127393075261 416.0 55.0 308.0 
452.0005923698108 2696.0 NaN 1533.7955911823635 1.472716910082791 417.0 62.0 307.0 
454.0005923698108 2696.0 NaN 1527.2892451569817 3.4727169100827915 416.0 62.0 305.0 
456.00008466603504 2696.0 NaN 1527.3026052104203 5.471275987892589 416.0 61.0 306.0 
458.0005923698108 2696.0 NaN 1527.3213092852363 7.4727169100827915 415.0 62.0 305.0 
460.00033353340314 2634.0 NaN 1527.305277221109 9.250960589026054 413.0 62.0 305.0 
462.0005923698108 2609.0 NaN 1524.4889779559112 5.649678509128811 419.0 57.0 309.0 
464.0005923698108 2645.0 NaN 1530.4475617902463 2.370617284635496 425.0 54.0 314.0 
466.00008466603504 2645.0 NaN 1530.2845691382756 4.369182564405941 425.0 54.0 314.0 
468.0005923698108 2645.0 NaN 1530.2712090848363 6.370617284635495 424.0 54.0 314.0 
470.00033353340314 2645.0 NaN 1530.255177020709 8.369182564405941 423.0 54.0 314.0 
472.0005923698108 2556.0 NaN 1527.1636606546433 9.998687585617139 421.0 54.0 313.0 
474.0005923698108 2626.0 NaN 1530.7067468269881 1.3849604919331493 422.0 56.0 312.0 
476.00008466603504 2626.0 NaN 1524.1282565130268 3.3835460647761484 420.0 56.0 310.0 
478.0005923698108 2626.0 NaN 1524.1282565130268 5.3849604919331515 419.0 56.0 310.0 
480.00033353340314 2626.0 NaN 1524.1229124916517 7.383546064776149 418.0 56.0 310.0 
482.0005923698108 2584.0 NaN 1521.0260521042092 9.185673236781957 417.0 56.0 309.0 
484.0005923698108 2586.0 NaN 1521.306613226454 5.6813459908635915 421.0 51.0 314.0 
486.00008466603504 2630.0 NaN 1514.9445557782244 2.3810305931668885 426.0 49.0 314.0 
488.0005923698108 2630.0 NaN 1511.7488309953249 4.38244103040243 425.0 49.0 313.0 
490.00033353340314 2630.0 NaN 1511.7889111556453 6.381030593166889 425.0 49.0 313.0 
492.0005923698108 2630.0 NaN 1508.6626586506354 8.382441030402429 425.0 49.0 312.0 
494.0005923698108 2550.0 NaN 1508.6626586506354 9.994891488814595 423.0 49.0 312.0 
496.00008466603504 2609.0 NaN 1518.3674014696069 1.2684846957564728 422.0 53.0 311.0 
498.0005923698108 2609.0 NaN 1502.6800267201081 3.269897125135004 420.0 53.0 306.0 
500.00033353340314 2609.0 NaN 1496.5450901803615 5.268484695756473 419.0 53.0 304.0 
502.0005923698108 2609.0 NaN 1493.429525718102 7.269897125135002 418.0 53.0 303.0 
504.0005923698108 2579.0 NaN 1493.4241816967271 9.140091524230439 417.0 53.0 303.0 
506.00008466603504 2582.0 NaN 1499.845023380093 5.63585580806325 419.0 51.0 307.0 
508.0005923698108 2623.0 NaN 1496.5985303941209 2.2953705342363118 416.0 52.0 305.0 
510.00033353340314 2623.0 NaN 1493.4108216432878 4.29395810485778 416.0 52.0 304.0 
512.0005923698109 2623.0 NaN 1490.303273213092 6.29537053423631 415.0 52.0 303.0 
514.0005923698109 2623.0 NaN 1490.2845691382756 8.295370534236312 415.0 52.0 303.0 
516.000084666035 2570.0 NaN 1490.2872411489639 9.99341306416805 413.0 52.0 303.0 
518.0005923698109 2628.0 NaN 1496.91382765531 1.202865337155438 404.0 62.0 295.0 
520.0003335334031 2628.0 NaN 1487.3667334669346 3.2014468974391255 404.0 62.0 292.0 
522.0005923698109 2628.0 NaN 1475.019372077489 5.202865337155438 403.0 61.0 289.0 
524.0005923698109 2628.0 NaN 1468.83366733467 7.202865337155438 403.0 61.0 287.0 
526.000084666035 2605.0 NaN 1468.8122912491642 9.106354041902925 399.0 61.0 287.0 
528.0005923698109 2615.0 NaN 1466.030728122912 5.646633837444404 402.0 57.0 290.0 
530.0003335334031 2649.0 NaN 1465.9265197060795 2.35432747352326 406.0 52.0 295.0 
532.0005923698109 2649.0 NaN 1459.663326653307 4.355739902901791 407.0 52.0 293.0 
534.0005923698109 2649.0 NaN 1456.5664662658644 6.355739902901792 407.0 52.0 292.0 
536.000084666035 2649.0 NaN 1456.5611222444898 8.35432747352326 406.0 52.0 292.0 
538.0005923698109 2564.0 NaN 1456.6252505010011 9.996117629279627 404.0 52.0 292.0 
540.0003335334031 2655.0 NaN 1469.319973279892 1.3846893910306888 401.0 55.0 293.0 
542.0005923698109 2655.0 NaN 1459.639278557115 3.3861038181876895 401.0 55.0 290.0 
544.0005923698109 2655.0 NaN 1459.6179024716096 5.38610381818769 401.0 55.0 290.0 
546.000084666035 2655.0 NaN 1459.6179024716096 7.384689391030689 402.0 55.0 290.0 
548.0005923698109 2609.0 NaN 1459.6847027388103 9.20027036350387 401.0 55.0 290.0 
550.0003335334031 2598.0 NaN 1469.1356045424182 5.662113901809461 404.0 52.0 296.0 
552.0005923698109 2634.0 NaN 1468.9806279225115 2.4123049933284397 407.0 52.0 296.0 
554.0005923698109 2634.0 NaN 1465.7982631930531 4.41230499332844 407.0 52.0 295.0 
556.000084666035 2634.0 NaN 1462.7227788911155 6.410888562733539 406.0 52.0 294.0 
558.0005923698109 2634.0 NaN 1462.749498997996 8.412304993328439 406.0 52.0 294.0 
560.0003335334031 2541.0 NaN 1456.6145624582498 9.997166981141092 403.0 52.0 292.0 
562.0005923698109 2626.0 NaN 1463.1022044088181 1.5338712576882145 405.0 56.0 290.0 
564.0005923698109 2626.0 NaN 1456.555778223113 3.533871257688215 406.0 55.0 289.0 
566.000084666035 2626.0 NaN 1453.4375417501676 5.532450803142761 404.0 55.0 288.0 
568.0005923698109 2626.0 NaN 1453.4509018036078 7.533871257688215 402.0 55.0 288.0 
570.0003335334031 2571.0 NaN 1453.5150300601197 9.246880102603159 400.0 55.0 288.0 
572.0005923698109 2571.0 NaN 1462.973947895791 5.660137628292508 407.0 51.0 295.0 
574.0005923698109 2623.0 NaN 1465.846359385437 2.4439209405941598 406.0 51.0 296.0 
576.000084666035 2623.0 NaN 1471.8957915831663 4.442496439169658 409.0 50.0 299.0 
578.0005923698109 2623.0 NaN 1468.8309953239818 6.443920940594159 409.0 50.0 298.0 
580.0003335334031 2623.0 NaN 1465.7875751503002 8.442496439169657 409.0 50.0 297.0 
582.0005923698109 2514.0 NaN 1465.8089512358054 9.998881473367703 408.0 50.0 297.0 
584.0005923698109 2626.0 NaN 1481.528390113561 1.3918858033899495 415.0 53.0 299.0 
586.000084666035 2626.0 NaN 1481.1649966599875 3.390465348844494 415.0 53.0 299.0 
588.0005923698109 2626.0 NaN 1478.1135604542426 5.391885803389949 414.0 53.0 298.0 
590.0003335334031 2626.0 NaN 1478.0975283901128 7.3904653488444945 413.0 53.0 298.0 
592.0005923698109 2585.0 NaN 1478.0841683366727 9.212331318528266 411.0 53.0 298.0 
594.0005923698109 2595.0 NaN 1481.4241816967271 5.707403249673185 418.0 50.0 302.0 
596.000084666035 2647.0 NaN 1490.4635938543754 2.5191948380099785 423.0 48.0 307.0 
598.0005923698109 2647.0 NaN 1487.2892451569812 4.520613277726293 422.0 48.0 306.0 
600.0003335334031 2647.0 NaN 1484.2191048764191 6.5191948380099785 421.0 48.0 305.0 
602.0005923698109 2647.0 NaN 1481.1409485637944 8.520613277726293 420.0 48.0 304.0 
604.0005923698109 2541.0 NaN 1481.1649966599869 9.997909656393643 417.0 48.0 304.0 
606.000084666035 2636.0 NaN 1490.8830995323988 1.3891019272358491 426.0 51.0 304.0 
608.0005923698109 2636.0 NaN 1487.35871743487 3.39052036695216 426.0 51.0 303.0 
610.0003335334031 2636.0 NaN 1487.3159652638612 5.389101927235849 426.0 51.0 303.0 
612.0005923698109 2636.0 NaN 1484.2030728122909 7.3905203669521615 425.0 51.0 302.0 
614.0005923698109 2595.0 NaN 1484.213760855044 9.219872134006092 423.0 51.0 302.0 
616.000084666035 2598.0 NaN 1487.5804943219784 5.677517641977741 426.0 49.0 305.0 
618.0005923698109 2649.0 NaN 1493.6325985303931 2.4291702560459854 425.0 50.0 306.0 
620.0003335334031 2649.0 NaN 1490.4288577154302 4.427753825451085 425.0 50.0 305.0 
622.0005923698109 2649.0 NaN 1487.286573146292 6.429170256045986 425.0 49.0 305.0 
624.0005923698109 2649.0 NaN 1484.2351369405467 8.429170256045984 424.0 49.0 304.0 
626.000084666035 2565.0 NaN 1484.2511690046754 9.997865038804044 422.0 49.0 304.0 
628.0005923698109 2710.0 NaN 1515.4923179692726 1.4598960255210087 422.0 57.0 306.0 
630.0003335334031 2710.0 NaN 1512.0961923847706 3.458477585804695 423.0 56.0 306.0 
632.0005923698109 2710.0 NaN 1508.9886439545749 5.459896025521007 422.0 56.0 305.0 
634.0005923698109 2710.0 NaN 1508.959251837008 7.459896025521007 421.0 56.0 305.0 
636.000084666035 2651.0 NaN 1509.047428189712 9.236740604545371 418.0 56.0 305.0 
638.0005923698109 2687.0 NaN 1515.489645958583 5.645732862019809 414.0 60.0 303.0 
640.0003335334031 2776.0 NaN 1521.2772211088836 2.512968436240304 423.0 57.0 308.0 
642.0005923698109 2776.0 NaN 1518.076152304609 4.514382863397307 424.0 56.0 308.0 
644.0005923698109 2776.0 NaN 1511.9251837007353 6.514382863397306 424.0 56.0 306.0 
646.000084666035 2776.0 NaN 1511.9679358717442 8.512968436240305 423.0 57.0 305.0 
648.0005923698109 2630.0 NaN 1511.9866399465607 10.001794029753372 420.0 57.0 305.0 
650.0003335334031 2732.0 NaN 1527.7675350701395 1.4963476202136938 425.0 55.0 312.0 
652.0005923698109 2732.0 NaN 1521.1863727454909 3.4977660599300076 424.0 55.0 310.0 
654.0005923698109 2732.0 NaN 1521.1730126920518 5.497766059930006 424.0 55.0 310.0 
656.000084666035 2732.0 NaN 1521.1863727454909 7.496347620213694 424.0 55.0 310.0 
658.0005923698109 2666.0 NaN 1521.2130928523718 9.242703709757736 421.0 55.0 310.0 
660.0003335334031 2663.0 NaN 1530.7842351369395 5.651617801959727 412.0 61.0 307.0 
662.0005923698109 2725.0 NaN 1539.7434869739473 2.4571218942196777 411.0 60.0 311.0 
664.0005923698109 2725.0 NaN 1536.5076820307272 4.4571218942196795 411.0 60.0 310.0 
#####################################################################
# End of data export. Simulation finished at: 2019-03-06T06:51+0000 #
#####################################################################
