#####################################################################
# Alchemist log file - simulation started at: 2019-03-06T17:46+0000 #
#####################################################################
# seed = 4.0, bandwidth = 316227.76601683797, propagationDelay = 0.1, baserange = 56.234132519034915
#
# The columns have the following meaning: 
# time neighbor_count[Sum] <value>@neighbor_count[Sum] packet_size[Mean] mean_delay[Mean] crowd[Sum] overcrowded[Sum] risk[Sum] 
0.0 NaN NaN NaN NaN NaN NaN NaN 
2.0004793365590676 6120.0 NaN 4995.067468269873 0.5053924724384475 1496.0 1.0 1496.0 
4.00042902272939 6162.0 NaN 4997.9746158984635 0.5085437996455402 1493.0 4.0 1493.0 
6.000479336559067 6162.0 NaN 4996.128256513026 0.5085580917555054 1484.0 13.0 1484.0 
8.000479336559067 6162.0 NaN 4996.7374749498995 0.508801463533212 1455.0 42.0 1455.0 
10.000479336559067 6165.0 NaN 4995.313293253173 0.5085371300960406 1458.0 39.0 1458.0 
12.000479336559067 6170.0 NaN 4995.484301937207 0.5086270880703558 1458.0 39.0 1458.0 
14.00042902272939 6173.0 NaN 4994.519706078824 0.508542559830495 1449.0 48.0 1449.0 
16.000479336559067 6187.0 NaN 4994.917835671343 0.5096907462031512 1446.0 51.0 1446.0 
18.000479336559067 6187.0 NaN 4994.247160988644 0.5099503973533593 1452.0 45.0 1452.0 
20.000479336559067 6186.0 NaN 4994.789579158317 0.5092892485595294 1445.0 52.0 1445.0 
22.000479336559067 6186.0 NaN 4993.73413493654 0.5092009311261705 1457.0 40.0 1457.0 
24.000429022729392 6189.0 NaN 4994.490313961256 0.5091328501881363 1458.0 39.0 1458.0 
26.000479336559067 6207.0 NaN 4993.661990647963 0.5138202335903466 1454.0 43.0 1454.0 
28.000479336559067 6203.0 NaN 4994.490313961256 0.5095135671079091 1455.0 42.0 1455.0 
30.000479336559067 6207.0 NaN 4993.894455577823 0.5098273609522039 1457.0 40.0 1457.0 
32.00047933655907 6205.0 NaN 4994.284569138276 0.5108500000116853 1460.0 37.0 1460.0 
34.00042902272939 6200.0 NaN 4993.736806947228 0.5089550539587024 1459.0 38.0 1459.0 
36.00047933655907 6229.0 NaN 4994.343353373413 0.5111269676387343 1460.0 37.0 1460.0 
38.00047933655907 6226.0 NaN 4993.758183032732 0.5100463155091356 1456.0 41.0 1456.0 
40.00047933655907 6222.0 NaN 4994.495657982632 0.5099417563672018 1463.0 34.0 1463.0 
42.00047933655907 6220.0 NaN 4993.587174348698 0.5106891103105636 1461.0 36.0 1461.0 
44.00042902272939 6216.0 NaN 4994.2792251169 0.5091378558183663 1463.0 34.0 1463.0 
46.00047933655907 6269.0 NaN 4993.437541750167 0.510334817717714 1460.0 37.0 1460.0 
48.00047933655907 6271.0 NaN 4994.25250501002 0.5108053908637127 1462.0 35.0 1462.0 
50.00047933655907 6281.0 NaN 4993.712758851036 0.5102994926254965 1460.0 37.0 1460.0 
52.00047933655907 6274.0 NaN 4994.084168336673 0.5116374164858329 1459.0 38.0 1459.0 
54.00042902272939 6270.0 NaN 4993.498997995992 0.5105496908359515 1455.0 42.0 1455.0 
56.00047933655907 6303.0 NaN 4994.081496325985 0.5153760805631079 1458.0 39.0 1458.0 
58.00047933655907 6263.0 NaN 4993.616566466266 0.5119385767139343 1456.0 41.0 1456.0 
60.00047933655907 6266.0 NaN 4991.182364729459 0.5108287485630632 1458.0 39.0 1457.0 
62.000060543262855 6270.0 NaN 1522.2204408817638 0.5153793412153572 754.0 34.0 331.0 
64.00006054326285 6251.0 NaN 1521.8036072144278 0.5112403329358585 590.0 43.0 322.0 
66.00006054326285 6284.0 NaN 1524.8790915163659 0.5122840633227008 538.0 48.0 318.0 
68.00006054326285 6294.0 NaN 1524.705410821645 0.5141604269228965 515.0 42.0 324.0 
70.00006054326285 6288.0 NaN 1524.790915163661 0.5114500341479762 498.0 46.0 320.0 
72.00006054326285 6288.0 NaN 1527.885103540415 0.5136952811478246 488.0 44.0 323.0 
74.00006054326285 6281.0 NaN 1530.9151636606543 0.5124985385909235 482.0 46.0 322.0 
76.00006054326285 6292.0 NaN 1531.006012024048 0.5150146296647765 490.0 39.0 329.0 
78.00006054326285 6295.0 NaN 1533.9959919839666 0.5157141139202556 487.0 41.0 328.0 
80.00006054326285 6307.0 NaN 1537.0821643286574 0.5127178433455304 482.0 46.0 324.0 
82.00006054326285 6295.0 NaN 1537.090180360721 0.5160159344453084 476.0 52.0 318.0 
84.00006054326285 6271.0 NaN 1536.9859719438882 0.5110306222513926 481.0 48.0 322.0 
86.00006054326285 6282.0 NaN 1537.1088844355365 0.5125478362217764 472.0 54.0 316.0 
88.00006054326285 6277.0 NaN 1536.9645958583822 0.5141469569794139 478.0 47.0 323.0 
90.00006054326285 6270.0 NaN 1537.1436205744817 0.5129309215426472 471.0 54.0 316.0 
92.00006054326285 6258.0 NaN 1536.9405477621908 0.5159222213453277 479.0 46.0 324.0 
94.00006054326285 6238.0 NaN 1537.0260521042092 0.5104135664514703 476.0 49.0 321.0 
96.00006054326285 6262.0 NaN 1537.007348029391 0.5120215653787089 474.0 51.0 319.0 
98.00006054326285 6263.0 NaN 1536.9245156980637 0.5124262674584945 476.0 49.0 321.0 
100.00006054326285 6268.0 NaN 1540.0855043420183 0.5127926806712748 473.0 52.0 319.0 
102.00006054326285 6268.0 NaN 1540.0721442885763 0.5157498456016383 470.0 55.0 316.0 
104.00006054326285 6261.0 NaN 1539.9946559786242 0.5162821827203827 474.0 51.0 320.0 
106.00006054326285 6264.0 NaN 1540.0828323313276 0.5147597929376 468.0 57.0 314.0 
108.00006054326285 6264.0 NaN 1540.1042084168337 0.5218926114329393 478.0 47.0 324.0 
110.00006054326285 6262.0 NaN 1540.1629926519724 0.5148592586393461 473.0 52.0 319.0 
112.00006054326285 6258.0 NaN 1540.1309285237153 0.5172148005642988 478.0 47.0 324.0 
114.00006054326285 6242.0 NaN 1540.1015364061454 0.5121156605316838 473.0 53.0 318.0 
116.00006054326285 6258.0 NaN 1540.1015364061454 0.5151044196927591 478.0 49.0 322.0 
118.00006054326285 6288.0 NaN 1546.2818971275885 0.5133973835504521 475.0 53.0 320.0 
120.00006054326285 6307.0 NaN 1549.322645290582 0.5137418542057909 484.0 44.0 330.0 
122.00006054326285 6284.0 NaN 1549.3279893119573 0.516181501873289 479.0 49.0 325.0 
124.00006054326285 6282.0 NaN 1549.322645290582 0.5108027916262032 483.0 45.0 329.0 
126.00006054326285 6301.0 NaN 1549.37875751503 0.5123128287033705 480.0 48.0 326.0 
128.00006054326283 6311.0 NaN 1549.1810287241155 0.5143374313573779 493.0 35.0 339.0 
130.00006054326283 6296.0 NaN 1546.4529058116243 0.5145899748879179 488.0 39.0 334.0 
132.00006054326283 6296.0 NaN 1543.283901135603 0.5175222594187591 488.0 37.0 335.0 
134.00006054326283 6277.0 NaN 1540.1469605878426 0.5127794944939198 489.0 36.0 335.0 
136.00006054326283 6271.0 NaN 1540.2431529726118 0.51300519023862 489.0 36.0 335.0 
138.00006054326283 6268.0 NaN 1543.174348697394 0.5118723818740532 486.0 38.0 334.0 
140.00006054326283 6291.0 NaN 1540.1950567802273 0.5158852349811986 483.0 40.0 331.0 
142.00006054326283 6302.0 NaN 1546.3834335337363 0.5164137923289555 485.0 37.0 336.0 
144.00006054326283 6285.0 NaN 1549.429525718103 0.5123855938354589 489.0 35.0 339.0 
146.00006054326283 6292.0 NaN 1546.354041416164 0.5138567961113909 485.0 38.0 335.0 
148.00006054326283 6282.0 NaN 1552.4782899131606 0.5141705393880417 485.0 38.0 337.0 
150.00006054326283 6296.0 NaN 1552.5931863727455 0.5168670797206723 482.0 40.0 335.0 
152.00006054326283 6282.0 NaN 1549.4589178356728 0.518557912966349 482.0 40.0 334.0 
154.00006054326283 6249.0 NaN 1543.4228456913816 0.5140089467485661 474.0 45.0 327.0 
156.00006054326283 6239.0 NaN 1543.2411489645972 0.5130981407214443 477.0 40.0 332.0 
158.00006054326283 6222.0 NaN 1543.283901135603 0.5204894705840247 475.0 44.0 328.0 
160.00006054326283 6251.0 NaN 1543.2705410821634 0.5172773807911831 482.0 38.0 334.0 
162.00006054326283 6228.0 NaN 1543.283901135603 0.5176364074424467 476.0 44.0 328.0 
164.00006054326283 6205.0 NaN 1543.1396125584515 0.5141404327689651 478.0 41.0 331.0 
166.00006054326283 6230.0 NaN 1546.2658650634608 0.5175093307137792 472.0 46.0 327.0 
168.00006054326283 6215.0 NaN 1543.2598530394116 0.5192584813132209 476.0 42.0 330.0 
170.00006054326283 6241.0 NaN 1543.2919171676701 0.5178985450848332 477.0 41.0 331.0 
172.00006054326283 6233.0 NaN 1543.2839011356027 0.5229388028746527 481.0 39.0 333.0 
174.00006054326283 6196.0 NaN 1537.106212424848 0.5166419508594413 476.0 42.0 328.0 
176.00006054326283 6203.0 NaN 1540.1496325985297 0.5193803482537561 481.0 37.0 334.0 
178.00006054326283 6197.0 NaN 1540.0587842351363 0.5215020026929222 476.0 42.0 329.0 
180.00006054326283 6210.0 NaN 1540.1175684702725 0.516796749237662 481.0 38.0 333.0 
182.00006054326283 6193.0 NaN 1536.9913159652635 0.515062514333604 474.0 44.0 326.0 
184.00006054326283 6189.0 NaN 1536.9245156980637 0.5140206742421697 466.0 51.0 319.0 
186.00006054326283 6192.0 NaN 1540.0774883099546 0.5142179101214929 462.0 55.0 316.0 
188.00006054326283 6194.0 NaN 1536.8871075484299 0.5170700109102828 467.0 50.0 320.0 
190.00006054326283 6185.0 NaN 1534.057448229791 0.5148740422557666 461.0 56.0 313.0 
192.00006054326283 6177.0 NaN 1536.9832999332002 0.5176516715670753 465.0 52.0 318.0 
194.00006054326283 6153.0 NaN 1537.0287241148972 0.5168191620095792 467.0 50.0 320.0 
196.00006054326283 6138.0 NaN 1536.9645958583822 0.5172519665457965 474.0 44.0 326.0 
198.00006054326283 6134.0 NaN 1536.9592518370089 0.5164917027003406 474.0 45.0 325.0 
200.00006054326283 6136.0 NaN 1536.9859719438882 0.5166826939407263 479.0 39.0 331.0 
202.00006054326283 6131.0 NaN 1543.3453573814272 0.5173290551622389 473.0 46.0 326.0 
204.00006054326283 6110.0 NaN 1546.1696726786909 0.5133969634414113 479.0 42.0 331.0 
206.00006054326283 6112.0 NaN 1546.3273213092848 0.5236164796101119 470.0 49.0 324.0 
208.00006054326283 6101.0 NaN 1537.0501002003998 0.5277027058046587 471.0 48.0 322.0 
210.00006054326283 6094.0 NaN 1537.1035404141635 0.5158309252854691 465.0 53.0 317.0 
212.00006054326283 6102.0 NaN 1537.0233800935184 0.5204381735155569 467.0 51.0 319.0 
214.00006054326283 6069.0 NaN 1539.9973279893118 0.5145892388818343 461.0 56.0 315.0 
216.00006054326283 6083.0 NaN 1536.9458917835664 0.5163500968722163 469.0 49.0 321.0 
218.00006054326283 6081.0 NaN 1536.999331997327 0.5137298763783732 465.0 49.0 321.0 
220.00006054326283 6087.0 NaN 1537.0340681362727 0.5199917337736408 465.0 48.0 322.0 
222.00006054326283 6057.0 NaN 1534.0547762191063 0.5203584000712981 467.0 47.0 322.0 
224.00006054326283 6026.0 NaN 1533.8303273213091 0.5149312670467625 470.0 44.0 325.0 
226.00006054326283 6045.0 NaN 1537.0527722110908 0.5157777264698156 464.0 50.0 320.0 
228.00006054326283 6062.0 NaN 1543.0995323981274 0.5215996407756166 471.0 46.0 326.0 
230.00006054326283 6041.0 NaN 1543.2117568470271 0.5181059473282977 467.0 49.0 323.0 
232.00006054326283 6025.0 NaN 1543.126252505009 0.5216075305437715 472.0 44.0 328.0 
234.00006054326283 6004.0 NaN 1546.1482965931843 0.5160193378321186 469.0 47.0 326.0 
236.00006054326283 6005.0 NaN 1539.901135604543 0.5163816098127616 464.0 50.0 321.0 
238.00006054326283 6004.0 NaN 1539.981295925182 0.5210560694628104 469.0 45.0 326.0 
240.00006054326283 5996.0 NaN 1536.8924515698066 0.5147877947815243 473.0 42.0 328.0 
242.00006054326283 5997.0 NaN 1533.8410153640634 0.5186793367865759 467.0 47.0 322.0 
244.00006054326283 5982.0 NaN 1533.7100868403456 0.5163829776132748 473.0 41.0 328.0 
246.00006054326283 5987.0 NaN 1533.750167000667 0.5212624116969318 468.0 47.0 322.0 
248.00006054326283 5982.0 NaN 1533.6940547762183 0.5236925382614293 474.0 39.0 330.0 
250.00006054326283 5966.0 NaN 1533.8223112892456 0.5172224670642499 473.0 41.0 328.0 
252.00006054326283 5959.0 NaN 1530.7120908483637 0.5192123756436642 473.0 41.0 327.0 
254.00006054326283 5942.0 NaN 1527.6312625250516 0.51530673763477 471.0 42.0 325.0 
256.00006054326286 5961.0 NaN 1527.7301269205088 0.5234795095461908 472.0 41.0 326.0 
258.0000605432629 5930.0 NaN 1527.7381429525726 0.5160911280688362 468.0 47.0 320.0 
260.0000605432629 5932.0 NaN 1524.681362725452 0.5194159535774346 472.0 43.0 323.0 
262.0000605432629 5945.0 NaN 1527.722110888445 0.5201326301126633 470.0 43.0 324.0 
264.0000605432629 5910.0 NaN 1527.6740146960574 0.5138506170704712 476.0 39.0 328.0 
266.0000605432629 5924.0 NaN 1543.054108216434 0.520122238353963 470.0 43.0 329.0 
268.0000605432629 5906.0 NaN 1543.0594522378092 0.5178340378511932 474.0 39.0 333.0 
270.0000605432629 5893.0 NaN 1543.1155644622568 0.5164487113737338 470.0 42.0 330.0 
272.0000605432629 5897.0 NaN 1536.9325317301273 0.5211052137748722 473.0 38.0 332.0 
274.0000605432629 5884.0 NaN 1533.8463593854362 0.5191323191007979 467.0 42.0 327.0 
276.0000605432629 5898.0 NaN 1536.988643954575 0.5169450322657779 474.0 35.0 335.0 
278.0000605432629 5893.0 NaN 1540.0080160320636 0.5204597739013289 473.0 40.0 331.0 
280.0000605432629 5885.0 NaN 1539.951903807616 0.5203356702792414 475.0 38.0 333.0 
282.0000605432629 5862.0 NaN 1540.0881763527068 0.5220452720576659 473.0 41.0 330.0 
284.0000605432629 5820.0 NaN 1533.6860387441545 0.5169427567047165 478.0 36.0 333.0 
286.0000605432629 5854.0 NaN 1533.8169672678703 0.5251939115837965 472.0 39.0 330.0 
288.0000605432629 5851.0 NaN 1533.7501670006666 0.5270696880622482 477.0 35.0 334.0 
290.0000605432629 5825.0 NaN 1530.7441549766183 0.5185716284358197 469.0 40.0 328.0 
292.0000605432629 5834.0 NaN 1530.7361389445546 0.5213987683771576 473.0 37.0 331.0 
294.0000605432629 5820.0 NaN 1536.830995323982 0.5190003416362873 469.0 40.0 330.0 
296.0000605432629 5815.0 NaN 1536.9271877087522 0.5205897928577192 474.0 36.0 334.0 
298.0000605432629 5795.0 NaN 1539.9919839679364 0.5210048010882037 469.0 40.0 331.0 
300.0000605432629 5799.0 NaN 1540.109552438209 0.5154025091250218 472.0 36.0 335.0 
302.0000605432629 5785.0 NaN 1536.9779559118247 0.5211086581221477 469.0 40.0 330.0 
304.0000605432629 5768.0 NaN 1536.8096192384753 0.523156727453388 470.0 37.0 333.0 
306.0000605432629 5795.0 NaN 1530.8323313293272 0.5169643187055665 466.0 41.0 327.0 
308.0000605432629 5779.0 NaN 1530.8162992651976 0.5145291854858416 465.0 42.0 326.0 
310.0000605432629 5771.0 NaN 1530.826987307948 0.5173738989311276 459.0 46.0 322.0 
312.0000605432629 5780.0 NaN 1533.8997995992 0.519635259915184 464.0 42.0 327.0 
314.0000605432629 5770.0 NaN 1533.953239812961 0.5141128825477898 464.0 45.0 324.0 
316.0000605432629 5781.0 NaN 1533.8543754175003 0.5206374527724119 472.0 37.0 332.0 
318.0000605432629 5752.0 NaN 1534.020040080161 0.5184560647301808 468.0 40.0 329.0 
320.0000605432629 5747.0 NaN 1533.8810955243816 0.5150226978777581 472.0 35.0 334.0 
322.0000605432629 5755.0 NaN 1530.888443553773 0.5173795087516598 467.0 40.0 328.0 
324.0000605432629 5743.0 NaN 1530.880427521709 0.5149471157413584 472.0 35.0 333.0 
326.0000605432629 5753.0 NaN 1530.752171008682 0.5172900748479864 469.0 39.0 329.0 
328.0000605432629 5745.0 NaN 1533.790247160991 0.5143763730535457 472.0 36.0 333.0 
330.0000605432629 5760.0 NaN 1530.8162992651974 0.5126607270854135 467.0 39.0 329.0 
332.0000605432629 5773.0 NaN 1527.7408149632606 0.5202512726934881 471.0 35.0 332.0 
334.0000605432629 5751.0 NaN 1533.8784235136936 0.5135069945444743 468.0 39.0 330.0 
336.0000605432629 5766.0 NaN 1527.7194388777543 0.5188023005656588 472.0 35.0 332.0 
338.0000605432629 5765.0 NaN 1527.6980627922514 0.5173273577189837 469.0 39.0 328.0 
340.0000605432629 5781.0 NaN 1527.700734802939 0.5210567338803096 473.0 36.0 331.0 
342.0000605432629 5798.0 NaN 1527.7194388777543 0.5245230158184048 469.0 39.0 328.0 
344.0000605432629 5767.0 NaN 1533.7528390113548 0.516385793377159 479.0 35.0 334.0 
346.0000605432629 5781.0 NaN 1533.88376753507 0.5167029952903366 474.0 39.0 330.0 
348.0000605432629 5773.0 NaN 1530.7975951903818 0.5155219828155908 477.0 35.0 333.0 
350.0000605432629 5776.0 NaN 1524.5985303941213 0.5167544092140127 473.0 39.0 327.0 
352.0000605432629 5790.0 NaN 1524.579826319306 0.5233651243728454 479.0 36.0 330.0 
354.0000605432629 5772.0 NaN 1524.553106212425 0.5132720832934092 474.0 39.0 327.0 
356.0000605432629 5785.0 NaN 1524.513026052103 0.5183505900780968 478.0 35.0 331.0 
358.0000605432629 5772.0 NaN 1524.5450901803613 0.521735335445932 473.0 39.0 327.0 
360.0000605432629 5753.0 NaN 1524.5344021376093 0.5161910446549357 477.0 35.0 331.0 
362.0000605432629 5764.0 NaN 1524.5985303941213 0.5177894379267542 477.0 39.0 327.0 
364.0000605432629 5740.0 NaN 1524.4382097528387 0.5210608154603156 479.0 36.0 330.0 
366.0000605432629 5756.0 NaN 1515.4121576486298 0.5188749890155395 473.0 40.0 323.0 
368.0000605432629 5743.0 NaN 1512.28590514362 0.5108494776051824 478.0 36.0 326.0 
370.0000605432629 5763.0 NaN 1509.2611890447554 0.5152943618451455 475.0 40.0 321.0 
372.0000605432629 5783.0 NaN 1512.2404809619243 0.5266707231342775 479.0 38.0 324.0 
374.0000605432629 5752.0 NaN 1509.1489645958577 0.5134431043684944 474.0 41.0 320.0 
376.0000605432629 5769.0 NaN 1509.0501002004 0.5137883526020853 479.0 36.0 325.0 
378.0000605432629 5763.0 NaN 1506.1055444221786 0.5118261004299246 478.0 39.0 321.0 
380.0000605432629 5776.0 NaN 1505.9799599198388 0.5189254436925484 482.0 36.0 324.0 
382.0000605432629 5782.0 NaN 1509.1917167668666 0.5287982628278682 476.0 40.0 321.0 
384.0000605432629 5751.0 NaN 1512.1683366733462 0.5104691617884153 479.0 36.0 326.0 
386.0000605432629 5777.0 NaN 1515.2758851035394 0.5134559056483182 478.0 40.0 323.0 
388.0000605432629 5767.0 NaN 1515.2892451569817 0.5175991726838521 481.0 37.0 326.0 
390.0000605432629 5756.0 NaN 1509.2264529058111 0.5166057992913504 477.0 40.0 321.0 
392.0000605432629 5786.0 NaN 1509.1890447561796 0.5198175711738792 481.0 36.0 325.0 
394.0000605432629 5767.0 NaN 1509.2424849699394 0.5143684639579857 476.0 40.0 321.0 
396.0000605432629 5795.0 NaN 1512.3259853039424 0.5194566712139473 479.0 37.0 325.0 
398.0000605432629 5780.0 NaN 1509.2611890447552 0.5156489368500896 477.0 42.0 319.0 
400.0000605432629 5781.0 NaN 1506.1322645290575 0.5195496134682163 479.0 40.0 320.0 
402.0000605432629 5812.0 NaN 1512.3607214428848 0.5241401729605383 478.0 41.0 321.0 
404.0000605432629 5783.0 NaN 1509.2371409485636 0.5143030147703467 486.0 35.0 326.0 
406.0000605432629 5817.0 NaN 1512.366065464263 0.516648012117509 481.0 39.0 323.0 
408.0000605432629 5826.0 NaN 1515.468269873081 0.5178657136693968 485.0 36.0 327.0 
410.0000605432629 5833.0 NaN 1518.5544422177697 0.5177332753965921 481.0 40.0 324.0 
412.0000605432629 5830.0 NaN 1524.7374749499 0.5325328452212841 485.0 36.0 330.0 
414.0000605432629 5783.0 NaN 1527.7408149632606 0.5196397631469698 481.0 39.0 328.0 
416.0000605432629 5799.0 NaN 1524.7401469605884 0.5195955682604985 487.0 36.0 330.0 
418.0000605432629 5781.0 NaN 1515.3079492317975 0.5226404981434598 478.0 39.0 324.0 
420.0000605432629 5796.0 NaN 1512.382097528391 0.5208199141653106 480.0 35.0 327.0 
422.0000605432629 5772.0 NaN 1515.374749498999 0.5354745213625516 477.0 39.0 324.0 
424.0000605432629 5749.0 NaN 1512.2591850367392 0.515898181100956 483.0 36.0 326.0 
426.0000605432629 5756.0 NaN 1512.2565130260527 0.528457238031537 478.0 39.0 323.0 
428.0000605432629 5731.0 NaN 1515.2705410821636 0.5182610747685699 482.0 35.0 328.0 
430.0000605432629 5760.0 NaN 1509.1516366065457 0.5200048911658722 482.0 39.0 322.0 
432.0000605432629 5738.0 NaN 1515.4068136272545 0.5254024082702117 486.0 36.0 327.0 
434.0000605432629 5726.0 NaN 1521.5096860387448 0.5158491642336285 479.0 45.0 320.0 
436.0000605432629 5734.0 NaN 1524.5611222444902 0.5216930922134618 483.0 41.0 325.0 
438.0000605432629 5728.0 NaN 1527.5938543754182 0.5174871780423554 481.0 43.0 324.0 
440.0000605432629 5763.0 NaN 1527.486973947897 0.5241626879276576 491.0 35.0 332.0 
442.0000605432629 5762.0 NaN 1527.6847027388094 0.5204475488856362 486.0 40.0 327.0 
444.0000605432629 5762.0 NaN 1524.5584502338 0.5139722198126788 484.0 41.0 325.0 
446.0000605432629 5763.0 NaN 1518.3674014696066 0.5219644509764643 481.0 44.0 320.0 
448.0000605432629 5755.0 NaN 1536.919171676688 0.5219241792630298 484.0 41.0 329.0 
450.0000605432629 5791.0 NaN 1546.0387441549756 0.5223836867642477 484.0 43.0 330.0 
452.0000605432629 5759.0 NaN 1549.1623246493 0.5162627421296611 487.0 39.0 335.0 
454.0000605432629 5755.0 NaN 1549.0714762859063 0.5133100455359887 482.0 43.0 331.0 
456.0000605432629 5754.0 NaN 1549.1917167668666 0.5183989836492344 484.0 39.0 335.0 
458.0000605432629 5743.0 NaN 1549.0447561790247 0.521029279397501 480.0 44.0 330.0 
460.0000605432629 5776.0 NaN 1546.0814963259845 0.5248533305007619 484.0 41.0 332.0 
462.0000605432629 5758.0 NaN 1542.9712758851028 0.5240726042768735 478.0 43.0 329.0 
464.0000605432629 5744.0 NaN 1542.888443553773 0.5172565576502185 482.0 40.0 332.0 
466.0000605432629 5751.0 NaN 1546.0708082832339 0.521366730851723 477.0 46.0 327.0 
468.0000605432629 5734.0 NaN 1542.9819639278544 0.5172704526441589 482.0 40.0 332.0 
470.0000605432629 5744.0 NaN 1542.9258517034089 0.5253501511384682 476.0 47.0 325.0 
472.0000605432629 5734.0 NaN 1539.925183700736 0.5264692154338145 487.0 37.0 334.0 
474.0000605432629 5748.0 NaN 1530.6800267201088 0.5229420778393559 481.0 39.0 329.0 
476.0000605432629 5756.0 NaN 1524.574482297928 0.5235037215904607 485.0 35.0 331.0 
478.0000605432629 5741.0 NaN 1521.4295257181022 0.5201947120242948 480.0 39.0 326.0 
480.0000605432629 5756.0 NaN 1524.630594522379 0.5247089351372488 483.0 35.0 331.0 
482.0000605432629 5717.0 NaN 1524.6145624582489 0.5254918982434648 475.0 44.0 322.0 
484.0000605432629 5711.0 NaN 1521.5444221776902 0.5228265367099663 482.0 36.0 329.0 
486.0000605432629 5736.0 NaN 1512.3366733466928 0.5284375533561847 476.0 39.0 323.0 
488.0000605432629 5698.0 NaN 1509.2879091516363 0.5219496879254829 480.0 35.0 326.0 
490.0000605432629 5715.0 NaN 1490.8376753507007 0.5185513191992958 474.0 39.0 316.0 
492.0000605432629 5707.0 NaN 1490.773547094189 0.529296246457372 477.0 35.0 320.0 
494.0000605432629 5696.0 NaN 1493.8276553106205 0.5224041534866408 471.0 39.0 317.0 
496.0000605432629 5700.0 NaN 1493.832999331998 0.5210088261189176 470.0 36.0 320.0 
498.0000605432629 5690.0 NaN 1490.7067468269881 0.5217769623131687 466.0 39.0 316.0 
500.0000605432629 5698.0 NaN 1484.5637942551762 0.5199220082933255 472.0 36.0 317.0 
502.0000605432629 5691.0 NaN 1481.5257181028728 0.5280646847620825 470.0 41.0 311.0 
504.0000605432629 5684.0 NaN 1484.5691382765538 0.5208132529935007 472.0 38.0 315.0 
506.0000605432629 5723.0 NaN 1490.653306613227 0.5262473387932473 472.0 41.0 314.0 
508.0000605432629 5703.0 NaN 1484.6118904475627 0.5146534584544601 473.0 38.0 315.0 
510.0000605432629 5713.0 NaN 1490.8430193720787 0.5198180116964228 468.0 41.0 314.0 
512.0000605432629 5713.0 NaN 1490.8082832331336 0.5281086086588467 471.0 41.0 314.0 
514.0000605432629 5695.0 NaN 1481.4936539746172 0.5223185258680371 466.0 46.0 306.0 
516.0000605432629 5710.0 NaN 1478.503674014697 0.5275604025093723 470.0 40.0 311.0 
518.0000605432629 5695.0 NaN 1460.0668002672003 0.5174536370557905 465.0 46.0 299.0 
520.0000605432629 5739.0 NaN 1460.1736806947242 0.526526256899335 473.0 38.0 307.0 
522.0000605432629 5710.0 NaN 1460.0881763527063 0.5265711930203866 467.0 40.0 305.0 
524.0000605432629 5696.0 NaN 1463.1877087508358 0.5171030613539052 469.0 36.0 310.0 
526.0000605432629 5717.0 NaN 1453.8837675350705 0.5284359192829335 463.0 40.0 303.0 
528.0000605432629 5687.0 NaN 1450.8537074148292 0.5232806453568665 465.0 36.0 306.0 
530.0000605432629 5681.0 NaN 1453.8436873747487 0.5234408264915266 464.0 40.0 303.0 
532.0000605432629 5687.0 NaN 1463.155644622579 0.5194561939402736 467.0 37.0 309.0 
534.0000605432629 5693.0 NaN 1463.1102204408817 0.5172178730822214 460.0 40.0 306.0 
536.0000605432629 5709.0 NaN 1460.14963259853 0.5242787801106191 468.0 36.0 309.0 
538.0000605432629 5697.0 NaN 1463.190380761524 0.5184667227000835 462.0 41.0 305.0 
540.0000605432629 5707.0 NaN 1466.3887775551095 0.5216824872909934 471.0 35.0 312.0 
542.0000605432629 5703.0 NaN 1472.4435537742158 0.5241419772912363 468.0 39.0 310.0 
544.0000605432629 5709.0 NaN 1475.5617902471613 0.5151477788084624 474.0 36.0 314.0 
546.0000605432629 5737.0 NaN 1472.4328657314634 0.5253073894684319 469.0 40.0 309.0 
548.0000605432629 5708.0 NaN 1469.4509018036078 0.521073034341867 473.0 38.0 310.0 
550.0000605432629 5711.0 NaN 1469.2879091516363 0.5198285143323292 471.0 40.0 308.0 
552.0000605432629 5700.0 NaN 1469.3841015364067 0.5266321822556949 475.0 35.0 313.0 
554.0000605432629 5723.0 NaN 1469.290581162325 0.5181128730272409 471.0 40.0 308.0 
556.0000605432629 5752.0 NaN 1469.333333333334 0.5237020460481994 476.0 36.0 312.0 
558.0000605432629 5730.0 NaN 1469.3760855043422 0.5202532144407895 469.0 43.0 305.0 
560.0000605432629 5730.0 NaN 1460.200400801603 0.5249833566290036 471.0 37.0 308.0 
562.0000605432629 5723.0 NaN 1460.200400801603 0.5207481046115442 460.0 47.0 298.0 
564.0000605432629 5733.0 NaN 1457.1489645958586 0.5197171186578854 464.0 43.0 301.0 
566.0000605432629 5742.0 NaN 1463.1690046760182 0.524262575124153 465.0 44.0 302.0 
568.0000605432629 5745.0 NaN 1484.8764195056785 0.5170534702251248 462.0 46.0 307.0 
570.0000605432629 5772.0 NaN 1484.8871075484296 0.5270433497231062 466.0 44.0 309.0 
572.0000605432629 5747.0 NaN 1481.7555110220446 0.5310903578807219 471.0 41.0 311.0 
574.0000605432629 5756.0 NaN 1478.6826987307943 0.5248546079630249 463.0 47.0 304.0 
576.0000605432629 5753.0 NaN 1487.9198396793577 0.5306264177230458 469.0 41.0 313.0 
578.0000605432629 5722.0 NaN 1481.7795591182362 0.5200546746946121 468.0 43.0 309.0 
580.0000605432629 5726.0 NaN 1487.8476953907818 0.5378235633908671 468.0 42.0 312.0 
582.0000605432629 5702.0 NaN 1487.8744154976623 0.5258501878110944 468.0 45.0 309.0 
584.0000605432629 5724.0 NaN 1490.9338677354715 0.5197699666786627 477.0 35.0 320.0 
586.0000605432629 5738.0 NaN 1487.7808951235809 0.5271399104675026 475.0 42.0 312.0 
588.0000605432629 5701.0 NaN 1487.748830995325 0.5225934711881017 480.0 38.0 316.0 
590.0000605432629 5712.0 NaN 1490.8029392117558 0.5302962307990838 479.0 41.0 314.0 
592.0000605432629 5690.0 NaN 1487.7595190380757 0.5206900847602669 485.0 36.0 318.0 
594.0000605432629 5694.0 NaN 1490.8082832331334 0.5189580670212555 481.0 41.0 314.0 
596.0000605432629 5709.0 NaN 1487.682030728124 0.5249933878485943 492.0 35.0 319.0 
598.0000605432629 5675.0 NaN 1490.7548430193726 0.5259598879887655 486.0 42.0 313.0 
600.0000605432629 5679.0 NaN 1487.7434869739473 0.5252990561650617 488.0 38.0 316.0 
602.0000605432629 5692.0 NaN 1499.9679358717442 0.5238117493382068 488.0 41.0 317.0 
604.0000605432629 5711.0 NaN 1496.9726118904468 0.516710782107816 492.0 36.0 321.0 
606.0000605432629 5745.0 NaN 1500.0374081496334 0.5250667646965995 486.0 41.0 317.0 
608.0000605432629 5733.0 NaN 1506.1189044756184 0.5173367111927993 491.0 35.0 325.0 
610.0000605432629 5742.0 NaN 1512.3286573146283 0.5196103666824008 484.0 43.0 319.0 
612.0000605432629 5738.0 NaN 1509.3466933867728 0.5218686666138442 484.0 41.0 320.0 
614.0000605432629 5737.0 NaN 1506.1723446893798 0.5216235909478943 474.0 51.0 309.0 
616.0000605432629 5773.0 NaN 1506.249832999333 0.5300135083553844 485.0 40.0 320.0 
618.0000605432629 5782.0 NaN 1503.219772879091 0.5204626230152295 483.0 42.0 317.0 
620.0000605432629 5838.0 NaN 1512.4595858383445 0.522556959215151 487.0 38.0 324.0 
622.0000605432629 5856.0 NaN 1524.710754843018 0.5294942614704322 484.0 43.0 323.0 
624.0000605432629 5853.0 NaN 1521.6352705410818 0.5227991593302876 479.0 45.0 320.0 
626.0000605432629 5880.0 NaN 1524.7080828323303 0.5243250786883976 482.0 41.0 325.0 
628.0000605432629 5871.0 NaN 1524.6519706078818 0.5166101723780688 487.0 38.0 328.0 
630.0000605432629 5914.0 NaN 1518.6105544422182 0.524868860334777 478.0 46.0 318.0 
632.0000605432629 5905.0 NaN 1521.6646626586514 0.5321973415750862 482.0 41.0 324.0 
634.0000605432629 5863.0 NaN 1524.689378757516 0.5197796185872608 477.0 43.0 323.0 
636.0000605432629 5879.0 NaN 1521.7982631930533 0.5273780242789194 485.0 40.0 325.0 
638.0000605432629 5842.0 NaN 1518.6960587842357 0.5168300715253525 486.0 43.0 321.0 
640.0000605432629 5854.0 NaN 1518.6987307949241 0.5204297941205978 485.0 42.0 322.0 
642.0000605432629 5843.0 NaN 1524.9191716766877 0.5318352500159401 484.0 46.0 320.0 
644.0000605432629 5803.0 NaN 1521.811623246492 0.5206508120473655 478.0 52.0 313.0 
646.0000605432629 5849.0 NaN 1521.8356713426847 0.5268126488036577 469.0 56.0 309.0 
648.0000605432629 5836.0 NaN 1524.8951235804939 0.5161240621438092 476.0 49.0 317.0 
650.0000605432629 5840.0 NaN 1521.699398797594 0.5244561086585198 472.0 49.0 316.0 
652.0000605432629 5829.0 NaN 1524.7481629926526 0.5219224096194778 474.0 47.0 319.0 
654.0000605432629 5816.0 NaN 1524.7454909819635 0.5165373986188055 476.0 43.0 323.0 
656.0000605432629 5850.0 NaN 1534.0334001335998 0.5303639236352908 479.0 40.0 329.0 
658.0000605432629 5813.0 NaN 1543.3293253173008 0.517519931251215 474.0 43.0 329.0 
660.0000605432629 5827.0 NaN 1543.2812291249172 0.5230211453629525 477.0 40.0 332.0 
662.0000605432629 5828.0 NaN 1543.3239812959264 0.5268226058975725 474.0 42.0 330.0 
664.0000605432629 5815.0 NaN 1540.130928523715 0.5181369085331318 473.0 42.0 329.0 
#####################################################################
# End of data export. Simulation finished at: 2019-03-06T17:52+0000 #
#####################################################################
