#####################################################################
# Alchemist log file - simulation started at: 2019-03-08T20:35+0000 #
#####################################################################
# seed = 2.0, bandwidth = 74989.42093324558, propagationDelay = 0.1, baserange = 316.2277660168379
#
# The columns have the following meaning: 
# time neighbor_count[Sum] <value>@neighbor_count[Sum] packet_size[Mean] mean_delay[Mean] crowd[Sum] overcrowded[Sum] risk[Sum] 
0.0 NaN NaN NaN NaN NaN NaN NaN 
2.0005829790527505 50613.0 NaN 4994.602538410154 0.4960312958754259 1497.0 0.0 1497.0 
4.0005829790527505 51288.0 NaN 4993.507014028056 0.5021279575122268 1494.0 3.0 1494.0 
6.0005829790527505 51288.0 NaN 4994.295257181028 0.5021026200667782 1492.0 5.0 1492.0 
8.000582979052751 51288.0 NaN 4994.396793587174 0.5021050535892612 1495.0 2.0 1495.0 
10.000582979052751 51290.0 NaN 4995.607214428857 0.5021121101786903 1496.0 1.0 1496.0 
12.000582979052751 51292.0 NaN 4995.3346693386775 0.502100929191529 1497.0 0.0 1497.0 
14.000582979052751 51296.0 NaN 4994.102872411489 0.5021439137051974 1496.0 1.0 1496.0 
16.00058297905275 51298.0 NaN 4994.37541750167 0.5028380276087158 1495.0 2.0 1495.0 
18.00058297905275 51309.0 NaN 4995.476285905143 0.5043336780696618 1495.0 2.0 1495.0 
20.00058297905275 51306.0 NaN 4995.497661990648 0.5061663734536397 1497.0 0.0 1497.0 
22.00058297905275 51342.0 NaN 4994.706746826987 0.5082223778739696 1497.0 0.0 1497.0 
24.00058297905275 51342.0 NaN 4994.650634602538 0.5027247364209984 1496.0 1.0 1496.0 
26.00058297905275 51347.0 NaN 4994.150968603874 0.5025751392141947 1496.0 1.0 1496.0 
28.00058297905275 51345.0 NaN 4995.006012024048 0.5023670920048222 1495.0 2.0 1495.0 
30.00058297905275 51346.0 NaN 4996.280561122245 0.503578257756691 1496.0 1.0 1496.0 
32.00058297905275 51398.0 NaN 4994.639946559786 0.5053884963696036 1497.0 0.0 1497.0 
34.00058297905275 51404.0 NaN 4994.158984635938 0.5042006313903068 1496.0 1.0 1496.0 
36.00058297905275 51387.0 NaN 4994.877755511022 0.5044052999594075 1495.0 2.0 1495.0 
38.00058297905275 51375.0 NaN 4994.797595190381 0.5042176521728202 1496.0 1.0 1496.0 
40.00058297905275 51371.0 NaN 4995.804943219773 0.5076440889136468 1496.0 1.0 1496.0 
42.00058297905275 51408.0 NaN 4995.457581830327 0.511270207018405 1497.0 0.0 1497.0 
44.00058297905275 51418.0 NaN 4994.105544422177 0.5060772966855732 1496.0 1.0 1496.0 
46.00058297905275 51393.0 NaN 4994.303273213093 0.5071702234847341 1495.0 2.0 1495.0 
48.00058297905275 51360.0 NaN 4995.4148296593185 0.5063888585505336 1495.0 2.0 1495.0 
50.00058297905275 51354.0 NaN 4995.54843019372 0.5081816810638322 1497.0 0.0 1497.0 
52.00058297905275 51401.0 NaN 4994.800267201069 0.5034668157262887 1497.0 0.0 1497.0 
54.00058297905275 51412.0 NaN 4994.752171008684 0.5061029404944164 1496.0 1.0 1496.0 
56.00058297905275 51404.0 NaN 4994.308617234469 0.5091626005423004 1495.0 2.0 1495.0 
58.00058297905275 51381.0 NaN 4994.984635938544 0.507778874051388 1494.0 3.0 1494.0 
60.00058297905275 51405.0 NaN 4993.135604542418 0.5084881387688451 1495.0 1.0 1495.0 
62.00058297905275 51490.0 NaN 1516.3714094856368 0.5056637447231694 791.0 3.0 360.0 
64.00058297905275 51491.0 NaN 1519.4388777555093 0.5064619272636477 632.0 5.0 359.0 
66.00058297905275 51485.0 NaN 1519.4388777555093 0.5066019420250784 576.0 4.0 360.0 
68.00058297905275 51496.0 NaN 1519.5270541082177 0.5061152904055438 548.0 4.0 360.0 
70.00058297905275 51505.0 NaN 1519.6633266533067 0.5088260858631126 530.0 4.0 360.0 
72.00058297905275 51495.0 NaN 1519.580494321979 0.5065917163351653 529.0 4.0 360.0 
74.00058297905275 51495.0 NaN 1525.6192384769547 0.5073255542294591 526.0 4.0 362.0 
76.00058297905275 51468.0 NaN 1525.5764863059455 0.5055982636109634 529.0 3.0 363.0 
78.00058297905275 51482.0 NaN 1525.645958583836 0.5054172570001556 527.0 3.0 363.0 
80.00058297905275 51495.0 NaN 1528.7241148964608 0.5067472162241027 523.0 3.0 364.0 
82.00058297905275 51481.0 NaN 1528.7374749499 0.505829329099067 524.0 3.0 364.0 
84.00058297905275 51489.0 NaN 1531.778223112891 0.5074507832196368 525.0 3.0 365.0 
86.00058297905275 51497.0 NaN 1531.8663994656 0.5091431071756691 525.0 3.0 365.0 
88.00058297905275 51540.0 NaN 1531.7808951235816 0.5041370402518698 526.0 3.0 365.0 
90.00058297905275 51563.0 NaN 1531.9011356045428 0.5053276078496762 527.0 3.0 365.0 
92.00058297905275 51549.0 NaN 1531.7247828991303 0.5052837093597465 527.0 3.0 365.0 
94.00058297905275 51554.0 NaN 1531.7060788243155 0.5061678581327383 525.0 3.0 365.0 
96.00058297905275 51551.0 NaN 1531.7434869739477 0.5053895369791771 525.0 3.0 365.0 
98.00058297905275 51578.0 NaN 1531.8851035404152 0.5058060565528248 525.0 3.0 365.0 
100.00058297905275 51583.0 NaN 1531.890447561791 0.5098413976183856 525.0 3.0 365.0 
102.00058297905275 51557.0 NaN 1534.8456913827638 0.5082115943929663 525.0 3.0 366.0 
104.00058297905275 51540.0 NaN 1534.8002672010698 0.5062536389373421 525.0 3.0 366.0 
106.00058297905275 51526.0 NaN 1534.859051436206 0.5058668934430532 524.0 3.0 366.0 
108.00058297905275 51533.0 NaN 1537.9532398129606 0.50560815100068 524.0 3.0 367.0 
110.00058297905275 51555.0 NaN 1538.1028724114908 0.5069395763781244 525.0 3.0 367.0 
112.00058297905275 51560.0 NaN 1537.9318637274544 0.5067359270996327 525.0 3.0 367.0 
114.00058297905275 51567.0 NaN 1537.9585838343364 0.5070892412398013 526.0 3.0 367.0 
116.00058297905275 51552.0 NaN 1540.9058116232454 0.5055039058177956 527.0 3.0 368.0 
118.00058297905275 51554.0 NaN 1547.169004676018 0.5057103887061499 527.0 3.0 370.0 
120.00058297905275 51567.0 NaN 1547.1796927187727 0.5063649266768204 527.0 3.0 370.0 
122.00058297905275 51577.0 NaN 1547.1609886439546 0.5060992397416247 527.0 3.0 370.0 
124.00058297905275 51570.0 NaN 1547.1877087508362 0.5082265423790002 527.0 3.0 370.0 
126.00058297905275 51551.0 NaN 1547.2945891783547 0.5069119433351258 527.0 3.0 370.0 
128.00058297905275 51552.0 NaN 1547.29191716767 0.5092475134904945 527.0 3.0 370.0 
130.00058297905275 51544.0 NaN 1547.3079492317975 0.5087032833350021 527.0 3.0 370.0 
132.00058297905275 51527.0 NaN 1544.0614562458272 0.5064449247237146 527.0 3.0 369.0 
134.00058297905275 51531.0 NaN 1544.1148964595848 0.5073498132525862 527.0 3.0 369.0 
136.00058297905275 51509.0 NaN 1547.1369405477637 0.5064568792016622 525.0 3.0 370.0 
138.00058297905275 51484.0 NaN 1544.2244488977972 0.5062188282836708 520.0 3.0 369.0 
140.00058297905275 51476.0 NaN 1547.3961255845 0.5066238116180795 520.0 3.0 370.0 
142.00058297905275 51476.0 NaN 1550.4742818971272 0.5052818665084727 520.0 3.0 371.0 
144.00058297905275 51482.0 NaN 1550.2952571810274 0.5067479107133386 519.0 3.0 371.0 
146.00058297905275 51455.0 NaN 1550.3486973947909 0.5070340632128592 519.0 3.0 371.0 
148.00058297905275 51443.0 NaN 1547.2277889111542 0.5076780222163346 520.0 3.0 370.0 
150.00058297905275 51423.0 NaN 1544.221776887109 0.5086807216374549 520.0 3.0 369.0 
152.00058297905275 51404.0 NaN 1541.0688042752186 0.5067043277424216 516.0 4.0 367.0 
154.00058297905275 51397.0 NaN 1541.119572478291 0.5064102984716082 513.0 4.0 367.0 
156.00058297905275 51381.0 NaN 1541.0768203072819 0.5077037686197703 516.0 3.0 368.0 
158.00058297905275 51380.0 NaN 1541.1382765531064 0.5090249031578887 517.0 3.0 368.0 
160.00058297905275 51375.0 NaN 1541.1489645958575 0.5094214199265883 518.0 3.0 368.0 
162.00058297905275 51309.0 NaN 1541.0848363393457 0.5078747972379215 518.0 3.0 368.0 
164.00058297905275 51258.0 NaN 1544.069472277891 0.5069035745545645 516.0 3.0 369.0 
166.00058297905275 51220.0 NaN 1550.2845691382756 0.5082395500401954 517.0 3.0 371.0 
168.00058297905275 51216.0 NaN 1550.3166332665337 0.5113869541808472 519.0 3.0 371.0 
170.00058297905275 51179.0 NaN 1547.3346693386784 0.5091234014904689 520.0 2.0 371.0 
172.00058297905275 51103.0 NaN 1544.0801603206428 0.506792616885302 519.0 3.0 369.0 
174.00058297905275 51104.0 NaN 1544.0507682030725 0.506966830891334 517.0 5.0 367.0 
176.00058297905275 51082.0 NaN 1544.0561122244483 0.507383544481991 517.0 3.0 369.0 
178.00058297905275 51079.0 NaN 1538.0200400801612 0.5072048707675632 513.0 6.0 364.0 
180.00058297905275 51051.0 NaN 1538.105544422179 0.508483007911489 515.0 4.0 366.0 
182.00058297905275 50999.0 NaN 1541.1436205744817 0.5061627317620436 516.0 3.0 368.0 
184.00058297905275 51010.0 NaN 1541.0554442217754 0.5090075587768064 515.0 4.0 367.0 
186.00058297905275 50967.0 NaN 1541.0260521042092 0.5108509874290974 514.0 5.0 366.0 
188.00058297905275 50954.0 NaN 1541.0180360721456 0.5080826908357855 516.0 3.0 368.0 
190.00058297905275 50933.0 NaN 1541.0768203072819 0.5058800146040412 513.0 6.0 365.0 
192.00058297905275 50922.0 NaN 1540.913827655309 0.5054282322791925 514.0 4.0 367.0 
194.00058297905275 50949.0 NaN 1540.999331997327 0.508900709173793 515.0 3.0 368.0 
196.00058297905275 50914.0 NaN 1541.0794923179697 0.5091657398277654 514.0 5.0 366.0 
198.00058297905275 50906.0 NaN 1544.2565130260523 0.5085198604169904 515.0 5.0 367.0 
200.00058297905275 50883.0 NaN 1544.205744822979 0.5075810068926422 517.0 5.0 367.0 
202.00058297905275 50839.0 NaN 1544.0881763527063 0.5052016223645798 516.0 6.0 366.0 
204.00058297905275 50876.0 NaN 1547.0915163660636 0.5072653874089672 516.0 5.0 368.0 
206.00058297905275 50850.0 NaN 1544.0427521710092 0.5060985175708743 518.0 3.0 369.0 
208.00058297905275 50826.0 NaN 1541.0714762859063 0.5063070985663194 515.0 5.0 366.0 
210.00058297905275 50798.0 NaN 1538.1189044756184 0.5068541931789147 511.0 5.0 365.0 
212.00058297905275 50767.0 NaN 1541.092852371409 0.5038381194386776 511.0 5.0 366.0 
214.00058297905275 50773.0 NaN 1544.072144288576 0.5055566792839594 511.0 6.0 366.0 
216.00058297905275 50756.0 NaN 1544.0694722778908 0.5084364869389679 510.0 5.0 367.0 
218.00058297905275 50729.0 NaN 1537.9211756847026 0.5097824107912129 515.0 3.0 367.0 
220.00058297905275 50711.0 NaN 1540.9565798263181 0.5117701047003227 513.0 5.0 366.0 
222.00058297905275 50671.0 NaN 1541.036740146961 0.509596985311592 514.0 5.0 366.0 
224.00058297905275 50682.0 NaN 1540.916499666 0.5100659239715841 513.0 5.0 366.0 
226.00058297905275 50669.0 NaN 1541.0581162324638 0.5175755983717808 513.0 6.0 365.0 
228.00058297905275 50649.0 NaN 1540.9432197728793 0.5170478242733404 512.0 5.0 366.0 
230.00058297905275 50641.0 NaN 1537.979959919839 0.5133508532137805 511.0 3.0 367.0 
232.00058297905275 50611.0 NaN 1541.0046760187026 0.5067478556779518 509.0 6.0 365.0 
234.00058297905275 50606.0 NaN 1540.9458917835664 0.5094242998549312 509.0 6.0 365.0 
236.00058297905275 50641.0 NaN 1541.0100200400816 0.5153549151243174 510.0 6.0 365.0 
238.00058297905275 50630.0 NaN 1541.0661322645274 0.5108451550059286 509.0 7.0 364.0 
240.00058297905275 50617.0 NaN 1537.9879759519029 0.5061238915797823 509.0 6.0 364.0 
242.00058297905275 50595.0 NaN 1537.8517034068154 0.5056127731048576 512.0 5.0 365.0 
244.00058297905275 50612.0 NaN 1537.7955911823635 0.5078670059084378 511.0 7.0 363.0 
246.00058297905275 50591.0 NaN 1534.717434869739 0.5085038947842855 511.0 5.0 364.0 
248.00058297905275 50561.0 NaN 1537.859719438879 0.5072130086386322 512.0 6.0 364.0 
250.00058297905275 50567.0 NaN 1534.9472277889092 0.5071296019100492 511.0 6.0 363.0 
252.00058297905275 50548.0 NaN 1531.8583834335338 0.5067809304945802 507.0 6.0 362.0 
254.00058297905275 50587.0 NaN 1531.8557114228454 0.5089858993713848 508.0 7.0 361.0 
256.00058297905275 50560.0 NaN 1531.7060788243157 0.5117682992776635 508.0 6.0 362.0 
258.00058297905275 50524.0 NaN 1531.7541750167002 0.5090089036648571 509.0 7.0 361.0 
260.00058297905275 50514.0 NaN 1528.673346693388 0.5087965614376098 509.0 6.0 361.0 
262.00058297905275 50504.0 NaN 1525.5631262525062 0.5108922683700113 509.0 8.0 358.0 
264.00058297905275 50502.0 NaN 1528.6706746826999 0.5097568684319698 506.0 7.0 360.0 
266.00058297905275 50457.0 NaN 1528.7348029392117 0.5120983788133606 508.0 7.0 360.0 
268.00058297905275 50406.0 NaN 1538.0253841015365 0.5158812064506785 508.0 6.0 364.0 
270.00058297905275 50379.0 NaN 1541.0661322645271 0.5144590808241853 508.0 7.0 364.0 
272.00058297905275 50348.0 NaN 1540.9485637942544 0.510070028892922 508.0 6.0 365.0 
274.00058297905275 50377.0 NaN 1543.9866399465614 0.5121312659546006 507.0 7.0 365.0 
276.00058297905275 50332.0 NaN 1540.8390113560454 0.5151923416569977 507.0 6.0 365.0 
278.00058297905275 50175.0 NaN 1540.9859719438887 0.5102341415591907 507.0 7.0 364.0 
280.00058297905275 50159.0 NaN 1537.8997995992 0.5095801441145356 509.0 6.0 364.0 
282.00058297905275 50139.0 NaN 1537.9692718770884 0.5098261813615219 508.0 7.0 363.0 
284.00058297905275 50150.0 NaN 1537.8276553106205 0.5113687153226235 508.0 6.0 364.0 
286.00058297905275 50109.0 NaN 1537.918503674016 0.5137772651327468 507.0 7.0 363.0 
288.00058297905275 50046.0 NaN 1537.8944555778205 0.5097385833053892 506.0 6.0 364.0 
290.00058297905275 50011.0 NaN 1537.8623914495638 0.5098784882830011 506.0 7.0 363.0 
292.00058297905275 49972.0 NaN 1537.8650634602545 0.5113037328707418 507.0 6.0 364.0 
294.00058297905275 49961.0 NaN 1531.7167668670663 0.5110726280004814 508.0 6.0 362.0 
296.00058297905275 49912.0 NaN 1531.6793587174363 0.5134088533275494 507.0 6.0 362.0 
298.00058297905275 49851.0 NaN 1531.7221108884453 0.5116777488218901 506.0 7.0 361.0 
300.00058297905275 49785.0 NaN 1534.7548430193729 0.5096088872974492 502.0 7.0 362.0 
302.00058297905275 49780.0 NaN 1528.70808283233 0.5138601813815441 506.0 4.0 363.0 
304.00058297905275 49769.0 NaN 1531.695390781564 0.5100772166809987 506.0 4.0 364.0 
306.00058297905275 49740.0 NaN 1531.7969271877091 0.5127211151875106 506.0 4.0 364.0 
308.00058297905275 49713.0 NaN 1531.8450233800934 0.5114240771972862 506.0 3.0 365.0 
310.00058297905275 49662.0 NaN 1537.9505678022726 0.50903545703641 502.0 6.0 364.0 
312.00058297905275 49638.0 NaN 1534.7869071476273 0.508975163218525 504.0 3.0 366.0 
314.00058297905275 49613.0 NaN 1531.6820307281246 0.5106393443432907 506.0 3.0 365.0 
316.00058297905275 49572.0 NaN 1528.6145624582487 0.5125358208762978 502.0 7.0 360.0 
318.00058297905275 49509.0 NaN 1528.6599866399451 0.5130803015163371 501.0 7.0 360.0 
320.00058297905275 49479.0 NaN 1531.8583834335338 0.513934724641688 504.0 5.0 363.0 
322.00058297905275 49451.0 NaN 1528.825651302606 0.5084100414353427 502.0 6.0 361.0 
324.00058297905275 49455.0 NaN 1531.8851035404152 0.5111226341488814 501.0 7.0 361.0 
326.00058297905275 49412.0 NaN 1528.7027388109543 0.5143329558802303 501.0 6.0 361.0 
328.00058297905275 49361.0 NaN 1528.6973947895792 0.5117454033917416 500.0 7.0 360.0 
330.00058297905275 49335.0 NaN 1528.6599866399451 0.5095125169839878 500.0 8.0 359.0 
332.00058297905275 49325.0 NaN 1525.5925183700726 0.5091369235036285 501.0 9.0 357.0 
334.00058297905275 49324.0 NaN 1528.684034736139 0.5132369061246942 501.0 8.0 359.0 
336.00058297905275 49311.0 NaN 1531.8263193052755 0.5161560156943297 502.0 7.0 361.0 
338.00058297905275 49258.0 NaN 1528.7855711422844 0.511202441970078 504.0 7.0 360.0 
340.00058297905275 49263.0 NaN 1525.6192384769547 0.5098931337673036 502.0 8.0 358.0 
342.00058297905275 49255.0 NaN 1531.8049432197727 0.5098425956533286 504.0 9.0 359.0 
344.00058297905275 49247.0 NaN 1534.8376753507002 0.510226522392261 504.0 8.0 361.0 
346.00058297905275 49225.0 NaN 1531.7247828991303 0.5128049704125273 504.0 7.0 361.0 
348.00058297905275 49185.0 NaN 1528.7054108216448 0.5106821264939286 507.0 7.0 360.0 
350.00058297905275 49185.0 NaN 1528.6653306613216 0.509621408477124 507.0 8.0 359.0 
352.00058297905275 49184.0 NaN 1528.6733466933879 0.5098738796313798 504.0 9.0 358.0 
354.00058297905275 49190.0 NaN 1525.4909819639272 0.5092345332010993 505.0 8.0 358.0 
356.00058297905275 49171.0 NaN 1525.5337341349364 0.5109406959746824 505.0 7.0 359.0 
358.00058297905275 49134.0 NaN 1525.6272545090183 0.5128032004163035 503.0 7.0 359.0 
360.00058297905275 49128.0 NaN 1525.6138944555787 0.512837994034032 503.0 8.0 358.0 
362.00058297905275 49089.0 NaN 1525.6619906479636 0.5125523110556092 503.0 9.0 357.0 
364.00058297905275 49093.0 NaN 1525.5738142952569 0.513789832766598 505.0 8.0 358.0 
366.00058297905275 49052.0 NaN 1525.5657982631915 0.5089440112083657 508.0 7.0 359.0 
368.00058297905275 49043.0 NaN 1507.0754843019365 0.5074717274558054 504.0 7.0 353.0 
370.00058297905275 49062.0 NaN 1500.9378757515026 0.5082357207280375 504.0 8.0 350.0 
372.00058297905275 49057.0 NaN 1504.0133600534396 0.513028902468057 504.0 9.0 350.0 
374.00058297905275 49045.0 NaN 1510.148296593185 0.5140854806223764 507.0 8.0 353.0 
376.00058297905275 49006.0 NaN 1507.182364729458 0.509666926305069 508.0 7.0 353.0 
378.00058297905275 48963.0 NaN 1507.1743486973942 0.5100769018426531 506.0 7.0 353.0 
380.00058297905275 48946.0 NaN 1504.133600534401 0.5094994938505347 505.0 9.0 350.0 
382.00058297905275 48931.0 NaN 1500.9031396125579 0.5106720035432342 503.0 11.0 347.0 
384.00058297905275 48925.0 NaN 1503.973279893119 0.510126922866635 505.0 10.0 349.0 
386.00058297905275 48901.0 NaN 1510.1536406145635 0.5126999957438383 506.0 9.0 352.0 
388.00058297905275 48861.0 NaN 1510.19906479626 0.5091083007682148 506.0 9.0 352.0 
390.00058297905275 48864.0 NaN 1504.1282565130266 0.5082569745140383 504.0 10.0 349.0 
392.00058297905275 48832.0 NaN 1513.3894455577818 0.5104651104645969 503.0 11.0 351.0 
394.00058297905275 48814.0 NaN 1510.2792251169 0.5091697821154036 505.0 10.0 351.0 
396.00058297905275 48803.0 NaN 1510.1830327321302 0.5106623414932591 506.0 9.0 352.0 
398.00058297905275 48800.0 NaN 1510.263193052773 0.5117847264850366 507.0 9.0 352.0 
400.00058297905275 48798.0 NaN 1507.179692718772 0.5150264279394401 508.0 9.0 351.0 
402.00058297905275 48729.0 NaN 1510.3139612558455 0.5150241752547965 509.0 9.0 352.0 
404.00058297905275 48696.0 NaN 1516.4408817635274 0.5142669814698541 511.0 8.0 355.0 
406.00058297905275 48668.0 NaN 1519.5003340013366 0.5185903453730543 513.0 7.0 357.0 
408.00058297905275 48638.0 NaN 1522.5758183032726 0.5124399945770729 514.0 7.0 358.0 
410.00058297905275 48623.0 NaN 1531.8183032732122 0.5085020834909665 514.0 8.0 360.0 
412.00058297905275 48634.0 NaN 1531.8156312625272 0.5084170795195382 513.0 9.0 359.0 
414.00058297905275 48646.0 NaN 1534.8162992651976 0.5090947460685357 514.0 7.0 362.0 
416.00058297905275 48653.0 NaN 1534.7975951903818 0.511467746862795 517.0 6.0 363.0 
418.00058297905275 48635.0 NaN 1519.4736138944547 0.5088283780209389 517.0 6.0 358.0 
420.00058297905275 48621.0 NaN 1516.382097528391 0.5063136265989769 516.0 7.0 356.0 
422.00058297905275 48615.0 NaN 1516.4061456245818 0.5077167127480369 512.0 9.0 354.0 
424.00058297905275 48627.0 NaN 1513.1810287241158 0.509855137381846 509.0 8.0 354.0 
426.00058297905275 48611.0 NaN 1519.3426853707424 0.511670468122763 511.0 7.0 357.0 
428.00058297905275 48590.0 NaN 1519.3881095524373 0.5112699657902482 512.0 6.0 358.0 
430.00058297905275 48574.0 NaN 1516.3259853039424 0.505906001486605 512.0 7.0 356.0 
432.00058297905275 48567.0 NaN 1513.3734134936547 0.5066809428396688 507.0 12.0 350.0 
434.00058297905275 48573.0 NaN 1522.4956579826332 0.5088932689315376 514.0 9.0 356.0 
436.00058297905275 48563.0 NaN 1528.595858383434 0.509896321397155 519.0 9.0 358.0 
438.00058297905275 48542.0 NaN 1528.6012024048089 0.508267880827426 520.0 7.0 360.0 
440.00058297905275 48552.0 NaN 1528.6199064796272 0.5106585797759966 519.0 8.0 359.0 
442.00058297905275 48526.0 NaN 1531.6900467601881 0.5113968017691701 518.0 9.0 359.0 
444.00058297905275 48536.0 NaN 1531.5991983967936 0.5102081018193584 519.0 8.0 360.0 
446.00058297905275 48522.0 NaN 1537.9265197060793 0.5129101229087094 523.0 7.0 363.0 
448.00058297905275 48518.0 NaN 1544.0427521710092 0.5111286953219607 525.0 7.0 365.0 
450.00058297905275 48511.0 NaN 1541.0287241148972 0.5157008160673427 522.0 8.0 363.0 
452.00058297905275 48498.0 NaN 1544.0267201068816 0.5129712502410401 521.0 9.0 363.0 
454.00058297905275 48500.0 NaN 1543.9652638610546 0.5076567352951443 521.0 8.0 364.0 
456.00058297905275 48503.0 NaN 1553.2317969271883 0.5114735507166219 522.0 7.0 368.0 
458.00058297905275 48460.0 NaN 1553.1730126920518 0.5116684530152915 520.0 8.0 367.0 
460.00058297905275 48431.0 NaN 1550.1589846359366 0.5102202736372443 517.0 9.0 365.0 
462.00058297905275 48413.0 NaN 1547.1102204408817 0.5080965210376093 517.0 10.0 363.0 
464.00058297905275 48432.0 NaN 1540.8924515698068 0.5097116099573699 516.0 9.0 362.0 
466.00058297905275 48433.0 NaN 1543.9545758183026 0.5132739983402225 518.0 8.0 364.0 
468.00058297905275 48392.0 NaN 1543.9438877755515 0.5082315219543679 518.0 8.0 364.0 
470.00058297905275 48383.0 NaN 1537.7715430861729 0.5066119728286174 516.0 9.0 361.0 
472.00058297905275 48388.0 NaN 1534.706746826988 0.5095812698777578 513.0 10.0 359.0 
474.00058297905275 48409.0 NaN 1522.4502338009363 0.5084136884671733 512.0 9.0 356.0 
476.00058297905275 48385.0 NaN 1516.3259853039424 0.5090308127954668 511.0 8.0 355.0 
478.00058297905275 48390.0 NaN 1516.2965931863728 0.5079235084389103 509.0 7.0 356.0 
480.00058297905275 48391.0 NaN 1516.1790247161 0.5069061482319067 512.0 6.0 357.0 
482.00058297905275 48397.0 NaN 1510.1883767535082 0.507582767028157 509.0 8.0 353.0 
484.00058297905275 48466.0 NaN 1510.1322645290572 0.5084084024041067 508.0 7.0 354.0 
486.00058297905275 48463.0 NaN 1510.1643286573155 0.5080876428566142 509.0 6.0 355.0 
488.00058297905275 48498.0 NaN 1497.929191716766 0.5072315829653484 507.0 6.0 351.0 
490.00058297905275 48510.0 NaN 1497.811623246492 0.5079439680395988 508.0 5.0 352.0 
492.00058297905275 48507.0 NaN 1494.786907147628 0.5093439862884926 507.0 4.0 352.0 
494.00058297905275 48533.0 NaN 1491.5858383433542 0.5093748047488695 507.0 4.0 351.0 
496.00058297905275 48546.0 NaN 1491.68470273881 0.5130442701933778 505.0 3.0 352.0 
498.00058297905275 48559.0 NaN 1488.6065464261849 0.5156168092376228 503.0 5.0 349.0 
500.00058297905275 48563.0 NaN 1488.6038744154987 0.5112499991945981 501.0 6.0 348.0 
502.00058297905275 48565.0 NaN 1491.8209752839002 0.5131803810204743 505.0 6.0 349.0 
504.00058297905275 48573.0 NaN 1491.7595190380755 0.5098346285346421 507.0 6.0 349.0 
506.00058297905275 48612.0 NaN 1494.8510354041425 0.5090864658037072 510.0 5.0 351.0 
508.00058297905275 48631.0 NaN 1491.7007348029383 0.5103526188849232 506.0 8.0 347.0 
510.00058297905275 48620.0 NaN 1497.7715430861729 0.5138135555913471 505.0 9.0 348.0 
512.0005829790528 48626.0 NaN 1497.824983299934 0.5131122978092012 506.0 8.0 349.0 
514.0005829790528 48651.0 NaN 1491.623246492985 0.5126994754576611 505.0 9.0 346.0 
516.0005829790528 48651.0 NaN 1479.444221776888 0.510047187208175 501.0 8.0 343.0 
518.0005829790528 48659.0 NaN 1473.2985971943897 0.5092920748967642 500.0 8.0 341.0 
520.0005829790528 48644.0 NaN 1467.1796927187718 0.5099608654467835 498.0 10.0 337.0 
522.0005829790528 48651.0 NaN 1470.2070808283243 0.5124907761486415 496.0 11.0 337.0 
524.0005829790528 48669.0 NaN 1457.8971275885096 0.5101784468042883 497.0 9.0 335.0 
526.0005829790528 48669.0 NaN 1451.7327989311966 0.5104474861716101 498.0 8.0 334.0 
528.0005829790528 48676.0 NaN 1454.821643286573 0.5099973362987693 498.0 8.0 335.0 
530.0005829790528 48658.0 NaN 1454.912491649966 0.5110936603719263 499.0 9.0 334.0 
532.0005829790528 48652.0 NaN 1454.9285237140941 0.5162373366391684 497.0 10.0 333.0 
534.0005829790528 48660.0 NaN 1461.0794923179697 0.5103490014011219 499.0 9.0 336.0 
536.0005829790528 48682.0 NaN 1454.8082832331331 0.5133231968429475 500.0 8.0 335.0 
538.0005829790528 48690.0 NaN 1457.9478957915826 0.5092771019966326 501.0 8.0 336.0 
540.0005829790528 48674.0 NaN 1457.9639278557104 0.5104853453041951 501.0 9.0 335.0 
542.0005829790528 48652.0 NaN 1461.026052104209 0.5131586907375779 500.0 10.0 335.0 
544.0005829790528 48673.0 NaN 1461.0340681362727 0.5110701535795591 504.0 9.0 336.0 
546.0005829790528 48676.0 NaN 1457.971943887775 0.5108006119418304 505.0 8.0 336.0 
548.0005829790528 48679.0 NaN 1457.9425517702077 0.5156644109879271 508.0 8.0 336.0 
550.0005829790528 48655.0 NaN 1460.9432197728793 0.5144634818432554 507.0 9.0 336.0 
552.0005829790528 48572.0 NaN 1460.953907815631 0.5083961301166124 505.0 10.0 335.0 
554.0005829790528 48646.0 NaN 1467.0968603874421 0.5076929421232099 506.0 9.0 338.0 
556.0005829790528 48679.0 NaN 1470.1750167000666 0.5105963448599348 505.0 8.0 340.0 
558.0005829790528 48709.0 NaN 1454.8964595858376 0.5113075721790672 501.0 8.0 335.0 
560.0005829790528 48695.0 NaN 1451.8984635938546 0.5098743172292642 497.0 9.0 333.0 
562.0005829790528 48697.0 NaN 1454.8590514362047 0.5093165840368914 490.0 11.0 332.0 
564.0005829790528 48744.0 NaN 1460.9993319973275 0.5102568553780921 491.0 11.0 334.0 
566.0005829790528 48779.0 NaN 1470.150968603874 0.5115628368196501 496.0 8.0 340.0 
568.0005829790528 48788.0 NaN 1470.2097528390104 0.5097427201358766 502.0 4.0 344.0 
570.0005829790528 48769.0 NaN 1476.3820975283904 0.5134739991806926 508.0 5.0 345.0 
572.0005829790528 48787.0 NaN 1479.5778223112898 0.5094212663498632 506.0 7.0 344.0 
574.0005829790528 48804.0 NaN 1482.5704742818975 0.5115109027663316 504.0 8.0 344.0 
576.0005829790528 48803.0 NaN 1485.7394789579164 0.5148910050585791 504.0 8.0 345.0 
578.0005829790528 48867.0 NaN 1482.4662658650636 0.5131704367763129 507.0 7.0 345.0 
580.0005829790528 48829.0 NaN 1485.6406145624576 0.5124412684655137 506.0 8.0 345.0 
582.0005829790528 48807.0 NaN 1485.5337341349364 0.5108469023895189 509.0 9.0 344.0 
584.0005829790528 48858.0 NaN 1482.4822979291912 0.5146862447581191 509.0 8.0 344.0 
586.0005829790528 48869.0 NaN 1491.7461589846364 0.5100929057906585 514.0 7.0 348.0 
588.0005829790528 48876.0 NaN 1488.6492985971938 0.5100137720465263 514.0 7.0 347.0 
590.0005829790528 48866.0 NaN 1491.7461589846364 0.5100669709267261 514.0 8.0 347.0 
592.0005829790528 48822.0 NaN 1491.6766867067465 0.5106340958276755 516.0 9.0 346.0 
594.0005829790528 48840.0 NaN 1491.6740146960578 0.51140226263668 517.0 8.0 347.0 
596.0005829790528 48867.0 NaN 1494.8002672010696 0.5153029450240034 520.0 7.0 349.0 
598.0005829790528 48858.0 NaN 1488.4916499666 0.5141765892184478 520.0 7.0 347.0 
600.0005829790528 48836.0 NaN 1488.6252505010013 0.5098129787238188 522.0 8.0 346.0 
602.0005829790528 48825.0 NaN 1491.6980627922517 0.5122225127932442 520.0 9.0 346.0 
604.0005829790528 48845.0 NaN 1491.7274549098192 0.5126746459904143 518.0 9.0 346.0 
606.0005829790528 48836.0 NaN 1497.7608550434195 0.5138397830869665 516.0 8.0 349.0 
608.0005829790528 48845.0 NaN 1497.7929191716757 0.5123403150798943 518.0 7.0 350.0 
610.0005829790528 48836.0 NaN 1494.7708750835 0.5103706578367967 518.0 8.0 348.0 
612.0005829790528 48831.0 NaN 1494.7869071476282 0.5091724720144843 512.0 9.0 347.0 
614.0005829790528 48859.0 NaN 1494.7601870407473 0.5104476575253866 513.0 8.0 348.0 
616.0005829790528 48866.0 NaN 1497.8223112892456 0.5133456414389507 515.0 7.0 350.0 
618.0005829790528 48884.0 NaN 1497.7608550434193 0.5112103338019747 517.0 7.0 350.0 
620.0005829790528 48896.0 NaN 1494.680026720108 0.5097881236314276 514.0 8.0 348.0 
622.0005829790528 48869.0 NaN 1500.8630594522372 0.5136198727469248 512.0 9.0 349.0 
624.0005829790528 48861.0 NaN 1503.9438877755515 0.5173039803549652 510.0 8.0 351.0 
626.0005829790528 48841.0 NaN 1507.0621242484979 0.5171687915621319 512.0 7.0 353.0 
628.0005829790528 48807.0 NaN 1507.1583166332655 0.5125960011923051 510.0 7.0 353.0 
630.0005829790528 48786.0 NaN 1507.1663326653302 0.5125330101525958 507.0 8.0 352.0 
632.0005829790528 48744.0 NaN 1507.1503006012017 0.5119670382421507 505.0 9.0 351.0 
634.0005829790528 48744.0 NaN 1516.224448897797 0.5089631195737434 509.0 8.0 355.0 
636.0005829790528 48753.0 NaN 1516.3233132932537 0.5128002878063518 518.0 7.0 356.0 
638.0005829790528 48736.0 NaN 1516.2778891115556 0.5118692239198707 519.0 7.0 356.0 
640.0005829790528 48732.0 NaN 1513.2317969271887 0.5105485604552138 516.0 8.0 354.0 
642.0005829790528 48721.0 NaN 1510.2177688710747 0.5114411577315824 516.0 9.0 352.0 
644.0005829790528 48708.0 NaN 1507.1850367401464 0.5106892865578768 518.0 8.0 352.0 
646.0005829790528 48718.0 NaN 1507.1716766867075 0.5154234384466976 516.0 7.0 353.0 
648.0005829790528 48695.0 NaN 1513.2478289913172 0.5179922604282086 517.0 7.0 355.0 
650.0005829790528 48694.0 NaN 1519.4388777555102 0.5120607216753821 513.0 8.0 356.0 
652.0005829790528 48697.0 NaN 1522.5303941215757 0.5147789037973916 509.0 9.0 356.0 
654.0005829790528 48664.0 NaN 1519.3480293921182 0.5118875798064046 509.0 8.0 356.0 
656.0005829790528 48680.0 NaN 1522.5170340681366 0.5123887810477866 509.0 7.0 358.0 
658.0005829790528 48682.0 NaN 1531.751503006011 0.5128701193304455 508.0 7.0 361.0 
660.0005829790528 48690.0 NaN 1534.907147628591 0.510695926150165 507.0 8.0 361.0 
662.0005829790528 48657.0 NaN 1534.7922511690056 0.5099360920447774 506.0 9.0 360.0 
664.0005829790528 48662.0 NaN 1537.854375417501 0.5112887362563945 506.0 10.0 360.0 
#####################################################################
# End of data export. Simulation finished at: 2019-03-08T20:52+0000 #
#####################################################################
