#####################################################################
# Alchemist log file - simulation started at: 2019-03-03T20:55+0000 #
#####################################################################
# seed = 1.0, bandwidth = 1.0E8, propagationDelay = 0.01, baserange = 56.234132519034915
#
# The columns have the following meaning: 
# time neighbor_count[Sum] <value>@neighbor_count[Sum] packet_size[Mean] mean_delay[Mean] crowd[Sum] overcrowded[Sum] risk[Sum] 
0.0 NaN NaN NaN NaN NaN NaN NaN 
10.000321740020478 6169.0 NaN 4994.952571810287 0.496738043078441 1463.0 34.0 1463.0 
20.00032174002048 6182.0 NaN 4994.843019372078 0.49639163844848383 1464.0 33.0 1464.0 
30.00032174002048 6212.0 NaN 4993.715430861724 0.4997795575482308 1465.0 32.0 1465.0 
40.000321740020475 6224.0 NaN 4994.562458249833 0.4968875862333548 1464.0 33.0 1464.0 
50.000321740020475 6285.0 NaN 4993.547094188377 0.49813756154406963 1464.0 33.0 1464.0 
60.000321740020475 6276.0 NaN 4994.319305277221 0.49818254711501864 1463.0 34.0 1463.0 
70.00027586002048 6272.0 NaN 1524.943219772879 0.4975191536397459 489.0 45.0 321.0 
80.00027586002048 6277.0 NaN 1534.0627922511696 0.4988615391370521 485.0 40.0 329.0 
90.00027586002048 6259.0 NaN 1533.9318637274544 0.4990391166234503 480.0 45.0 324.0 
100.00027586002048 6251.0 NaN 1537.0955243820977 0.49798590969698275 482.0 43.0 327.0 
110.00027586002048 6236.0 NaN 1537.0794923179697 0.5018948910898515 484.0 40.0 330.0 
120.00027586002048 6266.0 NaN 1543.2999331997332 0.4988798169544849 483.0 44.0 328.0 
130.00027586002045 6287.0 NaN 1540.0855043420183 0.5015894026805191 480.0 45.0 326.0 
140.00027586002045 6266.0 NaN 1540.3072812291248 0.5018245645456052 479.0 40.0 331.0 
150.00027586002045 6272.0 NaN 1543.3346693386782 0.5031475005817165 473.0 48.0 324.0 
160.00027586002045 6241.0 NaN 1540.3313293253184 0.5012585325415249 473.0 45.0 326.0 
170.00027586002045 6236.0 NaN 1543.219772879091 0.4997736212798353 471.0 46.0 326.0 
180.00027586002045 6190.0 NaN 1537.2211088844365 0.4995758072662578 471.0 47.0 323.0 
190.00027586002045 6179.0 NaN 1537.13293253173 0.5014456298874505 462.0 54.0 316.0 
200.00027586002045 6131.0 NaN 1537.1997327989302 0.5006299507083952 464.0 53.0 317.0 
210.00027586002045 6096.0 NaN 1527.8450233800936 0.5095517675011254 460.0 53.0 314.0 
220.00027586002045 6080.0 NaN 1524.8630594522367 0.5019418285062192 463.0 53.0 313.0 
230.00027586002045 6001.0 NaN 1531.083500334 0.49956134206113945 456.0 57.0 311.0 
240.00027586002045 5979.0 NaN 1527.7408149632608 0.4974611520662525 450.0 63.0 304.0 
250.00027586002045 5990.0 NaN 1527.7568470273884 0.5010541217733592 452.0 61.0 306.0 
260.00027586002045 5944.0 NaN 1521.7047428189726 0.5071875724578568 470.0 44.0 321.0 
270.00027586002045 5916.0 NaN 1527.7568470273884 0.50554978509838 464.0 48.0 319.0 
280.00027586002045 5871.0 NaN 1527.6713426853726 0.5062103754972237 466.0 44.0 323.0 
290.00027586002045 5826.0 NaN 1533.790247160991 0.5054233302286907 470.0 40.0 329.0 
300.00027586002045 5775.0 NaN 1533.7421509686026 0.5052742421687157 465.0 43.0 326.0 
310.00027586002045 5780.0 NaN 1533.8597194388792 0.5025554920179439 466.0 40.0 329.0 
320.00027586002045 5757.0 NaN 1530.885771543085 0.5011835368405713 464.0 43.0 325.0 
330.00027586002045 5769.0 NaN 1543.0728122912478 0.5009390821344092 466.0 41.0 331.0 
340.00027586002045 5758.0 NaN 1530.86706746827 0.49939491549704057 466.0 42.0 326.0 
350.00027586002045 5786.0 NaN 1524.6546426185723 0.5044608883884695 471.0 40.0 326.0 
360.00027586002045 5737.0 NaN 1521.4963259853032 0.5059213132735224 473.0 39.0 326.0 
370.00027586002045 5728.0 NaN 1506.1482965931853 0.4996571123329435 468.0 47.0 313.0 
380.00027586002045 5764.0 NaN 1499.9251837007355 0.5034402093567946 477.0 42.0 316.0 
390.00027586002045 5772.0 NaN 1506.1295925183706 0.5055937208916927 466.0 49.0 311.0 
400.00027586002045 5777.0 NaN 1506.0814963259847 0.5060102814908655 473.0 43.0 317.0 
410.00027586002045 5806.0 NaN 1518.4128256513025 0.5060987846373062 477.0 43.0 321.0 
420.00027586002045 5756.0 NaN 1493.899799599199 0.505573710714469 474.0 38.0 318.0 
430.00027586002045 5742.0 NaN 1509.2478289913172 0.5084750094320848 483.0 39.0 322.0 
440.00027586002045 5754.0 NaN 1521.5738142952569 0.5079028776409386 487.0 38.0 327.0 
450.00027586002045 5751.0 NaN 1540.032064128255 0.5017287815624653 488.0 39.0 332.0 
460.00027586002045 5747.0 NaN 1543.0460921843699 0.4961602438059671 486.0 39.0 333.0 
470.00027586002045 5739.0 NaN 1533.8517034068154 0.4983927228512135 479.0 40.0 329.0 
480.00027586002045 5734.0 NaN 1527.615230460921 0.5031801941640824 477.0 39.0 328.0 
490.00027586002045 5713.0 NaN 1503.040748162992 0.5062345944130264 473.0 40.0 319.0 
500.00027586002045 5699.0 NaN 1487.6526386105547 0.4975089497211347 469.0 39.0 315.0 
510.00027586002045 5695.0 NaN 1499.9839679358727 0.5060407581694168 474.0 40.0 318.0 
520.0002758600205 5708.0 NaN 1469.3092852371426 0.5048582983266893 465.0 42.0 306.0 
530.0002758600205 5697.0 NaN 1453.9532398129604 0.5032748677787062 471.0 40.0 303.0 
540.0002758600205 5712.0 NaN 1466.2899131596535 0.5054490673727664 470.0 39.0 308.0 
550.0002758600205 5724.0 NaN 1472.3366733466928 0.5085340056124373 475.0 39.0 310.0 
560.0002758600205 5736.0 NaN 1472.3847695390787 0.5062159659418111 472.0 43.0 306.0 
570.0002758600205 5752.0 NaN 1487.7434869739475 0.5079807646618716 473.0 44.0 310.0 
580.0002758600205 5738.0 NaN 1493.832999331998 0.5063082628848724 479.0 41.0 315.0 
590.0002758600205 5704.0 NaN 1503.2037408149638 0.503509911370246 481.0 42.0 317.0 
600.0002758600205 5691.0 NaN 1499.9946559786242 0.5087644612889883 481.0 49.0 309.0 
610.0002758600205 5738.0 NaN 1512.3313293253182 0.5028544246598463 479.0 49.0 313.0 
620.0002758600205 5817.0 NaN 1521.4989979959907 0.5044130509045671 478.0 49.0 316.0 
630.0002758600205 5867.0 NaN 1518.5490981963917 0.5058586523955633 480.0 45.0 319.0 
640.0002758600205 5872.0 NaN 1515.4789579158307 0.5124196115039151 477.0 48.0 315.0 
650.0002758600205 5853.0 NaN 1527.7995991983978 0.5153483472683488 470.0 49.0 318.0 
660.0002758600205 5838.0 NaN 1530.7842351369395 0.5084933340345105 470.0 44.0 324.0 
#####################################################################
# End of data export. Simulation finished at: 2019-03-03T21:01+0000 #
#####################################################################
