#####################################################################
# Alchemist log file - simulation started at: 2019-03-05T12:15+0000 #
#####################################################################
# seed = 3.0, bandwidth = 4216.965034285822, propagationDelay = 0.03162277660168379, baserange = 1000.0
#
# The columns have the following meaning: 
# time neighbor_count[Sum] <value>@neighbor_count[Sum] packet_size[Mean] mean_delay[Mean] crowd[Sum] overcrowded[Sum] risk[Sum] 
0.0 NaN NaN NaN NaN NaN NaN NaN 
2.0005202177163 64068.0 NaN 4988.788243152972 0.19728498129994176 1497.0 0.0 1497.0 
4.000069715178085 210022.0 NaN 4995.823647294589 1.1720296844351876 1497.0 0.0 1497.0 
6.0000697151780855 210022.0 NaN 4993.897127588511 1.1724482541375931 1495.0 2.0 1495.0 
8.000069715178086 210022.0 NaN 4995.169004676019 1.1723846621590321 1495.0 2.0 1495.0 
10.000069715178084 210023.0 NaN 4993.865063460254 1.172505530950066 1495.0 2.0 1495.0 
12.000069715178084 210034.0 NaN 4995.158316633267 1.1724577454746805 1495.0 2.0 1495.0 
14.000069715178084 210035.0 NaN 4993.865063460254 1.172534674278181 1495.0 2.0 1495.0 
16.000069715178086 210046.0 NaN 4995.12625250501 1.172447190304592 1495.0 2.0 1495.0 
18.000069715178082 210065.0 NaN 4993.865063460254 1.172792555131113 1495.0 2.0 1495.0 
20.000069715178082 210073.0 NaN 4995.12625250501 1.173423112948941 1495.0 2.0 1495.0 
22.000069715178082 210079.0 NaN 4993.875751503006 1.1742097672946743 1495.0 2.0 1495.0 
24.000069715178082 210097.0 NaN 4995.136940547763 1.174804030563214 1495.0 2.0 1495.0 
26.000069715178082 210126.0 NaN 4993.907815631263 1.176491832927095 1495.0 2.0 1495.0 
28.000069715178082 210163.0 NaN 4995.169004676019 1.1782240616550166 1495.0 2.0 1495.0 
30.000069715178082 210197.0 NaN 4993.894455577823 1.1804683753696645 1495.0 2.0 1495.0 
32.000069715178086 210202.0 NaN 4995.177020708083 1.1827254645826826 1495.0 2.0 1495.0 
34.000069715178086 210223.0 NaN 4993.913159652639 1.1849388758475363 1495.0 2.0 1495.0 
36.000069715178086 210260.0 NaN 4995.169004676019 1.1874311017237749 1495.0 2.0 1495.0 
38.000069715178086 210318.0 NaN 4993.907815631263 1.1900334971408058 1495.0 2.0 1495.0 
40.000069715178086 210377.0 NaN 4995.174348697395 1.192942608300183 1495.0 2.0 1495.0 
42.000069715178086 210386.0 NaN 4993.913159652639 1.196411797772358 1495.0 2.0 1495.0 
44.000069715178086 210396.0 NaN 4995.158316633267 1.1992373374378986 1495.0 2.0 1495.0 
46.000069715178086 210416.0 NaN 4993.913159652639 1.1984586966480146 1495.0 2.0 1495.0 
48.000069715178086 210458.0 NaN 4995.144956579827 1.1984530813805743 1495.0 2.0 1495.0 
50.000069715178086 210511.0 NaN 4993.907815631263 1.20168647631061 1495.0 2.0 1495.0 
52.000069715178086 210528.0 NaN 4995.094188376754 1.205153318959985 1495.0 2.0 1495.0 
54.000069715178086 210540.0 NaN 4993.897127588511 1.2010507585937311 1495.0 2.0 1495.0 
56.000069715178086 210538.0 NaN 4995.062124248497 1.2017707063715788 1495.0 2.0 1495.0 
58.000069715178086 210556.0 NaN 4993.913159652639 1.2014673058411873 1495.0 2.0 1495.0 
60.000069715178086 210595.0 NaN 4995.078156312626 1.2071621977685132 1495.0 2.0 1495.0 
62.0000849728798 210608.0 NaN 1522.4956579826332 0.7959524231319304 785.0 0.0 365.0 
64.00034291995277 210625.0 NaN 1522.4502338009365 0.7151936530594991 638.0 2.0 363.0 
66.00008466603501 210649.0 NaN 1522.3807615230453 0.7182860643692788 579.0 2.0 363.0 
68.00034291995277 210707.0 NaN 1522.4448897795608 0.7187366373696422 557.0 2.0 363.0 
70.00033353340315 210735.0 NaN 1525.4642618570458 0.7261514604080196 536.0 2.0 364.0 
72.00034291995277 210751.0 NaN 1525.5177020708093 0.7333899626135298 533.0 2.0 364.0 
74.00034291995277 210756.0 NaN 1525.4535738142938 0.7379294814217814 530.0 2.0 364.0 
76.00008466603501 210767.0 NaN 1525.5177020708093 0.7385443100455862 531.0 2.0 364.0 
78.00034291995277 210807.0 NaN 1531.6232464929847 0.7364745084291342 531.0 2.0 366.0 
80.00033353340315 210800.0 NaN 1534.752171008682 0.7421882905805269 530.0 2.0 367.0 
82.00034291995277 210806.0 NaN 1534.6720106880427 0.7336749444187997 530.0 2.0 367.0 
84.00034291995277 210800.0 NaN 1534.7307949231815 0.728512122907625 528.0 2.0 367.0 
86.00008466603501 210807.0 NaN 1534.661322645291 0.727678235441165 526.0 2.0 367.0 
88.00034291995277 210858.0 NaN 1534.714762859052 0.7264517261612666 526.0 2.0 367.0 
90.00033353340315 210842.0 NaN 1537.7234468937882 0.7285088409988512 526.0 2.0 368.0 
92.00034291995277 210810.0 NaN 1537.7768871075482 0.7214486751968502 526.0 2.0 368.0 
94.00034291995277 210806.0 NaN 1537.7100868403456 0.7215379786018824 526.0 2.0 368.0 
96.00008466603501 210779.0 NaN 1540.8496993987978 0.7128882730382741 526.0 2.0 369.0 
98.00034291995277 210837.0 NaN 1540.753507014027 0.7006349492394651 526.0 2.0 369.0 
100.00033353340315 210823.0 NaN 1540.8176352705425 0.6990855184214827 526.0 2.0 369.0 
102.00034291995277 210838.0 NaN 1540.753507014027 0.6986448218473998 526.0 2.0 369.0 
104.00034291995277 210843.0 NaN 1540.8176352705425 0.6999187020877187 526.0 2.0 369.0 
106.00008466603501 210853.0 NaN 1540.756179024718 0.6947778187196522 526.0 2.0 369.0 
108.00034291995277 210912.0 NaN 1540.825651302606 0.6948060988280379 525.0 2.0 369.0 
110.00033353340315 210891.0 NaN 1540.7615230460913 0.6921343574328767 525.0 2.0 369.0 
112.00034291995277 210895.0 NaN 1540.8283233132931 0.690784629828623 525.0 2.0 369.0 
114.00034291995277 210900.0 NaN 1540.7855711422844 0.6903947497655508 526.0 2.0 369.0 
116.00008466603501 210893.0 NaN 1543.8957915831663 0.6902632374948858 528.0 2.0 370.0 
118.00034291995277 210917.0 NaN 1549.9719438877753 0.6938646385107129 528.0 2.0 372.0 
120.00033353340315 210892.0 NaN 1553.1142284569148 0.6929529488896935 528.0 2.0 373.0 
122.00034291995277 210886.0 NaN 1553.0607882431543 0.6926715147224125 528.0 2.0 373.0 
124.00034291995277 210886.0 NaN 1553.140948563794 0.6944532207148373 528.0 2.0 373.0 
126.00008466603501 210866.0 NaN 1550.0146960587842 0.6910782230120003 528.0 2.0 372.0 
128.00034291995277 210903.0 NaN 1547.0033400133607 0.6933654856733407 528.0 2.0 371.0 
130.00033353340314 210908.0 NaN 1546.925851703409 0.694895744952725 528.0 2.0 371.0 
132.00034291995277 210925.0 NaN 1546.9926519706091 0.6965582696703656 528.0 2.0 371.0 
134.00034291995277 210931.0 NaN 1546.909819639279 0.6985121630451787 525.0 2.0 371.0 
136.000084666035 210924.0 NaN 1546.9846359385454 0.695194899413123 523.0 2.0 371.0 
138.00034291995277 210939.0 NaN 1546.9205076820303 0.6975156023295224 523.0 2.0 371.0 
140.00033353340314 210938.0 NaN 1547.0033400133607 0.6972398728846485 524.0 2.0 371.0 
142.00034291995277 210957.0 NaN 1550.0253841015365 0.6987662001042589 523.0 2.0 372.0 
144.00034291995277 210954.0 NaN 1550.0494321977274 0.7004855403159334 524.0 2.0 372.0 
146.000084666035 210941.0 NaN 1543.8663994655997 0.6937655795380102 522.0 2.0 370.0 
148.00034291995277 210946.0 NaN 1543.925183700736 0.6954361316086126 521.0 2.0 370.0 
150.00033353340314 210943.0 NaN 1543.85036740147 0.6973340816561059 521.0 2.0 370.0 
152.00034291995277 210955.0 NaN 1543.9091516366063 0.699582410623067 521.0 2.0 370.0 
154.00034291995277 210944.0 NaN 1540.7828991315967 0.7009550329692598 522.0 2.0 369.0 
156.000084666035 210966.0 NaN 1540.8336673346696 0.6930358660450582 524.0 2.0 369.0 
158.00034291995277 210986.0 NaN 1546.9498997996002 0.695530231095395 522.0 2.0 371.0 
160.00033353340314 210982.0 NaN 1543.927855711424 0.6966021710946132 519.0 2.0 370.0 
162.00034291995277 211012.0 NaN 1543.8583834335336 0.6958769484613941 518.0 2.0 370.0 
164.00034291995277 211010.0 NaN 1543.9331997328002 0.6975887710295022 519.0 2.0 370.0 
166.000084666035 210994.0 NaN 1546.9739478957906 0.6963812742473904 520.0 2.0 371.0 
168.00034291995277 211006.0 NaN 1550.0868403473637 0.700033428775439 520.0 2.0 372.0 
170.00033353340314 211017.0 NaN 1550.0093520374094 0.7022888348083623 522.0 2.0 372.0 
172.00034291995277 211027.0 NaN 1550.0467601870391 0.7038331112923569 521.0 2.0 372.0 
174.00034291995277 211033.0 NaN 1546.9231796927181 0.7054638718864551 521.0 2.0 371.0 
176.000084666035 211022.0 NaN 1540.8523714094845 0.6980304003228237 521.0 2.0 369.0 
178.00034291995277 211022.0 NaN 1537.7127588510366 0.7003220981507581 521.0 2.0 368.0 
180.00033353340314 211017.0 NaN 1540.8764195056792 0.699315183456658 520.0 2.0 369.0 
182.00034291995277 211033.0 NaN 1537.736806947227 0.7009851128896847 519.0 2.0 368.0 
184.00034291995277 211035.0 NaN 1537.776887107548 0.7016048247318181 519.0 2.0 368.0 
186.000084666035 211013.0 NaN 1537.7234468937884 0.6961972440051696 519.0 2.0 368.0 
188.00034291995277 211019.0 NaN 1537.7929191716755 0.6974789676167785 518.0 2.0 368.0 
190.00033353340314 211015.0 NaN 1537.7341349365392 0.6952222411340555 517.0 2.0 368.0 
192.00034291995277 211007.0 NaN 1534.7040748163001 0.6903217638036516 517.0 2.0 367.0 
194.00034291995277 210998.0 NaN 1534.6559786239152 0.6929164482205612 517.0 2.0 367.0 
196.000084666035 210980.0 NaN 1534.7120908483637 0.6938841537012385 517.0 2.0 367.0 
198.00034291995277 210986.0 NaN 1534.6666666666663 0.6973991526838782 517.0 2.0 367.0 
200.00033353340314 210985.0 NaN 1537.806279225118 0.6997459135127609 518.0 2.0 368.0 
202.00034291995277 210986.0 NaN 1540.8176352705427 0.7001507293427688 519.0 2.0 369.0 
204.00034291995277 210986.0 NaN 1540.8924515698066 0.701652878920485 517.0 2.0 369.0 
206.000084666035 211092.0 NaN 1540.8336673346698 0.7030810980035771 517.0 2.0 369.0 
208.00034291995277 211083.0 NaN 1540.8977955911816 0.7052922051545697 517.0 2.0 369.0 
210.00033353340314 211061.0 NaN 1537.7608550434184 0.7049999532071076 519.0 2.0 368.0 
212.00034291995277 211071.0 NaN 1534.717434869739 0.705459407259831 520.0 2.0 367.0 
214.00034291995277 211081.0 NaN 1531.5537742150975 0.7094042377721136 517.0 2.0 366.0 
216.000084666035 211157.0 NaN 1531.6526386105547 0.7097933318984715 514.0 2.0 366.0 
218.00034291995277 211155.0 NaN 1528.5050100200394 0.7130367061582661 514.0 2.0 365.0 
220.00033353340314 211157.0 NaN 1528.5637942551757 0.7169742933812603 512.0 2.0 365.0 
222.00034291995277 211152.0 NaN 1528.5050100200394 0.7134271703478804 512.0 2.0 365.0 
224.00034291995277 211164.0 NaN 1528.537074148297 0.7147279787967658 513.0 2.0 365.0 
226.000084666035 211205.0 NaN 1528.4889779559117 0.7138585971693443 513.0 2.0 365.0 
228.00034291995277 211189.0 NaN 1531.6366065464274 0.7118007651522801 512.0 2.0 366.0 
230.00033353340314 211210.0 NaN 1531.5938543754182 0.7183354833563236 513.0 2.0 366.0 
232.00034291995277 211215.0 NaN 1534.7414829659301 0.7225008447207258 513.0 2.0 367.0 
234.00034291995277 211220.0 NaN 1537.7474949899818 0.7240468175829228 512.0 2.0 368.0 
236.000084666035 211261.0 NaN 1537.7608550434184 0.7242198963491899 514.0 2.0 368.0 
238.00034291995277 211262.0 NaN 1537.7074148296608 0.727814162031692 513.0 2.0 368.0 
240.00033353340314 211284.0 NaN 1531.6098864395453 0.7321895858754952 513.0 2.0 366.0 
242.00034291995277 211272.0 NaN 1534.6265865063453 0.715994468865037 513.0 2.0 367.0 
244.00034291995277 211264.0 NaN 1534.67468269873 0.7087790208130692 513.0 2.0 367.0 
246.000084666035 211301.0 NaN 1534.6239144956576 0.708564186895936 515.0 2.0 367.0 
248.00034291995277 211319.0 NaN 1528.5237140948548 0.7074041837145579 514.0 2.0 365.0 
250.00033353340314 211364.0 NaN 1528.4649298597183 0.707774353540465 513.0 2.0 365.0 
252.00034291995277 211370.0 NaN 1528.5023380093521 0.705628072318965 513.0 2.0 365.0 
254.00034291995277 211351.0 NaN 1525.3413493653975 0.707231498304622 512.0 2.0 364.0 
256.00008466603504 211338.0 NaN 1525.4054776219093 0.7064218424007416 513.0 2.0 364.0 
258.00034291995274 211370.0 NaN 1525.3360053440208 0.7023756089713089 513.0 2.0 364.0 
260.00033353340314 211389.0 NaN 1525.3734134936547 0.7016183253689896 515.0 2.0 364.0 
262.00034291995274 211404.0 NaN 1525.32531730127 0.7061571123680863 515.0 2.0 364.0 
264.00034291995274 211388.0 NaN 1528.4863059452246 0.708289662296529 515.0 2.0 365.0 
266.00008466603504 211392.0 NaN 1528.4542418169665 0.7081313829412418 515.0 2.0 365.0 
268.00034291995274 211440.0 NaN 1537.7528390113546 0.7067346621158228 514.0 2.0 368.0 
270.00033353340314 211527.0 NaN 1534.6506346025367 0.7083329799251503 512.0 2.0 367.0 
272.00034291995274 211545.0 NaN 1531.5885103540425 0.7103885986636722 512.0 2.0 366.0 
274.00034291995274 211534.0 NaN 1531.5644622578482 0.7101255503080366 512.0 2.0 366.0 
276.00008466603504 211542.0 NaN 1531.5778223112907 0.7057283872730774 512.0 2.0 366.0 
278.00034291995274 211578.0 NaN 1537.6593186372727 0.7065624162651254 515.0 2.0 368.0 
280.00033353340314 211623.0 NaN 1540.7962591850362 0.709251062834288 515.0 2.0 369.0 
282.00034291995274 211639.0 NaN 1540.7294589178364 0.709567711849289 514.0 2.0 369.0 
284.00034291995274 211647.0 NaN 1537.7127588510364 0.7125628152888352 514.0 2.0 368.0 
286.00008466603504 211619.0 NaN 1534.581162324648 0.7099674784889316 512.0 2.0 367.0 
288.00034291995274 211631.0 NaN 1534.6372745490999 0.7128775354983496 512.0 2.0 367.0 
290.00033353340314 211652.0 NaN 1534.5971943887794 0.7188642469883393 512.0 2.0 367.0 
292.00034291995274 211652.0 NaN 1534.6559786239156 0.7161251505966346 511.0 2.0 367.0 
294.00034291995274 211648.0 NaN 1534.5838343353362 0.7154384249158126 510.0 2.0 367.0 
296.00008466603504 211655.0 NaN 1534.6132264529067 0.7162962790167562 510.0 2.0 367.0 
298.00034291995274 211643.0 NaN 1537.6913827655299 0.7191391081098274 510.0 2.0 368.0 
300.00033353340314 211655.0 NaN 1537.6753507014023 0.7213160435763827 509.0 2.0 368.0 
302.00034291995274 211683.0 NaN 1537.696726786909 0.7277322815297605 508.0 2.0 368.0 
304.00034291995274 211689.0 NaN 1537.7047428189726 0.7344979350266265 508.0 2.0 368.0 
306.00008466603504 211650.0 NaN 1534.6479625918519 0.7293355682005808 510.0 2.0 367.0 
308.00034291995274 211631.0 NaN 1537.6673346693365 0.7296898766770621 507.0 2.0 368.0 
310.00033353340314 211645.0 NaN 1531.5377421509702 0.7327575134184053 507.0 2.0 366.0 
312.00034291995274 211664.0 NaN 1531.5217100868392 0.7388411353717993 505.0 2.0 366.0 
314.00034291995274 211648.0 NaN 1531.4976619906479 0.7388123100015607 505.0 2.0 366.0 
316.00008466603504 211625.0 NaN 1534.5464261857062 0.7360911656157362 507.0 2.0 367.0 
318.00034291995274 211606.0 NaN 1537.6406145624574 0.7281251262679008 509.0 2.0 368.0 
320.00033353340314 211599.0 NaN 1537.6406145624574 0.728789412319262 508.0 2.0 368.0 
322.00034291995274 211617.0 NaN 1540.7828991315973 0.7342822295422639 507.0 2.0 369.0 
324.00034291995274 211615.0 NaN 1540.7748830995338 0.7378032218585506 506.0 2.0 369.0 
326.00008466603504 211627.0 NaN 1540.7748830995338 0.7383269668080856 507.0 2.0 369.0 
328.00034291995274 211624.0 NaN 1537.6833667334663 0.7374033356266984 506.0 2.0 368.0 
330.00033353340314 211591.0 NaN 1540.7775551102181 0.7352059598686885 506.0 2.0 369.0 
332.00034291995274 211566.0 NaN 1540.7294589178366 0.7344340558445875 506.0 2.0 369.0 
334.00034291995274 211546.0 NaN 1537.7154308617244 0.7310340920710553 507.0 2.0 368.0 
336.00008466603504 211525.0 NaN 1531.5511022044093 0.7249985522870382 507.0 2.0 366.0 
338.00034291995274 211534.0 NaN 1531.5377421509697 0.7277267410702171 508.0 2.0 366.0 
340.00033353340314 211538.0 NaN 1528.4595858383452 0.7312215078984264 509.0 2.0 365.0 
342.00034291995274 211530.0 NaN 1528.4809619238456 0.7345882452715908 509.0 2.0 365.0 
344.00034291995274 211517.0 NaN 1531.5484301937208 0.732477304186547 509.0 2.0 366.0 
346.00008466603504 211463.0 NaN 1531.5377421509697 0.7284393430828634 509.0 2.0 366.0 
348.00034291995274 211453.0 NaN 1528.4782899131606 0.7270834465417011 508.0 2.0 365.0 
350.00033353340314 211437.0 NaN 1525.3974615898455 0.7282880706799205 508.0 2.0 364.0 
352.00034291995274 211440.0 NaN 1525.3947895791575 0.7349072146088081 514.0 2.0 364.0 
354.00034291995274 211418.0 NaN 1525.3841015364067 0.7279270674375138 515.0 2.0 364.0 
356.00008466603504 211410.0 NaN 1525.3841015364067 0.7244715896384133 514.0 2.0 364.0 
358.00034291995274 211418.0 NaN 1525.3841015364067 0.7216931564649953 512.0 2.0 364.0 
360.00033353340314 211398.0 NaN 1528.4301937207733 0.7238444231961959 512.0 2.0 365.0 
362.00034291995274 211417.0 NaN 1528.427521710088 0.7275124234983401 515.0 2.0 365.0 
364.00034291995274 211399.0 NaN 1525.3627254509006 0.7294898772733678 514.0 2.0 364.0 
366.00008466603504 211345.0 NaN 1509.9772879091524 0.7229582798871805 516.0 2.0 359.0 
368.00034291995274 211314.0 NaN 1500.798931195725 0.719228115631594 514.0 2.0 356.0 
370.00033353340314 211298.0 NaN 1510.0253841015365 0.7224811563691138 514.0 2.0 359.0 
372.00034291995274 211298.0 NaN 1510.0040080160331 0.7264648767514618 513.0 2.0 359.0 
374.00034291995274 211281.0 NaN 1509.987975951903 0.7266101469469401 514.0 2.0 359.0 
376.00008466603504 211287.0 NaN 1509.9853039412162 0.7277091020399503 514.0 2.0 359.0 
378.00034291995274 211273.0 NaN 1509.9639278557102 0.7286172343865076 517.0 2.0 359.0 
380.00033353340314 211260.0 NaN 1509.9639278557102 0.7312863055766221 517.0 2.0 359.0 
382.00034291995274 211257.0 NaN 1506.8937875751512 0.7392388692275462 514.0 2.0 358.0 
384.00034291995274 211246.0 NaN 1509.9906479625909 0.7403897314951587 514.0 2.0 359.0 
386.00008466603504 211226.0 NaN 1519.2304609218447 0.740133301271344 517.0 2.0 362.0 
388.00034291995274 211249.0 NaN 1510.0440881763539 0.7460084874482331 517.0 2.0 359.0 
390.00033353340314 211237.0 NaN 1510.0253841015365 0.7529185106568643 514.0 2.0 359.0 
392.00034291995274 211234.0 NaN 1513.0981963927848 0.7587834063730989 515.0 2.0 360.0 
394.00034291995274 211239.0 NaN 1513.071476285906 0.7573496868782231 516.0 2.0 360.0 
396.00008466603504 211156.0 NaN 1513.0848363393457 0.7561830589032349 518.0 2.0 360.0 
398.00034291995274 211173.0 NaN 1510.0173680694727 0.75958879682172 519.0 2.0 359.0 
400.00033353340314 211158.0 NaN 1513.1195724782908 0.7680549992133834 519.0 2.0 360.0 
402.00034291995274 211152.0 NaN 1513.1008684034728 0.7741075740252104 520.0 2.0 360.0 
404.00034291995274 211200.0 NaN 1519.2438209752822 0.7826992422190662 519.0 2.0 362.0 
406.00008466603504 211051.0 NaN 1522.3353373413486 0.7755985742781579 521.0 2.0 363.0 
408.00034291995274 211038.0 NaN 1522.316633266534 0.7713392438496107 520.0 2.0 363.0 
410.00033353340314 211018.0 NaN 1525.3894455577818 0.7515248182400704 520.0 2.0 364.0 
412.00034291995274 211007.0 NaN 1525.3787575150295 0.7508778012426661 522.0 2.0 364.0 
414.00034291995274 210989.0 NaN 1525.3787575150295 0.7468926304015588 526.0 2.0 364.0 
416.00008466603504 210920.0 NaN 1525.3627254509006 0.7401553652908808 526.0 2.0 364.0 
418.00034291995274 210948.0 NaN 1525.3466933867728 0.7416600096836313 526.0 2.0 364.0 
420.00033353340314 210942.0 NaN 1513.0394121576478 0.745307809261538 527.0 2.0 360.0 
422.00034291995274 210967.0 NaN 1509.9398797595184 0.7518702645508751 527.0 2.0 359.0 
424.00034291995274 210994.0 NaN 1503.818303273213 0.75377407161776 524.0 2.0 357.0 
426.00008466603504 210913.0 NaN 1513.0501002004003 0.7485021771612534 516.0 2.0 360.0 
428.00034291995274 210851.0 NaN 1503.834335337342 0.7394305846638878 516.0 2.0 357.0 
430.00033353340314 210866.0 NaN 1503.786239144956 0.744630452129678 517.0 2.0 357.0 
432.00034291995274 210855.0 NaN 1500.7027388109548 0.7442998303057339 518.0 2.0 356.0 
434.00034291995274 210862.0 NaN 1503.7755511022035 0.7487569377843498 519.0 2.0 357.0 
436.00008466603504 210759.0 NaN 1516.117568470273 0.7418728604638644 523.0 2.0 361.0 
438.00034291995274 210722.0 NaN 1519.1690046760182 0.7373303356482643 525.0 2.0 362.0 
440.00033353340314 210743.0 NaN 1519.1422845691375 0.7410674614780527 524.0 2.0 362.0 
442.00034291995274 210777.0 NaN 1516.0454241816976 0.7435584617085892 525.0 2.0 361.0 
444.00034291995274 210785.0 NaN 1519.1155644622568 0.7473332299028298 523.0 2.0 362.0 
446.00008466603504 210767.0 NaN 1528.355377421509 0.7490895763929301 526.0 2.0 365.0 
448.00034291995274 210702.0 NaN 1534.4635938543752 0.7395743346748288 528.0 2.0 367.0 
450.00033353340314 210717.0 NaN 1537.5150300601188 0.7411886425193283 527.0 2.0 368.0 
452.00034291995274 210739.0 NaN 1546.7548430193729 0.746012444405314 528.0 2.0 371.0 
454.00034291995274 210756.0 NaN 1546.7655310621246 0.7501474254769763 527.0 2.0 371.0 
456.00008466603504 210733.0 NaN 1549.849031396127 0.7515909173135468 527.0 2.0 372.0 
458.00034291995274 210712.0 NaN 1546.7895791583178 0.7516586715069983 528.0 2.0 371.0 
460.00033353340314 210717.0 NaN 1546.7869071476275 0.757256004051579 525.0 2.0 371.0 
462.00034291995274 210727.0 NaN 1546.7655310621246 0.7627986259656911 526.0 2.0 371.0 
464.00034291995274 210728.0 NaN 1546.7628590514364 0.7678143429091913 526.0 2.0 371.0 
466.00008466603504 210710.0 NaN 1543.623246492985 0.7677891269571809 527.0 2.0 370.0 
468.00034291995274 210700.0 NaN 1543.6820307281243 0.7685471724728148 528.0 2.0 370.0 
470.00033353340314 210678.0 NaN 1543.706078824316 0.7707140578929094 523.0 2.0 370.0 
472.00034291995274 210633.0 NaN 1537.6192384769547 0.7688549226877487 522.0 2.0 368.0 
474.00034291995274 210632.0 NaN 1528.3687374749484 0.7673895422514734 519.0 2.0 365.0 
476.00008466603504 210628.0 NaN 1525.3199732798914 0.7664304230535107 517.0 2.0 364.0 
478.00034291995274 210554.0 NaN 1522.2070808283243 0.7583274552945989 518.0 2.0 363.0 
480.00033353340314 210522.0 NaN 1525.3199732798914 0.7575443067882139 516.0 2.0 364.0 
482.00034291995274 210500.0 NaN 1525.274549098197 0.7597722498361456 518.0 2.0 364.0 
484.00034291995274 210515.0 NaN 1512.9886439545749 0.7634538394003325 519.0 2.0 360.0 
486.00008466603504 210566.0 NaN 1509.8704074816292 0.7647674957959236 516.0 2.0 359.0 
488.00034291995274 210551.0 NaN 1500.6840347361383 0.7552158947988273 514.0 2.0 356.0 
490.00033353340314 210575.0 NaN 1497.629926519707 0.7566287604194375 515.0 2.0 355.0 
492.00034291995274 210549.0 NaN 1491.5190380761535 0.7596940431059336 515.0 2.0 353.0 
494.00034291995274 210543.0 NaN 1497.6352705410818 0.7620165450338632 513.0 2.0 355.0 
496.00008466603504 210572.0 NaN 1494.5918503674009 0.7636965333800045 511.0 2.0 354.0 
498.00034291995274 210524.0 NaN 1494.5597862391455 0.7505266008608491 510.0 2.0 354.0 
500.00033353340314 210508.0 NaN 1494.5758183032729 0.7542317000913601 509.0 2.0 354.0 
502.00034291995274 210431.0 NaN 1491.4923179692726 0.74823432526013 512.0 2.0 353.0 
504.00034291995274 210424.0 NaN 1488.4328657314634 0.7415965140145719 515.0 2.0 352.0 
506.00008466603504 210485.0 NaN 1488.4462257849023 0.7448095721310627 514.0 2.0 352.0 
508.00034291995274 210470.0 NaN 1488.4889779559112 0.734197892265486 514.0 2.0 352.0 
510.00033353340314 210473.0 NaN 1491.5136940547754 0.7380612129759044 513.0 2.0 353.0 
512.0003429199528 210447.0 NaN 1494.6025384101542 0.7397453966429647 511.0 2.0 354.0 
514.0003429199528 210456.0 NaN 1497.6619906479634 0.7426967383327889 512.0 2.0 355.0 
516.000084666035 210480.0 NaN 1491.5644622578482 0.7444158036511341 514.0 2.0 353.0 
518.0003429199528 210439.0 NaN 1482.3567134268542 0.7353379383349251 509.0 2.0 350.0 
520.0003335334031 210443.0 NaN 1476.2164328657304 0.7391031889613591 511.0 2.0 348.0 
522.0003429199528 210448.0 NaN 1470.030728122912 0.7383718625802824 512.0 2.0 346.0 
524.0003429199528 210486.0 NaN 1466.9926519706084 0.741960667280371 506.0 2.0 345.0 
526.000084666035 210486.0 NaN 1457.766199064797 0.7424961291295405 506.0 2.0 342.0 
528.0003429199528 210431.0 NaN 1457.7635270541086 0.7340705072655015 504.0 2.0 342.0 
530.0003335334031 210444.0 NaN 1460.8229792919178 0.7429006698968176 504.0 2.0 343.0 
532.0003429199528 210576.0 NaN 1460.8416833667343 0.7499405240032049 509.0 2.0 343.0 
534.0003429199528 210658.0 NaN 1463.8717434869734 0.7586369410216773 509.0 2.0 344.0 
536.000084666035 210619.0 NaN 1466.9766199064804 0.7575510394784022 510.0 2.0 345.0 
538.0003429199528 210572.0 NaN 1470.0547762191059 0.7506043948473141 511.0 2.0 346.0 
540.0003335334031 210527.0 NaN 1470.0334001336 0.7469708655305156 511.0 2.0 346.0 
542.0003429199528 210580.0 NaN 1470.030728122912 0.7448497281976606 511.0 2.0 346.0 
544.0003429199528 210579.0 NaN 1473.0901803607208 0.7478141728283864 513.0 2.0 347.0 
546.000084666035 210513.0 NaN 1479.2545090180365 0.7436801368988744 512.0 2.0 349.0 
548.0003429199528 210486.0 NaN 1476.1790247160995 0.7378658818537102 512.0 2.0 348.0 
550.0003335334031 210487.0 NaN 1473.164996659987 0.7380749165030575 511.0 2.0 347.0 
552.0003429199528 210509.0 NaN 1473.0714762859059 0.7418382993835314 516.0 2.0 347.0 
554.0003429199528 210589.0 NaN 1479.1957247828996 0.7457550172214366 519.0 2.0 349.0 
556.000084666035 210578.0 NaN 1479.198396793588 0.7400020647148154 519.0 2.0 349.0 
558.0003429199528 210542.0 NaN 1479.1850367401464 0.734203377468023 519.0 2.0 349.0 
560.0003335334031 210546.0 NaN 1466.9124916499663 0.7358963300471374 517.0 2.0 345.0 
562.0003429199528 210575.0 NaN 1466.9311957247821 0.7403742782087758 511.0 2.0 345.0 
564.0003429199528 210652.0 NaN 1469.9906479625913 0.7448115847457243 512.0 2.0 346.0 
566.000084666035 210664.0 NaN 1473.0607882431534 0.7438650080666704 514.0 2.0 347.0 
568.0003429199528 210623.0 NaN 1479.2117568470271 0.73909373721917 514.0 2.0 349.0 
570.0003335334031 210620.0 NaN 1479.2090848363391 0.7437474170447205 517.0 2.0 349.0 
572.0003429199528 210632.0 NaN 1479.2144288577156 0.746318540804052 517.0 2.0 349.0 
574.0003429199528 210714.0 NaN 1479.227788911155 0.7517837035805269 516.0 2.0 349.0 
576.000084666035 210703.0 NaN 1491.5110220440888 0.753655078262409 518.0 2.0 353.0 
578.0003429199528 210669.0 NaN 1488.4248496993996 0.7442583370640323 521.0 2.0 352.0 
580.0003335334031 210678.0 NaN 1485.370741482965 0.743763666586244 522.0 2.0 351.0 
582.0003429199528 210713.0 NaN 1485.3573814295262 0.7459683193614762 520.0 2.0 351.0 
584.0003429199528 210742.0 NaN 1482.2845691382759 0.7474400152322087 521.0 2.0 350.0 
586.000084666035 210755.0 NaN 1482.2605210420836 0.7458977820612201 524.0 2.0 350.0 
588.0003429199528 210741.0 NaN 1482.2712090848363 0.7427000682261642 523.0 2.0 350.0 
590.0003335334031 210769.0 NaN 1485.3520374081488 0.7420812240612957 523.0 2.0 351.0 
592.0003429199528 210746.0 NaN 1491.4816299265192 0.7427242375157579 525.0 2.0 353.0 
594.0003429199528 210802.0 NaN 1491.460253841016 0.7438834243184216 528.0 2.0 353.0 
596.000084666035 210804.0 NaN 1488.3740814963264 0.7448910970532914 528.0 2.0 352.0 
598.0003429199528 210790.0 NaN 1479.1957247828996 0.7435809773544972 525.0 2.0 349.0 
600.0003335334031 210829.0 NaN 1485.2905811623252 0.7477471615573595 528.0 2.0 351.0 
602.0003429199528 210798.0 NaN 1482.287241148964 0.7431600928047174 528.0 2.0 350.0 
604.0003429199528 210831.0 NaN 1482.2150968603876 0.7450984479823288 524.0 2.0 350.0 
606.000084666035 210842.0 NaN 1485.3653974615904 0.748182877699743 525.0 2.0 351.0 
608.0003429199528 210799.0 NaN 1491.4415497661996 0.7417031862969207 527.0 2.0 353.0 
610.0003335334031 210814.0 NaN 1497.6406145624574 0.7439802921416576 528.0 2.0 355.0 
612.0003429199528 210788.0 NaN 1494.5624582498335 0.7364975801729127 527.0 2.0 354.0 
614.0003429199528 210783.0 NaN 1494.5731462925846 0.7393824634839379 527.0 2.0 354.0 
616.000084666035 210778.0 NaN 1491.4923179692726 0.7412192389441676 527.0 2.0 353.0 
618.0003429199528 210779.0 NaN 1488.4248496993996 0.7396195321714512 527.0 2.0 352.0 
620.0003335334031 210805.0 NaN 1494.5838343353366 0.7405698327896701 528.0 2.0 354.0 
622.0003429199528 210850.0 NaN 1500.7615230460917 0.7455687434088266 525.0 2.0 356.0 
624.0003429199528 210857.0 NaN 1503.8236472945896 0.7457336823105775 525.0 2.0 357.0 
626.000084666035 210864.0 NaN 1506.899131596527 0.7486653904388407 526.0 2.0 358.0 
628.0003429199528 210840.0 NaN 1506.9205076820301 0.7490894598829071 530.0 2.0 358.0 
630.0003335334031 210858.0 NaN 1506.9338677354717 0.7491709996175036 529.0 2.0 358.0 
632.0003429199528 210903.0 NaN 1510.0334001335998 0.7564643804934562 527.0 2.0 359.0 
634.0003429199528 210918.0 NaN 1516.1710086840353 0.757966344387206 525.0 3.0 360.0 
636.000084666035 210934.0 NaN 1516.0988643954565 0.7586754510747374 527.0 3.0 360.0 
638.0003429199528 210910.0 NaN 1519.2251169004667 0.7557887534146596 526.0 3.0 361.0 
640.0003335334031 210855.0 NaN 1516.1282565130266 0.7488131379661781 527.0 3.0 360.0 
642.0003429199528 210862.0 NaN 1519.2304609218443 0.7469224546296125 526.0 3.0 361.0 
644.0003429199528 210898.0 NaN 1513.092852371409 0.7459575438816151 526.0 2.0 360.0 
646.000084666035 210882.0 NaN 1513.0875083500343 0.7410266866051846 523.0 2.0 360.0 
648.0003429199528 210851.0 NaN 1519.1930527722102 0.7382004332123024 524.0 2.0 362.0 
650.0003335334031 210825.0 NaN 1522.2765531062114 0.7320497863314818 521.0 2.0 363.0 
652.0003429199528 210831.0 NaN 1519.2010688042744 0.7346183478188227 520.0 2.0 362.0 
654.0003429199528 210859.0 NaN 1519.1823647294575 0.7331621646967592 521.0 2.0 362.0 
656.000084666035 210873.0 NaN 1519.174348697394 0.7326436336460539 521.0 2.0 362.0 
658.0003429199528 210857.0 NaN 1522.2525050100191 0.7237748092756641 518.0 2.0 363.0 
660.0003335334031 210822.0 NaN 1528.4221776887102 0.7183138166382407 517.0 2.0 365.0 
662.0003429199528 210848.0 NaN 1528.382097528391 0.7216791719468028 515.0 2.0 365.0 
664.0003429199528 210880.0 NaN 1528.3660654642626 0.723784083275025 517.0 2.0 365.0 
#####################################################################
# End of data export. Simulation finished at: 2019-03-05T13:03+0000 #
#####################################################################
