#####################################################################
# Alchemist log file - simulation started at: 2019-03-03T16:58+0000 #
#####################################################################
# seed = 1.0, bandwidth = 5623413.251903491, propagationDelay = 10.0, baserange = 1000.0
#
# The columns have the following meaning: 
# time neighbor_count[Sum] <value>@neighbor_count[Sum] packet_size[Mean] mean_delay[Mean] crowd[Sum] overcrowded[Sum] risk[Sum] 
0.0 NaN NaN NaN NaN NaN NaN NaN 
10.000417374280275 NaN NaN 4988.0 NaN 1497.0 0.0 1497.0 
20.000417374280275 210025.0 NaN 4996.7374749498995 8.999393071941766 1497.0 0.0 1497.0 
30.000417374280275 210091.0 NaN 4994.148296593186 8.003407153461074 1497.0 0.0 1497.0 
40.000417374280275 210264.0 NaN 4996.758851035404 7.008796740091993 1497.0 0.0 1497.0 
50.000417374280275 210368.0 NaN 4994.185704742819 6.007174584744053 1497.0 0.0 1497.0 
60.000417374280275 210473.0 NaN 4996.7080828323315 5.020886512056076 1497.0 0.0 1497.0 
70.00041737428027 210531.0 NaN 1525.4562458249823 4.0186928255756085 670.0 0.0 366.0 
80.00041737428027 210442.0 NaN 1535.8557114228454 3.012748462109837 605.0 2.0 367.0 
90.00041737428027 210494.0 NaN 1534.9605878423517 2.0071619215390353 584.0 0.0 369.0 
100.00041737428027 210603.0 NaN 1538.5624582498333 1.0072451250230827 557.0 1.0 369.0 
110.00041737428027 210604.0 NaN 1538.875083500334 5.497949303546256 552.0 0.0 370.0 
120.00041737428027 210630.0 NaN 1540.8176352705425 10.000449160965125 547.0 1.0 370.0 
130.0004173742803 210697.0 NaN 1538.7922511690056 9.005002786803441 537.0 3.0 367.0 
140.0004173742803 210746.0 NaN 1534.8323313293272 8.006680161941567 537.0 0.0 369.0 
150.0004173742803 210761.0 NaN 1547.983967935873 7.00722830772659 535.0 2.0 371.0 
160.0004173742803 210829.0 NaN 1541.0233800935184 6.009956008325745 535.0 0.0 371.0 
170.0004173742803 210841.0 NaN 1541.859719438879 5.010044611513853 533.0 2.0 369.0 
180.0004173742803 210824.0 NaN 1537.8677354709428 4.006387570047613 536.0 0.0 370.0 
190.0004173742803 210830.0 NaN 1541.8356713426845 3.0082364086766726 533.0 2.0 369.0 
200.0004173742803 210814.0 NaN 1538.1135604542426 2.0169160897824177 533.0 0.0 370.0 
210.0004173742803 210872.0 NaN 1535.369405477621 1.0113673889909958 528.0 2.0 367.0 
220.0004173742803 210838.0 NaN 1529.4642618570456 5.5014624945539925 529.0 0.0 367.0 
230.0004173742803 210798.0 NaN 1528.6706746826999 10.000364435973768 530.0 0.0 367.0 
240.0004173742803 210915.0 NaN 1532.4221776887093 9.008187794907544 526.0 2.0 366.0 
250.0004173742803 211080.0 NaN 1528.582498329993 8.012990973090155 519.0 2.0 365.0 
260.0004173742803 211100.0 NaN 1520.0855043420183 7.011715704207893 518.0 2.0 362.0 
270.0004173742803 211108.0 NaN 1528.6038744154998 6.009503420340125 521.0 2.0 365.0 
280.0004173742803 211312.0 NaN 1529.3012692050754 5.0145809569954185 520.0 2.0 365.0 
290.0004173742803 211303.0 NaN 1531.5511022044093 4.017682933199673 520.0 0.0 368.0 
300.0004173742803 211238.0 NaN 1535.4014696058796 3.0186625745258118 514.0 2.0 367.0 
310.0004173742803 211179.0 NaN 1541.19973279893 2.0215904541766134 513.0 1.0 370.0 
320.0004173742803 211186.0 NaN 1535.2438209752818 1.016225272505192 512.0 2.0 367.0 
330.0004173742803 211041.0 NaN 1541.5577822311272 5.50731394491677 515.0 0.0 371.0 
340.0004173742803 210855.0 NaN 1528.5317301269183 10.000199874162446 509.0 2.0 365.0 
350.0004173742803 210922.0 NaN 1522.9899799599186 9.010214088779051 511.0 2.0 363.0 
360.0004173742803 210933.0 NaN 1516.2324649298605 8.017000162293517 512.0 1.0 362.0 
370.0004173742803 210922.0 NaN 1513.6967267869084 7.021414021923038 516.0 2.0 360.0 
380.0004173742803 210755.0 NaN 1503.8503674014703 6.023115491610326 517.0 2.0 357.0 
390.0004173742803 210495.0 NaN 1510.6506346025374 5.020259022360692 518.0 2.0 359.0 
400.0004173742803 210399.0 NaN 1519.2678690714756 4.036032076630143 520.0 1.0 363.0 
410.0004173742803 210420.0 NaN 1528.9832999332002 3.025945357634679 521.0 2.0 365.0 
420.0004173742803 210295.0 NaN 1519.5190380761542 2.021835347527808 518.0 2.0 362.0 
430.0004173742803 210269.0 NaN 1513.498997995991 1.025440251261704 521.0 3.0 359.0 
440.0004173742803 210069.0 NaN 1519.7835671342696 5.50536249577976 524.0 0.0 364.0 
450.0004173742803 209895.0 NaN 1525.4375417501667 9.999912253851846 528.0 2.0 364.0 
460.0004173742803 210016.0 NaN 1531.9786239144967 9.01837441569606 524.0 2.0 366.0 
470.0004173742803 210104.0 NaN 1534.6239144956576 8.026402509234861 522.0 2.0 367.0 
480.0004173742803 210010.0 NaN 1522.6426185704734 7.031500243247408 518.0 2.0 363.0 
490.0004173742803 209934.0 NaN 1506.8884435537736 6.026365099998831 519.0 0.0 360.0 
500.0004173742803 209982.0 NaN 1482.7281229124912 5.026020552277924 518.0 2.0 350.0 
510.0004173742803 209898.0 NaN 1494.7174348697386 4.025946062225988 525.0 0.0 356.0 
520.0004173742802 209902.0 NaN 1485.803607214428 3.0265546303783326 516.0 2.0 351.0 
530.0004173742802 209922.0 NaN 1467.2945891783556 2.0240404699340964 520.0 0.0 347.0 
540.0004173742802 210044.0 NaN 1461.3734134936544 1.0228473372646385 512.0 2.0 343.0 
550.0004173742802 209855.0 NaN 1473.6700066800272 5.513791468352071 515.0 0.0 349.0 
560.0004173742802 209636.0 NaN 1467.0434201736814 9.999682319792733 520.0 0.0 347.0 
570.0004173742802 209882.0 NaN 1476.6733466933874 9.016498334177488 517.0 2.0 348.0 
580.0004173742802 210115.0 NaN 1485.57114228457 8.024216653532132 518.0 0.0 353.0 
590.0004173742802 210123.0 NaN 1492.0988643954565 7.025853555326706 521.0 2.0 353.0 
600.0004173742802 210184.0 NaN 1500.7107548430185 6.023940946345481 531.0 0.0 358.0 
610.0004173742802 210260.0 NaN 1510.4822979291912 5.02284890628039 536.0 2.0 359.0 
620.0004173742802 210283.0 NaN 1516.0774883099537 4.028863866399079 538.0 0.0 363.0 
630.0004173742802 210307.0 NaN 1516.6867067468274 3.029621411001725 533.0 2.0 361.0 
640.0004173742802 210252.0 NaN 1525.629926519707 2.0217119505042858 536.0 0.0 366.0 
650.0004173742802 210351.0 NaN 1522.7922511690056 1.017002577827413 531.0 2.0 363.0 
660.0004173742802 210324.0 NaN 1525.9185036740153 5.499545499858827 532.0 0.0 366.0 
#####################################################################
# End of data export. Simulation finished at: 2019-03-03T17:40+0000 #
#####################################################################
