#####################################################################
# Alchemist log file - simulation started at: 2019-03-11T22:51+0000 #
#####################################################################
# seed = 6.0, bandwidth = 4216.965034285822, propagationDelay = 0.03162277660168379, baserange = 177.82794100389228
#
# The columns have the following meaning: 
# time neighbor_count[Sum] <value>@neighbor_count[Sum] packet_size[Mean] mean_delay[Mean] crowd[Sum] overcrowded[Sum] risk[Sum] 
0.0 NaN NaN NaN NaN NaN NaN NaN 
2.000151992851031 8168.0 NaN 4988.871075484302 0.2110813638453925 1497.0 0.0 1497.0 
4.0009175471494665 26546.0 NaN 4995.625918503674 1.1757491774758058 1497.0 0.0 1497.0 
6.0009175471494665 26546.0 NaN 4994.380761523046 1.1759566031010693 1494.0 3.0 1494.0 
8.000917547149466 26548.0 NaN 4994.794923179693 1.1752903478989944 1493.0 4.0 1493.0 
10.000917547149466 26552.0 NaN 4994.148296593186 1.1754918419325229 1493.0 4.0 1493.0 
12.000917547149466 26559.0 NaN 4994.733466933868 1.175610162660843 1493.0 4.0 1493.0 
14.000917547149466 26560.0 NaN 4994.084168336673 1.1776782648607231 1493.0 4.0 1493.0 
16.000917547149466 26560.0 NaN 4994.746826987308 1.1820441513176325 1493.0 4.0 1493.0 
18.000917547149466 26572.0 NaN 4994.078824315297 1.1864495383866693 1493.0 4.0 1493.0 
20.000917547149466 26589.0 NaN 4994.725450901804 1.1934360944111755 1493.0 4.0 1493.0 
22.000917547149466 26591.0 NaN 4993.9933199732795 1.2004603051796108 1493.0 4.0 1493.0 
24.000917547149466 26592.0 NaN 4994.805611222445 1.2075314464948117 1493.0 4.0 1493.0 
26.000917547149466 26609.0 NaN 4994.0414161656645 1.2154231908310944 1493.0 4.0 1493.0 
28.000917547149466 26643.0 NaN 4994.709418837675 1.2241404662146798 1493.0 4.0 1493.0 
30.000917547149466 26668.0 NaN 4994.16967267869 1.233524430360544 1493.0 4.0 1493.0 
32.00091754714947 26673.0 NaN 4994.666666666667 1.24258428809254 1493.0 4.0 1493.0 
34.00091754714947 26680.0 NaN 4994.14295257181 1.2541935712925105 1493.0 4.0 1493.0 
36.00091754714947 26685.0 NaN 4994.848363393454 1.2632864133255683 1493.0 4.0 1493.0 
38.00091754714947 26713.0 NaN 4994.0521042084165 1.2778358690787326 1493.0 4.0 1493.0 
40.00091754714947 26741.0 NaN 4994.824315297261 1.2960969170331333 1493.0 4.0 1493.0 
42.00091754714947 26753.0 NaN 4994.121576486306 1.3068199078177627 1493.0 4.0 1493.0 
44.00091754714947 26755.0 NaN 4994.805611222445 1.2709136243897778 1493.0 4.0 1493.0 
46.00091754714947 26758.0 NaN 4994.113560454241 1.284682686520146 1493.0 4.0 1493.0 
48.00091754714947 26783.0 NaN 4994.792251169005 1.2680126342816147 1493.0 4.0 1493.0 
50.00091754714947 26809.0 NaN 4994.076152304609 1.285698949094217 1493.0 4.0 1493.0 
52.00091754714947 26823.0 NaN 4994.680026720107 1.3037094140389176 1493.0 4.0 1493.0 
54.00091754714947 26813.0 NaN 4994.177688710754 1.3085995763832248 1493.0 4.0 1493.0 
56.00091754714947 26802.0 NaN 4994.760187040748 1.3175773118506182 1493.0 4.0 1493.0 
58.00091754714947 26826.0 NaN 4994.081496325985 1.3396666966917234 1493.0 4.0 1493.0 
60.00091754714947 26843.0 NaN 4994.861723446894 1.3635116428966878 1493.0 4.0 1493.0 
62.00105953761285 26863.0 NaN 1522.5303941215757 0.9801685869436272 790.0 1.0 364.0 
64.00105953761285 26862.0 NaN 1525.5845023380089 0.8896475540600296 626.0 2.0 364.0 
66.00105953761285 26901.0 NaN 1525.5444221776904 0.8630407600082123 579.0 4.0 362.0 
68.00105953761285 26913.0 NaN 1528.553106212425 0.8544446943064004 548.0 4.0 363.0 
70.00105953761285 26926.0 NaN 1528.5263861055455 0.8678398501849387 530.0 6.0 361.0 
72.00105953761285 26941.0 NaN 1528.5210420841693 0.8763027499033289 526.0 7.0 360.0 
74.00105953761285 26951.0 NaN 1531.580494321979 0.8470323887630341 525.0 7.0 361.0 
76.00105953761285 27002.0 NaN 1534.6666666666663 0.8298370139489111 526.0 7.0 362.0 
78.00105953761285 27021.0 NaN 1534.6533066132274 0.8493979362983116 524.0 7.0 362.0 
80.00105953761285 27022.0 NaN 1534.6319305277211 0.8711413905564469 522.0 7.0 362.0 
82.00105953761285 27028.0 NaN 1534.6185704742816 0.8923638819788481 522.0 7.0 362.0 
84.00105953761285 27019.0 NaN 1537.6887107548432 0.8881308822581692 522.0 7.0 363.0 
86.00105953761285 27013.0 NaN 1537.7047428189724 0.877946487249657 519.0 7.0 363.0 
88.00105953761285 27000.0 NaN 1537.6780227120908 0.8972074770008737 519.0 7.0 363.0 
90.00105953761285 27003.0 NaN 1537.6780227120908 0.9229971147343458 521.0 7.0 363.0 
92.00105953761285 27015.0 NaN 1537.672678690715 0.9494794867363118 521.0 7.0 363.0 
94.00105953761285 27012.0 NaN 1537.6780227120908 0.9000667395002546 521.0 7.0 363.0 
96.00105953761285 27015.0 NaN 1537.6860387441545 0.9072152593996982 521.0 7.0 363.0 
98.00105953761285 27023.0 NaN 1540.7828991315969 0.9227129737435777 521.0 7.0 364.0 
100.00105953761285 27025.0 NaN 1540.7748830995333 0.9427057224629415 520.0 7.0 364.0 
102.00105953761285 27063.0 NaN 1540.7267869071459 0.95807553951212 520.0 7.0 364.0 
104.00105953761285 27056.0 NaN 1540.769539078155 0.9429913403890231 520.0 7.0 364.0 
106.00105953761285 27063.0 NaN 1537.672678690715 0.9435570018764524 519.0 7.0 363.0 
108.00105953761285 27098.0 NaN 1540.7748830995333 0.9186615011064893 520.0 7.0 364.0 
110.00105953761285 27088.0 NaN 1540.710754843018 0.9148424257148136 521.0 7.0 364.0 
112.00105953761285 27100.0 NaN 1540.753507014027 0.9136082166558316 521.0 7.0 364.0 
114.00105953761285 27088.0 NaN 1540.710754843018 0.9137146501377708 521.0 7.0 364.0 
116.00105953761285 27080.0 NaN 1540.7722110888458 0.8877457051956498 522.0 7.0 364.0 
118.00105953761285 27121.0 NaN 1543.8183032732122 0.9171302548403552 523.0 7.0 365.0 
120.00105953761285 27108.0 NaN 1540.7481629926517 0.9253335395002459 524.0 6.0 365.0 
122.00105953761285 27130.0 NaN 1540.7481629926517 0.944291936917827 524.0 6.0 365.0 
124.00105953761285 27098.0 NaN 1540.7214428857728 0.9203412661634197 524.0 6.0 365.0 
126.00105953761285 27081.0 NaN 1540.761523046091 0.9038302965053462 524.0 6.0 365.0 
128.00105953761283 27086.0 NaN 1537.696726786909 0.90557536512714 523.0 6.0 364.0 
130.00105953761286 27077.0 NaN 1537.6833667334665 0.9138739364420715 521.0 7.0 363.0 
132.00105953761286 27101.0 NaN 1537.6887107548432 0.9258132419531362 519.0 7.0 363.0 
134.00105953761286 27095.0 NaN 1537.694054776218 0.8892935002253077 519.0 6.0 364.0 
136.00105953761286 27077.0 NaN 1534.629258517036 0.8977831882410627 517.0 6.0 363.0 
138.00105953761286 27104.0 NaN 1534.6586506346027 0.9187437978181705 517.0 6.0 363.0 
140.00105953761286 27082.0 NaN 1534.6479625918514 0.92357752054269 515.0 6.0 363.0 
142.00105953761286 27105.0 NaN 1534.682698730794 0.910183117353441 515.0 6.0 363.0 
144.00105953761286 27095.0 NaN 1540.8016032064122 0.8921412723635979 514.0 6.0 365.0 
146.00105953761286 27045.0 NaN 1540.7909151636609 0.8718001480025963 515.0 6.0 365.0 
148.00105953761286 27059.0 NaN 1543.8690714762847 0.8847066576075966 516.0 6.0 366.0 
150.00105953761286 27030.0 NaN 1543.8583834335336 0.8888049324721774 517.0 6.0 366.0 
152.00105953761286 27036.0 NaN 1546.9392117568455 0.8919463833760218 517.0 6.0 367.0 
154.00105953761286 27021.0 NaN 1540.8229792919183 0.8925372933057762 519.0 6.0 365.0 
156.00105953761286 26986.0 NaN 1537.7474949899815 0.8861863835898358 519.0 6.0 364.0 
158.00105953761286 26993.0 NaN 1537.7555110220453 0.8671427319283008 518.0 7.0 363.0 
160.00105953761286 26964.0 NaN 1537.731462925852 0.8651852676805873 515.0 7.0 363.0 
162.00105953761286 26960.0 NaN 1537.750167000667 0.8732011073405398 515.0 7.0 363.0 
164.00105953761286 26947.0 NaN 1540.780227120909 0.8744306795108153 515.0 7.0 364.0 
166.00105953761286 26923.0 NaN 1537.7474949899815 0.8304502260169148 516.0 6.0 364.0 
168.00105953761286 26934.0 NaN 1540.8496993987978 0.843186376085173 515.0 6.0 365.0 
170.00105953761286 26934.0 NaN 1540.8176352705427 0.8563489764466191 515.0 7.0 364.0 
172.00105953761286 26930.0 NaN 1537.7127588510366 0.8744329705990197 515.0 6.0 364.0 
174.00105953761286 26933.0 NaN 1537.7394789579162 0.891535526231611 514.0 6.0 364.0 
176.00105953761286 26918.0 NaN 1537.6887107548434 0.8887066239934661 515.0 6.0 364.0 
178.00105953761286 26932.0 NaN 1537.7661990647973 0.8845968339538148 515.0 6.0 364.0 
180.00105953761286 26917.0 NaN 1540.8042752171 0.9073101794220921 515.0 6.0 365.0 
182.00105953761286 26914.0 NaN 1540.8203072812273 0.9219952979062376 515.0 6.0 365.0 
184.00105953761286 26912.0 NaN 1540.7882431529729 0.9469497936824534 514.0 6.0 365.0 
186.00105953761286 26916.0 NaN 1537.7474949899818 0.9153223350011713 512.0 6.0 364.0 
188.00105953761286 26928.0 NaN 1534.672010688043 0.9384737922741831 512.0 6.0 363.0 
190.00105953761286 26902.0 NaN 1534.7227788911155 0.9543274440416725 511.0 6.0 363.0 
192.00105953761286 26871.0 NaN 1534.6052104208425 0.960937030293986 512.0 6.0 363.0 
194.00105953761286 26849.0 NaN 1534.7014028056092 0.9451164681959222 513.0 6.0 363.0 
196.00105953761286 26831.0 NaN 1537.731462925852 0.9480012057690929 513.0 6.0 364.0 
198.00105953761286 26830.0 NaN 1537.8009352037398 0.9486936168928339 514.0 6.0 364.0 
200.00105953761286 26813.0 NaN 1537.7261189044755 0.9610061473341449 514.0 6.0 364.0 
202.00105953761286 26793.0 NaN 1537.7715430861729 0.9658643902972434 513.0 6.0 364.0 
204.00105953761286 26771.0 NaN 1537.7181028724112 0.9880181988640583 514.0 6.0 364.0 
206.00105953761286 26748.0 NaN 1534.7414829659301 0.9977258251065992 511.0 8.0 361.0 
208.00105953761286 26744.0 NaN 1534.6533066132274 1.013353304000127 507.0 8.0 361.0 
210.00105953761286 26721.0 NaN 1534.6907147628572 1.0363240177937574 507.0 8.0 361.0 
212.00105953761286 26710.0 NaN 1537.7181028724112 1.0263705496092983 508.0 8.0 362.0 
214.00105953761286 26688.0 NaN 1534.661322645291 1.0528106266486383 508.0 7.0 362.0 
216.00105953761286 26673.0 NaN 1528.472945891782 1.036852760432499 509.0 7.0 360.0 
218.00105953761286 26664.0 NaN 1528.4569138276545 1.026711908798644 509.0 7.0 360.0 
220.00105953761286 26648.0 NaN 1528.419505678021 1.0650388222462916 508.0 8.0 359.0 
222.00105953761286 26627.0 NaN 1522.3219772879092 1.0620513903124118 510.0 7.0 358.0 
224.00105953761286 26607.0 NaN 1522.3032732130912 1.0859477772615793 510.0 7.0 358.0 
226.00105953761286 26569.0 NaN 1528.4916499666 1.1039255230016858 510.0 7.0 360.0 
228.00105953761286 26590.0 NaN 1534.631930527721 1.1463912912691319 508.0 8.0 361.0 
230.00105953761286 26584.0 NaN 1534.6346025384091 1.164074628507075 507.0 9.0 360.0 
232.00105953761286 26573.0 NaN 1534.5891783567117 1.1959165830290377 506.0 8.0 361.0 
234.00105953761286 26535.0 NaN 1534.5784903139613 1.1316304159885138 509.0 7.0 362.0 
236.00105953761286 26508.0 NaN 1534.551770207082 1.0874709655514436 509.0 7.0 362.0 
238.00105953761286 26507.0 NaN 1534.5731462925846 1.0555608985876994 506.0 8.0 361.0 
240.00105953761286 26497.0 NaN 1531.4682698730817 1.0702790826164807 506.0 9.0 359.0 
242.00105953761286 26483.0 NaN 1531.5537742150973 1.0371983822884256 506.0 9.0 359.0 
244.00105953761286 26472.0 NaN 1528.419505678021 1.036250614468886 505.0 9.0 358.0 
246.00105953761286 26445.0 NaN 1525.4241816967274 1.0283777293652872 506.0 9.0 357.0 
248.00105953761286 26450.0 NaN 1525.3787575150297 1.0275840281105808 506.0 9.0 357.0 
250.00105953761286 26464.0 NaN 1519.2598530394116 1.0643653773369903 504.0 9.0 355.0 
252.00105953761286 26456.0 NaN 1519.2251169004667 1.0761149668488883 502.0 9.0 355.0 
254.00105953761286 26418.0 NaN 1519.251837007348 1.0275755393642307 502.0 9.0 355.0 
256.00105953761283 26404.0 NaN 1519.2224448897816 0.980353732111843 502.0 9.0 355.0 
258.00105953761283 26435.0 NaN 1519.289245156982 1.0096742281132427 506.0 9.0 355.0 
260.00105953761283 26428.0 NaN 1513.0901803607208 1.0248917317208168 505.0 9.0 353.0 
262.00105953761283 26411.0 NaN 1513.1115564462268 1.049714992306353 504.0 9.0 353.0 
264.00105953761283 26384.0 NaN 1519.243820975282 1.0393576278838337 505.0 8.0 356.0 
266.00105953761283 26357.0 NaN 1522.340681362727 1.0084501907902135 507.0 8.0 357.0 
268.00105953761283 26391.0 NaN 1522.2979291917181 1.008883915425375 507.0 8.0 357.0 
270.00105953761283 26368.0 NaN 1531.5377421509704 0.9833087957548527 504.0 8.0 360.0 
272.00105953761283 26346.0 NaN 1531.5003340013366 1.0015849355357171 504.0 8.0 360.0 
274.00105953761283 26312.0 NaN 1528.4649298597183 0.9669581795220803 502.0 8.0 359.0 
276.00105953761283 26293.0 NaN 1528.4569138276545 0.9520253506936476 502.0 9.0 358.0 
278.00105953761283 26298.0 NaN 1531.577822311291 0.9504078126964963 503.0 9.0 359.0 
280.00105953761283 26305.0 NaN 1534.546426185707 0.9689308806239353 507.0 9.0 360.0 
282.00105953761283 26310.0 NaN 1534.6025384101545 0.9936872549440517 508.0 7.0 362.0 
284.00105953761283 26289.0 NaN 1534.5063460253818 1.0036270345221314 508.0 7.0 362.0 
286.00105953761283 26259.0 NaN 1531.5163660654634 0.9700940045559618 506.0 7.0 361.0 
288.00105953761283 26248.0 NaN 1525.3466933867726 0.9737726126053005 506.0 7.0 359.0 
290.00105953761283 26197.0 NaN 1525.3547094188364 0.9743534714063674 507.0 7.0 359.0 
292.00105953761283 26189.0 NaN 1525.3413493653975 0.9870625155486162 507.0 7.0 359.0 
294.00105953761283 26177.0 NaN 1522.305945223782 1.0133393841746863 507.0 7.0 358.0 
296.00105953761283 26132.0 NaN 1522.2952571810274 1.0138560571039776 506.0 7.0 358.0 
298.00105953761283 26079.0 NaN 1531.535070140282 0.9687216600993017 504.0 7.0 361.0 
300.00105953761283 26060.0 NaN 1534.6052104208432 0.9776950936130303 504.0 7.0 362.0 
302.00105953761283 26059.0 NaN 1534.5865063460271 0.9892009452520045 503.0 7.0 362.0 
304.00105953761283 26045.0 NaN 1531.5056780227114 0.9881778824247096 503.0 7.0 361.0 
306.00105953761283 26013.0 NaN 1525.3787575150293 0.9942148914880936 501.0 7.0 359.0 
308.00105953761283 26005.0 NaN 1531.5511022044093 1.0249362980713124 501.0 7.0 361.0 
310.00105953761283 25986.0 NaN 1534.613226452907 1.0469141357756218 501.0 7.0 362.0 
312.00105953761283 25978.0 NaN 1534.5838343353362 1.012444798108976 501.0 7.0 362.0 
314.00105953761283 25936.0 NaN 1534.5731462925842 1.0054179566809278 501.0 7.0 362.0 
316.00105953761283 25877.0 NaN 1531.489645958582 0.9955414609443763 504.0 7.0 361.0 
318.00105953761283 25864.0 NaN 1531.5190380761546 1.0184074820285798 501.0 7.0 361.0 
320.00105953761283 25835.0 NaN 1531.4602538410156 1.034607970914869 502.0 7.0 361.0 
322.00105953761283 25828.0 NaN 1534.6025384101545 1.0116220913371003 502.0 7.0 362.0 
324.00105953761283 25821.0 NaN 1534.5651302605208 1.0209551968612114 502.0 7.0 362.0 
326.00105953761283 25791.0 NaN 1537.6753507014025 1.0359641081813231 502.0 7.0 363.0 
328.00105953761283 25784.0 NaN 1537.6860387441545 1.0622452912856841 502.0 7.0 363.0 
330.00105953761283 25772.0 NaN 1534.5998663994637 1.085925688330521 503.0 7.0 362.0 
332.00105953761283 25776.0 NaN 1534.549098196391 1.0890507215861411 503.0 7.0 362.0 
334.00105953761283 25757.0 NaN 1534.5597862391458 1.1122988792792254 505.0 7.0 362.0 
336.00105953761283 25720.0 NaN 1528.403473613894 1.0447595448367457 505.0 7.0 360.0 
338.00105953761283 25729.0 NaN 1531.5163660654634 1.0467916616456263 506.0 7.0 361.0 
340.00105953761283 25724.0 NaN 1525.2985971943906 1.0170101249738188 505.0 7.0 359.0 
342.00105953761283 25727.0 NaN 1522.2658650634605 1.0283471530551418 502.0 7.0 358.0 
344.00105953761283 25703.0 NaN 1519.147628590515 1.006108465848968 502.0 7.0 357.0 
346.00105953761283 25667.0 NaN 1519.1957247829 0.9961870906763414 503.0 7.0 357.0 
348.00105953761283 25685.0 NaN 1522.2231128924523 0.9800679348262086 508.0 7.0 358.0 
350.00105953761283 25675.0 NaN 1522.249832999333 0.9925437110326913 507.0 7.0 358.0 
352.00105953761283 25675.0 NaN 1522.231128924516 0.9974747741120901 506.0 7.0 358.0 
354.00105953761283 25645.0 NaN 1522.2551770207092 0.9327023369529734 505.0 7.0 358.0 
356.00105953761283 25613.0 NaN 1522.225784903139 0.9286306499940182 505.0 7.0 358.0 
358.00105953761283 25636.0 NaN 1522.2738810955248 0.9481839935191814 506.0 6.0 359.0 
360.00105953761283 25628.0 NaN 1528.4114896459578 0.9349980971366614 509.0 6.0 361.0 
362.00105953761283 25628.0 NaN 1528.4889779559117 0.9484402639737596 512.0 6.0 361.0 
364.00105953761283 25617.0 NaN 1525.3253173012697 0.9582010592778967 512.0 6.0 360.0 
366.00105953761283 25605.0 NaN 1519.2464929859727 0.9813451737068615 511.0 6.0 358.0 
368.00105953761283 25613.0 NaN 1516.1202404809626 1.0139418929243076 512.0 6.0 357.0 
370.00105953761283 25600.0 NaN 1516.1282565130266 1.0356961835660976 512.0 6.0 357.0 
372.00105953761283 25590.0 NaN 1513.0554442217758 1.0113280268974523 512.0 6.0 356.0 
374.00105953761283 25582.0 NaN 1513.0180360721454 1.0012849942205033 513.0 6.0 356.0 
376.00105953761283 25556.0 NaN 1509.9291917167661 1.0090326514207155 512.0 6.0 355.0 
378.00105953761283 25564.0 NaN 1509.9665998664 1.0189831191025693 515.0 6.0 355.0 
380.00105953761283 25555.0 NaN 1509.9612558450242 1.0517451625731875 515.0 6.0 355.0 
382.00105953761283 25555.0 NaN 1516.160320641282 1.0696065641840586 515.0 6.0 357.0 
384.00105953761283 25565.0 NaN 1519.1957247828998 1.0770767320925525 516.0 7.0 357.0 
386.00105953761283 25534.0 NaN 1519.2277889111544 1.04020761443371 515.0 7.0 357.0 
388.00105953761283 25529.0 NaN 1525.3734134936547 1.007392093035337 515.0 7.0 359.0 
390.00105953761283 25513.0 NaN 1525.4375417501665 1.0107071437050548 516.0 7.0 359.0 
392.00105953761283 25516.0 NaN 1522.2845691382756 1.0434685240394783 516.0 7.0 358.0 
394.00105953761283 25515.0 NaN 1516.17635270541 1.058972354333792 516.0 7.0 356.0 
396.00105953761283 25494.0 NaN 1509.9799599198388 1.0546525372634719 516.0 7.0 354.0 
398.00105953761283 25495.0 NaN 1509.9772879091524 1.0784451142424905 517.0 7.0 354.0 
400.00105953761283 25462.0 NaN 1509.9051436205737 1.0870425446674188 515.0 7.0 354.0 
402.00105953761283 25463.0 NaN 1519.169004676018 1.0777925699264759 517.0 7.0 357.0 
404.00105953761283 25448.0 NaN 1525.2959251836999 1.0285935529016192 519.0 6.0 360.0 
406.00105953761283 25436.0 NaN 1525.349365397463 1.0299358497649855 518.0 6.0 360.0 
408.00105953761283 25441.0 NaN 1522.2097528390098 1.0500905398953895 519.0 6.0 359.0 
410.00105953761283 25420.0 NaN 1525.3680694722786 1.0568143059240491 519.0 6.0 360.0 
412.00105953761283 25413.0 NaN 1531.433533734136 1.0701218579462324 519.0 6.0 362.0 
414.00105953761283 25413.0 NaN 1537.6700066800274 1.0705623829402375 520.0 6.0 364.0 
416.00105953761283 25393.0 NaN 1534.492985971945 1.0702522428105627 520.0 6.0 363.0 
418.00105953761283 25395.0 NaN 1528.4141616566453 1.082041825729523 519.0 6.0 361.0 
420.00105953761283 25383.0 NaN 1531.404141616566 1.0781076208715406 520.0 6.0 362.0 
422.00105953761283 25361.0 NaN 1528.4382097528387 1.055326900232111 523.0 6.0 361.0 
424.00105953761283 25349.0 NaN 1513.0367401469614 1.051269523951793 522.0 6.0 356.0 
426.00105953761283 25322.0 NaN 1516.1282565130266 1.0412938407296408 518.0 6.0 357.0 
428.00105953761283 25312.0 NaN 1512.9832999332 1.0255053218951637 512.0 7.0 355.0 
430.00105953761283 25303.0 NaN 1512.9966599866393 0.9955893849104153 513.0 6.0 356.0 
432.00105953761283 25303.0 NaN 1509.8677354709423 1.017337824424274 515.0 6.0 355.0 
434.00105953761283 25288.0 NaN 1512.9726118904464 1.0258357088697951 515.0 6.0 356.0 
436.00105953761283 25279.0 NaN 1522.1830327321302 1.0209677107478767 519.0 6.0 359.0 
438.00105953761283 25285.0 NaN 1534.5170340681366 1.0127391378225306 524.0 6.0 363.0 
440.00105953761283 25275.0 NaN 1534.4662658650636 1.001058467959182 524.0 6.0 363.0 
442.00105953761283 25283.0 NaN 1534.5090180360728 1.0099832693310502 524.0 6.0 363.0 
444.00105953761283 25268.0 NaN 1528.288577154309 1.0100641997471258 524.0 6.0 361.0 
446.00105953761283 25263.0 NaN 1537.605878423512 0.9885220428714615 524.0 6.0 364.0 
448.00105953761283 25262.0 NaN 1549.8623914495638 1.0051652389461243 527.0 6.0 368.0 
450.00105953761283 25256.0 NaN 1543.7648630594545 1.0212915549575161 525.0 6.0 366.0 
452.00105953761283 25265.0 NaN 1546.7655310621246 1.026976455476719 524.0 6.0 367.0 
454.00105953761283 25242.0 NaN 1546.8189712758845 1.0350278275518479 524.0 6.0 367.0 
456.00105953761283 25213.0 NaN 1549.8303273213091 0.9426039306108971 523.0 6.0 368.0 
458.00105953761283 25210.0 NaN 1552.9138276553092 0.9513719885195062 521.0 7.0 368.0 
460.00105953761283 25211.0 NaN 1552.911155644621 0.9725940896752466 523.0 7.0 368.0 
462.00105953761283 25208.0 NaN 1549.8650634602545 0.9684541107387257 522.0 8.0 366.0 
464.00105953761283 25196.0 NaN 1549.7528390113546 0.9667153154509877 523.0 7.0 367.0 
466.00105953761283 25198.0 NaN 1546.760187040748 0.9770596223464247 521.0 7.0 366.0 
468.00105953761283 25202.0 NaN 1540.58784235137 0.9888018641244956 520.0 7.0 364.0 
470.00105953761283 25202.0 NaN 1537.5203740814973 1.009078805382551 520.0 7.0 363.0 
472.00105953761283 25210.0 NaN 1534.3780895123573 1.0278945576598937 520.0 7.0 362.0 
474.00105953761283 25209.0 NaN 1531.356045424182 1.0062037060413351 520.0 7.0 361.0 
476.00105953761283 25209.0 NaN 1525.2451569806271 0.9910268335863187 516.0 4.0 362.0 
478.00105953761283 25213.0 NaN 1525.2558450233812 1.0026795661715855 515.0 4.0 362.0 
480.00105953761283 25193.0 NaN 1525.1756847027384 1.0228034247321214 511.0 9.0 357.0 
482.00105953761283 25205.0 NaN 1522.191048764194 1.0502873024462849 510.0 8.0 357.0 
484.00105953761283 25205.0 NaN 1522.0841683366727 1.052389209849353 510.0 8.0 357.0 
486.00105953761283 25216.0 NaN 1516.0320641282553 1.049121060376598 511.0 7.0 356.0 
488.00105953761283 25256.0 NaN 1509.8196392785565 1.0643544793563817 508.0 7.0 354.0 
490.00105953761283 25256.0 NaN 1500.6386105544432 1.0425716272793057 508.0 6.0 352.0 
492.00105953761283 25247.0 NaN 1500.5718102872422 1.0292534708040733 507.0 4.0 354.0 
494.00105953761283 25245.0 NaN 1491.4335337341356 1.0285508571243784 508.0 3.0 352.0 
496.00105953761283 25233.0 NaN 1494.4716098864387 0.9575044161627212 504.0 3.0 353.0 
498.00105953761283 25243.0 NaN 1491.486973947897 0.9416675792169048 504.0 3.0 352.0 
500.00105953761283 25225.0 NaN 1491.4388777555102 0.9427076521768063 505.0 5.0 350.0 
502.00105953761283 25239.0 NaN 1497.6432865731456 0.9406142878473865 505.0 8.0 349.0 
504.00105953761283 25265.0 NaN 1491.462925851703 0.9522190384718742 505.0 8.0 347.0 
506.00105953761283 25243.0 NaN 1497.6806947227797 0.9484125463140828 506.0 8.0 349.0 
508.00105953761283 25262.0 NaN 1500.6733466933879 0.9748989678600241 509.0 8.0 350.0 
510.00105953761283 25263.0 NaN 1494.5651302605202 0.9989592563645808 509.0 8.0 348.0 
512.0010595376128 25276.0 NaN 1494.5143620574474 1.0002243242315925 509.0 8.0 348.0 
514.001059537613 25320.0 NaN 1494.5571142284564 0.997509063582153 509.0 8.0 348.0 
516.001059537613 25327.0 NaN 1482.249832999333 0.993528145320961 503.0 9.0 343.0 
518.001059537613 25336.0 NaN 1479.217100868403 1.0257741144234878 501.0 9.0 342.0 
520.001059537613 25326.0 NaN 1482.2391449565807 1.0487376973152387 498.0 11.0 341.0 
522.001059537613 25341.0 NaN 1479.2064128256523 1.0443875933775726 497.0 12.0 339.0 
524.001059537613 25365.0 NaN 1473.0554442217758 0.9990495115873129 494.0 12.0 337.0 
526.001059537613 25375.0 NaN 1460.8149632598538 1.0160912946126268 494.0 12.0 333.0 
528.001059537613 25405.0 NaN 1466.9418837675357 1.0520743834654707 496.0 11.0 336.0 
530.001059537613 25371.0 NaN 1463.8663994655988 1.040736028860399 500.0 11.0 335.0 
532.001059537613 25328.0 NaN 1466.8804275217094 1.0211668778523866 498.0 11.0 336.0 
534.001059537613 25303.0 NaN 1469.990647962591 1.0182966934162783 497.0 11.0 337.0 
536.001059537613 25306.0 NaN 1466.9098196392795 1.0342180417010636 496.0 11.0 336.0 
538.001059537613 25327.0 NaN 1470.0440881763534 1.0332493563253349 500.0 11.0 337.0 
540.001059537613 25314.0 NaN 1473.0607882431536 1.0424904240547 498.0 11.0 338.0 
542.001059537613 25323.0 NaN 1473.0981963927845 1.0815434397660737 499.0 11.0 338.0 
544.001059537613 25306.0 NaN 1469.9826319305273 1.0800609320735437 499.0 11.0 337.0 
546.001059537613 25318.0 NaN 1473.0981963927848 1.0686318875613703 501.0 11.0 338.0 
548.001059537613 25335.0 NaN 1473.0768203072817 1.0291547821111113 503.0 11.0 338.0 
550.001059537613 25326.0 NaN 1473.0607882431536 1.0223536650294858 503.0 11.0 338.0 
552.001059537613 25317.0 NaN 1473.026052104209 1.0285132790732903 504.0 11.0 338.0 
554.001059537613 25309.0 NaN 1473.0794923179699 0.9607435246898297 504.0 11.0 338.0 
556.001059537613 25314.0 NaN 1463.8343353373418 0.9680838797857675 502.0 11.0 335.0 
558.001059537613 25369.0 NaN 1460.801603206413 0.9981880063494234 501.0 11.0 334.0 
560.001059537613 25396.0 NaN 1463.8583834335338 0.9974977813304309 499.0 11.0 335.0 
562.001059537613 25400.0 NaN 1463.8476953907818 0.990884718264027 499.0 11.0 335.0 
564.001059537613 25392.0 NaN 1460.75083500334 0.9707323721731836 494.0 11.0 334.0 
566.001059537613 25405.0 NaN 1463.882431529727 0.9675905135149263 496.0 11.0 335.0 
568.001059537613 25468.0 NaN 1473.1088844355372 0.9813551284318671 500.0 11.0 338.0 
570.001059537613 25480.0 NaN 1476.192384769539 0.9666943663258036 502.0 12.0 338.0 
572.001059537613 25443.0 NaN 1476.1122244488988 0.9440078573281457 504.0 11.0 339.0 
574.001059537613 25440.0 NaN 1482.29258517034 0.9626624744109121 506.0 11.0 341.0 
576.001059537613 25440.0 NaN 1488.4195056780213 0.9384512222627427 510.0 11.0 343.0 
578.001059537613 25489.0 NaN 1488.4408817635274 0.9652864386403681 506.0 10.0 344.0 
580.001059537613 25526.0 NaN 1485.3306613226455 1.004215080931258 508.0 11.0 342.0 
582.001059537613 25547.0 NaN 1485.3573814295262 0.9951862152735288 507.0 11.0 342.0 
584.001059537613 25569.0 NaN 1488.3954575818295 1.0108932947107445 507.0 11.0 343.0 
586.001059537613 25577.0 NaN 1491.5163660654637 1.0076684632748243 507.0 12.0 343.0 
588.001059537613 25620.0 NaN 1494.546426185706 1.0336480288402492 509.0 11.0 345.0 
590.001059537613 25653.0 NaN 1497.6700066800274 1.0638545789163092 511.0 11.0 346.0 
592.001059537613 25631.0 NaN 1497.6165664662647 1.0467180741455808 510.0 11.0 346.0 
594.001059537613 25593.0 NaN 1497.637942551771 1.0405629881776735 512.0 11.0 346.0 
596.001059537613 25590.0 NaN 1494.5170340681366 1.0332103897438814 514.0 11.0 345.0 
598.001059537613 25626.0 NaN 1488.4676018704079 1.056306195723669 514.0 12.0 342.0 
600.001059537613 25637.0 NaN 1491.5030060120248 1.0684977502808548 515.0 11.0 344.0 
602.001059537613 25633.0 NaN 1491.5083500334 1.022405556391666 513.0 11.0 344.0 
604.001059537613 25608.0 NaN 1488.3714094856375 0.9810305740596774 513.0 11.0 343.0 
606.001059537613 25609.0 NaN 1491.5243820975277 0.9635750484054739 515.0 11.0 344.0 
608.001059537613 25644.0 NaN 1500.7321309285244 0.9901216497446048 517.0 11.0 347.0 
610.001059537613 25659.0 NaN 1500.7508350033393 1.019360282944226 513.0 11.0 347.0 
612.001059537613 25671.0 NaN 1500.6466265865072 1.0511638284970701 511.0 11.0 347.0 
614.001059537613 25654.0 NaN 1503.7408149632608 1.0426959471093482 511.0 11.0 348.0 
616.001059537613 25680.0 NaN 1500.694722778891 1.0384687158941177 511.0 11.0 347.0 
618.001059537613 25698.0 NaN 1506.8643954575818 1.0706770432193495 512.0 11.0 349.0 
620.001059537613 25706.0 NaN 1509.8971275885099 1.0923011095011155 509.0 12.0 349.0 
622.001059537613 25698.0 NaN 1513.092852371409 1.1088926343007561 511.0 11.0 351.0 
624.001059537613 25693.0 NaN 1516.1229124916515 1.1344664575799843 513.0 11.0 352.0 
626.001059537613 25710.0 NaN 1519.2545090180365 1.1311740231007097 511.0 11.0 353.0 
628.001059537613 25756.0 NaN 1516.1255845023375 1.1734316733837133 508.0 12.0 351.0 
630.001059537613 25763.0 NaN 1516.1496325985295 1.2062558731110504 507.0 12.0 351.0 
632.001059537613 25761.0 NaN 1513.0313961255838 1.1893145730514951 507.0 12.0 350.0 
634.001059537613 25764.0 NaN 1519.225116900467 1.1447120498658034 506.0 12.0 352.0 
636.001059537613 25745.0 NaN 1516.1282565130264 1.1224203556587673 509.0 12.0 351.0 
638.001059537613 25743.0 NaN 1516.1736806947242 1.1042150014121201 510.0 12.0 351.0 
640.001059537613 25715.0 NaN 1516.0881763527061 1.0521498577516128 511.0 12.0 351.0 
642.001059537613 25719.0 NaN 1513.0554442217758 1.076598461041229 512.0 12.0 350.0 
644.001059537613 25718.0 NaN 1513.074148296592 1.0842585923094585 510.0 12.0 350.0 
646.001059537613 25703.0 NaN 1510.0253841015365 1.0874487026041888 509.0 12.0 349.0 
648.001059537613 25672.0 NaN 1516.1496325985295 1.1048149340613602 505.0 12.0 351.0 
650.001059537613 25662.0 NaN 1516.154976619907 1.1194403618501703 504.0 12.0 351.0 
652.001059537613 25667.0 NaN 1516.0961923847706 1.1395595663443858 505.0 11.0 352.0 
654.001059537613 25615.0 NaN 1516.1496325985295 1.1101089417222143 503.0 11.0 352.0 
656.001059537613 25568.0 NaN 1534.5731462925849 1.0697045539304175 505.0 11.0 358.0 
658.001059537613 25564.0 NaN 1540.7160988643968 1.079136471322599 505.0 11.0 360.0 
660.001059537613 25567.0 NaN 1543.7461589846364 1.0979957045314683 505.0 11.0 361.0 
662.001059537613 25573.0 NaN 1543.7675350701395 1.097560253022793 503.0 11.0 361.0 
664.001059537613 25552.0 NaN 1543.7247828991306 1.1144370570468347 499.0 11.0 361.0 
#####################################################################
# End of data export. Simulation finished at: 2019-03-11T23:01+0000 #
#####################################################################
