#####################################################################
# Alchemist log file - simulation started at: 2019-03-07T19:12+0000 #
#####################################################################
# seed = 5.0, bandwidth = 1333521.4321633242, propagationDelay = 3.1622776601683795, baserange = 177.82794100389228
#
# The columns have the following meaning: 
# time neighbor_count[Sum] <value>@neighbor_count[Sum] packet_size[Mean] mean_delay[Mean] crowd[Sum] overcrowded[Sum] risk[Sum] 
0.0 NaN NaN NaN NaN NaN NaN NaN 
2.000101793669918 NaN NaN 4988.0 NaN 1497.0 0.0 1497.0 
4.000101793669918 9271.0 NaN 4988.884435537742 0.2216914231836901 1497.0 0.0 1497.0 
6.000101793669918 26548.0 NaN 4995.762191048764 1.832920443261391 1497.0 0.0 1497.0 
8.000101793669918 26550.0 NaN 4995.553774215097 2.446866466048623 1496.0 1.0 1496.0 
10.000101793669918 26553.0 NaN 4993.9986639946555 1.833158529083204 1492.0 5.0 1492.0 
12.000101793669918 26549.0 NaN 4993.808951235805 2.4464579962615463 1491.0 6.0 1491.0 
14.000101793669918 26552.0 NaN 4994.808283233133 1.8329180725479637 1491.0 6.0 1491.0 
16.00010179366992 26554.0 NaN 4994.802939211757 2.44652080637379 1491.0 6.0 1491.0 
18.00010179366992 26558.0 NaN 4993.923847695391 1.8332413063870705 1491.0 6.0 1491.0 
20.00010179366992 26567.0 NaN 4993.832999331998 2.4490373874359324 1491.0 6.0 1491.0 
22.00010179366992 26589.0 NaN 4994.74415497662 1.8469555118327983 1491.0 6.0 1491.0 
24.00010179366992 26568.0 NaN 4994.760187040748 2.4447361501890477 1491.0 6.0 1491.0 
26.00010179366992 26570.0 NaN 4993.9425517702075 1.8330716063367745 1492.0 5.0 1492.0 
28.00010179366992 26566.0 NaN 4993.859719438878 2.4449422323909706 1492.0 5.0 1492.0 
30.00010179366992 26573.0 NaN 4994.736138944556 1.8333650516872986 1492.0 5.0 1492.0 
32.00010179366992 26586.0 NaN 4994.738810955244 2.4472844249431014 1492.0 5.0 1492.0 
34.00010179366992 26624.0 NaN 4993.9425517702075 1.8367729087635258 1492.0 5.0 1492.0 
36.00010179366992 26607.0 NaN 4993.867735470942 2.4458738629142944 1492.0 5.0 1492.0 
38.00010179366992 26624.0 NaN 4994.74415497662 1.8385726689104982 1492.0 5.0 1492.0 
40.00010179366992 26634.0 NaN 4994.746826987308 2.448672514864249 1492.0 5.0 1492.0 
42.00010179366992 26658.0 NaN 4993.926519706079 1.8414276829862337 1491.0 6.0 1491.0 
44.00010179366992 26634.0 NaN 4993.841015364062 2.446540322316746 1491.0 6.0 1491.0 
46.00010179366992 26653.0 NaN 4994.698730794923 1.8400741183455263 1491.0 6.0 1491.0 
48.00010179366992 26612.0 NaN 4994.722778891116 2.443407881342537 1491.0 6.0 1491.0 
50.00010179366992 26632.0 NaN 4993.9853039412155 1.8420986972974884 1491.0 6.0 1491.0 
52.00010179366992 26635.0 NaN 4993.899799599199 2.4407818811897517 1491.0 6.0 1491.0 
54.00010179366992 26671.0 NaN 4994.733466933868 1.8370841008444683 1491.0 6.0 1491.0 
56.00010179366992 26646.0 NaN 4994.736138944556 2.4413857498555327 1491.0 6.0 1491.0 
58.00010179366992 26660.0 NaN 4993.9772879091515 1.8370257513856034 1491.0 6.0 1491.0 
60.00010179366992 26662.0 NaN 4990.832331329325 2.445867096710315 1490.0 6.0 1490.0 
62.00010179366992 26701.0 NaN 1519.3132932531726 1.8411980125825345 838.0 2.0 362.0 
64.00010179366993 26668.0 NaN 1522.3914495657996 2.4350596218537093 787.0 2.0 363.0 
66.00010179366993 26702.0 NaN 1522.5544422177697 1.8388569784099453 662.0 6.0 359.0 
68.00010179366993 26689.0 NaN 1522.503674014697 2.44135046246282 643.0 6.0 359.0 
70.00010179366993 26716.0 NaN 1525.4909819639272 1.8411103828384323 600.0 4.0 362.0 
72.00010179366993 26725.0 NaN 1525.4161656646638 2.4381972227550563 594.0 3.0 363.0 
74.00010179366993 26797.0 NaN 1528.4488977955907 1.8447712194194767 577.0 3.0 364.0 
76.00010179366993 26762.0 NaN 1528.4248496994 2.438867942108006 568.0 3.0 364.0 
78.00010179366993 26792.0 NaN 1531.5644622578484 1.8419074037801957 553.0 3.0 365.0 
80.00010179366993 26793.0 NaN 1531.5537742150973 2.440559495228659 551.0 3.0 365.0 
82.00010179366993 26819.0 NaN 1534.6052104208425 1.8508006900148724 544.0 3.0 366.0 
84.00010179366993 26787.0 NaN 1534.5998663994637 2.436873743109911 540.0 3.0 366.0 
86.00010179366993 26798.0 NaN 1534.6052104208425 1.8445479049146163 536.0 3.0 366.0 
88.00010179366993 26775.0 NaN 1534.5998663994637 2.4351683861353415 534.0 3.0 366.0 
90.00010179366993 26800.0 NaN 1534.5811623246484 1.841824250816167 534.0 3.0 366.0 
92.00010179366993 26753.0 NaN 1534.5597862391458 2.4396424436542223 535.0 3.0 366.0 
94.00010179366993 26777.0 NaN 1534.5651302605208 1.8438910280900775 534.0 2.0 367.0 
96.00010179366993 26762.0 NaN 1534.5651302605208 2.4389706002290246 534.0 2.0 367.0 
98.00010179366993 26788.0 NaN 1537.6700066800274 1.8394109518563302 532.0 2.0 368.0 
100.00010179366993 26759.0 NaN 1537.645958583836 2.44023830531773 532.0 2.0 368.0 
102.00010179366993 26781.0 NaN 1537.6486305945211 1.846196771363584 531.0 2.0 368.0 
104.00010179366993 26735.0 NaN 1540.7267869071459 2.4431538800517916 530.0 2.0 369.0 
106.00010179366993 26781.0 NaN 1540.7214428857728 1.8396443244923706 529.0 2.0 369.0 
108.00010179366993 26750.0 NaN 1540.718770875082 2.442819586391328 528.0 2.0 369.0 
110.00010179366993 26794.0 NaN 1540.7294589178366 1.8364825655189587 526.0 3.0 368.0 
112.00010179366993 26753.0 NaN 1540.718770875082 2.444574828416277 526.0 3.0 368.0 
114.00010179366993 26782.0 NaN 1540.716098864397 1.841043086525329 525.0 3.0 368.0 
116.00010179366993 26771.0 NaN 1540.710754843018 2.4489681935210177 525.0 3.0 368.0 
118.00010179366993 26802.0 NaN 1540.7267869071459 1.8493322526512561 527.0 3.0 368.0 
120.00010179366993 26756.0 NaN 1540.716098864397 2.447630558120163 527.0 3.0 368.0 
122.00010179366993 26779.0 NaN 1543.7969271877091 1.8473450296413756 527.0 3.0 369.0 
124.00010179366993 26677.0 NaN 1540.7321309285242 2.444322797732425 527.0 3.0 368.0 
126.00010179366993 26715.0 NaN 1543.8156312625272 1.8393416361906862 528.0 2.0 370.0 
128.00010179366993 26671.0 NaN 1540.756179024718 2.4480930170681785 528.0 2.0 369.0 
130.00010179366993 26710.0 NaN 1540.753507014027 1.840035977070095 528.0 2.0 369.0 
132.00010179366993 26631.0 NaN 1537.6646626586517 2.4487665248921378 528.0 2.0 368.0 
134.00010179366993 26658.0 NaN 1537.6860387441545 1.8440060042647735 528.0 3.0 367.0 
136.00010179366993 26649.0 NaN 1537.7047428189726 2.4463147028784173 528.0 3.0 367.0 
138.00010179366993 26691.0 NaN 1534.629258517036 1.8364620530457152 526.0 3.0 366.0 
140.00010179366993 26672.0 NaN 1534.6265865063453 2.4489814213807137 526.0 3.0 366.0 
142.00010179366993 26719.0 NaN 1537.7181028724115 1.8478543978398987 528.0 3.0 367.0 
144.00010179366993 26626.0 NaN 1537.7127588510366 2.446358793848889 528.0 3.0 367.0 
146.00010179366993 26679.0 NaN 1537.7127588510366 1.8356173601276182 526.0 3.0 367.0 
148.00010179366993 26654.0 NaN 1534.6452905811634 2.4491807384951056 526.0 3.0 366.0 
150.00010179366993 26681.0 NaN 1534.6452905811634 1.8396958579179232 526.0 3.0 366.0 
152.00010179366993 26610.0 NaN 1528.502338009352 2.450226446718663 526.0 3.0 364.0 
154.00010179366993 26630.0 NaN 1528.4916499666 1.838321932252945 525.0 3.0 364.0 
156.00010179366993 26630.0 NaN 1531.5644622578486 2.4522777313536057 525.0 3.0 365.0 
158.00010179366993 26660.0 NaN 1528.4969939879754 1.8418448640388754 526.0 3.0 364.0 
160.00010179366993 26641.0 NaN 1531.5671342685362 2.4522467915044324 525.0 3.0 365.0 
162.00010179366993 26670.0 NaN 1534.6559786239154 1.8448916568482117 524.0 3.0 366.0 
164.00010179366993 26571.0 NaN 1534.6533066132274 2.450983131940509 524.0 3.0 366.0 
166.00010179366993 26596.0 NaN 1537.7581830327335 1.8428216979303376 524.0 2.0 368.0 
168.00010179366993 26532.0 NaN 1534.6666666666663 2.4517015248363445 524.0 2.0 367.0 
170.00010179366993 26565.0 NaN 1534.666666666666 1.848331258016792 524.0 2.0 367.0 
172.00010179366993 26503.0 NaN 1534.661322645291 2.4487683899778667 525.0 2.0 367.0 
174.00010179366993 26519.0 NaN 1537.7154308617246 1.8384717005989568 526.0 2.0 368.0 
176.00010179366993 26500.0 NaN 1534.6292585170365 2.446317597269403 526.0 2.0 367.0 
178.00010179366993 26546.0 NaN 1534.6426185704727 1.8368556382358712 525.0 2.0 367.0 
180.00010179366993 26495.0 NaN 1534.6559786239156 2.451163039891626 525.0 2.0 367.0 
182.00010179366993 26527.0 NaN 1534.605210420843 1.8446641740228114 524.0 2.0 367.0 
184.00010179366993 26454.0 NaN 1534.605210420843 2.451690359476872 523.0 2.0 367.0 
186.00010179366993 26491.0 NaN 1534.6372745491 1.8481264277632394 523.0 2.0 367.0 
188.00010179366993 26445.0 NaN 1537.7181028724112 2.4473660847884635 523.0 2.0 368.0 
190.00010179366993 26472.0 NaN 1534.6212424849703 1.8491085746956775 521.0 2.0 367.0 
192.00010179366993 26375.0 NaN 1531.5430861723455 2.4423799846911916 520.0 2.0 366.0 
194.00010179366993 26394.0 NaN 1534.6132264529065 1.8427709837380046 520.0 2.0 367.0 
196.00010179366993 26368.0 NaN 1534.5918503674 2.444332228546646 520.0 2.0 367.0 
198.00010179366993 26388.0 NaN 1534.6132264529065 1.8468358670516989 519.0 3.0 366.0 
200.00010179366993 26342.0 NaN 1537.6993987975936 2.440299210515572 521.0 3.0 367.0 
202.00010179366993 26381.0 NaN 1540.7428189712755 1.8425967163911834 521.0 3.0 368.0 
204.00010179366993 26325.0 NaN 1540.7428189712755 2.448089494827817 520.0 3.0 368.0 
206.00010179366993 26370.0 NaN 1540.7775551102181 1.8618814979827254 520.0 3.0 368.0 
208.00010179366993 26294.0 NaN 1534.6158984635933 2.4488489943369776 520.0 3.0 366.0 
210.00010179366993 26313.0 NaN 1534.5758183032726 1.8517801675839585 522.0 4.0 365.0 
212.00010179366993 26232.0 NaN 1531.4843019372088 2.4437031058249277 522.0 4.0 364.0 
214.00010179366993 26254.0 NaN 1531.4655978623907 1.844004457474523 520.0 4.0 364.0 
216.00010179366993 26228.0 NaN 1525.3306613226455 2.4519889283081695 520.0 4.0 362.0 
218.00010179366993 26257.0 NaN 1525.338677354709 1.855434284516071 516.0 4.0 362.0 
220.00010179366993 26201.0 NaN 1525.3440213760846 2.4478520805583006 515.0 4.0 362.0 
222.00010179366993 26221.0 NaN 1531.4655978623907 1.850995495422437 516.0 4.0 364.0 
224.00010179366993 26127.0 NaN 1531.462925851703 2.4500639065797416 516.0 4.0 364.0 
226.00010179366993 26153.0 NaN 1528.430193720773 1.8498113349178344 516.0 4.0 363.0 
228.00010179366993 26065.0 NaN 1531.5377421509697 2.445759306526313 516.0 4.0 364.0 
230.00010179366993 26088.0 NaN 1534.6185704742816 1.8454107942454476 516.0 3.0 366.0 
232.00010179366993 26048.0 NaN 1537.7047428189726 2.4415093798532257 516.0 3.0 367.0 
234.00010179366993 26085.0 NaN 1537.6646626586517 1.8493094174017588 515.0 3.0 367.0 
236.00010179366993 26031.0 NaN 1534.5998663994637 2.4408013844520298 515.0 3.0 366.0 
238.00010179366993 26067.0 NaN 1528.4889779559117 1.840918421454263 515.0 3.0 364.0 
240.00010179366993 26012.0 NaN 1528.4542418169665 2.4439264667455047 514.0 3.0 364.0 
242.00010179366993 26035.0 NaN 1528.427521710088 1.8499604872301343 513.0 3.0 364.0 
244.00010179366993 25970.0 NaN 1528.4061456245818 2.447286873890986 512.0 3.0 364.0 
246.00010179366993 26032.0 NaN 1525.3867735470935 1.8546444956558148 515.0 3.0 363.0 
248.00010179366993 25971.0 NaN 1522.30861723447 2.443881584953546 515.0 3.0 362.0 
250.00010179366993 26014.0 NaN 1525.3921175684707 1.8485557758477134 514.0 3.0 363.0 
252.00010179366993 25929.0 NaN 1522.2925851703394 2.443480522227921 514.0 3.0 362.0 
254.00010179366993 25964.0 NaN 1525.3841015364064 1.8473171259163328 515.0 3.0 363.0 
256.00010179366996 25897.0 NaN 1528.4729458917823 2.4405585855638714 516.0 3.0 364.0 
258.00010179366996 25927.0 NaN 1528.4515698062792 1.8444453394499003 516.0 3.0 364.0 
260.00010179366996 25865.0 NaN 1528.419505678021 2.4420111595205967 516.0 3.0 364.0 
262.00010179366996 25899.0 NaN 1525.3146292585182 1.8479776145075864 517.0 3.0 363.0 
264.00010179366996 25807.0 NaN 1525.2905811623248 2.4389163021033498 516.0 3.0 363.0 
266.00010179366996 25833.0 NaN 1534.5464261857064 1.8439542109544433 515.0 3.0 366.0 
268.00010179366996 25743.0 NaN 1534.5330661322637 2.442297696492673 515.0 3.0 366.0 
270.00010179366996 25777.0 NaN 1534.5597862391458 1.8471498231085923 512.0 3.0 366.0 
272.00010179366996 25697.0 NaN 1531.4949899799608 2.4425524461132255 512.0 3.0 365.0 
274.00010179366996 25760.0 NaN 1531.5163660654634 1.8488919532173091 512.0 3.0 365.0 
276.00010179366996 25647.0 NaN 1534.5811623246482 2.443621743670516 511.0 3.0 366.0 
278.00010179366996 25686.0 NaN 1540.694722778891 1.8455357861454864 512.0 3.0 368.0 
280.00010179366996 25649.0 NaN 1537.6325985303934 2.445992133836748 513.0 3.0 367.0 
282.00010179366996 25698.0 NaN 1534.567802271209 1.848050071718577 514.0 3.0 366.0 
284.00010179366996 25638.0 NaN 1531.4736138944545 2.447802030025661 513.0 3.0 365.0 
286.00010179366996 25683.0 NaN 1534.5597862391458 1.8479745368176317 513.0 3.0 366.0 
288.00010179366996 25598.0 NaN 1534.5571142284564 2.445836839114145 513.0 3.0 366.0 
290.00010179366996 25646.0 NaN 1534.519706078825 1.8494017386896358 514.0 3.0 366.0 
292.00010179366996 25589.0 NaN 1534.5010020040093 2.4439851763877907 514.0 3.0 366.0 
294.00010179366996 25639.0 NaN 1531.4709418837663 1.8432442637415054 512.0 3.0 365.0 
296.00010179366996 25582.0 NaN 1531.4762859051455 2.4495198847043147 512.0 3.0 365.0 
298.00010179366996 25622.0 NaN 1531.4602538410159 1.8507934674615405 513.0 2.0 366.0 
300.00010179366996 25539.0 NaN 1531.4629258517027 2.446266067313659 513.0 2.0 366.0 
302.00010179366996 25567.0 NaN 1534.5865063460271 1.8440511001459166 512.0 2.0 367.0 
304.00010179366996 25516.0 NaN 1531.53774215097 2.446776773539922 511.0 2.0 366.0 
306.00010179366996 25564.0 NaN 1537.6993987975936 1.8475922116428674 509.0 2.0 368.0 
308.00010179366996 25495.0 NaN 1534.581162324648 2.454344517344371 509.0 2.0 367.0 
310.00010179366996 25521.0 NaN 1537.6860387441545 1.8601418469326594 508.0 2.0 368.0 
312.00010179366996 25424.0 NaN 1531.5430861723455 2.4512973959507014 508.0 2.0 366.0 
314.00010179366996 25448.0 NaN 1528.4008016032067 1.8496886228560525 508.0 2.0 365.0 
316.00010179366996 25397.0 NaN 1525.3306613226455 2.450646107809618 506.0 2.0 364.0 
318.00010179366996 25433.0 NaN 1528.4916499666 1.8505533761153015 504.0 2.0 365.0 
320.00010179366996 25360.0 NaN 1528.4595858383452 2.4555040669921513 506.0 2.0 365.0 
322.00010179366996 25386.0 NaN 1531.484301937209 1.8560255831254866 507.0 2.0 366.0 
324.00010179366996 25326.0 NaN 1531.4976619906479 2.451365214773312 507.0 2.0 366.0 
326.00010179366996 25364.0 NaN 1534.5971943887791 1.848391117239394 505.0 2.0 367.0 
328.00010179366996 25291.0 NaN 1531.5003340013366 2.445577801924015 507.0 2.0 366.0 
330.00010179366996 25321.0 NaN 1531.4736138944545 1.845509468598625 507.0 2.0 366.0 
332.00010179366996 25279.0 NaN 1531.4843019372088 2.4491143639337456 507.0 2.0 366.0 
334.00010179366996 25325.0 NaN 1531.5217100868392 1.8484920711885444 506.0 2.0 366.0 
336.00010179366996 25272.0 NaN 1528.4595858383452 2.4466018974561803 506.0 2.0 365.0 
338.00010179366996 25306.0 NaN 1528.4141616566453 1.8417440007913553 507.0 2.0 365.0 
340.00010179366996 25280.0 NaN 1528.4221776887093 2.44937961847913 508.0 2.0 365.0 
342.00010179366996 25342.0 NaN 1528.4008016032067 1.842883766040673 508.0 2.0 365.0 
344.00010179366996 25293.0 NaN 1528.4034736138938 2.4492761450493874 508.0 2.0 365.0 
346.00010179366996 25342.0 NaN 1528.4195056780209 1.8516867598662918 507.0 2.0 365.0 
348.00010179366996 25292.0 NaN 1522.263193052773 2.4514349185705457 507.0 2.0 363.0 
350.00010179366996 25324.0 NaN 1528.416833667336 1.8469016305702193 507.0 2.0 365.0 
352.00010179366996 25284.0 NaN 1522.260521042084 2.4507849970541833 507.0 2.0 363.0 
354.00010179366996 25322.0 NaN 1522.263193052773 1.8444176203373688 512.0 2.0 363.0 
356.00010179366996 25259.0 NaN 1519.1796927187722 2.448451097102706 512.0 2.0 362.0 
358.00010179366996 25287.0 NaN 1519.1823647294575 1.844715609009045 511.0 2.0 362.0 
360.00010179366996 25261.0 NaN 1519.1663326653304 2.4490407535069387 510.0 2.0 362.0 
362.00010179366996 25307.0 NaN 1516.146960587843 1.8586919279500569 511.0 2.0 361.0 
364.00010179366996 25223.0 NaN 1510.0066800267189 2.450832971161883 511.0 2.0 359.0 
366.00010179366996 25244.0 NaN 1509.950567802272 1.8513243580136478 512.0 2.0 359.0 
368.00010179366996 25181.0 NaN 1503.7621910487635 2.448025736837584 513.0 2.0 357.0 
370.00010179366996 25212.0 NaN 1509.9532398129606 1.8477001697200846 513.0 2.0 359.0 
372.00010179366996 25154.0 NaN 1509.969271877088 2.4518552531225777 513.0 2.0 359.0 
374.00010179366996 25196.0 NaN 1509.9104876419515 1.852200749556039 514.0 2.0 359.0 
376.00010179366996 25081.0 NaN 1506.8403473613903 2.4494516471316534 515.0 2.0 358.0 
378.00010179366996 25119.0 NaN 1506.8243152972616 1.8526428780030257 515.0 2.0 358.0 
380.00010179366996 25074.0 NaN 1500.689378757516 2.4509936639190513 514.0 2.0 356.0 
382.00010179366996 25116.0 NaN 1497.6138944555785 1.8568114777568963 514.0 2.0 355.0 
384.00010179366996 25075.0 NaN 1497.6325985303934 2.446109990167879 514.0 2.0 355.0 
386.00010179366996 25122.0 NaN 1494.567802271209 1.8450587093973838 516.0 2.0 354.0 
388.00010179366996 25097.0 NaN 1494.5811623246486 2.4509200232941377 516.0 2.0 354.0 
390.00010179366996 25127.0 NaN 1494.519706078825 1.8523881700530613 514.0 2.0 354.0 
392.00010179366996 25050.0 NaN 1494.5357381429535 2.4522227376434014 516.0 2.0 354.0 
394.00010179366996 25097.0 NaN 1503.8316633266538 1.8566607720425752 518.0 2.0 357.0 
396.00010179366996 25010.0 NaN 1509.9826319305273 2.447146231710466 518.0 2.0 359.0 
398.00010179366996 25043.0 NaN 1509.9906479625909 1.8454218234977775 519.0 2.0 359.0 
400.00010179366996 25005.0 NaN 1503.8637274549092 2.459397530077782 518.0 2.0 357.0 
402.00010179366996 25043.0 NaN 1506.9018036072152 1.8663747418302628 519.0 2.0 358.0 
404.00010179366996 24950.0 NaN 1513.047428189712 2.4459747152909888 521.0 2.0 360.0 
406.00010179366996 25001.0 NaN 1513.0527722110903 1.8446895172166071 520.0 2.0 360.0 
408.00010179366996 24972.0 NaN 1516.1336005344006 2.450710987833517 520.0 2.0 361.0 
410.00010179366996 25003.0 NaN 1522.3540414161644 1.856164826028597 520.0 2.0 363.0 
412.00010179366996 24955.0 NaN 1519.2919171676697 2.4546709050083098 520.0 2.0 362.0 
414.00010179366996 24987.0 NaN 1519.2144288577158 1.8564557345044297 522.0 2.0 362.0 
416.00010179366996 24900.0 NaN 1506.9311957247817 2.453100085617112 522.0 2.0 358.0 
418.00010179366996 24941.0 NaN 1506.9418837675357 1.8454038696087347 522.0 2.0 358.0 
420.00010179366996 24900.0 NaN 1500.7855711422842 2.452384126623306 523.0 2.0 356.0 
422.00010179366996 24934.0 NaN 1500.7668670674695 1.8485019008708385 519.0 2.0 356.0 
424.00010179366996 24866.0 NaN 1491.52171008684 2.4529906933204706 517.0 2.0 353.0 
426.00010179366996 24909.0 NaN 1500.7348029392115 1.8458731011972598 515.0 2.0 356.0 
428.00010179366996 24854.0 NaN 1500.7214428857724 2.4542688575562805 517.0 2.0 356.0 
430.00010179366996 24869.0 NaN 1500.718770875083 1.8543297944870802 519.0 2.0 356.0 
432.00010179366996 24826.0 NaN 1497.6165664662647 2.4504171158453305 520.0 2.0 355.0 
434.00010179366996 24864.0 NaN 1516.0961923847703 1.849253572037154 525.0 2.0 361.0 
436.00010179366996 24811.0 NaN 1513.0046760187029 2.448319067015504 526.0 2.0 360.0 
438.00010179366996 24859.0 NaN 1516.1122244488993 1.8423110519083405 527.0 2.0 361.0 
440.00010179366996 24821.0 NaN 1516.0961923847703 2.454457124581434 527.0 2.0 361.0 
442.00010179366996 24850.0 NaN 1525.349365397463 1.8554083196074578 527.0 2.0 364.0 
444.00010179366996 24802.0 NaN 1522.2418169672665 2.4498639087922696 527.0 2.0 363.0 
446.00010179366996 24843.0 NaN 1534.5357381429542 1.84334296196528 529.0 2.0 367.0 
448.00010179366996 24819.0 NaN 1534.5223780895117 2.451006669657706 530.0 2.0 367.0 
450.00010179366996 24863.0 NaN 1537.6272545090183 1.8437463276193067 530.0 2.0 368.0 
452.00010179366996 24836.0 NaN 1534.5410821643277 2.4502799546608793 530.0 2.0 367.0 
454.00010179366996 24877.0 NaN 1540.694722778891 1.846575337661804 528.0 2.0 369.0 
456.00010179366996 24835.0 NaN 1540.6626586506359 2.449637729774485 526.0 2.0 369.0 
458.00010179366996 24884.0 NaN 1540.6893787575154 1.8437716014187326 525.0 2.0 369.0 
460.00010179366996 24868.0 NaN 1543.7408149632608 2.4483068308754503 524.0 2.0 370.0 
462.00010179366996 24919.0 NaN 1543.6713426853726 1.8501050064631794 523.0 2.0 370.0 
464.00010179366996 24875.0 NaN 1537.541750167 2.4534212956570993 522.0 2.0 368.0 
466.00010179366996 24906.0 NaN 1537.5684702738818 1.8647711486863328 524.0 2.0 368.0 
468.00010179366996 24847.0 NaN 1537.5764863059455 2.448345346641894 525.0 2.0 368.0 
470.00010179366996 24889.0 NaN 1540.627922511691 1.852996053904208 524.0 2.0 369.0 
472.00010179366996 24834.0 NaN 1531.404141616566 2.4483875948866696 523.0 2.0 366.0 
474.00010179366996 24860.0 NaN 1528.2752171008697 1.850997624179626 520.0 2.0 365.0 
476.00010179366996 24804.0 NaN 1525.1837007348024 2.4457853203111863 520.0 2.0 364.0 
478.00010179366996 24845.0 NaN 1525.2291249165 1.8506822272527836 519.0 2.0 364.0 
480.00010179366996 24802.0 NaN 1522.1456245824993 2.4467147317134734 519.0 2.0 363.0 
482.00010179366996 24859.0 NaN 1519.1476285905153 1.846675171934793 519.0 2.0 362.0 
484.00010179366996 24833.0 NaN 1506.84034736139 2.4432580106777517 517.0 2.0 358.0 
486.00010179366996 24890.0 NaN 1503.7541750167002 1.8424001718979564 514.0 2.0 357.0 
488.00010179366996 24872.0 NaN 1497.5738142952564 2.447604551722305 514.0 2.0 355.0 
490.00010179366996 24928.0 NaN 1500.6733466933879 1.8453997104739703 515.0 2.0 356.0 
492.00010179366996 24887.0 NaN 1488.4034736138938 2.446735844485144 514.0 2.0 352.0 
494.00010179366996 24943.0 NaN 1491.5003340013363 1.8445161266645702 513.0 2.0 353.0 
496.00010179366996 24908.0 NaN 1485.3440213760848 2.453188721996932 513.0 2.0 351.0 
498.00010179366996 24946.0 NaN 1485.317301269206 1.8553293277423233 514.0 3.0 350.0 
500.00010179366996 24905.0 NaN 1488.3954575818295 2.4498173745519245 513.0 3.0 351.0 
502.00010179366996 24953.0 NaN 1494.615898463593 1.848912036810102 512.0 2.0 354.0 
504.00010179366996 24908.0 NaN 1485.4054776219098 2.457590590968078 512.0 2.0 351.0 
506.00010179366996 24970.0 NaN 1491.5136940547754 1.860645096888766 513.0 2.0 353.0 
508.00010179366996 24890.0 NaN 1497.6165664662644 2.447506297230723 515.0 2.0 355.0 
510.00010179366996 24934.0 NaN 1494.5784903139618 1.8476427242477362 516.0 2.0 354.0 
512.00010179367 24903.0 NaN 1485.384101536407 2.447977621101227 515.0 2.0 351.0 
514.00010179367 24954.0 NaN 1485.3894455577818 1.849889130827842 515.0 2.0 351.0 
516.00010179367 24930.0 NaN 1479.2678690714754 2.444807529337395 514.0 2.0 349.0 
518.00010179367 24994.0 NaN 1479.1983967935882 1.8474842018074376 512.0 2.0 349.0 
520.00010179367 24965.0 NaN 1473.0688042752179 2.4505002623126937 511.0 2.0 347.0 
522.00010179367 25009.0 NaN 1469.9906479625913 1.8598535861943661 511.0 2.0 346.0 
524.00010179367 24977.0 NaN 1457.7341349365392 2.4477224942854816 510.0 2.0 342.0 
526.00010179367 25033.0 NaN 1463.8637274549094 1.8544127428605883 507.0 2.0 344.0 
528.00010179367 24984.0 NaN 1463.8289913159645 2.4490622099307933 508.0 2.0 344.0 
530.00010179367 25015.0 NaN 1460.8390113560454 1.8460232822737797 506.0 2.0 343.0 
532.00010179367 24995.0 NaN 1448.529058116233 2.4464095611815337 505.0 2.0 339.0 
534.00010179367 25034.0 NaN 1451.561790247161 1.8461066857004997 505.0 2.0 340.0 
536.00010179367 25013.0 NaN 1451.5484301937206 2.444710277421814 505.0 2.0 340.0 
538.00010179367 25050.0 NaN 1460.8203072812285 1.8454866892950514 507.0 2.0 343.0 
540.00010179367 25011.0 NaN 1460.801603206412 2.449353274476407 506.0 2.0 343.0 
542.00010179367 25045.0 NaN 1463.9011356045428 1.8541463473171624 508.0 2.0 344.0 
544.00010179367 24978.0 NaN 1466.9552438209748 2.45220292628706 507.0 2.0 345.0 
546.00010179367 25000.0 NaN 1470.0066800267193 1.8616301425264365 506.0 2.0 346.0 
548.00010179367 24920.0 NaN 1466.9205076820308 2.443797643148542 508.0 2.0 345.0 
550.00010179367 24961.0 NaN 1466.9071476285908 1.8453174473095562 509.0 2.0 345.0 
552.00010179367 24948.0 NaN 1463.8263193052765 2.440840258025645 508.0 2.0 344.0 
554.00010179367 24995.0 NaN 1466.9151636606543 1.8497549360131733 508.0 2.0 345.0 
556.00010179367 24955.0 NaN 1463.8343353373418 2.441601865294894 508.0 2.0 344.0 
558.00010179367 24986.0 NaN 1460.7615230460917 1.8473235031570516 507.0 2.0 343.0 
560.00010179367 24944.0 NaN 1460.7481629926522 2.4381186093422595 503.0 2.0 343.0 
562.00010179367 24998.0 NaN 1460.7535070140277 1.8468567131135816 506.0 2.0 343.0 
564.00010179367 24961.0 NaN 1463.8370073480287 2.4449915975696315 509.0 2.0 344.0 
566.00010179367 25029.0 NaN 1463.828991315965 1.854706690427183 507.0 2.0 344.0 
568.00010179367 24960.0 NaN 1463.842351369405 2.444181954753739 506.0 2.0 344.0 
570.00010179367 25008.0 NaN 1470.0093520374087 1.8505193404307787 512.0 2.0 346.0 
572.00010179367 24943.0 NaN 1476.1897127588513 2.4499143863329316 512.0 2.0 348.0 
574.00010179367 25026.0 NaN 1479.2358049432194 1.858176394416498 509.0 2.0 349.0 
576.00010179367 24965.0 NaN 1473.0607882431534 2.4492728103312733 509.0 2.0 347.0 
578.00010179367 25019.0 NaN 1473.0474281897123 1.8549334493883542 509.0 2.0 347.0 
580.00010179367 24966.0 NaN 1469.9826319305275 2.44406089465573 512.0 2.0 346.0 
582.00010179367 25035.0 NaN 1473.0634602538414 1.847992286838878 513.0 2.0 347.0 
584.00010179367 24993.0 NaN 1476.1683366733462 2.4474744838014866 513.0 2.0 348.0 
586.00010179367 25075.0 NaN 1479.233132932531 1.8542313704675446 516.0 2.0 349.0 
588.00010179367 25006.0 NaN 1476.1496325985297 2.447664208203887 517.0 2.0 348.0 
590.00010179367 25068.0 NaN 1479.1850367401464 1.8502244545799382 523.0 2.0 349.0 
592.00010179367 25029.0 NaN 1479.1609886439546 2.4468553696277073 525.0 2.0 349.0 
594.00010179367 25101.0 NaN 1482.2685370741478 1.8529165172198185 528.0 2.0 350.0 
596.00010179367 25031.0 NaN 1482.2498329993325 2.4440473111883056 528.0 2.0 350.0 
598.00010179367 25062.0 NaN 1488.400801603207 1.845233842038679 531.0 2.0 352.0 
600.00010179367 25053.0 NaN 1491.5003340013363 2.447508473689236 528.0 3.0 352.0 
602.00010179367 25166.0 NaN 1488.4435537742158 1.8547502235496245 528.0 3.0 351.0 
604.00010179367 25113.0 NaN 1497.699398797594 2.4537548345967575 532.0 3.0 354.0 
606.00010179367 25191.0 NaN 1500.7374749499 1.8583436950695273 530.0 3.0 355.0 
608.00010179367 25140.0 NaN 1500.742818971275 2.464196501136888 528.0 3.0 355.0 
610.00010179367 25205.0 NaN 1506.8643954575818 1.8679997939961297 529.0 3.0 357.0 
612.00010179367 25110.0 NaN 1500.7508350033393 2.4633173340210797 529.0 3.0 355.0 
614.00010179367 25165.0 NaN 1503.8236472945898 1.8538232969943131 526.0 3.0 356.0 
616.00010179367 25107.0 NaN 1500.750835003339 2.463333717665326 524.0 3.0 355.0 
618.00010179367 25159.0 NaN 1500.782899131597 1.847043011808821 523.0 3.0 355.0 
620.00010179367 25140.0 NaN 1506.9365397461581 2.461172598990044 524.0 3.0 357.0 
622.00010179367 25238.0 NaN 1516.1416165664655 1.8590076076649955 523.0 3.0 360.0 
624.00010179367 25136.0 NaN 1516.1656646626575 2.463334668269419 523.0 2.0 361.0 
626.00010179367 25165.0 NaN 1516.1683366733462 1.8524680444511974 523.0 2.0 361.0 
628.00010179367 25140.0 NaN 1516.1710086840353 2.458624972975892 522.0 2.0 361.0 
630.00010179367 25225.0 NaN 1519.2491649966607 1.8516280699722805 523.0 3.0 361.0 
632.00010179367 25139.0 NaN 1528.5076820307274 2.458377674977415 526.0 3.0 364.0 
634.00010179367 25200.0 NaN 1525.429525718102 1.8465962747328746 526.0 2.0 364.0 
636.00010179367 25172.0 NaN 1525.4215096860382 2.4572732867788813 525.0 2.0 364.0 
638.00010179367 25221.0 NaN 1525.4482297929183 1.8539858502064035 531.0 3.0 363.0 
640.00010179367 25143.0 NaN 1516.2538410153636 2.4616197076414883 529.0 3.0 360.0 
642.00010179367 25189.0 NaN 1516.2110888443547 1.8663712988398644 529.0 3.0 360.0 
644.00010179367 25096.0 NaN 1513.1302605210426 2.450116203914338 526.0 3.0 359.0 
646.00010179367 25132.0 NaN 1516.2217768871083 1.848998212955591 525.0 3.0 360.0 
648.00010179367 25091.0 NaN 1519.30260521042 2.455354868163942 524.0 3.0 361.0 
650.00010179367 25143.0 NaN 1516.227120908483 1.8521321550410377 521.0 3.0 360.0 
652.00010179367 25073.0 NaN 1519.3239812959262 2.456611842897102 522.0 3.0 361.0 
654.00010179367 25111.0 NaN 1525.432197728791 1.8518851924938593 521.0 2.0 364.0 
656.00010179367 25067.0 NaN 1525.4161656646636 2.4554092164058865 519.0 2.0 364.0 
658.00010179367 25121.0 NaN 1525.4161656646636 1.850880902777958 519.0 2.0 364.0 
660.00010179367 25060.0 NaN 1531.5831663326646 2.457445817612621 517.0 2.0 366.0 
662.00010179367 25101.0 NaN 1534.7147628590524 1.858702763171843 516.0 2.0 367.0 
664.00010179367 24971.0 NaN 1534.6800267201081 2.4539997449521738 514.0 2.0 367.0 
#####################################################################
# End of data export. Simulation finished at: 2019-03-07T19:23+0000 #
#####################################################################
