#####################################################################
# Alchemist log file - simulation started at: 2019-03-07T03:47+0000 #
#####################################################################
# seed = 4.0, bandwidth = 1.0E8, propagationDelay = 0.1, baserange = 562.341325190349
#
# The columns have the following meaning: 
# time neighbor_count[Sum] <value>@neighbor_count[Sum] packet_size[Mean] mean_delay[Mean] crowd[Sum] overcrowded[Sum] risk[Sum] 
0.0 NaN NaN NaN NaN NaN NaN NaN 
2.000333295474768 97653.0 NaN 4994.997995991984 0.5004192452453748 1497.0 0.0 1497.0 
4.000333135474768 98210.0 NaN 4993.822311289246 0.5032689772146791 1495.0 2.0 1495.0 
6.000333135474768 98210.0 NaN 4994.183032732131 0.5032689694670104 1495.0 2.0 1495.0 
8.000333135474769 98210.0 NaN 4994.452905811623 0.5032689645791916 1494.0 3.0 1494.0 
10.000333135474769 98210.0 NaN 4995.668670674682 0.5032689635522251 1495.0 2.0 1495.0 
12.000333135474769 98210.0 NaN 4995.39879759519 0.5032689709084965 1495.0 2.0 1495.0 
14.000333135474769 98210.0 NaN 4994.541082164329 0.5032689711763842 1493.0 4.0 1493.0 
16.00033329547477 98244.0 NaN 4994.661322645291 0.5031854841523186 1493.0 4.0 1493.0 
18.00033329547477 98268.0 NaN 4995.599198396793 0.5034076450214101 1495.0 2.0 1495.0 
20.00033329547477 98266.0 NaN 4995.633934535738 0.5040486377231418 1495.0 2.0 1495.0 
22.00033329547477 98262.0 NaN 4994.714762859051 0.5032265631852653 1494.0 3.0 1494.0 
24.00033329547477 98262.0 NaN 4994.618570474282 0.5032265625854523 1495.0 2.0 1495.0 
26.00033329547477 98307.0 NaN 4994.354041416165 0.5033943394961133 1494.0 3.0 1494.0 
28.00033329547477 98351.0 NaN 4995.2678690714765 0.5036944415914496 1494.0 3.0 1494.0 
30.00033329547477 98343.0 NaN 4996.384769539078 0.5045307588319842 1495.0 2.0 1495.0 
32.00033329547477 98339.0 NaN 4994.810955243821 0.5032409200325516 1495.0 2.0 1495.0 
34.00033329547477 98347.0 NaN 4994.295257181028 0.5039176060511423 1494.0 3.0 1494.0 
36.00033329547477 98393.0 NaN 4994.917835671343 0.5037549072810095 1495.0 2.0 1495.0 
38.00033329547477 98442.0 NaN 4995.067468269873 0.5040280874543978 1495.0 2.0 1495.0 
40.00033329547477 98433.0 NaN 4996.069472277889 0.5042621064591906 1495.0 2.0 1495.0 
42.00033329547477 98431.0 NaN 4995.540414161656 0.5037626018886342 1495.0 2.0 1495.0 
44.00033329547477 98438.0 NaN 4994.23914495658 0.5034384765244216 1494.0 3.0 1494.0 
46.00033329547477 98463.0 NaN 4994.343353373413 0.5038428103124376 1495.0 2.0 1495.0 
48.00033329547477 98474.0 NaN 4995.294589178357 0.5054203653185738 1495.0 2.0 1495.0 
50.00033329547477 98444.0 NaN 4995.676686706747 0.5042882455362738 1495.0 2.0 1495.0 
52.00033329547477 98449.0 NaN 4994.941883767535 0.5037899243717275 1495.0 2.0 1495.0 
54.00033329547477 98446.0 NaN 4994.936539746159 0.5051155662515555 1495.0 2.0 1495.0 
56.00033329547477 98495.0 NaN 4994.618570474282 0.5038179226212836 1495.0 2.0 1495.0 
58.00033329547477 98530.0 NaN 4995.158316633267 0.5038409138347671 1495.0 2.0 1495.0 
60.00033329547477 98526.0 NaN 4996.125584502338 0.5034780254532737 1495.0 2.0 1495.0 
62.00029264227007 98595.0 NaN 1522.5223780895117 0.5042824508080346 786.0 2.0 363.0 
64.00029264227007 98591.0 NaN 1522.4983299933185 0.5041356074223592 629.0 4.0 361.0 
66.00029264227007 98609.0 NaN 1525.5791583166338 0.5044607898736492 582.0 5.0 361.0 
68.00029264227007 98656.0 NaN 1525.6726786907152 0.5047794883553992 555.0 5.0 361.0 
70.00029264227007 98632.0 NaN 1525.7528390113548 0.504286085398213 541.0 5.0 361.0 
72.00029264227007 98682.0 NaN 1528.8710754843003 0.505252899883059 530.0 5.0 362.0 
74.00029264227007 98660.0 NaN 1531.8022712090844 0.5040839626720335 528.0 3.0 365.0 
76.00029264227007 98679.0 NaN 1531.7434869739477 0.5039281033277605 527.0 4.0 364.0 
78.00029264227007 98710.0 NaN 1534.8296593186365 0.5043907869907029 525.0 5.0 364.0 
80.00029264227007 98691.0 NaN 1537.8810955243816 0.5039443347800933 526.0 5.0 365.0 
82.00029264227007 98752.0 NaN 1537.9746158984635 0.5042590573483745 526.0 5.0 365.0 
84.00029264227007 98740.0 NaN 1538.0627922511696 0.5041604836425516 527.0 5.0 365.0 
86.00029264227007 98740.0 NaN 1538.0387441549758 0.5039148680071681 523.0 5.0 365.0 
88.00029264227007 98749.0 NaN 1537.985303941216 0.5045132348812654 525.0 3.0 367.0 
90.00029264227007 98749.0 NaN 1537.9425517702089 0.5042238235175354 524.0 4.0 366.0 
92.00029264227007 98810.0 NaN 1537.902471609888 0.5055275662430293 523.0 5.0 365.0 
94.00029264227007 98737.0 NaN 1537.8784235136936 0.5039698413496553 523.0 5.0 365.0 
96.00029264227007 98745.0 NaN 1537.9425517702089 0.5042194446032228 523.0 5.0 365.0 
98.00029264227007 98740.0 NaN 1537.9692718770877 0.5042988753715149 523.0 5.0 365.0 
100.00029264227007 98718.0 NaN 1541.0447561790247 0.5039415511217552 522.0 6.0 365.0 
102.00029264227007 98754.0 NaN 1541.0100200400816 0.5047152495187173 524.0 4.0 367.0 
104.00029264227007 98702.0 NaN 1540.9806279225118 0.5040440347948569 523.0 5.0 366.0 
106.00029264227007 98712.0 NaN 1540.9913159652635 0.5040983939317062 522.0 6.0 365.0 
108.00029264227007 98786.0 NaN 1540.999331997327 0.5046812199449547 523.0 5.0 366.0 
110.00029264227007 98761.0 NaN 1541.0634602538419 0.5038618982448366 523.0 5.0 366.0 
112.00029264227007 98837.0 NaN 1541.1035404141633 0.504591535625539 522.0 6.0 365.0 
114.00029264227007 98808.0 NaN 1541.036740146961 0.5038196826725663 521.0 7.0 364.0 
116.00029264227007 98808.0 NaN 1540.9111556446212 0.5039461734875993 526.0 3.0 368.0 
118.00029264227007 98833.0 NaN 1547.0327321309273 0.5042467127529555 525.0 5.0 368.0 
120.00029264227007 98818.0 NaN 1550.1589846359366 0.5040111562903618 524.0 6.0 368.0 
122.00029264227007 98808.0 NaN 1550.233800935203 0.5045202212634341 525.0 5.0 369.0 
124.00029264227007 98777.0 NaN 1550.3139612558455 0.5042242220251714 525.0 5.0 369.0 
126.00029264227007 98774.0 NaN 1550.3460253841001 0.5037467916118874 525.0 5.0 369.0 
128.00029264227007 98811.0 NaN 1547.2090848363391 0.503953858026695 525.0 5.0 368.0 
130.00029264227007 98784.0 NaN 1547.1102204408817 0.5038397356698449 526.0 3.0 370.0 
132.00029264227007 98804.0 NaN 1544.0320641282547 0.5045013672445244 523.0 4.0 368.0 
134.00029264227007 98774.0 NaN 1540.9111556446212 0.5045973073587824 522.0 5.0 366.0 
136.00029264227007 98763.0 NaN 1540.8844355377425 0.5039906839463052 521.0 5.0 366.0 
138.00029264227007 98767.0 NaN 1544.0855043420183 0.5036820201798058 520.0 5.0 367.0 
140.00029264227007 98773.0 NaN 1541.098196392785 0.504107406576503 519.0 5.0 366.0 
142.00029264227007 98765.0 NaN 1547.281229124918 0.5039460648143123 519.0 5.0 368.0 
144.00029264227007 98746.0 NaN 1550.2605210420843 0.5038336345162726 523.0 3.0 371.0 
146.00029264227007 98752.0 NaN 1547.0407481629911 0.5037493812452314 521.0 4.0 369.0 
148.00029264227007 98781.0 NaN 1553.1970607882456 0.5039516362567686 519.0 5.0 370.0 
150.00029264227007 98779.0 NaN 1553.2184368737455 0.5038084225632969 518.0 5.0 370.0 
152.00029264227007 98769.0 NaN 1550.2231128924518 0.5046462908750383 519.0 5.0 369.0 
154.00029264227007 98736.0 NaN 1544.2004008016027 0.5044924111977156 516.0 5.0 367.0 
156.00029264227007 98776.0 NaN 1544.1656646626575 0.5039649709853603 514.0 5.0 367.0 
158.00029264227007 98810.0 NaN 1544.1068804275212 0.5040120362931078 518.0 3.0 369.0 
160.00029264227007 98799.0 NaN 1544.0293921175698 0.5040110306029034 518.0 4.0 368.0 
162.00029264227007 98787.0 NaN 1544.072144288576 0.5040216624407112 517.0 5.0 367.0 
164.00029264227007 98763.0 NaN 1544.0133600534393 0.5037987115476883 516.0 5.0 367.0 
166.00029264227007 98784.0 NaN 1544.1255845023366 0.5039282383776553 515.0 5.0 367.0 
168.00029264227007 98781.0 NaN 1544.1629926519724 0.5040467455913773 515.0 5.0 367.0 
170.00029264227007 98764.0 NaN 1544.138944555779 0.5041190064299492 515.0 5.0 367.0 
172.00029264227007 98721.0 NaN 1544.024048096191 0.5041511812620794 517.0 3.0 369.0 
174.00029264227007 98707.0 NaN 1537.9024716098882 0.5041171179867041 516.0 3.0 367.0 
176.00029264227007 98719.0 NaN 1540.9512358049456 0.5040014449290141 517.0 3.0 368.0 
178.00029264227007 98738.0 NaN 1541.0313961255843 0.5047152187699857 517.0 3.0 368.0 
180.00029264227007 98715.0 NaN 1541.1088844355363 0.5042497288695253 518.0 3.0 368.0 
182.00029264227007 98686.0 NaN 1538.0494321977274 0.5044114201073714 516.0 3.0 367.0 
184.00029264227007 98658.0 NaN 1538.0040080160336 0.5041290791182224 516.0 3.0 367.0 
186.00029264227007 98658.0 NaN 1540.9806279225115 0.5040249058730655 515.0 3.0 368.0 
188.00029264227007 98646.0 NaN 1537.8249832999338 0.5043130456594812 515.0 3.0 367.0 
190.00029264227007 98622.0 NaN 1534.7895791583182 0.5040947164510691 515.0 3.0 366.0 
192.00029264227007 98592.0 NaN 1537.923847695391 0.5047203231141273 514.0 3.0 367.0 
194.00029264227007 98549.0 NaN 1538.0173680694727 0.5043790648178382 515.0 3.0 367.0 
196.00029264227007 98531.0 NaN 1538.0814963259847 0.504393593459339 515.0 3.0 367.0 
198.00029264227007 98531.0 NaN 1538.1082164328639 0.50472707596868 515.0 3.0 367.0 
200.00029264227007 98510.0 NaN 1537.9585838343364 0.5047914175245479 515.0 3.0 367.0 
202.00029264227007 98499.0 NaN 1544.0774883099543 0.5047456555003663 516.0 3.0 369.0 
204.00029264227007 98482.0 NaN 1547.1209084836341 0.5049312835186173 517.0 3.0 370.0 
206.00029264227007 98471.0 NaN 1544.0614562458272 0.5045513770435361 516.0 3.0 369.0 
208.00029264227007 98483.0 NaN 1537.9665998664002 0.5048190150976513 516.0 3.0 367.0 
210.00029264227007 98484.0 NaN 1538.022712090848 0.5054839512895613 514.0 3.0 367.0 
212.00029264227007 98469.0 NaN 1538.0547762191063 0.5043955815241394 515.0 3.0 367.0 
214.00029264227007 98434.0 NaN 1541.0474281897118 0.5043613446577557 515.0 3.0 368.0 
216.00029264227007 98429.0 NaN 1537.9185036740155 0.5045089737793553 515.0 3.0 367.0 
218.00029264227007 98405.0 NaN 1537.859719438879 0.5046889135376413 511.0 3.0 367.0 
220.00029264227007 98450.0 NaN 1537.894455577821 0.5049215833560088 511.0 3.0 367.0 
222.00029264227007 98409.0 NaN 1534.928523714094 0.5048929664418709 511.0 3.0 366.0 
224.00029264227007 98383.0 NaN 1534.9445557782244 0.5047807096157031 511.0 3.0 366.0 
226.00029264227007 98374.0 NaN 1537.985303941216 0.5046081795964527 511.0 3.0 367.0 
228.00029264227007 98402.0 NaN 1544.0641282565118 0.5052100591666451 512.0 3.0 369.0 
230.00029264227007 98401.0 NaN 1544.0587842351363 0.5053077394992682 513.0 3.0 369.0 
232.00029264227007 98366.0 NaN 1544.1202404809635 0.5046722617748209 512.0 3.0 369.0 
234.00029264227007 98343.0 NaN 1547.2598530394114 0.5044008740693405 512.0 3.0 370.0 
236.00029264227007 98339.0 NaN 1541.0981963927845 0.5051500748106973 511.0 3.0 368.0 
238.00029264227007 98333.0 NaN 1541.0794923179699 0.504907468623863 511.0 3.0 368.0 
240.00029264227007 98328.0 NaN 1537.9452237808937 0.505378188487061 512.0 2.0 368.0 
242.00029264227007 98293.0 NaN 1534.7548430193729 0.5047311097783725 511.0 2.0 367.0 
244.00029264227007 98263.0 NaN 1534.7414829659301 0.5045029712887911 512.0 2.0 367.0 
246.00029264227007 98239.0 NaN 1534.7815631262542 0.505425093573788 513.0 2.0 367.0 
248.00029264227007 98203.0 NaN 1534.8216432865727 0.5054420179941549 512.0 2.0 367.0 
250.00029264227007 98174.0 NaN 1534.9392117568457 0.5052821886662341 513.0 2.0 367.0 
252.00029264227007 98135.0 NaN 1531.9331997328002 0.5047957348651985 512.0 2.0 366.0 
254.00029264227007 98103.0 NaN 1528.7962591850362 0.5046638812572413 511.0 2.0 365.0 
256.0002926422701 98082.0 NaN 1528.676018704073 0.5055399270841827 513.0 2.0 365.0 
258.0002926422701 98021.0 NaN 1528.643954575818 0.5053269334355525 513.0 2.0 365.0 
260.0002926422701 97988.0 NaN 1525.5791583166338 0.5050075054923302 514.0 2.0 364.0 
262.0002926422701 97949.0 NaN 1528.676018704073 0.505088636101352 513.0 2.0 365.0 
264.0002926422701 97904.0 NaN 1528.7641950567815 0.5051995704097874 513.0 3.0 364.0 
266.0002926422701 97887.0 NaN 1544.2618570474272 0.5058884527124164 510.0 4.0 368.0 
268.0002926422701 97838.0 NaN 1544.1816967267885 0.5051407224535743 510.0 4.0 368.0 
270.0002926422701 97851.0 NaN 1541.0260521042092 0.5059330013857408 512.0 2.0 369.0 
272.0002926422701 97786.0 NaN 1537.8436873747482 0.5056053898197538 511.0 2.0 368.0 
274.0002926422701 97757.0 NaN 1534.7735470941884 0.5052447957208305 510.0 2.0 367.0 
276.0002926422701 97732.0 NaN 1537.8329993319976 0.5045319357229506 512.0 2.0 368.0 
278.0002926422701 97699.0 NaN 1540.9913159652635 0.5045752661006347 510.0 3.0 368.0 
280.0002926422701 97678.0 NaN 1541.0581162324636 0.504534017893465 510.0 5.0 366.0 
282.0002926422701 97651.0 NaN 1540.9726118904455 0.5049783878242493 512.0 5.0 366.0 
284.0002926422701 97609.0 NaN 1534.7842351369388 0.5042331978903233 513.0 3.0 366.0 
286.0002926422701 97604.0 NaN 1534.8029392117546 0.5050383433894969 512.0 3.0 366.0 
288.0002926422701 97528.0 NaN 1534.826987307948 0.5044573369354401 511.0 3.0 366.0 
290.0002926422701 97516.0 NaN 1531.7515030060115 0.5051556251650646 508.0 3.0 365.0 
292.0002926422701 97468.0 NaN 1531.7461589846364 0.5052139995231959 509.0 3.0 365.0 
294.0002926422701 97400.0 NaN 1537.9318637274544 0.5048065969086887 509.0 3.0 367.0 
296.0002926422701 97421.0 NaN 1537.8891115564454 0.5065027894715629 509.0 3.0 367.0 
298.0002926422701 97350.0 NaN 1540.9138276553092 0.5052518912557415 509.0 3.0 368.0 
300.0002926422701 97326.0 NaN 1540.9619238476932 0.5048457782845784 508.0 3.0 368.0 
302.0002926422701 97298.0 NaN 1537.9452237808935 0.5051102213966099 508.0 3.0 367.0 
304.0002926422701 97250.0 NaN 1537.8971275885092 0.5045306921701042 506.0 3.0 367.0 
306.0002926422701 97267.0 NaN 1534.8937875751521 0.5050093571315315 507.0 3.0 366.0 
308.0002926422701 97186.0 NaN 1531.858383433534 0.505485281097647 506.0 3.0 365.0 
310.0002926422701 97135.0 NaN 1531.858383433534 0.5045382575493894 506.0 3.0 365.0 
312.0002926422701 97126.0 NaN 1534.9365397461577 0.5053108957209855 506.0 3.0 366.0 
314.0002926422701 97053.0 NaN 1534.8056112224456 0.5048607289694448 508.0 3.0 366.0 
316.0002926422701 97029.0 NaN 1534.760187040748 0.5053661223143082 509.0 3.0 366.0 
318.0002926422701 96933.0 NaN 1534.8456913827638 0.5049612643814304 508.0 3.0 366.0 
320.0002926422701 96909.0 NaN 1534.9445557782244 0.5060455291474488 507.0 3.0 366.0 
322.0002926422701 96861.0 NaN 1531.9438877755515 0.5059784762537711 507.0 3.0 365.0 
324.0002926422701 96793.0 NaN 1531.8610554442212 0.5043784662451101 507.0 3.0 365.0 
326.0002926422701 96788.0 NaN 1531.772879091518 0.5045319009164084 507.0 3.0 365.0 
328.0002926422701 96742.0 NaN 1534.7869071476273 0.5046556715157283 507.0 3.0 366.0 
330.0002926422701 96730.0 NaN 1528.6519706078816 0.5052874881597279 506.0 3.0 364.0 
332.0002926422701 96675.0 NaN 1528.676018704073 0.5054754292174835 505.0 3.0 364.0 
334.0002926422701 96587.0 NaN 1534.888443553773 0.505040174670419 507.0 3.0 366.0 
336.0002926422701 96563.0 NaN 1525.6833667334663 0.5046355754337254 507.0 3.0 363.0 
338.0002926422701 96508.0 NaN 1525.6993987975939 0.5043839418726361 507.0 3.0 363.0 
340.0002926422701 96509.0 NaN 1525.6753507014025 0.5047495389463814 508.0 3.0 363.0 
342.0002926422701 96483.0 NaN 1525.6593186372731 0.5050828430274807 508.0 3.0 363.0 
344.0002926422701 96435.0 NaN 1531.7515030060115 0.5046358929026105 513.0 3.0 365.0 
346.0002926422701 96426.0 NaN 1534.8697394789576 0.5053917930603591 513.0 3.0 366.0 
348.0002926422701 96333.0 NaN 1531.8690714762847 0.5047119425933315 512.0 3.0 365.0 
350.0002926422701 96318.0 NaN 1525.7074148296606 0.5049910677665509 511.0 3.0 363.0 
352.0002926422701 96286.0 NaN 1525.7047428189721 0.5050172444899422 514.0 3.0 363.0 
354.0002926422701 96244.0 NaN 1525.6379425517703 0.5039643356953892 513.0 3.0 363.0 
356.0002926422701 96253.0 NaN 1525.6566466265874 0.5054322215405472 512.0 3.0 363.0 
358.0002926422701 96168.0 NaN 1525.667334669337 0.5051593622350661 512.0 3.0 363.0 
360.0002926422701 96153.0 NaN 1525.694054776218 0.504915070795544 512.0 3.0 363.0 
362.0002926422701 96136.0 NaN 1525.6913827655303 0.5056184042792926 514.0 3.0 363.0 
364.0002926422701 96074.0 NaN 1525.7020708082823 0.5060568141966947 513.0 3.0 363.0 
366.0002926422701 96057.0 NaN 1516.4569138276547 0.5052557886691394 513.0 3.0 360.0 
368.0002926422701 96010.0 NaN 1510.2979291917175 0.5052573452934059 513.0 3.0 358.0 
370.0002926422701 95980.0 NaN 1507.1877087508356 0.5057057270048463 515.0 3.0 357.0 
372.0002926422701 95963.0 NaN 1510.241816967267 0.5056660938453702 514.0 3.0 358.0 
374.0002926422701 95869.0 NaN 1507.190380761524 0.5045613350257145 516.0 3.0 357.0 
376.0002926422701 95861.0 NaN 1507.2491649966607 0.5049939657727777 515.0 3.0 357.0 
378.0002926422701 95859.0 NaN 1507.2358049432191 0.504702955106687 517.0 3.0 357.0 
380.0002926422701 95838.0 NaN 1507.2277889111547 0.5049782824703953 518.0 3.0 357.0 
382.0002926422701 95825.0 NaN 1510.2578490313967 0.5053010402605737 515.0 3.0 358.0 
384.0002926422701 95758.0 NaN 1513.3092852371424 0.5042687241642975 515.0 3.0 359.0 
386.0002926422701 95754.0 NaN 1516.4141616566455 0.5045719707180175 517.0 3.0 360.0 
388.0002926422701 95716.0 NaN 1516.4355377421516 0.5050420568678093 517.0 3.0 360.0 
390.0002926422701 95654.0 NaN 1510.3593854375426 0.5046765493041013 518.0 3.0 358.0 
392.0002926422701 95688.0 NaN 1510.3299933199726 0.5049160885918041 516.0 3.0 358.0 
394.0002926422701 95626.0 NaN 1510.3780895123575 0.5042689715958197 515.0 3.0 358.0 
396.0002926422701 95629.0 NaN 1513.432197728791 0.5049404635119152 516.0 3.0 359.0 
398.0002926422701 95598.0 NaN 1507.219772879091 0.5047319491065694 518.0 3.0 357.0 
400.0002926422701 95576.0 NaN 1504.1282565130266 0.5046148930305089 518.0 3.0 356.0 
402.0002926422701 95572.0 NaN 1510.2979291917177 0.5051129695280093 519.0 3.0 358.0 
404.0002926422701 95502.0 NaN 1507.241148964597 0.50537916572786 519.0 3.0 357.0 
406.0002926422701 95502.0 NaN 1510.3032732130916 0.5053195909580486 520.0 3.0 358.0 
408.0002926422701 95450.0 NaN 1513.3974615898455 0.5054768165816196 520.0 3.0 359.0 
410.0002926422701 95422.0 NaN 1516.4756179024728 0.5047024179566602 520.0 3.0 360.0 
412.0002926422701 95406.0 NaN 1522.6105544422182 0.5060589133788197 520.0 3.0 362.0 
414.0002926422701 95307.0 NaN 1525.6726786907152 0.5045987530118526 520.0 3.0 363.0 
416.0002926422701 95343.0 NaN 1519.5030060120248 0.5050069054427493 522.0 3.0 361.0 
418.0002926422701 95289.0 NaN 1513.3653974615909 0.5069057302860283 517.0 3.0 359.0 
420.0002926422701 95274.0 NaN 1510.3273213092848 0.5045303283651321 515.0 3.0 358.0 
422.0002926422701 95272.0 NaN 1513.4001336005354 0.5042795341793991 515.0 3.0 359.0 
424.0002926422701 95273.0 NaN 1510.2899131596535 0.504043361444171 517.0 3.0 358.0 
426.0002926422701 95273.0 NaN 1507.174348697394 0.5044749643944566 514.0 3.0 357.0 
428.0002926422701 95250.0 NaN 1513.2531730126911 0.5047607358704552 515.0 3.0 359.0 
430.0002926422701 95227.0 NaN 1507.1529726118908 0.505421067564147 521.0 3.0 357.0 
432.0002926422701 95218.0 NaN 1513.384101536407 0.5046549361421714 522.0 3.0 359.0 
434.0002926422701 95162.0 NaN 1519.5430861723453 0.5044214723941111 523.0 3.0 361.0 
436.0002926422701 95174.0 NaN 1522.6132264529067 0.5057921955361392 523.0 3.0 362.0 
438.0002926422701 95130.0 NaN 1525.579158316634 0.5045946280307558 524.0 3.0 363.0 
440.0002926422701 95106.0 NaN 1528.638610554443 0.5048834636968801 525.0 3.0 364.0 
442.0002926422701 95107.0 NaN 1528.6412825651298 0.5049428825549924 526.0 3.0 364.0 
444.0002926422701 95042.0 NaN 1525.6432865731456 0.5051634485824577 525.0 3.0 363.0 
446.0002926422701 95073.0 NaN 1519.5751503006 0.5042058649767618 524.0 3.0 361.0 
448.0002926422701 95072.0 NaN 1538.0574482297914 0.504499301190311 524.0 3.0 367.0 
450.0002926422701 95066.0 NaN 1547.238476953909 0.5045433168454083 526.0 3.0 370.0 
452.0002926422701 95081.0 NaN 1550.236472945891 0.5054756143802718 525.0 3.0 371.0 
454.0002926422701 95038.0 NaN 1550.2177688710754 0.5051871948711851 525.0 3.0 371.0 
456.0002926422701 95049.0 NaN 1550.236472945891 0.5044002831855395 523.0 3.0 371.0 
458.0002926422701 95040.0 NaN 1550.2605210420838 0.5043701863209269 523.0 3.0 371.0 
460.0002926422701 95056.0 NaN 1547.217100868403 0.505060082609241 523.0 3.0 370.0 
462.0002926422701 95054.0 NaN 1544.0908483633934 0.5052650885446331 520.0 3.0 369.0 
464.0002926422701 95030.0 NaN 1544.1015364061454 0.5062043089735998 521.0 3.0 369.0 
466.0002926422701 95037.0 NaN 1544.1202404809633 0.5041691459073921 523.0 3.0 369.0 
468.0002926422701 95020.0 NaN 1544.0855043420183 0.5048346164599758 522.0 3.0 369.0 
470.0002926422701 95006.0 NaN 1544.0587842351363 0.5047137144697545 523.0 3.0 369.0 
472.0002926422701 95004.0 NaN 1541.0046760187029 0.504718015374905 523.0 3.0 368.0 
474.0002926422701 94986.0 NaN 1531.8824315297275 0.5045519662836341 519.0 3.0 365.0 
476.0002926422701 95000.0 NaN 1522.6853707414818 0.5044655745349961 518.0 3.0 362.0 
478.0002926422701 95003.0 NaN 1522.6025384101545 0.5042774684334319 519.0 3.0 362.0 
480.0002926422701 95008.0 NaN 1525.6432865731454 0.5046616492686187 519.0 2.0 364.0 
482.0002926422701 95042.0 NaN 1525.5925183700726 0.5048945759606512 519.0 2.0 364.0 
484.0002926422701 95034.0 NaN 1525.675350701402 0.5052810623022433 518.0 2.0 364.0 
486.0002926422701 95042.0 NaN 1513.384101536407 0.5042856262684716 516.0 2.0 360.0 
488.0002926422701 95086.0 NaN 1507.2598530394112 0.5048648753243565 515.0 2.0 358.0 
490.0002926422701 95092.0 NaN 1491.8770875083487 0.5046072235424949 514.0 2.0 353.0 
492.0002926422701 95104.0 NaN 1491.8156312625263 0.5050329781176549 512.0 2.0 353.0 
494.0002926422701 95071.0 NaN 1494.861723446893 0.5048154630817967 510.0 2.0 354.0 
496.0002926422701 95080.0 NaN 1494.8964595858374 0.5045307752438004 506.0 2.0 354.0 
498.0002926422701 95080.0 NaN 1491.7862391449557 0.5045338218185658 506.0 2.0 353.0 
500.0002926422701 95079.0 NaN 1485.6913827655303 0.5046169089643444 509.0 2.0 351.0 
502.0002926422701 95082.0 NaN 1482.6666666666658 0.5051319284137255 511.0 2.0 350.0 
504.0002926422701 95050.0 NaN 1485.8142952571816 0.50457333039148 511.0 2.0 351.0 
506.0002926422701 95059.0 NaN 1491.9278557114237 0.5049583247512367 513.0 2.0 353.0 
508.0002926422701 95050.0 NaN 1485.699398797594 0.5046920098965404 511.0 2.0 351.0 
510.0002926422701 95053.0 NaN 1491.7915831663338 0.5042615074555531 511.0 2.0 353.0 
512.0002926422701 95082.0 NaN 1491.8370073480282 0.5050071720886589 512.0 2.0 353.0 
514.0002926422701 95038.0 NaN 1482.6639946559794 0.5045886373831215 513.0 2.0 350.0 
516.0002926422701 95065.0 NaN 1476.5851703406818 0.5045685407762933 511.0 2.0 348.0 
518.0002926422701 95075.0 NaN 1461.2050768203082 0.5053834693698943 510.0 2.0 343.0 
520.0002926422701 95062.0 NaN 1461.1890447561798 0.5045668456072759 510.0 2.0 343.0 
522.0002926422701 95106.0 NaN 1461.1462925851708 0.5046419846723652 508.0 2.0 343.0 
524.0002926422701 95077.0 NaN 1464.2137608550443 0.5060166288009597 505.0 2.0 344.0 
526.0002926422701 95083.0 NaN 1455.0086840347365 0.5043897732239497 504.0 2.0 341.0 
528.0002926422701 95127.0 NaN 1451.957247828991 0.5042603864366358 502.0 2.0 340.0 
530.0002926422701 95160.0 NaN 1451.9839679358722 0.5045702959462026 503.0 3.0 339.0 
532.0002926422701 95201.0 NaN 1461.2024048096187 0.5042804593470025 503.0 3.0 342.0 
534.0002926422701 95189.0 NaN 1461.1863727454909 0.5044044040151104 500.0 3.0 342.0 
536.0002926422701 95235.0 NaN 1458.0601202404814 0.5039737744574841 503.0 3.0 341.0 
538.0002926422701 95275.0 NaN 1461.1115564462264 0.504506450964972 503.0 3.0 342.0 
540.0002926422701 95285.0 NaN 1464.211088844355 0.5035484483037859 505.0 3.0 343.0 
542.0002926422701 95332.0 NaN 1470.3887775551095 0.5040858289096567 505.0 3.0 345.0 
544.0002926422701 95299.0 NaN 1473.5230460921841 0.5037367479950052 508.0 3.0 346.0 
546.0002926422701 95321.0 NaN 1470.3780895123577 0.5033281583571978 508.0 3.0 345.0 
548.0002926422701 95325.0 NaN 1467.3026052104206 0.50393375647642 509.0 3.0 344.0 
550.0002926422701 95307.0 NaN 1467.1850367401464 0.5033421207335621 510.0 3.0 344.0 
552.0002926422701 95387.0 NaN 1467.155644622579 0.5040180635126729 508.0 3.0 344.0 
554.0002926422701 95391.0 NaN 1467.2117568470271 0.5030794139694226 507.0 4.0 343.0 
556.0002926422701 95461.0 NaN 1467.2651970607885 0.5036406303935752 508.0 4.0 343.0 
558.0002926422701 95450.0 NaN 1467.3293253173008 0.5035927894798163 509.0 4.0 343.0 
560.0002926422701 95440.0 NaN 1458.0681362725454 0.5036082767155912 502.0 4.0 340.0 
562.0002926422701 95526.0 NaN 1458.0360721442896 0.5042466356005065 504.0 3.0 341.0 
564.0002926422701 95500.0 NaN 1454.9285237140953 0.5035393693975588 503.0 3.0 340.0 
566.0002926422701 95532.0 NaN 1461.039412157649 0.5049964091511733 505.0 3.0 342.0 
568.0002926422701 95482.0 NaN 1482.6426185704738 0.5053663321082307 506.0 3.0 349.0 
570.0002926422701 95408.0 NaN 1482.645290581163 0.5040704663488896 507.0 3.0 349.0 
572.0002926422701 95417.0 NaN 1479.6472945891787 0.5048401451995165 507.0 3.0 348.0 
574.0002926422701 95374.0 NaN 1476.5691382765538 0.5044805592440776 505.0 3.0 347.0 
576.0002926422701 95411.0 NaN 1482.733466933867 0.5041433035257883 505.0 3.0 349.0 
578.0002926422701 95386.0 NaN 1479.5591182364726 0.5052297174099997 507.0 3.0 348.0 
580.0002926422701 95360.0 NaN 1485.696726786908 0.5041881000279657 507.0 3.0 350.0 
582.0002926422701 95333.0 NaN 1485.6673346693376 0.5049463588159936 509.0 3.0 350.0 
584.0002926422701 95333.0 NaN 1488.7668670674693 0.5052339872806143 507.0 3.0 351.0 
586.0002926422701 95388.0 NaN 1485.7100868403468 0.504490630503754 513.0 3.0 350.0 
588.0002926422701 95364.0 NaN 1485.6940547762185 0.5060433622724125 515.0 3.0 350.0 
590.0002926422701 95372.0 NaN 1488.7374749499 0.5046985277894919 518.0 3.0 351.0 
592.0002926422701 95318.0 NaN 1488.670674682699 0.50486161006212 519.0 3.0 351.0 
594.0002926422701 95308.0 NaN 1491.7301269205082 0.5047000020890705 521.0 3.0 352.0 
596.0002926422701 95367.0 NaN 1488.6038744154987 0.5042895820802594 526.0 3.0 351.0 
598.0002926422701 95342.0 NaN 1491.7702070808277 0.5044639497562396 525.0 3.0 352.0 
600.0002926422701 95355.0 NaN 1491.8129592518364 0.5051628394007694 526.0 3.0 352.0 
602.0002926422701 95357.0 NaN 1501.0634602538419 0.5044222539566304 528.0 3.0 355.0 
604.0002926422701 95398.0 NaN 1497.9452237808941 0.5045047023738664 527.0 3.0 354.0 
606.0002926422701 95447.0 NaN 1500.9512358049442 0.5043556486860693 527.0 3.0 355.0 
608.0002926422701 95431.0 NaN 1507.0888443553788 0.504853020511684 524.0 3.0 357.0 
610.0002926422701 95465.0 NaN 1513.2558450233807 0.5054098879319151 524.0 3.0 359.0 
612.0002926422701 95478.0 NaN 1510.2124248497 0.505023233184876 524.0 3.0 358.0 
614.0002926422701 95479.0 NaN 1507.214428857716 0.5045949693410642 523.0 3.0 357.0 
616.0002926422701 95510.0 NaN 1507.1636606546435 0.5050158469093274 523.0 4.0 356.0 
618.0002926422701 95453.0 NaN 1504.0694722778899 0.5051162942962883 523.0 4.0 355.0 
620.0002926422701 95481.0 NaN 1513.2772211088839 0.5047482202157374 524.0 3.0 359.0 
622.0002926422701 95514.0 NaN 1525.5871743486978 0.5047125016580999 525.0 3.0 363.0 
624.0002926422701 95504.0 NaN 1522.5170340681366 0.5045217748786296 523.0 3.0 362.0 
626.0002926422701 95525.0 NaN 1525.6459585838354 0.5044963788365135 523.0 3.0 363.0 
628.0002926422701 95511.0 NaN 1525.6539746158992 0.5047303023067671 523.0 4.0 362.0 
630.0002926422701 95517.0 NaN 1519.5617902471615 0.5056717723098267 520.0 4.0 360.0 
632.0002926422701 95481.0 NaN 1522.5571142284564 0.5051610163132785 517.0 5.0 360.0 
634.0002926422701 95430.0 NaN 1519.4709418837667 0.5046195515643618 517.0 5.0 359.0 
636.0002926422701 95436.0 NaN 1522.4395457581825 0.5052208794395723 523.0 5.0 360.0 
638.0002926422701 95391.0 NaN 1519.3800935203735 0.5070825665912911 526.0 5.0 359.0 
640.0002926422701 95358.0 NaN 1519.4655978623907 0.5058470043277437 523.0 5.0 359.0 
642.0002926422701 95312.0 NaN 1525.653974615899 0.5049099370055394 529.0 3.0 363.0 
644.0002926422701 95272.0 NaN 1522.639946559785 0.505717499951377 528.0 3.0 362.0 
646.0002926422701 95200.0 NaN 1519.5831663326649 0.5047460053351123 525.0 3.0 361.0 
648.0002926422701 95181.0 NaN 1525.6887107548437 0.5044609912952815 522.0 3.0 363.0 
650.0002926422701 95197.0 NaN 1522.5811623246484 0.5051427775929838 518.0 3.0 362.0 
652.0002926422701 95216.0 NaN 1525.6245824983291 0.5044610076333229 519.0 3.0 363.0 
654.0002926422701 95207.0 NaN 1525.7100868403465 0.5054024432899554 518.0 3.0 363.0 
656.0002926422701 95272.0 NaN 1534.9579158316637 0.5052417233422758 517.0 3.0 366.0 
658.0002926422701 95267.0 NaN 1544.251169004675 0.5049478540314106 517.0 3.0 369.0 
660.0002926422701 95220.0 NaN 1544.2324649298605 0.50476247978255 515.0 4.0 368.0 
662.0002926422701 95219.0 NaN 1544.1736806947245 0.5042220549939499 514.0 4.0 368.0 
664.0002926422701 95218.0 NaN 1541.0340681362727 0.5048035060590742 513.0 4.0 367.0 
#####################################################################
# End of data export. Simulation finished at: 2019-03-07T04:15+0000 #
#####################################################################
