#####################################################################
# Alchemist log file - simulation started at: 2019-03-05T20:40+0000 #
#####################################################################
# seed = 3.0, bandwidth = 316227.76601683797, propagationDelay = 3.1622776601683795, baserange = 56.234132519034915
#
# The columns have the following meaning: 
# time neighbor_count[Sum] <value>@neighbor_count[Sum] packet_size[Mean] mean_delay[Mean] crowd[Sum] overcrowded[Sum] risk[Sum] 
0.0 NaN NaN NaN NaN NaN NaN NaN 
2.0005923698108097 NaN NaN 4988.0 NaN 1497.0 0.0 1497.0 
4.0001579036870805 2073.0 NaN 4988.857715430861 0.2223555250586886 1497.0 0.0 1497.0 
6.000084666035003 6162.0 NaN 4996.256513026052 1.8296901318648513 1497.0 0.0 1497.0 
8.000132605465799 6163.0 NaN 4995.478957915831 2.4352797232149346 1497.0 0.0 1497.0 
10.00033353340315 6170.0 NaN 4994.800267201069 1.83156316725939 1491.0 6.0 1491.0 
12.0001326054658 6168.0 NaN 4993.525718102873 2.435926152727726 1491.0 6.0 1491.0 
14.00059236981081 6170.0 NaN 4995.155644622579 1.830840184535106 1486.0 11.0 1486.0 
16.000084666035004 6174.0 NaN 4994.554442217769 2.4364078275611187 1481.0 16.0 1481.0 
18.00059236981081 6184.0 NaN 4993.653974615899 1.8383996442640909 1469.0 28.0 1469.0 
20.0001326054658 6184.0 NaN 4993.007348029392 2.4311478184161532 1467.0 30.0 1467.0 
22.00059236981081 6190.0 NaN 4994.535738142952 1.8322354613040535 1468.0 29.0 1468.0 
24.0001326054658 6191.0 NaN 4994.260521042084 2.4338907519503556 1464.0 33.0 1464.0 
26.000084666035004 6198.0 NaN 4993.215764863059 1.8360862554985058 1464.0 33.0 1464.0 
28.0001326054658 6203.0 NaN 4992.7428189712755 2.4386800569983005 1464.0 33.0 1464.0 
30.00033353340315 6212.0 NaN 4994.167000668002 1.8420202751233268 1463.0 34.0 1463.0 
32.0001326054658 6210.0 NaN 4994.0013360053445 2.4399420356760326 1464.0 33.0 1464.0 
34.00059236981081 6218.0 NaN 4993.10621242485 1.8312021249330679 1461.0 36.0 1461.0 
36.00008466603501 6223.0 NaN 4992.7294589178355 2.4370759993225257 1457.0 40.0 1457.0 
38.00059236981081 6240.0 NaN 4994.0146960587845 1.8387485050227184 1463.0 34.0 1463.0 
40.0001326054658 6231.0 NaN 4993.803607214429 2.4430658295896595 1463.0 34.0 1463.0 
42.00059236981081 6236.0 NaN 4992.993987975952 1.8347284281930587 1460.0 37.0 1460.0 
44.0001326054658 6237.0 NaN 4992.705410821643 2.4325501907681324 1459.0 38.0 1459.0 
46.00008466603501 6250.0 NaN 4993.784903139613 1.8332309848330857 1463.0 34.0 1463.0 
48.0001326054658 6269.0 NaN 4993.694054776219 2.432320087032052 1463.0 34.0 1463.0 
50.00033353340315 6301.0 NaN 4992.961923847695 1.8417822891522517 1459.0 38.0 1459.0 
52.0001326054658 6278.0 NaN 4992.609218436874 2.4369901967853633 1458.0 39.0 1458.0 
54.00059236981081 6291.0 NaN 4993.835671342686 1.8402821431524496 1456.0 41.0 1456.0 
56.00008466603501 6298.0 NaN 4993.621910487642 2.4380188596927526 1457.0 40.0 1457.0 
58.00059236981081 6324.0 NaN 4992.975283901135 1.848802797755837 1459.0 38.0 1459.0 
60.0001326054658 6288.0 NaN 4992.705410821643 2.441780244838223 1456.0 41.0 1456.0 
62.00059236981081 6295.0 NaN 1525.0955243820977 1.8617190969657298 799.0 39.0 327.0 
64.00016305433498 6263.0 NaN 1525.1970607882452 2.4290654865940495 741.0 39.0 327.0 
66.00008466603501 6257.0 NaN 1525.0661322645276 1.8456026817328992 627.0 41.0 325.0 
68.00016305433499 6274.0 NaN 1524.9004676018724 2.427442823417704 611.0 43.0 323.0 
70.00033353340315 6318.0 NaN 1527.9812959251822 1.85677078410061 555.0 47.0 320.0 
72.00016305433499 6286.0 NaN 1528.0240480961913 2.435021628669123 547.0 44.0 323.0 
74.00059236981082 6287.0 NaN 1527.8610554442212 1.8496497017690285 532.0 45.0 322.0 
76.00008466603501 6291.0 NaN 1527.7675350701393 2.4364018831075485 526.0 43.0 324.0 
78.00059236981082 6317.0 NaN 1530.9498997996002 1.8629745304369685 508.0 44.0 324.0 
80.00016305433499 6309.0 NaN 1534.0654642618572 2.4345582357927955 506.0 44.0 325.0 
82.00059236981082 6324.0 NaN 1537.0313961255845 1.8492880950452184 503.0 42.0 328.0 
84.00016305433499 6308.0 NaN 1536.9779559118244 2.4323358161315802 500.0 42.0 328.0 
86.00008466603501 6307.0 NaN 1537.028724114897 1.8566842302058448 493.0 43.0 327.0 
88.00016305433499 6297.0 NaN 1537.0313961255845 2.440693155917008 492.0 43.0 327.0 
90.00033353340315 6316.0 NaN 1536.9405477621908 1.8619667610990154 492.0 43.0 327.0 
92.00016305433499 6269.0 NaN 1536.9619238476937 2.4415659563550816 493.0 42.0 328.0 
94.00059236981082 6270.0 NaN 1537.007348029391 1.8540589736374853 491.0 42.0 328.0 
96.00008466603501 6251.0 NaN 1540.0080160320636 2.4335535155738826 488.0 43.0 328.0 
98.00059236981082 6280.0 NaN 1539.9706078824304 1.8466122935931366 488.0 43.0 328.0 
100.00016305433499 6274.0 NaN 1540.0 2.434173768964044 489.0 42.0 329.0 
102.00059236981082 6282.0 NaN 1540.0668002671998 1.8518451572296486 486.0 45.0 326.0 
104.00016305433499 6265.0 NaN 1540.0454241816974 2.436795109400978 488.0 43.0 328.0 
106.00008466603501 6263.0 NaN 1539.9946559786242 1.8466073597738415 479.0 49.0 322.0 
108.00016305433499 6266.0 NaN 1539.9946559786242 2.4368158468590386 476.0 51.0 320.0 
110.00033353340315 6284.0 NaN 1540.0534402137612 1.867590946716277 474.0 52.0 319.0 
112.00016305433499 6254.0 NaN 1540.1015364061454 2.431683373238034 475.0 51.0 320.0 
114.00059236981082 6272.0 NaN 1539.9625918503666 1.84309688896369 470.0 57.0 314.0 
116.00008466603501 6283.0 NaN 1546.0334001335998 2.435947190709786 469.0 58.0 315.0 
118.00059236981082 6319.0 NaN 1549.2798931195728 1.8700776250434976 474.0 53.0 321.0 
120.00016305433499 6294.0 NaN 1549.2718770875092 2.442501099569768 475.0 52.0 322.0 
122.00059236981082 6317.0 NaN 1552.2431529726116 1.8542592715299107 475.0 51.0 324.0 
124.00016305433499 6285.0 NaN 1552.2431529726116 2.4370742538702066 477.0 49.0 326.0 
126.00008466603501 6288.0 NaN 1552.3259853039426 1.8515868858818338 488.0 40.0 335.0 
128.000163054335 6304.0 NaN 1549.2184368737455 2.435116497535433 488.0 40.0 334.0 
130.00033353340314 6345.0 NaN 1549.1783567134273 1.8617681849468404 489.0 40.0 334.0 
132.00016305433496 6287.0 NaN 1546.126920507682 2.442497566161369 489.0 40.0 333.0 
134.00059236981082 6285.0 NaN 1546.2070808283245 1.863431420534189 488.0 41.0 332.0 
136.000084666035 6266.0 NaN 1543.1449565798275 2.442031319867037 488.0 41.0 331.0 
138.00059236981082 6305.0 NaN 1546.1349365397452 1.8589855136422333 483.0 45.0 328.0 
140.00016305433496 6284.0 NaN 1546.172344689379 2.4349623510491805 484.0 46.0 327.0 
142.00059236981082 6319.0 NaN 1549.2905811623243 1.8631200903057996 482.0 46.0 328.0 
144.00016305433496 6281.0 NaN 1549.2665330661334 2.443433211565556 479.0 49.0 325.0 
146.000084666035 6290.0 NaN 1549.3146292585184 1.857325389574023 480.0 49.0 325.0 
148.00016305433496 6292.0 NaN 1543.1289245156997 2.4422636621527354 479.0 48.0 324.0 
150.00033353340314 6313.0 NaN 1543.2331329325305 1.87112085608298 479.0 48.0 324.0 
152.00016305433496 6286.0 NaN 1543.281229124918 2.439589084947349 479.0 48.0 324.0 
154.00059236981082 6286.0 NaN 1540.0507682030725 1.872399309493326 478.0 49.0 322.0 
156.000084666035 6262.0 NaN 1540.0454241816972 2.4375062737011004 480.0 50.0 321.0 
158.00059236981082 6276.0 NaN 1540.1416165664664 1.861296903006334 476.0 53.0 318.0 
160.00016305433496 6246.0 NaN 1540.1897127588516 2.4389033018121453 470.0 57.0 314.0 
162.00059236981082 6264.0 NaN 1543.169004676018 1.8578343076826578 472.0 54.0 318.0 
164.00016305433496 6226.0 NaN 1543.1449565798275 2.4317496456716396 473.0 51.0 321.0 
166.000084666035 6214.0 NaN 1543.1957247829 1.8451139108751835 471.0 53.0 319.0 
168.00016305433496 6217.0 NaN 1549.32531730127 2.4272319820569295 476.0 47.0 327.0 
170.00033353340314 6260.0 NaN 1549.322645290582 1.8556340320704494 477.0 45.0 329.0 
172.00016305433496 6239.0 NaN 1549.3547094188364 2.444699754660541 476.0 46.0 328.0 
174.00059236981082 6252.0 NaN 1549.3520374081484 1.8737089481892948 481.0 45.0 329.0 
176.000084666035 6229.0 NaN 1543.1449565798275 2.4502650165869975 481.0 45.0 327.0 
178.00059236981082 6241.0 NaN 1540.0587842351363 1.8698813237577858 480.0 46.0 325.0 
180.00016305433496 6228.0 NaN 1537.0581162324638 2.448336917395102 480.0 46.0 324.0 
182.00059236981082 6247.0 NaN 1540.0668002671998 1.86726215751866 480.0 46.0 325.0 
184.00016305433496 6198.0 NaN 1537.0207080828336 2.439056158872871 479.0 46.0 324.0 
186.000084666035 6187.0 NaN 1536.9325317301273 1.852106901118372 480.0 46.0 324.0 
188.00016305433496 6176.0 NaN 1533.8410153640637 2.4294374022891723 477.0 47.0 322.0 
190.00033353340314 6205.0 NaN 1536.999331997327 1.8594030553000929 475.0 47.0 323.0 
192.00016305433496 6172.0 NaN 1533.9532398129606 2.434841887514525 473.0 48.0 321.0 
194.00059236981082 6176.0 NaN 1533.902471609888 1.8600654370968643 473.0 47.0 322.0 
196.000084666035 6153.0 NaN 1533.8623914495638 2.4472150263891193 472.0 48.0 321.0 
198.00059236981082 6163.0 NaN 1533.9772879091518 1.8633388389114394 471.0 49.0 320.0 
200.00016305433496 6147.0 NaN 1534.0253841015365 2.4454600225008143 471.0 49.0 320.0 
202.00059236981082 6168.0 NaN 1537.047428189712 1.8739318370995868 473.0 49.0 321.0 
204.00016305433496 6128.0 NaN 1536.996659986639 2.441789285013996 471.0 49.0 321.0 
206.000084666035 6125.0 NaN 1540.1656646626573 1.8601271293850687 474.0 46.0 325.0 
208.00016305433496 6120.0 NaN 1540.14963259853 2.4539703775931017 474.0 46.0 325.0 
210.00033353340314 6156.0 NaN 1537.0207080828334 1.8888520367925763 475.0 46.0 324.0 
212.00016305433496 6123.0 NaN 1530.7468269873093 2.4669510318612753 477.0 46.0 322.0 
214.00059236981082 6128.0 NaN 1530.8189712758845 1.8747324779320669 477.0 46.0 322.0 
216.000084666035 6093.0 NaN 1530.835003340012 2.441214565175362 473.0 47.0 321.0 
218.00059236981082 6101.0 NaN 1530.8430193720787 1.8562909187032084 467.0 51.0 317.0 
220.00016305433496 6092.0 NaN 1527.7755511022028 2.4459855718139405 462.0 54.0 313.0 
222.00059236981082 6114.0 NaN 1527.7114228456908 1.867524359169992 463.0 54.0 313.0 
224.00016305433496 6080.0 NaN 1527.690046760188 2.4445697339993067 465.0 53.0 314.0 
226.000084666035 6073.0 NaN 1527.6793587174361 1.8534346330977485 470.0 48.0 319.0 
228.00016305433496 6065.0 NaN 1530.7735470941884 2.451812713002819 466.0 50.0 318.0 
230.00033353340314 6092.0 NaN 1530.7842351369393 1.8835139387445758 462.0 55.0 313.0 
232.00016305433496 6037.0 NaN 1533.8543754175003 2.4595940796883102 463.0 54.0 315.0 
234.00059236981082 6033.0 NaN 1533.8276553106207 1.8658979968755414 464.0 53.0 316.0 
236.000084666035 6012.0 NaN 1536.8977955911816 2.448073333996449 467.0 51.0 319.0 
238.00059236981082 6019.0 NaN 1539.9492317969275 1.872385742596295 469.0 48.0 323.0 
240.00016305433496 5996.0 NaN 1530.7708750835 2.4537853842193025 468.0 48.0 320.0 
242.00059236981082 6014.0 NaN 1533.814295257182 1.862684733084051 468.0 49.0 320.0 
244.00016305433496 5990.0 NaN 1533.7875751503 2.450178112071806 467.0 50.0 319.0 
246.000084666035 5995.0 NaN 1533.7608550434184 1.8550881415176117 469.0 50.0 319.0 
248.00016305433496 5992.0 NaN 1527.6980627922517 2.455573969719199 466.0 50.0 317.0 
250.00033353340314 6025.0 NaN 1527.7087508350028 1.901034749358955 467.0 50.0 317.0 
252.00016305433496 5969.0 NaN 1524.6118904475634 2.472614093945744 466.0 50.0 316.0 
254.00059236981082 5969.0 NaN 1524.555778223112 1.871565723763288 468.0 48.0 318.0 
256.00008466603504 5941.0 NaN 1521.5230460921844 2.443391517003526 470.0 49.0 316.0 
258.0005923698108 5950.0 NaN 1521.5497661990637 1.8608488864949535 468.0 50.0 315.0 
260.000163054335 5947.0 NaN 1521.5577822311277 2.4419740639258367 467.0 49.0 316.0 
262.0005923698108 5966.0 NaN 1521.4909819639272 1.8768918181507988 465.0 53.0 312.0 
264.000163054335 5946.0 NaN 1521.5310621242481 2.456416148948365 465.0 53.0 312.0 
266.00008466603504 5960.0 NaN 1518.4261857047431 1.8696829201611163 467.0 49.0 315.0 
268.000163054335 5928.0 NaN 1518.4261857047431 2.4584337214305103 471.0 44.0 320.0 
270.00033353340314 5931.0 NaN 1527.6873747495001 1.8913016138440724 470.0 42.0 325.0 
272.000163054335 5913.0 NaN 1527.7301269205088 2.455982267795917 469.0 42.0 325.0 
274.0005923698108 5928.0 NaN 1530.67468269873 1.873058348610764 470.0 41.0 327.0 
276.00008466603504 5889.0 NaN 1524.5023380093521 2.4510664818543724 468.0 41.0 325.0 
278.0005923698108 5902.0 NaN 1530.6853707414816 1.8742819558874189 473.0 41.0 327.0 
280.000163054335 5879.0 NaN 1530.7227788911157 2.465113340018146 474.0 41.0 327.0 
282.0005923698108 5888.0 NaN 1533.726118904475 1.8739670348719462 474.0 41.0 328.0 
284.000163054335 5853.0 NaN 1530.6346025384091 2.4533070245575574 474.0 41.0 327.0 
286.00008466603504 5868.0 NaN 1530.6265865063453 1.8614297814213303 472.0 41.0 327.0 
288.000163054335 5844.0 NaN 1533.7768871075477 2.4578404572496217 473.0 41.0 328.0 
290.00033353340314 5857.0 NaN 1533.8142952571818 1.8988525498571411 472.0 43.0 326.0 
292.000163054335 5824.0 NaN 1533.7501670006668 2.4499611934521885 469.0 46.0 323.0 
294.0005923698108 5836.0 NaN 1533.7394789579162 1.8677790400275318 469.0 45.0 324.0 
296.00008466603504 5812.0 NaN 1530.6693386773545 2.4580287603944573 467.0 45.0 323.0 
298.0005923698108 5821.0 NaN 1530.6586506346025 1.8830903345413317 468.0 45.0 323.0 
300.000163054335 5806.0 NaN 1533.7955911823635 2.4646986631386953 467.0 45.0 324.0 
302.0005923698108 5812.0 NaN 1533.768871075484 1.8942550755001781 465.0 46.0 323.0 
304.000163054335 5781.0 NaN 1533.790247160991 2.4496860981166386 464.0 46.0 323.0 
306.00008466603504 5803.0 NaN 1533.7661990647973 1.8789360073148358 466.0 45.0 324.0 
308.000163054335 5784.0 NaN 1530.6746826987298 2.4443708170185445 465.0 45.0 323.0 
310.00033353340314 5797.0 NaN 1530.6880427521726 1.8607174126747423 464.0 45.0 323.0 
312.000163054335 5781.0 NaN 1527.625918503673 2.4479920901251284 463.0 45.0 322.0 
314.0005923698108 5804.0 NaN 1530.6826987307936 1.87845687461178 461.0 47.0 321.0 
316.00008466603504 5778.0 NaN 1533.7608550434184 2.4562973864782656 460.0 47.0 322.0 
318.0005923698108 5777.0 NaN 1536.8871075484296 1.8695581685871945 463.0 46.0 324.0 
320.000163054335 5767.0 NaN 1536.8470273881092 2.458716614745998 462.0 46.0 324.0 
322.0005923698108 5784.0 NaN 1539.9171676686726 1.8830519153676295 462.0 46.0 325.0 
324.000163054335 5750.0 NaN 1539.9679358717453 2.449856757998666 460.0 46.0 325.0 
326.00008466603504 5766.0 NaN 1539.9278557114242 1.8634911902053748 460.0 47.0 324.0 
328.000163054335 5745.0 NaN 1536.9191716766884 2.4438925802014446 458.0 47.0 323.0 
330.00033353340314 5772.0 NaN 1536.836339345357 1.867136088608504 460.0 46.0 324.0 
332.000163054335 5765.0 NaN 1536.8149632598545 2.460476396296041 460.0 46.0 324.0 
334.0005923698108 5794.0 NaN 1536.7962591850362 1.8715138022624245 461.0 46.0 324.0 
336.00008466603504 5777.0 NaN 1536.8203072812273 2.4628503600757763 461.0 46.0 324.0 
338.0005923698108 5789.0 NaN 1536.9031396125572 1.8753965865802953 461.0 47.0 323.0 
340.000163054335 5788.0 NaN 1527.6098864395453 2.4678297995519514 460.0 47.0 320.0 
342.0005923698108 5822.0 NaN 1527.660654642618 1.8847756299255025 462.0 46.0 321.0 
344.000163054335 5773.0 NaN 1527.6472945891787 2.472234676338547 460.0 46.0 321.0 
346.00008466603504 5786.0 NaN 1527.6579826319298 1.8628793114295108 461.0 46.0 321.0 
348.000163054335 5773.0 NaN 1524.5771543086184 2.4681214398722173 460.0 46.0 320.0 
350.00033353340314 5793.0 NaN 1527.6366065464276 1.884386070205624 459.0 46.0 321.0 
352.000163054335 5775.0 NaN 1521.531062124248 2.467876250185349 460.0 46.0 319.0 
354.0005923698108 5795.0 NaN 1521.464261857046 1.855328259891404 462.0 46.0 319.0 
356.00008466603504 5780.0 NaN 1521.4936539746177 2.458624942839198 460.0 47.0 318.0 
358.0005923698108 5799.0 NaN 1521.4749498998 1.8821035794123755 462.0 46.0 319.0 
360.000163054335 5757.0 NaN 1521.4802939211752 2.465341516010729 462.0 46.0 319.0 
362.0005923698108 5761.0 NaN 1521.4776219104883 1.8725342577975368 461.0 46.0 319.0 
364.000163054335 5734.0 NaN 1518.3674014696066 2.4575768714943176 461.0 46.0 318.0 
366.00008466603504 5749.0 NaN 1515.3400133600546 1.8697601239351618 464.0 45.0 318.0 
368.000163054335 5746.0 NaN 1493.899799599199 2.4668424012047305 468.0 42.0 314.0 
370.00033353340314 5771.0 NaN 1499.9198396793577 1.86613044601426 469.0 42.0 316.0 
372.000163054335 5766.0 NaN 1503.0060120240475 2.4648371433188987 467.0 42.0 317.0 
374.0005923698108 5784.0 NaN 1503.0327321309278 1.8775733449152632 464.0 46.0 313.0 
376.00008466603504 5761.0 NaN 1503.0728122912483 2.4631990496826206 464.0 46.0 313.0 
378.0005923698108 5774.0 NaN 1502.995323981297 1.882547345840857 465.0 45.0 314.0 
380.000163054335 5765.0 NaN 1502.9258517034082 2.4729233435015754 466.0 45.0 314.0 
382.0005923698108 5785.0 NaN 1502.9605878423522 1.896294039421194 466.0 44.0 315.0 
384.000163054335 5770.0 NaN 1499.9251837007355 2.4684024483522657 466.0 44.0 314.0 
386.00008466603504 5797.0 NaN 1512.141616566466 1.8682088455319594 471.0 44.0 318.0 
388.000163054335 5778.0 NaN 1502.9979959919829 2.4755875819319764 471.0 44.0 315.0 
390.00033353340314 5796.0 NaN 1506.054776219106 1.917375267451183 475.0 41.0 319.0 
392.000163054335 5775.0 NaN 1506.1589846359373 2.4744747017019177 472.0 42.0 318.0 
394.0005923698108 5802.0 NaN 1509.1088844355368 1.8652873049435668 472.0 41.0 320.0 
396.00008466603504 5788.0 NaN 1509.0848363393457 2.467158510722409 476.0 41.0 320.0 
398.0005923698108 5802.0 NaN 1509.1462925851706 1.8689397881097218 475.0 44.0 317.0 
400.000163054335 5802.0 NaN 1509.2317969271885 2.484139977169063 474.0 45.0 316.0 
402.0005923698108 5831.0 NaN 1509.1382765531068 1.883880276103033 477.0 42.0 319.0 
404.000163054335 5800.0 NaN 1512.2618570474274 2.473740758628686 478.0 42.0 320.0 
406.00008466603504 5819.0 NaN 1515.3186372745483 1.8729716399546052 482.0 41.0 322.0 
408.000163054335 5811.0 NaN 1509.2050768203085 2.476292405898186 480.0 41.0 320.0 
410.00033353340314 5831.0 NaN 1515.2999331997332 1.8887252872395437 479.0 42.0 321.0 
412.000163054335 5830.0 NaN 1521.4829659318634 2.4729424754733564 478.0 42.0 323.0 
414.0005923698108 5853.0 NaN 1521.5123580494333 1.8781638382805623 480.0 41.0 324.0 
416.00008466603504 5812.0 NaN 1518.4716098864387 2.463572780807073 479.0 42.0 322.0 
418.0005923698108 5823.0 NaN 1524.611890447563 1.8923129175854336 484.0 42.0 324.0 
420.000163054335 5794.0 NaN 1518.3700734802933 2.474703079543535 487.0 41.0 323.0 
422.0005923698108 5805.0 NaN 1515.3961255845009 1.9007562397509081 483.0 45.0 318.0 
424.000163054335 5757.0 NaN 1506.137608550435 2.4666959070972867 482.0 45.0 315.0 
426.00008466603504 5754.0 NaN 1509.1756847027386 1.8912804719389948 484.0 40.0 321.0 
428.000163054335 5740.0 NaN 1506.1082164328648 2.4655584376290784 481.0 40.0 320.0 
430.00033353340314 5777.0 NaN 1512.2538410153636 1.8878075585716314 479.0 40.0 322.0 
432.000163054335 5770.0 NaN 1509.1863727454909 2.454911422364264 479.0 40.0 321.0 
434.0005923698108 5783.0 NaN 1512.1710086840353 1.8803981038083866 478.0 42.0 320.0 
436.00008466603504 5751.0 NaN 1518.3139612558455 2.4604048432054597 477.0 42.0 322.0 
438.0005923698108 5763.0 NaN 1527.6820307281243 1.8835904840570008 477.0 47.0 320.0 
440.000163054335 5755.0 NaN 1524.611890447563 2.4643048863409125 474.0 51.0 315.0 
442.0005923698108 5784.0 NaN 1521.5096860387448 1.8816850978106856 474.0 51.0 314.0 
444.000163054335 5769.0 NaN 1521.4268537074154 2.451662683716118 470.0 52.0 313.0 
446.00008466603504 5769.0 NaN 1530.725450901803 1.859773166864737 473.0 52.0 316.0 
448.000163054335 5763.0 NaN 1536.8871075484299 2.4596187633632978 479.0 48.0 322.0 
450.00033353340314 5796.0 NaN 1536.7615230460913 1.8908658212846912 482.0 45.0 325.0 
452.000163054335 5781.0 NaN 1539.7408149632606 2.4750334861165104 484.0 42.0 329.0 
454.0005923698108 5808.0 NaN 1549.1008684034728 1.8671277064454657 485.0 42.0 332.0 
456.00008466603504 5780.0 NaN 1549.1035404141633 2.467973961141838 484.0 43.0 331.0 
458.0005923698108 5773.0 NaN 1552.1870407481638 1.8654900753482746 483.0 44.0 331.0 
460.000163054335 5775.0 NaN 1548.9993319973273 2.4596726063026764 483.0 44.0 330.0 
462.0005923698108 5810.0 NaN 1549.1569806279213 1.8888927937195 485.0 42.0 332.0 
464.000163054335 5764.0 NaN 1549.1222444889788 2.4482156211486807 483.0 43.0 331.0 
466.00008466603504 5763.0 NaN 1549.164996659988 1.858696080863492 484.0 43.0 331.0 
468.000163054335 5758.0 NaN 1546.028056112225 2.462824656369793 484.0 43.0 330.0 
470.00033353340314 5780.0 NaN 1549.1329325317297 1.8865919300572465 485.0 41.0 333.0 
472.000163054335 5751.0 NaN 1539.8450233800934 2.4660192181464855 482.0 41.0 330.0 
474.0005923698108 5756.0 NaN 1536.7428189712753 1.8754280341902754 482.0 40.0 330.0 
476.00008466603504 5742.0 NaN 1530.6319305277211 2.46733475112794 480.0 40.0 328.0 
478.0005923698108 5750.0 NaN 1530.6212424849705 1.8642525913913213 479.0 40.0 328.0 
480.000163054335 5751.0 NaN 1527.5591182364726 2.447619939178033 480.0 40.0 327.0 
482.0005923698108 5791.0 NaN 1527.572478289912 1.8814756100440035 479.0 41.0 326.0 
484.000163054335 5736.0 NaN 1518.3380093520364 2.451155347313022 476.0 42.0 322.0 
486.00008466603504 5739.0 NaN 1518.4074816299271 1.8611582220889553 478.0 41.0 323.0 
488.000163054335 5732.0 NaN 1506.167000668002 2.4615414034761827 477.0 41.0 319.0 
490.00033353340314 5756.0 NaN 1506.1055444221788 1.8973486019560668 474.0 43.0 317.0 
492.000163054335 5726.0 NaN 1496.8951235804936 2.481944637465132 476.0 43.0 314.0 
494.0005923698108 5732.0 NaN 1503.0541082164336 1.8800008367743348 474.0 44.0 315.0 
496.00008466603504 5709.0 NaN 1499.9759519038082 2.47002061179336 474.0 43.0 315.0 
498.0005923698108 5723.0 NaN 1499.9545758183024 1.8957415931591863 477.0 40.0 318.0 
500.000163054335 5710.0 NaN 1496.8790915163654 2.4751959685064917 479.0 39.0 318.0 
502.0005923698108 5722.0 NaN 1496.9298597194384 1.8772629386609123 476.0 39.0 318.0 
504.000163054335 5698.0 NaN 1490.8056112224456 2.4513472042992817 477.0 40.0 315.0 
506.00008466603504 5705.0 NaN 1490.7762191048755 1.8516015361758738 476.0 41.0 314.0 
508.000163054335 5706.0 NaN 1487.6820307281243 2.4510205225663917 475.0 41.0 313.0 
510.00033353340314 5730.0 NaN 1490.8430193720787 1.8797599652519648 477.0 40.0 315.0 
512.000163054335 5714.0 NaN 1496.9832999332002 2.461362762693125 476.0 40.0 317.0 
514.0005923698109 5722.0 NaN 1496.876419505679 1.8774538401435306 477.0 40.0 317.0 
516.000084666035 5702.0 NaN 1490.720106880427 2.4565153639745607 478.0 40.0 315.0 
518.0005923698109 5713.0 NaN 1484.7107548430183 1.865177871264673 473.0 42.0 311.0 
520.0001630543348 5714.0 NaN 1475.5564462257842 2.455235088064697 475.0 41.0 309.0 
522.0005923698109 5743.0 NaN 1469.2424849699391 1.8756233897040742 471.0 42.0 306.0 
524.0001630543348 5715.0 NaN 1453.8837675350705 2.4557562194560627 471.0 42.0 301.0 
526.000084666035 5723.0 NaN 1457.010020040081 1.8656829658185747 470.0 42.0 302.0 
528.0001630543348 5707.0 NaN 1450.9205076820301 2.465763952483241 465.0 43.0 299.0 
530.0003335334031 5732.0 NaN 1457.0207080828332 1.8874303454831296 461.0 44.0 300.0 
532.0001630543348 5712.0 NaN 1456.9565798263186 2.472706320322682 460.0 44.0 300.0 
534.0005923698109 5737.0 NaN 1463.1102204408817 1.87984580276587 468.0 43.0 303.0 
536.000084666035 5715.0 NaN 1463.1022044088184 2.467120578331298 467.0 43.0 303.0 
538.0005923698109 5734.0 NaN 1469.2558450233805 1.8818060044625946 466.0 43.0 305.0 
540.0001630543348 5709.0 NaN 1469.2558450233805 2.4544342227817864 465.0 43.0 305.0 
542.0005923698109 5737.0 NaN 1469.2505010020031 1.8690445140580882 465.0 44.0 304.0 
544.0001630543348 5719.0 NaN 1472.2939211756839 2.4532703919685455 466.0 44.0 305.0 
546.000084666035 5727.0 NaN 1478.4021376085511 1.8574909662375299 467.0 42.0 309.0 
548.0001630543348 5719.0 NaN 1478.3700734802933 2.4475752553036156 467.0 42.0 309.0 
550.0003335334031 5741.0 NaN 1478.4395457581825 1.8705351880159669 469.0 39.0 312.0 
552.0001630543348 5733.0 NaN 1475.3640614562455 2.474060061453237 472.0 39.0 311.0 
554.0005923698109 5755.0 NaN 1481.453573814294 1.884773361146167 474.0 40.0 312.0 
556.000084666035 5742.0 NaN 1478.3567134268542 2.4705612997223425 474.0 40.0 311.0 
558.0005923698109 5756.0 NaN 1481.4909819639274 1.8767886246739958 477.0 39.0 313.0 
560.0001630543348 5741.0 NaN 1469.2371409485636 2.4594883304076434 476.0 40.0 308.0 
562.0005923698109 5759.0 NaN 1469.1890447561793 1.8620339314496992 473.0 40.0 308.0 
564.0001630543348 5759.0 NaN 1472.2538410153638 2.4712435765416396 473.0 42.0 307.0 
566.000084666035 5805.0 NaN 1475.4335337341354 1.8965624384191453 469.0 44.0 306.0 
568.0001630543348 5757.0 NaN 1481.5764863059455 2.4610332775562878 468.0 44.0 308.0 
570.0003335334031 5772.0 NaN 1481.4749498997999 1.862561539522694 471.0 43.0 309.0 
572.0001630543348 5750.0 NaN 1481.4482297929187 2.4616452365706447 471.0 44.0 308.0 
574.0005923698109 5777.0 NaN 1481.4749498997999 1.88691006625358 472.0 44.0 308.0 
576.000084666035 5765.0 NaN 1493.774215096861 2.4824813893121718 475.0 44.0 312.0 
578.0005923698109 5772.0 NaN 1490.6773547094183 1.907681283988883 476.0 45.0 310.0 
580.0001630543348 5733.0 NaN 1487.644622578491 2.4754464165354424 477.0 45.0 309.0 
582.0005923698109 5742.0 NaN 1487.6045424181705 1.895614878976947 477.0 46.0 308.0 
584.0001630543348 5736.0 NaN 1484.5611222444895 2.488344927335532 481.0 43.0 310.0 
586.000084666035 5779.0 NaN 1484.4969939879752 1.9101950872045892 488.0 39.0 314.0 
588.0001630543348 5725.0 NaN 1490.685370741482 2.469309196092898 489.0 39.0 316.0 
590.0003335334031 5743.0 NaN 1490.7307949231806 1.884061375226121 489.0 40.0 315.0 
592.0001630543348 5717.0 NaN 1500.0507682030725 2.4612105808100613 490.0 40.0 318.0 
594.0005923698109 5730.0 NaN 1506.041416165664 1.8729360084597952 492.0 39.0 321.0 
596.000084666035 5707.0 NaN 1499.8904475617908 2.4718155572706824 493.0 39.0 319.0 
598.0005923698109 5714.0 NaN 1490.7548430193724 1.910340981219445 495.0 39.0 316.0 
600.0001630543348 5683.0 NaN 1493.8169672678696 2.4768243444707094 493.0 39.0 317.0 
602.0005923698109 5707.0 NaN 1490.7361389445553 1.8839436824982065 491.0 40.0 315.0 
604.0001630543348 5710.0 NaN 1490.653306613227 2.475351206142725 492.0 40.0 315.0 
606.000084666035 5757.0 NaN 1496.9218436873741 1.8795786372657453 492.0 39.0 318.0 
608.0001630543348 5746.0 NaN 1500.024048096192 2.467720283073238 490.0 39.0 319.0 
610.0003335334031 5789.0 NaN 1503.0220440881756 1.8729000919401704 492.0 39.0 320.0 
612.0001630543348 5770.0 NaN 1496.8710754843012 2.474231032275788 491.0 39.0 318.0 
614.0005923698109 5787.0 NaN 1499.938543754174 1.880010636434127 489.0 41.0 317.0 
616.000084666035 5757.0 NaN 1496.9405477621908 2.481247169817138 483.0 47.0 310.0 
618.0005923698109 5786.0 NaN 1496.8897795591183 1.8954154621829031 484.0 46.0 311.0 
620.0001630543348 5803.0 NaN 1496.9111556446212 2.4840331455052764 484.0 46.0 311.0 
622.0005923698109 5906.0 NaN 1503.0487641950556 1.8779935928349063 484.0 46.0 313.0 
624.0001630543348 5875.0 NaN 1503.1476285905153 2.481671003377295 482.0 46.0 313.0 
626.000084666035 5885.0 NaN 1512.3687374749486 1.8868975721420396 482.0 46.0 316.0 
628.0001630543348 5876.0 NaN 1509.2371409485636 2.476346230470267 478.0 49.0 312.0 
630.0003335334031 5932.0 NaN 1515.4121576486295 1.8679357180824512 482.0 46.0 317.0 
632.0001630543348 5922.0 NaN 1515.489645958583 2.4833280404545737 486.0 45.0 318.0 
634.0005923698109 5940.0 NaN 1518.501002004009 1.8959380199724924 487.0 44.0 320.0 
636.000084666035 5860.0 NaN 1518.5303941215757 2.4826647321456528 484.0 47.0 317.0 
638.0005923698109 5857.0 NaN 1521.5711422845698 1.8709813742297847 483.0 48.0 317.0 
640.0001630543348 5852.0 NaN 1518.4689378757525 2.4695173763305496 485.0 48.0 316.0 
642.0005923698109 5895.0 NaN 1521.4883099532392 1.8858667334862789 487.0 46.0 319.0 
644.0001630543348 5869.0 NaN 1515.3159652638617 2.469897815259307 485.0 46.0 317.0 
646.000084666035 5888.0 NaN 1515.4522378089523 1.8901605259769667 485.0 46.0 317.0 
648.0001630543348 5866.0 NaN 1521.6058784235122 2.4635411281494015 486.0 47.0 318.0 
650.0003335334031 5906.0 NaN 1521.5337341349364 1.8762112927416696 479.0 49.0 316.0 
652.0001630543348 5870.0 NaN 1518.4395457581827 2.4654815000347186 475.0 49.0 315.0 
654.0005923698109 5886.0 NaN 1518.4956579826332 1.8904229090591258 473.0 51.0 313.0 
656.000084666035 5845.0 NaN 1518.5357381429535 2.4629686082169138 474.0 50.0 314.0 
658.0005923698109 5848.0 NaN 1521.5711422845698 1.8770416533424603 475.0 46.0 319.0 
660.0001630543348 5839.0 NaN 1521.587174348698 2.463732169576959 474.0 47.0 318.0 
662.0005923698109 5864.0 NaN 1527.7327989311968 1.8975205885325024 471.0 47.0 320.0 
664.0001630543348 5813.0 NaN 1527.7541750167002 2.464939831686199 471.0 47.0 320.0 
#####################################################################
# End of data export. Simulation finished at: 2019-03-05T20:45+0000 #
#####################################################################
