#####################################################################
# Alchemist log file - simulation started at: 2019-03-07T23:35+0000 #
#####################################################################
# seed = 5.0, bandwidth = 2.3713737056616552E7, propagationDelay = 0.31622776601683794, baserange = 177.82794100389228
#
# The columns have the following meaning: 
# time neighbor_count[Sum] <value>@neighbor_count[Sum] packet_size[Mean] mean_delay[Mean] crowd[Sum] overcrowded[Sum] risk[Sum] 
0.0 NaN NaN NaN NaN NaN NaN NaN 
2.000097921309768 25292.0 NaN 4993.012692050768 0.47595739725760633 1497.0 0.0 1497.0 
4.000097921309767 26547.0 NaN 4993.814295257181 0.4996640748331165 1494.0 3.0 1494.0 
6.000097921309767 26550.0 NaN 4995.513694054776 0.49966231416514145 1493.0 4.0 1493.0 
8.000097921309768 26553.0 NaN 4994.672010688043 0.4995545617332244 1492.0 5.0 1492.0 
10.000097921309766 26550.0 NaN 4995.091516366066 0.49949204043057 1492.0 5.0 1492.0 
12.000097921309766 26552.0 NaN 4995.706078824315 0.4994397760478701 1492.0 5.0 1492.0 
14.000097921309766 26552.0 NaN 4994.394121576486 0.49943976498949627 1491.0 6.0 1491.0 
16.000097921309766 26558.0 NaN 4994.781563126253 0.49954870755821673 1492.0 5.0 1492.0 
18.00009792130977 26556.0 NaN 4995.861055444222 0.49952498440850185 1492.0 5.0 1492.0 
20.00009792130977 26580.0 NaN 4994.864395457582 0.5052276575858662 1491.0 6.0 1491.0 
22.00009792130977 26567.0 NaN 4994.805611222445 0.4986466354149982 1492.0 5.0 1492.0 
24.00009792130977 26569.0 NaN 4995.682030728123 0.49855581713583313 1492.0 5.0 1492.0 
26.00009792130977 26568.0 NaN 4994.378089512358 0.49864544254327503 1491.0 6.0 1491.0 
28.00009792130977 26567.0 NaN 4995.051436205745 0.49894532564599653 1492.0 5.0 1492.0 
30.00009792130977 26599.0 NaN 4996.098864395458 0.49903529372294786 1492.0 5.0 1492.0 
32.00009792130977 26604.0 NaN 4994.581162324649 0.49904594224987936 1491.0 6.0 1491.0 
34.00009792130977 26629.0 NaN 4994.709418837675 0.5014318980179248 1492.0 5.0 1492.0 
36.00009792130977 26621.0 NaN 4995.639278557114 0.4993740468327846 1492.0 5.0 1492.0 
38.00009792130977 26622.0 NaN 4994.741482965932 0.5003035504986392 1491.0 6.0 1491.0 
40.00009792130977 26653.0 NaN 4995.299933199733 0.49924414463985406 1492.0 5.0 1492.0 
42.00009792130977 26639.0 NaN 4995.74081496326 0.4989763264544707 1492.0 5.0 1492.0 
44.00009792130977 26640.0 NaN 4994.49832999332 0.5015612450748339 1491.0 6.0 1491.0 
46.00009792130977 26623.0 NaN 4994.800267201069 0.49936539224111115 1492.0 5.0 1492.0 
48.00009792130977 26620.0 NaN 4995.978623914496 0.4997401207978771 1492.0 5.0 1492.0 
50.00009792130977 26665.0 NaN 4994.96325985304 0.4984216472590647 1491.0 6.0 1491.0 
52.00009792130977 26643.0 NaN 4994.851035404142 0.4978661594517824 1492.0 5.0 1492.0 
54.00009792130977 26650.0 NaN 4995.63126252505 0.499878979518693 1493.0 4.0 1493.0 
56.00009792130977 26646.0 NaN 4994.490313961256 0.4981674235255106 1493.0 4.0 1493.0 
58.00009792130977 26659.0 NaN 4995.040748162993 0.49842382867508767 1493.0 4.0 1493.0 
60.00009792130977 26685.0 NaN 4996.101536406146 0.5008479256217381 1493.0 4.0 1493.0 
62.00010179366992 26669.0 NaN 1522.6426185704731 0.4992324218930046 810.0 2.0 363.0 
64.00010179366993 26691.0 NaN 1522.6346025384091 0.5005736812123953 646.0 5.0 360.0 
66.00010179366993 26683.0 NaN 1522.6185704742816 0.5002877075914852 589.0 8.0 357.0 
68.00010179366993 26709.0 NaN 1525.6833667334663 0.4990647036570411 561.0 7.0 359.0 
70.00010179366993 26706.0 NaN 1525.6165664662637 0.5011668585165684 537.0 8.0 358.0 
72.00010179366993 26727.0 NaN 1525.6726786907152 0.4988540573024587 529.0 8.0 358.0 
74.00010179366993 26775.0 NaN 1528.6706746826997 0.49942415453441186 528.0 8.0 359.0 
76.00010179366993 26778.0 NaN 1528.7428189712753 0.49866929156992085 526.0 8.0 359.0 
78.00010179366993 26798.0 NaN 1531.8022712090844 0.5004328473760172 526.0 8.0 360.0 
80.00010179366993 26792.0 NaN 1534.8563794255183 0.5009920269905379 524.0 8.0 361.0 
82.00010179366993 26790.0 NaN 1534.8991315965272 0.49780050824400607 523.0 8.0 361.0 
84.00010179366993 26788.0 NaN 1534.9445557782242 0.500156352104499 521.0 8.0 361.0 
86.00010179366993 26777.0 NaN 1534.8537074148296 0.4984909374251862 521.0 8.0 361.0 
88.00010179366993 26783.0 NaN 1534.8830995324 0.4974367297051852 520.0 8.0 361.0 
90.00010179366993 26765.0 NaN 1534.9792919171666 0.5014292115250684 521.0 8.0 361.0 
92.00010179366993 26755.0 NaN 1534.7975951903818 0.49755509908701473 522.0 8.0 361.0 
94.00010179366993 26780.0 NaN 1534.86706746827 0.49803070178271525 520.0 8.0 361.0 
96.00010179366993 26764.0 NaN 1534.909819639279 0.4978462637206933 520.0 8.0 361.0 
98.00010179366993 26772.0 NaN 1537.9372077488304 0.500658920893038 519.0 9.0 361.0 
100.00010179366993 26736.0 NaN 1537.9559118236457 0.5015408196762494 519.0 9.0 361.0 
102.00010179366993 26760.0 NaN 1537.987975951903 0.4991135035896887 518.0 9.0 361.0 
104.00010179366993 26757.0 NaN 1540.9779559118242 0.49969305763127786 518.0 9.0 362.0 
106.00010179366993 26759.0 NaN 1540.9699398797607 0.4987455607763237 518.0 9.0 362.0 
108.00010179366993 26773.0 NaN 1541.0126920507666 0.4988733478980583 518.0 9.0 362.0 
110.00010179366993 26761.0 NaN 1540.9058116232454 0.5003538246095625 518.0 9.0 362.0 
112.00010179366993 26770.0 NaN 1540.9806279225118 0.49919650080566136 519.0 9.0 362.0 
114.00010179366993 26784.0 NaN 1540.9832999332002 0.5016959701432592 519.0 9.0 362.0 
116.00010179366993 26758.0 NaN 1540.9512358049453 0.5018959284145775 520.0 9.0 362.0 
118.00010179366993 26780.0 NaN 1540.943219772879 0.5020554821732955 521.0 9.0 362.0 
120.00010179366993 26701.0 NaN 1540.929859719439 0.5022355279664004 521.0 9.0 362.0 
122.00010179366993 26672.0 NaN 1540.8924515698066 0.4999169482189322 521.0 9.0 362.0 
124.00010179366993 26688.0 NaN 1544.0427521710092 0.49981208079770495 521.0 9.0 363.0 
126.00010179366993 26665.0 NaN 1544.0828323313276 0.49960390404965294 521.0 9.0 363.0 
128.00010179366993 26687.0 NaN 1540.9485637942544 0.4994522668798054 521.0 9.0 362.0 
130.00010179366993 26661.0 NaN 1540.921843687373 0.5008585494082867 520.0 10.0 361.0 
132.00010179366993 26638.0 NaN 1537.923847695391 0.5006405677030626 520.0 10.0 360.0 
134.00010179366993 26683.0 NaN 1537.763527054109 0.4991085528178339 522.0 8.0 362.0 
136.00010179366993 26666.0 NaN 1534.7708750835 0.49887862751402495 518.0 11.0 358.0 
138.00010179366993 26684.0 NaN 1534.8216432865727 0.5003944813082103 518.0 10.0 359.0 
140.00010179366993 26636.0 NaN 1534.7922511690056 0.503096282990286 518.0 8.0 361.0 
142.00010179366993 26610.0 NaN 1537.8837675350699 0.49970926132893695 515.0 11.0 359.0 
144.00010179366993 26669.0 NaN 1537.9505678022726 0.49970165144267703 516.0 10.0 360.0 
146.00010179366993 26652.0 NaN 1537.9211756847028 0.49958173188868416 517.0 8.0 362.0 
148.00010179366993 26660.0 NaN 1534.8296593186362 0.5009025025088544 514.0 11.0 358.0 
150.00010179366993 26630.0 NaN 1534.8537074148296 0.502583862924141 515.0 9.0 360.0 
152.00010179366993 26627.0 NaN 1528.5958583834338 0.5000217606598426 516.0 7.0 360.0 
154.00010179366993 26642.0 NaN 1528.6760187040732 0.5001142840993011 511.0 10.0 357.0 
156.00010179366993 26630.0 NaN 1531.842351369406 0.5013053940264489 510.0 9.0 359.0 
158.00010179366993 26655.0 NaN 1534.8510354041425 0.5031199854876838 516.0 7.0 362.0 
160.00010179366993 26604.0 NaN 1534.8563794255183 0.5018168014723574 513.0 10.0 359.0 
162.00010179366993 26566.0 NaN 1534.8643954575818 0.5011295214702174 513.0 10.0 359.0 
164.00010179366993 26576.0 NaN 1537.8891115564454 0.5027732748739172 514.0 9.0 361.0 
166.00010179366993 26532.0 NaN 1537.905143620573 0.5008564601962694 513.0 9.0 361.0 
168.00010179366993 26552.0 NaN 1531.8343353373427 0.5029329929476498 515.0 8.0 360.0 
170.00010179366993 26514.0 NaN 1534.8537074148294 0.502496534803038 512.0 12.0 357.0 
172.00010179366993 26500.0 NaN 1534.8911155644635 0.5005316297750183 515.0 8.0 361.0 
174.00010179366993 26528.0 NaN 1537.93720774883 0.5014991218038919 515.0 7.0 363.0 
176.00010179366993 26487.0 NaN 1534.8109552438204 0.49954707625496964 510.0 7.0 362.0 
178.00010179366993 26504.0 NaN 1534.826987307948 0.5011066602559122 511.0 7.0 362.0 
180.00010179366993 26472.0 NaN 1534.8697394789572 0.5015264029485166 512.0 7.0 362.0 
182.00010179366993 26448.0 NaN 1534.757515030061 0.5012142249012917 512.0 7.0 362.0 
184.00010179366993 26472.0 NaN 1537.929191716766 0.5010963476542999 512.0 7.0 363.0 
186.00010179366993 26448.0 NaN 1534.9124916499661 0.5025439663560036 511.0 7.0 362.0 
188.00010179366993 26459.0 NaN 1537.9532398129609 0.5036040444323637 511.0 7.0 363.0 
190.00010179366993 26400.0 NaN 1531.7488309953246 0.5011863013424337 510.0 7.0 361.0 
192.00010179366993 26373.0 NaN 1531.7755511022028 0.5014474090919276 510.0 7.0 361.0 
194.00010179366993 26376.0 NaN 1534.8082832331336 0.5040366918005905 510.0 7.0 362.0 
196.00010179366993 26353.0 NaN 1534.880427521709 0.5013549620070024 510.0 7.0 362.0 
198.00010179366993 26351.0 NaN 1538.017368069473 0.5044311076682404 511.0 7.0 363.0 
200.00010179366993 26320.0 NaN 1541.0287241148972 0.5016172983381895 511.0 8.0 363.0 
202.00010179366993 26324.0 NaN 1541.0955243820977 0.5008667742566548 508.0 11.0 360.0 
204.00010179366993 26352.0 NaN 1541.036740146961 0.5083181246143664 507.0 11.0 360.0 
206.00010179366993 26297.0 NaN 1537.9719438877753 0.5016782821517394 507.0 11.0 359.0 
208.00010179366993 26301.0 NaN 1534.9392117568457 0.5046319178677277 509.0 10.0 359.0 
210.00010179366993 26244.0 NaN 1531.8316633266545 0.5038754668944787 513.0 7.0 361.0 
212.00010179366993 26244.0 NaN 1531.695390781564 0.5015037116273673 509.0 7.0 361.0 
214.00010179366993 26254.0 NaN 1534.8483633934547 0.5060234710652399 509.0 7.0 362.0 
216.00010179366993 26206.0 NaN 1528.7882431529729 0.5036060117136578 509.0 7.0 360.0 
218.00010179366993 26209.0 NaN 1528.7134268537086 0.502632679269567 507.0 7.0 360.0 
220.00010179366993 26154.0 NaN 1531.7862391449548 0.5045266966698414 506.0 7.0 361.0 
222.00010179366993 26137.0 NaN 1534.9311957247817 0.5011004275222891 505.0 8.0 361.0 
224.00010179366993 26118.0 NaN 1534.8483633934547 0.503365154121874 504.0 9.0 360.0 
226.00010179366993 26074.0 NaN 1531.8022712090844 0.5010931688669107 504.0 9.0 359.0 
228.00010179366993 26082.0 NaN 1538.020040080161 0.5016528234852257 504.0 9.0 361.0 
230.00010179366993 26062.0 NaN 1537.985303941216 0.5058099011770012 504.0 8.0 362.0 
232.00010179366993 26056.0 NaN 1541.074148296591 0.5015913094424015 504.0 9.0 362.0 
234.00010179366993 26036.0 NaN 1541.0447561790247 0.5024920353419553 503.0 10.0 361.0 
236.00010179366993 26032.0 NaN 1537.902471609888 0.5005463329909589 502.0 10.0 360.0 
238.00010179366993 26020.0 NaN 1534.8269873079482 0.5027216303671181 503.0 10.0 359.0 
240.00010179366993 25978.0 NaN 1534.8483633934545 0.5038736348050373 502.0 10.0 359.0 
242.00010179366993 25982.0 NaN 1534.8002672010698 0.5014138184504267 502.0 10.0 359.0 
244.00010179366993 26010.0 NaN 1534.8216432865727 0.5065113091361771 504.0 10.0 359.0 
246.00010179366993 25990.0 NaN 1534.9418837675362 0.5049505020939686 504.0 10.0 359.0 
248.00010179366993 25967.0 NaN 1528.6813627254517 0.5025764179142471 503.0 10.0 357.0 
250.00010179366993 25950.0 NaN 1531.8156312625272 0.5040390548509784 501.0 10.0 358.0 
252.00010179366993 25924.0 NaN 1528.7508350033393 0.502745675544879 502.0 10.0 357.0 
254.00010179366993 25909.0 NaN 1531.7862391449548 0.5037033946067317 503.0 10.0 358.0 
256.00010179366996 25868.0 NaN 1528.7134268537088 0.5024764797359023 507.0 8.0 359.0 
258.00010179366996 25862.0 NaN 1528.7535070140273 0.5031673964339433 507.0 8.0 359.0 
260.00010179366996 25864.0 NaN 1528.6546426185726 0.5052409140657106 507.0 8.0 359.0 
262.00010179366996 25812.0 NaN 1525.6833667334663 0.502630319018119 507.0 8.0 358.0 
264.00010179366996 25790.0 NaN 1534.9205076820301 0.5030300606483875 507.0 8.0 361.0 
266.00010179366996 25758.0 NaN 1534.888443553773 0.5017606371953355 505.0 8.0 361.0 
268.00010179366996 25739.0 NaN 1534.8216432865727 0.5040056883294477 505.0 8.0 361.0 
270.00010179366996 25738.0 NaN 1531.8770875083483 0.5051176952719592 503.0 8.0 360.0 
272.00010179366996 25671.0 NaN 1531.6927187708748 0.5023633578957664 504.0 8.0 360.0 
274.00010179366996 25669.0 NaN 1531.8263193052755 0.5027522604710701 504.0 8.0 360.0 
276.00010179366996 25654.0 NaN 1537.9799599198388 0.5022619952649493 501.0 8.0 362.0 
278.00010179366996 25653.0 NaN 1537.9024716098884 0.5050921317860639 505.0 8.0 362.0 
280.00010179366996 25671.0 NaN 1534.7441549766183 0.5040825436095725 505.0 8.0 361.0 
282.00010179366996 25655.0 NaN 1531.7728790915182 0.501516286836239 504.0 8.0 360.0 
284.00010179366996 25652.0 NaN 1534.7040748163001 0.5031687605601171 506.0 7.0 362.0 
286.00010179366996 25619.0 NaN 1534.8216432865727 0.5012963801919438 505.0 7.0 362.0 
288.00010179366996 25616.0 NaN 1534.7895791583182 0.5030568996051901 505.0 7.0 362.0 
290.00010179366996 25605.0 NaN 1534.7975951903818 0.5041155969873873 505.0 7.0 362.0 
292.00010179366996 25610.0 NaN 1534.7628590514364 0.5013140593575065 505.0 7.0 362.0 
294.00010179366996 25592.0 NaN 1531.7915831663338 0.5025780010323115 504.0 7.0 361.0 
296.00010179366996 25557.0 NaN 1531.660654642618 0.502256954188514 504.0 7.0 361.0 
298.00010179366996 25555.0 NaN 1540.977955911825 0.5042313539632042 503.0 7.0 364.0 
300.00010179366996 25530.0 NaN 1541.0100200400818 0.5018128693318509 502.0 7.0 364.0 
302.00010179366996 25538.0 NaN 1531.7461589846364 0.5011583930854949 502.0 6.0 362.0 
304.00010179366996 25538.0 NaN 1534.885771543085 0.5027717805198265 501.0 6.0 363.0 
306.00010179366996 25511.0 NaN 1537.977287909152 0.5041817330058393 502.0 6.0 364.0 
308.00010179366996 25491.0 NaN 1537.8997995991997 0.5082412484373472 502.0 6.0 364.0 
310.00010179366996 25448.0 NaN 1537.8837675350703 0.5047436208621 500.0 6.0 364.0 
312.00010179366996 25418.0 NaN 1531.847695390782 0.5058791515567512 502.0 4.0 364.0 
314.00010179366996 25416.0 NaN 1531.7541750167002 0.5039612110680761 503.0 4.0 364.0 
316.00010179366996 25389.0 NaN 1531.7140948563797 0.5025540498233277 504.0 4.0 364.0 
318.00010179366996 25382.0 NaN 1531.7755511022028 0.5046944371408808 504.0 4.0 364.0 
320.00010179366996 25341.0 NaN 1531.7167668670666 0.5065652009133202 503.0 6.0 362.0 
322.00010179366996 25339.0 NaN 1534.925851703409 0.5028852763790401 501.0 8.0 361.0 
324.00010179366996 25333.0 NaN 1531.8717434869727 0.5047469544003919 499.0 9.0 359.0 
326.00010179366996 25299.0 NaN 1531.7595190380757 0.5023647775494587 498.0 9.0 359.0 
328.00010179366996 25306.0 NaN 1531.7889111556456 0.5039737365147423 500.0 9.0 359.0 
330.00010179366996 25292.0 NaN 1531.8022712090844 0.5052165762946474 500.0 9.0 359.0 
332.00010179366996 25293.0 NaN 1531.7648630594545 0.5030505250674772 500.0 9.0 359.0 
334.00010179366996 25296.0 NaN 1528.7722110888458 0.5033978157969503 499.0 9.0 358.0 
336.00010179366996 25272.0 NaN 1528.7454909819635 0.5022892846536816 499.0 9.0 358.0 
338.00010179366996 25294.0 NaN 1528.7321309285244 0.503000122393621 501.0 9.0 358.0 
340.00010179366996 25300.0 NaN 1525.5951903807634 0.5033702566655278 501.0 9.0 357.0 
342.00010179366996 25309.0 NaN 1525.742150968603 0.5029611563977346 501.0 9.0 357.0 
344.00010179366996 25310.0 NaN 1528.630594522379 0.5041532356281282 501.0 9.0 358.0 
346.00010179366996 25301.0 NaN 1519.5190380761542 0.5067638238216183 500.0 9.0 355.0 
348.00010179366996 25305.0 NaN 1519.5217100868394 0.5047333476696826 498.0 10.0 354.0 
350.00010179366996 25295.0 NaN 1525.573814295257 0.5047518727387841 499.0 10.0 356.0 
352.00010179366996 25290.0 NaN 1522.5704742818975 0.5028059522372652 502.0 10.0 355.0 
354.00010179366996 25280.0 NaN 1519.5484301937206 0.5051484515917802 504.0 10.0 354.0 
356.00010179366996 25257.0 NaN 1519.452237808952 0.5024737853883443 504.0 10.0 354.0 
358.00010179366996 25273.0 NaN 1519.4655978623907 0.506258333206017 502.0 10.0 354.0 
360.00010179366996 25259.0 NaN 1516.392785571143 0.5055766401987669 503.0 10.0 353.0 
362.00010179366996 25243.0 NaN 1513.2959251836999 0.5086353860779745 504.0 10.0 352.0 
364.00010179366996 25200.0 NaN 1507.1422845691372 0.503427882248355 504.0 10.0 350.0 
366.00010179366996 25181.0 NaN 1504.0881763527061 0.5033427327884499 504.0 10.0 349.0 
368.00010179366996 25193.0 NaN 1500.9271877087515 0.5046829434056928 505.0 10.0 348.0 
370.00010179366996 25182.0 NaN 1503.9839679358727 0.5052352394671973 505.0 10.0 349.0 
372.00010179366996 25166.0 NaN 1507.1690046760182 0.505935100132642 505.0 10.0 350.0 
374.00010179366996 25111.0 NaN 1504.06947227789 0.5066370747697903 507.0 10.0 349.0 
376.00010179366996 25094.0 NaN 1500.9832999332 0.503980618647574 507.0 10.0 348.0 
378.00010179366996 25098.0 NaN 1497.9746158984635 0.5064485032245445 506.0 10.0 347.0 
380.00010179366996 25073.0 NaN 1500.8577154308625 0.5078241067531103 504.0 10.0 348.0 
382.00010179366996 25087.0 NaN 1497.990647962591 0.504070282355016 507.0 10.0 347.0 
384.00010179366996 25096.0 NaN 1497.9185036740153 0.5017507496295992 508.0 10.0 347.0 
386.00010179366996 25097.0 NaN 1494.8670674682705 0.502284476936411 507.0 10.0 346.0 
388.00010179366996 25098.0 NaN 1494.7762191048757 0.5047314061353879 505.0 10.0 346.0 
390.00010179366996 25070.0 NaN 1497.9478957915826 0.5046981175986636 505.0 10.0 347.0 
392.00010179366996 25051.0 NaN 1503.9866399465607 0.5053938517290414 509.0 10.0 349.0 
394.00010179366996 25039.0 NaN 1507.2438209752827 0.5031274260629705 512.0 9.0 351.0 
396.00010179366996 25020.0 NaN 1507.1396125584513 0.5030158571320705 513.0 8.0 352.0 
398.00010179366996 25021.0 NaN 1504.114896459585 0.5086744646494911 514.0 8.0 351.0 
400.00010179366996 24979.0 NaN 1500.849699398798 0.5103289109966999 513.0 8.0 350.0 
402.00010179366996 24962.0 NaN 1504.197728790916 0.5044374604060794 512.0 8.0 351.0 
404.00010179366996 24984.0 NaN 1507.0407481629918 0.5030047073663877 513.0 8.0 352.0 
406.00010179366996 24967.0 NaN 1513.2852371409479 0.5015922383234342 513.0 9.0 353.0 
408.00010179366996 24978.0 NaN 1519.4468937875747 0.5069675317306553 518.0 9.0 355.0 
410.00010179366996 24966.0 NaN 1525.6058784235122 0.5076209140233837 518.0 9.0 357.0 
412.00010179366996 24952.0 NaN 1522.5277221108888 0.5043061629865144 520.0 9.0 356.0 
414.00010179366996 24942.0 NaN 1519.4014696058787 0.5048547002018181 519.0 10.0 354.0 
416.00010179366996 24906.0 NaN 1510.0895123580488 0.5032350869704482 519.0 10.0 351.0 
418.00010179366996 24909.0 NaN 1513.2879091516363 0.5048756164661851 519.0 10.0 352.0 
420.00010179366996 24906.0 NaN 1507.0674682698727 0.5030529457961462 518.0 10.0 350.0 
422.00010179366996 24895.0 NaN 1497.7849031396124 0.5048857038318968 511.0 10.0 347.0 
424.00010179366996 24880.0 NaN 1500.9084836339352 0.5035834384144013 511.0 9.0 349.0 
426.00010179366996 24858.0 NaN 1507.1476285905146 0.5026667949429493 514.0 7.0 353.0 
428.00010179366996 24855.0 NaN 1507.0781563126259 0.5072368188520591 513.0 8.0 352.0 
430.00010179366996 24833.0 NaN 1500.828323313293 0.5033650739628278 510.0 11.0 347.0 
432.00010179366996 24817.0 NaN 1519.3613894455568 0.5029145750999626 513.0 11.0 353.0 
434.00010179366996 24825.0 NaN 1519.307949231798 0.504939260442485 518.0 10.0 354.0 
436.00010179366996 24818.0 NaN 1519.257181028725 0.5021073443817446 517.0 11.0 353.0 
438.00010179366996 24829.0 NaN 1522.4475617902465 0.5040374580186502 513.0 14.0 351.0 
440.00010179366996 24825.0 NaN 1525.3520374081486 0.5049577790474643 518.0 10.0 356.0 
442.00010179366996 24809.0 NaN 1537.819639278557 0.5046993816565056 519.0 10.0 360.0 
444.00010179366996 24807.0 NaN 1534.728122912491 0.5021244658773485 521.0 10.0 359.0 
446.00010179366996 24819.0 NaN 1540.8684034736152 0.5020021070202193 524.0 10.0 361.0 
448.00010179366996 24822.0 NaN 1540.825651302606 0.5023119891631314 524.0 10.0 361.0 
450.00010179366996 24846.0 NaN 1543.9946559786242 0.5019710925819545 523.0 10.0 362.0 
452.00010179366996 24846.0 NaN 1540.8122912491642 0.5023278281005266 521.0 10.0 361.0 
454.00010179366996 24859.0 NaN 1544.0213760855033 0.5050721501401051 521.0 10.0 362.0 
456.00010179366996 24854.0 NaN 1547.0407481629913 0.5019613723145973 519.0 10.0 363.0 
458.00010179366996 24865.0 NaN 1547.048764195055 0.5032944813064306 518.0 10.0 363.0 
460.00010179366996 24890.0 NaN 1546.9579158316637 0.5032368926720793 517.0 10.0 363.0 
462.00010179366996 24894.0 NaN 1547.0835003340003 0.5069236271178761 517.0 10.0 363.0 
464.00010179366996 24866.0 NaN 1543.8503674014703 0.5097815977908803 519.0 10.0 362.0 
466.00010179366996 24843.0 NaN 1543.9572478289908 0.5022326498789569 517.0 10.0 362.0 
468.00010179366996 24858.0 NaN 1540.9325317301273 0.5049073682223595 517.0 9.0 362.0 
470.00010179366996 24851.0 NaN 1540.876419505679 0.503798141090022 514.0 9.0 362.0 
472.00010179366996 24825.0 NaN 1534.7922511690056 0.5026408998382291 513.0 9.0 360.0 
474.00010179366996 24820.0 NaN 1528.598530394121 0.5027111031552215 512.0 9.0 358.0 
476.00010179366996 24803.0 NaN 1528.5744822979277 0.5045732203157286 514.0 9.0 358.0 
478.00010179366996 24826.0 NaN 1528.5771543086182 0.5018214273699878 512.0 9.0 358.0 
480.00010179366996 24826.0 NaN 1525.5951903807631 0.5016678573261293 511.0 11.0 355.0 
482.00010179366996 24843.0 NaN 1522.4796259185027 0.5016120329094864 509.0 11.0 354.0 
484.00010179366996 24868.0 NaN 1507.0541082164336 0.5006890569708877 506.0 11.0 349.0 
486.00010179366996 24868.0 NaN 1500.9458917835664 0.5006805678537658 507.0 7.0 351.0 
488.00010179366996 24899.0 NaN 1497.81696726787 0.5026056371654133 508.0 5.0 352.0 
490.00010179366996 24923.0 NaN 1497.8891115564456 0.5015263430259644 510.0 5.0 352.0 
492.00010179366996 24906.0 NaN 1491.7782231128917 0.5020710343668897 510.0 5.0 350.0 
494.00010179366996 24925.0 NaN 1485.493653974617 0.5054419880255571 506.0 5.0 348.0 
496.00010179366996 24897.0 NaN 1485.5096860387448 0.5017671331964381 505.0 6.0 347.0 
498.00010179366996 24906.0 NaN 1485.6165664662647 0.5026994948985165 505.0 6.0 347.0 
500.00010179366996 24923.0 NaN 1488.6279225116905 0.5025472455360366 503.0 8.0 346.0 
502.00010179366996 24920.0 NaN 1491.8049432197727 0.5039472074792153 503.0 8.0 347.0 
504.00010179366996 24933.0 NaN 1485.5577822311282 0.5041284177079223 503.0 8.0 345.0 
506.00010179366996 24894.0 NaN 1494.7895791583173 0.5045933683586954 504.0 8.0 348.0 
508.00010179366996 24910.0 NaN 1497.8436873747485 0.5016527218299774 508.0 8.0 349.0 
510.00010179366996 24911.0 NaN 1494.883099532399 0.5016178142545235 506.0 8.0 348.0 
512.00010179367 24924.0 NaN 1488.6653306613216 0.50296513667323 506.0 8.0 346.0 
514.00010179367 24962.0 NaN 1482.4983299933192 0.5036093584165212 503.0 8.0 344.0 
516.00010179367 24944.0 NaN 1479.4789579158307 0.5010968197568177 500.0 8.0 343.0 
518.00010179367 24974.0 NaN 1476.376753507015 0.5006958497451808 500.0 10.0 340.0 
520.00010179367 24982.0 NaN 1464.0106880427527 0.5054711088562313 497.0 12.0 334.0 
522.00010179367 24974.0 NaN 1461.1756847027382 0.5041150351726714 490.0 15.0 330.0 
524.00010179367 24994.0 NaN 1463.9278557114237 0.5024932762649537 487.0 15.0 331.0 
526.00010179367 24988.0 NaN 1461.1062124248485 0.5010958052259811 487.0 15.0 330.0 
528.00010179367 24995.0 NaN 1464.138944555779 0.5016968975160133 489.0 15.0 331.0 
530.00010179367 25003.0 NaN 1451.901135604543 0.5018216742170855 488.0 15.0 327.0 
532.00010179367 25013.0 NaN 1451.842351369406 0.5014882556873566 488.0 15.0 327.0 
534.00010179367 25035.0 NaN 1451.9519038076155 0.5009756886183735 488.0 15.0 327.0 
536.00010179367 25026.0 NaN 1454.8617234468934 0.4997783405094842 487.0 15.0 328.0 
538.00010179367 25017.0 NaN 1461.2291249165 0.49999239396904804 489.0 15.0 330.0 
540.00010179367 25007.0 NaN 1461.0848363393457 0.5017804912827536 489.0 15.0 330.0 
542.00010179367 24996.0 NaN 1467.2598530394118 0.5048869756412544 490.0 15.0 332.0 
544.00010179367 24955.0 NaN 1470.287241148964 0.5056911927693604 489.0 15.0 333.0 
546.00010179367 24918.0 NaN 1467.2972611890452 0.5007701711835868 491.0 15.0 332.0 
548.00010179367 24927.0 NaN 1467.1663326653309 0.5007519194364121 492.0 15.0 332.0 
550.00010179367 24952.0 NaN 1464.093520374082 0.5021334992074007 490.0 15.0 331.0 
552.00010179367 24964.0 NaN 1464.1362725450906 0.5010168201541729 490.0 15.0 331.0 
554.00010179367 24978.0 NaN 1467.2144288577158 0.5025472684891911 491.0 15.0 332.0 
556.00010179367 24970.0 NaN 1457.9478957915828 0.500560904304126 487.0 15.0 329.0 
558.00010179367 24955.0 NaN 1454.9979959919833 0.501938811822112 485.0 15.0 328.0 
560.00010179367 24951.0 NaN 1454.8216432865727 0.5004645110858901 483.0 15.0 328.0 
562.00010179367 24989.0 NaN 1457.9398797595184 0.5025563320410101 484.0 15.0 329.0 
564.00010179367 24986.0 NaN 1460.988643954576 0.5024494250913368 486.0 15.0 330.0 
566.00010179367 24966.0 NaN 1454.8269873079498 0.5022597404133099 484.0 15.0 328.0 
568.00010179367 24972.0 NaN 1461.0501002004003 0.501978154187895 487.0 15.0 330.0 
570.00010179367 24965.0 NaN 1467.2598530394123 0.5034065472472181 490.0 14.0 333.0 
572.00010179367 25000.0 NaN 1476.3553774215093 0.5057914765453133 491.0 14.0 336.0 
574.00010179367 24990.0 NaN 1479.513694054776 0.504235139149982 493.0 14.0 337.0 
576.00010179367 24960.0 NaN 1476.4328657314634 0.5034067905015016 493.0 14.0 336.0 
578.00010179367 24968.0 NaN 1473.3814295257182 0.5024754160605927 495.0 13.0 336.0 
580.00010179367 24994.0 NaN 1473.231796927188 0.5026816433591649 497.0 13.0 336.0 
582.00010179367 25000.0 NaN 1476.3981295925182 0.501780714455939 498.0 13.0 337.0 
584.00010179367 25018.0 NaN 1479.3373413493648 0.5030469116709232 504.0 13.0 338.0 
586.00010179367 25006.0 NaN 1476.3099532398123 0.5037224584678541 507.0 13.0 337.0 
588.00010179367 25020.0 NaN 1479.4094856379431 0.5032962253156371 508.0 13.0 338.0 
590.00010179367 25049.0 NaN 1485.4696058784239 0.5029668945623451 511.0 13.0 340.0 
592.00010179367 25079.0 NaN 1485.5043420173677 0.5040193089884822 511.0 13.0 340.0 
594.00010179367 25038.0 NaN 1488.6733466933874 0.5029539476652902 511.0 13.0 341.0 
596.00010179367 25019.0 NaN 1488.5985303941213 0.5018575873719133 511.0 13.0 341.0 
598.00010179367 25053.0 NaN 1491.7541750167002 0.5040513292174735 511.0 13.0 342.0 
600.00010179367 25103.0 NaN 1497.873079492318 0.5039742493942664 512.0 13.0 344.0 
602.00010179367 25156.0 NaN 1491.655310621243 0.5047071187355261 511.0 13.0 342.0 
604.00010179367 25147.0 NaN 1503.9919839679364 0.5053524186719598 513.0 13.0 346.0 
606.00010179367 25140.0 NaN 1500.9966599866395 0.505481368178251 512.0 13.0 345.0 
608.00010179367 25165.0 NaN 1507.064796259184 0.506236455816105 514.0 13.0 347.0 
610.00010179367 25143.0 NaN 1507.0728122912485 0.5053691704598328 515.0 13.0 347.0 
612.00010179367 25112.0 NaN 1507.0006680026727 0.5038011207814338 514.0 13.0 347.0 
614.00010179367 25112.0 NaN 1506.9498997996 0.5027830315137254 513.0 13.0 347.0 
616.00010179367 25109.0 NaN 1506.9846359385442 0.5021369375859601 511.0 13.0 347.0 
618.00010179367 25175.0 NaN 1510.188376753508 0.5033202251491125 510.0 13.0 348.0 
620.00010179367 25188.0 NaN 1522.3273213092848 0.5069701812992419 512.0 13.0 352.0 
622.00010179367 25148.0 NaN 1522.4021376085516 0.5012392611848618 511.0 13.0 352.0 
624.00010179367 25157.0 NaN 1522.4048096192375 0.5035478128856499 512.0 13.0 352.0 
626.00010179367 25125.0 NaN 1522.4315297261182 0.5024726422820445 511.0 13.0 352.0 
628.00010179367 25170.0 NaN 1525.5684702738818 0.5031756070583088 511.0 13.0 353.0 
630.00010179367 25158.0 NaN 1522.5116900467606 0.5043024504391918 513.0 13.0 352.0 
632.00010179367 25147.0 NaN 1525.5016700066808 0.5022282551935762 512.0 14.0 352.0 
634.00010179367 25192.0 NaN 1525.5764863059455 0.5038985645200804 517.0 14.0 352.0 
636.00010179367 25170.0 NaN 1525.6780227120908 0.5030997411962362 519.0 13.0 353.0 
638.00010179367 25166.0 NaN 1522.5250501002 0.5065856254028583 520.0 13.0 352.0 
640.00010179367 25115.0 NaN 1516.4275217100878 0.5058005125998154 516.0 13.0 350.0 
642.00010179367 25102.0 NaN 1513.4241816967271 0.5040510681930943 512.0 13.0 349.0 
644.00010179367 25115.0 NaN 1516.339345357382 0.5028966813109406 509.0 13.0 350.0 
646.00010179367 25100.0 NaN 1516.3714094856373 0.5017636234039772 508.0 13.0 350.0 
648.00010179367 25116.0 NaN 1516.4408817635274 0.5052747702288573 507.0 13.0 350.0 
650.00010179367 25077.0 NaN 1513.2611890447558 0.5021950301493425 507.0 13.0 349.0 
652.00010179367 25070.0 NaN 1525.611222444891 0.5020886963396451 508.0 13.0 353.0 
654.00010179367 25089.0 NaN 1525.7154308617244 0.5068535652544127 506.0 13.0 353.0 
656.00010179367 25074.0 NaN 1525.5898463593849 0.5033008873273266 506.0 13.0 353.0 
658.00010179367 25061.0 NaN 1525.6058784235122 0.5033363326208973 504.0 13.0 353.0 
660.00010179367 25029.0 NaN 1531.8557114228454 0.5053115124355735 498.0 13.0 355.0 
662.00010179367 25008.0 NaN 1537.8837675350708 0.5031661801810383 499.0 13.0 357.0 
664.00010179367 24996.0 NaN 1537.8463593854365 0.503177673284372 504.0 13.0 357.0 
#####################################################################
# End of data export. Simulation finished at: 2019-03-07T23:48+0000 #
#####################################################################
