#####################################################################
# Alchemist log file - simulation started at: 2019-03-05T12:45+0000 #
#####################################################################
# seed = 3.0, bandwidth = 4216.965034285822, propagationDelay = 0.31622776601683794, baserange = 562.341325190349
#
# The columns have the following meaning: 
# time neighbor_count[Sum] <value>@neighbor_count[Sum] packet_size[Mean] mean_delay[Mean] crowd[Sum] overcrowded[Sum] risk[Sum] 
0.0 NaN NaN NaN NaN NaN NaN NaN 
2.000284912781392 11913.0 NaN 4988.384769539078 0.12843330893774316 1497.0 0.0 1497.0 
4.000322135140871 98210.0 NaN 4996.855043420173 1.248735801513349 1497.0 0.0 1497.0 
6.000084666035003 98210.0 NaN 4992.7401469605875 1.2504763869423328 1496.0 1.0 1496.0 
8.000225572853491 98210.0 NaN 4996.272545090181 1.2497818630425586 1496.0 1.0 1496.0 
10.000225572853491 98210.0 NaN 4992.6279225116905 1.2501754916103567 1496.0 1.0 1496.0 
12.000225572853491 98210.0 NaN 4996.272545090181 1.249904666656887 1496.0 1.0 1496.0 
14.000225572853491 98210.0 NaN 4992.6279225116905 1.2502058817827681 1496.0 1.0 1496.0 
16.000084666035004 98249.0 NaN 4996.240480961924 1.2497713231732503 1496.0 1.0 1496.0 
18.00022557285349 98268.0 NaN 4992.611890447562 1.2503303119574323 1496.0 1.0 1496.0 
20.00022557285349 98269.0 NaN 4996.240480961924 1.2510841128456383 1496.0 1.0 1496.0 
22.00022557285349 98272.0 NaN 4992.611890447562 1.2523921128227735 1496.0 1.0 1496.0 
24.00022557285349 98273.0 NaN 4996.251169004676 1.2531352673275689 1496.0 1.0 1496.0 
26.000084666035004 98309.0 NaN 4992.6305945223785 1.2543752982969325 1496.0 1.0 1496.0 
28.00022557285349 98355.0 NaN 4996.275217100869 1.2554726805738134 1496.0 1.0 1496.0 
30.00022557285349 98368.0 NaN 4992.6626586506345 1.2586855648696484 1496.0 1.0 1496.0 
32.000225572853495 98370.0 NaN 4996.291249164997 1.2614147404730454 1496.0 1.0 1496.0 
34.000225572853495 98376.0 NaN 4992.6626586506345 1.2653450319292596 1496.0 1.0 1496.0 
36.00008466603501 98434.0 NaN 4996.291249164997 1.2694194491922264 1496.0 1.0 1496.0 
38.000225572853495 98489.0 NaN 4992.6626586506345 1.2745543757610989 1496.0 1.0 1496.0 
40.000225572853495 98508.0 NaN 4996.272545090181 1.2779941905177692 1496.0 1.0 1496.0 
42.000225572853495 98508.0 NaN 4992.6680026720105 1.2831091568465687 1496.0 1.0 1496.0 
44.000225572853495 98516.0 NaN 4996.248496993988 1.2867382777802632 1496.0 1.0 1496.0 
46.00008466603501 98538.0 NaN 4992.6519706078825 1.2893536967024912 1496.0 1.0 1496.0 
48.000225572853495 98561.0 NaN 4996.235136940548 1.2856777009313478 1496.0 1.0 1496.0 
50.000225572853495 98610.0 NaN 4992.6786907147625 1.2913060660988256 1496.0 1.0 1496.0 
52.000225572853495 98616.0 NaN 4996.200400801603 1.2981377910754133 1496.0 1.0 1496.0 
54.000225572853495 98613.0 NaN 4992.7294589178355 1.3035780713173317 1496.0 1.0 1496.0 
56.00008466603501 98632.0 NaN 4996.221776887108 1.312270652512899 1496.0 1.0 1496.0 
58.000225572853495 98670.0 NaN 4992.7321309285235 1.3009212407148927 1496.0 1.0 1496.0 
60.000225572853495 98726.0 NaN 4996.23246492986 1.3082196062519216 1496.0 1.0 1496.0 
62.000225572853495 98752.0 NaN 1522.4074816299274 0.8422999847437714 821.0 1.0 364.0 
64.0002255728535 98765.0 NaN 1523.0113560454247 0.749350525479772 656.0 2.0 363.0 
66.00008466603501 98790.0 NaN 1522.3193052772208 0.7530298405775704 593.0 2.0 363.0 
68.0002255728535 98858.0 NaN 1522.9659318637273 0.7528349529468659 573.0 3.0 362.0 
70.0002255728535 98861.0 NaN 1525.3814295257184 0.7602995010985923 549.0 3.0 363.0 
72.0002255728535 98888.0 NaN 1526.0173680694727 0.7687995974840343 536.0 3.0 363.0 
74.0002255728535 98896.0 NaN 1525.370741482964 0.7786278837150786 530.0 3.0 363.0 
76.00008466603501 98884.0 NaN 1526.0173680694727 0.7716505163296071 532.0 3.0 363.0 
78.0002255728535 98889.0 NaN 1531.5377421509697 0.7521882956515458 531.0 3.0 365.0 
80.0002255728535 98907.0 NaN 1535.243820975282 0.7582233800191249 531.0 3.0 366.0 
82.0002255728535 98944.0 NaN 1534.5784903139613 0.7652963118361754 531.0 3.0 366.0 
84.0002255728535 98951.0 NaN 1535.2144288577153 0.7496003346646852 529.0 3.0 366.0 
86.00008466603501 98954.0 NaN 1534.5704742818973 0.7537141141627298 527.0 3.0 366.0 
88.0002255728535 98956.0 NaN 1535.1877087508362 0.753946750150708 527.0 3.0 366.0 
90.0002255728535 98968.0 NaN 1537.603206412827 0.7577241201119334 527.0 3.0 367.0 
92.0002255728535 99004.0 NaN 1538.260521042084 0.7571818312564241 527.0 3.0 367.0 
94.0002255728535 99007.0 NaN 1537.5898463593849 0.7652785651000533 525.0 3.0 367.0 
96.00008466603501 98999.0 NaN 1541.3306613226455 0.7630942756868683 525.0 3.0 368.0 
98.0002255728535 99033.0 NaN 1540.6573146292576 0.7584201350288349 525.0 3.0 368.0 
100.0002255728535 99027.0 NaN 1541.3413493653975 0.7619814749854426 525.0 3.0 368.0 
102.0002255728535 99044.0 NaN 1540.6573146292576 0.7623395420456289 525.0 3.0 368.0 
104.0002255728535 99040.0 NaN 1541.3413493653975 0.7528651888777341 525.0 3.0 368.0 
106.00008466603501 99010.0 NaN 1540.6599866399451 0.7438783082722781 525.0 3.0 368.0 
108.0002255728535 99086.0 NaN 1541.3333333333337 0.749402388451287 524.0 3.0 368.0 
110.0002255728535 99086.0 NaN 1540.6813627254517 0.7554661149674035 524.0 3.0 368.0 
112.0002255728535 99115.0 NaN 1541.3653974615909 0.7621665126564705 524.0 3.0 368.0 
114.0002255728535 99121.0 NaN 1540.649298597194 0.7698051315193393 525.0 3.0 368.0 
116.00008466603501 99132.0 NaN 1544.3981295925182 0.7638722922961336 526.0 3.0 369.0 
118.0002255728535 99148.0 NaN 1549.7982631930543 0.7697440606942322 527.0 3.0 371.0 
120.0002255728535 99136.0 NaN 1553.6192384769547 0.7735668482932925 527.0 3.0 372.0 
122.0002255728535 99135.0 NaN 1552.8897795591183 0.7769750585320527 527.0 3.0 372.0 
124.0002255728535 99125.0 NaN 1553.6513026052091 0.7675328946861282 527.0 3.0 372.0 
126.00008466603501 99019.0 NaN 1549.857047428191 0.7405017768274338 527.0 3.0 371.0 
128.0002255728535 99038.0 NaN 1547.5030060120246 0.7436620183496586 527.0 3.0 370.0 
130.0002255728535 99041.0 NaN 1546.7441549766183 0.747812017568986 527.0 3.0 370.0 
132.0002255728535 99060.0 NaN 1547.524382097527 0.748971442659743 527.0 3.0 370.0 
134.0002255728535 99048.0 NaN 1546.7788911155635 0.7494209378414493 527.0 3.0 370.0 
136.000084666035 99015.0 NaN 1547.5136940547757 0.7389741696839608 526.0 3.0 370.0 
138.0002255728535 99026.0 NaN 1546.8082832331334 0.7432202934078669 522.0 4.0 369.0 
140.0002255728535 99019.0 NaN 1547.5404141616546 0.7444049151068289 522.0 3.0 370.0 
142.0002255728535 99031.0 NaN 1549.9185036740153 0.7458380953771615 521.0 4.0 370.0 
144.0002255728535 99021.0 NaN 1550.5357381429544 0.7446039034920641 521.0 5.0 369.0 
146.000084666035 99025.0 NaN 1543.775551102203 0.7361231841701462 521.0 5.0 367.0 
148.0002255728535 99042.0 NaN 1544.4488977955907 0.7374868196488643 521.0 4.0 368.0 
150.0002255728535 99033.0 NaN 1543.7568470273884 0.7398101674655321 521.0 4.0 368.0 
152.0002255728535 99031.0 NaN 1544.4248496994 0.7414857544002511 521.0 4.0 368.0 
154.0002255728535 99027.0 NaN 1540.684034736139 0.7456441813245985 520.0 4.0 367.0 
156.000084666035 99036.0 NaN 1544.430193720773 0.7451342536796633 520.0 4.0 368.0 
158.0002255728535 99052.0 NaN 1546.8403473613907 0.748121715163258 521.0 4.0 369.0 
160.0002255728535 99042.0 NaN 1544.4355377421516 0.7484846901920976 519.0 4.0 368.0 
162.0002255728535 99064.0 NaN 1543.8183032732122 0.7478194311890534 516.0 4.0 368.0 
164.0002255728535 99064.0 NaN 1544.427521710088 0.7440375604203915 517.0 4.0 368.0 
166.000084666035 99036.0 NaN 1543.7995991983973 0.7307637860650075 518.0 4.0 368.0 
168.0002255728535 99015.0 NaN 1547.5003340013366 0.7302093295418208 519.0 3.0 370.0 
170.0002255728535 99013.0 NaN 1549.9959919839664 0.7334198033976189 519.0 4.0 370.0 
172.0002255728535 99025.0 NaN 1550.551770207082 0.736691136305981 522.0 3.0 371.0 
174.0002255728535 99033.0 NaN 1546.9018036072152 0.7417758790323001 522.0 3.0 370.0 
176.000084666035 99017.0 NaN 1541.3146292585184 0.7395636939965855 521.0 3.0 368.0 
178.0002255728535 99020.0 NaN 1537.6860387441545 0.7387730142776215 519.0 4.0 366.0 
180.0002255728535 99027.0 NaN 1541.3360053440208 0.742980585619381 520.0 4.0 367.0 
182.0002255728535 99053.0 NaN 1537.7181028724112 0.7444128635872791 520.0 4.0 366.0 
184.0002255728535 99053.0 NaN 1538.2204408817638 0.7490345326663741 520.0 4.0 366.0 
186.000084666035 99038.0 NaN 1537.7207748831001 0.7373978306928846 518.0 4.0 366.0 
188.0002255728535 99026.0 NaN 1538.260521042084 0.7401385663938446 518.0 3.0 367.0 
190.0002255728535 99004.0 NaN 1537.6993987975939 0.7414011584174027 517.0 3.0 367.0 
192.0002255728535 99008.0 NaN 1535.1636606546429 0.7458189928188429 516.0 3.0 366.0 
194.0002255728535 99012.0 NaN 1534.6346025384091 0.7509844127165812 516.0 3.0 366.0 
196.000084666035 98994.0 NaN 1535.174348697394 0.7544165006575245 516.0 3.0 366.0 
198.0002255728535 98961.0 NaN 1534.6025384101547 0.7518290555030162 516.0 3.0 366.0 
200.0002255728535 98962.0 NaN 1538.2551770207092 0.7581433772085212 517.0 3.0 367.0 
202.0002255728535 98971.0 NaN 1540.8203072812273 0.7637017645398727 518.0 3.0 368.0 
204.0002255728535 98983.0 NaN 1541.322645290582 0.7691617370434095 516.0 3.0 368.0 
206.000084666035 98973.0 NaN 1540.8550434201725 0.759892005694567 516.0 3.0 368.0 
208.0002255728535 98927.0 NaN 1541.3653974615909 0.7568578886599302 516.0 3.0 368.0 
210.0002255728535 98919.0 NaN 1537.750167000667 0.762535785796582 517.0 3.0 367.0 
212.0002255728535 98917.0 NaN 1535.2010688042753 0.7673838285676923 518.0 3.0 366.0 
214.0002255728535 98919.0 NaN 1531.561790247161 0.7757065835038395 516.0 3.0 365.0 
216.000084666035 98896.0 NaN 1532.0908483633934 0.7715975398004585 513.0 3.0 365.0 
218.0002255728535 98848.0 NaN 1528.4702738810938 0.7687866539769124 513.0 3.0 364.0 
220.0002255728535 98836.0 NaN 1529.007348029391 0.7758102804880569 513.0 3.0 364.0 
222.0002255728535 98831.0 NaN 1528.5183700734815 0.7798812490173687 512.0 3.0 364.0 
224.0002255728535 98821.0 NaN 1529.0126920507664 0.7912761021714722 511.0 3.0 364.0 
226.000084666035 98878.0 NaN 1528.4943219772883 0.7887072914458452 512.0 3.0 364.0 
228.0002255728535 98839.0 NaN 1532.1229124916517 0.7773507977891138 512.0 3.0 365.0 
230.0002255728535 98836.0 NaN 1531.615230460921 0.7858045459056661 512.0 3.0 365.0 
232.0002255728535 98845.0 NaN 1535.2277889111542 0.7877058949344449 512.0 3.0 366.0 
234.0002255728535 98851.0 NaN 1534.677354709418 0.7981873990015403 511.0 3.0 366.0 
236.000084666035 98838.0 NaN 1538.2177688710756 0.7943054443980535 512.0 3.0 367.0 
238.0002255728535 98825.0 NaN 1534.6479625918516 0.7870602695569975 512.0 3.0 366.0 
240.0002255728535 98798.0 NaN 1529.0233800935187 0.79205875397325 510.0 3.0 364.0 
242.0002255728535 98799.0 NaN 1531.5778223112907 0.8019015018767686 509.0 3.0 365.0 
244.0002255728535 98776.0 NaN 1532.0534402137612 0.7940782674904191 509.0 3.0 365.0 
246.000084666035 98744.0 NaN 1531.569806279227 0.7824032416061975 511.0 3.0 365.0 
248.0002255728535 98714.0 NaN 1528.9913159652635 0.7752735359601329 512.0 3.0 364.0 
250.0002255728535 98692.0 NaN 1528.4836339345363 0.7757584357049614 512.0 3.0 364.0 
252.0002255728535 98692.0 NaN 1528.9485637942544 0.7785665143872103 512.0 3.0 364.0 
254.0002255728535 98677.0 NaN 1525.3547094188366 0.7765968670176853 512.0 3.0 363.0 
256.00008466603504 98639.0 NaN 1525.8677354709425 0.775005529229592 512.0 3.0 363.0 
258.0002255728535 98611.0 NaN 1525.3547094188366 0.7721522805104631 512.0 3.0 363.0 
260.0002255728535 98594.0 NaN 1525.8329993319976 0.7793234764769291 514.0 3.0 363.0 
262.0002255728535 98590.0 NaN 1525.3306613226455 0.7899589266133435 514.0 3.0 363.0 
264.0002255728535 98557.0 NaN 1528.921843687373 0.793612780788013 514.0 3.0 364.0 
266.00008466603504 98547.0 NaN 1528.4088176352723 0.7950160062790513 514.0 3.0 364.0 
268.0002255728535 98531.0 NaN 1538.185704742818 0.7913545788710825 513.0 3.0 367.0 
270.0002255728535 98519.0 NaN 1534.6105544422182 0.8021489376495976 511.0 3.0 366.0 
272.0002255728535 98515.0 NaN 1532.016032064127 0.8125059593026659 511.0 3.0 365.0 
274.0002255728535 98488.0 NaN 1531.5030060120246 0.8074937581731506 511.0 3.0 365.0 
276.00008466603504 98434.0 NaN 1531.9919839679364 0.8058874385354895 511.0 3.0 365.0 
278.0002255728535 98409.0 NaN 1537.6058784235117 0.8003887445583887 514.0 3.0 367.0 
280.0002255728535 98410.0 NaN 1541.210420841682 0.8124764906462464 514.0 3.0 368.0 
282.0002255728535 98399.0 NaN 1540.700066800266 0.8257153819102887 515.0 3.0 368.0 
284.0002255728535 98363.0 NaN 1538.148296593184 0.8267453414005728 515.0 3.0 367.0 
286.00008466603504 98272.0 NaN 1537.6085504342002 0.807044201667356 515.0 3.0 367.0 
288.0002255728535 98222.0 NaN 1535.0674682698727 0.7980733191746937 512.0 3.0 366.0 
290.0002255728535 98227.0 NaN 1534.5597862391458 0.8008456734824537 511.0 3.0 366.0 
292.0002255728535 98190.0 NaN 1535.0861723446908 0.8057749687606088 510.0 3.0 366.0 
294.0002255728535 98158.0 NaN 1534.5624582498338 0.8095579853998327 509.0 3.0 366.0 
296.00008466603504 98079.0 NaN 1535.0541082164339 0.8045175920091557 509.0 3.0 366.0 
298.0002255728535 98032.0 NaN 1537.6032064128271 0.785548081216188 509.0 3.0 367.0 
300.0002255728535 98036.0 NaN 1538.1242484969935 0.7913924602788608 508.0 3.0 367.0 
302.0002255728535 98029.0 NaN 1537.6165664662635 0.8025304552858624 507.0 3.0 367.0 
304.0002255728535 98009.0 NaN 1538.1456245825 0.7983153387341076 507.0 3.0 367.0 
306.00008466603504 97947.0 NaN 1534.5624582498338 0.7937963057364504 509.0 3.0 366.0 
308.0002255728535 97914.0 NaN 1538.1189044756184 0.794405553958058 506.0 3.0 367.0 
310.0002255728535 97929.0 NaN 1531.4709418837663 0.8016611387782382 506.0 3.0 365.0 
312.0002255728535 97904.0 NaN 1532.018704074818 0.810382698564463 505.0 3.0 365.0 
314.0002255728535 97874.0 NaN 1531.4789579158305 0.8204159898708061 504.0 3.0 365.0 
316.00008466603504 97813.0 NaN 1535.0594522378092 0.8154876521081937 505.0 3.0 366.0 
318.0002255728535 97756.0 NaN 1537.645958583836 0.8074761640157165 508.0 3.0 367.0 
320.0002255728535 97710.0 NaN 1538.105544422179 0.809992152259048 508.0 3.0 367.0 
322.0002255728535 97676.0 NaN 1540.7267869071454 0.8150266680699718 506.0 3.0 368.0 
324.0002255728535 97666.0 NaN 1541.215764863061 0.8276312770355626 505.0 3.0 368.0 
326.00008466603504 97615.0 NaN 1540.7374749499 0.825105679401626 506.0 3.0 368.0 
328.0002255728535 97558.0 NaN 1538.1135604542428 0.8042175343631003 505.0 3.0 367.0 
330.0002255728535 97527.0 NaN 1540.7321309285246 0.8113070221663254 505.0 3.0 368.0 
332.0002255728535 97496.0 NaN 1541.1596526386093 0.8234345295157112 505.0 3.0 368.0 
334.0002255728535 97478.0 NaN 1540.7348029392115 0.8365774248120208 506.0 3.0 368.0 
336.00008466603504 97413.0 NaN 1535.0327321309273 0.8300970315734274 506.0 3.0 366.0 
338.0002255728535 97333.0 NaN 1531.4736138944545 0.8238657331926535 507.0 3.0 365.0 
340.0002255728535 97293.0 NaN 1528.8871075484299 0.829559936757131 508.0 3.0 364.0 
342.0002255728535 97245.0 NaN 1528.416833667336 0.838205537524551 508.0 3.0 364.0 
344.0002255728535 97215.0 NaN 1528.8924515698066 0.8364735775329204 508.0 3.0 364.0 
346.00008466603504 97148.0 NaN 1531.5003340013366 0.8198794896269558 508.0 3.0 365.0 
348.0002255728535 97099.0 NaN 1528.921843687373 0.8162426617507681 507.0 3.0 364.0 
350.0002255728535 97074.0 NaN 1525.3547094188368 0.8236533625990353 507.0 3.0 363.0 
352.0002255728535 97045.0 NaN 1525.8223112892456 0.8335786031046024 513.0 3.0 363.0 
354.0002255728535 97040.0 NaN 1525.2905811623248 0.8334353616939465 514.0 3.0 363.0 
356.00008466603504 96978.0 NaN 1525.7875751503 0.8233543918728284 513.0 3.0 363.0 
358.0002255728535 96967.0 NaN 1525.2879091516363 0.8136892489076265 511.0 3.0 363.0 
360.0002255728535 96939.0 NaN 1528.873747494991 0.8218633737613441 511.0 3.0 364.0 
362.0002255728535 96923.0 NaN 1528.3954575818298 0.8354920596194083 513.0 3.0 364.0 
364.0002255728535 96895.0 NaN 1525.8116232464915 0.8192974407856899 513.0 3.0 363.0 
366.00008466603504 96835.0 NaN 1516.0881763527061 0.8140318970240957 515.0 3.0 360.0 
368.0002255728535 96792.0 NaN 1501.1943887775544 0.8093224484369339 513.0 3.0 355.0 
370.0002255728535 96781.0 NaN 1506.8243152972616 0.8176117543811235 513.0 3.0 357.0 
372.0002255728535 96762.0 NaN 1510.391449565799 0.831685032984454 512.0 3.0 358.0 
374.0002255728535 96731.0 NaN 1509.8891115564456 0.8267513196743116 512.0 3.0 358.0 
376.00008466603504 96716.0 NaN 1510.3433533734126 0.8302716255442723 513.0 3.0 358.0 
378.0002255728535 96731.0 NaN 1509.8757515030068 0.8335790003520211 515.0 4.0 357.0 
380.0002255728535 96725.0 NaN 1510.3353373413486 0.8440729458723087 515.0 4.0 357.0 
382.0002255728535 96689.0 NaN 1506.8189712758845 0.8546080488929426 513.0 4.0 356.0 
384.0002255728535 96637.0 NaN 1510.3700734802933 0.8427746806967322 512.0 4.0 357.0 
386.00008466603504 96593.0 NaN 1519.1556446225793 0.83941804945574 515.0 4.0 360.0 
388.0002255728535 96570.0 NaN 1510.436873747494 0.8337119947749908 515.0 4.0 357.0 
390.0002255728535 96556.0 NaN 1506.856379425518 0.841270824954879 513.0 4.0 356.0 
392.0002255728535 96526.0 NaN 1513.4883099532394 0.8389312775010153 513.0 4.0 358.0 
394.0002255728535 96495.0 NaN 1512.9939879759522 0.8394824607752807 514.0 4.0 358.0 
396.00008466603504 96439.0 NaN 1513.4589178356723 0.8383914174630074 517.0 3.0 359.0 
398.0002255728535 96366.0 NaN 1509.9398797595184 0.8073221291621108 518.0 3.0 358.0 
400.0002255728535 96366.0 NaN 1513.4776219104883 0.810022102368143 518.0 3.0 359.0 
402.0002255728535 96331.0 NaN 1512.9939879759522 0.8161638501137329 519.0 3.0 359.0 
404.0002255728535 96305.0 NaN 1519.607214428857 0.8162954078242011 518.0 3.0 361.0 
406.00008466603504 96220.0 NaN 1522.225784903139 0.798848056120801 519.0 3.0 362.0 
408.0002255728535 96187.0 NaN 1522.7094188376752 0.7909771668376976 520.0 3.0 362.0 
410.0002255728535 96173.0 NaN 1522.2391449565812 0.8033740096177108 519.0 3.0 362.0 
412.0002255728535 96169.0 NaN 1525.7929191716757 0.8165058308796517 520.0 4.0 362.0 
414.0002255728535 96187.0 NaN 1525.3413493653977 0.8303051618413122 522.0 4.0 362.0 
416.00008466603504 96143.0 NaN 1525.774215096861 0.8348537582410599 525.0 4.0 362.0 
418.0002255728535 96147.0 NaN 1525.303941215764 0.8303183508857555 524.0 4.0 362.0 
420.0002255728535 96132.0 NaN 1516.5263861055453 0.8415531953789258 524.0 4.0 359.0 
422.0002255728535 96115.0 NaN 1509.9104876419512 0.854443778958016 525.0 4.0 357.0 
424.0002255728535 96130.0 NaN 1504.2297929191723 0.8604219943501258 522.0 4.0 355.0 
426.00008466603504 96068.0 NaN 1512.9913159652635 0.8584661212482345 515.0 4.0 358.0 
428.0002255728535 96041.0 NaN 1504.227120908483 0.8635491357011611 514.0 4.0 355.0 
430.0002255728535 96029.0 NaN 1503.7515030060115 0.876187947285793 515.0 4.0 355.0 
432.0002255728535 96000.0 NaN 1501.1222444889784 0.8761134138782409 516.0 4.0 354.0 
434.0002255728535 95982.0 NaN 1503.7221108884441 0.8448534969065004 517.0 4.0 355.0 
436.00008466603504 95912.0 NaN 1513.432197728791 0.8388362694516908 520.0 4.0 358.0 
438.0002255728535 95833.0 NaN 1519.1262525050092 0.8233440893688698 522.0 4.0 360.0 
440.0002255728535 95830.0 NaN 1519.5671342685364 0.8357985936711749 522.0 4.0 360.0 
442.0002255728535 95810.0 NaN 1516.0561122244485 0.834306266112219 523.0 4.0 359.0 
444.0002255728535 95785.0 NaN 1519.5671342685364 0.8356023031092984 521.0 4.0 360.0 
446.00008466603504 95750.0 NaN 1525.263861055445 0.8257130714850485 523.0 4.0 362.0 
448.0002255728535 95720.0 NaN 1534.9258517034084 0.8129900116372164 525.0 4.0 365.0 
450.0002255728535 95711.0 NaN 1534.4368737474938 0.8183467119026131 525.0 4.0 365.0 
452.0002255728535 95711.0 NaN 1547.187708750836 0.8332112371350866 527.0 3.0 370.0 
454.0002255728535 95701.0 NaN 1546.7708750835 0.8290136182207732 526.0 3.0 370.0 
456.00008466603504 95693.0 NaN 1550.2792251169 0.8329539596958861 526.0 3.0 371.0 
458.0002255728535 95665.0 NaN 1546.7842351369393 0.8143730564805969 526.0 3.0 370.0 
460.0002255728535 95654.0 NaN 1547.209084836339 0.8220546898113191 524.0 3.0 370.0 
462.0002255728535 95623.0 NaN 1546.7708750835 0.8203806059654776 525.0 3.0 370.0 
464.0002255728535 95625.0 NaN 1547.2171008684031 0.7994786841191402 525.0 3.0 370.0 
466.00008466603504 95609.0 NaN 1546.6987307949244 0.806219119202474 527.0 3.0 370.0 
468.0002255728535 95586.0 NaN 1544.1229124916515 0.8001338419132084 525.0 3.0 369.0 
470.0002255728535 95570.0 NaN 1543.6579826319298 0.8046928188728354 523.0 3.0 369.0 
472.0002255728535 95530.0 NaN 1538.0173680694727 0.8112328049476755 521.0 3.0 367.0 
474.0002255728535 95541.0 NaN 1528.3313293253182 0.8213581629318869 518.0 3.0 364.0 
476.00008466603504 95573.0 NaN 1525.7341349365392 0.8269662882696005 518.0 3.0 363.0 
478.0002255728535 95564.0 NaN 1522.1883767535085 0.8039800947410627 517.0 3.0 362.0 
480.0002255728535 95574.0 NaN 1525.7234468937884 0.8072332172868968 516.0 3.0 363.0 
482.0002255728535 95551.0 NaN 1525.218436873746 0.8077976136957742 519.0 3.0 363.0 
484.0002255728535 95555.0 NaN 1513.3787575150293 0.8152277324691358 518.0 3.0 359.0 
486.00008466603504 95604.0 NaN 1509.8436873747485 0.8193959069965547 516.0 3.0 358.0 
488.0002255728535 95593.0 NaN 1501.1088844355372 0.7998668809210279 514.0 3.0 355.0 
490.0002255728535 95602.0 NaN 1497.6219104876427 0.8049143160337884 514.0 3.0 354.0 
492.0002255728535 95592.0 NaN 1491.9492317969275 0.8092383972049454 514.0 3.0 352.0 
494.0002255728535 95586.0 NaN 1497.5925183700729 0.7928219120760669 514.0 3.0 354.0 
496.00008466603504 95608.0 NaN 1494.9846359385444 0.7913321896649651 511.0 3.0 353.0 
498.0002255728535 95591.0 NaN 1494.5170340681366 0.7740314781389955 511.0 3.0 353.0 
500.0002255728535 95585.0 NaN 1494.9525718102882 0.776744807605598 511.0 3.0 353.0 
502.0002255728535 95592.0 NaN 1491.4014696058791 0.7805788130506766 512.0 3.0 352.0 
504.0002255728535 95597.0 NaN 1488.8176352705425 0.7925828477102885 514.0 3.0 351.0 
506.00008466603504 95606.0 NaN 1491.4655978623907 0.7946252288448786 515.0 3.0 352.0 
508.0002255728535 95613.0 NaN 1488.830995323982 0.7933218652360874 513.0 3.0 351.0 
510.0002255728535 95612.0 NaN 1488.3500334001344 0.7926258904559894 512.0 3.0 351.0 
512.0002255728535 95615.0 NaN 1494.989979959919 0.7983633146201945 511.0 3.0 353.0 
514.0002255728534 95605.0 NaN 1497.6058784235122 0.8045503473030583 511.0 3.0 354.0 
516.000084666035 95638.0 NaN 1491.9519038076162 0.8100880261691731 513.0 3.0 352.0 
518.0002255728534 95600.0 NaN 1485.3360053440204 0.7914703601711582 509.0 3.0 350.0 
520.0002255728534 95598.0 NaN 1476.5851703406818 0.7937172153151208 509.0 3.0 347.0 
522.0002255728534 95600.0 NaN 1469.950567802272 0.7984124315528507 509.0 3.0 345.0 
524.0002255728534 95596.0 NaN 1467.3587174348704 0.8037255368494353 507.0 3.0 344.0 
526.000084666035 95623.0 NaN 1457.675350701402 0.7998171724882643 506.0 3.0 341.0 
528.0002255728534 95679.0 NaN 1458.0948563794261 0.7953121348285487 504.0 3.0 341.0 
530.0002255728534 95664.0 NaN 1460.6680026720098 0.7984392653638169 504.0 3.0 342.0 
532.0002255728534 95687.0 NaN 1461.1569806279215 0.8074696280248733 508.0 3.0 342.0 
534.0002255728534 95679.0 NaN 1463.7648630594535 0.8154422803270303 508.0 3.0 343.0 
536.000084666035 95685.0 NaN 1467.3266533066123 0.8203266719239184 509.0 3.0 344.0 
538.0002255728534 95723.0 NaN 1469.9345357381435 0.8185729626574583 510.0 3.0 345.0 
540.0002255728534 95691.0 NaN 1470.4101536406154 0.8181145969596753 510.0 3.0 345.0 
542.0002255728534 95745.0 NaN 1469.9532398129604 0.8226774980865063 510.0 3.0 345.0 
544.0002255728534 95748.0 NaN 1473.4989979959912 0.8307045697022113 512.0 3.0 346.0 
546.000084666035 95733.0 NaN 1479.1930527722104 0.8285646265190457 511.0 3.0 348.0 
548.0002255728534 95731.0 NaN 1476.5931863727455 0.8239837717339554 511.0 3.0 347.0 
550.0002255728534 95721.0 NaN 1473.0207080828327 0.8127889705148764 510.0 3.0 346.0 
552.0002255728534 95756.0 NaN 1473.5096860387446 0.8137340537910849 515.0 3.0 346.0 
554.0002255728534 95841.0 NaN 1479.1048764195061 0.7945351147087562 518.0 3.0 348.0 
556.000084666035 95879.0 NaN 1479.6285905143627 0.7981635797428406 518.0 3.0 348.0 
558.0002255728534 95893.0 NaN 1479.0915163660648 0.788935140324578 518.0 3.0 348.0 
560.0002255728534 95899.0 NaN 1467.323981295926 0.7950553973885038 516.0 3.0 344.0 
562.0002255728534 95958.0 NaN 1466.829659318637 0.8002308354748416 510.0 3.0 344.0 
564.0002255728534 96013.0 NaN 1467.3026052104208 0.795718253864146 511.0 3.0 344.0 
566.000084666035 96013.0 NaN 1472.9325317301273 0.8003572874458363 513.0 3.0 346.0 
568.0002255728534 96001.0 NaN 1479.6018704074818 0.7654273955816692 513.0 3.0 348.0 
570.0002255728534 95997.0 NaN 1479.088844355378 0.7705194890973569 516.0 3.0 348.0 
572.0002255728534 96033.0 NaN 1479.6205744822987 0.7818289761843221 517.0 3.0 348.0 
574.0002255728534 96089.0 NaN 1479.1583166332662 0.7925125521845696 516.0 3.0 348.0 
576.000084666035 96094.0 NaN 1491.9144956579823 0.7956164764549011 517.0 3.0 352.0 
578.0002255728534 96106.0 NaN 1488.363393453573 0.7955346587873561 520.0 3.0 351.0 
580.0002255728534 96102.0 NaN 1485.7555110220446 0.8036043370618663 520.0 4.0 349.0 
582.0002255728534 96149.0 NaN 1485.2905811623252 0.8146896748913381 519.0 4.0 349.0 
584.0002255728534 96197.0 NaN 1482.6773547094185 0.826436062624295 519.0 3.0 349.0 
586.000084666035 96224.0 NaN 1482.1135604542426 0.8360650505315893 524.0 3.0 349.0 
588.0002255728534 96234.0 NaN 1482.6746826987303 0.8384444628024543 523.0 3.0 349.0 
590.0002255728534 96219.0 NaN 1485.2558450233805 0.838343427829996 525.0 3.0 350.0 
592.0002255728534 96186.0 NaN 1491.8957915831659 0.8430741086026744 526.0 3.0 352.0 
594.0002255728534 96216.0 NaN 1491.3453573814286 0.8499795061250237 527.0 3.0 352.0 
596.000084666035 96202.0 NaN 1488.780227120909 0.8576404532560118 527.0 3.0 351.0 
598.0002255728534 96249.0 NaN 1479.0541082164332 0.8660530160588468 524.0 3.0 348.0 
600.0002255728534 96239.0 NaN 1485.7314629258524 0.8481035030331653 527.0 3.0 350.0 
602.0002255728534 96118.0 NaN 1482.1456245824986 0.83215928590768 527.0 3.0 349.0 
604.0002255728534 96109.0 NaN 1482.6693386773545 0.8316332697969521 527.0 3.0 349.0 
606.000084666035 96110.0 NaN 1485.2237808951243 0.8417058250196734 525.0 3.0 350.0 
608.0002255728534 96148.0 NaN 1491.8530394121567 0.8382346262636028 525.0 4.0 351.0 
610.0002255728534 96112.0 NaN 1494.4876419505667 0.8379737060978927 526.0 4.0 352.0 
612.0002255728534 96093.0 NaN 1494.9686038744164 0.8386971162500757 524.0 4.0 352.0 
614.0002255728534 96090.0 NaN 1494.5277221108893 0.8194136505799713 525.0 4.0 352.0 
616.000084666035 96078.0 NaN 1491.885103540415 0.8230447311013348 526.0 3.0 352.0 
618.0002255728534 96084.0 NaN 1488.4008016032074 0.816827972662433 526.0 3.0 351.0 
620.0002255728534 96051.0 NaN 1491.9171676686715 0.814477514305723 527.0 3.0 352.0 
622.0002255728534 96040.0 NaN 1497.6700066800274 0.8035230965999148 524.0 3.0 354.0 
624.0002255728534 96028.0 NaN 1504.2805611222454 0.7952840289751264 524.0 3.0 356.0 
626.000084666035 96028.0 NaN 1506.9205076820303 0.8021840708135084 523.0 3.0 357.0 
628.0002255728534 96029.0 NaN 1504.2832331329334 0.7939978814278948 529.0 3.0 356.0 
630.0002255728534 96047.0 NaN 1506.928523714094 0.802522358792013 529.0 3.0 357.0 
632.0002255728534 96029.0 NaN 1510.4769539078163 0.8062780718349576 525.0 4.0 357.0 
634.0002255728534 96003.0 NaN 1516.138944555779 0.8014921811642889 525.0 4.0 359.0 
636.000084666035 95999.0 NaN 1516.5958583834347 0.8125201795825309 528.0 4.0 359.0 
638.0002255728534 95994.0 NaN 1519.2090848363384 0.8014389720807574 526.0 4.0 360.0 
640.0002255728534 95976.0 NaN 1516.5905143620564 0.8101937703752902 525.0 4.0 359.0 
642.0002255728534 95955.0 NaN 1519.2277889111547 0.8113507454958819 525.0 4.0 360.0 
644.0002255728534 95983.0 NaN 1513.5070140280554 0.8091702813853675 526.0 4.0 358.0 
646.000084666035 95987.0 NaN 1513.0554442217758 0.8150605005529702 523.0 4.0 358.0 
648.0002255728534 95987.0 NaN 1519.620574482299 0.8241007015691348 524.0 4.0 360.0 
650.0002255728534 95967.0 NaN 1519.1877087508356 0.8316185064987387 520.0 4.0 360.0 
652.0002255728534 95967.0 NaN 1519.615230460921 0.842054897165081 518.0 4.0 360.0 
654.0002255728534 95979.0 NaN 1519.1209084836346 0.8361955355906266 519.0 4.0 360.0 
656.000084666035 96001.0 NaN 1519.6018704074818 0.8450808438977611 519.0 4.0 360.0 
658.0002255728534 96048.0 NaN 1522.2097528390102 0.8479885274966065 516.0 4.0 361.0 
660.0002255728534 96027.0 NaN 1531.9492317969275 0.8593155884584325 516.0 4.0 364.0 
662.0002255728534 96016.0 NaN 1531.4094856379434 0.8690237187618914 515.0 4.0 364.0 
664.0002255728534 95996.0 NaN 1531.8984635938546 0.8481506978230051 515.0 4.0 364.0 
#####################################################################
# End of data export. Simulation finished at: 2019-03-05T13:12+0000 #
#####################################################################
