#####################################################################
# Alchemist log file - simulation started at: 2019-03-12T16:37+0000 #
#####################################################################
# seed = 6.0, bandwidth = 74989.42093324558, propagationDelay = 0.0031622776601683794, baserange = 316.2277660168379
#
# The columns have the following meaning: 
# time neighbor_count[Sum] <value>@neighbor_count[Sum] packet_size[Mean] mean_delay[Mean] crowd[Sum] overcrowded[Sum] risk[Sum] 
0.0 NaN NaN NaN NaN NaN NaN NaN 
2.001114155839992 51165.0 NaN 4995.511022044088 0.497131967838569 1497.0 0.0 1497.0 
4.001114155839992 51288.0 NaN 4994.105544422177 0.4986116446888041 1494.0 3.0 1494.0 
6.001114155839992 51288.0 NaN 4993.841015364062 0.49860482385040045 1494.0 3.0 1494.0 
8.001114155839993 51289.0 NaN 4994.338009352037 0.4985498614318261 1496.0 1.0 1496.0 
10.001114155839993 51292.0 NaN 4995.607214428857 0.49859148298622924 1497.0 0.0 1497.0 
12.001114155839993 51296.0 NaN 4994.965931863728 0.4985646144985627 1497.0 0.0 1497.0 
14.001114155839993 51298.0 NaN 4994.517034068136 0.4995441456438775 1494.0 3.0 1494.0 
16.001114155839993 51298.0 NaN 4994.677354709419 0.5014361179798904 1493.0 4.0 1493.0 
18.001114155839993 51335.0 NaN 4995.3533734134935 0.5019129140001873 1492.0 5.0 1492.0 
20.001114155839993 51335.0 NaN 4995.959919839679 0.5004739990594456 1495.0 2.0 1495.0 
22.001114155839993 51336.0 NaN 4994.800267201069 0.49889050370439547 1496.0 1.0 1496.0 
24.001114155839993 51337.0 NaN 4994.29258517034 0.5004584892988647 1495.0 2.0 1495.0 
26.001114155839993 51347.0 NaN 4994.335337341349 0.5028349260817929 1494.0 3.0 1494.0 
28.001114155839993 51389.0 NaN 4995.305277221109 0.5010377680048197 1494.0 3.0 1494.0 
30.001114155839993 51372.0 NaN 4996.21910487642 0.4985653309421081 1494.0 3.0 1494.0 
32.00111415583999 51375.0 NaN 4994.931195724783 0.4984769639543053 1495.0 2.0 1495.0 
34.00111415583999 51372.0 NaN 4994.140280561122 0.5003944007428438 1494.0 3.0 1494.0 
36.00111415583999 51385.0 NaN 4994.549098196393 0.5048160914552766 1495.0 2.0 1495.0 
38.00111415583999 51419.0 NaN 4995.115564462258 0.5029496355259581 1496.0 1.0 1496.0 
40.00111415583999 51385.0 NaN 4996.251169004676 0.5006394972700206 1497.0 0.0 1497.0 
42.00111415583999 51373.0 NaN 4995.310621242485 0.49920850300190817 1496.0 1.0 1496.0 
44.00111415583999 51367.0 NaN 4994.356713426853 0.4990163594329575 1495.0 2.0 1495.0 
46.00111415583999 51362.0 NaN 4994.295257181028 0.5008806017521792 1493.0 4.0 1493.0 
48.00111415583999 51394.0 NaN 4994.944555778223 0.5056193101414566 1496.0 1.0 1496.0 
50.00111415583999 51371.0 NaN 4995.796927187709 0.5026655158238488 1496.0 1.0 1496.0 
52.00111415583999 51368.0 NaN 4995.040748162993 0.4998281155260065 1496.0 1.0 1496.0 
54.00111415583999 51374.0 NaN 4994.623914495658 0.4997431640891154 1495.0 2.0 1495.0 
56.00111415583999 51391.0 NaN 4994.778891115565 0.5019826307939298 1495.0 2.0 1495.0 
58.00111415583999 51420.0 NaN 4995.20908483634 0.5062374148444226 1496.0 1.0 1496.0 
60.00111415583999 51413.0 NaN 4996.010688042752 0.5019654240870116 1495.0 2.0 1495.0 
62.00079309822733 51403.0 NaN 1525.6058784235122 0.4966035080438603 778.0 2.0 364.0 
64.00079309822732 51425.0 NaN 1525.7100868403459 0.5026352074481575 618.0 4.0 362.0 
66.00079309822732 51507.0 NaN 1525.6646626586514 0.5072576918653643 575.0 4.0 362.0 
68.00079309822732 51517.0 NaN 1528.9058116232454 0.505495638508635 546.0 4.0 363.0 
70.00079309822732 51487.0 NaN 1528.9592518370087 0.5000640925336858 530.0 4.0 363.0 
72.00079309822732 51470.0 NaN 1528.9619238476937 0.5001843210122776 527.0 5.0 362.0 
74.00079309822732 51474.0 NaN 1531.8476953907818 0.5009396201670666 529.0 2.0 366.0 
76.00079309822732 51501.0 NaN 1534.8189712758845 0.5026944034979071 527.0 4.0 365.0 
78.00079309822732 51501.0 NaN 1534.8269873079485 0.5041939739897981 526.0 3.0 366.0 
80.00079309822732 51492.0 NaN 1534.8029392117548 0.5008368232715947 523.0 4.0 365.0 
82.00079309822732 51518.0 NaN 1534.8911155644635 0.5020759263464772 522.0 5.0 364.0 
84.00079309822732 51521.0 NaN 1538.0494321977276 0.5039516175872985 523.0 5.0 365.0 
86.00079309822732 51540.0 NaN 1538.0521042084179 0.5015004407227762 521.0 5.0 365.0 
88.00079309822732 51537.0 NaN 1538.0814963259847 0.5021759402496462 522.0 4.0 366.0 
90.00079309822732 51546.0 NaN 1538.0494321977276 0.4999507336292779 524.0 4.0 366.0 
92.00079309822732 51567.0 NaN 1537.985303941216 0.5002900138201225 525.0 3.0 367.0 
94.00079309822732 51567.0 NaN 1537.9158316633273 0.501261747204459 525.0 3.0 367.0 
96.00079309822732 51575.0 NaN 1538.0093520374094 0.503280834822238 525.0 3.0 367.0 
98.00079309822732 51571.0 NaN 1541.0020040080178 0.5049798889232457 524.0 4.0 367.0 
100.00079309822732 51541.0 NaN 1541.0554442217758 0.5008880756212509 523.0 4.0 367.0 
102.00079309822732 51547.0 NaN 1541.0340681362727 0.501695930253154 521.0 6.0 365.0 
104.00079309822732 51570.0 NaN 1541.028724114897 0.5006675014683897 522.0 4.0 367.0 
106.00079309822732 51577.0 NaN 1537.9532398129606 0.5035300016726079 519.0 7.0 363.0 
108.00079309822732 51569.0 NaN 1541.1302605210424 0.506084685876466 521.0 6.0 365.0 
110.00079309822732 51509.0 NaN 1541.1783567134273 0.500624330785765 524.0 4.0 367.0 
112.00079309822732 51540.0 NaN 1541.1783567134273 0.5013392413369057 524.0 4.0 367.0 
114.00079309822732 51573.0 NaN 1541.0848363393457 0.5006829279060092 526.0 3.0 368.0 
116.00079309822732 51568.0 NaN 1543.9973279893118 0.5028510034713776 525.0 5.0 367.0 
118.00079309822732 51571.0 NaN 1540.9405477621908 0.5043410389001509 527.0 3.0 368.0 
120.00079309822732 51538.0 NaN 1540.956579826318 0.5011832149144186 527.0 3.0 368.0 
122.00079309822732 51555.0 NaN 1541.0581162324638 0.5020479170390417 527.0 3.0 368.0 
124.00079309822732 51566.0 NaN 1541.1142284569148 0.5039375500464741 527.0 3.0 368.0 
126.00079309822732 51540.0 NaN 1538.1028724114908 0.505861172984058 526.0 4.0 366.0 
128.00079309822732 51521.0 NaN 1538.0627922511696 0.5025154100884079 524.0 5.0 365.0 
130.00079309822735 51495.0 NaN 1537.9131596526363 0.5003198337831093 521.0 7.0 363.0 
132.00079309822735 51508.0 NaN 1537.9398797595181 0.5007675045893659 520.0 6.0 364.0 
134.00079309822735 51512.0 NaN 1537.8169672678698 0.5025246709308536 522.0 3.0 367.0 
136.00079309822735 51495.0 NaN 1534.8510354041425 0.5028589541581171 520.0 3.0 366.0 
138.00079309822735 51481.0 NaN 1534.8937875751515 0.5013940340831118 520.0 3.0 366.0 
140.00079309822735 51469.0 NaN 1535.0220440881758 0.5018404660876832 519.0 2.0 367.0 
142.00079309822735 51461.0 NaN 1538.1108884435546 0.5008702724270192 518.0 3.0 367.0 
144.00079309822735 51454.0 NaN 1541.124916499666 0.5025894704728227 515.0 5.0 366.0 
146.00079309822735 51427.0 NaN 1544.1042084168337 0.5038787787579577 516.0 5.0 367.0 
148.00079309822735 51426.0 NaN 1544.0374081496334 0.5039100354139903 519.0 4.0 368.0 
150.00079309822735 51407.0 NaN 1544.061456245827 0.5029100237572085 520.0 3.0 369.0 
152.00079309822735 51375.0 NaN 1550.2792251169 0.5020221890061866 522.0 2.0 372.0 
154.00079309822735 51357.0 NaN 1541.1088844355368 0.5014266618706221 521.0 4.0 367.0 
156.00079309822735 51350.0 NaN 1537.9959919839666 0.5021610920345289 522.0 3.0 367.0 
158.00079309822735 51355.0 NaN 1538.0387441549758 0.5040201328750529 523.0 2.0 368.0 
160.00079309822735 51314.0 NaN 1538.0521042084179 0.5019800273293642 519.0 3.0 367.0 
162.00079309822735 51292.0 NaN 1541.1489645958575 0.503306747774914 520.0 2.0 369.0 
164.00079309822735 51292.0 NaN 1540.993987975952 0.5036108582468695 519.0 3.0 368.0 
166.00079309822735 51241.0 NaN 1537.9986639946549 0.5020718901086337 520.0 2.0 368.0 
168.00079309822735 51233.0 NaN 1541.114228456915 0.5062657816129829 519.0 2.0 369.0 
170.00079309822735 51163.0 NaN 1541.0180360721456 0.5072875597677057 516.0 4.0 367.0 
172.00079309822735 51120.0 NaN 1541.0581162324636 0.5038522212427781 517.0 3.0 368.0 
174.00079309822735 51111.0 NaN 1537.934535738143 0.5065247055273858 519.0 1.0 369.0 
176.00079309822735 51058.0 NaN 1537.9879759519026 0.5016073723020822 520.0 0.0 370.0 
178.00079309822735 51052.0 NaN 1541.1489645958573 0.5034761161617001 519.0 2.0 369.0 
180.00079309822735 51018.0 NaN 1541.2558450233817 0.5023467544620835 518.0 1.0 370.0 
182.00079309822735 50993.0 NaN 1541.052772211091 0.5022451031519729 519.0 1.0 370.0 
184.00079309822735 50986.0 NaN 1541.039412157648 0.5046037984273584 519.0 0.0 371.0 
186.00079309822735 50973.0 NaN 1534.7468269873093 0.5039011736707673 517.0 1.0 368.0 
188.00079309822735 50981.0 NaN 1534.7040748163001 0.5062095155590604 516.0 1.0 368.0 
190.00079309822735 50941.0 NaN 1534.749498997997 0.5034123922989613 516.0 1.0 368.0 
192.00079309822735 50912.0 NaN 1534.8082832331334 0.5042744517510472 517.0 1.0 368.0 
194.00079309822735 50906.0 NaN 1538.0440881763543 0.5028393935837525 517.0 1.0 369.0 
196.00079309822735 50900.0 NaN 1538.1215764863064 0.502594732199404 517.0 1.0 369.0 
198.00079309822735 50900.0 NaN 1538.1295925183701 0.5049000523365209 515.0 4.0 366.0 
200.00079309822735 50865.0 NaN 1538.0093520374094 0.5019001878815998 518.0 1.0 369.0 
202.00079309822735 50839.0 NaN 1537.9265197060793 0.5020971949256219 520.0 0.0 370.0 
204.00079309822735 50839.0 NaN 1537.9185036740153 0.5045664371064146 518.0 1.0 369.0 
206.00079309822735 50845.0 NaN 1534.8002672010698 0.5037573363837534 517.0 1.0 368.0 
208.00079309822735 50813.0 NaN 1534.9392117568457 0.5036799011208923 513.0 0.0 369.0 
210.00079309822735 50766.0 NaN 1534.9392117568457 0.5014270684714726 514.0 0.0 369.0 
212.00079309822735 50745.0 NaN 1535.0193720774882 0.5009784193992612 514.0 1.0 368.0 
214.00079309822735 50749.0 NaN 1534.9231796927181 0.5041177436625736 513.0 2.0 367.0 
216.00079309822735 50730.0 NaN 1528.753507014027 0.507856167416156 515.0 2.0 365.0 
218.00079309822735 50711.0 NaN 1528.598530394121 0.507549043021779 514.0 2.0 365.0 
220.00079309822735 50671.0 NaN 1528.6599866399451 0.504689539289689 514.0 2.0 365.0 
222.00079309822735 50641.0 NaN 1522.5838343353362 0.5063170095867348 515.0 1.0 364.0 
224.00079309822735 50644.0 NaN 1522.5490981963912 0.5081589146673251 516.0 0.0 365.0 
226.00079309822735 50625.0 NaN 1531.7221108884453 0.5116557019028899 516.0 0.0 368.0 
228.00079309822735 50609.0 NaN 1534.8109552438207 0.5095509794007862 515.0 1.0 368.0 
230.00079309822735 50588.0 NaN 1534.8109552438207 0.510704098803428 512.0 1.0 368.0 
232.00079309822735 50558.0 NaN 1534.8350033400118 0.506398833188067 514.0 0.0 369.0 
234.00079309822735 50605.0 NaN 1534.8216432865727 0.5030547652337047 515.0 0.0 369.0 
236.00079309822735 50630.0 NaN 1537.9265197060793 0.5055455225511805 513.0 1.0 369.0 
238.00079309822735 50618.0 NaN 1537.8917835671364 0.5075906358390677 514.0 1.0 369.0 
240.00079309822735 50586.0 NaN 1534.8243152972614 0.5087371422775123 511.0 1.0 368.0 
242.00079309822735 50575.0 NaN 1534.7307949231817 0.5110248366485737 510.0 2.0 367.0 
244.00079309822735 50571.0 NaN 1531.6579826319298 0.5032370620216774 514.0 0.0 368.0 
246.00079309822735 50545.0 NaN 1528.5290581162335 0.5030611193852702 512.0 0.0 367.0 
248.00079309822735 50558.0 NaN 1528.6092184368727 0.5038575464605277 514.0 0.0 367.0 
250.00079309822735 50531.0 NaN 1522.543754175018 0.5017488078041108 511.0 0.0 365.0 
252.00079309822735 50527.0 NaN 1522.6639946559792 0.501917635061353 508.0 1.0 364.0 
254.00079309822735 50528.0 NaN 1522.5250501002 0.5040531271825989 509.0 1.0 364.0 
256.00079309822735 50525.0 NaN 1522.4101536406151 0.5050221711967728 511.0 0.0 365.0 
258.00079309822735 50533.0 NaN 1519.305277221109 0.5062279189109058 513.0 0.0 364.0 
260.00079309822735 50501.0 NaN 1519.294589178355 0.5035568880962942 513.0 0.0 364.0 
262.00079309822735 50474.0 NaN 1519.366733466934 0.50242181146785 513.0 0.0 364.0 
264.00079309822735 50460.0 NaN 1519.5110220440883 0.5058832362964699 513.0 1.0 363.0 
266.00079309822735 50446.0 NaN 1522.6105544422182 0.5085098482585643 513.0 1.0 364.0 
268.00079309822735 50431.0 NaN 1531.8396793587183 0.5064700045926294 513.0 0.0 368.0 
270.00079309822735 50420.0 NaN 1531.7354709418819 0.5125883954060719 510.0 0.0 368.0 
272.00079309822735 50336.0 NaN 1531.6713426853726 0.5138655083551539 512.0 0.0 368.0 
274.00079309822735 50223.0 NaN 1528.5557782231117 0.5056849781857712 510.0 0.0 367.0 
276.00079309822735 50196.0 NaN 1528.6065464261844 0.5044467740790542 509.0 1.0 366.0 
278.00079309822735 50213.0 NaN 1531.596526386107 0.5038626321921043 510.0 1.0 367.0 
280.00079309822735 50205.0 NaN 1531.6847027388092 0.5041339898193885 516.0 0.0 368.0 
282.00079309822735 50141.0 NaN 1534.8483633934547 0.5034359046872262 514.0 0.0 369.0 
284.00079309822735 50116.0 NaN 1534.8430193720794 0.5061195399611034 514.0 0.0 369.0 
286.00079309822735 50066.0 NaN 1528.6920507682023 0.5074723090049897 511.0 0.0 367.0 
288.00079309822735 50054.0 NaN 1528.6867067468274 0.5085426678926399 511.0 1.0 366.0 
290.00079309822735 49984.0 NaN 1528.5557782231117 0.5065261059164531 512.0 1.0 366.0 
292.00079309822735 49902.0 NaN 1528.6492985971936 0.5041841495306336 514.0 0.0 367.0 
294.00079309822735 49880.0 NaN 1525.5871743486978 0.5062104642900164 512.0 0.0 366.0 
296.00079309822735 49845.0 NaN 1525.5524382097544 0.5061307945963811 513.0 0.0 366.0 
298.00079309822735 49823.0 NaN 1531.6553106212434 0.5045571295792425 510.0 0.0 368.0 
300.00079309822735 49786.0 NaN 1534.808283233134 0.5052120130582199 508.0 1.0 368.0 
302.00079309822735 49748.0 NaN 1534.8323313293272 0.5045083326885207 508.0 1.0 368.0 
304.00079309822735 49727.0 NaN 1525.6513026052091 0.506941927704236 510.0 0.0 366.0 
306.00079309822735 49701.0 NaN 1525.6566466265879 0.5095775636938075 507.0 1.0 365.0 
308.00079309822735 49700.0 NaN 1531.8263193052749 0.5045833163571481 507.0 1.0 367.0 
310.00079309822735 49651.0 NaN 1534.7815631262545 0.5041268315127178 506.0 1.0 368.0 
312.00079309822735 49596.0 NaN 1534.8376753507 0.5038535627770669 507.0 1.0 368.0 
314.00079309822735 49576.0 NaN 1534.7575150300613 0.5053064467487499 505.0 1.0 368.0 
316.00079309822735 49552.0 NaN 1531.6766867067454 0.5056991547310495 510.0 1.0 367.0 
318.00079309822735 49535.0 NaN 1531.655310621243 0.5102430391091732 505.0 1.0 367.0 
320.00079309822735 49478.0 NaN 1531.7327989311973 0.5091459569680328 508.0 1.0 367.0 
322.00079309822735 49395.0 NaN 1534.8563794255183 0.5024442590982933 506.0 1.0 368.0 
324.00079309822735 49413.0 NaN 1531.828991315964 0.5058119595456058 508.0 1.0 367.0 
326.00079309822735 49403.0 NaN 1537.8917835671364 0.5080825108668601 506.0 1.0 369.0 
328.00079309822735 49384.0 NaN 1537.9291917167661 0.5101539231741766 507.0 1.0 369.0 
330.00079309822735 49343.0 NaN 1534.789579158318 0.5055367744731549 507.0 1.0 368.0 
332.00079309822735 49281.0 NaN 1534.8269873079482 0.5049569737025646 510.0 1.0 368.0 
334.00079309822735 49294.0 NaN 1534.7575150300609 0.5071404241272891 509.0 1.0 368.0 
336.00079309822735 49292.0 NaN 1525.6165664662637 0.5077167208561787 512.0 1.0 365.0 
338.00079309822735 49300.0 NaN 1531.6873747495001 0.5051418271617938 510.0 1.0 367.0 
340.00079309822735 49269.0 NaN 1525.6112224448912 0.5036969400998874 511.0 1.0 365.0 
342.00079309822735 49225.0 NaN 1522.5571142284566 0.5025864242103116 506.0 1.0 364.0 
344.00079309822735 49222.0 NaN 1519.5377421509697 0.5064993804231402 508.0 1.0 363.0 
346.00079309822735 49235.0 NaN 1519.4736138944545 0.5075847593151905 509.0 1.0 363.0 
348.00079309822735 49238.0 NaN 1522.5437541750175 0.5055930665254997 515.0 1.0 364.0 
350.00079309822735 49210.0 NaN 1522.4796259185032 0.5058405281099757 511.0 1.0 364.0 
352.00079309822735 49147.0 NaN 1522.6078824315296 0.503523448966683 512.0 1.0 364.0 
354.00079309822735 49137.0 NaN 1522.530394121576 0.5069625843090548 509.0 1.0 364.0 
356.00079309822735 49121.0 NaN 1522.6372745490994 0.5056035058168212 511.0 1.0 364.0 
358.00079309822735 49125.0 NaN 1522.5571142284566 0.5050772883885263 512.0 1.0 364.0 
360.00079309822735 49099.0 NaN 1528.793587174348 0.5039409865220169 514.0 1.0 366.0 
362.00079309822735 49079.0 NaN 1525.6379425517705 0.5063529265935295 515.0 1.0 365.0 
364.00079309822735 49106.0 NaN 1525.6700066800274 0.5080679009037392 517.0 1.0 365.0 
366.00079309822735 49087.0 NaN 1516.3500334001342 0.5078014980672634 515.0 1.0 362.0 
368.00079309822735 49065.0 NaN 1516.3981295925182 0.5056399738998079 517.0 1.0 362.0 
370.00079309822735 49020.0 NaN 1513.2585170340697 0.5032179998256779 517.0 1.0 361.0 
372.00079309822735 48995.0 NaN 1513.4348697394796 0.5050545469891193 518.0 1.0 361.0 
374.00079309822735 49011.0 NaN 1513.3974615898458 0.5066111718827246 516.0 1.0 361.0 
376.00079309822735 48988.0 NaN 1507.2037408149636 0.504297180009344 517.0 1.0 359.0 
378.00079309822735 48978.0 NaN 1510.233800935203 0.5039461214320626 518.0 1.0 360.0 
380.00079309822735 48961.0 NaN 1510.2044088176362 0.5060886505576238 520.0 1.0 360.0 
382.00079309822735 48924.0 NaN 1516.3633934535728 0.5078689473180351 518.0 1.0 362.0 
384.00079309822735 48935.0 NaN 1522.541082164328 0.5086482363360216 522.0 1.0 364.0 
386.00079309822735 48890.0 NaN 1519.4896459585827 0.5049260802137698 519.0 1.0 363.0 
388.00079309822735 48878.0 NaN 1528.7080828323303 0.5044288975453907 522.0 1.0 366.0 
390.00079309822735 48865.0 NaN 1525.5764863059455 0.5044141699783773 519.0 1.0 365.0 
392.00079309822735 48832.0 NaN 1522.5597862391458 0.5045078894008882 522.0 1.0 364.0 
394.00079309822735 48846.0 NaN 1516.3874415497658 0.5070667196926143 520.0 1.0 362.0 
396.00079309822735 48795.0 NaN 1510.3593854375426 0.5048698087331079 522.0 1.0 360.0 
398.00079309822735 48799.0 NaN 1510.2899131596537 0.5059436942084882 520.0 1.0 360.0 
400.00079309822735 48761.0 NaN 1513.3440213760848 0.5060526291835147 521.0 1.0 361.0 
402.00079309822735 48716.0 NaN 1519.4976619906477 0.50781013087083 521.0 1.0 363.0 
404.00079309822735 48705.0 NaN 1525.6299265197067 0.5076501480891712 524.0 1.0 365.0 
406.00079309822735 48694.0 NaN 1525.6192384769547 0.5133852362841228 521.0 1.0 365.0 
408.00079309822735 48687.0 NaN 1522.535738142954 0.5090622920393075 524.0 1.0 364.0 
410.00079309822735 48636.0 NaN 1525.5551102204392 0.5058970929031877 520.0 1.0 365.0 
412.00079309822735 48615.0 NaN 1534.8911155644632 0.50654191656587 524.0 1.0 368.0 
414.00079309822735 48625.0 NaN 1534.8563794255183 0.502966175581478 523.0 1.0 368.0 
416.00079309822735 48647.0 NaN 1531.7541750167002 0.5015808724634189 525.0 1.0 367.0 
418.00079309822735 48670.0 NaN 1528.6973947895794 0.5048001957474182 522.0 1.0 366.0 
420.00079309822735 48649.0 NaN 1531.7568470273886 0.5052002922800182 524.0 1.0 367.0 
422.00079309822735 48609.0 NaN 1522.490313961255 0.5054574928641743 528.0 1.0 364.0 
424.00079309822735 48597.0 NaN 1516.4088176352718 0.505548518230321 526.0 1.0 362.0 
426.00079309822735 48594.0 NaN 1516.4088176352716 0.5036680484491748 521.0 1.0 362.0 
428.00079309822735 48611.0 NaN 1513.3306613226455 0.5055320843551315 518.0 1.0 361.0 
430.00079309822735 48587.0 NaN 1513.274549098197 0.506649264442716 520.0 1.0 361.0 
432.00079309822735 48559.0 NaN 1510.1937207748824 0.5066140931965094 520.0 1.0 360.0 
434.00079309822735 48558.0 NaN 1513.2798931195728 0.5061102794839571 520.0 1.0 361.0 
436.00079309822735 48570.0 NaN 1528.6733466933879 0.5070824876540533 526.0 1.0 366.0 
438.00079309822735 48592.0 NaN 1534.832331329327 0.5072402414462617 528.0 2.0 367.0 
440.00079309822735 48547.0 NaN 1534.7922511690056 0.5049605151278627 528.0 1.0 368.0 
442.00079309822735 48530.0 NaN 1531.7060788243157 0.5062557607574251 528.0 2.0 366.0 
444.00079309822735 48520.0 NaN 1531.6232464929847 0.5088721433785371 528.0 1.0 367.0 
446.00079309822735 48526.0 NaN 1547.1155644622572 0.5102769030700837 531.0 2.0 371.0 
448.00079309822735 48538.0 NaN 1550.236472945891 0.5144527607485991 530.0 2.0 372.0 
450.00079309822735 48492.0 NaN 1544.0668002671998 0.5133956886638845 529.0 3.0 369.0 
452.00079309822735 48485.0 NaN 1547.1289245157 0.5075674665926673 527.0 2.0 371.0 
454.00079309822735 48487.0 NaN 1547.0647962591843 0.5091445605761005 528.0 2.0 371.0 
456.00079309822735 48481.0 NaN 1553.2237808951247 0.5071588784832735 527.0 1.0 374.0 
458.00079309822735 48493.0 NaN 1553.205076820309 0.5076191765725139 527.0 2.0 373.0 
460.00079309822735 48459.0 NaN 1550.1643286573153 0.5086329117860885 527.0 1.0 373.0 
462.00079309822735 48413.0 NaN 1550.2418169672665 0.5049174045604187 528.0 2.0 372.0 
464.00079309822735 48416.0 NaN 1550.2605210420838 0.5066019922236917 528.0 1.0 373.0 
466.00079309822735 48407.0 NaN 1544.098864395457 0.5075596105893344 526.0 3.0 369.0 
468.00079309822735 48431.0 NaN 1540.9512358049456 0.5053292692593501 523.0 2.0 369.0 
470.00079309822735 48398.0 NaN 1534.8029392117546 0.5057626309456658 524.0 3.0 366.0 
472.00079309822735 48377.0 NaN 1534.7548430193729 0.5040033661619374 524.0 2.0 367.0 
474.00079309822735 48384.0 NaN 1531.735470941882 0.5062937917413592 522.0 3.0 365.0 
476.00079309822735 48373.0 NaN 1525.5871743486975 0.5071478784541484 517.0 2.0 364.0 
478.00079309822735 48395.0 NaN 1525.6085504342007 0.5043971719288125 515.0 5.0 361.0 
480.00079309822735 48382.0 NaN 1522.5143620574477 0.5034802934094303 512.0 5.0 360.0 
482.00079309822735 48396.0 NaN 1525.6272545090183 0.5032472157236689 517.0 2.0 364.0 
484.00079309822735 48436.0 NaN 1522.5277221108888 0.5039536520774995 510.0 9.0 356.0 
486.00079309822735 48447.0 NaN 1513.29859719439 0.5041318442646308 514.0 4.0 358.0 
488.00079309822735 48471.0 NaN 1507.0728122912483 0.5066816143599828 510.0 5.0 355.0 
490.00079309822735 48461.0 NaN 1500.9779559118244 0.5054223145673612 514.0 0.0 358.0 
492.00079309822735 48452.0 NaN 1500.9432197728797 0.5055618949627655 510.0 0.0 358.0 
494.00079309822735 48517.0 NaN 1494.8670674682708 0.5050553003138532 508.0 2.0 354.0 
496.00079309822735 48541.0 NaN 1494.8162992651978 0.507701444276489 505.0 2.0 354.0 
498.00079309822735 48553.0 NaN 1491.756847027389 0.5055272208435364 504.0 4.0 351.0 
500.00079309822735 48528.0 NaN 1491.7702070808277 0.5051454156920814 504.0 4.0 351.0 
502.00079309822735 48532.0 NaN 1497.9104876419515 0.5029317228233066 510.0 2.0 355.0 
504.00079309822735 48578.0 NaN 1491.7969271877091 0.5047306472903595 512.0 1.0 354.0 
506.00079309822735 48580.0 NaN 1501.1142284569148 0.5064736909347227 513.0 3.0 355.0 
508.00079309822735 48594.0 NaN 1501.0527722110903 0.5080334818592463 511.0 6.0 352.0 
510.00079309822735 48601.0 NaN 1494.9392117568464 0.5081222235489495 516.0 1.0 355.0 
512.0007930982274 48627.0 NaN 1497.9318637274544 0.5038063612082372 515.0 2.0 355.0 
514.0007930982274 48675.0 NaN 1494.8724114896452 0.5052568660523141 516.0 2.0 354.0 
516.0007930982274 48649.0 NaN 1476.3206412825643 0.5066937737590731 511.0 1.0 349.0 
518.0007930982274 48671.0 NaN 1479.4789579158307 0.5063539071411396 512.0 2.0 349.0 
520.0007930982274 48676.0 NaN 1479.5751503006004 0.507598149198514 510.0 2.0 349.0 
522.0007930982274 48664.0 NaN 1479.580494321979 0.5041631352714663 512.0 1.0 350.0 
524.0007930982274 48699.0 NaN 1467.2171008684027 0.5060788197788381 505.0 3.0 344.0 
526.0007930982274 48668.0 NaN 1461.0340681362727 0.5058160341375756 508.0 1.0 344.0 
528.0007930982274 48677.0 NaN 1467.2277889111547 0.504069571732807 507.0 2.0 345.0 
530.0007930982274 48673.0 NaN 1464.1496325985297 0.5050888364180177 515.0 1.0 345.0 
532.0007930982274 48675.0 NaN 1467.2117568470271 0.505767689094187 511.0 1.0 346.0 
534.0007930982274 48661.0 NaN 1470.2872411489639 0.505778311796106 510.0 2.0 346.0 
536.0007930982274 48655.0 NaN 1467.2464929859725 0.5081556449540221 510.0 1.0 346.0 
538.0007930982274 48663.0 NaN 1467.227788911155 0.5084113335109628 514.0 1.0 346.0 
540.0007930982274 48640.0 NaN 1467.2518370073474 0.5032710372067752 511.0 2.0 345.0 
542.0007930982274 48664.0 NaN 1464.1095524382094 0.5043603884438099 515.0 0.0 346.0 
544.0007930982274 48687.0 NaN 1464.1229124916508 0.5078684481729854 512.0 1.0 345.0 
546.0007930982274 48677.0 NaN 1464.1576486305937 0.5105751619899198 515.0 2.0 344.0 
548.0007930982274 48694.0 NaN 1470.3246492985977 0.5049120582314994 515.0 2.0 346.0 
550.0007930982274 48675.0 NaN 1470.2578490313967 0.5044436640891646 517.0 1.0 347.0 
552.0007930982274 48683.0 NaN 1470.2525050100194 0.5038811221031866 516.0 3.0 345.0 
554.0007930982274 48700.0 NaN 1470.3006012024057 0.5054218678907144 516.0 2.0 346.0 
556.0007930982274 48736.0 NaN 1461.1115564462264 0.5083221320764266 514.0 3.0 342.0 
558.0007930982274 48709.0 NaN 1458.0146960587845 0.5027638082499873 509.0 2.0 342.0 
560.0007930982274 48723.0 NaN 1461.0420841683363 0.5050097751311751 509.0 3.0 342.0 
562.0007930982274 48735.0 NaN 1457.9078156312635 0.5076267392510629 508.0 2.0 342.0 
564.0007930982274 48753.0 NaN 1457.9185036740143 0.5086952071450012 506.0 3.0 341.0 
566.0007930982274 48792.0 NaN 1464.1122244488988 0.5094310629796637 509.0 2.0 344.0 
568.0007930982274 48782.0 NaN 1470.287241148964 0.5063633700570966 509.0 3.0 345.0 
570.0007930982274 48791.0 NaN 1473.376085504342 0.507135958153748 513.0 2.0 347.0 
572.0007930982274 48768.0 NaN 1473.4161656646631 0.5059743679036997 515.0 3.0 346.0 
574.0007930982274 48769.0 NaN 1479.5724782899126 0.5107582492822045 514.0 2.0 349.0 
576.0007930982274 48828.0 NaN 1488.8149632598536 0.5108845144936801 515.0 3.0 351.0 
578.0007930982274 48834.0 NaN 1485.6913827655303 0.5042315496147799 515.0 2.0 351.0 
580.0007930982274 48833.0 NaN 1479.476285905144 0.5036650074187035 513.0 4.0 347.0 
582.0007930982274 48837.0 NaN 1485.5524382097533 0.5049395054182091 513.0 3.0 350.0 
584.0007930982274 48841.0 NaN 1485.6085504342013 0.5047970606376417 510.0 7.0 346.0 
586.0007930982274 48861.0 NaN 1488.7374749499 0.5085108824270894 517.0 2.0 352.0 
588.0007930982274 48881.0 NaN 1494.9338677354715 0.5071576484301021 519.0 4.0 352.0 
590.0007930982274 48827.0 NaN 1497.9612558450242 0.5043481740940452 520.0 2.0 355.0 
592.0007930982274 48815.0 NaN 1497.9826319305273 0.5062100766110713 518.0 4.0 353.0 
594.0007930982274 48823.0 NaN 1497.961255845024 0.50434727446303 523.0 2.0 355.0 
596.0007930982274 48864.0 NaN 1494.901803607215 0.5056691957439505 524.0 4.0 352.0 
598.0007930982274 48853.0 NaN 1491.764863059453 0.5060058721928803 523.0 2.0 353.0 
600.0007930982274 48839.0 NaN 1494.8804275217096 0.5066395477745859 522.0 4.0 352.0 
602.0007930982274 48838.0 NaN 1491.7354709418832 0.5089738387130449 523.0 2.0 353.0 
604.0007930982274 48836.0 NaN 1491.7381429525722 0.5075555306044138 524.0 4.0 351.0 
606.0007930982274 48874.0 NaN 1491.7434869739475 0.5086541650848575 523.0 2.0 353.0 
608.0007930982274 48850.0 NaN 1501.0688042752179 0.5081830037310547 520.0 4.0 354.0 
610.0007930982274 48832.0 NaN 1500.9913159652635 0.5049832490185706 522.0 2.0 356.0 
612.0007930982274 48822.0 NaN 1501.0046760187033 0.5052955857124237 518.0 4.0 354.0 
614.0007930982274 48826.0 NaN 1504.0133600534393 0.5048883772621977 518.0 2.0 357.0 
616.0007930982274 48880.0 NaN 1504.1683366733462 0.5056154472392337 520.0 4.0 355.0 
618.0007930982274 48886.0 NaN 1513.3119572478286 0.5070621096305262 522.0 2.0 360.0 
620.0007930982274 48855.0 NaN 1510.2471609886445 0.5070075701937735 519.0 4.0 357.0 
622.0007930982274 48828.0 NaN 1513.2558450233805 0.5089530664920255 519.0 2.0 360.0 
624.0007930982274 48834.0 NaN 1516.3874415497655 0.5105368944667911 521.0 4.0 359.0 
626.0007930982274 48777.0 NaN 1519.3827655310627 0.5087164484842079 520.0 2.0 362.0 
628.0007930982274 48777.0 NaN 1519.444221776888 0.5071215200744326 519.0 3.0 361.0 
630.0007930982274 48737.0 NaN 1516.3660654642624 0.5069051206044725 516.0 2.0 361.0 
632.0007930982274 48711.0 NaN 1513.3547094188373 0.5038094403765423 514.0 4.0 358.0 
634.0007930982274 48739.0 NaN 1516.4328657314636 0.505350728937121 513.0 3.0 360.0 
636.0007930982274 48732.0 NaN 1510.3861055444215 0.5065894639827969 517.0 3.0 358.0 
638.0007930982274 48747.0 NaN 1513.40547762191 0.5087897549476568 516.0 3.0 359.0 
640.0007930982274 48685.0 NaN 1513.378757515029 0.5053533016188513 511.0 9.0 353.0 
642.0007930982274 48648.0 NaN 1507.2491649966607 0.5028956081103871 514.0 7.0 353.0 
644.0007930982274 48699.0 NaN 1510.4315297261185 0.5061067777483498 518.0 3.0 358.0 
646.0007930982274 48692.0 NaN 1516.5664662658646 0.5076006977882136 514.0 3.0 360.0 
648.0007930982274 48701.0 NaN 1516.4702738810943 0.50865918413575 513.0 4.0 359.0 
650.0007930982274 48661.0 NaN 1516.4863059452243 0.5073022314729485 516.0 3.0 360.0 
652.0007930982274 48630.0 NaN 1516.4863059452243 0.5092242654348539 515.0 3.0 360.0 
654.0007930982274 48660.0 NaN 1516.496993987975 0.5113782270907513 513.0 2.0 361.0 
656.0007930982274 48659.0 NaN 1538.0868403473626 0.5059831783140648 515.0 3.0 367.0 
658.0007930982274 48664.0 NaN 1541.074148296592 0.5076045874900025 516.0 2.0 369.0 
660.0007930982274 48667.0 NaN 1541.1783567134273 0.506612511820013 514.0 3.0 368.0 
662.0007930982274 48674.0 NaN 1544.130928523715 0.5084640902801633 509.0 2.0 370.0 
664.0007930982274 48675.0 NaN 1544.1629926519715 0.5053425334450026 508.0 3.0 369.0 
#####################################################################
# End of data export. Simulation finished at: 2019-03-12T16:54+0000 #
#####################################################################
