#####################################################################
# Alchemist log file - simulation started at: 2019-03-10T14:00+0000 #
#####################################################################
# seed = 2.0, bandwidth = 2.3713737056616552E7, propagationDelay = 0.1, baserange = 1000.0
#
# The columns have the following meaning: 
# time neighbor_count[Sum] <value>@neighbor_count[Sum] packet_size[Mean] mean_delay[Mean] crowd[Sum] overcrowded[Sum] risk[Sum] 
0.0 NaN NaN NaN NaN NaN NaN NaN 
2.0000012936911027 209066.0 NaN 4995.160988643955 0.49824048536415744 1497.0 0.0 1497.0 
4.000001293691103 210022.0 NaN 4993.683366733467 0.5004859559190513 1497.0 0.0 1497.0 
6.000001293691102 210022.0 NaN 4994.0467601870405 0.5004859061372409 1497.0 0.0 1497.0 
8.000001293691103 210022.0 NaN 4994.519706078824 0.5004858887086296 1497.0 0.0 1497.0 
10.000001293691103 210025.0 NaN 4995.64462257849 0.5004843040177474 1497.0 0.0 1497.0 
12.000001293691103 210032.0 NaN 4995.070140280561 0.5004791243557077 1497.0 0.0 1497.0 
14.000001293691103 210034.0 NaN 4994.14295257181 0.5004786128899669 1497.0 0.0 1497.0 
16.000001293691103 210054.0 NaN 4994.311289245157 0.5004704203593873 1497.0 0.0 1497.0 
18.000001293691106 210059.0 NaN 4995.1957247829 0.5005116628049844 1497.0 0.0 1497.0 
20.000001293691106 210070.0 NaN 4995.591182364729 0.5010210319201877 1496.0 1.0 1496.0 
22.000001293691106 210069.0 NaN 4994.637274549098 0.5005736014850108 1496.0 1.0 1496.0 
24.000001293691106 210076.0 NaN 4994.313961255845 0.5005407502199059 1497.0 0.0 1497.0 
26.000001293691106 210091.0 NaN 4994.209752839011 0.5005806836552832 1497.0 0.0 1497.0 
28.000001293691106 210133.0 NaN 4995.139612558451 0.5012062424421758 1497.0 0.0 1497.0 
30.000001293691106 210126.0 NaN 4996.195056780227 0.500581571718595 1497.0 0.0 1497.0 
32.000001293691106 210194.0 NaN 4994.559786239145 0.5008426829347998 1497.0 0.0 1497.0 
34.000001293691106 210150.0 NaN 4993.905143620575 0.5006771973260312 1497.0 0.0 1497.0 
36.000001293691106 210162.0 NaN 4994.442217768871 0.5005787245237743 1497.0 0.0 1497.0 
38.000001293691106 210211.0 NaN 4994.859051436206 0.5007991294984752 1496.0 1.0 1496.0 
40.000001293691106 210212.0 NaN 4995.983967935872 0.5007674070698518 1497.0 0.0 1497.0 
42.000001293691106 210270.0 NaN 4995.3480293921175 0.5004868907638708 1497.0 0.0 1497.0 
44.000001293691106 210292.0 NaN 4994.086840347361 0.5005148750143903 1497.0 0.0 1497.0 
46.000001293691106 210286.0 NaN 4994.177688710754 0.5004435693429367 1497.0 0.0 1497.0 
48.000001293691106 210318.0 NaN 4995.107548430194 0.5010126076064981 1496.0 1.0 1496.0 
50.000001293691106 210307.0 NaN 4995.61790247161 0.5012859752932181 1496.0 1.0 1496.0 
52.000001293691106 210352.0 NaN 4994.709418837675 0.5006435370671231 1496.0 1.0 1496.0 
54.000001293691106 210374.0 NaN 4994.452905811623 0.5011512547322363 1497.0 0.0 1497.0 
56.000001293691106 210375.0 NaN 4994.386105544422 0.5008844409905617 1497.0 0.0 1497.0 
58.000001293691106 210412.0 NaN 4995.006012024048 0.5011406488921001 1497.0 0.0 1497.0 
60.000001293691106 210376.0 NaN 4996.01336005344 0.5012908588505537 1497.0 0.0 1497.0 
62.00000829298562 210362.0 NaN 1516.3233132932542 0.5007342764484689 794.0 0.0 363.0 
64.00000829298561 210350.0 NaN 1519.2651970607883 0.5007275808443723 634.0 1.0 363.0 
66.00000829298561 210341.0 NaN 1519.315965263861 0.5006108657459971 579.0 1.0 363.0 
68.00000829298561 210390.0 NaN 1519.3961255845004 0.5016909970020049 552.0 1.0 363.0 
70.00000829298561 210322.0 NaN 1519.4843019372088 0.5011850480989266 534.0 2.0 362.0 
72.00000829298561 210341.0 NaN 1519.4308617234458 0.501009977993485 533.0 2.0 362.0 
74.00000829298561 210306.0 NaN 1525.5016700066817 0.5007416825500792 531.0 1.0 365.0 
76.00000829298561 210297.0 NaN 1525.4989979959907 0.5006366515065178 533.0 1.0 365.0 
78.00000829298561 210336.0 NaN 1525.477621910488 0.501101249049913 531.0 1.0 365.0 
80.00000829298561 210363.0 NaN 1528.553106212425 0.5007780519976004 527.0 1.0 366.0 
82.00000829298561 210359.0 NaN 1528.6412825651298 0.5009751380104088 528.0 1.0 366.0 
84.00000829298561 210351.0 NaN 1531.7702070808273 0.5006330512075747 529.0 1.0 367.0 
86.00000829298561 210348.0 NaN 1531.7461589846364 0.500737926450032 529.0 1.0 367.0 
88.00000829298561 210402.0 NaN 1531.692718770875 0.5009392533687768 529.0 1.0 367.0 
90.00000829298561 210460.0 NaN 1531.6659986639938 0.5008249351850608 529.0 1.0 367.0 
92.00000829298561 210441.0 NaN 1531.625918503673 0.5007609694825145 529.0 1.0 367.0 
94.00000829298561 210455.0 NaN 1531.623246492985 0.5008463611699164 527.0 1.0 367.0 
96.00000829298561 210431.0 NaN 1531.6847027388092 0.5006482569496135 527.0 1.0 367.0 
98.00000829298561 210484.0 NaN 1531.7034068136272 0.5009109072868847 527.0 1.0 367.0 
100.00000829298561 210625.0 NaN 1531.6847027388092 0.5008226952878246 527.0 1.0 367.0 
102.00000829298561 210615.0 NaN 1534.717434869739 0.5007183071196387 527.0 1.0 368.0 
104.00000829298561 210621.0 NaN 1534.7094188376755 0.5007858844157101 527.0 1.0 368.0 
106.00000829298561 210602.0 NaN 1534.7414829659301 0.5007228812122566 526.0 1.0 368.0 
108.00000829298561 210613.0 NaN 1537.8436873747485 0.5008172911865395 526.0 1.0 369.0 
110.00000829298561 210680.0 NaN 1537.9158316633273 0.5008313937317799 527.0 1.0 369.0 
112.00000829298561 210671.0 NaN 1537.9318637274544 0.5007928145216293 527.0 1.0 369.0 
114.00000829298561 210677.0 NaN 1537.8410153640634 0.5008669956812988 528.0 1.0 369.0 
116.00000829298561 210658.0 NaN 1540.8523714094847 0.5009350572652501 529.0 1.0 370.0 
118.00000829298561 210678.0 NaN 1546.9792919171666 0.5010330651408277 529.0 1.0 372.0 
120.00000829298561 210651.0 NaN 1546.9873079492334 0.500720413122276 529.0 1.0 372.0 
122.00000829298561 210651.0 NaN 1546.9873079492334 0.5007617030535941 529.0 1.0 372.0 
124.00000829298561 210664.0 NaN 1547.1182364729455 0.5010167115112542 529.0 1.0 372.0 
126.00000829298561 210648.0 NaN 1547.1903807615245 0.5007309007723084 529.0 1.0 372.0 
128.0000082929856 210670.0 NaN 1547.1663326653302 0.5008744482622786 529.0 1.0 372.0 
130.0000082929856 210647.0 NaN 1547.1022044088184 0.5008364380411728 529.0 1.0 372.0 
132.0000082929856 210644.0 NaN 1543.9919839679364 0.500682751804518 529.0 1.0 371.0 
134.0000082929856 210693.0 NaN 1543.9679358717453 0.5009054925083917 529.0 1.0 371.0 
136.0000082929856 210684.0 NaN 1547.0514362057456 0.5007609517134773 527.0 1.0 372.0 
138.0000082929856 210713.0 NaN 1544.0400801603205 0.5009011974765365 522.0 1.0 371.0 
140.0000082929856 210696.0 NaN 1547.2010688042756 0.5008259948273719 522.0 1.0 372.0 
142.0000082929856 210687.0 NaN 1550.2818971275885 0.5007106264945156 522.0 1.0 373.0 
144.0000082929856 210714.0 NaN 1550.2124248497 0.5008031841266206 521.0 1.0 373.0 
146.0000082929856 210715.0 NaN 1550.191048764194 0.5008036989175534 521.0 1.0 373.0 
148.0000082929856 210745.0 NaN 1547.1128924515701 0.5010800828540677 521.0 2.0 371.0 
150.0000082929856 210719.0 NaN 1544.0080160320636 0.500850176785881 521.0 2.0 370.0 
152.0000082929856 210702.0 NaN 1541.0447561790245 0.5007117391062238 519.0 1.0 370.0 
154.0000082929856 210737.0 NaN 1541.0821643286574 0.5009813375482892 516.0 1.0 370.0 
156.0000082929856 210731.0 NaN 1541.0634602538419 0.5008275113271207 518.0 1.0 370.0 
158.0000082929856 210759.0 NaN 1540.943219772879 0.501228859085772 519.0 1.0 370.0 
160.0000082929856 210722.0 NaN 1540.9619238476937 0.5007152912596998 519.0 2.0 369.0 
162.0000082929856 210723.0 NaN 1540.9512358049456 0.500777960528579 519.0 2.0 369.0 
164.0000082929856 210751.0 NaN 1544.0053440213758 0.5008543324611218 517.0 2.0 370.0 
166.0000082929856 210728.0 NaN 1550.2418169672665 0.5007892001655592 518.0 2.0 372.0 
168.0000082929856 210741.0 NaN 1550.233800935203 0.5009631655438319 520.0 2.0 372.0 
170.0000082929856 210709.0 NaN 1547.174348697394 0.5006845842904629 521.0 1.0 372.0 
172.0000082929856 210727.0 NaN 1544.0427521710092 0.5008627954488061 522.0 1.0 371.0 
174.0000082929856 210747.0 NaN 1544.0320641282547 0.5010243923775385 522.0 1.0 371.0 
176.0000082929856 210730.0 NaN 1544.0347361389456 0.5006768346419455 519.0 1.0 371.0 
178.0000082929856 210760.0 NaN 1537.9452237808937 0.5009202321250643 518.0 1.0 369.0 
180.0000082929856 210736.0 NaN 1537.9906479625906 0.500739478903486 519.0 1.0 369.0 
182.0000082929856 210746.0 NaN 1541.0688042752186 0.5008717556485403 519.0 1.0 370.0 
184.0000082929856 210764.0 NaN 1540.999331997327 0.5011175976196833 518.0 1.0 370.0 
186.0000082929856 210724.0 NaN 1540.8897795591183 0.5006311896940092 518.0 1.0 370.0 
188.0000082929856 210759.0 NaN 1540.9325317301273 0.5009389139152313 518.0 1.0 370.0 
190.0000082929856 210727.0 NaN 1540.9245156980637 0.5008083904164691 518.0 1.0 370.0 
192.0000082929856 210719.0 NaN 1540.996659986639 0.5008078963432655 518.0 1.0 370.0 
194.0000082929856 210723.0 NaN 1541.036740146961 0.5009893931339662 518.0 1.0 370.0 
196.0000082929856 210702.0 NaN 1541.1409485637937 0.5008803625339184 518.0 1.0 370.0 
198.0000082929856 210730.0 NaN 1544.1870407481638 0.5011032925950281 519.0 1.0 371.0 
200.0000082929856 210706.0 NaN 1544.0881763527063 0.5009443849240182 521.0 1.0 371.0 
202.0000082929856 210704.0 NaN 1544.0507682030725 0.5008691209178868 521.0 1.0 371.0 
204.0000082929856 210720.0 NaN 1547.0407481629911 0.5009801553526101 521.0 1.0 372.0 
206.0000082929856 210771.0 NaN 1544.0053440213755 0.5008499348854637 521.0 1.0 371.0 
208.0000082929856 210815.0 NaN 1541.0447561790247 0.5011572438020389 519.0 1.0 370.0 
210.0000082929856 210791.0 NaN 1538.0013360053454 0.5006148391834021 515.0 1.0 369.0 
212.0000082929856 210799.0 NaN 1541.0581162324638 0.5007920352656855 515.0 1.0 370.0 
214.0000082929856 210807.0 NaN 1544.0347361389456 0.5011823725986226 516.0 1.0 371.0 
216.0000082929856 210834.0 NaN 1544.0507682030725 0.5015133234372846 515.0 1.0 371.0 
218.0000082929856 210852.0 NaN 1537.8623914495638 0.5010869719374895 518.0 1.0 369.0 
220.0000082929856 210825.0 NaN 1540.9672678690727 0.5009384593192929 517.0 1.0 370.0 
222.0000082929856 210832.0 NaN 1541.0073480293909 0.5007221009882976 518.0 1.0 370.0 
224.0000082929856 210864.0 NaN 1540.9752839011364 0.5009088290431754 517.0 1.0 370.0 
226.0000082929856 210893.0 NaN 1541.0126920507664 0.5009466007647339 518.0 1.0 370.0 
228.0000082929856 210890.0 NaN 1540.9138276553092 0.5010111420037023 517.0 1.0 370.0 
230.0000082929856 210869.0 NaN 1537.8410153640634 0.5008547907868387 514.0 1.0 369.0 
232.0000082929856 210889.0 NaN 1540.9539078156301 0.5007254977269178 514.0 1.0 370.0 
234.0000082929856 210896.0 NaN 1540.9378757515026 0.5009788400514787 515.0 1.0 370.0 
236.0000082929856 210890.0 NaN 1541.0233800935184 0.5009927796764615 515.0 1.0 370.0 
238.0000082929856 210901.0 NaN 1541.0313961255845 0.5008451377421701 515.0 1.0 370.0 
240.0000082929856 210898.0 NaN 1537.9185036740155 0.5008003436613832 515.0 1.0 369.0 
242.0000082929856 210907.0 NaN 1537.8142952571818 0.5006236143352248 517.0 1.0 369.0 
244.0000082929856 210949.0 NaN 1537.7875751503 0.5012354882882375 517.0 1.0 369.0 
246.0000082929856 210943.0 NaN 1534.7227788911155 0.5006437260904204 517.0 1.0 368.0 
248.0000082929856 210966.0 NaN 1537.8329993319974 0.5007147376832626 517.0 1.0 369.0 
250.0000082929856 210955.0 NaN 1534.9018036072152 0.5009861485722803 516.0 1.0 368.0 
252.0000082929856 210944.0 NaN 1531.8370073480276 0.5006751626786026 512.0 1.0 367.0 
254.0000082929856 210977.0 NaN 1531.7702070808273 0.5011084977564874 514.0 1.0 367.0 
256.0000082929856 210961.0 NaN 1531.6526386105547 0.5006615821610368 514.0 1.0 367.0 
258.0000082929856 210986.0 NaN 1531.6098864395453 0.5006782381478078 515.0 1.0 367.0 
260.0000082929856 210978.0 NaN 1528.5210420841693 0.5006514984174112 515.0 1.0 366.0 
262.0000082929856 210985.0 NaN 1525.5310621242481 0.5006311515064019 516.0 1.0 365.0 
264.0000082929856 211060.0 NaN 1528.7535070140273 0.5009988329675579 514.0 1.0 366.0 
266.0000082929856 211060.0 NaN 1528.7348029392117 0.500692979394677 515.0 1.0 366.0 
268.0000082929856 211101.0 NaN 1537.9826319305273 0.5013811213661645 515.0 1.0 369.0 
270.0000082929856 211086.0 NaN 1540.9058116232454 0.5009016484241509 515.0 1.0 370.0 
272.0000082929856 211077.0 NaN 1540.8256513026065 0.5007565164226951 515.0 1.0 370.0 
274.0000082929856 211187.0 NaN 1543.9492317969275 0.5012356594410509 514.0 1.0 371.0 
276.0000082929856 211132.0 NaN 1540.8229792919183 0.5006608368539727 514.0 1.0 370.0 
278.0000082929856 211161.0 NaN 1540.935203740816 0.5010556361739081 514.0 1.0 370.0 
280.0000082929856 211152.0 NaN 1537.8997995992 0.5010710664412923 516.0 1.0 369.0 
282.0000082929856 211123.0 NaN 1537.918503674016 0.5007287048480186 515.0 1.0 369.0 
284.0000082929856 211154.0 NaN 1537.8490313961272 0.501208282797471 515.0 1.0 369.0 
286.0000082929856 211098.0 NaN 1537.8997995992 0.5007893819651325 514.0 1.0 369.0 
288.0000082929856 211125.0 NaN 1537.873079492318 0.5014688188454012 513.0 1.0 369.0 
290.0000082929856 211087.0 NaN 1537.8196392785567 0.501146973630879 513.0 1.0 369.0 
292.0000082929856 211060.0 NaN 1537.867735470943 0.5009537811802446 513.0 1.0 369.0 
294.0000082929856 211097.0 NaN 1531.6713426853726 0.5010812432044293 513.0 1.0 367.0 
296.0000082929856 211052.0 NaN 1531.6793587174363 0.5007450020418216 513.0 1.0 367.0 
298.0000082929856 211095.0 NaN 1531.644622578491 0.5015716276902388 512.0 1.0 367.0 
300.0000082929856 211032.0 NaN 1534.7388109552453 0.501292256493793 509.0 1.0 368.0 
302.0000082929856 210959.0 NaN 1528.6038744154998 0.5007596066447683 509.0 1.0 366.0 
304.0000082929856 211007.0 NaN 1531.7034068136272 0.5011710580162464 509.0 1.0 367.0 
306.0000082929856 210964.0 NaN 1531.8263193052755 0.5007345138584216 509.0 1.0 367.0 
308.0000082929856 211021.0 NaN 1531.8423513694063 0.5020024040160964 508.0 1.0 367.0 
310.0000082929856 210986.0 NaN 1537.9104876419517 0.5008731030113782 507.0 1.0 369.0 
312.0000082929856 210983.0 NaN 1534.7307949231817 0.5008956260810564 507.0 1.0 368.0 
314.0000082929856 211002.0 NaN 1531.6339345357364 0.5013860461139382 508.0 1.0 367.0 
316.0000082929856 210950.0 NaN 1528.58784235137 0.5008741173161204 508.0 1.0 366.0 
318.0000082929856 210975.0 NaN 1528.6546426185726 0.5009536085000438 508.0 1.0 366.0 
320.0000082929856 210979.0 NaN 1531.772879091518 0.500933859744235 508.0 1.0 367.0 
322.0000082929856 210975.0 NaN 1528.716098864397 0.5010173429938438 509.0 1.0 366.0 
324.0000082929856 211015.0 NaN 1531.7862391449548 0.5013753622244681 508.0 1.0 367.0 
326.0000082929856 210973.0 NaN 1528.6412825651298 0.5014298343531384 508.0 1.0 366.0 
328.0000082929856 210956.0 NaN 1528.673346693388 0.5010479801192373 508.0 1.0 366.0 
330.0000082929856 210945.0 NaN 1528.6359385437547 0.5014240910998813 509.0 1.0 366.0 
332.0000082929856 210882.0 NaN 1525.5150300601185 0.5008957591481037 511.0 1.0 365.0 
334.0000082929856 210925.0 NaN 1528.627922511691 0.501644589375559 510.0 1.0 366.0 
336.0000082929856 210853.0 NaN 1531.7488309953246 0.5010322744748391 510.0 1.0 367.0 
338.0000082929856 210854.0 NaN 1528.6332665330663 0.5010307799660373 512.0 1.0 366.0 
340.0000082929856 210849.0 NaN 1525.5123580494333 0.5012277922410746 511.0 1.0 365.0 
342.0000082929856 210801.0 NaN 1531.6339345357367 0.5009357735771862 514.0 1.0 367.0 
344.0000082929856 210807.0 NaN 1534.7281229124908 0.5015444780391927 513.0 1.0 368.0 
346.0000082929856 210748.0 NaN 1531.655310621243 0.5010151606491271 513.0 1.0 367.0 
348.0000082929856 210756.0 NaN 1528.6760187040732 0.5010619729466064 516.0 1.0 366.0 
350.0000082929856 210748.0 NaN 1528.7401469605884 0.5010791806358 516.0 1.0 366.0 
352.0000082929856 210723.0 NaN 1528.6893787575157 0.5010570098178068 516.0 1.0 366.0 
354.0000082929856 210745.0 NaN 1525.4802939211752 0.501594672315577 516.0 1.0 365.0 
356.0000082929856 210690.0 NaN 1525.4509018036085 0.50088718938264 515.0 1.0 365.0 
358.0000082929856 210720.0 NaN 1525.4509018036085 0.5011150730144451 513.0 1.0 365.0 
360.0000082929856 210721.0 NaN 1525.5043420173668 0.501153024804066 514.0 1.0 365.0 
362.0000082929856 210642.0 NaN 1525.4963259853032 0.5009408058024414 515.0 1.0 365.0 
364.0000082929856 210660.0 NaN 1525.5043420173668 0.5017149059964016 516.0 1.0 365.0 
366.0000082929856 210592.0 NaN 1525.4909819639272 0.5013033248486145 518.0 1.0 365.0 
368.0000082929856 210593.0 NaN 1507.0167000667998 0.501233120193964 514.0 1.0 359.0 
370.0000082929856 210541.0 NaN 1500.8203072812282 0.501623369140344 515.0 1.0 357.0 
372.0000082929856 210407.0 NaN 1503.887775551101 0.5009816606371594 516.0 1.0 358.0 
374.0000082929856 210430.0 NaN 1510.0387441549758 0.5011125288494696 518.0 1.0 360.0 
376.0000082929856 210387.0 NaN 1507.0701402805614 0.5010071323100921 518.0 1.0 359.0 
378.0000082929856 210399.0 NaN 1507.078156312626 0.5010573397620034 516.0 1.0 359.0 
380.0000082929856 210372.0 NaN 1504.0 0.5015968156824722 517.0 1.0 358.0 
382.0000082929856 210270.0 NaN 1500.8390113560454 0.503003846086844 517.0 1.0 357.0 
384.0000082929856 210263.0 NaN 1503.8904475617908 0.5010072047009535 518.0 1.0 358.0 
386.0000082929856 210187.0 NaN 1510.0654642618567 0.5008043581648373 518.0 1.0 360.0 
388.0000082929856 210170.0 NaN 1510.0387441549758 0.5014633683951083 518.0 1.0 360.0 
390.0000082929856 210111.0 NaN 1504.0053440213758 0.5007448990482203 517.0 1.0 358.0 
392.0000082929856 210052.0 NaN 1513.2825651302612 0.500609706073601 517.0 1.0 361.0 
394.0000082929856 210068.0 NaN 1510.2364729458911 0.5011736815378209 518.0 1.0 360.0 
396.0000082929856 209985.0 NaN 1510.164328657315 0.5006771777146974 518.0 1.0 360.0 
398.0000082929856 210085.0 NaN 1510.0627922511696 0.500544199800388 519.0 1.0 360.0 
400.0000082929856 210133.0 NaN 1506.968603874416 0.5010070979552824 520.0 1.0 359.0 
402.0000082929856 210076.0 NaN 1510.086840347363 0.5007723836574091 521.0 1.0 360.0 
404.0000082929856 210082.0 NaN 1516.344689378757 0.5009736843306951 522.0 1.0 362.0 
406.0000082929856 210053.0 NaN 1519.4949899799606 0.5006738239804912 523.0 1.0 363.0 
408.0000082929856 210124.0 NaN 1522.458249833 0.500837344183209 522.0 1.0 364.0 
410.0000082929856 210110.0 NaN 1531.5911823647275 0.5006603660253929 523.0 1.0 367.0 
412.0000082929856 210079.0 NaN 1531.583166332664 0.500642771152533 523.0 1.0 367.0 
414.0000082929856 210101.0 NaN 1534.725450901803 0.5011339980490016 522.0 1.0 368.0 
416.0000082929856 210048.0 NaN 1534.7655310621249 0.500415297622957 524.0 1.0 368.0 
418.0000082929856 210092.0 NaN 1519.4415497662 0.5006191693864127 524.0 1.0 363.0 
420.0000082929856 210079.0 NaN 1516.3580494321993 0.5005178224893816 524.0 1.0 362.0 
422.0000082929856 210077.0 NaN 1516.2965931863728 0.5008340851893387 522.0 1.0 362.0 
424.0000082929856 210099.0 NaN 1513.1516366065455 0.5014216616937242 518.0 1.0 361.0 
426.0000082929856 210000.0 NaN 1516.2404809619243 0.5006780236494324 519.0 1.0 362.0 
428.0000082929856 210009.0 NaN 1519.257181028725 0.5005675365679296 518.0 1.0 363.0 
430.0000082929856 209970.0 NaN 1516.1629926519718 0.5003389049490395 518.0 1.0 362.0 
432.0000082929856 209986.0 NaN 1513.2211088844363 0.5005389482803749 518.0 1.0 361.0 
434.0000082929856 210023.0 NaN 1522.4716098864387 0.5011062395444257 523.0 1.0 364.0 
436.0000082929856 209958.0 NaN 1528.633266533066 0.501503769261843 527.0 1.0 366.0 
438.0000082929856 209978.0 NaN 1528.5664662658642 0.5006490026039643 526.0 1.0 366.0 
440.0000082929856 209944.0 NaN 1528.5931863727455 0.5004362228294321 526.0 1.0 366.0 
442.0000082929856 209977.0 NaN 1531.5778223112907 0.5011326756719392 526.0 1.0 367.0 
444.0000082929856 210024.0 NaN 1531.5537742150973 0.5019059334975257 526.0 1.0 367.0 
446.0000082929856 209959.0 NaN 1537.8410153640632 0.5014173851401006 529.0 1.0 369.0 
448.0000082929856 209960.0 NaN 1543.9812959251822 0.5019873349408129 532.0 1.0 371.0 
450.0000082929856 209907.0 NaN 1540.9058116232454 0.5017272372152338 529.0 1.0 370.0 
452.0000082929856 209859.0 NaN 1543.842351369406 0.5012177732979268 529.0 1.0 371.0 
454.0000082929856 209900.0 NaN 1543.8263193052755 0.501636828758733 528.0 1.0 371.0 
456.0000082929856 209820.0 NaN 1553.1543086172362 0.5011892317165171 528.0 1.0 374.0 
458.0000082929856 209845.0 NaN 1553.1596526386093 0.501168393939015 527.0 1.0 374.0 
460.0000082929856 209829.0 NaN 1550.1322645290575 0.501356570169375 525.0 1.0 373.0 
462.0000082929856 209820.0 NaN 1547.1022044088184 0.5011144030634967 526.0 1.0 372.0 
464.0000082929856 209859.0 NaN 1540.876419505679 0.5019751709863981 524.0 1.0 370.0 
466.0000082929856 209737.0 NaN 1543.8690714762847 0.5016843349708894 525.0 1.0 371.0 
468.0000082929856 209712.0 NaN 1543.7728790915178 0.5014674932131091 525.0 1.0 371.0 
470.0000082929856 209685.0 NaN 1537.613894455579 0.5015728379253902 524.0 1.0 369.0 
472.0000082929856 209672.0 NaN 1534.599866399464 0.5013985099241481 522.0 1.0 368.0 
474.0000082929856 209727.0 NaN 1522.4368737474938 0.5019779461862366 520.0 1.0 364.0 
476.0000082929856 209670.0 NaN 1516.3633934535726 0.5015920295450356 518.0 1.0 362.0 
478.0000082929856 209664.0 NaN 1516.3206412825643 0.5010466943438963 515.0 1.0 362.0 
480.0000082929856 209657.0 NaN 1516.1576486305937 0.5011759200227813 517.0 1.0 362.0 
482.0000082929856 209668.0 NaN 1510.0253841015365 0.501085724764747 516.0 1.0 360.0 
484.0000082929856 209699.0 NaN 1510.0360721442898 0.5012254112786005 514.0 1.0 360.0 
486.0000082929856 209695.0 NaN 1510.0868403473628 0.5017380178474813 514.0 1.0 360.0 
488.0000082929856 209721.0 NaN 1497.8490313961263 0.501322406407592 512.0 1.0 356.0 
490.0000082929856 209704.0 NaN 1497.8036072144282 0.5011174510447264 512.0 1.0 356.0 
492.0000082929856 209709.0 NaN 1494.6960587842357 0.5011129381536527 510.0 1.0 355.0 
494.0000082929856 209719.0 NaN 1491.529726118906 0.5012825873612995 510.0 1.0 354.0 
496.0000082929856 209715.0 NaN 1491.5778223112898 0.5013481775471011 508.0 1.0 354.0 
498.0000082929856 209697.0 NaN 1488.4622578490303 0.5010283821206417 508.0 1.0 353.0 
500.0000082929856 209684.0 NaN 1488.4916499666 0.5010069527272957 507.0 1.0 353.0 
502.0000082929856 209700.0 NaN 1491.6820307281241 0.5012261206388905 510.0 1.0 354.0 
504.0000082929856 209700.0 NaN 1491.7087508350028 0.5015601604282245 512.0 1.0 354.0 
506.0000082929856 209677.0 NaN 1494.786907147628 0.5010627750421042 515.0 1.0 355.0 
508.0000082929856 209709.0 NaN 1491.5991983967929 0.501273534436064 514.0 1.0 354.0 
510.0000082929856 209681.0 NaN 1497.6993987975939 0.5015696235605643 514.0 1.0 356.0 
512.0000082929856 209667.0 NaN 1497.6486305945211 0.5010661684382929 514.0 1.0 356.0 
514.0000082929856 209696.0 NaN 1491.5537742150977 0.5014263135564596 515.0 1.0 354.0 
516.0000082929856 209671.0 NaN 1479.3507014028062 0.5010372503499445 511.0 1.0 350.0 
518.0000082929856 209669.0 NaN 1473.2237808951247 0.501918725757951 507.0 1.0 348.0 
520.0000082929856 209643.0 NaN 1467.0514362057454 0.5016059367486637 507.0 1.0 346.0 
522.0000082929856 209686.0 NaN 1470.0681362725454 0.5013675881902184 506.0 1.0 347.0 
524.0000082929856 209678.0 NaN 1457.8276553106207 0.5015181880714968 505.0 1.0 343.0 
526.0000082929856 209640.0 NaN 1451.6285905143627 0.501292021467232 505.0 1.0 341.0 
528.0000082929856 209643.0 NaN 1454.7468269873086 0.5012088135323461 505.0 1.0 342.0 
530.0000082929856 209646.0 NaN 1454.832331329326 0.5014050762857958 508.0 1.0 342.0 
532.0000082929856 209699.0 NaN 1454.8350033400125 0.5011925426076943 506.0 1.0 342.0 
534.0000082929856 209691.0 NaN 1461.020708082833 0.5012676954968346 507.0 1.0 344.0 
536.0000082929856 209666.0 NaN 1454.709418837675 0.5012239001939104 507.0 1.0 342.0 
538.0000082929856 209783.0 NaN 1457.776887107548 0.5012289536603403 508.0 1.0 343.0 
540.0000082929856 209775.0 NaN 1457.7394789579162 0.5016771836786635 509.0 1.0 343.0 
542.0000082929856 209759.0 NaN 1460.8363393453571 0.5012585600708591 509.0 1.0 344.0 
544.0000082929856 209750.0 NaN 1460.975283901136 0.5015450842993786 512.0 1.0 344.0 
546.0000082929856 209708.0 NaN 1457.9051436205739 0.5013763141548268 512.0 1.0 343.0 
548.0000082929856 209753.0 NaN 1457.88376753507 0.5013007805849912 515.0 1.0 343.0 
550.0000082929856 209721.0 NaN 1460.8603874415494 0.5017280845127757 515.0 1.0 344.0 
552.0000082929856 209729.0 NaN 1460.8122912491644 0.5013521596895879 514.0 1.0 344.0 
554.0000082929856 209758.0 NaN 1466.952571810288 0.5015844324828644 514.0 1.0 346.0 
556.0000082929856 209715.0 NaN 1470.0414161656643 0.5013138104529276 512.0 1.0 347.0 
558.0000082929856 209765.0 NaN 1454.7682030728124 0.50141562539358 508.0 1.0 342.0 
560.0000082929856 209740.0 NaN 1451.7515030060124 0.5018488771720118 505.0 1.0 341.0 
562.0000082929856 209764.0 NaN 1454.776219104877 0.5013941263095687 500.0 1.0 342.0 
564.0000082929856 209798.0 NaN 1460.8416833667332 0.5013555625728885 501.0 1.0 344.0 
566.0000082929856 209791.0 NaN 1470.078824315297 0.5010722171770192 504.0 1.0 347.0 
568.0000082929856 209816.0 NaN 1470.105544422178 0.5016126609693042 505.0 1.0 347.0 
570.0000082929856 209770.0 NaN 1476.3019372077488 0.5013646682494134 512.0 1.0 349.0 
572.0000082929856 209783.0 NaN 1479.4014696058787 0.5013134163239582 512.0 1.0 350.0 
574.0000082929856 209836.0 NaN 1482.4555778223105 0.5015739764777699 511.0 1.0 351.0 
576.0000082929856 209788.0 NaN 1485.5524382097533 0.5010428476731154 511.0 1.0 352.0 
578.0000082929856 209880.0 NaN 1482.4021376085511 0.5011340985031423 513.0 1.0 351.0 
580.0000082929856 209900.0 NaN 1485.4375417501667 0.5013509537730269 513.0 1.0 352.0 
582.0000082929856 209909.0 NaN 1485.384101536407 0.5015824801931504 517.0 1.0 352.0 
584.0000082929856 209925.0 NaN 1482.295257181028 0.5017686520571193 516.0 1.0 351.0 
586.0000082929856 209885.0 NaN 1491.6472945891787 0.5014939794960687 520.0 1.0 354.0 
588.0000082929856 209917.0 NaN 1488.5851703406818 0.501744836970629 520.0 1.0 353.0 
590.0000082929856 209890.0 NaN 1491.6339345357376 0.5012134678313699 521.0 1.0 354.0 
592.0000082929856 209932.0 NaN 1491.5136940547757 0.5017084037183106 524.0 1.0 354.0 
594.0000082929856 209933.0 NaN 1491.5136940547757 0.5015031345722878 524.0 1.0 354.0 
596.0000082929856 209934.0 NaN 1494.5731462925849 0.501114569899419 526.0 1.0 355.0 
598.0000082929856 209982.0 NaN 1488.403473613894 0.5014087596151559 526.0 1.0 353.0 
600.0000082929856 209975.0 NaN 1485.3841015364067 0.5012222776791347 528.0 1.0 352.0 
602.0000082929856 209996.0 NaN 1491.6018704074818 0.5014881419327742 528.0 1.0 354.0 
604.0000082929856 210038.0 NaN 1491.5724782899122 0.5015860631438379 527.0 1.0 354.0 
606.0000082929856 210022.0 NaN 1497.6325985303931 0.5012089734506797 524.0 1.0 356.0 
608.0000082929856 210059.0 NaN 1497.6058784235122 0.5019527426468515 525.0 1.0 356.0 
610.0000082929856 209976.0 NaN 1494.5170340681366 0.5014828008250196 526.0 1.0 355.0 
612.0000082929856 209966.0 NaN 1494.5357381429533 0.5017995861431687 521.0 1.0 355.0 
614.0000082929856 209967.0 NaN 1494.67468269873 0.501726942563686 521.0 1.0 355.0 
616.0000082929856 209968.0 NaN 1497.8169672678698 0.5013716350860572 522.0 1.0 356.0 
618.0000082929856 210003.0 NaN 1497.7742150968616 0.5016615512806802 524.0 1.0 356.0 
620.0000082929856 209959.0 NaN 1494.5303941215755 0.5013481449288955 521.0 2.0 354.0 
622.0000082929856 209977.0 NaN 1500.66800267201 0.5016239252844666 520.0 2.0 356.0 
624.0000082929856 209978.0 NaN 1503.756847027389 0.5019262183189803 518.0 1.0 358.0 
626.0000082929856 209915.0 NaN 1506.899131596527 0.5014551128439781 518.0 2.0 358.0 
628.0000082929856 209991.0 NaN 1507.0113560454251 0.5013581661264195 516.0 3.0 357.0 
630.0000082929856 209984.0 NaN 1507.038076152306 0.5013428661565297 515.0 2.0 358.0 
632.0000082929856 209973.0 NaN 1506.9873079492334 0.5015465774791396 515.0 1.0 359.0 
634.0000082929856 210006.0 NaN 1516.112224448899 0.501888915887234 518.0 1.0 362.0 
636.0000082929856 209978.0 NaN 1516.2110888443547 0.5012454054735338 525.0 1.0 362.0 
638.0000082929856 210028.0 NaN 1516.1763527054104 0.5013396539676458 526.0 1.0 362.0 
640.0000082929856 210025.0 NaN 1513.0901803607203 0.500965470371947 524.0 1.0 361.0 
642.0000082929856 210056.0 NaN 1510.1055444221788 0.5011387535796278 525.0 1.0 360.0 
644.0000082929856 210116.0 NaN 1507.0941883767543 0.5017195195304599 526.0 1.0 359.0 
646.0000082929856 210112.0 NaN 1507.1342685370737 0.5010908589320838 523.0 1.0 359.0 
648.0000082929856 210160.0 NaN 1513.1783567134273 0.5011357724051076 523.0 1.0 361.0 
650.0000082929856 210164.0 NaN 1519.2625250501 0.5012585289181536 520.0 1.0 363.0 
652.0000082929856 210173.0 NaN 1522.3219772879092 0.5016090771631269 517.0 1.0 364.0 
654.0000082929856 210214.0 NaN 1519.281229124917 0.5013080960423855 516.0 1.0 363.0 
656.0000082929856 210228.0 NaN 1522.4635938543747 0.5013163853861495 515.0 1.0 364.0 
658.0000082929856 210263.0 NaN 1531.7915831663333 0.5013678984541963 515.0 1.0 367.0 
660.0000082929856 210259.0 NaN 1534.7788911155635 0.5011780264002337 515.0 1.0 368.0 
662.0000082929856 210281.0 NaN 1534.6372745490992 0.5013505541884786 515.0 1.0 368.0 
664.0000082929856 210344.0 NaN 1537.6138944555787 0.5016741795754254 517.0 1.0 369.0 
#####################################################################
# End of data export. Simulation finished at: 2019-03-10T14:56+0000 #
#####################################################################
