#####################################################################
# Alchemist log file - simulation started at: 2019-03-17T19:53+0000 #
#####################################################################
# seed = 8.0, bandwidth = 2.3713737056616552E7, propagationDelay = 0.31622776601683794, baserange = 17.78279410038923
#
# The columns have the following meaning: 
# time neighbor_count[Sum] <value>@neighbor_count[Sum] packet_size[Mean] mean_delay[Mean] crowd[Sum] overcrowded[Sum] risk[Sum] 
0.0 NaN NaN NaN NaN NaN NaN NaN 
2.000313918919025 1065.0 NaN 4991.503006012024 0.4783167467073945 1497.0 0.0 1497.0 
4.0003149309906325 1118.0 NaN 4996.01336005344 0.5004308125552207 1496.0 1.0 1496.0 
6.000198348008885 1118.0 NaN 4994.150968603874 0.5004309276058045 1492.0 5.0 1492.0 
8.000315099669233 1118.0 NaN 4992.857715430861 0.5004311065342303 1490.0 7.0 1490.0 
10.000313918919025 1118.0 NaN 4992.8042752171 0.5004312750201004 1490.0 7.0 1490.0 
12.000314930990633 1118.0 NaN 4992.7454909819635 0.5029874871731109 1490.0 7.0 1490.0 
14.000314930990633 1117.0 NaN 4992.336673346694 0.5049024558622203 1490.0 7.0 1490.0 
16.000198348008887 1113.0 NaN 4991.906479625918 0.5005677032985033 1490.0 7.0 1490.0 
18.000313918919026 1120.0 NaN 4992.152304609219 0.504157082206555 1490.0 7.0 1490.0 
20.000314930990633 1117.0 NaN 4991.943887775551 0.5025037735191595 1490.0 7.0 1490.0 
22.000314930990633 1117.0 NaN 4991.772879091516 0.5012742843767015 1490.0 7.0 1490.0 
24.000315099669237 1122.0 NaN 4992.112224448898 0.5100171833682352 1490.0 7.0 1490.0 
26.000198348008887 1120.0 NaN 4991.861055444222 0.5010909484828402 1490.0 7.0 1490.0 
28.000314930990633 1123.0 NaN 4991.885103540414 0.504953221129407 1490.0 7.0 1490.0 
30.000314930990633 1120.0 NaN 4992.02672010688 0.5048039353522932 1490.0 7.0 1490.0 
32.00031509966924 1120.0 NaN 4991.668670674682 0.5042657032579008 1490.0 7.0 1490.0 
34.000313918919026 1127.0 NaN 4991.759519038076 0.5032214156278134 1490.0 7.0 1490.0 
36.00019834800889 1130.0 NaN 4991.919839679359 0.5048976062109545 1490.0 7.0 1490.0 
38.00031493099063 1129.0 NaN 4991.711422845691 0.5052403390075983 1490.0 7.0 1490.0 
40.00031408759763 1127.0 NaN 4991.874415497662 0.5051119681017778 1490.0 7.0 1490.0 
42.00031476231203 1131.0 NaN 4991.911823647295 0.5108889189368797 1490.0 7.0 1490.0 
44.00031509966924 1141.0 NaN 4991.796927187709 0.5156328496714586 1490.0 7.0 1490.0 
46.00019834800889 1136.0 NaN 4991.730126920507 0.5086859016334444 1490.0 7.0 1490.0 
48.000313918919026 1140.0 NaN 4991.885103540414 0.509768169551217 1490.0 7.0 1490.0 
50.00031493099063 1148.0 NaN 4991.497661990648 0.5093186634110403 1490.0 7.0 1490.0 
52.00031493099063 1161.0 NaN 4991.866399465598 0.5120563815493087 1490.0 7.0 1490.0 
54.00031408759763 1159.0 NaN 4992.002672010688 0.5165460548925592 1490.0 7.0 1490.0 
56.00019834800889 1148.0 NaN 4991.719438877755 0.5058506986004571 1490.0 7.0 1490.0 
58.00031509966924 1144.0 NaN 4991.748830995324 0.5101298743556024 1490.0 7.0 1490.0 
60.00031509966924 1144.0 NaN 4991.909151636606 0.508612497350143 1490.0 7.0 1490.0 
62.000120275884655 1146.0 NaN 987.0220440881742 0.5248708430294539 485.0 6.0 185.0 
64.00012027588465 1145.0 NaN 989.923847695391 0.5140812857045438 483.0 6.0 186.0 
66.00012027588465 1132.0 NaN 989.8864395457558 0.49922941752567435 451.0 6.0 186.0 
68.00012027588465 1128.0 NaN 989.8837675350715 0.4972980071439688 395.0 6.0 186.0 
70.00012027588465 1128.0 NaN 989.8490313961273 0.5084466924782427 355.0 6.0 186.0 
72.00012027588465 1126.0 NaN 989.9051436205726 0.506528680016492 339.0 6.0 186.0 
74.00012027588465 1125.0 NaN 989.7849031396105 0.5080826739110964 332.0 6.0 186.0 
76.00012027588465 1114.0 NaN 986.6639946559807 0.5173877517024382 321.0 6.0 185.0 
78.00012027588465 1105.0 NaN 986.7201068804271 0.49492811632884626 313.0 6.0 185.0 
80.00012027588465 1111.0 NaN 986.7307949231821 0.4946160964105434 302.0 6.0 185.0 
82.00012027588465 1124.0 NaN 989.7127588510367 0.50293697191629 299.0 6.0 186.0 
84.00012027588465 1125.0 NaN 989.8062792251183 0.49856446141203936 297.0 6.0 186.0 
86.00012027588465 1120.0 NaN 989.7528390113544 0.5089170534303439 295.0 6.0 186.0 
88.00012027588465 1110.0 NaN 989.739478957917 0.5034255578689405 293.0 6.0 186.0 
90.00012027588465 1108.0 NaN 983.6045424181714 0.4926684941253327 290.0 6.0 184.0 
92.00012027588465 1114.0 NaN 986.6773547094181 0.5004792782844788 286.0 6.0 185.0 
94.00012027588465 1117.0 NaN 995.8877755510997 0.5102201425602851 286.0 6.0 188.0 
96.00012027588465 1119.0 NaN 995.8717434869727 0.4954518416823492 285.0 6.0 188.0 
98.00012027588465 1116.0 NaN 995.86105544422 0.49411077287478655 285.0 6.0 188.0 
100.00012027588465 1116.0 NaN 998.9686038744165 0.4914173921374693 285.0 6.0 189.0 
102.00012027588465 1121.0 NaN 999.0407481629907 0.511398700681889 285.0 6.0 189.0 
104.00012027588465 1123.0 NaN 999.0407481629907 0.5032538390627993 285.0 6.0 189.0 
106.00012027588465 1113.0 NaN 1001.993319973282 0.5072817015327563 285.0 6.0 190.0 
108.00012027588465 1099.0 NaN 1002.0440881763548 0.5118903688080874 285.0 6.0 190.0 
110.00012027588465 1085.0 NaN 1002.0013360053457 0.49486725588148534 284.0 6.0 190.0 
112.00012027588465 1099.0 NaN 1008.1576486305922 0.4975194271979753 284.0 6.0 192.0 
114.00012027588465 1106.0 NaN 1008.058784235136 0.5112865429816872 284.0 6.0 192.0 
116.00012027588465 1099.0 NaN 1005.0634602538438 0.5015034605238097 279.0 6.0 191.0 
118.00012027588465 1095.0 NaN 1005.0955243820986 0.5028024154766639 279.0 6.0 191.0 
120.00012027588465 1102.0 NaN 1002.0708082832351 0.524331107840922 278.0 6.0 190.0 
122.00012027588465 1092.0 NaN 995.8610554442197 0.5060994341407296 277.0 6.0 188.0 
124.00012027588465 1086.0 NaN 983.6553106212438 0.5001320225293602 278.0 6.0 184.0 
126.00012027588465 1097.0 NaN 986.6586506346019 0.5078726138479378 279.0 6.0 185.0 
128.00012027588465 1096.0 NaN 986.7147628590526 0.5042845531094329 277.0 6.0 185.0 
130.00012027588465 1107.0 NaN 986.6880427521728 0.517117037399931 277.0 6.0 185.0 
132.00012027588465 1110.0 NaN 986.7174348697389 0.5144304818864237 275.0 6.0 185.0 
134.00012027588465 1106.0 NaN 986.7388109552455 0.5179667898250013 275.0 6.0 185.0 
136.00012027588465 1101.0 NaN 989.7875751502999 0.5034366189721309 275.0 6.0 186.0 
138.00012027588465 1112.0 NaN 995.8530394121568 0.497784196115854 274.0 6.0 188.0 
140.00012027588465 1117.0 NaN 995.994655978625 0.5027082700112367 274.0 6.0 188.0 
142.00012027588465 1140.0 NaN 996.0106880427523 0.5103944872125935 276.0 6.0 188.0 
144.00012027588465 1143.0 NaN 996.109552438209 0.5104223643536159 275.0 6.0 188.0 
146.00012027588465 1150.0 NaN 996.0748162992636 0.49898790100040613 274.0 6.0 188.0 
148.00012027588465 1155.0 NaN 996.1068804275205 0.5073989296507742 273.0 6.0 188.0 
150.00012027588465 1159.0 NaN 1002.2444889779545 0.5112712777139875 275.0 6.0 190.0 
152.00012027588465 1167.0 NaN 999.2251169004654 0.5081686339679317 275.0 6.0 189.0 
154.00012027588465 1161.0 NaN 999.12358049432 0.5157462321340339 275.0 6.0 189.0 
156.00012027588465 1159.0 NaN 996.026720106882 0.5093597765845969 276.0 6.0 188.0 
158.00012027588465 1158.0 NaN 989.8356713426843 0.49952329290268965 279.0 6.0 186.0 
160.00012027588465 1161.0 NaN 989.814295257182 0.5079047398574221 281.0 6.0 186.0 
162.00012027588465 1169.0 NaN 992.8149632598545 0.5267697173580937 282.0 6.0 187.0 
164.00012027588465 1149.0 NaN 986.7869071476274 0.5336134766737775 282.0 6.0 185.0 
166.00012027588465 1135.0 NaN 989.8329993319978 0.5130081811038122 281.0 6.0 186.0 
168.00012027588465 1135.0 NaN 983.6472945891794 0.5083645829419323 280.0 6.0 184.0 
170.00012027588465 1138.0 NaN 986.6212424849704 0.5141295138231745 279.0 6.0 185.0 
172.00012027588465 1141.0 NaN 986.6372745490999 0.5290857446843336 281.0 6.0 185.0 
174.00012027588465 1131.0 NaN 992.809619238475 0.5106851354256867 280.0 6.0 187.0 
176.00012027588465 1131.0 NaN 992.8390113560454 0.5082863283533139 280.0 6.0 187.0 
178.00012027588465 1131.0 NaN 992.7241148964613 0.5061467644438427 280.0 6.0 187.0 
180.00012027588465 1130.0 NaN 983.545758183034 0.5224938885542532 279.0 6.0 184.0 
182.00012027588465 1126.0 NaN 971.2758851035394 0.5199087752409688 279.0 6.0 180.0 
184.00012027588465 1126.0 NaN 974.3326653306613 0.5059621580264467 278.0 6.0 181.0 
186.00012027588465 1123.0 NaN 974.2845691382755 0.5124842295345416 276.0 6.0 181.0 
188.00012027588465 1122.0 NaN 974.2818971275885 0.513584233072982 276.0 6.0 181.0 
190.00012027588465 1126.0 NaN 977.352037408148 0.5116822775283685 276.0 6.0 182.0 
192.00012027588465 1140.0 NaN 980.4488977955907 0.5160446511045539 278.0 6.0 183.0 
194.00012027588465 1137.0 NaN 980.3954575818295 0.5230298861093712 277.0 6.0 183.0 
196.00012027588465 1135.0 NaN 980.4141616566457 0.5011797461904623 276.0 6.0 183.0 
198.00012027588465 1134.0 NaN 980.3901135604547 0.5154995162663276 276.0 6.0 183.0 
200.00012027588465 1133.0 NaN 980.435537742152 0.5075546973698423 277.0 6.0 183.0 
202.00012027588465 1142.0 NaN 983.4949899799612 0.5146408095829123 276.0 6.0 184.0 
204.00012027588465 1148.0 NaN 989.6860387441544 0.5060219865411734 277.0 6.0 186.0 
206.00012027588465 1149.0 NaN 989.6700066800275 0.5124554253298487 279.0 6.0 186.0 
208.00012027588465 1153.0 NaN 986.56513026052 0.5070766765587252 275.0 6.0 185.0 
210.00012027588465 1152.0 NaN 986.6052104208434 0.5234242440967403 274.0 6.0 185.0 
212.00012027588465 1149.0 NaN 986.6185704742818 0.5081703094906439 275.0 6.0 185.0 
214.00012027588465 1155.0 NaN 983.5083500333999 0.5117332269026055 275.0 6.0 184.0 
216.00012027588465 1154.0 NaN 980.5370741482977 0.5155852385482206 275.0 6.0 183.0 
218.00012027588465 1155.0 NaN 986.5971943887793 0.5181882581945743 277.0 6.0 185.0 
220.00012027588465 1150.0 NaN 983.5938543754183 0.5145433608259755 277.0 6.0 184.0 
222.00012027588465 1147.0 NaN 980.5130260521028 0.5347322343434326 280.0 6.0 183.0 
224.00012027588465 1137.0 NaN 968.1683366733456 0.513613684876524 277.0 6.0 179.0 
226.00012027588465 1136.0 NaN 965.0741482965909 0.5131972378356374 275.0 6.0 178.0 
228.00012027588465 1148.0 NaN 971.2464929859728 0.5085552949093101 276.0 6.0 180.0 
230.00012027588465 1161.0 NaN 965.2237808951243 0.5199395078975898 278.0 6.0 178.0 
232.00012027588465 1154.0 NaN 962.2070808283244 0.527843848648268 271.0 6.0 177.0 
234.00012027588465 1149.0 NaN 962.169672678691 0.5258307472173395 271.0 6.0 177.0 
236.00012027588465 1151.0 NaN 965.1516366065453 0.5146304153042456 272.0 6.0 178.0 
238.00012027588465 1153.0 NaN 968.2511690046751 0.5179108981315421 269.0 6.0 179.0 
240.00012027588465 1150.0 NaN 968.3633934535725 0.5237306801889634 269.0 6.0 179.0 
242.00012027588465 1140.0 NaN 965.2130928523727 0.5192762004637881 264.0 6.0 178.0 
244.00012027588465 1133.0 NaN 965.1783567134274 0.5184680731552057 263.0 6.0 178.0 
246.00012027588465 1129.0 NaN 962.1002004008 0.5142199763154277 263.0 6.0 177.0 
248.00012027588465 1133.0 NaN 962.0627922511699 0.5164920386577555 260.0 6.0 177.0 
250.00012027588465 1129.0 NaN 959.0701402805608 0.5077882920538026 261.0 6.0 176.0 
252.00012027588465 1134.0 NaN 958.992651970609 0.5223693027783545 264.0 6.0 176.0 
254.00012027588465 1126.0 NaN 958.8964595858364 0.5229587316562844 265.0 6.0 176.0 
256.0001202758847 1124.0 NaN 958.9044756179028 0.5169585287150841 266.0 6.0 176.0 
258.0001202758847 1124.0 NaN 961.9853039412156 0.5131868459902745 266.0 6.0 177.0 
260.0001202758847 1122.0 NaN 962.1135604542426 0.5208564088780385 266.0 6.0 177.0 
262.0001202758847 1129.0 NaN 962.0681362725455 0.5098687656273887 268.0 6.0 177.0 
264.0001202758847 1129.0 NaN 962.0734802939207 0.534768287571334 273.0 6.0 177.0 
266.0001202758847 1120.0 NaN 961.9853039412156 0.5051471665644282 275.0 6.0 177.0 
268.0001202758847 1126.0 NaN 952.7668670674693 0.5135728644911918 273.0 6.0 174.0 
270.0001202758847 1120.0 NaN 952.841683366733 0.5131614823732722 269.0 6.0 174.0 
272.0001202758847 1118.0 NaN 955.8744154976636 0.5259433206128685 268.0 6.0 175.0 
274.0001202758847 1116.0 NaN 955.895791583167 0.5104930141336189 269.0 6.0 175.0 
276.0001202758847 1114.0 NaN 955.8851035404145 0.523645625308781 266.0 6.0 175.0 
278.0001202758847 1115.0 NaN 962.0120240480965 0.5276494276289121 267.0 6.0 177.0 
280.0001202758847 1106.0 NaN 971.3239812959273 0.5098645160088283 266.0 6.0 180.0 
282.0001202758847 1109.0 NaN 968.1469605878428 0.5216558375297498 267.0 6.0 179.0 
284.0001202758847 1102.0 NaN 965.0420841683363 0.526584706296877 265.0 6.0 178.0 
286.0001202758847 1094.0 NaN 965.098196392785 0.5236170203151612 265.0 6.0 178.0 
288.0001202758847 1100.0 NaN 965.1088844355364 0.5147477620388416 265.0 6.0 178.0 
290.0001202758847 1100.0 NaN 965.052772211091 0.4974672019421786 265.0 6.0 178.0 
292.0001202758847 1102.0 NaN 974.2952571810273 0.501059049609584 268.0 6.0 181.0 
294.0001202758847 1103.0 NaN 977.418837675351 0.5134722891887722 268.0 6.0 182.0 
296.0001202758847 1105.0 NaN 980.5156980627909 0.5101007782327979 270.0 6.0 183.0 
298.0001202758847 1111.0 NaN 971.3480293921183 0.5150522620233574 271.0 6.0 180.0 
300.0001202758847 1116.0 NaN 968.2431529726127 0.5077917097522235 272.0 6.0 179.0 
302.0001202758847 1108.0 NaN 968.1336005343998 0.5074741322953735 275.0 6.0 179.0 
304.0001202758847 1105.0 NaN 962.1108884435548 0.52206129971063 275.0 6.0 177.0 
306.0001202758847 1102.0 NaN 962.0360721442875 0.5058951167304201 274.0 6.0 177.0 
308.0001202758847 1101.0 NaN 962.0120240480964 0.49623789514833355 274.0 6.0 177.0 
310.0001202758847 1099.0 NaN 958.8937875751507 0.5131146685451594 273.0 6.0 176.0 
312.0001202758847 1083.0 NaN 955.8289913159635 0.49867468433986817 272.0 6.0 175.0 
314.0001202758847 1092.0 NaN 961.9478957915818 0.50977831682196 274.0 6.0 177.0 
316.0001202758847 1096.0 NaN 961.923847695391 0.4990483406114112 274.0 6.0 177.0 
318.0001202758847 1093.0 NaN 961.9746158984638 0.4987728767215084 271.0 6.0 177.0 
320.0001202758847 1107.0 NaN 958.9338677354726 0.498796878883192 270.0 6.0 176.0 
322.0001202758847 1113.0 NaN 955.7942551770221 0.49269846722028865 278.0 6.0 175.0 
324.0001202758847 1118.0 NaN 949.6566466265865 0.5248223099761724 280.0 6.0 173.0 
326.0001202758847 1106.0 NaN 952.7107548430184 0.49819480009746886 282.0 6.0 174.0 
328.0001202758847 1116.0 NaN 961.9612558450227 0.5118255255539624 283.0 6.0 177.0 
330.0001202758847 1110.0 NaN 971.2224448897816 0.5139158895751186 280.0 6.0 180.0 
332.0001202758847 1098.0 NaN 965.1623246492996 0.5112399641187043 276.0 6.0 178.0 
334.0001202758847 1098.0 NaN 962.0280561122233 0.503795281856841 276.0 6.0 177.0 
336.0001202758847 1097.0 NaN 962.0387441549773 0.5035962680709659 274.0 6.0 177.0 
338.0001202758847 1109.0 NaN 955.8690714762864 0.5103544897193222 272.0 6.0 175.0 
340.0001202758847 1105.0 NaN 958.9792919171683 0.5127295323150116 271.0 6.0 176.0 
342.0001202758847 1101.0 NaN 959.0086840347365 0.5069842301696205 272.0 6.0 176.0 
344.0001202758847 1099.0 NaN 958.9632598530402 0.5224438076871042 274.0 6.0 176.0 
346.0001202758847 1084.0 NaN 958.9632598530402 0.49758928906839045 272.0 6.0 176.0 
348.0001202758847 1079.0 NaN 962.0120240480954 0.5004994224196856 272.0 6.0 177.0 
350.0001202758847 1073.0 NaN 962.086840347363 0.5077981259755029 272.0 6.0 177.0 
352.0001202758847 1065.0 NaN 958.9659318637272 0.4969098678861768 270.0 6.0 176.0 
354.0001202758847 1074.0 NaN 962.0521042084177 0.5230615173248888 272.0 6.0 177.0 
356.0001202758847 1070.0 NaN 962.0494321977277 0.499971009698003 270.0 6.0 177.0 
358.0001202758847 1075.0 NaN 959.035404141618 0.5100769927410748 269.0 6.0 176.0 
360.0001202758847 1067.0 NaN 949.7875751502999 0.5091069014015255 268.0 6.0 173.0 
362.0001202758847 1060.0 NaN 940.4969939879765 0.4949825700919646 264.0 6.0 170.0 
364.0001202758847 1071.0 NaN 937.4509018036083 0.5029800296629559 265.0 6.0 169.0 
366.0001202758847 1073.0 NaN 934.4208416833674 0.4977265920423528 264.0 6.0 168.0 
368.0001202758847 1072.0 NaN 934.4235136940545 0.5061690725602567 264.0 6.0 168.0 
370.0001202758847 1071.0 NaN 934.3460253841007 0.49251675442974446 261.0 6.0 168.0 
372.0001202758847 1079.0 NaN 934.4021376085501 0.49290481102809075 262.0 6.0 168.0 
374.0001202758847 1093.0 NaN 931.3186372745498 0.5122369636480999 265.0 6.0 167.0 
376.0001202758847 1081.0 NaN 934.4475617902463 0.5014643180860153 265.0 6.0 168.0 
378.0001202758847 1090.0 NaN 937.4936539746179 0.5086910973362468 266.0 6.0 169.0 
380.0001202758847 1081.0 NaN 928.2885771543092 0.5199575466493735 263.0 6.0 166.0 
382.0001202758847 1075.0 NaN 928.334001336005 0.5201242308619123 261.0 6.0 166.0 
384.0001202758847 1072.0 NaN 931.3533734134943 0.5383312214389044 262.0 6.0 167.0 
386.0001202758847 1050.0 NaN 931.3159652638602 0.5060488277017776 260.0 6.0 167.0 
388.0001202758847 1062.0 NaN 931.3507014028052 0.5062713968555939 259.0 6.0 167.0 
390.0001202758847 1068.0 NaN 928.3286573146275 0.503676344679101 258.0 6.0 166.0 
392.0001202758847 1060.0 NaN 922.1776887107544 0.5102193196526288 256.0 6.0 164.0 
394.0001202758847 1077.0 NaN 928.2885771543093 0.5129206080819279 255.0 6.0 166.0 
396.0001202758847 1070.0 NaN 928.4195056780217 0.5040208820659255 252.0 6.0 166.0 
398.0001202758847 1080.0 NaN 928.387441549767 0.5114597605158362 251.0 6.0 166.0 
400.0001202758847 1083.0 NaN 925.2772211088853 0.5217436662632653 251.0 6.0 165.0 
402.0001202758847 1085.0 NaN 922.2765531062123 0.5069218263195271 251.0 6.0 164.0 
404.0001202758847 1090.0 NaN 922.2498329993329 0.5224994822084599 253.0 6.0 164.0 
406.0001202758847 1070.0 NaN 925.2585170340673 0.5142424304239595 255.0 6.0 165.0 
408.0001202758847 1083.0 NaN 922.2925851703397 0.514185422621042 258.0 6.0 164.0 
410.0001202758847 1085.0 NaN 916.0961923847692 0.5273867282380732 256.0 6.0 162.0 
412.0001202758847 1078.0 NaN 916.1122244488998 0.5132700377847499 254.0 6.0 162.0 
414.0001202758847 1079.0 NaN 915.9519038076146 0.5174889352081561 254.0 6.0 162.0 
416.0001202758847 1064.0 NaN 919.0140280561125 0.5095969246984615 253.0 6.0 163.0 
418.0001202758847 1062.0 NaN 916.0026720106873 0.5233656646459144 251.0 6.0 162.0 
420.0001202758847 1061.0 NaN 916.016032064127 0.5099306792834482 249.0 6.0 162.0 
422.0001202758847 1076.0 NaN 922.2311289245146 0.513152893652386 250.0 6.0 164.0 
424.0001202758847 1077.0 NaN 922.1456245824997 0.524017018181651 250.0 6.0 164.0 
426.0001202758847 1068.0 NaN 922.060120240482 0.5027508473367907 249.0 6.0 164.0 
428.0001202758847 1075.0 NaN 922.0681362725456 0.5094041903407729 247.0 6.0 164.0 
430.0001202758847 1079.0 NaN 919.0781563126269 0.525308382083083 247.0 6.0 163.0 
432.0001202758847 1073.0 NaN 919.0781563126269 0.5116905666414304 248.0 6.0 163.0 
434.0001202758847 1075.0 NaN 919.056780227122 0.5257046046596408 246.0 6.0 163.0 
436.0001202758847 1080.0 NaN 916.0427521710093 0.5277504454367262 244.0 6.0 162.0 
438.0001202758847 1087.0 NaN 922.1509686038734 0.5200140540235663 247.0 6.0 164.0 
440.0001202758847 1090.0 NaN 922.1429525718097 0.5221594366059471 247.0 6.0 164.0 
442.0001202758847 1100.0 NaN 940.6386105544422 0.5072839587942999 250.0 6.0 170.0 
444.0001202758847 1102.0 NaN 937.5925183700725 0.5304285068457398 250.0 6.0 169.0 
446.0001202758847 1096.0 NaN 940.6920507682034 0.5186647022843469 249.0 6.0 170.0 
448.0001202758847 1091.0 NaN 940.5744822979276 0.5113015195658379 250.0 6.0 170.0 
450.0001202758847 1098.0 NaN 940.5397461589852 0.5242688171554845 252.0 6.0 170.0 
452.0001202758847 1088.0 NaN 937.509686038745 0.5194754783715915 252.0 6.0 169.0 
454.0001202758847 1085.0 NaN 937.5150300601185 0.5170602757390391 251.0 6.0 169.0 
456.0001202758847 1086.0 NaN 934.3780895123585 0.5113291408547388 252.0 6.0 168.0 
458.0001202758847 1089.0 NaN 934.3593854375416 0.5162537478433353 252.0 7.0 167.0 
460.0001202758847 1091.0 NaN 928.229792919173 0.5154588924301574 245.0 12.0 160.0 
462.0001202758847 1087.0 NaN 918.9686038744145 0.5322512444064482 242.0 13.0 156.0 
464.0001202758847 1079.0 NaN 922.0440881763541 0.5156077352461889 242.0 13.0 157.0 
466.0001202758847 1074.0 NaN 922.0253841015362 0.5258066095464584 243.0 13.0 157.0 
468.0001202758847 1078.0 NaN 925.1462925851691 0.5205796157537351 244.0 13.0 158.0 
470.0001202758847 1072.0 NaN 922.0975283901134 0.5226257608005048 244.0 13.0 157.0 
472.0001202758847 1061.0 NaN 918.9579158316637 0.5117738643584051 242.0 13.0 156.0 
474.0001202758847 1062.0 NaN 922.038744154977 0.5211822183039324 242.0 13.0 157.0 
476.0001202758847 1053.0 NaN 915.9572478289908 0.5314071564154365 241.0 13.0 155.0 
478.0001202758847 1060.0 NaN 919.0541082164319 0.5181101143721515 240.0 13.0 156.0 
480.0001202758847 1048.0 NaN 919.1128924515689 0.5154993021293354 239.0 12.0 157.0 
482.0001202758847 1048.0 NaN 919.027388109554 0.5005036117148867 245.0 7.0 162.0 
484.0001202758847 1066.0 NaN 922.167000668004 0.519679401336832 248.0 6.0 164.0 
486.0001202758847 1056.0 NaN 922.1215764863051 0.5168999338238847 246.0 6.0 164.0 
488.0001202758847 1062.0 NaN 922.15631262525 0.5142140926621318 247.0 6.0 164.0 
490.0001202758847 1061.0 NaN 916.002672010687 0.5054233063745592 246.0 6.0 162.0 
492.0001202758847 1061.0 NaN 915.9171676686723 0.51172612305221 245.0 6.0 162.0 
494.0001202758847 1066.0 NaN 918.9472277889095 0.5243092730771007 246.0 6.0 163.0 
496.0001202758847 1060.0 NaN 918.9472277889096 0.5127003388562381 250.0 6.0 163.0 
498.0001202758847 1065.0 NaN 918.9792919171681 0.5127775306771476 251.0 6.0 163.0 
500.0001202758847 1061.0 NaN 915.9144956579818 0.523101779924127 251.0 6.0 162.0 
502.0001202758847 1059.0 NaN 912.8229792919183 0.5212771622949348 250.0 6.0 161.0 
504.0001202758847 1069.0 NaN 906.7254509018046 0.5318602404803576 249.0 6.0 159.0 
506.0001202758847 1069.0 NaN 909.7581830327318 0.511899083810107 246.0 6.0 160.0 
508.0001202758847 1076.0 NaN 903.6980627922499 0.5240745079259439 246.0 6.0 158.0 
510.0001202758847 1073.0 NaN 897.5364061456235 0.5110321746950192 247.0 6.0 156.0 
512.0001202758847 1071.0 NaN 894.428857715432 0.5157194426944347 247.0 6.0 155.0 
514.0001202758847 1071.0 NaN 894.418169672678 0.5165757532047057 248.0 6.0 155.0 
516.0001202758847 1064.0 NaN 885.2344689378759 0.5009210696250848 246.0 6.0 152.0 
518.0001202758847 1066.0 NaN 888.3072812291239 0.5220678009348853 245.0 6.0 153.0 
520.0001202758847 1053.0 NaN 891.356045424182 0.5211327279200517 245.0 6.0 154.0 
522.0001202758847 1041.0 NaN 882.1082164328651 0.5060999481388864 244.0 6.0 151.0 
524.0001202758847 1046.0 NaN 876.0026720106882 0.5193564109681589 241.0 6.0 149.0 
526.0001202758847 1036.0 NaN 876.069472277889 0.5149027702077376 241.0 6.0 149.0 
528.0001202758847 1041.0 NaN 872.9726118904474 0.5157985953709765 241.0 6.0 148.0 
530.0001202758847 1036.0 NaN 872.9645958583835 0.5200074403541828 241.0 6.0 148.0 
532.0001202758847 1033.0 NaN 872.9325317301273 0.5086498474857984 241.0 6.0 148.0 
534.0001202758847 1044.0 NaN 869.830327321309 0.5142459882478683 241.0 6.0 147.0 
536.0001202758847 1049.0 NaN 872.9432197728792 0.5114870316557687 241.0 6.0 148.0 
538.0001202758847 1056.0 NaN 882.2471609886437 0.5153120341114873 242.0 6.0 151.0 
540.0001202758847 1048.0 NaN 882.2364729458913 0.5292689582758745 242.0 6.0 151.0 
542.0001202758847 1043.0 NaN 882.1429525718107 0.49911682562618287 244.0 6.0 151.0 
544.0001202758847 1049.0 NaN 879.0968603874412 0.5037198636051091 243.0 6.0 150.0 
546.0001202758847 1060.0 NaN 882.1990647962591 0.4974281478229998 244.0 6.0 151.0 
548.0001202758847 1063.0 NaN 882.2257849031394 0.49999340559513467 245.0 6.0 151.0 
550.0001202758847 1059.0 NaN 882.1883767535071 0.521842653602637 247.0 6.0 151.0 
552.0001202758847 1055.0 NaN 882.1429525718106 0.5083447529722814 250.0 6.0 151.0 
554.0001202758847 1063.0 NaN 885.1943887775545 0.5170062495321901 250.0 6.0 152.0 
556.0001202758847 1056.0 NaN 885.2959251837002 0.5282060245865369 250.0 6.0 152.0 
558.0001202758847 1045.0 NaN 885.3600534402135 0.5111467889329151 247.0 6.0 152.0 
560.0001202758847 1044.0 NaN 885.3627254509018 0.5162463492192448 247.0 6.0 152.0 
562.0001202758847 1050.0 NaN 885.2692050768201 0.526783274447489 244.0 6.0 152.0 
564.0001202758847 1061.0 NaN 888.3259853039408 0.5230834285551215 246.0 6.0 153.0 
566.0001202758847 1053.0 NaN 885.3012692050772 0.5395298089304857 245.0 6.0 152.0 
568.0001202758847 1046.0 NaN 888.4649298597194 0.5039857522864266 245.0 6.0 153.0 
570.0001202758847 1052.0 NaN 888.3847695390775 0.5146687483055365 244.0 6.0 153.0 
572.0001202758847 1052.0 NaN 885.3707414829654 0.5030297891775054 242.0 6.0 152.0 
574.0001202758847 1070.0 NaN 891.505678022712 0.520983538306092 243.0 6.0 154.0 
576.0001202758847 1068.0 NaN 897.6967267869076 0.5093596289243965 244.0 6.0 156.0 
578.0001202758847 1070.0 NaN 897.7448229792911 0.4967997835177112 243.0 6.0 156.0 
580.0001202758847 1070.0 NaN 894.6826987307954 0.5308361484670662 240.0 6.0 155.0 
582.0001202758847 1056.0 NaN 894.5571142284573 0.524308589860316 240.0 6.0 155.0 
584.0001202758847 1064.0 NaN 885.4054776219106 0.524194042534129 241.0 6.0 152.0 
586.0001202758847 1069.0 NaN 888.5076820307276 0.5225733496964717 244.0 6.0 153.0 
588.0001202758847 1063.0 NaN 891.5938543754181 0.4988046547587461 248.0 6.0 154.0 
590.0001202758847 1068.0 NaN 888.392785571142 0.5161503282776448 246.0 6.0 153.0 
592.0001202758847 1061.0 NaN 891.4816299265194 0.5072771434565421 246.0 6.0 154.0 
594.0001202758847 1075.0 NaN 900.7107548430193 0.520843351140667 251.0 6.0 157.0 
596.0001202758847 1066.0 NaN 900.7481629926515 0.5116553136643057 251.0 6.0 157.0 
598.0001202758847 1065.0 NaN 903.7942551770212 0.5047896909463496 251.0 6.0 158.0 
600.0001202758847 1075.0 NaN 903.778223112892 0.5098772199925138 251.0 6.0 158.0 
602.0001202758847 1073.0 NaN 903.7327989311954 0.5115907270793281 250.0 6.0 158.0 
604.0001202758847 1085.0 NaN 906.8590514362055 0.5522785752657802 251.0 6.0 159.0 
606.0001202758847 1063.0 NaN 909.8944555778228 0.514806742653678 253.0 6.0 160.0 
608.0001202758847 1064.0 NaN 909.8329993319967 0.5172163512418944 251.0 6.0 160.0 
610.0001202758847 1069.0 NaN 916.0026720106872 0.5196668277673792 251.0 6.0 162.0 
612.0001202758847 1074.0 NaN 925.2665330661317 0.5037666554269724 255.0 6.0 165.0 
614.0001202758847 1095.0 NaN 925.2905811623236 0.5406724620215793 255.0 6.0 165.0 
616.0001202758847 1078.0 NaN 922.1750167000671 0.5146627683355972 256.0 6.0 164.0 
618.0001202758847 1080.0 NaN 919.1903807615226 0.5216484514141895 254.0 6.0 163.0 
620.0001202758847 1072.0 NaN 913.0875083500325 0.5132967921679018 253.0 6.0 161.0 
622.0001202758847 1063.0 NaN 913.0501002003999 0.5042042192578394 251.0 6.0 161.0 
624.0001202758847 1076.0 NaN 925.338677354709 0.5350483029184426 256.0 6.0 165.0 
626.0001202758847 1057.0 NaN 928.4676018704088 0.5063489560261727 260.0 6.0 166.0 
628.0001202758847 1070.0 NaN 934.6292585170361 0.5104858966181309 259.0 6.0 168.0 
630.0001202758847 1083.0 NaN 937.678022712091 0.5076784614452139 261.0 6.0 169.0 
632.0001202758847 1090.0 NaN 940.7508350033407 0.5101389862178293 259.0 6.0 170.0 
634.0001202758847 1118.0 NaN 943.8396793587183 0.5372689190350723 261.0 6.0 171.0 
636.0001202758847 1089.0 NaN 940.7481629926506 0.5216154487481466 261.0 6.0 170.0 
638.0001202758847 1082.0 NaN 943.847695390782 0.5280890589185082 261.0 6.0 171.0 
640.0001202758847 1094.0 NaN 949.9746158984638 0.5339617697350578 261.0 6.0 173.0 
642.0001202758847 1090.0 NaN 956.0908483633946 0.5232327937181336 261.0 6.0 175.0 
644.0001202758847 1089.0 NaN 959.1315965263857 0.5260365698275782 266.0 6.0 176.0 
646.0001202758847 1073.0 NaN 965.2638610554453 0.5119314922438757 268.0 6.0 178.0 
648.0001202758847 1076.0 NaN 968.3233132932544 0.5100264693007748 268.0 6.0 179.0 
650.0001202758847 1087.0 NaN 974.3780895123579 0.5276020051643332 270.0 6.0 181.0 
652.0001202758847 1069.0 NaN 974.4288577154305 0.5127714591319839 271.0 6.0 181.0 
654.0001202758847 1075.0 NaN 971.3907815631273 0.5404983362771091 272.0 6.0 180.0 
656.0001202758847 1071.0 NaN 983.7167668670662 0.5013339904856865 272.0 6.0 184.0 
658.0001202758847 1076.0 NaN 983.6953907815638 0.4984133508034661 272.0 6.0 184.0 
660.0001202758847 1098.0 NaN 986.6773547094181 0.5317628322274937 273.0 6.0 185.0 
662.0001202758847 1088.0 NaN 989.8009352037391 0.5044854022738003 273.0 6.0 186.0 
664.0001202758847 1097.0 NaN 998.9873079492331 0.5271662087524516 277.0 6.0 189.0 
#####################################################################
# End of data export. Simulation finished at: 2019-03-17T20:11+0000 #
#####################################################################
