#####################################################################
# Alchemist log file - simulation started at: 2019-03-02T21:26+0000 #
#####################################################################
# seed = 1.0, bandwidth = 1000.0, propagationDelay = 0.31622776601683794, baserange = 316.2277660168379
#
# The columns have the following meaning: 
# time neighbor_count[Sum] <value>@neighbor_count[Sum] packet_size[Mean] mean_delay[Mean] crowd[Sum] overcrowded[Sum] risk[Sum] 
0.0 NaN NaN NaN NaN NaN NaN NaN 
10.000417374280275 51288.0 NaN 4996.184368737475 3.690819050300437 1497.0 0.0 1497.0 
20.000417374280275 51337.0 NaN 4995.380093520374 1.6961735078382194 1496.0 1.0 1496.0 
30.000417374280275 51375.0 NaN 4993.808951235805 4.258613342876468 1495.0 2.0 1495.0 
40.000417374280275 51472.0 NaN 4993.822311289246 3.7476677144724233 1495.0 2.0 1495.0 
50.000417374280275 51517.0 NaN 4993.814295257181 1.7725430570844742 1496.0 1.0 1496.0 
60.000417374280275 51559.0 NaN 4995.374749498998 4.359045264692973 1495.0 2.0 1495.0 
70.00022331127568 51677.0 NaN 1525.62458249833 1.499117856013998 565.0 3.0 363.0 
80.00022331127568 51704.0 NaN 1534.810955243821 0.9010666686797824 534.0 2.0 367.0 
90.00022331127568 51756.0 NaN 1534.6907147628574 1.6327601430474128 530.0 2.0 367.0 
100.00022331127568 51729.0 NaN 1537.7608550434184 1.470379538265437 528.0 2.0 368.0 
110.00022331127568 51754.0 NaN 1537.7474949899815 0.9543884206949953 525.0 2.0 368.0 
120.00022331127568 51809.0 NaN 1544.0213760855033 1.6347920121122588 527.0 2.0 370.0 
130.0002233112757 51840.0 NaN 1540.9485637942544 1.4875199937884032 528.0 2.0 369.0 
140.0002233112757 51786.0 NaN 1537.8543754175003 0.9551853377240376 524.0 2.0 368.0 
150.0002233112757 51770.0 NaN 1540.8790915163659 1.6472227161222877 522.0 2.0 369.0 
160.0002233112757 51698.0 NaN 1540.8737474949912 1.4593024088668756 511.0 6.0 365.0 
170.0002233112757 51621.0 NaN 1540.8790915163659 0.9628826397061024 517.0 5.0 366.0 
180.0002233112757 51570.0 NaN 1537.8650634602548 1.646682177507643 514.0 6.0 364.0 
190.0002233112757 51441.0 NaN 1534.80026720107 1.524688966928376 511.0 6.0 363.0 
200.0002233112757 51277.0 NaN 1537.8784235136936 0.9846332353925517 513.0 6.0 364.0 
210.0002233112757 51235.0 NaN 1528.598530394121 1.6577310700023908 511.0 6.0 361.0 
220.0002233112757 51100.0 NaN 1528.5397461589844 1.4759587383578563 512.0 6.0 361.0 
230.0002233112757 51059.0 NaN 1531.580494321979 1.0161231151357761 509.0 5.0 363.0 
240.0002233112757 51086.0 NaN 1528.545090180361 1.7347685469482579 509.0 5.0 362.0 
250.0002233112757 51062.0 NaN 1528.5637942551757 1.5776709217161105 510.0 5.0 362.0 
260.00022331127565 50949.0 NaN 1519.356045424182 1.0141579052056757 510.0 5.0 359.0 
270.00005775149697 50859.0 NaN 1531.5804943219791 1.6161500224481975 511.0 5.0 363.0 
280.00022331127565 50800.0 NaN 1534.594522378091 1.5384478782219655 511.0 5.0 364.0 
290.00022331127565 50685.0 NaN 1528.4622578490298 1.073946453302436 507.0 5.0 362.0 
300.00005775149697 50533.0 NaN 1528.5263861055455 1.6993434433753318 506.0 5.0 362.0 
310.00022331127565 50255.0 NaN 1528.5584502338 1.5567945389461508 505.0 5.0 362.0 
320.00022331127565 50033.0 NaN 1525.4696058784248 1.0100162272291777 505.0 5.0 361.0 
330.00022331127565 49918.0 NaN 1534.6346025384091 1.6759661311857266 504.0 5.0 364.0 
340.00022331127565 49759.0 NaN 1531.5056780227117 1.556628265736315 502.0 5.0 363.0 
350.00022331127565 49645.0 NaN 1528.4408817635274 1.0595906208937977 501.0 6.0 361.0 
360.00022331127565 49580.0 NaN 1522.3193052772206 1.6834839614113564 504.0 7.0 358.0 
370.00022331127565 49489.0 NaN 1513.095524382098 1.5373067037946218 509.0 7.0 355.0 
380.00022331127565 49401.0 NaN 1506.9659318637273 1.0379388251027826 512.0 7.0 353.0 
390.00022331127565 49332.0 NaN 1503.7782231128917 1.6627574934359555 509.0 7.0 352.0 
400.00022331127565 49232.0 NaN 1516.093520374082 1.5210796672632025 510.0 7.0 356.0 
410.00022331127565 49136.0 NaN 1522.316633266534 1.0844169910191501 514.0 8.0 357.0 
420.00022331127565 49122.0 NaN 1503.887775551101 1.6978075593600777 509.0 8.0 351.0 
430.00022331127565 49005.0 NaN 1500.758851035403 1.5758312718813587 509.0 8.0 350.0 
440.00022331127565 48961.0 NaN 1522.255177020709 1.024533693424617 520.0 7.0 358.0 
450.00022331127565 48922.0 NaN 1528.3660654642633 1.6396431943480292 522.0 6.0 361.0 
460.00022331127565 48835.0 NaN 1543.7381429525726 1.5712458146559196 522.0 6.0 366.0 
470.00022331127565 48778.0 NaN 1534.5116900467606 1.1012371814489026 518.0 5.0 364.0 
480.00022331127565 48800.0 NaN 1528.3126252504999 1.639529834961533 513.0 5.0 362.0 
490.00022331127565 48812.0 NaN 1509.8570474281908 1.497250623753462 512.0 5.0 356.0 
500.00022331127565 48881.0 NaN 1482.3006012024057 0.9776106148485855 506.0 4.0 348.0 
510.00022331127565 48955.0 NaN 1491.494989979961 1.6227971514126005 509.0 3.0 352.0 
520.0002233112757 48981.0 NaN 1482.3006012024061 1.563295781193728 510.0 2.0 350.0 
530.0002233112757 49002.0 NaN 1454.6559786239154 1.0574743043945913 509.0 2.0 341.0 
540.0002233112757 49004.0 NaN 1470.1589846359377 1.6099866187940945 510.0 2.0 346.0 
550.0002233112757 49030.0 NaN 1485.4482297929187 1.523732589991605 511.0 2.0 351.0 
560.0002233112757 49104.0 NaN 1479.3667334669344 1.091403624066679 516.0 2.0 349.0 
570.0002233112757 49151.0 NaN 1485.3814295257182 1.6187090161631645 516.0 2.0 351.0 
580.0002233112757 49254.0 NaN 1500.7374749499 1.5406776840809213 519.0 2.0 356.0 
590.0002233112757 49286.0 NaN 1503.7621910487635 1.1283805586236417 526.0 2.0 357.0 
600.0002233112757 49340.0 NaN 1503.839679358718 1.674286737970333 529.0 2.0 357.0 
610.0002233112757 49378.0 NaN 1513.140948563794 1.5859897664118172 528.0 2.0 360.0 
620.0002233112757 49342.0 NaN 1519.289245156982 1.106606218319739 528.0 2.0 362.0 
630.0002233112757 49284.0 NaN 1516.114896459585 1.6578338766006102 523.0 4.0 359.0 
640.0002233112757 49231.0 NaN 1509.969271877088 1.5762629515465254 520.0 3.0 358.0 
650.0002233112757 49219.0 NaN 1513.1409485637937 1.1214804693062632 521.0 3.0 359.0 
660.0002233112757 49178.0 NaN 1519.2999331997335 1.6749317113002522 513.0 2.0 362.0 
#####################################################################
# End of data export. Simulation finished at: 2019-03-02T21:46+0000 #
#####################################################################
