#####################################################################
# Alchemist log file - simulation started at: 2019-03-06T02:23+0000 #
#####################################################################
# seed = 3.0, bandwidth = 2.3713737056616552E7, propagationDelay = 0.0031622776601683794, baserange = 316.2277660168379
#
# The columns have the following meaning: 
# time neighbor_count[Sum] <value>@neighbor_count[Sum] packet_size[Mean] mean_delay[Mean] crowd[Sum] overcrowded[Sum] risk[Sum] 
0.0 NaN NaN NaN NaN NaN NaN NaN 
2.0003296392251997 51288.0 NaN 4995.997327989312 0.49959616100983334 1497.0 0.0 1497.0 
4.000329639225199 51288.0 NaN 4994.626586506346 0.4995963212712184 1496.0 1.0 1496.0 
6.000084666035003 51288.0 NaN 4994.0146960587845 0.49959630084456713 1496.0 1.0 1496.0 
8.0003296392252 51289.0 NaN 4994.487641950568 0.499593143868121 1496.0 1.0 1496.0 
10.0003296392252 51291.0 NaN 4995.3640614562455 0.49958082315806723 1497.0 0.0 1497.0 
12.0003296392252 51294.0 NaN 4994.463593854375 0.4996391287454721 1497.0 0.0 1497.0 
14.0003296392252 51292.0 NaN 4994.0227120908485 0.49961273535001277 1497.0 0.0 1497.0 
16.000084666035004 51326.0 NaN 4994.14295257181 0.5004788732578742 1496.0 1.0 1496.0 
18.000329639225203 51323.0 NaN 4994.861723446894 0.5005554164707995 1497.0 0.0 1497.0 
20.000329639225203 51325.0 NaN 4995.711422845691 0.5003958904473963 1496.0 1.0 1496.0 
22.000329639225203 51330.0 NaN 4994.768203072812 0.49938995407666037 1496.0 1.0 1496.0 
24.000329639225203 51334.0 NaN 4994.313961255845 0.4993726806329045 1497.0 0.0 1497.0 
26.000084666035004 51376.0 NaN 4994.551770207081 0.4994089666323589 1497.0 0.0 1497.0 
28.000329639225203 51389.0 NaN 4995.460253841015 0.500252561582682 1497.0 0.0 1497.0 
30.000329639225203 51359.0 NaN 4996.168336673347 0.5000065347550281 1497.0 0.0 1497.0 
32.0003296392252 51361.0 NaN 4994.955243820976 0.499539419532074 1497.0 0.0 1497.0 
34.0003296392252 51360.0 NaN 4994.108216432865 0.4994911856134483 1496.0 1.0 1496.0 
36.00008466603501 51393.0 NaN 4994.2792251169 0.4999428699637362 1496.0 1.0 1496.0 
38.0003296392252 51399.0 NaN 4995.032732130929 0.5019628880125321 1497.0 0.0 1497.0 
40.0003296392252 51360.0 NaN 4996.179024716099 0.5015455174238687 1497.0 0.0 1497.0 
42.0003296392252 51343.0 NaN 4995.294589178357 0.49951907186531436 1497.0 0.0 1497.0 
44.0003296392252 51338.0 NaN 4994.26586506346 0.5016622012737485 1497.0 0.0 1497.0 
46.00008466603501 51366.0 NaN 4994.175016700066 0.4996291338928491 1496.0 1.0 1496.0 
48.0003296392252 51371.0 NaN 4994.736138944556 0.5007059128513303 1495.0 2.0 1495.0 
50.0003296392252 51353.0 NaN 4995.7541750167 0.49950687206476957 1495.0 2.0 1495.0 
52.0003296392252 51350.0 NaN 4995.160988643955 0.49997576511293124 1496.0 1.0 1496.0 
54.0003296392252 51343.0 NaN 4994.64796259185 0.49996002004550805 1496.0 1.0 1496.0 
56.00008466603501 51361.0 NaN 4994.864395457582 0.5006283328252353 1497.0 0.0 1497.0 
58.0003296392252 51384.0 NaN 4995.120908483634 0.5004854038247842 1497.0 0.0 1497.0 
60.0003296392252 51388.0 NaN 4995.941215764863 0.5014268501838982 1497.0 0.0 1497.0 
62.00013616486943 51376.0 NaN 1522.5571142284566 0.5005283405584968 775.0 1.0 364.0 
64.00013616486943 51369.0 NaN 1522.6132264529065 0.49940024882244843 620.0 1.0 364.0 
66.00008466603501 51408.0 NaN 1522.6132264529065 0.49957565224110806 580.0 1.0 364.0 
68.00013616486943 51494.0 NaN 1522.639946559785 0.5013942411149649 548.0 1.0 364.0 
70.00013616486943 51462.0 NaN 1525.7074148296606 0.5007366599702354 536.0 0.0 366.0 
72.00013616486943 51464.0 NaN 1525.6406145624576 0.5007886165711588 532.0 1.0 365.0 
74.00013616486943 51462.0 NaN 1525.528390113561 0.5000930913996148 529.0 1.0 365.0 
76.00008466603501 51467.0 NaN 1525.3734134936547 0.5002532548266891 530.0 1.0 365.0 
78.00013616486943 51481.0 NaN 1534.6452905811634 0.5013534375549469 530.0 1.0 368.0 
80.00013616486943 51458.0 NaN 1534.7548430193729 0.5009082357814599 529.0 1.0 368.0 
82.00013616486943 51452.0 NaN 1534.8162992651974 0.502178832766523 527.0 1.0 368.0 
84.00013616486943 51449.0 NaN 1534.8643954575818 0.49995659031932604 527.0 1.0 368.0 
86.00008466603501 51495.0 NaN 1534.9018036072152 0.4999242779184053 526.0 1.0 368.0 
88.00013616486943 51532.0 NaN 1535.0273881095543 0.5000984011941494 527.0 1.0 368.0 
90.00013616486943 51535.0 NaN 1538.092184368736 0.5008761649912113 527.0 1.0 369.0 
92.00013616486943 51531.0 NaN 1537.9959919839666 0.5013144758265816 525.0 1.0 369.0 
94.00013616486943 51522.0 NaN 1537.9158316633273 0.5002342097283855 525.0 1.0 369.0 
96.00008466603501 51546.0 NaN 1540.9592518370087 0.5004599017177493 527.0 0.0 371.0 
98.00013616486943 51546.0 NaN 1540.8897795591183 0.5011411540564478 528.0 0.0 371.0 
100.00013616486943 51534.0 NaN 1540.7962591850362 0.5002310200824963 528.0 0.0 371.0 
102.00013616486943 51550.0 NaN 1540.919171676688 0.5014515750369521 527.0 1.0 370.0 
104.00013616486943 51527.0 NaN 1540.8390113560454 0.5002424749129565 527.0 1.0 370.0 
106.00008466603501 51535.0 NaN 1540.9512358049453 0.5010308161294771 527.0 1.0 370.0 
108.00013616486943 51531.0 NaN 1541.1222444889788 0.5018343570878052 526.0 1.0 370.0 
110.00013616486943 51501.0 NaN 1541.1088844355365 0.5003993121552779 526.0 1.0 370.0 
112.00013616486943 51519.0 NaN 1541.140948563794 0.5002917712201855 526.0 1.0 370.0 
114.00013616486943 51513.0 NaN 1541.0661322645276 0.500515163195168 528.0 0.0 371.0 
116.00008466603501 51523.0 NaN 1550.2765531062118 0.50027091070275 529.0 1.0 373.0 
118.00013616486943 51535.0 NaN 1550.2792251169 0.5004350776087163 529.0 1.0 373.0 
120.00013616486943 51529.0 NaN 1553.3947895791575 0.500100772498182 529.0 1.0 374.0 
122.00013616486943 51542.0 NaN 1553.3520374081484 0.5010718733227818 529.0 1.0 374.0 
124.00013616486943 51519.0 NaN 1553.3867735470935 0.5006945266467439 530.0 0.0 375.0 
126.00008466603501 51525.0 NaN 1547.251837007348 0.5014669464776034 529.0 1.0 372.0 
128.00013616486942 51503.0 NaN 1547.1636606546429 0.5004851691462339 529.0 1.0 372.0 
130.00013616486942 51475.0 NaN 1547.1583166332664 0.5004132137812278 529.0 1.0 372.0 
132.00013616486942 51465.0 NaN 1547.1075484301934 0.5006818708813785 529.0 1.0 372.0 
134.00013616486942 51451.0 NaN 1546.9739478957908 0.49983602999146604 526.0 1.0 372.0 
136.000084666035 51463.0 NaN 1547.0621242484972 0.5007209984747738 523.0 1.0 372.0 
138.00013616486942 51445.0 NaN 1547.0514362057456 0.5002342556192448 521.0 1.0 372.0 
140.00013616486942 51435.0 NaN 1547.1369405477637 0.5003267012897111 525.0 1.0 372.0 
142.00013616486942 51420.0 NaN 1550.236472945891 0.5003442781011861 525.0 1.0 373.0 
144.00013616486942 51400.0 NaN 1553.448229792918 0.49963048257649145 525.0 1.0 374.0 
146.000084666035 51421.0 NaN 1544.1629926519724 0.5004625011473103 523.0 1.0 371.0 
148.00013616486942 51401.0 NaN 1544.2431529726116 0.5001551267209227 521.0 1.0 371.0 
150.00013616486942 51376.0 NaN 1544.2378089512365 0.5003779676977148 522.0 1.0 371.0 
152.00013616486942 51337.0 NaN 1544.2752171008697 0.49993554805589807 521.0 1.0 371.0 
154.00013616486942 51311.0 NaN 1541.2104208416824 0.5001093190330642 523.0 1.0 370.0 
156.000084666035 51328.0 NaN 1541.119572478291 0.500036047464387 524.0 1.0 370.0 
158.00013616486942 51317.0 NaN 1547.1235804943212 0.5016020926012936 523.0 1.0 372.0 
160.00013616486942 51265.0 NaN 1544.136272545091 0.5007822979831423 518.0 1.0 371.0 
162.00013616486942 51261.0 NaN 1544.072144288576 0.5003865917804033 517.0 2.0 370.0 
164.00013616486942 51210.0 NaN 1544.093520374082 0.5021035982135269 519.0 1.0 371.0 
166.000084666035 51157.0 NaN 1547.0460921843699 0.5009903000265434 521.0 1.0 372.0 
168.00013616486942 51140.0 NaN 1550.1696726786909 0.5012419248247191 520.0 1.0 373.0 
170.00013616486942 51072.0 NaN 1550.1376085504362 0.5007237926425182 523.0 1.0 373.0 
172.00013616486942 51048.0 NaN 1550.225784903139 0.5007557665355159 523.0 0.0 374.0 
174.00013616486942 51036.0 NaN 1544.2618570474272 0.500986199056396 522.0 1.0 371.0 
176.000084666035 51024.0 NaN 1541.25851703407 0.5001785632693527 522.0 1.0 370.0 
178.00013616486942 51026.0 NaN 1541.3146292585184 0.5011594397028528 522.0 1.0 370.0 
180.00013616486942 50981.0 NaN 1541.368069472279 0.5008022701146287 522.0 0.0 371.0 
182.00013616486942 50943.0 NaN 1538.236472945891 0.5014185678070914 520.0 2.0 368.0 
184.00013616486942 50926.0 NaN 1538.1322645290572 0.500823128130426 520.0 0.0 370.0 
186.000084666035 50915.0 NaN 1537.9559118236455 0.5016495489974028 519.0 2.0 368.0 
188.00013616486942 50929.0 NaN 1537.9291917167664 0.500336444285241 518.0 1.0 369.0 
190.00013616486942 50908.0 NaN 1537.8303273213091 0.501615772552582 518.0 0.0 370.0 
192.00013616486942 50869.0 NaN 1534.7575150300606 0.5001177108818928 518.0 1.0 368.0 
194.00013616486942 50861.0 NaN 1534.7441549766183 0.5001979410146177 517.0 1.0 368.0 
196.000084666035 50863.0 NaN 1534.8269873079482 0.4997700497231148 517.0 1.0 368.0 
198.00013616486942 50859.0 NaN 1534.928523714094 0.5003233945764696 520.0 0.0 369.0 
200.00013616486942 50840.0 NaN 1538.0334001335998 0.5011719709430958 519.0 1.0 369.0 
202.00013616486942 50799.0 NaN 1544.1683366733455 0.5003252700528847 518.0 1.0 371.0 
204.00013616486942 50776.0 NaN 1541.1302605210426 0.5002522937363681 518.0 1.0 370.0 
206.000084666035 50789.0 NaN 1541.074148296591 0.5006353864904677 517.0 1.0 370.0 
208.00013616486942 50776.0 NaN 1541.0447561790247 0.49998739292863 518.0 1.0 370.0 
210.00013616486942 50765.0 NaN 1531.9732798931184 0.5008284164930997 522.0 0.0 368.0 
212.00013616486942 50726.0 NaN 1534.952571810288 0.5002314317644212 520.0 2.0 367.0 
214.00013616486942 50707.0 NaN 1531.871743486973 0.5004304660207698 516.0 1.0 367.0 
216.000084666035 50717.0 NaN 1531.9038076152299 0.5023881274275787 515.0 1.0 367.0 
218.00013616486942 50668.0 NaN 1528.710754843018 0.5013385740066304 515.0 0.0 367.0 
220.00013616486942 50652.0 NaN 1528.70808283233 0.502579361845453 513.0 1.0 366.0 
222.00013616486942 50603.0 NaN 1528.5931863727455 0.5008181556496126 513.0 0.0 367.0 
224.00013616486942 50584.0 NaN 1528.5450901803613 0.5024504931050352 514.0 1.0 366.0 
226.000084666035 50605.0 NaN 1528.553106212425 0.5057950745057783 514.0 0.0 367.0 
228.00013616486942 50567.0 NaN 1531.7060788243155 0.5007295648780504 513.0 1.0 367.0 
230.00013616486942 50546.0 NaN 1531.7274549098183 0.5013777768929353 514.0 0.0 368.0 
232.00013616486942 50531.0 NaN 1534.9605878423517 0.5005500733373927 513.0 1.0 368.0 
234.00013616486942 50524.0 NaN 1538.1509686038728 0.501408051884308 513.0 0.0 370.0 
236.000084666035 50618.0 NaN 1541.1489645958575 0.501033028036075 515.0 1.0 370.0 
238.00013616486942 50588.0 NaN 1537.9532398129609 0.501035268904504 514.0 0.0 370.0 
240.00013616486942 50572.0 NaN 1531.8663994655997 0.5024409160843734 514.0 1.0 367.0 
242.00013616486942 50534.0 NaN 1534.936539746158 0.5004938080949034 514.0 0.0 369.0 
244.00013616486942 50524.0 NaN 1534.8857715430852 0.50015656444546 516.0 1.0 368.0 
246.000084666035 50562.0 NaN 1534.7815631262542 0.5000865494710449 516.0 0.0 369.0 
248.00013616486942 50555.0 NaN 1528.6653306613216 0.5004613501555513 515.0 1.0 366.0 
250.00013616486942 50514.0 NaN 1528.6813627254517 0.500410151064538 514.0 0.0 367.0 
252.00013616486942 50489.0 NaN 1525.6726786907152 0.5000594021334812 514.0 1.0 365.0 
254.00013616486942 50472.0 NaN 1525.5310621242481 0.5004906048052555 512.0 0.0 366.0 
256.00008466603504 50494.0 NaN 1525.5978623914484 0.4999052793785244 515.0 1.0 365.0 
258.00013616486945 50492.0 NaN 1525.5444221776904 0.5009843430279568 514.0 1.0 365.0 
260.00013616486945 50475.0 NaN 1525.5203740814973 0.5007933112827384 516.0 0.0 366.0 
262.00013616486945 50447.0 NaN 1528.7241148964608 0.49992191941251063 517.0 0.0 367.0 
264.00013616486945 50424.0 NaN 1528.8149632598543 0.501261867235853 516.0 1.0 366.0 
266.00008466603504 50439.0 NaN 1538.1643286573155 0.5010755653459327 513.0 0.0 370.0 
268.00013616486945 50337.0 NaN 1538.076152304609 0.5022060326609403 513.0 1.0 369.0 
270.00013616486945 50276.0 NaN 1535.0647962591845 0.5034017993334232 512.0 1.0 368.0 
272.00013616486945 50221.0 NaN 1531.8156312625272 0.5001420873984604 512.0 0.0 368.0 
274.00013616486945 50177.0 NaN 1531.7969271877091 0.4997970656100348 513.0 0.0 368.0 
276.00008466603504 50184.0 NaN 1528.5691382765544 0.500224681421868 512.0 1.0 366.0 
278.00013616486945 50151.0 NaN 1537.7501670006668 0.5014380673901568 514.0 0.0 370.0 
280.00013616486945 50115.0 NaN 1537.6406145624571 0.5014709189800617 514.0 1.0 369.0 
282.00013616486945 50088.0 NaN 1534.5891783567115 0.5005502297299236 513.0 1.0 368.0 
284.00013616486945 50039.0 NaN 1534.74148296593 0.5002257091041666 513.0 0.0 369.0 
286.00008466603504 50015.0 NaN 1534.8350033400116 0.5016282770962729 514.0 0.0 369.0 
288.00013616486945 49981.0 NaN 1534.8537074148292 0.5016309858787036 513.0 1.0 368.0 
290.00013616486945 49929.0 NaN 1534.7494989979973 0.5023085349176147 512.0 0.0 369.0 
292.00013616486945 49865.0 NaN 1534.8296593186365 0.5004279199494571 512.0 1.0 368.0 
294.00013616486945 49839.0 NaN 1534.757515030061 0.5003717840382893 511.0 1.0 368.0 
296.00008466603504 49824.0 NaN 1537.8196392785567 0.5005827990521533 512.0 0.0 370.0 
298.00013616486945 49786.0 NaN 1537.8784235136934 0.5024264127563575 512.0 0.0 370.0 
300.00013616486945 49739.0 NaN 1537.9612558450247 0.5035673091171509 508.0 2.0 368.0 
302.00013616486945 49703.0 NaN 1537.9746158984635 0.5002069414480914 508.0 2.0 368.0 
304.00013616486945 49670.0 NaN 1534.8456913827638 0.5001985731858773 507.0 1.0 368.0 
306.00008466603504 49642.0 NaN 1534.8563794255183 0.500176852057714 509.0 1.0 368.0 
308.00013616486945 49620.0 NaN 1531.7087508350025 0.5012623044307687 507.0 2.0 366.0 
310.00013616486945 49590.0 NaN 1534.784235136939 0.5015132361011198 507.0 1.0 368.0 
312.00013616486945 49531.0 NaN 1531.655310621243 0.5006065545459452 505.0 1.0 367.0 
314.00013616486945 49488.0 NaN 1534.5731462925846 0.5022204376469628 504.0 2.0 367.0 
316.00008466603504 49460.0 NaN 1537.6700066800274 0.5005449829001644 509.0 1.0 369.0 
318.00013616486945 49430.0 NaN 1537.6593186372727 0.5000089203829924 509.0 1.0 369.0 
320.00013616486945 49429.0 NaN 1537.8223112892456 0.5007960113353543 506.0 2.0 368.0 
322.00013616486945 49395.0 NaN 1541.0207080828336 0.5010404638016014 507.0 1.0 370.0 
324.00013616486945 49346.0 NaN 1541.0340681362727 0.5014224548504633 507.0 0.0 371.0 
326.00008466603504 49313.0 NaN 1540.9752839011364 0.5007325042467733 507.0 1.0 370.0 
328.00013616486945 49286.0 NaN 1537.8597194388792 0.5001428756321116 506.0 1.0 369.0 
330.00013616486945 49289.0 NaN 1541.002004008018 0.5009012458151988 507.0 0.0 371.0 
332.00013616486945 49257.0 NaN 1540.9752839011364 0.4996370302706546 506.0 1.0 370.0 
334.00013616486945 49254.0 NaN 1537.9612558450244 0.5026780407646813 507.0 1.0 369.0 
336.00008466603504 49259.0 NaN 1531.7408149632606 0.5011451462716693 508.0 0.0 368.0 
338.00013616486945 49226.0 NaN 1531.692718770875 0.5005320651600704 509.0 1.0 367.0 
340.00013616486945 49212.0 NaN 1528.5504342017364 0.5016285791170082 509.0 1.0 366.0 
342.00013616486945 49188.0 NaN 1528.5210420841693 0.5001386215028649 510.0 0.0 367.0 
344.00013616486945 49183.0 NaN 1528.6012024048089 0.500899213405569 510.0 0.0 367.0 
346.00008466603504 49171.0 NaN 1531.6045424181702 0.5007137759945334 509.0 2.0 366.0 
348.00013616486945 49134.0 NaN 1528.5584502337997 0.5001314314942692 508.0 0.0 367.0 
350.00013616486945 49119.0 NaN 1525.4402137608542 0.501845835031448 511.0 1.0 365.0 
352.00013616486945 49115.0 NaN 1525.5257181028728 0.5002457512619909 514.0 1.0 365.0 
354.00013616486945 49108.0 NaN 1525.4856379425523 0.5018267812686521 516.0 0.0 366.0 
356.00008466603504 49076.0 NaN 1525.5978623914484 0.5008463888086319 514.0 1.0 365.0 
358.00013616486945 49056.0 NaN 1525.6539746158994 0.5007355859536609 512.0 1.0 365.0 
360.00013616486945 49045.0 NaN 1528.6733466933879 0.5006174258370504 514.0 0.0 367.0 
362.00013616486945 49025.0 NaN 1528.6412825651298 0.5001381086119595 515.0 1.0 366.0 
364.00013616486945 49012.0 NaN 1525.509686038745 0.5004779601889618 514.0 1.0 365.0 
366.00008466603504 49038.0 NaN 1503.9331997328 0.5012675133224151 517.0 0.0 359.0 
368.00013616486945 49029.0 NaN 1500.921843687374 0.501535150976327 515.0 0.0 358.0 
370.00013616486945 49009.0 NaN 1510.0654642618567 0.5019725086506172 514.0 1.0 360.0 
372.00013616486945 48969.0 NaN 1510.0467601870396 0.5003293843745598 514.0 0.0 361.0 
374.00013616486945 48943.0 NaN 1510.0467601870396 0.5017873551500304 514.0 1.0 360.0 
376.00008466603504 48943.0 NaN 1510.0521042084174 0.5011098498460316 515.0 1.0 360.0 
378.00013616486945 48927.0 NaN 1510.0895123580488 0.501107983176055 518.0 0.0 361.0 
380.00013616486945 48906.0 NaN 1510.0921843687363 0.5023884029615466 515.0 1.0 360.0 
382.00013616486945 48860.0 NaN 1506.931195724782 0.5003765327492131 514.0 1.0 359.0 
384.00013616486945 48850.0 NaN 1513.0554442217758 0.4997307177745803 518.0 0.0 362.0 
386.00008466603504 48862.0 NaN 1525.3814295257184 0.500842332127351 518.0 1.0 365.0 
388.00013616486945 48839.0 NaN 1510.1589846359373 0.5017798184057534 518.0 0.0 361.0 
390.00013616486945 48807.0 NaN 1510.257849031397 0.5007979573491378 514.0 2.0 359.0 
392.00013616486945 48770.0 NaN 1513.3413493653977 0.5004056777021865 515.0 1.0 361.0 
394.00013616486945 48750.0 NaN 1513.2959251837 0.4997456988657766 516.0 1.0 361.0 
396.00008466603504 48765.0 NaN 1513.2077488309944 0.5009410516086679 517.0 2.0 360.0 
398.00013616486945 48724.0 NaN 1510.0387441549758 0.5028581415262766 519.0 1.0 360.0 
400.00013616486945 48675.0 NaN 1513.0981963927848 0.5023713794497711 519.0 1.0 361.0 
402.00013616486945 48624.0 NaN 1513.1062124248485 0.5003580388878925 519.0 2.0 360.0 
404.00013616486945 48622.0 NaN 1519.3907815631273 0.5020533888751675 519.0 1.0 363.0 
406.00008466603504 48617.0 NaN 1522.3112892451568 0.500595614661427 522.0 0.0 365.0 
408.00013616486945 48623.0 NaN 1522.4048096192369 0.5020183053282636 520.0 1.0 364.0 
410.00013616486945 48601.0 NaN 1525.528390113561 0.5019142231387501 520.0 1.0 365.0 
412.00013616486945 48580.0 NaN 1525.6138944555787 0.5002372789826128 522.0 0.0 366.0 
414.00013616486945 48567.0 NaN 1525.5123580494333 0.49985865448260386 526.0 1.0 365.0 
416.00008466603504 48580.0 NaN 1525.5711422845698 0.5001951327188403 527.0 1.0 365.0 
418.00013616486945 48577.0 NaN 1525.5845023380089 0.50029341459232 527.0 0.0 366.0 
420.00013616486945 48561.0 NaN 1513.271877087509 0.5023267688366124 527.0 1.0 361.0 
422.00013616486945 48537.0 NaN 1510.1429525718092 0.5002659932803718 526.0 2.0 359.0 
424.00013616486945 48535.0 NaN 1504.021376085504 0.4997223377256688 523.0 0.0 359.0 
426.00008466603504 48554.0 NaN 1513.1462925851706 0.5004616852699404 518.0 1.0 361.0 
428.00013616486945 48554.0 NaN 1503.9839679358724 0.500450653053235 517.0 1.0 358.0 
430.00013616486945 48566.0 NaN 1503.7969271877091 0.5022798075695561 519.0 0.0 359.0 
432.00013616486945 48526.0 NaN 1500.8737474949905 0.5003686841556876 519.0 1.0 357.0 
434.00013616486945 48503.0 NaN 1503.8049432197727 0.500066546375819 521.0 0.0 359.0 
436.00008466603504 48491.0 NaN 1516.197728790916 0.5004257094401906 524.0 2.0 361.0 
438.00013616486945 48502.0 NaN 1519.1128924515706 0.4999881732977794 521.0 5.0 359.0 
440.00013616486945 48502.0 NaN 1516.1816967267878 0.5035364664547496 523.0 2.0 361.0 
442.00013616486945 48484.0 NaN 1516.1362725450908 0.5006360159136276 526.0 0.0 363.0 
444.00013616486945 48473.0 NaN 1525.4989979959907 0.5028325665058012 525.0 1.0 365.0 
446.00008466603504 48450.0 NaN 1528.649298597194 0.49974511182628484 525.0 4.0 363.0 
448.00013616486945 48461.0 NaN 1534.8724114896452 0.5003519556383947 528.0 2.0 367.0 
450.00013616486945 48453.0 NaN 1543.9973279893115 0.5050091534298088 528.0 2.0 370.0 
452.00013616486945 48425.0 NaN 1546.9739478957908 0.499902452888608 528.0 2.0 371.0 
454.00013616486945 48432.0 NaN 1546.7975951903818 0.501816486760932 528.0 1.0 372.0 
456.00008466603504 48399.0 NaN 1549.9318637274544 0.5002973447055246 529.0 0.0 374.0 
458.00013616486945 48392.0 NaN 1546.8483633934545 0.500009472093401 528.0 1.0 372.0 
460.00013616486945 48392.0 NaN 1546.9659318637273 0.5008363212457054 527.0 0.0 373.0 
462.00013616486945 48374.0 NaN 1546.9231796927181 0.500160987734998 528.0 0.0 373.0 
464.00013616486945 48377.0 NaN 1546.9205076820303 0.5005610929095532 528.0 0.0 373.0 
466.00008466603504 48353.0 NaN 1543.842351369406 0.5000528560532457 528.0 1.0 371.0 
468.00013616486945 48345.0 NaN 1540.8229792919183 0.5001771044047948 529.0 0.0 371.0 
470.00013616486945 48356.0 NaN 1543.858383433534 0.5021670952947895 524.0 0.0 372.0 
472.00013616486945 48349.0 NaN 1531.6072144288569 0.4998669786562181 524.0 0.0 368.0 
474.00013616486945 48356.0 NaN 1528.3633934535726 0.5000982954983865 521.0 0.0 367.0 
476.00008466603504 48344.0 NaN 1525.4589178356723 0.49982963564880634 519.0 0.0 366.0 
478.00013616486945 48367.0 NaN 1522.3674014696069 0.4995021831126098 520.0 0.0 365.0 
480.00013616486945 48366.0 NaN 1525.5657982631915 0.5010452461071977 519.0 0.0 366.0 
482.00013616486945 48357.0 NaN 1522.4181696726794 0.49951019910482586 519.0 0.0 365.0 
484.00013616486945 48401.0 NaN 1513.2237808951245 0.5001285417839756 519.0 0.0 362.0 
486.00008466603504 48411.0 NaN 1510.0200400801614 0.4998663686819167 518.0 0.0 361.0 
488.00013616486945 48430.0 NaN 1497.766199064797 0.5004051984862475 516.0 0.0 357.0 
490.00013616486945 48429.0 NaN 1497.6887107548437 0.5018503317406208 518.0 0.0 357.0 
492.00013616486945 48425.0 NaN 1491.6606546426183 0.5015729388208462 519.0 0.0 355.0 
494.00013616486945 48427.0 NaN 1497.683366733466 0.5003993174138315 513.0 0.0 357.0 
496.00008466603504 48485.0 NaN 1494.7548430193726 0.5009248640626188 510.0 1.0 355.0 
498.00013616486945 48505.0 NaN 1494.6559786239154 0.5005236266586001 511.0 1.0 355.0 
500.00013616486945 48499.0 NaN 1494.794923179692 0.5004928634271243 511.0 0.0 356.0 
502.00013616486945 48502.0 NaN 1488.4996659986637 0.4994248306652665 516.0 1.0 353.0 
504.00013616486945 48497.0 NaN 1485.5604542418175 0.5019680945133483 515.0 2.0 351.0 
506.00008466603504 48561.0 NaN 1488.6199064796267 0.49916245264070797 511.0 4.0 350.0 
508.00013616486945 48571.0 NaN 1488.6653306613218 0.5009773561821408 512.0 2.0 352.0 
510.00013616486945 48607.0 NaN 1491.711422845691 0.5008569677672575 511.0 1.0 354.0 
512.0001361648694 48578.0 NaN 1494.7895791583173 0.499803952990832 510.0 2.0 354.0 
514.0001361648694 48565.0 NaN 1494.7708750835 0.5003831238623733 508.0 5.0 351.0 
516.000084666035 48608.0 NaN 1491.79425517702 0.5001864248453318 511.0 2.0 353.0 
518.0001361648694 48608.0 NaN 1479.5003340013363 0.49938232216228734 507.0 1.0 350.0 
520.0001361648694 48628.0 NaN 1473.4268537074156 0.5009069846595058 510.0 2.0 347.0 
522.0001361648694 48616.0 NaN 1473.3787575150293 0.500224454768171 507.0 5.0 344.0 
524.0001361648694 48591.0 NaN 1457.9398797595186 0.5004753318501765 503.0 2.0 342.0 
526.000084666035 48622.0 NaN 1457.8677354709428 0.5005285439910484 503.0 1.0 343.0 
528.0001361648694 48628.0 NaN 1458.0093520374087 0.5009027896100738 503.0 2.0 342.0 
530.0001361648694 48632.0 NaN 1460.9378757515024 0.5013085907543761 502.0 5.0 340.0 
532.0001361648694 48635.0 NaN 1464.152304609218 0.5007824440812887 509.0 2.0 344.0 
534.0001361648694 48614.0 NaN 1460.935203740816 0.502553528987613 508.0 1.0 344.0 
536.000084666035 48634.0 NaN 1467.1770207080822 0.5018866587646754 510.0 2.0 345.0 
538.0001361648694 48638.0 NaN 1467.1877087508356 0.5004232913930987 508.0 4.0 343.0 
540.0001361648694 48631.0 NaN 1467.2945891783559 0.5021668689051084 510.0 1.0 346.0 
542.0001361648694 48647.0 NaN 1467.2090848363387 0.5008889137394326 512.0 0.0 347.0 
544.0001361648694 48604.0 NaN 1473.4749498998 0.4999956844208212 515.0 0.0 349.0 
546.000084666035 48633.0 NaN 1473.3653974615904 0.5002808871535322 514.0 0.0 349.0 
548.0001361648694 48641.0 NaN 1473.426853707415 0.5005383314946952 514.0 0.0 349.0 
550.0001361648694 48648.0 NaN 1467.2010688042749 0.5011987692328976 513.0 0.0 347.0 
552.0001361648694 48663.0 NaN 1473.266533066133 0.501408555921869 518.0 1.0 348.0 
554.0001361648694 48617.0 NaN 1476.2912491649972 0.5016796801848054 521.0 0.0 350.0 
556.000084666035 48618.0 NaN 1476.4462257849027 0.4992782906737654 521.0 0.0 350.0 
558.0001361648694 48670.0 NaN 1476.3233132932537 0.5001757170783128 518.0 0.0 350.0 
560.0001361648694 48694.0 NaN 1464.056112224449 0.5015200548754404 513.0 0.0 346.0 
562.0001361648694 48717.0 NaN 1463.9305277221101 0.5005524440702371 508.0 1.0 345.0 
564.0001361648694 48705.0 NaN 1467.166332665331 0.5021577135252921 508.0 2.0 345.0 
566.000084666035 48703.0 NaN 1470.0841683366727 0.5001978133274377 507.0 4.0 344.0 
568.0001361648694 48756.0 NaN 1476.3233132932537 0.500794029297078 515.0 1.0 349.0 
570.0001361648694 48775.0 NaN 1476.2484969939883 0.49966351317097973 519.0 0.0 350.0 
572.0001361648694 48835.0 NaN 1476.3366733466933 0.5030206883259383 517.0 1.0 349.0 
574.0001361648694 48812.0 NaN 1479.4709418837672 0.5009115622238587 515.0 4.0 347.0 
576.000084666035 48744.0 NaN 1488.7321309285244 0.4988599372645654 519.0 3.0 351.0 
578.0001361648694 48774.0 NaN 1485.6486305945216 0.4987802272954536 521.0 1.0 352.0 
580.0001361648694 48789.0 NaN 1485.584502338009 0.5000744758378327 522.0 2.0 351.0 
582.0001361648694 48788.0 NaN 1485.6032064128262 0.5014277392754164 517.0 5.0 348.0 
584.0001361648694 48771.0 NaN 1482.4956579826328 0.5032774856039498 525.0 2.0 350.0 
586.000084666035 48743.0 NaN 1482.479625918503 0.49956354831320526 524.0 1.0 351.0 
588.0001361648694 48766.0 NaN 1485.5604542418173 0.4993341291873254 523.0 2.0 351.0 
590.0001361648694 48794.0 NaN 1488.6599866399458 0.5012375496564241 521.0 5.0 349.0 
592.0001361648694 48790.0 NaN 1491.631262525051 0.5003896080258614 525.0 2.0 353.0 
594.0001361648694 48785.0 NaN 1488.5424181696726 0.5009566504321896 528.0 0.0 354.0 
596.000084666035 48752.0 NaN 1488.6118904475622 0.4994610827000203 527.0 2.0 352.0 
598.0001361648694 48790.0 NaN 1479.3213092852368 0.50013309224414 524.0 5.0 346.0 
600.0001361648694 48813.0 NaN 1485.4535738142945 0.501528046729073 528.0 2.0 351.0 
602.0001361648694 48817.0 NaN 1482.2979291917172 0.4999539625047206 528.0 1.0 351.0 
604.0001361648694 48823.0 NaN 1482.3967935871738 0.5006539212115899 526.0 2.0 350.0 
606.000084666035 48773.0 NaN 1488.571810287242 0.5000278234041072 521.0 6.0 348.0 
608.0001361648694 48790.0 NaN 1491.6873747494997 0.4996816788032834 527.0 2.0 353.0 
610.0001361648694 48817.0 NaN 1497.7955911823638 0.5005476868894113 527.0 1.0 356.0 
612.0001361648694 48827.0 NaN 1497.8383433533727 0.5000962518669875 528.0 2.0 355.0 
614.0001361648694 48823.0 NaN 1497.8196392785565 0.4996878040661523 524.0 5.0 352.0 
616.000084666035 48816.0 NaN 1494.8082832331336 0.5004064292984494 527.0 2.0 354.0 
618.0001361648694 48789.0 NaN 1491.6018704074818 0.5026212934842351 527.0 1.0 354.0 
620.0001361648694 48773.0 NaN 1500.8977955911816 0.502270216749007 527.0 2.0 356.0 
622.0001361648694 48750.0 NaN 1500.9084836339352 0.5006297527606142 523.0 5.0 353.0 
624.0001361648694 48731.0 NaN 1504.0908483633928 0.5007143147470802 523.0 2.0 357.0 
626.000084666035 48729.0 NaN 1507.1396125584515 0.4997837314695372 526.0 1.0 359.0 
628.0001361648694 48738.0 NaN 1510.2444889779554 0.5010551483712846 528.0 3.0 358.0 
630.0001361648694 48731.0 NaN 1510.2204408817638 0.5006364487626243 524.0 6.0 355.0 
632.0001361648694 48709.0 NaN 1513.18904475618 0.5006086002456752 524.0 3.0 359.0 
634.0001361648694 48683.0 NaN 1516.2324649298607 0.5005117907264566 524.0 2.0 361.0 
636.000084666035 48662.0 NaN 1516.248496993989 0.4996316420416671 526.0 3.0 360.0 
638.0001361648694 48703.0 NaN 1516.3446893787566 0.5008625605603365 523.0 5.0 358.0 
640.0001361648694 48690.0 NaN 1513.3466933867728 0.500604907572261 525.0 4.0 358.0 
642.0001361648694 48689.0 NaN 1513.2959251837 0.5014821430205622 525.0 2.0 360.0 
644.0001361648694 48671.0 NaN 1510.2631930527727 0.5006497243427941 522.0 1.0 360.0 
646.000084666035 48640.0 NaN 1510.1536406145635 0.5001545339057255 524.0 1.0 360.0 
648.0001361648694 48648.0 NaN 1516.3954575818293 0.5025069403675166 525.0 1.0 362.0 
650.0001361648694 48616.0 NaN 1519.3587174348709 0.5015932873515933 521.0 2.0 362.0 
652.0001361648694 48614.0 NaN 1516.2778891115559 0.501996597777764 520.0 2.0 361.0 
654.0001361648694 48622.0 NaN 1516.3286573146286 0.5015290870667685 522.0 0.0 363.0 
656.000084666035 48617.0 NaN 1516.4034736138938 0.4992086968332358 519.0 2.0 361.0 
658.0001361648694 48665.0 NaN 1525.6272545090183 0.5008427530566322 518.0 1.0 365.0 
660.0001361648694 48642.0 NaN 1531.8236472945898 0.4996766304808563 513.0 2.0 366.0 
662.0001361648694 48628.0 NaN 1531.775551102203 0.50119159517178 511.0 5.0 363.0 
664.0001361648694 48605.0 NaN 1531.8770875083485 0.5012161556852778 516.0 2.0 366.0 
#####################################################################
# End of data export. Simulation finished at: 2019-03-06T02:41+0000 #
#####################################################################
