#####################################################################
# Alchemist log file - simulation started at: 2019-03-02T12:37+0000 #
#####################################################################
# seed = 0.0, bandwidth = 5623413.251903491, propagationDelay = 1.0, baserange = 316.2277660168379
#
# The columns have the following meaning: 
# time neighbor_count[Sum] <value>@neighbor_count[Sum] packet_size[Mean] mean_delay[Mean] crowd[Sum] overcrowded[Sum] risk[Sum] 
0.0 NaN NaN NaN NaN NaN NaN NaN 
10.00022733547309 51289.0 NaN 4994.070808283233 1.0063450326908523 1495.0 2.0 1495.0 
20.00022733547309 51323.0 NaN 4994.0521042084165 1.0071214587856718 1495.0 2.0 1495.0 
30.00022733547309 51351.0 NaN 4994.0521042084165 1.005945421252232 1495.0 2.0 1495.0 
40.00022733547309 51356.0 NaN 4994.081496325985 1.0077563288245026 1495.0 2.0 1495.0 
50.00022733547309 51351.0 NaN 4994.092184368737 1.006513679256563 1495.0 2.0 1495.0 
60.00022733547309 51385.0 NaN 4994.113560454241 1.00903033281933 1494.0 3.0 1494.0 
70.00040553626063 51465.0 NaN 1528.1523046092182 1.0054919054838236 547.0 2.0 365.0 
80.00040553626063 51475.0 NaN 1537.3787575150297 1.0040881032574818 527.0 2.0 368.0 
90.00040553626063 51524.0 NaN 1537.3466933867726 1.0045232452538542 525.0 2.0 368.0 
100.00040553626063 51531.0 NaN 1540.3901135604547 1.0047579690864121 524.0 2.0 369.0 
110.00040553626063 51471.0 NaN 1540.3981295925182 1.0046856350728688 525.0 2.0 369.0 
120.00040553626063 51510.0 NaN 1540.4248496994 1.0045815304561303 527.0 2.0 369.0 
130.00040553626064 51462.0 NaN 1537.3146292585184 1.0043840876483077 525.0 2.0 368.0 
140.00040553626064 51400.0 NaN 1531.2171008684031 1.004603988514779 523.0 2.0 366.0 
150.00040553626064 51339.0 NaN 1534.2925851703396 1.004743329575759 519.0 2.0 367.0 
160.00040553626064 51231.0 NaN 1531.246492985973 1.0052047394940704 518.0 2.0 366.0 
170.00040553626064 51086.0 NaN 1537.3627254509001 1.004939743513451 518.0 2.0 368.0 
180.00040553626064 50970.0 NaN 1531.2358049432182 1.0058847748208612 520.0 2.0 366.0 
190.00040553626064 50896.0 NaN 1531.2625250501 1.0059964720430365 517.0 2.0 366.0 
200.00040553626064 50819.0 NaN 1537.4054776219093 1.0058473911984804 518.0 2.0 368.0 
210.00040553626064 50739.0 NaN 1531.283901135603 1.0056370562745962 513.0 2.0 366.0 
220.00040553626064 50651.0 NaN 1528.1950567802273 1.007890101113254 513.0 2.0 365.0 
230.00040553626064 50566.0 NaN 1531.2117568470271 1.00814774617276 511.0 2.0 366.0 
240.00040553626064 50550.0 NaN 1528.1416165664662 1.00825562414833 510.0 2.0 365.0 
250.00040553626064 50492.0 NaN 1525.0340681362727 1.006048999489341 512.0 2.0 364.0 
260.00040553626064 50455.0 NaN 1525.0688042752183 1.0073588040372923 512.0 2.0 364.0 
270.00040553626064 50301.0 NaN 1531.2571810287245 1.0083147310964362 511.0 2.0 366.0 
280.00040553626064 50108.0 NaN 1537.2798931195728 1.0069597171730271 514.0 2.0 368.0 
290.00040553626064 49907.0 NaN 1531.1609886439546 1.007348825414153 509.0 2.0 366.0 
300.00040553626064 49732.0 NaN 1531.152972611891 1.0080478280013434 507.0 2.0 366.0 
310.00040553626064 49581.0 NaN 1528.098864395457 1.0072361098374327 505.0 2.0 365.0 
320.00040553626064 49417.0 NaN 1534.2284569138271 1.0057737564480613 507.0 2.0 367.0 
330.00040553626064 49261.0 NaN 1534.1963927855725 1.0060651204987938 506.0 2.0 367.0 
340.00040553626064 49219.0 NaN 1531.1583166332662 1.0078997826524474 509.0 2.0 366.0 
350.00040553626064 49144.0 NaN 1531.1396125584515 1.0079532884983915 514.0 2.0 366.0 
360.00040553626064 49041.0 NaN 1524.9806279225115 1.0078428987157946 513.0 2.0 364.0 
370.00040553626064 48986.0 NaN 1506.5624582498333 1.0079527050670696 515.0 2.0 358.0 
380.00040553626064 48890.0 NaN 1509.563126252506 1.0084770256687976 516.0 2.0 359.0 
390.00040553626064 48820.0 NaN 1509.6165664662644 1.0088267014730208 515.0 2.0 359.0 
400.00040553626064 48706.0 NaN 1506.5277221108888 1.0111129153103982 517.0 2.0 358.0 
410.00040553626064 48571.0 NaN 1518.8537074148294 1.0085194661676282 521.0 2.0 362.0 
420.00040553626064 48554.0 NaN 1512.7027388109545 1.0084864964830307 514.0 2.0 360.0 
430.00040553626064 48552.0 NaN 1500.3233132932537 1.00767609925311 512.0 2.0 356.0 
440.00040553626064 48498.0 NaN 1512.6653306613218 1.0091853016785886 519.0 2.0 360.0 
450.00040553626064 48466.0 NaN 1534.1349365397455 1.0109035024366986 526.0 2.0 367.0 
460.00040553626064 48407.0 NaN 1540.3233132932544 1.0098025882954809 524.0 2.0 369.0 
470.00040553626064 48351.0 NaN 1531.0968603874423 1.0100611818225316 518.0 2.0 366.0 
480.00040553626064 48347.0 NaN 1518.7708750835 1.007866228158732 514.0 2.0 362.0 
490.00040553626064 48414.0 NaN 1497.2291249165 1.010246316398553 510.0 2.0 355.0 
500.00040553626064 48500.0 NaN 1491.1128924515706 1.009350294458737 506.0 3.0 352.0 
510.00040553626064 48563.0 NaN 1494.2605210420836 1.0086718355783604 509.0 2.0 354.0 
520.0004055362606 48617.0 NaN 1475.8129592518364 1.0086069299163698 498.0 11.0 339.0 
530.0004055362606 48646.0 NaN 1451.2464929859723 1.009610582335584 492.0 11.0 331.0 
540.0004055362606 48614.0 NaN 1466.637274549099 1.0103931189455813 491.0 11.0 336.0 
550.0004055362606 48628.0 NaN 1466.5784903139615 1.007053217101009 496.0 11.0 336.0 
560.0004055362606 48681.0 NaN 1466.5704742818978 1.0078859319922129 497.0 11.0 336.0 
570.0004055362606 48766.0 NaN 1472.7641950567806 1.0082422483415014 496.0 10.0 339.0 
580.0004055362606 48786.0 NaN 1472.7668670674689 1.0101244854481155 502.0 10.0 339.0 
590.0004055362606 48784.0 NaN 1469.648630594522 1.009339808015504 505.0 10.0 338.0 
600.0004055362606 48797.0 NaN 1488.0881763527061 1.009884115242707 514.0 10.0 344.0 
610.0004055362606 48784.0 NaN 1497.3119572478286 1.0091024334876464 516.0 10.0 347.0 
620.0004055362606 48826.0 NaN 1497.3573814295262 1.0107513674140831 514.0 10.0 347.0 
630.0004055362606 48692.0 NaN 1509.6726786907152 1.0097328159958674 509.0 10.0 351.0 
640.0004055362606 48663.0 NaN 1506.607882431529 1.0112563212731303 516.0 11.0 349.0 
650.0004055362606 48621.0 NaN 1521.993319973281 1.0119225784886816 506.0 10.0 355.0 
660.0004055362606 48614.0 NaN 1525.0634602538419 1.0086429534608836 505.0 10.0 356.0 
#####################################################################
# End of data export. Simulation finished at: 2019-03-02T12:57+0000 #
#####################################################################
