#####################################################################
# Alchemist log file - simulation started at: 2019-03-07T01:21+0000 #
#####################################################################
# seed = 4.0, bandwidth = 2.3713737056616552E7, propagationDelay = 0.1, baserange = 1000.0
#
# The columns have the following meaning: 
# time neighbor_count[Sum] <value>@neighbor_count[Sum] packet_size[Mean] mean_delay[Mean] crowd[Sum] overcrowded[Sum] risk[Sum] 
0.0 NaN NaN NaN NaN NaN NaN NaN 
2.0004793365590676 208838.0 NaN 4995.011356045424 0.4983134312860003 1497.0 0.0 1497.0 
4.00042902272939 210022.0 NaN 4993.832999331998 0.5008808309658284 1496.0 1.0 1496.0 
6.000479336559067 210022.0 NaN 4994.191048764195 0.5008807977117228 1495.0 2.0 1495.0 
8.000479336559067 210022.0 NaN 4994.450233800935 0.5008807784750565 1494.0 3.0 1494.0 
10.000479336559067 210023.0 NaN 4995.655310621242 0.5008813118800424 1495.0 2.0 1495.0 
12.000479336559067 210034.0 NaN 4995.406813627254 0.5008872420282705 1496.0 1.0 1496.0 
14.00042902272939 210034.0 NaN 4994.530394121576 0.5008872420732059 1494.0 3.0 1494.0 
16.000479336559067 210047.0 NaN 4994.658650634603 0.5009338249545454 1496.0 1.0 1496.0 
18.000479336559067 210064.0 NaN 4995.607214428857 0.50107961404646 1496.0 1.0 1496.0 
20.000479336559067 210068.0 NaN 4995.63126252505 0.5012601866388701 1495.0 2.0 1495.0 
22.000479336559067 210074.0 NaN 4994.712090848363 0.501031751608736 1495.0 2.0 1495.0 
24.000429022729392 210103.0 NaN 4994.618570474282 0.5013967696635352 1496.0 1.0 1496.0 
26.000479336559067 210122.0 NaN 4994.351369405477 0.5009981589627475 1495.0 2.0 1495.0 
28.000479336559067 210142.0 NaN 4995.2651970607885 0.5013890393873021 1497.0 0.0 1497.0 
30.000479336559067 210119.0 NaN 4996.38209752839 0.5009206084388734 1497.0 0.0 1497.0 
32.00047933655907 210131.0 NaN 4994.808283233133 0.500921018111693 1497.0 0.0 1497.0 
34.00042902272939 210172.0 NaN 4994.284569138276 0.5010261630921051 1497.0 0.0 1497.0 
36.00047933655907 210208.0 NaN 4994.925851703407 0.50090330623074 1497.0 0.0 1497.0 
38.00047933655907 210263.0 NaN 4995.064796259185 0.501259554870167 1496.0 1.0 1496.0 
40.00047933655907 210262.0 NaN 4996.056112224449 0.5012513672837152 1497.0 0.0 1497.0 
42.00047933655907 210258.0 NaN 4995.54843019372 0.5009196024137248 1497.0 0.0 1497.0 
44.00042902272939 210276.0 NaN 4994.228456913827 0.5009898799175226 1497.0 0.0 1497.0 
46.00047933655907 210297.0 NaN 4994.340681362725 0.5009112848524334 1497.0 0.0 1497.0 
48.00047933655907 210341.0 NaN 4995.302605210421 0.5011229774196674 1496.0 1.0 1496.0 
50.00047933655907 210344.0 NaN 4995.663326653306 0.5017834700203547 1497.0 0.0 1497.0 
52.00047933655907 210361.0 NaN 4994.928523714095 0.5016001018739462 1497.0 0.0 1497.0 
54.00042902272939 210327.0 NaN 4994.936539746159 0.5015202215959591 1497.0 0.0 1497.0 
56.00047933655907 210342.0 NaN 4994.599866399466 0.5010012771571973 1496.0 1.0 1496.0 
58.00047933655907 210358.0 NaN 4995.139612558451 0.5012677597498212 1497.0 0.0 1497.0 
60.00047933655907 210353.0 NaN 4993.034068136272 0.5013248941809995 1497.0 0.0 1496.0 
62.00030551013021 210390.0 NaN 1522.5223780895117 0.502081762244648 788.0 0.0 365.0 
64.0003055101302 210291.0 NaN 1522.426185704743 0.5012056366578398 632.0 1.0 364.0 
66.0003055101302 210298.0 NaN 1525.5631262525062 0.5011133045467356 584.0 3.0 363.0 
68.0003055101302 210334.0 NaN 1525.6726786907152 0.5014756552649554 557.0 3.0 363.0 
70.0003055101302 210281.0 NaN 1525.766199064797 0.5014927509320173 543.0 3.0 363.0 
72.0003055101302 210319.0 NaN 1528.873747494991 0.5013760183514074 532.0 3.0 364.0 
74.0003055101302 210292.0 NaN 1531.7915831663333 0.5011030949249987 528.0 3.0 365.0 
76.0003055101302 210299.0 NaN 1531.7461589846364 0.5010223367838387 528.0 3.0 365.0 
78.0003055101302 210335.0 NaN 1534.8136272545091 0.5013192384253852 527.0 3.0 366.0 
80.0003055101302 210300.0 NaN 1537.8677354709423 0.5010043748959471 528.0 3.0 367.0 
82.0003055101302 210410.0 NaN 1537.9505678022724 0.5013890218655084 528.0 3.0 367.0 
84.0003055101302 210365.0 NaN 1538.0494321977276 0.501000934816242 529.0 3.0 367.0 
86.0003055101302 210365.0 NaN 1538.0227120908482 0.5009291774156196 525.0 3.0 367.0 
88.0003055101302 210378.0 NaN 1537.9772879091518 0.5010726496172057 525.0 3.0 367.0 
90.0003055101302 210390.0 NaN 1537.9639278557092 0.5008941936710637 525.0 3.0 367.0 
92.0003055101302 210528.0 NaN 1537.902471609888 0.5013199317644984 525.0 3.0 367.0 
94.0003055101302 210476.0 NaN 1537.88376753507 0.5008711230169492 525.0 3.0 367.0 
96.0003055101302 210480.0 NaN 1537.923847695391 0.500999262112326 525.0 3.0 367.0 
98.0003055101302 210486.0 NaN 1537.945223780894 0.5010173275314287 525.0 3.0 367.0 
100.0003055101302 210479.0 NaN 1541.0126920507666 0.5010032035604011 524.0 4.0 367.0 
102.0003055101302 210652.0 NaN 1540.9859719438882 0.5011492547769305 524.0 4.0 367.0 
104.0003055101302 210629.0 NaN 1540.9832999332002 0.5009795755990565 524.0 4.0 367.0 
106.0003055101302 210632.0 NaN 1540.993987975952 0.5010052055403943 524.0 4.0 367.0 
108.0003055101302 210628.0 NaN 1541.0233800935187 0.501121061966931 525.0 3.0 368.0 
110.0003055101302 210604.0 NaN 1541.060788243154 0.500889597449899 525.0 3.0 368.0 
112.0003055101302 210689.0 NaN 1541.098196392785 0.5011821977185645 524.0 4.0 367.0 
114.0003055101302 210660.0 NaN 1541.0100200400816 0.5008748929051217 523.0 5.0 366.0 
116.0003055101302 210671.0 NaN 1540.8764195056788 0.5009823049588328 526.0 3.0 368.0 
118.0003055101302 210693.0 NaN 1547.0193720774882 0.5012654690885912 526.0 4.0 369.0 
120.0003055101302 210666.0 NaN 1550.1456245825 0.5009446325493742 526.0 4.0 370.0 
122.0003055101302 210670.0 NaN 1550.2391449565816 0.5011450420364288 527.0 3.0 371.0 
124.0003055101302 210642.0 NaN 1550.3139612558455 0.5009754232521095 527.0 3.0 371.0 
126.0003055101302 210645.0 NaN 1550.3593854375426 0.501065455457268 527.0 3.0 371.0 
128.0003055101302 210690.0 NaN 1547.198396793588 0.5011480672701091 527.0 3.0 370.0 
130.0003055101302 210667.0 NaN 1547.0941883767546 0.5009132998164593 526.0 3.0 370.0 
132.0003055101302 210696.0 NaN 1544.024048096191 0.5011370312165018 524.0 3.0 369.0 
134.0003055101302 210681.0 NaN 1540.88710754843 0.5009613880880911 524.0 3.0 368.0 
136.0003055101302 210687.0 NaN 1540.8737474949912 0.5010625304160988 523.0 3.0 368.0 
138.0003055101302 210726.0 NaN 1544.0694722778908 0.5014214189403832 522.0 3.0 369.0 
140.0003055101302 210713.0 NaN 1541.092852371409 0.5009134975624326 521.0 3.0 368.0 
142.0003055101302 210741.0 NaN 1547.2732130928543 0.501138172316347 521.0 3.0 370.0 
144.0003055101302 210712.0 NaN 1550.263193052773 0.500913211134024 523.0 3.0 371.0 
146.0003055101302 210721.0 NaN 1547.0487641950547 0.5009098078459838 522.0 3.0 370.0 
148.0003055101302 210763.0 NaN 1553.1917167668666 0.5012874795836528 521.0 3.0 372.0 
150.0003055101302 210739.0 NaN 1553.2130928523727 0.5009341523761566 520.0 3.0 372.0 
152.0003055101302 210761.0 NaN 1550.1963927855727 0.5013441592456933 521.0 3.0 371.0 
154.0003055101302 210733.0 NaN 1544.14963259853 0.501092430336916 518.0 3.0 369.0 
156.0003055101302 210746.0 NaN 1544.1229124916517 0.5009585030023638 516.0 3.0 369.0 
158.0003055101302 210772.0 NaN 1544.0480961923845 0.501312964869931 518.0 3.0 369.0 
160.0003055101302 210728.0 NaN 1544.0507682030725 0.5009355808114507 519.0 3.0 369.0 
162.0003055101302 210746.0 NaN 1544.064128256512 0.5012416682853759 519.0 3.0 369.0 
164.0003055101302 210729.0 NaN 1544.0293921175698 0.500966823271549 518.0 3.0 369.0 
166.0003055101302 210737.0 NaN 1544.0961923847701 0.5010880003656173 517.0 3.0 369.0 
168.0003055101302 210748.0 NaN 1544.1523046092182 0.5010312894855679 517.0 3.0 369.0 
170.0003055101302 210734.0 NaN 1544.0828323313276 0.5009179292083973 517.0 3.0 369.0 
172.0003055101302 210744.0 NaN 1543.9973279893115 0.500998257885487 517.0 3.0 369.0 
174.0003055101302 210734.0 NaN 1537.8810955243816 0.5010642414154416 516.0 3.0 367.0 
176.0003055101302 210749.0 NaN 1540.9512358049456 0.5009584481231273 517.0 3.0 368.0 
178.0003055101302 210754.0 NaN 1541.0287241148974 0.5011044688000177 517.0 3.0 368.0 
180.0003055101302 210727.0 NaN 1541.119572478291 0.5009630555802899 518.0 3.0 368.0 
182.0003055101302 210736.0 NaN 1538.0414161656636 0.501104104282241 516.0 3.0 367.0 
184.0003055101302 210724.0 NaN 1537.9746158984635 0.5009605316325147 516.0 3.0 367.0 
186.0003055101302 210726.0 NaN 1540.9352037408157 0.5008937983678975 515.0 3.0 368.0 
188.0003055101302 210750.0 NaN 1537.8036072144273 0.5011197388336823 515.0 3.0 367.0 
190.0003055101302 210724.0 NaN 1534.7548430193729 0.5008593733205707 515.0 3.0 366.0 
192.0003055101302 210726.0 NaN 1537.8891115564454 0.5011375024038364 514.0 3.0 367.0 
194.0003055101302 210697.0 NaN 1537.9933199732818 0.5011234624301447 515.0 3.0 367.0 
196.0003055101302 210698.0 NaN 1538.076152304609 0.5007898553951092 515.0 3.0 367.0 
198.0003055101302 210714.0 NaN 1538.092184368736 0.5014269618333498 515.0 3.0 367.0 
200.0003055101302 210794.0 NaN 1537.9425517702089 0.5011395352156507 515.0 3.0 367.0 
202.0003055101302 210788.0 NaN 1544.0748162992638 0.5009040476542279 516.0 3.0 369.0 
204.0003055101302 210774.0 NaN 1547.1396125584517 0.5007475123726363 517.0 3.0 370.0 
206.0003055101302 210769.0 NaN 1544.0668002671998 0.500776741048682 516.0 3.0 369.0 
208.0003055101302 210777.0 NaN 1537.9906479625906 0.5009177170320447 516.0 3.0 367.0 
210.0003055101302 210838.0 NaN 1538.0681362725456 0.5010700298245547 514.0 3.0 367.0 
212.0003055101302 210845.0 NaN 1538.0440881763545 0.5011743174851042 515.0 3.0 367.0 
214.0003055101302 210816.0 NaN 1541.0100200400816 0.5011573173436209 515.0 3.0 368.0 
216.0003055101302 210824.0 NaN 1537.8784235136934 0.5007471702549913 515.0 3.0 367.0 
218.0003055101302 210855.0 NaN 1537.8356713426847 0.501273481866049 511.0 3.0 367.0 
220.0003055101302 210856.0 NaN 1537.873079492318 0.5011465210987264 511.0 3.0 367.0 
222.0003055101302 210842.0 NaN 1534.907147628591 0.5008403268635153 511.0 3.0 366.0 
224.0003055101302 210838.0 NaN 1534.9659318637273 0.5008623393033984 511.0 3.0 366.0 
226.0003055101302 210847.0 NaN 1538.014696058784 0.5010420062845438 510.0 4.0 366.0 
228.0003055101302 210876.0 NaN 1544.0881763527063 0.500938839269019 510.0 5.0 367.0 
230.0003055101302 210911.0 NaN 1544.0614562458272 0.5015691714796673 511.0 5.0 367.0 
232.0003055101302 210866.0 NaN 1544.0855043420183 0.5009815542260231 510.0 5.0 367.0 
234.0003055101302 210849.0 NaN 1547.2358049432182 0.5008229133703771 510.0 5.0 368.0 
236.0003055101302 210869.0 NaN 1541.0794923179699 0.5011868790431635 509.0 5.0 366.0 
238.0003055101302 210874.0 NaN 1541.0714762859066 0.5011927730437598 509.0 5.0 366.0 
240.0003055101302 210916.0 NaN 1537.934535738143 0.5010779712552363 510.0 4.0 366.0 
242.0003055101302 210920.0 NaN 1534.7468269873093 0.5008829924026741 509.0 4.0 365.0 
244.0003055101302 210928.0 NaN 1534.7441549766183 0.5006624518174958 510.0 4.0 365.0 
246.0003055101302 210969.0 NaN 1534.7655310621246 0.5008136300006706 511.0 4.0 365.0 
248.0003055101302 210971.0 NaN 1534.8029392117546 0.5011349183965874 510.0 4.0 365.0 
250.0003055101302 210987.0 NaN 1534.8991315965272 0.5012295451514938 511.0 4.0 365.0 
252.0003055101302 210946.0 NaN 1531.890447561791 0.5008727930220361 510.0 4.0 364.0 
254.0003055101302 210934.0 NaN 1528.756179024718 0.500789961032295 509.0 4.0 363.0 
256.00030551013026 210963.0 NaN 1528.643954575818 0.5009962759050328 511.0 4.0 363.0 
258.00030551013026 210974.0 NaN 1528.6172344689367 0.500911838872197 512.0 3.0 364.0 
260.00030551013026 210987.0 NaN 1525.5711422845698 0.5008106798506166 514.0 2.0 364.0 
262.00030551013026 210984.0 NaN 1528.6786907147637 0.5007373216437367 513.0 2.0 365.0 
264.00030551013026 211005.0 NaN 1528.756179024718 0.5011144257643033 514.0 2.0 365.0 
266.00030551013026 211036.0 NaN 1544.2297929191727 0.5007561757331581 512.0 2.0 370.0 
268.00030551013026 211062.0 NaN 1544.1469605878433 0.5008752977915547 512.0 2.0 370.0 
270.00030551013026 211179.0 NaN 1541.0046760187024 0.5011964652858126 512.0 2.0 369.0 
272.00030551013026 211145.0 NaN 1537.8116232464909 0.5008176719422684 511.0 2.0 368.0 
274.00030551013026 211149.0 NaN 1534.746826987309 0.500931640589312 510.0 2.0 367.0 
276.00030551013026 211151.0 NaN 1537.819639278557 0.5010356030883191 512.0 2.0 368.0 
278.00030551013026 211141.0 NaN 1540.977955911825 0.5009846957582236 511.0 2.0 369.0 
280.00030551013026 211151.0 NaN 1541.0581162324636 0.5013360453069573 512.0 3.0 368.0 
282.00030551013026 211146.0 NaN 1540.9539078156297 0.5010687565845325 514.0 3.0 368.0 
284.00030551013026 211139.0 NaN 1534.7601870407477 0.5012067761623195 513.0 3.0 366.0 
286.00030551013026 211156.0 NaN 1534.7762191048753 0.501453237510639 512.0 3.0 366.0 
288.00030551013026 211133.0 NaN 1534.7949231796908 0.5012093919545832 511.0 3.0 366.0 
290.00030551013026 211121.0 NaN 1531.7327989311973 0.5013512107498314 508.0 3.0 365.0 
292.00030551013026 211088.0 NaN 1531.7221108884453 0.5011502383809292 509.0 3.0 365.0 
294.00030551013026 211055.0 NaN 1537.9131596526363 0.501327084189784 509.0 3.0 367.0 
296.00030551013026 211043.0 NaN 1537.867735470943 0.5011148938488266 509.0 3.0 367.0 
298.00030551013026 211033.0 NaN 1540.9084836339364 0.500937149418334 509.0 3.0 368.0 
300.00030551013026 211047.0 NaN 1540.956579826318 0.5011390813773356 508.0 3.0 368.0 
302.00030551013026 211053.0 NaN 1537.9318637274544 0.5012313218632943 508.0 3.0 367.0 
304.00030551013026 211017.0 NaN 1537.8837675350703 0.5020621953051038 506.0 3.0 367.0 
306.00030551013026 210941.0 NaN 1534.8537074148292 0.5012708628102778 507.0 3.0 366.0 
308.00030551013026 210921.0 NaN 1531.8183032732118 0.501107855390921 506.0 3.0 365.0 
310.00030551013026 210970.0 NaN 1531.8156312625274 0.5009822130005042 506.0 3.0 365.0 
312.00030551013026 210996.0 NaN 1534.8964595858365 0.50091437521234 506.0 3.0 366.0 
314.00030551013026 210995.0 NaN 1534.792251169006 0.5010088962094398 508.0 3.0 366.0 
316.00030551013026 210983.0 NaN 1534.7548430193729 0.5011515602037263 509.0 3.0 366.0 
318.00030551013026 210974.0 NaN 1534.8376753507 0.5013268039815297 507.0 4.0 365.0 
320.00030551013026 210981.0 NaN 1534.9178356713428 0.5011769511394144 505.0 5.0 364.0 
322.00030551013026 210995.0 NaN 1531.9038076152299 0.5014613663330716 505.0 5.0 363.0 
324.00030551013026 210964.0 NaN 1531.807615230461 0.5012613481706043 505.0 5.0 363.0 
326.00030551013026 210931.0 NaN 1531.7221108884453 0.5011409971507294 506.0 4.0 364.0 
328.00030551013026 210919.0 NaN 1534.7628590514364 0.5010862862022406 507.0 3.0 366.0 
330.00030551013026 210936.0 NaN 1528.6252505010002 0.5012003144013101 506.0 3.0 364.0 
332.00030551013026 210933.0 NaN 1528.6893787575154 0.5012861919644973 505.0 3.0 364.0 
334.00030551013026 210872.0 NaN 1534.8964595858365 0.5012306468402074 507.0 3.0 366.0 
336.00030551013026 210857.0 NaN 1525.6806947227794 0.5012587373270918 507.0 3.0 363.0 
338.00030551013026 210800.0 NaN 1525.6646626586514 0.5009764975220334 507.0 3.0 363.0 
340.00030551013026 210828.0 NaN 1525.6299265197065 0.5011622244703833 508.0 3.0 363.0 
342.00030551013026 210794.0 NaN 1525.6085504342004 0.501134170545428 508.0 3.0 363.0 
344.00030551013026 210767.0 NaN 1531.7301269205088 0.5010141867866121 513.0 3.0 365.0 
346.00030551013026 210759.0 NaN 1534.8510354041425 0.5009465630019544 513.0 3.0 366.0 
348.00030551013026 210759.0 NaN 1531.828991315964 0.5008160641127901 512.0 3.0 365.0 
350.00030551013026 210773.0 NaN 1525.6646626586514 0.5010807340359803 511.0 3.0 363.0 
352.00030551013026 210739.0 NaN 1525.6700066800274 0.5014415448939572 514.0 3.0 363.0 
354.00030551013026 210686.0 NaN 1525.6272545090183 0.5008176156999039 513.0 3.0 363.0 
356.00030551013026 210700.0 NaN 1525.6192384769547 0.5009861946990292 511.0 4.0 362.0 
358.00030551013026 210711.0 NaN 1525.6138944555787 0.5007244795986875 511.0 4.0 362.0 
360.00030551013026 210744.0 NaN 1525.6406145624576 0.5012484144778019 512.0 3.0 363.0 
362.00030551013026 210709.0 NaN 1525.6459585838356 0.5017478156724187 514.0 3.0 363.0 
364.00030551013026 210597.0 NaN 1525.6432865731454 0.5008013429186887 513.0 3.0 363.0 
366.00030551013026 210614.0 NaN 1516.4195056780213 0.5012239364190901 513.0 3.0 360.0 
368.00030551013026 210587.0 NaN 1510.2498329993327 0.500897940312108 512.0 4.0 357.0 
370.00030551013026 210596.0 NaN 1507.182364729458 0.5010859962627349 513.0 5.0 355.0 
372.00030551013026 210526.0 NaN 1510.2177688710751 0.5014080942615065 512.0 5.0 356.0 
374.00030551013026 210371.0 NaN 1507.177020708082 0.5006159051078627 514.0 5.0 355.0 
376.00030551013026 210383.0 NaN 1507.222444889781 0.5010042387350021 513.0 5.0 355.0 
378.00030551013026 210371.0 NaN 1507.2144288577158 0.5007098747831716 515.0 5.0 355.0 
380.00030551013026 210384.0 NaN 1507.171676686707 0.5012127687541861 516.0 5.0 355.0 
382.00030551013026 210302.0 NaN 1510.2231128924523 0.5015200475111777 513.0 5.0 356.0 
384.00030551013026 210174.0 NaN 1513.2825651302612 0.5012595745759649 513.0 5.0 357.0 
386.00030551013026 210164.0 NaN 1516.4195056780213 0.5020818666487812 515.0 5.0 358.0 
388.00030551013026 210171.0 NaN 1516.4756179024728 0.5005846274428505 516.0 4.0 359.0 
390.00030551013026 210175.0 NaN 1510.3567134268544 0.5010506686747702 518.0 3.0 358.0 
392.00030551013026 210109.0 NaN 1510.300601202406 0.5011690721740709 516.0 3.0 358.0 
394.00030551013026 210054.0 NaN 1510.3219772879092 0.5007026741890448 515.0 3.0 358.0 
396.00030551013026 210064.0 NaN 1513.3894455577818 0.5009164864073947 515.0 4.0 358.0 
398.00030551013026 210069.0 NaN 1507.2117568470271 0.5006427226858485 517.0 4.0 356.0 
400.00030551013026 210143.0 NaN 1504.114896459585 0.5011881451870205 518.0 3.0 356.0 
402.00030551013026 210137.0 NaN 1510.2792251169 0.5014856026666517 519.0 3.0 358.0 
404.00030551013026 210066.0 NaN 1507.2090848363387 0.5008507774183275 519.0 3.0 357.0 
406.00030551013026 210048.0 NaN 1510.3112892451566 0.5009832507623122 519.0 4.0 357.0 
408.00030551013026 210076.0 NaN 1513.4001336005356 0.5008034933334534 519.0 4.0 358.0 
410.00030551013026 210133.0 NaN 1516.4542418169665 0.5010309026680406 520.0 3.0 360.0 
412.00030551013026 210082.0 NaN 1522.5784903139615 0.5011365313321849 520.0 3.0 362.0 
414.00030551013026 210019.0 NaN 1525.6272545090183 0.5009301550241362 520.0 3.0 363.0 
416.00030551013026 210033.0 NaN 1519.4709418837667 0.5011637625707825 521.0 4.0 360.0 
418.00030551013026 210014.0 NaN 1513.3573814295266 0.5007466286583696 515.0 5.0 357.0 
420.00030551013026 210054.0 NaN 1510.3139612558455 0.5013237619799502 513.0 5.0 356.0 
422.00030551013026 210033.0 NaN 1513.3680694722789 0.5012240543506528 513.0 5.0 357.0 
424.00030551013026 210019.0 NaN 1510.2605210420836 0.5009793775435406 515.0 5.0 356.0 
426.00030551013026 210031.0 NaN 1507.1663326653302 0.5012615404683276 512.0 5.0 355.0 
428.00030551013026 209966.0 NaN 1513.2585170340697 0.5011614266502685 513.0 5.0 357.0 
430.00030551013026 209970.0 NaN 1507.1396125584515 0.5010186447159303 519.0 5.0 355.0 
432.00030551013026 209990.0 NaN 1513.338677354709 0.5010787979775599 520.0 5.0 357.0 
434.00030551013026 209989.0 NaN 1519.503006012025 0.5006779956328461 521.0 5.0 359.0 
436.00030551013026 210025.0 NaN 1522.5758183032729 0.5014550277272616 521.0 5.0 360.0 
438.00030551013026 209936.0 NaN 1525.5497661990637 0.5013978512959718 522.0 5.0 361.0 
440.00030551013026 209940.0 NaN 1528.630594522379 0.5009888877081387 524.0 4.0 363.0 
442.00030551013026 210006.0 NaN 1528.6466265865065 0.501429869380422 526.0 3.0 364.0 
444.00030551013026 209987.0 NaN 1525.6406145624574 0.5013348363266811 524.0 4.0 362.0 
446.00030551013026 209974.0 NaN 1519.5511022044093 0.5014627633785508 522.0 5.0 359.0 
448.00030551013026 209891.0 NaN 1538.028056112225 0.5014194735673803 522.0 5.0 365.0 
450.00030551013026 209906.0 NaN 1547.1903807615245 0.501390794884062 524.0 5.0 368.0 
452.00030551013026 209935.0 NaN 1550.1910487641937 0.5012909782110672 523.0 5.0 369.0 
454.00030551013026 209899.0 NaN 1550.193720774882 0.5013948488120031 524.0 4.0 370.0 
456.00030551013026 209876.0 NaN 1550.223112892452 0.5015557506588558 523.0 3.0 371.0 
458.00030551013026 209827.0 NaN 1550.2605210420838 0.5007662733972917 523.0 3.0 371.0 
460.00030551013026 209853.0 NaN 1547.2144288577156 0.5013146365417535 522.0 4.0 369.0 
462.00030551013026 209849.0 NaN 1544.0774883099543 0.5011823113658487 518.0 5.0 367.0 
464.00030551013026 209837.0 NaN 1544.0694722778908 0.5011050097968904 519.0 5.0 367.0 
466.00030551013026 209826.0 NaN 1544.0801603206426 0.5014383245506087 521.0 5.0 367.0 
468.00030551013026 209767.0 NaN 1544.0507682030725 0.5016112602520685 521.0 4.0 368.0 
470.00030551013026 209736.0 NaN 1544.0293921175698 0.5014086227153541 523.0 3.0 369.0 
472.00030551013026 209708.0 NaN 1540.988643954575 0.5013122574731674 522.0 4.0 367.0 
474.00030551013026 209674.0 NaN 1531.853039412157 0.5013850814910324 517.0 5.0 363.0 
476.00030551013026 209677.0 NaN 1522.661322645291 0.5013405306723637 517.0 4.0 361.0 
478.00030551013026 209652.0 NaN 1522.5945223780905 0.5014835840970358 519.0 3.0 362.0 
480.00030551013026 209638.0 NaN 1525.605878423512 0.5008517942937856 519.0 2.0 364.0 
482.00030551013026 209678.0 NaN 1525.5764863059455 0.500873829019824 519.0 2.0 364.0 
484.00030551013026 209658.0 NaN 1525.6379425517705 0.5008756218772332 518.0 2.0 364.0 
486.00030551013026 209694.0 NaN 1513.360053440215 0.5010289988536192 516.0 2.0 360.0 
488.00030551013026 209662.0 NaN 1507.2090848363384 0.5009853672419321 515.0 2.0 358.0 
490.00030551013026 209685.0 NaN 1491.8530394121567 0.5009147384617659 514.0 2.0 353.0 
492.00030551013026 209726.0 NaN 1491.772879091517 0.5008235710996516 512.0 2.0 353.0 
494.00030551013026 209742.0 NaN 1494.8430193720787 0.501165928886525 510.0 2.0 354.0 
496.00030551013026 209721.0 NaN 1494.8857715430852 0.5008077868258546 506.0 2.0 354.0 
498.00030551013026 209706.0 NaN 1491.7835671342696 0.5007319228112747 506.0 2.0 353.0 
500.00030551013026 209692.0 NaN 1485.6673346693376 0.5009621438301499 509.0 2.0 351.0 
502.00030551013026 209726.0 NaN 1482.639946559785 0.5009668170967709 511.0 2.0 350.0 
504.00030551013026 209713.0 NaN 1485.7581830327333 0.5009772342500359 511.0 2.0 351.0 
506.00030551013026 209662.0 NaN 1491.887775551101 0.5008257276148789 513.0 2.0 353.0 
508.00030551013026 209656.0 NaN 1485.6486305945211 0.5009251545037542 511.0 2.0 351.0 
510.00030551013026 209635.0 NaN 1491.780895123581 0.5006604138249399 511.0 2.0 353.0 
512.0003055101303 209677.0 NaN 1491.8183032732122 0.5010827703205956 512.0 2.0 353.0 
514.0003055101303 209682.0 NaN 1482.6800267201081 0.5014500810321701 513.0 2.0 350.0 
516.0003055101303 209713.0 NaN 1476.5504342017364 0.5009655886538558 511.0 2.0 348.0 
518.0003055101303 209682.0 NaN 1461.1890447561798 0.501330258737513 510.0 2.0 343.0 
520.0003055101303 209658.0 NaN 1461.1489645958575 0.5008476652523969 510.0 2.0 343.0 
522.0003055101303 209681.0 NaN 1461.0981963927845 0.5010083641077111 508.0 2.0 343.0 
524.0003055101303 209693.0 NaN 1464.181696726788 0.5010870089833841 505.0 2.0 344.0 
526.0003055101303 209746.0 NaN 1454.9873079492331 0.5013513695257747 504.0 2.0 341.0 
528.0003055101303 209699.0 NaN 1451.9492317969273 0.5015031825913601 502.0 2.0 340.0 
530.0003055101303 209683.0 NaN 1451.965263861055 0.5008181635397279 503.0 3.0 339.0 
532.0003055101303 209660.0 NaN 1461.2024048096187 0.5012218460660718 503.0 3.0 342.0 
534.0003055101303 209646.0 NaN 1461.1623246492993 0.5009217377099674 500.0 3.0 342.0 
536.0003055101303 209701.0 NaN 1458.028056112225 0.5010431959592418 503.0 3.0 341.0 
538.0003055101303 209670.0 NaN 1461.0848363393457 0.5011041066608566 503.0 3.0 342.0 
540.0003055101303 209644.0 NaN 1464.1790247160995 0.5009212054832516 505.0 3.0 343.0 
542.0003055101303 209756.0 NaN 1470.3647294589182 0.5011486192668565 505.0 3.0 345.0 
544.0003055101303 209726.0 NaN 1473.5016700066806 0.5010604075008033 508.0 3.0 346.0 
546.0003055101303 209724.0 NaN 1470.367401469606 0.5010783965227599 508.0 3.0 345.0 
548.0003055101303 209713.0 NaN 1467.2892451569812 0.5014608747397413 509.0 3.0 344.0 
550.0003055101303 209680.0 NaN 1467.1823647294582 0.5011198922269177 510.0 3.0 344.0 
552.0003055101303 209777.0 NaN 1467.1529726118908 0.5013775397160155 508.0 3.0 344.0 
554.0003055101303 209759.0 NaN 1467.2037408149636 0.5014320673553149 508.0 3.0 344.0 
556.0003055101303 209786.0 NaN 1467.2545090180363 0.5013057659553517 509.0 3.0 344.0 
558.0003055101303 209771.0 NaN 1467.2919171676692 0.5012381640114936 510.0 3.0 344.0 
560.0003055101303 209751.0 NaN 1458.041416165664 0.5010402414378929 503.0 3.0 341.0 
562.0003055101303 209819.0 NaN 1458.0066800267196 0.5015847578160619 504.0 3.0 341.0 
564.0003055101303 209798.0 NaN 1454.907147628591 0.5011360372748477 503.0 3.0 340.0 
566.0003055101303 209829.0 NaN 1461.039412157649 0.5013231388065221 505.0 3.0 342.0 
568.0003055101303 209801.0 NaN 1482.6426185704738 0.5011630718802866 506.0 3.0 349.0 
570.0003055101303 209790.0 NaN 1482.655978623915 0.5013107000564124 507.0 3.0 349.0 
572.0003055101303 209843.0 NaN 1479.6125584502342 0.5013499073767511 507.0 3.0 348.0 
574.0003055101303 209831.0 NaN 1476.534402137609 0.5012645499318091 505.0 3.0 347.0 
576.0003055101303 209863.0 NaN 1482.6720106880432 0.5013685447503979 505.0 3.0 349.0 
578.0003055101303 209827.0 NaN 1479.5190380761533 0.501181914785113 507.0 3.0 348.0 
580.0003055101303 209858.0 NaN 1485.659318637274 0.5014956089074226 507.0 3.0 350.0 
582.0003055101303 209888.0 NaN 1485.6726786907152 0.5013647715657622 509.0 3.0 350.0 
584.0003055101303 209890.0 NaN 1488.7615230460917 0.5014705091888092 507.0 3.0 351.0 
586.0003055101303 209935.0 NaN 1485.7341349365392 0.501440327570486 513.0 3.0 350.0 
588.0003055101303 209896.0 NaN 1485.699398797594 0.5017630159009827 515.0 3.0 350.0 
590.0003055101303 209898.0 NaN 1488.7214428857726 0.5010791252032647 518.0 3.0 351.0 
592.0003055101303 209913.0 NaN 1488.6519706078818 0.5016302799252668 519.0 3.0 351.0 
594.0003055101303 209890.0 NaN 1491.7034068136272 0.501194497030602 521.0 3.0 352.0 
596.0003055101303 209917.0 NaN 1488.579826319306 0.5009092088099377 526.0 3.0 351.0 
598.0003055101303 209934.0 NaN 1491.7541750167002 0.5008516458651739 525.0 3.0 352.0 
600.0003055101303 209991.0 NaN 1491.8049432197727 0.5012199741287005 526.0 3.0 352.0 
602.0003055101303 209957.0 NaN 1501.0634602538419 0.5013618692695297 528.0 3.0 355.0 
604.0003055101303 209961.0 NaN 1497.969271877088 0.5010618143300126 527.0 3.0 354.0 
606.0003055101303 209991.0 NaN 1500.9699398797604 0.50082584396671 527.0 3.0 355.0 
608.0003055101303 210009.0 NaN 1507.0941883767543 0.5011866921441247 524.0 3.0 357.0 
610.0003055101303 210040.0 NaN 1513.2531730126907 0.5015505890659525 524.0 3.0 359.0 
612.0003055101303 209968.0 NaN 1510.2017368069467 0.5018781508112238 524.0 3.0 358.0 
614.0003055101303 209923.0 NaN 1507.1957247829 0.5013184453476591 523.0 3.0 357.0 
616.0003055101303 209928.0 NaN 1507.1503006012017 0.501072578812822 524.0 3.0 357.0 
618.0003055101303 209917.0 NaN 1504.0694722778899 0.5010290631802264 524.0 3.0 356.0 
620.0003055101303 209975.0 NaN 1513.2798931195728 0.5013346601363762 524.0 3.0 359.0 
622.0003055101303 209956.0 NaN 1525.5871743486978 0.5013592835429073 525.0 3.0 363.0 
624.0003055101303 209940.0 NaN 1522.5357381429535 0.5011691828372808 523.0 3.0 362.0 
626.0003055101303 209970.0 NaN 1525.6646626586514 0.5009074778804748 523.0 3.0 363.0 
628.0003055101303 209963.0 NaN 1525.6619906479636 0.5014314903227354 524.0 3.0 363.0 
630.0003055101303 209996.0 NaN 1519.5377421509697 0.5011129013719405 520.0 4.0 360.0 
632.0003055101303 209999.0 NaN 1522.5437541750175 0.5014314237967783 517.0 5.0 360.0 
634.0003055101303 209972.0 NaN 1519.462925851703 0.5006202449831662 517.0 5.0 359.0 
636.0003055101303 210063.0 NaN 1522.436873747494 0.5007535224649237 523.0 5.0 360.0 
638.0003055101303 210058.0 NaN 1519.3800935203735 0.5011473199646056 527.0 4.0 360.0 
640.0003055101303 210077.0 NaN 1519.4736138944547 0.5009681012727858 525.0 3.0 361.0 
642.0003055101303 210094.0 NaN 1525.6833667334658 0.5007390197586804 529.0 3.0 363.0 
644.0003055101303 210103.0 NaN 1522.6506346025376 0.5006682364666328 528.0 3.0 362.0 
646.0003055101303 210127.0 NaN 1519.5724782899122 0.5007986145214092 525.0 3.0 361.0 
648.0003055101303 210137.0 NaN 1525.6593186372738 0.5007922511942741 522.0 3.0 363.0 
650.0003055101303 210173.0 NaN 1522.5170340681366 0.5012771158098058 518.0 3.0 362.0 
652.0003055101303 210168.0 NaN 1525.6058784235122 0.5011260316962579 519.0 3.0 363.0 
654.0003055101303 210163.0 NaN 1525.6566466265874 0.5005986898611584 518.0 3.0 363.0 
656.0003055101303 210246.0 NaN 1534.9418837675357 0.5011151874271361 517.0 3.0 366.0 
658.0003055101303 210236.0 NaN 1544.197728790916 0.5012752828617433 517.0 3.0 369.0 
660.0003055101303 210200.0 NaN 1544.1923847695384 0.5010204819927407 516.0 3.0 369.0 
662.0003055101303 210226.0 NaN 1544.1202404809626 0.5011292420514251 515.0 3.0 369.0 
664.0003055101303 210239.0 NaN 1541.0180360721456 0.5010664297338254 514.0 3.0 368.0 
#####################################################################
# End of data export. Simulation finished at: 2019-03-07T02:15+0000 #
#####################################################################
