#####################################################################
# Alchemist log file - simulation started at: 2019-03-06T02:50+0000 #
#####################################################################
# seed = 3.0, bandwidth = 2.3713737056616552E7, propagationDelay = 0.03162277660168379, baserange = 31.622776601683796
#
# The columns have the following meaning: 
# time neighbor_count[Sum] <value>@neighbor_count[Sum] packet_size[Mean] mean_delay[Mean] crowd[Sum] overcrowded[Sum] risk[Sum] 
0.0 NaN NaN NaN NaN NaN NaN NaN 
2.000455252375258 2782.0 NaN 4996.606546426186 0.4982038174759625 1497.0 0.0 1497.0 
4.000455252375258 2786.0 NaN 4999.553774215097 0.4989532476001963 1481.0 16.0 1481.0 
6.000084666035003 2793.0 NaN 4996.018704074816 0.49897576323502274 1435.0 62.0 1435.0 
8.000454915018056 2795.0 NaN 4996.90046760187 0.5001604940491612 1423.0 74.0 1423.0 
10.00033353340315 2796.0 NaN 4995.022044088177 0.4991667125468493 1421.0 76.0 1421.0 
12.000454915018056 2795.0 NaN 4995.588510354041 0.4996661310708184 1418.0 79.0 1418.0 
14.000454915018056 2794.0 NaN 4994.364729458918 0.4999146791472382 1416.0 81.0 1416.0 
16.000084666035004 2796.0 NaN 4995.062124248497 0.5034658562620188 1412.0 85.0 1412.0 
18.000454915018057 2795.0 NaN 4994.0494321977285 0.5006903572357028 1407.0 90.0 1407.0 
20.00033353340315 2793.0 NaN 4994.968603874416 0.4991674901529576 1414.0 83.0 1414.0 
22.000454915018057 2798.0 NaN 4993.875751503006 0.4990353762048156 1416.0 81.0 1416.0 
24.000454915018057 2799.0 NaN 4995.008684034736 0.49987901057327827 1414.0 83.0 1414.0 
26.000084666035004 2804.0 NaN 4993.664662658651 0.4985419249376365 1413.0 84.0 1413.0 
28.000454915018057 2808.0 NaN 4995.00334001336 0.4990807870692597 1409.0 88.0 1409.0 
30.00033353340315 2812.0 NaN 4993.838343353374 0.5011735308434153 1409.0 88.0 1409.0 
32.00045491501806 2808.0 NaN 4994.794923179693 0.5017087529475405 1409.0 88.0 1409.0 
34.00045491501806 2805.0 NaN 4993.849031396126 0.5027885659610071 1409.0 88.0 1409.0 
36.00008466603501 2816.0 NaN 4994.690714762859 0.5001391082368858 1408.0 89.0 1408.0 
38.00045491501806 2817.0 NaN 4993.723446893788 0.5006481409133539 1408.0 89.0 1408.0 
40.00033353340315 2822.0 NaN 4994.835003340013 0.49882200141502764 1407.0 90.0 1407.0 
42.00045491501806 2823.0 NaN 4993.84368737475 0.5005544488719335 1398.0 99.0 1398.0 
44.00045491501806 2826.0 NaN 4994.674682698731 0.5032358641816006 1400.0 97.0 1400.0 
46.00008466603501 2837.0 NaN 4993.659318637275 0.5019467780242863 1400.0 97.0 1400.0 
48.00045491501806 2838.0 NaN 4994.960587842352 0.5010556376179236 1399.0 98.0 1399.0 
50.00033353340315 2841.0 NaN 4993.544422177689 0.5098164669534907 1405.0 92.0 1405.0 
52.00045491501806 2831.0 NaN 4994.797595190381 0.5049382013402279 1408.0 89.0 1408.0 
54.00045491501806 2835.0 NaN 4993.819639278557 0.5032530727601858 1407.0 90.0 1407.0 
56.00008466603501 2851.0 NaN 4994.324649298597 0.5051625164062399 1407.0 90.0 1407.0 
58.00045491501806 2834.0 NaN 4994.060120240481 0.5019930113889629 1409.0 88.0 1409.0 
60.00033353340315 2834.0 NaN 4994.706746826987 0.500193987867457 1408.0 89.0 1408.0 
62.00045491501806 2835.0 NaN 1521.9185036740153 0.5001070211707965 587.0 85.0 280.0 
64.00045491501805 2837.0 NaN 1521.7207748831 0.5003723318872919 505.0 82.0 283.0 
66.00008466603501 2848.0 NaN 1521.611222444891 0.5034673067871224 452.0 85.0 280.0 
68.00045491501805 2845.0 NaN 1521.5230460921844 0.5102212766341054 427.0 83.0 282.0 
70.00033353340315 2845.0 NaN 1524.5637942551757 0.5000966222237708 412.0 82.0 284.0 
72.00045491501805 2859.0 NaN 1524.5397461589844 0.5048250770630073 408.0 83.0 283.0 
74.00045491501805 2860.0 NaN 1524.5290581162333 0.50125795409847 406.0 83.0 283.0 
76.00008466603501 2860.0 NaN 1524.5931863727455 0.5055220545498091 406.0 82.0 284.0 
78.00045491501805 2877.0 NaN 1533.7849031396122 0.5092216057174518 400.0 84.0 285.0 
80.00033353340315 2860.0 NaN 1533.8623914495638 0.5060528547283683 400.0 84.0 285.0 
82.00045491501805 2844.0 NaN 1533.8517034068152 0.5032468604442796 398.0 84.0 285.0 
84.00045491501805 2832.0 NaN 1533.849031396127 0.5086112762159545 397.0 83.0 286.0 
86.00008466603501 2834.0 NaN 1533.731462925852 0.5053411541293481 396.0 82.0 287.0 
88.00045491501805 2812.0 NaN 1533.7982631930543 0.5069090093403165 395.0 82.0 287.0 
90.00033353340315 2809.0 NaN 1533.750167000667 0.5033992014733939 395.0 81.0 288.0 
92.00045491501805 2811.0 NaN 1536.8229792919183 0.504766301482678 395.0 81.0 289.0 
94.00045491501805 2800.0 NaN 1536.830995323982 0.5078021810283376 394.0 82.0 288.0 
96.00008466603501 2809.0 NaN 1539.9331997328002 0.5057285692991201 395.0 79.0 292.0 
98.00045491501805 2800.0 NaN 1539.8396793587183 0.5080180742697877 400.0 74.0 297.0 
100.00033353340315 2792.0 NaN 1539.8663994655997 0.5065751591050861 397.0 76.0 295.0 
102.00045491501805 2785.0 NaN 1539.8770875083485 0.5040741218706241 395.0 78.0 293.0 
104.00045491501805 2783.0 NaN 1539.9625918503666 0.509326916953686 396.0 77.0 294.0 
106.00008466603501 2789.0 NaN 1539.8824315297275 0.5050141886995805 393.0 80.0 291.0 
108.00045491501805 2805.0 NaN 1539.9492317969275 0.5047895702430433 391.0 82.0 289.0 
110.00033353340315 2815.0 NaN 1539.9732798931184 0.5073683631296064 394.0 79.0 292.0 
112.00045491501805 2811.0 NaN 1540.0374081496334 0.5062998390426631 399.0 74.0 297.0 
114.00045491501805 2802.0 NaN 1539.983967935873 0.5065811214686969 400.0 73.0 298.0 
116.00008466603501 2815.0 NaN 1546.1776887107544 0.5145185986017176 402.0 71.0 302.0 
118.00045491501805 2825.0 NaN 1549.1917167668666 0.5145019533010649 405.0 71.0 303.0 
120.00033353340315 2807.0 NaN 1552.4114896459575 0.508429542934916 405.0 70.0 305.0 
122.00045491501805 2795.0 NaN 1552.1897127588516 0.5093807171134838 406.0 71.0 304.0 
124.00045491501805 2777.0 NaN 1552.3259853039426 0.500779697124686 402.0 76.0 299.0 
126.00008466603501 2790.0 NaN 1549.2077488309942 0.5062929574497207 405.0 73.0 301.0 
128.00045491501805 2794.0 NaN 1546.092184368736 0.5122612089132168 406.0 72.0 301.0 
130.00033353340314 2780.0 NaN 1546.1028724114908 0.5160496377797128 409.0 69.0 304.0 
132.00045491501805 2759.0 NaN 1545.9746158984635 0.5143192130246216 407.0 70.0 303.0 
134.00045491501805 2753.0 NaN 1549.047428189712 0.5038601319956241 402.0 71.0 303.0 
136.000084666035 2765.0 NaN 1546.1215764863064 0.5069098059534425 406.0 68.0 305.0 
138.00045491501805 2778.0 NaN 1546.0414161656636 0.5062399469824916 398.0 74.0 299.0 
140.00033353340314 2796.0 NaN 1543.0327321309273 0.512070220513346 393.0 79.0 293.0 
142.00045491501805 2797.0 NaN 1549.1623246493 0.5143136618043689 386.0 85.0 289.0 
144.00045491501805 2794.0 NaN 1552.2297929191727 0.5050036185083645 380.0 90.0 285.0 
146.000084666035 2823.0 NaN 1543.0407481629913 0.5041974308630464 385.0 84.0 288.0 
148.00045491501805 2838.0 NaN 1543.0327321309276 0.5087028652663476 381.0 89.0 283.0 
150.00033353340314 2851.0 NaN 1543.1583166332664 0.5080402611444903 375.0 94.0 278.0 
152.00045491501805 2854.0 NaN 1542.9792919171668 0.5110895449157545 380.0 90.0 282.0 
154.00045491501805 2843.0 NaN 1540.0561122244487 0.5066940498437507 387.0 84.0 287.0 
156.000084666035 2849.0 NaN 1539.9973279893118 0.5138713186310191 391.0 82.0 289.0 
158.00045491501805 2842.0 NaN 1546.1135604542426 0.5089437768388191 378.0 94.0 279.0 
160.00033353340314 2839.0 NaN 1543.1770207080817 0.5099801976882659 387.0 83.0 289.0 
162.00045491501805 2815.0 NaN 1543.080828323312 0.5050223028867463 389.0 80.0 292.0 
164.00045491501805 2812.0 NaN 1543.0140280561118 0.5039930301514614 385.0 84.0 288.0 
166.000084666035 2824.0 NaN 1546.0547762191063 0.507534486803766 384.0 85.0 288.0 
168.00045491501805 2829.0 NaN 1549.2077488309942 0.5094093593576166 380.0 88.0 286.0 
170.00033353340314 2828.0 NaN 1549.1302605210426 0.5148940168569704 373.0 95.0 279.0 
172.00045491501805 2797.0 NaN 1549.0581162324638 0.5058091932201524 378.0 87.0 287.0 
174.00045491501805 2787.0 NaN 1546.126920507682 0.5031395609886565 384.0 81.0 292.0 
176.000084666035 2792.0 NaN 1539.8423513694063 0.5084831060052573 383.0 82.0 289.0 
178.00045491501805 2788.0 NaN 1543.0674682698727 0.5040680426190736 385.0 82.0 290.0 
180.00033353340314 2799.0 NaN 1539.9358717434882 0.5128295461364404 385.0 82.0 289.0 
182.00045491501805 2766.0 NaN 1540.0053440213755 0.5066821105656232 383.0 84.0 287.0 
184.00045491501805 2758.0 NaN 1536.8603874415483 0.5041456227230989 376.0 91.0 279.0 
186.000084666035 2766.0 NaN 1537.0100200400818 0.5070805423708695 375.0 93.0 277.0 
188.00045491501805 2776.0 NaN 1536.8897795591183 0.507846383815454 376.0 92.0 278.0 
190.00033353340314 2774.0 NaN 1540.1442885771546 0.5121675728625437 377.0 89.0 282.0 
192.00045491501805 2758.0 NaN 1536.9672678690727 0.5070405678183151 379.0 87.0 283.0 
194.00045491501805 2752.0 NaN 1537.0848363393457 0.5127301417376875 375.0 92.0 278.0 
196.000084666035 2751.0 NaN 1537.0180360721456 0.5061670641894017 375.0 92.0 278.0 
198.00045491501805 2764.0 NaN 1536.9913159652635 0.5097116036432745 375.0 91.0 279.0 
200.00033353340314 2778.0 NaN 1540.0454241816974 0.5072876635435734 373.0 93.0 278.0 
202.00045491501805 2776.0 NaN 1546.2525050100182 0.50531310442543 377.0 90.0 283.0 
204.00045491501805 2783.0 NaN 1546.1589846359366 0.5030221118217931 373.0 94.0 279.0 
206.000084666035 2796.0 NaN 1543.0915163660636 0.5062630495547424 370.0 98.0 274.0 
208.00045491501805 2782.0 NaN 1543.0487641950544 0.5121169857531394 369.0 97.0 275.0 
210.00033353340314 2783.0 NaN 1539.9973279893118 0.521410710592458 367.0 99.0 272.0 
212.00045491501805 2764.0 NaN 1536.801603206412 0.5129767968872951 370.0 98.0 272.0 
214.00045491501805 2748.0 NaN 1533.776887107548 0.505815447138303 365.0 100.0 269.0 
216.000084666035 2749.0 NaN 1533.6646626586517 0.5060364865048983 369.0 96.0 273.0 
218.00045491501805 2763.0 NaN 1536.9832999332002 0.5076387759545817 377.0 90.0 280.0 
220.00033353340314 2768.0 NaN 1533.7795591182362 0.5130922382353131 374.0 90.0 279.0 
222.00045491501805 2769.0 NaN 1533.7929191716757 0.5117104521271535 380.0 85.0 284.0 
224.00045491501805 2762.0 NaN 1533.5898463593849 0.5043839245771787 381.0 84.0 285.0 
226.000084666035 2754.0 NaN 1533.7555110220453 0.5037272550442029 381.0 84.0 285.0 
228.00045491501805 2764.0 NaN 1542.9739478957908 0.5087528927132151 375.0 89.0 283.0 
230.00033353340314 2757.0 NaN 1542.9926519706091 0.5119037827268238 376.0 88.0 284.0 
232.00045491501805 2745.0 NaN 1543.0273881095545 0.5059482866173353 380.0 84.0 288.0 
234.00045491501805 2737.0 NaN 1546.1910487641933 0.503326668406449 370.0 92.0 281.0 
236.000084666035 2742.0 NaN 1546.1082164328636 0.5075315838397174 371.0 92.0 281.0 
238.00045491501805 2744.0 NaN 1542.9739478957908 0.5154255065457134 366.0 96.0 276.0 
240.00033353340314 2734.0 NaN 1533.7608550434184 0.5146559676714056 365.0 98.0 271.0 
242.00045491501805 2716.0 NaN 1536.8416833667338 0.5074561844700127 373.0 89.0 281.0 
244.00045491501805 2707.0 NaN 1536.8363393453571 0.508747535041297 371.0 90.0 280.0 
246.000084666035 2706.0 NaN 1536.8603874415483 0.5027452511489853 372.0 87.0 283.0 
248.00045491501805 2719.0 NaN 1533.6379425517703 0.508148335650526 369.0 90.0 279.0 
250.00033353340314 2704.0 NaN 1527.7568470273884 0.5100117258859078 367.0 92.0 275.0 
252.00045491501805 2714.0 NaN 1524.4889779559117 0.5087355805575493 368.0 90.0 276.0 
254.00045491501805 2692.0 NaN 1524.5851703406818 0.5009692754717179 364.0 93.0 273.0 
256.00008466603504 2697.0 NaN 1524.4916499666 0.5067190016072309 365.0 95.0 271.0 
258.00045491501805 2710.0 NaN 1524.5851703406818 0.5047076194800495 367.0 94.0 272.0 
260.00033353340314 2702.0 NaN 1524.545090180361 0.5131765143574054 370.0 92.0 274.0 
262.00045491501805 2711.0 NaN 1524.3954575818298 0.5088913293671431 369.0 92.0 274.0 
264.00045491501805 2690.0 NaN 1527.6339345357367 0.5019195411311977 374.0 87.0 280.0 
266.00008466603504 2693.0 NaN 1533.8784235136936 0.5052347583511333 382.0 79.0 290.0 
268.00045491501805 2712.0 NaN 1533.8036072144273 0.5113977210472933 385.0 76.0 293.0 
270.00033353340314 2721.0 NaN 1530.835003340012 0.5091783119873478 384.0 75.0 293.0 
272.00045491501805 2709.0 NaN 1530.642618570473 0.5124145114000952 383.0 75.0 293.0 
274.00045491501805 2672.0 NaN 1530.752171008682 0.5041914430967738 377.0 81.0 287.0 
276.00008466603504 2664.0 NaN 1527.5163660654634 0.5116022072000717 386.0 73.0 294.0 
278.00045491501805 2665.0 NaN 1536.713426853709 0.5199019169102299 391.0 73.0 297.0 
280.00033353340314 2653.0 NaN 1536.7535070140273 0.5072305147423777 395.0 71.0 299.0 
282.00045491501805 2654.0 NaN 1536.6653306613214 0.5069337870851202 390.0 75.0 295.0 
284.00045491501805 2643.0 NaN 1533.6673346693365 0.5079482937771608 387.0 76.0 293.0 
286.00008466603504 2631.0 NaN 1533.6138944555792 0.5137886949915494 386.0 75.0 294.0 
288.00045491501805 2620.0 NaN 1533.6138944555792 0.5079166936503684 382.0 77.0 292.0 
290.00033353340314 2621.0 NaN 1533.7287909151637 0.507732404045675 384.0 76.0 293.0 
292.00045491501805 2619.0 NaN 1533.6112224448912 0.5091937529859727 383.0 76.0 293.0 
294.00045491501805 2613.0 NaN 1533.6753507014023 0.5038990824116232 385.0 74.0 295.0 
296.00008466603504 2607.0 NaN 1536.6706746827 0.4990119588057063 389.0 70.0 300.0 
298.00045491501805 2612.0 NaN 1536.7481629926522 0.5066953275998001 389.0 70.0 300.0 
300.00033353340314 2631.0 NaN 1536.6893787575157 0.5030556331586022 388.0 70.0 300.0 
302.00045491501805 2628.0 NaN 1536.7374749499 0.4989613175285696 388.0 70.0 300.0 
304.00045491501805 2629.0 NaN 1533.4989979959907 0.5047451391845404 392.0 69.0 300.0 
306.00008466603504 2621.0 NaN 1530.5971943887791 0.4996253084594563 392.0 70.0 298.0 
308.00045491501805 2622.0 NaN 1536.6973947895794 0.5029281159173002 390.0 69.0 301.0 
310.00033353340314 2630.0 NaN 1530.6987307949246 0.5007273170605174 390.0 69.0 299.0 
312.00045491501805 2632.0 NaN 1533.6379425517705 0.5063658986335171 389.0 69.0 300.0 
314.00045491501805 2628.0 NaN 1533.648630594521 0.5055593013363846 389.0 69.0 300.0 
316.00008466603504 2625.0 NaN 1533.731462925852 0.5029251591439554 387.0 72.0 297.0 
318.00045491501805 2628.0 NaN 1536.7428189712753 0.5120080370680048 390.0 70.0 300.0 
320.00033353340314 2617.0 NaN 1536.6893787575157 0.5111549207514637 391.0 70.0 300.0 
322.00045491501805 2602.0 NaN 1539.877087508348 0.5032808171658361 391.0 70.0 301.0 
324.00045491501805 2612.0 NaN 1539.906479625918 0.5106325785244825 391.0 69.0 302.0 
326.00008466603504 2611.0 NaN 1539.8076152304611 0.5023464580499578 391.0 69.0 302.0 
328.00045491501805 2611.0 NaN 1539.8289913159638 0.5009390609506732 391.0 69.0 302.0 
330.00033353340314 2616.0 NaN 1539.8396793587183 0.5150471185186425 389.0 70.0 301.0 
332.00045491501805 2617.0 NaN 1539.772879091518 0.5073965143942581 387.0 72.0 299.0 
334.00045491501805 2612.0 NaN 1539.8076152304611 0.504389353761563 386.0 73.0 298.0 
336.00008466603504 2614.0 NaN 1533.565798263191 0.5040271477421846 385.0 73.0 296.0 
338.00045491501805 2630.0 NaN 1530.7040748163001 0.5010676137632286 384.0 73.0 295.0 
340.00033353340314 2651.0 NaN 1527.569806279227 0.5023943873939338 384.0 73.0 294.0 
342.00045491501805 2650.0 NaN 1527.5163660654634 0.5086484979855955 386.0 73.0 294.0 
344.00045491501805 2635.0 NaN 1530.661322645291 0.5070147720779864 385.0 74.0 294.0 
346.00008466603504 2635.0 NaN 1530.6987307949244 0.5040012180458715 384.0 75.0 293.0 
348.00045491501805 2621.0 NaN 1527.5377421509697 0.5124421967116505 383.0 74.0 293.0 
350.00033353340314 2613.0 NaN 1527.4522378089518 0.5026126489288005 381.0 77.0 290.0 
352.00045491501805 2626.0 NaN 1521.3306613226455 0.505740274816705 384.0 77.0 288.0 
354.00045491501805 2631.0 NaN 1524.403473613894 0.5096601317749502 385.0 77.0 289.0 
356.00008466603504 2634.0 NaN 1524.4435537742158 0.5117402471175408 386.0 75.0 291.0 
358.00045491501805 2624.0 NaN 1524.419505678021 0.5161618625891667 382.0 79.0 287.0 
360.00033353340314 2623.0 NaN 1527.6045424181702 0.5149592351823077 379.0 82.0 285.0 
362.00045491501805 2636.0 NaN 1527.580494321979 0.5210068178364309 379.0 81.0 286.0 
364.00045491501805 2635.0 NaN 1524.4061456245818 0.5049669680343597 380.0 79.0 287.0 
366.00008466603504 2642.0 NaN 1515.2785571142272 0.5039635934547889 380.0 79.0 284.0 
368.00045491501805 2630.0 NaN 1499.839679358718 0.5196040670977283 382.0 77.0 281.0 
370.00033353340314 2613.0 NaN 1509.1222444889786 0.5145810327905035 378.0 80.0 281.0 
372.00045491501805 2620.0 NaN 1509.1115564462266 0.5037075580291831 382.0 78.0 283.0 
374.00045491501805 2610.0 NaN 1509.0126920507669 0.501575364784189 382.0 78.0 283.0 
376.00008466603504 2618.0 NaN 1508.8550434201727 0.5070428784302334 383.0 79.0 282.0 
378.00045491501805 2610.0 NaN 1509.1035404141628 0.5159119831630296 383.0 79.0 282.0 
380.00033353340314 2609.0 NaN 1508.9458917835666 0.5038493230358536 387.0 75.0 286.0 
382.00045491501805 2624.0 NaN 1505.9692718770877 0.5065600327031416 385.0 76.0 284.0 
384.00045491501805 2628.0 NaN 1512.1282565130266 0.5145251201703316 386.0 79.0 283.0 
386.00008466603504 2635.0 NaN 1524.513026052103 0.5037303865024806 391.0 77.0 289.0 
388.00045491501805 2629.0 NaN 1512.2217768871083 0.5230568049051644 390.0 77.0 285.0 
390.00033353340314 2626.0 NaN 1509.140948563794 0.519842695724258 391.0 76.0 285.0 
392.00045491501805 2626.0 NaN 1512.2297929191727 0.5026061873278576 387.0 79.0 283.0 
394.00045491501805 2626.0 NaN 1512.2084168336667 0.5126779160893258 386.0 81.0 281.0 
396.00008466603504 2628.0 NaN 1512.0614562458265 0.5135304372637327 388.0 80.0 282.0 
398.00045491501805 2621.0 NaN 1509.0848363393457 0.5145191641956129 388.0 79.0 282.0 
400.00033353340314 2632.0 NaN 1512.1442885771546 0.5086229612966092 386.0 79.0 283.0 
402.00045491501805 2639.0 NaN 1512.2591850367394 0.5107356122811381 391.0 75.0 287.0 
404.00045491501805 2631.0 NaN 1518.3754175016702 0.516319044647145 391.0 76.0 288.0 
406.00008466603504 2633.0 NaN 1524.4863059452243 0.5169261099385772 392.0 77.0 289.0 
408.00045491501805 2630.0 NaN 1521.5177020708093 0.5194356231644731 396.0 73.0 292.0 
410.00033353340314 2649.0 NaN 1527.863727454909 0.5102886241860373 399.0 71.0 296.0 
412.00045491501805 2663.0 NaN 1530.4662658650636 0.5088071158944651 406.0 67.0 301.0 
414.00045491501805 2645.0 NaN 1527.706078824316 0.5199583780940026 411.0 65.0 302.0 
416.00008466603504 2639.0 NaN 1527.5030060120248 0.5086035905968995 409.0 67.0 300.0 
418.00045491501805 2628.0 NaN 1527.5938543754182 0.5061040839503007 405.0 69.0 298.0 
420.00033353340314 2651.0 NaN 1527.695390781564 0.5092152139354892 406.0 68.0 299.0 
422.00045491501805 2663.0 NaN 1512.0 0.5145836741745372 406.0 68.0 294.0 
424.00045491501805 2639.0 NaN 1505.9692718770875 0.5119993812096638 404.0 68.0 292.0 
426.00008466603504 2651.0 NaN 1518.2204408817638 0.5173333274039609 406.0 69.0 295.0 
428.00045491501805 2636.0 NaN 1512.093520374082 0.5119713279210243 404.0 70.0 292.0 
430.00033353340314 2617.0 NaN 1506.0547762191059 0.5293430641664162 403.0 70.0 290.0 
432.00045491501805 2628.0 NaN 1502.8430193720783 0.5058431259852104 403.0 70.0 289.0 
434.00045491501805 2621.0 NaN 1502.917835671343 0.5043565437669794 399.0 73.0 286.0 
436.00008466603504 2620.0 NaN 1515.2090848363384 0.5150550630164265 403.0 72.0 291.0 
438.00045491501805 2618.0 NaN 1521.3894455577818 0.5100127597922721 403.0 72.0 293.0 
440.00033353340314 2623.0 NaN 1521.3707414829646 0.5102069924260477 397.0 79.0 286.0 
442.00045491501805 2646.0 NaN 1521.3787575150293 0.5167250320198055 395.0 80.0 285.0 
444.00045491501805 2626.0 NaN 1527.486973947897 0.5112327058230143 398.0 76.0 291.0 
446.00008466603504 2623.0 NaN 1527.4923179692726 0.5081083777784314 399.0 77.0 290.0 
448.00045491501805 2633.0 NaN 1533.5497661990637 0.5141276466327045 396.0 79.0 290.0 
450.00033353340314 2616.0 NaN 1542.9739478957908 0.521334878783494 400.0 78.0 294.0 
452.00045491501805 2603.0 NaN 1545.971943887775 0.5093975601244077 401.0 77.0 296.0 
454.00045491501805 2596.0 NaN 1546.028056112225 0.5013213893973975 402.0 75.0 298.0 
456.00008466603504 2595.0 NaN 1548.919171676688 0.5023365625051599 403.0 74.0 300.0 
458.00045491501805 2615.0 NaN 1549.0955243820977 0.5142815046953092 399.0 79.0 295.0 
460.00033353340314 2613.0 NaN 1546.0574482297914 0.516885249316074 400.0 78.0 295.0 
462.00045491501805 2605.0 NaN 1545.9211756847026 0.5191727925721418 401.0 77.0 296.0 
464.00045491501805 2574.0 NaN 1545.9318637274544 0.5080601243928738 402.0 75.0 298.0 
466.00008466603504 2567.0 NaN 1546.022712090848 0.5042013794128333 401.0 78.0 295.0 
468.00045491501805 2591.0 NaN 1542.7922511690056 0.5165195304390592 402.0 78.0 294.0 
470.00033353340314 2575.0 NaN 1542.912491649966 0.5177021537039453 400.0 77.0 295.0 
472.00045491501805 2565.0 NaN 1536.6225784903152 0.5067592618403862 397.0 77.0 293.0 
474.00045491501805 2559.0 NaN 1527.5056780227114 0.5082911159585575 400.0 75.0 292.0 
476.00008466603504 2553.0 NaN 1524.3981295925182 0.5051319335804176 399.0 75.0 291.0 
478.00045491501805 2568.0 NaN 1524.4462257849023 0.5098246917988303 402.0 73.0 293.0 
480.00033353340314 2564.0 NaN 1521.3653974615909 0.5193689281696037 402.0 73.0 292.0 
482.00045491501805 2572.0 NaN 1527.5377421509697 0.5144260819352763 400.0 74.0 293.0 
484.00045491501805 2558.0 NaN 1512.2297929191725 0.5079671749554887 402.0 70.0 292.0 
486.00008466603504 2560.0 NaN 1512.160320641282 0.5016196224866214 402.0 70.0 292.0 
488.00045491501805 2586.0 NaN 1502.8510354041425 0.5106886988102839 397.0 71.0 288.0 
490.00033353340314 2573.0 NaN 1496.9058116232457 0.5128548384880931 396.0 74.0 283.0 
492.00045491501805 2577.0 NaN 1490.639946559785 0.5154650371266444 395.0 74.0 281.0 
494.00045491501805 2557.0 NaN 1496.7214428857724 0.5045112067340415 390.0 74.0 283.0 
496.00008466603504 2553.0 NaN 1496.742818971275 0.5005993773449469 387.0 74.0 283.0 
498.00045491501805 2565.0 NaN 1493.6673346693374 0.5051743618197688 383.0 75.0 281.0 
500.00033353340314 2560.0 NaN 1493.699398797594 0.5134091920216244 380.0 75.0 281.0 
502.00045491501805 2571.0 NaN 1493.5043420173668 0.5139143411192231 384.0 74.0 282.0 
504.00045491501805 2561.0 NaN 1487.486973947897 0.5058164587043488 384.0 74.0 280.0 
506.00008466603504 2572.0 NaN 1487.481629926519 0.5020264661351407 385.0 74.0 280.0 
508.00045491501805 2588.0 NaN 1487.5751503006002 0.5022559533759808 385.0 74.0 280.0 
510.00033353340314 2589.0 NaN 1490.6773547094183 0.5054028361888196 385.0 75.0 280.0 
512.000454915018 2594.0 NaN 1493.6673346693374 0.5067348751381248 384.0 74.0 282.0 
514.000454915018 2581.0 NaN 1496.7962591850362 0.5048341216022427 389.0 70.0 287.0 
516.000084666035 2585.0 NaN 1490.7120908483637 0.5020138614335657 380.0 78.0 277.0 
518.000454915018 2605.0 NaN 1484.5263861055453 0.5077598529879623 377.0 78.0 275.0 
520.0003335334031 2593.0 NaN 1478.3967935871735 0.5122805256099862 382.0 71.0 280.0 
522.000454915018 2589.0 NaN 1475.1983967935882 0.5144246131195125 380.0 71.0 279.0 
524.000454915018 2568.0 NaN 1462.952571810288 0.5116619704691565 375.0 71.0 275.0 
526.000084666035 2569.0 NaN 1453.675350701402 0.49961302116995626 380.0 68.0 275.0 
528.000454915018 2586.0 NaN 1456.7615230460915 0.5126199306984432 382.0 67.0 277.0 
530.0003335334031 2585.0 NaN 1459.8717434869734 0.5215128224955512 380.0 67.0 278.0 
532.000454915018 2591.0 NaN 1462.9151636606543 0.5121746211849166 388.0 67.0 279.0 
534.000454915018 2590.0 NaN 1462.8830995323988 0.5081345697332892 386.0 68.0 278.0 
536.000084666035 2585.0 NaN 1465.9104876419512 0.5022625853840114 382.0 72.0 275.0 
538.000454915018 2587.0 NaN 1466.137608550435 0.504404891108424 385.0 71.0 276.0 
540.0003335334031 2584.0 NaN 1466.0280561122254 0.5170941978795479 389.0 68.0 279.0 
542.000454915018 2585.0 NaN 1465.9719438877746 0.5127080540343696 390.0 66.0 281.0 
544.000454915018 2579.0 NaN 1472.1148964595852 0.5108063951278201 393.0 65.0 284.0 
546.000084666035 2567.0 NaN 1475.2999331997332 0.5046007820576247 385.0 73.0 277.0 
548.000454915018 2563.0 NaN 1472.1736806947235 0.5061142424719901 392.0 66.0 283.0 
550.0003335334031 2555.0 NaN 1469.1169004676012 0.5081104116157561 391.0 67.0 281.0 
552.000454915018 2566.0 NaN 1475.1449565798268 0.5131873923958755 391.0 70.0 280.0 
554.000454915018 2566.0 NaN 1478.3433533734128 0.5161785431479978 394.0 71.0 280.0 
556.000084666035 2548.0 NaN 1478.3139612558455 0.5048986016162842 395.0 69.0 282.0 
558.000454915018 2556.0 NaN 1478.3620574482293 0.51352681875983 393.0 71.0 280.0 
560.0003335334031 2555.0 NaN 1472.1148964595855 0.5328765716562324 389.0 71.0 278.0 
562.000454915018 2567.0 NaN 1469.0126920507673 0.5191007465243899 386.0 73.0 275.0 
564.000454915018 2567.0 NaN 1469.218436873747 0.5170392159117039 384.0 73.0 275.0 
566.000084666035 2548.0 NaN 1472.256513026052 0.5058033255278669 385.0 72.0 277.0 
568.000454915018 2555.0 NaN 1478.3513694054782 0.507907713009556 393.0 70.0 281.0 
570.0003335334031 2557.0 NaN 1481.5470941883764 0.515776435181148 395.0 70.0 282.0 
572.000454915018 2547.0 NaN 1481.397461589846 0.5134314231616742 394.0 70.0 282.0 
574.000454915018 2537.0 NaN 1484.5584502338004 0.5132615550243316 394.0 69.0 284.0 
576.000084666035 2529.0 NaN 1493.7608550434195 0.506193569957639 400.0 67.0 289.0 
578.000454915018 2544.0 NaN 1490.685370741482 0.5153329858425256 404.0 63.0 292.0 
580.0003335334031 2547.0 NaN 1490.7227788911164 0.5055699827267613 399.0 68.0 287.0 
582.000454915018 2565.0 NaN 1490.6506346025378 0.5105822295761594 400.0 68.0 287.0 
584.000454915018 2571.0 NaN 1487.4976619906472 0.5129310935644933 402.0 68.0 286.0 
586.000084666035 2561.0 NaN 1487.4362057448238 0.5072240731669229 405.0 66.0 288.0 
588.000454915018 2570.0 NaN 1493.6379425517707 0.51124981413682 409.0 62.0 294.0 
590.0003335334031 2570.0 NaN 1496.8924515698072 0.5112131131040691 405.0 62.0 295.0 
592.000454915018 2582.0 NaN 1499.6579826319296 0.5116589372297609 406.0 63.0 295.0 
594.000454915018 2574.0 NaN 1499.8129592518364 0.5203521531983177 408.0 64.0 294.0 
596.000084666035 2557.0 NaN 1496.7454909819635 0.5084683491138374 408.0 64.0 293.0 
598.000454915018 2563.0 NaN 1487.5030060120243 0.5077707859908984 408.0 63.0 291.0 
600.0003335334031 2573.0 NaN 1490.599866399465 0.5076571685623403 409.0 64.0 291.0 
602.000454915018 2579.0 NaN 1487.454909819639 0.5100046891729778 402.0 70.0 284.0 
604.000454915018 2575.0 NaN 1487.4682698730803 0.511508338579347 402.0 70.0 284.0 
606.000084666035 2568.0 NaN 1496.8416833667343 0.5021193906059016 402.0 67.0 290.0 
608.000454915018 2589.0 NaN 1496.713426853708 0.5066136247612141 402.0 66.0 291.0 
610.0003335334031 2592.0 NaN 1499.9331997327997 0.5109146986818036 399.0 69.0 289.0 
612.000454915018 2601.0 NaN 1499.8263193052755 0.5191351377773361 390.0 78.0 280.0 
614.000454915018 2579.0 NaN 1499.9198396793577 0.5094962358281196 391.0 78.0 280.0 
616.000084666035 2579.0 NaN 1496.7668670674695 0.5065013840447942 390.0 78.0 279.0 
618.000454915018 2595.0 NaN 1496.6786907147634 0.5057359434987431 392.0 77.0 280.0 
620.0003335334031 2626.0 NaN 1505.9933199732807 0.5107177856349094 396.0 74.0 286.0 
622.000454915018 2620.0 NaN 1509.1275885103548 0.5281562934206164 402.0 69.0 292.0 
624.000454915018 2586.0 NaN 1509.0447561790254 0.5015931348411756 402.0 67.0 294.0 
626.000084666035 2611.0 NaN 1512.1950567802273 0.5112784662387098 401.0 68.0 294.0 
628.000454915018 2629.0 NaN 1515.3400133600546 0.5069560261242003 400.0 70.0 293.0 
630.0003335334031 2673.0 NaN 1515.2999331997335 0.5122005445940927 407.0 64.0 299.0 
632.000454915018 2675.0 NaN 1515.3507014028062 0.5150491171062535 398.0 74.0 289.0 
634.000454915018 2660.0 NaN 1518.4475617902467 0.5161561864584439 399.0 72.0 292.0 
636.000084666035 2658.0 NaN 1518.4261857047436 0.5105206672988287 401.0 71.0 293.0 
638.000454915018 2670.0 NaN 1518.3834335337351 0.5132317831802895 403.0 70.0 294.0 
640.0003335334031 2656.0 NaN 1515.3132932531726 0.5199313682247964 402.0 71.0 292.0 
642.000454915018 2647.0 NaN 1518.30861723447 0.5153774656437856 402.0 71.0 293.0 
644.000454915018 2625.0 NaN 1512.1336005344012 0.5060999181025022 394.0 76.0 286.0 
646.000084666035 2616.0 NaN 1512.114896459585 0.5160801919186494 387.0 75.0 287.0 
648.000454915018 2640.0 NaN 1515.144956579827 0.5120542588649849 383.0 77.0 286.0 
650.0003335334031 2633.0 NaN 1521.319973279892 0.5189799991284239 387.0 75.0 290.0 
652.000454915018 2631.0 NaN 1518.2765531062114 0.5312409820061585 385.0 78.0 286.0 
654.000454915018 2600.0 NaN 1518.2845691382756 0.5117436243738429 384.0 78.0 286.0 
656.000084666035 2602.0 NaN 1518.2631930527727 0.5161910327535869 384.0 78.0 286.0 
658.000454915018 2632.0 NaN 1527.6098864395453 0.5153733198439503 383.0 78.0 289.0 
660.0003335334031 2636.0 NaN 1533.7955911823635 0.5145858587305518 385.0 78.0 291.0 
662.000454915018 2636.0 NaN 1533.7608550434193 0.5277892642709783 388.0 76.0 293.0 
664.000454915018 2601.0 NaN 1533.7688710754837 0.523887369748832 395.0 68.0 301.0 
#####################################################################
# End of data export. Simulation finished at: 2019-03-06T02:55+0000 #
#####################################################################
