#####################################################################
# Alchemist log file - simulation started at: 2019-03-06T23:34+0000 #
#####################################################################
# seed = 4.0, bandwidth = 5623413.251903491, propagationDelay = 3.1622776601683795, baserange = 31.622776601683796
#
# The columns have the following meaning: 
# time neighbor_count[Sum] <value>@neighbor_count[Sum] packet_size[Mean] mean_delay[Mean] crowd[Sum] overcrowded[Sum] risk[Sum] 
0.0 NaN NaN NaN NaN NaN NaN NaN 
2.0004793365590676 NaN NaN 4988.0 NaN 1497.0 0.0 1497.0 
4.00042902272939 956.0 NaN 4988.897795591182 0.23153489826323886 1497.0 0.0 1497.0 
6.000479336559067 2790.0 NaN 4997.552438209753 1.8390651804399294 1497.0 0.0 1497.0 
8.000479336559067 2790.0 NaN 4995.89044756179 2.5035019786562915 1497.0 0.0 1497.0 
10.000479336559067 2790.0 NaN 4994.455577822311 1.8390639345310922 1491.0 6.0 1491.0 
12.000479336559067 2792.0 NaN 4992.374081496326 2.506587368604214 1486.0 11.0 1486.0 
14.00042902272939 2797.0 NaN 4994.851035404142 1.8441823419284138 1472.0 25.0 1472.0 
16.000479336559067 2792.0 NaN 4993.9746158984635 2.5098283675726116 1470.0 27.0 1470.0 
18.000479336559067 2796.0 NaN 4992.6680026720105 1.8503872436602289 1470.0 27.0 1470.0 
20.000479336559067 2796.0 NaN 4991.719438877755 2.5088094477755325 1475.0 22.0 1475.0 
22.000479336559067 2801.0 NaN 4994.068136272545 1.8485631483961413 1450.0 47.0 1450.0 
24.000429022729392 2795.0 NaN 4993.629926519706 2.5063407850661816 1447.0 50.0 1447.0 
26.000479336559067 2803.0 NaN 4992.251169004676 1.8396396118715916 1444.0 53.0 1444.0 
28.000479336559067 2809.0 NaN 4991.527054108216 2.503110196415079 1444.0 53.0 1444.0 
30.000479336559067 2811.0 NaN 4993.907815631263 1.848084374033059 1444.0 53.0 1444.0 
32.00047933655907 2805.0 NaN 4993.581830327321 2.5009331275853106 1442.0 55.0 1442.0 
34.00042902272939 2816.0 NaN 4992.253841015364 1.8534141603358458 1441.0 56.0 1441.0 
36.00047933655907 2814.0 NaN 4991.719438877755 2.503925300494567 1440.0 57.0 1440.0 
38.00047933655907 2831.0 NaN 4993.854375417502 1.857456292216301 1444.0 53.0 1444.0 
40.00047933655907 2816.0 NaN 4993.496325985304 2.5018272127779575 1443.0 54.0 1443.0 
42.00047933655907 2819.0 NaN 4992.371409485638 1.851172803868105 1442.0 55.0 1442.0 
44.00042902272939 2810.0 NaN 4991.679358717435 2.5033178430931615 1441.0 56.0 1441.0 
46.00047933655907 2829.0 NaN 4993.763527054109 1.8455795047480146 1437.0 60.0 1437.0 
48.00047933655907 2836.0 NaN 4993.573814295257 2.508824748703083 1437.0 60.0 1437.0 
50.00047933655907 2845.0 NaN 4992.141616566466 1.861986097514691 1437.0 60.0 1437.0 
52.00047933655907 2841.0 NaN 4991.473613894455 2.5158149151593747 1437.0 60.0 1437.0 
54.00042902272939 2854.0 NaN 4993.766199064797 1.8796763088250628 1440.0 57.0 1440.0 
56.00047933655907 2836.0 NaN 4993.504342017368 2.506525192555101 1438.0 59.0 1438.0 
58.00047933655907 2852.0 NaN 4992.317969271877 1.865644243988096 1440.0 57.0 1440.0 
60.00047933655907 2819.0 NaN 4988.7428189712755 2.5039525895184194 1441.0 56.0 1440.0 
62.00047933655907 2843.0 NaN 1521.547094188376 1.8526049643410707 645.0 59.0 306.0 
64.00042902272939 2831.0 NaN 1521.5871743486973 2.5141527022969345 617.0 61.0 304.0 
66.00047933655907 2845.0 NaN 1524.5023380093521 1.8478327123601914 566.0 63.0 303.0 
68.00039163535179 2841.0 NaN 1524.2698730794912 2.5198063431629873 547.0 62.0 304.0 
70.00047933655907 2858.0 NaN 1524.4996659986634 1.8634273442472993 500.0 64.0 302.0 
72.00039163535179 2843.0 NaN 1527.6045424181702 2.5204127842080264 489.0 66.0 301.0 
74.00042902272939 2858.0 NaN 1527.4976619906479 1.8656640246886385 471.0 65.0 302.0 
76.00039163535179 2843.0 NaN 1530.4448897795608 2.5256296784940613 461.0 65.0 303.0 
78.00047933655907 2872.0 NaN 1533.6299265197065 1.8702714373565144 452.0 63.0 306.0 
80.00039163535179 2849.0 NaN 1536.6786907147637 2.5303927179188888 452.0 63.0 307.0 
82.00047933655907 2864.0 NaN 1536.6359385437547 1.8727153563906198 439.0 64.0 306.0 
84.00039163535179 2835.0 NaN 1536.649298597194 2.524712439908301 438.0 64.0 306.0 
86.00047933655907 2842.0 NaN 1536.7241148964608 1.8517737898755766 429.0 66.0 304.0 
88.00039163535179 2829.0 NaN 1536.761523046091 2.5233388769256337 431.0 63.0 307.0 
90.00047933655907 2832.0 NaN 1536.6973947895792 1.8486770764699652 432.0 61.0 309.0 
92.00039163535179 2825.0 NaN 1536.5424181696726 2.5349183396437245 429.0 62.0 308.0 
94.00042902272939 2836.0 NaN 1536.7454909819635 1.8681255819053708 426.0 63.0 307.0 
96.00039163535179 2798.0 NaN 1536.7828991315969 2.530147991564767 422.0 64.0 306.0 
98.00047933655907 2810.0 NaN 1536.6252505010002 1.8617096240669735 422.0 63.0 307.0 
100.00039163535179 2793.0 NaN 1539.700734802939 2.528219697903647 421.0 64.0 307.0 
102.00047933655907 2811.0 NaN 1539.8209752838998 1.8663788675677222 426.0 59.0 312.0 
104.00039163535179 2785.0 NaN 1539.708750835003 2.529910476021985 427.0 56.0 315.0 
106.00047933655907 2800.0 NaN 1539.6820307281243 1.86358488624335 423.0 58.0 313.0 
108.00039163535179 2796.0 NaN 1539.644622578491 2.537410987626397 423.0 57.0 314.0 
110.00047933655907 2811.0 NaN 1539.7274549098186 1.883067935339461 424.0 54.0 317.0 
112.00039163535179 2798.0 NaN 1539.6873747495001 2.5270296998323847 421.0 56.0 315.0 
114.00042902272939 2827.0 NaN 1539.6980627922514 1.8611547514127607 423.0 54.0 317.0 
116.00039163535179 2801.0 NaN 1539.6098864395453 2.5273258113751638 420.0 58.0 313.0 
118.00047933655907 2821.0 NaN 1539.8530394121572 1.8775769322336764 422.0 54.0 317.0 
120.00039163535179 2801.0 NaN 1539.8744154976634 2.5118863620003853 423.0 52.0 319.0 
122.00047933655907 2825.0 NaN 1548.9138276553092 1.8950304338847337 421.0 54.0 320.0 
124.00039163535179 2784.0 NaN 1548.8336673346698 2.5059033607605476 420.0 56.0 318.0 
126.00047933655907 2801.0 NaN 1549.002004008018 1.8671748256229679 424.0 53.0 321.0 
128.0003916353518 2789.0 NaN 1548.916499666 2.50977470687896 422.0 53.0 321.0 
130.00047933655907 2796.0 NaN 1545.8490313961272 1.8568010365930332 424.0 51.0 322.0 
132.0003916353518 2787.0 NaN 1542.7869071476273 2.5334852670209673 423.0 50.0 322.0 
134.0004290227294 2797.0 NaN 1542.9792919171666 1.900767542117593 425.0 47.0 325.0 
136.0003916353518 2757.0 NaN 1542.9338677354729 2.5138017636748655 422.0 49.0 323.0 
138.00047933655907 2786.0 NaN 1542.8643954575818 1.865270676862417 421.0 51.0 321.0 
140.0003916353518 2778.0 NaN 1539.7969271877091 2.516103482380901 419.0 53.0 318.0 
142.00047933655907 2819.0 NaN 1542.9044756179023 1.8846343436414055 423.0 51.0 321.0 
144.0003916353518 2805.0 NaN 1542.8857715430852 2.5161452117093126 420.0 52.0 320.0 
146.00047933655907 2817.0 NaN 1545.9799599198393 1.8506276920161455 418.0 54.0 319.0 
148.0003916353518 2816.0 NaN 1545.8917835671361 2.514884908974692 414.0 57.0 316.0 
150.00047933655907 2836.0 NaN 1552.1603206412817 1.8912182012189276 416.0 56.0 319.0 
152.0003916353518 2828.0 NaN 1549.0474281897118 2.5114208527517463 418.0 53.0 321.0 
154.0004290227294 2871.0 NaN 1545.9158316633273 1.8766458132447186 423.0 51.0 322.0 
156.0003916353518 2838.0 NaN 1548.959251837009 2.5187052668924896 422.0 52.0 322.0 
158.00047933655907 2857.0 NaN 1542.9311957247814 1.8670566453889597 423.0 51.0 321.0 
160.0003916353518 2843.0 NaN 1542.8991315965275 2.523256507273862 418.0 53.0 319.0 
162.00047933655907 2865.0 NaN 1542.8296593186362 1.8933906120592319 416.0 55.0 317.0 
164.0003916353518 2822.0 NaN 1542.7815631262545 2.5237095105185574 417.0 54.0 318.0 
166.00047933655907 2827.0 NaN 1546.0120240480971 1.8725390980342405 415.0 55.0 318.0 
168.0003916353518 2808.0 NaN 1545.9986639946546 2.531732612167599 411.0 58.0 315.0 
170.00047933655907 2836.0 NaN 1542.8376753507002 1.8882318643507996 406.0 62.0 310.0 
172.0003916353518 2801.0 NaN 1542.7655310621249 2.531452693011481 407.0 61.0 311.0 
174.0004290227294 2826.0 NaN 1539.8503674014703 1.8875147186944712 414.0 54.0 317.0 
176.0003916353518 2778.0 NaN 1536.710754843018 2.5336667612576296 417.0 51.0 319.0 
178.00047933655907 2791.0 NaN 1539.778223112891 1.8928939627557697 417.0 52.0 319.0 
180.0003916353518 2778.0 NaN 1539.8049432197727 2.520208704212148 417.0 55.0 316.0 
182.00047933655907 2806.0 NaN 1539.8236472945907 1.8721579771892993 413.0 60.0 311.0 
184.0003916353518 2771.0 NaN 1539.7942551770207 2.5119681760246495 413.0 58.0 313.0 
186.00047933655907 2786.0 NaN 1536.750835003339 1.8784057567433403 413.0 56.0 314.0 
188.0003916353518 2762.0 NaN 1533.5898463593846 2.516988892423995 409.0 60.0 309.0 
190.00047933655907 2778.0 NaN 1536.7882431529729 1.8720187279051663 395.0 71.0 299.0 
192.0003916353518 2766.0 NaN 1539.78356713427 2.5358789937723767 398.0 66.0 305.0 
194.0004290227294 2786.0 NaN 1536.6813627254517 1.9028945799300692 401.0 63.0 307.0 
196.0003916353518 2745.0 NaN 1539.6633266533067 2.5297648307121605 395.0 68.0 303.0 
198.00047933655907 2769.0 NaN 1539.7835671342698 1.8731560941772682 394.0 71.0 300.0 
200.0003916353518 2771.0 NaN 1539.8289913159638 2.5279774383983336 391.0 73.0 298.0 
202.00047933655907 2806.0 NaN 1542.9392117568455 1.8778331742116279 393.0 73.0 299.0 
204.0003916353518 2770.0 NaN 1549.0100200400818 2.5265004458668225 393.0 73.0 301.0 
206.00047933655907 2793.0 NaN 1548.9752839011364 1.8680995906771236 395.0 73.0 301.0 
208.00047933655907 2780.0 NaN 1542.8563794255183 2.539002973747517 395.0 72.0 300.0 
210.00047933655907 2789.0 NaN 1539.8156312625272 1.8768983032200524 395.0 73.0 298.0 
212.00047933655907 2766.0 NaN 1539.767535070139 2.5510967187495055 397.0 72.0 299.0 
214.0004290227294 2780.0 NaN 1539.8129592518362 1.9055460822042163 398.0 70.0 301.0 
216.00047933655907 2739.0 NaN 1539.7889111556456 2.5134482372440816 398.0 69.0 302.0 
218.00047933655907 2759.0 NaN 1539.7461589846364 1.8700645213672253 395.0 71.0 300.0 
220.00047933655907 2756.0 NaN 1539.7541750167002 2.511870928610841 394.0 72.0 299.0 
222.00047933655907 2791.0 NaN 1536.7321309285244 1.8860833778844044 395.0 72.0 298.0 
224.0004290227294 2764.0 NaN 1536.6973947895792 2.5272760929159688 394.0 73.0 297.0 
226.00047933655907 2777.0 NaN 1539.660654642618 1.8776998380884717 397.0 70.0 301.0 
228.00047933655907 2753.0 NaN 1542.7281229124908 2.533998518275057 398.0 69.0 303.0 
230.00047933655907 2771.0 NaN 1545.9772879091522 1.9034599488825052 398.0 67.0 306.0 
232.00047933655907 2745.0 NaN 1545.9559118236455 2.5217399929158346 395.0 68.0 305.0 
234.0004290227294 2765.0 NaN 1545.8917835671364 1.8888926209765808 396.0 69.0 304.0 
236.00047933655907 2742.0 NaN 1545.907815631264 2.520255323571888 395.0 68.0 305.0 
238.00047933655907 2753.0 NaN 1545.8704074816296 1.8864468335807465 397.0 66.0 307.0 
240.00047933655907 2742.0 NaN 1542.7975951903818 2.521602946969246 396.0 66.0 306.0 
242.00047933655907 2753.0 NaN 1539.7221108884453 1.9076880428999232 392.0 70.0 301.0 
244.0004290227294 2704.0 NaN 1539.6873747495001 2.5104673929640424 390.0 71.0 300.0 
246.00047933655907 2713.0 NaN 1536.6386105544427 1.8666969566494596 384.0 78.0 292.0 
248.00047933655907 2710.0 NaN 1536.6038744154998 2.4975233412716427 383.0 75.0 295.0 
250.00047933655907 2724.0 NaN 1536.7134268537088 1.8631335195489571 390.0 69.0 301.0 
252.00047933655907 2711.0 NaN 1533.5444221776906 2.5187558980063094 389.0 70.0 299.0 
254.0004290227294 2717.0 NaN 1530.4502338009365 1.893638150301223 384.0 73.0 295.0 
256.00047933655907 2698.0 NaN 1527.29191716767 2.4959394001861 384.0 74.0 293.0 
258.00047933655907 2739.0 NaN 1527.3881095524366 1.8733201734183333 394.0 66.0 301.0 
260.00047933655907 2725.0 NaN 1524.3420173680702 2.5298120351837383 397.0 64.0 302.0 
262.00047933655907 2739.0 NaN 1527.454909819639 1.9303617562488042 398.0 63.0 304.0 
264.0004290227294 2681.0 NaN 1527.446893787575 2.5179325466399676 395.0 64.0 303.0 
266.00047933655907 2696.0 NaN 1527.3881095524366 1.8870333241552175 401.0 61.0 306.0 
268.00047933655907 2690.0 NaN 1536.6412825651298 2.5010484086642886 401.0 60.0 310.0 
270.00047933655907 2717.0 NaN 1542.851035404143 1.8812618194715607 404.0 57.0 315.0 
272.00047933655907 2700.0 NaN 1539.7274549098183 2.5266267802847975 404.0 56.0 315.0 
274.0004290227294 2714.0 NaN 1536.6065464261844 1.9108846927331873 407.0 54.0 316.0 
276.00039163535183 2667.0 NaN 1536.5744822979273 2.517701747926272 408.0 53.0 317.0 
278.00047933655907 2683.0 NaN 1539.7702070808273 1.9087571103057699 408.0 53.0 318.0 
280.00039163535183 2650.0 NaN 1539.706078824316 2.524568790209611 406.0 52.0 319.0 
282.00047933655907 2672.0 NaN 1539.6766867067454 1.9217870069241207 408.0 54.0 317.0 
284.00039163535183 2629.0 NaN 1539.6285905143636 2.524892399150743 409.0 55.0 316.0 
286.00047933655907 2638.0 NaN 1533.4428857715436 1.8824685461264827 406.0 57.0 312.0 
288.00039163535183 2619.0 NaN 1533.4161656646638 2.519853747520993 403.0 57.0 312.0 
290.00047933655907 2636.0 NaN 1533.568470273882 1.8882587842906837 405.0 54.0 315.0 
292.00039163535183 2614.0 NaN 1533.5604542418182 2.5015158570213223 404.0 53.0 316.0 
294.0004290227294 2633.0 NaN 1530.471609886439 1.8796254134591315 407.0 50.0 318.0 
296.00039163535183 2611.0 NaN 1533.5123580494337 2.5197092234787095 408.0 51.0 318.0 
298.00047933655907 2627.0 NaN 1536.5584502337997 1.8905843546651613 407.0 52.0 318.0 
300.00039163535183 2615.0 NaN 1539.6900467601884 2.500186783895222 409.0 52.0 319.0 
302.00047933655907 2637.0 NaN 1539.649966599866 1.8770284536986657 410.0 51.0 320.0 
304.00039163535183 2622.0 NaN 1536.561122244491 2.482091310903407 410.0 51.0 319.0 
306.00047933655907 2638.0 NaN 1533.4722778891112 1.8637878622265356 408.0 51.0 318.0 
308.00039163535183 2632.0 NaN 1530.3567134268546 2.490458979844148 407.0 51.0 317.0 
310.00047933655907 2643.0 NaN 1533.5257181028728 1.901016691530848 408.0 49.0 320.0 
312.00039163535183 2617.0 NaN 1530.3513694054793 2.50001343088692 409.0 49.0 319.0 
314.0004290227294 2630.0 NaN 1530.3914495657998 1.8762467867470298 410.0 49.0 319.0 
316.00039163535183 2614.0 NaN 1533.448229792918 2.493819991796393 409.0 49.0 320.0 
318.00047933655907 2631.0 NaN 1530.4903139612547 1.8612664528524856 406.0 51.0 317.0 
320.00039163535183 2621.0 NaN 1530.460921843688 2.5119777904823213 404.0 52.0 316.0 
322.00047933655907 2636.0 NaN 1527.3907815631273 1.9157759158448195 407.0 51.0 316.0 
324.00039163535183 2604.0 NaN 1524.3179692718757 2.476201611602496 406.0 50.0 316.0 
326.00047933655907 2619.0 NaN 1527.3827655310633 1.86371961575936 405.0 50.0 317.0 
328.00039163535183 2605.0 NaN 1530.4903139612547 2.488091509511633 407.0 49.0 319.0 
330.00047933655907 2608.0 NaN 1530.4502338009365 1.8706279160936126 405.0 50.0 318.0 
332.00039163535183 2605.0 NaN 1530.3567134268546 2.490094832195042 405.0 50.0 318.0 
334.0004290227294 2631.0 NaN 1530.426185704743 1.8960826417386663 410.0 48.0 320.0 
336.00039163535183 2616.0 NaN 1521.1462925851706 2.476376794268315 407.0 49.0 316.0 
338.00047933655907 2634.0 NaN 1524.2698730794912 1.8568783258683557 407.0 50.0 316.0 
340.00039163535183 2631.0 NaN 1524.291249164997 2.501249546140086 407.0 50.0 316.0 
342.00047933655907 2650.0 NaN 1524.3633934535726 1.9074296237731592 405.0 51.0 315.0 
344.00039163535183 2614.0 NaN 1530.4422177688723 2.5015112299257174 406.0 51.0 317.0 
346.00047933655907 2629.0 NaN 1530.4074816299274 1.88772860193951 408.0 50.0 318.0 
348.00039163535183 2618.0 NaN 1527.2571810287247 2.4947629274426806 409.0 50.0 317.0 
350.00047933655907 2634.0 NaN 1533.5096860387453 1.8677206135989008 410.0 50.0 319.0 
352.00039163535183 2624.0 NaN 1527.3079492317975 2.5081670851966438 409.0 51.0 316.0 
354.0004290227294 2638.0 NaN 1524.2885771543092 1.8932054027862917 409.0 51.0 315.0 
356.00039163535183 2615.0 NaN 1524.2778891115552 2.5113637264053246 409.0 50.0 316.0 
358.00047933655907 2637.0 NaN 1524.320641282564 1.893831992692773 409.0 50.0 316.0 
360.00039163535183 2621.0 NaN 1524.392785571143 2.5246873672067505 408.0 51.0 315.0 
362.00047933655907 2646.0 NaN 1527.4923179692728 1.903945083558799 407.0 52.0 315.0 
364.00039163535183 2614.0 NaN 1527.3987975951911 2.503486778598074 405.0 53.0 314.0 
366.00047933655907 2635.0 NaN 1524.3740814963269 1.87976208923963 402.0 55.0 311.0 
368.00039163535183 2626.0 NaN 1527.4362057448243 2.501915873185743 405.0 54.0 313.0 
370.00047933655907 2636.0 NaN 1515.147628590515 1.872997530121259 406.0 53.0 310.0 
372.00039163535183 2615.0 NaN 1518.142952571809 2.5244035850259 406.0 53.0 311.0 
374.0004290227294 2642.0 NaN 1515.171676686707 1.9116330894193818 406.0 53.0 310.0 
376.00039163535183 2606.0 NaN 1515.1636606546433 2.5071020429514626 404.0 54.0 309.0 
378.00047933655907 2618.0 NaN 1509.0020040080171 1.8705879046798273 404.0 55.0 306.0 
380.00039163535183 2616.0 NaN 1512.1042084168341 2.522384782086047 408.0 52.0 310.0 
382.00047933655907 2645.0 NaN 1508.9779559118242 1.9019837065289136 409.0 52.0 309.0 
384.00039163535183 2627.0 NaN 1515.0835003340007 2.50657413151295 409.0 54.0 309.0 
386.00047933655907 2658.0 NaN 1515.1556446225793 1.876562869410243 411.0 54.0 309.0 
388.00039163535183 2651.0 NaN 1518.2017368069462 2.5202948995663896 411.0 53.0 311.0 
390.00047933655907 2659.0 NaN 1512.0507682030725 1.888780138575777 408.0 54.0 308.0 
392.00039163535183 2644.0 NaN 1512.0534402137614 2.5350068115667823 412.0 51.0 311.0 
394.0004290227294 2672.0 NaN 1515.241148964597 1.9396383102319537 412.0 49.0 314.0 
396.00039163535183 2622.0 NaN 1515.147628590515 2.529840665482792 410.0 51.0 312.0 
398.00047933655907 2648.0 NaN 1515.131596526385 1.8714117842912399 410.0 52.0 311.0 
400.00039163535183 2643.0 NaN 1512.0561122244485 2.5311994893873804 408.0 54.0 308.0 
402.00047933655907 2676.0 NaN 1515.2171008684031 1.9139555296386885 411.0 53.0 310.0 
404.00039163535183 2630.0 NaN 1515.142284569137 2.5247824960030862 413.0 53.0 310.0 
406.00047933655907 2657.0 NaN 1515.169004676018 1.9049903125453138 415.0 52.0 311.0 
408.00039163535183 2636.0 NaN 1518.19906479626 2.5361398838919476 419.0 49.0 315.0 
410.00047933655907 2655.0 NaN 1521.2959251837 1.9022220672882386 422.0 46.0 319.0 
412.00039163535183 2641.0 NaN 1521.2424849699394 2.52803843401015 422.0 46.0 319.0 
414.0004290227294 2664.0 NaN 1530.5357381429542 1.9133275835118249 425.0 44.0 324.0 
416.00039163535183 2626.0 NaN 1530.4822979291907 2.537267378206864 426.0 45.0 323.0 
418.00047933655907 2640.0 NaN 1521.2692050768187 1.9234735531991745 429.0 41.0 324.0 
420.00039163535183 2612.0 NaN 1515.1182364729455 2.503808874590746 430.0 40.0 323.0 
422.00047933655907 2641.0 NaN 1518.2044088176365 1.870480555058311 430.0 40.0 324.0 
424.00039163535183 2617.0 NaN 1512.141616566466 2.5161201564552194 428.0 42.0 320.0 
426.00047933655907 2637.0 NaN 1512.0587842351363 1.8696214827281454 422.0 48.0 314.0 
428.00039163535183 2627.0 NaN 1511.9492317969275 2.5437596692488813 423.0 46.0 316.0 
430.00047933655907 2652.0 NaN 1515.0434201736816 1.9240360514636592 429.0 43.0 320.0 
432.00039163535183 2624.0 NaN 1511.9786239144964 2.5373071590698246 429.0 42.0 320.0 
434.0004290227294 2656.0 NaN 1518.1670006680022 1.9227521932610043 436.0 40.0 324.0 
436.00039163535183 2605.0 NaN 1521.2050768203085 2.544109448205343 434.0 41.0 324.0 
438.00047933655907 2626.0 NaN 1527.3533734134933 1.9202435844242933 429.0 46.0 321.0 
440.00039163535183 2617.0 NaN 1527.4228456913818 2.520224388099086 430.0 46.0 321.0 
442.00047933655907 2660.0 NaN 1527.3934535738153 1.8973631332429328 431.0 47.0 320.0 
444.00039163535183 2639.0 NaN 1530.426185704743 2.517825938788412 429.0 47.0 321.0 
446.00047933655907 2651.0 NaN 1527.3293253173003 1.8938599834050436 428.0 48.0 319.0 
448.00039163535183 2622.0 NaN 1542.7762191048755 2.5383335827330913 428.0 48.0 324.0 
450.00047933655907 2632.0 NaN 1542.6880427521724 1.9234122203379347 430.0 47.0 325.0 
452.00039163535183 2599.0 NaN 1539.6392785571152 2.526133025088336 430.0 46.0 325.0 
454.0004290227294 2631.0 NaN 1545.857047428191 1.917863021036261 433.0 45.0 328.0 
456.00039163535183 2592.0 NaN 1542.7762191048755 2.528764642737703 430.0 46.0 326.0 
458.00047933655907 2604.0 NaN 1545.8036072144275 1.88274042312388 429.0 47.0 326.0 
460.00039163535183 2589.0 NaN 1548.9191716766882 2.5286697846622097 429.0 47.0 327.0 
462.00047933655907 2615.0 NaN 1545.7608550434184 1.8953823290765501 427.0 48.0 325.0 
464.00039163535183 2580.0 NaN 1542.680026720109 2.5338038200291897 426.0 48.0 324.0 
466.00047933655907 2593.0 NaN 1542.680026720109 1.910955825684042 428.0 47.0 325.0 
468.00039163535183 2560.0 NaN 1545.7581830327335 2.5387258916846047 428.0 47.0 326.0 
470.00047933655907 2575.0 NaN 1545.774215096861 1.906429019546775 429.0 46.0 327.0 
472.00039163535183 2565.0 NaN 1539.612558450234 2.537029155024675 428.0 46.0 325.0 
474.0004290227294 2592.0 NaN 1536.5744822979275 1.902231840138527 426.0 47.0 323.0 
476.00039163535183 2558.0 NaN 1533.4589178356723 2.5332973380159416 426.0 47.0 322.0 
478.00047933655907 2575.0 NaN 1524.1923847695386 1.908040189493079 425.0 48.0 318.0 
480.00039163535183 2557.0 NaN 1527.3106212424843 2.5326940880989666 421.0 50.0 317.0 
482.00047933655907 2586.0 NaN 1527.3106212424843 1.894409194331617 422.0 50.0 317.0 
484.00039163535183 2569.0 NaN 1524.2778891115552 2.54688306149068 423.0 49.0 317.0 
486.00047933655907 2586.0 NaN 1515.0300601202393 1.9209179498935591 422.0 50.0 313.0 
488.00039163535183 2563.0 NaN 1511.9625918503664 2.521264549536373 420.0 49.0 313.0 
490.00047933655907 2574.0 NaN 1505.8196392785565 1.861481166518213 421.0 47.0 313.0 
492.00039163535183 2570.0 NaN 1502.749498997997 2.5444012467287185 420.0 47.0 312.0 
494.0004290227294 2585.0 NaN 1496.66800267201 1.920530212828855 420.0 46.0 311.0 
496.00039163535183 2543.0 NaN 1496.6546426185716 2.5085002379679744 417.0 48.0 309.0 
498.00047933655907 2564.0 NaN 1496.5878423513702 1.867089735285963 413.0 50.0 307.0 
500.00039163535183 2560.0 NaN 1493.5791583166342 2.5148918580700776 412.0 50.0 306.0 
502.00047933655907 2574.0 NaN 1490.4716098864387 1.878756671125432 412.0 50.0 305.0 
504.00039163535183 2560.0 NaN 1487.4495657982636 2.5090775510873753 411.0 50.0 304.0 
506.00047933655907 2579.0 NaN 1487.3373413493648 1.8605694838471447 406.0 55.0 299.0 
508.00039163535183 2571.0 NaN 1490.3967935871735 2.544258313647866 407.0 55.0 300.0 
510.00047933655907 2587.0 NaN 1487.4362057448243 1.9122567845735694 403.0 57.0 297.0 
512.0003916353518 2575.0 NaN 1487.4281897127576 2.5335111449174286 402.0 57.0 297.0 
514.0004290227293 2589.0 NaN 1490.5223780895114 1.873324975127536 405.0 55.0 300.0 
516.0003916353518 2580.0 NaN 1484.355377421509 2.533785776870175 406.0 53.0 300.0 
518.000479336559 2600.0 NaN 1472.0320641282556 1.8891979047722398 407.0 51.0 298.0 
520.0003916353518 2570.0 NaN 1465.950567802272 2.5353375439037924 404.0 52.0 295.0 
522.000479336559 2585.0 NaN 1459.7461589846362 1.8868584398453252 406.0 49.0 296.0 
524.0003916353518 2562.0 NaN 1459.7942551770202 2.548138504737431 399.0 51.0 294.0 
526.000479336559 2578.0 NaN 1459.7675350701393 1.8868165022462684 397.0 50.0 295.0 
528.0003916353518 2559.0 NaN 1453.6058784235124 2.5463279017108573 397.0 49.0 294.0 
530.000479336559 2576.0 NaN 1447.4549098196387 1.879472502072803 396.0 48.0 293.0 
532.0003916353518 2568.0 NaN 1453.6379425517705 2.532676348465566 398.0 46.0 297.0 
534.0004290227293 2589.0 NaN 1459.7541750167002 1.891736783980109 399.0 46.0 299.0 
536.0003916353518 2572.0 NaN 1459.7755511022035 2.5246116126533273 400.0 47.0 298.0 
538.000479336559 2596.0 NaN 1456.7054108216441 1.8856748804012817 401.0 47.0 297.0 
540.0003916353518 2574.0 NaN 1459.842351369406 2.5194255467262603 401.0 47.0 298.0 
542.000479336559 2591.0 NaN 1462.821643286573 1.8996353866059439 399.0 49.0 297.0 
544.0003916353518 2565.0 NaN 1462.8189712758845 2.5083727155879765 398.0 52.0 294.0 
546.000479336559 2590.0 NaN 1468.9512358049442 1.881896192633556 400.0 51.0 297.0 
548.0003916353518 2574.0 NaN 1468.9298597194384 2.5205850958477387 404.0 49.0 299.0 
550.000479336559 2582.0 NaN 1468.9325317301273 1.9058540103323172 410.0 46.0 302.0 
552.0003916353518 2553.0 NaN 1465.838343353373 2.5153417361381836 408.0 46.0 301.0 
554.0004290227293 2568.0 NaN 1465.9131596526377 1.872529867127084 409.0 45.0 302.0 
556.0003916353518 2559.0 NaN 1468.9832999332 2.515326890928924 409.0 45.0 303.0 
558.000479336559 2586.0 NaN 1468.9699398797604 1.8947630154035564 410.0 47.0 301.0 
560.0003916353518 2565.0 NaN 1462.8056112224453 2.532271145211558 405.0 48.0 298.0 
562.000479336559 2578.0 NaN 1462.7682030728122 1.9233834729551722 404.0 49.0 297.0 
564.0003916353518 2558.0 NaN 1459.719438877755 2.5458372487648346 403.0 49.0 296.0 
566.000479336559 2589.0 NaN 1462.8136272545091 1.92972532436467 407.0 48.0 298.0 
568.0003916353518 2546.0 NaN 1475.1663326653306 2.5294449608709915 409.0 45.0 305.0 
570.000479336559 2568.0 NaN 1487.4228456913822 1.8900618416205568 408.0 46.0 308.0 
572.0003916353518 2543.0 NaN 1484.384769539079 2.523296906150238 405.0 49.0 304.0 
574.0004290227293 2559.0 NaN 1481.3279893119568 1.8829975089526696 406.0 49.0 303.0 
576.0003916353518 2548.0 NaN 1484.3714094856375 2.5332907279388777 405.0 52.0 301.0 
578.000479336559 2583.0 NaN 1484.526386105545 1.9386851703804233 408.0 51.0 302.0 
580.0003916353518 2547.0 NaN 1487.6179024716093 2.519714337839815 410.0 48.0 306.0 
582.000479336559 2582.0 NaN 1487.5484301937202 1.8885796823806547 413.0 49.0 305.0 
584.0003916353518 2564.0 NaN 1487.4415497661998 2.524882413121856 415.0 46.0 308.0 
586.000479336559 2591.0 NaN 1490.567802271209 1.896654954584202 418.0 45.0 310.0 
588.0003916353518 2560.0 NaN 1490.5517702070815 2.5400699813961514 417.0 45.0 310.0 
590.000479336559 2580.0 NaN 1487.4575818303274 1.903605153685981 424.0 44.0 310.0 
592.0003916353518 2566.0 NaN 1490.5731462925846 2.5406949711170768 427.0 44.0 311.0 
594.0004290227293 2591.0 NaN 1490.567802271209 1.9141246768724416 424.0 45.0 310.0 
596.0003916353518 2571.0 NaN 1490.5197060788253 2.5370223984201226 425.0 45.0 310.0 
598.000479336559 2604.0 NaN 1490.5357381429533 1.9100070817605308 427.0 44.0 311.0 
600.0003916353518 2570.0 NaN 1490.530394121576 2.510268110478119 427.0 44.0 311.0 
602.000479336559 2588.0 NaN 1493.5497661990637 1.871731356773837 426.0 46.0 310.0 
604.0003916353518 2578.0 NaN 1496.5905143620564 2.529897097450711 423.0 48.0 309.0 
606.000479336559 2604.0 NaN 1502.7628590514364 1.926542441723453 419.0 52.0 307.0 
608.0003916353518 2572.0 NaN 1502.8216432865727 2.51758798467261 417.0 51.0 308.0 
610.000479336559 2591.0 NaN 1502.7922511690056 1.8828013352185995 422.0 48.0 311.0 
612.0003916353518 2584.0 NaN 1505.8303273213091 2.521384735893679 424.0 45.0 315.0 
614.0004290227293 2623.0 NaN 1509.0794923179697 1.9005082087155398 424.0 44.0 317.0 
616.0003916353518 2601.0 NaN 1509.0607882431536 2.5351072282446507 421.0 45.0 316.0 
618.000479336559 2628.0 NaN 1512.0801603206423 1.8862466351788931 417.0 50.0 312.0 
620.0003916353518 2608.0 NaN 1512.0614562458263 2.561604163106152 413.0 54.0 308.0 
622.000479336559 2643.0 NaN 1521.3333333333342 1.9219355604012844 414.0 55.0 310.0 
624.0003916353518 2610.0 NaN 1524.3874415497655 2.5590345841064117 414.0 54.0 312.0 
626.000479336559 2639.0 NaN 1527.4549098196383 1.889943944959194 416.0 52.0 315.0 
628.000479336559 2616.0 NaN 1527.3800935203735 2.564522488022029 416.0 51.0 316.0 
630.000479336559 2653.0 NaN 1527.460253841016 1.9327174204668371 418.0 49.0 318.0 
632.000479336559 2633.0 NaN 1527.4281897127576 2.562661528545604 418.0 47.0 320.0 
634.0004290227293 2678.0 NaN 1524.3901135604547 1.9465139532725542 417.0 50.0 316.0 
636.000479336559 2616.0 NaN 1527.4201736806938 2.5310614428911333 412.0 53.0 314.0 
638.000479336559 2672.0 NaN 1521.3493653974624 1.886543333643118 409.0 55.0 310.0 
640.000479336559 2656.0 NaN 1521.3894455577818 2.5462574397870887 413.0 53.0 312.0 
642.000479336559 2687.0 NaN 1524.4836339345363 1.9376366474039455 412.0 57.0 309.0 
644.0004290227293 2626.0 NaN 1521.2291249165 2.534055178089768 411.0 58.0 307.0 
646.000479336559 2666.0 NaN 1518.124248496993 1.8770609644639593 410.0 59.0 305.0 
648.000479336559 2652.0 NaN 1521.226452905811 2.5616022737744584 411.0 57.0 308.0 
650.000479336559 2675.0 NaN 1521.3734134936547 1.9079704031309654 413.0 56.0 309.0 
652.000479336559 2628.0 NaN 1518.1910487641942 2.580285951949961 410.0 59.0 305.0 
654.0004290227293 2648.0 NaN 1521.3146292585182 1.9666702841157575 405.0 61.0 304.0 
656.000479336559 2599.0 NaN 1524.288577154309 2.5543521403122176 405.0 59.0 307.0 
658.000479336559 2659.0 NaN 1539.7702070808273 1.9292565137054498 405.0 60.0 311.0 
660.000479336559 2632.0 NaN 1545.8650634602545 2.565015932200689 408.0 57.0 316.0 
662.000479336559 2674.0 NaN 1545.9078156312637 1.9374287912297055 418.0 46.0 327.0 
664.0004290227293 2627.0 NaN 1542.818971275884 2.5566295890771724 414.0 48.0 324.0 
#####################################################################
# End of data export. Simulation finished at: 2019-03-06T23:38+0000 #
#####################################################################
