#####################################################################
# Alchemist log file - simulation started at: 2019-03-02T07:36+0000 #
#####################################################################
# seed = 0.0, bandwidth = 1333521.4321633242, propagationDelay = 0.001, baserange = 10.0
#
# The columns have the following meaning: 
# time neighbor_count[Sum] <value>@neighbor_count[Sum] packet_size[Mean] mean_delay[Mean] crowd[Sum] overcrowded[Sum] risk[Sum] 
0.0 NaN NaN NaN NaN NaN NaN NaN 
10.00013794676859 486.0 NaN 4989.835671342686 0.49463689243410114 1497.0 0.0 1497.0 
20.00013794676859 490.0 NaN 4989.603206412826 0.5168953369998601 1497.0 0.0 1497.0 
30.00013794676859 498.0 NaN 4989.541750167001 0.4931850679432917 1497.0 0.0 1497.0 
40.00013794676859 500.0 NaN 4989.670006680027 0.5017968686086859 1497.0 0.0 1497.0 
50.00013794676859 515.0 NaN 4989.651302605211 0.5145925350648346 1497.0 0.0 1497.0 
60.00013794676859 510.0 NaN 4989.74749498998 0.5498755851540245 1497.0 0.0 1497.0 
70.00015718990393 493.0 NaN 608.7855711422848 0.5406957529082095 239.0 0.0 68.0 
80.00015718990393 489.0 NaN 617.9719438877756 0.5104956810833445 149.0 0.0 71.0 
90.00015718990393 489.0 NaN 617.9505678022714 0.5183978240878083 141.0 0.0 71.0 
100.00015718990393 484.0 NaN 614.8937875751499 0.5177819712628281 132.0 0.0 70.0 
110.00015718990393 490.0 NaN 602.6132264529058 0.506145085491742 122.0 0.0 66.0 
120.00015718990393 478.0 NaN 590.4181696726788 0.5033325446090293 120.0 0.0 62.0 
130.00015718990392 503.0 NaN 602.6746826987313 0.5106800358858155 125.0 0.0 66.0 
140.00015718990392 506.0 NaN 611.8557114228454 0.5178124387920549 123.0 0.0 69.0 
150.00015718990392 516.0 NaN 605.7501670006683 0.5118282772227648 123.0 0.0 67.0 
160.00015718990392 500.0 NaN 611.837007348029 0.532897714182085 129.0 0.0 69.0 
170.00015718990392 504.0 NaN 605.7448229792913 0.5311408999467369 132.0 0.0 67.0 
180.00015718990392 487.0 NaN 605.7181028724117 0.5489391687426021 123.0 0.0 67.0 
190.00015718990392 488.0 NaN 621.1142284569136 0.516565009072462 124.0 0.0 72.0 
200.00015718990392 502.0 NaN 618.012024048096 0.5242366737239714 122.0 0.0 71.0 
210.00015718990392 497.0 NaN 617.9692718770868 0.5163391792607113 125.0 0.0 71.0 
220.00015718990392 496.0 NaN 614.9124916499667 0.5143595031687513 122.0 0.0 70.0 
230.00015718990392 493.0 NaN 617.9986639946561 0.5449432891591548 115.0 0.0 71.0 
240.00015718990392 500.0 NaN 621.0875083500335 0.5137181197654719 114.0 0.0 72.0 
250.00015718990392 500.0 NaN 627.1957247829 0.5224966146609653 118.0 0.0 74.0 
260.0001571899039 498.0 NaN 627.2411489645953 0.5506950250015309 118.0 0.0 74.0 
270.0001571899039 490.0 NaN 624.0801603206409 0.5203480747265562 118.0 0.0 73.0 
280.0001571899039 500.0 NaN 621.0233800935199 0.49692197412185174 120.0 0.0 72.0 
290.0001571899039 509.0 NaN 605.6513026052108 0.5123438724520628 120.0 0.0 67.0 
300.0001571899039 493.0 NaN 608.7615230460925 0.5310687196606573 117.0 0.0 68.0 
310.0001571899039 474.0 NaN 608.7748830995316 0.4974936290651561 114.0 0.0 68.0 
320.0001571899039 470.0 NaN 587.2651970607884 0.5335551011523996 112.0 0.0 61.0 
330.0001571899039 471.0 NaN 590.3166332665334 0.5209683729797434 105.0 0.0 62.0 
340.0001571899039 492.0 NaN 596.4836339345361 0.5223834785564287 109.0 0.0 64.0 
350.0001571899039 487.0 NaN 590.3647294589183 0.5137913318039246 112.0 0.0 62.0 
360.0001571899039 481.0 NaN 584.2164328657319 0.5144155670723838 103.0 0.0 60.0 
370.0001571899039 478.0 NaN 581.1329325317296 0.5264172043384624 106.0 0.0 59.0 
380.0001571899039 476.0 NaN 584.2378089512365 0.5172973761682683 106.0 0.0 60.0 
390.0001571899039 470.0 NaN 587.2999331997324 0.5521083763850598 103.0 0.0 61.0 
400.0001571899039 481.0 NaN 608.8390113560454 0.5524057678396638 110.0 0.0 68.0 
410.0001571899039 488.0 NaN 608.806947227789 0.5135133101036251 113.0 0.0 68.0 
420.0001571899039 502.0 NaN 614.9311957247819 0.5408094369259042 116.0 0.0 70.0 
430.0001571899039 482.0 NaN 630.2338009352045 0.5155388588845209 124.0 0.0 75.0 
440.0001571899039 479.0 NaN 630.2845691382772 0.5037095024226846 122.0 0.0 75.0 
450.0001571899039 490.0 NaN 639.5190380761537 0.5354993233369136 127.0 0.0 78.0 
460.0001571899039 480.0 NaN 642.4956579826321 0.557198683458004 129.0 0.0 79.0 
470.0001571899039 483.0 NaN 645.6005344021372 0.5346365163150502 127.0 0.0 80.0 
480.0001571899039 470.0 NaN 633.2398129592508 0.5376837919600462 125.0 0.0 76.0 
490.0001571899039 470.0 NaN 627.1396125584499 0.5089927474513721 126.0 0.0 74.0 
500.0001571899039 471.0 NaN 617.9665998664002 0.5235486767708103 120.0 0.0 71.0 
510.0001571899039 467.0 NaN 584.1576486305945 0.49607932216413886 112.0 0.0 60.0 
520.0001571899039 464.0 NaN 581.0981963927856 0.5074626919933283 110.0 0.0 59.0 
530.0001571899039 456.0 NaN 574.9498997995992 0.5018789366200278 103.0 0.0 57.0 
540.0001571899039 470.0 NaN 571.9599198396795 0.522003424444921 100.0 0.0 56.0 
550.0001571899039 464.0 NaN 571.9732798931194 0.5092689179420977 102.0 0.0 56.0 
560.0001571899039 461.0 NaN 568.8737474949899 0.5321679692326752 101.0 0.0 55.0 
570.0001571899039 464.0 NaN 571.9492317969273 0.5048500296166115 106.0 0.0 56.0 
580.0001571899039 462.0 NaN 571.9278557114227 0.5280305579183235 104.0 0.0 56.0 
590.0001571899039 457.0 NaN 571.9171676686705 0.5056914860088708 101.0 0.0 56.0 
600.0001571899039 472.0 NaN 584.2431529726116 0.5580476825959402 103.0 0.0 60.0 
610.0001571899039 484.0 NaN 593.3947895791586 0.5420748937062961 111.0 0.0 63.0 
620.0001571899039 485.0 NaN 593.4589178356712 0.5803218954246607 110.0 0.0 63.0 
630.0001571899039 478.0 NaN 599.6179024716097 0.5360564057603922 109.0 0.0 65.0 
640.0001571899039 491.0 NaN 602.6292585170343 0.5429688466915181 116.0 0.0 66.0 
650.0001571899039 486.0 NaN 611.8022712090846 0.5479338450769773 121.0 0.0 69.0 
660.0001571899039 477.0 NaN 614.8617234468934 0.5376110887924037 131.0 0.0 70.0 
#####################################################################
# End of data export. Simulation finished at: 2019-03-02T07:40+0000 #
#####################################################################
