#####################################################################
# Alchemist log file - simulation started at: 2019-03-01T18:41+0000 #
#####################################################################
# seed = 0.0, bandwidth = 1000.0, propagationDelay = 0.03162277660168379, baserange = 56.234132519034915
#
# The columns have the following meaning: 
# time neighbor_count[Sum] <value>@neighbor_count[Sum] packet_size[Mean] mean_delay[Mean] crowd[Sum] overcrowded[Sum] risk[Sum] 
0.0 NaN NaN NaN NaN NaN NaN NaN 
10.000405536260626 6162.0 NaN 4994.380761523046 3.973507559118088 1497.0 0.0 1497.0 
20.000405536260626 6178.0 NaN 4994.760187040748 1.977576311194414 1482.0 15.0 1482.0 
30.000405536260626 6215.0 NaN 4992.967267869071 3.178991154763198 1484.0 13.0 1484.0 
40.00040553626063 6248.0 NaN 4992.531730126921 4.0485580871604085 1479.0 18.0 1479.0 
50.00040553626063 6324.0 NaN 4992.865731462926 2.129462934139739 1472.0 25.0 1472.0 
60.00040553626063 6420.0 NaN 4990.85370741483 3.305473396859525 1472.0 24.0 1472.0 
70.00040553626063 6482.0 NaN 1527.967935871745 2.287433653258271 538.0 22.0 345.0 
80.00040553626063 6530.0 NaN 1537.0955243820977 1.4988456375971904 489.0 41.0 329.0 
90.00040553626063 6460.0 NaN 1537.0688042752183 1.9937670748773206 480.0 45.0 325.0 
100.00040553626063 6459.0 NaN 1539.9812959251822 2.375870549341345 481.0 42.0 329.0 
110.00040553626063 6440.0 NaN 1539.9465597862388 1.3915992411798972 484.0 40.0 331.0 
120.00040553626063 6459.0 NaN 1543.1663326653304 1.9770519826937478 490.0 35.0 337.0 
130.00040553626064 6507.0 NaN 1540.0721442885763 2.465419762948158 487.0 40.0 331.0 
140.00040553626064 6539.0 NaN 1533.9425517702089 1.6115576128850895 491.0 36.0 333.0 
150.00040553626064 6553.0 NaN 1533.9211756847028 2.089229506111592 486.0 39.0 330.0 
160.00040553626064 6512.0 NaN 1530.810955243821 2.6197908641740275 486.0 37.0 331.0 
170.00040553626064 6506.0 NaN 1536.9405477621908 1.7340752494899696 478.0 41.0 329.0 
180.00040553626064 6495.0 NaN 1540.197728790916 2.2404293683348846 484.0 38.0 333.0 
190.00040553626064 6463.0 NaN 1536.999331997327 2.503255847530771 477.0 41.0 329.0 
200.00040553626064 6433.0 NaN 1543.152972611891 1.7496095505951812 481.0 39.0 333.0 
210.00019279846973 6396.0 NaN 1537.0581162324638 2.1431095059843135 470.0 47.0 323.0 
220.00040553626064 6360.0 NaN 1533.7581830327335 2.624045325996041 471.0 46.0 323.0 
230.00040553626064 6349.0 NaN 1536.9672678690727 1.850419320028468 476.0 40.0 330.0 
240.00019279846973 6294.0 NaN 1530.8670674682703 2.2332114884244096 474.0 42.0 326.0 
250.00040553626064 6250.0 NaN 1527.7675350701393 2.6490783272036804 477.0 41.0 326.0 
260.00040553626064 6209.0 NaN 1521.5711422845698 1.738568724616314 476.0 39.0 326.0 
270.00019279846975 6198.0 NaN 1530.9018036072155 2.2264921939208433 477.0 40.0 328.0 
280.00040553626064 6156.0 NaN 1542.9819639278544 2.7391318322481983 478.0 41.0 331.0 
290.00040553626064 6142.0 NaN 1536.8710754843 1.9275819905382345 477.0 38.0 332.0 
300.00019279846975 6094.0 NaN 1536.9512358049456 2.3449892650004824 475.0 37.0 333.0 
310.00040553626064 6056.0 NaN 1527.6873747495001 2.776734082078842 470.0 39.0 328.0 
320.00040553626064 5978.0 NaN 1527.649966599866 1.9255427313889535 471.0 36.0 331.0 
330.00019279846975 5964.0 NaN 1530.8189712758845 2.222591620843289 471.0 37.0 331.0 
340.00040553626064 5963.0 NaN 1533.8623914495638 2.4844741808298814 471.0 36.0 333.0 
350.00040553626064 5981.0 NaN 1530.8029392117548 1.6973893369809334 476.0 36.0 332.0 
360.00040553626064 6001.0 NaN 1524.7241148964606 2.224980017641957 477.0 36.0 330.0 
370.00040553626064 5975.0 NaN 1512.272545090181 2.617895376770001 477.0 36.0 326.0 
380.00040553626064 6012.0 NaN 1515.3640614562453 1.8840587606339114 474.0 43.0 320.0 
390.00040553626064 5995.0 NaN 1518.535738142954 2.3688672649716893 475.0 44.0 320.0 
400.00040553626064 6025.0 NaN 1518.3727454909817 2.791521414165847 479.0 41.0 323.0 
410.00040553626064 6029.0 NaN 1530.717434869739 1.843744073591872 487.0 36.0 332.0 
420.00040553626064 6051.0 NaN 1524.6412825651298 2.371210407715867 485.0 35.0 331.0 
430.00040553626064 6078.0 NaN 1518.3967935871738 2.959664961738054 478.0 40.0 324.0 
440.00040553626064 6034.0 NaN 1533.8249832999338 2.198399215342067 484.0 42.0 327.0 
450.00040553626064 6002.0 NaN 1533.8917835671361 2.50557335796069 494.0 36.0 333.0 
460.00040553626064 5982.0 NaN 1549.0287241148972 2.726206092307039 486.0 37.0 337.0 
470.00040553626064 5997.0 NaN 1545.9211756847026 1.8861056684765825 489.0 37.0 336.0 
480.00040553626064 5984.0 NaN 1530.7762191048755 2.343304812381133 483.0 38.0 330.0 
490.00040553626064 5960.0 NaN 1512.224448897797 2.6513874173429084 479.0 37.0 325.0 
500.00040553626064 5912.0 NaN 1496.876419505679 1.9173550839729918 469.0 38.0 319.0 
510.00040553626064 5910.0 NaN 1506.1135604542426 2.3714713397471554 471.0 42.0 318.0 
520.0004055362606 5897.0 NaN 1487.660654642618 2.6562146291707416 475.0 37.0 317.0 
530.0004055362606 5913.0 NaN 1463.2010688042747 1.80637496298156 469.0 36.0 310.0 
540.0004055362606 5959.0 NaN 1472.4836339345363 2.202393794116946 467.0 36.0 313.0 
550.0004055362606 5948.0 NaN 1475.4335337341356 2.556532622558994 468.0 38.0 312.0 
560.0004055362606 5957.0 NaN 1475.473613894455 1.8029023259566646 470.0 37.0 313.0 
570.0004055362606 6008.0 NaN 1481.6887107548432 2.3045641262038394 468.0 39.0 313.0 
580.0004055362606 6039.0 NaN 1484.7214428857724 2.6213947302342393 473.0 38.0 315.0 
590.0004055362606 6085.0 NaN 1487.778223112892 2.1622154914781735 478.0 39.0 315.0 
600.0004055362606 6053.0 NaN 1500.1816967267878 2.6413067089191946 485.0 38.0 320.0 
610.0004055362606 6038.0 NaN 1509.293253173012 2.9407203080485664 495.0 38.0 323.0 
620.0004055362606 6037.0 NaN 1503.1850367401464 2.067313555455013 492.0 39.0 320.0 
630.0001927984697 6165.0 NaN 1512.376753507015 2.358924442577144 487.0 39.0 323.0 
640.0004055362606 6190.0 NaN 1521.6673346693374 2.7844427201170467 484.0 49.0 316.0 
650.0004055362606 6240.0 NaN 1527.7247828991303 2.1653175614288265 478.0 46.0 321.0 
660.0004055362606 6213.0 NaN 1527.9412157648637 2.5926176601836404 477.0 45.0 322.0 
#####################################################################
# End of data export. Simulation finished at: 2019-03-01T18:47+0000 #
#####################################################################
