#####################################################################
# Alchemist log file - simulation started at: 2019-03-17T14:13+0000 #
#####################################################################
# seed = 8.0, bandwidth = 2.3713737056616552E7, propagationDelay = 0.001, baserange = 316.2277660168379
#
# The columns have the following meaning: 
# time neighbor_count[Sum] <value>@neighbor_count[Sum] packet_size[Mean] mean_delay[Mean] crowd[Sum] overcrowded[Sum] risk[Sum] 
0.0 NaN NaN NaN NaN NaN NaN NaN 
2.0006760207987178 51288.0 NaN 4996.02672010688 0.50056681937961 1497.0 0.0 1497.0 
4.000676020798718 51288.0 NaN 4994.506346025384 0.5005669846080795 1497.0 0.0 1497.0 
6.000198348008885 51288.0 NaN 4993.899799599199 0.5005669598274608 1497.0 0.0 1497.0 
8.000675514762914 51288.0 NaN 4994.452905811623 0.500566931938538 1496.0 1.0 1496.0 
10.000675514762912 51288.0 NaN 4995.3533734134935 0.5005669364880037 1496.0 1.0 1496.0 
12.00067534608431 51290.0 NaN 4994.319305277221 0.5013866928357247 1493.0 4.0 1493.0 
14.000676020798716 51289.0 NaN 4993.790247160989 0.5005761007979528 1494.0 3.0 1494.0 
16.000198348008887 51289.0 NaN 4993.9585838343355 0.5005791211875349 1493.0 4.0 1493.0 
18.000676020798718 51294.0 NaN 4994.765531062124 0.5010902220123957 1492.0 5.0 1492.0 
20.00067517740571 51298.0 NaN 4995.636606546426 0.5004528358480419 1493.0 4.0 1493.0 
22.000675514762914 51316.0 NaN 4994.7708750835 0.5008480927135877 1495.0 2.0 1495.0 
24.000675514762914 51341.0 NaN 4994.089512358049 0.5005030640393231 1497.0 0.0 1497.0 
26.000198348008887 51350.0 NaN 4994.444889779559 0.5009725319254191 1496.0 1.0 1496.0 
28.000676020798718 51332.0 NaN 4995.519038076152 0.5019802646480123 1496.0 1.0 1496.0 
30.000676020798718 51324.0 NaN 4996.288577154309 0.50062345877897 1496.0 1.0 1496.0 
32.000676020798714 51346.0 NaN 4994.826987307949 0.5005598540068524 1496.0 1.0 1496.0 
34.00067517740571 51377.0 NaN 4993.918503674015 0.5009203647097343 1496.0 1.0 1496.0 
36.00019834800889 51385.0 NaN 4994.12959251837 0.5016393061704881 1496.0 1.0 1496.0 
38.00067551476291 51352.0 NaN 4995.059452237809 0.5027926805459231 1496.0 1.0 1496.0 
40.000675346084314 51352.0 NaN 4996.237808951236 0.5008526890293906 1496.0 1.0 1496.0 
42.000676020798714 51369.0 NaN 4995.2732130928525 0.5019706923747186 1497.0 0.0 1497.0 
44.000676020798714 51377.0 NaN 4994.356713426853 0.5015052995607396 1497.0 0.0 1497.0 
46.00019834800889 51363.0 NaN 4994.249832999332 0.5027486738839243 1497.0 0.0 1497.0 
48.00067517740571 51329.0 NaN 4994.800267201069 0.5037501482461073 1497.0 0.0 1497.0 
50.00067551476291 51336.0 NaN 4995.882431529726 0.5010484877519388 1497.0 0.0 1497.0 
52.00067551476291 51357.0 NaN 4995.027388109553 0.5021586974248321 1497.0 0.0 1497.0 
54.000675346084314 51376.0 NaN 4994.386105544422 0.50121975125852 1497.0 0.0 1497.0 
56.00019834800889 51382.0 NaN 4994.637274549098 0.501715807886186 1496.0 1.0 1496.0 
58.000676020798714 51390.0 NaN 4995.2919171676685 0.5019821522914127 1496.0 1.0 1496.0 
60.000676020798714 51423.0 NaN 4995.887775551102 0.5024655822110117 1496.0 1.0 1496.0 
62.00048153437134 51419.0 NaN 1519.3827655310633 0.5012018201038997 779.0 2.0 362.0 
64.00048153437135 51423.0 NaN 1522.5384101536395 0.5016039886582077 614.0 4.0 361.0 
66.0001983480089 51476.0 NaN 1522.503674014697 0.5020199367935526 582.0 1.0 364.0 
68.00048153437135 51462.0 NaN 1522.5597862391458 0.5028736000743358 547.0 1.0 364.0 
70.00048153437135 51479.0 NaN 1525.5925183700726 0.5020761736669233 533.0 2.0 364.0 
72.00048153437135 51468.0 NaN 1525.4535738142938 0.5010121803703388 530.0 1.0 365.0 
74.00048153437135 51467.0 NaN 1525.2959251836999 0.5014677163794149 528.0 1.0 365.0 
76.0001983480089 51467.0 NaN 1531.3319973279906 0.5013276126192525 528.0 1.0 367.0 
78.00048153437135 51500.0 NaN 1531.4629258517032 0.5027469764124933 525.0 1.0 367.0 
80.00048153437135 51520.0 NaN 1531.5163660654637 0.5017946779766995 523.0 2.0 366.0 
82.00048153437135 51507.0 NaN 1531.6285905143634 0.50117736992784 525.0 2.0 366.0 
84.00048153437135 51511.0 NaN 1534.6987307949244 0.5011822682337441 528.0 1.0 368.0 
86.0001983480089 51519.0 NaN 1534.8991315965272 0.501103906254093 526.0 1.0 368.0 
88.00048153437135 51545.0 NaN 1535.078156312627 0.5013394983214517 527.0 1.0 368.0 
90.00048153437135 51562.0 NaN 1535.0647962591845 0.5018136229257134 526.0 2.0 367.0 
92.00048153437135 51555.0 NaN 1534.8563794255183 0.5014984360374111 526.0 2.0 367.0 
94.00048153437135 51557.0 NaN 1534.7361389445546 0.5018016771883149 527.0 1.0 368.0 
96.0001983480089 51548.0 NaN 1537.6780227120908 0.5012998697151074 528.0 0.0 370.0 
98.00048153437135 51555.0 NaN 1537.6887107548432 0.501577626158917 528.0 0.0 370.0 
100.00048153437135 51548.0 NaN 1537.6486305945211 0.5038752718600098 527.0 1.0 369.0 
102.00048153437135 51513.0 NaN 1537.605878423512 0.5013844601438736 527.0 1.0 369.0 
104.00048153437135 51518.0 NaN 1537.5978623914484 0.5017116741644935 527.0 0.0 370.0 
106.0001983480089 51506.0 NaN 1537.7448229792908 0.5018098041537278 527.0 1.0 369.0 
108.00048153437135 51494.0 NaN 1537.8971275885092 0.5019856521906648 526.0 1.0 369.0 
110.00048153437135 51501.0 NaN 1538.0708082832336 0.5024332713657715 525.0 2.0 368.0 
112.00048153437135 51523.0 NaN 1541.0313961255845 0.5012107969325792 526.0 1.0 370.0 
114.00048153437135 51549.0 NaN 1540.8897795591183 0.5020192427758412 525.0 2.0 369.0 
116.0001983480089 51533.0 NaN 1537.7688710754842 0.5014532101184528 527.0 1.0 369.0 
118.00048153437135 51517.0 NaN 1543.9652638610546 0.502073319292885 529.0 1.0 371.0 
120.00048153437135 51502.0 NaN 1547.0086840347365 0.5016077591871854 527.0 3.0 370.0 
122.00048153437135 51520.0 NaN 1547.056780227121 0.5016940889375118 526.0 4.0 369.0 
124.00048153437135 51526.0 NaN 1543.9011356045426 0.5028815731886386 529.0 1.0 371.0 
126.0001983480089 51515.0 NaN 1544.0293921175698 0.5019051371832074 527.0 1.0 371.0 
128.00048153437132 51499.0 NaN 1543.9438877755515 0.5016419925192238 526.0 2.0 370.0 
130.00048153437132 51490.0 NaN 1540.9111556446212 0.5032732266751336 527.0 1.0 370.0 
132.00048153437132 51467.0 NaN 1540.825651302606 0.5018371403087949 525.0 1.0 370.0 
134.00048153437132 51469.0 NaN 1537.672678690715 0.5019213791465087 523.0 1.0 369.0 
136.0001983480089 51455.0 NaN 1531.5671342685362 0.5017571286800401 522.0 1.0 367.0 
138.00048153437132 51427.0 NaN 1534.7682030728117 0.5016772276276888 518.0 1.0 368.0 
140.00048153437132 51428.0 NaN 1537.8837675350699 0.5029954732100678 519.0 2.0 368.0 
142.00048153437132 51414.0 NaN 1544.024048096191 0.5021744883318354 521.0 1.0 371.0 
144.00048153437132 51399.0 NaN 1543.9652638610544 0.5021480181835805 521.0 1.0 371.0 
146.0001983480089 51387.0 NaN 1543.9519038076155 0.5020289654021524 521.0 1.0 371.0 
148.00048153437132 51372.0 NaN 1550.1563126252515 0.5018159899760858 520.0 2.0 372.0 
150.00048153437132 51373.0 NaN 1550.2017368069455 0.5032184759235154 521.0 2.0 372.0 
152.00048153437132 51336.0 NaN 1540.9832999332002 0.5021290183344392 523.0 1.0 370.0 
154.00048153437132 51330.0 NaN 1538.0280561122245 0.5037391037048334 520.0 1.0 369.0 
156.0001983480089 51299.0 NaN 1541.0367401469607 0.5026257913988433 518.0 1.0 370.0 
158.00048153437132 51256.0 NaN 1541.0554442217758 0.5017780708382559 520.0 1.0 370.0 
160.00048153437132 51275.0 NaN 1541.0073480293909 0.5019475062324958 521.0 1.0 370.0 
162.00048153437132 51269.0 NaN 1540.9619238476937 0.5044369301821787 519.0 0.0 371.0 
164.00048153437132 51202.0 NaN 1544.0133600534393 0.5021726807043861 519.0 1.0 371.0 
166.0001983480089 51168.0 NaN 1544.1309285237153 0.5038056176351722 519.0 1.0 371.0 
168.00048153437132 51099.0 NaN 1541.047428189712 0.5020499440661249 519.0 0.0 371.0 
170.00048153437132 51098.0 NaN 1541.0207080828332 0.5020762871388841 520.0 1.0 370.0 
172.00048153437132 51085.0 NaN 1547.1743486973937 0.5029949127422176 523.0 1.0 372.0 
174.00048153437132 51021.0 NaN 1547.1342685370728 0.5019242298262304 522.0 0.0 373.0 
176.0001983480089 50988.0 NaN 1544.2137608550454 0.5019897632998207 521.0 1.0 371.0 
178.00048153437132 50974.0 NaN 1544.2885771543092 0.5016666188082278 519.0 2.0 370.0 
180.00048153437132 50992.0 NaN 1544.3126252504999 0.5021584910732989 514.0 7.0 365.0 
182.00048153437132 50977.0 NaN 1538.094856379427 0.503300418025373 514.0 6.0 364.0 
184.00048153437132 50935.0 NaN 1538.0440881763545 0.5028977698572404 517.0 2.0 368.0 
186.0001983480089 50913.0 NaN 1537.8089512358063 0.5014413151199587 517.0 3.0 367.0 
188.00048153437132 50916.0 NaN 1540.8684034736154 0.501994004036717 516.0 5.0 366.0 
190.00048153437132 50919.0 NaN 1534.7014028056092 0.5027547264462787 516.0 2.0 367.0 
192.00048153437132 50895.0 NaN 1534.677354709418 0.5019750861476503 515.0 5.0 364.0 
194.00048153437132 50892.0 NaN 1537.8517034068154 0.502178048676403 513.0 6.0 364.0 
196.0001983480089 50857.0 NaN 1537.977287909152 0.5020694240871676 517.0 2.0 368.0 
198.00048153437132 50848.0 NaN 1534.9926519706091 0.5026426340929171 516.0 3.0 366.0 
200.00048153437132 50831.0 NaN 1541.1516366065453 0.502169215310504 516.0 5.0 366.0 
202.00048153437132 50800.0 NaN 1541.063460253842 0.5022566237799945 520.0 2.0 369.0 
204.00048153437132 50783.0 NaN 1541.0447561790247 0.5022336415577208 518.0 5.0 366.0 
206.0001983480089 50751.0 NaN 1541.0287241148972 0.5015474125151135 515.0 7.0 364.0 
208.00048153437132 50757.0 NaN 1534.907147628591 0.5021871386804702 516.0 4.0 365.0 
210.00048153437132 50747.0 NaN 1531.9465597862388 0.5017835983046138 514.0 2.0 366.0 
212.00048153437132 50716.0 NaN 1528.7882431529729 0.5015555655532745 512.0 5.0 362.0 
214.00048153437132 50720.0 NaN 1531.7648630594542 0.5044446997890655 514.0 2.0 366.0 
216.0001983480089 50661.0 NaN 1534.8403473613907 0.5017493905785508 513.0 5.0 364.0 
218.00048153437132 50637.0 NaN 1528.595858383434 0.5034951232148557 510.0 6.0 361.0 
220.00048153437132 50607.0 NaN 1528.801603206412 0.5022366758574245 513.0 2.0 365.0 
222.00048153437132 50587.0 NaN 1525.5364061456248 0.5030160577607916 513.0 2.0 364.0 
224.00048153437132 50572.0 NaN 1522.4368737474938 0.5035987949125836 511.0 5.0 360.0 
226.0001983480089 50555.0 NaN 1525.4776219104883 0.5022827566604693 512.0 3.0 363.0 
228.00048153437132 50567.0 NaN 1528.633266533066 0.5045602699127539 509.0 5.0 362.0 
230.00048153437132 50539.0 NaN 1528.6706746826999 0.5020620115044432 506.0 6.0 361.0 
232.00048153437132 50526.0 NaN 1534.9258517034089 0.502432187411826 509.0 3.0 366.0 
234.00048153437132 50558.0 NaN 1534.9392117568457 0.5053844175789157 510.0 2.0 367.0 
236.0001983480089 50531.0 NaN 1535.0407481629913 0.5021810767490035 506.0 7.0 362.0 
238.00048153437132 50546.0 NaN 1535.0167000667998 0.5039868084444756 506.0 6.0 363.0 
240.00048153437132 50531.0 NaN 1531.9118236472937 0.5018279483684553 509.0 3.0 365.0 
242.00048153437132 50512.0 NaN 1531.9465597862388 0.5022604158669645 512.0 2.0 366.0 
244.00048153437132 50490.0 NaN 1525.6619906479636 0.5016575837987037 509.0 3.0 363.0 
246.0001983480089 50513.0 NaN 1525.6005344021366 0.5013406877090383 509.0 5.0 361.0 
248.00048153437132 50524.0 NaN 1528.6546426185726 0.5022011574185297 511.0 2.0 365.0 
250.00048153437132 50533.0 NaN 1525.6192384769547 0.5025617360493939 509.0 5.0 361.0 
252.00048153437132 50495.0 NaN 1525.5818303273209 0.5025833332714039 508.0 5.0 361.0 
254.00048153437132 50470.0 NaN 1525.402805611221 0.5023062175876577 507.0 5.0 361.0 
256.0001983480089 50462.0 NaN 1525.3547094188366 0.5021600289409465 508.0 6.0 360.0 
258.0004815343713 50459.0 NaN 1525.4375417501665 0.5021591679311462 510.0 5.0 361.0 
260.0004815343713 50444.0 NaN 1522.4074816299271 0.5020751762148331 510.0 5.0 360.0 
262.0004815343713 50438.0 NaN 1516.419505678021 0.5028950830663688 509.0 5.0 358.0 
264.0004815343713 50389.0 NaN 1516.4355377421516 0.5046348707233044 506.0 6.0 357.0 
266.0001983480089 50393.0 NaN 1516.4408817635274 0.5033044743524527 505.0 6.0 357.0 
268.0004815343713 50288.0 NaN 1525.736806947227 0.5067641366358068 508.0 5.0 361.0 
270.0004815343713 50248.0 NaN 1531.8797595190365 0.5025964940155235 507.0 5.0 363.0 
272.0004815343713 50186.0 NaN 1531.660654642618 0.5023515640303178 507.0 5.0 363.0 
274.0004815343713 50150.0 NaN 1534.6693386773545 0.5023413919064672 509.0 5.0 364.0 
276.0001983480089 50134.0 NaN 1531.5564462257844 0.5013920646301503 510.0 5.0 363.0 
278.0004815343713 50130.0 NaN 1528.561122244491 0.5021006306667104 509.0 5.0 362.0 
280.0004815343713 50090.0 NaN 1531.748830995325 0.5020727331443621 509.0 5.0 363.0 
282.0004815343713 50072.0 NaN 1531.7354709418819 0.5026789657194203 509.0 5.0 363.0 
284.0004815343713 50022.0 NaN 1531.7408149632613 0.5034983832156597 511.0 5.0 363.0 
286.0001983480089 49972.0 NaN 1531.7354709418819 0.5026104304613411 510.0 5.0 363.0 
288.0004815343713 49936.0 NaN 1531.863727454909 0.503674332442145 509.0 5.0 363.0 
290.0004815343713 49912.0 NaN 1534.853707414829 0.5019259675447841 508.0 5.0 364.0 
292.0004815343713 49877.0 NaN 1534.8964595858365 0.5025950845464311 507.0 5.0 364.0 
294.0004815343713 49828.0 NaN 1534.7281229124908 0.5021015816681809 505.0 7.0 362.0 
296.0001983480089 49821.0 NaN 1537.7074148296615 0.5025400673657295 505.0 8.0 362.0 
298.0004815343713 49774.0 NaN 1537.7742150968616 0.5045632214231046 506.0 6.0 364.0 
300.0004815343713 49746.0 NaN 1540.9111556446203 0.502111860647505 507.0 5.0 366.0 
302.0004815343713 49705.0 NaN 1540.9271877087524 0.5040653879759474 506.0 6.0 365.0 
304.0004815343713 49647.0 NaN 1531.759519038075 0.5023589674622291 507.0 5.0 363.0 
306.0001983480089 49629.0 NaN 1541.0073480293909 0.5017063772083986 508.0 2.0 369.0 
308.0004815343713 49604.0 NaN 1537.8917835671364 0.5021265598099484 507.0 1.0 369.0 
310.0004815343713 49596.0 NaN 1534.6426185704727 0.5023297050862525 507.0 1.0 368.0 
312.0004815343713 49561.0 NaN 1534.5891783567115 0.5030708717166792 507.0 1.0 368.0 
314.0004815343713 49496.0 NaN 1534.511690046761 0.5022049705874732 507.0 2.0 367.0 
316.0001983480089 49459.0 NaN 1531.524382097527 0.5012884541706376 509.0 1.0 367.0 
318.0004815343713 49463.0 NaN 1537.6619906479636 0.5056511511215188 509.0 1.0 369.0 
320.0004815343713 49435.0 NaN 1531.5965263861062 0.5030276609351942 507.0 1.0 367.0 
322.0004815343713 49361.0 NaN 1531.5724782899117 0.5028840766173136 506.0 2.0 366.0 
324.0004815343713 49304.0 NaN 1537.6806947227794 0.5015905101334105 505.0 2.0 368.0 
326.0001983480089 49288.0 NaN 1537.7501670006666 0.5015258012448836 507.0 1.0 369.0 
328.0004815343713 49289.0 NaN 1540.8924515698068 0.502665928259102 507.0 1.0 370.0 
330.0004815343713 49281.0 NaN 1544.0534402137614 0.5042278227550817 508.0 1.0 371.0 
332.0004815343713 49253.0 NaN 1541.0180360721456 0.5021007883223035 507.0 1.0 370.0 
334.0004815343713 49251.0 NaN 1537.8597194388792 0.5043889782017095 508.0 1.0 369.0 
336.0001983480089 49221.0 NaN 1534.9338677354726 0.5015239701764361 509.0 1.0 368.0 
338.0004815343713 49226.0 NaN 1531.7915831663333 0.5038541851634412 508.0 2.0 366.0 
340.0004815343713 49217.0 NaN 1531.8316633266543 0.5033063362107572 507.0 2.0 366.0 
342.0004815343713 49179.0 NaN 1537.8917835671361 0.5030890957177464 507.0 1.0 369.0 
344.0004815343713 49156.0 NaN 1537.8249832999336 0.5039483558116431 510.0 1.0 369.0 
346.0001983480089 49160.0 NaN 1537.7955911823635 0.5020270846416505 509.0 1.0 369.0 
348.0004815343713 49146.0 NaN 1534.7361389445548 0.5044730161299357 509.0 1.0 368.0 
350.0004815343713 49132.0 NaN 1531.6820307281243 0.5025092922150198 509.0 1.0 367.0 
352.0004815343713 49103.0 NaN 1531.6820307281243 0.5021202380879187 509.0 3.0 365.0 
354.0004815343713 49107.0 NaN 1528.5985303941213 0.5037082649805533 508.0 4.0 363.0 
356.0001983480089 49078.0 NaN 1528.6225784903152 0.5023535946049243 510.0 1.0 366.0 
358.0004815343713 49099.0 NaN 1528.6412825651298 0.5020763133773807 509.0 1.0 366.0 
360.0004815343713 49089.0 NaN 1528.7294589178364 0.5042718943697009 508.0 2.0 365.0 
362.0004815343713 49034.0 NaN 1528.6092184368727 0.5026607346519807 511.0 1.0 366.0 
364.0004815343713 49020.0 NaN 1525.5230460921844 0.5030282838618882 513.0 1.0 365.0 
366.0001983480089 48990.0 NaN 1525.4268537074151 0.5016083678768853 514.0 1.0 365.0 
368.0004815343713 48996.0 NaN 1506.9338677354717 0.5018596072045676 512.0 1.0 359.0 
370.0004815343713 48986.0 NaN 1506.9926519706084 0.5016467544203067 513.0 1.0 359.0 
372.0004815343713 48978.0 NaN 1510.0040080160331 0.5029014384121079 512.0 2.0 359.0 
374.0004815343713 48978.0 NaN 1513.0527722110899 0.50241979616288 514.0 1.0 361.0 
376.0001983480089 48930.0 NaN 1519.2224448897812 0.5010919016027874 513.0 1.0 363.0 
378.0004815343713 48938.0 NaN 1513.143620574482 0.5025100704302644 513.0 1.0 361.0 
380.0004815343713 48908.0 NaN 1513.2317969271885 0.5018355214447745 512.0 2.0 360.0 
382.0004815343713 48883.0 NaN 1510.1295925183706 0.5023545515410005 513.0 2.0 359.0 
384.0004815343713 48862.0 NaN 1516.2030728122909 0.5032241928677746 513.0 1.0 362.0 
386.0001983480089 48824.0 NaN 1516.168336673346 0.501246705567565 514.0 1.0 362.0 
388.0004815343713 48851.0 NaN 1510.1242484969932 0.5020030045141397 512.0 1.0 360.0 
390.0004815343713 48810.0 NaN 1510.2150968603878 0.5024462870365483 513.0 1.0 360.0 
392.0004815343713 48772.0 NaN 1510.225784903139 0.5024500175107784 512.0 1.0 360.0 
394.0004815343713 48742.0 NaN 1513.303941215764 0.501744947524723 513.0 1.0 361.0 
396.0001983480089 48707.0 NaN 1513.2959251837 0.5017043440524838 513.0 1.0 361.0 
398.0004815343713 48750.0 NaN 1510.1776887107544 0.5020771619391198 517.0 1.0 360.0 
400.0004815343713 48689.0 NaN 1507.0434201736819 0.5028966202650897 516.0 1.0 359.0 
402.0004815343713 48659.0 NaN 1507.0354041416174 0.502212095934973 515.0 1.0 359.0 
404.0004815343713 48620.0 NaN 1513.1062124248485 0.504005187038964 518.0 1.0 361.0 
406.0001983480089 48600.0 NaN 1516.1549766199066 0.5040156954338666 520.0 1.0 362.0 
408.0004815343713 48589.0 NaN 1522.2845691382756 0.5029792437765418 520.0 1.0 364.0 
410.0004815343713 48580.0 NaN 1525.528390113561 0.5030055458942148 517.0 4.0 362.0 
412.0004815343713 48572.0 NaN 1522.4048096192369 0.5020342834298467 518.0 4.0 361.0 
414.0004815343713 48562.0 NaN 1525.5898463593849 0.5020793476392191 521.0 1.0 365.0 
416.0001983480089 48553.0 NaN 1522.3754175016702 0.5018671073034466 521.0 1.0 364.0 
418.0004815343713 48564.0 NaN 1522.5063460253825 0.501557084522718 521.0 2.0 363.0 
420.0004815343713 48551.0 NaN 1510.1429525718092 0.5021082719384063 523.0 1.0 360.0 
422.0004815343713 48553.0 NaN 1510.1215764863068 0.5025444241725541 522.0 1.0 360.0 
424.0004815343713 48537.0 NaN 1506.9926519706084 0.5021269735497641 518.0 2.0 358.0 
426.0001983480089 48513.0 NaN 1506.9071476285908 0.502110794111458 514.0 4.0 356.0 
428.0004815343713 48542.0 NaN 1506.7869071476282 0.5017046507672835 517.0 1.0 359.0 
430.0004815343713 48545.0 NaN 1500.7748830995333 0.5019317619043369 514.0 5.0 353.0 
432.0004815343713 48565.0 NaN 1513.0955243820981 0.5033622577806692 517.0 1.0 361.0 
434.0004815343713 48535.0 NaN 1519.3587174348704 0.502360825891759 516.0 4.0 360.0 
436.0001983480089 48523.0 NaN 1525.4054776219095 0.5017277356673904 525.0 1.0 365.0 
438.0004815343713 48536.0 NaN 1525.4615898463605 0.503417323178284 520.0 6.0 360.0 
440.0004815343713 48496.0 NaN 1525.4776219104883 0.5044216070739613 523.0 4.0 362.0 
442.0004815343713 48488.0 NaN 1534.8189712758845 0.5031496815958905 522.0 5.0 364.0 
444.0004815343713 48492.0 NaN 1531.6526386105547 0.5020936549320896 527.0 2.0 366.0 
446.0001983480089 48478.0 NaN 1534.7628590514364 0.5014481458527166 523.0 5.0 364.0 
448.0004815343713 48484.0 NaN 1531.6980627922517 0.5064459686908369 525.0 2.0 366.0 
450.0004815343713 48465.0 NaN 1534.7655310621246 0.5035861247456382 522.0 5.0 364.0 
452.0004815343713 48451.0 NaN 1534.6586506346025 0.5027409326452049 524.0 2.0 367.0 
454.0004815343713 48440.0 NaN 1543.906479625918 0.5025297768096795 522.0 5.0 367.0 
456.0001983480089 48424.0 NaN 1546.960587842352 0.5017201097545937 525.0 2.0 371.0 
458.0004815343713 48413.0 NaN 1543.975951903809 0.5033548513379287 520.0 5.0 367.0 
460.0004815343713 48380.0 NaN 1543.9732798931184 0.5022891303450857 521.0 2.0 370.0 
462.0004815343713 48368.0 NaN 1540.9592518370087 0.5023806512063529 522.0 5.0 366.0 
464.0004815343713 48382.0 NaN 1537.934535738143 0.5019621012580918 523.0 2.0 368.0 
466.0001983480089 48364.0 NaN 1537.9372077488301 0.502082871640246 520.0 5.0 365.0 
468.0004815343713 48339.0 NaN 1537.8997995991997 0.5015261858446138 520.0 4.0 366.0 
470.0004815343713 48351.0 NaN 1531.735470941882 0.5009997210795342 515.0 8.0 360.0 
472.0004815343713 48373.0 NaN 1528.427521710088 0.5024176818004477 519.0 2.0 365.0 
474.0004815343713 48383.0 NaN 1525.338677354709 0.5020000835640441 515.0 5.0 361.0 
476.0001983480089 48381.0 NaN 1522.2124248497 0.5019533121010222 516.0 3.0 362.0 
478.0004815343713 48371.0 NaN 1525.3734134936547 0.5024977911517094 515.0 4.0 362.0 
480.0004815343713 48362.0 NaN 1528.3794255177004 0.5018709975973669 516.0 1.0 366.0 
482.0004815343713 48361.0 NaN 1519.1957247829 0.5013391316831571 513.0 4.0 360.0 
484.0004815343713 48406.0 NaN 1519.3400133600546 0.5019682429713445 516.0 1.0 363.0 
486.0001983480089 48381.0 NaN 1513.317301269206 0.5012467366979722 513.0 1.0 361.0 
488.0004815343713 48428.0 NaN 1507.2117568470271 0.5024209883857066 510.0 2.0 358.0 
490.0004815343713 48453.0 NaN 1507.2598530394114 0.5018180295545354 511.0 1.0 359.0 
492.0004815343713 48453.0 NaN 1500.9779559118247 0.5023007376073428 509.0 2.0 356.0 
494.0004815343713 48472.0 NaN 1491.788911155645 0.5016418549868388 509.0 2.0 353.0 
496.0001983480089 48467.0 NaN 1491.7167668670666 0.5043899709710931 507.0 2.0 353.0 
498.0004815343713 48507.0 NaN 1494.7815631262533 0.5022670192671097 500.0 6.0 350.0 
500.0004815343713 48539.0 NaN 1494.6025384101542 0.5028395921876327 508.0 2.0 354.0 
502.0004815343713 48540.0 NaN 1494.6479625918516 0.5022189158258191 508.0 4.0 352.0 
504.0004815343713 48549.0 NaN 1491.5858383433542 0.5030450730416581 511.0 2.0 353.0 
506.0001983480089 48529.0 NaN 1494.7975951903816 0.5027661783134225 512.0 1.0 355.0 
508.0004815343713 48543.0 NaN 1491.6980627922517 0.5046591781484321 516.0 1.0 354.0 
510.0004815343713 48589.0 NaN 1494.7895791583173 0.5021634424758791 514.0 1.0 355.0 
512.0004815343714 48589.0 NaN 1488.617234468937 0.5029741419897955 514.0 1.0 353.0 
514.0004815343713 48599.0 NaN 1488.681362725452 0.5026343830797455 512.0 1.0 353.0 
516.0001983480089 48583.0 NaN 1488.6386105544432 0.5022979617594151 508.0 2.0 352.0 
518.0004815343713 48600.0 NaN 1482.6346025384094 0.5027253989808812 509.0 3.0 349.0 
520.0004815343713 48620.0 NaN 1482.5437541750173 0.5031779329576984 507.0 1.0 351.0 
522.0004815343713 48600.0 NaN 1476.4382097528382 0.5026446147567051 508.0 1.0 349.0 
524.0004815343713 48614.0 NaN 1460.9378757515024 0.5023053236116244 506.0 2.0 343.0 
526.0001983480089 48609.0 NaN 1464.114896459585 0.5015441517114401 500.0 4.0 342.0 
528.0004815343713 48634.0 NaN 1464.1229124916513 0.5025113936574915 498.0 4.0 342.0 
530.0004815343713 48635.0 NaN 1464.0213760855036 0.5019146283711435 499.0 1.0 345.0 
532.0004815343713 48626.0 NaN 1463.9893119572473 0.5030146385591557 502.0 3.0 343.0 
534.0004815343713 48649.0 NaN 1467.0781563126259 0.5047652872495665 503.0 3.0 344.0 
536.0001983480089 48638.0 NaN 1467.0407481629923 0.5017992865714779 505.0 2.0 345.0 
538.0004815343713 48652.0 NaN 1467.0567802271203 0.5034458012863818 507.0 2.0 345.0 
540.0004815343713 48656.0 NaN 1467.024716098864 0.5029790472925806 508.0 2.0 345.0 
542.0004815343713 48620.0 NaN 1467.1636606546433 0.5031100424671328 511.0 2.0 345.0 
544.0004815343713 48642.0 NaN 1464.088176352706 0.5031804446624806 512.0 2.0 344.0 
546.0001983480089 48632.0 NaN 1464.2511690046754 0.5032192100360403 510.0 4.0 342.0 
548.0004815343713 48633.0 NaN 1467.3159652638615 0.502778158128869 512.0 2.0 345.0 
550.0004815343713 48636.0 NaN 1464.2030728122909 0.5041046040226935 511.0 2.0 344.0 
552.0004815343713 48568.0 NaN 1476.4515698062798 0.5018036088695224 510.0 2.0 348.0 
554.0004815343713 48617.0 NaN 1476.3794255177013 0.5020810314626095 511.0 3.0 347.0 
556.0001983480089 48624.0 NaN 1473.301269205076 0.5026044414608974 510.0 4.0 345.0 
558.0004815343713 48635.0 NaN 1470.2578490313965 0.5022382756182971 514.0 0.0 348.0 
560.0004815343713 48695.0 NaN 1467.0808283233127 0.5020073204699205 510.0 2.0 345.0 
562.0004815343713 48702.0 NaN 1467.0754843019367 0.5024284471614194 509.0 2.0 345.0 
564.0004815343713 48758.0 NaN 1470.0841683366727 0.5027480010828059 510.0 2.0 346.0 
566.0001983480089 48738.0 NaN 1470.04676018704 0.5021580374743573 510.0 3.0 345.0 
568.0004815343713 48739.0 NaN 1470.097528390113 0.5049120262739624 511.0 1.0 347.0 
570.0004815343713 48798.0 NaN 1470.2070808283238 0.5036345439815474 514.0 1.0 347.0 
572.0004815343713 48767.0 NaN 1476.4462257849027 0.5014680659933359 514.0 0.0 350.0 
574.0004815343713 48803.0 NaN 1479.6472945891787 0.5026946647208945 512.0 0.0 351.0 
576.0001983480089 48756.0 NaN 1479.6285905143625 0.5018121637394798 513.0 1.0 350.0 
578.0004815343713 48736.0 NaN 1479.6125584502342 0.5035720160736482 513.0 1.0 350.0 
580.0004815343713 48802.0 NaN 1482.6239144956576 0.5036540973032342 514.0 1.0 351.0 
582.0004815343713 48758.0 NaN 1479.428189712758 0.5014496857133046 511.0 1.0 350.0 
584.0004815343713 48824.0 NaN 1491.7541750167002 0.5049701146154264 515.0 2.0 353.0 
586.0001983480089 48812.0 NaN 1488.6546426185714 0.5053239412253878 517.0 3.0 351.0 
588.0004815343713 48757.0 NaN 1485.629926519707 0.5013609749369418 519.0 1.0 352.0 
590.0004815343713 48777.0 NaN 1488.8229792919178 0.5022623614804623 521.0 1.0 353.0 
592.0004815343713 48768.0 NaN 1491.8957915831656 0.5024511075393958 521.0 2.0 353.0 
594.0004815343713 48809.0 NaN 1488.860387441549 0.503881748552949 521.0 1.0 353.0 
596.0001983480089 48765.0 NaN 1488.809619238476 0.5043949017683717 519.0 1.0 353.0 
598.0004815343713 48749.0 NaN 1491.8904475617908 0.5028445621008268 521.0 1.0 354.0 
600.0004815343713 48765.0 NaN 1498.0601202404816 0.5026177571104377 528.0 1.0 356.0 
602.0004815343713 48778.0 NaN 1501.0714762859056 0.5021397562977347 526.0 2.0 356.0 
604.0004815343713 48806.0 NaN 1497.8276553106205 0.5042873647032665 528.0 2.0 355.0 
606.0001983480089 48739.0 NaN 1497.7661990647969 0.5029255722971685 529.0 1.0 356.0 
608.0004815343713 48710.0 NaN 1494.666666666666 0.501793404305493 529.0 1.0 355.0 
610.0004815343713 48746.0 NaN 1500.9084836339352 0.5019631271147658 528.0 1.0 357.0 
612.0004815343713 48780.0 NaN 1503.9412157648637 0.5017295967161798 522.0 2.0 357.0 
614.0004815343713 48825.0 NaN 1516.309953239812 0.5043347767675652 522.0 4.0 359.0 
616.0001983480089 48818.0 NaN 1516.382097528391 0.5026833333902819 526.0 1.0 362.0 
618.0004815343713 48822.0 NaN 1513.2451569806274 0.5012951017738416 525.0 1.0 361.0 
620.0004815343713 48809.0 NaN 1510.1963927855716 0.5014425768481764 525.0 0.0 361.0 
622.0004815343713 48810.0 NaN 1513.226452905811 0.5035334873277231 526.0 0.0 362.0 
624.0004815343713 48796.0 NaN 1516.224448897797 0.5052710465459953 524.0 0.0 363.0 
626.0001983480089 48724.0 NaN 1519.33199732799 0.502345484465132 524.0 1.0 363.0 
628.0004815343713 48699.0 NaN 1522.4395457581827 0.5019717470182019 527.0 1.0 364.0 
630.0004815343713 48689.0 NaN 1525.6593186372738 0.5015947745174115 529.0 1.0 365.0 
632.0004815343713 48679.0 NaN 1519.4335337341354 0.5021465989255074 528.0 1.0 363.0 
634.0004815343713 48700.0 NaN 1525.584502338009 0.503332970433084 531.0 2.0 364.0 
636.0001983480089 48647.0 NaN 1525.4749498998 0.5031712701430219 536.0 1.0 365.0 
638.0004815343713 48624.0 NaN 1525.5791583166342 0.5022935655729551 531.0 2.0 364.0 
640.0004815343713 48655.0 NaN 1519.4335337341354 0.5019528861138727 527.0 2.0 362.0 
642.0004815343713 48641.0 NaN 1519.4709418837667 0.502394278136842 525.0 3.0 361.0 
644.0004815343713 48684.0 NaN 1519.5751503006002 0.5044562274324124 522.0 5.0 359.0 
646.0001983480089 48639.0 NaN 1522.6052104208427 0.5044610651932542 525.0 3.0 362.0 
648.0004815343713 48599.0 NaN 1519.5644622578484 0.5028380782832128 526.0 2.0 362.0 
650.0004815343713 48612.0 NaN 1519.5804943219787 0.5046626833350729 523.0 2.0 362.0 
652.0004815343713 48588.0 NaN 1525.7875751503 0.5030260550305734 522.0 2.0 364.0 
654.0004815343713 48623.0 NaN 1525.7608550434195 0.503059757667916 520.0 2.0 364.0 
656.0001983480089 48584.0 NaN 1528.6626586506352 0.5042950418209019 521.0 1.0 366.0 
658.0004815343713 48626.0 NaN 1528.7080828323303 0.5035323671447182 519.0 2.0 365.0 
660.0004815343713 48617.0 NaN 1528.694722778891 0.5036441853666057 520.0 2.0 365.0 
662.0004815343713 48583.0 NaN 1528.66800267201 0.5026762126026144 521.0 1.0 366.0 
664.0004815343713 48610.0 NaN 1540.9271877087515 0.5037611075628586 514.0 2.0 369.0 
#####################################################################
# End of data export. Simulation finished at: 2019-03-17T15:15+0000 #
#####################################################################
