#####################################################################
# Alchemist log file - simulation started at: 2019-03-20T08:27+0000 #
#####################################################################
# seed = 9.0, bandwidth = 316227.76601683797, propagationDelay = 0.001, baserange = 177.82794100389228
#
# The columns have the following meaning: 
# time neighbor_count[Sum] <value>@neighbor_count[Sum] packet_size[Mean] mean_delay[Mean] crowd[Sum] overcrowded[Sum] risk[Sum] 
0.0 NaN NaN NaN NaN NaN NaN NaN 
2.0000095079786764 26539.0 NaN 4995.935871743487 0.49993965832432047 1497.0 0.0 1497.0 
4.000009507978676 26547.0 NaN 4994.944555778223 0.5002808947062352 1495.0 2.0 1495.0 
6.000009507978676 26548.0 NaN 4994.121576486306 0.5001631351744376 1495.0 2.0 1495.0 
8.000009507978676 26548.0 NaN 4994.589178356713 0.5000555696684046 1496.0 1.0 1496.0 
10.000009507978675 26549.0 NaN 4994.968603874416 0.5001815626315737 1495.0 2.0 1495.0 
12.000009507978675 26550.0 NaN 4994.639946559786 0.5001947932955246 1495.0 2.0 1495.0 
14.000009507978675 26551.0 NaN 4994.191048764195 0.5002283351358564 1495.0 2.0 1495.0 
16.000009507978675 26555.0 NaN 4994.490313961256 0.5003385854639917 1495.0 2.0 1495.0 
18.000337445961424 26552.0 NaN 4994.883099532398 0.5034343440681959 1494.0 3.0 1494.0 
20.000337445961424 26566.0 NaN 4995.615230460922 0.500609458931057 1494.0 3.0 1494.0 
22.000337445961424 26567.0 NaN 4994.859051436206 0.501765377370954 1495.0 2.0 1495.0 
24.000337445961424 26567.0 NaN 4994.765531062124 0.4999672548120853 1494.0 3.0 1494.0 
26.000337445961424 26571.0 NaN 4994.618570474282 0.5003594973753971 1495.0 2.0 1495.0 
28.000337445961424 26568.0 NaN 4995.305277221109 0.5002633806044503 1495.0 2.0 1495.0 
30.000337445961424 26598.0 NaN 4995.561790247161 0.5003667478944361 1494.0 3.0 1494.0 
32.00033744596142 26622.0 NaN 4994.720106880428 0.5008781738659521 1493.0 4.0 1493.0 
34.00033744596142 26609.0 NaN 4994.0280561122245 0.5008715153075745 1494.0 3.0 1494.0 
36.00033744596142 26614.0 NaN 4994.410153640614 0.5025237850076415 1495.0 2.0 1495.0 
38.00033744596142 26620.0 NaN 4994.73079492318 0.5025631422445687 1494.0 3.0 1494.0 
40.00033744596142 26657.0 NaN 4995.655310621242 0.5030825347301363 1494.0 3.0 1494.0 
42.00033744596142 26642.0 NaN 4994.875083500334 0.5015933146167671 1494.0 3.0 1494.0 
44.00033744596142 26628.0 NaN 4994.458249832999 0.5020489686886898 1495.0 2.0 1495.0 
46.00033744596142 26619.0 NaN 4994.327321309285 0.5014971193925855 1495.0 2.0 1495.0 
48.00033744596142 26620.0 NaN 4994.995323981296 0.5007321993471071 1495.0 2.0 1495.0 
50.00033744596142 26667.0 NaN 4995.527054108216 0.5021769843346835 1495.0 2.0 1495.0 
52.00033744596142 26658.0 NaN 4995.120908483634 0.5044790722623747 1494.0 3.0 1494.0 
54.00033744596142 26649.0 NaN 4994.549098196393 0.5019733491269758 1495.0 2.0 1495.0 
56.00033744596142 26647.0 NaN 4994.85370741483 0.5012342191160998 1495.0 2.0 1495.0 
58.00033744596142 26657.0 NaN 4994.949899799599 0.5011078374473066 1495.0 2.0 1495.0 
60.00033744596142 26682.0 NaN 4995.684702738811 0.5021561217707196 1493.0 4.0 1493.0 
62.00002533996469 26679.0 NaN 1522.4475617902458 0.5015539792713491 764.0 6.0 359.0 
64.00002533996468 26685.0 NaN 1522.3273213092848 0.501983283666996 620.0 7.0 358.0 
66.0000253399647 26678.0 NaN 1522.4368737474938 0.5031141180759403 578.0 4.0 361.0 
68.0000253399647 26704.0 NaN 1525.5310621242481 0.5017016018829129 544.0 3.0 363.0 
70.0000253399647 26735.0 NaN 1525.5978623914484 0.5035298407239988 534.0 2.0 364.0 
72.0000253399647 26756.0 NaN 1525.6646626586514 0.5050335013098909 528.0 5.0 361.0 
74.0000253399647 26771.0 NaN 1531.863727454909 0.5022911823342039 523.0 7.0 361.0 
76.0000253399647 26788.0 NaN 1534.8937875751517 0.5019648232163562 526.0 7.0 362.0 
78.0000253399647 26808.0 NaN 1534.8483633934547 0.5033423103910843 522.0 9.0 360.0 
80.0000253399647 26787.0 NaN 1534.7815631262542 0.5008113565377497 525.0 4.0 365.0 
82.0000253399647 26781.0 NaN 1534.8056112224456 0.5026324993317786 521.0 7.0 362.0 
84.0000253399647 26782.0 NaN 1537.808951235806 0.50126515430729 523.0 5.0 365.0 
86.0000253399647 26789.0 NaN 1537.7955911823633 0.5025333871715463 522.0 4.0 366.0 
88.0000253399647 26797.0 NaN 1537.88376753507 0.5021453344770815 523.0 4.0 366.0 
90.0000253399647 26771.0 NaN 1537.8650634602548 0.5029865593129478 524.0 4.0 366.0 
92.0000253399647 26759.0 NaN 1537.7955911823633 0.502160038984729 524.0 4.0 366.0 
94.0000253399647 26762.0 NaN 1537.8303273213091 0.5005168260401786 522.0 6.0 364.0 
96.0000253399647 26768.0 NaN 1537.8517034068152 0.5009694257043682 522.0 6.0 364.0 
98.0000253399647 26767.0 NaN 1537.9532398129606 0.5020905492789395 523.0 5.0 365.0 
100.0000253399647 26747.0 NaN 1537.859719438879 0.5028625375088472 525.0 3.0 367.0 
102.0000253399647 26726.0 NaN 1540.9726118904457 0.5026880884547393 524.0 4.0 367.0 
104.0000253399647 26727.0 NaN 1540.9405477621908 0.5010216186015679 521.0 6.0 365.0 
106.0000253399647 26747.0 NaN 1540.9886439545753 0.5030327415610034 521.0 6.0 365.0 
108.0000253399647 26748.0 NaN 1541.028724114897 0.5015457140368046 521.0 5.0 366.0 
110.0000253399647 26732.0 NaN 1541.007348029391 0.5009609951049373 522.0 5.0 366.0 
112.0000253399647 26719.0 NaN 1540.9966599866395 0.5013606861868176 522.0 5.0 366.0 
114.0000253399647 26752.0 NaN 1540.9352037408155 0.500970572211402 521.0 6.0 365.0 
116.0000253399647 26749.0 NaN 1547.1663326653304 0.5018038653701712 524.0 5.0 368.0 
118.0000253399647 26741.0 NaN 1550.257849031397 0.5035820657970629 525.0 4.0 370.0 
120.0000253399647 26685.0 NaN 1550.3112892451568 0.5060597603298868 526.0 3.0 371.0 
122.0000253399647 26652.0 NaN 1550.2418169672665 0.5006347869478041 528.0 2.0 372.0 
124.0000253399647 26674.0 NaN 1550.2738810955245 0.5003824930157244 529.0 1.0 373.0 
126.0000253399647 26703.0 NaN 1547.2785571142272 0.5004788533862884 527.0 3.0 370.0 
128.00002533996468 26709.0 NaN 1547.289245156982 0.5023158343195737 526.0 4.0 369.0 
130.00002533996468 26664.0 NaN 1544.1683366733455 0.5008920548794988 523.0 7.0 365.0 
132.00002533996468 26647.0 NaN 1544.0774883099546 0.5020882852344454 523.0 7.0 365.0 
134.00002533996468 26674.0 NaN 1540.9779559118244 0.5010424596522496 523.0 6.0 365.0 
136.00002533996468 26674.0 NaN 1544.0828323313274 0.4997042693621399 522.0 2.0 370.0 
138.00002533996468 26676.0 NaN 1544.0801603206423 0.5021718866082838 523.0 3.0 369.0 
140.00002533996468 26636.0 NaN 1544.1736806947245 0.5004424595746821 522.0 4.0 368.0 
142.00002533996468 26639.0 NaN 1541.1008684034728 0.49969673260025976 519.0 5.0 366.0 
144.00002533996468 26657.0 NaN 1541.092852371409 0.49961651351418235 521.0 3.0 368.0 
146.00002533996468 26655.0 NaN 1544.1309285237153 0.4996610728843347 521.0 2.0 370.0 
148.00002533996468 26668.0 NaN 1544.1336005344 0.5002085381002797 520.0 3.0 369.0 
150.00002533996468 26638.0 NaN 1538.0841683366725 0.499911029114575 517.0 6.0 364.0 
152.00002533996468 26627.0 NaN 1538.0734802939207 0.500606431528922 516.0 7.0 363.0 
154.00002533996468 26659.0 NaN 1538.0574482297911 0.49946846924194116 518.0 6.0 364.0 
156.00002533996468 26634.0 NaN 1534.971275885103 0.4993163888448939 521.0 4.0 365.0 
158.00002533996468 26637.0 NaN 1534.9819639278544 0.5001344452230548 517.0 4.0 365.0 
160.00002533996468 26597.0 NaN 1534.9953239812971 0.4995565247660967 516.0 5.0 364.0 
162.00002533996468 26584.0 NaN 1534.9579158316637 0.5021056830349974 515.0 6.0 363.0 
164.00002533996468 26562.0 NaN 1541.1062124248483 0.5000115984819531 515.0 6.0 365.0 
166.00002533996468 26566.0 NaN 1541.0981963927848 0.4989488097023931 516.0 5.0 366.0 
168.00002533996468 26569.0 NaN 1544.1870407481638 0.5038110203004758 517.0 5.0 367.0 
170.00002533996468 26547.0 NaN 1544.122912491652 0.5008136270568918 519.0 4.0 368.0 
172.00002533996468 26512.0 NaN 1541.0848363393457 0.5001505560963959 519.0 4.0 367.0 
174.00002533996468 26527.0 NaN 1537.9986639946546 0.4999852039027234 520.0 3.0 367.0 
176.00002533996468 26499.0 NaN 1538.0601202404819 0.4988674657179923 520.0 3.0 367.0 
178.00002533996468 26499.0 NaN 1541.1649966599882 0.49901654896381403 519.0 4.0 367.0 
180.00002533996468 26491.0 NaN 1535.0888443553793 0.5003612645063654 520.0 3.0 366.0 
182.00002533996468 26468.0 NaN 1532.0374081496336 0.501378151573541 519.0 2.0 366.0 
184.00002533996468 26465.0 NaN 1535.0861723446908 0.4995726827035071 516.0 3.0 366.0 
186.00002533996468 26451.0 NaN 1531.8343353373425 0.5018231096394598 517.0 2.0 366.0 
188.00002533996468 26440.0 NaN 1528.761523046091 0.501268770445753 519.0 0.0 367.0 
190.00002533996468 26419.0 NaN 1528.7294589178366 0.5030156826236352 518.0 1.0 366.0 
192.00002533996468 26407.0 NaN 1531.847695390782 0.5003560810555676 517.0 2.0 366.0 
194.00002533996468 26407.0 NaN 1531.8610554442212 0.5010590605821156 516.0 3.0 365.0 
196.00002533996468 26374.0 NaN 1531.8530394121572 0.5011288496428815 517.0 2.0 366.0 
198.00002533996468 26370.0 NaN 1531.927855711424 0.5042397314455107 518.0 2.0 366.0 
200.00002533996468 26335.0 NaN 1535.030060120239 0.5008775743837643 517.0 4.0 365.0 
202.00002533996468 26326.0 NaN 1538.1028724114908 0.5048824976552833 517.0 4.0 366.0 
204.00002533996468 26313.0 NaN 1538.1616566466273 0.501878595729838 515.0 5.0 365.0 
206.00002533996468 26277.0 NaN 1538.1643286573153 0.5000939653615828 516.0 4.0 366.0 
208.00002533996468 26275.0 NaN 1538.1002004008003 0.5039294458251639 514.0 3.0 367.0 
210.00002533996468 26241.0 NaN 1538.0654642618572 0.5055141920043053 514.0 3.0 367.0 
212.00002533996468 26244.0 NaN 1534.9311957247817 0.5016691989946319 515.0 4.0 365.0 
214.00002533996468 26240.0 NaN 1534.8857715430852 0.5038021373078825 515.0 4.0 365.0 
216.00002533996468 26188.0 NaN 1534.8617234468934 0.5027383032813774 513.0 3.0 366.0 
218.00002533996468 26200.0 NaN 1534.8216432865727 0.5028881282697549 515.0 2.0 367.0 
220.0000095079787 26173.0 NaN 1537.9612558450244 0.5031856175205147 516.0 2.0 368.0 
222.0000095079787 26134.0 NaN 1534.8537074148294 0.5024536297846933 517.0 2.0 367.0 
224.0000095079787 26127.0 NaN 1534.8964595858365 0.5021866089574372 514.0 3.0 366.0 
226.0000095079787 26102.0 NaN 1534.888443553773 0.5002930275381012 515.0 3.0 366.0 
228.0000095079787 26077.0 NaN 1534.9712758851028 0.5007858417073492 514.0 2.0 367.0 
230.0000095079787 26058.0 NaN 1535.0407481629913 0.5010798980958475 512.0 3.0 366.0 
232.0000095079787 26053.0 NaN 1538.1189044756184 0.5017083695318715 509.0 5.0 365.0 
234.0000095079787 26056.0 NaN 1541.1275885103548 0.5003566397025272 510.0 5.0 366.0 
236.0000095079787 26019.0 NaN 1541.0821643286572 0.5004860026922654 510.0 5.0 366.0 
238.0000095079787 26022.0 NaN 1540.996659986639 0.5032884350207161 511.0 4.0 367.0 
240.0000095079787 25998.0 NaN 1531.7488309953246 0.4999484625888201 514.0 3.0 365.0 
242.0000095079787 26013.0 NaN 1531.6847027388094 0.5018767343637857 513.0 3.0 365.0 
244.0000095079787 26021.0 NaN 1531.6820307281243 0.5046966295668914 513.0 3.0 365.0 
246.0000095079787 25974.0 NaN 1531.692718770875 0.5011583642867308 513.0 3.0 365.0 
248.0000095079787 25944.0 NaN 1531.7515030060117 0.5008523613843248 513.0 3.0 365.0 
250.0000095079787 25935.0 NaN 1531.8370073480276 0.5008725966019988 513.0 3.0 365.0 
252.0000095079787 25899.0 NaN 1535.0086840347365 0.5009615169283134 513.0 3.0 366.0 
254.0000095079787 25911.0 NaN 1534.9686038744155 0.5022178460726263 513.0 4.0 365.0 
256.0000095079787 25877.0 NaN 1531.8316633266545 0.5010592721751647 513.0 4.0 364.0 
258.0000095079787 25862.0 NaN 1531.7140948563797 0.5006703959152662 515.0 3.0 365.0 
260.0000095079787 25853.0 NaN 1528.7348029392117 0.5013545138254633 513.0 3.0 364.0 
262.0000095079787 25797.0 NaN 1531.7274549098183 0.5010302796652477 511.0 5.0 363.0 
264.0000095079787 25811.0 NaN 1534.7601870407482 0.5019184147693768 512.0 4.0 365.0 
266.0000095079787 25775.0 NaN 1537.8036072144273 0.5008678246959112 511.0 6.0 364.0 
268.0000095079787 25765.0 NaN 1534.7628590514364 0.5021166330692017 512.0 5.0 364.0 
270.0000095079787 25737.0 NaN 1528.7401469605884 0.5025703066682194 512.0 4.0 363.0 
272.0000095079787 25658.0 NaN 1541.0581162324636 0.5000757024233305 512.0 5.0 366.0 
274.0000095079787 25669.0 NaN 1537.9318637274544 0.5025387134541446 514.0 5.0 365.0 
276.0000095079787 25648.0 NaN 1541.0607882431545 0.5012233224080788 515.0 4.0 367.0 
278.0000253399647 25631.0 NaN 1540.9726118904455 0.5037653857224347 514.0 4.0 367.0 
280.0000253399647 25644.0 NaN 1537.8864395457567 0.5004071108557989 513.0 5.0 365.0 
282.0000253399647 25641.0 NaN 1537.8410153640634 0.5004546443019198 510.0 7.0 363.0 
284.0000253399647 25651.0 NaN 1537.824983299934 0.5025465798360255 510.0 6.0 364.0 
286.0000253399647 25660.0 NaN 1537.8650634602545 0.5020131479963515 510.0 5.0 365.0 
288.0000253399647 25634.0 NaN 1534.7628590514364 0.5025644632100954 511.0 4.0 365.0 
290.0000253399647 25633.0 NaN 1531.730126920509 0.501154700528511 508.0 6.0 362.0 
292.0000253399647 25594.0 NaN 1531.730126920509 0.503041521961883 508.0 6.0 362.0 
294.0000253399647 25599.0 NaN 1531.6659986639936 0.5027903988158772 508.0 5.0 363.0 
296.0000253399647 25559.0 NaN 1531.5671342685364 0.5018652114271188 508.0 5.0 363.0 
298.0000253399647 25531.0 NaN 1534.7494989979973 0.5008468194472925 509.0 4.0 365.0 
300.0000253399647 25517.0 NaN 1531.7194388777543 0.5005406935581646 507.0 5.0 363.0 
302.0000253399647 25518.0 NaN 1528.7054108216453 0.49947278816235197 506.0 5.0 362.0 
304.0000253399647 25544.0 NaN 1528.7321309285246 0.5022360168565396 506.0 5.0 362.0 
306.0000253399647 25510.0 NaN 1531.7354709418819 0.5018288845158659 506.0 4.0 364.0 
308.0000253399647 25474.0 NaN 1534.8162992651976 0.5039004441671714 509.0 1.0 368.0 
310.0000253399647 25470.0 NaN 1531.6392785571152 0.504148817353602 508.0 1.0 367.0 
312.0000253399647 25448.0 NaN 1525.5684702738818 0.5001979704743363 504.0 4.0 362.0 
314.0000253399647 25446.0 NaN 1528.6626586506359 0.5046932998241059 503.0 7.0 360.0 
316.0000253399647 25419.0 NaN 1528.6199064796272 0.5043751388332481 503.0 5.0 362.0 
318.0000253399647 25373.0 NaN 1528.6092184368727 0.5059251979324061 508.0 2.0 365.0 
320.0000253399647 25338.0 NaN 1534.8056112224456 0.5033220907509298 502.0 6.0 363.0 
322.0000253399647 25339.0 NaN 1534.8643954575818 0.5014211608704658 501.0 8.0 361.0 
324.0000253399647 25348.0 NaN 1531.6980627922514 0.5037667047367461 503.0 5.0 363.0 
326.0000253399647 25318.0 NaN 1531.690046760188 0.5011629984948032 507.0 3.0 365.0 
328.0000253399647 25307.0 NaN 1531.730126920509 0.5029337099800204 502.0 5.0 363.0 
330.0000253399647 25290.0 NaN 1531.7274549098183 0.5016266726638842 503.0 4.0 364.0 
332.0000253399647 25281.0 NaN 1531.6499665998663 0.5004478198856579 501.0 7.0 361.0 
334.0000253399647 25286.0 NaN 1531.7167668670666 0.5014658953199246 499.0 7.0 361.0 
336.0000253399647 25285.0 NaN 1531.7007348029388 0.5007583847785582 502.0 7.0 361.0 
338.0000253399647 25298.0 NaN 1534.8563794255183 0.5006662245844726 502.0 6.0 363.0 
340.0000253399647 25301.0 NaN 1538.0253841015365 0.5017317815492133 507.0 4.0 366.0 
342.0000253399647 25279.0 NaN 1534.9953239812971 0.4995382741510949 507.0 5.0 364.0 
344.0000253399647 25287.0 NaN 1531.8156312625272 0.5020995407862596 503.0 8.0 360.0 
346.0000095079787 25298.0 NaN 1525.568470273882 0.5022074562247197 501.0 8.0 358.0 
348.0000253399647 25298.0 NaN 1528.5290581162333 0.5021254735811269 507.0 6.0 361.0 
350.0000253399647 25289.0 NaN 1531.607214428857 0.5017371394070713 507.0 8.0 360.0 
352.0000253399647 25276.0 NaN 1531.596526386106 0.5018985872056294 510.0 5.0 363.0 
354.0000253399647 25283.0 NaN 1525.4241816967274 0.5019875486926977 508.0 6.0 360.0 
356.0000253399647 25271.0 NaN 1528.6225784903152 0.5038521673910134 506.0 7.0 360.0 
358.0000253399647 25287.0 NaN 1528.716098864397 0.5028308226720978 509.0 6.0 361.0 
360.0000253399647 25258.0 NaN 1528.7615230460913 0.5036184459219026 508.0 8.0 359.0 
362.0000253399647 25242.0 NaN 1528.7054108216448 0.5008891231671448 508.0 9.0 358.0 
364.0000253399647 25246.0 NaN 1528.6519706078818 0.5017344558498639 511.0 6.0 361.0 
366.0000253399647 25232.0 NaN 1525.507014028055 0.5019195234077536 515.0 4.0 362.0 
368.0000253399647 25208.0 NaN 1522.3674014696066 0.5053607779172866 512.0 5.0 360.0 
370.0000253399647 25183.0 NaN 1516.2458249832998 0.5025256809391275 510.0 4.0 359.0 
372.0000253399647 25164.0 NaN 1510.1563126252513 0.5022567248642982 509.0 6.0 355.0 
374.0000253399647 25159.0 NaN 1510.1696726786909 0.5037718529114679 508.0 7.0 354.0 
376.0000253399647 25158.0 NaN 1513.1863727454909 0.5042585315141433 511.0 5.0 357.0 
378.0000253399647 25135.0 NaN 1513.1649966599878 0.5062590607179173 515.0 3.0 359.0 
380.0000253399647 25078.0 NaN 1510.0841683366727 0.5022833962075677 513.0 6.0 355.0 
382.0000253399647 25070.0 NaN 1510.1670006680022 0.5008947420160701 515.0 5.0 356.0 
384.0000253399647 25101.0 NaN 1510.2364729458911 0.5024591445687144 513.0 6.0 355.0 
386.0000253399647 25092.0 NaN 1513.2665330661332 0.5018159045926673 513.0 5.0 357.0 
388.0000253399647 25092.0 NaN 1516.291249164997 0.5094584478866867 515.0 5.0 358.0 
390.0000253399647 25061.0 NaN 1522.4101536406151 0.5023038565919958 517.0 4.0 361.0 
392.0000253399647 25047.0 NaN 1516.3660654642629 0.5011313865384245 515.0 6.0 357.0 
394.0000253399647 25051.0 NaN 1516.331329325318 0.5031297262012728 516.0 5.0 358.0 
396.0000253399647 25038.0 NaN 1519.3400133600546 0.5014152208444813 515.0 5.0 359.0 
398.0000253399647 25018.0 NaN 1516.1736806947242 0.5059145231416695 517.0 3.0 360.0 
400.0000253399647 24982.0 NaN 1513.0848363393457 0.5022295819092082 515.0 4.0 358.0 
402.0000253399647 24971.0 NaN 1513.239812959252 0.5010168404167452 515.0 5.0 357.0 
404.0000253399647 24971.0 NaN 1510.231128924516 0.5023541050496716 515.0 6.0 355.0 
406.0000253399647 24964.0 NaN 1519.4041416165658 0.5012913281916676 516.0 5.0 359.0 
408.0000253399647 24950.0 NaN 1519.382765531063 0.5034094859357913 519.0 3.0 361.0 
410.0000253399647 24938.0 NaN 1522.5010020040093 0.5033345492058962 518.0 5.0 360.0 
412.0000253399647 24939.0 NaN 1525.6299265197067 0.503257671172866 518.0 5.0 361.0 
414.0000253399647 24956.0 NaN 1528.7241148964608 0.5034793669888221 517.0 7.0 360.0 
416.0000253399647 24942.0 NaN 1522.567802271209 0.502092320722437 517.0 6.0 359.0 
418.0000253399647 24925.0 NaN 1522.5784903139615 0.5043522065073326 516.0 4.0 361.0 
420.0000253399647 24880.0 NaN 1513.2237808951245 0.504722550162297 514.0 5.0 357.0 
422.0000253399647 24875.0 NaN 1519.29191716767 0.5019266189850484 510.0 7.0 357.0 
424.0000253399647 24866.0 NaN 1510.233800935203 0.50217927031783 512.0 8.0 353.0 
426.0000253399647 24857.0 NaN 1513.3226452905817 0.5018777442954054 514.0 6.0 356.0 
428.0000253399647 24855.0 NaN 1531.831663326654 0.5021170701154192 514.0 9.0 359.0 
430.0000253399647 24824.0 NaN 1534.8430193720787 0.5021093436310387 517.0 9.0 360.0 
432.0000253399647 24812.0 NaN 1534.8537074148292 0.5025722120210011 521.0 6.0 363.0 
434.0000253399647 24823.0 NaN 1531.7461589846364 0.5027405754577255 522.0 5.0 363.0 
436.0000253399647 24824.0 NaN 1531.647294589179 0.5017481280819909 519.0 8.0 360.0 
438.0000253399647 24822.0 NaN 1531.647294589179 0.5038529386546449 520.0 7.0 361.0 
440.0000253399647 24817.0 NaN 1534.7441549766188 0.5019191179326057 524.0 4.0 365.0 
442.0000253399647 24826.0 NaN 1544.0267201068816 0.500911336450362 525.0 4.0 368.0 
444.0000253399647 24841.0 NaN 1544.0828323313276 0.5035333583096966 529.0 1.0 371.0 
446.0000253399647 24837.0 NaN 1534.8296593186365 0.5015018313908541 528.0 3.0 366.0 
448.0000253399647 24852.0 NaN 1540.8951235804939 0.501897503207004 525.0 6.0 365.0 
450.0000253399647 24846.0 NaN 1543.9706078824302 0.5034611893857694 524.0 6.0 366.0 
452.0000253399647 24860.0 NaN 1547.134268537073 0.5002751415944882 524.0 6.0 367.0 
454.0000253399647 24885.0 NaN 1553.3066132264544 0.5027251716832434 521.0 8.0 367.0 
456.0000253399647 24867.0 NaN 1550.188376753509 0.5055767891127071 524.0 7.0 367.0 
458.0000253399647 24857.0 NaN 1550.1322645290575 0.5022315609401568 523.0 6.0 368.0 
460.0000253399647 24832.0 NaN 1553.205076820309 0.5010997344478741 522.0 6.0 369.0 
462.0000253399647 24837.0 NaN 1553.1863727454909 0.5015013796070441 522.0 7.0 368.0 
464.0000253399647 24856.0 NaN 1553.1516366065455 0.5038186261909635 523.0 8.0 367.0 
466.0000253399647 24847.0 NaN 1556.3099532398119 0.504676854318913 523.0 8.0 368.0 
468.0000253399647 24863.0 NaN 1547.1529726118908 0.5039958168888221 525.0 6.0 367.0 
470.0000253399647 24839.0 NaN 1544.0908483633934 0.5020140563215241 520.0 8.0 364.0 
472.0000253399647 24823.0 NaN 1541.0233800935184 0.5021988233428575 519.0 9.0 362.0 
474.0000253399647 24830.0 NaN 1528.6653306613216 0.5021585104566176 515.0 9.0 358.0 
476.0000253399647 24832.0 NaN 1528.5958583834342 0.5038681642487177 515.0 6.0 361.0 
478.0000253399647 24844.0 NaN 1528.539746158984 0.5039091226755021 518.0 1.0 366.0 
480.0000253399647 24833.0 NaN 1528.513026052103 0.5027596500505861 518.0 1.0 366.0 
482.0000253399647 24847.0 NaN 1528.598530394121 0.5008460560295425 517.0 2.0 365.0 
484.0000253399647 24869.0 NaN 1522.484969939881 0.5019644081532251 515.0 4.0 361.0 
486.0000253399647 24909.0 NaN 1516.2992651970617 0.5038771569428876 512.0 5.0 358.0 
488.0000253399647 24917.0 NaN 1507.0460921843696 0.5034603507090761 512.0 4.0 356.0 
490.0000253399647 24889.0 NaN 1503.9225116900461 0.5033063339187601 510.0 6.0 353.0 
492.0000253399647 24894.0 NaN 1503.9198396793577 0.5026695788290997 505.0 7.0 352.0 
494.0000253399647 24904.0 NaN 1500.9485637942546 0.5032033456199265 510.0 3.0 355.0 
496.0000253399647 24879.0 NaN 1497.9692718770882 0.5029214863474661 513.0 2.0 355.0 
498.0000253399647 24911.0 NaN 1491.9305277221101 0.5032600441095229 511.0 2.0 353.0 
500.0000253399647 24906.0 NaN 1491.8156312625263 0.5036696684131216 509.0 4.0 351.0 
502.0000253399647 24900.0 NaN 1488.6760187040738 0.5024351647610525 508.0 5.0 349.0 
504.0000253399647 24906.0 NaN 1491.7648630594538 0.5046609121186454 513.0 4.0 351.0 
506.0000253399647 24893.0 NaN 1494.853707414829 0.5043444540710832 513.0 1.0 355.0 
508.0000253399647 24932.0 NaN 1497.9104876419515 0.5036149650927769 511.0 3.0 354.0 
510.0000253399647 24933.0 NaN 1500.9645958583826 0.502072477209862 513.0 0.0 358.0 
512.0000253399646 24931.0 NaN 1494.8510354041427 0.5019066043550412 511.0 1.0 355.0 
514.0000253399646 24936.0 NaN 1494.8350033400122 0.502401706087692 511.0 0.0 356.0 
516.0000253399646 24935.0 NaN 1494.9178356713435 0.5017192993153546 511.0 1.0 355.0 
518.0000253399646 24961.0 NaN 1485.6432865731458 0.5021049901868745 511.0 0.0 353.0 
520.0000253399646 24977.0 NaN 1482.6239144956573 0.5031169838811997 510.0 1.0 351.0 
522.0000253399646 24976.0 NaN 1476.406145624582 0.5031055626982026 510.0 0.0 350.0 
524.0000253399646 24989.0 NaN 1476.5210420841693 0.5042131559241346 511.0 1.0 349.0 
526.0000253399646 24972.0 NaN 1470.2712090848363 0.50564194632623 505.0 1.0 347.0 
528.0000253399646 24976.0 NaN 1464.1736806947242 0.5045169187597287 510.0 3.0 343.0 
530.0000253399646 24982.0 NaN 1464.1095524382092 0.5016791848335445 512.0 1.0 345.0 
532.0000253399646 24977.0 NaN 1473.2959251837003 0.500754446853795 513.0 3.0 346.0 
534.0000253399646 25005.0 NaN 1473.3974615898458 0.5041978179490674 512.0 2.0 347.0 
536.0000253399646 24993.0 NaN 1473.4108216432878 0.5022972599339235 511.0 3.0 346.0 
538.0000253399646 24996.0 NaN 1470.4635938543747 0.502835281623605 512.0 1.0 347.0 
540.0000253399646 24996.0 NaN 1470.3567134268542 0.5022220326097928 513.0 1.0 347.0 
542.0000253399646 24981.0 NaN 1470.4021376085514 0.5034785438892131 513.0 1.0 347.0 
544.0000253399646 24950.0 NaN 1467.2117568470271 0.5016466457175328 512.0 1.0 346.0 
546.0000253399646 24940.0 NaN 1467.1476285905153 0.5022704285773267 512.0 1.0 346.0 
548.0000253399646 24934.0 NaN 1470.191048764194 0.5017934467735163 514.0 1.0 347.0 
550.0000253399646 24926.0 NaN 1470.2231128924523 0.5018352931522383 514.0 2.0 346.0 
552.0000253399646 24939.0 NaN 1470.1937207748824 0.5015858973214078 514.0 2.0 346.0 
554.0000253399646 24941.0 NaN 1467.243820975283 0.5013550254878236 515.0 2.0 345.0 
556.0000253399646 24960.0 NaN 1464.1576486305937 0.502208451703054 511.0 4.0 342.0 
558.0000253399646 24952.0 NaN 1467.2411489645967 0.5028834500260412 509.0 4.0 343.0 
560.0000253399646 24933.0 NaN 1458.1028724114901 0.5023676835664628 505.0 7.0 337.0 
562.0000253399646 24981.0 NaN 1461.0501002004005 0.5021033478949947 502.0 5.0 340.0 
564.0000253399646 24982.0 NaN 1464.1736806947238 0.5029638102712328 505.0 6.0 340.0 
566.0000253399646 25000.0 NaN 1464.1603206412822 0.5027742425303049 508.0 4.0 342.0 
568.0000253399646 24976.0 NaN 1473.2959251837003 0.5028988492607016 510.0 5.0 344.0 
570.0000253399646 24941.0 NaN 1476.4836339345363 0.5020636529232402 509.0 5.0 345.0 
572.0000253399646 24994.0 NaN 1485.6726786907152 0.5035979798533183 510.0 4.0 349.0 
574.0000253399646 24985.0 NaN 1488.830995323982 0.502888249049123 510.0 6.0 348.0 
576.0000253399646 25002.0 NaN 1488.7294589178364 0.5031241524866942 514.0 4.0 350.0 
578.0000253399646 24975.0 NaN 1485.653974615899 0.5031046784520973 511.0 5.0 348.0 
580.0000253399646 24973.0 NaN 1488.710754843018 0.5040535991789563 510.0 5.0 349.0 
582.0000253399646 25034.0 NaN 1488.7882431529729 0.5037520821047574 511.0 5.0 349.0 
584.0000253399646 25014.0 NaN 1485.7234468937886 0.5012138648299643 514.0 2.0 351.0 
586.0000253399646 25062.0 NaN 1488.7909151636616 0.5015424593317768 514.0 3.0 351.0 
588.0000253399646 25033.0 NaN 1488.6412825651291 0.502780507995643 514.0 4.0 350.0 
590.0000253399646 25014.0 NaN 1491.772879091517 0.504872727874297 516.0 4.0 351.0 
592.0000253399646 25056.0 NaN 1497.8463593854365 0.502940739153034 519.0 4.0 353.0 
594.0000253399646 25048.0 NaN 1488.684034736138 0.500705154581548 519.0 5.0 349.0 
596.0000253399646 25081.0 NaN 1485.6085504342013 0.5024388761145522 518.0 5.0 348.0 
598.0000253399646 25080.0 NaN 1485.5978623914486 0.5037707800149647 518.0 5.0 348.0 
600.0000253399646 25064.0 NaN 1488.6893787575164 0.502039023188927 518.0 5.0 349.0 
602.0000253399646 25113.0 NaN 1497.7955911823635 0.5041922618630537 520.0 5.0 352.0 
604.0000253399646 25133.0 NaN 1494.725450901803 0.5052762988813413 517.0 7.0 349.0 
606.0000253399646 25157.0 NaN 1494.7975951903818 0.5048574709604676 521.0 5.0 351.0 
608.0000253399646 25160.0 NaN 1494.8430193720787 0.5041791622714163 514.0 8.0 348.0 
610.0000253399646 25118.0 NaN 1494.794923179692 0.5050674859605716 518.0 4.0 352.0 
612.0000253399646 25112.0 NaN 1497.8303273213091 0.5024746383046818 516.0 6.0 351.0 
614.0000253399646 25117.0 NaN 1500.937875751502 0.5031690748490568 518.0 6.0 352.0 
616.0000253399646 25123.0 NaN 1507.0888443553788 0.5011904495763146 520.0 6.0 354.0 
618.0000253399646 25147.0 NaN 1516.3633934535726 0.5049533268721249 518.0 6.0 357.0 
620.0000253399646 25110.0 NaN 1516.2591850367394 0.5056756145045813 519.0 5.0 358.0 
622.0000253399646 25146.0 NaN 1513.1703406813635 0.502827156263627 520.0 5.0 357.0 
624.0000253399646 25136.0 NaN 1516.2404809619243 0.5019474542350999 519.0 6.0 357.0 
626.0000253399646 25158.0 NaN 1522.4742818971272 0.5035679631905293 517.0 7.0 358.0 
628.0000253399646 25164.0 NaN 1522.5063460253825 0.5040918892361259 513.0 7.0 358.0 
630.0000253399646 25123.0 NaN 1522.4475617902463 0.5031735007351442 518.0 6.0 359.0 
632.0000253399646 25121.0 NaN 1522.4128256513022 0.5051285842157697 514.0 9.0 356.0 
634.0000253399646 25098.0 NaN 1519.4175016700071 0.5039349196420526 522.0 5.0 359.0 
636.0000253399646 25149.0 NaN 1519.3934535738151 0.5031988653558378 521.0 8.0 356.0 
638.0000253399646 25152.0 NaN 1519.353373413493 0.5052820383507672 523.0 6.0 358.0 
640.0000253399646 25123.0 NaN 1516.2618570474274 0.5065285058406555 518.0 9.0 354.0 
642.0000253399646 25083.0 NaN 1519.2758851035392 0.5017227428113021 517.0 9.0 355.0 
644.0000253399646 25079.0 NaN 1522.503674014697 0.5016515211391736 520.0 6.0 359.0 
646.0000253399646 25106.0 NaN 1519.5991983967929 0.5027616721967815 523.0 5.0 359.0 
648.0000253399646 25114.0 NaN 1519.5831663326646 0.5061374997109706 519.0 8.0 356.0 
650.0000253399646 25071.0 NaN 1519.5698062792262 0.5026300104010172 517.0 6.0 358.0 
652.0000253399646 25092.0 NaN 1516.3687374749486 0.5013156862910123 515.0 8.0 355.0 
654.0000253399646 25109.0 NaN 1519.4468937875745 0.503122536553564 512.0 8.0 356.0 
656.0000253399646 25100.0 NaN 1528.6386105544432 0.5030860254188696 512.0 6.0 361.0 
658.0000253399646 25094.0 NaN 1531.6713426853719 0.5045154239628821 512.0 5.0 363.0 
660.0000253399646 25057.0 NaN 1531.6766867067463 0.5039185767662518 509.0 8.0 360.0 
662.0000253399646 25029.0 NaN 1537.9024716098877 0.5018553313342371 508.0 7.0 363.0 
664.0000253399646 25003.0 NaN 1537.9131596526374 0.5016334226467877 508.0 8.0 362.0 
#####################################################################
# End of data export. Simulation finished at: 2019-03-20T09:13+0000 #
#####################################################################
