#####################################################################
# Alchemist log file - simulation started at: 2019-03-02T03:57+0000 #
#####################################################################
# seed = 0.0, bandwidth = 74989.42093324558, propagationDelay = 1.0, baserange = 31.622776601683796
#
# The columns have the following meaning: 
# time neighbor_count[Sum] <value>@neighbor_count[Sum] packet_size[Mean] mean_delay[Mean] crowd[Sum] overcrowded[Sum] risk[Sum] 
0.0 NaN NaN NaN NaN NaN NaN NaN 
10.000405536260626 2797.0 NaN 4994.180360721443 1.0573669757139519 1448.0 49.0 1448.0 
20.000405536260626 2808.0 NaN 4992.494321977288 1.0673332271768226 1428.0 69.0 1428.0 
30.000405536260626 2806.0 NaN 4992.331329325318 1.0575726765170301 1412.0 85.0 1412.0 
40.00040553626063 2832.0 NaN 4992.299265197061 1.0678375430138003 1412.0 85.0 1412.0 
50.00040553626063 2852.0 NaN 4992.157648630595 1.0827691176782122 1411.0 86.0 1411.0 
60.00040553626063 2867.0 NaN 4989.28256513026 1.0877977361910052 1412.0 84.0 1412.0 
70.00040553626063 2863.0 NaN 1527.315965263861 1.0548278660384143 423.0 85.0 282.0 
80.00040553626063 2878.0 NaN 1536.553106212425 1.0691250330794941 400.0 86.0 284.0 
90.00040553626063 2855.0 NaN 1536.5290581162333 1.0716891565678404 399.0 80.0 290.0 
100.00040553626063 2815.0 NaN 1539.615230460921 1.0680403302815016 400.0 72.0 299.0 
110.00040553626063 2822.0 NaN 1539.5671342685362 1.0625373326541379 395.0 76.0 295.0 
120.00040553626063 2853.0 NaN 1542.6880427521724 1.0967764613429376 398.0 78.0 294.0 
130.00040553626064 2813.0 NaN 1536.5210420841693 1.0780534018645413 401.0 75.0 295.0 
140.00040553626064 2797.0 NaN 1530.3486973947906 1.0573367234720688 390.0 83.0 285.0 
150.00040553626064 2860.0 NaN 1530.3887775551088 1.066193862565553 381.0 87.0 281.0 
160.00040553626064 2872.0 NaN 1530.3994655978636 1.0667167994213724 380.0 89.0 279.0 
170.00040553626064 2861.0 NaN 1536.5691382765544 1.0872307463954078 378.0 86.0 284.0 
180.00040553626064 2825.0 NaN 1533.4856379425523 1.0809097046256353 386.0 82.0 287.0 
190.00040553626064 2786.0 NaN 1530.471609886439 1.0843989518848152 380.0 85.0 283.0 
200.00040553626064 2800.0 NaN 1539.7889111556456 1.0928969563965114 385.0 81.0 290.0 
210.00040553626064 2807.0 NaN 1533.5871743486973 1.10239826296962 373.0 90.0 279.0 
220.00040553626064 2795.0 NaN 1530.4422177688725 1.1038333326912269 384.0 83.0 285.0 
230.00040553626064 2788.0 NaN 1533.5444221776906 1.0779898725032502 380.0 83.0 286.0 
240.00040553626064 2773.0 NaN 1533.5203740814973 1.1252134963737195 376.0 86.0 283.0 
250.00040553626064 2734.0 NaN 1530.4769539078156 1.0708450105691492 374.0 85.0 283.0 
260.00040553626064 2739.0 NaN 1524.2511690046754 1.1155403887992486 379.0 80.0 286.0 
270.00040553626064 2723.0 NaN 1536.5691382765544 1.0914339748289086 381.0 79.0 291.0 
280.00040553626064 2691.0 NaN 1545.7181028724108 1.1317295422060731 395.0 71.0 302.0 
290.00040553626064 2647.0 NaN 1536.4595858383454 1.135774312954037 384.0 76.0 294.0 
300.00040553626064 2644.0 NaN 1536.4889779559112 1.0767208604462408 386.0 73.0 297.0 
310.00040553626064 2654.0 NaN 1539.5430861723455 1.0953186161347737 389.0 68.0 303.0 
320.00040553626064 2626.0 NaN 1533.4589178356728 1.099810963827114 391.0 68.0 301.0 
330.00040553626064 2628.0 NaN 1536.472945891782 1.0939313721904929 389.0 70.0 300.0 
340.00040553626064 2654.0 NaN 1533.3493653974633 1.1004324479808334 387.0 72.0 297.0 
350.00040553626064 2645.0 NaN 1530.268537074148 1.1068120828868817 384.0 77.0 291.0 
360.00040553626064 2653.0 NaN 1524.2217768871085 1.1394560255404245 383.0 76.0 290.0 
370.00040553626064 2658.0 NaN 1514.9258517034082 1.1062457547520488 386.0 74.0 289.0 
380.00040553626064 2637.0 NaN 1514.8884435537734 1.0641329013250735 387.0 74.0 289.0 
390.00040553626064 2661.0 NaN 1508.780227120909 1.1174813841856364 388.0 74.0 287.0 
400.00040553626064 2660.0 NaN 1511.8022712090842 1.1157617269341158 390.0 74.0 288.0 
410.00040553626064 2689.0 NaN 1521.1569806279213 1.1145920109193157 407.0 62.0 303.0 
420.00040553626064 2661.0 NaN 1524.2832331329334 1.0981820299737455 405.0 65.0 301.0 
430.00040553626064 2668.0 NaN 1508.9432197728797 1.1297437748899868 408.0 65.0 296.0 
440.00040553626064 2630.0 NaN 1527.3720774883093 1.0885431629958298 402.0 73.0 294.0 
450.00040553626064 2647.0 NaN 1539.6285905143632 1.112588660977235 406.0 70.0 301.0 
460.00040553626064 2611.0 NaN 1551.7648630594545 1.090611411032624 408.0 70.0 305.0 
470.00040553626064 2595.0 NaN 1548.7401469605884 1.0995831640712481 408.0 71.0 303.0 
480.00040553626064 2594.0 NaN 1530.3861055444213 1.1083510242295442 398.0 75.0 293.0 
490.00040553626064 2609.0 NaN 1518.0734802939203 1.095496469112212 405.0 67.0 297.0 
500.00040553626064 2588.0 NaN 1499.711422845691 1.1061787458475123 397.0 69.0 289.0 
510.00040553626064 2598.0 NaN 1496.598530394121 1.0904413959016477 389.0 69.0 288.0 
520.0004055362606 2618.0 NaN 1484.2030728122909 1.0825923264732522 387.0 68.0 285.0 
530.0004055362606 2599.0 NaN 1468.9111556446212 1.0823152010870956 383.0 67.0 281.0 
540.0004055362606 2611.0 NaN 1471.9706078824304 1.0936970294781632 388.0 65.0 284.0 
550.0004055362606 2595.0 NaN 1471.9786239144964 1.0780910236189463 389.0 65.0 284.0 
560.0004055362606 2591.0 NaN 1474.981963927855 1.1130721762384628 391.0 68.0 282.0 
570.0004055362606 2587.0 NaN 1487.3159652638615 1.1473224739907282 389.0 69.0 285.0 
580.0004055362606 2579.0 NaN 1487.323981295926 1.1215729145969626 396.0 68.0 286.0 
590.0004055362606 2619.0 NaN 1484.2004008016024 1.1284692398863907 395.0 67.0 286.0 
600.0004055362606 2601.0 NaN 1505.7047428189717 1.111076321632654 398.0 70.0 290.0 
610.0004055362606 2625.0 NaN 1514.9231796927181 1.1064149475453466 396.0 72.0 291.0 
620.0004055362606 2628.0 NaN 1515.0434201736819 1.126457352062608 388.0 76.0 287.0 
630.0004055362606 2676.0 NaN 1521.1943887775544 1.0995286177324046 394.0 69.0 296.0 
640.0004055362606 2698.0 NaN 1511.9679358717442 1.1191943984107904 389.0 81.0 281.0 
650.0004055362606 2698.0 NaN 1524.2992651970617 1.1315778000674555 393.0 70.0 296.0 
660.0004055362606 2676.0 NaN 1530.5517702070817 1.135721527413564 380.0 80.0 288.0 
#####################################################################
# End of data export. Simulation finished at: 2019-03-02T04:02+0000 #
#####################################################################
