#####################################################################
# Alchemist log file - simulation started at: 2019-03-18T22:54+0000 #
#####################################################################
# seed = 9.0, bandwidth = 4216.965034285822, propagationDelay = 0.001, baserange = 177.82794100389228
#
# The columns have the following meaning: 
# time neighbor_count[Sum] <value>@neighbor_count[Sum] packet_size[Mean] mean_delay[Mean] crowd[Sum] overcrowded[Sum] risk[Sum] 
0.0 NaN NaN NaN NaN NaN NaN NaN 
2.0003374459614243 8960.0 NaN 4988.91382765531 0.23654426989404573 1497.0 0.0 1497.0 
4.000337445961424 26547.0 NaN 4995.465597862391 1.13897253315889 1496.0 1.0 1496.0 
6.000337445961424 26550.0 NaN 4994.199064796259 1.1391382684467146 1494.0 3.0 1494.0 
8.000337445961424 26554.0 NaN 4994.565130260521 1.1387056920442544 1493.0 4.0 1493.0 
10.000337445961424 26555.0 NaN 4994.0200400801605 1.1382573787703374 1493.0 4.0 1493.0 
12.000337445961424 26556.0 NaN 4994.340681362725 1.1384809699917828 1493.0 4.0 1493.0 
14.000337445961424 26557.0 NaN 4994.0146960587845 1.138688048999649 1493.0 4.0 1493.0 
16.000337445961424 26560.0 NaN 4994.423513694055 1.1390072059543324 1493.0 4.0 1493.0 
18.000337445961424 26564.0 NaN 4993.918503674015 1.141703661158676 1493.0 4.0 1493.0 
20.000337445961424 26574.0 NaN 4994.420841683367 1.146330036498935 1493.0 4.0 1493.0 
22.000337445961424 26594.0 NaN 4993.8810955243825 1.1538716717115403 1493.0 4.0 1493.0 
24.000337445961424 26596.0 NaN 4994.40213760855 1.1609614189545931 1493.0 4.0 1493.0 
26.000337445961424 26604.0 NaN 4993.9478957915835 1.1688360341028032 1493.0 4.0 1493.0 
28.000337445961424 26608.0 NaN 4994.359385437542 1.1766984420868754 1493.0 4.0 1493.0 
30.000337445961424 26636.0 NaN 4994.0093520374085 1.1841056074360956 1493.0 4.0 1493.0 
32.00033744596142 26658.0 NaN 4994.321977287909 1.1914857238292027 1493.0 4.0 1493.0 
34.00033744596142 26668.0 NaN 4994.0146960587845 1.1994335985340163 1493.0 4.0 1493.0 
36.00033744596142 26674.0 NaN 4994.40213760855 1.209764303025546 1493.0 4.0 1493.0 
38.00033744596142 26692.0 NaN 4993.9478957915835 1.222388147202177 1493.0 4.0 1493.0 
40.00033744596142 26731.0 NaN 4994.431529726119 1.2398506793828301 1493.0 4.0 1493.0 
42.00033744596142 26747.0 NaN 4993.921175684703 1.2591587619483224 1493.0 4.0 1493.0 
44.00033744596142 26750.0 NaN 4994.474281897127 1.279442141990433 1493.0 4.0 1493.0 
46.00033744596142 26753.0 NaN 4994.0414161656645 1.271207812718766 1493.0 4.0 1493.0 
48.00033744596142 26759.0 NaN 4994.396793587174 1.256661841466836 1493.0 4.0 1493.0 
50.00033744596142 26793.0 NaN 4994.0547762191045 1.246973856611048 1493.0 4.0 1493.0 
52.00033744596142 26826.0 NaN 4994.378089512358 1.2687536383429407 1493.0 4.0 1493.0 
54.00033744596142 26823.0 NaN 4994.068136272545 1.2883637077325079 1493.0 4.0 1493.0 
56.00033744596142 26828.0 NaN 4994.452905811623 1.3064414342944772 1493.0 4.0 1493.0 
58.00033744596142 26855.0 NaN 4994.0013360053445 1.3270616781247537 1493.0 4.0 1493.0 
60.00033744596142 26878.0 NaN 4994.474281897127 1.3395938429815115 1493.0 4.0 1493.0 
62.00012120840012 26887.0 NaN 1522.492985971945 0.9866241324054235 781.0 3.0 362.0 
64.00012120840012 26899.0 NaN 1522.4048096192369 0.9206894189189163 637.0 4.0 361.0 
66.00012120840012 26900.0 NaN 1522.3513694054789 0.8641616207251971 579.0 3.0 362.0 
68.00012120840012 26911.0 NaN 1522.297929191718 0.8557934577951849 549.0 3.0 362.0 
70.00012120840012 26932.0 NaN 1522.3086172344697 0.8218221999096251 534.0 3.0 362.0 
72.00012120840012 26964.0 NaN 1522.2765531062118 0.8214641667968791 528.0 4.0 361.0 
74.00012120840012 26997.0 NaN 1525.3894455577818 0.8335324917392358 525.0 4.0 362.0 
76.00012120840012 27013.0 NaN 1528.4328657314638 0.8459778203869244 527.0 4.0 363.0 
78.00012120840012 27031.0 NaN 1531.5671342685362 0.8612851382410364 526.0 4.0 364.0 
80.00012120840012 27030.0 NaN 1531.5190380761544 0.8333964928631291 524.0 4.0 364.0 
82.00012120840012 27014.0 NaN 1531.5511022044093 0.8422415246794849 524.0 4.0 364.0 
84.00012120840012 27001.0 NaN 1534.5998663994637 0.8616100829801624 524.0 4.0 365.0 
86.00012120840012 27011.0 NaN 1534.6105544422182 0.8862683885206881 522.0 4.0 365.0 
88.00012120840012 27031.0 NaN 1534.5624582498333 0.9084012216966689 523.0 4.0 365.0 
90.00012120840012 27034.0 NaN 1534.5945223780907 0.9249127460757283 523.0 4.0 365.0 
92.00012120840012 27028.0 NaN 1534.5624582498333 0.9265392395252205 522.0 4.0 365.0 
94.00012120840012 27024.0 NaN 1534.5998663994637 0.9537145565223731 522.0 4.0 365.0 
96.00012120840012 27027.0 NaN 1534.5624582498333 0.9401162449893258 522.0 4.0 365.0 
98.00012120840012 27021.0 NaN 1534.5945223780907 0.936165153284574 522.0 4.0 365.0 
100.00012120840012 27027.0 NaN 1534.5597862391458 0.9004194322028514 522.0 4.0 365.0 
102.00012120840012 27022.0 NaN 1537.6700066800274 0.902190994780309 522.0 4.0 366.0 
104.00012120840012 27026.0 NaN 1537.63794255177 0.9259564495889034 524.0 3.0 367.0 
106.00012120840012 27034.0 NaN 1537.6700066800274 0.8912818862931474 523.0 3.0 367.0 
108.00012120840012 27060.0 NaN 1537.63794255177 0.9002735181926947 522.0 3.0 367.0 
110.00012120840012 27064.0 NaN 1540.7508350033393 0.9010674925114632 522.0 3.0 368.0 
112.00012120840012 27062.0 NaN 1540.7348029392117 0.8964058535621428 523.0 3.0 368.0 
114.00012120840012 27071.0 NaN 1540.7641950567815 0.8946761805370919 523.0 3.0 368.0 
116.00012120840012 27070.0 NaN 1543.8049432197727 0.8804639142928095 524.0 3.0 369.0 
118.00012120840012 27066.0 NaN 1550.0066800267184 0.8645368361131678 525.0 3.0 371.0 
120.00012120840012 27066.0 NaN 1549.9372077488304 0.8557162920957786 524.0 4.0 370.0 
122.00012120840012 27070.0 NaN 1549.9879759519029 0.8842794790144864 525.0 4.0 370.0 
124.00012120840012 27070.0 NaN 1549.947895791582 0.9067514164022414 526.0 3.0 371.0 
126.00012120840012 27095.0 NaN 1546.9231796927181 0.8976480161721481 526.0 3.0 370.0 
128.00012120840012 27098.0 NaN 1546.8830995324 0.8814570371770232 526.0 3.0 370.0 
130.00012120840012 27089.0 NaN 1546.9018036072152 0.8521748092668945 526.0 3.0 370.0 
132.00012120840012 27091.0 NaN 1543.794255177021 0.8732508829107832 526.0 3.0 369.0 
134.00012120840012 27085.0 NaN 1540.758851035403 0.8729831869946335 525.0 3.0 368.0 
136.00012120840012 27085.0 NaN 1543.7728790915182 0.8658680439527604 521.0 3.0 369.0 
138.00012120840012 27093.0 NaN 1543.8022712090847 0.8870220121699357 520.0 3.0 369.0 
140.00012120840012 27110.0 NaN 1543.7541750167002 0.8937497025725538 522.0 3.0 369.0 
142.00012120840012 27116.0 NaN 1540.7214428857728 0.9137312057713801 520.0 3.0 368.0 
144.00012120840012 27095.0 NaN 1540.6920507682028 0.9258055671096769 519.0 3.0 368.0 
146.00012120840012 27044.0 NaN 1543.8022712090847 0.9064087226509308 518.0 3.0 369.0 
148.00012120840012 27043.0 NaN 1543.7621910487635 0.8667739889210881 518.0 3.0 369.0 
150.00012120840012 27064.0 NaN 1537.6860387441545 0.8621739030775974 518.0 3.0 367.0 
152.00012120840012 27052.0 NaN 1537.6352705410818 0.8713382246611409 518.0 3.0 367.0 
154.00012120840012 27036.0 NaN 1534.5838343353362 0.8771774959382279 519.0 3.0 366.0 
156.00012120840012 27007.0 NaN 1534.5624582498333 0.8656697174290744 521.0 3.0 366.0 
158.00012120840012 26990.0 NaN 1534.6052104208425 0.863867408128931 516.0 3.0 366.0 
160.00012120840012 26993.0 NaN 1534.5731462925849 0.8597733722556118 515.0 4.0 365.0 
162.00012120840012 26989.0 NaN 1534.62124248497 0.8438883806896215 516.0 3.0 366.0 
164.00012120840012 26953.0 NaN 1540.710754843018 0.8248146499201616 516.0 3.0 368.0 
166.00012120840012 26923.0 NaN 1540.7641950567815 0.8086855199897566 517.0 3.0 368.0 
168.00012120840012 26922.0 NaN 1540.710754843018 0.8157970393216991 518.0 2.0 369.0 
170.00012120840012 26937.0 NaN 1543.7969271877091 0.8271108760439934 520.0 2.0 370.0 
172.00012120840012 26942.0 NaN 1543.7969271877091 0.8423944341062846 520.0 2.0 370.0 
174.00012120840012 26935.0 NaN 1537.6887107548432 0.8544384868941451 519.0 2.0 368.0 
176.00012120840012 26902.0 NaN 1537.6593186372727 0.8580909217393864 520.0 2.0 368.0 
178.00012120840012 26900.0 NaN 1537.6833667334663 0.875356910390089 517.0 4.0 366.0 
180.00012120840012 26930.0 NaN 1534.5865063460271 0.8658063466285502 519.0 4.0 365.0 
182.00012120840012 26937.0 NaN 1534.6025384101547 0.8830959653491202 519.0 4.0 365.0 
184.00012120840012 26927.0 NaN 1531.524382097527 0.8944897403104982 518.0 4.0 364.0 
186.00012120840012 26906.0 NaN 1531.5591182364726 0.9095924374611772 515.0 4.0 364.0 
188.00012120840012 26900.0 NaN 1528.4328657314638 0.9197280726025167 515.0 4.0 363.0 
190.00012120840012 26891.0 NaN 1528.4889779559119 0.9177219147579809 514.0 4.0 363.0 
192.00012120840012 26897.0 NaN 1531.532398129591 0.9237573934122688 513.0 4.0 364.0 
194.00012120840012 26896.0 NaN 1528.4943219772883 0.950045056269531 513.0 4.0 363.0 
196.00012120840012 26870.0 NaN 1531.5217100868392 0.9264787452486399 513.0 4.0 364.0 
198.00012120840012 26834.0 NaN 1531.5564462257844 0.9256063669905251 513.0 4.0 364.0 
200.00012120840012 26817.0 NaN 1534.5998663994637 0.9344284742759424 515.0 4.0 365.0 
202.00012120840012 26812.0 NaN 1537.7074148296606 0.9459553709559695 515.0 4.0 366.0 
204.00012120840012 26799.0 NaN 1537.7261189044752 0.9737676307295943 514.0 4.0 366.0 
206.00012120840012 26775.0 NaN 1534.672010688043 1.0006767978279636 513.0 4.0 365.0 
208.00012120840012 26747.0 NaN 1537.6700066800274 1.0198148425414144 511.0 4.0 366.0 
210.00012120840012 26726.0 NaN 1537.69138276553 1.013367465711267 510.0 5.0 365.0 
212.00012120840012 26718.0 NaN 1537.5978623914482 1.0362048231875685 512.0 5.0 365.0 
214.00012120840012 26719.0 NaN 1531.4949899799608 1.0716954025276124 512.0 5.0 363.0 
216.00012120840012 26674.0 NaN 1534.5303941215757 1.03798063283926 509.0 5.0 364.0 
218.00012120840012 26664.0 NaN 1534.586506346027 0.9990775517300262 509.0 5.0 364.0 
220.00012120840012 26658.0 NaN 1537.6245824983298 1.0235644050366404 510.0 5.0 365.0 
222.00012120840012 26644.0 NaN 1534.5357381429542 1.0563672620985842 511.0 5.0 364.0 
224.00012120840012 26633.0 NaN 1534.5464261857062 1.083423314365723 509.0 5.0 364.0 
226.00012120840012 26622.0 NaN 1534.5624582498335 1.061231753432812 510.0 5.0 364.0 
228.00012120840012 26594.0 NaN 1534.5384101536392 1.067509441244158 508.0 5.0 364.0 
230.00012120840012 26575.0 NaN 1534.5758183032726 1.0788824740315308 507.0 5.0 364.0 
232.00012120840012 26540.0 NaN 1537.613894455579 1.0394542241439013 507.0 5.0 365.0 
234.00012120840012 26537.0 NaN 1537.6780227120908 1.0775887071472945 509.0 4.0 366.0 
236.00012120840012 26532.0 NaN 1537.6165664662637 1.0926506902951703 509.0 4.0 366.0 
238.00012120840012 26511.0 NaN 1537.6646626586517 1.0303042309102828 510.0 4.0 366.0 
240.00012120840012 26495.0 NaN 1528.3580494321998 1.0586376972656006 511.0 4.0 363.0 
242.00012120840012 26516.0 NaN 1528.4248496994 1.051245038253781 511.0 4.0 363.0 
244.00012120840012 26523.0 NaN 1528.3847695390791 1.05701122264095 512.0 3.0 364.0 
246.00012120840012 26518.0 NaN 1528.4088176352723 1.0380584007852978 512.0 3.0 364.0 
248.00012120840012 26483.0 NaN 1528.3687374749484 1.0069505014389677 512.0 3.0 364.0 
250.00012120840012 26471.0 NaN 1531.4655978623907 1.034649285039685 510.0 5.0 363.0 
252.00012120840012 26443.0 NaN 1531.4388777555093 1.0252063718438684 510.0 5.0 363.0 
254.00012120840012 26432.0 NaN 1531.4976619906479 1.0050219066113935 511.0 5.0 363.0 
256.0001212084001 26433.0 NaN 1528.419505678021 1.030300316099729 509.0 5.0 362.0 
258.00012120840006 26430.0 NaN 1528.4061456245818 1.0065095527476098 510.0 5.0 362.0 
260.00012120840006 26439.0 NaN 1528.4355377421516 1.006030786788236 511.0 5.0 362.0 
262.00012120840006 26414.0 NaN 1528.4756179024728 1.0261892237679966 509.0 5.0 362.0 
264.00012120840006 26414.0 NaN 1531.5163660654637 1.0340917839584807 507.0 7.0 361.0 
266.00012120840006 26429.0 NaN 1534.5758183032726 1.0376664948761611 501.0 12.0 357.0 
268.00012120840006 26423.0 NaN 1531.446893787575 0.9982808253972384 505.0 10.0 358.0 
270.00012120840006 26419.0 NaN 1528.3954575818298 1.0129647408722895 503.0 10.0 357.0 
272.00012120840006 26358.0 NaN 1531.4362057448243 0.9613254424509159 504.0 10.0 358.0 
274.00012120840006 26318.0 NaN 1534.5918503674002 0.9333526630711 506.0 10.0 359.0 
276.00012120840006 26312.0 NaN 1537.6245824983298 0.9429361909564731 506.0 10.0 360.0 
278.00012120840006 26299.0 NaN 1537.6406145624571 0.944976173797088 506.0 9.0 361.0 
280.00012120840006 26313.0 NaN 1534.5384101536388 0.9499110650533552 506.0 9.0 360.0 
282.00012120840006 26286.0 NaN 1534.5464261857067 0.945041811176349 506.0 9.0 360.0 
284.00012120840006 26250.0 NaN 1534.5090180360728 0.9413958865377815 506.0 9.0 360.0 
286.00012120840006 26260.0 NaN 1534.5250501002 0.9530817854710186 505.0 9.0 360.0 
288.00012120840006 26242.0 NaN 1531.4255177020727 0.9623695759071011 504.0 9.0 359.0 
290.00012120840006 26226.0 NaN 1528.3954575818298 0.9590296449604226 503.0 9.0 358.0 
292.00012120840006 26205.0 NaN 1528.3607214428846 0.9619496802762388 502.0 9.0 358.0 
294.00012120840006 26154.0 NaN 1528.392785571143 0.9587766302317356 500.0 9.0 358.0 
296.00012120840006 26174.0 NaN 1528.344689378757 0.9706473227754034 501.0 9.0 358.0 
298.00012120840006 26088.0 NaN 1531.4602538410159 0.9494985323587941 501.0 9.0 359.0 
300.00012120840006 26068.0 NaN 1531.4201736806936 0.9700166106000294 499.0 9.0 359.0 
302.00012120840006 26064.0 NaN 1525.3119572478274 0.9712740975180448 499.0 9.0 357.0 
304.00012120840006 26033.0 NaN 1525.2745490981972 0.9704682379301425 499.0 9.0 357.0 
306.00012120840006 26039.0 NaN 1528.3660654642633 0.9689738507249299 498.0 9.0 358.0 
308.00012120840006 26030.0 NaN 1528.344689378757 0.9837449398222518 498.0 9.0 358.0 
310.00012120840006 26015.0 NaN 1528.3874415497662 0.9940659125313739 498.0 9.0 358.0 
312.00012120840006 26008.0 NaN 1528.355377421509 1.0010631700360513 497.0 9.0 358.0 
314.00012120840006 25968.0 NaN 1525.3146292585184 0.997887536680542 497.0 9.0 357.0 
316.00012120840006 25944.0 NaN 1525.282565130261 1.0175613105792698 498.0 9.0 357.0 
318.00012120840006 25913.0 NaN 1528.3820975283911 1.0013302289186452 499.0 9.0 358.0 
320.00012120840006 25881.0 NaN 1534.549098196391 0.9984329241857667 498.0 9.0 360.0 
322.00012120840006 25842.0 NaN 1534.549098196391 0.97279238668159 498.0 9.0 360.0 
324.00012120840006 25787.0 NaN 1531.4255177020725 0.9761146249644872 497.0 9.0 359.0 
326.00012120840006 25789.0 NaN 1531.462925851703 1.0062605898772812 499.0 9.0 359.0 
328.00012120840006 25787.0 NaN 1534.5090180360728 1.032116435965534 498.0 9.0 360.0 
330.00012120840006 25796.0 NaN 1531.4602538410156 1.0686640963878655 497.0 9.0 359.0 
332.00012120840006 25779.0 NaN 1534.5090180360728 1.0948252199908126 497.0 9.0 360.0 
334.00012120840006 25736.0 NaN 1531.454909819639 1.108870963292199 497.0 9.0 359.0 
336.00012120840006 25738.0 NaN 1534.4956579826335 1.0872458889970134 498.0 9.0 360.0 
338.00012120840006 25756.0 NaN 1534.506346025382 1.0835745174802056 498.0 9.0 360.0 
340.00012120840006 25760.0 NaN 1534.4796259185027 1.0638059121581631 501.0 9.0 360.0 
342.00012120840006 25743.0 NaN 1534.543754175018 1.057084915987047 502.0 8.0 361.0 
344.00012120840006 25697.0 NaN 1534.4983299933183 1.028488509241689 502.0 8.0 361.0 
346.00012120840006 25673.0 NaN 1525.2558450233812 0.9695989790055201 500.0 8.0 358.0 
348.00012120840006 25672.0 NaN 1528.2859051436203 0.9573314016164362 503.0 8.0 359.0 
350.00012120840006 25678.0 NaN 1531.4255177020725 0.9594730170340255 505.0 8.0 360.0 
352.00012120840006 25658.0 NaN 1531.3987975951911 0.9445186314561537 506.0 8.0 360.0 
354.00012120840006 25633.0 NaN 1528.3607214428848 0.9350667763560775 505.0 8.0 359.0 
356.00012120840006 25637.0 NaN 1525.263861055445 0.9411131039867525 504.0 8.0 358.0 
358.00012120840006 25633.0 NaN 1525.2905811623248 0.902816663287664 505.0 8.0 358.0 
360.00012120840006 25641.0 NaN 1525.2665330661334 0.9126605797540969 507.0 8.0 358.0 
362.00012120840006 25644.0 NaN 1525.2665330661334 0.9325488354227489 507.0 8.0 358.0 
364.00012120840006 25617.0 NaN 1525.2317969271885 0.9349925205379416 508.0 8.0 358.0 
366.00012120840006 25606.0 NaN 1525.2585170340697 0.9548904219689154 508.0 8.0 358.0 
368.00012120840006 25598.0 NaN 1519.0968603874423 0.9673348164089337 508.0 8.0 356.0 
370.00012120840006 25615.0 NaN 1512.9913159652635 0.9936002878284025 505.0 8.0 354.0 
372.00012120840006 25615.0 NaN 1506.8029392117555 1.0129335927022864 506.0 8.0 352.0 
374.00012120840006 25592.0 NaN 1506.8617234468932 1.0062093453148873 506.0 8.0 352.0 
376.00012120840006 25589.0 NaN 1509.8864395457574 1.0269179460050413 507.0 8.0 353.0 
378.00012120840006 25591.0 NaN 1509.9078156312635 1.01936670920438 508.0 8.0 353.0 
380.00012120840006 25568.0 NaN 1506.7815631262533 1.0264370532582046 508.0 8.0 352.0 
382.00012120840006 25556.0 NaN 1506.8350033400125 1.0496155580053734 513.0 5.0 355.0 
384.00012120840006 25546.0 NaN 1506.8082832331334 1.0297756796806763 513.0 5.0 355.0 
386.00012120840006 25532.0 NaN 1506.8643954575818 1.0197548305697026 512.0 5.0 355.0 
388.00012120840006 25532.0 NaN 1512.9565798263184 1.035801798275613 513.0 5.0 357.0 
390.00012120840006 25541.0 NaN 1516.085504342018 1.0168288478192247 514.0 5.0 358.0 
392.00012120840006 25554.0 NaN 1512.9859719438887 1.0428879200610783 516.0 4.0 358.0 
394.00012120840006 25556.0 NaN 1516.1202404809626 1.0741198048708767 516.0 4.0 359.0 
396.00012120840006 25491.0 NaN 1516.085504342018 1.0447502703874276 516.0 4.0 359.0 
398.00012120840006 25483.0 NaN 1513.0100200400811 1.0324249740799405 515.0 4.0 358.0 
400.00012120840006 25477.0 NaN 1509.9051436205734 1.0406164171549426 515.0 4.0 357.0 
402.00012120840006 25490.0 NaN 1509.9826319305273 1.071794800842476 514.0 5.0 356.0 
404.00012120840006 25474.0 NaN 1509.9318637274544 1.045771753403837 514.0 5.0 356.0 
406.00012120840006 25414.0 NaN 1513.0153640614553 1.0274455305199854 515.0 5.0 357.0 
408.00012120840006 25408.0 NaN 1519.1209084836344 1.0299339244450512 516.0 6.0 358.0 
410.00012120840006 25418.0 NaN 1516.0534402137616 1.0543271749289767 514.0 7.0 356.0 
412.00012120840006 25436.0 NaN 1522.1857047428182 1.084376760176818 515.0 7.0 358.0 
414.00012120840006 25433.0 NaN 1522.1776887107544 1.1033579214329392 514.0 8.0 357.0 
416.00012120840006 25400.0 NaN 1519.0835003340005 1.0729524184357428 514.0 8.0 356.0 
418.00012120840006 25369.0 NaN 1519.099532398128 1.017695756194966 511.0 8.0 356.0 
420.00012120840006 25372.0 NaN 1509.859719438879 1.0463133331858534 510.0 8.0 353.0 
422.00012120840006 25374.0 NaN 1512.996659986639 1.0577023918197674 508.0 8.0 354.0 
424.00012120840006 25349.0 NaN 1512.967267869072 1.05798356377669 512.0 8.0 354.0 
426.00012120840006 25312.0 NaN 1506.8456913827647 1.0232920462702508 512.0 8.0 352.0 
428.00012120840006 25289.0 NaN 1515.9759519038082 1.0070305048757222 512.0 8.0 355.0 
430.00012120840006 25284.0 NaN 1531.3720774883093 1.0136798616889129 517.0 8.0 360.0 
432.00012120840006 25282.0 NaN 1531.3346693386782 1.0333272768176698 518.0 8.0 360.0 
434.00012120840006 25288.0 NaN 1531.4041416165658 1.0148038056439281 517.0 8.0 360.0 
436.00012120840006 25274.0 NaN 1528.2752171008697 1.012558261038945 517.0 8.0 359.0 
438.00012120840006 25254.0 NaN 1528.3126252505 0.9944106474018385 517.0 8.0 359.0 
440.00012120840006 25250.0 NaN 1531.3346693386784 0.977363825787342 521.0 8.0 360.0 
442.00012120840006 25254.0 NaN 1543.6499665998663 0.9877204389984473 520.0 8.0 364.0 
444.00012120840006 25255.0 NaN 1543.6419505678002 0.9879618858112736 521.0 8.0 364.0 
446.00012120840006 25242.0 NaN 1531.4094856379431 0.9754965341187412 522.0 8.0 360.0 
448.00012120840006 25221.0 NaN 1531.3266533066121 0.9484262561986102 521.0 8.0 360.0 
450.00012120840006 25235.0 NaN 1540.5931863727455 0.929507363747059 522.0 8.0 363.0 
452.00012120840006 25231.0 NaN 1543.6098864395453 0.9384265564349189 520.0 9.0 363.0 
454.00012120840006 25228.0 NaN 1546.7361389445548 0.9391200052137224 520.0 9.0 364.0 
456.00012120840006 25229.0 NaN 1546.7040748163001 0.9554607546746429 521.0 9.0 364.0 
458.00012120840006 25215.0 NaN 1543.7060788243157 0.9657304552537053 519.0 9.0 363.0 
460.00012120840006 25203.0 NaN 1546.6880427521724 0.9829814699090418 516.0 9.0 364.0 
462.00012120840006 25195.0 NaN 1543.6232464929847 0.9588072423266008 518.0 9.0 363.0 
464.00012120840006 25209.0 NaN 1543.6205744822996 0.9829287212917543 519.0 9.0 363.0 
466.00012120840006 25194.0 NaN 1546.7120908483637 0.9978785671447913 519.0 9.0 364.0 
468.00012120840006 25202.0 NaN 1537.4615898463608 0.9777520293306622 518.0 9.0 361.0 
470.00012120840006 25223.0 NaN 1534.3674014696066 0.9982304707656621 516.0 9.0 360.0 
472.00012120840006 25192.0 NaN 1534.3299933199726 0.9926854869518272 516.0 9.0 360.0 
474.00012120840006 25197.0 NaN 1525.1596526386097 0.9966881316375334 514.0 9.0 357.0 
476.00012120840006 25200.0 NaN 1525.1115564462266 1.0152436119169084 512.0 9.0 357.0 
478.00012120840006 25218.0 NaN 1525.1543086172358 0.9978912041949469 511.0 7.0 359.0 
480.00012120840006 25232.0 NaN 1525.1088844355368 1.0218275678108895 513.0 5.0 361.0 
482.00012120840006 25227.0 NaN 1525.1195724782908 1.0379876796532155 514.0 4.0 362.0 
484.00012120840006 25216.0 NaN 1518.9498997996 1.0216127503251455 513.0 4.0 360.0 
486.00012120840006 25244.0 NaN 1516.0053440213755 0.9937812482660343 515.0 3.0 360.0 
488.00012120840006 25263.0 NaN 1509.7715430861729 1.0095321897006668 513.0 3.0 358.0 
490.00012120840006 25275.0 NaN 1503.6740146960576 1.0374942791831745 514.0 3.0 356.0 
492.00012120840006 25265.0 NaN 1503.644622578491 0.993996982720411 511.0 2.0 357.0 
494.00012120840006 25269.0 NaN 1503.6820307281243 1.0114065820181382 509.0 1.0 358.0 
496.00012120840006 25252.0 NaN 1497.5684702738818 0.9702183869227411 514.0 2.0 355.0 
498.00012120840006 25256.0 NaN 1491.444221776888 0.9744067567646293 512.0 2.0 353.0 
500.00012120840006 25264.0 NaN 1491.422845691382 0.9744583706935482 509.0 3.0 352.0 
502.00012120840006 25247.0 NaN 1488.3179692718759 0.9896107122475873 510.0 3.0 351.0 
504.00012120840006 25241.0 NaN 1491.353373413493 0.9958257189225249 512.0 3.0 352.0 
506.00012120840006 25248.0 NaN 1491.4335337341356 0.9780093867321781 513.0 2.0 353.0 
508.00012120840006 25287.0 NaN 1497.5764863059455 0.9618581084927407 513.0 2.0 355.0 
510.00012120840006 25320.0 NaN 1500.692050768202 0.9898706571052368 510.0 2.0 356.0 
512.0001212084001 25316.0 NaN 1494.4983299933192 1.011767465031847 508.0 2.0 354.0 
514.0001212084002 25320.0 NaN 1494.55444221777 1.0058210577925728 508.0 2.0 354.0 
516.0001212084002 25324.0 NaN 1494.4849699398808 0.9971612089708067 508.0 2.0 354.0 
518.0001212084002 25333.0 NaN 1491.4549098196385 0.9774798303324759 508.0 2.0 353.0 
520.0001212084002 25361.0 NaN 1482.2124248497 0.954725838064468 507.0 2.0 350.0 
522.0001212084002 25359.0 NaN 1476.1015364061454 0.9730071665495628 507.0 2.0 348.0 
524.0001212084002 25344.0 NaN 1476.112224448899 0.95959165449937 507.0 2.0 348.0 
526.0001212084002 25334.0 NaN 1470.0013360053447 0.956610745253549 503.0 2.0 346.0 
528.0001212084002 25339.0 NaN 1473.0821643286565 0.9791250942989499 508.0 2.0 347.0 
530.0001212084002 25376.0 NaN 1463.802271209084 1.0178615913985267 512.0 2.0 344.0 
532.0001212084002 25359.0 NaN 1469.9024716098875 1.0313892512010077 512.0 2.0 346.0 
534.0001212084002 25343.0 NaN 1472.980627922511 1.0090642274478456 511.0 2.0 347.0 
536.0001212084002 25334.0 NaN 1472.9779559118247 1.0053752917174406 510.0 2.0 347.0 
538.0001212084002 25321.0 NaN 1469.9211756847021 1.0151291034405816 510.0 2.0 346.0 
540.0001212084002 25339.0 NaN 1469.8597194388788 1.0418552978062483 511.0 2.0 346.0 
542.0001212084002 25319.0 NaN 1469.8864395457574 1.0638546903118276 511.0 2.0 346.0 
544.0001212084002 25318.0 NaN 1469.862391449565 1.084934586606937 510.0 2.0 346.0 
546.0001212084002 25313.0 NaN 1466.84034736139 1.0749203962955614 509.0 2.0 345.0 
548.0001212084002 25321.0 NaN 1469.8704074816292 1.0773907371279752 511.0 2.0 346.0 
550.0001212084002 25333.0 NaN 1469.8784235136934 1.0827379230007854 513.0 2.0 346.0 
552.0001212084002 25347.0 NaN 1469.8677354709428 1.0917297527828433 512.0 2.0 346.0 
554.0001212084002 25329.0 NaN 1466.8029392117558 1.0158965406411238 511.0 2.0 345.0 
556.0001212084002 25338.0 NaN 1463.706078824316 0.9719356842569955 509.0 2.0 344.0 
558.0001212084002 25336.0 NaN 1466.794923179692 0.961698126262446 508.0 2.0 345.0 
560.0001212084002 25364.0 NaN 1463.6713426853714 0.9934841453784782 507.0 2.0 344.0 
562.0001212084002 25398.0 NaN 1460.6920507682028 0.9891240899042418 507.0 2.0 343.0 
564.0001212084002 25395.0 NaN 1463.7488309953244 0.952189881915224 505.0 2.0 344.0 
566.0001212084002 25432.0 NaN 1463.7675350701397 0.946864953368924 508.0 1.0 345.0 
568.0001212084002 25451.0 NaN 1466.786907147628 0.9605284646188591 513.0 1.0 346.0 
570.0001212084002 25444.0 NaN 1476.0988643954572 0.9534316534648359 513.0 1.0 349.0 
572.0001212084002 25452.0 NaN 1485.3012692050759 0.9396841887245789 513.0 2.0 351.0 
574.0001212084002 25440.0 NaN 1485.2959251837003 0.948393882525669 513.0 2.0 351.0 
576.0001212084002 25459.0 NaN 1482.2150968603878 0.9575975216858045 514.0 2.0 350.0 
578.0001212084002 25480.0 NaN 1482.1803607214435 0.9614811571471148 514.0 2.0 350.0 
580.0001212084002 25529.0 NaN 1485.2130928523718 0.9819995423951526 515.0 2.0 351.0 
582.0001212084002 25559.0 NaN 1485.2585170340697 0.9948937601078592 513.0 2.0 351.0 
584.0001212084002 25556.0 NaN 1482.1643286573153 0.994561071852143 513.0 2.0 350.0 
586.0001212084002 25574.0 NaN 1485.322645290582 1.0096602735509033 516.0 2.0 351.0 
588.0001212084002 25578.0 NaN 1485.2424849699394 1.0027934303397676 515.0 2.0 351.0 
590.0001212084002 25601.0 NaN 1488.3527054108213 1.011594683835597 516.0 2.0 352.0 
592.0001212084002 25615.0 NaN 1494.4448897795605 1.032142728638926 517.0 2.0 354.0 
594.0001212084002 25595.0 NaN 1491.3827655310627 1.017980947197293 521.0 2.0 353.0 
596.0001212084002 25588.0 NaN 1482.1456245824986 1.0204501023382735 521.0 2.0 350.0 
598.0001212084002 25600.0 NaN 1482.1429525718092 1.0272822517913869 520.0 2.0 350.0 
600.0001212084002 25620.0 NaN 1485.1730126920515 1.0412027747367396 520.0 2.0 351.0 
602.0001212084002 25643.0 NaN 1491.3694054776213 1.0149153192601619 520.0 2.0 353.0 
604.0001212084002 25654.0 NaN 1494.4448897795608 1.0179794378729154 521.0 2.0 354.0 
606.0001212084002 25631.0 NaN 1494.4876419505667 1.0140912168285332 522.0 2.0 354.0 
608.0001212084002 25663.0 NaN 1494.4235136940545 1.008287908777848 519.0 2.0 354.0 
610.0001212084002 25645.0 NaN 1494.4956579826332 1.0038842476075363 519.0 2.0 354.0 
612.0001212084002 25662.0 NaN 1494.4235136940545 1.0427088834274842 520.0 2.0 354.0 
614.0001212084002 25677.0 NaN 1503.7034068136272 1.0844356474856698 523.0 2.0 357.0 
616.0001212084002 25666.0 NaN 1509.8169672678698 1.0869869551350542 522.0 2.0 359.0 
618.0001212084002 25669.0 NaN 1512.8977955911816 1.0764341679818743 521.0 2.0 360.0 
620.0001212084002 25679.0 NaN 1518.9819639278544 1.093437042642686 521.0 2.0 362.0 
622.0001212084002 25707.0 NaN 1515.917167668672 1.1331090388668608 522.0 2.0 361.0 
624.0001212084002 25708.0 NaN 1519.0060120240475 1.1581832182507494 523.0 2.0 362.0 
626.0001212084002 25691.0 NaN 1522.0841683366725 1.1362548030284951 522.0 2.0 363.0 
628.0001212084002 25714.0 NaN 1525.1329325317295 1.1525182549227038 520.0 3.0 363.0 
630.0001212084002 25712.0 NaN 1525.1863727454909 1.1678259723970432 522.0 3.0 363.0 
632.0001212084002 25724.0 NaN 1525.2050768203085 1.1197741661546659 521.0 3.0 363.0 
634.0001212084002 25719.0 NaN 1525.1837007348022 1.0915153069338746 523.0 3.0 363.0 
636.0001212084002 25714.0 NaN 1522.1082164328643 1.0515313404984497 526.0 3.0 362.0 
638.0001212084002 25712.0 NaN 1522.142952571809 1.0258357096749273 526.0 3.0 362.0 
640.0001212084002 25699.0 NaN 1518.9605878423522 1.0460798608682589 525.0 3.0 361.0 
642.0001212084002 25686.0 NaN 1522.1563126252515 1.0674900401297367 524.0 3.0 362.0 
644.0001212084002 25686.0 NaN 1525.2344689378751 1.0913788851347217 523.0 4.0 362.0 
646.0001212084002 25689.0 NaN 1525.2478289913176 1.1123219590372149 524.0 4.0 362.0 
648.0001212084002 25664.0 NaN 1522.1536406145638 1.078649434315684 524.0 4.0 361.0 
650.0001212084002 25624.0 NaN 1522.1322645290575 1.060794771944748 521.0 4.0 361.0 
652.0001212084002 25632.0 NaN 1522.1055444221788 1.0892292569796123 521.0 4.0 361.0 
654.0001212084002 25619.0 NaN 1519.0487641950554 1.091489376662548 519.0 4.0 360.0 
656.0001212084002 25611.0 NaN 1525.1970607882445 1.0871099699346596 516.0 4.0 362.0 
658.0001212084002 25611.0 NaN 1534.4261857047436 1.1031398714696334 517.0 2.0 367.0 
660.0001212084002 25573.0 NaN 1534.391449565799 1.088612815338143 516.0 2.0 367.0 
662.0001212084002 25563.0 NaN 1534.4235136940545 1.0922165684787908 515.0 2.0 367.0 
664.0001212084002 25539.0 NaN 1540.5557782231122 1.0875070799704223 513.0 2.0 369.0 
#####################################################################
# End of data export. Simulation finished at: 2019-03-18T23:41+0000 #
#####################################################################
