#####################################################################
# Alchemist log file - simulation started at: 2019-03-07T17:11+0000 #
#####################################################################
# seed = 2.0, bandwidth = 1000.0, propagationDelay = 3.1622776601683795, baserange = 100.0
#
# The columns have the following meaning: 
# time neighbor_count[Sum] <value>@neighbor_count[Sum] packet_size[Mean] mean_delay[Mean] crowd[Sum] overcrowded[Sum] risk[Sum] 
0.0 NaN NaN NaN NaN NaN NaN NaN 
2.0005829790527505 NaN NaN 4988.0 NaN 1497.0 0.0 1497.0 
4.0005829790527505 NaN NaN 4988.0 NaN 1497.0 0.0 1497.0 
6.0005829790527505 NaN NaN 4988.0 NaN 1497.0 0.0 1497.0 
8.000582979052751 NaN NaN 4988.0 NaN 1497.0 0.0 1497.0 
10.000582979052751 12995.0 NaN 4994.800267201069 0.8485512290092005 1497.0 0.0 1497.0 
12.000582979052751 13124.0 NaN 4995.938543754175 2.841692878323335 1497.0 0.0 1497.0 
14.000582979052751 13124.0 NaN 4995.826319305277 4.841692878323335 1497.0 0.0 1497.0 
16.00058297905275 13124.0 NaN 4995.837007348029 6.841692878323335 1497.0 0.0 1497.0 
18.000467444517863 13125.0 NaN 4996.384769539078 5.778844722592706 1496.0 1.0 1496.0 
20.00058297905275 13129.0 NaN 4994.629258517034 1.8572295242021533 1489.0 8.0 1489.0 
22.00058297905275 13129.0 NaN 4993.573814295257 3.8572295242021535 1489.0 8.0 1489.0 
24.00058297905275 13129.0 NaN 4993.573814295257 5.857229524202153 1489.0 8.0 1489.0 
26.00058297905275 13129.0 NaN 4993.568470273881 7.857229524202153 1489.0 8.0 1489.0 
28.00058297905275 13178.0 NaN 4994.637274549098 0.9760289646281559 1480.0 17.0 1480.0 
30.00058297905275 13178.0 NaN 4994.688042752171 2.876173875295586 1480.0 17.0 1480.0 
32.00058297905275 13178.0 NaN 4994.63460253841 4.876173875295586 1480.0 17.0 1480.0 
34.00058297905275 13178.0 NaN 4994.666666666667 6.876173875295586 1480.0 17.0 1480.0 
36.00046744451786 13198.0 NaN 4995.4175016700065 5.818596408304626 1486.0 11.0 1486.0 
38.00058297905275 13242.0 NaN 4994.399465597862 1.923456947823706 1484.0 13.0 1484.0 
40.00058297905275 13226.0 NaN 4993.659318637275 3.8722243125173748 1484.0 13.0 1484.0 
42.00058297905275 13226.0 NaN 4993.675350701403 5.872224312517375 1484.0 13.0 1484.0 
44.00058297905275 13226.0 NaN 4993.670006680027 7.872224312517375 1484.0 13.0 1484.0 
46.00058297905275 13319.0 NaN 4995.00334001336 1.0257936352217882 1488.0 9.0 1488.0 
48.00058297905275 13315.0 NaN 4994.567802271209 2.921739308306099 1488.0 9.0 1488.0 
50.00058297905275 13308.0 NaN 4994.519706078824 4.916441978574234 1488.0 9.0 1488.0 
52.00058297905275 13308.0 NaN 4994.538410153641 6.916441978574235 1488.0 9.0 1488.0 
54.00046744451786 13335.0 NaN 4994.968603874416 5.883682205155833 1487.0 10.0 1487.0 
56.00058297905275 13391.0 NaN 4994.247160988644 2.0131440135319707 1485.0 12.0 1485.0 
58.00058297905275 13359.0 NaN 4993.541750167001 3.9516717153420826 1485.0 12.0 1485.0 
60.00058297905275 13359.0 NaN 4990.466265865063 5.951671715342083 1484.0 12.0 1484.0 
62.00058297905275 13359.0 NaN 1519.583166332664 7.951671715342083 833.0 7.0 357.0 
64.00058297905275 13457.0 NaN 1523.561790247161 1.1893990003779347 668.0 8.0 357.0 
66.00058297905275 13442.0 NaN 1522.506346025382 3.080456195993417 662.0 9.0 356.0 
68.00058297905275 13416.0 NaN 1522.4769539078156 2.5995903076806264 604.0 9.0 356.0 
70.00058297905275 13417.0 NaN 1522.4555778223094 4.161977771886846 596.0 9.0 356.0 
72.00058297905275 13468.0 NaN 1522.7708750835 2.94086534522143 570.0 16.0 349.0 
74.00058297905275 13522.0 NaN 1525.6619906479636 2.499921544555453 567.0 15.0 351.0 
76.00058297905275 13466.0 NaN 1525.4749498998 2.1800839044903526 548.0 15.0 351.0 
78.00058297905275 13467.0 NaN 1525.4589178356725 3.7729602796017936 542.0 15.0 351.0 
80.00058297905275 13491.0 NaN 1528.553106212425 3.577084799168215 534.0 15.0 352.0 
82.00058297905275 13549.0 NaN 1528.9966599866393 2.1514577593449884 529.0 18.0 349.0 
84.00058297905275 13513.0 NaN 1528.6332665330663 1.9122788874187007 524.0 19.0 348.0 
86.00058297905275 13444.0 NaN 1531.692718770875 3.388765080982688 519.0 19.0 349.0 
88.00058297905275 13458.0 NaN 1531.6740146960576 3.2186826958824937 518.0 19.0 349.0 
90.00058297905275 13472.0 NaN 1531.8717434869727 3.785604556879483 516.0 20.0 348.0 
92.00058297905275 13510.0 NaN 1531.6392785571152 1.5987961170375553 508.0 28.0 340.0 
94.00058297905275 13462.0 NaN 1531.4362057448243 3.1597376144517253 507.0 28.0 340.0 
96.00058297905275 13464.0 NaN 1531.4308617234456 3.010201034864169 504.0 28.0 340.0 
98.00058297905275 13453.0 NaN 1531.4362057448243 4.580012108684317 503.0 28.0 340.0 
100.00058297905275 13495.0 NaN 1532.0988643954572 1.366285602053508 505.0 26.0 342.0 
102.00058297905275 13482.0 NaN 1534.6319305277211 2.9327064099584774 504.0 27.0 342.0 
104.00058297905275 13447.0 NaN 1534.6158984635936 2.7445493461567096 502.0 27.0 342.0 
106.00058297905275 13434.0 NaN 1534.6372745490999 4.274119757686877 501.0 27.0 342.0 
108.00058297905275 13478.0 NaN 1537.9478957915821 3.078744368503546 511.0 17.0 353.0 
110.00058297905275 13514.0 NaN 1537.736806947227 2.5684370432717327 501.0 26.0 344.0 
112.00058297905275 13440.0 NaN 1537.5845023380089 2.351839821013109 500.0 27.0 343.0 
114.00058297905275 13429.0 NaN 1537.5524382097542 3.9005635162610997 499.0 27.0 343.0 
116.00058297905275 13441.0 NaN 1540.643954575818 3.718408399980542 500.0 26.0 345.0 
118.00058297905275 13501.0 NaN 1541.119572478291 2.176763333806988 510.0 18.0 353.0 
120.00058297905275 13482.0 NaN 1540.7748830995333 1.9606351922673033 510.0 18.0 353.0 
122.00058297905275 13438.0 NaN 1540.7428189712755 3.4556701254445534 510.0 18.0 353.0 
124.00058297905275 13451.0 NaN 1540.748162992652 3.2803384703648772 510.0 18.0 353.0 
126.00058297905275 13486.0 NaN 1550.2177688710756 3.8131181722268788 518.0 11.0 363.0 
128.00058297905275 13549.0 NaN 1546.9044756179023 1.6182246615303897 506.0 22.0 351.0 
130.00058297905275 13496.0 NaN 1546.7628590514364 3.1559985238548305 507.0 21.0 352.0 
132.00058297905275 13505.0 NaN 1543.6793587174363 3.0156861289950134 507.0 21.0 351.0 
134.00058297905275 13500.0 NaN 1543.6847027388092 4.571560605647154 507.0 21.0 351.0 
136.00058297905275 13594.0 NaN 1544.0400801603205 1.3983643045306382 515.0 13.0 359.0 
138.00058297905275 13562.0 NaN 1540.8042752171 2.914061764369516 513.0 14.0 357.0 
140.00058297905275 13526.0 NaN 1543.890447561791 2.6920438130010567 514.0 14.0 358.0 
142.00058297905275 13530.0 NaN 1537.7341349365395 4.2187395091970155 514.0 14.0 356.0 
144.00058297905275 13584.0 NaN 1544.1523046092182 3.026723025300649 519.0 10.0 362.0 
146.00058297905275 13613.0 NaN 1543.9652638610544 2.540194886861479 516.0 11.0 361.0 
148.00058297905275 13535.0 NaN 1546.8323313293274 2.3284349494168124 513.0 11.0 362.0 
150.00058297905275 13528.0 NaN 1546.810955243821 3.819082970501613 513.0 11.0 362.0 
152.00058297905275 13539.0 NaN 1540.6920507682028 3.6491974322824214 513.0 11.0 360.0 
154.00058297905275 13572.0 NaN 1540.9699398797607 2.205129393034564 511.0 13.0 358.0 
156.00058297905275 13527.0 NaN 1540.758851035403 1.9704337014286926 507.0 15.0 356.0 
158.00058297905275 13453.0 NaN 1540.753507014027 3.453915697572096 507.0 15.0 356.0 
160.00058297905275 13459.0 NaN 1540.7454909819635 3.3062650804023304 506.0 16.0 355.0 
162.00058297905275 13488.0 NaN 1540.9405477621908 3.8287282578786055 510.0 13.0 358.0 
164.00058297905275 13535.0 NaN 1543.906479625918 1.6980788804721303 511.0 12.0 360.0 
166.00058297905275 13466.0 NaN 1543.7354709418819 3.2035624871000454 511.0 12.0 360.0 
168.00058297905275 13474.0 NaN 1543.7408149632606 3.0456670039921687 510.0 12.0 360.0 
170.00058297905275 13468.0 NaN 1543.730126920509 4.563366593988429 510.0 12.0 360.0 
172.00058297905275 13521.0 NaN 1547.1983967935882 1.470892932653433 508.0 14.0 359.0 
174.00058297905275 13466.0 NaN 1546.888443553773 2.926639584374444 506.0 16.0 357.0 
176.00058297905275 13411.0 NaN 1546.8991315965275 2.71217428342604 506.0 15.0 358.0 
178.00058297905275 13408.0 NaN 1540.7348029392115 4.256868047662353 507.0 14.0 357.0 
180.00058297905275 13432.0 NaN 1541.0287241148974 3.0380242391900825 513.0 11.0 360.0 
182.00058297905275 13452.0 NaN 1543.8690714762843 2.533452608402344 510.0 16.0 356.0 
184.00058297905275 13350.0 NaN 1543.7595190380753 2.2492294502769674 508.0 17.0 355.0 
186.00058297905275 13342.0 NaN 1534.5410821643275 3.788996052727874 508.0 16.0 353.0 
188.00058297905275 13364.0 NaN 1531.4789579158307 3.611979089741855 507.0 16.0 352.0 
190.00058297905275 13409.0 NaN 1537.9318637274544 2.240947798180947 501.0 21.0 349.0 
192.00058297905275 13384.0 NaN 1537.6833667334663 2.016500931697702 498.0 23.0 347.0 
194.00058297905275 13322.0 NaN 1540.7748830995336 3.452429463142503 499.0 22.0 349.0 
196.00058297905275 13331.0 NaN 1537.7100868403456 3.3107334229096166 499.0 22.0 348.0 
198.00058297905275 13362.0 NaN 1541.0100200400818 3.836842395758711 505.0 17.0 354.0 
200.00058297905275 13403.0 NaN 1543.9331997328002 1.751658168549123 505.0 17.0 355.0 
202.00058297905275 13282.0 NaN 1543.772879091518 3.1479484773361937 506.0 16.0 356.0 
204.00058297905275 13288.0 NaN 1543.7621910487635 3.0445642146492258 505.0 16.0 356.0 
206.00058297905275 13291.0 NaN 1540.7000668002665 4.584200346596246 505.0 16.0 355.0 
208.00058297905275 13365.0 NaN 1544.1870407481638 1.5928781109712682 504.0 18.0 354.0 
210.00058297905275 13332.0 NaN 1543.8236472945907 2.9438371344457166 503.0 19.0 353.0 
212.00058297905275 13285.0 NaN 1543.8530394121572 2.7742428067020586 500.0 19.0 353.0 
214.00058297905275 13279.0 NaN 1543.8316633266545 4.309751557495632 499.0 19.0 353.0 
216.00018082833492 13306.0 NaN 1547.1369405477635 3.187962271929507 497.0 18.0 355.0 
218.00058297905275 13332.0 NaN 1543.8744154976634 2.782006416734243 498.0 18.0 354.0 
220.00058297905275 13230.0 NaN 1543.7167668670663 2.557234870809605 498.0 18.0 354.0 
222.00058297905275 13226.0 NaN 1534.4956579826335 4.080466712533294 498.0 18.0 351.0 
224.00058297905275 13234.0 NaN 1534.4849699398815 3.9405484404045943 498.0 18.0 351.0 
226.00058297905275 13254.0 NaN 1537.9265197060793 2.5432476144081506 502.0 19.0 351.0 
228.00058297905275 13220.0 NaN 1537.5978623914482 2.2963492906456375 501.0 20.0 350.0 
230.00058297905275 13137.0 NaN 1537.5604542418182 3.5420466689547214 499.0 20.0 350.0 
232.00058297905275 13124.0 NaN 1543.7167668670663 3.368587497112743 499.0 20.0 352.0 
234.00018082833492 13144.0 NaN 1543.8396793587183 3.872556528316699 504.0 16.0 356.0 
236.00058297905275 13188.0 NaN 1546.9766199064818 1.7683863823587826 500.0 19.0 354.0 
238.00058297905275 13102.0 NaN 1546.7708750835 3.193337285691847 500.0 19.0 354.0 
240.00058297905275 13100.0 NaN 1540.6252505010002 3.0630839499058244 500.0 19.0 352.0 
242.00058297905275 13099.0 NaN 1537.5524382097544 4.573532517876259 500.0 19.0 351.0 
244.00058297905275 13179.0 NaN 1537.9104876419517 1.5677879883901793 496.0 19.0 351.0 
246.00058297905275 13143.0 NaN 1534.5490981963912 2.9616423916160968 494.0 21.0 348.0 
248.00058297905275 13094.0 NaN 1537.6379425517703 2.77259805624687 495.0 21.0 349.0 
250.00058297905275 13084.0 NaN 1534.5811623246482 4.289612908653234 493.0 21.0 348.0 
252.00058297905275 13120.0 NaN 1534.7227788911155 3.175443231611345 499.0 13.0 356.0 
254.00058297905275 13146.0 NaN 1534.482297929191 2.757677978746361 500.0 15.0 354.0 
256.00058297905275 13054.0 NaN 1531.2999331997335 2.4853238732215956 500.0 15.0 353.0 
258.00058297905275 13033.0 NaN 1531.2678690714756 3.9748259370352224 500.0 16.0 352.0 
260.00058297905275 13033.0 NaN 1531.29191716767 3.8249609683625847 499.0 16.0 352.0 
262.00058297905275 13119.0 NaN 1528.6412825651298 2.4406557542260274 502.0 15.0 352.0 
264.00058297905275 13106.0 NaN 1528.3767535070153 2.182087727315924 500.0 17.0 350.0 
266.00058297905275 13026.0 NaN 1525.3306613226455 3.5680566813889505 498.0 17.0 349.0 
268.00058297905275 13012.0 NaN 1525.3146292585184 3.3857196097153617 500.0 17.0 349.0 
270.00058297905275 13028.0 NaN 1528.4996659986634 3.9169453448841005 498.0 19.0 348.0 
272.00058297905275 13058.0 NaN 1531.3533734134935 1.8852772304439938 498.0 19.0 349.0 
274.00058297905275 12977.0 NaN 1534.2818971275888 3.242184108150936 498.0 19.0 350.0 
276.00058297905275 12989.0 NaN 1540.4595858383454 3.0883181113700595 497.0 20.0 351.0 
278.00058297905275 12980.0 NaN 1540.4569138276545 4.589894195702909 496.0 20.0 351.0 
280.00058297905275 13060.0 NaN 1540.8390113560454 1.6751618748685364 498.0 18.0 353.0 
282.00058297905275 13017.0 NaN 1540.6065464261842 3.081064154595015 498.0 19.0 352.0 
284.00058297905275 12966.0 NaN 1537.6005344021364 2.8930330261604795 498.0 19.0 351.0 
286.00058297905275 12954.0 NaN 1537.563126252507 4.34516967507353 499.0 19.0 351.0 
288.00058297905275 12970.0 NaN 1537.696726786909 3.271341150343869 498.0 18.0 352.0 
290.00058297905275 12982.0 NaN 1537.5791583166342 2.8580259480329566 497.0 20.0 350.0 
292.00058297905275 12903.0 NaN 1534.3513694054793 2.5824759737830996 494.0 22.0 347.0 
294.00058297905275 12891.0 NaN 1525.1730126920518 4.029337200844405 494.0 22.0 344.0 
296.00058297905275 12901.0 NaN 1522.1082164328636 3.889162101205938 493.0 22.0 343.0 
298.00058297905275 12934.0 NaN 1531.7835671342702 2.5550751224746904 499.0 15.0 353.0 
300.00058297905275 12901.0 NaN 1534.549098196391 2.3218931553200295 498.0 16.0 353.0 
302.00058297905275 12841.0 NaN 1531.4789579158305 3.6745614672080777 496.0 15.0 353.0 
304.00058297905275 12840.0 NaN 1528.4462257849025 3.482988120396862 496.0 15.0 352.0 
306.00058297905275 12836.0 NaN 1528.5504342017364 3.9502317243185603 494.0 16.0 351.0 
308.00058297905275 12858.0 NaN 1534.4903139612547 1.9015660482180052 493.0 17.0 352.0 
310.00058297905275 12761.0 NaN 1534.335337341348 3.2592368478385776 494.0 17.0 352.0 
312.00058297905275 12754.0 NaN 1537.4428857715434 3.075298893252356 493.0 17.0 353.0 
314.00058297905275 12740.0 NaN 1534.378089512357 4.591301986962113 494.0 17.0 352.0 
316.00058297905275 12785.0 NaN 1534.8670674682703 1.6518281441901803 487.0 23.0 346.0 
318.00058297905275 12748.0 NaN 1528.475617902473 3.0182707266123874 483.0 24.0 343.0 
320.00058297905275 12695.0 NaN 1528.4809619238454 2.794248316021232 483.0 24.0 343.0 
322.00058297905275 12686.0 NaN 1525.3867735470935 4.248306180685939 484.0 24.0 342.0 
324.00058297905275 12708.0 NaN 1528.571810287243 3.157123617749855 492.0 15.0 352.0 
326.00058297905275 12753.0 NaN 1534.5731462925844 2.7676029835636244 491.0 16.0 353.0 
328.00058297905275 12662.0 NaN 1534.3914495657998 2.501500275152888 491.0 17.0 352.0 
330.00058297905275 12647.0 NaN 1531.3400133600549 3.89955320427994 491.0 17.0 351.0 
332.00058297905275 12641.0 NaN 1531.3293253173001 3.7854483633262443 492.0 17.0 351.0 
334.00058297905275 12666.0 NaN 1534.760187040748 2.430967525835895 489.0 22.0 347.0 
336.00058297905275 12656.0 NaN 1528.2832331329334 2.163400807640157 487.0 23.0 344.0 
338.00058297905275 12613.0 NaN 1528.3259853039426 3.560877651884125 485.0 23.0 344.0 
340.00058297905275 12612.0 NaN 1522.2150968603878 3.3882928376753365 484.0 23.0 342.0 
342.00058297905275 12629.0 NaN 1528.475617902473 3.9145774099788717 492.0 16.0 351.0 
344.00058297905275 12669.0 NaN 1528.3313293253182 1.8651328618771903 491.0 15.0 352.0 
346.00058297905275 12610.0 NaN 1528.1389445557788 3.2527796549865746 493.0 15.0 352.0 
348.00058297905275 12614.0 NaN 1525.0661322645276 3.0411003228626923 493.0 15.0 351.0 
350.00058297905275 12603.0 NaN 1525.0634602538419 4.503891642862173 496.0 15.0 351.0 
352.00058297905275 12662.0 NaN 1528.6065464261849 1.571273354151863 500.0 13.0 354.0 
354.00058297905275 12652.0 NaN 1525.2718770875092 2.922285761305448 498.0 14.0 352.0 
356.00058297905275 12620.0 NaN 1522.185704742818 2.6436394069953075 495.0 14.0 351.0 
358.00058297905275 12610.0 NaN 1522.1215764863066 4.124393506249516 495.0 14.0 351.0 
360.00058297905275 12619.0 NaN 1519.219772879091 3.02605953158279 496.0 14.0 350.0 
362.00058297905275 12653.0 NaN 1519.158316633266 2.638979677290018 496.0 15.0 349.0 
364.00058297905275 12631.0 NaN 1518.9205076820306 2.376266808051501 494.0 15.0 349.0 
366.00058297905275 12632.0 NaN 1518.8937875751515 3.8336756539810106 494.0 15.0 349.0 
368.00058297905275 12633.0 NaN 1518.907147628591 3.7349573228566304 494.0 15.0 349.0 
370.00058297905275 12667.0 NaN 1513.2104208416827 2.460299144115567 499.0 13.0 349.0 
372.00058297905275 12659.0 NaN 1503.6766867067463 2.166147263873196 499.0 14.0 345.0 
374.00058297905275 12633.0 NaN 1500.5824983299929 3.584539654193866 499.0 14.0 344.0 
376.00058297905275 12633.0 NaN 1497.523046092184 3.426443240607299 498.0 14.0 343.0 
378.00058297905275 12648.0 NaN 1497.6539746158992 4.0013337303127114 496.0 16.0 341.0 
380.00058297905275 12687.0 NaN 1506.9151636606543 2.027915744845535 498.0 16.0 344.0 
382.00058297905275 12640.0 NaN 1503.6740146960576 3.3712834274377594 497.0 16.0 343.0 
384.00058297905275 12638.0 NaN 1497.512358049433 3.2309149260906613 497.0 16.0 341.0 
386.00058297905275 12627.0 NaN 1500.5958583834342 4.725793685705557 499.0 16.0 342.0 
388.00058297905275 12693.0 NaN 1507.150300601202 1.871714760700425 503.0 14.0 346.0 
390.00058297905275 12660.0 NaN 1500.6626586506352 3.193041748948725 501.0 15.0 343.0 
392.00058297905275 12622.0 NaN 1506.7895791583173 2.9973490839528227 501.0 15.0 345.0 
394.00058297905275 12589.0 NaN 1503.7247828991306 4.389961623312263 502.0 15.0 344.0 
396.00058297905275 12614.0 NaN 1510.0360721442903 3.331645434290457 503.0 15.0 346.0 
398.00058297905275 12646.0 NaN 1509.9612558450242 2.947694611135851 506.0 14.0 347.0 
400.00058297905275 12581.0 NaN 1509.7822311289249 2.6496153147211596 506.0 14.0 347.0 
402.00058297905275 12557.0 NaN 1506.7735470941886 4.016128186013412 505.0 15.0 345.0 
404.00058297905275 12553.0 NaN 1509.8517034068152 3.855814574649755 506.0 15.0 346.0 
406.00058297905275 12587.0 NaN 1513.317301269206 2.5074399522312505 510.0 13.0 349.0 
408.00058297905275 12574.0 NaN 1512.9966599866395 2.27262025143921 508.0 14.0 348.0 
410.00058297905275 12521.0 NaN 1519.1182364729455 3.6034322527918072 507.0 14.0 350.0 
412.00058297905275 12515.0 NaN 1522.19906479626 3.423418114449516 508.0 14.0 351.0 
414.00058297905275 12533.0 NaN 1522.3246492985975 3.9230501057326976 506.0 15.0 350.0 
416.00058297905275 12590.0 NaN 1525.3760855043422 1.9355808104587438 506.0 16.0 350.0 
418.00058297905275 12525.0 NaN 1525.1863727454906 3.268251931183199 507.0 16.0 350.0 
420.00058297905275 12528.0 NaN 1512.8817635270545 3.1007288262617143 507.0 16.0 346.0 
422.00058297905275 12516.0 NaN 1512.828323313293 4.52639402923838 507.0 16.0 346.0 
424.00058297905275 12579.0 NaN 1510.2284569138271 1.6608376052626055 505.0 14.0 347.0 
426.00058297905275 12576.0 NaN 1509.854375417501 3.0521627571975003 503.0 14.0 347.0 
428.000180828335 12543.0 NaN 1512.9378757515021 2.8225262707498056 502.0 14.0 348.0 
430.00058297905275 12528.0 NaN 1506.7575150300609 4.276864774259872 502.0 14.0 346.0 
432.00058297905275 12556.0 NaN 1509.990647962591 3.2049038417402986 503.0 13.0 348.0 
434.00058297905275 12572.0 NaN 1513.1142284569146 2.779735420348062 500.0 16.0 346.0 
436.00058297905275 12533.0 NaN 1522.158984635937 2.5217710527075003 500.0 16.0 349.0 
438.00058297905275 12526.0 NaN 1525.2451569806271 3.893974083617802 509.0 16.0 350.0 
440.00058297905275 12532.0 NaN 1525.271877087509 3.746031639987718 510.0 16.0 350.0 
442.00058297905275 12561.0 NaN 1525.613894455579 2.5290992058521975 515.0 11.0 355.0 
444.00058297905275 12557.0 NaN 1525.253173012691 2.3366013877352385 513.0 13.0 353.0 
446.00058297905275 12507.0 NaN 1531.366733466934 3.6426234167737443 514.0 13.0 355.0 
448.00058297905275 12512.0 NaN 1528.320641282564 3.4431475942904792 513.0 13.0 354.0 
450.00058297905275 12514.0 NaN 1531.4896459585823 3.89234714992968 512.0 13.0 355.0 
452.00058297905275 12542.0 NaN 1537.5070140280548 1.9646945979424935 512.0 15.0 355.0 
454.00058297905275 12484.0 NaN 1534.2952571810279 3.3193012065749565 512.0 15.0 354.0 
456.00058297905275 12494.0 NaN 1543.5591182364726 3.1577652146376822 512.0 15.0 357.0 
458.00058297905275 12503.0 NaN 1543.4843019372088 4.621826430923994 511.0 15.0 357.0 
460.00058297905275 12563.0 NaN 1547.0514362057456 1.794579059367837 513.0 12.0 361.0 
462.00058297905275 12538.0 NaN 1546.8189712758845 3.13638737997073 512.0 13.0 360.0 
464.00058297905275 12517.0 NaN 1543.6659986639938 2.9284583788620044 512.0 13.0 359.0 
466.00058297905275 12508.0 NaN 1540.6599866399454 4.3581807724380885 511.0 13.0 358.0 
468.00058297905275 12518.0 NaN 1540.7722110888456 3.2975245599052228 512.0 14.0 357.0 
470.00058297905275 12524.0 NaN 1537.6219104876427 2.8959326805874492 504.0 19.0 351.0 
472.00058297905275 12476.0 NaN 1534.4021376085516 2.6465426294116945 503.0 19.0 350.0 
474.00058297905275 12464.0 NaN 1531.3533734134935 4.0043472751567295 503.0 19.0 349.0 
476.00058297905275 12464.0 NaN 1528.2752171008697 3.8547341657681664 501.0 19.0 348.0 
478.00058297905275 12498.0 NaN 1528.6332665330658 2.6120481103522937 501.0 17.0 350.0 
480.00058297905275 12488.0 NaN 1528.2591850367392 2.388931878445796 502.0 18.0 349.0 
482.00058297905275 12437.0 NaN 1525.2157648630607 3.6244212320831077 504.0 17.0 349.0 
484.00058297905275 12448.0 NaN 1522.1376085504357 3.423343720676507 501.0 17.0 348.0 
486.00058297905275 12443.0 NaN 1519.198396793588 3.909930843860836 503.0 16.0 348.0 
488.00058297905275 12477.0 NaN 1519.150300601202 1.9659648869012964 499.0 18.0 346.0 
490.00058297905275 12428.0 NaN 1519.0113560454251 3.274557828874244 499.0 18.0 346.0 
492.00058297905275 12431.0 NaN 1500.5317301269192 3.1048497917760347 499.0 17.0 341.0 
494.00058297905275 12426.0 NaN 1497.5043420173668 4.505431197507469 498.0 17.0 340.0 
496.00058297905275 12480.0 NaN 1500.9111556446212 1.7038395307683059 499.0 14.0 344.0 
498.00058297905275 12456.0 NaN 1500.6786907147634 3.071823167571228 500.0 14.0 344.0 
500.00058297905275 12423.0 NaN 1500.6492985971938 2.8563761874765277 499.0 14.0 344.0 
502.00058297905275 12419.0 NaN 1494.5116900467608 4.275407046253441 500.0 14.0 342.0 
504.00058297905275 12455.0 NaN 1497.79024716099 3.155454638835733 502.0 12.0 345.0 
506.00058297905275 12487.0 NaN 1500.7748830995333 2.8098849690529506 499.0 15.0 343.0 
508.00058297905275 12441.0 NaN 1500.6199064796267 2.594868116435074 500.0 15.0 343.0 
510.00058297905275 12432.0 NaN 1500.6225784903152 4.006734017959834 500.0 15.0 343.0 
512.0005829790528 12437.0 NaN 1500.574482297928 3.845804690906605 498.0 15.0 343.0 
514.0005829790528 12457.0 NaN 1507.0674682698727 2.5523857388783338 505.0 12.0 348.0 
516.0005829790528 12464.0 NaN 1503.6633266533072 2.2974318459901224 501.0 14.0 345.0 
518.0005829790528 12436.0 NaN 1500.6092184368727 3.637137686810394 501.0 15.0 343.0 
520.0005829790528 12440.0 NaN 1488.3179692718757 3.387044652792906 501.0 15.0 339.0 
522.0005829790528 12464.0 NaN 1485.32531730127 3.9239469754893435 501.0 13.0 340.0 
524.0005829790528 12496.0 NaN 1476.1416165664657 1.9402480118540384 496.0 15.0 335.0 
526.0005829790528 12453.0 NaN 1476.0614562458263 3.2354597485185397 496.0 14.0 336.0 
528.0005829790528 12453.0 NaN 1476.0614562458263 3.019546360581669 496.0 14.0 336.0 
530.0005829790528 12449.0 NaN 1476.0774883099539 4.40926780358986 494.0 14.0 336.0 
532.0005829790528 12520.0 NaN 1464.0561122244483 1.6067423158348257 493.0 12.0 334.0 
534.0005829790528 12524.0 NaN 1466.84034736139 2.978193007338989 493.0 13.0 334.0 
536.0005829790528 12538.0 NaN 1469.8944555778212 2.726357997936742 488.0 19.0 329.0 
538.0005829790528 12539.0 NaN 1472.9672678690722 4.146902166186845 490.0 18.0 331.0 
540.0005829790528 12561.0 NaN 1473.1249164996655 3.0120229628209545 491.0 16.0 333.0 
542.0005829790528 12600.0 NaN 1476.2484969939887 2.6863323185635277 490.0 18.0 332.0 
544.0005829790528 12586.0 NaN 1473.1275885103546 2.436613747427702 494.0 15.0 334.0 
546.0005829790528 12588.0 NaN 1470.0013360053447 3.914132517188472 493.0 15.0 333.0 
548.0005829790528 12597.0 NaN 1476.1442885771546 3.731355342774269 492.0 15.0 335.0 
550.0005829790528 12634.0 NaN 1476.403473613894 2.566483072422244 500.0 11.0 339.0 
552.0005829790528 12624.0 NaN 1472.9966599866393 2.2640017849453073 501.0 12.0 337.0 
554.0005829790528 12598.0 NaN 1479.0888443553786 3.6780777657944417 499.0 13.0 338.0 
556.0005829790528 12611.0 NaN 1482.1776887107546 3.5040662235672806 498.0 14.0 338.0 
558.0005829790528 12635.0 NaN 1476.2030728122909 4.0942002706295915 494.0 14.0 336.0 
560.0005829790528 12671.0 NaN 1473.0073480293916 2.155805076848781 496.0 14.0 335.0 
562.0005829790528 12616.0 NaN 1472.8684034736145 3.529636959865864 493.0 14.0 335.0 
564.0005829790528 12613.0 NaN 1469.8944555778219 3.32319296270296 493.0 14.0 334.0 
566.0005829790528 12594.0 NaN 1469.835671342685 4.650781191168536 495.0 13.0 335.0 
568.0005829790528 12680.0 NaN 1473.2424849699398 1.855490218119911 495.0 10.0 339.0 
570.0005829790528 12644.0 NaN 1479.1983967935876 3.130312492594174 497.0 11.0 340.0 
572.0005829790528 12610.0 NaN 1479.1636606546429 2.888102720200195 499.0 11.0 340.0 
574.0005829790528 12603.0 NaN 1488.4221776887102 4.206424702656293 501.0 11.0 343.0 
576.0005829790528 12639.0 NaN 1491.5751503006004 3.157312220214765 504.0 10.0 345.0 
578.0005829790528 12683.0 NaN 1488.384769539079 2.86441062873776 501.0 13.0 341.0 
580.0005829790528 12669.0 NaN 1482.1402805611215 2.5966133539571725 500.0 13.0 339.0 
582.0005829790528 12663.0 NaN 1482.1189044756184 3.920763769013827 500.0 13.0 339.0 
584.0005829790528 12678.0 NaN 1482.150968603874 3.714461791185783 501.0 13.0 339.0 
586.0005829790528 12745.0 NaN 1488.5851703406818 2.6482106882114076 514.0 6.0 348.0 
588.0005829790528 12753.0 NaN 1491.385437541751 2.3694934933906495 512.0 8.0 347.0 
590.0005829790528 12704.0 NaN 1494.4716098864387 3.717872569858525 516.0 8.0 348.0 
592.0005829790528 12707.0 NaN 1491.4602538410163 3.526161811726672 518.0 8.0 347.0 
594.0005829790528 12719.0 NaN 1491.5511022044093 4.075860659252653 520.0 7.0 348.0 
596.0005829790528 12763.0 NaN 1494.5838343353364 2.21690651462181 521.0 9.0 347.0 
598.0005829790528 12675.0 NaN 1491.3720774883093 3.51904496718431 523.0 9.0 346.0 
600.0005829790528 12685.0 NaN 1488.2271209084831 3.3044952940822236 524.0 9.0 345.0 
602.0005829790528 12670.0 NaN 1488.1790247160998 4.664999927894325 524.0 9.0 345.0 
604.0005829790528 12749.0 NaN 1485.4776219104883 2.007368669170661 522.0 6.0 347.0 
606.0005829790528 12720.0 NaN 1491.476285905144 3.2594332783193334 521.0 7.0 348.0 
608.0005829790528 12689.0 NaN 1494.5384101536397 2.9920142572992057 523.0 7.0 349.0 
610.0005829790528 12681.0 NaN 1488.3981295925182 4.34938037519816 523.0 7.0 347.0 
612.0005829790528 12725.0 NaN 1491.5644622578484 3.289039901014766 520.0 6.0 349.0 
614.0005829790528 12780.0 NaN 1491.4789579158307 2.950886694033581 511.0 13.0 342.0 
616.0005829790528 12767.0 NaN 1491.3747494989987 2.6968531470596577 510.0 13.0 342.0 
618.0005829790528 12764.0 NaN 1491.3480293921182 4.006189675411507 510.0 13.0 342.0 
620.0005829790528 12786.0 NaN 1491.3881095524375 3.815177271551671 511.0 13.0 342.0 
622.0005829790528 12850.0 NaN 1494.6265865063453 2.6694824786044613 518.0 5.0 351.0 
624.0005829790528 12867.0 NaN 1500.6199064796265 2.4184292785413577 516.0 7.0 351.0 
626.0005829790528 12832.0 NaN 1503.7675350701395 3.784760398936849 512.0 10.0 349.0 
628.0005829790528 12843.0 NaN 1500.6706746826992 3.548146897070006 511.0 10.0 348.0 
630.0005829790528 12842.0 NaN 1503.8637274549092 4.0000665357116745 510.0 12.0 347.0 
632.0005829790528 12891.0 NaN 1506.8189712758842 2.1131026085943354 504.0 17.0 343.0 
634.0005829790528 12845.0 NaN 1512.8042752171 3.432226446068111 503.0 17.0 345.0 
636.0005829790528 12869.0 NaN 1522.0521042084176 3.2117942093254768 512.0 13.0 352.0 
638.0005829790528 12870.0 NaN 1521.9986639946553 4.616213447341657 511.0 14.0 351.0 
640.0005829790528 12927.0 NaN 1525.3066132264537 1.9948733790594955 498.0 27.0 339.0 
642.0005829790528 12898.0 NaN 1519.032732130928 3.2721197039548726 498.0 27.0 337.0 
644.0005829790528 12861.0 NaN 1515.9519038076162 3.02547298126827 498.0 26.0 337.0 
646.0005829790528 12837.0 NaN 1512.9432197728797 4.348659016107505 501.0 26.0 336.0 
648.0005829790528 12859.0 NaN 1516.1442885771546 3.3184237155183927 503.0 24.0 339.0 
650.0005829790528 12864.0 NaN 1519.1823647294575 2.9586737158570857 507.0 22.0 342.0 
652.0005829790528 12814.0 NaN 1522.1242484969928 2.653859993803736 502.0 22.0 343.0 
654.0005829790528 12791.0 NaN 1531.3774215096848 3.9355250827500337 503.0 21.0 347.0 
656.0005829790528 12794.0 NaN 1528.3233132932537 3.735377765600252 499.0 21.0 346.0 
658.0005829790528 12860.0 NaN 1537.8142952571818 2.702777580329121 498.0 19.0 351.0 
660.0005829790528 12869.0 NaN 1540.694722778891 2.414842144249802 497.0 20.0 351.0 
662.0005829790528 12801.0 NaN 1540.6840347361383 3.678505625026743 500.0 16.0 355.0 
664.0005829790528 12807.0 NaN 1543.7194388777546 3.4596079337633836 497.0 17.0 355.0 
#####################################################################
# End of data export. Simulation finished at: 2019-03-07T17:19+0000 #
#####################################################################
