#####################################################################
# Alchemist log file - simulation started at: 2019-03-02T20:04+0000 #
#####################################################################
# seed = 1.0, bandwidth = 1000.0, propagationDelay = 0.0031622776601683794, baserange = 100.0
#
# The columns have the following meaning: 
# time neighbor_count[Sum] <value>@neighbor_count[Sum] packet_size[Mean] mean_delay[Mean] crowd[Sum] overcrowded[Sum] risk[Sum] 
0.0 NaN NaN NaN NaN NaN NaN NaN 
10.000417374280275 13126.0 NaN 4994.75751503006 3.9985295911499685 1497.0 0.0 1497.0 
20.000417374280275 13144.0 NaN 4994.615898463594 3.9954931379883734 1492.0 5.0 1492.0 
30.000417374280275 13206.0 NaN 4994.474281897127 2.9691757221817197 1494.0 3.0 1494.0 
40.000417374280275 13275.0 NaN 4994.110888443553 3.2619976826001524 1491.0 6.0 1491.0 
50.000417374280275 13333.0 NaN 4993.921175684703 3.849561543852455 1492.0 5.0 1492.0 
60.000417374280275 13415.0 NaN 4993.835671342686 3.0638810761794875 1491.0 6.0 1491.0 
70.00041737428027 13458.0 NaN 1522.4689378757519 1.5926726910571922 552.0 5.0 360.0 
80.00041737428027 13517.0 NaN 1534.543754175018 1.9402958920602456 528.0 4.0 365.0 
90.00041737428027 13503.0 NaN 1534.439545758182 1.4303801542607926 522.0 6.0 363.0 
100.00041737428027 13499.0 NaN 1537.5925183700726 1.6827774720606823 520.0 6.0 364.0 
110.00041737428027 13509.0 NaN 1537.560454241818 2.0229755704813903 519.0 6.0 364.0 
120.00041737428027 13543.0 NaN 1546.7628590514364 1.526030631291148 522.0 7.0 366.0 
130.0004173742803 13551.0 NaN 1540.5824983299933 1.6372214767394064 521.0 8.0 363.0 
140.0004173742803 13569.0 NaN 1534.4448897795608 1.9294181767600902 518.0 4.0 365.0 
150.0004173742803 13575.0 NaN 1549.8436873747485 1.420103726279436 515.0 7.0 367.0 
160.0004173742803 13546.0 NaN 1540.649298597194 1.6012404585467557 506.0 12.0 359.0 
170.0004173742803 13518.0 NaN 1543.6793587174363 1.9694194957519036 508.0 11.0 361.0 
180.0004173742803 13441.0 NaN 1537.565798263191 1.4920535675755036 510.0 11.0 359.0 
190.0004173742803 13417.0 NaN 1534.5330661322635 1.6084262627658619 508.0 12.0 357.0 
200.0004173742803 13382.0 NaN 1537.5444221776906 1.916945483006333 507.0 13.0 357.0 
210.0004173742803 13335.0 NaN 1531.4228456913816 1.5778416439693332 502.0 14.0 354.0 
220.0004173742803 13317.0 NaN 1525.2264529058116 1.8003310974610822 505.0 14.0 352.0 
230.0004173742803 13262.0 NaN 1531.35871743487 2.1201323648340646 506.0 10.0 358.0 
240.0004173742803 13208.0 NaN 1531.337341349364 1.560245320697517 508.0 7.0 361.0 
250.0004173742803 13138.0 NaN 1522.1108884435546 1.7499667404791608 510.0 6.0 359.0 
260.0004173742803 13127.0 NaN 1519.0460921843696 2.008172957502222 509.0 7.0 357.0 
270.0004173742803 13085.0 NaN 1528.309953239812 1.5688683230449207 511.0 6.0 361.0 
280.0004173742803 13059.0 NaN 1531.2919171676701 1.7645709749261111 512.0 6.0 362.0 
290.0004173742803 12989.0 NaN 1528.2324649298612 2.175735793177867 507.0 6.0 361.0 
300.0004173742803 12911.0 NaN 1534.3727454909817 1.6673651859433636 506.0 6.0 363.0 
310.0004173742803 12820.0 NaN 1528.221776887109 1.7215698868499134 505.0 6.0 361.0 
320.0004173742803 12726.0 NaN 1525.2130928523725 1.9761552310585704 502.0 6.0 360.0 
330.0004173742803 12688.0 NaN 1540.633266533066 1.6248379959749322 504.0 6.0 365.0 
340.0004173742803 12653.0 NaN 1534.3834335337363 1.6535150396376854 503.0 6.0 363.0 
350.0004173742803 12676.0 NaN 1534.3006012024061 2.010568686024988 504.0 6.0 363.0 
360.0004173742803 12673.0 NaN 1528.224448897797 1.4860017103241614 510.0 6.0 361.0 
370.0004173742803 12687.0 NaN 1515.8984635938546 1.6716196659074372 512.0 6.0 357.0 
380.0004173742803 12698.0 NaN 1509.7100868403463 2.048879283246365 517.0 6.0 355.0 
390.0004173742803 12695.0 NaN 1506.725450901803 1.836750328728108 514.0 6.0 354.0 
400.0004173742803 12610.0 NaN 1512.830995323982 1.9067123461955315 513.0 6.0 356.0 
410.0004173742803 12595.0 NaN 1519.038076152306 2.116265653699264 518.0 6.0 358.0 
420.0004173742803 12583.0 NaN 1497.5016700066808 1.5719763008633247 512.0 6.0 351.0 
430.0004173742803 12599.0 NaN 1503.623246492985 1.6991505701796392 513.0 6.0 353.0 
440.0004173742803 12592.0 NaN 1525.0901803607205 2.0327707255233265 523.0 6.0 360.0 
450.0004173742803 12574.0 NaN 1540.4355377421516 1.6751898146008373 524.0 6.0 365.0 
460.0004173742803 12573.0 NaN 1546.6826987307938 1.8442895194182718 522.0 6.0 367.0 
470.0004173742803 12545.0 NaN 1540.4435537742156 2.0913524793712335 519.0 6.0 365.0 
480.0004173742803 12494.0 NaN 1531.1770207080817 1.7089459239991822 514.0 6.0 362.0 
490.0004173742803 12491.0 NaN 1512.7909151636616 1.7262961066497777 513.0 6.0 356.0 
500.0004173742803 12523.0 NaN 1494.3780895123573 2.0497536957114857 509.0 7.0 349.0 
510.0004173742803 12512.0 NaN 1503.5457581830335 1.7339062783271448 509.0 7.0 352.0 
520.0004173742802 12496.0 NaN 1482.0681362725456 1.7769139947098775 506.0 7.0 345.0 
530.0004173742802 12549.0 NaN 1454.452905811624 1.8922254237064162 507.0 6.0 337.0 
540.0004173742802 12610.0 NaN 1466.7414829659306 1.5057780043857012 507.0 6.0 341.0 
550.0004173742802 12646.0 NaN 1479.0193720774887 1.8019747745517825 510.0 6.0 345.0 
560.0004173742802 12670.0 NaN 1472.8630594522372 2.137680456441405 511.0 9.0 340.0 
570.0004173742802 12684.0 NaN 1482.0921843687368 1.7964875977664154 513.0 6.0 346.0 
580.0004173742802 12726.0 NaN 1497.4883099532392 1.8395242476513327 517.0 6.0 351.0 
590.0004173742802 12798.0 NaN 1503.5591182364726 2.166288589049985 523.0 6.0 353.0 
600.0004173742802 12775.0 NaN 1500.4889779559112 1.9169025296335165 526.0 7.0 351.0 
610.0004173742802 12794.0 NaN 1512.7855711422837 1.995469186052088 524.0 6.0 356.0 
620.0004173742802 12873.0 NaN 1515.8690714762847 2.139411540434727 524.0 6.0 357.0 
630.0004173742802 12913.0 NaN 1515.9198396793577 1.7578097456500124 522.0 6.0 357.0 
640.0004173742802 12926.0 NaN 1515.9305277221101 1.959442899041878 517.0 7.0 356.0 
650.0004173742802 12899.0 NaN 1525.2024048096182 2.2130258983769275 520.0 6.0 360.0 
660.0004173742802 12874.0 NaN 1525.2077488309944 1.7829690557018756 513.0 6.0 360.0 
#####################################################################
# End of data export. Simulation finished at: 2019-03-02T20:13+0000 #
#####################################################################
