#####################################################################
# Alchemist log file - simulation started at: 2019-03-07T23:49+0000 #
#####################################################################
# seed = 2.0, bandwidth = 4216.965034285822, propagationDelay = 0.1, baserange = 100.0
#
# The columns have the following meaning: 
# time neighbor_count[Sum] <value>@neighbor_count[Sum] packet_size[Mean] mean_delay[Mean] crowd[Sum] overcrowded[Sum] risk[Sum] 
0.0 NaN NaN NaN NaN NaN NaN NaN 
2.0005829790527505 3232.0 NaN 4988.7214428857715 0.19934129162029426 1497.0 0.0 1497.0 
4.0005829790527505 13126.0 NaN 4996.331329325318 1.2195337176579026 1497.0 0.0 1497.0 
6.000417016763764 13126.0 NaN 4995.305277221109 1.22252807145429 1493.0 4.0 1493.0 
8.000582979052751 13130.0 NaN 4994.615898463594 1.2228493198862025 1494.0 3.0 1494.0 
10.000582979052751 13130.0 NaN 4994.134936539746 1.2220333283365163 1490.0 7.0 1490.0 
12.000582979052751 13130.0 NaN 4993.784903139613 1.223262754055717 1492.0 5.0 1492.0 
14.000582979052751 13130.0 NaN 4993.9959919839675 1.2233705817518072 1489.0 8.0 1489.0 
16.00058297905275 13130.0 NaN 4993.846359385438 1.2243238041322464 1491.0 6.0 1491.0 
18.00058297905275 13131.0 NaN 4993.619238476954 1.226488750106337 1489.0 8.0 1489.0 
20.00058297905275 13136.0 NaN 4993.883767535071 1.2307091453711587 1491.0 6.0 1491.0 
22.00058297905275 13142.0 NaN 4993.587174348698 1.2344471424007946 1489.0 8.0 1489.0 
24.00058297905275 13170.0 NaN 4993.873079492318 1.2394499717941103 1491.0 6.0 1491.0 
26.00058297905275 13172.0 NaN 4993.768871075485 1.2442733583314636 1489.0 8.0 1489.0 
28.00058297905275 13180.0 NaN 4993.645958583835 1.2489902208948676 1491.0 6.0 1491.0 
30.00058297905275 13186.0 NaN 4993.771543086173 1.25415584110836 1489.0 8.0 1489.0 
32.00058297905275 13192.0 NaN 4993.576486305945 1.259574814465016 1491.0 6.0 1491.0 
34.00058297905275 13241.0 NaN 4993.883767535071 1.2700285765714927 1489.0 8.0 1489.0 
36.00058297905275 13237.0 NaN 4993.913159652639 1.2761393351709498 1491.0 6.0 1491.0 
38.00058297905275 13245.0 NaN 4993.728790915164 1.2867870073265912 1489.0 8.0 1489.0 
40.00058297905275 13253.0 NaN 4993.891783567135 1.2970676869019593 1491.0 6.0 1491.0 
42.00058297905275 13273.0 NaN 4993.627254509018 1.3060434310244124 1489.0 8.0 1489.0 
44.00058297905275 13315.0 NaN 4993.878423513694 1.3184838097290674 1491.0 6.0 1491.0 
46.00058297905275 13318.0 NaN 4993.846359385438 1.3059735096089913 1489.0 8.0 1489.0 
48.00058297905275 13332.0 NaN 4993.739478957916 1.2975858191693805 1491.0 6.0 1491.0 
50.00058297905275 13352.0 NaN 4993.835671342686 1.311495039950668 1489.0 8.0 1489.0 
52.00058297905275 13367.0 NaN 4993.576486305945 1.321209942790199 1491.0 6.0 1491.0 
54.00058297905275 13397.0 NaN 4993.84368737475 1.339619074732683 1489.0 8.0 1489.0 
56.00058297905275 13399.0 NaN 4993.776887107549 1.357241661683219 1491.0 6.0 1491.0 
58.00058297905275 13403.0 NaN 4993.694054776219 1.3803323836342383 1489.0 8.0 1489.0 
60.00058297905275 13417.0 NaN 4990.781563126253 1.40379881856038 1489.0 7.0 1489.0 
62.00016860966281 13425.0 NaN 1522.5624582498333 0.9964056023853374 799.0 2.0 363.0 
64.00016860966281 13466.0 NaN 1525.4909819639272 0.9548759717212812 636.0 9.0 357.0 
66.00016860966281 13466.0 NaN 1525.410821643288 0.9834665451261805 572.0 17.0 349.0 
68.00016860966281 13479.0 NaN 1525.2905811623245 1.0089811111900462 545.0 18.0 348.0 
70.00016860966281 13499.0 NaN 1525.2959251836999 1.0288468421749557 522.0 18.0 348.0 
72.00016860966281 13517.0 NaN 1525.2531730126907 0.9752901448721674 518.0 19.0 347.0 
74.00016860966281 13540.0 NaN 1528.3981295925182 0.9987733090915105 515.0 17.0 350.0 
76.00016860966281 13534.0 NaN 1528.2832331329334 1.0215151467908883 517.0 17.0 350.0 
78.00016860966281 13550.0 NaN 1528.2805611222457 1.042252900801418 515.0 17.0 350.0 
80.00016860966281 13566.0 NaN 1531.323981295927 1.0489399726300446 511.0 17.0 351.0 
82.00016860966281 13554.0 NaN 1531.356045424182 0.9790531160768297 513.0 16.0 352.0 
84.00016860966281 13569.0 NaN 1534.4849699398815 0.9993166378104132 508.0 22.0 347.0 
86.00016860966281 13546.0 NaN 1534.431529726118 0.9963534108798285 507.0 22.0 347.0 
88.00016860966281 13543.0 NaN 1534.3914495657998 0.98966448526202 515.0 15.0 354.0 
90.00016860966281 13543.0 NaN 1534.4288577154302 1.011530796778838 517.0 13.0 356.0 
92.00016860966281 13522.0 NaN 1534.3994655978636 1.0002129741999775 516.0 13.0 356.0 
94.00016860966281 13532.0 NaN 1534.4208416833662 1.0316657254397004 514.0 13.0 356.0 
96.00016860966281 13532.0 NaN 1534.3887775551088 1.0666173803428158 514.0 13.0 356.0 
98.00016860966281 13534.0 NaN 1534.4154976619911 1.0977221917493099 514.0 13.0 356.0 
100.00016860966281 13522.0 NaN 1534.394121576488 1.1001636888581405 514.0 13.0 356.0 
102.00016860966281 13512.0 NaN 1537.5016700066817 1.1106375172988787 514.0 13.0 357.0 
104.00016860966281 13518.0 NaN 1537.4749498998 1.1533988636859136 514.0 13.0 357.0 
106.00016860966281 13519.0 NaN 1537.5123580494333 1.164847631419229 514.0 12.0 358.0 
108.00016860966281 13546.0 NaN 1540.5344021376093 1.1666080169158084 514.0 12.0 359.0 
110.00016860966281 13536.0 NaN 1540.5584502338 1.1620883713508992 512.0 14.0 357.0 
112.00016860966281 13549.0 NaN 1540.5263861055455 1.187847289923984 514.0 13.0 358.0 
114.00016860966281 13558.0 NaN 1540.5370741482968 1.139715615201069 514.0 13.0 358.0 
116.00016860966281 13552.0 NaN 1543.623246492985 1.1228670910089313 516.0 13.0 359.0 
118.00016860966281 13556.0 NaN 1549.7875751503 1.099699336906373 518.0 11.0 363.0 
120.00016860966281 13536.0 NaN 1546.7014028056092 1.0239413330471552 517.0 12.0 361.0 
122.00016860966281 13566.0 NaN 1546.6746826987303 1.038916391394902 518.0 11.0 362.0 
124.00016860966281 13578.0 NaN 1546.6693386773545 0.9878633525881763 521.0 8.0 365.0 
126.00016860966281 13569.0 NaN 1546.6960587842364 1.0009132452419078 521.0 8.0 365.0 
128.0001686096628 13586.0 NaN 1546.6853707414816 1.0318910913329922 521.0 8.0 365.0 
130.0001686096628 13587.0 NaN 1546.6933867735454 1.020473323540331 521.0 8.0 365.0 
132.0001686096628 13615.0 NaN 1543.615230460921 1.0515742650507036 521.0 8.0 364.0 
134.0001686096628 13615.0 NaN 1543.6366065464276 1.0610215250045083 521.0 8.0 364.0 
136.0001686096628 13601.0 NaN 1546.7201068804272 1.0635312331799036 521.0 8.0 365.0 
138.0001686096628 13616.0 NaN 1543.6232464929847 1.0928717199342703 515.0 8.0 364.0 
140.0001686096628 13613.0 NaN 1543.6499665998665 1.0850638062499363 513.0 9.0 363.0 
142.0001686096628 13631.0 NaN 1549.814295257182 1.0640213278835313 513.0 9.0 365.0 
144.0001686096628 13652.0 NaN 1549.859719438879 1.0630941967600065 512.0 9.0 365.0 
146.0001686096628 13643.0 NaN 1549.8917835671364 1.0622576070988243 512.0 9.0 365.0 
148.0001686096628 13632.0 NaN 1546.7682030728117 1.0787217600135675 514.0 9.0 364.0 
150.0001686096628 13605.0 NaN 1543.7354709418819 1.0483652729063782 515.0 9.0 363.0 
152.0001686096628 13614.0 NaN 1540.6172344689364 1.0464158117908837 509.0 12.0 359.0 
154.0001686096628 13613.0 NaN 1540.6519706078816 1.0353010851802842 505.0 12.0 359.0 
156.0001686096628 13594.0 NaN 1540.649298597194 1.0402640457317036 507.0 11.0 360.0 
158.0001686096628 13593.0 NaN 1540.6386105544427 1.0394611382249714 507.0 11.0 360.0 
160.0001686096628 13567.0 NaN 1540.5958583834336 1.0312903928914507 510.0 9.0 362.0 
162.0001686096628 13550.0 NaN 1540.6199064796272 1.0343430804853553 509.0 11.0 360.0 
164.0001686096628 13565.0 NaN 1543.6339345357364 1.0594533817688447 509.0 9.0 363.0 
166.0001686096628 13557.0 NaN 1543.6472945891787 1.078369462600554 510.0 8.0 364.0 
168.0001686096628 13568.0 NaN 1549.8009352037398 1.1043294259483183 512.0 8.0 366.0 
170.0001686096628 13554.0 NaN 1549.7795591182362 1.123736602629539 513.0 8.0 366.0 
172.0001686096628 13547.0 NaN 1543.655310621243 1.1505215642691238 514.0 8.0 364.0 
174.0001686096628 13558.0 NaN 1543.6686706746818 1.1367564640491952 514.0 8.0 364.0 
176.0001686096628 13533.0 NaN 1543.6766867067456 1.1260825822524114 513.0 8.0 364.0 
178.0001686096628 13522.0 NaN 1540.5557782231117 1.1433697561122285 510.0 8.0 363.0 
180.0001686096628 13489.0 NaN 1537.4989979959907 1.1004152731494297 512.0 8.0 362.0 
182.0001686096628 13479.0 NaN 1540.553106212425 1.0993955023259714 511.0 8.0 363.0 
184.0001686096628 13467.0 NaN 1540.6012024048089 1.010547004711483 510.0 9.0 362.0 
186.0001686096628 13460.0 NaN 1540.6012024048089 1.0294112813599374 507.0 11.0 360.0 
188.0001686096628 13469.0 NaN 1537.4883099532394 1.0115623695315108 503.0 15.0 355.0 
190.0001686096628 13454.0 NaN 1540.5504342017364 1.0193799656484535 502.0 15.0 356.0 
192.0001686096628 13437.0 NaN 1540.6118904475636 1.0309439743448778 501.0 15.0 356.0 
194.0001686096628 13448.0 NaN 1540.5958583834338 1.062086466402847 501.0 15.0 356.0 
196.0001686096628 13420.0 NaN 1540.630594522379 1.019617061644481 501.0 15.0 356.0 
198.0001686096628 13444.0 NaN 1543.6392785571154 1.0547869907652723 502.0 15.0 357.0 
200.0001686096628 13429.0 NaN 1543.6312625250516 1.078187609212155 503.0 16.0 356.0 
202.0001686096628 13420.0 NaN 1543.6339345357364 1.1025031767732358 504.0 15.0 357.0 
204.0001686096628 13409.0 NaN 1546.7040748163001 1.1082703342466553 504.0 15.0 358.0 
206.0001686096628 13407.0 NaN 1543.6900467601881 1.1442037929235862 504.0 15.0 357.0 
208.0001686096628 13414.0 NaN 1543.6098864395453 1.1879891184531968 502.0 15.0 357.0 
210.0001686096628 13390.0 NaN 1540.6012024048089 1.2253197147921124 498.0 15.0 356.0 
212.0001686096628 13386.0 NaN 1540.5210420841695 1.2474013594895332 497.0 16.0 355.0 
214.0001686096628 13383.0 NaN 1543.6179024716089 1.2083564806939857 498.0 16.0 356.0 
216.0001686096628 13366.0 NaN 1543.6125584502338 1.2458865840079065 498.0 15.0 357.0 
218.0001686096628 13366.0 NaN 1540.5344021376093 1.2681013990783336 506.0 11.0 360.0 
220.0001686096628 13358.0 NaN 1540.5023380093521 1.314937765684885 507.0 11.0 360.0 
222.0001686096628 13319.0 NaN 1540.5210420841695 1.3337532008271258 506.0 11.0 360.0 
224.0001686096628 13311.0 NaN 1540.4889779559117 1.3323236647709407 507.0 10.0 361.0 
226.0001686096628 13294.0 NaN 1540.4969939879754 1.2763969437687501 508.0 10.0 361.0 
228.0001686096628 13299.0 NaN 1540.537074148297 1.3165747675312134 507.0 10.0 361.0 
230.0001686096628 13289.0 NaN 1537.4696058784245 1.3194317180731 505.0 10.0 360.0 
232.0001686096628 13271.0 NaN 1540.5691382765544 1.2145026949464592 504.0 10.0 361.0 
234.0001686096628 13242.0 NaN 1540.5237140948548 1.1363719992863732 504.0 10.0 361.0 
236.0001686096628 13235.0 NaN 1543.5350701402817 1.1101197376566514 505.0 10.0 362.0 
238.0001686096628 13222.0 NaN 1543.5484301937206 1.1072701220968266 505.0 10.0 362.0 
240.0001686096628 13226.0 NaN 1540.438209752839 1.1132922571371906 505.0 10.0 361.0 
242.0001686096628 13218.0 NaN 1537.3734134936547 1.1417031257754546 505.0 10.0 360.0 
244.0001686096628 13202.0 NaN 1537.3547094188366 1.1208532166862653 505.0 10.0 360.0 
246.0001686096628 13204.0 NaN 1534.3326653306635 1.1642583258952661 505.0 10.0 359.0 
248.0001686096628 13200.0 NaN 1537.3600534402153 1.1982878275294007 506.0 10.0 360.0 
250.0001686096628 13206.0 NaN 1537.3627254509001 1.198158002312588 505.0 10.0 360.0 
252.0001686096628 13196.0 NaN 1534.2792251169 1.224292438293622 503.0 10.0 359.0 
254.0001686096628 13191.0 NaN 1534.30861723447 1.2539198181598 503.0 10.0 359.0 
256.0001686096628 13181.0 NaN 1531.2545090180365 1.2418061269351621 504.0 10.0 358.0 
258.0001686096628 13176.0 NaN 1531.209084836339 1.2703408773492089 505.0 10.0 358.0 
260.0001686096628 13176.0 NaN 1531.251837007348 1.2749180624680554 505.0 10.0 358.0 
262.0001686096628 13171.0 NaN 1525.0981963927848 1.276243443942319 506.0 10.0 356.0 
264.0001686096628 13163.0 NaN 1528.2324649298607 1.2357286115716086 505.0 10.0 357.0 
266.0001686096628 13153.0 NaN 1528.1389445557788 1.2132456815400734 505.0 10.0 357.0 
268.0001686096628 13131.0 NaN 1528.1843687374728 1.184790243699133 505.0 10.0 357.0 
270.0001686096628 13123.0 NaN 1540.4141616566453 1.2089190264376886 505.0 10.0 361.0 
272.0001686096628 13096.0 NaN 1540.4515698062794 1.1877024316656928 505.0 10.0 361.0 
274.0001686096628 13116.0 NaN 1543.4923179692728 1.2057867001810592 505.0 10.0 362.0 
276.0001686096628 13121.0 NaN 1540.4943219772886 1.189714498525287 504.0 10.0 361.0 
278.0001686096628 13105.0 NaN 1540.3927855711431 1.214749213407149 504.0 10.0 361.0 
280.0001686096628 13099.0 NaN 1540.4462257849023 1.2483163253725384 506.0 10.0 361.0 
282.0001686096628 13092.0 NaN 1537.3573814295273 1.2945768505528246 505.0 11.0 359.0 
284.0001686096628 13080.0 NaN 1537.3734134936547 1.3043035499914766 506.0 11.0 359.0 
286.0001686096628 13065.0 NaN 1537.322645290582 1.34619003977033 503.0 11.0 359.0 
288.0001686096628 13057.0 NaN 1537.3066132264546 1.3824670509883341 503.0 11.0 359.0 
290.0001686096628 13035.0 NaN 1537.3039412157636 1.3794647416396741 502.0 11.0 359.0 
292.0001686096628 13008.0 NaN 1537.3199732798907 1.3372402230263651 502.0 11.0 359.0 
294.0001686096628 13000.0 NaN 1531.201068804275 1.3532679924247772 502.0 11.0 357.0 
296.0001686096628 12994.0 NaN 1528.146960587843 1.367047749167775 502.0 11.0 356.0 
298.0001686096628 12983.0 NaN 1528.0855043420183 1.2938210602215887 501.0 11.0 356.0 
300.0001686096628 12962.0 NaN 1531.2224448897819 1.3201492017063967 500.0 11.0 357.0 
302.0001686096628 12925.0 NaN 1528.1202404809635 1.2718335857731486 498.0 11.0 356.0 
304.0001686096628 12920.0 NaN 1525.1436205744817 1.258535706861823 496.0 12.0 354.0 
306.0001686096628 12908.0 NaN 1528.2057448229793 1.252373523326676 491.0 16.0 351.0 
308.0001686096628 12892.0 NaN 1528.1950567802273 1.217888259775346 491.0 16.0 351.0 
310.0001686096628 12869.0 NaN 1531.2411489645976 1.2055880699091273 496.0 11.0 357.0 
312.0001686096628 12857.0 NaN 1534.3861055444208 1.2036044482000607 497.0 11.0 358.0 
314.0001686096628 12858.0 NaN 1528.189712758852 1.2020683667699417 498.0 11.0 356.0 
316.0001686096628 12847.0 NaN 1525.106212424848 1.2378826234373976 497.0 11.0 355.0 
318.0001686096628 12816.0 NaN 1525.095524382098 1.1942502287700585 497.0 11.0 355.0 
320.0001686096628 12788.0 NaN 1528.1897127588518 1.2029132713919515 497.0 11.0 356.0 
322.0001686096628 12783.0 NaN 1528.1416165664662 1.2196545032104908 498.0 11.0 356.0 
324.0001686096628 12779.0 NaN 1534.354041416164 1.2263218142877368 498.0 11.0 358.0 
326.0001686096628 12779.0 NaN 1534.2712090848363 1.2492820003666194 497.0 11.0 358.0 
328.0001686096628 12762.0 NaN 1534.2979291917181 1.2670864836725624 497.0 11.0 358.0 
330.0001686096628 12719.0 NaN 1534.209752839009 1.244967678929738 498.0 11.0 358.0 
332.0001686096628 12714.0 NaN 1531.198396793588 1.2567185777941012 499.0 11.0 357.0 
334.0001686096628 12708.0 NaN 1534.260521042084 1.2488628490152889 499.0 11.0 358.0 
336.0001686096628 12695.0 NaN 1534.2525050100185 1.1661985442144303 499.0 11.0 358.0 
338.0001686096628 12696.0 NaN 1534.1990647962602 1.1391018832013278 499.0 11.0 358.0 
340.0001686096628 12696.0 NaN 1528.0961923847701 1.1603466000853058 500.0 11.0 356.0 
342.0001686096628 12690.0 NaN 1531.1583166332662 1.144017999340097 501.0 11.0 357.0 
344.0001686096628 12685.0 NaN 1537.3066132264544 1.1257671287588447 503.0 11.0 359.0 
346.0001686096628 12676.0 NaN 1534.2738810955248 1.15337077812614 502.0 11.0 358.0 
348.0001686096628 12684.0 NaN 1531.126252505009 1.1602804925414327 502.0 11.0 357.0 
350.0001686096628 12679.0 NaN 1531.1422845691368 1.1822692120327172 505.0 11.0 357.0 
352.0001686096628 12691.0 NaN 1531.1850367401457 1.1707140786545795 504.0 11.0 357.0 
354.0001686096628 12723.0 NaN 1531.1102204408817 1.1384558879258992 505.0 11.0 357.0 
356.0001686096628 12717.0 NaN 1528.0881763527061 1.1053158281546223 504.0 11.0 356.0 
358.0001686096628 12715.0 NaN 1528.0961923847701 1.1138096999870934 505.0 11.0 356.0 
360.0001686096628 12703.0 NaN 1528.1336005344006 1.1160440184595672 504.0 11.0 356.0 
362.0001686096628 12692.0 NaN 1524.9939879759522 1.1037812750949296 506.0 10.0 356.0 
364.0001686096628 12714.0 NaN 1525.0313961255843 1.097902091139044 505.0 10.0 356.0 
366.0001686096628 12716.0 NaN 1525.004676018703 1.1266605020929934 508.0 10.0 356.0 
368.0001686096628 12725.0 NaN 1509.6085504342009 1.1823989926988012 507.0 10.0 351.0 
370.0001686096628 12721.0 NaN 1500.4061456245818 1.2031255620174064 505.0 10.0 348.0 
372.0001686096628 12686.0 NaN 1500.379425517701 1.1675408514260799 506.0 10.0 348.0 
374.0001686096628 12709.0 NaN 1509.6272545090183 1.1838251883933484 507.0 10.0 351.0 
376.0001686096628 12699.0 NaN 1509.6085504342009 1.199425677466119 508.0 10.0 351.0 
378.0001686096628 12702.0 NaN 1506.5116900467606 1.242775067404088 508.0 10.0 350.0 
380.0001686096628 12712.0 NaN 1503.4923179692726 1.2952158364543425 509.0 10.0 349.0 
382.0001686096628 12690.0 NaN 1500.3740814963264 1.3094564900068406 509.0 9.0 349.0 
384.0001686096628 12718.0 NaN 1500.400801603207 1.3486360074553132 507.0 9.0 349.0 
386.0001686096628 12705.0 NaN 1506.5437541750175 1.369631020133577 507.0 10.0 350.0 
388.0001686096628 12715.0 NaN 1506.533066132264 1.392704720366994 507.0 10.0 350.0 
390.0001686096628 12722.0 NaN 1500.42217768871 1.457648546418098 506.0 10.0 348.0 
392.0001686096628 12696.0 NaN 1506.5223780895114 1.4838021325140014 506.0 10.0 350.0 
394.0001686096628 12711.0 NaN 1509.6432865731456 1.4522248419310906 507.0 10.0 351.0 
396.0001686096628 12677.0 NaN 1509.6325985303934 1.4502925809832026 508.0 10.0 351.0 
398.0001686096628 12692.0 NaN 1509.6032064128265 1.3891505730614357 509.0 10.0 351.0 
400.0001686096628 12689.0 NaN 1506.567802271209 1.3975642595528217 511.0 10.0 350.0 
402.0001686096628 12640.0 NaN 1509.6539746158994 1.3583901605733122 512.0 10.0 351.0 
404.0001686096628 12632.0 NaN 1518.8724114896452 1.3254466415467023 513.0 10.0 354.0 
406.0001686096628 12627.0 NaN 1518.8510354041423 1.33333471140562 514.0 9.0 355.0 
408.0001686096628 12628.0 NaN 1521.9265197060795 1.2584211061047577 514.0 9.0 356.0 
410.0001686096628 12641.0 NaN 1531.1503006012022 1.3154410432689527 515.0 9.0 359.0 
412.0001686096628 12601.0 NaN 1531.1716766867069 1.2640775732271692 513.0 10.0 358.0 
414.0001686096628 12615.0 NaN 1534.263193052773 1.1804988873615487 511.0 11.0 358.0 
416.0001686096628 12608.0 NaN 1531.1422845691368 1.19691719331056 513.0 11.0 357.0 
418.0001686096628 12617.0 NaN 1518.8991315965272 1.183571423389517 513.0 11.0 353.0 
420.0001686096628 12607.0 NaN 1518.8109552438204 1.1921912409183546 513.0 11.0 353.0 
422.0001686096628 12590.0 NaN 1515.706078824316 1.2129645170496153 511.0 11.0 352.0 
424.0001686096628 12611.0 NaN 1512.6546426185719 1.1932873899902525 507.0 11.0 351.0 
426.0001686096628 12630.0 NaN 1515.71409485638 1.2077961929895185 507.0 11.0 352.0 
428.0001686096628 12647.0 NaN 1515.7034068136272 1.2387089096458461 508.0 11.0 352.0 
430.0001686096628 12641.0 NaN 1515.7167668670666 1.2894099206688738 507.0 11.0 352.0 
432.0001686096628 12616.0 NaN 1512.6573146292576 1.2860741333572445 505.0 13.0 349.0 
434.0001686096628 12627.0 NaN 1515.6847027388098 1.2969694134863967 508.0 13.0 350.0 
436.0001686096628 12612.0 NaN 1524.9405477621908 1.271852409274755 514.0 12.0 354.0 
438.0001686096628 12608.0 NaN 1528.0 1.2299901973166965 516.0 11.0 356.0 
440.0001686096628 12603.0 NaN 1531.0861723446906 1.2458847856564725 515.0 11.0 357.0 
442.0001686096628 12580.0 NaN 1531.0647962591845 1.2444178884840935 514.0 12.0 356.0 
444.0001686096628 12590.0 NaN 1531.0621242484974 1.2915518826057495 515.0 11.0 357.0 
446.0001686096628 12587.0 NaN 1537.2772211088845 1.26176020006672 517.0 11.0 359.0 
448.0001686096628 12604.0 NaN 1540.2885771543092 1.229089334908303 520.0 11.0 360.0 
450.0001686096628 12596.0 NaN 1540.267201068803 1.242211169171801 517.0 11.0 360.0 
452.0001686096628 12561.0 NaN 1540.2378089512365 1.2245998957030608 518.0 11.0 360.0 
454.0001686096628 12558.0 NaN 1543.3426853707424 1.2003996785229774 517.0 11.0 361.0 
456.0001686096628 12562.0 NaN 1552.630594522379 1.2361233456648568 517.0 11.0 364.0 
458.0001686096628 12582.0 NaN 1552.6038744154998 1.2616208667987046 516.0 11.0 364.0 
460.0001686096628 12595.0 NaN 1549.4989979959907 1.3141384721084721 514.0 11.0 363.0 
462.0001686096628 12583.0 NaN 1546.4288577154302 1.2855772449434224 514.0 11.0 362.0 
464.0001686096628 12591.0 NaN 1540.2805611222454 1.3031217500734227 513.0 11.0 360.0 
466.0001686096628 12594.0 NaN 1543.4281897127576 1.3483207108378261 514.0 11.0 361.0 
468.0001686096628 12588.0 NaN 1543.380093520373 1.3738987820904656 514.0 11.0 361.0 
470.0001686096628 12575.0 NaN 1540.2191048764184 1.3982243562477994 513.0 11.0 360.0 
472.0001686096628 12558.0 NaN 1534.1349365397455 1.3686022331620304 510.0 12.0 357.0 
474.0001686096628 12538.0 NaN 1531.0647962591843 1.2769992128095682 511.0 11.0 357.0 
476.0001686096628 12536.0 NaN 1518.7682030728113 1.3056417776485394 507.0 11.0 353.0 
478.0001686096628 12535.0 NaN 1518.765531062125 1.32659083308589 504.0 11.0 353.0 
480.0001686096628 12531.0 NaN 1518.7174348697386 1.3228759886091204 507.0 11.0 353.0 
482.0001686096628 12516.0 NaN 1512.5637942551757 1.3301127324183892 506.0 11.0 351.0 
484.0001686096628 12513.0 NaN 1512.5905143620566 1.2198220434720226 505.0 11.0 351.0 
486.0001686096628 12506.0 NaN 1512.6359385437547 1.1885970053786565 503.0 11.0 351.0 
488.0001686096628 12516.0 NaN 1506.541082164328 1.196444582762609 502.0 11.0 349.0 
490.0001686096628 12520.0 NaN 1500.3286573146283 1.2474793213149358 502.0 11.0 347.0 
492.0001686096628 12514.0 NaN 1497.2558450233807 1.2578235186675184 502.0 11.0 346.0 
494.0001686096628 12508.0 NaN 1494.2070808283243 1.1669988322392602 502.0 11.0 345.0 
496.0001686096628 12504.0 NaN 1494.2257849031387 1.194958751914626 499.0 11.0 345.0 
498.0001686096628 12522.0 NaN 1491.1823647294577 1.2442629231757458 501.0 11.0 344.0 
500.0001686096628 12520.0 NaN 1491.1422845691375 1.276053313287265 498.0 11.0 344.0 
502.0001686096628 12528.0 NaN 1491.1075484301928 1.3136885721248557 500.0 11.0 344.0 
504.0001686096628 12525.0 NaN 1497.3092852371424 1.2943683880044081 501.0 11.0 346.0 
506.0001686096628 12520.0 NaN 1497.3520374081486 1.2680667884625563 503.0 11.0 346.0 
508.0001686096628 12541.0 NaN 1497.3974615898458 1.312798730313068 505.0 11.0 346.0 
510.0001686096628 12538.0 NaN 1500.3794255177008 1.3593201143355111 504.0 11.0 347.0 
512.0001686096629 12532.0 NaN 1500.352705410821 1.3714988019718573 504.0 11.0 347.0 
514.0001686096629 12521.0 NaN 1494.2899131596535 1.3423860126293752 504.0 11.0 345.0 
516.0001686096629 12518.0 NaN 1485.0073480293916 1.2944425323079827 501.0 11.0 342.0 
518.0001686096629 12506.0 NaN 1475.8049432197727 1.2154022489246215 500.0 11.0 339.0 
520.0001686096629 12525.0 NaN 1469.6673346693374 1.1828865482297837 499.0 11.0 337.0 
522.0001686096629 12522.0 NaN 1472.7401469605886 1.215326168027851 496.0 11.0 338.0 
524.0001686096629 12531.0 NaN 1463.5457581830335 1.2165852639628874 497.0 11.0 335.0 
526.0001686096629 12536.0 NaN 1451.2892451569815 1.2182523558684686 494.0 11.0 331.0 
528.0001686096629 12535.0 NaN 1454.3326653306624 1.1141240512743962 494.0 11.0 332.0 
530.0001686096629 12554.0 NaN 1454.3166332665337 1.151757327626334 496.0 11.0 332.0 
532.0001686096629 12559.0 NaN 1454.2792251169 1.1613895804796954 495.0 11.0 332.0 
534.0001686096629 12581.0 NaN 1460.4863059452246 1.1407492442559004 496.0 11.0 334.0 
536.0001686096629 12606.0 NaN 1460.4809619238467 1.1518820667309395 496.0 11.0 334.0 
538.0001686096629 12620.0 NaN 1457.4001336005351 1.1575812446087892 497.0 11.0 333.0 
540.0001686096629 12628.0 NaN 1457.3841015364067 1.164751123479744 498.0 11.0 333.0 
542.0001686096629 12636.0 NaN 1460.4355377421512 1.1634041875942525 497.0 12.0 333.0 
544.0001686096629 12639.0 NaN 1460.3820975283904 1.1553513805849074 499.0 13.0 332.0 
546.0001686096629 12646.0 NaN 1460.4088176352714 1.1961792207605382 499.0 13.0 332.0 
548.0001686096629 12657.0 NaN 1460.4168336673351 1.2527889356335928 502.0 13.0 332.0 
550.0001686096629 12659.0 NaN 1460.387441549766 1.2600574335655017 502.0 13.0 332.0 
552.0001686096629 12672.0 NaN 1460.3901135604547 1.3013303378488306 502.0 13.0 332.0 
554.0001686096629 12670.0 NaN 1466.5357381429533 1.2659133813648187 501.0 13.0 334.0 
556.0001686096629 12695.0 NaN 1469.5791583166335 1.3216618007813525 499.0 13.0 335.0 
558.0001686096629 12701.0 NaN 1457.3119572478286 1.3578823824325623 495.0 13.0 331.0 
560.0001686096629 12710.0 NaN 1457.2985971943895 1.4061269376202166 495.0 13.0 331.0 
562.0001686096629 12724.0 NaN 1460.416833667335 1.4544374467982715 490.0 13.0 332.0 
564.0001686096629 12726.0 NaN 1466.565130260521 1.4897924338642445 491.0 13.0 334.0 
566.0001686096629 12741.0 NaN 1466.5811623246495 1.458163774658613 493.0 13.0 334.0 
568.0001686096629 12740.0 NaN 1472.6680026720103 1.3696547794939198 492.0 13.0 336.0 
570.0001686096629 12714.0 NaN 1478.821643286573 1.3537091424063765 498.0 13.0 338.0 
572.0001686096629 12711.0 NaN 1481.9585838343357 1.3634745927856082 500.0 13.0 339.0 
574.0001686096629 12703.0 NaN 1484.9645958583828 1.3200246542726417 501.0 12.0 341.0 
576.0001686096629 12734.0 NaN 1491.1716766867073 1.3825811987238776 501.0 12.0 343.0 
578.0001686096629 12756.0 NaN 1485.0581162324645 1.280869166513108 503.0 12.0 341.0 
580.0001686096629 12758.0 NaN 1485.0233800935196 1.3190441837864777 502.0 12.0 341.0 
582.0001686096629 12764.0 NaN 1488.0881763527061 1.321604851799931 506.0 12.0 342.0 
584.0001686096629 12759.0 NaN 1488.0080160320638 1.2544780697574498 507.0 12.0 342.0 
586.0001686096629 12807.0 NaN 1494.1883767535078 1.3126694967632722 510.0 12.0 344.0 
588.0001686096629 12844.0 NaN 1494.2311289245165 1.3352549472037223 510.0 13.0 343.0 
590.0001686096629 12831.0 NaN 1494.2097528390104 1.3817731856617916 509.0 13.0 343.0 
592.0001686096629 12821.0 NaN 1494.19906479626 1.40420559100566 513.0 13.0 343.0 
594.0001686096629 12807.0 NaN 1494.2177688710747 1.404326825255554 513.0 13.0 343.0 
596.0001686096629 12819.0 NaN 1497.2638610554445 1.4372206708227828 515.0 13.0 344.0 
598.0001686096629 12813.0 NaN 1494.1723446893798 1.450225824189161 516.0 13.0 343.0 
600.0001686096629 12780.0 NaN 1491.1022044088184 1.4776086570874285 516.0 13.0 342.0 
602.0001686096629 12778.0 NaN 1494.2525050100194 1.4839159460993245 518.0 13.0 343.0 
604.0001686096629 12806.0 NaN 1494.2845691382759 1.4578207004628145 515.0 13.0 343.0 
606.0001686096629 12821.0 NaN 1500.4275217100878 1.4975013095186642 513.0 13.0 345.0 
608.0001686096629 12841.0 NaN 1500.4008016032074 1.4339291936277823 513.0 13.0 345.0 
610.0001686096629 12832.0 NaN 1497.3066132264535 1.4399123428084635 513.0 13.0 344.0 
612.0001686096629 12848.0 NaN 1497.2985971943897 1.4358130835490803 509.0 13.0 344.0 
614.0001686096629 12874.0 NaN 1497.2825651302617 1.3483094710679144 509.0 13.0 344.0 
616.0001686096629 12874.0 NaN 1500.384769539079 1.402398380069206 510.0 13.0 345.0 
618.0001686096629 12927.0 NaN 1500.379425517701 1.4319456150222 513.0 13.0 345.0 
620.0001686096629 12947.0 NaN 1497.2985971943897 1.3948238167474776 512.0 13.0 344.0 
622.0001686096629 12922.0 NaN 1500.3660654642626 1.3783419499687979 511.0 13.0 345.0 
624.0001686096629 12936.0 NaN 1506.5410821643281 1.4111784814723956 509.0 13.0 347.0 
626.0001686096629 12939.0 NaN 1503.5136940547757 1.4278858282286389 506.0 15.0 344.0 
628.0001686096629 12977.0 NaN 1506.6265865063453 1.4640221273988447 502.0 19.0 341.0 
630.0001686096629 12972.0 NaN 1509.6513026052098 1.4380506250274065 502.0 18.0 343.0 
632.0001686096629 12940.0 NaN 1509.6058784235122 1.3730772937146154 507.0 13.0 348.0 
634.0001686096629 12945.0 NaN 1518.8857715430852 1.3508714869239404 507.0 14.0 350.0 
636.0001686096629 12946.0 NaN 1515.8503674014705 1.3887709625512281 513.0 14.0 349.0 
638.0001686096629 12987.0 NaN 1515.8744154976625 1.360241169784553 515.0 14.0 349.0 
640.0001686096629 13007.0 NaN 1515.8637274549092 1.4087932653184592 513.0 14.0 349.0 
642.0001686096629 12978.0 NaN 1512.7641950567809 1.447293463212514 511.0 17.0 345.0 
644.0001686096629 12957.0 NaN 1506.6559786239152 1.4483550724245358 511.0 17.0 343.0 
646.0001686096629 12956.0 NaN 1506.639946559785 1.4743883187885418 512.0 15.0 345.0 
648.0001686096629 12940.0 NaN 1512.7935871743475 1.463452078342482 509.0 15.0 347.0 
650.0001686096629 12954.0 NaN 1518.907147628591 1.440181744738962 507.0 16.0 348.0 
652.0001686096629 12923.0 NaN 1518.8911155644628 1.4127000904449258 505.0 16.0 348.0 
654.0001686096629 12920.0 NaN 1522.0120240480971 1.3279206802084522 507.0 13.0 352.0 
656.0001686096629 12927.0 NaN 1522.0253841015365 1.3294492700966793 505.0 13.0 352.0 
658.0001686096629 12935.0 NaN 1531.2171008684031 1.3182121398399844 503.0 13.0 355.0 
660.0001686096629 12966.0 NaN 1534.2551770207092 1.3430370905736557 501.0 13.0 356.0 
662.0001686096629 12952.0 NaN 1534.2231128924525 1.3596997641075017 501.0 13.0 356.0 
664.0001686096629 12929.0 NaN 1534.2231128924525 1.3031896663539115 502.0 13.0 356.0 
#####################################################################
# End of data export. Simulation finished at: 2019-03-07T23:57+0000 #
#####################################################################
