#####################################################################
# Alchemist log file - simulation started at: 2019-03-10T08:40+0000 #
#####################################################################
# seed = 2.0, bandwidth = 2.3713737056616552E7, propagationDelay = 0.001, baserange = 100.0
#
# The columns have the following meaning: 
# time neighbor_count[Sum] <value>@neighbor_count[Sum] packet_size[Mean] mean_delay[Mean] crowd[Sum] overcrowded[Sum] risk[Sum] 
0.0 NaN NaN NaN NaN NaN NaN NaN 
2.000336127097702 13126.0 NaN 4996.796259185036 0.5006847383665214 1497.0 0.0 1497.0 
4.000336295776304 13126.0 NaN 4999.115564462258 0.5006846910460583 1490.0 7.0 1490.0 
6.000336127097702 13129.0 NaN 4996.032064128257 0.5008712614895175 1496.0 1.0 1496.0 
8.000335789740499 13124.0 NaN 4996.935203740815 0.5006813251302422 1489.0 8.0 1489.0 
10.000335789740499 13124.0 NaN 4996.021376085504 0.5006813990305943 1492.0 5.0 1492.0 
12.000335789740499 13124.0 NaN 4996.440881763527 0.5006813508615995 1490.0 7.0 1490.0 
14.000335789740499 13124.0 NaN 4995.583166332665 0.5007076892795781 1489.0 8.0 1489.0 
16.0003357897405 13123.0 NaN 4996.494321977288 0.5008973775782039 1487.0 10.0 1487.0 
18.0003357897405 13121.0 NaN 4995.233132932532 0.5013931209077714 1490.0 7.0 1490.0 
20.0003357897405 13119.0 NaN 4995.927855711423 0.5038008820964883 1490.0 7.0 1490.0 
22.0003361270977 13138.0 NaN 4995.2651970607885 0.5008674404984291 1494.0 3.0 1494.0 
24.0003357897405 13149.0 NaN 4995.823647294589 0.5007923915303245 1489.0 8.0 1489.0 
26.0003361270977 13153.0 NaN 4994.957915831664 0.500790621764114 1492.0 5.0 1492.0 
28.0003357897405 13156.0 NaN 4995.708750835003 0.5008249993969368 1490.0 7.0 1490.0 
30.0003357897405 13152.0 NaN 4994.859051436206 0.5006987897497488 1489.0 8.0 1489.0 
32.0003357897405 13187.0 NaN 4995.441549766199 0.503006512988558 1490.0 7.0 1490.0 
34.0003357897405 13183.0 NaN 4995.035404141617 0.5012291376257222 1492.0 5.0 1492.0 
36.0003357897405 13187.0 NaN 4995.2705410821645 0.5008815494803762 1487.0 10.0 1487.0 
38.0003357897405 13190.0 NaN 4994.778891115565 0.5009533115175638 1488.0 9.0 1488.0 
40.0003357897405 13198.0 NaN 4995.4255177020705 0.5008473576851621 1487.0 10.0 1487.0 
42.0003361270977 13244.0 NaN 4994.84034736139 0.5027236543896778 1487.0 10.0 1487.0 
44.0003357897405 13231.0 NaN 4995.3587174348695 0.5047157048521126 1488.0 9.0 1488.0 
46.0003361270977 13232.0 NaN 4994.992651970608 0.5012224175284432 1481.0 16.0 1481.0 
48.0003357897405 13246.0 NaN 4995.2839011356045 0.5012566989660301 1486.0 11.0 1486.0 
50.0003357897405 13241.0 NaN 4994.680026720107 0.5010287903823215 1486.0 11.0 1486.0 
52.0003357897405 13286.0 NaN 4995.3213092852375 0.5033542944381232 1487.0 10.0 1487.0 
54.0003357897405 13251.0 NaN 4994.696058784235 0.5071461438881167 1485.0 12.0 1485.0 
56.0003357897405 13250.0 NaN 4995.118236472946 0.5008484978659996 1488.0 9.0 1488.0 
58.0003357897405 13258.0 NaN 4994.864395457582 0.504905673583085 1488.0 9.0 1488.0 
60.0003357897405 13227.0 NaN 4995.035404141617 0.5034350075971805 1489.0 8.0 1489.0 
62.000188446315455 13276.0 NaN 1516.951235804945 0.502501881048947 776.0 6.0 357.0 
64.00018844631546 13237.0 NaN 1519.7060788243157 0.5039700554862594 607.0 12.0 352.0 
66.00018844631546 13233.0 NaN 1519.623246492985 0.5004360203314547 562.0 11.0 353.0 
68.00018844631546 13250.0 NaN 1519.6018704074818 0.5016998117787558 535.0 11.0 353.0 
70.00018844631546 13243.0 NaN 1519.4148296593182 0.5007535409488789 524.0 8.0 356.0 
72.00018844631546 13289.0 NaN 1519.417501670007 0.5032596354630515 522.0 9.0 355.0 
74.00018844631546 13291.0 NaN 1525.5925183700726 0.5017367515318792 518.0 11.0 355.0 
76.00018844631546 13295.0 NaN 1525.603206412827 0.5005804289620019 521.0 9.0 357.0 
78.00018844631546 13305.0 NaN 1525.6165664662637 0.5045206573216013 521.0 8.0 358.0 
80.00018844631546 13316.0 NaN 1528.6546426185728 0.5016491574159072 520.0 6.0 361.0 
82.00018844631546 13311.0 NaN 1528.6519706078818 0.503301980269766 520.0 7.0 360.0 
84.00018844631546 13310.0 NaN 1531.7702070808273 0.5045555748303223 516.0 12.0 356.0 
86.00018844631546 13305.0 NaN 1531.6686706746818 0.5009228726073695 512.0 13.0 355.0 
88.00018844631546 13310.0 NaN 1531.690046760188 0.5062662951963836 515.0 11.0 357.0 
90.00018844631546 13306.0 NaN 1531.6553106212427 0.5051132547062955 520.0 7.0 361.0 
92.00018844631546 13263.0 NaN 1531.730126920509 0.5049742062353201 519.0 7.0 361.0 
94.00018844631546 13254.0 NaN 1531.6659986639938 0.5044649244240168 515.0 12.0 356.0 
96.00018844631546 13247.0 NaN 1531.6633266533067 0.5004019806527349 519.0 7.0 361.0 
98.00018844631546 13262.0 NaN 1531.6366065464276 0.5020232702202658 520.0 7.0 361.0 
100.00018844631546 13244.0 NaN 1531.6980627922514 0.5021566190468277 519.0 7.0 361.0 
102.00018844631546 13216.0 NaN 1534.7094188376755 0.5033749184434538 520.0 7.0 362.0 
104.00018844631546 13220.0 NaN 1534.725450901803 0.5004249921653589 516.0 10.0 359.0 
106.00018844631546 13232.0 NaN 1534.6559786239152 0.5011375900247678 517.0 8.0 361.0 
108.00018844631546 13251.0 NaN 1537.8249832999336 0.501283832884389 517.0 9.0 361.0 
110.00018844631546 13253.0 NaN 1537.736806947227 0.5012318739570282 519.0 8.0 362.0 
112.00018844631546 13256.0 NaN 1537.8517034068152 0.5009590286326218 516.0 11.0 359.0 
114.00018844631546 13262.0 NaN 1537.7074148296606 0.5044133791005004 516.0 11.0 359.0 
116.00018844631546 13252.0 NaN 1540.921843687373 0.5002513162914565 518.0 11.0 360.0 
118.00018844631546 13276.0 NaN 1546.9044756179023 0.5031251294534146 520.0 8.0 365.0 
120.00018844631546 13279.0 NaN 1547.006012024048 0.5023208474908389 521.0 8.0 365.0 
122.00018844631546 13288.0 NaN 1546.8216432865727 0.5035279409776826 515.0 14.0 359.0 
124.00018844631546 13274.0 NaN 1546.9819639278544 0.5036640383481533 516.0 13.0 360.0 
126.00018844631546 13274.0 NaN 1546.9445557782244 0.5038519889636693 516.0 13.0 360.0 
128.00018844631543 13283.0 NaN 1547.0220440881756 0.5045770779694848 519.0 10.0 363.0 
130.00018844631546 13288.0 NaN 1546.888443553773 0.5019137765085332 520.0 8.0 365.0 
132.00018844631546 13283.0 NaN 1543.930527722109 0.5033191229423007 512.0 14.0 358.0 
134.00018844631546 13277.0 NaN 1543.842351369406 0.5031108723591551 513.0 12.0 360.0 
136.0003357897405 13254.0 NaN 1547.035404141618 0.5014386531624347 514.0 10.0 363.0 
138.0003357897405 13248.0 NaN 1543.8797595190365 0.5025086533057113 512.0 9.0 363.0 
140.0003357897405 13253.0 NaN 1547.1182364729455 0.5007361011339556 514.0 8.0 365.0 
142.0003357897405 13276.0 NaN 1550.0307281229123 0.5013834857310229 511.0 10.0 364.0 
144.0003357897405 13293.0 NaN 1550.142952571809 0.5039592347165351 511.0 9.0 365.0 
146.0003357897405 13279.0 NaN 1550.073480293921 0.5024944608141286 513.0 8.0 366.0 
148.0003357897405 13260.0 NaN 1547.1155644622575 0.5035292574818686 514.0 8.0 365.0 
150.0003357897405 13241.0 NaN 1543.9652638610544 0.5048221500241981 513.0 9.0 363.0 
152.0003357897405 13223.0 NaN 1540.8630594522365 0.5024812902509046 508.0 10.0 361.0 
154.0003357897405 13221.0 NaN 1540.847027388109 0.5038385959316501 507.0 9.0 362.0 
156.0003357897405 13203.0 NaN 1540.895123580494 0.5071401697356719 510.0 7.0 364.0 
158.0003357897405 13201.0 NaN 1540.8443553774212 0.5033785078017137 511.0 8.0 363.0 
160.0003357897405 13187.0 NaN 1540.8657314629272 0.5016951716687402 507.0 13.0 358.0 
162.0003357897405 13193.0 NaN 1540.8630594522365 0.5026637197365511 508.0 12.0 359.0 
164.0003357897405 13187.0 NaN 1544.0347361389456 0.5018670468982922 507.0 11.0 361.0 
166.0003357897405 13174.0 NaN 1550.094856379427 0.5027045296068201 509.0 10.0 364.0 
168.0003357897405 13177.0 NaN 1550.1803607214429 0.5055667624809231 512.0 8.0 366.0 
170.0003357897405 13147.0 NaN 1547.0086840347365 0.5014422008871973 508.0 13.0 360.0 
172.0003357897405 13158.0 NaN 1543.9919839679364 0.5026592421835926 512.0 9.0 363.0 
174.0003357897405 13166.0 NaN 1543.9118236472937 0.5044073525315762 514.0 8.0 364.0 
176.0003357897405 13140.0 NaN 1544.0053440213755 0.502296144451493 509.0 9.0 363.0 
178.0003357897405 13141.0 NaN 1537.7715430861729 0.5031626879994086 510.0 8.0 362.0 
180.0003357897405 13110.0 NaN 1540.9245156980637 0.5017554421527475 507.0 11.0 360.0 
182.0003357897405 13092.0 NaN 1540.836339345357 0.5028544528448239 508.0 11.0 360.0 
184.0003357897405 13084.0 NaN 1540.8657314629272 0.5070304316499412 504.0 14.0 357.0 
186.0003357897405 13072.0 NaN 1540.8710754843 0.5016351295398807 502.0 15.0 356.0 
188.0003357897405 13089.0 NaN 1540.9004676018728 0.5038940269363317 502.0 14.0 357.0 
190.0003357897405 13067.0 NaN 1540.8016032064118 0.5007873826867553 498.0 17.0 354.0 
192.0003357897405 13076.0 NaN 1540.844355377421 0.5023553945391586 499.0 17.0 354.0 
194.0003357897405 13066.0 NaN 1540.8630594522365 0.5052929116259248 501.0 14.0 357.0 
196.0003357897405 13026.0 NaN 1540.9218436873728 0.5039130254111044 501.0 14.0 357.0 
198.0003357897405 13048.0 NaN 1543.842351369406 0.5071306789056392 496.0 20.0 352.0 
200.0003357897405 13012.0 NaN 1543.9679358717453 0.5014631295214185 499.0 19.0 353.0 
202.0003357897405 13013.0 NaN 1544.0 0.5094554327048166 500.0 18.0 354.0 
204.0003357897405 13012.0 NaN 1547.0460921843699 0.5100243482867739 505.0 14.0 359.0 
206.0003357897405 12981.0 NaN 1544.0480961923843 0.5031105203626204 504.0 13.0 359.0 
208.0003357897405 12998.0 NaN 1540.844355377421 0.5046914723823389 498.0 19.0 352.0 
210.0003357897405 12955.0 NaN 1537.8490313961272 0.5011968202222672 499.0 13.0 357.0 
212.0003357897405 12950.0 NaN 1540.8684034736154 0.5035783686652303 499.0 14.0 357.0 
214.0003357897405 12949.0 NaN 1543.8797595190365 0.503985211876721 501.0 12.0 360.0 
216.0003357897405 12905.0 NaN 1543.8476953907818 0.5028312003133155 505.0 10.0 362.0 
218.0003357897405 12921.0 NaN 1537.7581830327335 0.5009162019481688 507.0 10.0 360.0 
220.0003357897405 12906.0 NaN 1540.756179024718 0.5017620176892564 507.0 9.0 362.0 
222.0003357897405 12891.0 NaN 1540.873747494991 0.5031047631452079 510.0 8.0 363.0 
224.0003357897405 12885.0 NaN 1540.8710754843 0.5025185695834551 508.0 9.0 362.0 
226.0003357897405 12864.0 NaN 1540.844355377421 0.5016869016301551 507.0 10.0 361.0 
228.0003357897405 12876.0 NaN 1540.7668670674698 0.5040066742556782 506.0 10.0 361.0 
230.0003357897405 12860.0 NaN 1537.7074148296608 0.5008211902304234 505.0 9.0 361.0 
232.0003357897405 12852.0 NaN 1540.8416833667338 0.504205156340878 506.0 7.0 364.0 
234.0003357897405 12835.0 NaN 1540.8523714094845 0.5044265733494776 508.0 7.0 364.0 
236.0003357897405 12797.0 NaN 1540.873747494991 0.5059030403077712 501.0 14.0 357.0 
238.0003357897405 12804.0 NaN 1540.7695390781548 0.503966711928174 499.0 14.0 357.0 
240.0003357897405 12795.0 NaN 1537.7234468937882 0.5034127594986034 503.0 10.0 360.0 
242.0003357897405 12780.0 NaN 1537.5845023380089 0.5046205163419574 507.0 10.0 360.0 
244.0003357897405 12768.0 NaN 1537.6192384769547 0.5040932142577531 504.0 12.0 358.0 
246.0003357897405 12739.0 NaN 1534.5063460253818 0.5064418303037945 499.0 18.0 351.0 
248.0003357897405 12732.0 NaN 1537.6513026052091 0.502532995275987 507.0 9.0 361.0 
250.0003357897405 12733.0 NaN 1534.503674014697 0.5025650672145089 504.0 11.0 358.0 
252.0003357897405 12730.0 NaN 1531.4228456913818 0.5034964585989335 501.0 9.0 359.0 
254.0003357897405 12740.0 NaN 1534.543754175018 0.5041815389465925 500.0 13.0 356.0 
256.00033578974046 12713.0 NaN 1531.5885103540425 0.5030922623663342 498.0 14.0 354.0 
258.00033578974046 12703.0 NaN 1531.5377421509697 0.501381200264358 504.0 9.0 359.0 
260.00033578974046 12725.0 NaN 1528.430193720773 0.504933099699494 506.0 8.0 359.0 
262.00033578974046 12705.0 NaN 1525.2879091516363 0.5036203938791987 506.0 9.0 357.0 
264.00033578974046 12719.0 NaN 1528.5931863727455 0.5077217853565121 502.0 12.0 355.0 
266.00033578974046 12672.0 NaN 1528.4729458917823 0.5027536050296163 498.0 15.0 352.0 
268.00033578974046 12660.0 NaN 1537.6432865731454 0.5057734772847361 505.0 8.0 362.0 
270.00033578974046 12673.0 NaN 1540.694722778891 0.508281710007973 508.0 6.0 365.0 
272.00033578974046 12653.0 NaN 1540.7401469605886 0.5043322399932683 509.0 6.0 365.0 
274.00033578974046 12697.0 NaN 1543.7274549098183 0.5117338418290109 499.0 15.0 357.0 
276.00018844631546 12643.0 NaN 1540.7160988643975 0.5021005431109855 500.0 14.0 357.0 
278.00018844631546 12643.0 NaN 1540.6573146292571 0.5051210152058591 504.0 10.0 361.0 
280.00018844631546 12637.0 NaN 1537.5764863059455 0.507109036153612 508.0 8.0 362.0 
282.00018844631546 12615.0 NaN 1537.5978623914477 0.5025789000768308 510.0 4.0 366.0 
284.00018844631546 12623.0 NaN 1537.611222444891 0.5062429412262349 504.0 10.0 360.0 
286.00018844631546 12582.0 NaN 1537.5310621242477 0.5011170251635624 508.0 5.0 365.0 
288.00018844631546 12590.0 NaN 1537.536406145625 0.5039937714741366 508.0 5.0 365.0 
290.00018844631546 12578.0 NaN 1537.5016700066817 0.5053414283773956 508.0 4.0 366.0 
292.00018844631546 12554.0 NaN 1537.5845023380089 0.5027971682466122 508.0 5.0 365.0 
294.00018844631546 12552.0 NaN 1531.4148296593182 0.5055036503963366 505.0 7.0 361.0 
296.00018844631546 12505.0 NaN 1531.4362057448245 0.5025302935245484 506.0 6.0 362.0 
298.00018844631546 12513.0 NaN 1531.4335337341363 0.5028351183862426 507.0 5.0 363.0 
300.00018844631546 12509.0 NaN 1534.5731462925846 0.5031580037546929 504.0 5.0 364.0 
302.00018844631546 12493.0 NaN 1528.4195056780209 0.5056482944297168 503.0 6.0 361.0 
304.00018844631546 12477.0 NaN 1531.53774215097 0.5059493754626362 500.0 8.0 360.0 
306.00018844631546 12454.0 NaN 1531.4362057448243 0.5022633778973099 501.0 8.0 360.0 
308.00018844631546 12451.0 NaN 1531.4709418837665 0.506576778555107 497.0 10.0 358.0 
310.00018844631546 12441.0 NaN 1537.659318637273 0.5044206393326884 492.0 14.0 356.0 
312.00018844631546 12431.0 NaN 1534.5544422177702 0.5025670638482518 491.0 16.0 353.0 
314.00018844631546 12444.0 NaN 1531.3640614562453 0.5063030854689975 493.0 15.0 353.0 
316.00018844631546 12416.0 NaN 1528.4488977955907 0.5034023144822001 494.0 14.0 353.0 
318.00018844631546 12413.0 NaN 1528.3179692718754 0.5014304888221617 497.0 11.0 356.0 
320.00018844631546 12414.0 NaN 1531.5430861723455 0.5019481753176649 497.0 10.0 358.0 
322.00018844631546 12424.0 NaN 1528.4809619238456 0.5032411882469454 493.0 16.0 351.0 
324.00018844631546 12442.0 NaN 1531.4843019372088 0.5064514837466719 496.0 11.0 357.0 
326.00018844631546 12422.0 NaN 1528.3420173680702 0.5032502692384374 497.0 11.0 356.0 
328.00018844631546 12421.0 NaN 1528.3981295925182 0.5036961773926902 497.0 10.0 357.0 
330.00018844631546 12406.0 NaN 1528.3901135604547 0.502880216319932 498.0 11.0 356.0 
332.00018844631546 12396.0 NaN 1525.2879091516363 0.5046513688989401 497.0 13.0 353.0 
334.00018844631546 12386.0 NaN 1528.2431529726116 0.5042207330682623 497.0 12.0 355.0 
336.00018844631546 12372.0 NaN 1531.4388777555093 0.5042319180388941 499.0 11.0 357.0 
338.00018844631546 12386.0 NaN 1528.384769539079 0.5009810631297911 501.0 11.0 356.0 
340.00018844631546 12385.0 NaN 1525.2985971943906 0.5011756403113814 499.0 12.0 354.0 
342.00018844631546 12420.0 NaN 1531.361389445557 0.504063632878042 501.0 13.0 355.0 
344.00018844631546 12402.0 NaN 1534.5784903139613 0.5073161509643147 501.0 12.0 357.0 
346.00018844631546 12382.0 NaN 1531.4522378089518 0.5022361305322698 502.0 10.0 358.0 
348.00018844631546 12402.0 NaN 1528.4221776887096 0.503255249060368 506.0 10.0 357.0 
350.00018844631546 12400.0 NaN 1528.3687374749486 0.5007788123960327 500.0 16.0 351.0 
352.00018844631546 12429.0 NaN 1528.3714094856368 0.5028320062783461 501.0 15.0 352.0 
354.00018844631546 12439.0 NaN 1525.4134936539733 0.5058580990651146 502.0 14.0 352.0 
356.00018844631546 12422.0 NaN 1525.2985971943904 0.5038153833527458 504.0 11.0 355.0 
358.00018844631546 12437.0 NaN 1525.2558450233812 0.5036649484925446 502.0 10.0 356.0 
360.00018844631546 12413.0 NaN 1525.306613226454 0.5064982693170167 498.0 16.0 350.0 
362.00018844631546 12438.0 NaN 1525.2879091516363 0.5045528864386368 504.0 10.0 356.0 
364.00018844631546 12435.0 NaN 1525.2264529058114 0.5074540985100409 506.0 10.0 356.0 
366.00018844631546 12412.0 NaN 1525.3253173012697 0.5042033328281026 508.0 9.0 357.0 
368.00018844631546 12411.0 NaN 1506.9392117568464 0.5065945375316163 504.0 10.0 350.0 
370.00018844631546 12373.0 NaN 1500.6733466933874 0.5084412863898102 502.0 12.0 346.0 
372.00018844631546 12375.0 NaN 1506.7682030728115 0.5054015912566759 504.0 11.0 349.0 
374.00018844631546 12349.0 NaN 1509.854375417501 0.5074424055432456 508.0 10.0 351.0 
376.00018844631546 12316.0 NaN 1506.7708750835 0.5073385254462389 507.0 11.0 349.0 
378.00018844631546 12327.0 NaN 1506.7414829659306 0.5076895743996985 505.0 12.0 348.0 
380.00018844631546 12305.0 NaN 1503.7221108884444 0.5052065520993586 504.0 12.0 347.0 
382.00018844631546 12322.0 NaN 1500.5905143620569 0.5021725767630753 505.0 12.0 346.0 
384.00018844631546 12314.0 NaN 1503.711422845691 0.5117973074844407 507.0 10.0 349.0 
386.00018844631546 12272.0 NaN 1509.9078156312635 0.5049598378717048 508.0 10.0 351.0 
388.00018844631546 12313.0 NaN 1509.8864395457574 0.5052158792081662 501.0 17.0 344.0 
390.00018844631546 12291.0 NaN 1503.834335337342 0.5091437010165069 501.0 16.0 343.0 
392.00018844631546 12292.0 NaN 1513.0340681362727 0.503791814202216 503.0 14.0 348.0 
394.00018844631546 12275.0 NaN 1509.9131596526372 0.5043301650415077 506.0 12.0 349.0 
396.00018844631546 12260.0 NaN 1509.9078156312637 0.5056566315822996 506.0 11.0 350.0 
398.00018844631546 12300.0 NaN 1509.9799599198388 0.501398801395828 503.0 16.0 345.0 
400.00018844631546 12295.0 NaN 1506.8162992651976 0.5014539868936626 508.0 11.0 349.0 
402.00018844631546 12306.0 NaN 1509.9318637274544 0.5029271245553573 510.0 11.0 350.0 
404.00018844631546 12288.0 NaN 1516.0748162992643 0.5068756810661583 511.0 10.0 353.0 
406.00018844631546 12263.0 NaN 1519.187708750836 0.5058862182482263 513.0 10.0 354.0 
408.00018844631546 12295.0 NaN 1522.2444889779551 0.507302765454842 509.0 12.0 353.0 
410.00018844631546 12272.0 NaN 1531.6499665998663 0.5090793095363293 510.0 12.0 356.0 
412.00018844631546 12291.0 NaN 1531.6873747495001 0.5025926095454559 513.0 10.0 358.0 
414.00018844631546 12286.0 NaN 1534.6933867735459 0.5053235206120577 512.0 10.0 359.0 
416.00018844631546 12273.0 NaN 1534.677354709418 0.502067215918489 512.0 11.0 358.0 
418.00018844631546 12319.0 NaN 1519.241148964597 0.5096696767441095 511.0 12.0 352.0 
420.00018844631546 12291.0 NaN 1516.109552438209 0.5047083584026002 512.0 11.0 352.0 
422.00018844631546 12310.0 NaN 1516.0053440213755 0.505074496265429 511.0 9.0 354.0 
424.00018844631546 12309.0 NaN 1513.0340681362727 0.508126571277823 509.0 9.0 353.0 
426.00018844631546 12278.0 NaN 1516.1389445557788 0.5019003225737803 504.0 15.0 348.0 
428.00018844631546 12315.0 NaN 1519.198396793588 0.5065428926464436 504.0 14.0 350.0 
430.00018844631546 12290.0 NaN 1516.2378089512365 0.5021198088763521 505.0 13.0 350.0 
432.00018844631546 12303.0 NaN 1513.05277221109 0.5041936050331591 508.0 11.0 351.0 
434.00018844631546 12307.0 NaN 1522.2631930527727 0.5098583092448035 513.0 9.0 356.0 
436.00018844631546 12285.0 NaN 1528.3981295925182 0.5029124517488868 511.0 16.0 351.0 
438.00018844631546 12299.0 NaN 1528.4034736138938 0.504758222124847 514.0 10.0 357.0 
440.00018844631546 12277.0 NaN 1528.344689378757 0.5032694363148663 516.0 10.0 357.0 
442.00018844631546 12280.0 NaN 1531.3507014028062 0.507115917678244 516.0 9.0 359.0 
444.00018844631546 12254.0 NaN 1531.41215764863 0.5107183777818023 516.0 10.0 358.0 
446.00018844631546 12230.0 NaN 1534.5170340681366 0.5066368059236995 517.0 12.0 357.0 
448.00018844631546 12260.0 NaN 1543.722110888445 0.5031168182188672 520.0 11.0 361.0 
450.00018844631546 12236.0 NaN 1540.5691382765542 0.5025104061591719 519.0 10.0 361.0 
452.00018844631546 12230.0 NaN 1543.7835671342698 0.5077091305970324 519.0 10.0 362.0 
454.00018844631546 12223.0 NaN 1543.6526386105547 0.5102062187143137 517.0 11.0 361.0 
456.00018844631546 12222.0 NaN 1553.0153640614546 0.5062593619277557 515.0 12.0 363.0 
458.00018844631546 12242.0 NaN 1552.847027388109 0.5037945845524594 516.0 11.0 364.0 
460.00018844631546 12235.0 NaN 1549.8196392785571 0.5047697355332476 515.0 9.0 365.0 
462.00018844631546 12237.0 NaN 1546.6826987307938 0.5030194544923291 515.0 10.0 363.0 
464.00018844631546 12260.0 NaN 1543.6713426853723 0.5084011732905239 510.0 16.0 356.0 
466.00018844631546 12246.0 NaN 1546.661322645291 0.5060456004634464 512.0 15.0 358.0 
468.00018844631546 12247.0 NaN 1546.6826987307938 0.5036046731477978 513.0 14.0 359.0 
470.00018844631546 12226.0 NaN 1540.5076820307272 0.5030751685022583 515.0 11.0 360.0 
472.00018844631546 12234.0 NaN 1537.3894455577818 0.5055339109327242 513.0 10.0 360.0 
474.00018844631546 12226.0 NaN 1522.1082164328643 0.5049189906075906 504.0 16.0 349.0 
476.00018844631546 12220.0 NaN 1516.0160320641273 0.5066833098628379 505.0 12.0 351.0 
478.00018844631546 12213.0 NaN 1515.9278557114237 0.5043200458151206 505.0 11.0 352.0 
480.00018844631546 12200.0 NaN 1516.0053440213755 0.5013181081933974 506.0 10.0 353.0 
482.00018844631546 12213.0 NaN 1509.81696726787 0.5041839006021214 505.0 11.0 350.0 
484.00018844631546 12212.0 NaN 1509.8570474281908 0.5064821420630587 500.0 13.0 348.0 
486.00018844631546 12190.0 NaN 1506.7414829659303 0.5091709917213879 501.0 12.0 348.0 
488.00018844631546 12191.0 NaN 1497.6032064128262 0.5072199745106909 501.0 11.0 346.0 
490.00018844631546 12165.0 NaN 1497.5123580494333 0.5089334171034926 501.0 11.0 346.0 
492.00018844631546 12158.0 NaN 1494.4529058116243 0.5072958496901214 498.0 12.0 344.0 
494.00018844631546 12156.0 NaN 1491.3453573814284 0.5044702122099908 495.0 13.0 342.0 
496.00018844631546 12153.0 NaN 1491.4495657982636 0.5042066189426475 494.0 13.0 342.0 
498.00018844631546 12174.0 NaN 1488.3740814963267 0.5078703833444135 495.0 12.0 342.0 
500.00018844631546 12153.0 NaN 1488.3500334001342 0.5086774353171705 497.0 10.0 344.0 
502.00018844631546 12166.0 NaN 1491.4682698730805 0.5032872798297254 494.0 16.0 339.0 
504.00018844631546 12176.0 NaN 1491.3854375417511 0.5075265822571449 497.0 15.0 340.0 
506.00018844631546 12183.0 NaN 1497.637942551771 0.5030244862129102 501.0 14.0 343.0 
508.00018844631546 12200.0 NaN 1491.3667334669344 0.5026153049770611 503.0 11.0 344.0 
510.00018844631546 12193.0 NaN 1497.5684702738818 0.5055062563090962 503.0 10.0 347.0 
512.0001884463155 12213.0 NaN 1497.4615898463605 0.506111109005645 498.0 16.0 341.0 
514.0001884463155 12219.0 NaN 1491.3480293921182 0.5075344089790182 503.0 11.0 344.0 
516.0001884463155 12223.0 NaN 1479.0567802271203 0.5041771147896655 500.0 12.0 339.0 
518.0001884463155 12228.0 NaN 1472.9699398797607 0.5019362489487007 494.0 13.0 336.0 
520.0001884463155 12249.0 NaN 1466.9392117568464 0.5028595370365995 491.0 16.0 331.0 
522.0001884463155 12264.0 NaN 1469.9131596526374 0.5055468319956535 490.0 14.0 334.0 
524.0001884463155 12286.0 NaN 1451.607214428857 0.5068346281310626 492.0 13.0 329.0 
526.0001884463155 12288.0 NaN 1451.5297261189057 0.5051152722507254 495.0 10.0 332.0 
528.0001884463155 12299.0 NaN 1454.6479625918514 0.5028133458286018 489.0 16.0 327.0 
530.0001884463155 12309.0 NaN 1454.5865063460262 0.5038779318603622 497.0 11.0 332.0 
532.0001884463155 12314.0 NaN 1454.5971943887785 0.5032095916071487 494.0 12.0 331.0 
534.0001884463155 12348.0 NaN 1460.7855711422842 0.5036067470056809 489.0 17.0 328.0 
536.0001884463155 12362.0 NaN 1454.7120908483637 0.5055261208570716 493.0 13.0 330.0 
538.0001884463155 12357.0 NaN 1457.6940547762188 0.507259139311703 497.0 11.0 333.0 
540.0001884463155 12346.0 NaN 1457.7555110220446 0.510263522243824 499.0 11.0 333.0 
542.0001884463155 12327.0 NaN 1460.7535070140277 0.510639953341637 495.0 15.0 330.0 
544.0001884463155 12317.0 NaN 1460.7855711422844 0.5056918804356254 499.0 13.0 332.0 
546.0001884463155 12316.0 NaN 1457.7528390113555 0.5103629339336501 499.0 14.0 330.0 
548.0001884463155 12304.0 NaN 1457.7822311289244 0.5052422445207123 503.0 13.0 331.0 
550.0001884463155 12307.0 NaN 1460.8229792919176 0.5088986375092779 504.0 12.0 333.0 
552.0001884463155 12301.0 NaN 1460.8496993987978 0.5044023929080238 499.0 16.0 329.0 
554.0003357897405 12312.0 NaN 1466.909819639279 0.5098019481129961 498.0 16.0 331.0 
556.0003357897405 12318.0 NaN 1470.1456245824988 0.5082142010479106 498.0 15.0 333.0 
558.0003357897405 12306.0 NaN 1454.7468269873089 0.5031151318854021 497.0 11.0 332.0 
560.0003357897405 12320.0 NaN 1451.6659986639952 0.5073299003809213 488.0 18.0 324.0 
562.0003357897405 12313.0 NaN 1454.765531062124 0.5043953258620355 487.0 13.0 330.0 
564.0003357897405 12337.0 NaN 1460.9458917835677 0.5077021217993238 489.0 13.0 332.0 
566.0003357897405 12348.0 NaN 1470.1670006680029 0.5082135987103074 493.0 12.0 336.0 
568.0003357897405 12337.0 NaN 1470.2284569138274 0.5058159249239117 491.0 15.0 333.0 
570.0003357897405 12333.0 NaN 1476.2404809619238 0.5066140147847443 497.0 17.0 333.0 
572.0003357897405 12284.0 NaN 1479.35871743487 0.5050411531100508 500.0 13.0 338.0 
574.0003357897405 12314.0 NaN 1482.5090180360726 0.509040921071822 501.0 11.0 341.0 
576.0003357897405 12327.0 NaN 1488.5531062124253 0.5089678625378173 496.0 15.0 339.0 
578.0003357897405 12342.0 NaN 1482.5090180360728 0.506244106421286 503.0 11.0 341.0 
580.0003357897405 12317.0 NaN 1485.4268537074151 0.5073098975847725 503.0 10.0 343.0 
582.0003357897405 12289.0 NaN 1485.432197728791 0.5056027461938002 503.0 15.0 338.0 
584.0003357897405 12308.0 NaN 1482.4048096192378 0.5089786246373738 505.0 11.0 341.0 
586.0003357897405 12349.0 NaN 1491.6820307281241 0.5077139735192541 507.0 12.0 343.0 
588.0003357897405 12353.0 NaN 1488.488977955911 0.5058591237636233 508.0 12.0 342.0 
590.0003357897405 12345.0 NaN 1491.6179024716093 0.504800789489364 508.0 14.0 341.0 
592.0003357897405 12351.0 NaN 1491.5991983967929 0.5098024307383505 511.0 14.0 341.0 
594.0003357897405 12369.0 NaN 1491.5965263861062 0.5094898770974037 513.0 11.0 344.0 
596.0003357897405 12352.0 NaN 1494.6426185704738 0.5045106865408105 515.0 12.0 344.0 
598.0003357897405 12363.0 NaN 1488.5103540414168 0.5057821822560022 518.0 9.0 345.0 
600.0003357897405 12340.0 NaN 1485.309285237142 0.5068544316628596 512.0 17.0 336.0 
602.0003357897405 12339.0 NaN 1491.6472945891787 0.5099458188379423 513.0 14.0 341.0 
604.0003357897405 12375.0 NaN 1491.4255177020714 0.510013391382461 519.0 9.0 346.0 
606.0003357897405 12388.0 NaN 1497.7795591182362 0.5079507863710694 518.0 8.0 349.0 
608.0003357897405 12403.0 NaN 1497.7181028724108 0.504148642125251 509.0 16.0 341.0 
610.0003357897405 12431.0 NaN 1494.7307949231806 0.5064084154714059 515.0 10.0 346.0 
612.0003357897405 12447.0 NaN 1494.6025384101545 0.5060017304623646 513.0 9.0 347.0 
614.0003357897405 12481.0 NaN 1494.6506346025376 0.5091537041983115 514.0 8.0 348.0 
616.0003357897405 12463.0 NaN 1497.7688710754835 0.5103552879308254 509.0 14.0 343.0 
618.0003357897405 12506.0 NaN 1497.808951235806 0.5057123314941309 510.0 15.0 342.0 
620.0003357897405 12479.0 NaN 1494.6052104208427 0.5083211659275348 510.0 13.0 343.0 
622.0003357897405 12469.0 NaN 1500.9084836339355 0.5061567872265458 511.0 11.0 347.0 
624.0003357897405 12490.0 NaN 1503.9091516366072 0.5134803262384751 500.0 19.0 340.0 
626.0003357897405 12481.0 NaN 1507.1262525050092 0.5107537682477179 509.0 11.0 349.0 
628.0003357897405 12512.0 NaN 1507.0941883767543 0.5067191969731558 504.0 15.0 345.0 
630.0003357897405 12461.0 NaN 1507.1422845691375 0.5040971580976913 505.0 13.0 347.0 
632.0003357897405 12453.0 NaN 1507.078156312626 0.5024272591680472 500.0 16.0 344.0 
634.0003357897405 12478.0 NaN 1513.338677354709 0.5088923080375359 505.0 14.0 348.0 
636.0003357897405 12466.0 NaN 1516.2939211756836 0.5070328860326553 508.0 18.0 345.0 
638.0003357897405 12488.0 NaN 1516.379425517701 0.5067132214250067 510.0 17.0 346.0 
640.0003357897405 12430.0 NaN 1513.2879091516363 0.5038219850574064 512.0 14.0 348.0 
642.0003357897405 12437.0 NaN 1510.1830327321302 0.5060788515197248 516.0 11.0 350.0 
644.0003357897405 12431.0 NaN 1507.1476285905153 0.5075242417986734 510.0 17.0 343.0 
646.0003357897405 12409.0 NaN 1510.2979291917172 0.5050545213180874 511.0 13.0 348.0 
648.0003357897405 12429.0 NaN 1513.3066132264535 0.506677892830438 505.0 19.0 343.0 
650.0003357897405 12396.0 NaN 1519.505678022711 0.5065650352939537 506.0 14.0 350.0 
652.0003357897405 12393.0 NaN 1522.5998663994646 0.5063985160787268 503.0 15.0 350.0 
654.0003357897405 12411.0 NaN 1519.4201736806938 0.5146562197986865 504.0 14.0 350.0 
656.0003357897405 12395.0 NaN 1525.6513026052098 0.5035616345909467 503.0 13.0 353.0 
658.0003357897405 12407.0 NaN 1534.8724114896452 0.5036631789347086 505.0 10.0 359.0 
660.0003357897405 12393.0 NaN 1534.765531062125 0.5038284034581909 499.0 16.0 353.0 
662.0003357897405 12382.0 NaN 1534.6720106880434 0.5047713299757454 502.0 13.0 356.0 
664.0003357897405 12381.0 NaN 1537.8463593854362 0.5081127819952058 499.0 18.0 352.0 
#####################################################################
# End of data export. Simulation finished at: 2019-03-10T08:47+0000 #
#####################################################################
