#####################################################################
# Alchemist log file - simulation started at: 2019-03-19T23:38+0000 #
#####################################################################
# seed = 9.0, bandwidth = 74989.42093324558, propagationDelay = 0.01, baserange = 316.2277660168379
#
# The columns have the following meaning: 
# time neighbor_count[Sum] <value>@neighbor_count[Sum] packet_size[Mean] mean_delay[Mean] crowd[Sum] overcrowded[Sum] risk[Sum] 
0.0 NaN NaN NaN NaN NaN NaN NaN 
2.0003374459614243 51101.0 NaN 4995.3694054776215 0.49578773847114316 1497.0 0.0 1497.0 
4.000337445961424 51288.0 NaN 4993.907815631263 0.49765549932902864 1495.0 2.0 1495.0 
6.000337445961424 51288.0 NaN 4993.9853039412155 0.497637157046623 1495.0 2.0 1495.0 
8.000337445961424 51288.0 NaN 4994.5250501002 0.49762958503739096 1493.0 4.0 1493.0 
10.000337445961424 51290.0 NaN 4995.67134268537 0.4976387197342073 1494.0 3.0 1494.0 
12.000337445961424 51290.0 NaN 4995.006012024048 0.4976336066985657 1494.0 3.0 1494.0 
14.000337445961424 51290.0 NaN 4994.338009352037 0.4976432609021524 1493.0 4.0 1493.0 
16.000337445961424 51297.0 NaN 4994.386105544422 0.49818200677895963 1493.0 4.0 1493.0 
18.000337445961424 51303.0 NaN 4995.3239812959255 0.5010251167456233 1494.0 3.0 1494.0 
20.000337445961424 51335.0 NaN 4995.879759519038 0.5030098500545465 1495.0 2.0 1495.0 
22.000337445961424 51331.0 NaN 4994.821643286573 0.4981964576384608 1494.0 3.0 1494.0 
24.000337445961424 51329.0 NaN 4994.442217768871 0.49783226993737323 1493.0 4.0 1493.0 
26.000337445961424 51336.0 NaN 4994.431529726119 0.4976226909595713 1492.0 5.0 1492.0 
28.000337445961424 51343.0 NaN 4995.3186372745495 0.49815087823753407 1492.0 5.0 1492.0 
30.000337445961424 51388.0 NaN 4996.414161656647 0.4993409896020222 1493.0 4.0 1493.0 
32.00033744596142 51397.0 NaN 4994.813627254509 0.4991274794589368 1495.0 2.0 1495.0 
34.00033744596142 51398.0 NaN 4994.0547762191045 0.49927461553908464 1495.0 2.0 1495.0 
36.00033744596142 51390.0 NaN 4994.476953907815 0.500274429358019 1494.0 3.0 1494.0 
38.00033744596142 51364.0 NaN 4995.075484301938 0.5014430457381043 1493.0 4.0 1493.0 
40.00033744596142 51398.0 NaN 4996.229792919172 0.5042999144389791 1492.0 5.0 1492.0 
42.00033744596142 51404.0 NaN 4995.486973947895 0.49931169813054477 1493.0 4.0 1493.0 
44.00033744596142 51388.0 NaN 4994.308617234469 0.49960573568337224 1493.0 4.0 1493.0 
46.00033744596142 51381.0 NaN 4994.380761523046 0.4996243288862392 1494.0 3.0 1494.0 
48.00033744596142 51367.0 NaN 4995.198396793588 0.4981045074428244 1495.0 2.0 1495.0 
50.00033744596142 51406.0 NaN 4995.941215764863 0.5010364990861329 1495.0 2.0 1495.0 
52.00033744596142 51407.0 NaN 4994.939211756847 0.5062286268397053 1493.0 4.0 1493.0 
54.00033744596142 51385.0 NaN 4994.583834335337 0.5072076597562041 1493.0 4.0 1493.0 
56.00033744596142 51372.0 NaN 4994.626586506346 0.4988738409846785 1493.0 4.0 1493.0 
58.00033744596142 51375.0 NaN 4995.219772879092 0.498672367605011 1494.0 3.0 1494.0 
60.00033744596142 51420.0 NaN 4996.248496993988 0.5015184628952214 1494.0 3.0 1494.0 
62.00033744596142 51473.0 NaN 1522.6052104208425 0.4993612429158903 767.0 3.0 362.0 
64.00033744596142 51458.0 NaN 1522.677354709418 0.501530769127044 624.0 4.0 361.0 
66.00033744596142 51474.0 NaN 1522.586506346027 0.5001745392967301 577.0 5.0 360.0 
68.00033744596142 51477.0 NaN 1525.8223112892456 0.5002970299097211 542.0 9.0 357.0 
70.00033744596142 51503.0 NaN 1525.891783567136 0.5034176061180835 523.0 13.0 353.0 
72.00033744596142 51498.0 NaN 1525.8062792251178 0.5012133527998114 519.0 13.0 353.0 
74.00033744596142 51488.0 NaN 1531.8530394121572 0.5025254213923402 524.0 5.0 363.0 
76.00033744596142 51492.0 NaN 1534.794923179691 0.5031336742277128 529.0 4.0 365.0 
78.00033744596142 51496.0 NaN 1534.86706746827 0.5047273878076062 526.0 5.0 364.0 
80.00033744596142 51487.0 NaN 1534.936539746158 0.5010793400410416 525.0 4.0 365.0 
82.00033744596142 51484.0 NaN 1534.86706746827 0.5012165773723143 523.0 6.0 363.0 
84.00033744596142 51471.0 NaN 1538.0788243152972 0.5018304166570442 527.0 2.0 368.0 
86.00033744596142 51500.0 NaN 1537.9719438877753 0.49812143826611055 525.0 2.0 368.0 
88.00033744596142 51541.0 NaN 1538.0814963259847 0.49852690205581035 525.0 3.0 367.0 
90.00033744596142 51569.0 NaN 1537.9639278557092 0.4997505674116765 526.0 2.0 368.0 
92.00033744596142 51557.0 NaN 1538.0681362725456 0.5004010190689562 526.0 2.0 368.0 
94.00033744596142 51529.0 NaN 1537.8704074816299 0.4997076001057028 526.0 2.0 368.0 
96.00033744596142 51547.0 NaN 1537.9692718770877 0.4997488833459366 526.0 2.0 368.0 
98.00033744596142 51569.0 NaN 1537.9398797595181 0.5019727926674226 525.0 3.0 367.0 
100.00033744596142 51571.0 NaN 1538.0387441549758 0.5025321680203658 526.0 2.0 368.0 
102.00033744596142 51549.0 NaN 1541.0020040080178 0.5054741392383503 527.0 1.0 370.0 
104.00033744596142 51510.0 NaN 1541.0794923179697 0.5013398514088692 524.0 3.0 368.0 
106.00033744596142 51529.0 NaN 1540.9859719438882 0.4986951897711275 524.0 3.0 368.0 
108.00033744596142 51533.0 NaN 1541.124916499666 0.49939152600965014 522.0 4.0 367.0 
110.00033744596142 51542.0 NaN 1541.2077488309944 0.5020410372627605 522.0 5.0 366.0 
112.00033744596142 51514.0 NaN 1541.2211088844365 0.5037598317737387 523.0 4.0 367.0 
114.00033744596142 51510.0 NaN 1541.0153640614549 0.5006218002301595 525.0 2.0 369.0 
116.00033744596142 51552.0 NaN 1547.1503006012022 0.5002289130040873 526.0 3.0 370.0 
118.00033744596142 51554.0 NaN 1550.1055444221788 0.5018576196918696 524.0 5.0 369.0 
120.00033744596142 51551.0 NaN 1550.2818971275888 0.5007464293121773 526.0 3.0 371.0 
122.00033744596142 51526.0 NaN 1550.2070808283243 0.5018108704258571 527.0 3.0 371.0 
124.00033744596142 51517.0 NaN 1550.3406813627273 0.5021507179701413 528.0 2.0 372.0 
126.00033744596142 51555.0 NaN 1547.2972611890457 0.5004257338227329 527.0 3.0 370.0 
128.0003374459614 51554.0 NaN 1547.3774215096846 0.502944104144117 526.0 4.0 369.0 
130.0003374459614 51542.0 NaN 1544.2458249832998 0.5036202959902568 528.0 2.0 370.0 
132.0003374459614 51483.0 NaN 1544.1950567802273 0.5018438648233665 527.0 3.0 369.0 
134.0003374459614 51475.0 NaN 1540.999331997327 0.4994166587171392 527.0 2.0 369.0 
136.0003374459614 51504.0 NaN 1544.0694722778908 0.499760322136745 521.0 3.0 369.0 
138.0003374459614 51496.0 NaN 1544.1255845023363 0.5011844535856732 521.0 5.0 367.0 
140.0003374459614 51506.0 NaN 1544.3206412825637 0.503337429002902 523.0 3.0 369.0 
142.0003374459614 51461.0 NaN 1541.1302605210424 0.5026640116849468 522.0 2.0 369.0 
144.0003374459614 51435.0 NaN 1541.090180360721 0.5018080759462655 521.0 3.0 368.0 
146.0003374459614 51434.0 NaN 1544.1175684702725 0.5004698007330017 521.0 2.0 370.0 
148.0003374459614 51416.0 NaN 1544.192384769539 0.5015860227476685 518.0 5.0 367.0 
150.0003374459614 51419.0 NaN 1538.188376753509 0.5031983380571848 521.0 2.0 368.0 
152.0003374459614 51385.0 NaN 1538.164328657315 0.5030284122182794 520.0 3.0 367.0 
154.0003374459614 51360.0 NaN 1538.12959251837 0.5008479555109516 522.0 2.0 368.0 
156.0003374459614 51365.0 NaN 1535.0033400133607 0.500875949975232 522.0 3.0 366.0 
158.0003374459614 51344.0 NaN 1534.9873079492336 0.5027185127754645 517.0 4.0 365.0 
160.0003374459614 51333.0 NaN 1535.0621242484972 0.5032759118076442 516.0 5.0 364.0 
162.0003374459614 51295.0 NaN 1534.9899799599182 0.5029243340360098 517.0 4.0 365.0 
164.0003374459614 51279.0 NaN 1541.2237808951245 0.5018649873549876 516.0 5.0 366.0 
166.0003374459614 51253.0 NaN 1541.1088844355365 0.5034186866089617 518.0 4.0 367.0 
168.0003374459614 51202.0 NaN 1544.3901135604547 0.505154038788224 517.0 6.0 366.0 
170.0003374459614 51196.0 NaN 1544.3259853039428 0.508062605482184 523.0 2.0 370.0 
172.0003374459614 51136.0 NaN 1541.19973279893 0.5026312007891538 523.0 1.0 370.0 
174.0003374459614 51111.0 NaN 1538.0040080160336 0.5023590145214001 520.0 3.0 367.0 
176.0003374459614 51079.0 NaN 1538.0788243152974 0.5033894436450989 520.0 2.0 368.0 
178.0003374459614 51024.0 NaN 1541.1890447561796 0.5014648341293801 516.0 7.0 364.0 
180.0003374459614 51025.0 NaN 1535.1315965263846 0.5013021215179785 520.0 2.0 367.0 
182.0003374459614 51005.0 NaN 1532.1202404809635 0.5013345197832056 516.0 5.0 363.0 
184.0003374459614 50995.0 NaN 1535.0327321309273 0.5032173335120255 515.0 3.0 366.0 
186.0003374459614 50986.0 NaN 1531.8557114228454 0.5022074165696532 514.0 5.0 363.0 
188.0003374459614 50948.0 NaN 1528.70808283233 0.5032285605729433 514.0 3.0 364.0 
190.0003374459614 50946.0 NaN 1528.8470273881092 0.5051890375810861 514.0 5.0 362.0 
192.0003374459614 50932.0 NaN 1531.9412157648637 0.5064764710668684 514.0 3.0 365.0 
194.0003374459614 50921.0 NaN 1532.0106880427522 0.503140994497004 514.0 5.0 363.0 
196.0003374459614 50902.0 NaN 1532.0774883099543 0.5016134241465039 514.0 3.0 365.0 
198.0003374459614 50875.0 NaN 1532.0267201068816 0.5014517359183568 515.0 5.0 363.0 
200.0003374459614 50868.0 NaN 1535.169004676018 0.5007143651592006 515.0 4.0 365.0 
202.0003374459614 50856.0 NaN 1538.0360721442908 0.5022257878366756 515.0 6.0 364.0 
204.0003374459614 50840.0 NaN 1538.028056112225 0.5046094111533793 514.0 4.0 366.0 
206.0003374459614 50821.0 NaN 1538.014696058784 0.5015914998703942 514.0 6.0 364.0 
208.0003374459614 50779.0 NaN 1538.052104208418 0.5004468029807249 511.0 4.0 366.0 
210.0003374459614 50793.0 NaN 1538.2044088176367 0.49969329674002727 511.0 6.0 364.0 
212.0003374459614 50792.0 NaN 1535.0621242484974 0.5014082446572472 513.0 4.0 365.0 
214.0003374459614 50765.0 NaN 1535.0220440881753 0.5029057298955419 513.0 6.0 363.0 
216.0003374459614 50735.0 NaN 1534.9472277889092 0.4992851492916222 509.0 5.0 364.0 
218.0003374459614 50713.0 NaN 1535.078156312627 0.5012128811787305 510.0 7.0 362.0 
220.0003374459614 50716.0 NaN 1538.1910487641937 0.5081990102174937 513.0 3.0 367.0 
222.0003374459614 50695.0 NaN 1535.0407481629913 0.5086749749395785 514.0 5.0 364.0 
224.0003374459614 50655.0 NaN 1534.9579158316637 0.5012662556261258 512.0 3.0 366.0 
226.0003374459614 50669.0 NaN 1534.9178356713428 0.5036929059281285 513.0 5.0 364.0 
228.0003374459614 50640.0 NaN 1534.9205076820301 0.510756027909405 511.0 3.0 366.0 
230.0003374459614 50618.0 NaN 1535.006012024048 0.5107003881032929 510.0 5.0 364.0 
232.0003374459614 50661.0 NaN 1538.097528390112 0.5063212688821996 509.0 3.0 367.0 
234.0003374459614 50634.0 NaN 1541.092852371409 0.5042729399537225 510.0 5.0 366.0 
236.0003374459614 50614.0 NaN 1541.1543086172362 0.5043455131307 510.0 3.0 368.0 
238.0003374459614 50591.0 NaN 1541.2531730126907 0.5017749872335625 511.0 3.0 368.0 
240.0003374459614 50594.0 NaN 1531.975951903809 0.5045064096256704 513.0 3.0 365.0 
242.0003374459614 50622.0 NaN 1531.8583834335338 0.5096537651830261 512.0 3.0 365.0 
244.0003374459614 50605.0 NaN 1531.6900467601881 0.5019075994370338 512.0 3.0 365.0 
246.0003374459614 50609.0 NaN 1531.6980627922517 0.5012907032250872 512.0 3.0 365.0 
248.0003374459614 50564.0 NaN 1531.8022712090844 0.5005126495325538 512.0 3.0 365.0 
250.0003374459614 50570.0 NaN 1531.906479625918 0.5018720930670456 512.0 3.0 365.0 
252.0003374459614 50553.0 NaN 1535.0247160988636 0.5004320886462011 512.0 3.0 366.0 
254.0003374459614 50564.0 NaN 1534.9792919171666 0.5009789578294124 513.0 3.0 366.0 
256.0003374459614 50584.0 NaN 1531.7434869739477 0.5012658257097421 513.0 3.0 365.0 
258.0003374459614 50552.0 NaN 1531.7194388777546 0.5025812146415641 514.0 3.0 365.0 
260.0003374459614 50539.0 NaN 1528.7374749499 0.5081491652265971 512.0 3.0 364.0 
262.0003374459614 50492.0 NaN 1531.7942551770207 0.5085880577746656 512.0 3.0 365.0 
264.0003374459614 50455.0 NaN 1534.8697394789574 0.5060948584886352 510.0 5.0 364.0 
266.0003374459614 50456.0 NaN 1538.0066800267182 0.5033477252165375 510.0 5.0 365.0 
268.0003374459614 50424.0 NaN 1534.8964595858365 0.5044836145955744 511.0 5.0 364.0 
270.0003374459614 50401.0 NaN 1528.782899131597 0.5090443806711943 510.0 5.0 362.0 
272.0003374459614 50360.0 NaN 1541.0367401469614 0.5132962456523201 511.0 5.0 366.0 
274.0003374459614 50242.0 NaN 1537.8623914495638 0.5036595862256872 513.0 5.0 365.0 
276.0003374459614 50248.0 NaN 1540.9726118904455 0.5051152056174001 513.0 5.0 366.0 
278.0003374459614 50196.0 NaN 1540.9325317301273 0.503544271797201 511.0 6.0 365.0 
280.0003374459614 50148.0 NaN 1538.0120240480976 0.5033659155132421 512.0 5.0 365.0 
282.0003374459614 50136.0 NaN 1537.995991983966 0.504628525667919 511.0 5.0 365.0 
284.0003374459614 50110.0 NaN 1537.929191716766 0.504586108023525 510.0 5.0 365.0 
286.0003374459614 50102.0 NaN 1537.9158316633275 0.5041322467122299 509.0 5.0 365.0 
288.0003374459614 50059.0 NaN 1534.7762191048753 0.5048255452813406 509.0 5.0 364.0 
290.0003374459614 50008.0 NaN 1531.7995991983976 0.5067066305237042 508.0 5.0 363.0 
292.0003374459614 49970.0 NaN 1531.8129592518362 0.5050802518482481 508.0 5.0 363.0 
294.0003374459614 49917.0 NaN 1531.8076152304611 0.5047102473629789 507.0 5.0 363.0 
296.0003374459614 49911.0 NaN 1531.6900467601884 0.5057856705782577 507.0 5.0 363.0 
298.0003374459614 49844.0 NaN 1534.7094188376752 0.5039084568412695 507.0 5.0 364.0 
300.0003374459614 49802.0 NaN 1531.660654642618 0.5054095610185425 506.0 5.0 363.0 
302.0003374459614 49771.0 NaN 1528.6920507682025 0.5044770545098562 506.0 4.0 363.0 
304.0003374459614 49728.0 NaN 1528.6492985971936 0.5045073843149607 506.0 4.0 363.0 
306.0003374459614 49732.0 NaN 1531.8209752838998 0.5050630694501357 505.0 4.0 364.0 
308.0003374459614 49703.0 NaN 1534.9739478957908 0.5053292834239272 505.0 4.0 365.0 
310.0003374459614 49630.0 NaN 1531.8663994655997 0.5046729671697978 504.0 4.0 364.0 
312.0003374459614 49622.0 NaN 1525.6219104876427 0.5062907291014811 504.0 3.0 363.0 
314.0003374459614 49575.0 NaN 1528.5263861055455 0.505304046532182 506.0 3.0 364.0 
316.0003374459614 49568.0 NaN 1528.545090180361 0.5046084886179673 505.0 3.0 364.0 
318.0003374459614 49529.0 NaN 1528.5344021376093 0.504237844053275 506.0 3.0 364.0 
320.0003374459614 49468.0 NaN 1534.8483633934547 0.5037653145493727 506.0 3.0 366.0 
322.0003374459614 49458.0 NaN 1534.9552438209753 0.5050304026156192 505.0 3.0 366.0 
324.0003374459614 49395.0 NaN 1531.8557114228454 0.5033753766134673 506.0 3.0 365.0 
326.0003374459614 49384.0 NaN 1531.8744154976634 0.5034516898202149 506.0 3.0 365.0 
328.0003374459614 49363.0 NaN 1531.778223112891 0.5042156162487627 504.0 4.0 364.0 
330.0003374459614 49324.0 NaN 1531.8770875083483 0.506242294360984 503.0 4.0 364.0 
332.0003374459614 49307.0 NaN 1531.7408149632608 0.5054443235793061 503.0 4.0 364.0 
334.0003374459614 49291.0 NaN 1531.6873747495001 0.5020230882563543 503.0 4.0 364.0 
336.0003374459614 49326.0 NaN 1531.660654642618 0.5070178932116484 504.0 4.0 364.0 
338.0003374459614 49312.0 NaN 1534.7575150300609 0.5059943699675936 506.0 3.0 366.0 
340.0003374459614 49270.0 NaN 1537.9425517702089 0.507809778213243 508.0 3.0 367.0 
342.0003374459614 49235.0 NaN 1534.880427521709 0.507001485633987 508.0 3.0 366.0 
344.0003374459614 49205.0 NaN 1531.8102872411484 0.5021492861962719 508.0 3.0 365.0 
346.0003374459614 49221.0 NaN 1525.6700066800274 0.5027463982759103 506.0 3.0 363.0 
348.0003374459614 49249.0 NaN 1528.6840347361388 0.505308238181774 509.0 3.0 364.0 
350.0003374459614 49219.0 NaN 1531.8583834335338 0.5083628207150634 511.0 4.0 364.0 
352.0003374459614 49185.0 NaN 1531.775551102203 0.5054785123870525 511.0 4.0 364.0 
354.0003374459614 49147.0 NaN 1525.5177020708093 0.5028259124522833 510.0 4.0 362.0 
356.0003374459614 49138.0 NaN 1528.5931863727455 0.5046377775734464 509.0 4.0 363.0 
358.0003374459614 49155.0 NaN 1528.6305945223787 0.505699556687127 511.0 4.0 363.0 
360.0003374459614 49145.0 NaN 1528.7054108216448 0.507982735407837 512.0 4.0 363.0 
362.0003374459614 49111.0 NaN 1528.7641950567813 0.5068809810437874 513.0 4.0 363.0 
364.0003374459614 49084.0 NaN 1528.643954575818 0.503497339345463 513.0 4.0 363.0 
366.0003374459614 49080.0 NaN 1525.541750167 0.503636378376448 513.0 4.0 362.0 
368.0003374459614 49092.0 NaN 1522.4395457581822 0.5063056965208165 513.0 4.0 361.0 
370.0003374459614 49073.0 NaN 1516.3473613894453 0.5069374210413895 510.0 4.0 359.0 
372.0003374459614 49017.0 NaN 1510.2444889779554 0.5019866147625573 511.0 4.0 357.0 
374.0003374459614 49010.0 NaN 1510.2097528390102 0.503247427431821 511.0 4.0 357.0 
376.0003374459614 49005.0 NaN 1513.2959251837 0.5023481161952261 512.0 4.0 358.0 
378.0003374459614 49013.0 NaN 1513.338677354709 0.5049971879018884 514.0 4.0 358.0 
380.0003374459614 48999.0 NaN 1510.3059452237817 0.5094242044775923 515.0 4.0 357.0 
382.0003374459614 48925.0 NaN 1510.300601202406 0.5042116851809569 515.0 5.0 356.0 
384.0003374459614 48900.0 NaN 1510.1349365397455 0.503859033739187 513.0 6.0 355.0 
386.0003374459614 48898.0 NaN 1513.2505010020031 0.5029148594338277 513.0 6.0 356.0 
388.0003374459614 48897.0 NaN 1516.323313293254 0.5032166709894967 514.0 6.0 357.0 
390.0003374459614 48869.0 NaN 1522.5918503674006 0.5065252882599574 515.0 6.0 359.0 
392.0003374459614 48835.0 NaN 1516.5824983299929 0.5052923295549102 515.0 6.0 357.0 
394.0003374459614 48810.0 NaN 1519.599198396793 0.504297050111483 515.0 6.0 358.0 
396.0003374459614 48808.0 NaN 1519.6018704074818 0.505241965416527 516.0 5.0 359.0 
398.0003374459614 48813.0 NaN 1516.4515698062794 0.5090074028144704 514.0 6.0 357.0 
400.0003374459614 48772.0 NaN 1513.3974615898455 0.5124450881711291 514.0 5.0 357.0 
402.0003374459614 48722.0 NaN 1513.4001336005358 0.5065307078725065 514.0 6.0 356.0 
404.0003374459614 48664.0 NaN 1510.2605210420838 0.5022516088906538 517.0 4.0 357.0 
406.0003374459614 48653.0 NaN 1519.436205744824 0.5049549407573091 518.0 3.0 361.0 
408.0003374459614 48667.0 NaN 1519.452237808952 0.5059363858639375 520.0 2.0 362.0 
410.0003374459614 48653.0 NaN 1519.5270541082173 0.5089389912318234 520.0 3.0 361.0 
412.0003374459614 48641.0 NaN 1525.763527054109 0.506302611936181 521.0 2.0 364.0 
414.0003374459614 48641.0 NaN 1528.7828991315969 0.5028482241439663 521.0 3.0 364.0 
416.0003374459614 48638.0 NaN 1522.6265865063453 0.5032073761263979 521.0 2.0 363.0 
418.0003374459614 48640.0 NaN 1522.639946559785 0.5042234990878267 517.0 3.0 362.0 
420.0003374459614 48622.0 NaN 1513.432197728791 0.5050628878704448 516.0 2.0 360.0 
422.0003374459614 48579.0 NaN 1519.5190380761537 0.5024493526399757 515.0 2.0 362.0 
424.0003374459614 48594.0 NaN 1510.1857047428184 0.5035806144101446 519.0 2.0 359.0 
426.0003374459614 48610.0 NaN 1513.2825651302614 0.5082948027322999 517.0 3.0 359.0 
428.0003374459614 48587.0 NaN 1531.7969271877091 0.5033728411061116 520.0 2.0 366.0 
430.0003374459614 48581.0 NaN 1534.8483633934545 0.5034479435028728 522.0 4.0 365.0 
432.0003374459614 48567.0 NaN 1534.899131596527 0.5031909417114236 524.0 2.0 367.0 
434.0003374459614 48589.0 NaN 1531.906479625918 0.5032837300941313 523.0 4.0 364.0 
436.0003374459614 48580.0 NaN 1531.8637274549092 0.5045879812145098 524.0 2.0 366.0 
438.0003374459614 48574.0 NaN 1531.8289913159642 0.50546645206996 524.0 4.0 364.0 
440.0003374459614 48571.0 NaN 1534.856379425518 0.5109336634071815 526.0 2.0 367.0 
442.0003374459614 48545.0 NaN 1544.0374081496336 0.5122649617519244 526.0 4.0 368.0 
444.0003374459614 48543.0 NaN 1543.9866399465607 0.5061908392303105 527.0 2.0 370.0 
446.0003374459614 48546.0 NaN 1534.7548430193729 0.5061621757721964 527.0 3.0 366.0 
448.0003374459614 48513.0 NaN 1540.9058116232454 0.508430577472487 529.0 2.0 369.0 
450.0003374459614 48497.0 NaN 1544.0587842351363 0.5110341765628771 527.0 3.0 369.0 
452.0003374459614 48459.0 NaN 1547.155644622579 0.5020223371755667 527.0 3.0 370.0 
454.0003374459614 48467.0 NaN 1553.2879091516363 0.5042346766025512 525.0 4.0 371.0 
456.0003374459614 48479.0 NaN 1550.1002004008003 0.5068663408692902 528.0 3.0 371.0 
458.0003374459614 48438.0 NaN 1550.105544422179 0.5054571834956936 526.0 3.0 371.0 
460.0003374459614 48412.0 NaN 1553.2024048096182 0.5042870486167652 526.0 2.0 373.0 
462.0003374459614 48397.0 NaN 1550.2658650634608 0.5029317282423168 526.0 3.0 371.0 
464.0003374459614 48394.0 NaN 1550.2044088176365 0.5035404158166623 528.0 2.0 372.0 
466.0003374459614 48420.0 NaN 1553.2932531730119 0.5049545035154976 528.0 3.0 372.0 
468.0003374459614 48410.0 NaN 1543.938543754173 0.5063078506700153 528.0 2.0 370.0 
470.0003374459614 48401.0 NaN 1541.0153640614549 0.5042450515089407 525.0 3.0 368.0 
472.0003374459614 48394.0 NaN 1540.9191716766882 0.503097798702686 526.0 2.0 369.0 
474.0003374459614 48394.0 NaN 1528.5664662658642 0.5013750286329436 519.0 3.0 364.0 
476.0003374459614 48417.0 NaN 1528.6733466933879 0.5035537493869847 519.0 2.0 365.0 
478.0003374459614 48417.0 NaN 1528.6145624582489 0.5027992397936405 516.0 3.0 364.0 
480.0003374459614 48417.0 NaN 1528.6973947895797 0.5033269021669927 516.0 2.0 365.0 
482.0003374459614 48393.0 NaN 1528.6492985971938 0.5013023716036616 516.0 3.0 364.0 
484.0003374459614 48425.0 NaN 1522.463593854375 0.5014030965388592 517.0 2.0 363.0 
486.0003374459614 48451.0 NaN 1516.3740814963267 0.5036943519149556 514.0 3.0 360.0 
488.0003374459614 48477.0 NaN 1507.144956579827 0.5026727205153196 513.0 3.0 357.0 
490.0003374459614 48496.0 NaN 1504.2030728122909 0.5038079533608225 514.0 2.0 357.0 
492.0003374459614 48478.0 NaN 1504.06947227789 0.5024451228152621 510.0 2.0 357.0 
494.0003374459614 48516.0 NaN 1500.959251837008 0.5051242905010482 511.0 2.0 356.0 
496.0003374459614 48524.0 NaN 1497.8570474281908 0.5100394471583503 512.0 3.0 354.0 
498.0003374459614 48528.0 NaN 1491.7007348029383 0.5050802563140593 510.0 3.0 352.0 
500.0003374459614 48568.0 NaN 1491.8717434869734 0.509788349499414 509.0 3.0 352.0 
502.0003374459614 48528.0 NaN 1488.7481629926526 0.5080714523461651 512.0 2.0 352.0 
504.0003374459614 48550.0 NaN 1494.9098196392795 0.5046051204202336 513.0 3.0 353.0 
506.0003374459614 48571.0 NaN 1494.9552438209746 0.5032417584278153 514.0 2.0 354.0 
508.0003374459614 48602.0 NaN 1497.9799599198386 0.5050714701973856 511.0 3.0 354.0 
510.0003374459614 48626.0 NaN 1501.1436205744817 0.5049944761361497 511.0 2.0 356.0 
512.0003374459613 48609.0 NaN 1494.9098196392795 0.5021750860302632 508.0 3.0 353.0 
514.0003374459613 48626.0 NaN 1494.7521710086828 0.5028104507304828 509.0 2.0 354.0 
516.0003374459613 48641.0 NaN 1494.8082832331336 0.5057033278188348 509.0 2.0 354.0 
518.0003374459613 48646.0 NaN 1485.6192384769545 0.5090422119439705 510.0 2.0 351.0 
520.0003374459613 48634.0 NaN 1482.6800267201081 0.5079116600439021 508.0 2.0 350.0 
522.0003374459613 48615.0 NaN 1476.510354041417 0.5040259080923153 508.0 3.0 347.0 
524.0003374459613 48620.0 NaN 1476.5210420841693 0.503753393695262 509.0 2.0 348.0 
526.0003374459613 48645.0 NaN 1470.3647294589182 0.5049678287020574 504.0 3.0 345.0 
528.0003374459613 48669.0 NaN 1464.2618570474276 0.5058724040134434 510.0 2.0 344.0 
530.0003374459613 48650.0 NaN 1464.219104876419 0.5033244712296548 513.0 3.0 343.0 
532.0003374459613 48638.0 NaN 1473.4428857715438 0.5013440077544139 513.0 2.0 347.0 
534.0003374459613 48650.0 NaN 1473.4241816967271 0.5018329778227014 513.0 3.0 346.0 
536.0003374459613 48667.0 NaN 1473.4108216432878 0.5065879393121432 511.0 2.0 347.0 
538.0003374459613 48655.0 NaN 1470.300601202406 0.5111097266017649 511.0 3.0 345.0 
540.0003374459613 48670.0 NaN 1470.3059452237815 0.5123090788447865 512.0 2.0 346.0 
542.0003374459613 48671.0 NaN 1470.3540414161648 0.5071615799359431 511.0 3.0 345.0 
544.0003374459613 48667.0 NaN 1467.3132932531726 0.5052150728092952 511.0 2.0 345.0 
546.0003374459613 48658.0 NaN 1467.3613894455568 0.5089423221591752 510.0 3.0 344.0 
548.0003374459613 48638.0 NaN 1470.3353373413486 0.5029500198044097 513.0 2.0 346.0 
550.0003374459613 48662.0 NaN 1470.3513694054786 0.503082970388072 513.0 3.0 345.0 
552.0003374459613 48666.0 NaN 1470.2685370741474 0.5032769662345213 514.0 2.0 346.0 
554.0003374459613 48722.0 NaN 1467.174348697394 0.5079968970095567 514.0 3.0 344.0 
556.0003374459613 48662.0 NaN 1464.1683366733462 0.5070709632222704 512.0 2.0 344.0 
558.0003374459613 48668.0 NaN 1467.249164996661 0.5036697200662057 511.0 3.0 344.0 
560.0003374459613 48675.0 NaN 1458.1830327321302 0.5032016388634013 509.0 2.0 342.0 
562.0003374459613 48704.0 NaN 1461.0928523714092 0.5030560276211088 505.0 3.0 342.0 
564.0003374459613 48730.0 NaN 1464.1870407481633 0.5044280870922417 509.0 2.0 344.0 
566.0003374459613 48756.0 NaN 1464.0908483633932 0.5045259484087783 511.0 2.0 344.0 
568.0003374459613 48767.0 NaN 1473.3947895791575 0.5053889302238833 513.0 2.0 347.0 
570.0003374459613 48773.0 NaN 1476.5317301269195 0.5049718028911755 512.0 2.0 348.0 
572.0003374459613 48820.0 NaN 1485.795591182364 0.5061195169249125 513.0 2.0 351.0 
574.0003374459613 48845.0 NaN 1485.8089512358058 0.510146931754992 512.0 2.0 351.0 
576.0003374459613 48836.0 NaN 1488.8577154308623 0.5077165717139407 514.0 2.0 352.0 
578.0003374459613 48833.0 NaN 1485.7661990647969 0.5129273899917218 514.0 2.0 351.0 
580.0003374459613 48786.0 NaN 1488.7214428857726 0.508852694119645 513.0 2.0 352.0 
582.0003374459613 48806.0 NaN 1488.7428189712748 0.5059745438307972 514.0 2.0 352.0 
584.0003374459613 48820.0 NaN 1485.6566466265874 0.5039097727791405 514.0 2.0 351.0 
586.0003374459613 48805.0 NaN 1488.7909151636616 0.5017021243437673 518.0 2.0 352.0 
588.0003374459613 48823.0 NaN 1488.801603206412 0.5036835888449401 517.0 2.0 352.0 
590.0003374459613 48804.0 NaN 1491.9278557114237 0.5047355587096772 518.0 2.0 353.0 
592.0003374459613 48817.0 NaN 1498.0200400801616 0.5055648041017566 521.0 2.0 355.0 
594.0003374459613 48835.0 NaN 1488.761523046092 0.5057517916105363 522.0 2.0 352.0 
596.0003374459613 48836.0 NaN 1485.744822979291 0.5064526195117086 521.0 2.0 351.0 
598.0003374459613 48838.0 NaN 1485.7100868403468 0.5063256684038807 521.0 2.0 351.0 
600.0003374459613 48814.0 NaN 1488.7428189712746 0.5068397017948748 521.0 2.0 352.0 
602.0003374459613 48818.0 NaN 1497.9692718770877 0.5065004974285292 523.0 2.0 355.0 
604.0003374459613 48815.0 NaN 1497.907815631264 0.5044923051583705 521.0 2.0 355.0 
606.0003374459613 48838.0 NaN 1494.925851703408 0.5028794381923488 524.0 2.0 354.0 
608.0003374459613 48861.0 NaN 1494.9124916499654 0.5047561257476928 519.0 2.0 354.0 
610.0003374459613 48843.0 NaN 1495.006012024047 0.5053866474768858 520.0 2.0 354.0 
612.0003374459613 48853.0 NaN 1498.0895123580485 0.5058083846259757 520.0 2.0 355.0 
614.0003374459613 48841.0 NaN 1501.183700734802 0.5020945266443755 522.0 2.0 356.0 
616.0003374459613 48871.0 NaN 1507.3373413493648 0.5022481560340593 523.0 2.0 358.0 
618.0003374459613 48886.0 NaN 1516.42217768871 0.5071366143432829 522.0 2.0 361.0 
620.0003374459613 48883.0 NaN 1516.3901135604547 0.5134228179699556 521.0 2.0 361.0 
622.0003374459613 48814.0 NaN 1513.2505010020031 0.511182794806335 523.0 2.0 360.0 
624.0003374459613 48743.0 NaN 1516.336673346693 0.5027247403735907 522.0 2.0 361.0 
626.0003374459613 48754.0 NaN 1522.5784903139615 0.5025955320549166 522.0 2.0 363.0 
628.0003374459613 48771.0 NaN 1522.567802271209 0.5028586312602296 518.0 2.0 363.0 
630.0003374459613 48768.0 NaN 1522.7014028056099 0.5064778573797923 523.0 2.0 363.0 
632.0003374459613 48740.0 NaN 1522.6052104208425 0.5057769416627096 521.0 2.0 363.0 
634.0003374459613 48736.0 NaN 1519.529726118906 0.5034128582583351 526.0 2.0 362.0 
636.0003374459613 48728.0 NaN 1519.444221776888 0.5026180306668274 526.0 2.0 362.0 
638.0003374459613 48736.0 NaN 1519.5243820975272 0.5027182326354397 527.0 2.0 362.0 
640.0003374459613 48756.0 NaN 1516.4595858383448 0.5065837091411206 526.0 2.0 361.0 
642.0003374459613 48686.0 NaN 1519.5056780227114 0.5050565169973821 525.0 2.0 362.0 
644.0003374459613 48668.0 NaN 1522.5784903139618 0.5056832836281095 525.0 2.0 363.0 
646.0003374459613 48691.0 NaN 1519.532398129592 0.5063948530136198 526.0 2.0 362.0 
648.0003374459613 48712.0 NaN 1519.5056780227112 0.5052714863672865 525.0 2.0 362.0 
650.0003374459613 48702.0 NaN 1519.5698062792262 0.5103462037319462 523.0 2.0 362.0 
652.0003374459613 48649.0 NaN 1516.4248496993998 0.5082113287818838 521.0 2.0 361.0 
654.0003374459613 48629.0 NaN 1519.5644622578484 0.502666623302904 520.0 2.0 362.0 
656.0003374459613 48692.0 NaN 1528.785571142284 0.5085732510523517 517.0 2.0 365.0 
658.0003374459613 48712.0 NaN 1531.9198396793577 0.5078115065748733 516.0 2.0 366.0 
660.0003374459613 48689.0 NaN 1531.8530394121567 0.5076542947510305 514.0 2.0 366.0 
662.0003374459613 48671.0 NaN 1538.0173680694727 0.50286361827676 514.0 2.0 368.0 
664.0003374459613 48661.0 NaN 1537.8490313961263 0.5034623752419118 514.0 2.0 368.0 
#####################################################################
# End of data export. Simulation finished at: 2019-03-20T00:45+0000 #
#####################################################################
