#####################################################################
# Alchemist log file - simulation started at: 2019-03-06T15:37+0000 #
#####################################################################
# seed = 4.0, bandwidth = 74989.42093324558, propagationDelay = 0.31622776601683794, baserange = 177.82794100389228
#
# The columns have the following meaning: 
# time neighbor_count[Sum] <value>@neighbor_count[Sum] packet_size[Mean] mean_delay[Mean] crowd[Sum] overcrowded[Sum] risk[Sum] 
0.0 NaN NaN NaN NaN NaN NaN NaN 
2.0000496892919037 24763.0 NaN 4992.472945891784 0.47549762990644917 1497.0 0.0 1497.0 
4.000103030149191 26548.0 NaN 4993.70741482966 0.510572714069104 1494.0 3.0 1494.0 
6.000082792058605 26548.0 NaN 4996.034736138945 0.5105894984721249 1489.0 8.0 1489.0 
8.00002945120132 26552.0 NaN 4994.110888443553 0.5105760123650428 1489.0 8.0 1489.0 
10.000103030149189 26555.0 NaN 4994.666666666667 0.5105902833909984 1490.0 7.0 1490.0 
12.000242814630464 26561.0 NaN 4995.895791583166 0.5108030309133452 1491.0 6.0 1491.0 
14.000049689291902 26561.0 NaN 4994.102872411489 0.5110147343862715 1489.0 8.0 1489.0 
16.000082792058606 26566.0 NaN 4994.495657982632 0.5112734647683781 1489.0 8.0 1489.0 
18.000029451201318 26577.0 NaN 4995.962591850367 0.5131648372081244 1490.0 7.0 1490.0 
20.000049689291906 26585.0 NaN 4994.40213760855 0.5181853819381174 1490.0 7.0 1490.0 
22.00010303014919 26582.0 NaN 4994.482297929192 0.517571205326397 1489.0 8.0 1489.0 
24.000316393578338 26573.0 NaN 4995.820975283901 0.5115144863611603 1491.0 6.0 1491.0 
26.000049689291906 26603.0 NaN 4994.060120240481 0.5124831066586526 1489.0 8.0 1489.0 
28.000029451201318 26632.0 NaN 4994.629258517034 0.5167950109923152 1488.0 9.0 1488.0 
30.000242814630464 26637.0 NaN 4996.045424181697 0.5205211207252334 1492.0 5.0 1492.0 
32.000049689291906 26620.0 NaN 4994.15631262525 0.5143734948226877 1490.0 7.0 1490.0 
34.00010303014919 26617.0 NaN 4994.503674014696 0.5190718696006202 1489.0 8.0 1489.0 
36.0000827920586 26641.0 NaN 4995.837007348029 0.5189491070277094 1490.0 7.0 1490.0 
38.000029451201314 26656.0 NaN 4994.26586506346 0.5139845057909579 1488.0 9.0 1488.0 
40.00010303014919 26661.0 NaN 4994.810955243821 0.516441678361398 1490.0 7.0 1490.0 
42.00024281463046 26640.0 NaN 4995.826319305277 0.5117581804371123 1491.0 6.0 1491.0 
44.000049689291906 26636.0 NaN 4994.183032732131 0.5133593758250705 1489.0 8.0 1489.0 
46.0000827920586 26666.0 NaN 4994.517034068136 0.5170215713732684 1488.0 9.0 1488.0 
48.000029451201314 26696.0 NaN 4996.010688042752 0.5211333850168786 1489.0 8.0 1489.0 
50.000049689291906 26700.0 NaN 4994.378089512358 0.5175884252332087 1491.0 6.0 1491.0 
52.00010303014919 26675.0 NaN 4994.463593854375 0.5158552813585082 1490.0 7.0 1490.0 
54.00031639357834 26672.0 NaN 4995.823647294589 0.5183055555168844 1491.0 6.0 1491.0 
56.000049689291906 26679.0 NaN 4994.140280561122 0.5124708564270307 1490.0 7.0 1490.0 
58.000029451201314 26692.0 NaN 4994.559786239145 0.5146680036991201 1490.0 7.0 1490.0 
60.00024281463046 26687.0 NaN 4996.088176352705 0.5185492117996773 1492.0 5.0 1492.0 
62.00047933655907 26665.0 NaN 1522.5544422177697 0.5075845710785473 806.0 7.0 358.0 
64.00042902272939 26668.0 NaN 1522.7094188376752 0.5138183626262484 646.0 8.0 357.0 
66.00047933655907 26677.0 NaN 1525.6806947227794 0.5084206471049928 583.0 9.0 357.0 
68.00047933655907 26748.0 NaN 1525.6833667334663 0.5118501185769628 558.0 11.0 355.0 
70.00047933655907 26772.0 NaN 1525.699398797594 0.5165455849768086 542.0 9.0 357.0 
72.00047933655907 26781.0 NaN 1525.742150968603 0.5156741416457036 533.0 8.0 358.0 
74.00042902272939 26774.0 NaN 1531.9171676686724 0.5141211970503793 522.0 9.0 359.0 
76.00047933655907 26775.0 NaN 1531.9038076152299 0.516952399213595 521.0 9.0 359.0 
78.00047933655907 26810.0 NaN 1535.0167000667998 0.5094701387340421 521.0 8.0 361.0 
80.00047933655907 26808.0 NaN 1538.0093520374091 0.5119271161826716 520.0 9.0 361.0 
82.00047933655907 26820.0 NaN 1537.9719438877753 0.5143899992391182 522.0 8.0 362.0 
84.00042902272939 26820.0 NaN 1538.097528390112 0.5220278745791197 525.0 6.0 364.0 
86.00047933655907 26790.0 NaN 1538.0013360053451 0.5163524558993416 522.0 7.0 363.0 
88.00047933655907 26797.0 NaN 1538.1215764863064 0.5081966926029541 522.0 7.0 363.0 
90.00047933655907 26816.0 NaN 1538.054776219106 0.5081759695179666 523.0 6.0 364.0 
92.00047933655907 26835.0 NaN 1537.9585838343364 0.5129994612208199 522.0 7.0 363.0 
94.00042902272939 26829.0 NaN 1538.0307281229123 0.5210332908935495 520.0 7.0 363.0 
96.00047933655907 26784.0 NaN 1538.0494321977276 0.5176974236860723 521.0 6.0 364.0 
98.00047933655907 26785.0 NaN 1537.9959919839666 0.5088568257269172 520.0 7.0 363.0 
100.00047933655907 26791.0 NaN 1541.1115564462268 0.5096970518816436 519.0 8.0 363.0 
102.00047933655907 26788.0 NaN 1541.0768203072819 0.5117377478081809 521.0 6.0 365.0 
104.00042902272939 26790.0 NaN 1541.0581162324638 0.5170866430195189 522.0 5.0 366.0 
106.00047933655907 26757.0 NaN 1541.0420841683363 0.5135617152523005 519.0 8.0 363.0 
108.00047933655907 26818.0 NaN 1541.092852371409 0.5110761045605514 519.0 7.0 364.0 
110.00047933655907 26833.0 NaN 1540.999331997327 0.5134415020181688 519.0 8.0 363.0 
112.00047933655907 26832.0 NaN 1541.0233800935187 0.5136841417461562 519.0 8.0 363.0 
114.00042902272939 26831.0 NaN 1541.098196392785 0.5198223857980496 520.0 7.0 364.0 
116.00047933655907 26777.0 NaN 1540.9966599866395 0.517133947818354 519.0 8.0 363.0 
118.00047933655907 26796.0 NaN 1541.0848363393457 0.5107900916698039 521.0 8.0 363.0 
120.00047933655907 26797.0 NaN 1550.2845691382756 0.5148484085158128 522.0 7.0 367.0 
122.00047933655907 26790.0 NaN 1550.209752839009 0.5130418886327538 520.0 9.0 365.0 
124.00042902272939 26794.0 NaN 1550.3353373413483 0.516585462084133 520.0 9.0 365.0 
126.00047933655907 26707.0 NaN 1550.249832999333 0.5113254845275066 520.0 8.0 366.0 
128.00047933655907 26718.0 NaN 1547.174348697394 0.510581403247262 519.0 9.0 364.0 
130.00047933655907 26712.0 NaN 1547.2491649966607 0.5137207275708898 519.0 9.0 364.0 
132.00047933655907 26726.0 NaN 1544.1469605878426 0.5160585702578979 520.0 8.0 364.0 
134.0004290227294 26728.0 NaN 1541.1035404141637 0.5132632944486796 518.0 10.0 361.0 
136.00047933655907 26703.0 NaN 1541.0848363393457 0.510301201960696 514.0 11.0 360.0 
138.00047933655907 26694.0 NaN 1544.2271209084818 0.5079766276537295 515.0 8.0 364.0 
140.00047933655907 26689.0 NaN 1541.0046760187029 0.5090979116508163 515.0 7.0 364.0 
142.00047933655907 26735.0 NaN 1547.1850367401457 0.5131790219289337 517.0 6.0 367.0 
144.0004290227294 26735.0 NaN 1550.4154976619911 0.515162001670041 517.0 7.0 367.0 
146.00047933655907 26675.0 NaN 1547.1770207080817 0.5064602985854655 517.0 6.0 367.0 
148.00047933655907 26667.0 NaN 1553.402805611221 0.5060050670645976 515.0 6.0 369.0 
150.00047933655907 26677.0 NaN 1553.4749498998 0.5060013702897723 514.0 6.0 369.0 
152.00047933655907 26683.0 NaN 1550.2444889779545 0.5048920579290128 514.0 7.0 367.0 
154.0004290227294 26696.0 NaN 1544.2244488977972 0.5068219532555652 510.0 8.0 364.0 
156.00047933655907 26669.0 NaN 1544.269873079491 0.5078176675251975 509.0 7.0 365.0 
158.00047933655907 26652.0 NaN 1544.1710086840362 0.5122532737595417 512.0 6.0 366.0 
160.00047933655907 26672.0 NaN 1544.1736806947245 0.5142839074234781 514.0 5.0 367.0 
162.00047933655907 26664.0 NaN 1544.1977287909153 0.5100352130047233 514.0 5.0 367.0 
164.0004290227294 26655.0 NaN 1544.152304609218 0.515000291296467 515.0 6.0 366.0 
166.00047933655907 26596.0 NaN 1544.1442885771546 0.5121799588383082 512.0 7.0 365.0 
168.00047933655907 26586.0 NaN 1544.267201068803 0.5101478128622378 511.0 9.0 363.0 
170.00047933655907 26608.0 NaN 1541.063460253842 0.5142406944146741 511.0 8.0 363.0 
172.00047933655907 26591.0 NaN 1544.146960587843 0.510803367206875 509.0 8.0 364.0 
174.0004290227294 26592.0 NaN 1538.1215764863066 0.515158452450521 511.0 8.0 362.0 
176.00047933655907 26557.0 NaN 1541.0981963927845 0.5060580186028838 513.0 7.0 364.0 
178.00047933655907 26557.0 NaN 1541.095524382098 0.5084246209852233 512.0 7.0 364.0 
180.00047933655907 26581.0 NaN 1541.122244488979 0.5121861646703714 513.0 6.0 365.0 
182.00047933655907 26556.0 NaN 1537.969271877088 0.5108555283527061 512.0 7.0 363.0 
184.0004290227294 26538.0 NaN 1538.0334001335998 0.5181309739490714 511.0 7.0 363.0 
186.00047933655907 26479.0 NaN 1541.1088844355363 0.517276563943418 507.0 11.0 360.0 
188.00047933655907 26471.0 NaN 1538.020040080161 0.5092167823036557 508.0 10.0 360.0 
190.00047933655907 26485.0 NaN 1534.8964595858363 0.514819518065774 506.0 11.0 358.0 
192.00047933655907 26486.0 NaN 1538.0360721442908 0.5147909095323732 507.0 10.0 360.0 
194.0004290227294 26462.0 NaN 1537.9959919839666 0.5174613462005401 506.0 11.0 359.0 
196.00047933655907 26406.0 NaN 1537.9265197060793 0.5211761573421527 507.0 10.0 360.0 
198.00047933655907 26405.0 NaN 1538.020040080161 0.5144271775598135 507.0 11.0 359.0 
200.00047933655907 26401.0 NaN 1537.9906479625906 0.5166321842232133 508.0 10.0 360.0 
202.00047933655907 26390.0 NaN 1544.0801603206426 0.5189267060117166 508.0 11.0 361.0 
204.0004290227294 26365.0 NaN 1547.3213092852363 0.5212108505589406 509.0 10.0 363.0 
206.00047933655907 26330.0 NaN 1544.0855043420183 0.5108967128317734 508.0 11.0 361.0 
208.00047933655907 26343.0 NaN 1541.0153640614546 0.5196711338390817 507.0 11.0 360.0 
210.00047933655907 26337.0 NaN 1537.9372077488301 0.5263511351569387 506.0 11.0 359.0 
212.00047933655907 26296.0 NaN 1537.902471609888 0.5165941988184837 507.0 11.0 359.0 
214.0004290227294 26274.0 NaN 1540.9325317301273 0.5129180669191564 507.0 10.0 361.0 
216.00047933655907 26255.0 NaN 1537.923847695391 0.5197136548965383 512.0 6.0 364.0 
218.00047933655907 26261.0 NaN 1537.8784235136934 0.5234560116182441 508.0 6.0 364.0 
220.00047933655907 26250.0 NaN 1537.8517034068154 0.5236070578925334 507.0 6.0 364.0 
222.00047933655907 26211.0 NaN 1534.8857715430852 0.522431221526572 508.0 6.0 363.0 
224.0004290227294 26204.0 NaN 1534.8670674682703 0.5193639869834998 508.0 6.0 363.0 
226.00047933655907 26141.0 NaN 1537.8784235136934 0.5154333681129846 507.0 6.0 364.0 
228.00047933655907 26145.0 NaN 1544.146960587843 0.5075910931827744 507.0 8.0 364.0 
230.00047933655907 26136.0 NaN 1544.0908483633934 0.5108558232014039 507.0 7.0 365.0 
232.00047933655907 26088.0 NaN 1544.0828323313274 0.5139083083179141 508.0 5.0 367.0 
234.0004290227294 26079.0 NaN 1547.2651970607885 0.5203068300786707 508.0 7.0 366.0 
236.00047933655907 26044.0 NaN 1544.0480961923843 0.5100949472875349 501.0 13.0 359.0 
238.00047933655907 26071.0 NaN 1541.0126920507662 0.5099859921025516 506.0 5.0 366.0 
240.00047933655907 26110.0 NaN 1537.9746158984635 0.519061844477018 510.0 4.0 366.0 
242.00047933655907 26074.0 NaN 1534.86706746827 0.527376994760011 511.0 2.0 367.0 
244.0004290227294 26059.0 NaN 1534.9392117568457 0.5156994482954864 508.0 4.0 365.0 
246.00047933655907 26007.0 NaN 1534.9205076820301 0.5067419157846775 513.0 2.0 367.0 
248.00047933655907 26034.0 NaN 1534.8296593186365 0.5124639665316626 511.0 3.0 366.0 
250.00047933655907 26027.0 NaN 1534.880427521709 0.517599623635971 509.0 4.0 365.0 
252.00047933655907 26003.0 NaN 1531.7889111556456 0.5144676747866467 510.0 3.0 365.0 
254.0004290227294 25995.0 NaN 1528.6519706078818 0.5138140177994271 509.0 3.0 364.0 
256.00047933655907 25932.0 NaN 1528.7134268537088 0.5091262578549207 507.0 6.0 361.0 
258.00047933655907 25952.0 NaN 1528.7428189712755 0.513734529779973 509.0 5.0 362.0 
260.00047933655907 25926.0 NaN 1525.5657982631913 0.5162776184599972 512.0 3.0 363.0 
262.00047933655907 25878.0 NaN 1528.7000668002665 0.5104434737972825 510.0 4.0 363.0 
264.0004290227294 25874.0 NaN 1528.8149632598543 0.512949730048144 512.0 4.0 363.0 
266.00047933655907 25827.0 NaN 1544.1068804275205 0.5097996763703397 505.0 7.0 365.0 
268.00047933655907 25832.0 NaN 1544.1816967267885 0.5134721573602623 508.0 4.0 368.0 
270.00047933655907 25819.0 NaN 1541.0554442217751 0.5159155199545645 508.0 5.0 366.0 
272.00047933655907 25771.0 NaN 1537.9452237808935 0.5139612184020751 507.0 5.0 365.0 
274.0004290227294 25749.0 NaN 1534.9498997996 0.5174229025464873 504.0 5.0 364.0 
276.00047933655907 25671.0 NaN 1538.0173680694727 0.5064740242942553 508.0 4.0 366.0 
278.00047933655907 25703.0 NaN 1541.0634602538423 0.5090258219286484 506.0 6.0 365.0 
280.00047933655907 25708.0 NaN 1541.0634602538423 0.5102774660394193 507.0 5.0 366.0 
282.00047933655907 25717.0 NaN 1540.9752839011364 0.5143545615177639 512.0 4.0 367.0 
284.0004290227294 25721.0 NaN 1534.880427521709 0.52025662160638 512.0 3.0 366.0 
286.00047933655907 25693.0 NaN 1534.8724114896452 0.511639036587926 510.0 4.0 365.0 
288.00047933655907 25709.0 NaN 1534.917835671343 0.5121452286058203 510.0 3.0 366.0 
290.00047933655907 25714.0 NaN 1531.730126920509 0.520537622550432 506.0 4.0 364.0 
292.00047933655907 25685.0 NaN 1531.7808951235818 0.5220950260481316 507.0 3.0 365.0 
294.0004290227294 25665.0 NaN 1537.9559118236455 0.523263370164724 507.0 4.0 366.0 
296.00047933655907 25606.0 NaN 1537.929191716766 0.509421567897977 508.0 3.0 367.0 
298.00047933655907 25636.0 NaN 1537.9719438877748 0.5097418675552606 507.0 4.0 366.0 
300.00047933655907 25623.0 NaN 1541.0367401469612 0.5113591972226773 507.0 3.0 368.0 
302.00047933655907 25571.0 NaN 1537.8891115564454 0.5100815693503117 507.0 4.0 366.0 
304.0004290227294 25571.0 NaN 1538.0387441549753 0.5165694519725509 507.0 3.0 367.0 
306.00047933655907 25534.0 NaN 1534.9392117568455 0.5135097457506782 507.0 4.0 365.0 
308.00047933655907 25551.0 NaN 1531.8824315297275 0.5217640187856607 505.0 3.0 365.0 
310.00047933655907 25568.0 NaN 1531.8129592518362 0.5259916746372287 504.0 4.0 364.0 
312.00047933655907 25504.0 NaN 1534.9392117568455 0.5207691954728503 504.0 3.0 366.0 
314.0004290227294 25482.0 NaN 1534.8483633934547 0.5142259983922401 505.0 5.0 364.0 
316.00047933655907 25443.0 NaN 1531.78356713427 0.5117902519513353 507.0 4.0 364.0 
318.00047933655907 25443.0 NaN 1534.888443553773 0.5157541150832996 507.0 4.0 365.0 
320.00047933655907 25432.0 NaN 1534.8590514362063 0.5213989720980585 504.0 4.0 365.0 
322.00047933655907 25435.0 NaN 1531.8022712090844 0.5147358121941326 505.0 3.0 365.0 
324.0004290227294 25421.0 NaN 1531.8797595190365 0.518798514654671 505.0 4.0 364.0 
326.00047933655907 25356.0 NaN 1531.7274549098183 0.5143338339747974 501.0 6.0 362.0 
328.00047933655907 25367.0 NaN 1534.8563794255183 0.5203257307492491 502.0 6.0 363.0 
330.00047933655907 25387.0 NaN 1531.7702070808273 0.5275908986558203 504.0 5.0 363.0 
332.00047933655907 25379.0 NaN 1528.6305945223787 0.5123262605994634 502.0 5.0 362.0 
334.0004290227294 25362.0 NaN 1534.8991315965272 0.5085370400343243 503.0 5.0 364.0 
336.00047933655907 25324.0 NaN 1525.6967267869088 0.5056042867707119 500.0 6.0 360.0 
338.00047933655907 25351.0 NaN 1525.6352705410818 0.5090788891458029 503.0 5.0 361.0 
340.00047933655907 25366.0 NaN 1525.6379425517703 0.5125774583407627 505.0 5.0 361.0 
342.00047933655907 25345.0 NaN 1525.7047428189724 0.509535740461303 505.0 5.0 361.0 
344.0004290227294 25339.0 NaN 1528.6867067468274 0.5161821173533542 508.0 3.0 364.0 
346.00047933655907 25346.0 NaN 1534.880427521709 0.5177313786546414 511.0 4.0 365.0 
348.00047933655907 25362.0 NaN 1531.7969271877091 0.5148529537440771 508.0 6.0 362.0 
350.00047933655907 25363.0 NaN 1525.5951903807631 0.5140190179133892 504.0 7.0 359.0 
352.00047933655907 25361.0 NaN 1525.6486305945211 0.5105530339926352 507.0 8.0 358.0 
354.0004290227294 25361.0 NaN 1525.6058784235122 0.5157617053984448 508.0 6.0 360.0 
356.00047933655907 25310.0 NaN 1525.5818303273206 0.5108693971730612 510.0 4.0 362.0 
358.00047933655907 25317.0 NaN 1525.6245824983298 0.5090393155297004 511.0 3.0 363.0 
360.00047933655907 25314.0 NaN 1525.5845023380089 0.5112898514895051 510.0 4.0 362.0 
362.00047933655907 25303.0 NaN 1525.568470273882 0.514571542409727 514.0 3.0 363.0 
364.0004290227294 25289.0 NaN 1525.5951903807631 0.5198927597426797 511.0 4.0 362.0 
366.00047933655907 25262.0 NaN 1516.4248496993998 0.5137041928630516 512.0 3.0 360.0 
368.00047933655907 25268.0 NaN 1510.2658650634605 0.5120689981717242 511.0 4.0 357.0 
370.00047933655907 25260.0 NaN 1504.0 0.5131054892223346 514.0 3.0 356.0 
372.00047933655907 25257.0 NaN 1510.239144956581 0.5173568359052221 512.0 4.0 357.0 
374.0004290227294 25237.0 NaN 1507.1422845691375 0.5222792546213313 514.0 3.0 357.0 
376.00047933655907 25167.0 NaN 1507.1128924515704 0.5189902447131041 513.0 4.0 356.0 
378.00047933655907 25179.0 NaN 1507.190380761524 0.5129017704600463 515.0 3.0 357.0 
380.00047933655907 25187.0 NaN 1507.128924515699 0.5193543470522257 516.0 4.0 356.0 
382.00047933655907 25169.0 NaN 1510.2124248497 0.5212803523173489 512.0 5.0 356.0 
384.0004290227294 25155.0 NaN 1510.2925851703396 0.5182777563075117 508.0 7.0 354.0 
386.00047933655907 25111.0 NaN 1516.3607214428848 0.5077133037347676 512.0 6.0 357.0 
388.00047933655907 25123.0 NaN 1516.4943219772886 0.506732734129308 509.0 8.0 355.0 
390.00047933655907 25120.0 NaN 1510.3193052772203 0.5069649304983038 513.0 6.0 355.0 
392.00047933655907 25125.0 NaN 1510.3246492985977 0.5131943929959607 512.0 6.0 355.0 
394.0004290227294 25116.0 NaN 1510.3807615230455 0.5222110048498978 515.0 2.0 359.0 
396.00047933655907 25044.0 NaN 1513.432197728791 0.5196384475639049 513.0 5.0 357.0 
398.00047933655907 25054.0 NaN 1507.19305277221 0.5268212382811164 515.0 5.0 355.0 
400.00047933655907 25047.0 NaN 1504.1496325985297 0.5186076656195722 515.0 5.0 354.0 
402.00047933655907 25040.0 NaN 1510.3513694054789 0.5123480591632051 517.0 3.0 358.0 
404.0004290227294 25027.0 NaN 1507.2090848363387 0.5153604475588313 518.0 3.0 357.0 
406.00047933655907 24990.0 NaN 1510.2364729458911 0.5076815791337485 519.0 3.0 358.0 
408.00047933655907 25011.0 NaN 1513.3814295257184 0.5094636937475807 514.0 6.0 356.0 
410.00047933655907 25006.0 NaN 1516.4515698062796 0.5131749458629185 516.0 5.0 358.0 
412.00047933655907 24999.0 NaN 1522.6452905811632 0.5125414096852745 518.0 4.0 361.0 
414.0004290227294 24979.0 NaN 1525.7261189044752 0.5162543430469834 517.0 5.0 361.0 
416.00047933655907 24955.0 NaN 1519.486973947897 0.5116865962930062 516.0 7.0 357.0 
418.00047933655907 24950.0 NaN 1513.3493653974629 0.5075971473907016 514.0 7.0 355.0 
420.00047933655907 24955.0 NaN 1507.2598530394114 0.5094402309476841 509.0 8.0 352.0 
422.00047933655907 24952.0 NaN 1510.300601202406 0.5108774805627995 511.0 4.0 357.0 
424.0004290227294 24926.0 NaN 1510.3460253841008 0.5133640538365586 512.0 4.0 357.0 
426.00047933655907 24896.0 NaN 1507.217100868403 0.5109500851253569 515.0 2.0 358.0 
428.00047933655907 24891.0 NaN 1513.360053440215 0.5136001121082564 512.0 5.0 357.0 
430.00047933655907 24902.0 NaN 1507.1743486973937 0.5062392562103639 518.0 4.0 356.0 
432.00047933655907 24887.0 NaN 1513.3066132264537 0.5072805839155207 520.0 4.0 358.0 
434.0004290227294 24899.0 NaN 1519.4762859051448 0.5138763473354316 523.0 2.0 362.0 
436.00047933655907 24843.0 NaN 1522.5384101536395 0.5069758887333728 520.0 5.0 360.0 
438.00047933655907 24860.0 NaN 1525.6432865731456 0.5063506327211298 521.0 4.0 362.0 
440.00047933655907 24886.0 NaN 1528.710754843018 0.510939337821724 523.0 4.0 363.0 
442.00047933655907 24881.0 NaN 1528.6225784903154 0.5122740684421475 526.0 2.0 365.0 
444.0004290227294 24866.0 NaN 1528.7267869071459 0.5101822214877311 522.0 5.0 362.0 
446.00047933655907 24858.0 NaN 1525.5684702738818 0.5073705961917359 523.0 4.0 362.0 
448.00047933655907 24858.0 NaN 1531.8022712090844 0.504637280184496 521.0 4.0 364.0 
450.00047933655907 24891.0 NaN 1547.209084836339 0.5107552194706356 526.0 2.0 371.0 
452.00047933655907 24926.0 NaN 1550.2792251168999 0.5194015477761785 522.0 5.0 369.0 
454.0004290227294 24909.0 NaN 1550.2418169672665 0.5118184722722591 523.0 4.0 370.0 
456.00047933655907 24873.0 NaN 1550.2712090848363 0.5088244151277403 521.0 4.0 370.0 
458.00047933655907 24871.0 NaN 1550.1670006680026 0.509484248005915 523.0 2.0 372.0 
460.00047933655907 24886.0 NaN 1547.1048764195061 0.508276020971602 521.0 5.0 368.0 
462.00047933655907 24909.0 NaN 1544.0721442885763 0.5099731172662841 518.0 4.0 368.0 
464.0004290227294 24905.0 NaN 1544.061456245827 0.5179818436460103 519.0 4.0 368.0 
466.00047933655907 24882.0 NaN 1543.967935871745 0.5243975152467802 523.0 2.0 370.0 
468.00047933655907 24888.0 NaN 1544.0026720106885 0.5217710630482482 519.0 5.0 367.0 
470.00047933655907 24888.0 NaN 1544.0106880427525 0.5170190639475735 521.0 4.0 368.0 
472.00047933655907 24888.0 NaN 1540.8924515698068 0.5111074556537537 521.0 4.0 367.0 
474.0004290227294 24895.0 NaN 1531.8049432197727 0.514329281618564 519.0 2.0 366.0 
476.00047933655907 24873.0 NaN 1522.5784903139618 0.5141183766758619 516.0 4.0 361.0 
478.00047933655907 24891.0 NaN 1522.4689378757523 0.5143418293953996 515.0 6.0 359.0 
480.00047933655907 24893.0 NaN 1522.5090180360728 0.5138579441167151 511.0 9.0 356.0 
482.00047933655907 24903.0 NaN 1525.5497661990637 0.5128512612699772 512.0 8.0 358.0 
484.0004290227294 24885.0 NaN 1525.5738142952566 0.5166889557041041 511.0 9.0 357.0 
486.00047933655907 24933.0 NaN 1513.2611890447554 0.5086423810363506 508.0 9.0 353.0 
488.00047933655907 24932.0 NaN 1510.2257849031387 0.510045955296644 506.0 10.0 351.0 
490.00047933655907 24916.0 NaN 1491.7675350701393 0.511165619123714 505.0 9.0 346.0 
492.00047933655907 24921.0 NaN 1491.7862391449557 0.5117273785689822 504.0 10.0 345.0 
494.0004290227294 24924.0 NaN 1494.773547094189 0.5136477100562682 505.0 7.0 349.0 
496.00047933655907 24925.0 NaN 1494.786907147628 0.5120618445925449 501.0 7.0 349.0 
498.00047933655907 24925.0 NaN 1491.7568470273889 0.5085380277857505 501.0 6.0 349.0 
500.00047933655907 24934.0 NaN 1488.6519706078818 0.5135699944202483 503.0 6.0 348.0 
502.00047933655907 24952.0 NaN 1482.533066132264 0.5202388764659006 507.0 7.0 345.0 
504.0004290227294 24961.0 NaN 1485.6700066800274 0.5161732672947607 504.0 7.0 346.0 
506.00047933655907 24944.0 NaN 1491.7087508350028 0.5120179543539676 507.0 5.0 350.0 
508.00047933655907 24935.0 NaN 1485.6112224448907 0.5088630672414373 507.0 5.0 348.0 
510.00047933655907 24934.0 NaN 1491.79425517702 0.5127552356397272 507.0 3.0 352.0 
512.000479336559 24993.0 NaN 1491.7434869739473 0.5139397449700214 510.0 3.0 352.0 
514.0004290227293 24991.0 NaN 1482.527722110889 0.515430307523795 511.0 3.0 349.0 
516.000479336559 25001.0 NaN 1476.4649298597187 0.5165761580711626 506.0 6.0 344.0 
518.000479336559 24993.0 NaN 1464.1736806947242 0.5107120065442392 506.0 5.0 341.0 
520.000479336559 24989.0 NaN 1461.0474281897118 0.513115315797239 504.0 5.0 340.0 
522.000479336559 25035.0 NaN 1461.1142284569148 0.5129431437127917 504.0 4.0 341.0 
524.0004290227293 25041.0 NaN 1461.0607882431536 0.5166768538604769 500.0 6.0 339.0 
526.000479336559 25020.0 NaN 1454.9071476285908 0.5148493196230289 500.0 4.0 339.0 
528.000479336559 25029.0 NaN 1451.8770875083487 0.5176163033584972 496.0 6.0 336.0 
530.000479336559 25059.0 NaN 1451.7461589846362 0.5150564824996396 498.0 6.0 336.0 
532.000479336559 25051.0 NaN 1461.1035404141624 0.5082877021018307 495.0 8.0 337.0 
534.0004290227293 25055.0 NaN 1461.151636606546 0.5119215372863061 494.0 8.0 337.0 
536.000479336559 25035.0 NaN 1458.0066800267193 0.5136520924343577 496.0 9.0 335.0 
538.000479336559 25040.0 NaN 1461.1222444889786 0.5129786580739346 495.0 10.0 335.0 
540.000479336559 25038.0 NaN 1461.167668670674 0.5184627324547789 496.0 9.0 336.0 
542.000479336559 25010.0 NaN 1470.4048096192375 0.5128399376444306 497.0 8.0 340.0 
544.0004290227293 25009.0 NaN 1473.4722778891114 0.5121921123529717 502.0 7.0 342.0 
546.000479336559 24987.0 NaN 1470.354041416165 0.5133400854404984 503.0 4.0 344.0 
548.000479336559 25002.0 NaN 1464.104208416834 0.5111647958579965 504.0 4.0 342.0 
550.000479336559 25000.0 NaN 1467.1262525050095 0.5115208245428066 504.0 6.0 341.0 
552.000479336559 24992.0 NaN 1467.2224448897805 0.5051439178136266 497.0 10.0 337.0 
554.0004290227293 25013.0 NaN 1467.2411489645965 0.508111265018381 501.0 7.0 340.0 
556.000479336559 25028.0 NaN 1467.2384769539083 0.5115789449263223 505.0 5.0 342.0 
558.000479336559 25034.0 NaN 1467.2545090180365 0.5129483447647011 505.0 6.0 341.0 
560.000479336559 25021.0 NaN 1458.030728122913 0.5076930439438269 499.0 6.0 338.0 
562.000479336559 25030.0 NaN 1458.0146960587845 0.5083892294688737 497.0 7.0 337.0 
564.0004290227293 25053.0 NaN 1454.9632598530395 0.512746124155922 496.0 9.0 334.0 
566.000479336559 25068.0 NaN 1461.1088844355374 0.5159325441013487 497.0 7.0 338.0 
568.000479336559 25068.0 NaN 1482.837675350701 0.5191722773084266 501.0 6.0 346.0 
570.000479336559 25053.0 NaN 1482.741482965931 0.5169097725269457 506.0 3.0 349.0 
572.000479336559 25058.0 NaN 1479.6713426853714 0.5146419366444499 505.0 5.0 346.0 
574.0004290227293 25063.0 NaN 1476.6199064796265 0.5192986345708288 505.0 3.0 347.0 
576.000479336559 25076.0 NaN 1479.6713426853714 0.5171818254236021 502.0 6.0 345.0 
578.000479336559 25073.0 NaN 1479.6820307281237 0.5118330585636448 503.0 4.0 347.0 
580.000479336559 25099.0 NaN 1485.8116232464922 0.5125859164844495 505.0 5.0 348.0 
582.000479336559 25109.0 NaN 1485.8276553106205 0.5154509047300379 508.0 4.0 349.0 
584.0004290227293 25094.0 NaN 1485.792919171676 0.5206896269174428 505.0 5.0 348.0 
586.000479336559 25109.0 NaN 1485.808951235806 0.5135649656121299 509.0 4.0 349.0 
588.000479336559 25123.0 NaN 1485.8410153640623 0.5046907868643531 513.0 5.0 348.0 
590.000479336559 25153.0 NaN 1488.8096192384758 0.5066313488229576 518.0 3.0 351.0 
592.000479336559 25175.0 NaN 1488.8069472277896 0.5119057467104607 517.0 5.0 349.0 
594.0004290227293 25181.0 NaN 1491.9305277221104 0.5158169953953523 520.0 4.0 351.0 
596.000479336559 25148.0 NaN 1488.8336673346696 0.5120444511458703 524.0 5.0 349.0 
598.000479336559 25150.0 NaN 1491.8370073480287 0.5143942692669137 521.0 6.0 349.0 
600.000479336559 25128.0 NaN 1491.8476953907818 0.5114898158048422 522.0 6.0 349.0 
602.000479336559 25174.0 NaN 1501.0394121576476 0.5134152090743466 527.0 4.0 354.0 
604.0004290227293 25217.0 NaN 1501.132932531729 0.5151045695901619 524.0 5.0 353.0 
606.000479336559 25218.0 NaN 1501.1115564462261 0.5174132098822971 523.0 6.0 352.0 
608.000479336559 25248.0 NaN 1507.1877087508353 0.5236360228143067 520.0 6.0 354.0 
610.000479336559 25238.0 NaN 1513.3734134936547 0.5238427899201078 522.0 5.0 357.0 
612.000479336559 25269.0 NaN 1510.3700734802928 0.5226727867841368 521.0 5.0 356.0 
614.0004290227293 25271.0 NaN 1507.1609886439546 0.5208647867041586 521.0 4.0 356.0 
616.000479336559 25237.0 NaN 1507.2438209752827 0.5167058044583682 522.0 5.0 355.0 
618.000479336559 25198.0 NaN 1507.2117568470271 0.5092549204930105 522.0 5.0 355.0 
620.000479336559 25212.0 NaN 1513.3841015364071 0.5101616536467638 519.0 7.0 355.0 
622.000479336559 25278.0 NaN 1528.7935871743477 0.5175475855920026 520.0 7.0 360.0 
624.0004290227293 25283.0 NaN 1525.6967267869084 0.5198940763463707 520.0 6.0 360.0 
626.000479336559 25246.0 NaN 1528.8042752171 0.5151245198732879 520.0 5.0 362.0 
628.000479336559 25244.0 NaN 1525.6913827655303 0.5154770206909647 519.0 7.0 359.0 
630.000479336559 25199.0 NaN 1519.5671342685364 0.5129308313248178 516.0 8.0 356.0 
632.000479336559 25223.0 NaN 1522.6132264529067 0.5135724748394276 513.0 8.0 357.0 
634.0004290227293 25231.0 NaN 1519.553774215098 0.5205488841608866 513.0 8.0 356.0 
636.000479336559 25213.0 NaN 1522.6987307949241 0.5096427227255275 519.0 8.0 357.0 
638.000479336559 25228.0 NaN 1519.556446225784 0.513223148357597 522.0 8.0 356.0 
640.000479336559 25183.0 NaN 1519.5724782899122 0.5143566496775029 521.0 8.0 356.0 
642.000479336559 25185.0 NaN 1525.792919171676 0.5128309666211752 522.0 7.0 359.0 
644.0004290227293 25196.0 NaN 1522.6346025384091 0.5162245893251921 522.0 9.0 356.0 
646.000479336559 25194.0 NaN 1522.746826987309 0.5113953612967752 523.0 6.0 359.0 
648.000479336559 25198.0 NaN 1525.80093520374 0.5093681017380796 521.0 5.0 361.0 
650.000479336559 25159.0 NaN 1522.637274549099 0.5117565253489244 519.0 4.0 361.0 
652.000479336559 25185.0 NaN 1525.742150968603 0.5185253059155751 516.0 6.0 360.0 
654.0004290227293 25174.0 NaN 1525.6753507014018 0.5137659631094781 514.0 6.0 360.0 
656.000479336559 25161.0 NaN 1534.9605878423524 0.5141719566714699 514.0 5.0 364.0 
658.000479336559 25165.0 NaN 1544.2404809619243 0.5161085513647833 515.0 4.0 368.0 
660.000479336559 25087.0 NaN 1544.197728790916 0.5147660920782181 513.0 6.0 366.0 
662.000479336559 25099.0 NaN 1544.2110888443544 0.521023032171189 511.0 6.0 366.0 
664.0004290227293 25106.0 NaN 1541.004676018703 0.5161064225476352 511.0 5.0 366.0 
#####################################################################
# End of data export. Simulation finished at: 2019-03-06T15:50+0000 #
#####################################################################
