#####################################################################
# Alchemist log file - simulation started at: 2019-03-02T11:01+0000 #
#####################################################################
# seed = 0.0, bandwidth = 5623413.251903491, propagationDelay = 0.01, baserange = 10.0
#
# The columns have the following meaning: 
# time neighbor_count[Sum] <value>@neighbor_count[Sum] packet_size[Mean] mean_delay[Mean] crowd[Sum] overcrowded[Sum] risk[Sum] 
0.0 NaN NaN NaN NaN NaN NaN NaN 
10.000188528437068 486.0 NaN 4989.841015364062 0.48988426950811614 1497.0 0.0 1497.0 
20.000188528437068 490.0 NaN 4989.603206412826 0.5121284523909891 1497.0 0.0 1497.0 
30.000188528437068 498.0 NaN 4989.541750167001 0.4884135396352244 1497.0 0.0 1497.0 
40.000188528437064 500.0 NaN 4989.670006680027 0.49703009350425065 1497.0 0.0 1497.0 
50.000188528437064 515.0 NaN 4989.651302605211 0.5098212996898249 1497.0 0.0 1497.0 
60.000188528437064 510.0 NaN 4989.74749498998 0.5450913135013832 1497.0 0.0 1497.0 
70.00034732846382 493.0 NaN 608.7855711422848 0.5339775403023354 239.0 0.0 68.0 
80.00034732846382 489.0 NaN 617.9719438877756 0.503847595108972 149.0 0.0 71.0 
90.00034732846382 489.0 NaN 617.9505678022714 0.5151702405045511 141.0 0.0 71.0 
100.00034732846382 484.0 NaN 614.8937875751499 0.5128491357191058 132.0 0.0 70.0 
110.00034732846382 490.0 NaN 602.6185704742818 0.501033580921584 122.0 0.0 66.0 
120.00034732846382 478.0 NaN 590.4235136940546 0.4965184688123305 120.0 0.0 62.0 
130.00034732846382 503.0 NaN 602.6746826987313 0.5038233329142896 125.0 0.0 66.0 
140.00034732846382 506.0 NaN 611.8557114228454 0.5109740509664046 123.0 0.0 69.0 
150.00034732846382 516.0 NaN 605.7501670006683 0.5048973469215998 123.0 0.0 67.0 
160.00034732846382 500.0 NaN 611.837007348029 0.5261677844032205 129.0 0.0 69.0 
170.00034732846382 504.0 NaN 605.7448229792913 0.526340668755259 132.0 0.0 67.0 
180.00034732846382 488.0 NaN 605.715430861723 0.5509208371056407 123.0 0.0 67.0 
190.00034732846382 488.0 NaN 621.1142284569136 0.5102196462897657 124.0 0.0 72.0 
200.00034732846382 502.0 NaN 618.012024048096 0.5178656608454096 122.0 0.0 71.0 
210.00034732846382 497.0 NaN 617.9692718770868 0.5100924167408795 125.0 0.0 71.0 
220.00034732846382 496.0 NaN 614.9124916499667 0.5081130673290234 122.0 0.0 70.0 
230.00034732846382 493.0 NaN 617.9986639946561 0.5387030264602303 115.0 0.0 71.0 
240.00034732846382 500.0 NaN 621.0875083500335 0.5088680252699382 114.0 0.0 72.0 
250.00034732846382 500.0 NaN 627.1957247829 0.5194081601533083 118.0 0.0 74.0 
260.0003473284638 498.0 NaN 627.2411489645953 0.5475013313952 118.0 0.0 74.0 
270.0003473284638 490.0 NaN 624.0801603206409 0.5137919620166993 118.0 0.0 73.0 
280.0003473284638 500.0 NaN 621.0233800935199 0.49031914996688997 120.0 0.0 72.0 
290.0003473284638 509.0 NaN 605.6513026052108 0.5087819633232401 120.0 0.0 67.0 
300.0003473284638 493.0 NaN 608.7615230460925 0.5246891192622077 117.0 0.0 68.0 
310.0003473284638 474.0 NaN 608.7748830995316 0.494608595921137 114.0 0.0 68.0 
320.0003473284638 470.0 NaN 587.2651970607884 0.530629473944734 112.0 0.0 61.0 
330.0003473284638 471.0 NaN 590.3166332665334 0.5177810349339121 105.0 0.0 62.0 
340.0003473284638 492.0 NaN 596.4836339345361 0.5189522763772207 109.0 0.0 64.0 
350.0003473284638 487.0 NaN 590.3647294589183 0.5103623083069297 112.0 0.0 62.0 
360.0003473284638 481.0 NaN 584.2164328657319 0.5111648191916941 103.0 0.0 60.0 
370.0003473284638 478.0 NaN 581.1329325317296 0.5235535422881238 106.0 0.0 59.0 
380.0003473284638 476.0 NaN 584.2378089512365 0.514492522024132 106.0 0.0 60.0 
390.0003473284638 470.0 NaN 587.2972611890449 0.549260792531758 103.0 0.0 61.0 
400.0003473284638 481.0 NaN 608.8390113560454 0.5495808392463387 110.0 0.0 68.0 
410.0003473284638 488.0 NaN 608.806947227789 0.5106538192234233 113.0 0.0 68.0 
420.0003473284638 502.0 NaN 614.9311957247819 0.5386047244061 116.0 0.0 70.0 
430.0003473284638 482.0 NaN 630.2338009352045 0.5129126648405714 124.0 0.0 75.0 
440.0003473284638 479.0 NaN 630.2845691382772 0.5010943003927333 122.0 0.0 75.0 
450.0003473284638 490.0 NaN 639.5190380761537 0.531528993806328 127.0 0.0 78.0 
460.0003473284638 480.0 NaN 642.4956579826321 0.5532525149992483 129.0 0.0 79.0 
470.0003473284638 483.0 NaN 645.6005344021372 0.5307553407576944 127.0 0.0 80.0 
480.0003473284638 470.0 NaN 633.2398129592508 0.5337629919389935 125.0 0.0 76.0 
490.0003473284638 470.0 NaN 627.1396125584499 0.5051125536303352 126.0 0.0 74.0 
500.0003473284638 471.0 NaN 617.9665998664002 0.5196027157312917 120.0 0.0 71.0 
510.0003473284638 467.0 NaN 584.1629926519704 0.4920349119933911 112.0 0.0 60.0 
520.0003473284637 464.0 NaN 581.0981963927856 0.5034614912083579 110.0 0.0 59.0 
530.0003473284637 456.0 NaN 574.9498997995992 0.49793600258686005 103.0 0.0 57.0 
540.0003473284637 470.0 NaN 571.9599198396795 0.5178601603220417 100.0 0.0 56.0 
550.0003473284637 464.0 NaN 571.9732798931194 0.5052613738889872 102.0 0.0 56.0 
560.0003473284637 461.0 NaN 568.8737474949899 0.5316485782645735 101.0 0.0 55.0 
570.0003473284637 464.0 NaN 571.9492317969273 0.5008186935920066 106.0 0.0 56.0 
580.0003473284637 462.0 NaN 571.9278557114227 0.5238671358805845 104.0 0.0 56.0 
590.0003473284637 456.0 NaN 571.9171676686705 0.5049792288768807 101.0 0.0 56.0 
600.0003473284637 472.0 NaN 584.2431529726116 0.5571286851785687 103.0 0.0 60.0 
610.0003473284637 484.0 NaN 593.3947895791586 0.541221828925067 111.0 0.0 63.0 
620.0003473284637 485.0 NaN 593.4589178356712 0.5794754028786049 110.0 0.0 63.0 
630.0003473284637 478.0 NaN 599.6179024716097 0.5302219330396263 109.0 0.0 65.0 
640.0003473284637 490.0 NaN 602.6292585170343 0.5396257131634115 116.0 0.0 66.0 
650.0003473284637 486.0 NaN 611.8022712090846 0.5437362660909645 121.0 0.0 69.0 
660.0003473284637 476.0 NaN 614.8617234468934 0.5353018286103866 130.0 0.0 70.0 
#####################################################################
# End of data export. Simulation finished at: 2019-03-02T11:05+0000 #
#####################################################################
