#####################################################################
# Alchemist log file - simulation started at: 2019-03-07T06:53+0000 #
#####################################################################
# seed = 5.0, bandwidth = 1000.0, propagationDelay = 3.1622776601683795, baserange = 177.82794100389228
#
# The columns have the following meaning: 
# time neighbor_count[Sum] <value>@neighbor_count[Sum] packet_size[Mean] mean_delay[Mean] crowd[Sum] overcrowded[Sum] risk[Sum] 
0.0 NaN NaN NaN NaN NaN NaN NaN 
2.000101793669918 NaN NaN 4988.0 NaN 1497.0 0.0 1497.0 
4.000101793669918 NaN NaN 4988.0 NaN 1497.0 0.0 1497.0 
6.000101793669918 NaN NaN 4988.0 NaN 1497.0 0.0 1497.0 
8.000101793669918 NaN NaN 4988.0 NaN 1497.0 0.0 1497.0 
10.000101793669918 26223.0 NaN 4994.295257181028 0.8458428521879278 1497.0 0.0 1497.0 
12.000101793669918 26548.0 NaN 4995.922511690047 2.840649526459604 1497.0 0.0 1497.0 
14.000101793669918 26548.0 NaN 4995.885103540414 4.840649526459604 1497.0 0.0 1497.0 
16.00010179366992 26548.0 NaN 4995.89044756179 6.840649526459604 1497.0 0.0 1497.0 
18.00010179366992 26550.0 NaN 4996.069472277889 5.660995820639188 1497.0 0.0 1497.0 
20.00010179366992 26565.0 NaN 4995.163660654643 1.8574974781557487 1497.0 0.0 1497.0 
22.00010179366992 26565.0 NaN 4994.346025384101 3.8574974781557487 1497.0 0.0 1497.0 
24.00010179366992 26565.0 NaN 4994.348697394789 5.857497478155749 1497.0 0.0 1497.0 
26.00010179366992 26565.0 NaN 4994.364729458918 7.857497478155749 1497.0 0.0 1497.0 
28.00010179366992 26598.0 NaN 4994.327321309285 0.9799446099944144 1493.0 4.0 1493.0 
30.00010179366992 26598.0 NaN 4994.899131596527 2.8896267170483747 1493.0 4.0 1493.0 
32.00010179366992 26598.0 NaN 4994.872411489646 4.889626717048375 1493.0 4.0 1493.0 
34.00010179366992 26598.0 NaN 4994.875083500334 6.889626717048374 1493.0 4.0 1493.0 
36.00010179366992 26630.0 NaN 4995.080828323314 5.714187695198221 1493.0 4.0 1493.0 
38.00010179366992 26690.0 NaN 4995.297261189045 1.943918363985187 1496.0 1.0 1496.0 
40.00010179366992 26673.0 NaN 4994.570474281897 3.8950254466752563 1496.0 1.0 1496.0 
42.00010179366992 26673.0 NaN 4994.570474281897 5.895025446675256 1496.0 1.0 1496.0 
44.00010179366992 26673.0 NaN 4994.554442217769 7.895025446675256 1496.0 1.0 1496.0 
46.00010179366992 26752.0 NaN 4994.859051436206 1.0566261541770199 1494.0 3.0 1494.0 
48.00010179366992 26749.0 NaN 4995.163660654643 2.947759971948557 1494.0 3.0 1494.0 
50.00010179366992 26736.0 NaN 4995.147628590515 4.923760577945537 1494.0 3.0 1494.0 
52.00010179366992 26736.0 NaN 4995.147628590515 6.923760577945537 1494.0 3.0 1494.0 
54.00010179366992 26764.0 NaN 4995.3480293921175 5.761907755033301 1493.0 4.0 1493.0 
56.00010179366992 26819.0 NaN 4994.752171008684 2.0169706066318382 1496.0 1.0 1496.0 
58.00010179366992 26775.0 NaN 4994.076152304609 3.9576302519188395 1496.0 1.0 1496.0 
60.00010179366992 26775.0 NaN 4990.98997995992 5.9576302519188395 1495.0 1.0 1495.0 
62.00010179366992 26775.0 NaN 1519.8316633266543 7.9576302519188395 839.0 1.0 363.0 
64.00010179366993 26897.0 NaN 1522.8430193720787 1.1424007892504868 670.0 3.0 362.0 
66.00010179366993 26870.0 NaN 1522.7094188376752 3.0181306469404166 666.0 3.0 362.0 
68.00010179366993 26835.0 NaN 1522.6666666666663 2.308654831099836 612.0 3.0 362.0 
70.00010179366993 26836.0 NaN 1522.6639946559792 3.8421340163949416 602.0 3.0 362.0 
72.00010179366993 26913.0 NaN 1522.7548430193729 2.5621401427192576 582.0 5.0 360.0 
74.00010179366993 26964.0 NaN 1525.8917835671361 2.4314208616554898 576.0 6.0 360.0 
76.00010179366993 26921.0 NaN 1528.8042752171 1.9427631734815274 553.0 6.0 361.0 
78.00010179366993 26921.0 NaN 1531.9011356045428 3.517706283006902 550.0 6.0 362.0 
80.00010179366993 26947.0 NaN 1531.9118236472939 3.145232962643235 542.0 6.0 362.0 
82.00010179366993 26998.0 NaN 1534.9819639278544 2.1699142824794326 537.0 11.0 358.0 
84.00010179366993 26983.0 NaN 1534.835003340012 1.7327422329481303 530.0 11.0 358.0 
86.00010179366993 26942.0 NaN 1534.8296593186362 3.2710215962592524 528.0 11.0 358.0 
88.00010179366993 26945.0 NaN 1534.8269873079485 2.907799182582798 525.0 11.0 358.0 
90.00010179366993 26963.0 NaN 1534.8643954575818 3.5999120146205303 527.0 10.0 359.0 
92.00010179366993 27008.0 NaN 1534.8269873079485 1.5393829304229951 525.0 10.0 359.0 
94.00010179366993 26953.0 NaN 1534.6533066132274 3.044351325209061 525.0 10.0 359.0 
96.00010179366993 26959.0 NaN 1534.6586506346027 2.689006007987861 523.0 10.0 359.0 
98.00010179366993 26944.0 NaN 1537.742150968603 4.211311601079897 522.0 11.0 359.0 
100.00010179366993 27009.0 NaN 1537.923847695391 1.2994930025843172 514.0 18.0 352.0 
102.00010179366993 26987.0 NaN 1537.814295257182 2.782494600913358 514.0 17.0 353.0 
104.00010179366993 26994.0 NaN 1540.8764195056788 2.4027833481943177 512.0 16.0 355.0 
106.00010179366993 26987.0 NaN 1540.8630594522367 3.903713821286057 512.0 16.0 355.0 
108.00010179366993 27018.0 NaN 1540.9004676018724 2.629708555993445 511.0 14.0 357.0 
110.00010179366993 27044.0 NaN 1541.0661322645276 2.451106268797555 512.0 13.0 358.0 
112.00010179366993 27010.0 NaN 1540.9539078156304 2.026865786631182 511.0 13.0 358.0 
114.00010179366993 27008.0 NaN 1540.9726118904457 3.592528623504261 511.0 13.0 358.0 
116.00010179366993 27021.0 NaN 1540.9779559118242 3.2178021831714214 511.0 13.0 358.0 
118.00010179366993 27067.0 NaN 1541.036740146961 2.1914865329611195 513.0 14.0 357.0 
120.00010179366993 27056.0 NaN 1540.844355377421 1.7640336945001465 513.0 14.0 357.0 
122.00010179366993 27004.0 NaN 1543.9038076152299 3.3068066698105207 513.0 14.0 358.0 
124.00010179366993 27022.0 NaN 1540.8390113560454 2.942694420836235 513.0 14.0 357.0 
126.00010179366993 27008.0 NaN 1540.8817635270545 3.5770191530842896 510.0 15.0 356.0 
128.00010179366993 27052.0 NaN 1544.0908483633937 1.4846367469719843 512.0 14.0 358.0 
130.00010179366993 26968.0 NaN 1543.9893119572478 3.002222766149376 512.0 14.0 358.0 
132.00010179366993 26983.0 NaN 1540.9164996659997 2.6032435658130195 512.0 14.0 357.0 
134.00010179366993 26991.0 NaN 1537.8463593854362 4.170429084777973 513.0 14.0 356.0 
136.00010179366993 27072.0 NaN 1537.9185036740153 1.272439761024469 515.0 13.0 357.0 
138.00010179366993 27033.0 NaN 1534.6746826987303 2.7593954349485474 513.0 13.0 356.0 
140.00010179366993 27004.0 NaN 1534.642618570473 2.3395243961506815 512.0 13.0 356.0 
142.00010179366993 26990.0 NaN 1531.5778223112907 3.8519607164193426 512.0 13.0 355.0 
144.00010179366993 27041.0 NaN 1534.7014028056094 2.5895408975716774 509.0 14.0 355.0 
146.00010179366993 27079.0 NaN 1538.0708082832336 2.4546766607056125 512.0 13.0 357.0 
148.00010179366993 26978.0 NaN 1537.9692718770877 2.0033035106899257 512.0 13.0 357.0 
150.00010179366993 26959.0 NaN 1534.901803607215 3.5540800885626287 512.0 13.0 356.0 
152.00010179366993 26976.0 NaN 1525.6860387441545 3.158969141168053 512.0 13.0 353.0 
154.00010179366993 27004.0 NaN 1528.865731462927 2.2211131868052996 509.0 15.0 352.0 
156.00010179366993 26979.0 NaN 1531.7568470273884 1.7733466021097521 506.0 15.0 353.0 
158.00010179366993 26903.0 NaN 1528.6359385437547 3.2397695693536748 506.0 15.0 352.0 
160.00010179366993 26925.0 NaN 1528.6199064796272 2.8548497958458534 506.0 15.0 352.0 
162.00010179366993 26942.0 NaN 1531.743486973948 3.538299386641868 504.0 16.0 352.0 
164.00010179366993 26958.0 NaN 1538.0734802939207 1.501049991779422 508.0 15.0 355.0 
166.00010179366993 26813.0 NaN 1537.9719438877753 2.9411216720570534 508.0 15.0 355.0 
168.00010179366993 26831.0 NaN 1534.8964595858363 2.568482123259544 506.0 14.0 355.0 
170.00010179366993 26830.0 NaN 1531.8289913159638 4.121656120929526 507.0 13.0 355.0 
172.00010179366993 26890.0 NaN 1535.0487641950544 1.2722581642404658 509.0 13.0 356.0 
174.00010179366993 26852.0 NaN 1534.7815631262545 2.7315228676658436 509.0 13.0 356.0 
176.00010179366993 26807.0 NaN 1531.6713426853726 2.331511064137603 508.0 13.0 355.0 
178.00010179366993 26804.0 NaN 1528.6199064796272 3.856714679058891 508.0 13.0 354.0 
180.00010179366993 26858.0 NaN 1531.7247828991299 2.609226374578489 507.0 14.0 354.0 
182.00010179366993 26885.0 NaN 1534.7147628590521 2.5032904378434657 511.0 13.0 356.0 
184.00010179366993 26809.0 NaN 1534.6105544422182 2.0739342717107756 510.0 13.0 356.0 
186.00010179366993 26785.0 NaN 1531.5484301937206 3.5799199564474167 509.0 13.0 355.0 
188.00010179366993 26795.0 NaN 1531.5751503006 3.209347218597954 508.0 13.0 355.0 
190.00010179366993 26837.0 NaN 1534.8376753507 2.262239251344612 505.0 15.0 354.0 
192.00010179366993 26816.0 NaN 1534.6399465597847 1.8092619762655238 504.0 15.0 354.0 
194.00010179366993 26732.0 NaN 1537.7074148296608 3.3087480370242863 505.0 15.0 355.0 
196.00010179366993 26732.0 NaN 1534.631930527721 2.9371229575796334 504.0 15.0 354.0 
198.00010179366993 26729.0 NaN 1534.6907147628572 3.602392064738579 503.0 16.0 353.0 
200.00010179366993 26773.0 NaN 1541.0714762859063 1.5997699501548064 506.0 15.0 356.0 
202.00010179366993 26645.0 NaN 1537.9211756847028 3.056197325478525 506.0 15.0 355.0 
204.00010179366993 26659.0 NaN 1537.9211756847028 2.7055100780867014 505.0 15.0 355.0 
206.00010179366993 26654.0 NaN 1541.0046760187026 4.23750440308596 505.0 15.0 356.0 
208.00010179366993 26708.0 NaN 1537.9185036740153 1.4444467586187228 506.0 15.0 355.0 
210.00010179366993 26654.0 NaN 1537.5925183700726 2.845687247292123 506.0 15.0 355.0 
212.00010179366993 26585.0 NaN 1537.6192384769547 2.4536651984590696 503.0 15.0 355.0 
214.00010179366993 26574.0 NaN 1531.4736138944545 3.933732910810617 503.0 15.0 353.0 
216.00010179366993 26595.0 NaN 1531.5591182364726 2.7306147803609977 498.0 17.0 351.0 
218.00010179366993 26621.0 NaN 1528.6867067468274 2.6096891292309694 500.0 17.0 350.0 
220.00010179366993 26545.0 NaN 1528.5611222444907 2.1776373570034737 500.0 17.0 350.0 
222.00010179366993 26535.0 NaN 1525.4856379425523 3.711913226639031 500.0 17.0 349.0 
224.00010179366993 26537.0 NaN 1525.493653974618 3.3614596366846783 500.0 17.0 349.0 
226.00010179366993 26564.0 NaN 1528.5504342017364 2.4599561967680725 501.0 16.0 351.0 
228.00010179366993 26519.0 NaN 1528.2217768871087 1.9951450511046196 500.0 16.0 351.0 
230.00010179366993 26442.0 NaN 1534.4101536406151 3.38342924354449 498.0 16.0 353.0 
232.00010179366993 26452.0 NaN 1540.5691382765544 3.0382743719593504 499.0 16.0 355.0 
234.00010179366993 26450.0 NaN 1540.6038744154998 3.6878406296152604 495.0 19.0 352.0 
236.0000363803129 26472.0 NaN 1540.9859719438882 1.7094096199108728 496.0 18.0 353.0 
238.00010179366993 26387.0 NaN 1540.8844355377428 3.13069368515237 497.0 18.0 353.0 
240.0000363803129 26390.0 NaN 1534.7254509018028 2.7963017282373315 497.0 18.0 351.0 
242.00010179366993 26374.0 NaN 1534.7040748163001 4.268876397175944 499.0 16.0 353.0 
244.0000363803129 26481.0 NaN 1534.7762191048755 1.4653723936048224 501.0 14.0 355.0 
246.00010179366993 26444.0 NaN 1531.5163660654637 2.817694161387483 503.0 14.0 354.0 
248.0000363803129 26363.0 NaN 1528.4542418169665 2.42868300117268 502.0 14.0 353.0 
250.00010179366993 26347.0 NaN 1528.4649298597185 3.9231465704549575 502.0 14.0 353.0 
252.0000363803129 26382.0 NaN 1528.4649298597185 2.7158222730602 500.0 15.0 352.0 
254.00010179366993 26396.0 NaN 1531.8663994655997 2.6223128233724995 501.0 15.0 353.0 
256.0000363803129 26318.0 NaN 1531.7381429525726 2.192177051049607 500.0 16.0 352.0 
258.00010179366996 26300.0 NaN 1528.6466265865065 3.647348381378148 499.0 16.0 351.0 
260.0000363803129 26314.0 NaN 1528.676018704073 3.278214950481288 500.0 16.0 351.0 
262.00010179366996 26355.0 NaN 1525.6993987975939 2.4105752519670376 502.0 15.0 351.0 
264.0000363803129 26339.0 NaN 1534.7334669338663 1.9276272095361322 499.0 16.0 353.0 
266.00010179366996 26248.0 NaN 1537.8116232464909 3.3772774719164076 499.0 16.0 354.0 
268.0000363803129 26249.0 NaN 1534.7201068804272 3.006992683883535 498.0 16.0 353.0 
270.00010179366996 26244.0 NaN 1531.660654642618 3.6112179964090054 500.0 14.0 354.0 
272.0000363803129 26311.0 NaN 1534.6933867735456 1.6407745257168354 498.0 16.0 353.0 
274.00010179366996 26194.0 NaN 1534.5036740146973 3.045798048050093 498.0 16.0 353.0 
276.0000363803129 26178.0 NaN 1537.6165664662635 2.6688868753952684 495.0 16.0 354.0 
278.00010179366996 26164.0 NaN 1540.6706746827 4.162839113127268 495.0 16.0 355.0 
280.0000363803129 26248.0 NaN 1540.8844355377432 1.4114078729095796 496.0 16.0 355.0 
282.00010179366996 26197.0 NaN 1540.710754843018 2.7866713395997467 495.0 16.0 355.0 
284.0000363803129 26134.0 NaN 1540.700066800266 2.3931620226802526 495.0 16.0 355.0 
286.00010179366996 26109.0 NaN 1531.5003340013366 3.8643657655660513 497.0 16.0 352.0 
288.0000363803129 26148.0 NaN 1531.5110220440883 2.6623859004140003 499.0 13.0 355.0 
290.00010179366996 26169.0 NaN 1534.6746826987298 2.587786185902816 497.0 16.0 353.0 
292.0000363803129 26042.0 NaN 1534.6105544422182 2.127873783903889 497.0 16.0 353.0 
294.00010179366996 26022.0 NaN 1531.5243820975272 3.6226586910909995 495.0 16.0 352.0 
296.0000363803129 26028.0 NaN 1531.5110220440883 3.248994656798879 494.0 16.0 352.0 
298.00010179366996 26035.0 NaN 1537.7127588510366 2.349378581684854 496.0 16.0 354.0 
300.0000363803129 26041.0 NaN 1537.5978623914477 1.875086099907855 495.0 16.0 354.0 
302.00010179366996 25962.0 NaN 1534.5303941215752 3.3483539279150842 494.0 16.0 353.0 
304.0000363803129 25972.0 NaN 1534.5624582498335 2.9667536227794766 491.0 16.0 353.0 
306.00010179366996 25971.0 NaN 1540.8122912491638 3.606646608681633 494.0 13.0 358.0 
308.0000363803129 25997.0 NaN 1543.9198396793574 1.663475154989698 492.0 15.0 357.0 
310.00010179366996 25875.0 NaN 1540.7374749499 3.073574298677463 493.0 14.0 357.0 
312.0000363803129 25863.0 NaN 1534.567802271209 2.7090245012289764 492.0 14.0 355.0 
314.00010179366996 25839.0 NaN 1534.5731462925846 4.182336729421472 491.0 14.0 355.0 
316.0000363803129 25870.0 NaN 1534.6239144956576 1.4584556886342082 491.0 14.0 355.0 
318.00010179366996 25825.0 NaN 1531.337341349364 2.8408334755883526 491.0 13.0 355.0 
320.0000363803129 25764.0 NaN 1531.3533734134935 2.48030895783068 490.0 13.0 355.0 
322.00010179366996 25742.0 NaN 1534.4769539078156 3.9690245904384343 490.0 13.0 356.0 
324.0000363803129 25741.0 NaN 1534.5063460253818 2.772818029531545 491.0 12.0 357.0 
326.00010179366996 25749.0 NaN 1537.886439545757 2.67420445895415 491.0 12.0 358.0 
328.0000363803129 25674.0 NaN 1537.7127588510366 2.2505155992483616 493.0 12.0 358.0 
330.00010179366996 25653.0 NaN 1534.6559786239156 3.747876339099274 492.0 12.0 357.0 
332.0000363803129 25660.0 NaN 1534.6452905811634 3.369464019839412 492.0 12.0 357.0 
334.00010179366996 25700.0 NaN 1534.666666666666 2.3906462361748524 493.0 11.0 358.0 
336.0000363803129 25693.0 NaN 1534.5116900467608 1.9460803588273128 493.0 11.0 358.0 
338.00010179366996 25613.0 NaN 1531.438877755509 3.3995737482529416 493.0 11.0 357.0 
340.0000363803129 25625.0 NaN 1528.392785571143 2.9829045124748457 494.0 11.0 356.0 
342.00010179366996 25618.0 NaN 1528.4435537742156 3.601253615770844 493.0 12.0 355.0 
344.0000363803129 25676.0 NaN 1534.907147628591 1.6484588334193542 493.0 13.0 356.0 
346.00010179366996 25590.0 NaN 1528.6038744154998 3.048499326576941 491.0 13.0 354.0 
348.0000363803129 25581.0 NaN 1525.5310621242481 2.6768844469131654 490.0 13.0 353.0 
350.00010179366996 25557.0 NaN 1531.6713426853726 4.14007511606695 491.0 13.0 355.0 
352.0000363803129 25613.0 NaN 1528.5424181696726 1.404125924475252 495.0 12.0 355.0 
354.00010179366996 25589.0 NaN 1528.344689378757 2.788198802851127 495.0 12.0 355.0 
356.0000363803129 25535.0 NaN 1522.1830327321302 2.4081235459399513 495.0 12.0 353.0 
358.00010179366996 25521.0 NaN 1522.1937207748822 3.8387804578474394 493.0 12.0 353.0 
360.0000363803129 25552.0 NaN 1525.3360053440208 2.601076427560078 492.0 13.0 353.0 
362.00010179366996 25575.0 NaN 1525.4054776219095 2.5244770103812733 491.0 15.0 351.0 
364.0000363803129 25523.0 NaN 1525.1917167668666 2.1135696096975436 491.0 15.0 351.0 
366.00010179366996 25516.0 NaN 1525.218436873746 3.6186869397787675 491.0 15.0 351.0 
368.0000363803129 25519.0 NaN 1509.8517034068152 3.243741410840478 492.0 15.0 346.0 
370.00010179366996 25536.0 NaN 1516.1736806947242 2.382157804828042 496.0 11.0 352.0 
372.0000363803129 25549.0 NaN 1519.1128924515704 1.9489905798973977 497.0 11.0 353.0 
374.00010179366996 25494.0 NaN 1516.0320641282551 3.3615351406968146 497.0 11.0 352.0 
376.0000363803129 25508.0 NaN 1516.0374081496334 2.9899552043074844 498.0 11.0 352.0 
378.00010179366996 25502.0 NaN 1513.0073480293913 3.6294873496439854 498.0 12.0 350.0 
380.0000363803129 25532.0 NaN 1513.2104208416824 1.7202762671978384 496.0 14.0 348.0 
382.00010179366996 25453.0 NaN 1510.054776219106 3.143377020147476 497.0 14.0 347.0 
384.0000363803129 25464.0 NaN 1500.8283233132927 2.7872001476311903 497.0 14.0 344.0 
386.00010179366996 25457.0 NaN 1497.758183032733 4.221050441409356 498.0 14.0 343.0 
388.0000363803129 25503.0 NaN 1500.8630594522372 1.517498088064951 498.0 14.0 344.0 
390.00010179366996 25449.0 NaN 1500.7722110888453 2.8516735460407405 497.0 14.0 344.0 
392.0000363803129 25419.0 NaN 1506.9231796927181 2.4861211009816455 499.0 14.0 346.0 
394.00010179366996 25408.0 NaN 1503.885103540415 3.93006630873038 500.0 14.0 345.0 
396.0000363803129 25430.0 NaN 1506.9632598530388 2.729583997946158 503.0 11.0 349.0 
398.00010179366996 25409.0 NaN 1513.1756847027384 2.6276782972826123 502.0 14.0 348.0 
400.0000363803129 25344.0 NaN 1509.9772879091522 2.2293490802603517 501.0 14.0 347.0 
402.00010179366996 25322.0 NaN 1509.998663994655 3.644787176024859 501.0 14.0 347.0 
404.0000363803129 25351.0 NaN 1516.141616566466 3.2609595161940366 502.0 14.0 349.0 
406.00010179366996 25377.0 NaN 1516.2752171008697 2.368844147167134 506.0 14.0 349.0 
408.0000363803129 25374.0 NaN 1522.2952571810276 1.930349154009721 506.0 14.0 351.0 
410.00010179366996 25317.0 NaN 1522.2872411489636 3.4028960939279047 505.0 14.0 351.0 
412.0000363803129 25346.0 NaN 1519.219772879091 3.023502383488704 506.0 14.0 350.0 
414.00010179366996 25337.0 NaN 1525.3974615898455 3.674661672920506 509.0 11.0 355.0 
416.0000363803129 25362.0 NaN 1531.6339345357367 1.7563696672576377 512.0 10.0 358.0 
418.00010179366996 25267.0 NaN 1531.5484301937208 3.153110276496587 516.0 10.0 358.0 
420.0000363803129 25273.0 NaN 1510.0414161656638 2.7698957338373558 516.0 10.0 351.0 
422.00010179366996 25274.0 NaN 1500.836339345357 4.242372314733645 514.0 10.0 348.0 
424.0000363803129 25307.0 NaN 1507.0995323981285 1.5466834164852548 510.0 12.0 348.0 
426.00010179366996 25265.0 NaN 1509.9933199732807 2.858919554261669 506.0 12.0 349.0 
428.0000363803129 25215.0 NaN 1506.9525718102875 2.442539399728859 505.0 12.0 348.0 
430.00010179366996 25197.0 NaN 1500.8122912491644 3.9149811671546804 504.0 12.0 346.0 
432.0000363803129 25224.0 NaN 1513.1222444889788 2.7168009141514657 506.0 13.0 349.0 
434.00010179366996 25228.0 NaN 1522.4315297261182 2.6261257278674077 508.0 16.0 349.0 
436.0000363803129 25173.0 NaN 1522.281897127589 2.1965270895383098 510.0 16.0 349.0 
438.00010179366996 25138.0 NaN 1522.316633266534 3.5744893111177585 510.0 16.0 349.0 
440.0000363803129 25146.0 NaN 1522.2792251169 3.197699022967926 511.0 16.0 349.0 
442.00010179366996 25160.0 NaN 1531.599198396793 2.34600800517433 511.0 16.0 352.0 
444.0000363803129 25153.0 NaN 1537.6272545090183 1.8930659059404222 511.0 16.0 354.0 
446.00010179366996 25105.0 NaN 1534.5250501002 3.327724417033755 510.0 16.0 353.0 
448.0000363803129 25108.0 NaN 1534.5250501002 2.973110464007199 510.0 16.0 353.0 
450.00010179366996 25111.0 NaN 1537.6566466265874 3.586205959113357 512.0 13.0 357.0 
452.0000363803129 25163.0 NaN 1543.7728790915178 1.6912439814753315 515.0 13.0 359.0 
454.00010179366996 25099.0 NaN 1540.563794255176 3.0382408042295848 516.0 13.0 358.0 
456.0000363803129 25117.0 NaN 1537.469605878424 2.6655735609741344 516.0 13.0 357.0 
458.00010179366996 25107.0 NaN 1534.3941215764878 4.1467976184974775 514.0 14.0 355.0 
460.0000363803129 25156.0 NaN 1546.832331329327 1.467542423082157 514.0 13.0 360.0 
462.00010179366996 25149.0 NaN 1543.5537742150973 2.80064600566619 512.0 13.0 359.0 
464.0000363803129 25134.0 NaN 1537.4134936539733 2.419421075750301 510.0 13.0 357.0 
466.00010179366996 25116.0 NaN 1537.410821643288 3.8768034226618 510.0 13.0 357.0 
468.0000363803129 25129.0 NaN 1537.469605878424 2.6709302183884516 512.0 13.0 357.0 
470.00010179366996 25133.0 NaN 1537.6967267869084 2.5700095797303586 512.0 14.0 356.0 
472.0000363803129 25105.0 NaN 1531.3961255845004 2.15341688746889 510.0 14.0 354.0 
474.00010179366996 25089.0 NaN 1522.1696726786909 3.620240449190123 507.0 14.0 351.0 
476.0000363803129 25115.0 NaN 1519.1022044088184 3.277804429942461 503.0 14.0 350.0 
478.00010179366996 25138.0 NaN 1519.1556446225793 2.437103913716824 504.0 13.0 351.0 
480.0000363803129 25152.0 NaN 1518.8750835003345 1.9868349427270673 505.0 13.0 351.0 
482.00010179366996 25134.0 NaN 1515.8343353373425 3.4199579968244054 505.0 13.0 350.0 
484.0000363803129 25162.0 NaN 1512.780227120909 3.059724932916702 504.0 13.0 349.0 
486.00010179366996 25174.0 NaN 1509.742150968603 3.698226253131016 502.0 13.0 348.0 
488.0000363803129 25222.0 NaN 1506.9979959919829 1.8283210787370472 501.0 13.0 347.0 
490.00010179366996 25141.0 NaN 1509.9345357381435 3.0667667394953524 503.0 13.0 348.0 
492.0000363803129 25160.0 NaN 1497.6726786907154 2.6998575660011324 503.0 13.0 344.0 
494.00010179366996 25160.0 NaN 1494.5891783567122 4.133068085737506 502.0 13.0 343.0 
496.0000363803129 25231.0 NaN 1494.645290581163 1.4791157809463795 504.0 9.0 347.0 
498.00010179366996 25182.0 NaN 1497.4028056112213 2.8055157041233443 506.0 9.0 348.0 
500.0000363803129 25152.0 NaN 1500.4756179024725 2.3776636300333718 504.0 9.0 349.0 
502.00010179366996 25137.0 NaN 1497.4134936539738 3.805927398081629 505.0 9.0 348.0 
504.0000363803129 25194.0 NaN 1503.6098864395453 2.6155143013927136 505.0 9.0 350.0 
506.00010179366996 25218.0 NaN 1507.169004676018 2.554180701493955 508.0 8.0 352.0 
508.0000363803129 25216.0 NaN 1513.2424849699394 2.14845434686826 508.0 8.0 354.0 
510.00010179366996 25210.0 NaN 1503.983967935873 3.5935907526804165 507.0 8.0 351.0 
512.000036380313 25230.0 NaN 1500.9218436873734 3.245519219259973 508.0 8.0 350.0 
514.00010179367 25274.0 NaN 1501.0340681362727 2.4179474595898354 508.0 9.0 349.0 
516.0000363803128 25311.0 NaN 1497.6913827655303 1.9698971932867535 508.0 9.0 348.0 
518.00010179367 25255.0 NaN 1494.639946559785 3.3784736751851385 507.0 9.0 347.0 
520.0000363803128 25284.0 NaN 1473.1489645958575 3.026623610730428 504.0 9.0 340.0 
522.00010179367 25275.0 NaN 1470.0387441549758 3.558490819829342 504.0 9.0 339.0 
524.0000363803128 25329.0 NaN 1467.1556446225793 1.713032107204711 504.0 8.0 339.0 
526.00010179367 25263.0 NaN 1467.078156312626 3.0961510487135415 500.0 8.0 339.0 
528.0000363803128 25292.0 NaN 1460.9378757515024 2.727482354877966 496.0 9.0 336.0 
530.00010179367 25260.0 NaN 1457.838343353373 4.124413083631054 495.0 10.0 334.0 
532.0000363803128 25315.0 NaN 1470.2685370741476 1.5251522872312335 498.0 7.0 341.0 
534.00010179367 25285.0 NaN 1470.0440881763534 2.8511452429420476 498.0 7.0 341.0 
536.0000363803128 25282.0 NaN 1460.8550434201732 2.46564016013787 496.0 7.0 338.0 
538.00010179367 25259.0 NaN 1463.9706078824306 3.872017754714681 497.0 7.0 339.0 
540.0000363803128 25281.0 NaN 1463.9358717434877 2.679394907234435 499.0 6.0 340.0 
542.00010179367 25282.0 NaN 1469.9665998664 2.636181942004758 502.0 7.0 341.0 
544.0000363803128 25273.0 NaN 1475.9438877755517 2.2290584366903925 501.0 7.0 343.0 
546.00010179367 25251.0 NaN 1475.957247828991 3.597098792720223 498.0 8.0 342.0 
548.0000363803128 25257.0 NaN 1475.9759519038082 3.21583275593868 498.0 8.0 342.0 
550.00010179367 25261.0 NaN 1476.213760855044 2.399855725164022 506.0 5.0 345.0 
552.0000363803128 25291.0 NaN 1473.044756179025 1.9018568795892485 506.0 5.0 344.0 
554.00010179367 25258.0 NaN 1476.1523046092182 3.313790116295645 507.0 5.0 345.0 
556.0000363803128 25271.0 NaN 1466.8937875751503 2.943286688862932 506.0 5.0 342.0 
558.00010179367 25273.0 NaN 1463.85036740147 3.558856841627806 505.0 4.0 342.0 
560.0000363803128 25330.0 NaN 1463.8744154976623 1.7058136146492278 504.0 4.0 342.0 
562.00010179367 25287.0 NaN 1460.75083500334 3.106050287586031 503.0 4.0 341.0 
564.0000363803128 25324.0 NaN 1463.7969271877091 2.6798809461134483 504.0 4.0 342.0 
566.00010179367 25309.0 NaN 1460.761523046092 4.126241762392121 502.0 4.0 341.0 
568.0000363803128 25389.0 NaN 1466.9792919171675 1.5395384424197984 505.0 5.0 342.0 
570.00010179367 25336.0 NaN 1469.873079492318 2.811095890714931 505.0 5.0 343.0 
572.0000363803128 25348.0 NaN 1482.2284569138274 2.362401045772859 506.0 5.0 347.0 
574.00010179367 25345.0 NaN 1482.2257849031394 3.8060464555749225 504.0 5.0 347.0 
576.0000363803128 25395.0 NaN 1482.2605210420838 2.629362566600662 507.0 4.0 348.0 
578.00010179367 25429.0 NaN 1476.264529058117 2.6251551250036846 507.0 3.0 347.0 
580.0000363803128 25407.0 NaN 1479.2491649966607 2.1820258107757216 509.0 3.0 348.0 
582.00010179367 25393.0 NaN 1479.227788911155 3.5788273944748448 510.0 3.0 348.0 
584.0000363803128 25408.0 NaN 1482.295257181028 3.1796711865566394 512.0 3.0 349.0 
586.00010179367 25505.0 NaN 1485.3173012692057 2.4691321579915226 514.0 5.0 348.0 
588.0000363803128 25503.0 NaN 1485.1035404141624 2.012793154586088 516.0 5.0 348.0 
590.00010179367 25436.0 NaN 1485.1489645958577 3.3666852817161543 517.0 5.0 348.0 
592.0000363803128 25468.0 NaN 1479.0060120240478 2.9791996676461703 519.0 5.0 346.0 
594.00010179367 25483.0 NaN 1482.1189044756181 3.630699998884723 526.0 4.0 348.0 
596.0000363803128 25540.0 NaN 1488.6359385437545 1.8257567334393547 526.0 4.0 350.0 
598.00010179367 25441.0 NaN 1491.5297261189057 3.1319345151887146 527.0 4.0 351.0 
600.0000363803128 25467.0 NaN 1497.6406145624574 2.6740770325876015 528.0 4.0 353.0 
602.00010179367 25470.0 NaN 1494.6025384101542 4.056383061986784 528.0 4.0 352.0 
604.0000363803128 25582.0 NaN 1503.9519038076162 1.5312068383300272 523.0 7.0 352.0 
606.00010179367 25537.0 NaN 1500.7027388109545 2.8704231167601058 522.0 7.0 351.0 
608.0000363803128 25520.0 NaN 1506.867067468271 2.436608508849264 520.0 7.0 353.0 
610.00010179367 25522.0 NaN 1509.9131596526374 3.8598680187475414 519.0 7.0 354.0 
612.0000363803128 25564.0 NaN 1509.9772879091527 2.7322291462695256 521.0 7.0 354.0 
614.00010179367 25588.0 NaN 1513.2157648630605 2.7225060030549435 523.0 4.0 358.0 
616.0000363803128 25532.0 NaN 1513.1569806279213 2.2895741053550585 521.0 4.0 358.0 
618.00010179367 25501.0 NaN 1510.0627922511699 3.6430018076799686 522.0 4.0 357.0 
620.0000363803128 25550.0 NaN 1519.307949231798 3.254775065253415 524.0 4.0 360.0 
622.00010179367 25629.0 NaN 1522.4716098864385 2.5697246935978426 518.0 8.0 357.0 
624.0000363803128 25639.0 NaN 1525.386773547093 2.149324277030017 517.0 8.0 358.0 
626.00010179367 25586.0 NaN 1525.354709418837 3.490675684050594 516.0 8.0 358.0 
628.0000363803128 25606.0 NaN 1525.338677354709 3.0907203072335037 518.0 7.0 359.0 
630.00010179367 25609.0 NaN 1522.263193052773 3.7089614594219484 520.0 7.0 358.0 
632.0000363803128 25661.0 NaN 1534.4929859719448 1.9370299578252483 519.0 7.0 362.0 
634.00010179367 25584.0 NaN 1531.3747494989993 3.214503327347142 518.0 7.0 361.0 
636.0000363803128 25610.0 NaN 1528.3633934535726 2.772808630250382 523.0 7.0 360.0 
638.00010179367 25579.0 NaN 1525.2184368737467 4.120778594912999 524.0 7.0 359.0 
640.0000363803128 25632.0 NaN 1522.263193052773 1.604635442142177 525.0 7.0 358.0 
642.00010179367 25619.0 NaN 1519.080828323312 2.980230114860754 524.0 7.0 357.0 
644.0000363803128 25605.0 NaN 1519.062124248498 2.532946790511932 522.0 7.0 357.0 
646.00010179367 25572.0 NaN 1519.0754843019365 3.884164423736594 522.0 7.0 357.0 
648.0000363803128 25574.0 NaN 1522.2231128924525 2.7267189653369766 519.0 7.0 358.0 
650.00010179367 25575.0 NaN 1522.3380093520366 2.788468998337312 520.0 6.0 359.0 
652.0000363803128 25507.0 NaN 1528.4515698062798 2.2990883732372263 518.0 6.0 361.0 
654.00010179367 25488.0 NaN 1528.4836339345363 3.66940885563006 515.0 6.0 361.0 
656.0000363803128 25495.0 NaN 1531.5511022044093 3.252793370407142 515.0 6.0 362.0 
658.00010179367 25516.0 NaN 1531.5484301937202 2.5847499941086935 513.0 7.0 361.0 
660.0000363803128 25495.0 NaN 1537.472277889111 2.1287644742890075 511.0 7.0 363.0 
662.00010179367 25418.0 NaN 1540.5477621910477 3.4681890070151447 512.0 7.0 364.0 
664.0000363803128 25437.0 NaN 1540.5317301269192 3.0495715968937436 512.0 7.0 364.0 
#####################################################################
# End of data export. Simulation finished at: 2019-03-07T07:04+0000 #
#####################################################################
