#####################################################################
# Alchemist log file - simulation started at: 2019-03-20T14:05+0000 #
#####################################################################
# seed = 9.0, bandwidth = 316227.76601683797, propagationDelay = 0.31622776601683794, baserange = 10.0
#
# The columns have the following meaning: 
# time neighbor_count[Sum] <value>@neighbor_count[Sum] packet_size[Mean] mean_delay[Mean] crowd[Sum] overcrowded[Sum] risk[Sum] 
0.0 NaN NaN NaN NaN NaN NaN NaN 
2.0003374459614243 459.0 NaN 4989.779559118237 0.4899654336990614 1497.0 0.0 1497.0 
4.000337445961424 486.0 NaN 4992.358049432198 0.5118109285810312 1497.0 0.0 1497.0 
6.000337445961424 486.0 NaN 4990.869739478958 0.5118307114387093 1497.0 0.0 1497.0 
8.000337445961424 486.0 NaN 4990.1189044756175 0.5118448194134436 1497.0 0.0 1497.0 
10.000337445961424 486.0 NaN 4989.776887107549 0.5118560356609414 1497.0 0.0 1497.0 
12.000337445961424 486.0 NaN 4989.517702070808 0.5118611845517006 1497.0 0.0 1497.0 
14.000337445961424 486.0 NaN 4989.635270541082 0.511858951280944 1497.0 0.0 1497.0 
16.000337445961424 488.0 NaN 4989.587174348698 0.5130105572926089 1497.0 0.0 1497.0 
18.000337445961424 492.0 NaN 4989.581830327321 0.5136462366597591 1497.0 0.0 1497.0 
20.000337445961424 492.0 NaN 4989.400133600534 0.526848078619769 1497.0 0.0 1497.0 
22.000337445961424 490.0 NaN 4989.568470273881 0.525912105189736 1497.0 0.0 1497.0 
24.000337445961424 486.0 NaN 4989.549766199065 0.5121036070748847 1497.0 0.0 1497.0 
26.000337445961424 487.0 NaN 4989.547094188377 0.5115994781581613 1497.0 0.0 1497.0 
28.000337445961424 490.0 NaN 4989.531062124249 0.5186512572024374 1497.0 0.0 1497.0 
30.000337445961424 492.0 NaN 4989.429525718103 0.5195641952512521 1497.0 0.0 1497.0 
32.00033744596142 491.0 NaN 4989.587174348698 0.5137765921002 1497.0 0.0 1497.0 
34.00033744596142 497.0 NaN 4989.563126252505 0.5127047139242443 1497.0 0.0 1497.0 
36.00033744596142 502.0 NaN 4989.592518370074 0.520252615936578 1497.0 0.0 1497.0 
38.00033744596142 500.0 NaN 4989.437541750167 0.5291027179155958 1497.0 0.0 1497.0 
40.00033744596142 497.0 NaN 4989.595190380762 0.5297600813320026 1497.0 0.0 1497.0 
42.00033744596142 492.0 NaN 4989.640614562458 0.519096677303745 1497.0 0.0 1497.0 
44.00033744596142 497.0 NaN 4989.59786239145 0.5115760745365483 1497.0 0.0 1497.0 
46.00033744596142 507.0 NaN 4989.549766199065 0.5227291350144876 1497.0 0.0 1497.0 
48.00033744596142 510.0 NaN 4989.576486305945 0.5188535171086301 1497.0 0.0 1497.0 
50.00033744596142 515.0 NaN 4989.750167000668 0.525811247253118 1497.0 0.0 1497.0 
52.00033744596142 516.0 NaN 4989.74749498998 0.5214245671883088 1497.0 0.0 1497.0 
54.00033744596142 515.0 NaN 4989.715430861724 0.5243926356120701 1497.0 0.0 1497.0 
56.00033744596142 512.0 NaN 4989.573814295257 0.5318832482644941 1497.0 0.0 1497.0 
58.00033744596142 515.0 NaN 4989.758183032732 0.5289034352444074 1497.0 0.0 1497.0 
60.00033744596142 507.0 NaN 4989.779559118237 0.5113288330466231 1497.0 0.0 1497.0 
62.00025544060411 506.0 NaN 599.7381429525725 0.5070310567798606 310.0 0.0 65.0 
64.0002554406041 500.0 NaN 599.5591182364726 0.5161409492568914 307.0 0.0 65.0 
66.0002554406041 498.0 NaN 602.615898463594 0.5046773491972241 304.0 0.0 66.0 
68.0002554406041 499.0 NaN 602.62124248497 0.5400382879625499 300.0 0.0 66.0 
70.0002554406041 495.0 NaN 605.6913827655316 0.505739494632281 279.0 0.0 67.0 
72.0002554406041 494.0 NaN 605.7020708082831 0.5096777225567667 242.0 0.0 67.0 
74.0002554406041 494.0 NaN 605.6726786907138 0.49955694082689495 212.0 0.0 67.0 
76.0002554406041 494.0 NaN 608.7695390781563 0.5140522464375236 185.0 0.0 68.0 
78.0002554406041 491.0 NaN 608.7454909819635 0.5216773268841409 178.0 0.0 68.0 
80.0002554406041 489.0 NaN 608.7107548430196 0.515071788450973 164.0 0.0 68.0 
82.0002554406041 488.0 NaN 608.700066800268 0.5059136175847391 157.0 0.0 68.0 
84.0002554406041 488.0 NaN 608.700066800268 0.5435301974497353 145.0 0.0 68.0 
86.0002554406041 480.0 NaN 608.700066800268 0.5209452456941155 139.0 0.0 68.0 
88.0002554406041 485.0 NaN 608.700066800268 0.5060410904206971 141.0 0.0 68.0 
90.0002554406041 486.0 NaN 605.6352705410817 0.5253728730615558 140.0 0.0 67.0 
92.0002554406041 484.0 NaN 602.5704742818971 0.5047047282785672 137.0 0.0 66.0 
94.0002554406041 486.0 NaN 602.5704742818971 0.5123702036931916 133.0 0.0 66.0 
96.0002554406041 483.0 NaN 602.5704742818971 0.502509969035274 134.0 0.0 66.0 
98.0002554406041 486.0 NaN 605.6325985303941 0.5194685084736798 133.0 0.0 67.0 
100.0002554406041 487.0 NaN 608.7000668002679 0.5135214526157192 135.0 0.0 68.0 
102.0002554406041 484.0 NaN 608.7054108216439 0.49818240378994133 133.0 0.0 68.0 
104.0002554406041 484.0 NaN 608.7027388109549 0.49970451124199994 130.0 0.0 68.0 
106.0002554406041 482.0 NaN 608.7134268537073 0.49692509868445606 126.0 0.0 68.0 
108.0002554406041 488.0 NaN 608.7134268537073 0.5166525505245053 127.0 0.0 68.0 
110.0002554406041 483.0 NaN 608.7027388109549 0.5076390668173019 125.0 0.0 68.0 
112.0002554406041 481.0 NaN 605.6700066800274 0.5178677001155261 126.0 0.0 67.0 
114.0002554406041 478.0 NaN 605.6646626586504 0.5168597636482689 126.0 0.0 67.0 
116.0002554406041 476.0 NaN 593.4001336005341 0.5161818409580312 120.0 0.0 63.0 
118.0002554406041 478.0 NaN 596.4916499666001 0.5120384501865051 121.0 0.0 64.0 
120.0002554406041 478.0 NaN 593.4402137608546 0.5039778546899056 122.0 0.0 63.0 
122.0002554406041 478.0 NaN 596.4996659986637 0.4987251308591641 121.0 0.0 64.0 
124.0002554406041 484.0 NaN 596.5103540414163 0.5118980125475824 123.0 0.0 64.0 
126.0002554406041 488.0 NaN 599.5457581830323 0.5077719750026274 124.0 0.0 65.0 
128.0002554406041 491.0 NaN 599.5297261189046 0.543297481310018 121.0 0.0 65.0 
130.00025544060412 489.0 NaN 599.5297261189046 0.5090689135077804 123.0 0.0 65.0 
132.00025544060412 490.0 NaN 599.5350701402806 0.5031163975399771 124.0 0.0 65.0 
134.00025544060412 500.0 NaN 605.6967267869073 0.5040602157887563 127.0 0.0 67.0 
136.00025544060412 502.0 NaN 605.707414829659 0.5131476595971506 125.0 0.0 67.0 
138.00025544060412 504.0 NaN 605.6619906479633 0.5267531330358589 124.0 0.0 67.0 
140.0003374459614 503.0 NaN 611.8049432197727 0.50555326155182 125.0 0.0 69.0 
142.0003374459614 506.0 NaN 611.8236472945893 0.5120910869515547 125.0 0.0 69.0 
144.0003374459614 506.0 NaN 611.791583166332 0.5081023768583125 124.0 0.0 69.0 
146.0003374459614 505.0 NaN 608.7214428857714 0.5106445312009692 122.0 0.0 68.0 
148.0003374459614 508.0 NaN 608.7214428857714 0.495772744190577 124.0 0.0 68.0 
150.0003374459614 515.0 NaN 608.7107548430196 0.5160877318631323 127.0 0.0 68.0 
152.0003374459614 510.0 NaN 611.7862391449561 0.5290701896406359 129.0 0.0 69.0 
154.0003374459614 505.0 NaN 614.8724114896454 0.504573938391356 131.0 0.0 70.0 
156.0003374459614 502.0 NaN 611.8102872411497 0.5007123048483572 131.0 0.0 69.0 
158.0003374459614 503.0 NaN 608.724114896459 0.5139868212676612 131.0 0.0 68.0 
160.0003374459614 503.0 NaN 605.6593186372745 0.5167789450362961 128.0 0.0 67.0 
162.0003374459614 499.0 NaN 605.6887107548429 0.5167135035070671 128.0 0.0 67.0 
164.0003374459614 496.0 NaN 605.6726786907141 0.5084314432978629 131.0 0.0 67.0 
166.0003374459614 496.0 NaN 605.6700066800273 0.5248693585423994 132.0 0.0 67.0 
168.0003374459614 497.0 NaN 605.6646626586505 0.5357383241820476 133.0 0.0 67.0 
170.0003374459614 498.0 NaN 605.6646626586505 0.5241485321255027 134.0 0.0 67.0 
172.0003374459614 496.0 NaN 602.6132264529061 0.5223944623089272 134.0 0.0 66.0 
174.0003374459614 498.0 NaN 602.5838343353367 0.5203339316575901 134.0 0.0 66.0 
176.0003374459614 499.0 NaN 602.6078824315297 0.5217523555268426 131.0 0.0 66.0 
178.0003374459614 497.0 NaN 605.6619906479633 0.5148841820762668 129.0 0.0 67.0 
180.0003374459614 495.0 NaN 605.6432865731458 0.5475598365480563 130.0 0.0 67.0 
182.0003374459614 487.0 NaN 605.6459585838344 0.5127315121656643 128.0 0.0 67.0 
184.0003374459614 485.0 NaN 605.6192384769541 0.5237406333429545 127.0 0.0 67.0 
186.0003374459614 480.0 NaN 602.5597862391455 0.5283365617559276 124.0 0.0 66.0 
188.0003374459614 479.0 NaN 596.4195056780227 0.544539722683505 120.0 0.0 64.0 
190.0003374459614 490.0 NaN 611.8503674014695 0.5073229210065635 121.0 0.0 69.0 
192.0003374459614 494.0 NaN 614.9632598530394 0.49598938951608307 120.0 0.0 70.0 
194.0003374459614 496.0 NaN 614.9311957247825 0.5041472403885933 120.0 0.0 70.0 
196.0003374459614 504.0 NaN 611.812959251837 0.4923507500464628 121.0 0.0 69.0 
198.0003374459614 508.0 NaN 611.8022712090849 0.5181374247650792 123.0 0.0 69.0 
200.0003374459614 509.0 NaN 611.8183032732137 0.501453307667809 123.0 0.0 69.0 
202.0003374459614 505.0 NaN 611.8076152304612 0.498228013274108 121.0 0.0 69.0 
204.0003374459614 503.0 NaN 611.8022712090849 0.5058159508294158 120.0 0.0 69.0 
206.0003374459614 511.0 NaN 621.0581162324653 0.4984276425362279 120.0 0.0 72.0 
208.0003374459614 517.0 NaN 621.0581162324653 0.5047664974135759 123.0 0.0 72.0 
210.0003374459614 520.0 NaN 621.063460253841 0.5453713009538987 123.0 0.0 72.0 
212.0003374459614 512.0 NaN 618.0440881763525 0.5213951279557768 122.0 0.0 71.0 
214.0003374459614 506.0 NaN 618.0013360053439 0.5114601030373934 122.0 0.0 71.0 
216.0003374459614 510.0 NaN 614.9498997995998 0.5160997813835102 122.0 0.0 70.0 
218.0003374459614 506.0 NaN 614.9205076820317 0.5054881638806167 121.0 0.0 70.0 
220.0003374459614 502.0 NaN 614.9205076820317 0.5269057673609162 120.0 0.0 70.0 
222.0003374459614 492.0 NaN 614.9285237140956 0.5142771242281811 120.0 0.0 70.0 
224.0003374459614 490.0 NaN 611.8236472945887 0.5087959529300147 119.0 0.0 69.0 
226.0003374459614 490.0 NaN 614.8964595858384 0.5295675002591838 120.0 0.0 70.0 
228.0003374459614 491.0 NaN 614.9205076820316 0.5238386414092908 121.0 0.0 70.0 
230.0003374459614 486.0 NaN 614.8937875751499 0.5370897367677079 119.0 0.0 70.0 
232.0003374459614 483.0 NaN 614.9392117568473 0.5176846936618577 117.0 0.0 70.0 
234.0003374459614 487.0 NaN 611.8316633266527 0.5078949169758514 115.0 0.0 69.0 
236.0003374459614 498.0 NaN 614.9258517034071 0.5032102587136941 117.0 0.0 70.0 
238.0003374459614 500.0 NaN 614.9285237140955 0.5209336272735343 115.0 0.0 70.0 
240.0003374459614 494.0 NaN 614.9258517034071 0.5092875890223039 116.0 0.0 70.0 
242.0003374459614 502.0 NaN 618.0360721442883 0.5227217048619557 116.0 0.0 71.0 
244.0003374459614 501.0 NaN 618.0013360053439 0.5120838433539601 118.0 0.0 71.0 
246.0003374459614 504.0 NaN 624.1095524382091 0.5138663761717098 119.0 0.0 73.0 
248.0003374459614 505.0 NaN 627.2331329325318 0.5316522082811355 121.0 0.0 74.0 
250.0003374459614 502.0 NaN 627.1796927187713 0.5031324188118454 122.0 0.0 74.0 
252.0003374459614 503.0 NaN 627.166332665332 0.5199636473505672 122.0 0.0 74.0 
254.0003374459614 507.0 NaN 627.1396125584499 0.5021113066134857 124.0 0.0 74.0 
256.0003374459614 512.0 NaN 627.1315965263865 0.5256523990588489 124.0 0.0 74.0 
258.0003374459614 501.0 NaN 627.2251169004684 0.5194174528680819 124.0 0.0 74.0 
260.0003374459614 498.0 NaN 627.166332665332 0.5221533720463261 122.0 0.0 74.0 
262.0003374459614 490.0 NaN 627.152972611891 0.4804420409623526 121.0 0.0 74.0 
264.0003374459614 490.0 NaN 627.126252505009 0.5239792494122472 120.0 0.0 74.0 
266.0003374459614 492.0 NaN 627.1209084836331 0.502396680413877 120.0 0.0 74.0 
268.0003374459614 503.0 NaN 630.2391449565806 0.5122935694142976 121.0 0.0 75.0 
270.0003374459614 498.0 NaN 630.2070808283225 0.5057897189774923 121.0 0.0 75.0 
272.0003374459614 495.0 NaN 627.1342685370739 0.5137568280142327 121.0 0.0 74.0 
274.0003374459614 496.0 NaN 627.1476285905136 0.5052142846165053 120.0 0.0 74.0 
276.0003374459614 494.0 NaN 624.0721442885774 0.53644700625536 121.0 0.0 73.0 
278.0003374459614 495.0 NaN 624.0801603206409 0.51013493368044 119.0 0.0 73.0 
280.0003374459614 494.0 NaN 614.8804275217091 0.5061441793903352 119.0 0.0 70.0 
282.0003374459614 490.0 NaN 611.8022712090844 0.48789889134530506 116.0 0.0 69.0 
284.0003374459614 492.0 NaN 608.7428189712755 0.5112768081716057 116.0 0.0 68.0 
286.0003374459614 495.0 NaN 608.7535070140272 0.5102163683554651 117.0 0.0 68.0 
288.0003374459614 497.0 NaN 605.678022712091 0.4956116500763527 118.0 0.0 67.0 
290.0003374459614 498.0 NaN 605.7020708082835 0.48566728240893964 118.0 0.0 67.0 
292.0003374459614 496.0 NaN 605.6379425517699 0.4808373849504304 118.0 0.0 67.0 
294.0003374459614 500.0 NaN 602.6105544422184 0.5029388972068788 117.0 0.0 66.0 
296.0003374459614 497.0 NaN 602.637274549098 0.5227858476480824 115.0 0.0 66.0 
298.0003374459614 494.0 NaN 602.6239144956592 0.4994105357071131 114.0 0.0 66.0 
300.0003374459614 486.0 NaN 602.6185704742818 0.5060314008871999 114.0 0.0 66.0 
302.0003374459614 478.0 NaN 602.6105544422184 0.5032366497564255 114.0 0.0 66.0 
304.0003374459614 477.0 NaN 602.6158984635938 0.49675178733698333 112.0 0.0 66.0 
306.0003374459614 476.0 NaN 605.7100868403472 0.5011802593941843 114.0 0.0 67.0 
308.0003374459614 474.0 NaN 605.7635270541091 0.5119657905579514 114.0 0.0 67.0 
310.0003374459614 472.0 NaN 605.7394789579154 0.4888539771527979 114.0 0.0 67.0 
312.0003374459614 473.0 NaN 605.704742818971 0.497895115199326 112.0 0.0 67.0 
314.0003374459614 472.0 NaN 608.7962591850362 0.5120537125945954 112.0 0.0 68.0 
316.0003374459614 472.0 NaN 599.537742150968 0.5082917576360051 113.0 0.0 65.0 
318.0003374459614 474.0 NaN 590.3780895123591 0.5091280675834895 114.0 0.0 62.0 
320.0003374459614 470.0 NaN 587.2678690714771 0.484824857459532 115.0 0.0 61.0 
322.0003374459614 472.0 NaN 587.2598530394117 0.4940954090802447 114.0 0.0 61.0 
324.0003374459614 473.0 NaN 587.2598530394117 0.5138195951057473 113.0 0.0 61.0 
326.0003374459614 475.0 NaN 587.2518370073478 0.5064581065692956 111.0 0.0 61.0 
328.0003374459614 475.0 NaN 587.2464929859725 0.5194129754697642 109.0 0.0 61.0 
330.0003374459614 470.0 NaN 590.321977287909 0.4970353605279414 108.0 0.0 62.0 
332.0003374459614 474.0 NaN 590.292585170341 0.510728515214827 109.0 0.0 62.0 
334.0003374459614 475.0 NaN 590.3166332665335 0.48502814519707543 109.0 0.0 62.0 
336.0003374459614 482.0 NaN 587.2464929859723 0.513139743748465 106.0 0.0 61.0 
338.0003374459614 486.0 NaN 590.3353373413496 0.5098321174728269 106.0 0.0 62.0 
340.0003374459614 488.0 NaN 593.4321977287909 0.5002784397748246 108.0 0.0 63.0 
342.0003374459614 487.0 NaN 593.3680694722776 0.5143037123177918 111.0 0.0 63.0 
344.0003374459614 484.0 NaN 590.3086172344684 0.4916789519587079 110.0 0.0 62.0 
346.0003374459614 488.0 NaN 587.275885103541 0.502248875462997 110.0 0.0 61.0 
348.0003374459614 489.0 NaN 587.2545090180365 0.5114111340027914 110.0 0.0 61.0 
350.0003374459614 484.0 NaN 587.2651970607885 0.5221148321713482 110.0 0.0 61.0 
352.0003374459614 483.0 NaN 590.3326653306611 0.5315792064315675 110.0 0.0 62.0 
354.0003374459614 477.0 NaN 590.3433533734137 0.504448192560181 108.0 0.0 62.0 
356.0003374459614 475.0 NaN 590.3326653306611 0.5054057646263598 109.0 0.0 62.0 
358.0003374459614 482.0 NaN 590.3112892451571 0.49656042226319974 109.0 0.0 62.0 
360.0003374459614 477.0 NaN 587.281229124916 0.49275355502054713 107.0 0.0 61.0 
362.0003374459614 476.0 NaN 590.3353373413495 0.4970927834293678 107.0 0.0 62.0 
364.0003374459614 477.0 NaN 590.3647294589183 0.503068428865524 108.0 0.0 62.0 
366.0003374459614 475.0 NaN 581.1356045424182 0.5060152722841068 107.0 0.0 59.0 
368.0003374459614 476.0 NaN 581.11957247829 0.5374898246705658 107.0 0.0 59.0 
370.0003374459614 473.0 NaN 581.1142284569136 0.520009144594618 106.0 0.0 59.0 
372.0003374459614 473.0 NaN 581.1035404141613 0.502456262111309 107.0 0.0 59.0 
374.0003374459614 477.0 NaN 584.1629926519704 0.5083875393463092 108.0 0.0 60.0 
376.0003374459614 474.0 NaN 584.168336673347 0.5202237912827249 108.0 0.0 60.0 
378.0003374459614 476.0 NaN 587.2598530394121 0.524816676487527 109.0 0.0 61.0 
380.0003374459614 474.0 NaN 587.2839011356045 0.5327833422162946 109.0 0.0 61.0 
382.0003374459614 469.0 NaN 587.2972611890448 0.5285033590695387 109.0 0.0 61.0 
384.0003374459614 463.0 NaN 590.3593854375414 0.5089426180602079 108.0 0.0 62.0 
386.0003374459614 460.0 NaN 593.4321977287909 0.49612946422109333 106.0 0.0 63.0 
388.0003374459614 472.0 NaN 596.5397461589841 0.5401543219709564 108.0 0.0 64.0 
390.0003374459614 459.0 NaN 596.5237140948566 0.5124835371545112 108.0 0.0 64.0 
392.0003374459614 471.0 NaN 599.6098864395453 0.5144451164708411 109.0 0.0 65.0 
394.0003374459614 473.0 NaN 599.6125584502338 0.5113778915352557 108.0 0.0 65.0 
396.0003374459614 478.0 NaN 608.8577154308621 0.5048429754628576 110.0 0.0 68.0 
398.0003374459614 477.0 NaN 605.8116232464926 0.546177406664453 111.0 0.0 67.0 
400.0003374459614 471.0 NaN 605.7768871075484 0.49822769624545304 112.0 0.0 67.0 
402.0003374459614 480.0 NaN 614.9525718102866 0.49979144050267815 114.0 0.0 70.0 
404.0003374459614 478.0 NaN 614.9605878423515 0.5029122035537454 115.0 0.0 70.0 
406.0003374459614 482.0 NaN 614.936539746159 0.5127876645610195 115.0 0.0 70.0 
408.0003374459614 480.0 NaN 614.9205076820317 0.4948008881908366 115.0 0.0 70.0 
410.0003374459614 482.0 NaN 614.8964595858381 0.516704975376381 115.0 0.0 70.0 
412.0003374459614 485.0 NaN 614.9124916499667 0.5161892970539657 114.0 0.0 70.0 
414.0003374459614 479.0 NaN 618.0120240480957 0.5219422123194306 115.0 0.0 71.0 
416.0003374459614 476.0 NaN 618.046760187041 0.5029671666932732 116.0 0.0 71.0 
418.0003374459614 489.0 NaN 617.9933199732801 0.5158128193713128 116.0 0.0 71.0 
420.0003374459614 485.0 NaN 618.001336005344 0.5007525010241323 116.0 0.0 71.0 
422.0003374459614 502.0 NaN 624.1148964595865 0.522847419719747 118.0 0.0 73.0 
424.0003374459614 499.0 NaN 627.1903807615226 0.5096055939995168 121.0 0.0 74.0 
426.0003374459614 493.0 NaN 627.1823647294591 0.5200884021027148 124.0 0.0 74.0 
428.0003374459614 491.0 NaN 627.1663326653319 0.5319026034516735 125.0 0.0 74.0 
430.0003374459614 480.0 NaN 633.3600534402135 0.5099879715346206 126.0 0.0 76.0 
432.0003374459614 484.0 NaN 633.3520374081501 0.5186557971964356 125.0 0.0 76.0 
434.0003374459614 476.0 NaN 630.231128924515 0.5142494300334749 125.0 0.0 75.0 
436.0003374459614 477.0 NaN 633.3440213760863 0.5340261967133173 125.0 0.0 76.0 
438.0003374459614 473.0 NaN 633.285237140949 0.5199425280246943 125.0 0.0 76.0 
440.0003374459614 475.0 NaN 633.285237140949 0.508479844594002 125.0 0.0 76.0 
442.0003374459614 476.0 NaN 633.2531730126908 0.5452526547468459 126.0 0.0 76.0 
444.0003374459614 469.0 NaN 636.3179692718772 0.5163596766128379 126.0 0.0 77.0 
446.0003374459614 472.0 NaN 636.3820975283909 0.5670770138895769 128.0 0.0 77.0 
448.0003374459614 468.0 NaN 636.3847695390775 0.5292028692721202 128.0 0.0 77.0 
450.0003374459614 472.0 NaN 636.3740814963263 0.529926680719851 128.0 0.0 77.0 
452.0003374459614 473.0 NaN 639.4201736806951 0.513401911618779 127.0 0.0 78.0 
454.0003374459614 473.0 NaN 636.3366733466942 0.5270975559924954 125.0 0.0 77.0 
456.0003374459614 484.0 NaN 636.3500334001332 0.5626425788624353 127.0 0.0 77.0 
458.0003374459614 474.0 NaN 636.3527054108226 0.5168048212418692 126.0 0.0 77.0 
460.0003374459614 480.0 NaN 639.452237808951 0.5064322879622689 125.0 0.0 78.0 
462.0003374459614 487.0 NaN 642.4956579826318 0.5219525310109022 125.0 0.0 79.0 
464.0003374459614 486.0 NaN 642.4796259185044 0.5196688900450793 126.0 0.0 79.0 
466.0003374459614 486.0 NaN 642.476953907815 0.5504584324561345 126.0 0.0 79.0 
468.0003374459614 482.0 NaN 642.4635938543761 0.5458802781149539 127.0 0.0 79.0 
470.0003374459614 474.0 NaN 639.3827655310627 0.5530454334728507 126.0 0.0 78.0 
472.0003374459614 463.0 NaN 630.2070808283227 0.5155891075818618 123.0 0.0 75.0 
474.0003374459614 462.0 NaN 627.0995323981309 0.5304855360664315 122.0 0.0 74.0 
476.0003374459614 459.0 NaN 627.1182364729453 0.5222562249766878 121.0 0.0 74.0 
478.0003374459614 469.0 NaN 627.0915163660645 0.5476333927258477 122.0 0.0 74.0 
480.0003374459614 466.0 NaN 627.0754843019362 0.5325927481068775 123.0 0.0 74.0 
482.0003374459614 457.0 NaN 627.0835003340009 0.559525712952822 123.0 0.0 74.0 
484.0003374459614 451.0 NaN 627.0674682698726 0.5085655169196757 123.0 0.0 74.0 
486.0003374459614 459.0 NaN 620.9592518370081 0.5060531540775854 124.0 0.0 72.0 
488.0003374459614 469.0 NaN 620.9619238476955 0.5272352403055852 124.0 0.0 72.0 
490.0003374459614 468.0 NaN 617.9024716098863 0.511202701213463 124.0 0.0 71.0 
492.0003374459614 472.0 NaN 617.9398797595182 0.5317677952649115 124.0 0.0 71.0 
494.0003374459614 472.0 NaN 614.8884435537743 0.5130091432467052 122.0 0.0 70.0 
496.0003374459614 475.0 NaN 605.6967267869072 0.5385781688585521 120.0 0.0 67.0 
498.0003374459614 474.0 NaN 605.6913827655316 0.5344907176673874 119.0 0.0 67.0 
500.0003374459614 469.0 NaN 605.6432865731458 0.5215380913381207 119.0 0.0 67.0 
502.0003374459614 470.0 NaN 599.5243820975277 0.5440254509085355 117.0 0.0 65.0 
504.0003374459614 469.0 NaN 584.187040748163 0.5286405404167762 115.0 0.0 60.0 
506.0003374459614 470.0 NaN 584.1442885771545 0.5394455317129504 113.0 0.0 60.0 
508.0003374459614 476.0 NaN 584.1469605878423 0.5214284469425439 113.0 0.0 60.0 
510.0003374459614 475.0 NaN 581.0688042752171 0.5492181009510696 113.0 0.0 59.0 
512.0003374459613 468.0 NaN 581.10621242485 0.5364763471117516 113.0 0.0 59.0 
514.0003374459613 469.0 NaN 581.1195724782898 0.5270396985392234 110.0 0.0 59.0 
516.0003374459613 466.0 NaN 574.9418837675353 0.548912816000821 109.0 0.0 57.0 
518.0003374459613 467.0 NaN 574.936539746159 0.5521012192548269 108.0 0.0 57.0 
520.0003374459613 459.0 NaN 574.9392117568469 0.5312931605546409 106.0 0.0 57.0 
522.0003374459613 457.0 NaN 571.9171676686705 0.5243450764938433 105.0 0.0 56.0 
524.0003374459613 458.0 NaN 571.9251837007348 0.5133953376010427 104.0 0.0 56.0 
526.0003374459613 459.0 NaN 571.8770875083501 0.5288122853455033 102.0 0.0 56.0 
528.0003374459613 459.0 NaN 568.8069472277887 0.5432092400320888 101.0 0.0 55.0 
530.0003374459613 455.0 NaN 565.744822979292 0.5311305931023967 100.0 0.0 54.0 
532.0003374459613 461.0 NaN 568.8710754843019 0.5334620818838393 102.0 0.0 55.0 
534.0003374459613 458.0 NaN 571.9812959251836 0.5222889313267288 102.0 0.0 56.0 
536.0003374459613 458.0 NaN 571.9278557114227 0.5217857820209452 100.0 0.0 56.0 
538.0003374459613 460.0 NaN 571.9225116900466 0.5324532394281846 102.0 0.0 56.0 
540.0003374459613 460.0 NaN 575.0113560454239 0.512338498412209 103.0 0.0 57.0 
542.0003374459613 464.0 NaN 575.0514362057447 0.5181983356147776 102.0 0.0 57.0 
544.0003374459613 466.0 NaN 578.0841683366734 0.532977189409714 104.0 0.0 58.0 
546.0003374459613 463.0 NaN 578.0734802939212 0.521575571163461 105.0 0.0 58.0 
548.0003374459613 470.0 NaN 578.0681362725451 0.5377918513763712 106.0 0.0 58.0 
550.0003374459613 469.0 NaN 578.0681362725451 0.5398229324198466 107.0 0.0 58.0 
552.0003374459613 467.0 NaN 578.1002004008016 0.5217677540722458 106.0 0.0 58.0 
554.0003374459613 468.0 NaN 575.0060120240481 0.536493149874931 105.0 0.0 57.0 
556.0003374459613 469.0 NaN 574.9953239812959 0.5491981044850737 105.0 0.0 57.0 
558.0003374459613 464.0 NaN 571.9144956579827 0.5298840029188617 105.0 0.0 56.0 
560.0003374459613 463.0 NaN 571.9225116900466 0.5244301487652601 105.0 0.0 56.0 
562.0003374459613 464.0 NaN 571.9492317969273 0.5432751448302252 108.0 0.0 56.0 
564.0003374459613 462.0 NaN 574.9739478957916 0.504830657480462 109.0 0.0 57.0 
566.0003374459613 467.0 NaN 574.9792919171676 0.5420428841835103 109.0 0.0 57.0 
568.0003374459613 457.0 NaN 574.9846359385436 0.5272281729914023 109.0 0.0 57.0 
570.0003374459613 461.0 NaN 578.0681362725451 0.5239186933091025 108.0 0.0 58.0 
572.0003374459613 459.0 NaN 578.0868403473614 0.524459530875859 107.0 0.0 58.0 
574.0003374459613 452.0 NaN 578.054776219105 0.5096024344641087 107.0 0.0 58.0 
576.0003374459613 455.0 NaN 578.0494321977288 0.515582228920043 108.0 0.0 58.0 
578.0003374459613 460.0 NaN 574.9846359385436 0.5372136846410658 108.0 0.0 57.0 
580.0003374459613 455.0 NaN 574.9846359385436 0.5316242926551694 109.0 0.0 57.0 
582.0003374459613 461.0 NaN 574.9979959919841 0.5178058854022577 110.0 0.0 57.0 
584.0003374459613 458.0 NaN 574.9659318637273 0.5094095613872095 110.0 0.0 57.0 
586.0003374459613 458.0 NaN 574.9819639278558 0.5176392436738964 109.0 0.0 57.0 
588.0003374459613 460.0 NaN 578.0601202404807 0.5413886423460592 107.0 0.0 58.0 
590.0003374459613 459.0 NaN 581.1275885103541 0.520642058349303 105.0 0.0 59.0 
592.0003374459613 462.0 NaN 581.1409485637944 0.520114517018418 108.0 0.0 59.0 
594.0003374459613 461.0 NaN 581.1035404141614 0.5079355959796659 109.0 0.0 59.0 
596.0003374459613 459.0 NaN 581.0928523714095 0.5381626024580809 107.0 0.0 59.0 
598.0003374459613 460.0 NaN 581.1062124248499 0.5146286934267901 106.0 0.0 59.0 
600.0003374459613 456.0 NaN 581.0981963927856 0.5075287005365062 107.0 0.0 59.0 
602.0003374459613 467.0 NaN 587.257181028724 0.5242377452394751 109.0 0.0 61.0 
604.0003374459613 461.0 NaN 587.2518370073477 0.4978602691096164 108.0 0.0 61.0 
606.0003374459613 464.0 NaN 587.2678690714762 0.5081533267625659 109.0 0.0 61.0 
608.0003374459613 472.0 NaN 590.3433533734137 0.528806957197156 110.0 0.0 62.0 
610.0003374459613 466.0 NaN 590.3567134268536 0.4979896754307599 111.0 0.0 62.0 
612.0003374459613 471.0 NaN 590.3353373413494 0.5102303650742266 112.0 0.0 62.0 
614.0003374459613 472.0 NaN 581.1516366065462 0.517090467639506 110.0 0.0 59.0 
616.0003374459613 478.0 NaN 581.1569806279227 0.5204016582086232 109.0 0.0 59.0 
618.0003374459613 485.0 NaN 584.1923847695388 0.5291762231056759 106.0 0.0 60.0 
620.0003374459613 479.0 NaN 584.1950567802273 0.5127681306077884 105.0 0.0 60.0 
622.0003374459613 484.0 NaN 584.2324649298597 0.5650723353647417 105.0 0.0 60.0 
624.0003374459613 476.0 NaN 584.203072812291 0.49451160754895285 103.0 0.0 60.0 
626.0003374459613 488.0 NaN 590.3620574482295 0.520787829741978 105.0 0.0 62.0 
628.0003374459613 491.0 NaN 590.3433533734137 0.55795953838261 111.0 0.0 62.0 
630.0003374459613 482.0 NaN 593.4028056112228 0.5277659954786976 114.0 0.0 63.0 
632.0003374459613 492.0 NaN 596.4916499666001 0.5231510091143784 119.0 0.0 64.0 
634.0003374459613 486.0 NaN 599.5404141616568 0.5197995266283261 120.0 0.0 65.0 
636.0003374459613 483.0 NaN 596.4649298597195 0.5276367531024084 121.0 0.0 64.0 
638.0003374459613 485.0 NaN 596.4355377421508 0.5217106334279437 121.0 0.0 64.0 
640.0003374459613 485.0 NaN 599.5938543754175 0.5123444842147464 122.0 0.0 65.0 
642.0003374459613 486.0 NaN 602.6533066132266 0.5222311022694659 119.0 0.0 66.0 
644.0003374459613 485.0 NaN 605.678022712091 0.5173852467870932 122.0 0.0 67.0 
646.0003374459613 480.0 NaN 605.6726786907142 0.5335905621560821 121.0 0.0 67.0 
648.0003374459613 477.0 NaN 608.6973947895794 0.5226222347017143 120.0 0.0 68.0 
650.0003374459613 473.0 NaN 605.659318637275 0.5267334948787704 126.0 0.0 67.0 
652.0003374459613 479.0 NaN 608.7054108216432 0.506193786959333 128.0 0.0 68.0 
654.0003374459613 486.0 NaN 611.8263193052774 0.532023207279638 131.0 0.0 69.0 
656.0003374459613 477.0 NaN 611.8183032732137 0.5109796003972469 129.0 0.0 69.0 
658.0003374459613 483.0 NaN 611.8129592518368 0.5322235274561244 130.0 0.0 69.0 
660.0003374459613 483.0 NaN 617.9639278557114 0.5126634567873858 131.0 0.0 71.0 
662.0003374459613 484.0 NaN 621.0046760187046 0.5356309000155063 129.0 0.0 72.0 
664.0003374459613 474.0 NaN 621.0153640614566 0.5103973657671192 128.0 0.0 72.0 
#####################################################################
# End of data export. Simulation finished at: 2019-03-20T14:19+0000 #
#####################################################################
