#####################################################################
# Alchemist log file - simulation started at: 2019-03-03T23:06+0000 #
#####################################################################
# seed = 1.0, bandwidth = 1.0E8, propagationDelay = 10.0, baserange = 100.0
#
# The columns have the following meaning: 
# time neighbor_count[Sum] <value>@neighbor_count[Sum] packet_size[Mean] mean_delay[Mean] crowd[Sum] overcrowded[Sum] risk[Sum] 
0.0 NaN NaN NaN NaN NaN NaN NaN 
10.000417374280275 NaN NaN 4988.0 NaN 1497.0 0.0 1497.0 
20.000417374280275 13124.0 NaN 4996.138944555778 8.997773394447998 1497.0 0.0 1497.0 
30.000417374280275 13162.0 NaN 4993.068804275217 8.023764161101491 1490.0 7.0 1490.0 
40.000417374280275 13194.0 NaN 4995.452237808951 7.030440972132722 1489.0 8.0 1489.0 
50.000417374280275 13256.0 NaN 4993.421509686039 6.031276626835334 1480.0 17.0 1480.0 
60.000417374280275 13315.0 NaN 4994.754843019372 5.091652400266697 1482.0 15.0 1482.0 
70.00041737428027 13361.0 NaN 1525.3734134936547 4.091682430449882 651.0 18.0 348.0 
80.00041737428027 13363.0 NaN 1534.7014028056094 3.065631647364992 582.0 24.0 345.0 
90.00041737428027 13386.0 NaN 1534.6158984635936 2.1156263846324395 559.0 24.0 345.0 
100.00041737428027 13324.0 NaN 1538.020040080161 1.0972602186364637 541.0 16.0 354.0 
110.00041737428027 13273.0 NaN 1537.8196392785571 5.55966041268017 542.0 9.0 361.0 
120.00041737428027 13223.0 NaN 1540.5183700734815 9.997744754380369 528.0 19.0 352.0 
130.0004173742803 13325.0 NaN 1537.6566466265874 9.053838545537886 524.0 14.0 356.0 
140.0004173742803 13397.0 NaN 1534.2792251169 8.09870076691419 519.0 16.0 353.0 
150.0004173742803 13382.0 NaN 1546.9498997996002 7.053880181467772 520.0 15.0 358.0 
160.0004173742803 13379.0 NaN 1540.4408817635274 6.129775961246767 509.0 23.0 348.0 
170.0004173742803 13283.0 NaN 1540.718770875082 5.099340257056345 516.0 16.0 355.0 
180.0004173742803 13238.0 NaN 1537.4108216432883 4.054081096644032 518.0 15.0 355.0 
190.0004173742803 13217.0 NaN 1540.7348029392115 3.125195216691182 522.0 9.0 362.0 
200.0004173742803 13159.0 NaN 1537.5337341349364 2.114281889260223 513.0 17.0 353.0 
210.0004173742803 13137.0 NaN 1534.8002672010698 1.1586589912707213 508.0 19.0 350.0 
220.0004173742803 13006.0 NaN 1528.6706746826999 5.588315826687794 518.0 10.0 357.0 
230.0004173742803 12839.0 NaN 1528.0668002671998 9.996728488725866 507.0 21.0 346.0 
240.0004173742803 12886.0 NaN 1531.446893787575 9.06214683818756 510.0 15.0 353.0 
250.0004173742803 12925.0 NaN 1528.0374081496334 8.160189720478336 500.0 19.0 348.0 
260.0004173742803 12859.0 NaN 1519.0835003340003 7.121155521855442 505.0 12.0 352.0 
270.0004173742803 12849.0 NaN 1528.1523046092182 6.150457893791756 503.0 19.0 348.0 
280.0004173742803 12835.0 NaN 1528.232464929861 5.201703136937389 504.0 15.0 352.0 
290.0004173742803 12732.0 NaN 1531.2037408149638 4.1724727012382035 499.0 19.0 349.0 
300.0004173742803 12646.0 NaN 1534.4181696726796 3.130700959117363 500.0 14.0 355.0 
310.0004173742803 12553.0 NaN 1540.5210420841695 2.1808303453373927 492.0 21.0 350.0 
320.0004173742803 12514.0 NaN 1534.7735470941884 1.1008087799214894 497.0 15.0 354.0 
330.0004173742803 12446.0 NaN 1540.6813627254521 5.585423375782704 504.0 10.0 361.0 
340.0004173742803 12363.0 NaN 1528.0213760855033 9.997908395676927 488.0 22.0 345.0 
350.0004173742803 12424.0 NaN 1522.2284569138271 9.04434926495214 494.0 17.0 348.0 
360.0004173742803 12517.0 NaN 1515.615230460921 8.114872672265456 490.0 22.0 341.0 
370.0004173742803 12534.0 NaN 1515.9492317969275 7.1655267587678 499.0 18.0 345.0 
380.0004173742803 12505.0 NaN 1506.5063460253828 6.193316693428495 495.0 22.0 338.0 
390.0004173742803 12427.0 NaN 1509.7341349365392 5.233785227640944 501.0 17.0 344.0 
400.0004173742803 12392.0 NaN 1518.8162992651976 4.160779450840481 498.0 22.0 342.0 
410.0004173742803 12380.0 NaN 1528.267201068803 3.1450353920437206 502.0 18.0 349.0 
420.0004173742803 12396.0 NaN 1518.8911155644632 2.1239576933161546 492.0 26.0 338.0 
430.0004173742803 12432.0 NaN 1513.1062124248485 1.162717054910204 501.0 20.0 342.0 
440.0004173742803 12346.0 NaN 1519.1850367401462 5.570832607107064 508.0 14.0 350.0 
450.0004173742803 12251.0 NaN 1524.8897795591183 10.001303821972973 503.0 25.0 341.0 
460.0004173742803 12283.0 NaN 1531.305277221109 9.062370678721875 506.0 17.0 351.0 
470.0004173742803 12342.0 NaN 1534.1456245824997 8.204595906292067 497.0 25.0 344.0 
480.0004173742803 12325.0 NaN 1521.9505678022722 7.1528215494745675 500.0 17.0 348.0 
490.0004173742803 12296.0 NaN 1506.412825651302 6.131531247648242 494.0 23.0 337.0 
500.0004173742803 12305.0 NaN 1488.1816967267878 5.160460163379406 501.0 16.0 338.0 
510.0004173742803 12298.0 NaN 1497.2291249165 4.214414702487572 500.0 23.0 334.0 
520.0004173742802 12312.0 NaN 1488.2484969939887 3.105750075589779 501.0 16.0 338.0 
530.0004173742802 12406.0 NaN 1469.7047428189721 2.1272312809159373 497.0 23.0 325.0 
540.0004173742802 12468.0 NaN 1463.9118236472937 1.1899505214362678 501.0 12.0 334.0 
550.0004173742802 12375.0 NaN 1473.0367401469612 5.603102375643945 507.0 7.0 342.0 
560.0004173742802 12264.0 NaN 1463.4495657982636 10.000336157743025 499.0 19.0 327.0 
570.0004173742802 12354.0 NaN 1476.0 9.081061879107557 499.0 17.0 333.0 
580.0004173742802 12484.0 NaN 1485.026052104209 8.200144240686496 491.0 27.0 326.0 
590.0004173742802 12494.0 NaN 1491.3907815631271 7.269035644884765 505.0 16.0 339.0 
600.0004173742802 12474.0 NaN 1500.291249164997 6.208345853693915 504.0 26.0 332.0 
610.0004173742802 12543.0 NaN 1509.68069472278 5.1849759021657755 522.0 15.0 346.0 
620.0004173742802 12595.0 NaN 1515.727454909819 4.181719525909706 513.0 23.0 340.0 
630.0004173742802 12590.0 NaN 1515.9732798931188 3.2299407319613427 508.0 25.0 338.0 
640.0004173742802 12608.0 NaN 1528.251169004675 2.1729278140856 501.0 35.0 332.0 
650.0004173742802 12604.0 NaN 1522.388777555109 1.1653214804682683 509.0 19.0 346.0 
660.0004173742802 12455.0 NaN 1525.3627254509013 5.583025675237785 514.0 15.0 351.0 
#####################################################################
# End of data export. Simulation finished at: 2019-03-03T23:15+0000 #
#####################################################################
