#####################################################################
# Alchemist log file - simulation started at: 2019-03-01T19:24+0000 #
#####################################################################
# seed = 0.0, bandwidth = 1000.0, propagationDelay = 0.31622776601683794, baserange = 316.2277660168379
#
# The columns have the following meaning: 
# time neighbor_count[Sum] <value>@neighbor_count[Sum] packet_size[Mean] mean_delay[Mean] crowd[Sum] overcrowded[Sum] risk[Sum] 
0.0 NaN NaN NaN NaN NaN NaN NaN 
10.000405536260626 51288.0 NaN 4996.066800267201 3.686758710086504 1497.0 0.0 1497.0 
20.000405536260626 51320.0 NaN 4995.302605210421 1.6973033913582216 1494.0 3.0 1494.0 
30.00006692832061 51376.0 NaN 4993.533734134937 4.30835352006017 1494.0 3.0 1494.0 
40.00040553626063 51447.0 NaN 4993.579158316633 3.745754660749941 1494.0 3.0 1494.0 
50.00040553626063 51521.0 NaN 4993.571142284569 1.7614736627245524 1494.0 3.0 1494.0 
60.00006692832061 51538.0 NaN 4995.3266533066135 4.388895853323202 1494.0 3.0 1494.0 
70.0000032934105 51682.0 NaN 1528.6573146292576 1.5013816600458827 565.0 3.0 364.0 
80.0000032934105 51731.0 NaN 1537.9559118236457 0.9350369650404529 531.0 3.0 367.0 
90.0000032934105 51730.0 NaN 1537.694054776218 1.6299017876491215 527.0 3.0 367.0 
100.0000032934105 51729.0 NaN 1540.7722110888458 1.470730628052531 525.0 2.0 369.0 
110.0000032934105 51726.0 NaN 1540.8016032064122 0.9117269984559332 526.0 2.0 369.0 
120.0000032934105 51794.0 NaN 1537.8543754175003 1.6370712661120732 527.0 2.0 368.0 
130.00000329341051 51812.0 NaN 1537.8543754175003 1.4835188680621545 528.0 2.0 368.0 
140.00000329341051 51782.0 NaN 1531.7995991983973 0.9494638818667206 524.0 4.0 364.0 
150.00000329341051 51750.0 NaN 1531.5938543754185 1.6499838836429352 521.0 5.0 363.0 
160.00000329341051 51695.0 NaN 1531.6205744822998 1.4557326352697464 520.0 4.0 364.0 
170.00000329341051 51656.0 NaN 1534.6987307949244 0.9454947005783295 517.0 4.0 365.0 
180.00000329341051 51575.0 NaN 1531.7889111556456 1.6692531684913663 519.0 6.0 362.0 
190.00000329341051 51414.0 NaN 1531.7461589846364 1.503029488777305 512.0 7.0 361.0 
200.00000329341051 51255.0 NaN 1537.9665998664002 0.9617975486570755 514.0 7.0 363.0 
210.00000329341051 51185.0 NaN 1531.6018704074818 1.654677849137379 509.0 7.0 361.0 
220.00000329341051 51085.0 NaN 1528.4702738810938 1.4955043843731528 509.0 7.0 360.0 
230.00000329341051 51051.0 NaN 1531.6392785571152 0.9872268171441637 506.0 7.0 361.0 
240.00000329341051 51054.0 NaN 1528.590514362057 1.7254927008980705 506.0 7.0 360.0 
250.00000329341051 51022.0 NaN 1525.5551102204392 1.5593554285949789 509.0 6.0 360.0 
260.0000032934105 50955.0 NaN 1522.4635938543752 0.9796625611230392 509.0 6.0 359.0 
270.0000032934105 50861.0 NaN 1525.456245824982 1.655367535873283 505.0 6.0 360.0 
280.0000032934105 50829.0 NaN 1540.7374749499 1.5480592765739185 509.0 6.0 365.0 
290.0000032934105 50693.0 NaN 1534.6105544422182 1.0682855683616563 506.0 6.0 363.0 
300.0000032934105 50526.0 NaN 1525.4589178356728 1.7027658046686964 501.0 6.0 360.0 
310.0000032934105 50297.0 NaN 1522.4048096192364 1.5281385057182229 499.0 6.0 359.0 
320.0000032934105 50075.0 NaN 1528.5237140948545 1.0226202204671788 500.0 6.0 361.0 
330.0000032934105 49911.0 NaN 1531.5190380761546 1.6731322093471979 502.0 6.0 362.0 
340.0000032934105 49768.0 NaN 1534.6265865063453 1.5514493957329523 502.0 6.0 363.0 
350.0000032934105 49666.0 NaN 1531.5323981295912 1.046480346668335 504.0 6.0 362.0 
360.0000032934105 49573.0 NaN 1525.4455577822305 1.6906578974135136 506.0 6.0 360.0 
370.0000032934105 49497.0 NaN 1513.1142284569148 1.516540801041097 509.0 6.0 356.0 
380.0000032934105 49402.0 NaN 1510.0013360053447 1.0222732973917108 510.0 6.0 355.0 
390.0000032934105 49342.0 NaN 1503.7969271877091 1.6723503436032856 511.0 5.0 354.0 
400.0000032934105 49231.0 NaN 1509.945223780894 1.5031860084482513 512.0 6.0 355.0 
410.0000032934105 49142.0 NaN 1525.349365397463 1.0496309999766 516.0 6.0 360.0 
420.0000032934105 49127.0 NaN 1510.0093520374091 1.7243264460895236 512.0 6.0 355.0 
430.0000032934105 49046.0 NaN 1503.8022712090842 1.5457855279540798 509.0 6.0 353.0 
440.0000032934105 48957.0 NaN 1519.1663326653302 1.0190906760020053 516.0 7.0 357.0 
450.0000032934105 48907.0 NaN 1531.444221776888 1.6641460183174148 523.0 6.0 362.0 
460.0000032934105 48843.0 NaN 1546.8456913827638 1.5640976721980777 519.0 6.0 367.0 
470.0000032934105 48777.0 NaN 1534.5784903139615 1.1280041346524798 515.0 6.0 363.0 
480.0000032934105 48768.0 NaN 1519.136940547763 1.6456972362437958 510.0 6.0 358.0 
490.0000032934105 48804.0 NaN 1506.7601870407475 1.4708336547330543 510.0 3.0 357.0 
500.0000032934105 48880.0 NaN 1488.3660654642626 1.010460137209613 508.0 3.0 351.0 
510.0000032934105 48925.0 NaN 1497.584502338009 1.641681129952983 511.0 4.0 353.0 
520.0000032934105 48946.0 NaN 1482.2899131596535 1.4886531333840483 507.0 3.0 349.0 
530.0000032934105 49006.0 NaN 1460.8283233132927 1.0546472578838322 500.0 4.0 341.0 
540.0000032934105 48999.0 NaN 1466.9098196392792 1.5988150009161017 498.0 6.0 341.0 
550.0000032934105 49038.0 NaN 1473.087508350034 1.4917945711143865 502.0 7.0 342.0 
560.0000032934105 49136.0 NaN 1470.0173680694727 1.048868470510129 501.0 8.0 340.0 
570.0000032934105 49199.0 NaN 1476.1897127588513 1.640241161628763 502.0 7.0 343.0 
580.0000032934105 49214.0 NaN 1476.2859051436203 1.5270253173562967 505.0 7.0 343.0 
590.0000032934105 49295.0 NaN 1476.1870407481633 1.0933201135731694 508.0 7.0 343.0 
600.0000032934105 49337.0 NaN 1485.4428857715436 1.706614471530522 511.0 7.0 346.0 
610.0000032934105 49320.0 NaN 1503.8076152304618 1.5211386573911465 521.0 7.0 352.0 
620.0000032934105 49334.0 NaN 1500.7748830995333 1.0727147032241136 517.0 7.0 351.0 
630.0000032934105 49289.0 NaN 1510.0334001335998 1.6783132027654468 515.0 7.0 354.0 
640.0000032934105 49239.0 NaN 1513.0821643286565 1.5404844106698259 517.0 7.0 355.0 
650.0000032934105 49177.0 NaN 1519.2064128256523 1.0778517125652323 509.0 7.0 357.0 
660.0000032934105 49184.0 NaN 1522.3032732130919 1.6808974360348918 506.0 7.0 358.0 
#####################################################################
# End of data export. Simulation finished at: 2019-03-01T19:42+0000 #
#####################################################################
