#####################################################################
# Alchemist log file - simulation started at: 2019-03-14T09:41+0000 #
#####################################################################
# seed = 8.0, bandwidth = 1000.0, propagationDelay = 0.001, baserange = 316.2277660168379
#
# The columns have the following meaning: 
# time neighbor_count[Sum] <value>@neighbor_count[Sum] packet_size[Mean] mean_delay[Mean] crowd[Sum] overcrowded[Sum] risk[Sum] 
0.0 NaN NaN NaN NaN NaN NaN NaN 
2.000927030832833 NaN NaN 4988.0 NaN 1497.0 0.0 1497.0 
4.000927030832833 NaN NaN 4988.0 NaN 1497.0 0.0 1497.0 
6.000198348008885 25794.0 NaN 4989.205076820307 0.2650455212865208 1497.0 0.0 1497.0 
8.000927030832834 51288.0 NaN 4994.7708750835 2.0025150458029954 1497.0 0.0 1497.0 
10.00013449896187 51288.0 NaN 4994.746826987308 4.001591414479364 1497.0 0.0 1497.0 
12.000927030832834 51288.0 NaN 4994.530394121576 1.0115786859128701 1497.0 0.0 1497.0 
14.000927030832834 51288.0 NaN 4993.9585838343355 3.01157868591287 1497.0 0.0 1497.0 
16.000198348008887 51291.0 NaN 4993.9559118236475 2.5166052906649177 1494.0 3.0 1494.0 
18.000927030832834 51296.0 NaN 4993.9639278557115 2.005732552311345 1494.0 3.0 1494.0 
20.000594042860097 51296.0 NaN 4993.9665998663995 4.005039551618345 1494.0 3.0 1494.0 
22.00047356809906 51320.0 NaN 4993.9692718770875 1.9626429347661256 1495.0 2.0 1495.0 
24.000927030832834 51328.0 NaN 4993.9665998663995 2.55963948126416 1495.0 2.0 1495.0 
26.000198348008887 51343.0 NaN 4993.9746158984635 3.1658160513732367 1495.0 2.0 1495.0 
28.00047356809906 51366.0 NaN 4993.9692718770875 2.320313888050832 1495.0 2.0 1495.0 
30.000594042860097 51372.0 NaN 4993.9585838343355 3.1832918469664175 1495.0 2.0 1495.0 
32.000927030832834 51378.0 NaN 4993.9986639946555 2.3588982977242288 1495.0 2.0 1495.0 
34.00047356809906 51399.0 NaN 4993.9906479625915 2.945686484349858 1495.0 2.0 1495.0 
36.00019834800889 51422.0 NaN 4993.9906479625915 2.419129905919657 1495.0 2.0 1495.0 
38.000927030832834 51443.0 NaN 4994.0013360053445 2.746855555235987 1495.0 2.0 1495.0 
40.00047356809906 51444.0 NaN 4993.9933199732795 3.554054817984596 1495.0 2.0 1495.0 
42.000927030832834 51452.0 NaN 4994.0200400801605 1.6189931329501204 1495.0 2.0 1495.0 
44.000927030832834 51454.0 NaN 4993.9879759519035 3.3799789522574146 1495.0 2.0 1495.0 
46.00019834800889 51479.0 NaN 4993.9799599198395 2.7997631742541205 1495.0 2.0 1495.0 
48.000927030832834 51508.0 NaN 4993.9665998663995 2.0124357879153667 1495.0 2.0 1495.0 
50.000594042860094 51509.0 NaN 4993.9478957915835 3.9921116188168826 1495.0 2.0 1495.0 
52.00047356809906 51517.0 NaN 4993.9639278557115 1.9957451165389208 1495.0 2.0 1495.0 
54.000927030832834 51514.0 NaN 4993.9879759519035 2.6385478487674616 1495.0 2.0 1495.0 
56.00019834800889 51532.0 NaN 4993.9959919839675 3.239917565123564 1495.0 2.0 1495.0 
58.00047356809906 51568.0 NaN 4993.9746158984635 2.3937562715570415 1495.0 2.0 1495.0 
60.000594042860094 51582.0 NaN 4993.9906479625915 3.256140079798209 1495.0 2.0 1495.0 
62.00089367128746 51609.0 NaN 1521.9906479625909 2.201679391703628 825.0 0.0 365.0 
64.00047356809905 51630.0 NaN 1522.0040080160334 1.845689624957143 693.0 0.0 365.0 
66.0001983480089 51679.0 NaN 1521.9719438877753 1.2214493466069727 628.0 2.0 363.0 
68.00089367128747 51692.0 NaN 1521.945223780894 1.5151964645342892 573.0 2.0 363.0 
70.00089367128747 51698.0 NaN 1521.9265197060793 1.3453032336468447 550.0 2.0 363.0 
72.00089367128747 51656.0 NaN 1521.9158316633273 1.007915454806499 538.0 3.0 362.0 
74.00013449896187 51667.0 NaN 1521.9265197060793 1.537729212929194 533.0 3.0 362.0 
76.0001983480089 51681.0 NaN 1524.9752839011364 1.2868035144834944 528.0 4.0 362.0 
78.00089367128747 51727.0 NaN 1528.0374081496334 1.0159946152442787 527.0 3.0 364.0 
80.00089367128747 51750.0 NaN 1528.0187040748178 1.530816049149993 529.0 2.0 365.0 
82.0002836560263 51737.0 NaN 1528.0133600534393 1.2400178718362171 527.0 2.0 365.0 
84.00013449896187 51742.0 NaN 1531.0888443553788 1.0660126020872247 525.0 2.0 366.0 
86.0001983480089 51742.0 NaN 1531.0888443553788 1.49023380171831 524.0 2.0 366.0 
88.0002836560263 51751.0 NaN 1531.0888443553788 1.2822999872011993 526.0 2.0 366.0 
90.00089367128747 51764.0 NaN 1531.0968603874423 1.0878369488941662 526.0 2.0 366.0 
92.00089367128747 51761.0 NaN 1531.080828323312 1.4783381162558253 525.0 2.0 366.0 
94.00013449896187 51749.0 NaN 1531.080828323312 1.3244889315001562 524.0 2.0 366.0 
96.0001983480089 51736.0 NaN 1534.1616566466275 1.0173543283459565 524.0 2.0 367.0 
98.00089367128747 51739.0 NaN 1534.1563126252515 1.477103513552625 524.0 2.0 367.0 
100.0002836560263 51742.0 NaN 1534.1589846359366 1.3266436281272675 524.0 2.0 367.0 
102.00089367128747 51745.0 NaN 1534.1563126252515 1.0007633819990835 524.0 2.0 367.0 
104.00013449896187 51740.0 NaN 1534.1616566466275 1.5255875750479462 524.0 2.0 367.0 
106.0001983480089 51734.0 NaN 1534.1616566466275 1.255061783234681 523.0 3.0 366.0 
108.00089367128747 51735.0 NaN 1534.142952571809 1.004901094796448 522.0 3.0 366.0 
110.00089367128747 51738.0 NaN 1534.1482965931848 1.5182415225373935 522.0 3.0 366.0 
112.0002836560263 51787.0 NaN 1537.2317969271883 1.2361707500177777 522.0 3.0 367.0 
114.00013449896187 51801.0 NaN 1537.2344689378754 1.0591540772033057 522.0 3.0 367.0 
116.0001983480089 51805.0 NaN 1537.2344689378754 1.486167468816447 523.0 2.0 368.0 
118.0002836560263 51806.0 NaN 1543.3987975951911 1.2786828261405565 525.0 2.0 370.0 
120.00089367128747 51809.0 NaN 1540.3286573146274 1.0862395140089505 526.0 2.0 369.0 
122.00089367128747 51832.0 NaN 1543.3987975951911 1.472603588819892 527.0 2.0 370.0 
124.00013449896187 51841.0 NaN 1543.3987975951911 1.3237421052074128 527.0 2.0 370.0 
126.0001983480089 51849.0 NaN 1543.4041416165664 1.050610196539567 527.0 2.0 370.0 
128.00089367128746 51814.0 NaN 1543.3987975951911 1.4889017394666086 527.0 2.0 370.0 
130.0002836560263 51806.0 NaN 1543.3961255845 1.3271219291864649 527.0 2.0 370.0 
132.00089367128749 51796.0 NaN 1543.4121576486302 1.0131042566723951 526.0 2.0 370.0 
134.00013449896187 51798.0 NaN 1540.3580494322 1.5291189646964891 524.0 2.0 369.0 
136.0001983480089 51811.0 NaN 1534.2231128924518 1.2810495575883594 524.0 2.0 367.0 
138.00089367128749 51788.0 NaN 1534.2124248497 1.0279173311198306 519.0 2.0 367.0 
140.00089367128749 51800.0 NaN 1531.1315965263848 1.534938341952666 518.0 2.0 366.0 
142.0002836560263 51785.0 NaN 1540.3794255177 1.2581295335952292 520.0 2.0 369.0 
144.00013449896187 51769.0 NaN 1540.3580494322 1.0725037491516185 520.0 2.0 369.0 
146.0001983480089 51789.0 NaN 1540.3660654642636 1.5006638813085964 520.0 2.0 369.0 
148.0002836560263 51768.0 NaN 1546.5464261857062 1.2882493742953236 519.0 2.0 371.0 
150.00089367128749 51761.0 NaN 1546.530394121576 1.0945642663017057 518.0 2.0 371.0 
152.00089367128749 51743.0 NaN 1543.4575818303274 1.47557530235219 518.0 2.0 370.0 
154.00013449896187 51724.0 NaN 1537.2879091516363 1.3046082878916645 519.0 2.0 368.0 
156.0001983480089 51730.0 NaN 1540.3981295925182 1.0353262146765847 516.0 2.0 369.0 
158.00089367128749 51712.0 NaN 1540.3687374749484 1.4887692237062065 516.0 2.0 369.0 
160.0002836560263 51706.0 NaN 1540.374081496327 1.3124893343503758 516.0 2.0 369.0 
162.00089367128749 51689.0 NaN 1540.3580494322 1.0069344556174882 517.0 2.0 369.0 
164.00013449896187 51681.0 NaN 1540.3473613894453 1.5272221105520312 516.0 2.0 369.0 
166.0001983480089 51666.0 NaN 1540.355377421509 1.2919530574887539 517.0 2.0 369.0 
168.00089367128749 51631.0 NaN 1543.4442217768878 1.0517629849288976 517.0 2.0 370.0 
170.00089367128749 51634.0 NaN 1543.4415497662003 1.561426521227058 516.0 2.0 370.0 
172.0002836560263 51632.0 NaN 1540.3527054108213 1.28943793822733 516.0 2.0 369.0 
174.00013449896187 51618.0 NaN 1546.514362057448 1.101052248874791 520.0 2.0 371.0 
176.0001983480089 51599.0 NaN 1546.5197060788246 1.5362660688190735 520.0 2.0 371.0 
178.0002836560263 51558.0 NaN 1546.5197060788248 1.3243932097327666 522.0 1.0 372.0 
180.00089367128749 51529.0 NaN 1546.5116900467608 1.1291809666003412 521.0 1.0 372.0 
182.00089367128749 51535.0 NaN 1543.4362057448247 1.519984283547124 522.0 1.0 371.0 
184.00013449896187 51491.0 NaN 1540.3340013360064 1.3489247958536166 519.0 1.0 370.0 
186.0001983480089 51481.0 NaN 1540.339345357382 1.0818142795314096 518.0 2.0 369.0 
188.00089367128749 51477.0 NaN 1540.3233132932546 1.5528674139743293 519.0 2.0 369.0 
190.0002836560263 51428.0 NaN 1534.1937207748817 1.3972824812411226 518.0 2.0 367.0 
192.00089367128749 51375.0 NaN 1534.1963927855727 1.0385499502587312 514.0 4.0 365.0 
194.00013449896187 51355.0 NaN 1534.185704742818 1.5288469735779282 515.0 4.0 365.0 
196.0001983480089 51321.0 NaN 1537.2718770875092 1.2856788726400314 515.0 4.0 366.0 
198.00089367128749 51284.0 NaN 1534.1963927855725 1.057475268515359 515.0 4.0 365.0 
200.00089367128749 51277.0 NaN 1537.2798931195728 1.55869790130762 516.0 4.0 366.0 
202.0002836560263 51238.0 NaN 1537.250501002003 1.2861707062511067 516.0 4.0 366.0 
204.00013449896187 51252.0 NaN 1540.309953239812 1.1016731260496289 517.0 4.0 367.0 
206.0001983480089 51247.0 NaN 1540.309953239812 1.5242391147880239 518.0 4.0 367.0 
208.0002836560263 51208.0 NaN 1537.2398129592518 1.321903692486806 518.0 4.0 366.0 
210.00089367128749 51184.0 NaN 1534.1776887107544 1.1176383567847676 513.0 4.0 365.0 
212.00089367128749 51167.0 NaN 1528.0320641282547 1.4746178069417673 512.0 4.0 363.0 
214.00013449896187 51168.0 NaN 1531.123580494321 1.3251895765338524 510.0 4.0 364.0 
216.0001983480089 51129.0 NaN 1534.142952571809 1.055425217311873 511.0 4.0 365.0 
218.00089367128749 51105.0 NaN 1531.078156312627 1.508392170526403 510.0 4.0 364.0 
220.0002836560263 51089.0 NaN 1528.0053440213755 1.3550628175110742 510.0 4.0 363.0 
222.00089367128749 51066.0 NaN 1524.911155644621 1.0543219111823678 510.0 4.0 362.0 
224.00013449896187 51059.0 NaN 1521.8543754175005 1.5605965844413603 510.0 4.0 361.0 
226.0001983480089 51026.0 NaN 1524.9218436873732 1.308271816251663 509.0 4.0 362.0 
228.00089367128749 51015.0 NaN 1524.9298597194388 1.0805138061915087 508.0 5.0 361.0 
230.00089367128749 51019.0 NaN 1531.0861723446908 1.5944238188226658 508.0 3.0 365.0 
232.0002836560263 51018.0 NaN 1531.0861723446908 1.3392623728478548 509.0 3.0 365.0 
234.00013449896187 51055.0 NaN 1537.247828991318 1.151216480787394 510.0 2.0 368.0 
236.0001983480089 51062.0 NaN 1537.250501002003 1.5758793548768115 511.0 2.0 368.0 
238.0002836560263 51058.0 NaN 1534.1563126252515 1.4001230562831644 510.0 2.0 367.0 
240.00089367128749 51054.0 NaN 1531.1048764195061 1.2159027500175343 510.0 2.0 366.0 
242.00089367128749 51031.0 NaN 1531.0941883767546 1.5954185529184504 511.0 2.0 366.0 
244.00013449896187 51017.0 NaN 1528.024048096191 1.4431208867188836 511.0 2.0 365.0 
246.0001983480089 51009.0 NaN 1528.024048096191 1.1495445372944249 510.0 3.0 364.0 
248.00089367128749 50994.0 NaN 1527.9893119572475 1.6005541512425971 509.0 4.0 363.0 
250.0002836560263 51003.0 NaN 1521.8410153640632 1.4672402159958793 508.0 4.0 361.0 
252.00089367128749 50998.0 NaN 1524.9565798263181 1.116051671571248 507.0 4.0 362.0 
254.00013449896187 50989.0 NaN 1524.9298597194388 1.612370687405346 506.0 4.0 362.0 
256.0001983480089 50951.0 NaN 1524.9458917835664 1.349437191328129 508.0 4.0 362.0 
258.00089367128743 50910.0 NaN 1521.8490313961267 1.0815003593054144 510.0 4.0 361.0 
260.00089367128743 50908.0 NaN 1521.859719438879 1.5849735194030043 510.0 4.0 361.0 
262.0002836560263 50920.0 NaN 1515.7381429525726 1.3119448556526552 509.0 4.0 359.0 
264.0001344989618 50892.0 NaN 1515.732798931197 1.0662549050509338 507.0 4.0 359.0 
266.0001983480089 50892.0 NaN 1515.732798931197 1.4642656707314603 507.0 4.0 359.0 
268.0002836560263 50874.0 NaN 1524.9752839011364 1.2887500224737916 506.0 4.0 362.0 
270.00089367128743 50876.0 NaN 1521.8704074816299 1.093499561120882 506.0 4.0 361.0 
272.00089367128743 50881.0 NaN 1518.7869071476275 1.4958793789560243 506.0 4.0 360.0 
274.0001344989618 50854.0 NaN 1531.1182364729455 1.360222619190783 507.0 4.0 364.0 
276.0001983480089 50819.0 NaN 1531.0647962591843 1.0836244736954608 507.0 4.0 364.0 
278.00089367128743 50814.0 NaN 1527.9679358717453 1.569680036411156 507.0 4.0 363.0 
280.0002836560263 50795.0 NaN 1527.9919839679364 1.4079120806723582 510.0 4.0 363.0 
282.00089367128743 50751.0 NaN 1524.9031396125574 1.1065767616284579 510.0 4.0 362.0 
284.0001344989618 50747.0 NaN 1527.9679358717453 1.6291389273987824 509.0 4.0 363.0 
286.0001983480089 50717.0 NaN 1524.8710754843 1.3943107515175817 508.0 4.0 362.0 
288.00089367128743 50676.0 NaN 1524.8523714094845 1.1768484855192198 508.0 4.0 362.0 
290.00089367128743 50666.0 NaN 1524.8443553774207 1.671982625927184 508.0 4.0 362.0 
292.0002836560263 50639.0 NaN 1527.9278557114242 1.4088245227647127 508.0 4.0 363.0 
294.0001344989618 50604.0 NaN 1530.9766199064818 1.212873597035989 507.0 4.0 364.0 
296.0001983480089 50509.0 NaN 1531.0086840347365 1.5317394379127245 506.0 4.0 364.0 
298.0002836560263 50462.0 NaN 1534.0921843687363 1.352777386307418 505.0 4.0 365.0 
300.00089367128743 50413.0 NaN 1534.1055444221795 1.1599940059688174 505.0 4.0 365.0 
302.00089367128743 50392.0 NaN 1537.2104208416818 1.5257010019732797 505.0 4.0 366.0 
304.0001344989618 50373.0 NaN 1531.0514362057456 1.398283791089223 505.0 4.0 364.0 
306.0001983480089 50320.0 NaN 1534.1322645290568 1.1232495129891267 506.0 2.0 367.0 
308.00089367128743 50299.0 NaN 1534.1055444221795 1.584884392924319 506.0 2.0 367.0 
310.0002836560263 50262.0 NaN 1524.8550434201725 1.4313714555461798 504.0 2.0 364.0 
312.00089367128743 50205.0 NaN 1524.830995323982 1.1086209257554425 503.0 2.0 364.0 
314.0001344989618 50179.0 NaN 1524.8203072812273 1.5775716932020774 503.0 2.0 364.0 
316.0001983480089 50121.0 NaN 1524.841683366734 1.3263426444617263 503.0 2.0 364.0 
318.00089367128743 50082.0 NaN 1527.9225116900454 1.1038173027150202 505.0 2.0 365.0 
320.00089367128743 50049.0 NaN 1524.8523714094842 1.5724601749907956 504.0 2.0 364.0 
322.0002836560263 50026.0 NaN 1527.9893119572475 1.3253132976872029 502.0 2.0 365.0 
324.0001344989618 49998.0 NaN 1531.0086840347365 1.1471483144125616 502.0 2.0 366.0 
326.0001983480089 49962.0 NaN 1531.0140280561113 1.5198956326298572 503.0 2.0 366.0 
328.00089367128743 49929.0 NaN 1534.0814963259843 1.3520063635994428 503.0 2.0 367.0 
330.00089367128743 49892.0 NaN 1537.1863727454909 1.1500408912475661 504.0 2.0 368.0 
332.00089367128743 49885.0 NaN 1540.2565130260525 1.5027945149915403 503.0 2.0 369.0 
334.0001344989618 49872.0 NaN 1537.1676686706728 1.3849738490786485 503.0 2.0 368.0 
336.0001983480089 49858.0 NaN 1534.092184368736 1.1235478362887115 505.0 2.0 367.0 
338.00089367128743 49835.0 NaN 1534.0574482297911 1.5635430273454243 506.0 2.0 367.0 
340.0002836560263 49801.0 NaN 1530.9739478957908 1.4318059028878747 505.0 2.0 366.0 
342.00089367128743 49766.0 NaN 1530.9899799599184 1.1347621413024858 504.0 2.0 366.0 
344.0001344989618 49753.0 NaN 1534.0627922511696 1.610333578997083 504.0 2.0 367.0 
346.0001983480089 49727.0 NaN 1534.097528390112 1.3639704569634863 504.0 2.0 367.0 
348.00089367128743 49689.0 NaN 1531.0033400133605 1.1398456806176778 508.0 2.0 366.0 
350.00089367128743 49648.0 NaN 1531.0193720774882 1.5838763540414509 508.0 2.0 366.0 
352.0002836560263 49627.0 NaN 1527.9438877755513 1.3655224815493514 507.0 2.0 365.0 
354.0001344989618 49623.0 NaN 1527.895791583166 1.1912200228223337 508.0 2.0 365.0 
356.0001983480089 49610.0 NaN 1527.9198396793577 1.579428507263619 508.0 2.0 365.0 
358.0002836560263 49605.0 NaN 1524.8603874415487 1.3869574086320853 507.0 2.0 364.0 
360.00089367128743 49598.0 NaN 1524.8336673346696 1.1970132222949847 508.0 2.0 364.0 
362.00089367128743 49577.0 NaN 1524.836339345357 1.5560563114930543 509.0 2.0 364.0 
364.0001344989618 49557.0 NaN 1518.7094188376752 1.40767444190058 512.0 2.0 362.0 
366.0001983480089 49539.0 NaN 1518.7040748163001 1.1596505101940369 511.0 2.0 362.0 
368.00089367128743 49520.0 NaN 1512.5531062124253 1.5763827286751437 510.0 2.0 360.0 
370.0002836560263 49511.0 NaN 1506.4101536406151 1.4274469112107107 511.0 2.0 358.0 
372.00089367128743 49474.0 NaN 1503.356045424182 1.1143353635636761 509.0 2.0 357.0 
374.0001344989618 49470.0 NaN 1506.4288577154305 1.5747012135116807 511.0 2.0 358.0 
376.0001983480089 49440.0 NaN 1512.579826319306 1.349554813507939 511.0 2.0 360.0 
378.00089367128743 49435.0 NaN 1509.4829659318634 1.1389040822268994 512.0 2.0 359.0 
380.00089367128743 49428.0 NaN 1509.480293921175 1.5979805155621596 512.0 2.0 359.0 
382.0002836560263 49396.0 NaN 1506.4101536406151 1.3477567098546015 512.0 2.0 358.0 
384.0001344989618 49375.0 NaN 1509.504342017367 1.1592325637366263 509.0 2.0 359.0 
386.0001983480089 49354.0 NaN 1506.415497661991 1.5335968969174087 512.0 2.0 358.0 
388.0002836560263 49331.0 NaN 1509.4936539746172 1.3473370590784652 511.0 2.0 359.0 
390.00089367128743 49288.0 NaN 1509.5070140280552 1.1517242319586123 511.0 2.0 359.0 
392.00089367128743 49263.0 NaN 1509.5337341349364 1.4918357300801837 511.0 2.0 359.0 
394.0001344989618 49245.0 NaN 1509.515030060119 1.3540229925935545 510.0 2.0 359.0 
396.0001983480089 49221.0 NaN 1512.582498329993 1.1110399943796225 511.0 2.0 360.0 
398.00089367128743 49240.0 NaN 1512.5718102872422 1.5414471455522323 516.0 2.0 360.0 
400.0002836560263 49236.0 NaN 1512.5611222444902 1.4083485873365904 516.0 2.0 360.0 
402.00089367128743 49220.0 NaN 1509.547094188376 1.0879798166994794 517.0 2.0 359.0 
404.0001344989618 49205.0 NaN 1512.6172344689369 1.5581716760696163 517.0 2.0 360.0 
406.0001983480089 49175.0 NaN 1512.643954575818 1.3435298152951058 519.0 2.0 360.0 
408.00089367128743 49138.0 NaN 1512.5851703406818 1.1387997913140095 518.0 2.0 360.0 
410.00089367128743 49133.0 NaN 1521.8517034068152 1.6097226419792665 519.0 2.0 363.0 
412.0002836560263 49146.0 NaN 1521.8597194388788 1.346898117366021 520.0 2.0 363.0 
414.0001344989618 49134.0 NaN 1521.8677354709423 1.1879800463051344 520.0 2.0 363.0 
416.0001983480089 49133.0 NaN 1518.7682030728115 1.5630965727384014 520.0 2.0 362.0 
418.0002836560263 49117.0 NaN 1518.7334669338666 1.384376882148085 519.0 2.0 362.0 
420.00089367128743 49108.0 NaN 1521.8169672678698 1.222153082171775 520.0 2.0 363.0 
422.00089367128743 49107.0 NaN 1518.7628590514364 1.5658626155779727 521.0 2.0 362.0 
424.0001344989618 49083.0 NaN 1500.3206412825646 1.4254391996304592 522.0 2.0 356.0 
426.0001983480089 49069.0 NaN 1503.390781563127 1.1977238158109924 518.0 2.0 357.0 
428.00089367128743 49023.0 NaN 1506.4128256513022 1.5850372268397814 515.0 3.0 357.0 
430.0002836560263 49011.0 NaN 1503.353373413493 1.436420582927664 515.0 3.0 356.0 
432.00089367128743 49019.0 NaN 1503.3774215096848 1.1809149464535498 515.0 3.0 356.0 
434.0001344989618 48983.0 NaN 1509.5337341349364 1.5564058404070735 516.0 3.0 358.0 
436.0001983480089 48986.0 NaN 1515.6526386105547 1.3103371335321705 515.0 4.0 359.0 
438.00089367128743 48971.0 NaN 1518.7147628590521 1.1080586052919772 514.0 4.0 360.0 
440.00089367128743 48945.0 NaN 1524.8470273881092 1.5359784837550294 522.0 4.0 362.0 
442.0002836560263 48927.0 NaN 1531.0060120240478 1.2968051266924543 522.0 4.0 364.0 
444.0001344989618 48919.0 NaN 1530.9899799599186 1.142178570706339 523.0 4.0 364.0 
446.0001983480089 48902.0 NaN 1534.108216432864 1.498506608286796 525.0 4.0 365.0 
448.0002836560263 48906.0 NaN 1530.9445557782242 1.3250705568615953 525.0 4.0 364.0 
450.00089367128743 48872.0 NaN 1530.9552438209753 1.165129810476396 522.0 4.0 364.0 
452.00089367128743 48869.0 NaN 1530.9873079492334 1.4994343243682695 522.0 4.0 364.0 
454.0001344989618 48874.0 NaN 1543.289245156982 1.3600709632853476 523.0 3.0 369.0 
456.0001983480089 48867.0 NaN 1549.4402137608542 1.1516148851196213 524.0 3.0 371.0 
458.00089367128743 48853.0 NaN 1546.3273213092848 1.5595570310817322 524.0 3.0 370.0 
460.0002836560263 48828.0 NaN 1543.2571810287245 1.4148256976887756 523.0 3.0 369.0 
462.00089367128743 48821.0 NaN 1546.3593854375426 1.171225883591128 524.0 3.0 370.0 
464.0001344989618 48819.0 NaN 1546.3780895123573 1.6249927808516658 524.0 3.0 370.0 
466.0001983480089 48812.0 NaN 1546.3674014696064 1.410185994418056 525.0 3.0 370.0 
468.00089367128743 48783.0 NaN 1540.2030728122909 1.1835578355320533 525.0 3.0 368.0 
470.00089367128743 48780.0 NaN 1537.154308617236 1.6167317693673795 524.0 3.0 367.0 
472.0002836560263 48800.0 NaN 1537.164996659988 1.3719855131035816 522.0 3.0 367.0 
474.0001344989618 48804.0 NaN 1537.1249164996657 1.229203830991348 521.0 3.0 367.0 
476.0001983480089 48802.0 NaN 1534.065464261857 1.545249723799189 521.0 3.0 366.0 
478.0002836560263 48801.0 NaN 1534.0494321977276 1.3472550267407954 521.0 3.0 366.0 
480.00089367128743 48798.0 NaN 1534.0387441549758 1.1727703911707745 522.0 3.0 366.0 
482.00089367128743 48794.0 NaN 1531.0060120240478 1.508553937822951 520.0 3.0 365.0 
484.0001344989618 48799.0 NaN 1527.9412157648637 1.3509147849026628 520.0 3.0 364.0 
486.0001983480089 48788.0 NaN 1524.892451569807 1.1337144123806997 513.0 3.0 363.0 
488.00089367128743 48804.0 NaN 1515.6419505678004 1.5200688896475503 514.0 3.0 360.0 
490.0002836560263 48843.0 NaN 1509.5283901135613 1.3265816374691266 511.0 3.0 358.0 
492.00089367128743 48851.0 NaN 1506.4502338009363 1.0794720169718364 512.0 3.0 357.0 
494.0001344989618 48854.0 NaN 1503.3881095524373 1.5017351380893196 510.0 3.0 356.0 
496.0001983480089 48848.0 NaN 1503.3720774883093 1.2864977122723504 509.0 4.0 355.0 
498.00089367128743 48876.0 NaN 1500.243152972611 1.1091692675690281 509.0 3.0 355.0 
500.00089367128743 48910.0 NaN 1500.243152972611 1.5466651505168638 510.0 3.0 355.0 
502.0002836560263 48906.0 NaN 1503.3480293921182 1.2566965370346173 510.0 3.0 356.0 
504.0001344989618 48914.0 NaN 1503.3720774883093 1.1292521019728066 515.0 1.0 358.0 
506.0001983480089 48901.0 NaN 1500.3206412825643 1.4863014125762863 516.0 1.0 357.0 
508.0002836560263 48909.0 NaN 1497.1810287241158 1.288304274703824 517.0 1.0 356.0 
510.00089367128743 48942.0 NaN 1497.1890447561798 1.1746246603382158 515.0 2.0 355.0 
512.0008936712875 48955.0 NaN 1494.124248496993 1.4996058266693253 517.0 3.0 353.0 
514.0001344989619 48950.0 NaN 1494.1509686038737 1.3435622794563205 515.0 2.0 354.0 
516.0001983480089 48935.0 NaN 1491.1075484301928 1.1652418964898226 514.0 2.0 353.0 
518.0008936712874 48939.0 NaN 1484.961923847694 1.5390119670470996 509.0 2.0 351.0 
520.0002836560263 48966.0 NaN 1481.873079492318 1.3863884041076353 504.0 3.0 349.0 
522.0008936712874 48984.0 NaN 1481.8837675350708 1.1651216841073224 506.0 2.0 350.0 
524.0001344989619 48993.0 NaN 1472.6653306613218 1.5566506394203146 507.0 2.0 347.0 
526.0001983480089 48989.0 NaN 1466.56513026052 1.3235505776357377 504.0 2.0 345.0 
528.0008936712874 48990.0 NaN 1466.5624582498335 1.1466433548727513 502.0 2.0 345.0 
530.0008936712874 49000.0 NaN 1466.6052104208427 1.5619617377004311 498.0 2.0 345.0 
532.0002836560263 49003.0 NaN 1460.4622578490305 1.3014859067129694 499.0 2.0 343.0 
534.0001344989619 49006.0 NaN 1460.4435537742156 1.1733282086488244 499.0 2.0 343.0 
536.0001983480089 49006.0 NaN 1466.6052104208425 1.490063969610959 502.0 2.0 345.0 
538.0002836560263 49017.0 NaN 1466.5998663994649 1.3032180790297965 503.0 2.0 345.0 
540.0008936712874 49039.0 NaN 1466.5811623246484 1.1724873014219606 505.0 2.0 345.0 
542.0008936712874 49033.0 NaN 1469.6593186372738 1.483991674750738 508.0 2.0 346.0 
544.0001344989619 49037.0 NaN 1463.551102204409 1.3245666185339167 509.0 2.0 344.0 
546.0001983480089 49028.0 NaN 1466.6346025384096 1.1274093667432432 510.0 2.0 345.0 
548.0008936712874 49023.0 NaN 1469.7020708082825 1.5123711231760306 509.0 2.0 346.0 
550.0002836560263 49032.0 NaN 1469.6593186372738 1.3545104630979634 508.0 2.0 346.0 
552.0008936712874 49029.0 NaN 1478.9044756179019 1.123615858241177 507.0 2.0 349.0 
554.0001344989619 49050.0 NaN 1478.8724114896454 1.5604536041690138 510.0 2.0 349.0 
556.0001983480089 49066.0 NaN 1478.8777555110214 1.3632361804496271 510.0 2.0 349.0 
558.0008936712874 49088.0 NaN 1478.944555778224 1.1844930931708553 511.0 2.0 349.0 
560.0008936712874 49108.0 NaN 1472.7588510354035 1.6008789656883164 509.0 2.0 347.0 
562.0002836560263 49121.0 NaN 1466.5784903139615 1.3387961232040904 504.0 2.0 345.0 
564.0001344989619 49155.0 NaN 1466.597194388778 1.1880070948239565 505.0 2.0 345.0 
566.0001983480089 49162.0 NaN 1469.6619906479632 1.5258800173421851 507.0 2.0 346.0 
568.0002836560263 49163.0 NaN 1472.676018704074 1.3540930613308182 507.0 2.0 347.0 
570.0008936712874 49192.0 NaN 1469.597862391449 1.2019133997466231 507.0 2.0 346.0 
572.0008936712874 49204.0 NaN 1469.6432865731458 1.4872463044060853 508.0 2.0 346.0 
574.0001344989619 49192.0 NaN 1475.7889111556449 1.3403265093543713 505.0 3.0 347.0 
576.0001983480089 49194.0 NaN 1475.7915831663333 1.1383046340640055 507.0 2.0 348.0 
578.0008936712874 49149.0 NaN 1475.780895123581 1.492775550350223 511.0 2.0 348.0 
580.0002836560263 49175.0 NaN 1475.7621910487637 1.3577862626274793 512.0 2.0 348.0 
582.0008936712874 49195.0 NaN 1475.778223112892 1.1376489493876063 512.0 2.0 348.0 
584.0001344989619 49225.0 NaN 1485.012692050767 1.543266996613434 510.0 2.0 351.0 
586.0001983480089 49258.0 NaN 1481.9078156312632 1.3607819659041442 512.0 2.0 350.0 
588.0008936712874 49294.0 NaN 1484.9913159652635 1.188341241056617 512.0 2.0 351.0 
590.0008936712874 49295.0 NaN 1484.9966599866393 1.5946140712188401 518.0 2.0 351.0 
592.0002836560263 49305.0 NaN 1485.002004008017 1.366507228394706 520.0 2.0 351.0 
594.0001344989619 49333.0 NaN 1484.9859719438887 1.234476765792744 521.0 2.0 351.0 
596.0001983480089 49362.0 NaN 1484.9726118904468 1.5471073247277598 521.0 2.0 351.0 
598.0002836560263 49353.0 NaN 1488.0641282565123 1.375617069064278 522.0 2.0 352.0 
600.0008936712874 49334.0 NaN 1497.2905811623255 1.231977123929156 521.0 2.0 355.0 
602.0008936712874 49334.0 NaN 1500.3687374749488 1.5710430381596274 522.0 2.0 356.0 
604.0001344989619 49346.0 NaN 1500.3340013360062 1.4185297650875408 524.0 2.0 356.0 
606.0001983480089 49375.0 NaN 1500.3286573146286 1.213959329907564 525.0 2.0 356.0 
608.0008936712874 49367.0 NaN 1491.139612558451 1.5732153859564677 525.0 2.0 353.0 
610.0008936712874 49344.0 NaN 1491.1503006012017 1.4249229044468796 524.0 2.0 353.0 
612.0008936712874 49365.0 NaN 1497.2825651302617 1.1883016456760722 525.0 2.0 355.0 
614.0001344989619 49338.0 NaN 1506.460921843688 1.5616471082369507 524.0 2.0 358.0 
616.0001983480089 49361.0 NaN 1509.5577822311284 1.365455380311684 525.0 2.0 359.0 
618.0008936712874 49384.0 NaN 1515.695390781564 1.1990297496563485 524.0 2.0 361.0 
620.0008936712874 49349.0 NaN 1512.6092184368729 1.6013796925222572 523.0 2.0 360.0 
622.0002836560263 49326.0 NaN 1515.7194388777548 1.348290565753203 525.0 2.0 361.0 
624.0001344989619 49318.0 NaN 1515.6927187708743 1.1880651277168783 525.0 1.0 362.0 
626.0001983480089 49319.0 NaN 1518.7788911155637 1.549704151972511 527.0 1.0 363.0 
628.0002836560263 49312.0 NaN 1521.8543754175012 1.3595419261378952 526.0 1.0 364.0 
630.0008936712874 49270.0 NaN 1521.8543754175012 1.21714991253551 526.0 2.0 363.0 
632.0008936712874 49235.0 NaN 1518.8136272545091 1.529028657376583 528.0 2.0 362.0 
634.0001344989619 49226.0 NaN 1521.8944555778214 1.3840961679460768 528.0 3.0 362.0 
636.0001983480089 49226.0 NaN 1524.9592518370077 1.195470041466806 530.0 3.0 363.0 
638.0008936712874 49237.0 NaN 1528.0133600534393 1.5771393707774632 527.0 3.0 364.0 
640.0002836560263 49255.0 NaN 1524.9138276553101 1.428734269639524 527.0 3.0 363.0 
642.0008936712874 49238.0 NaN 1524.94321977288 1.2056829196331003 525.0 3.0 363.0 
644.0001344989619 49240.0 NaN 1524.9458917835664 1.5930243767936545 526.0 3.0 363.0 
646.0001983480089 49228.0 NaN 1521.9104876419515 1.3884882535456626 527.0 2.0 363.0 
648.0008936712874 49222.0 NaN 1521.8917835671352 1.2376106638079793 526.0 2.0 363.0 
650.0008936712874 49216.0 NaN 1521.9185036740155 1.5972163202410423 526.0 2.0 363.0 
652.0002836560263 49164.0 NaN 1525.0821643286565 1.3452115550746957 525.0 2.0 364.0 
654.0001344989619 49162.0 NaN 1528.0908483633928 1.2222009832658167 521.0 2.0 365.0 
656.0001983480089 49150.0 NaN 1531.1315965263848 1.5369553073554374 521.0 2.0 366.0 
658.0002836560263 49200.0 NaN 1531.1342685370737 1.3885689554230516 518.0 2.0 366.0 
660.0008936712874 49190.0 NaN 1534.1402805611212 1.2512574043588436 519.0 2.0 367.0 
662.0008936712874 49184.0 NaN 1537.2825651302617 1.5419907058765923 520.0 2.0 368.0 
664.0001344989619 49169.0 NaN 1540.3580494321989 1.4081425124463471 519.0 2.0 369.0 
#####################################################################
# End of data export. Simulation finished at: 2019-03-14T10:30+0000 #
#####################################################################
