#####################################################################
# Alchemist log file - simulation started at: 2019-03-16T22:21+0000 #
#####################################################################
# seed = 8.0, bandwidth = 1333521.4321633242, propagationDelay = 0.31622776601683794, baserange = 562.341325190349
#
# The columns have the following meaning: 
# time neighbor_count[Sum] <value>@neighbor_count[Sum] packet_size[Mean] mean_delay[Mean] crowd[Sum] overcrowded[Sum] risk[Sum] 
0.0 NaN NaN NaN NaN NaN NaN NaN 
2.000927030832833 93135.0 NaN 4993.490981963928 0.47748413913883564 1497.0 0.0 1497.0 
4.000927030832833 98210.0 NaN 4993.279893119572 0.5020447333294952 1496.0 1.0 1496.0 
6.000198348008885 98210.0 NaN 4995.2625250501005 0.5020447888822833 1496.0 1.0 1496.0 
8.000927030832834 98210.0 NaN 4994.25250501002 0.5020447760436691 1495.0 2.0 1495.0 
10.000927030832834 98211.0 NaN 4994.939211756847 0.5020585586172672 1494.0 3.0 1494.0 
12.000927030832834 98212.0 NaN 4995.732798931196 0.5020761633680011 1494.0 3.0 1494.0 
14.000927030832834 98212.0 NaN 4994.086840347361 0.5020760257837409 1496.0 1.0 1496.0 
16.000198348008887 98214.0 NaN 4994.423513694055 0.5021829051725031 1494.0 3.0 1494.0 
18.000927030832834 98231.0 NaN 4995.802271209085 0.5027040375953187 1494.0 3.0 1494.0 
20.000927030832834 98233.0 NaN 4994.666666666667 0.5022179340627754 1496.0 1.0 1496.0 
22.000927030832834 98254.0 NaN 4994.597194388778 0.5023713108522084 1494.0 3.0 1494.0 
24.000927030832834 98286.0 NaN 4995.511022044088 0.5023338908848475 1494.0 3.0 1494.0 
26.000198348008887 98311.0 NaN 4994.1189044756175 0.5027432131085663 1496.0 1.0 1496.0 
28.000927030832834 98331.0 NaN 4994.653306613226 0.5032772808331547 1494.0 3.0 1494.0 
30.000927030832834 98334.0 NaN 4996.066800267201 0.502279348862134 1494.0 3.0 1494.0 
32.000927030832834 98353.0 NaN 4994.313961255845 0.5022870832387014 1496.0 1.0 1496.0 
34.000927030832834 98377.0 NaN 4994.386105544422 0.5022400738166396 1494.0 3.0 1494.0 
36.00019834800889 98420.0 NaN 4995.561790247161 0.5024769725505 1494.0 3.0 1494.0 
38.000927030832834 98423.0 NaN 4994.37541750167 0.5041465294956501 1496.0 1.0 1496.0 
40.000927030832834 98420.0 NaN 4994.960587842352 0.5018846654868342 1494.0 3.0 1494.0 
42.000927030832834 98437.0 NaN 4995.7541750167 0.5021646139596525 1494.0 3.0 1494.0 
44.000927030832834 98448.0 NaN 4994.068136272545 0.5019260024789963 1496.0 1.0 1496.0 
46.00019834800889 98491.0 NaN 4994.40213760855 0.5028959586107811 1495.0 2.0 1495.0 
48.000927030832834 98435.0 NaN 4995.772879091516 0.502473631713113 1495.0 2.0 1495.0 
50.000927030832834 98432.0 NaN 4994.610554442218 0.5014552421252648 1497.0 0.0 1497.0 
52.000927030832834 98444.0 NaN 4994.535738142952 0.5016141360175734 1495.0 2.0 1495.0 
54.000927030832834 98454.0 NaN 4995.489645958583 0.5022233215457644 1495.0 2.0 1495.0 
56.00019834800889 98533.0 NaN 4994.108216432865 0.5017473124544741 1496.0 1.0 1496.0 
58.000927030832834 98563.0 NaN 4994.631930527722 0.5037740100276964 1494.0 3.0 1494.0 
60.000927030832834 98583.0 NaN 4996.042752171009 0.5014693645650765 1494.0 3.0 1494.0 
62.000403365708245 98587.0 NaN 1519.3747494989996 0.5005475778967714 815.0 1.0 363.0 
64.00040336570825 98612.0 NaN 1522.4502338009365 0.5011558979591108 648.0 2.0 363.0 
66.0001983480089 98624.0 NaN 1522.3861055444213 0.5012321041286505 593.0 5.0 360.0 
68.00040336570825 98634.0 NaN 1522.383433533736 0.5017770119267613 564.0 6.0 359.0 
70.00040336570825 98648.0 NaN 1525.5310621242481 0.5014113584455365 540.0 6.0 360.0 
72.00040336570825 98654.0 NaN 1525.4883099532394 0.5017503759805102 536.0 5.0 361.0 
74.00040336570825 98662.0 NaN 1525.4722778891114 0.5012433758867715 530.0 5.0 361.0 
76.0001983480089 98705.0 NaN 1531.6740146960576 0.5014966296554242 530.0 5.0 363.0 
78.00040336570825 98707.0 NaN 1531.6579826319298 0.5016351212560793 526.0 6.0 362.0 
80.00040336570825 98713.0 NaN 1531.6285905143634 0.5018178451656494 524.0 5.0 363.0 
82.00040336570825 98739.0 NaN 1531.6873747495001 0.5012596821094889 524.0 5.0 363.0 
84.00040336570825 98744.0 NaN 1534.7201068804272 0.5017472716215952 523.0 5.0 364.0 
86.0001983480089 98739.0 NaN 1534.7014028056094 0.5013106388251295 521.0 5.0 364.0 
88.00040336570825 98756.0 NaN 1534.7494989979969 0.5018303238375437 521.0 5.0 364.0 
90.00040336570825 98748.0 NaN 1534.7094188376755 0.5015607715765212 521.0 5.0 364.0 
92.00040336570825 98757.0 NaN 1534.6853707414816 0.5015895278729264 521.0 5.0 364.0 
94.00040336570825 98770.0 NaN 1534.7361389445546 0.50160436903063 521.0 5.0 364.0 
96.0001983480089 98769.0 NaN 1537.7768871075482 0.5015463461520542 521.0 5.0 365.0 
98.00040336570825 98779.0 NaN 1537.7608550434184 0.5022057198472544 521.0 5.0 365.0 
100.00040336570825 98739.0 NaN 1537.8303273213091 0.5017711929610923 520.0 5.0 365.0 
102.00040336570825 98724.0 NaN 1537.7929191716757 0.501181668166823 520.0 5.0 365.0 
104.00040336570825 98728.0 NaN 1537.7742150968609 0.5011408365797609 519.0 5.0 365.0 
106.0001983480089 98717.0 NaN 1537.835671342685 0.5010300609770367 521.0 5.0 365.0 
108.00040336570825 98757.0 NaN 1537.7795591182362 0.5019095119288092 520.0 5.0 365.0 
110.00040336570825 98748.0 NaN 1537.7581830327333 0.5011105515487865 520.0 5.0 365.0 
112.00040336570825 98774.0 NaN 1540.873747494991 0.5013665319996622 520.0 5.0 366.0 
114.00040336570825 98794.0 NaN 1540.8550434201725 0.5012031184270181 520.0 5.0 366.0 
116.0001983480089 98804.0 NaN 1540.8390113560454 0.5013659402617353 520.0 5.0 366.0 
118.00040336570825 98802.0 NaN 1543.975951903809 0.501394052573756 523.0 5.0 367.0 
120.00040336570825 98790.0 NaN 1547.0167000667998 0.5021103279955675 522.0 5.0 368.0 
122.00040336570825 98765.0 NaN 1546.9899799599184 0.5010377958592983 523.0 5.0 368.0 
124.00040336570825 98786.0 NaN 1543.9545758183028 0.5011183304899065 522.0 5.0 367.0 
126.0001983480089 98788.0 NaN 1543.935871743488 0.5010655210575344 523.0 5.0 367.0 
128.00040336570825 98799.0 NaN 1543.9225116900454 0.5013473798974641 522.0 5.0 367.0 
130.00040336570825 98780.0 NaN 1543.9492317969275 0.5017299498960351 522.0 5.0 367.0 
132.00040336570825 98770.0 NaN 1540.8710754843 0.501263029127648 520.0 5.0 366.0 
134.00040336570825 98769.0 NaN 1537.7688710754842 0.5013326932716241 519.0 5.0 365.0 
136.0001983480089 98766.0 NaN 1531.6820307281243 0.5011312426785776 518.0 5.0 363.0 
138.00040336570825 98771.0 NaN 1534.7575150300606 0.5011745890251885 514.0 5.0 364.0 
140.00040336570825 98792.0 NaN 1537.7982631930543 0.5014734318992295 515.0 5.0 365.0 
142.00040336570825 98761.0 NaN 1540.9111556446212 0.5012407910914753 516.0 5.0 366.0 
144.00040336570825 98751.0 NaN 1543.9732798931184 0.5010901348395453 515.0 6.0 366.0 
146.0001983480089 98743.0 NaN 1543.9438877755513 0.5009084113834781 514.0 6.0 366.0 
148.00040336570825 98768.0 NaN 1547.0701402805607 0.5011395494523125 513.0 6.0 367.0 
150.00040336570825 98785.0 NaN 1550.1108884435546 0.5016826847795441 514.0 6.0 368.0 
152.00040336570825 98760.0 NaN 1540.8523714094847 0.5012533853184941 515.0 5.0 366.0 
154.00040336570825 98748.0 NaN 1537.859719438879 0.5011971519119303 514.0 5.0 365.0 
156.0001983480089 98756.0 NaN 1540.8817635270545 0.5014051387772904 512.0 5.0 366.0 
158.00040336570825 98774.0 NaN 1540.879091516366 0.5011425237609243 513.0 6.0 365.0 
160.00040336570825 98780.0 NaN 1540.9378757515028 0.5019457161802262 516.0 6.0 365.0 
162.00040336570825 98804.0 NaN 1540.8737474949912 0.5013945064286516 514.0 6.0 365.0 
164.00040336570825 98782.0 NaN 1543.9331997328002 0.501469845671873 515.0 5.0 367.0 
166.0001983480089 98744.0 NaN 1543.9679358717453 0.5011380501882082 515.0 5.0 367.0 
168.00040336570825 98747.0 NaN 1540.879091516366 0.5011789559006092 515.0 5.0 366.0 
170.00040336570825 98742.0 NaN 1540.844355377421 0.5014033065472957 516.0 5.0 366.0 
172.00040336570825 98762.0 NaN 1540.9084836339362 0.5014835844117158 518.0 5.0 366.0 
174.00040336570825 98735.0 NaN 1547.0327321309273 0.501330291481597 520.0 5.0 368.0 
176.0001983480089 98703.0 NaN 1543.97060788243 0.5018601546206913 518.0 5.0 367.0 
178.00040336570825 98702.0 NaN 1544.024048096191 0.5016925005915885 517.0 5.0 367.0 
180.00040336570825 98700.0 NaN 1544.0106880427525 0.5017955796267503 517.0 5.0 367.0 
182.00040336570825 98723.0 NaN 1537.8463593854362 0.5018109358252993 516.0 5.0 365.0 
184.00040336570825 98672.0 NaN 1537.8650634602548 0.5013236225046191 515.0 5.0 365.0 
186.0001983480089 98637.0 NaN 1537.8303273213091 0.5011574853190712 516.0 5.0 365.0 
188.00040336570825 98626.0 NaN 1540.9004676018728 0.5011477317466821 516.0 5.0 366.0 
190.00040336570825 98623.0 NaN 1534.8082832331336 0.5015827110329153 514.0 5.0 364.0 
192.00040336570825 98634.0 NaN 1534.6987307949246 0.501990822528417 514.0 5.0 364.0 
194.00040336570825 98552.0 NaN 1537.8276553106207 0.5013170215662323 515.0 5.0 365.0 
196.0001983480089 98515.0 NaN 1537.8490313961272 0.5011689913073469 515.0 5.0 365.0 
198.00040336570825 98507.0 NaN 1534.7468269873093 0.5017524974705125 515.0 5.0 364.0 
200.00040336570825 98516.0 NaN 1540.8951235804939 0.5016753284261081 516.0 5.0 366.0 
202.00040336570825 98515.0 NaN 1540.8817635270545 0.50158570248388 518.0 5.0 366.0 
204.00040336570825 98489.0 NaN 1540.876419505679 0.5015677381914416 518.0 5.0 366.0 
206.0001983480089 98465.0 NaN 1540.825651302606 0.5013886201578275 518.0 5.0 366.0 
208.00040336570825 98464.0 NaN 1534.7334669338666 0.5018142542190133 517.0 5.0 364.0 
210.00040336570825 98443.0 NaN 1531.6419505678002 0.5011877069662621 512.0 5.0 363.0 
212.00040336570825 98440.0 NaN 1528.5290581162335 0.5015445842570779 512.0 5.0 362.0 
214.00040336570825 98422.0 NaN 1531.695390781564 0.5026284411168471 512.0 5.0 363.0 
216.0001983480089 98368.0 NaN 1534.7414829659301 0.5013297596051751 513.0 5.0 364.0 
218.00040336570825 98373.0 NaN 1528.537074148297 0.5016748748320848 512.0 5.0 362.0 
220.00040336570825 98355.0 NaN 1528.555778223112 0.5012116849591134 511.0 5.0 362.0 
222.00040336570825 98340.0 NaN 1525.4989979959907 0.5014310969469038 511.0 5.0 361.0 
224.00040336570825 98396.0 NaN 1522.3727454909817 0.5017650549422035 512.0 4.0 361.0 
226.0001983480089 98381.0 NaN 1525.4509018036088 0.5009927855571794 511.0 5.0 361.0 
228.00040336570825 98391.0 NaN 1525.4642618570458 0.5010971489397317 510.0 5.0 361.0 
230.00040336570825 98384.0 NaN 1528.5611222444907 0.5011151890051904 507.0 5.0 362.0 
232.00040336570825 98358.0 NaN 1531.7087508350028 0.5010664583058291 508.0 5.0 363.0 
234.00040336570825 98347.0 NaN 1531.6285905143634 0.5015138838118088 508.0 5.0 363.0 
236.0001983480089 98331.0 NaN 1531.6205744822998 0.5013856083610787 508.0 5.0 363.0 
238.00040336570825 98314.0 NaN 1534.706746826988 0.5015553441258903 508.0 5.0 364.0 
240.00040336570825 98282.0 NaN 1531.655310621243 0.5011123313120045 508.0 5.0 363.0 
242.00040336570825 98271.0 NaN 1531.623246492985 0.5015217005966179 509.0 5.0 363.0 
244.00040336570825 98231.0 NaN 1528.6065464261847 0.502440332878171 509.0 5.0 362.0 
246.0001983480089 98207.0 NaN 1525.5043420173665 0.5011005113945708 510.0 4.0 362.0 
248.00040336570825 98188.0 NaN 1528.5637942551757 0.5010392080119438 510.0 4.0 363.0 
250.00040336570825 98182.0 NaN 1525.539078156312 0.5014860577152043 510.0 4.0 362.0 
252.00040336570825 98146.0 NaN 1525.5364061456248 0.5016549142802849 510.0 4.0 362.0 
254.00040336570825 98061.0 NaN 1525.4482297929183 0.50201028164674 509.0 4.0 362.0 
256.0001983480089 98009.0 NaN 1525.5070140280548 0.5012909836303557 510.0 4.0 362.0 
258.0004033657083 97999.0 NaN 1525.496325985303 0.5015695319493961 512.0 4.0 362.0 
260.0004033657083 97942.0 NaN 1522.3994655978634 0.5020002458198769 512.0 4.0 361.0 
262.0004033657083 97912.0 NaN 1516.3126252505 0.5016357722781946 511.0 4.0 359.0 
264.0004033657083 97853.0 NaN 1516.3259853039426 0.5018868112634443 508.0 5.0 358.0 
266.0001983480089 97848.0 NaN 1516.2725450901812 0.5011124549117658 508.0 5.0 358.0 
268.0004033657083 97838.0 NaN 1525.573814295257 0.5022349559900193 509.0 5.0 361.0 
270.0004033657083 97799.0 NaN 1531.7007348029388 0.5015053604914772 509.0 5.0 363.0 
272.0004033657083 97781.0 NaN 1531.6152304609209 0.5019626472805139 509.0 5.0 363.0 
274.0004033657083 97716.0 NaN 1534.7227788911157 0.5012944796473975 511.0 5.0 364.0 
276.0001983480089 97708.0 NaN 1534.666666666666 0.5012374964740933 513.0 5.0 364.0 
278.0004033657083 97690.0 NaN 1528.5210420841695 0.5029050158187648 512.0 5.0 362.0 
280.0004033657083 97662.0 NaN 1531.6472945891794 0.5013723558434622 511.0 5.0 363.0 
282.0004033657083 97639.0 NaN 1531.5724782899115 0.5016940537189851 511.0 5.0 363.0 
284.0004033657083 97583.0 NaN 1531.5511022044093 0.5012895866879488 512.0 5.0 363.0 
286.0001983480089 97565.0 NaN 1531.5591182364726 0.5010962425835236 511.0 5.0 363.0 
288.0004033657083 97556.0 NaN 1531.5858383433547 0.5022901547097836 510.0 5.0 363.0 
290.0004033657083 97506.0 NaN 1534.6346025384091 0.501711426433966 509.0 5.0 364.0 
292.0004033657083 97464.0 NaN 1534.6746826987296 0.5020582793388553 508.0 5.0 364.0 
294.0004033657083 97417.0 NaN 1534.6372745490999 0.5025254884967825 508.0 5.0 364.0 
296.0001983480089 97378.0 NaN 1537.696726786909 0.5013821998774088 508.0 5.0 365.0 
298.0004033657083 97356.0 NaN 1537.736806947227 0.5022875398268901 507.0 5.0 365.0 
300.0004033657083 97305.0 NaN 1540.830995323982 0.5014863577129214 507.0 5.0 366.0 
302.0004033657083 97269.0 NaN 1540.7882431529729 0.501864106427388 507.0 5.0 366.0 
304.0004033657083 97236.0 NaN 1531.6125584502342 0.5016881536886063 509.0 3.0 365.0 
306.0001983480089 97205.0 NaN 1540.8790915163656 0.5017074112916448 508.0 3.0 368.0 
308.0004033657083 97187.0 NaN 1537.7181028724108 0.5020748355260626 506.0 3.0 367.0 
310.0004033657083 97158.0 NaN 1534.6452905811636 0.5025640624141027 507.0 3.0 366.0 
312.0004033657083 97108.0 NaN 1534.6586506346023 0.5028195304859092 506.0 3.0 366.0 
314.0004033657083 97033.0 NaN 1534.6346025384091 0.5026428601533759 508.0 3.0 366.0 
316.0001983480089 96970.0 NaN 1531.6072144288569 0.5017359637316389 508.0 3.0 365.0 
318.0004033657083 96964.0 NaN 1534.6506346025365 0.5022304582013855 509.0 3.0 366.0 
320.0004033657083 96918.0 NaN 1528.4809619238456 0.5020847912439941 506.0 3.0 364.0 
322.0004033657083 96867.0 NaN 1528.5424181696726 0.503211741267924 506.0 3.0 364.0 
324.0004033657083 96810.0 NaN 1531.5991983967936 0.501964420661524 505.0 3.0 365.0 
326.0001983480089 96776.0 NaN 1534.6533066132274 0.5020006907625805 506.0 3.0 366.0 
328.0004033657083 96766.0 NaN 1537.814295257182 0.5033262776100231 506.0 3.0 367.0 
330.0004033657083 96701.0 NaN 1540.817635270543 0.5024290997817569 507.0 3.0 368.0 
332.0004033657083 96673.0 NaN 1540.782899131597 0.5026297786827032 506.0 3.0 368.0 
334.0004033657083 96615.0 NaN 1534.7040748163001 0.5027722688891304 507.0 3.0 366.0 
336.0001983480089 96557.0 NaN 1531.6179024716089 0.5017267271426329 508.0 3.0 365.0 
338.0004033657083 96548.0 NaN 1528.4943219772883 0.5024534894419945 508.0 3.0 364.0 
340.0004033657083 96513.0 NaN 1528.537074148297 0.502388879083131 508.0 3.0 364.0 
342.0004033657083 96452.0 NaN 1534.7014028056094 0.5024557057106495 507.0 3.0 366.0 
344.0004033657083 96417.0 NaN 1534.6693386773545 0.5027606902036879 509.0 3.0 366.0 
346.0001983480089 96375.0 NaN 1534.7040748163001 0.5018838937438774 511.0 3.0 366.0 
348.0004033657083 96365.0 NaN 1531.6579826319298 0.5025353236535256 511.0 3.0 365.0 
350.0004033657083 96329.0 NaN 1528.4863059452243 0.5024037316026216 511.0 3.0 364.0 
352.0004033657083 96281.0 NaN 1528.553106212425 0.5026223206412571 513.0 3.0 364.0 
354.0004033657083 96236.0 NaN 1525.432197728791 0.5026549960449317 513.0 3.0 363.0 
356.0001983480089 96201.0 NaN 1525.4455577822305 0.5015945190164202 512.0 3.0 363.0 
358.0004033657083 96200.0 NaN 1525.5070140280552 0.5036208004570459 511.0 3.0 363.0 
360.0004033657083 96111.0 NaN 1525.4562458249825 0.5026382361761008 511.0 3.0 363.0 
362.0004033657083 96097.0 NaN 1525.3787575150295 0.5022757000285234 513.0 3.0 363.0 
364.0004033657083 96068.0 NaN 1522.3540414161644 0.5035858040809301 515.0 3.0 362.0 
366.0001983480089 96013.0 NaN 1522.3433533734126 0.5021122982857429 516.0 3.0 362.0 
368.0004033657083 96014.0 NaN 1510.0280561122252 0.5032649500102351 515.0 3.0 358.0 
370.0004033657083 95981.0 NaN 1503.8851035404148 0.5029839752893921 515.0 3.0 356.0 
372.0004033657083 95945.0 NaN 1506.9418837675357 0.5033405817964745 514.0 3.0 357.0 
374.0004033657083 95858.0 NaN 1509.9986639946553 0.5034547076565166 516.0 3.0 358.0 
376.0001983480089 95788.0 NaN 1516.2084168336667 0.5023247843608449 515.0 3.0 360.0 
378.0004033657083 95831.0 NaN 1513.138276553107 0.5023118070467946 515.0 3.0 359.0 
380.0004033657083 95808.0 NaN 1513.0848363393457 0.5027112578226565 515.0 3.0 359.0 
382.0004033657083 95790.0 NaN 1510.0948563794261 0.5023587633246376 516.0 3.0 358.0 
384.0004033657083 95762.0 NaN 1516.2484969939887 0.5024282989592574 515.0 3.0 360.0 
386.0001983480089 95732.0 NaN 1516.1977287909158 0.5019577791108631 516.0 3.0 360.0 
388.0004033657083 95746.0 NaN 1513.1863727454909 0.5025691308278604 515.0 3.0 359.0 
390.0004033657083 95712.0 NaN 1510.1055444221788 0.5027666779210449 515.0 3.0 358.0 
392.0004033657083 95691.0 NaN 1510.0734802939205 0.5022553050627131 514.0 3.0 358.0 
394.0004033657083 95668.0 NaN 1513.1890447561796 0.5030698319851258 515.0 2.0 360.0 
396.0001983480089 95607.0 NaN 1513.1596526386097 0.5024379623416455 516.0 2.0 360.0 
398.0004033657083 95611.0 NaN 1510.0948563794263 0.5023585620104628 520.0 2.0 359.0 
400.0004033657083 95553.0 NaN 1507.0514362057454 0.5023955560398013 520.0 2.0 358.0 
402.0004033657083 95554.0 NaN 1507.0728122912485 0.5032109119038153 519.0 2.0 358.0 
404.0004033657083 95491.0 NaN 1513.1917167668666 0.5038010594414545 519.0 2.0 360.0 
406.0001983480089 95448.0 NaN 1516.2725450901812 0.5034719307127172 521.0 2.0 361.0 
408.0004033657083 95421.0 NaN 1522.442217768872 0.5039865538675656 521.0 2.0 363.0 
410.0004033657083 95402.0 NaN 1525.4696058784243 0.5027860226737023 521.0 2.0 364.0 
412.0004033657083 95376.0 NaN 1522.3460253841006 0.5027245409473501 522.0 2.0 363.0 
414.0004033657083 95337.0 NaN 1525.4642618570458 0.5026668048830262 522.0 2.0 364.0 
416.0001983480089 95313.0 NaN 1522.3406813627269 0.5036450675281258 523.0 2.0 363.0 
418.0004033657083 95286.0 NaN 1525.4215096860385 0.5021236126873175 522.0 2.0 364.0 
420.0004033657083 95288.0 NaN 1510.0868403473628 0.5021517045082016 525.0 2.0 359.0 
422.0004033657083 95287.0 NaN 1510.0334001336 0.5028432238549249 524.0 2.0 359.0 
424.0004033657083 95236.0 NaN 1506.979291917167 0.5022091799505002 521.0 2.0 358.0 
426.0001983480089 95208.0 NaN 1506.973947895791 0.5027210444144568 516.0 2.0 358.0 
428.0004033657083 95218.0 NaN 1506.952571810288 0.5027836303239367 516.0 3.0 357.0 
430.0004033657083 95230.0 NaN 1500.8203072812282 0.5018725238207398 516.0 3.0 355.0 
432.0004033657083 95223.0 NaN 1513.1489645958575 0.5024822356618643 516.0 3.0 359.0 
434.0004033657083 95191.0 NaN 1519.2090848363387 0.5037447162560325 517.0 3.0 361.0 
436.0001983480089 95151.0 NaN 1525.3440213760848 0.5021524579910274 523.0 3.0 363.0 
438.0004033657083 95154.0 NaN 1525.3680694722789 0.5026703508111601 524.0 3.0 363.0 
440.0004033657083 95131.0 NaN 1525.3787575150295 0.5017367834079554 525.0 3.0 363.0 
442.0004033657083 95117.0 NaN 1534.6452905811634 0.5022692582665576 525.0 3.0 366.0 
444.0004033657083 95086.0 NaN 1531.5350701402817 0.5017249637816499 527.0 3.0 365.0 
446.0001983480089 95065.0 NaN 1534.6265865063453 0.5018511129305865 526.0 3.0 366.0 
448.0004033657083 95085.0 NaN 1531.5564462257844 0.502561629771053 525.0 3.0 365.0 
450.0004033657083 95079.0 NaN 1534.6987307949244 0.5020804446678416 525.0 3.0 366.0 
452.0004033657083 95063.0 NaN 1534.6479625918516 0.5022137577109081 524.0 3.0 366.0 
454.0004033657083 95052.0 NaN 1543.893119572479 0.5019590206152833 524.0 3.0 369.0 
456.0001983480089 95036.0 NaN 1546.963259853039 0.5017622486999219 525.0 3.0 370.0 
458.0004033657083 95065.0 NaN 1540.8336673346698 0.5027788284872824 522.0 3.0 368.0 
460.0004033657083 95058.0 NaN 1543.9278557114237 0.502295633459074 522.0 3.0 369.0 
462.0004033657083 95056.0 NaN 1540.7989311957247 0.5026377980526302 524.0 3.0 368.0 
464.0004033657083 95049.0 NaN 1540.761523046091 0.5017238073983032 524.0 3.0 368.0 
466.0001983480089 95032.0 NaN 1537.702070808282 0.501654451967579 522.0 3.0 367.0 
468.0004033657083 95030.0 NaN 1537.69138276553 0.5042826262810276 522.0 3.0 367.0 
470.0004033657083 95001.0 NaN 1531.5991983967936 0.5016019646648927 520.0 3.0 365.0 
472.0004033657083 94999.0 NaN 1528.5156980627912 0.5017855893489414 519.0 3.0 364.0 
474.0004033657083 95005.0 NaN 1525.448229792918 0.5016579608276288 517.0 3.0 363.0 
476.0001983480089 94986.0 NaN 1522.316633266534 0.5010874407554844 517.0 3.0 362.0 
478.0004033657083 95012.0 NaN 1525.410821643288 0.5015486284083323 517.0 3.0 363.0 
480.0004033657083 95068.0 NaN 1528.4916499666 0.501754773280828 517.0 3.0 364.0 
482.0004033657083 95063.0 NaN 1525.3787575150295 0.5028028328670667 515.0 3.0 363.0 
484.0004033657083 95042.0 NaN 1519.2678690714756 0.5019980696096961 515.0 3.0 361.0 
486.0001983480089 95043.0 NaN 1513.1489645958575 0.5021658660302627 509.0 4.0 358.0 
488.0004033657083 95060.0 NaN 1506.9686038744162 0.501606891493149 508.0 4.0 356.0 
490.0004033657083 95109.0 NaN 1503.9251837007355 0.5015973098979085 508.0 4.0 355.0 
492.0004033657083 95126.0 NaN 1500.871075484301 0.5029497433538332 509.0 4.0 354.0 
494.0004033657083 95086.0 NaN 1494.6987307949244 0.5018891714529223 510.0 4.0 352.0 
496.0001983480089 95072.0 NaN 1491.6419505678011 0.5014055053519894 507.0 4.0 351.0 
498.0004033657083 95094.0 NaN 1494.7147628590524 0.5022731472160927 505.0 4.0 352.0 
500.0004033657083 95100.0 NaN 1494.661322645291 0.502459754100282 507.0 4.0 352.0 
502.0004033657083 95082.0 NaN 1497.7661990647973 0.5026836757083735 509.0 4.0 353.0 
504.0004033657083 95065.0 NaN 1491.6579826319296 0.5015496370963299 510.0 4.0 351.0 
506.0001983480089 95062.0 NaN 1494.7147628590524 0.5022854992982806 510.0 4.0 352.0 
508.0004033657083 95071.0 NaN 1491.6553106212432 0.5018748751226366 513.0 4.0 351.0 
510.0004033657083 95076.0 NaN 1494.7414829659303 0.5019755354510643 512.0 4.0 352.0 
512.0004033657083 95082.0 NaN 1488.5584502338002 0.5035429079769719 513.0 4.0 350.0 
514.0004033657083 95043.0 NaN 1488.5851703406818 0.5016186882357377 512.0 4.0 350.0 
516.0001983480089 95035.0 NaN 1488.6199064796265 0.5018835555082185 508.0 4.0 350.0 
518.0004033657083 95071.0 NaN 1482.420841683366 0.5021239833603736 508.0 4.0 348.0 
520.0004033657083 95087.0 NaN 1485.4856379425528 0.5017212713857153 505.0 4.0 349.0 
522.0004033657083 95085.0 NaN 1476.3179692718757 0.5028057057863713 506.0 4.0 346.0 
524.0004033657083 95072.0 NaN 1464.0080160320638 0.5014225400430822 504.0 4.0 342.0 
526.0001983480089 95071.0 NaN 1464.0213760855033 0.5020471731669931 501.0 4.0 342.0 
528.0004033657083 95145.0 NaN 1467.123580494321 0.5036219365888154 499.0 4.0 343.0 
530.0004033657083 95188.0 NaN 1473.2478289913172 0.5011543716066454 497.0 4.0 345.0 
532.0004033657083 95204.0 NaN 1467.1262525050092 0.5024672464859977 503.0 4.0 343.0 
534.0004033657083 95199.0 NaN 1467.1182364729455 0.5023637871330979 505.0 4.0 343.0 
536.0001983480089 95196.0 NaN 1470.1696726786909 0.5022762943530125 505.0 4.0 344.0 
538.0004033657083 95272.0 NaN 1467.1315965263852 0.5019585227685539 508.0 4.0 343.0 
540.0004033657083 95325.0 NaN 1467.1422845691375 0.5021505821076924 509.0 4.0 343.0 
542.0004033657083 95329.0 NaN 1467.1663326653304 0.5027794519788634 510.0 4.0 343.0 
544.0004033657083 95320.0 NaN 1464.0774883099539 0.5029394146736785 510.0 4.0 342.0 
546.0001983480089 95288.0 NaN 1464.0881763527063 0.5020273112783891 510.0 4.0 342.0 
548.0004033657083 95314.0 NaN 1467.0941883767541 0.5019829105613196 510.0 4.0 343.0 
550.0004033657083 95351.0 NaN 1467.1315965263852 0.5020436254011955 509.0 3.0 344.0 
552.0004033657083 95366.0 NaN 1476.363393453573 0.5028992128009698 510.0 3.0 347.0 
554.0004033657083 95400.0 NaN 1473.2317969271883 0.502697163364198 511.0 3.0 346.0 
556.0001983480089 95412.0 NaN 1473.266533066133 0.5023843139624034 511.0 3.0 346.0 
558.0004033657083 95425.0 NaN 1470.2097528390104 0.5024264165248367 511.0 3.0 345.0 
560.0004033657083 95500.0 NaN 1467.0915163660648 0.5022263457759923 510.0 3.0 344.0 
562.0004033657083 95516.0 NaN 1467.0915163660648 0.5024802540846586 509.0 3.0 344.0 
564.0004033657083 95547.0 NaN 1467.1476285905146 0.502368620373603 509.0 3.0 344.0 
566.0001983480089 95514.0 NaN 1470.161656646627 0.502233914254248 507.0 3.0 345.0 
568.0004033657083 95506.0 NaN 1470.1857047428186 0.5024431826624036 510.0 2.0 346.0 
570.0004033657083 95414.0 NaN 1470.1883767535078 0.5028227870568194 513.0 2.0 346.0 
572.0004033657083 95372.0 NaN 1473.2692050768196 0.5011951388663842 512.0 2.0 347.0 
574.0004033657083 95407.0 NaN 1476.3927855711427 0.5032551155237752 510.0 2.0 348.0 
576.0001983480089 95345.0 NaN 1476.350033400134 0.5020210593640069 512.0 2.0 348.0 
578.0004033657083 95338.0 NaN 1476.334001336006 0.5019738429388239 512.0 2.0 348.0 
580.0004033657083 95346.0 NaN 1479.420173680694 0.5029000355362028 513.0 2.0 349.0 
582.0004033657083 95352.0 NaN 1476.3981295925182 0.5018709146045343 510.0 2.0 348.0 
584.0004033657083 95414.0 NaN 1488.6653306613218 0.5026017921028005 513.0 2.0 352.0 
586.0001983480089 95405.0 NaN 1485.563126252506 0.5028056609007302 518.0 2.0 351.0 
588.0004033657083 95340.0 NaN 1482.5143620574472 0.5034139551386699 518.0 2.0 350.0 
590.0004033657083 95351.0 NaN 1485.57114228457 0.503010488173841 520.0 2.0 351.0 
592.0004033657083 95347.0 NaN 1488.614562458249 0.5010575660324696 521.0 2.0 352.0 
594.0004033657083 95414.0 NaN 1485.55511022044 0.5025266742549201 521.0 2.0 351.0 
596.0001983480089 95376.0 NaN 1485.531062124248 0.5020852745458485 518.0 2.0 351.0 
598.0004033657083 95313.0 NaN 1488.643954575818 0.5011992335273228 518.0 3.0 351.0 
600.0004033657083 95326.0 NaN 1494.7548430193726 0.5009741800132264 523.0 4.0 352.0 
602.0004033657083 95356.0 NaN 1497.8329993319978 0.5009895316790621 523.0 4.0 353.0 
604.0004033657083 95464.0 NaN 1494.7388109552442 0.5016415357899631 525.0 4.0 352.0 
606.0001983480089 95436.0 NaN 1494.6960587842357 0.5013940556306464 527.0 4.0 352.0 
608.0004033657083 95413.0 NaN 1491.599198396793 0.5013647431777184 526.0 4.0 351.0 
610.0004033657083 95447.0 NaN 1500.8603874415487 0.5022151493839455 525.0 4.0 354.0 
612.0004033657083 95460.0 NaN 1503.9839679358727 0.5012427447869712 520.0 4.0 355.0 
614.0004033657083 95498.0 NaN 1516.2030728122909 0.5024284336901949 523.0 4.0 359.0 
616.0001983480089 95442.0 NaN 1516.2137608550443 0.5010144454277072 524.0 4.0 359.0 
618.0004033657083 95429.0 NaN 1516.2244488977967 0.501220400712507 523.0 4.0 359.0 
620.0004033657083 95432.0 NaN 1510.0173680694727 0.501123212179938 523.0 4.0 357.0 
622.0004033657083 95447.0 NaN 1513.100868403473 0.5006800338800974 523.0 4.0 358.0 
624.0004033657083 95510.0 NaN 1516.1923847695382 0.5014587429812802 520.0 4.0 359.0 
626.0001983480089 95476.0 NaN 1519.281229124917 0.5010867180233253 521.0 4.0 360.0 
628.0004033657083 95470.0 NaN 1519.305277221109 0.5010757708025482 525.0 4.0 360.0 
630.0004033657083 95470.0 NaN 1525.493653974617 0.5023273990344503 526.0 4.0 362.0 
632.0004033657083 95451.0 NaN 1522.4208416833656 0.5014270642717521 527.0 4.0 361.0 
634.0004033657083 95451.0 NaN 1525.498997995991 0.5024151838137484 528.0 4.0 362.0 
636.0001983480089 95345.0 NaN 1528.6065464261849 0.501661979768413 534.0 4.0 363.0 
638.0004033657083 95343.0 NaN 1528.6012024048089 0.5017497644184712 531.0 4.0 363.0 
640.0004033657083 95320.0 NaN 1525.5070140280557 0.5017687600007839 528.0 4.0 362.0 
642.0004033657083 95297.0 NaN 1522.4983299933192 0.5017475401056278 527.0 4.0 361.0 
644.0004033657083 95272.0 NaN 1522.4181696726798 0.5034004477606088 524.0 4.0 361.0 
646.0001983480089 95147.0 NaN 1525.5604542418175 0.5006697072156119 524.0 4.0 362.0 
648.0004033657083 95160.0 NaN 1522.4929859719443 0.5008968895167517 524.0 4.0 361.0 
650.0004033657083 95183.0 NaN 1522.399465597863 0.5013242090236651 523.0 4.0 361.0 
652.0004033657083 95169.0 NaN 1525.5524382097533 0.5003873942949824 521.0 4.0 362.0 
654.0004033657083 95240.0 NaN 1528.6573146292576 0.5012812898427181 519.0 4.0 363.0 
656.0001983480089 95206.0 NaN 1531.6366065464274 0.5005532637145662 519.0 4.0 364.0 
658.0004033657083 95232.0 NaN 1531.6499665998656 0.5012207867663284 517.0 4.0 364.0 
660.0004033657083 95238.0 NaN 1531.6820307281243 0.500905183467468 518.0 4.0 364.0 
662.0004033657083 95254.0 NaN 1531.6686706746818 0.5007563820987717 518.0 4.0 364.0 
664.0004033657083 95280.0 NaN 1537.8383433533727 0.5005000520013013 512.0 5.0 365.0 
#####################################################################
# End of data export. Simulation finished at: 2019-03-16T23:53+0000 #
#####################################################################
