#####################################################################
# Alchemist log file - simulation started at: 2019-03-06T23:50+0000 #
#####################################################################
# seed = 4.0, bandwidth = 5623413.251903491, propagationDelay = 10.0, baserange = 31.622776601683796
#
# The columns have the following meaning: 
# time neighbor_count[Sum] <value>@neighbor_count[Sum] packet_size[Mean] mean_delay[Mean] crowd[Sum] overcrowded[Sum] risk[Sum] 
0.0 NaN NaN NaN NaN NaN NaN NaN 
2.0004793365590676 NaN NaN 4988.0 NaN 1497.0 0.0 1497.0 
4.00042902272939 NaN NaN 4988.0 NaN 1497.0 0.0 1497.0 
6.000479336559067 NaN NaN 4988.0 NaN 1497.0 0.0 1497.0 
8.000479336559067 NaN NaN 4988.0 NaN 1497.0 0.0 1497.0 
10.000479336559067 NaN NaN 4988.0 NaN 1497.0 0.0 1497.0 
12.000479336559067 2788.0 NaN 4996.387441549766 1.0014368747333786 1497.0 0.0 1497.0 
14.00042902272939 2788.0 NaN 4994.594522378089 3.0000184350170667 1497.0 0.0 1497.0 
16.000479336559067 2788.0 NaN 4994.068136272545 5.001436874733378 1497.0 0.0 1497.0 
18.000479336559067 2788.0 NaN 4994.0574482297925 7.001436874733378 1497.0 0.0 1497.0 
20.000479336559067 2788.0 NaN 4994.108216432865 9.001436874733379 1497.0 0.0 1497.0 
22.000479336559067 2794.0 NaN 4997.162324649298 5.499994529603735 1495.0 2.0 1495.0 
24.000429022729392 2800.0 NaN 4993.523046092185 2.0512586306777534 1490.0 7.0 1490.0 
26.000479336559067 2800.0 NaN 4991.679358717435 4.052675061272654 1490.0 7.0 1490.0 
28.000479336559067 2800.0 NaN 4991.663326653306 6.052675061272654 1490.0 7.0 1490.0 
30.000479336559067 2800.0 NaN 4991.700734802939 8.052675061272653 1490.0 7.0 1490.0 
32.00047933655907 2790.0 NaN 4991.684702738811 10.002456951562896 1490.0 7.0 1490.0 
34.00042902272939 2822.0 NaN 4995.2892451569805 1.0538973487957284 1462.0 35.0 1462.0 
36.00047933655907 2822.0 NaN 4993.13293253173 3.0553097781742595 1462.0 35.0 1462.0 
38.00047933655907 2822.0 NaN 4992.871075484302 5.0553097781742595 1462.0 35.0 1462.0 
40.00047933655907 2822.0 NaN 4992.905811623246 7.0553097781742595 1462.0 35.0 1462.0 
42.00047933655907 2816.0 NaN 4992.865731462926 9.031489880574469 1462.0 35.0 1462.0 
44.00042902272939 2830.0 NaN 4994.514362057448 5.512123311017912 1459.0 38.0 1459.0 
46.00047933655907 2854.0 NaN 4992.32865731463 2.082292865372561 1447.0 50.0 1447.0 
48.00047933655907 2854.0 NaN 4991.174348697395 4.082292865372561 1447.0 50.0 1447.0 
50.00047933655907 2854.0 NaN 4991.219772879092 6.082292865372561 1447.0 50.0 1447.0 
52.00047933655907 2854.0 NaN 4991.174348697395 8.082292865372562 1447.0 50.0 1447.0 
54.00042902272939 2823.0 NaN 4991.152972611891 10.001251742902765 1448.0 49.0 1448.0 
56.00047933655907 2888.0 NaN 4993.87040748163 1.2144232093896665 1439.0 58.0 1439.0 
58.00047933655907 2888.0 NaN 4992.99665998664 3.214423209389666 1440.0 57.0 1440.0 
60.00047933655907 2888.0 NaN 4989.811623246493 5.2144232093896665 1441.0 56.0 1440.0 
62.00047933655907 2888.0 NaN 1521.4028056112213 7.2144232093896665 652.0 54.0 311.0 
64.00042902272939 2863.0 NaN 1521.4161656646636 9.127426336821873 651.0 54.0 311.0 
66.00047933655907 2859.0 NaN 1524.943219772879 5.518384107355128 610.0 55.0 311.0 
68.00047933655907 2893.0 NaN 1524.4702738810938 2.1032324309631343 568.0 60.0 306.0 
70.00047933655907 2893.0 NaN 1524.3019372077486 4.103232430963135 568.0 60.0 306.0 
72.00047933655907 2893.0 NaN 1524.2538410153636 6.103232430963134 568.0 60.0 306.0 
74.00042902272939 2893.0 NaN 1524.2378089512365 8.101816000368233 568.0 60.0 306.0 
76.00047933655907 2841.0 NaN 1524.2725450901814 9.999284483762942 568.0 60.0 306.0 
78.00047933655907 2899.0 NaN 1530.928523714094 1.2103977871055533 495.0 72.0 296.0 
80.00047933655907 2899.0 NaN 1530.4742818971272 3.210397787105554 496.0 71.0 297.0 
82.00047933655907 2899.0 NaN 1530.4048096192366 5.210397787105554 497.0 70.0 298.0 
84.00042902272939 2899.0 NaN 1530.4101536406151 7.208985357727023 497.0 70.0 298.0 
86.00047933655907 2871.0 NaN 1530.4128256513027 9.090238787575512 495.0 71.0 297.0 
88.00047933655907 2860.0 NaN 1533.763527054109 5.5428441760638725 483.0 68.0 301.0 
90.00047933655907 2880.0 NaN 1533.659318637273 2.138379909726828 469.0 69.0 300.0 
92.00047933655907 2880.0 NaN 1533.3974615898453 4.138379909726829 469.0 69.0 300.0 
94.00042902272939 2880.0 NaN 1533.3921175684704 6.136961470010516 469.0 69.0 300.0 
96.00047933655907 2880.0 NaN 1533.37875751503 8.13837990972683 469.0 69.0 300.0 
98.00047933655907 2816.0 NaN 1533.3653974615909 9.998773468846414 470.0 68.0 301.0 
100.00047933655907 2860.0 NaN 1537.0100200400816 1.2016263863153747 447.0 69.0 301.0 
102.00047933655907 2860.0 NaN 1536.6145624582489 3.2016263863153744 447.0 69.0 301.0 
104.00042902272939 2860.0 NaN 1536.5931863727455 5.2002099557204735 447.0 69.0 301.0 
106.00047933655907 2860.0 NaN 1533.520374081497 7.201626386315374 447.0 69.0 300.0 
108.00047933655907 2827.0 NaN 1533.5016700066815 9.12697925462617 446.0 69.0 300.0 
110.00047933655907 2824.0 NaN 1536.830995323982 5.578868199509633 430.0 75.0 295.0 
112.00047933655907 2858.0 NaN 1539.7675350701393 2.2577275277105042 422.0 77.0 294.0 
114.00042902272939 2858.0 NaN 1539.5564462257844 4.256319077006278 422.0 77.0 294.0 
116.00047933655907 2858.0 NaN 1539.5350701402815 6.257727527710503 422.0 77.0 294.0 
118.00047933655907 2858.0 NaN 1539.5270541082177 8.257727527710504 423.0 76.0 295.0 
120.00047933655907 2788.0 NaN 1539.569806279227 9.999413105791104 423.0 75.0 296.0 
122.00047933655907 2871.0 NaN 1552.2805611222457 1.2927533358486034 421.0 73.0 302.0 
124.00042902272939 2871.0 NaN 1551.9225116900457 3.2913488414665806 421.0 73.0 302.0 
126.00047933655907 2871.0 NaN 1548.7909151636609 5.2927533358486025 422.0 72.0 302.0 
128.00047933655907 2871.0 NaN 1548.753507014027 7.292753335848603 422.0 72.0 302.0 
130.00047933655907 2830.0 NaN 1548.8523714094847 9.207683991501126 420.0 72.0 302.0 
132.00047933655907 2812.0 NaN 1549.0313961255845 5.59425259671741 416.0 75.0 299.0 
134.0004290227294 2842.0 NaN 1548.9512358049456 2.298770208259383 420.0 72.0 302.0 
136.00047933655907 2842.0 NaN 1548.7374749499 4.300178658963608 420.0 72.0 302.0 
138.00047933655907 2842.0 NaN 1545.6459585838363 6.300178658963608 419.0 72.0 301.0 
140.00047933655907 2842.0 NaN 1542.6372745490999 8.300178658963608 419.0 71.0 301.0 
142.00047933655907 2746.0 NaN 1542.5945223780907 10.002520430395949 419.0 70.0 302.0 
144.0004290227294 2854.0 NaN 1555.532398129591 1.1994961661803931 423.0 64.0 312.0 
146.00047933655907 2854.0 NaN 1548.9672678690727 3.200910593337396 423.0 64.0 310.0 
148.00047933655907 2854.0 NaN 1548.9378757515028 5.200910593337396 423.0 64.0 310.0 
150.00047933655907 2854.0 NaN 1548.9939879759518 7.200910593337395 423.0 64.0 310.0 
152.00047933655907 2832.0 NaN 1548.956579826318 9.128310788683143 422.0 64.0 310.0 
154.0004290227294 2850.0 NaN 1549.1970607882456 5.551147934076167 421.0 65.0 309.0 
156.00047933655907 2905.0 NaN 1552.1683366733453 2.253136508412332 419.0 67.0 308.0 
158.00047933655907 2905.0 NaN 1548.8550434201725 4.253136508412331 419.0 67.0 307.0 
160.00047933655907 2905.0 NaN 1545.8597194388792 6.253136508412331 419.0 67.0 306.0 
162.00047933655907 2905.0 NaN 1545.8223112892456 8.25313650841233 418.0 68.0 305.0 
164.0004290227294 2825.0 NaN 1545.8677354709428 10.000401487494779 417.0 68.0 305.0 
166.00047933655907 2887.0 NaN 1552.3954575818298 1.3051873036266661 411.0 78.0 297.0 
168.00047933655907 2887.0 NaN 1545.8650634602548 3.3051873036266657 411.0 78.0 295.0 
170.00047933655907 2887.0 NaN 1542.8082832331336 5.305187303626666 410.0 79.0 293.0 
172.00047933655907 2887.0 NaN 1542.80026720107 7.305187303626666 410.0 79.0 293.0 
174.0004290227294 2849.0 NaN 1539.7167668670663 9.178591372822224 408.0 80.0 291.0 
176.00047933655907 2832.0 NaN 1542.917835671343 5.637494991209807 405.0 79.0 293.0 
178.00047933655907 2872.0 NaN 1542.8243152972616 2.3360351014902 401.0 81.0 291.0 
180.00047933655907 2872.0 NaN 1542.7147628590521 4.3360351014902 402.0 80.0 292.0 
182.00047933655907 2872.0 NaN 1542.6319305277207 6.336035101490198 402.0 80.0 292.0 
184.0004290227294 2872.0 NaN 1542.6185704742816 8.334610600065698 402.0 80.0 292.0 
186.00047933655907 2754.0 NaN 1542.5998663994635 10.001500997625449 402.0 80.0 292.0 
188.00047933655907 2851.0 NaN 1540.176352705409 1.2912170130566536 409.0 75.0 296.0 
190.00047933655907 2851.0 NaN 1539.8156312625274 3.2912170130566536 409.0 75.0 296.0 
192.00047933655907 2851.0 NaN 1536.6760187040727 5.291217013056653 408.0 75.0 295.0 
194.0004290227294 2851.0 NaN 1533.6245824983298 7.289802585899652 408.0 75.0 294.0 
196.00047933655907 2804.0 NaN 1533.6005344021364 9.156752469546976 406.0 76.0 293.0 
198.00047933655907 2795.0 NaN 1543.0968603874426 5.614442419778222 406.0 75.0 297.0 
200.00047933655907 2844.0 NaN 1539.890447561791 2.3219023423830936 403.0 77.0 294.0 
202.00047933655907 2844.0 NaN 1539.6472945891787 4.321902342383093 403.0 77.0 294.0 
204.0004290227294 2844.0 NaN 1539.6232464929847 6.320503740984493 403.0 77.0 294.0 
206.00047933655907 2844.0 NaN 1539.6312625250516 8.321902342383094 403.0 77.0 294.0 
208.00047933655907 2754.0 NaN 1536.630594522379 9.998739512496636 401.0 77.0 293.0 
210.00047933655907 2832.0 NaN 1546.3887775551088 1.2541578796322386 402.0 78.0 295.0 
212.00047933655907 2832.0 NaN 1545.9372077488301 3.254157879632239 402.0 78.0 295.0 
214.0004290227294 2832.0 NaN 1542.8162992651976 5.252755355088059 403.0 77.0 295.0 
216.00047933655907 2832.0 NaN 1539.7274549098183 7.254157879632239 402.0 77.0 294.0 
218.00047933655907 2798.0 NaN 1539.7461589846364 9.146768522739428 402.0 77.0 294.0 
220.00047933655907 2806.0 NaN 1543.0835003340003 5.648392611240073 401.0 78.0 294.0 
222.00047933655907 2852.0 NaN 1542.789579158318 2.3395092995457283 396.0 80.0 292.0 
224.0004290227294 2852.0 NaN 1539.5671342685362 4.338108739321637 397.0 79.0 292.0 
226.00047933655907 2852.0 NaN 1542.6078824315293 6.339509299545728 396.0 79.0 293.0 
228.00047933655907 2852.0 NaN 1539.5297261189062 8.339509299545727 396.0 79.0 292.0 
230.00047933655907 2751.0 NaN 1542.7040748163001 9.998725340323555 399.0 76.0 296.0 
232.00047933655907 2823.0 NaN 1546.2017368069455 1.3562673682148332 399.0 74.0 299.0 
234.0004290227294 2823.0 NaN 1545.8597194388794 3.3548668079907418 399.0 74.0 299.0 
236.00047933655907 2823.0 NaN 1542.789579158318 5.356267368214833 398.0 74.0 298.0 
238.00047933655907 2823.0 NaN 1542.7708750835 7.356267368214833 398.0 74.0 298.0 
240.00047933655907 2784.0 NaN 1539.7515030060117 9.224169267045262 398.0 74.0 297.0 
242.00047933655907 2758.0 NaN 1536.8630594522365 5.650317413406273 394.0 73.0 297.0 
244.0004290227294 2783.0 NaN 1533.5096860387453 2.340870660125622 385.0 81.0 288.0 
246.00047933655907 2783.0 NaN 1530.340681362727 4.342269261524225 385.0 81.0 287.0 
248.00047933655907 2783.0 NaN 1530.3299933199726 6.342269261524225 385.0 81.0 287.0 
250.00047933655907 2783.0 NaN 1530.388777555109 8.342269261524224 385.0 80.0 288.0 
252.00047933655907 2700.0 NaN 1530.3700734802935 9.999207273176738 385.0 80.0 288.0 
254.0004290227294 2748.0 NaN 1530.8243152972614 1.2766151712494975 381.0 82.0 286.0 
256.00047933655907 2748.0 NaN 1530.4448897795608 3.278013772648099 381.0 82.0 286.0 
258.00047933655907 2748.0 NaN 1527.361389445557 5.278013772648099 381.0 82.0 285.0 
260.00047933655907 2748.0 NaN 1524.339345357382 7.278013772648099 381.0 82.0 284.0 
262.00047933655907 2716.0 NaN 1524.2992651970612 9.14722835657175 382.0 80.0 286.0 
264.0004290227294 2719.0 NaN 1524.4488977955907 5.627361712339879 381.0 81.0 285.0 
266.00047933655907 2758.0 NaN 1521.322645290582 2.3133880653559094 381.0 80.0 285.0 
268.00047933655907 2758.0 NaN 1521.1382765531068 4.313388065355909 382.0 79.0 286.0 
270.00047933655907 2758.0 NaN 1521.1596526386095 6.31338806535591 380.0 80.0 285.0 
272.00047933655907 2758.0 NaN 1518.030728122912 8.313388065355909 380.0 79.0 285.0 
274.0004290227294 2672.0 NaN 1521.1730126920515 9.996365775921161 380.0 78.0 287.0 
276.00047933655907 2751.0 NaN 1543.1209084836346 1.4146089249352891 384.0 76.0 296.0 
278.00047933655907 2751.0 NaN 1542.7174348697386 3.414608924935291 385.0 76.0 296.0 
280.00047933655907 2751.0 NaN 1542.712090848364 5.414608924935289 384.0 76.0 296.0 
282.00047933655907 2751.0 NaN 1542.6693386773545 7.414608924935289 384.0 76.0 296.0 
284.0004290227294 2707.0 NaN 1542.6933867735456 9.258385402262485 384.0 76.0 296.0 
286.00047933655907 2676.0 NaN 1542.8296593186362 5.73249866419107 390.0 73.0 299.0 
288.00047933655907 2706.0 NaN 1536.638610554443 2.4934941191245166 391.0 72.0 298.0 
290.00047933655907 2706.0 NaN 1527.2625250501 4.493494119124516 389.0 73.0 294.0 
292.00047933655907 2706.0 NaN 1527.251837007348 6.493494119124517 389.0 73.0 294.0 
294.0004290227294 2706.0 NaN 1527.2304609218452 8.493494119124518 389.0 73.0 294.0 
296.00047933655907 2599.0 NaN 1527.2651970607883 9.997906054466016 386.0 73.0 294.0 
298.00047933655907 2658.0 NaN 1530.690714762857 1.2180874715392396 387.0 74.0 294.0 
300.00047933655907 2658.0 NaN 1527.2812291249181 3.21808747153924 387.0 74.0 293.0 
302.00047933655907 2658.0 NaN 1527.2358049432182 5.218087471539239 387.0 74.0 293.0 
304.0004290227294 2658.0 NaN 1527.2438209752818 7.218087471539239 387.0 74.0 293.0 
306.00047933655907 2634.0 NaN 1524.1549766199066 9.110541626643613 386.0 74.0 292.0 
308.00047933655907 2641.0 NaN 1527.4041416165662 5.579765379254317 381.0 80.0 287.0 
310.00047933655907 2675.0 NaN 1533.4749498998 2.2950015410473386 384.0 74.0 295.0 
312.00047933655907 2675.0 NaN 1530.223112892452 4.2950015410473386 384.0 74.0 294.0 
314.0004290227294 2675.0 NaN 1527.169004676018 6.29360098082325 384.0 74.0 293.0 
316.00047933655907 2675.0 NaN 1527.1396125584517 8.29500154104734 384.0 74.0 293.0 
318.00047933655907 2608.0 NaN 1524.072144288576 10.002297538279848 383.0 75.0 291.0 
320.00047933655907 2662.0 NaN 1533.8463593854362 1.2401485281416345 390.0 71.0 298.0 
322.00047933655907 2662.0 NaN 1524.192384769539 3.2401485281416336 389.0 71.0 295.0 
324.0004290227294 2662.0 NaN 1524.1816967267878 5.238740077437408 389.0 71.0 295.0 
326.00047933655907 2662.0 NaN 1524.1416165664664 7.240148528141633 388.0 71.0 295.0 
328.00047933655907 2636.0 NaN 1527.2090848363391 9.123467916375104 387.0 71.0 296.0 
330.00047933655907 2629.0 NaN 1527.5056780227117 5.620042322755326 388.0 67.0 300.0 
332.00047933655907 2660.0 NaN 1524.2511690046756 2.317932487060467 392.0 65.0 301.0 
334.0004290227294 2660.0 NaN 1524.1549766199064 4.316527992678445 392.0 65.0 301.0 
336.00047933655907 2660.0 NaN 1521.0634602538419 6.317932487060467 390.0 65.0 300.0 
338.00047933655907 2660.0 NaN 1521.0848363393457 8.317932487060467 390.0 65.0 300.0 
340.00047933655907 2593.0 NaN 1518.0494321977276 10.001133442391483 386.0 65.0 299.0 
342.00047933655907 2665.0 NaN 1521.584502338009 1.2561979568407402 386.0 70.0 295.0 
344.0004290227294 2665.0 NaN 1518.0601202404819 3.254795432296559 387.0 70.0 294.0 
346.00047933655907 2665.0 NaN 1517.998663994655 5.256197956840739 387.0 70.0 294.0 
348.00047933655907 2665.0 NaN 1514.952571810288 7.256197956840739 386.0 70.0 293.0 
350.00047933655907 2640.0 NaN 1514.9792919171668 9.135530154688675 383.0 70.0 293.0 
352.00047933655907 2636.0 NaN 1518.2231128924523 5.598889126814525 389.0 66.0 298.0 
354.0004290227294 2664.0 NaN 1521.2291249165 2.320445264178915 387.0 69.0 296.0 
356.00047933655907 2664.0 NaN 1511.847695390782 4.321845824403004 387.0 68.0 294.0 
358.00047933655907 2664.0 NaN 1511.853039412157 6.321845824403004 387.0 68.0 294.0 
360.00047933655907 2664.0 NaN 1511.8663994655992 8.321845824403004 387.0 68.0 294.0 
362.00047933655907 2599.0 NaN 1511.7995991983976 10.000404938201797 387.0 68.0 294.0 
364.0004290227294 2671.0 NaN 1524.6920507682025 1.3658484520118122 388.0 70.0 296.0 
366.00047933655907 2671.0 NaN 1521.1649966599878 3.3672490122359005 389.0 68.0 297.0 
368.00047933655907 2671.0 NaN 1524.2351369405458 5.367249012235901 389.0 68.0 298.0 
370.00047933655907 2671.0 NaN 1524.2672010688032 7.367249012235902 389.0 68.0 298.0 
372.00047933655907 2641.0 NaN 1524.1870407481638 9.191422607623453 390.0 67.0 299.0 
374.0004290227294 2650.0 NaN 1527.5217100868394 5.672106347558909 392.0 67.0 300.0 
376.00047933655907 2692.0 NaN 1518.0814963259847 2.397555393572564 389.0 69.0 295.0 
378.00047933655907 2692.0 NaN 1514.8937875751515 4.3975553935725635 389.0 69.0 294.0 
380.00047933655907 2692.0 NaN 1514.9498997996 6.3975553935725635 388.0 69.0 294.0 
382.00047933655907 2692.0 NaN 1514.8911155644632 8.397555393572565 388.0 69.0 294.0 
384.0004290227294 2599.0 NaN 1514.8884435537734 9.99678738008266 390.0 67.0 296.0 
386.00047933655907 2705.0 NaN 1524.6760187040732 1.2992270087649787 391.0 73.0 293.0 
388.00047933655907 2705.0 NaN 1521.1917167668666 3.29922700876498 390.0 73.0 292.0 
390.00047933655907 2705.0 NaN 1515.0647962591843 5.29922700876498 389.0 73.0 290.0 
392.00047933655907 2705.0 NaN 1515.0167000667998 7.299227008764978 390.0 73.0 290.0 
394.0004290227294 2674.0 NaN 1515.0273881095538 9.167597900933718 389.0 73.0 290.0 
396.00047933655907 2687.0 NaN 1518.3433533734126 5.688071606202909 390.0 73.0 291.0 
398.00047933655907 2734.0 NaN 1518.142952571809 2.488132777931711 394.0 71.0 293.0 
400.00047933655907 2734.0 NaN 1518.0360721442903 4.488132777931711 393.0 71.0 293.0 
402.00047933655907 2734.0 NaN 1514.9124916499661 6.48813277793171 393.0 70.0 293.0 
404.0004290227294 2734.0 NaN 1514.896459585837 8.488132777931712 393.0 70.0 293.0 
406.00047933655907 2628.0 NaN 1514.8724114896452 9.99794934943262 391.0 70.0 293.0 
408.00047933655907 2724.0 NaN 1518.5838343353364 1.4011597882384506 401.0 66.0 298.0 
410.00047933655907 2724.0 NaN 1515.1235804943212 3.40115978823845 401.0 66.0 297.0 
412.00047933655907 2724.0 NaN 1515.0968603874423 5.40115978823845 401.0 66.0 297.0 
414.0004290227294 2724.0 NaN 1515.0941883767546 7.40115978823845 401.0 66.0 297.0 
416.00047933655907 2682.0 NaN 1515.0915163660643 9.23459827016387 399.0 66.0 297.0 
418.00047933655907 2660.0 NaN 1509.1596526386097 5.6810536744776226 403.0 65.0 296.0 
420.00047933655907 2698.0 NaN 1515.2010688042749 2.443638423272847 405.0 63.0 300.0 
422.00047933655907 2698.0 NaN 1515.0060120240478 4.443638423272847 405.0 63.0 300.0 
424.0004290227294 2698.0 NaN 1511.951903807616 6.443638423272847 405.0 63.0 299.0 
426.00047933655907 2698.0 NaN 1511.9438877755515 8.443638423272844 403.0 63.0 299.0 
428.00047933655907 2597.0 NaN 1505.8383433533727 10.002813088273891 401.0 63.0 297.0 
430.00047933655907 2705.0 NaN 1521.515030060119 1.3936333293908882 403.0 64.0 301.0 
432.00047933655907 2705.0 NaN 1508.8309953239818 3.3936333293908905 404.0 64.0 297.0 
434.0004290227294 2705.0 NaN 1508.8042752171002 5.393633329390888 404.0 64.0 297.0 
436.00047933655907 2705.0 NaN 1511.866399465599 7.393633329390888 403.0 64.0 298.0 
438.00047933655907 2664.0 NaN 1511.8557114228454 9.22583785332257 403.0 64.0 298.0 
440.00047933655907 2654.0 NaN 1521.3413493653982 5.659033591402404 406.0 64.0 301.0 
442.00047933655907 2708.0 NaN 1527.4041416165658 2.442377490808738 410.0 62.0 305.0 
444.0004290227294 2708.0 NaN 1521.108884435537 4.442377490808737 410.0 62.0 303.0 
446.00047933655907 2708.0 NaN 1514.9151636606543 6.442377490808737 409.0 62.0 301.0 
448.00047933655907 2708.0 NaN 1521.092852371409 8.442377490808736 408.0 62.0 303.0 
450.00047933655907 2620.0 NaN 1521.1275885103546 10.000524241332721 406.0 62.0 303.0 
452.00047933655907 2702.0 NaN 1549.3146292585184 1.50312085671235 419.0 59.0 315.0 
454.0004290227294 2702.0 NaN 1545.7234468937882 3.50312085671235 419.0 59.0 314.0 
456.00047933655907 2702.0 NaN 1545.6539746158996 5.503120856712349 419.0 59.0 314.0 
458.00047933655907 2702.0 NaN 1542.6025384101545 7.503120856712348 419.0 59.0 313.0 
460.00047933655907 2648.0 NaN 1545.750167000667 9.288914084062366 417.0 59.0 314.0 
462.00047933655907 2607.0 NaN 1545.9612558450242 5.64386044262656 418.0 59.0 314.0 
464.0004290227294 2639.0 NaN 1539.6873747495001 2.3065218425713048 421.0 57.0 314.0 
466.00047933655907 2639.0 NaN 1539.5537742150975 4.306521842571305 420.0 57.0 314.0 
468.00047933655907 2639.0 NaN 1539.5778223112904 6.306521842571306 420.0 57.0 314.0 
470.00047933655907 2639.0 NaN 1539.5858383433547 8.306521842571303 419.0 57.0 314.0 
472.00047933655907 2559.0 NaN 1539.5484301937206 9.998513584321888 419.0 57.0 314.0 
474.0004290227294 2629.0 NaN 1539.925183700736 1.3629763989785524 422.0 58.0 313.0 
476.00047933655907 2629.0 NaN 1530.3353373413483 3.3629763989785526 419.0 58.0 310.0 
478.00047933655907 2629.0 NaN 1530.3380093520364 5.362976398978552 418.0 58.0 310.0 
480.00047933655907 2629.0 NaN 1530.3674014696069 7.362976398978552 417.0 58.0 310.0 
482.00047933655907 2593.0 NaN 1527.2464929859727 9.216020432427275 417.0 58.0 309.0 
484.0004290227294 2590.0 NaN 1530.5571142284564 5.659952328805069 415.0 58.0 310.0 
486.00047933655907 2635.0 NaN 1521.253173012691 2.439099098249574 411.0 64.0 301.0 
488.00047933655907 2635.0 NaN 1511.9091516366072 4.439099098249575 409.0 64.0 298.0 
490.00047933655907 2635.0 NaN 1502.7254509018028 6.439099098249574 408.0 63.0 296.0 
492.00047933655907 2635.0 NaN 1502.6800267201081 8.439099098249574 408.0 63.0 296.0 
494.0004290227294 2557.0 NaN 1502.7227788911161 10.001783591771941 407.0 63.0 296.0 
496.00047933655907 2628.0 NaN 1509.2611890447556 1.2864510675486622 406.0 65.0 296.0 
498.00047933655907 2628.0 NaN 1505.734134936539 3.2864510675486613 406.0 65.0 295.0 
500.00047933655907 2628.0 NaN 1505.7661990647973 5.286451067548664 405.0 65.0 295.0 
502.00047933655907 2628.0 NaN 1505.7127588510361 7.286451067548664 404.0 65.0 295.0 
504.0004290227294 2594.0 NaN 1505.7287909151637 9.195483739777547 403.0 65.0 295.0 
506.00047933655907 2587.0 NaN 1515.0941883767541 5.598202666452082 400.0 67.0 296.0 
508.00047933655907 2621.0 NaN 1502.8456913827647 2.2987398611449104 397.0 68.0 291.0 
510.00047933655907 2621.0 NaN 1496.5851703406818 4.29873986114491 397.0 68.0 289.0 
512.000479336559 2621.0 NaN 1496.5584502338002 6.298739861144911 396.0 68.0 289.0 
514.0004290227293 2621.0 NaN 1490.4368737474938 8.298739861144911 393.0 69.0 286.0 
516.000479336559 2566.0 NaN 1490.4181696726796 9.999043522665689 391.0 69.0 286.0 
518.000479336559 2629.0 NaN 1487.802271209084 1.2863582712991448 388.0 72.0 282.0 
520.000479336559 2629.0 NaN 1471.9251837007355 3.286358271299144 386.0 73.0 276.0 
522.000479336559 2629.0 NaN 1459.6526386105547 5.286358271299145 386.0 71.0 274.0 
524.0004290227293 2629.0 NaN 1459.6686706746823 7.286358271299146 385.0 72.0 273.0 
526.000479336559 2599.0 NaN 1456.5851703406818 9.161178265638402 383.0 72.0 272.0 
528.000479336559 2595.0 NaN 1456.7588510354035 5.656003848080687 385.0 72.0 272.0 
530.000479336559 2631.0 NaN 1456.7214428857724 2.3707066132791774 386.0 66.0 278.0 
532.000479336559 2631.0 NaN 1447.390781563127 4.370706613279178 387.0 66.0 275.0 
534.0004290227293 2631.0 NaN 1444.3206412825646 6.370706613279177 387.0 66.0 274.0 
536.000479336559 2631.0 NaN 1444.2992651970612 8.370706613279179 387.0 66.0 274.0 
538.000479336559 2547.0 NaN 1444.34201736807 9.996262425863012 384.0 66.0 274.0 
540.000479336559 2647.0 NaN 1460.227120908483 1.3626233455908652 385.0 66.0 279.0 
542.000479336559 2647.0 NaN 1456.7027388109548 3.3626233455908645 384.0 66.0 278.0 
544.0004290227293 2647.0 NaN 1456.676018704074 5.3626233455908645 384.0 66.0 278.0 
546.000479336559 2647.0 NaN 1453.5764863059455 7.3626233455908645 384.0 66.0 277.0 
548.000479336559 2615.0 NaN 1453.592518370073 9.253226671419526 383.0 66.0 277.0 
550.000479336559 2596.0 NaN 1459.9465597862386 5.621010085850547 387.0 66.0 279.0 
552.000479336559 2625.0 NaN 1465.8810955243819 2.389939769359193 388.0 67.0 280.0 
554.0004290227293 2625.0 NaN 1459.7034068136272 4.388521329642879 388.0 67.0 278.0 
556.000479336559 2625.0 NaN 1453.5364061456246 6.3899397693591915 388.0 67.0 276.0 
558.000479336559 2625.0 NaN 1450.5063460253832 8.389939769359192 387.0 67.0 275.0 
560.000479336559 2536.0 NaN 1447.4816299265192 10.00077208677792 386.0 65.0 276.0 
562.000479336559 2611.0 NaN 1456.9939879759518 1.4018166698189325 389.0 66.0 278.0 
564.0004290227293 2611.0 NaN 1456.6386105544423 3.400404240440402 390.0 65.0 279.0 
566.000479336559 2611.0 NaN 1456.5771543086178 5.401816669818933 390.0 65.0 279.0 
568.000479336559 2611.0 NaN 1456.5958583834336 7.401816669818931 390.0 65.0 279.0 
570.000479336559 2582.0 NaN 1456.643954575818 9.23329126692486 389.0 65.0 279.0 
572.000479336559 2594.0 NaN 1472.272545090181 5.659134371539303 390.0 64.0 285.0 
574.0004290227293 2642.0 NaN 1478.3112892451566 2.458919459513939 392.0 65.0 286.0 
576.000479336559 2642.0 NaN 1475.1369405477628 4.460339914059394 392.0 65.0 285.0 
578.000479336559 2642.0 NaN 1469.018036072145 6.460339914059394 392.0 65.0 283.0 
580.000479336559 2642.0 NaN 1472.0855043420179 8.460339914059395 391.0 66.0 283.0 
582.000479336559 2526.0 NaN 1472.1469605878428 9.997852277346675 389.0 66.0 283.0 
584.0004290227293 2648.0 NaN 1484.8042752171002 1.4572094281719457 396.0 69.0 284.0 
586.000479336559 2648.0 NaN 1484.4221776887105 3.4586319032786323 397.0 68.0 285.0 
588.000479336559 2648.0 NaN 1484.3820975283907 5.458631903278633 397.0 68.0 285.0 
590.000479336559 2648.0 NaN 1484.3927855711431 7.458631903278631 396.0 68.0 285.0 
592.000479336559 2606.0 NaN 1484.4195056780216 9.305688358135539 396.0 68.0 285.0 
594.0004290227293 2591.0 NaN 1496.865731462926 5.6677821837816635 403.0 66.0 291.0 
596.000479336559 2639.0 NaN 1499.7808951235809 2.479868453662757 409.0 66.0 292.0 
598.000479336559 2639.0 NaN 1496.6546426185714 4.479868453662756 408.0 66.0 291.0 
600.000479336559 2639.0 NaN 1496.649298597194 6.479868453662758 408.0 66.0 291.0 
602.000479336559 2639.0 NaN 1496.6680026720103 8.479868453662759 409.0 65.0 292.0 
604.0004290227293 2543.0 NaN 1493.6566466265872 9.997669291299 404.0 65.0 291.0 
606.000479336559 2641.0 NaN 1506.2685370741474 1.4249101003560514 409.0 67.0 293.0 
608.000479336559 2641.0 NaN 1502.8002672010693 3.4249101003560534 408.0 67.0 292.0 
610.000479336559 2641.0 NaN 1502.776219104876 5.424910100356053 408.0 67.0 292.0 
612.000479336559 2641.0 NaN 1499.7274549098192 7.424910100356051 409.0 66.0 292.0 
614.0004290227293 2600.0 NaN 1496.6599866399456 9.225282431430664 404.0 67.0 290.0 
616.000479336559 2611.0 NaN 1503.0006680026727 5.613743815945941 400.0 68.0 291.0 
618.000479336559 2664.0 NaN 1509.1249164996652 2.303113229303901 406.0 65.0 296.0 
620.000479336559 2664.0 NaN 1508.9886439545746 4.303113229303901 407.0 64.0 297.0 
622.000479336559 2664.0 NaN 1508.9539078156304 6.303113229303901 407.0 64.0 297.0 
624.0004290227293 2664.0 NaN 1505.8944555778214 8.301694789587588 406.0 64.0 296.0 
626.000479336559 2588.0 NaN 1505.862391449565 9.995661495534605 406.0 64.0 296.0 
628.000479336559 2727.0 NaN 1530.8991315965272 1.513814907155174 410.0 68.0 300.0 
630.000479336559 2727.0 NaN 1524.3179692718757 3.513814907155173 408.0 68.0 298.0 
632.000479336559 2727.0 NaN 1524.291249164997 5.513814907155173 409.0 67.0 299.0 
634.0004290227293 2727.0 NaN 1521.1943887775544 7.512406456450946 407.0 67.0 298.0 
636.000479336559 2664.0 NaN 1521.1756847027382 9.291410450644669 406.0 67.0 298.0 
638.000479336559 2680.0 NaN 1524.5210420841693 5.652942961610764 406.0 66.0 300.0 
640.000479336559 2764.0 NaN 1521.2665330661334 2.492799983460153 408.0 64.0 301.0 
642.000479336559 2764.0 NaN 1518.0173680694727 4.492799983460152 408.0 64.0 300.0 
644.0004290227293 2764.0 NaN 1518.0280561122254 6.491387554081618 408.0 64.0 300.0 
646.000479336559 2764.0 NaN 1514.9659318637273 8.492799983460152 406.0 64.0 299.0 
648.000479336559 2633.0 NaN 1514.9819639278546 10.01378880175535 402.0 64.0 299.0 
650.000479336559 2745.0 NaN 1527.7595190380757 1.4657848419982122 409.0 64.0 303.0 
652.000479336559 2745.0 NaN 1521.18904475618 3.465784841998212 409.0 64.0 301.0 
654.0004290227293 2745.0 NaN 1518.1189044756184 5.4643724126196815 408.0 64.0 300.0 
656.000479336559 2745.0 NaN 1518.0895123580488 7.465784841998212 407.0 64.0 300.0 
658.000479336559 2679.0 NaN 1518.0868403473623 9.262884577690153 406.0 64.0 300.0 
660.000479336559 2676.0 NaN 1533.7234468937886 5.744224255511077 406.0 66.0 303.0 
662.000479336559 2751.0 NaN 1545.9131596526377 2.628459133337475 408.0 64.0 309.0 
664.0004290227293 2751.0 NaN 1536.577154308618 4.627052663576574 407.0 64.0 306.0 
#####################################################################
# End of data export. Simulation finished at: 2019-03-06T23:54+0000 #
#####################################################################
