#####################################################################
# Alchemist log file - simulation started at: 2019-03-07T00:10+0000 #
#####################################################################
# seed = 4.0, bandwidth = 2.3713737056616552E7, propagationDelay = 0.001, baserange = 562.341325190349
#
# The columns have the following meaning: 
# time neighbor_count[Sum] <value>@neighbor_count[Sum] packet_size[Mean] mean_delay[Mean] crowd[Sum] overcrowded[Sum] risk[Sum] 
0.0 NaN NaN NaN NaN NaN NaN NaN 
2.0004793365590676 98210.0 NaN 4995.975951903808 0.5001362596288003 1496.0 1.0 1496.0 
4.00042902272939 98210.0 NaN 4994.372745490982 0.50013642251938 1496.0 1.0 1496.0 
6.000479336559067 98210.0 NaN 4993.851703406814 0.5001363974188497 1496.0 1.0 1496.0 
8.000479336559067 98210.0 NaN 4994.386105544422 0.5001363777928965 1495.0 2.0 1495.0 
10.000479336559067 98210.0 NaN 4995.3426853707415 0.500136384936625 1497.0 0.0 1497.0 
12.000479336559067 98210.0 NaN 4994.316633266533 0.5001364004907308 1497.0 0.0 1497.0 
14.00042902272939 98210.0 NaN 4993.819639278557 0.5001363926068295 1497.0 0.0 1497.0 
16.000479336559067 98245.0 NaN 4993.931863727455 0.5000943005924038 1497.0 0.0 1497.0 
18.000479336559067 98268.0 NaN 4994.818971275885 0.5003221891499368 1497.0 0.0 1497.0 
20.000479336559067 98266.0 NaN 4995.732798931196 0.5009618626933326 1497.0 0.0 1497.0 
22.000479336559067 98261.0 NaN 4994.663994655979 0.5001493827835639 1497.0 0.0 1497.0 
24.000429022729392 98262.0 NaN 4994.0387441549765 0.5001382059034423 1497.0 0.0 1497.0 
26.000479336559067 98315.0 NaN 4994.439545758183 0.5003308265086494 1497.0 0.0 1497.0 
28.000479336559067 98350.0 NaN 4995.38543754175 0.5004341376190591 1497.0 0.0 1497.0 
30.000479336559067 98343.0 NaN 4996.112224448898 0.5014189307624438 1496.0 1.0 1496.0 
32.00047933655907 98343.0 NaN 4994.754843019372 0.5001055636486051 1497.0 0.0 1497.0 
34.00042902272939 98347.0 NaN 4993.894455577823 0.5007463878662297 1497.0 0.0 1497.0 
36.00047933655907 98397.0 NaN 4994.249832999332 0.5005925076799912 1496.0 1.0 1496.0 
38.00047933655907 98443.0 NaN 4995.131596526386 0.5008891489019752 1497.0 0.0 1497.0 
40.00047933655907 98432.0 NaN 4996.293921175685 0.5011984137665029 1497.0 0.0 1497.0 
42.00047933655907 98431.0 NaN 4995.3453573814295 0.5006471819722019 1497.0 0.0 1497.0 
44.00042902272939 98438.0 NaN 4994.29258517034 0.5003853199812871 1497.0 0.0 1497.0 
46.00047933655907 98468.0 NaN 4994.271209084836 0.5007451277119497 1496.0 1.0 1496.0 
48.00047933655907 98470.0 NaN 4994.947227788911 0.5023770185553302 1496.0 1.0 1496.0 
50.00047933655907 98444.0 NaN 4996.138944555778 0.5012924556420599 1496.0 1.0 1496.0 
52.00047933655907 98450.0 NaN 4995.110220440882 0.5007464451505883 1496.0 1.0 1496.0 
54.00042902272939 98446.0 NaN 4994.460921843687 0.5020995745841367 1495.0 2.0 1495.0 
56.00047933655907 98498.0 NaN 4994.629258517034 0.5007384471298532 1497.0 0.0 1497.0 
58.00047933655907 98533.0 NaN 4995.08617234469 0.5007707305433152 1497.0 0.0 1497.0 
60.00047933655907 98526.0 NaN 4992.692050768203 0.5004260933472591 1497.0 0.0 1496.0 
62.00047933655907 98593.0 NaN 1522.2044088176365 0.5008186686879339 773.0 0.0 365.0 
64.00042902272939 98590.0 NaN 1522.1883767535087 0.500534728347068 619.0 0.0 365.0 
66.00047933655907 98608.0 NaN 1525.2772211088843 0.5012062264666589 585.0 0.0 366.0 
68.00047933655907 98652.0 NaN 1525.360053440215 0.5014309072557882 550.0 0.0 366.0 
70.00047933655907 98633.0 NaN 1525.3466933867726 0.5009499528020627 535.0 0.0 366.0 
72.00047933655907 98680.0 NaN 1528.5263861055455 0.5015476648271499 533.0 0.0 367.0 
74.00042902272939 98662.0 NaN 1531.4816299265185 0.5013176839160003 531.0 0.0 368.0 
76.00047933655907 98680.0 NaN 1531.4388777555093 0.5004835745410052 531.0 0.0 368.0 
78.00047933655907 98712.0 NaN 1534.5811623246484 0.500985430269049 530.0 0.0 369.0 
80.00047933655907 98691.0 NaN 1537.6085504342004 0.5005187457246363 529.0 0.0 370.0 
82.00047933655907 98752.0 NaN 1537.6406145624576 0.5007842578110491 529.0 0.0 370.0 
84.00042902272939 98742.0 NaN 1537.811623246491 0.5007865995506254 529.0 1.0 369.0 
86.00047933655907 98740.0 NaN 1538.0173680694727 0.5004950204956468 527.0 1.0 369.0 
88.00047933655907 98750.0 NaN 1538.1830327321302 0.5011042285338955 528.0 0.0 370.0 
90.00047933655907 98745.0 NaN 1538.2311289245158 0.5007533532394741 528.0 0.0 370.0 
92.00047933655907 98808.0 NaN 1538.1242484969935 0.5019314463120105 528.0 0.0 370.0 
94.00042902272939 98738.0 NaN 1537.985303941216 0.5009822644103996 527.0 1.0 369.0 
96.00047933655907 98745.0 NaN 1537.9505678022724 0.5007774959566212 528.0 0.0 370.0 
98.00047933655907 98736.0 NaN 1537.902471609888 0.5007386760149364 528.0 0.0 370.0 
100.00047933655907 98719.0 NaN 1540.8176352705425 0.5004659119923993 527.0 1.0 370.0 
102.00047933655907 98753.0 NaN 1540.7401469605884 0.5012152647467973 526.0 2.0 369.0 
104.00042902272939 98702.0 NaN 1540.6973947895792 0.5005529268240599 526.0 2.0 369.0 
106.00047933655907 98714.0 NaN 1540.7828991315969 0.5006866945455257 527.0 1.0 370.0 
108.00047933655907 98782.0 NaN 1540.873747494991 0.5010850668759791 528.0 0.0 371.0 
110.00047933655907 98760.0 NaN 1540.8416833667338 0.5003901112575817 528.0 0.0 371.0 
112.00047933655907 98835.0 NaN 1540.748162992652 0.5011245364354001 528.0 0.0 371.0 
114.00042902272939 98807.0 NaN 1540.5744822979275 0.5003405845024009 528.0 0.0 371.0 
116.00047933655907 98808.0 NaN 1540.5931863727455 0.5005385566778324 529.0 0.0 371.0 
118.00047933655907 98831.0 NaN 1546.86706746827 0.500757569050734 530.0 0.0 373.0 
120.00047933655907 98817.0 NaN 1550.0334001335998 0.5005538683098041 530.0 0.0 374.0 
122.00047933655907 98807.0 NaN 1550.0173680694727 0.5011990276659785 530.0 0.0 374.0 
124.00042902272939 98775.0 NaN 1550.0547762191063 0.50064318648112 529.0 1.0 373.0 
126.00047933655907 98774.0 NaN 1550.1830327321302 0.5003151923799517 529.0 1.0 373.0 
128.00047933655907 98811.0 NaN 1547.1422845691366 0.5005718078618453 529.0 1.0 372.0 
130.00047933655907 98783.0 NaN 1547.1503006012022 0.5004199760286003 528.0 1.0 372.0 
132.00047933655907 98803.0 NaN 1543.935871743488 0.5012565397400379 526.0 1.0 371.0 
134.0004290227294 98772.0 NaN 1540.7428189712757 0.5011753282287186 525.0 2.0 369.0 
136.00047933655907 98764.0 NaN 1540.8496993987976 0.50063376036592 526.0 0.0 371.0 
138.00047933655907 98767.0 NaN 1544.093520374082 0.5003861003085441 525.0 0.0 372.0 
140.00047933655907 98770.0 NaN 1541.098196392785 0.5006415193717199 523.0 1.0 370.0 
142.00047933655907 98766.0 NaN 1547.2732130928543 0.5006724516351692 523.0 1.0 372.0 
144.0004290227294 98747.0 NaN 1550.3406813627273 0.5004307944922763 525.0 1.0 373.0 
146.00047933655907 98756.0 NaN 1547.283901135603 0.5002891088193786 525.0 0.0 373.0 
148.00047933655907 98781.0 NaN 1553.4642618570454 0.5004960897118518 524.0 0.0 375.0 
150.00047933655907 98780.0 NaN 1553.3841015364062 0.5003565708267665 523.0 0.0 375.0 
152.00047933655907 98770.0 NaN 1550.1776887107544 0.5012167319627728 524.0 0.0 374.0 
154.0004290227294 98733.0 NaN 1544.0774883099546 0.5008835171685425 520.0 1.0 371.0 
156.00047933655907 98776.0 NaN 1544.0213760855033 0.5003598647361989 520.0 0.0 372.0 
158.00047933655907 98807.0 NaN 1543.9786239144967 0.500409442142266 520.0 1.0 371.0 
160.00047933655907 98799.0 NaN 1543.9652638610544 0.5004903723039659 522.0 0.0 372.0 
162.00047933655907 98788.0 NaN 1543.9171676686726 0.5005113479373611 521.0 0.0 372.0 
164.0004290227294 98766.0 NaN 1543.8690714762847 0.5002787959078773 520.0 0.0 372.0 
166.00047933655907 98783.0 NaN 1543.906479625918 0.5003912807801217 519.0 0.0 372.0 
168.00047933655907 98780.0 NaN 1543.90380761523 0.5004982786664885 519.0 0.0 372.0 
170.00047933655907 98765.0 NaN 1543.97060788243 0.5006258825069029 520.0 0.0 372.0 
172.00047933655907 98720.0 NaN 1543.9679358717453 0.5006059443629456 520.0 0.0 372.0 
174.0004290227294 98705.0 NaN 1537.8303273213091 0.5005085462071648 519.0 0.0 370.0 
176.00047933655907 98721.0 NaN 1541.0420841683363 0.5005035938840326 519.0 1.0 370.0 
178.00047933655907 98734.0 NaN 1541.1516366065453 0.5010959110552115 518.0 2.0 369.0 
180.00047933655907 98715.0 NaN 1541.2451569806271 0.5007545466547526 521.0 0.0 371.0 
182.00047933655907 98684.0 NaN 1538.094856379427 0.5007987904981342 518.0 1.0 369.0 
184.0004290227294 98660.0 NaN 1537.9879759519029 0.5007655187998111 519.0 0.0 370.0 
186.00047933655907 98661.0 NaN 1540.9378757515026 0.5005928250271591 518.0 0.0 371.0 
188.00047933655907 98645.0 NaN 1537.7100868403456 0.5007702396741018 517.0 1.0 369.0 
190.00047933655907 98622.0 NaN 1534.6639946559792 0.5004366695471598 517.0 1.0 368.0 
192.00047933655907 98583.0 NaN 1537.750167000667 0.500897003842246 515.0 2.0 368.0 
194.0004290227294 98550.0 NaN 1537.790247160991 0.500585152128848 518.0 0.0 370.0 
196.00047933655907 98534.0 NaN 1537.907815631264 0.5006939988464685 518.0 0.0 370.0 
198.00047933655907 98526.0 NaN 1538.0414161656636 0.5008839120669588 518.0 0.0 370.0 
200.00047933655907 98511.0 NaN 1538.1242484969935 0.5011334534717872 517.0 1.0 369.0 
202.00047933655907 98492.0 NaN 1544.1229124916517 0.5007507840748 518.0 1.0 371.0 
204.0004290227294 98483.0 NaN 1547.088844355379 0.5009307303226609 520.0 0.0 373.0 
206.00047933655907 98471.0 NaN 1544.013360053439 0.5008352291197061 519.0 0.0 372.0 
208.00047933655907 98480.0 NaN 1537.8463593854362 0.5008895204868568 518.0 1.0 369.0 
210.00047933655907 98485.0 NaN 1534.749498997997 0.5020049786615847 516.0 1.0 368.0 
212.00047933655907 98460.0 NaN 1537.8356713426847 0.5006226502167096 518.0 0.0 370.0 
214.0004290227294 98435.0 NaN 1540.876419505679 0.5007091210486847 517.0 1.0 370.0 
216.00047933655907 98427.0 NaN 1537.8810955243816 0.5008613274277532 516.0 1.0 369.0 
218.00047933655907 98405.0 NaN 1537.8623914495638 0.5009501981071688 514.0 0.0 370.0 
220.00047933655907 98457.0 NaN 1537.8329993319974 0.5010196276491313 514.0 0.0 370.0 
222.00047933655907 98404.0 NaN 1534.7842351369393 0.5007359534760961 513.0 1.0 368.0 
224.0004290227294 98382.0 NaN 1534.7468269873093 0.5010906640159017 514.0 0.0 369.0 
226.00047933655907 98377.0 NaN 1537.8249832999338 0.5006824262608239 514.0 0.0 370.0 
228.00047933655907 98401.0 NaN 1544.0106880427525 0.5011808729785643 516.0 0.0 372.0 
230.00047933655907 98402.0 NaN 1544.1710086840362 0.5016320422209356 516.0 0.0 372.0 
232.00047933655907 98365.0 NaN 1544.2618570474272 0.5008823230422338 515.0 0.0 372.0 
234.0004290227294 98342.0 NaN 1547.286573146291 0.500594600778696 515.0 0.0 373.0 
236.00047933655907 98339.0 NaN 1541.0233800935182 0.5013017538412797 513.0 1.0 370.0 
238.00047933655907 98332.0 NaN 1540.956579826318 0.5010416067097588 514.0 0.0 371.0 
240.00047933655907 98328.0 NaN 1537.7795591182362 0.5017164002120441 512.0 2.0 368.0 
242.00047933655907 98285.0 NaN 1534.642618570473 0.5009357579995034 512.0 1.0 368.0 
244.0004290227294 98260.0 NaN 1534.6025384101545 0.500770877187092 515.0 0.0 369.0 
246.00047933655907 98239.0 NaN 1534.6853707414816 0.5017200224288075 514.0 1.0 368.0 
248.00047933655907 98203.0 NaN 1534.6987307949244 0.5016514632824055 513.0 1.0 368.0 
250.00047933655907 98172.0 NaN 1534.7014028056092 0.5016048247231468 515.0 0.0 369.0 
252.00047933655907 98135.0 NaN 1531.6633266533067 0.5010174415949118 514.0 0.0 368.0 
254.0004290227294 98102.0 NaN 1528.582498329993 0.5009164350472737 512.0 1.0 366.0 
256.00047933655907 98078.0 NaN 1528.5718102872424 0.5017677938013615 515.0 0.0 367.0 
258.00047933655907 98020.0 NaN 1528.630594522379 0.5015505984933076 515.0 0.0 367.0 
260.00047933655907 97985.0 NaN 1528.6599866399454 0.5012803983010291 516.0 0.0 367.0 
262.00047933655907 97949.0 NaN 1528.6252505010004 0.5014752070365037 516.0 0.0 367.0 
264.0004290227294 97902.0 NaN 1528.718770875082 0.501522393709212 516.0 0.0 367.0 
266.00047933655907 97884.0 NaN 1544.2030728122909 0.5021895923451853 514.0 0.0 372.0 
268.00047933655907 97840.0 NaN 1544.2378089512365 0.5015863333503082 512.0 2.0 370.0 
270.00047933655907 97847.0 NaN 1541.1970607882454 0.502194166534292 513.0 1.0 370.0 
272.00047933655907 97787.0 NaN 1534.893787575152 0.5019861388769286 513.0 0.0 369.0 
274.0004290227294 97756.0 NaN 1534.8750835003343 0.5016981612396718 512.0 0.0 369.0 
276.00047933655907 97730.0 NaN 1537.9211756847023 0.5009873432452017 514.0 0.0 370.0 
278.00047933655907 97694.0 NaN 1540.8363393453567 0.5009477584349454 513.0 0.0 371.0 
280.00047933655907 97676.0 NaN 1540.7401469605886 0.5010167008635752 515.0 0.0 371.0 
282.00047933655907 97653.0 NaN 1540.6599866399454 0.5014428862020176 517.0 0.0 371.0 
284.0004290227294 97606.0 NaN 1534.5170340681366 0.5006585012436193 516.0 0.0 369.0 
286.00047933655907 97601.0 NaN 1534.6399465597844 0.5015722438579898 514.0 1.0 368.0 
288.00047933655907 97531.0 NaN 1534.7414829659297 0.5009943883478474 514.0 0.0 369.0 
290.00047933655907 97512.0 NaN 1531.5644622578482 0.5016332692279671 511.0 0.0 368.0 
292.00047933655907 97452.0 NaN 1531.5083500334 0.5014538460258158 512.0 0.0 368.0 
294.0004290227294 97402.0 NaN 1537.5871743486978 0.5008633264365128 512.0 0.0 370.0 
296.00047933655907 97418.0 NaN 1537.6138944555794 0.5028607987389209 511.0 1.0 369.0 
298.00047933655907 97353.0 NaN 1540.689378757516 0.5016472825658601 512.0 0.0 371.0 
300.00047933655907 97326.0 NaN 1540.817635270543 0.5012614684423848 510.0 1.0 370.0 
302.00047933655907 97288.0 NaN 1537.81696726787 0.5013876402762423 510.0 1.0 369.0 
304.0004290227294 97246.0 NaN 1537.8036072144273 0.5008407910836662 509.0 0.0 370.0 
306.00047933655907 97268.0 NaN 1534.8724114896452 0.5014908846419732 510.0 0.0 369.0 
308.00047933655907 97179.0 NaN 1531.7621910487635 0.5016582171233167 509.0 0.0 368.0 
310.00047933655907 97138.0 NaN 1531.7274549098183 0.5010997427241226 507.0 2.0 366.0 
312.00047933655907 97112.0 NaN 1534.8029392117546 0.5016190836513077 508.0 1.0 368.0 
314.0004290227294 97053.0 NaN 1534.6559786239156 0.5012567850701496 510.0 1.0 368.0 
316.00047933655907 97031.0 NaN 1534.6907147628574 0.5017461557696989 512.0 0.0 369.0 
318.00047933655907 96933.0 NaN 1534.714762859052 0.5013538177426542 511.0 0.0 369.0 
320.00047933655907 96911.0 NaN 1534.7682030728117 0.5025936118996142 511.0 0.0 369.0 
322.00047933655907 96843.0 NaN 1531.8022712090844 0.5019340993981377 510.0 0.0 368.0 
324.0004290227294 96792.0 NaN 1531.7515030060117 0.5011823795980568 510.0 0.0 368.0 
326.00047933655907 96788.0 NaN 1531.794255177021 0.5012288802743476 510.0 0.0 368.0 
328.00047933655907 96737.0 NaN 1534.8296593186362 0.5012256798639185 509.0 1.0 368.0 
330.00047933655907 96728.0 NaN 1528.6172344689367 0.5021486717942621 508.0 0.0 367.0 
332.00047933655907 96655.0 NaN 1528.4969939879754 0.5017793354210317 508.0 0.0 367.0 
334.0004290227294 96584.0 NaN 1534.5758183032726 0.5016666854857226 510.0 0.0 369.0 
336.00047933655907 96564.0 NaN 1525.3306613226455 0.5009839264927433 509.0 1.0 365.0 
338.00047933655907 96503.0 NaN 1525.3092852371426 0.5006533371164731 510.0 0.0 366.0 
340.00047933655907 96511.0 NaN 1525.3146292585184 0.5011278510443933 511.0 0.0 366.0 
342.00047933655907 96470.0 NaN 1525.2665330661334 0.5012926857191099 513.0 0.0 366.0 
344.0004290227294 96433.0 NaN 1531.3907815631273 0.5008907562719018 516.0 0.0 368.0 
346.00047933655907 96428.0 NaN 1534.5571142284568 0.5018278388838078 516.0 0.0 369.0 
348.00047933655907 96328.0 NaN 1531.5430861723455 0.5010107750774215 515.0 0.0 368.0 
350.00047933655907 96318.0 NaN 1525.4215096860385 0.5013683747623512 514.0 0.0 366.0 
352.00047933655907 96277.0 NaN 1525.4669338677363 0.5014155576544838 516.0 1.0 365.0 
354.0004290227294 96246.0 NaN 1525.528390113561 0.5006704853339584 516.0 0.0 366.0 
356.00047933655907 96253.0 NaN 1525.6513026052096 0.501951842216934 515.0 0.0 366.0 
358.00047933655907 96163.0 NaN 1525.6700066800274 0.5013953766603352 515.0 0.0 366.0 
360.00047933655907 96156.0 NaN 1525.7234468937884 0.5013819656111077 514.0 1.0 365.0 
362.00047933655907 96128.0 NaN 1525.710086840346 0.5017384168094956 516.0 1.0 365.0 
364.0004290227294 96073.0 NaN 1525.7047428189721 0.5024013684008842 516.0 0.0 366.0 
366.00047933655907 96056.0 NaN 1516.331329325318 0.5014243131889194 515.0 1.0 362.0 
368.00047933655907 96008.0 NaN 1510.2231128924523 0.5016575164627188 516.0 0.0 361.0 
370.00047933655907 95988.0 NaN 1507.0060120240478 0.5018351513059696 518.0 0.0 360.0 
372.00047933655907 95951.0 NaN 1510.0334001335998 0.5019243241435284 517.0 0.0 361.0 
374.0004290227294 95867.0 NaN 1506.901803607215 0.5010595111324707 519.0 0.0 360.0 
376.00047933655907 95862.0 NaN 1506.9365397461581 0.5015237271165217 518.0 0.0 360.0 
378.00047933655907 95859.0 NaN 1507.0140280561116 0.5012262955873361 520.0 0.0 360.0 
380.00047933655907 95838.0 NaN 1507.0220440881758 0.5014510633417141 521.0 0.0 360.0 
382.00047933655907 95824.0 NaN 1510.0440881763536 0.5017782292960246 518.0 0.0 361.0 
384.0004290227294 95758.0 NaN 1513.0073480293916 0.5007825751170617 518.0 0.0 362.0 
386.00047933655907 95752.0 NaN 1516.0774883099539 0.5011267939388596 520.0 0.0 363.0 
388.00047933655907 95716.0 NaN 1516.0267201068812 0.5017295802883599 520.0 0.0 363.0 
390.00047933655907 95664.0 NaN 1510.03607214429 0.5013875107639556 521.0 0.0 361.0 
392.00047933655907 95683.0 NaN 1510.0654642618567 0.5013937750381274 519.0 0.0 361.0 
394.0004290227294 95625.0 NaN 1510.1670006680024 0.5007477850139119 518.0 0.0 361.0 
396.00047933655907 95632.0 NaN 1513.2959251837 0.5014014256728524 519.0 0.0 362.0 
398.00047933655907 95597.0 NaN 1507.131596526385 0.5012774260886175 521.0 0.0 360.0 
400.00047933655907 95569.0 NaN 1504.0 0.501257649331766 521.0 0.0 359.0 
402.00047933655907 95569.0 NaN 1510.054776219106 0.5017907878565696 522.0 0.0 361.0 
404.0004290227294 95504.0 NaN 1510.0334001335998 0.5020335512690567 521.0 1.0 360.0 
406.00047933655907 95507.0 NaN 1510.1028724114904 0.5021140505682732 520.0 3.0 358.0 
408.00047933655907 95448.0 NaN 1513.317301269206 0.5023248185296296 523.0 0.0 362.0 
410.00047933655907 95421.0 NaN 1516.355377421509 0.5014243180669399 523.0 0.0 363.0 
412.00047933655907 95397.0 NaN 1522.6907147628574 0.5024337697201936 522.0 1.0 364.0 
414.0004290227294 95308.0 NaN 1522.7735470941886 0.5012679809966576 523.0 0.0 365.0 
416.00047933655907 95344.0 NaN 1519.6553106212432 0.5017423099022889 525.0 0.0 364.0 
418.00047933655907 95289.0 NaN 1513.3974615898455 0.5036651931707066 519.0 1.0 361.0 
420.00047933655907 95273.0 NaN 1510.3193052772203 0.5011749901166082 516.0 1.0 360.0 
422.00047933655907 95269.0 NaN 1513.3680694722789 0.5007350590952645 518.0 0.0 362.0 
424.0004290227294 95275.0 NaN 1510.2471609886447 0.5005642809030489 520.0 0.0 361.0 
426.00047933655907 95273.0 NaN 1510.19906479626 0.5010523078410982 516.0 1.0 360.0 
428.00047933655907 95249.0 NaN 1513.1649966599878 0.5013826683886151 517.0 1.0 361.0 
430.00047933655907 95225.0 NaN 1506.973947895791 0.5018568393153178 525.0 0.0 360.0 
432.00047933655907 95212.0 NaN 1513.116900467601 0.5012225282674492 525.0 0.0 362.0 
434.0004290227294 95162.0 NaN 1519.2785571142274 0.5010082946760304 527.0 0.0 364.0 
436.00047933655907 95181.0 NaN 1522.4689378757523 0.5027228530837242 526.0 0.0 365.0 
438.00047933655907 95130.0 NaN 1525.4455577822303 0.501278773122177 527.0 0.0 366.0 
440.00047933655907 95106.0 NaN 1528.5103540414175 0.5016441857006507 528.0 0.0 367.0 
442.00047933655907 95104.0 NaN 1525.4428857715434 0.5017287338284079 529.0 0.0 366.0 
444.0004290227294 95036.0 NaN 1525.3867735470935 0.501663538575527 528.0 0.0 366.0 
446.00047933655907 95077.0 NaN 1519.3827655310631 0.5011337327630087 526.0 1.0 363.0 
448.00047933655907 95073.0 NaN 1537.9318637274544 0.5012593565909215 527.0 0.0 370.0 
450.00047933655907 95069.0 NaN 1547.2705410821636 0.5013309614582043 529.0 0.0 373.0 
452.00047933655907 95079.0 NaN 1550.2418169672665 0.502210211625039 527.0 1.0 373.0 
454.0004290227294 95033.0 NaN 1550.1643286573153 0.5016142429567745 526.0 2.0 372.0 
456.00047933655907 95050.0 NaN 1550.1295925183701 0.5012661046903018 526.0 0.0 374.0 
458.00047933655907 95041.0 NaN 1550.0895123580483 0.501156927799033 526.0 0.0 374.0 
460.00047933655907 95058.0 NaN 1547.0407481629911 0.5018749045719956 525.0 0.0 373.0 
462.00047933655907 95053.0 NaN 1543.9412157648637 0.5020426876805685 523.0 0.0 372.0 
464.0004290227294 95026.0 NaN 1543.9278557114237 0.5028236578706108 524.0 0.0 372.0 
466.00047933655907 95040.0 NaN 1543.9706078824302 0.5010123913969251 526.0 0.0 372.0 
468.00047933655907 95021.0 NaN 1544.0374081496336 0.5016567563416466 524.0 1.0 371.0 
470.00047933655907 95003.0 NaN 1543.9225116900457 0.5016011703693217 526.0 0.0 372.0 
472.00047933655907 94999.0 NaN 1540.7374749499 0.5015525109402615 526.0 0.0 371.0 
474.0004290227294 94985.0 NaN 1531.369405477621 0.5014159205436906 522.0 0.0 368.0 
476.00047933655907 95002.0 NaN 1522.0521042084176 0.5015752819260929 521.0 0.0 365.0 
478.00047933655907 95003.0 NaN 1522.1563126252515 0.5014096962897131 521.0 1.0 364.0 
480.00047933655907 95004.0 NaN 1525.3894455577818 0.5017559142438062 521.0 0.0 366.0 
482.00047933655907 95035.0 NaN 1525.4829659318634 0.5018872466328188 520.0 1.0 365.0 
484.0004290227294 95034.0 NaN 1525.5043420173665 0.5021556145512913 520.0 0.0 366.0 
486.00047933655907 95052.0 NaN 1513.317301269206 0.5015232533318851 518.0 0.0 362.0 
488.00047933655907 95085.0 NaN 1507.1155644622568 0.5016366901284817 516.0 1.0 359.0 
490.00047933655907 95093.0 NaN 1491.7488309953249 0.501531114912604 516.0 0.0 355.0 
492.00047933655907 95112.0 NaN 1491.7194388777548 0.502169853011642 513.0 0.0 355.0 
494.0004290227294 95075.0 NaN 1494.7815631262533 0.5020230537824963 511.0 0.0 356.0 
496.00047933655907 95083.0 NaN 1494.7307949231806 0.5016663246826217 508.0 0.0 356.0 
498.00047933655907 95078.0 NaN 1491.5831663326646 0.5014936387240382 506.0 2.0 353.0 
500.00047933655907 95080.0 NaN 1482.4929859719446 0.5016784575618283 512.0 1.0 351.0 
502.00047933655907 95089.0 NaN 1482.541082164328 0.5022546396571732 513.0 0.0 352.0 
504.0004290227294 95045.0 NaN 1485.7154308617244 0.5014207393370739 513.0 0.0 353.0 
506.00047933655907 95065.0 NaN 1495.0167000668 0.5024967882726035 515.0 0.0 356.0 
508.00047933655907 95049.0 NaN 1485.7661990647973 0.5018777221030679 513.0 0.0 353.0 
510.00047933655907 95048.0 NaN 1491.8263193052755 0.5013237924326466 514.0 0.0 355.0 
512.000479336559 95084.0 NaN 1491.698062792252 0.5022269748685684 514.0 0.0 355.0 
514.0004290227293 95039.0 NaN 1479.3720774883095 0.5018083313839261 515.0 0.0 351.0 
516.000479336559 95065.0 NaN 1476.2645290581172 0.5019177777366504 513.0 0.0 350.0 
518.000479336559 95074.0 NaN 1460.9352037408157 0.5025444321335083 511.0 1.0 344.0 
520.000479336559 95058.0 NaN 1460.959251837008 0.5020490949559915 512.0 0.0 345.0 
522.000479336559 95111.0 NaN 1460.9779559118247 0.5018852807864046 510.0 0.0 345.0 
524.0004290227293 95076.0 NaN 1464.042752171009 0.5032684061635244 507.0 0.0 346.0 
526.000479336559 95085.0 NaN 1454.7655310621249 0.5012776217651039 506.0 0.0 343.0 
528.000479336559 95127.0 NaN 1451.6045424181702 0.5014960388908721 504.0 0.0 342.0 
530.000479336559 95156.0 NaN 1451.5243820975277 0.5014101772510042 506.0 0.0 342.0 
532.000479336559 95200.0 NaN 1460.809619238476 0.5015095074602305 505.0 1.0 344.0 
534.0004290227293 95191.0 NaN 1460.8283233132927 0.5018642817348808 503.0 0.0 345.0 
536.000479336559 95240.0 NaN 1457.9051436205739 0.5012390541849422 506.0 0.0 344.0 
538.000479336559 95277.0 NaN 1461.143620574482 0.5019203192166111 505.0 1.0 344.0 
540.000479336559 95286.0 NaN 1464.2565130260525 0.5009341046215423 508.0 0.0 346.0 
542.000479336559 95331.0 NaN 1470.3460253841008 0.5014872720768206 508.0 0.0 348.0 
544.0004290227293 95300.0 NaN 1473.4802939211754 0.5009420660290926 510.0 1.0 348.0 
546.000479336559 95321.0 NaN 1470.3326653306622 0.5008942728742452 510.0 1.0 347.0 
548.000479336559 95324.0 NaN 1467.2464929859723 0.5014851412199373 511.0 1.0 346.0 
550.000479336559 95310.0 NaN 1467.171676686707 0.500948849427198 513.0 0.0 347.0 
552.000479336559 95385.0 NaN 1467.2117568470271 0.5014636939937791 510.0 1.0 346.0 
554.0004290227293 95397.0 NaN 1467.1983967935878 0.5006520517558009 511.0 0.0 347.0 
556.000479336559 95460.0 NaN 1467.1983967935878 0.5010361960198618 512.0 0.0 347.0 
558.000479336559 95452.0 NaN 1467.227788911155 0.501138040208118 513.0 0.0 347.0 
560.000479336559 95437.0 NaN 1457.9211756847028 0.5010498347428836 506.0 0.0 344.0 
562.000479336559 95531.0 NaN 1457.9104876419503 0.5018799985408292 507.0 0.0 344.0 
564.0004290227293 95499.0 NaN 1457.84368737475 0.5009298073168891 506.0 0.0 344.0 
566.000479336559 95536.0 NaN 1460.8203072812287 0.5018036274962889 508.0 0.0 345.0 
568.000479336559 95477.0 NaN 1482.3834335337351 0.5037481262962621 509.0 1.0 351.0 
570.000479336559 95408.0 NaN 1482.3941215764871 0.5013604792919018 510.0 0.0 352.0 
572.000479336559 95423.0 NaN 1479.3613894455573 0.5022098553449577 510.0 0.0 351.0 
574.0004290227293 95378.0 NaN 1476.280561122245 0.5018300825761645 508.0 0.0 350.0 
576.000479336559 95414.0 NaN 1482.5330661322641 0.5017011122582651 508.0 0.0 352.0 
578.000479336559 95385.0 NaN 1479.4976619906474 0.502396313188804 510.0 0.0 351.0 
580.000479336559 95358.0 NaN 1485.6245824983293 0.5016519737690681 510.0 0.0 353.0 
582.000479336559 95328.0 NaN 1485.5818303273206 0.5021915260966918 509.0 0.0 353.0 
584.0004290227293 95338.0 NaN 1488.5397461589837 0.5026447163613615 509.0 0.0 354.0 
586.000479336559 95388.0 NaN 1485.4402137608545 0.5013120402538269 516.0 0.0 353.0 
588.000479336559 95369.0 NaN 1485.5177020708088 0.5032950350344787 519.0 0.0 353.0 
590.000479336559 95373.0 NaN 1488.6973947895801 0.5015438284519406 521.0 0.0 354.0 
592.000479336559 95326.0 NaN 1488.822979291918 0.5019952862419631 521.0 1.0 353.0 
594.0004290227293 95312.0 NaN 1491.9118236472939 0.5016139874721294 524.0 0.0 355.0 
596.000479336559 95367.0 NaN 1488.8470273881092 0.5013417698622731 529.0 0.0 354.0 
598.000479336559 95342.0 NaN 1488.8657314629263 0.501436133298281 527.0 0.0 354.0 
600.000479336559 95354.0 NaN 1491.8236472945896 0.5019589804326673 529.0 0.0 355.0 
602.000479336559 95351.0 NaN 1500.9058116232457 0.5013514376707282 531.0 0.0 358.0 
604.0004290227293 95400.0 NaN 1497.7849031396122 0.5013624809162711 530.0 0.0 357.0 
606.000479336559 95447.0 NaN 1500.822979291918 0.5012272067183924 528.0 0.0 358.0 
608.000479336559 95432.0 NaN 1507.0193720774892 0.5021492034105599 526.0 0.0 360.0 
610.000479336559 95461.0 NaN 1513.2157648630605 0.5023720956599276 526.0 0.0 362.0 
612.000479336559 95477.0 NaN 1510.1616566466273 0.5021579466676512 527.0 0.0 361.0 
614.0004290227293 95482.0 NaN 1507.0835003340007 0.5016707165788634 526.0 1.0 359.0 
616.000479336559 95507.0 NaN 1507.032732130928 0.5019751702079776 527.0 0.0 360.0 
618.000479336559 95453.0 NaN 1503.9438877755515 0.5022716852549478 527.0 0.0 359.0 
620.000479336559 95478.0 NaN 1513.1730126920515 0.5018168344111511 527.0 0.0 362.0 
622.000479336559 95520.0 NaN 1525.4883099532394 0.5019427445156022 528.0 0.0 366.0 
624.0004290227293 95509.0 NaN 1522.4448897795608 0.5017637718955069 525.0 0.0 365.0 
626.000479336559 95532.0 NaN 1525.5390781563121 0.5017660738204073 526.0 0.0 366.0 
628.000479336559 95512.0 NaN 1525.568470273882 0.5018182576585802 527.0 0.0 366.0 
630.000479336559 95514.0 NaN 1519.5991983967929 0.5026661178062124 523.0 0.0 364.0 
632.000479336559 95485.0 NaN 1522.6586506346023 0.5021985422548844 522.0 0.0 365.0 
634.0004290227293 95444.0 NaN 1519.623246492985 0.5023064108690473 522.0 0.0 364.0 
636.000479336559 95434.0 NaN 1522.5891783567122 0.5025511666689841 528.0 0.0 365.0 
638.000479336559 95392.0 NaN 1519.3373413493648 0.5043920970974586 531.0 0.0 364.0 
640.000479336559 95354.0 NaN 1522.3674014696069 0.5028556805394055 530.0 0.0 365.0 
642.000479336559 95314.0 NaN 1525.3734134936547 0.5020081825021291 532.0 0.0 366.0 
644.0004290227293 95289.0 NaN 1522.2979291917172 0.503389798371636 529.0 0.0 365.0 
646.000479336559 95206.0 NaN 1519.30260521042 0.502299292086981 527.0 0.0 364.0 
648.000479336559 95186.0 NaN 1525.5711422845698 0.5018522485799566 525.0 0.0 366.0 
650.000479336559 95198.0 NaN 1522.543754175017 0.5023555960161963 522.0 0.0 365.0 
652.000479336559 95216.0 NaN 1525.5791583166342 0.5017881276787207 523.0 0.0 366.0 
654.0004290227293 95213.0 NaN 1525.4589178356719 0.502983714368008 522.0 0.0 366.0 
656.000479336559 95272.0 NaN 1534.7120908483637 0.5024609902214435 521.0 0.0 369.0 
658.000479336559 95269.0 NaN 1543.983967935873 0.5024836974040485 520.0 0.0 372.0 
660.000479336559 95219.0 NaN 1544.0988643954568 0.5018289826482902 519.0 0.0 372.0 
662.000479336559 95219.0 NaN 1544.1603206412817 0.501374437583173 518.0 0.0 372.0 
664.0004290227293 95223.0 NaN 1541.2211088844365 0.5019917841631781 517.0 0.0 371.0 
#####################################################################
# End of data export. Simulation finished at: 2019-03-07T00:39+0000 #
#####################################################################
