#####################################################################
# Alchemist log file - simulation started at: 2019-03-07T14:55+0000 #
#####################################################################
# seed = 5.0, bandwidth = 316227.76601683797, propagationDelay = 0.0031622776601683794, baserange = 177.82794100389228
#
# The columns have the following meaning: 
# time neighbor_count[Sum] <value>@neighbor_count[Sum] packet_size[Mean] mean_delay[Mean] crowd[Sum] overcrowded[Sum] risk[Sum] 
0.0 NaN NaN NaN NaN NaN NaN NaN 
2.000077527679048 26544.0 NaN 4995.855711422846 0.4997758051852265 1497.0 0.0 1497.0 
4.000014282125845 26546.0 NaN 4994.859051436206 0.49974824906196647 1494.0 3.0 1494.0 
6.000039580347126 26550.0 NaN 4994.193720774883 0.4997477403830212 1494.0 3.0 1494.0 
8.000026931236485 26551.0 NaN 4994.586506346025 0.4998036278314246 1494.0 3.0 1494.0 
10.000077527679048 26551.0 NaN 4995.136940547763 0.4996726298170333 1494.0 3.0 1494.0 
12.000077527679048 26552.0 NaN 4994.778891115565 0.49969260580936486 1495.0 2.0 1495.0 
14.000014282125845 26552.0 NaN 4994.244488977956 0.499692543981395 1496.0 1.0 1496.0 
16.000039580347128 26557.0 NaN 4994.476953907815 0.4997724571219251 1496.0 1.0 1496.0 
18.000026931236487 26556.0 NaN 4994.888443553774 0.5003186582050284 1496.0 1.0 1496.0 
20.00007752767905 26575.0 NaN 4995.639278557114 0.5047006056453526 1495.0 2.0 1495.0 
22.00007752767905 26568.0 NaN 4994.856379425518 0.5004609648617515 1492.0 5.0 1492.0 
24.000014282125846 26570.0 NaN 4994.63460253841 0.49985262081406995 1490.0 7.0 1490.0 
26.000039580347128 26569.0 NaN 4994.594522378089 0.49992741759760734 1493.0 4.0 1493.0 
28.000026931236487 26566.0 NaN 4995.433533734135 0.4995894045977232 1495.0 2.0 1495.0 
30.00007752767905 26600.0 NaN 4995.67134268537 0.4999342977409822 1492.0 5.0 1492.0 
32.000077527679046 26605.0 NaN 4994.786907147629 0.5001235056217083 1494.0 3.0 1494.0 
34.00001428212584 26622.0 NaN 4994.188376753507 0.502343378964229 1494.0 3.0 1494.0 
36.00003958034712 26619.0 NaN 4994.5250501002 0.5004387863243256 1495.0 2.0 1495.0 
38.000026931236484 26621.0 NaN 4994.936539746159 0.5027000452345656 1495.0 2.0 1495.0 
40.000077527679046 26653.0 NaN 4995.893119572478 0.5010230662735263 1495.0 2.0 1495.0 
42.000077527679046 26635.0 NaN 4995.171676686707 0.5007685752376098 1495.0 2.0 1495.0 
44.00001428212584 26633.0 NaN 4994.452905811623 0.502447969473235 1495.0 2.0 1495.0 
46.00003958034712 26619.0 NaN 4994.471609886439 0.5004888582546441 1495.0 2.0 1495.0 
48.000026931236484 26622.0 NaN 4994.952571810287 0.5017354719350284 1495.0 2.0 1495.0 
50.000077527679046 26663.0 NaN 4995.513694054776 0.5023776374956299 1495.0 2.0 1495.0 
52.000077527679046 26644.0 NaN 4995.083500334002 0.5003999743904651 1495.0 2.0 1495.0 
54.00001428212584 26652.0 NaN 4994.650634602538 0.5012331741410232 1495.0 2.0 1495.0 
56.00003958034712 26644.0 NaN 4994.891115564462 0.5011588979125992 1495.0 2.0 1495.0 
58.000026931236484 26660.0 NaN 4994.997995991984 0.5003850521834537 1495.0 2.0 1495.0 
60.000077527679046 26683.0 NaN 4995.465597862391 0.5034902514067814 1495.0 2.0 1495.0 
62.00010179366992 26672.0 NaN 1522.3406813627269 0.500282559061693 777.0 1.0 364.0 
64.00010179366993 26691.0 NaN 1522.4555778223096 0.5019330306210905 622.0 2.0 363.0 
66.00010179366993 26684.0 NaN 1522.4074816299274 0.5019965027376039 583.0 1.0 364.0 
68.00010179366993 26707.0 NaN 1525.6993987975939 0.5010157436370217 549.0 1.0 365.0 
70.00010179366993 26707.0 NaN 1525.5577822311275 0.5035252333538855 535.0 1.0 365.0 
72.00010179366993 26737.0 NaN 1525.808951235806 0.5018388993855376 534.0 1.0 365.0 
74.00010179366993 26777.0 NaN 1528.798931195725 0.5022818856991937 528.0 3.0 364.0 
76.00010179366993 26766.0 NaN 1528.7882431529729 0.5013523529051112 530.0 0.0 367.0 
78.00010179366993 26801.0 NaN 1534.8269873079485 0.5046982368391413 530.0 1.0 368.0 
80.00010179366993 26789.0 NaN 1534.7628590514364 0.5026877051506817 530.0 0.0 369.0 
82.00010179366993 26793.0 NaN 1534.6132264529062 0.5009956027181383 527.0 2.0 367.0 
84.00010179366993 26787.0 NaN 1534.7361389445546 0.5036189444471313 529.0 0.0 369.0 
86.00010179366993 26774.0 NaN 1534.6586506346027 0.5014302525199805 526.0 1.0 368.0 
88.00010179366993 26789.0 NaN 1534.7869071476275 0.5014511303355575 524.0 2.0 367.0 
90.00010179366993 26761.0 NaN 1534.677354709418 0.5050523323681461 522.0 5.0 364.0 
92.00010179366993 26755.0 NaN 1534.7788911155635 0.5012222930754507 528.0 0.0 369.0 
94.00010179366993 26782.0 NaN 1534.6506346025367 0.5015680147229958 527.0 1.0 368.0 
96.00010179366993 26765.0 NaN 1534.8189712758847 0.5009836821264347 527.0 1.0 368.0 
98.00010179366993 26784.0 NaN 1537.7795591182362 0.5040867324460956 525.0 3.0 367.0 
100.00010179366993 26728.0 NaN 1537.9291917167664 0.5033970991968462 525.0 3.0 367.0 
102.00010179366993 26763.0 NaN 1537.8303273213091 0.5012854938967892 524.0 3.0 367.0 
104.00010179366993 26754.0 NaN 1540.9913159652635 0.5022502311069966 527.0 0.0 371.0 
106.00010179366993 26750.0 NaN 1540.929859719439 0.5006729574678552 526.0 1.0 370.0 
108.00010179366993 26780.0 NaN 1540.9966599866395 0.5012139365820569 527.0 0.0 371.0 
110.00010179366993 26757.0 NaN 1540.8764195056788 0.5025891195082939 525.0 2.0 369.0 
112.00010179366993 26773.0 NaN 1540.9352037408155 0.5009672597491752 525.0 3.0 368.0 
114.00010179366993 26785.0 NaN 1540.8283233132931 0.5026890771858025 523.0 5.0 366.0 
116.00010179366993 26754.0 NaN 1540.919171676688 0.5046529316466588 528.0 1.0 370.0 
118.00010179366993 26780.0 NaN 1540.830995323982 0.5027782275593246 529.0 1.0 370.0 
120.00010179366993 26698.0 NaN 1540.9699398797607 0.5052912194362242 530.0 0.0 371.0 
122.00010179366993 26671.0 NaN 1540.9058116232454 0.5015201051972358 529.0 1.0 370.0 
124.00010179366993 26689.0 NaN 1544.1229124916517 0.5021352479854121 530.0 0.0 372.0 
126.00010179366993 26659.0 NaN 1544.1202404809635 0.5015736196128935 529.0 1.0 371.0 
128.00010179366993 26692.0 NaN 1541.0501002003998 0.502489289959954 530.0 0.0 371.0 
130.00010179366993 26659.0 NaN 1540.9886439545753 0.5029502748789724 528.0 1.0 370.0 
132.00010179366993 26635.0 NaN 1537.9639278557092 0.502882116895431 524.0 4.0 366.0 
134.00010179366993 26686.0 NaN 1537.8329993319974 0.501594499848961 526.0 3.0 367.0 
136.00010179366993 26661.0 NaN 1537.9158316633275 0.5011152838133008 520.0 5.0 365.0 
138.00010179366993 26690.0 NaN 1534.8510354041423 0.5028418227769723 522.0 3.0 366.0 
140.00010179366993 26629.0 NaN 1534.939211756846 0.5049288628894044 526.0 0.0 369.0 
142.00010179366993 26611.0 NaN 1537.945223780894 0.5005957446520891 525.0 0.0 370.0 
144.00010179366993 26670.0 NaN 1537.9772879091518 0.5010405997989004 523.0 1.0 369.0 
146.00010179366993 26653.0 NaN 1534.7895791583178 0.5003673824167302 523.0 0.0 369.0 
148.00010179366993 26667.0 NaN 1534.8563794255183 0.5017409135309101 522.0 1.0 368.0 
150.00010179366993 26628.0 NaN 1531.6847027388094 0.5023798990919758 519.0 4.0 364.0 
152.00010179366993 26627.0 NaN 1528.718770875082 0.500293655150167 518.0 4.0 363.0 
154.00010179366993 26642.0 NaN 1528.6813627254514 0.5005480919955219 517.0 2.0 365.0 
156.00010179366993 26627.0 NaN 1531.9652638610544 0.5010194701355811 518.0 1.0 367.0 
158.00010179366993 26656.0 NaN 1534.9151636606543 0.5036239261568933 523.0 0.0 369.0 
160.00010179366993 26604.0 NaN 1534.963259853039 0.5023195181540727 523.0 0.0 369.0 
162.00010179366993 26565.0 NaN 1534.86706746827 0.5021257116288795 522.0 1.0 368.0 
164.00010179366993 26575.0 NaN 1537.9639278557092 0.502269850095349 523.0 0.0 370.0 
166.00010179366993 26530.0 NaN 1537.8864395457574 0.5012994732272269 523.0 0.0 370.0 
168.00010179366993 26550.0 NaN 1538.0307281229118 0.505469023361766 523.0 0.0 370.0 
170.00010179366993 26515.0 NaN 1537.8543754175 0.5026652031815511 525.0 0.0 370.0 
172.00010179366993 26492.0 NaN 1537.971943887775 0.5017111761179719 520.0 1.0 369.0 
174.00010179366993 26527.0 NaN 1541.0741482965907 0.5030112421834455 515.0 3.0 368.0 
176.00010179366993 26487.0 NaN 1538.2204408817638 0.5007773120847977 516.0 2.0 368.0 
178.00010179366993 26501.0 NaN 1538.0494321977271 0.5020299568433494 515.0 3.0 367.0 
180.00010179366993 26466.0 NaN 1538.0788243152977 0.5031128983269192 521.0 0.0 370.0 
182.00010179366993 26446.0 NaN 1537.942551770209 0.5029121591563425 521.0 0.0 370.0 
184.00010179366993 26471.0 NaN 1541.031396125584 0.5009251541460036 521.0 0.0 371.0 
186.00010179366993 26448.0 NaN 1537.8356713426845 0.504028344756592 520.0 0.0 370.0 
188.00010179366993 26456.0 NaN 1544.0454241816976 0.5040105513902853 518.0 0.0 372.0 
190.00010179366993 26402.0 NaN 1537.7982631930545 0.50097418215893 519.0 0.0 370.0 
192.00010179366993 26375.0 NaN 1537.857047428191 0.5016473057152989 518.0 0.0 370.0 
194.00010179366993 26381.0 NaN 1541.0046760187024 0.5018082940717812 518.0 0.0 371.0 
196.00010179366993 26355.0 NaN 1541.1917167668662 0.5024970208869599 519.0 0.0 371.0 
198.00010179366993 26351.0 NaN 1544.189712758852 0.5032748477455548 519.0 0.0 372.0 
200.00010179366993 26317.0 NaN 1547.3213092852363 0.5012464867209675 517.0 3.0 370.0 
202.00010179366993 26319.0 NaN 1547.158316633266 0.5015976972408307 516.0 5.0 368.0 
204.00010179366993 26350.0 NaN 1547.2037408149638 0.5073071608913124 515.0 4.0 369.0 
206.00010179366993 26307.0 NaN 1544.0748162992636 0.5030573552815246 518.0 1.0 371.0 
208.00010179366993 26296.0 NaN 1541.1917167668662 0.5047895490451404 521.0 1.0 370.0 
210.00010179366993 26241.0 NaN 1538.0200400801612 0.5020995586580087 521.0 1.0 369.0 
212.00010179366993 26242.0 NaN 1538.1002004008 0.5020852696491898 517.0 2.0 368.0 
214.00010179366993 26256.0 NaN 1541.0554442217756 0.5052657661639973 518.0 2.0 369.0 
216.00010179366993 26208.0 NaN 1534.9579158316637 0.5041675945308083 518.0 1.0 368.0 
218.00010179366993 26206.0 NaN 1531.7301269205088 0.5034747599518253 516.0 1.0 367.0 
220.00010179366993 26153.0 NaN 1531.7835671342698 0.5041596826782008 516.0 1.0 367.0 
222.00010179366993 26136.0 NaN 1534.7334669338666 0.5021955626853736 515.0 1.0 368.0 
224.00010179366993 26128.0 NaN 1534.752171008682 0.5037210227786614 516.0 1.0 368.0 
226.00010179366993 26084.0 NaN 1531.7381429525726 0.5012145737909857 516.0 1.0 367.0 
228.00010179366993 26081.0 NaN 1534.8991315965272 0.5022063751403044 515.0 1.0 368.0 
230.00010179366993 26060.0 NaN 1537.857047428191 0.5044836853528994 514.0 1.0 369.0 
232.00010179366993 26052.0 NaN 1541.1409485637937 0.5023219648116624 515.0 1.0 370.0 
234.00010179366993 26040.0 NaN 1540.9859719438882 0.5034071144371065 514.0 1.0 370.0 
236.00010179366993 26029.0 NaN 1537.979959919839 0.5011700503269743 513.0 1.0 369.0 
238.00010179366993 26023.0 NaN 1534.8510354041425 0.5024295700208347 517.0 0.0 369.0 
240.00010179366993 25978.0 NaN 1534.8189712758845 0.504735652228103 513.0 2.0 367.0 
242.00010179366993 25978.0 NaN 1534.7762191048755 0.5009592043089451 513.0 1.0 368.0 
244.00010179366993 26015.0 NaN 1534.9124916499663 0.5055852114932591 517.0 1.0 368.0 
246.00010179366993 25991.0 NaN 1534.8109552438207 0.5046066983634712 515.0 1.0 368.0 
248.00010179366993 25973.0 NaN 1528.7294589178364 0.5023612407069404 513.0 1.0 366.0 
250.00010179366993 25944.0 NaN 1531.7808951235816 0.5031737692596506 514.0 0.0 368.0 
252.00010179366993 25915.0 NaN 1528.7855711422847 0.5020029559750222 513.0 1.0 366.0 
254.00010179366993 25919.0 NaN 1534.7548430193729 0.5024959330052446 513.0 1.0 368.0 
256.00010179366996 25876.0 NaN 1531.7621910487635 0.5008094318765993 515.0 1.0 367.0 
258.00010179366996 25871.0 NaN 1531.617902471609 0.501598990422201 514.0 1.0 367.0 
260.00010179366996 25857.0 NaN 1531.7167668670666 0.5035045748267248 514.0 2.0 366.0 
262.00010179366996 25813.0 NaN 1525.6245824983298 0.5009205965322081 513.0 2.0 364.0 
264.00010179366996 25806.0 NaN 1538.0467601870391 0.502023842411464 512.0 1.0 369.0 
266.00010179366996 25761.0 NaN 1538.0627922511699 0.5012821694210187 513.0 1.0 369.0 
268.00010179366996 25748.0 NaN 1535.0327321309273 0.5033338564508346 512.0 1.0 368.0 
270.00010179366996 25742.0 NaN 1534.8136272545091 0.5045705605585831 511.0 1.0 368.0 
272.00010179366996 25662.0 NaN 1534.7975951903818 0.5005473713341002 511.0 1.0 368.0 
274.00010179366996 25679.0 NaN 1534.6666666666663 0.501435606131798 510.0 1.0 368.0 
276.00010179366996 25655.0 NaN 1540.9432197728795 0.5019648978656732 509.0 1.0 370.0 
278.00010179366996 25652.0 NaN 1540.7722110888458 0.5037386229086307 513.0 1.0 370.0 
280.00010179366996 25666.0 NaN 1537.8303273213091 0.504124126811788 513.0 1.0 369.0 
282.00010179366996 25647.0 NaN 1534.661322645291 0.501982660315543 513.0 1.0 368.0 
284.00010179366996 25659.0 NaN 1534.8323313293272 0.503885158395673 514.0 1.0 368.0 
286.00010179366996 25618.0 NaN 1534.8323313293272 0.5017720262698976 513.0 1.0 368.0 
288.00010179366996 25622.0 NaN 1534.8937875751521 0.5041785107069282 513.0 1.0 368.0 
290.00010179366996 25598.0 NaN 1534.6880427521726 0.5031469628178151 513.0 1.0 368.0 
292.00010179366996 25608.0 NaN 1534.6880427521726 0.5009821137853911 513.0 1.0 368.0 
294.00010179366996 25595.0 NaN 1531.6205744823 0.5025403800775798 512.0 1.0 367.0 
296.00010179366996 25564.0 NaN 1531.695390781564 0.501927555726036 512.0 1.0 367.0 
298.00010179366996 25558.0 NaN 1540.935203740816 0.5049502012601352 511.0 1.0 370.0 
300.00010179366996 25532.0 NaN 1540.977955911825 0.501579759602149 509.0 2.0 369.0 
302.00010179366996 25531.0 NaN 1531.7087508350028 0.5008713253330385 508.0 2.0 366.0 
304.00010179366996 25537.0 NaN 1534.936539746158 0.5023713920931472 507.0 2.0 367.0 
306.00010179366996 25517.0 NaN 1537.9906479625909 0.5029148956475399 508.0 1.0 369.0 
308.00010179366996 25494.0 NaN 1537.9291917167661 0.5061102658606638 509.0 1.0 369.0 
310.00010179366996 25449.0 NaN 1537.8009352037395 0.5058566430341876 504.0 4.0 366.0 
312.00010179366996 25409.0 NaN 1531.6793587174363 0.5023140249874942 507.0 1.0 367.0 
314.00010179366996 25424.0 NaN 1531.532398129591 0.5043744819101244 505.0 2.0 366.0 
316.00010179366996 25390.0 NaN 1531.5751503006 0.5022424570362709 507.0 0.0 368.0 
318.00010179366996 25384.0 NaN 1531.6285905143634 0.5053059808795003 507.0 1.0 367.0 
320.00010179366996 25341.0 NaN 1531.7595190380757 0.5071027365172852 507.0 0.0 368.0 
322.00010179366996 25332.0 NaN 1534.86706746827 0.5024646617381299 508.0 1.0 368.0 
324.00010179366996 25345.0 NaN 1531.730126920509 0.5044969979552547 504.0 2.0 366.0 
326.00010179366996 25299.0 NaN 1531.8370073480273 0.5034930727310477 503.0 3.0 365.0 
328.00010179366996 25305.0 NaN 1531.6766867067456 0.5025227029705878 506.0 2.0 366.0 
330.00010179366996 25291.0 NaN 1531.6659986639938 0.505768388122484 506.0 3.0 365.0 
332.00010179366996 25291.0 NaN 1531.6659986639938 0.5037616826302116 505.0 3.0 365.0 
334.00010179366996 25299.0 NaN 1531.7755511022026 0.5037588668541212 504.0 3.0 365.0 
336.00010179366996 25274.0 NaN 1531.8396793587183 0.5035765185788464 503.0 4.0 364.0 
338.00010179366996 25298.0 NaN 1528.836339345357 0.5034148878773479 505.0 4.0 363.0 
340.00010179366996 25299.0 NaN 1525.742150968603 0.5032296396191753 505.0 4.0 362.0 
342.00010179366996 25305.0 NaN 1525.6566466265874 0.502294891611374 506.0 3.0 363.0 
344.00010179366996 25320.0 NaN 1528.5744822979273 0.5046467194776664 506.0 3.0 364.0 
346.00010179366996 25302.0 NaN 1519.3987975951911 0.5070246182351824 505.0 3.0 361.0 
348.00010179366996 25302.0 NaN 1519.3186372745483 0.504077912142224 504.0 3.0 361.0 
350.00010179366996 25296.0 NaN 1525.4909819639272 0.5044227282557802 506.0 3.0 363.0 
352.00010179366996 25289.0 NaN 1522.4475617902458 0.5030695745734944 508.0 3.0 362.0 
354.00010179366996 25277.0 NaN 1519.3774215096848 0.5047588554595195 510.0 3.0 361.0 
356.00010179366996 25261.0 NaN 1519.404141616566 0.5015992922999902 510.0 3.0 361.0 
358.00010179366996 25270.0 NaN 1519.430861723446 0.5050328161149692 508.0 3.0 361.0 
360.00010179366996 25256.0 NaN 1516.2965931863728 0.5042317470297968 509.0 3.0 360.0 
362.00010179366996 25242.0 NaN 1513.2050768203085 0.5072532472991141 509.0 4.0 358.0 
364.00010179366996 25204.0 NaN 1507.0407481629918 0.5027910476340668 509.0 4.0 356.0 
366.00010179366996 25179.0 NaN 1503.9946559786242 0.502531662369381 509.0 4.0 355.0 
368.00010179366996 25188.0 NaN 1500.9004676018717 0.5034375894979887 510.0 4.0 354.0 
370.00010179366996 25186.0 NaN 1507.115564462257 0.5045746372880748 510.0 4.0 356.0 
372.00010179366996 25161.0 NaN 1507.1128924515706 0.504677113443255 508.0 5.0 355.0 
374.00010179366996 25107.0 NaN 1504.112224448899 0.5054168848524052 512.0 4.0 355.0 
376.00010179366996 25089.0 NaN 1501.0233800935193 0.5023650131659209 513.0 3.0 355.0 
378.00010179366996 25097.0 NaN 1497.9185036740153 0.505814694975084 511.0 4.0 353.0 
380.00010179366996 25072.0 NaN 1500.9298597194384 0.5053289962693828 509.0 4.0 354.0 
382.00010179366996 25080.0 NaN 1497.8036072144282 0.5039225850791835 511.0 5.0 352.0 
384.00010179366996 25094.0 NaN 1497.7448229792913 0.501681028878062 512.0 5.0 352.0 
386.00010179366996 25098.0 NaN 1494.698730794924 0.501650474591332 511.0 5.0 351.0 
388.00010179366996 25100.0 NaN 1494.706746826988 0.5043947159268893 509.0 5.0 351.0 
390.00010179366996 25069.0 NaN 1500.9939879759525 0.504473171069323 510.0 4.0 354.0 
392.00010179366996 25051.0 NaN 1501.1195724782908 0.5042480726316116 514.0 4.0 354.0 
394.00010179366996 25040.0 NaN 1507.2865731462919 0.5033756860372124 516.0 4.0 356.0 
396.00010179366996 25021.0 NaN 1507.1850367401462 0.5016103316279499 516.0 4.0 356.0 
398.00010179366996 25026.0 NaN 1503.9946559786242 0.5071991351537647 517.0 4.0 355.0 
400.00010179366996 24981.0 NaN 1501.0073480293916 0.5068429801303064 515.0 4.0 354.0 
402.00010179366996 24964.0 NaN 1504.06947227789 0.505350019557961 515.0 4.0 355.0 
404.00010179366996 24981.0 NaN 1507.1476285905153 0.5026303755960474 516.0 4.0 356.0 
406.00010179366996 24968.0 NaN 1513.1837007348022 0.5021039755609411 517.0 4.0 358.0 
408.00010179366996 24977.0 NaN 1525.5123580494333 0.5058517077124407 522.0 4.0 362.0 
410.00010179366996 24963.0 NaN 1525.5925183700726 0.5072299694557327 522.0 4.0 362.0 
412.00010179366996 24947.0 NaN 1522.5384101536395 0.5043575744201647 525.0 3.0 362.0 
414.00010179366996 24944.0 NaN 1519.345357381428 0.5044389463143798 524.0 4.0 360.0 
416.00010179366996 24907.0 NaN 1510.1108884435544 0.5034960583350642 524.0 4.0 357.0 
418.00010179366996 24903.0 NaN 1513.2264529058111 0.5044747636454239 522.0 4.0 358.0 
420.00010179366996 24905.0 NaN 1507.040748162992 0.5031172644902515 522.0 4.0 356.0 
422.00010179366996 24896.0 NaN 1494.7735470941884 0.5054361756791862 515.0 4.0 352.0 
424.00010179366996 24882.0 NaN 1504.09619238477 0.5044279625920693 513.0 5.0 354.0 
426.00010179366996 24863.0 NaN 1507.1583166332662 0.5031289704358974 516.0 5.0 355.0 
428.00010179366996 24848.0 NaN 1507.1182364729455 0.5062053326310582 514.0 6.0 354.0 
430.00010179366996 24832.0 NaN 1504.0320641282558 0.5057166537151758 514.0 6.0 353.0 
432.00010179366996 24813.0 NaN 1519.2598530394112 0.5033779399597738 519.0 5.0 359.0 
434.00010179366996 24824.0 NaN 1519.1369405477628 0.5050704248287298 522.0 5.0 359.0 
436.00010179366996 24827.0 NaN 1519.1422845691375 0.5027065748989421 522.0 5.0 359.0 
438.00010179366996 24832.0 NaN 1525.2478289913174 0.5053287259834832 521.0 5.0 361.0 
440.00010179366996 24820.0 NaN 1525.3493653974626 0.5056785571972287 522.0 5.0 361.0 
442.00010179366996 24808.0 NaN 1537.7074148296606 0.5045985401206053 523.0 5.0 365.0 
444.00010179366996 24812.0 NaN 1534.730794923181 0.503328861200306 525.0 5.0 364.0 
446.00010179366996 24819.0 NaN 1540.9352037408157 0.5038935727370651 527.0 6.0 365.0 
448.00010179366996 24833.0 NaN 1540.9164996659995 0.5041448521186371 529.0 4.0 367.0 
450.00010179366996 24844.0 NaN 1543.847695390782 0.503714516361602 527.0 5.0 367.0 
452.00010179366996 24842.0 NaN 1543.853039412157 0.5041229964308481 525.0 5.0 367.0 
454.00010179366996 24861.0 NaN 1546.8296593186362 0.5062388819472361 527.0 4.0 369.0 
456.00010179366996 24863.0 NaN 1546.8937875751515 0.5035998658813252 525.0 4.0 369.0 
458.00010179366996 24873.0 NaN 1546.8777555110212 0.5045787742052967 524.0 4.0 369.0 
460.00010179366996 24881.0 NaN 1546.9552438209753 0.5032162687720092 522.0 5.0 368.0 
462.00010179366996 24893.0 NaN 1547.0086840347365 0.5071396145217121 520.0 6.0 367.0 
464.00010179366996 24871.0 NaN 1543.9919839679364 0.5105595224476038 523.0 5.0 367.0 
466.00010179366996 24845.0 NaN 1544.0694722778906 0.5031340484943976 521.0 5.0 367.0 
468.00010179366996 24861.0 NaN 1540.9539078156301 0.5064408206384713 521.0 4.0 367.0 
470.00010179366996 24845.0 NaN 1540.8603874415485 0.5040898906395894 519.0 4.0 367.0 
472.00010179366996 24825.0 NaN 1534.6693386773545 0.5045712103449201 518.0 4.0 365.0 
474.00010179366996 24823.0 NaN 1528.4488977955907 0.5054085251644903 517.0 4.0 363.0 
476.00010179366996 24807.0 NaN 1528.5450901803613 0.5047328332402384 518.0 5.0 362.0 
478.00010179366996 24831.0 NaN 1528.4729458917825 0.5034633043895625 516.0 5.0 362.0 
480.00010179366996 24824.0 NaN 1525.432197728791 0.5028831445520091 515.0 6.0 360.0 
482.00010179366996 24839.0 NaN 1522.3193052772203 0.5039322873678564 513.0 6.0 359.0 
484.00010179366996 24871.0 NaN 1507.003340013361 0.5033447911377676 512.0 4.0 356.0 
486.00010179366996 24873.0 NaN 1500.8817635270545 0.5029347750418394 513.0 1.0 357.0 
488.00010179366996 24907.0 NaN 1494.7227788911161 0.5062348778261875 513.0 0.0 356.0 
490.00010179366996 24917.0 NaN 1500.8924515698072 0.503626351809986 514.0 0.0 358.0 
492.00010179366996 24902.0 NaN 1491.6125584502345 0.5037620589446462 513.0 1.0 354.0 
494.00010179366996 24926.0 NaN 1485.4402137608545 0.5084699651008469 507.0 4.0 349.0 
496.00010179366996 24899.0 NaN 1485.5604542418175 0.5026193077374489 503.0 5.0 348.0 
498.00010179366996 24908.0 NaN 1485.587174348698 0.5052837610747873 504.0 5.0 348.0 
500.00010179366996 24918.0 NaN 1491.79425517702 0.5033484077417075 503.0 6.0 349.0 
502.00010179366996 24918.0 NaN 1491.727454909819 0.5058536707461159 504.0 6.0 349.0 
504.00010179366996 24940.0 NaN 1488.6786907147634 0.505065565427143 504.0 5.0 349.0 
506.00010179366996 24900.0 NaN 1494.7067468269881 0.506779540881951 507.0 5.0 351.0 
508.00010179366996 24908.0 NaN 1497.7581830327333 0.5040125767013114 510.0 5.0 352.0 
510.00010179366996 24914.0 NaN 1494.6025384101542 0.5037052176995911 507.0 5.0 351.0 
512.00010179367 24926.0 NaN 1488.4382097528382 0.5055473056357846 507.0 4.0 350.0 
514.00010179367 24963.0 NaN 1482.3193052772203 0.5059969690795538 505.0 5.0 347.0 
516.00010179367 24934.0 NaN 1476.288577154309 0.5020828691040109 503.0 4.0 346.0 
518.00010179367 24973.0 NaN 1476.3687374749486 0.5047686447247505 505.0 4.0 346.0 
520.00010179367 24978.0 NaN 1461.087508350034 0.5063393990472671 504.0 4.0 341.0 
522.00010179367 24969.0 NaN 1460.9726118904466 0.5077493238276559 500.0 4.0 341.0 
524.00010179367 24998.0 NaN 1463.997327989311 0.5042442433602515 500.0 4.0 342.0 
526.00010179367 24994.0 NaN 1461.0153640614556 0.5024410271413723 502.0 4.0 341.0 
528.00010179367 24994.0 NaN 1464.0 0.5041396539403347 503.0 4.0 342.0 
530.00010179367 24997.0 NaN 1451.7862391449557 0.5028325924267353 502.0 4.0 338.0 
532.00010179367 25009.0 NaN 1451.8102872411482 0.5041339640002211 503.0 4.0 338.0 
534.00010179367 25029.0 NaN 1451.7221108884444 0.5034952399958412 502.0 4.0 338.0 
536.00010179367 25023.0 NaN 1454.904475617902 0.5017233811267732 500.0 4.0 339.0 
538.00010179367 25022.0 NaN 1461.0581162324643 0.5023121392805913 502.0 4.0 341.0 
540.00010179367 25011.0 NaN 1461.012692050767 0.5036750365505273 502.0 4.0 341.0 
542.00010179367 24992.0 NaN 1467.0754843019367 0.5059004101122477 503.0 4.0 343.0 
544.00010179367 24954.0 NaN 1470.1990647962598 0.5070418593044095 503.0 4.0 344.0 
546.00010179367 24921.0 NaN 1467.0300601202398 0.5033390389142197 505.0 4.0 343.0 
548.00010179367 24929.0 NaN 1467.1396125584506 0.5018917513916006 504.0 5.0 342.0 
550.00010179367 24951.0 NaN 1464.1309285237146 0.5034066765138008 503.0 5.0 341.0 
552.00010179367 24957.0 NaN 1464.1015364061454 0.5018393291063229 504.0 4.0 342.0 
554.00010179367 24976.0 NaN 1467.1957247828996 0.5045998817223163 505.0 4.0 343.0 
556.00010179367 24972.0 NaN 1458.076152304609 0.5024296738559709 501.0 5.0 339.0 
558.00010179367 24957.0 NaN 1454.856379425518 0.5020666926709786 502.0 3.0 340.0 
560.00010179367 24949.0 NaN 1454.7788911155637 0.5022833301175879 502.0 1.0 342.0 
562.00010179367 24989.0 NaN 1457.6967267869077 0.5041364895299243 503.0 1.0 343.0 
564.00010179367 24992.0 NaN 1460.694722778891 0.5034416460799157 505.0 1.0 344.0 
566.00010179367 24973.0 NaN 1454.586506346026 0.503553353126188 504.0 1.0 342.0 
568.00010179367 24975.0 NaN 1460.908483633935 0.5030634870737976 506.0 1.0 344.0 
570.00010179367 24961.0 NaN 1467.0674682698727 0.503904168124322 508.0 1.0 346.0 
572.00010179367 24991.0 NaN 1473.4001336005351 0.5054285213922007 508.0 1.0 348.0 
574.00010179367 24991.0 NaN 1476.4515698062794 0.5036773069094177 507.0 1.0 349.0 
576.00010179367 24966.0 NaN 1473.3279893119573 0.5052067182115249 507.0 1.0 348.0 
578.00010179367 24972.0 NaN 1470.2712090848363 0.5031340616158138 509.0 1.0 347.0 
580.00010179367 24992.0 NaN 1470.2097528390104 0.5028068170862349 509.0 1.0 347.0 
582.00010179367 25002.0 NaN 1473.1676686706742 0.5021333820726152 511.0 1.0 348.0 
584.00010179367 25021.0 NaN 1476.1897127588516 0.502709759625645 517.0 1.0 349.0 
586.00010179367 25008.0 NaN 1473.1943887775547 0.5051164969147326 519.0 1.0 348.0 
588.00010179367 25030.0 NaN 1476.2431529726116 0.503135597226499 519.0 1.0 349.0 
590.00010179367 25055.0 NaN 1482.3834335337351 0.5033865688207239 522.0 1.0 351.0 
592.00010179367 25075.0 NaN 1482.3273213092853 0.5039046336619633 524.0 1.0 351.0 
594.00010179367 25043.0 NaN 1485.3841015364064 0.5033388430194267 524.0 1.0 352.0 
596.00010179367 25023.0 NaN 1485.4295257181027 0.5020303615725358 524.0 1.0 352.0 
598.00010179367 25062.0 NaN 1488.5691382765538 0.5040438763480735 523.0 1.0 353.0 
600.00010179367 25108.0 NaN 1491.6312625250507 0.5045562956373421 525.0 1.0 354.0 
602.00010179367 25156.0 NaN 1488.5103540414168 0.5041541265980739 524.0 1.0 353.0 
604.00010179367 25147.0 NaN 1500.9245156980635 0.5054780036487221 527.0 1.0 357.0 
606.00010179367 25143.0 NaN 1497.7982631930531 0.506627699505771 525.0 1.0 356.0 
608.00010179367 25167.0 NaN 1504.010688042753 0.5079987458164374 527.0 1.0 358.0 
610.00010179367 25145.0 NaN 1503.914495657982 0.5057233259262839 527.0 1.0 358.0 
612.00010179367 25112.0 NaN 1500.7641950567806 0.5044502410722638 526.0 1.0 357.0 
614.00010179367 25115.0 NaN 1500.7535070140273 0.5035871728107552 524.0 2.0 356.0 
616.00010179367 25111.0 NaN 1500.8443553774205 0.5040511788438985 521.0 3.0 355.0 
618.00010179367 25182.0 NaN 1503.845023380093 0.5048745299212684 519.0 4.0 355.0 
620.00010179367 25182.0 NaN 1516.2591850367394 0.5072146623796054 520.0 5.0 358.0 
622.00010179367 25145.0 NaN 1516.2164328657304 0.5018316642627659 520.0 4.0 359.0 
624.00010179367 25159.0 NaN 1516.3019372077483 0.503756689140257 520.0 4.0 359.0 
626.00010179367 25137.0 NaN 1516.4141616566455 0.5051669534826603 520.0 4.0 359.0 
628.00010179367 25174.0 NaN 1519.5991983967929 0.5040210843940192 521.0 3.0 361.0 
630.00010179367 25161.0 NaN 1516.4221776887102 0.5043461541958353 524.0 3.0 360.0 
632.00010179367 25144.0 NaN 1525.6406145624574 0.5029853219488352 525.0 3.0 363.0 
634.00010179367 25190.0 NaN 1522.4929859719443 0.5038150506867581 529.0 4.0 361.0 
636.00010179367 25180.0 NaN 1522.4288577154302 0.5033182358355025 531.0 2.0 363.0 
638.00010179367 25167.0 NaN 1519.2999331997335 0.5066823489750013 532.0 2.0 362.0 
640.00010179367 25119.0 NaN 1513.154308617235 0.5056353677228995 525.0 3.0 359.0 
642.00010179367 25095.0 NaN 1510.0200400801614 0.5030232706786283 522.0 3.0 358.0 
644.00010179367 25114.0 NaN 1513.2611890447556 0.502321478139491 520.0 4.0 358.0 
646.00010179367 25111.0 NaN 1513.2585170340697 0.5018388298802616 516.0 7.0 355.0 
648.00010179367 25121.0 NaN 1513.2531730126911 0.5045349682883931 514.0 7.0 355.0 
650.00010179367 25078.0 NaN 1510.1402805611212 0.5015486799895784 516.0 6.0 355.0 
652.00010179367 25066.0 NaN 1525.6058784235122 0.5013938174352766 516.0 7.0 359.0 
654.00010179367 25087.0 NaN 1525.496325985303 0.5056927871150917 513.0 8.0 358.0 
656.00010179367 25076.0 NaN 1525.520374081497 0.5034732087046965 512.0 8.0 358.0 
658.00010179367 25065.0 NaN 1525.6219104876427 0.5036760993300177 512.0 7.0 359.0 
660.00010179367 25027.0 NaN 1534.8136272545091 0.5048788472311521 509.0 4.0 365.0 
662.00010179367 25001.0 NaN 1537.8810955243816 0.5037955460482345 513.0 3.0 367.0 
664.00010179367 24996.0 NaN 1537.9639278557102 0.5039330993610842 515.0 3.0 367.0 
#####################################################################
# End of data export. Simulation finished at: 2019-03-07T15:08+0000 #
#####################################################################
