#####################################################################
# Alchemist log file - simulation started at: 2019-03-07T12:44+0000 #
#####################################################################
# seed = 2.0, bandwidth = 1000.0, propagationDelay = 0.03162277660168379, baserange = 100.0
#
# The columns have the following meaning: 
# time neighbor_count[Sum] <value>@neighbor_count[Sum] packet_size[Mean] mean_delay[Mean] crowd[Sum] overcrowded[Sum] risk[Sum] 
0.0 NaN NaN NaN NaN NaN NaN NaN 
2.0005829790527505 NaN NaN 4988.0 NaN 1497.0 0.0 1497.0 
4.0005829790527505 NaN NaN 4988.0 NaN 1497.0 0.0 1497.0 
6.0005829790527505 6187.0 NaN 4989.151636606546 0.25919401185435154 1497.0 0.0 1497.0 
8.000582979052751 13124.0 NaN 4995.818303273213 1.9723477618900307 1497.0 0.0 1497.0 
10.000582979052751 13124.0 NaN 4994.899131596527 3.9723477618900307 1497.0 0.0 1497.0 
12.000582979052751 13124.0 NaN 4995.812959251837 3.165381059884088 1496.0 1.0 1496.0 
14.000582979052751 13124.0 NaN 4993.573814295257 1.9690255986454384 1493.0 4.0 1493.0 
16.00058297905275 13124.0 NaN 4992.6279225116905 3.9690255986454384 1493.0 4.0 1493.0 
18.00058297905275 13125.0 NaN 4992.927187708751 3.1976930987649883 1493.0 4.0 1493.0 
20.00058297905275 13128.0 NaN 4994.907147628591 1.9752332333119285 1490.0 7.0 1490.0 
22.00058297905275 13128.0 NaN 4994.490313961256 3.9752332333119282 1490.0 7.0 1490.0 
24.00058297905275 13143.0 NaN 4994.944555778223 3.1812509409372853 1488.0 9.0 1488.0 
26.00058297905275 13166.0 NaN 4993.608550434202 1.9901780447804116 1482.0 15.0 1482.0 
28.00058297905275 13166.0 NaN 4993.10621242485 3.9901780447804116 1483.0 14.0 1483.0 
30.00058297905275 13173.0 NaN 4993.226452905812 3.2022003083952297 1484.0 13.0 1484.0 
32.00058297905275 13180.0 NaN 4994.407481629926 2.0047852109391333 1486.0 11.0 1486.0 
34.00058297905275 13180.0 NaN 4994.113560454241 4.004785210939133 1486.0 11.0 1486.0 
36.00058297905275 13209.0 NaN 4994.631930527722 3.207896875949727 1488.0 9.0 1488.0 
38.00058297905275 13242.0 NaN 4993.482965931864 2.034937025529166 1486.0 11.0 1486.0 
40.00058297905275 13242.0 NaN 4993.114228456914 4.034937025529166 1486.0 11.0 1486.0 
42.00058297905275 13266.0 NaN 4993.303941215765 3.2510809253634085 1486.0 11.0 1486.0 
44.00058297905275 13298.0 NaN 4994.404809619238 2.0495947892947655 1487.0 10.0 1487.0 
46.00058297905275 13298.0 NaN 4994.113560454241 4.0495947892947655 1487.0 10.0 1487.0 
48.00058297905275 13325.0 NaN 4994.495657982632 3.2392356041022583 1489.0 8.0 1489.0 
50.00058297905275 13350.0 NaN 4993.512358049432 2.065167967013397 1486.0 11.0 1486.0 
52.00058297905275 13350.0 NaN 4993.202404809619 4.065167967013397 1486.0 11.0 1486.0 
54.00058297905275 13368.0 NaN 4993.36539746159 3.2920369894125625 1487.0 10.0 1487.0 
56.00058297905275 13390.0 NaN 4994.26586506346 2.119377299468117 1486.0 11.0 1486.0 
58.00058297905275 13390.0 NaN 4994.0307281229125 4.119377299468117 1486.0 11.0 1486.0 
60.00058297905275 13398.0 NaN 4991.307949231797 3.335822479980852 1486.0 10.0 1486.0 
62.000081445447535 13407.0 NaN 1519.3186372745483 1.3748462365196616 814.0 2.0 362.0 
64.00008144544753 13410.0 NaN 1522.2311289245158 2.275469055102283 699.0 2.0 363.0 
66.00008144544753 13416.0 NaN 1522.2925851703394 1.9564218914471296 636.0 3.0 362.0 
68.00008144544753 13435.0 NaN 1522.2765531062118 1.202899667833441 570.0 7.0 358.0 
70.00008144544753 13444.0 NaN 1522.2177688710754 1.8943884156903508 547.0 7.0 358.0 
72.00008144544753 13499.0 NaN 1522.297929191718 1.6666639567513253 536.0 6.0 359.0 
74.00008144544753 13521.0 NaN 1525.2531730126907 1.2484274652467549 527.0 7.0 359.0 
76.00008144544753 13523.0 NaN 1525.205076820309 1.9562345921549982 528.0 7.0 359.0 
78.00008144544753 13523.0 NaN 1525.2451569806271 1.7095118715861335 529.0 6.0 360.0 
80.00008144544753 13521.0 NaN 1528.384769539079 1.1954423955209632 527.0 6.0 361.0 
82.00008144544753 13525.0 NaN 1528.3313293253182 1.9017090181126326 527.0 6.0 361.0 
84.00008144544753 13522.0 NaN 1531.454909819639 1.6546348915552143 526.0 6.0 362.0 
86.00008144544753 13514.0 NaN 1531.3480293921182 1.1973052250374285 523.0 7.0 361.0 
88.00008144544753 13527.0 NaN 1531.2972611890457 1.9094353485764997 522.0 8.0 360.0 
90.00008144544753 13518.0 NaN 1531.350701402806 1.6957912790973293 525.0 5.0 363.0 
92.00008144544753 13510.0 NaN 1531.3987975951911 1.2430475546392776 523.0 7.0 361.0 
94.00008144544753 13507.0 NaN 1531.356045424182 1.9624809435690034 524.0 6.0 362.0 
96.00008144544753 13506.0 NaN 1531.4308617234456 1.7459711379996992 521.0 8.0 360.0 
98.00008144544753 13506.0 NaN 1531.3640614562453 1.3399253395060824 520.0 8.0 360.0 
100.00008144544753 13502.0 NaN 1531.3319973279906 2.024592265140499 520.0 8.0 360.0 
102.00008144544753 13495.0 NaN 1534.4288577154302 1.7998324909791579 521.0 7.0 362.0 
104.00008144544753 13504.0 NaN 1534.479625918503 1.4026425222555976 517.0 11.0 358.0 
106.00008144544753 13498.0 NaN 1534.4422177688725 2.081173777019224 517.0 10.0 359.0 
108.00008144544753 13519.0 NaN 1537.5711422845698 1.8457923255724362 517.0 10.0 360.0 
110.00008144544753 13502.0 NaN 1537.4909819639272 1.4033863562292062 515.0 12.0 358.0 
112.00008144544753 13503.0 NaN 1537.4348697394792 2.1225344029904263 515.0 12.0 358.0 
114.00008144544753 13507.0 NaN 1537.4749498998 1.8221382202857077 517.0 11.0 359.0 
116.00008144544753 13500.0 NaN 1540.5851703406818 1.350929075073647 517.0 13.0 358.0 
118.00008144544753 13491.0 NaN 1540.5584502338 2.015963941416568 517.0 13.0 358.0 
120.00008144544753 13502.0 NaN 1540.6172344689364 1.7012078740506384 517.0 13.0 358.0 
122.00008144544753 13546.0 NaN 1546.6987307949244 1.2826748740427314 519.0 11.0 362.0 
124.00008144544753 13542.0 NaN 1546.6506346025367 1.9362786484047227 519.0 11.0 362.0 
126.00008144544753 13540.0 NaN 1546.717434869739 1.7029186437660917 521.0 9.0 364.0 
128.00008144544753 13549.0 NaN 1546.7361389445546 1.283593054830233 523.0 7.0 366.0 
130.00008144544753 13549.0 NaN 1546.7040748163001 1.9696953756110445 523.0 7.0 366.0 
132.00008144544753 13568.0 NaN 1543.6499665998665 1.7421724159264578 523.0 7.0 365.0 
134.00008144544753 13585.0 NaN 1543.6339345357362 1.321937397088693 522.0 8.0 364.0 
136.00008144544753 13579.0 NaN 1543.5965263861062 2.0180785472799 523.0 7.0 365.0 
138.00008144544753 13577.0 NaN 1543.6392785571152 1.7729387305751665 518.0 8.0 364.0 
140.00008144544753 13575.0 NaN 1543.6820307281243 1.3414987169470103 519.0 5.0 367.0 
142.00008144544753 13583.0 NaN 1540.6092184368727 1.9931148088446884 518.0 5.0 366.0 
144.00008144544753 13599.0 NaN 1543.732798931197 1.7496314937748185 517.0 6.0 366.0 
146.00008144544753 13590.0 NaN 1549.8677354709423 1.3014676732693669 514.0 8.0 366.0 
148.00008144544753 13590.0 NaN 1552.8897795591183 2.0210491937397146 514.0 8.0 367.0 
150.00008144544753 13578.0 NaN 1543.7114228456908 1.7564276443596094 514.0 9.0 363.0 
152.00008144544753 13564.0 NaN 1540.627922511691 1.2895478769262525 516.0 8.0 363.0 
154.00008144544753 13567.0 NaN 1537.5257181028728 1.9599703615393456 510.0 8.0 362.0 
156.00008144544753 13552.0 NaN 1540.6519706078816 1.7108716211383816 509.0 8.0 363.0 
158.00008144544753 13524.0 NaN 1540.5664662658637 1.2771310874259256 512.0 7.0 364.0 
160.00008144544753 13525.0 NaN 1540.5344021376093 1.976343646425259 512.0 7.0 364.0 
162.00008144544753 13528.0 NaN 1540.5637942551757 1.7327949173318389 514.0 6.0 365.0 
164.00008144544753 13540.0 NaN 1543.6793587174363 1.3212796434196517 514.0 7.0 365.0 
166.00008144544753 13536.0 NaN 1543.6633266533067 2.0165726634360754 514.0 7.0 365.0 
168.00008144544753 13526.0 NaN 1543.7194388777543 1.7926800863782069 514.0 7.0 365.0 
170.00008144544753 13509.0 NaN 1549.7688710754842 1.3829575980712736 515.0 5.0 369.0 
172.00008144544753 13508.0 NaN 1546.666666666666 2.062027422002527 514.0 5.0 368.0 
174.00008144544753 13500.0 NaN 1543.625918503673 1.8183682527932212 517.0 5.0 367.0 
176.00008144544753 13470.0 NaN 1543.7461589846364 1.358298498726879 519.0 4.0 368.0 
178.00008144544753 13473.0 NaN 1540.5851703406818 2.072525410463413 518.0 4.0 367.0 
180.00008144544753 13455.0 NaN 1540.6706746826999 1.790263598806713 518.0 4.0 367.0 
182.00008144544753 13436.0 NaN 1540.5718102872427 1.3545259840532546 519.0 4.0 367.0 
184.00008144544753 13437.0 NaN 1540.5370741482973 1.9797523880297185 519.0 4.0 367.0 
186.00008144544753 13418.0 NaN 1537.5096860387453 1.6874791818490207 515.0 6.0 364.0 
188.00008144544753 13412.0 NaN 1537.6112224448912 1.2527956937279128 513.0 7.0 363.0 
190.00008144544753 13404.0 NaN 1537.6005344021364 1.9563750882503956 513.0 7.0 363.0 
192.00008144544753 13403.0 NaN 1534.567802271209 1.7186909887941118 514.0 6.0 363.0 
194.00008144544753 13395.0 NaN 1537.5524382097544 1.3080472716062062 514.0 6.0 364.0 
196.00008144544753 13391.0 NaN 1537.4989979959907 1.9674007115264012 514.0 6.0 364.0 
198.00008144544753 13402.0 NaN 1543.695390781564 1.727049544363458 515.0 5.0 367.0 
200.00008144544753 13378.0 NaN 1543.7488309953246 1.3279560645311341 513.0 7.0 365.0 
202.00008144544753 13374.0 NaN 1543.700734802939 2.0498809250728725 513.0 7.0 365.0 
204.00008144544753 13357.0 NaN 1546.8510354041427 1.7736776464826545 514.0 8.0 365.0 
206.00008144544753 13345.0 NaN 1543.6285905143634 1.3868543832413471 516.0 7.0 365.0 
208.00008144544753 13354.0 NaN 1543.5804943219791 2.1282298911815034 516.0 7.0 365.0 
210.00008144544753 13356.0 NaN 1540.5931863727455 1.9112269700224958 515.0 6.0 365.0 
212.00008144544753 13346.0 NaN 1540.6573146292574 1.5018582591358298 512.0 7.0 364.0 
214.00008144544753 13343.0 NaN 1540.6145624582487 2.1519051684240385 510.0 7.0 364.0 
216.00008144544753 13335.0 NaN 1543.7889111556456 1.9006363792367567 507.0 8.0 364.0 
218.00008144544753 13318.0 NaN 1543.6179024716089 1.5259247279589303 510.0 7.0 365.0 
220.00008144544753 13317.0 NaN 1543.5698062792271 2.2549774606746738 511.0 8.0 364.0 
222.00008144544753 13293.0 NaN 1537.5470941883757 2.0066834709806596 515.0 6.0 364.0 
224.00008144544753 13266.0 NaN 1540.673346693388 1.598245310647171 512.0 7.0 364.0 
226.00008144544753 13261.0 NaN 1540.6412825651298 2.2385406119418554 513.0 7.0 364.0 
228.00008144544753 13246.0 NaN 1540.713426853709 1.9768813258123092 511.0 8.0 363.0 
230.00008144544753 13226.0 NaN 1537.4696058784245 1.5354053437631008 510.0 7.0 363.0 
232.00008144544753 13221.0 NaN 1540.5023380093521 2.1803426038298763 507.0 8.0 363.0 
234.00008144544753 13196.0 NaN 1540.590514362057 1.7828356343959788 508.0 6.0 365.0 
236.00008144544753 13173.0 NaN 1540.6386105544427 1.3381785036466112 507.0 8.0 363.0 
238.00008144544753 13172.0 NaN 1540.6012024048089 2.0465373708789447 508.0 8.0 363.0 
240.00008144544753 13183.0 NaN 1540.6386105544427 1.7892443593203957 508.0 8.0 363.0 
242.00008144544753 13176.0 NaN 1537.402805611221 1.3951866185638817 507.0 8.0 362.0 
244.00008144544753 13179.0 NaN 1537.3707414829637 2.068250193412703 504.0 9.0 361.0 
246.00008144544753 13166.0 NaN 1534.3967935871729 1.8327206670418579 508.0 6.0 363.0 
248.00008144544753 13148.0 NaN 1537.5257181028728 1.4288086738275312 510.0 7.0 363.0 
250.00008144544753 13154.0 NaN 1537.5016700066817 2.1313325536658665 510.0 7.0 363.0 
252.00008144544753 13154.0 NaN 1537.539078156312 1.8940416532232123 506.0 9.0 361.0 
254.00008144544753 13151.0 NaN 1534.2899131596544 1.5216043454486667 506.0 9.0 360.0 
256.0000814454475 13141.0 NaN 1534.2792251169 2.1870977547453654 505.0 9.0 360.0 
258.0000814454475 13118.0 NaN 1534.3139612558455 1.919075442704413 506.0 9.0 360.0 
260.0000814454475 13098.0 NaN 1534.3754175016702 1.5065343170898602 512.0 4.0 365.0 
262.0000814454475 13099.0 NaN 1534.3593854375426 2.177668950911709 513.0 4.0 365.0 
264.0000814454475 13113.0 NaN 1528.2805611222454 1.8794068686688545 514.0 3.0 364.0 
266.0000814454475 13107.0 NaN 1528.2484969939883 1.4653580609812964 514.0 3.0 364.0 
268.0000814454475 13104.0 NaN 1528.2378089512365 2.1213657984658374 514.0 3.0 364.0 
270.0000814454475 13080.0 NaN 1531.3132932531726 1.8387299509077328 514.0 3.0 365.0 
272.0000814454475 13057.0 NaN 1531.3186372745483 1.4402601952165095 514.0 3.0 365.0 
274.0000814454475 13074.0 NaN 1543.6392785571159 2.127735299955661 514.0 3.0 369.0 
276.0000814454475 13066.0 NaN 1537.5390781563117 1.8395304724719113 512.0 3.0 367.0 
278.0000814454475 13064.0 NaN 1537.4776219104886 1.4888942208190146 511.0 3.0 367.0 
280.0000814454475 13067.0 NaN 1540.547762191048 2.175024703350031 513.0 3.0 368.0 
282.0000814454475 13060.0 NaN 1537.4749498998 1.9584923279968938 512.0 4.0 366.0 
284.0000814454475 13042.0 NaN 1537.5337341349364 1.5828156605854729 514.0 4.0 366.0 
286.0000814454475 13039.0 NaN 1537.472277889111 2.27415743469296 512.0 4.0 366.0 
288.0000814454475 12993.0 NaN 1537.5203740814977 2.0140671167422823 512.0 4.0 366.0 
290.0000814454475 12965.0 NaN 1537.386773547093 1.6251264077510124 512.0 4.0 366.0 
292.0000814454475 12957.0 NaN 1534.3139612558455 2.2225640446297628 512.0 4.0 365.0 
294.0000814454475 12961.0 NaN 1528.2110888443544 1.9919530979100983 511.0 4.0 363.0 
296.0000814454475 12953.0 NaN 1525.215764863061 1.6350135481750936 510.0 4.0 362.0 
298.0000814454475 12944.0 NaN 1528.2538410153636 2.2145433381326924 509.0 4.0 363.0 
300.0000814454475 12922.0 NaN 1528.3259853039428 1.9692665779805134 507.0 4.0 363.0 
302.0000814454475 12891.0 NaN 1528.138944555779 1.5198219134502233 506.0 3.0 364.0 
304.0000814454475 12896.0 NaN 1525.0848363393457 2.1994018766116437 506.0 3.0 363.0 
306.0000814454475 12871.0 NaN 1525.0875083500339 1.9167860585422103 505.0 4.0 362.0 
308.0000814454475 12855.0 NaN 1528.2378089512365 1.4525067072769506 505.0 4.0 363.0 
310.0000814454475 12845.0 NaN 1531.2945891783545 2.12782559210674 504.0 4.0 364.0 
312.0000814454475 12810.0 NaN 1531.356045424182 1.8535308144024776 496.0 12.0 356.0 
314.0000814454475 12807.0 NaN 1531.305277221109 1.4590534563038617 496.0 13.0 355.0 
316.0000814454475 12806.0 NaN 1528.2164328657298 2.138429867126389 495.0 13.0 354.0 
318.0000814454475 12768.0 NaN 1522.1135604542428 1.849326755975562 495.0 13.0 352.0 
320.0000814454475 12737.0 NaN 1525.242484969939 1.4442646511371744 496.0 13.0 353.0 
322.0000814454475 12737.0 NaN 1528.2912491649975 2.1201861545560137 497.0 13.0 354.0 
324.0000814454475 12734.0 NaN 1534.4448897795612 1.8860022727288734 497.0 13.0 356.0 
326.0000814454475 12741.0 NaN 1534.3967935871729 1.5087141711368848 494.0 13.0 356.0 
328.0000814454475 12738.0 NaN 1534.3433533734121 2.16498429694384 493.0 13.0 356.0 
330.0000814454475 12695.0 NaN 1534.3887775551088 1.9155180959981244 494.0 13.0 356.0 
332.0000814454475 12679.0 NaN 1534.3994655978636 1.5284176826780755 496.0 13.0 356.0 
334.0000814454475 12676.0 NaN 1531.3079492317975 2.157315783197637 496.0 13.0 355.0 
336.0000814454475 12659.0 NaN 1531.3961255845002 1.825972109580007 494.0 13.0 355.0 
338.0000814454475 12657.0 NaN 1531.3026052104208 1.3993614849700233 494.0 13.0 355.0 
340.0000814454475 12659.0 NaN 1525.1142284569148 2.066536762001539 493.0 13.0 353.0 
342.0000814454475 12660.0 NaN 1531.29191716767 1.817420914203313 495.0 13.0 355.0 
344.0000814454475 12650.0 NaN 1531.3266533066121 1.3896987313665208 495.0 13.0 355.0 
346.0000814454475 12661.0 NaN 1531.2571810287245 2.058999041490012 497.0 13.0 355.0 
348.0000814454475 12654.0 NaN 1525.2264529058116 1.810641550684184 497.0 13.0 353.0 
350.0000814454475 12658.0 NaN 1525.1837007348024 1.4548346450994092 497.0 14.0 352.0 
352.0000814454475 12658.0 NaN 1528.2297929191727 2.1029587997478916 497.0 14.0 353.0 
354.0000814454475 12663.0 NaN 1525.1917167668669 1.7835626871674712 495.0 15.0 351.0 
356.0000814454475 12686.0 NaN 1525.2130928523723 1.3692200864323867 497.0 13.0 353.0 
358.0000814454475 12682.0 NaN 1522.0734802939207 2.0148864113810703 497.0 13.0 352.0 
360.0000814454475 12660.0 NaN 1519.0888443553788 1.7597414223139587 498.0 13.0 351.0 
362.0000814454475 12666.0 NaN 1518.9873079492334 1.3629549712327185 496.0 13.0 351.0 
364.0000814454475 12672.0 NaN 1518.917835671343 1.9836828924637466 496.0 13.0 351.0 
366.0000814454475 12683.0 NaN 1518.9392117568461 1.7770810890943363 499.0 13.0 351.0 
368.0000814454475 12691.0 NaN 1509.8116232464918 1.440974182415988 498.0 13.0 348.0 
370.0000814454475 12696.0 NaN 1503.615230460921 2.0905246317553257 498.0 13.0 346.0 
372.0000814454475 12674.0 NaN 1497.4883099532394 1.806087127979752 498.0 13.0 344.0 
374.0000814454475 12681.0 NaN 1503.4682698730808 1.443594837277012 499.0 13.0 346.0 
376.0000814454475 12686.0 NaN 1503.4068136272545 2.0930311590721926 500.0 13.0 346.0 
378.0000814454475 12679.0 NaN 1503.4575818303274 1.8862964563090672 499.0 14.0 345.0 
380.0000814454475 12681.0 NaN 1503.5724782899122 1.5519987723855992 500.0 14.0 345.0 
382.0000814454475 12678.0 NaN 1500.4301937207738 2.204918156092971 499.0 14.0 344.0 
384.0000814454475 12685.0 NaN 1497.4108216432876 2.0003867193236506 501.0 13.0 344.0 
386.0000814454475 12691.0 NaN 1506.6078824315293 1.6429477954182563 498.0 17.0 343.0 
388.0000814454475 12688.0 NaN 1506.533066132264 2.311721254634917 497.0 18.0 342.0 
390.0000814454475 12682.0 NaN 1497.3947895791575 2.1152798806752773 496.0 18.0 339.0 
392.0000814454475 12673.0 NaN 1500.472945891783 1.758924071275144 496.0 18.0 340.0 
394.0000814454475 12681.0 NaN 1503.5217100868394 2.3549422698705462 497.0 18.0 341.0 
396.0000814454475 12640.0 NaN 1506.6639946559794 2.0924111680222555 500.0 17.0 343.0 
398.0000814454475 12628.0 NaN 1506.5651302605204 1.6260705033333287 503.0 14.0 346.0 
400.0000814454475 12625.0 NaN 1506.5250501002 2.2730255324607764 504.0 14.0 346.0 
402.0000814454475 12610.0 NaN 1506.6052104208425 2.0100919865198823 505.0 14.0 346.0 
404.0000814454475 12603.0 NaN 1509.7154308617241 1.611484236685746 508.0 14.0 347.0 
406.0000814454475 12601.0 NaN 1512.7374749499 2.2374709764298992 509.0 13.0 349.0 
408.0000814454475 12580.0 NaN 1515.8663994655992 1.9059207900962198 508.0 13.0 350.0 
410.0000814454475 12579.0 NaN 1525.039412157648 1.5514759938898786 508.0 13.0 353.0 
412.0000814454475 12579.0 NaN 1524.988643954575 2.1919369367829473 508.0 13.0 353.0 
414.0000814454475 12580.0 NaN 1521.9612558450242 1.8700458592293874 508.0 13.0 352.0 
416.0000814454475 12570.0 NaN 1525.092852371409 1.4605806807290218 509.0 13.0 353.0 
418.0000814454475 12577.0 NaN 1525.0501002003998 2.1084009066863763 510.0 13.0 353.0 
420.0000814454475 12570.0 NaN 1509.683366733466 1.8531358075461253 510.0 13.0 348.0 
422.0000814454475 12572.0 NaN 1512.7508350033393 1.479026082613836 510.0 13.0 349.0 
424.0000814454475 12581.0 NaN 1509.6219104876427 2.102561475783391 507.0 13.0 348.0 
426.0000814454475 12604.0 NaN 1509.6700066800272 1.8722704723832153 503.0 13.0 348.0 
428.0000814454475 12597.0 NaN 1509.6887107548437 1.5015862665328814 504.0 12.0 349.0 
430.0000814454475 12592.0 NaN 1506.5784903139618 2.1702791565965978 506.0 12.0 348.0 
432.0000814454475 12579.0 NaN 1503.551102204409 1.926364322140146 514.0 5.0 354.0 
434.0000814454475 12594.0 NaN 1509.6619906479634 1.546937064601509 516.0 4.0 357.0 
436.0000814454475 12594.0 NaN 1515.7327989311968 2.173237359700828 516.0 4.0 359.0 
438.0000814454475 12590.0 NaN 1512.7267869071463 1.8582665382162622 509.0 12.0 350.0 
440.0000814454475 12568.0 NaN 1525.047428189712 1.4763976455804033 513.0 13.0 353.0 
442.0000814454475 12563.0 NaN 1524.9806279225113 2.1460483422160435 512.0 13.0 353.0 
444.0000814454475 12570.0 NaN 1524.9993319973273 1.9513003123674881 519.0 6.0 360.0 
446.0000814454475 12567.0 NaN 1531.1422845691368 1.5240802824497621 522.0 6.0 362.0 
448.0000814454475 12573.0 NaN 1531.0995323981276 2.154708539374379 522.0 6.0 362.0 
450.0000814454475 12560.0 NaN 1531.1449565798273 1.9209400634343479 520.0 6.0 362.0 
452.0000814454475 12533.0 NaN 1537.2531730126907 1.4807146243587883 523.0 6.0 364.0 
454.0000814454475 12539.0 NaN 1534.1482965931848 2.146072188124524 523.0 6.0 363.0 
456.0000814454475 12546.0 NaN 1537.2772211088845 1.933882821895163 523.0 6.0 364.0 
458.0000814454475 12553.0 NaN 1549.6432865731454 1.5500290412599502 522.0 6.0 368.0 
460.0000814454475 12556.0 NaN 1546.4689378757519 2.2511838527739436 520.0 6.0 367.0 
462.0000814454475 12542.0 NaN 1543.433533734136 1.991597852822654 520.0 6.0 366.0 
464.0000814454475 12560.0 NaN 1540.3714094856366 1.5674168559989388 519.0 6.0 365.0 
466.0000814454475 12555.0 NaN 1543.4308617234458 2.2775369919637938 519.0 6.0 366.0 
468.0000814454475 12544.0 NaN 1540.3767535070153 2.0316654684366577 520.0 6.0 365.0 
470.0000814454475 12523.0 NaN 1537.239812959252 1.580827166234525 518.0 6.0 364.0 
472.0000814454475 12531.0 NaN 1534.0948563794268 2.23790304457193 517.0 6.0 363.0 
474.0000814454475 12516.0 NaN 1531.091516366064 1.9795050002866663 516.0 6.0 362.0 
476.0000814454475 12502.0 NaN 1525.0100200400811 1.558022049376857 511.0 6.0 360.0 
478.0000814454475 12506.0 NaN 1524.9645958583824 2.25387237182089 511.0 6.0 360.0 
480.0000814454475 12501.0 NaN 1521.929191716766 1.9970971098267514 512.0 6.0 359.0 
482.0000814454475 12487.0 NaN 1515.7728790915173 1.5863438268726728 513.0 6.0 357.0 
484.0000814454475 12490.0 NaN 1515.7648630594538 2.127503327593324 512.0 6.0 357.0 
486.0000814454475 12479.0 NaN 1515.7969271877091 1.8696508882502667 512.0 6.0 357.0 
488.0000814454475 12480.0 NaN 1515.7835671342698 1.4680799267473614 509.0 6.0 357.0 
490.0000814454475 12492.0 NaN 1515.7060788243161 2.1646594949936975 509.0 6.0 357.0 
492.0000814454475 12488.0 NaN 1497.3573814295264 1.9482107882406496 512.0 3.0 354.0 
494.0000814454475 12477.0 NaN 1497.3974615898458 1.4187713096998642 508.0 5.0 352.0 
496.0000814454475 12476.0 NaN 1497.3653974615906 2.0918781768771306 505.0 5.0 352.0 
498.0000814454475 12483.0 NaN 1491.2518370073474 1.9174133293024345 500.0 12.0 343.0 
500.0000814454475 12488.0 NaN 1491.2464929859725 1.5245111356262342 500.0 13.0 342.0 
502.0000814454475 12493.0 NaN 1491.1716766867073 2.17858956320338 498.0 13.0 342.0 
504.0000814454475 12488.0 NaN 1491.241148964597 1.9325387966945784 500.0 13.0 342.0 
506.0000814454475 12497.0 NaN 1497.3867735470933 1.5253635046847138 500.0 14.0 343.0 
508.0000814454475 12508.0 NaN 1500.42217768871 2.216583069965572 501.0 14.0 344.0 
510.0000814454475 12506.0 NaN 1500.4676018704083 2.011229942706918 501.0 15.0 343.0 
512.0000814454476 12494.0 NaN 1500.4355377421516 1.6309478909104382 501.0 14.0 344.0 
514.0000814454474 12489.0 NaN 1500.358049432199 2.191364139166342 501.0 14.0 344.0 
516.0000814454474 12500.0 NaN 1485.0875083500343 1.9649518541678743 500.0 14.0 339.0 
518.0000814454474 12476.0 NaN 1479.0006680026725 1.4831104973457125 497.0 14.0 337.0 
520.0000814454474 12492.0 NaN 1475.8557114228454 2.086644431791732 496.0 14.0 336.0 
522.0000814454474 12489.0 NaN 1472.8069472277898 1.8476362935200539 496.0 15.0 334.0 
524.0000814454474 12484.0 NaN 1466.682698730794 1.4487558696047396 491.0 16.0 331.0 
526.0000814454474 12490.0 NaN 1466.5651302605204 2.079958407056529 492.0 16.0 331.0 
528.0000814454474 12503.0 NaN 1466.6185704742818 1.7447498580198386 494.0 15.0 332.0 
530.0000814454474 12523.0 NaN 1457.4669338677359 1.3956853367948048 493.0 15.0 329.0 
532.0000814454474 12539.0 NaN 1457.384101536407 2.035340964085159 492.0 15.0 329.0 
534.0000814454474 12559.0 NaN 1463.5644622578484 1.7480182900405463 496.0 14.0 332.0 
536.0000814454474 12587.0 NaN 1460.5156980627917 1.417808742788481 496.0 13.0 332.0 
538.0000814454474 12597.0 NaN 1460.4595858383443 2.0276375894786063 496.0 13.0 332.0 
540.0000814454474 12603.0 NaN 1463.599198396793 1.779119942931761 496.0 13.0 333.0 
542.0000814454474 12606.0 NaN 1469.726118904475 1.4352616910270577 497.0 13.0 335.0 
544.0000814454474 12619.0 NaN 1469.6646626586512 2.0313989019050656 498.0 13.0 335.0 
546.0000814454474 12628.0 NaN 1469.704742818972 1.8273300289857057 498.0 13.0 335.0 
548.0000814454474 12644.0 NaN 1472.7882431529729 1.526400241872221 499.0 13.0 336.0 
550.0000814454474 12652.0 NaN 1475.834335337342 2.1477089266541878 499.0 13.0 337.0 
552.0000814454474 12654.0 NaN 1469.6887107548434 1.9249920987809304 502.0 13.0 335.0 
554.0000814454474 12649.0 NaN 1472.7508350033393 1.5546055120789706 500.0 13.0 336.0 
556.0000814454474 12646.0 NaN 1475.7541750167002 2.188797043078218 498.0 13.0 337.0 
558.0000814454474 12669.0 NaN 1460.4408817635274 1.989086708314295 494.0 13.0 332.0 
560.0000814454474 12678.0 NaN 1460.494321977288 1.6783186292367671 495.0 13.0 332.0 
562.0000814454474 12684.0 NaN 1460.459585838344 2.3248455043270804 496.0 13.0 332.0 
564.0000814454474 12694.0 NaN 1466.6479625918503 2.1089353806073126 497.0 12.0 335.0 
566.0000814454474 12709.0 NaN 1469.6700066800272 1.7261434266910916 495.0 12.0 336.0 
568.0000814454474 12700.0 NaN 1469.65130260521 2.2533035031914292 495.0 12.0 336.0 
570.0000814454474 12684.0 NaN 1475.8530394121576 1.989816611302043 505.0 4.0 346.0 
572.0000814454474 12679.0 NaN 1482.0334001336 1.6476675537830978 504.0 4.0 348.0 
574.0000814454474 12659.0 NaN 1485.082164328657 2.1940149382776215 507.0 4.0 349.0 
576.0000814454474 12701.0 NaN 1488.2084168336667 1.963489194615315 509.0 4.0 350.0 
578.0000814454474 12721.0 NaN 1481.9959919839669 1.5550460973306224 511.0 4.0 348.0 
580.0000814454474 12732.0 NaN 1485.0661322645285 2.2111987649774987 508.0 4.0 349.0 
582.0000814454474 12727.0 NaN 1482.0146960587838 1.9493619240723352 512.0 4.0 348.0 
584.0000814454474 12732.0 NaN 1482.0146960587838 1.5520234848861267 511.0 4.0 348.0 
586.0000814454474 12759.0 NaN 1481.9906479625913 2.19985912790579 516.0 4.0 348.0 
588.0000814454474 12778.0 NaN 1482.041416165664 1.951624344894481 516.0 4.0 348.0 
590.0000814454474 12784.0 NaN 1491.2598530394116 1.6456850753590548 515.0 4.0 351.0 
592.0000814454474 12787.0 NaN 1488.0881763527061 2.2824346295094333 515.0 4.0 350.0 
594.0000814454474 12769.0 NaN 1488.1362725450906 2.0322587737960727 517.0 4.0 350.0 
596.0000814454474 12747.0 NaN 1491.2625250501 1.6890269720174258 522.0 4.0 351.0 
598.0000814454474 12749.0 NaN 1488.1015364061454 2.3255390795912154 521.0 4.0 350.0 
600.0000814454474 12752.0 NaN 1488.1629926519713 2.0770008466849994 524.0 4.0 350.0 
602.0000814454474 12736.0 NaN 1488.0855043420179 1.7127895616863318 524.0 4.0 350.0 
604.0000814454474 12745.0 NaN 1484.9993319973275 2.349115124381266 521.0 4.0 349.0 
606.0000814454474 12739.0 NaN 1494.2658650634608 2.0744150504043413 523.0 4.0 352.0 
608.0000814454474 12762.0 NaN 1497.3680694722786 1.682614561094529 523.0 4.0 353.0 
610.0000814454474 12779.0 NaN 1494.2525050100194 2.325754655995466 521.0 4.0 352.0 
612.0000814454474 12793.0 NaN 1494.2979291917172 2.0900996597529935 517.0 4.0 352.0 
614.0000814454474 12828.0 NaN 1494.303273213092 1.6472086063896612 518.0 6.0 350.0 
616.0000814454474 12831.0 NaN 1494.257849031397 2.3028954742463017 518.0 5.0 351.0 
618.0000814454474 12865.0 NaN 1494.263193052773 2.06273802924111 519.0 6.0 350.0 
620.0000814454474 12876.0 NaN 1494.3780895123573 1.657993362755405 517.0 7.0 349.0 
622.0000814454474 12867.0 NaN 1497.3841015364071 2.2471708392907277 518.0 6.0 351.0 
624.0000814454474 12888.0 NaN 1497.4081496325991 2.039413106156289 517.0 6.0 351.0 
626.0000814454474 12892.0 NaN 1494.3353373413483 1.7218667247375719 516.0 7.0 349.0 
628.0000814454474 12923.0 NaN 1500.513026052103 2.3193334895277955 514.0 7.0 351.0 
630.0000814454474 12921.0 NaN 1506.6853707414818 2.0908875452667983 511.0 7.0 353.0 
632.0000814454474 12900.0 NaN 1506.677354709418 1.6762586883408572 511.0 7.0 353.0 
634.0000814454474 12904.0 NaN 1515.885103540415 2.2039481811661856 514.0 7.0 356.0 
636.0000814454474 12920.0 NaN 1515.9331997328 2.0149846808928276 512.0 8.0 355.0 
638.0000814454474 12941.0 NaN 1512.8096192384758 1.6659801860919408 513.0 7.0 355.0 
640.0000814454474 12946.0 NaN 1515.8717434869734 2.273750003728975 518.0 9.0 354.0 
642.0000814454474 12927.0 NaN 1515.93052772211 2.084853722802265 517.0 9.0 354.0 
644.0000814454474 12898.0 NaN 1512.822979291918 1.7358101888775004 519.0 8.0 354.0 
646.0000814454474 12899.0 NaN 1512.8149632598536 2.329177104302941 522.0 6.0 356.0 
648.0000814454474 12917.0 NaN 1518.9953239812971 2.096900428913072 521.0 7.0 357.0 
650.0000814454474 12910.0 NaN 1522.0120240480971 1.7460689681823451 518.0 9.0 356.0 
652.0000814454474 12888.0 NaN 1521.9612558450242 2.2829782733616706 517.0 8.0 357.0 
654.0000814454474 12891.0 NaN 1521.9906479625909 2.0233795588616075 515.0 9.0 356.0 
656.0000814454474 12884.0 NaN 1525.1088844355374 1.6435664795280527 513.0 8.0 358.0 
658.0000814454474 12891.0 NaN 1534.3086172344697 2.203350712853882 512.0 7.0 362.0 
660.0000814454474 12894.0 NaN 1537.4028056112213 1.9945217756162377 513.0 6.0 364.0 
662.0000814454474 12902.0 NaN 1537.3360053440204 1.6767586115391908 513.0 6.0 364.0 
664.0000814454474 12892.0 NaN 1540.360721442885 2.182115241821991 514.0 6.0 365.0 
#####################################################################
# End of data export. Simulation finished at: 2019-03-07T12:51+0000 #
#####################################################################
