#####################################################################
# Alchemist log file - simulation started at: 2019-03-03T16:53+0000 #
#####################################################################
# seed = 1.0, bandwidth = 5623413.251903491, propagationDelay = 10.0, baserange = 316.2277660168379
#
# The columns have the following meaning: 
# time neighbor_count[Sum] <value>@neighbor_count[Sum] packet_size[Mean] mean_delay[Mean] crowd[Sum] overcrowded[Sum] risk[Sum] 
0.0 NaN NaN NaN NaN NaN NaN NaN 
10.000417374280275 NaN NaN 4988.0 NaN 1497.0 0.0 1497.0 
20.000417374280275 51289.0 NaN 4996.7294589178355 9.002139212016939 1497.0 0.0 1497.0 
30.000417374280275 51349.0 NaN 4994.137608550434 8.018874867059735 1497.0 0.0 1497.0 
40.000417374280275 51420.0 NaN 4996.7454909819635 7.023774800025698 1495.0 2.0 1495.0 
50.000417374280275 51422.0 NaN 4994.185704742819 6.037813182150063 1496.0 1.0 1496.0 
60.000417374280275 51424.0 NaN 4996.694722778891 5.052093253281978 1495.0 2.0 1495.0 
70.00041737428027 51559.0 NaN 1525.5337341349364 4.028564628415753 668.0 2.0 364.0 
80.00041737428027 51568.0 NaN 1535.7621910487635 3.0303709790918094 604.0 3.0 366.0 
90.00041737428027 51627.0 NaN 1534.9953239812971 2.0345781168468138 579.0 5.0 364.0 
100.00041737428027 51619.0 NaN 1538.5410821643275 1.0236652458471036 555.0 3.0 367.0 
110.00041737428027 51584.0 NaN 1538.7708750835 5.51536665632163 550.0 2.0 368.0 
120.00041737428027 51470.0 NaN 1540.825651302606 10.001670505272683 542.0 6.0 365.0 
130.0004173742803 51561.0 NaN 1538.6452905811634 9.017664055199075 532.0 7.0 363.0 
140.0004173742803 51626.0 NaN 1534.8189712758847 8.047089997201873 532.0 5.0 364.0 
150.0004173742803 51561.0 NaN 1547.8316633266545 7.0329635050809145 532.0 5.0 368.0 
160.0004173742803 51488.0 NaN 1540.9939879759518 6.037700019010973 529.0 5.0 366.0 
170.0004173742803 51395.0 NaN 1541.7261189044755 5.048918497727134 528.0 5.0 366.0 
180.0004173742803 51234.0 NaN 1537.7688710754842 4.042775314871219 530.0 4.0 366.0 
190.0004173742803 51087.0 NaN 1541.694054776218 3.048314135912231 528.0 5.0 366.0 
200.0004173742803 50991.0 NaN 1537.9318637274544 2.0387384891514024 526.0 5.0 365.0 
210.0004173742803 50944.0 NaN 1535.305277221109 1.0366549561523937 523.0 6.0 363.0 
220.0004173742803 50770.0 NaN 1529.3760855043424 5.519669624626671 526.0 3.0 364.0 
230.0004173742803 50614.0 NaN 1528.5718102872424 10.001557121183751 523.0 6.0 361.0 
240.0004173742803 50686.0 NaN 1532.3233132932544 9.052557402279797 521.0 7.0 361.0 
250.0004173742803 50740.0 NaN 1528.5156980627912 8.069386407757353 511.0 10.0 357.0 
260.0004173742803 50654.0 NaN 1520.0106880427525 7.0380903719105445 509.0 11.0 353.0 
270.0004173742803 50559.0 NaN 1528.5237140948548 6.037982894930311 512.0 10.0 357.0 
280.0004173742803 50529.0 NaN 1529.1837007348024 5.095902734357178 513.0 9.0 358.0 
290.0004173742803 50209.0 NaN 1531.556446225784 4.057963464183762 510.0 10.0 358.0 
300.0004173742803 50024.0 NaN 1535.2037408149638 3.0675856611705976 506.0 10.0 359.0 
310.0004173742803 49828.0 NaN 1541.1169004676003 2.053038841601042 504.0 10.0 361.0 
320.0004173742803 49660.0 NaN 1535.1609886439546 1.0648543093467289 504.0 10.0 359.0 
330.0004173742803 49434.0 NaN 1541.3520374081481 5.506651090917557 507.0 8.0 363.0 
340.0004173742803 49239.0 NaN 1528.4622578490303 10.002504597518332 502.0 9.0 358.0 
350.0004173742803 49278.0 NaN 1522.8109552438207 9.038543669046492 504.0 9.0 356.0 
360.0004173742803 49306.0 NaN 1516.1950567802273 8.07190737379832 504.0 9.0 354.0 
370.0004173742803 49216.0 NaN 1513.5364061456248 7.0622616547560035 508.0 9.0 353.0 
380.0004173742803 49117.0 NaN 1503.7969271877091 6.060259402223786 510.0 9.0 350.0 
390.0004173742803 49020.0 NaN 1510.4475617902463 5.060742680490785 511.0 9.0 352.0 
400.0004173742803 48914.0 NaN 1519.2331329325305 4.06988885192181 512.0 9.0 355.0 
410.0004173742803 48830.0 NaN 1528.7828991315969 3.0954708758990184 514.0 9.0 358.0 
420.0004173742803 48722.0 NaN 1519.4094856379431 2.0579465603357816 511.0 9.0 355.0 
430.0004173742803 48680.0 NaN 1513.3947895791575 1.0555560343701007 515.0 9.0 353.0 
440.0004173742803 48577.0 NaN 1519.5831663326644 5.503003374091043 517.0 7.0 357.0 
450.0004173742803 48479.0 NaN 1525.3841015364067 10.00201217823114 520.0 10.0 356.0 
460.0004173742803 48504.0 NaN 1531.8102872411484 9.053478595237157 517.0 9.0 359.0 
470.0004173742803 48514.0 NaN 1534.586506346027 8.050648467612133 513.0 11.0 358.0 
480.0004173742803 48484.0 NaN 1522.5063460253823 7.052269892062478 510.0 10.0 355.0 
490.0004173742803 48495.0 NaN 1506.861723446893 6.037665351634578 510.0 9.0 351.0 
500.0004173742803 48625.0 NaN 1482.5838343353366 5.0641702710991785 515.0 5.0 347.0 
510.0004173742803 48653.0 NaN 1494.6372745490992 4.061750134405412 519.0 6.0 350.0 
520.0004173742802 48721.0 NaN 1485.7074148296606 3.063537069790817 511.0 6.0 347.0 
530.0004173742802 48739.0 NaN 1467.219772879091 2.047974218973921 509.0 11.0 336.0 
540.0004173742802 48749.0 NaN 1461.319973279892 1.0856381560879032 504.0 9.0 336.0 
550.0004173742802 48684.0 NaN 1473.5738142952566 5.504641055007493 507.0 7.0 342.0 
560.0004173742802 48623.0 NaN 1467.0113560454247 10.001799563527339 509.0 10.0 337.0 
570.0004173742802 48762.0 NaN 1476.579826319306 9.025776419630347 508.0 9.0 341.0 
580.0004173742802 48915.0 NaN 1485.5551102204395 8.095803399494388 506.0 10.0 343.0 
590.0004173742802 48958.0 NaN 1491.9973279893109 7.065863807140345 513.0 8.0 347.0 
600.0004173742802 49012.0 NaN 1500.66800267201 6.071022176613115 522.0 9.0 349.0 
610.0004173742802 48964.0 NaN 1510.3353373413483 5.083826723660773 529.0 9.0 352.0 
620.0004173742802 48973.0 NaN 1516.0561122244485 4.0673387611705385 529.0 9.0 354.0 
630.0004173742802 48954.0 NaN 1516.5290581162333 3.0811457339272597 527.0 8.0 355.0 
640.0004173742802 48836.0 NaN 1525.6272545090183 2.0638268664827 527.0 9.0 357.0 
650.0004173742802 48802.0 NaN 1522.7120908483637 1.0902094126563528 524.0 8.0 357.0 
660.0004173742802 48654.0 NaN 1525.7902471609896 5.494888369143774 524.0 7.0 359.0 
#####################################################################
# End of data export. Simulation finished at: 2019-03-03T17:11+0000 #
#####################################################################
