#####################################################################
# Alchemist log file - simulation started at: 2019-03-07T16:08+0000 #
#####################################################################
# seed = 5.0, bandwidth = 316227.76601683797, propagationDelay = 0.31622776601683794, baserange = 562.341325190349
#
# The columns have the following meaning: 
# time neighbor_count[Sum] <value>@neighbor_count[Sum] packet_size[Mean] mean_delay[Mean] crowd[Sum] overcrowded[Sum] risk[Sum] 
0.0 NaN NaN NaN NaN NaN NaN NaN 
2.000101793669918 93284.0 NaN 4992.857715430861 0.4778139501161575 1497.0 0.0 1497.0 
4.000101793669918 98210.0 NaN 4993.37875751503 0.5018692402784874 1496.0 1.0 1496.0 
6.000101793669918 98210.0 NaN 4995.636606546426 0.5018715632600046 1496.0 1.0 1496.0 
8.000101793669918 98215.0 NaN 4994.215096860387 0.5018572441767021 1496.0 1.0 1496.0 
10.000101793669918 98226.0 NaN 4994.896459585839 0.5018477864127816 1496.0 1.0 1496.0 
12.000101793669918 98226.0 NaN 4996.010688042752 0.5018516663904835 1497.0 0.0 1497.0 
14.000101793669918 98226.0 NaN 4994.0013360053445 0.5018815506027843 1496.0 1.0 1496.0 
16.00010179366992 98227.0 NaN 4994.455577822311 0.5018433975959384 1496.0 1.0 1496.0 
18.00010179366992 98234.0 NaN 4996.064128256513 0.5020427008695634 1496.0 1.0 1496.0 
20.00010179366992 98292.0 NaN 4994.495657982632 0.5024207574080534 1496.0 1.0 1496.0 
22.00010179366992 98289.0 NaN 4994.581162324649 0.5020872940231514 1496.0 1.0 1496.0 
24.00010179366992 98288.0 NaN 4995.802271209085 0.5019177802776498 1497.0 0.0 1497.0 
26.00010179366992 98288.0 NaN 4994.094856379425 0.5019027572028549 1496.0 1.0 1496.0 
28.00010179366992 98308.0 NaN 4994.650634602538 0.5018781372333498 1496.0 1.0 1496.0 
30.00010179366992 98358.0 NaN 4996.339345357382 0.5033883606960703 1497.0 0.0 1497.0 
32.00010179366992 98359.0 NaN 4994.236472945891 0.5016462971247433 1497.0 0.0 1497.0 
34.00010179366992 98373.0 NaN 4994.418169672679 0.5021263220812593 1496.0 1.0 1496.0 
36.00010179366992 98376.0 NaN 4995.919839679359 0.5015964489365211 1496.0 1.0 1496.0 
38.00010179366992 98388.0 NaN 4994.284569138276 0.502746459363734 1496.0 1.0 1496.0 
40.00010179366992 98436.0 NaN 4994.936539746159 0.5018913787830556 1496.0 1.0 1496.0 
42.00010179366992 98448.0 NaN 4996.058784235137 0.5017959142567092 1497.0 0.0 1497.0 
44.00010179366992 98443.0 NaN 4994.0360721442885 0.5024074717936976 1496.0 1.0 1496.0 
46.00010179366992 98423.0 NaN 4994.48496993988 0.5015729648847745 1496.0 1.0 1496.0 
48.00010179366992 98432.0 NaN 4996.042752171009 0.5018286284420426 1496.0 1.0 1496.0 
50.00010179366992 98451.0 NaN 4994.519706078824 0.5024245757813564 1496.0 1.0 1496.0 
52.00010179366992 98479.0 NaN 4994.581162324649 0.5023004884259107 1496.0 1.0 1496.0 
54.00010179366992 98530.0 NaN 4995.78089512358 0.5025544517144993 1497.0 0.0 1497.0 
56.00010179366992 98505.0 NaN 4994.094856379425 0.5016790670911406 1496.0 1.0 1496.0 
58.00010179366992 98515.0 NaN 4994.637274549098 0.5028692519940803 1496.0 1.0 1496.0 
60.00010179366992 98546.0 NaN 4993.191716766867 0.5026466019614242 1496.0 0.0 1496.0 
62.00010179366992 98583.0 NaN 1522.4769539078156 0.49945376068026165 812.0 0.0 365.0 
64.00010179366993 98586.0 NaN 1522.4074816299274 0.5013658512604051 648.0 3.0 362.0 
66.00010179366993 98585.0 NaN 1522.5490981963912 0.5007263120906172 594.0 4.0 361.0 
68.00010179366993 98626.0 NaN 1525.4802939211752 0.5013515506857248 564.0 4.0 362.0 
70.00010179366993 98652.0 NaN 1525.5177020708093 0.5014246250532911 541.0 4.0 362.0 
72.00010179366993 98652.0 NaN 1525.5925183700726 0.5006782391977975 534.0 4.0 362.0 
74.00010179366993 98687.0 NaN 1528.553106212425 0.5011266723539611 532.0 4.0 363.0 
76.00010179366993 98678.0 NaN 1528.6038744154996 0.5005251757604575 530.0 4.0 363.0 
78.00010179366993 98693.0 NaN 1531.7995991983973 0.5007180915789866 530.0 4.0 364.0 
80.00010179366993 98711.0 NaN 1534.7575150300606 0.5012979402519703 528.0 4.0 365.0 
82.00010179366993 98703.0 NaN 1534.7708750835 0.5006769745810052 527.0 4.0 365.0 
84.00010179366993 98729.0 NaN 1534.8537074148296 0.5007732303061146 525.0 4.0 365.0 
86.00010179366993 98728.0 NaN 1534.752171008682 0.5007125682323285 525.0 4.0 365.0 
88.00010179366993 98734.0 NaN 1534.7708750835 0.5008265105449043 524.0 4.0 365.0 
90.00010179366993 98735.0 NaN 1534.8991315965272 0.5015177967270213 525.0 4.0 365.0 
92.00010179366993 98726.0 NaN 1534.7227788911155 0.5005746078899138 526.0 4.0 365.0 
94.00010179366993 98760.0 NaN 1534.7575150300606 0.5008542116958714 524.0 4.0 365.0 
96.00010179366993 98762.0 NaN 1534.8617234468936 0.5011228880465958 524.0 4.0 365.0 
98.00010179366993 98754.0 NaN 1537.8303273213091 0.5019202627008756 524.0 4.0 366.0 
100.00010179366993 98712.0 NaN 1537.859719438879 0.5015406082662861 524.0 4.0 366.0 
102.00010179366993 98708.0 NaN 1537.9559118236457 0.5007560899475574 523.0 4.0 366.0 
104.00010179366993 98723.0 NaN 1540.8844355377428 0.5007622939390691 523.0 4.0 367.0 
106.00010179366993 98741.0 NaN 1540.943219772879 0.5006691211460476 523.0 4.0 367.0 
108.00010179366993 98766.0 NaN 1541.0126920507666 0.50070262921882 523.0 4.0 367.0 
110.00010179366993 98767.0 NaN 1540.8684034736152 0.5012544485773293 523.0 4.0 367.0 
112.00010179366993 98803.0 NaN 1540.8790915163659 0.5006864915509848 524.0 4.0 367.0 
114.00010179366993 98813.0 NaN 1540.9806279225118 0.5007996726080702 524.0 4.0 367.0 
116.00010179366993 98800.0 NaN 1540.8336673346696 0.5010161904549684 525.0 4.0 367.0 
118.00010179366993 98800.0 NaN 1540.8630594522367 0.501031974107549 526.0 4.0 367.0 
120.00010179366993 98796.0 NaN 1540.9592518370087 0.5015443165716292 526.0 4.0 367.0 
122.00010179366993 98803.0 NaN 1540.8496993987978 0.500721437244368 526.0 4.0 367.0 
124.00010179366993 98790.0 NaN 1543.9438877755515 0.5007262882060894 526.0 4.0 368.0 
126.00010179366993 98784.0 NaN 1544.072144288576 0.5008694303381827 526.0 4.0 368.0 
128.00010179366993 98784.0 NaN 1540.8657314629272 0.5006576535581055 526.0 4.0 367.0 
130.00010179366993 98799.0 NaN 1540.8790915163659 0.5013470542276561 526.0 4.0 367.0 
132.00010179366993 98801.0 NaN 1537.8623914495638 0.5008971674884427 526.0 4.0 366.0 
134.00010179366993 98791.0 NaN 1537.7528390113546 0.5010954904395318 526.0 4.0 366.0 
136.00010179366993 98774.0 NaN 1534.7281229124908 0.5011018101133841 525.0 4.0 365.0 
138.00010179366993 98776.0 NaN 1534.856379425518 0.5009157665533209 524.0 4.0 365.0 
140.00010179366993 98796.0 NaN 1534.7094188376755 0.5015030143350273 522.0 4.0 365.0 
142.00010179366993 98773.0 NaN 1537.8196392785574 0.5007301313115206 522.0 4.0 366.0 
144.00010179366993 98774.0 NaN 1537.9291917167664 0.5007962273026044 522.0 4.0 366.0 
146.00010179366993 98759.0 NaN 1537.827655310621 0.5008695343726919 521.0 4.0 366.0 
148.00010179366993 98777.0 NaN 1534.7575150300606 0.5007503840345365 521.0 4.0 365.0 
150.00010179366993 98803.0 NaN 1534.8643954575818 0.5013053610204641 520.0 4.0 365.0 
152.00010179366993 98776.0 NaN 1528.5611222444907 0.501136991318065 519.0 4.0 363.0 
154.00010179366993 98768.0 NaN 1528.590514362057 0.500725861638979 517.0 4.0 363.0 
156.00010179366993 98772.0 NaN 1531.7808951235816 0.5008044339770529 515.0 4.0 364.0 
158.00010179366993 98795.0 NaN 1534.749498997997 0.501039172717266 519.0 4.0 365.0 
160.00010179366993 98789.0 NaN 1534.7601870407482 0.5010921336085513 519.0 4.0 365.0 
162.00010179366993 98788.0 NaN 1534.8537074148296 0.5007666909432114 519.0 4.0 365.0 
164.00010179366993 98784.0 NaN 1537.806279225118 0.5009523985666434 519.0 4.0 366.0 
166.00010179366993 98768.0 NaN 1537.88376753507 0.5007839202633985 519.0 4.0 366.0 
168.00010179366993 98788.0 NaN 1531.8209752838998 0.5013754328805721 519.0 4.0 364.0 
170.00010179366993 98737.0 NaN 1534.7922511690058 0.5010188311830845 520.0 4.0 365.0 
172.00010179366993 98736.0 NaN 1534.760187040748 0.5008922589955902 520.0 4.0 365.0 
174.00010179366993 98731.0 NaN 1537.9746158984635 0.501127665303991 519.0 4.0 366.0 
176.00010179366993 98718.0 NaN 1534.7281229124908 0.5012881442714894 514.0 4.0 365.0 
178.00010179366993 98741.0 NaN 1534.7788911155635 0.5016783748902253 515.0 4.0 365.0 
180.00010179366993 98695.0 NaN 1534.8590514362065 0.5018251768559807 517.0 4.0 365.0 
182.00010179366993 98688.0 NaN 1534.733466933866 0.5008362370858497 517.0 4.0 365.0 
184.00010179366993 98692.0 NaN 1537.8116232464909 0.5009675411629974 517.0 4.0 366.0 
186.00010179366993 98675.0 NaN 1534.8964595858365 0.5012591451383186 516.0 4.0 365.0 
188.00010179366993 98667.0 NaN 1537.806279225118 0.5021711733214802 515.0 5.0 365.0 
190.00010179366993 98585.0 NaN 1531.6766867067454 0.501191230294065 512.0 7.0 361.0 
192.00010179366993 98577.0 NaN 1531.730126920509 0.5011038950470426 513.0 6.0 362.0 
194.00010179366993 98576.0 NaN 1534.7388109552455 0.5011083126643061 513.0 6.0 363.0 
196.00010179366993 98558.0 NaN 1534.7521710086817 0.5013397662077225 514.0 5.0 364.0 
198.00010179366993 98549.0 NaN 1537.9906479625906 0.5024102145678487 516.0 4.0 366.0 
200.00010179366993 98476.0 NaN 1540.8790915163659 0.5016916859002308 517.0 4.0 367.0 
202.00010179366993 98491.0 NaN 1540.929859719439 0.5009689629866019 517.0 4.0 367.0 
204.00010179366993 98500.0 NaN 1541.0233800935182 0.501652367942918 516.0 4.0 367.0 
206.00010179366993 98476.0 NaN 1537.8784235136934 0.5015904606948669 516.0 4.0 366.0 
208.00010179366993 98472.0 NaN 1534.8376753507 0.5015068128660136 517.0 4.0 365.0 
210.00010179366993 98450.0 NaN 1531.8289913159638 0.5024439998565023 518.0 4.0 364.0 
212.00010179366993 98445.0 NaN 1531.655310621243 0.500892020732548 515.0 4.0 364.0 
214.00010179366993 98458.0 NaN 1534.7628590514364 0.5025114720478379 515.0 4.0 365.0 
216.00010179366993 98417.0 NaN 1528.769539078155 0.5009448510953827 515.0 4.0 363.0 
218.00010179366993 98411.0 NaN 1528.6920507682025 0.5010716765104494 513.0 4.0 363.0 
220.00010179366993 98368.0 NaN 1531.7568470273884 0.5010412288614247 512.0 4.0 364.0 
222.00010179366993 98390.0 NaN 1534.907147628591 0.5008758206016384 512.0 4.0 365.0 
224.00010179366993 98431.0 NaN 1534.8189712758845 0.501872162754023 513.0 4.0 365.0 
226.00010179366993 98409.0 NaN 1531.7702070808273 0.5007560599927832 512.0 4.0 364.0 
228.00010179366993 98400.0 NaN 1538.0253841015365 0.501276889957644 512.0 4.0 366.0 
230.00010179366993 98379.0 NaN 1537.8864395457574 0.5016890567671686 511.0 4.0 366.0 
232.00010179366993 98371.0 NaN 1541.0180360721456 0.5008568186381497 511.0 4.0 367.0 
234.00010179366993 98362.0 NaN 1541.0501002003998 0.5011490077871718 512.0 4.0 367.0 
236.00010179366993 98334.0 NaN 1537.873079492318 0.5005219864628849 511.0 4.0 366.0 
238.00010179366993 98324.0 NaN 1534.7842351369393 0.5007312985249303 512.0 4.0 365.0 
240.00010179366993 98310.0 NaN 1534.888443553773 0.5013645840280658 511.0 4.0 365.0 
242.00010179366993 98292.0 NaN 1534.7201068804272 0.5005643932303053 511.0 4.0 365.0 
244.00010179366993 98283.0 NaN 1534.7655310621246 0.5026126666233105 513.0 4.0 365.0 
246.00010179366993 98225.0 NaN 1534.8830995323997 0.5006450543033475 513.0 4.0 365.0 
248.00010179366993 98220.0 NaN 1528.6225784903154 0.5007457017740338 512.0 4.0 363.0 
250.00010179366993 98186.0 NaN 1531.7301269205088 0.5010981105725222 510.0 4.0 364.0 
252.00010179366993 98143.0 NaN 1528.753507014027 0.5007770108371442 511.0 4.0 363.0 
254.00010179366993 98111.0 NaN 1531.6873747495001 0.5015110826986902 511.0 4.0 364.0 
256.00010179366996 98044.0 NaN 1528.6599866399454 0.5004688978312269 513.0 4.0 363.0 
258.00010179366996 98029.0 NaN 1528.7348029392117 0.5010398397375865 513.0 4.0 363.0 
260.00010179366996 97973.0 NaN 1528.6225784903154 0.5009718135597255 513.0 4.0 363.0 
262.00010179366996 97919.0 NaN 1525.5711422845698 0.5004042283867816 513.0 4.0 362.0 
264.00010179366996 97915.0 NaN 1534.9311957247817 0.5012477724306647 513.0 4.0 365.0 
266.00010179366996 97862.0 NaN 1534.7869071476275 0.5003714061804739 511.0 4.0 365.0 
268.00010179366996 97864.0 NaN 1534.8029392117546 0.5020869961190707 511.0 4.0 365.0 
270.00010179366996 97850.0 NaN 1531.8316633266545 0.5015342125574604 509.0 4.0 364.0 
272.00010179366996 97788.0 NaN 1531.7140948563797 0.5004197863583127 510.0 4.0 364.0 
274.00010179366996 97783.0 NaN 1531.730126920509 0.5007650386464518 510.0 4.0 364.0 
276.00010179366996 97734.0 NaN 1537.9879759519024 0.5005970356963878 507.0 4.0 366.0 
278.00010179366996 97731.0 NaN 1537.7955911823633 0.5021746902585549 511.0 4.0 366.0 
280.00010179366996 97679.0 NaN 1534.7494989979973 0.5012546855787716 511.0 4.0 365.0 
282.00010179366996 97641.0 NaN 1531.716766867066 0.5006789570973393 510.0 4.0 364.0 
284.00010179366996 97628.0 NaN 1534.690714762857 0.5010472378018583 511.0 4.0 365.0 
286.00010179366996 97578.0 NaN 1534.7601870407477 0.5010918855490472 510.0 4.0 365.0 
288.00010179366996 97555.0 NaN 1534.8216432865727 0.5012030058960709 510.0 4.0 365.0 
290.00010179366996 97505.0 NaN 1534.7067468269884 0.5024059892355787 510.0 4.0 365.0 
292.00010179366996 97456.0 NaN 1534.733466933866 0.5006091532019982 510.0 4.0 365.0 
294.00010179366996 97464.0 NaN 1531.7327989311973 0.5018503844947066 509.0 4.0 364.0 
296.00010179366996 97405.0 NaN 1531.7060788243157 0.5011414451314798 509.0 4.0 364.0 
298.00010179366996 97385.0 NaN 1540.9325317301273 0.5020183884357418 508.0 4.0 367.0 
300.00010179366996 97305.0 NaN 1540.988643954575 0.5014783286422271 507.0 4.0 367.0 
302.00010179366996 97268.0 NaN 1531.695390781564 0.5011006758358845 506.0 4.0 364.0 
304.00010179366996 97295.0 NaN 1534.8216432865727 0.5016597710407104 505.0 4.0 365.0 
306.00010179366996 97216.0 NaN 1537.9746158984635 0.5018298581912227 506.0 4.0 366.0 
308.00010179366996 97172.0 NaN 1537.8784235136934 0.5019822056211053 506.0 4.0 366.0 
310.00010179366996 97127.0 NaN 1537.9104876419517 0.5016062974260639 504.0 4.0 366.0 
312.00010179366996 97097.0 NaN 1531.8022712090844 0.5013125797117535 504.0 4.0 364.0 
314.00010179366996 97094.0 NaN 1531.6740146960572 0.5022226157567791 503.0 4.0 364.0 
316.00010179366996 97001.0 NaN 1531.7461589846364 0.5022748667277998 504.0 4.0 364.0 
318.00010179366996 96962.0 NaN 1531.8236472945907 0.50230448553373 504.0 4.0 364.0 
320.00010179366996 96902.0 NaN 1531.732798931197 0.5031211945986855 505.0 4.0 364.0 
322.00010179366996 96826.0 NaN 1534.8376753507002 0.5021992345342887 505.0 4.0 365.0 
324.00010179366996 96822.0 NaN 1531.8129592518362 0.5018801403142726 504.0 4.0 364.0 
326.00010179366996 96766.0 NaN 1531.7060788243157 0.5019979825195504 503.0 4.0 364.0 
328.00010179366996 96743.0 NaN 1531.7060788243157 0.5032644573628337 505.0 4.0 364.0 
330.00010179366996 96664.0 NaN 1531.767535070139 0.503336403640221 505.0 4.0 364.0 
332.00010179366996 96618.0 NaN 1531.6579826319298 0.5019446823681958 505.0 4.0 364.0 
334.00010179366996 96598.0 NaN 1528.6225784903154 0.5025671725474423 504.0 4.0 363.0 
336.00010179366996 96499.0 NaN 1528.676018704073 0.5014811048545932 504.0 4.0 363.0 
338.00010179366996 96512.0 NaN 1528.6092184368727 0.502026400873353 506.0 4.0 363.0 
340.00010179366996 96474.0 NaN 1525.5845023380089 0.5024176067038887 506.0 4.0 362.0 
342.00010179366996 96438.0 NaN 1525.5871743486973 0.5023496873170827 506.0 4.0 362.0 
344.00010179366996 96402.0 NaN 1528.6199064796272 0.5029558883235987 506.0 4.0 363.0 
346.00010179366996 96322.0 NaN 1519.4442217768878 0.5016160963530981 505.0 4.0 360.0 
348.00010179366996 96330.0 NaN 1519.5323981295912 0.502018811152015 504.0 4.0 360.0 
350.00010179366996 96305.0 NaN 1525.5551102204392 0.5031241566382273 505.0 4.0 362.0 
352.00010179366996 96252.0 NaN 1522.4983299933185 0.5025707701104014 508.0 4.0 361.0 
354.00010179366996 96223.0 NaN 1519.5003340013366 0.5024141565465774 510.0 4.0 360.0 
356.00010179366996 96170.0 NaN 1519.4281897127576 0.5018387478470443 510.0 4.0 360.0 
358.00010179366996 96177.0 NaN 1519.4255177020723 0.5028492263494104 508.0 4.0 360.0 
360.00010179366996 96143.0 NaN 1516.4114896459578 0.5032072266932107 509.0 4.0 359.0 
362.00010179366996 96127.0 NaN 1513.2050768203085 0.5025335769302733 509.0 4.0 358.0 
364.00010179366996 96090.0 NaN 1507.0460921843696 0.5037971642053949 509.0 4.0 356.0 
366.00010179366996 96000.0 NaN 1504.0427521710092 0.5018880510749185 509.0 4.0 355.0 
368.00010179366996 96019.0 NaN 1500.868403473615 0.5045566999742752 510.0 4.0 354.0 
370.00010179366996 95964.0 NaN 1503.9679358717444 0.5030201994032766 510.0 4.0 355.0 
372.00010179366996 95967.0 NaN 1507.08617234469 0.5022404178165105 511.0 4.0 356.0 
374.00010179366996 95924.0 NaN 1503.9625918503666 0.5028415417451231 513.0 4.0 355.0 
376.00010179366996 95869.0 NaN 1500.9191716766877 0.5017461849632934 513.0 4.0 354.0 
378.00010179366996 95867.0 NaN 1497.8891115564456 0.5027691976270812 512.0 4.0 353.0 
380.00010179366996 95813.0 NaN 1500.892451569807 0.5019051702912242 510.0 4.0 354.0 
382.00010179366996 95812.0 NaN 1497.8784235136934 0.5020971788851689 512.0 5.0 352.0 
384.00010179366996 95765.0 NaN 1497.9051436205739 0.501848646319795 513.0 5.0 352.0 
386.00010179366996 95744.0 NaN 1494.7601870407477 0.5013746906193116 512.0 5.0 351.0 
388.00010179366996 95753.0 NaN 1494.7388109552444 0.5023746922556319 510.0 5.0 351.0 
390.00010179366996 95721.0 NaN 1497.9158316633273 0.5022107803608726 510.0 5.0 352.0 
392.00010179366996 95710.0 NaN 1504.0106880427527 0.5020886579873848 515.0 4.0 355.0 
394.00010179366996 95645.0 NaN 1507.0728122912483 0.5021896364697624 517.0 4.0 356.0 
396.00010179366996 95593.0 NaN 1507.150300601202 0.5015400295515343 517.0 4.0 356.0 
398.00010179366996 95605.0 NaN 1503.9652638610548 0.5022907862744938 518.0 4.0 355.0 
400.00010179366996 95572.0 NaN 1500.9325317301273 0.5021947927936476 517.0 4.0 354.0 
402.00010179366996 95541.0 NaN 1504.0374081496334 0.5022946131503703 515.0 5.0 354.0 
404.00010179366996 95485.0 NaN 1507.0220440881756 0.5034385730765205 515.0 6.0 354.0 
406.00010179366996 95436.0 NaN 1513.213092852372 0.5012934798997498 516.0 6.0 356.0 
408.00010179366996 95450.0 NaN 1519.4175016700071 0.502992097539232 521.0 6.0 358.0 
410.00010179366996 95396.0 NaN 1525.5230460921841 0.5021443978261592 521.0 6.0 360.0 
412.00010179366996 95351.0 NaN 1522.4609218436879 0.503422426095266 523.0 6.0 359.0 
414.00010179366996 95340.0 NaN 1519.3426853707422 0.5015577850828197 524.0 5.0 359.0 
416.00010179366996 95288.0 NaN 1510.0601202404816 0.5005814999237793 524.0 5.0 356.0 
418.00010179366996 95313.0 NaN 1513.116900467601 0.5016014176874452 524.0 5.0 357.0 
420.00010179366996 95307.0 NaN 1507.0754843019365 0.5021122883390149 523.0 5.0 355.0 
422.00010179366996 95284.0 NaN 1497.7635270541089 0.501104386103683 517.0 4.0 353.0 
424.00010179366996 95259.0 NaN 1500.828323313293 0.5014363958260831 516.0 4.0 354.0 
426.00010179366996 95217.0 NaN 1507.0434201736814 0.5005617270774924 517.0 4.0 356.0 
428.00010179366996 95240.0 NaN 1507.006012024048 0.5009761436215071 516.0 5.0 355.0 
430.00010179366996 95248.0 NaN 1500.8977955911819 0.5022212515178969 514.0 7.0 351.0 
432.00010179366996 95217.0 NaN 1519.3507014028062 0.5020467923972624 517.0 7.0 357.0 
434.00010179366996 95179.0 NaN 1519.2545090180365 0.50365308428847 524.0 4.0 360.0 
436.00010179366996 95150.0 NaN 1519.265197060789 0.500540695228556 524.0 4.0 360.0 
438.00010179366996 95161.0 NaN 1522.4689378757523 0.5013534921576964 523.0 4.0 361.0 
440.00010179366996 95140.0 NaN 1525.4402137608545 0.5022195870522808 524.0 4.0 362.0 
442.00010179366996 95109.0 NaN 1537.7715430861729 0.5014772814645021 525.0 4.0 366.0 
444.00010179366996 95089.0 NaN 1534.7040748163 0.5012257619283301 527.0 4.0 365.0 
446.00010179366996 95074.0 NaN 1540.836339345357 0.5014554045001375 530.0 4.0 367.0 
448.00010179366996 95074.0 NaN 1540.8229792919183 0.5014750882981094 530.0 4.0 367.0 
450.00010179366996 95068.0 NaN 1543.9919839679364 0.5016841928242853 529.0 4.0 368.0 
452.00010179366996 95041.0 NaN 1540.8336673346696 0.5012637036626573 527.0 4.0 367.0 
454.00010179366996 95067.0 NaN 1543.9465597862386 0.501920052400411 527.0 4.0 368.0 
456.00010179366996 95041.0 NaN 1547.0754843019363 0.5012260135401218 525.0 4.0 369.0 
458.00010179366996 95047.0 NaN 1546.9792919171668 0.5009789165558405 524.0 4.0 369.0 
460.00010179366996 95071.0 NaN 1546.9979959919822 0.5019452767416269 523.0 4.0 369.0 
462.00010179366996 95049.0 NaN 1547.0647962591843 0.5015347870109821 523.0 4.0 369.0 
464.00010179366996 95037.0 NaN 1543.9038076152299 0.5013420455755903 525.0 4.0 368.0 
466.00010179366996 95021.0 NaN 1543.8770875083485 0.5010015495068576 523.0 4.0 368.0 
468.00010179366996 95032.0 NaN 1540.8871075484296 0.5024673311941154 522.0 4.0 367.0 
470.00010179366996 95029.0 NaN 1540.8603874415485 0.5023550483305395 519.0 4.0 367.0 
472.00010179366996 95009.0 NaN 1534.6853707414818 0.5010472715666413 518.0 4.0 365.0 
474.00010179366996 95030.0 NaN 1528.5798263193062 0.501254650973372 517.0 4.0 363.0 
476.00010179366996 95027.0 NaN 1528.5156980627914 0.500951258315412 519.0 4.0 363.0 
478.00010179366996 95034.0 NaN 1528.5424181696726 0.5010750740500406 517.0 4.0 363.0 
480.00010179366996 95038.0 NaN 1525.541750167 0.501055037428579 518.0 4.0 362.0 
482.00010179366996 95040.0 NaN 1522.3994655978631 0.5010339293760175 516.0 4.0 361.0 
484.00010179366996 95068.0 NaN 1507.0460921843696 0.5011338283246799 513.0 4.0 356.0 
486.00010179366996 95091.0 NaN 1500.9405477621908 0.5012827491286783 510.0 4.0 354.0 
488.00010179366996 95099.0 NaN 1497.80093520374 0.50170226176983 509.0 4.0 353.0 
490.00010179366996 95091.0 NaN 1497.8196392785565 0.5016813745834067 511.0 4.0 353.0 
492.00010179366996 95102.0 NaN 1491.7194388777548 0.5018593618846233 511.0 4.0 351.0 
494.00010179366996 95113.0 NaN 1485.5150300601194 0.5019082816608785 507.0 4.0 349.0 
496.00010179366996 95083.0 NaN 1485.523046092184 0.5012211237473424 507.0 4.0 349.0 
498.00010179366996 95067.0 NaN 1485.5444221776895 0.5015020424730263 507.0 4.0 349.0 
500.00010179366996 95059.0 NaN 1488.5531062124255 0.5014751195869213 507.0 4.0 350.0 
502.00010179366996 95071.0 NaN 1491.6713426853717 0.5010880199077096 507.0 4.0 351.0 
504.00010179366996 95074.0 NaN 1485.5738142952564 0.5012060957795315 507.0 4.0 349.0 
506.00010179366996 95054.0 NaN 1494.6960587842357 0.5008651106993779 508.0 4.0 352.0 
508.00010179366996 95082.0 NaN 1497.7555110220449 0.5021117092448416 512.0 4.0 353.0 
510.00010179366996 95075.0 NaN 1494.7788911155637 0.5021042696314131 510.0 4.0 352.0 
512.00010179367 95058.0 NaN 1488.5450901803615 0.5016628266921496 510.0 4.0 350.0 
514.00010179367 95047.0 NaN 1482.4822979291912 0.5012985449781499 507.0 4.0 348.0 
516.00010179367 95052.0 NaN 1479.422845691382 0.5004672689631773 504.0 4.0 347.0 
518.00010179367 95087.0 NaN 1476.2351369405465 0.502006391192567 506.0 4.0 346.0 
520.00010179367 95135.0 NaN 1463.9679358717444 0.5023381629681709 506.0 4.0 342.0 
522.00010179367 95151.0 NaN 1460.9779559118247 0.5022205329508461 502.0 4.0 341.0 
524.00010179367 95105.0 NaN 1463.997327989311 0.5016045466772743 501.0 4.0 342.0 
526.00010179367 95111.0 NaN 1460.9539078156304 0.5010178201971458 502.0 4.0 341.0 
528.00010179367 95168.0 NaN 1464.0694722778899 0.5030725335937631 504.0 4.0 342.0 
530.00010179367 95205.0 NaN 1451.7167668670668 0.5016127090659662 503.0 4.0 338.0 
532.00010179367 95232.0 NaN 1451.7541750167002 0.5016807063866884 503.0 4.0 338.0 
534.00010179367 95235.0 NaN 1451.8236472945896 0.5016959063297745 503.0 4.0 338.0 
536.00010179367 95225.0 NaN 1454.794923179692 0.5011838710131142 502.0 4.0 339.0 
538.00010179367 95232.0 NaN 1460.9886439545753 0.5019804117551958 504.0 4.0 341.0 
540.00010179367 95288.0 NaN 1461.020708082833 0.5014658039855866 504.0 4.0 341.0 
542.00010179367 95314.0 NaN 1467.1396125584508 0.5018293366629056 505.0 4.0 343.0 
544.00010179367 95310.0 NaN 1470.2364729458914 0.5023210948392346 504.0 4.0 344.0 
546.00010179367 95307.0 NaN 1467.2117568470271 0.5013647250734523 506.0 4.0 343.0 
548.00010179367 95299.0 NaN 1467.024716098864 0.5014076373398642 507.0 4.0 343.0 
550.00010179367 95371.0 NaN 1464.0320641282558 0.5011928317138586 505.0 4.0 342.0 
552.00010179367 95411.0 NaN 1464.0614562458259 0.5022847045528991 505.0 4.0 342.0 
554.00010179367 95385.0 NaN 1467.0781563126259 0.5017160232061981 506.0 4.0 343.0 
556.00010179367 95388.0 NaN 1457.8463593854367 0.5013299748656261 503.0 4.0 340.0 
558.00010179367 95379.0 NaN 1454.8430193720776 0.5012763106609861 502.0 4.0 339.0 
560.00010179367 95493.0 NaN 1454.7334669338677 0.5018317002588982 500.0 4.0 339.0 
562.00010179367 95546.0 NaN 1457.8249832999334 0.5023247712494722 501.0 4.0 340.0 
564.00010179367 95514.0 NaN 1460.9752839011362 0.502135277799311 503.0 4.0 341.0 
566.00010179367 95483.0 NaN 1454.802939211756 0.5018674403060039 501.0 4.0 339.0 
568.00010179367 95475.0 NaN 1460.9699398797593 0.5031133785224555 504.0 4.0 341.0 
570.00010179367 95503.0 NaN 1467.1716766867066 0.502546574990445 506.0 4.0 343.0 
572.00010179367 95490.0 NaN 1476.288577154309 0.5030803443795887 506.0 4.0 346.0 
574.00010179367 95382.0 NaN 1479.3774215096855 0.5031410632787299 505.0 4.0 347.0 
576.00010179367 95353.0 NaN 1476.3954575818302 0.502549447224315 505.0 4.0 346.0 
578.00010179367 95343.0 NaN 1473.2852371409483 0.5017696965984734 506.0 4.0 345.0 
580.00010179367 95380.0 NaN 1473.218436873747 0.5022788737697316 507.0 4.0 345.0 
582.00010179367 95431.0 NaN 1476.3740814963264 0.502439835951661 508.0 4.0 346.0 
584.00010179367 95403.0 NaN 1479.3667334669344 0.5022991568804426 514.0 4.0 347.0 
586.00010179367 95375.0 NaN 1476.2832331329332 0.5006834460294689 516.0 5.0 345.0 
588.00010179367 95401.0 NaN 1479.4388777555105 0.5026690321210209 516.0 6.0 345.0 
590.00010179367 95342.0 NaN 1485.4535738142947 0.501162651877615 520.0 4.0 349.0 
592.00010179367 95385.0 NaN 1485.4589178356719 0.5017584601310006 521.0 4.0 349.0 
594.00010179367 95371.0 NaN 1488.643954575818 0.5013861594305942 521.0 4.0 350.0 
596.00010179367 95347.0 NaN 1488.6305945223785 0.5016146612850014 521.0 4.0 350.0 
598.00010179367 95398.0 NaN 1491.6953907815637 0.5021028519187393 521.0 4.0 351.0 
600.00010179367 95410.0 NaN 1497.8570474281905 0.5014378952509987 522.0 4.0 353.0 
602.00010179367 95400.0 NaN 1491.596526386106 0.5010554039411024 521.0 4.0 351.0 
604.00010179367 95415.0 NaN 1503.9946559786242 0.5016670530238218 523.0 4.0 355.0 
606.00010179367 95397.0 NaN 1500.9752839011362 0.5013131399545073 522.0 4.0 354.0 
608.00010179367 95466.0 NaN 1507.014028056111 0.5026300760041889 524.0 4.0 356.0 
610.00010179367 95483.0 NaN 1507.0327321309283 0.5025863608164957 525.0 4.0 356.0 
612.00010179367 95475.0 NaN 1507.0434201736819 0.5008960896492773 524.0 4.0 356.0 
614.00010179367 95476.0 NaN 1506.9926519706082 0.5018149485579552 523.0 4.0 356.0 
616.00010179367 95458.0 NaN 1506.9873079492334 0.5005412986697785 521.0 4.0 356.0 
618.00010179367 95505.0 NaN 1510.1803607214435 0.5021305264975948 520.0 4.0 357.0 
620.00010179367 95492.0 NaN 1522.3700734802928 0.5011501723370879 522.0 4.0 361.0 
622.00010179367 95492.0 NaN 1522.3700734802928 0.5008886701883698 521.0 4.0 361.0 
624.00010179367 95514.0 NaN 1522.4422177688716 0.501659707863536 522.0 4.0 361.0 
626.00010179367 95488.0 NaN 1522.4261857047436 0.5008112466513603 521.0 4.0 361.0 
628.00010179367 95511.0 NaN 1525.520374081497 0.5018049256070131 520.0 5.0 361.0 
630.00010179367 95490.0 NaN 1522.5250501002 0.5012547214290104 523.0 5.0 360.0 
632.00010179367 95447.0 NaN 1525.5257181028728 0.5013591405770423 523.0 5.0 361.0 
634.00010179367 95449.0 NaN 1525.5444221776897 0.5017569355209677 528.0 5.0 361.0 
636.00010179367 95395.0 NaN 1525.608550434201 0.5012355082240787 529.0 5.0 361.0 
638.00010179367 95386.0 NaN 1522.4716098864385 0.5037238203510852 530.0 5.0 360.0 
640.00010179367 95336.0 NaN 1516.3633934535728 0.5031617216382469 526.0 5.0 358.0 
642.00010179367 95209.0 NaN 1513.338677354709 0.5012452388017091 522.0 5.0 357.0 
644.00010179367 95228.0 NaN 1516.355377421509 0.5015952668523469 518.0 6.0 357.0 
646.00010179367 95218.0 NaN 1516.3473613894453 0.5008947021777641 517.0 6.0 357.0 
648.00010179367 95235.0 NaN 1516.3954575818293 0.5017178548588435 515.0 7.0 356.0 
650.00010179367 95197.0 NaN 1513.205076820308 0.5030549032300284 516.0 6.0 356.0 
652.00010179367 95179.0 NaN 1525.5524382097535 0.501011117981966 519.0 4.0 362.0 
654.00010179367 95201.0 NaN 1525.5951903807627 0.5015162319818599 517.0 4.0 362.0 
656.00010179367 95234.0 NaN 1525.5524382097535 0.5013936598865325 517.0 4.0 362.0 
658.00010179367 95254.0 NaN 1525.541750167 0.5017110169466235 515.0 4.0 362.0 
660.00010179367 95256.0 NaN 1531.7702070808273 0.5024471066987134 509.0 4.0 364.0 
662.00010179367 95251.0 NaN 1537.832999331998 0.5017102548797994 511.0 4.0 366.0 
664.00010179367 95221.0 NaN 1537.8463593854365 0.5012448108449991 516.0 4.0 366.0 
#####################################################################
# End of data export. Simulation finished at: 2019-03-07T16:38+0000 #
#####################################################################
