#####################################################################
# Alchemist log file - simulation started at: 2019-03-02T08:39+0000 #
#####################################################################
# seed = 0.0, bandwidth = 1333521.4321633242, propagationDelay = 0.03162277660168379, baserange = 100.0
#
# The columns have the following meaning: 
# time neighbor_count[Sum] <value>@neighbor_count[Sum] packet_size[Mean] mean_delay[Mean] crowd[Sum] overcrowded[Sum] risk[Sum] 
0.0 NaN NaN NaN NaN NaN NaN NaN 
10.0000904199716 13128.0 NaN 4996.02672010688 0.49942595711615945 1484.0 13.0 1484.0 
20.0000904199716 13145.0 NaN 4995.818303273213 0.5022831735771351 1486.0 11.0 1486.0 
30.0000904199716 13187.0 NaN 4994.979291917168 0.5029405389613847 1485.0 12.0 1485.0 
40.000090419971606 13222.0 NaN 4995.513694054776 0.5003585742049002 1484.0 13.0 1484.0 
50.000090419971606 13259.0 NaN 4994.597194388778 0.5013043626317089 1487.0 10.0 1487.0 
60.000090419971606 13314.0 NaN 4995.206412825652 0.5049912528755146 1485.0 12.0 1485.0 
70.00040553626063 13262.0 NaN 1528.7828991315969 0.5003878294766588 517.0 17.0 350.0 
80.00040553626063 13292.0 NaN 1538.092184368736 0.5012483050180864 497.0 28.0 342.0 
90.00040553626063 13313.0 NaN 1538.0360721442908 0.5028937613239144 502.0 24.0 346.0 
100.00040553626063 13238.0 NaN 1541.0180360721456 0.5000384392450489 502.0 23.0 348.0 
110.00040553626063 13244.0 NaN 1540.9378757515026 0.49805451286715613 507.0 19.0 352.0 
120.00040553626063 13287.0 NaN 1541.0180360721456 0.49999339822823075 511.0 18.0 353.0 
130.00040553626064 13266.0 NaN 1537.9104876419515 0.5007319012348604 509.0 18.0 352.0 
140.00040553626064 13264.0 NaN 1531.8557114228454 0.49950722692972965 501.0 21.0 347.0 
150.00040553626064 13266.0 NaN 1534.9285237140941 0.5009682880576005 505.0 18.0 351.0 
160.00040553626064 13183.0 NaN 1531.9091516366063 0.49843752694446203 503.0 18.0 350.0 
170.00040553626064 13145.0 NaN 1538.0734802939207 0.49875579840445566 503.0 18.0 352.0 
180.00040553626064 13114.0 NaN 1531.8076152304611 0.49891418546419025 494.0 26.0 342.0 
190.00040553626064 13080.0 NaN 1535.0514362057456 0.4985783595022155 497.0 22.0 347.0 
200.00040553626064 13053.0 NaN 1537.9585838343364 0.5053462824520415 496.0 23.0 347.0 
210.00040553626064 12992.0 NaN 1528.8149632598545 0.5042400558735628 492.0 24.0 343.0 
220.00040553626064 12902.0 NaN 1528.825651302606 0.5018582441471267 488.0 27.0 340.0 
230.00040553626064 12860.0 NaN 1531.8156312625272 0.5034460135478688 494.0 19.0 349.0 
240.00040553626064 12812.0 NaN 1528.5156980627912 0.5063977365055893 490.0 22.0 345.0 
250.00040553626064 12747.0 NaN 1525.4295257181025 0.5051756994503784 492.0 22.0 344.0 
260.00040553626064 12737.0 NaN 1525.6352705410818 0.5060896388788781 496.0 18.0 348.0 
270.00040553626064 12701.0 NaN 1531.700734802939 0.5069153731874481 489.0 23.0 345.0 
280.00040553626064 12633.0 NaN 1537.7287909151637 0.5029760617158416 488.0 25.0 345.0 
290.00040553626064 12595.0 NaN 1531.607214428857 0.5009503904236208 487.0 23.0 345.0 
300.00040553626064 12512.0 NaN 1534.7307949231817 0.5008983717714276 483.0 26.0 343.0 
310.00040553626064 12449.0 NaN 1531.660654642618 0.49953582788957646 484.0 24.0 344.0 
320.00040553626064 12424.0 NaN 1537.6325985303931 0.5000662937558841 483.0 24.0 346.0 
330.00040553626064 12405.0 NaN 1537.7982631930543 0.5009431870916119 482.0 24.0 346.0 
340.00040553626064 12415.0 NaN 1531.497661990648 0.5002684076679256 486.0 23.0 345.0 
350.00040553626064 12425.0 NaN 1528.4943219772883 0.499379304392058 490.0 23.0 344.0 
360.00040553626064 12441.0 NaN 1525.322645290582 0.5017832020174997 486.0 25.0 341.0 
370.00040553626064 12416.0 NaN 1506.9632598530388 0.5103213375211026 488.0 26.0 334.0 
380.00040553626064 12331.0 NaN 1509.9986639946553 0.5055340415138957 491.0 24.0 337.0 
390.00040553626064 12304.0 NaN 1510.0253841015365 0.5046056081859693 487.0 28.0 333.0 
400.00040553626064 12301.0 NaN 1506.8964595858372 0.50477789562679 492.0 25.0 335.0 
410.00040553626064 12321.0 NaN 1519.3266533066121 0.5040883081912373 499.0 23.0 341.0 
420.00040553626064 12329.0 NaN 1510.1589846359373 0.5043301593750975 491.0 22.0 339.0 
430.00040553626064 12328.0 NaN 1510.1429525718092 0.5005884315885127 487.0 27.0 334.0 
440.00040553626064 12314.0 NaN 1516.2057448229798 0.5026523428570192 496.0 23.0 340.0 
450.00040553626064 12249.0 NaN 1540.830995323982 0.5026209678997464 505.0 24.0 347.0 
460.00040553626064 12237.0 NaN 1540.705410821645 0.5002239675452976 502.0 21.0 350.0 
470.00040553626064 12260.0 NaN 1531.6072144288569 0.5008125667804801 497.0 21.0 347.0 
480.00040553626064 12215.0 NaN 1519.1636606546433 0.49982240022817825 491.0 22.0 342.0 
490.00040553626064 12190.0 NaN 1497.7929191716757 0.5074808841493358 489.0 22.0 335.0 
500.00040553626064 12179.0 NaN 1491.6499665998658 0.5023526384814868 484.0 23.0 332.0 
510.00040553626064 12214.0 NaN 1497.81696726787 0.4985718973521035 486.0 23.0 334.0 
520.0004055362606 12249.0 NaN 1464.154976619907 0.49809809856556764 476.0 26.0 320.0 
530.0004055362606 12323.0 NaN 1445.6887107548434 0.5026515072651213 480.0 21.0 319.0 
540.0004055362606 12369.0 NaN 1467.0514362057454 0.505791002979176 480.0 22.0 325.0 
550.0004055362606 12308.0 NaN 1466.9552438209748 0.5012822331375493 484.0 21.0 326.0 
560.0004055362606 12320.0 NaN 1460.8149632598536 0.4986014265055772 484.0 22.0 323.0 
570.0004055362606 12337.0 NaN 1473.317301269205 0.5017019552040282 485.0 22.0 327.0 
580.0004055362606 12352.0 NaN 1476.2965931863728 0.5042747543681385 487.0 23.0 327.0 
590.0004055362606 12375.0 NaN 1476.325985303942 0.5043837583006029 496.0 20.0 330.0 
600.0004055362606 12361.0 NaN 1488.609218436873 0.5076713756714811 499.0 24.0 330.0 
610.0004055362606 12467.0 NaN 1494.7842351369395 0.5048337432980239 504.0 22.0 334.0 
620.0004055362606 12511.0 NaN 1497.862391449565 0.505262363042323 502.0 21.0 336.0 
630.0004055362606 12527.0 NaN 1507.1503006012017 0.5054177353897203 498.0 22.0 338.0 
640.0004055362606 12478.0 NaN 1506.931195724782 0.5013707503304216 499.0 26.0 334.0 
650.0004055362606 12471.0 NaN 1522.4929859719446 0.5089429593191094 497.0 23.0 342.0 
660.0004055362606 12434.0 NaN 1531.7167668670666 0.505434152812762 494.0 21.0 347.0 
#####################################################################
# End of data export. Simulation finished at: 2019-03-02T08:49+0000 #
#####################################################################
