#####################################################################
# Alchemist log file - simulation started at: 2019-03-10T08:28+0000 #
#####################################################################
# seed = 2.0, bandwidth = 2.3713737056616552E7, propagationDelay = 0.001, baserange = 31.622776601683796
#
# The columns have the following meaning: 
# time neighbor_count[Sum] <value>@neighbor_count[Sum] packet_size[Mean] mean_delay[Mean] crowd[Sum] overcrowded[Sum] risk[Sum] 
0.0 NaN NaN NaN NaN NaN NaN NaN 
2.000336127097702 2785.0 NaN 4997.082164328657 0.5004362063907415 1496.0 1.0 1496.0 
4.000336127097702 2786.0 NaN 4999.64462257849 0.5005402208342641 1482.0 15.0 1482.0 
6.000336127097702 2795.0 NaN 4995.959919839679 0.5013890310679207 1441.0 56.0 1441.0 
8.000336127097702 2792.0 NaN 4996.761523046092 0.5007737971389818 1419.0 78.0 1419.0 
10.000336127097702 2792.0 NaN 4994.872411489646 0.5009315768506606 1412.0 85.0 1412.0 
12.000336127097702 2795.0 NaN 4995.470941883767 0.5015935344479823 1417.0 80.0 1417.0 
14.000335789740499 2794.0 NaN 4994.247160988644 0.500724979549741 1427.0 70.0 1427.0 
16.000335452383297 2802.0 NaN 4995.478957915831 0.5029435474155444 1416.0 81.0 1416.0 
18.000335452383297 2797.0 NaN 4993.9879759519035 0.500535914652944 1410.0 87.0 1410.0 
20.000335452383297 2803.0 NaN 4995.102204408818 0.5009931472334455 1420.0 77.0 1420.0 
22.000335452383297 2804.0 NaN 4993.9986639946555 0.5072066775577121 1414.0 83.0 1414.0 
24.000335452383297 2797.0 NaN 4994.949899799599 0.5022775317609934 1419.0 78.0 1419.0 
26.000335452383297 2798.0 NaN 4993.603206412826 0.5059907417808219 1412.0 85.0 1412.0 
28.000335452383297 2801.0 NaN 4994.88042752171 0.5031115743306015 1414.0 83.0 1414.0 
30.000335452383297 2790.0 NaN 4993.645958583835 0.5010822084828054 1414.0 83.0 1414.0 
32.00033545238329 2806.0 NaN 4994.736138944556 0.5028550451763434 1416.0 81.0 1416.0 
34.00033545238329 2810.0 NaN 4993.824983299934 0.501954989668978 1415.0 82.0 1415.0 
36.00033545238329 2812.0 NaN 4994.789579158317 0.5032810436212319 1415.0 82.0 1415.0 
38.00033545238329 2817.0 NaN 4993.62458249833 0.502322464319015 1416.0 81.0 1416.0 
40.00033545238329 2811.0 NaN 4994.843019372078 0.5026811799593893 1414.0 83.0 1414.0 
42.00033545238329 2825.0 NaN 4993.613894455578 0.5050032554059862 1409.0 88.0 1409.0 
44.00033545238329 2828.0 NaN 4994.73079492318 0.5021334583085945 1410.0 87.0 1410.0 
46.00033545238329 2828.0 NaN 4993.715430861724 0.5029424637671027 1405.0 92.0 1405.0 
48.00033545238329 2835.0 NaN 4994.741482965932 0.5047400872035567 1408.0 89.0 1408.0 
50.00033545238329 2831.0 NaN 4993.560454241817 0.502126015407342 1405.0 92.0 1405.0 
52.00033545238329 2859.0 NaN 4994.800267201069 0.5135275620465549 1405.0 92.0 1405.0 
54.00033545238329 2849.0 NaN 4993.696726786907 0.5089845428186099 1408.0 89.0 1408.0 
56.00033545238329 2839.0 NaN 4994.447561790247 0.5023667534511504 1407.0 90.0 1407.0 
58.00033545238329 2838.0 NaN 4993.827655310622 0.5018906712786352 1406.0 91.0 1406.0 
60.00033545238329 2836.0 NaN 4994.517034068136 0.5000909139324418 1407.0 90.0 1407.0 
62.000188446315455 2867.0 NaN 1518.8002672010698 0.5076762108287411 581.0 92.0 272.0 
64.00018844631546 2845.0 NaN 1518.4555778223096 0.5027771663509564 487.0 91.0 273.0 
66.00018844631546 2845.0 NaN 1518.551770207082 0.5032555113949656 443.0 91.0 273.0 
68.00018844631546 2853.0 NaN 1518.4555778223096 0.5088337798237041 417.0 90.0 274.0 
70.00018844631546 2845.0 NaN 1518.4769539078156 0.5026732775870458 400.0 91.0 273.0 
72.00018844631546 2844.0 NaN 1518.4074816299274 0.504645537494053 402.0 87.0 277.0 
74.00018844631546 2841.0 NaN 1524.5424181696726 0.5037768349534659 399.0 87.0 279.0 
76.00018844631546 2840.0 NaN 1524.4863059452243 0.5019591149414702 398.0 88.0 278.0 
78.00018844631546 2847.0 NaN 1524.502338009352 0.5052574052533078 395.0 87.0 279.0 
80.00018844631546 2849.0 NaN 1524.4408817635274 0.5055877442041175 392.0 88.0 278.0 
82.00018844631546 2854.0 NaN 1527.5591182364726 0.5040370247419678 389.0 89.0 278.0 
84.00018844631546 2846.0 NaN 1530.7414829659301 0.5072426702044949 389.0 88.0 280.0 
86.00018844631546 2825.0 NaN 1530.6933867735456 0.5029492959703109 388.0 87.0 281.0 
88.00018844631546 2813.0 NaN 1530.7815631262542 0.5063043750265757 386.0 88.0 280.0 
90.00018844631546 2801.0 NaN 1530.680026720109 0.5013724788839187 392.0 80.0 288.0 
92.00018844631546 2809.0 NaN 1530.8456913827638 0.5032288729728007 395.0 76.0 292.0 
94.00018844631546 2805.0 NaN 1530.680026720109 0.5045346519689413 389.0 82.0 286.0 
96.00018844631546 2809.0 NaN 1530.5865063460271 0.5041246708163252 390.0 81.0 287.0 
98.00018844631546 2803.0 NaN 1530.6933867735456 0.5038341649738556 396.0 75.0 293.0 
100.00018844631546 2791.0 NaN 1530.6880427521726 0.5026107187201162 399.0 72.0 296.0 
102.00018844631546 2795.0 NaN 1533.6887107548432 0.5012783363405322 395.0 76.0 293.0 
104.00018844631546 2798.0 NaN 1533.8196392785574 0.5046689910621084 395.0 76.0 293.0 
106.00018844631546 2797.0 NaN 1533.6753507014027 0.5056433673647165 394.0 77.0 292.0 
108.00018844631546 2804.0 NaN 1536.9164996659997 0.5075457658065529 390.0 80.0 290.0 
110.00018844631546 2798.0 NaN 1536.873747494991 0.5049355722725758 392.0 78.0 292.0 
112.00018844631546 2808.0 NaN 1536.8283233132931 0.5058638582548186 390.0 80.0 290.0 
114.00018844631546 2800.0 NaN 1536.8684034736152 0.5101475657633936 389.0 82.0 288.0 
116.00018844631546 2803.0 NaN 1536.8363393453571 0.5093724866539605 394.0 79.0 291.0 
118.00018844631546 2803.0 NaN 1546.0334001335998 0.510027833758501 396.0 77.0 296.0 
120.00018844631546 2810.0 NaN 1546.0788243152972 0.5053185772386773 400.0 73.0 300.0 
122.00018844631546 2807.0 NaN 1546.0440881763543 0.5129743100716556 402.0 71.0 302.0 
124.00018844631546 2792.0 NaN 1546.0814963259847 0.5053197261777246 397.0 76.0 297.0 
126.00018844631546 2804.0 NaN 1549.047428189712 0.5032279174322277 397.0 78.0 296.0 
128.00018844631543 2806.0 NaN 1546.1322645290575 0.5152317688514261 403.0 72.0 301.0 
130.00018844631546 2784.0 NaN 1546.0387441549756 0.5071612904284968 396.0 79.0 294.0 
132.00018844631546 2776.0 NaN 1546.0334001335998 0.5074155564036508 391.0 80.0 293.0 
134.00018844631546 2763.0 NaN 1542.875083500334 0.5034102278195062 390.0 80.0 292.0 
136.0003354523833 2767.0 NaN 1546.030728122912 0.5045091151120554 391.0 77.0 296.0 
138.0003354523833 2783.0 NaN 1542.8857715430852 0.508611971158509 388.0 79.0 293.0 
140.0003354523833 2804.0 NaN 1546.0227120908485 0.5024786362061848 382.0 84.0 289.0 
142.0003354523833 2827.0 NaN 1549.028724114897 0.5098554166008237 379.0 86.0 288.0 
144.0003354523833 2836.0 NaN 1549.1462925851704 0.5092019536989736 379.0 85.0 289.0 
146.0003354523833 2833.0 NaN 1549.0207080828332 0.5044154798383286 380.0 85.0 289.0 
148.0003354523833 2845.0 NaN 1546.0494321977274 0.508796699564677 382.0 86.0 287.0 
150.0003354523833 2846.0 NaN 1542.8830995324 0.5081285105358777 381.0 85.0 287.0 
152.0003354523833 2835.0 NaN 1539.8904475617912 0.5086669680120021 381.0 86.0 285.0 
154.0003354523833 2834.0 NaN 1539.8770875083483 0.5062320118577842 375.0 90.0 281.0 
156.0003354523833 2824.0 NaN 1539.9118236472939 0.5065999285994769 382.0 85.0 286.0 
158.0003354523833 2841.0 NaN 1539.9519038076155 0.504614471348754 384.0 82.0 289.0 
160.0003354523833 2843.0 NaN 1539.7862391449546 0.502816263575352 380.0 86.0 285.0 
162.0003354523833 2851.0 NaN 1539.8610554442212 0.5124897364006646 379.0 87.0 284.0 
164.0003354523833 2822.0 NaN 1542.9311957247814 0.5144287810446249 374.0 90.0 282.0 
166.0003354523833 2810.0 NaN 1549.13293253173 0.5049827781634846 378.0 86.0 288.0 
168.0003354523833 2812.0 NaN 1549.1596526386093 0.5105796862582054 378.0 86.0 288.0 
170.0003354523833 2801.0 NaN 1549.2317969271885 0.5028993511425577 374.0 88.0 286.0 
172.0003354523833 2807.0 NaN 1543.0380761523065 0.5101636772282674 377.0 85.0 287.0 
174.0003354523833 2796.0 NaN 1543.1609886439546 0.5062066881450464 373.0 89.0 283.0 
176.0003354523833 2787.0 NaN 1543.1048764195064 0.5107634261107592 370.0 90.0 282.0 
178.0003354523833 2786.0 NaN 1539.8797595190365 0.5103168472833634 375.0 85.0 286.0 
180.0003354523833 2763.0 NaN 1539.9919839679364 0.5040505973725569 370.0 92.0 279.0 
182.0003354523833 2764.0 NaN 1539.7915831663338 0.5099033404835561 375.0 88.0 283.0 
184.0003354523833 2781.0 NaN 1543.022044088175 0.5114109493373483 370.0 93.0 279.0 
186.0003354523833 2777.0 NaN 1539.8770875083483 0.5088220423813042 376.0 86.0 285.0 
188.0003354523833 2777.0 NaN 1543.1209084836341 0.5095471921853775 377.0 85.0 287.0 
190.0003354523833 2764.0 NaN 1539.8717434869727 0.504962721309032 381.0 84.0 287.0 
192.0003354523833 2766.0 NaN 1540.0480961923843 0.5169201255824258 386.0 79.0 292.0 
194.0003354523833 2774.0 NaN 1540.0961923847701 0.5151776786810992 382.0 82.0 289.0 
196.0003354523833 2766.0 NaN 1540.0534402137612 0.5107481648592808 380.0 83.0 288.0 
198.0003354523833 2778.0 NaN 1543.0621242484974 0.5124034396694056 381.0 82.0 290.0 
200.0003354523833 2766.0 NaN 1543.1048764195061 0.5025557618181555 383.0 81.0 291.0 
202.0003354523833 2780.0 NaN 1543.0968603874426 0.5129901632585379 380.0 84.0 288.0 
204.0003354523833 2778.0 NaN 1546.126920507682 0.5140045377521252 376.0 88.0 285.0 
206.0003354523833 2761.0 NaN 1543.006012024048 0.504012484183151 376.0 88.0 284.0 
208.0003354523833 2770.0 NaN 1542.9124916499661 0.516040226152109 369.0 91.0 281.0 
210.0003354523833 2750.0 NaN 1540.0507682030725 0.5043245188416277 362.0 97.0 274.0 
212.0003354523833 2755.0 NaN 1539.9251837007362 0.5140175588796644 367.0 93.0 278.0 
214.0003354523833 2756.0 NaN 1543.1369405477635 0.5202881790321255 369.0 93.0 279.0 
216.0003354523833 2739.0 NaN 1543.0567802271207 0.5046831684324334 369.0 93.0 279.0 
218.0003354523833 2755.0 NaN 1542.9873079492336 0.5123568322916038 367.0 96.0 276.0 
220.0003354523833 2748.0 NaN 1539.9412157648637 0.5039327526474254 369.0 95.0 276.0 
222.0003354523833 2761.0 NaN 1539.8877755511 0.5152972375017458 371.0 94.0 277.0 
224.0003354523833 2756.0 NaN 1539.9519038076157 0.5090070339595221 370.0 94.0 277.0 
226.0003354523833 2752.0 NaN 1539.8877755511 0.5112209056623251 369.0 93.0 278.0 
228.0003354523833 2754.0 NaN 1539.8770875083483 0.5120791767664218 369.0 93.0 278.0 
230.0003354523833 2744.0 NaN 1536.782899131597 0.510458546324455 364.0 95.0 275.0 
232.0003354523833 2747.0 NaN 1539.8824315297275 0.5055415173938982 366.0 95.0 276.0 
234.0003354523833 2750.0 NaN 1539.8797595190365 0.5186986100833829 364.0 98.0 273.0 
236.0003354523833 2745.0 NaN 1542.9498997996002 0.5099145536982247 366.0 96.0 276.0 
238.0003354523833 2743.0 NaN 1542.997995991982 0.5190019644427358 362.0 97.0 275.0 
240.0003354523833 2722.0 NaN 1542.9018036072155 0.5079804814884179 364.0 95.0 277.0 
242.0003354523833 2724.0 NaN 1539.8049432197727 0.516997957587631 364.0 96.0 275.0 
244.0003354523833 2719.0 NaN 1539.7194388777546 0.5114981299223424 358.0 100.0 271.0 
246.0003354523833 2718.0 NaN 1539.7221108884453 0.5076553942594791 351.0 106.0 265.0 
248.0003354523833 2713.0 NaN 1539.8717434869727 0.5122216493832303 354.0 103.0 268.0 
250.0003354523833 2703.0 NaN 1539.7221108884453 0.5072957381516748 354.0 103.0 268.0 
252.0003354523833 2702.0 NaN 1533.6325985303936 0.5129169320490383 353.0 103.0 266.0 
254.0003354523833 2708.0 NaN 1533.7074148296608 0.5194860859530731 357.0 99.0 270.0 
256.00033545238324 2698.0 NaN 1530.5865063460271 0.5102557132113122 357.0 99.0 269.0 
258.00033545238324 2705.0 NaN 1530.6346025384091 0.514546830261367 358.0 98.0 270.0 
260.00033545238324 2697.0 NaN 1530.642618570473 0.5036352075912257 364.0 92.0 276.0 
262.00033545238324 2714.0 NaN 1524.427521710088 0.5138674904093634 362.0 95.0 271.0 
264.00033545238324 2716.0 NaN 1527.6125584502338 0.5272909572554939 369.0 89.0 278.0 
266.00033545238324 2692.0 NaN 1527.5270541082177 0.511083904919414 381.0 79.0 288.0 
268.00033545238324 2691.0 NaN 1539.8503674014703 0.5122103752248445 382.0 78.0 293.0 
270.00033545238324 2679.0 NaN 1539.8877755510998 0.5034568037265054 382.0 78.0 293.0 
272.00033545238324 2677.0 NaN 1539.8450233800934 0.5241975076429691 387.0 74.0 297.0 
274.00033545238324 2664.0 NaN 1542.8670674682708 0.5154192237105653 385.0 76.0 296.0 
276.00033545238324 2652.0 NaN 1542.9178356713433 0.5029458483625657 391.0 70.0 302.0 
278.00018844631546 2652.0 NaN 1539.8370073480273 0.509942891371577 386.0 75.0 296.0 
280.00018844631546 2647.0 NaN 1539.7755511022026 0.5100094177294358 392.0 71.0 300.0 
282.00018844631546 2648.0 NaN 1536.6920507682023 0.5118639829711568 384.0 79.0 291.0 
284.00018844631546 2638.0 NaN 1536.7722110888456 0.5227834772465512 390.0 72.0 298.0 
286.00018844631546 2630.0 NaN 1536.7267869071457 0.5116050996358599 380.0 79.0 291.0 
288.00018844631546 2619.0 NaN 1536.6733466933886 0.5135452919603398 386.0 72.0 298.0 
290.00018844631546 2617.0 NaN 1536.742818971275 0.5141422311515988 380.0 77.0 293.0 
292.00018844631546 2615.0 NaN 1536.643954575818 0.5130201039498284 389.0 67.0 303.0 
294.00018844631546 2611.0 NaN 1530.5330661322637 0.5110050685239682 384.0 72.0 296.0 
296.00018844631546 2601.0 NaN 1530.4529058116245 0.5082587527346605 390.0 66.0 302.0 
298.00018844631546 2608.0 NaN 1533.621910487643 0.5055337121078067 383.0 73.0 296.0 
300.00018844631546 2603.0 NaN 1533.6112224448912 0.5119648692139037 390.0 66.0 303.0 
302.00018844631546 2605.0 NaN 1527.5163660654634 0.5070967123216386 384.0 72.0 295.0 
304.00018844631546 2628.0 NaN 1530.4662658650636 0.5043782694626955 389.0 67.0 301.0 
306.00018844631546 2632.0 NaN 1530.5384101536392 0.5118461422190155 384.0 72.0 296.0 
308.00018844631546 2630.0 NaN 1530.543754175018 0.5125831200132708 389.0 66.0 302.0 
310.00018844631546 2624.0 NaN 1536.6118904475636 0.5087481874381927 381.0 72.0 298.0 
312.00018844631546 2622.0 NaN 1536.7294589178366 0.5153718852291154 389.0 65.0 305.0 
314.00018844631546 2608.0 NaN 1533.6513026052091 0.5079680483047442 383.0 71.0 298.0 
316.00018844631546 2596.0 NaN 1527.4655978623907 0.5066232142376192 387.0 66.0 301.0 
318.00018844631546 2606.0 NaN 1527.4495657982636 0.5071785161859261 383.0 71.0 296.0 
320.00018844631546 2603.0 NaN 1530.5945223780907 0.5042218768999354 389.0 65.0 303.0 
322.00018844631546 2617.0 NaN 1527.596526386106 0.5111102094369335 383.0 72.0 295.0 
324.00018844631546 2616.0 NaN 1530.7227788911155 0.5115964297034858 391.0 66.0 302.0 
326.00018844631546 2614.0 NaN 1530.7120908483637 0.5086220151976388 384.0 72.0 296.0 
328.00018844631546 2609.0 NaN 1530.4876419505665 0.5134416049120729 386.0 69.0 299.0 
330.00018844631546 2595.0 NaN 1530.6185704742816 0.5042563236682832 380.0 74.0 294.0 
332.00018844631546 2601.0 NaN 1527.583166332664 0.5168498614312498 388.0 66.0 301.0 
334.00018844631546 2608.0 NaN 1530.6559786239152 0.5073720424071769 383.0 73.0 295.0 
336.00018844631546 2608.0 NaN 1530.6720106880427 0.510149402803728 392.0 64.0 304.0 
338.00018844631546 2625.0 NaN 1527.5270541082177 0.5098663549998421 386.0 72.0 295.0 
340.00018844631546 2618.0 NaN 1524.4782899131606 0.5049494230510291 390.0 67.0 299.0 
342.00018844631546 2634.0 NaN 1530.6372745490996 0.5108846774699143 388.0 72.0 296.0 
344.00018844631546 2632.0 NaN 1533.7822311289246 0.5100428993806454 392.0 68.0 301.0 
346.00018844631546 2624.0 NaN 1530.714762859052 0.5067693303208806 386.0 74.0 294.0 
348.00018844631546 2619.0 NaN 1530.5758183032726 0.5099972476916471 394.0 67.0 301.0 
350.00018844631546 2619.0 NaN 1527.417501670007 0.5109481311847764 385.0 74.0 293.0 
352.00018844631546 2642.0 NaN 1530.5410821643277 0.5161101656804054 391.0 68.0 300.0 
354.00018844631546 2633.0 NaN 1527.5564462257842 0.5128864169617288 383.0 76.0 291.0 
356.00018844631546 2638.0 NaN 1524.5317301269188 0.5132878503531355 388.0 71.0 295.0 
358.00018844631546 2630.0 NaN 1524.4355377421514 0.5273728122563917 380.0 79.0 287.0 
360.00018844631546 2603.0 NaN 1524.475617902473 0.5145588422377204 380.0 77.0 289.0 
362.00018844631546 2617.0 NaN 1524.553106212425 0.5165341324721819 374.0 83.0 283.0 
364.00018844631546 2616.0 NaN 1524.320641282564 0.5052676082894769 389.0 68.0 298.0 
366.00018844631546 2617.0 NaN 1524.6092184368727 0.5089008321847016 375.0 82.0 284.0 
368.00018844631546 2621.0 NaN 1524.3420173680702 0.5038792445951644 379.0 78.0 288.0 
370.00018844631546 2617.0 NaN 1503.0754843019365 0.514424637395452 375.0 83.0 276.0 
372.00018844631546 2623.0 NaN 1505.942551770208 0.5150173906081096 381.0 77.0 283.0 
374.00018844631546 2611.0 NaN 1509.066132264528 0.5171052141757967 377.0 82.0 279.0 
376.00018844631546 2603.0 NaN 1509.05277221109 0.504520449739157 385.0 75.0 286.0 
378.00018844631546 2613.0 NaN 1505.9692718770877 0.5069609429113849 379.0 81.0 279.0 
380.00018844631546 2614.0 NaN 1505.9585838343362 0.512421954038792 384.0 77.0 283.0 
382.00018844631546 2619.0 NaN 1499.8931195724786 0.5203070126375174 382.0 77.0 281.0 
384.00018844631546 2622.0 NaN 1502.8911155644628 0.5073718033361839 385.0 74.0 285.0 
386.00018844631546 2629.0 NaN 1509.140948563794 0.5101810887077752 378.0 84.0 277.0 
388.00018844631546 2657.0 NaN 1509.082164328657 0.5092518231917949 388.0 75.0 286.0 
390.00018844631546 2632.0 NaN 1506.0414161656638 0.5095691330685234 383.0 78.0 282.0 
392.00018844631546 2622.0 NaN 1512.1843687374735 0.5185309924152914 387.0 73.0 289.0 
394.00018844631546 2620.0 NaN 1509.15965263861 0.5212219231331893 375.0 88.0 273.0 
396.00018844631546 2620.0 NaN 1509.2024048096182 0.5052040345897552 386.0 74.0 287.0 
398.00018844631546 2639.0 NaN 1509.2424849699394 0.5121249565651639 376.0 83.0 278.0 
400.00018844631546 2622.0 NaN 1509.047428189712 0.5040690680634479 392.0 71.0 290.0 
402.00018844631546 2638.0 NaN 1506.126920507682 0.5080069931928894 395.0 71.0 289.0 
404.00018844631546 2650.0 NaN 1518.3887775551088 0.5158336187041492 396.0 70.0 294.0 
406.00018844631546 2650.0 NaN 1518.4555778223096 0.5167492726764731 391.0 76.0 288.0 
408.00018844631546 2661.0 NaN 1521.4936539746177 0.5191243714105109 397.0 70.0 295.0 
410.00018844631546 2640.0 NaN 1527.7515030060115 0.5052827487181932 392.0 75.0 292.0 
412.00018844631546 2648.0 NaN 1530.8269873079485 0.5102888695585792 398.0 69.0 299.0 
414.00018844631546 2643.0 NaN 1533.9612558450242 0.5180305055476205 401.0 68.0 301.0 
416.00018844631546 2628.0 NaN 1533.8757515030065 0.5094738823541126 406.0 63.0 306.0 
418.00018844631546 2634.0 NaN 1530.8056112224456 0.5185244308574564 395.0 74.0 294.0 
420.00018844631546 2609.0 NaN 1518.4395457581822 0.49940505666099405 404.0 68.0 296.0 
422.00018844631546 2636.0 NaN 1515.361389445557 0.5007959010310542 396.0 75.0 288.0 
424.00018844631546 2647.0 NaN 1512.1870407481636 0.5258392532435652 402.0 68.0 294.0 
426.00018844631546 2630.0 NaN 1518.404809619237 0.5140473342888455 400.0 74.0 290.0 
428.00018844631546 2642.0 NaN 1518.2444889779551 0.5149202224710852 399.0 71.0 293.0 
430.00018844631546 2599.0 NaN 1515.2545090180365 0.5026878886483315 388.0 81.0 282.0 
432.00018844631546 2621.0 NaN 1515.1877087508356 0.5080948122514897 395.0 75.0 288.0 
434.00018844631546 2619.0 NaN 1521.4562458249825 0.5189643617526947 391.0 82.0 283.0 
436.00018844631546 2611.0 NaN 1527.5511022044093 0.5180262405529782 398.0 77.0 290.0 
438.00018844631546 2635.0 NaN 1527.5671342685364 0.5164278733359394 387.0 83.0 284.0 
440.00018844631546 2622.0 NaN 1527.5831663326642 0.5024068518621827 392.0 77.0 290.0 
442.00018844631546 2627.0 NaN 1530.6105544422182 0.5039523374688419 386.0 83.0 285.0 
444.00018844631546 2620.0 NaN 1530.589178356712 0.511693081972576 395.0 75.0 293.0 
446.00018844631546 2620.0 NaN 1536.8630594522365 0.5114954869491166 386.0 84.0 286.0 
448.00018844631546 2634.0 NaN 1545.977287909152 0.5121571346422076 399.0 78.0 295.0 
450.00018844631546 2617.0 NaN 1545.9639278557092 0.5066696036462971 399.0 79.0 294.0 
452.00018844631546 2618.0 NaN 1542.888443553773 0.5123088693358023 407.0 69.0 303.0 
454.00018844631546 2590.0 NaN 1542.9098196392792 0.5110380419387497 400.0 75.0 297.0 
456.00018844631546 2595.0 NaN 1552.1977287909156 0.5117467601394583 402.0 74.0 301.0 
458.00018844631546 2601.0 NaN 1552.064128256512 0.5137902550947888 396.0 81.0 294.0 
460.00018844631546 2573.0 NaN 1549.036740146961 0.5086881013864355 405.0 69.0 305.0 
462.00018844631546 2579.0 NaN 1549.0821643286572 0.5106034559264101 401.0 73.0 301.0 
464.00018844631546 2577.0 NaN 1545.8329993319974 0.5067123303154839 406.0 69.0 304.0 
466.00018844631546 2581.0 NaN 1542.9899799599184 0.5141733932447549 399.0 76.0 296.0 
468.00018844631546 2574.0 NaN 1545.9104876419517 0.5160476542399282 406.0 69.0 304.0 
470.00018844631546 2570.0 NaN 1542.9205076820301 0.5100985517366586 398.0 76.0 296.0 
472.00018844631546 2571.0 NaN 1536.6412825651298 0.5145058021300176 399.0 73.0 297.0 
474.00018844631546 2568.0 NaN 1530.6212424849705 0.5065042477486186 394.0 78.0 290.0 
476.00018844631546 2576.0 NaN 1521.3600534402153 0.5160491467662279 401.0 71.0 294.0 
478.00018844631546 2582.0 NaN 1515.2598530394112 0.5127538156563879 398.0 74.0 289.0 
480.00018844631546 2569.0 NaN 1515.2090848363384 0.5019609610310901 402.0 68.0 295.0 
482.00018844631546 2585.0 NaN 1512.138944555779 0.5187092378804583 388.0 81.0 281.0 
484.00018844631546 2573.0 NaN 1512.0881763527063 0.5053990873772105 392.0 75.0 287.0 
486.00018844631546 2583.0 NaN 1509.0821643286567 0.513751768607941 390.0 76.0 285.0 
488.00018844631546 2580.0 NaN 1509.122244488979 0.5144816430672251 400.0 65.0 296.0 
490.00018844631546 2568.0 NaN 1499.8557114228454 0.509460822330606 393.0 70.0 288.0 
492.00018844631546 2565.0 NaN 1499.8236472945898 0.5174467287347241 395.0 67.0 291.0 
494.00018844631546 2558.0 NaN 1496.7615230460915 0.5091817500095659 385.0 76.0 281.0 
496.00018844631546 2559.0 NaN 1490.773547094189 0.5039841608916918 388.0 71.0 284.0 
498.00018844631546 2567.0 NaN 1493.8142952571816 0.5105720875390846 380.0 75.0 281.0 
500.00018844631546 2551.0 NaN 1490.6693386773545 0.5038555502109042 386.0 66.0 289.0 
502.00018844631546 2550.0 NaN 1493.7528390113553 0.5009966052776126 385.0 69.0 287.0 
504.00018844631546 2559.0 NaN 1493.7795591182362 0.5066127706050956 393.0 63.0 293.0 
506.00018844631546 2573.0 NaN 1503.0300601202393 0.5052090868246306 392.0 68.0 291.0 
508.00018844631546 2587.0 NaN 1503.040748162992 0.5094697848407583 396.0 64.0 295.0 
510.00018844631546 2586.0 NaN 1503.0594522378092 0.5076550912602372 386.0 72.0 287.0 
512.0001884463155 2585.0 NaN 1503.0140280561113 0.5098104423669524 391.0 66.0 293.0 
514.0001884463155 2585.0 NaN 1499.9519038076162 0.5124063443330229 387.0 70.0 288.0 
516.0001884463155 2585.0 NaN 1487.6312625250514 0.5072434201239332 391.0 64.0 290.0 
518.0001884463155 2583.0 NaN 1478.4074816299271 0.5117348098903786 381.0 72.0 279.0 
520.0001884463155 2589.0 NaN 1475.2919171676697 0.5159806585099372 384.0 65.0 285.0 
522.0001884463155 2574.0 NaN 1475.2972611890452 0.5135109138259513 373.0 71.0 279.0 
524.0001884463155 2570.0 NaN 1463.0460921843694 0.5104254599545069 378.0 66.0 280.0 
526.0001884463155 2576.0 NaN 1459.9893119572473 0.5155044619952955 371.0 72.0 273.0 
528.0001884463155 2575.0 NaN 1456.9539078156304 0.506615724838423 379.0 64.0 280.0 
530.0001884463155 2580.0 NaN 1459.9198396793577 0.511522534479129 374.0 70.0 275.0 
532.0001884463155 2567.0 NaN 1459.9759519038082 0.5161193909864271 382.0 63.0 282.0 
534.0001884463155 2567.0 NaN 1463.0808283233123 0.5124356854630139 377.0 69.0 277.0 
536.0001884463155 2581.0 NaN 1466.2311289245163 0.5049426702850595 384.0 64.0 283.0 
538.0001884463155 2589.0 NaN 1463.1422845691375 0.5061813061791158 380.0 70.0 276.0 
540.0001884463155 2587.0 NaN 1463.08617234469 0.5122224018186122 390.0 62.0 284.0 
542.0001884463155 2576.0 NaN 1463.0915163660648 0.5183180745971666 378.0 73.0 273.0 
544.0001884463155 2570.0 NaN 1463.0354041416172 0.5146193320764585 385.0 69.0 277.0 
546.0001884463155 2575.0 NaN 1460.0053440213755 0.510775455464667 382.0 74.0 271.0 
548.0001884463155 2557.0 NaN 1462.9979959919833 0.509799757665075 385.0 67.0 279.0 
550.0001884463155 2551.0 NaN 1462.9151636606543 0.5113569286853965 380.0 72.0 274.0 
552.0001884463155 2544.0 NaN 1462.9285237140944 0.5175595774766897 383.0 68.0 278.0 
554.0003354523833 2556.0 NaN 1469.1035404141624 0.5089081287100217 381.0 73.0 275.0 
556.0003354523833 2555.0 NaN 1472.2004008016029 0.5102182145153683 388.0 67.0 282.0 
558.0003354523833 2556.0 NaN 1466.2444889779554 0.5066402909386682 381.0 73.0 274.0 
560.0003354523833 2572.0 NaN 1456.9458917835673 0.5110746604393333 386.0 63.0 281.0 
562.0003354523833 2560.0 NaN 1460.0534402137607 0.5276713602154174 369.0 77.0 268.0 
564.0003354523833 2559.0 NaN 1466.1696726786909 0.5292053926152729 382.0 66.0 281.0 
566.0003354523833 2557.0 NaN 1472.4034736138944 0.5179973007063614 374.0 73.0 276.0 
568.0003354523833 2543.0 NaN 1472.3099532398128 0.5157479559634223 378.0 68.0 281.0 
570.0003354523833 2541.0 NaN 1475.323981295926 0.5098863737038104 380.0 73.0 277.0 
572.0003354523833 2525.0 NaN 1481.4802939211754 0.5150449815116867 389.0 66.0 286.0 
574.0003354523833 2545.0 NaN 1484.467601870408 0.5178859562739603 384.0 74.0 279.0 
576.0003354523833 2567.0 NaN 1490.7735470941889 0.5131627444361748 393.0 66.0 289.0 
578.0003354523833 2565.0 NaN 1487.6579826319298 0.5151026569195637 392.0 69.0 285.0 
580.0003354523833 2559.0 NaN 1490.7120908483637 0.5098866840106057 400.0 61.0 294.0 
582.0003354523833 2559.0 NaN 1490.7361389445553 0.508141866200544 396.0 66.0 289.0 
584.0003354523833 2574.0 NaN 1490.7682030728113 0.5203923806811364 403.0 60.0 295.0 
586.0003354523833 2580.0 NaN 1499.9839679358727 0.5205089305604358 401.0 68.0 290.0 
588.0003354523833 2571.0 NaN 1500.0534402137619 0.5124772418762793 406.0 62.0 296.0 
590.0003354523833 2570.0 NaN 1497.0394121576476 0.5157043818687486 399.0 66.0 291.0 
592.0003354523833 2572.0 NaN 1499.9973279893109 0.5184937765038446 408.0 61.0 297.0 
594.0003354523833 2591.0 NaN 1499.885103540415 0.5244776395384915 403.0 67.0 291.0 
596.0003354523833 2577.0 NaN 1503.0754843019365 0.5154713294500861 409.0 62.0 297.0 
598.0003354523833 2578.0 NaN 1499.9011356045435 0.5153179062490304 403.0 68.0 290.0 
600.0003354523833 2581.0 NaN 1493.653974615899 0.5098227578452452 404.0 68.0 288.0 
602.0003354523833 2585.0 NaN 1496.801603206412 0.5137624439817965 397.0 77.0 280.0 
604.0003354523833 2611.0 NaN 1496.7615230460917 0.5157418833397104 392.0 76.0 281.0 
606.0003354523833 2608.0 NaN 1503.1182364729455 0.5152455965137143 388.0 81.0 278.0 
608.0003354523833 2606.0 NaN 1506.1456245824988 0.512931106089345 396.0 72.0 288.0 
610.0003354523833 2598.0 NaN 1499.8984635938546 0.5104372253903473 389.0 79.0 279.0 
612.0003354523833 2596.0 NaN 1502.9632598530386 0.5122005366732931 396.0 72.0 287.0 
614.0003354523833 2599.0 NaN 1502.8857715430852 0.5219184895535484 389.0 79.0 280.0 
616.0003354523833 2609.0 NaN 1506.0013360053447 0.5107896113811103 389.0 79.0 281.0 
618.0003354523833 2613.0 NaN 1506.2044088176365 0.5217573177576458 384.0 83.0 277.0 
620.0003354523833 2581.0 NaN 1502.9979959919829 0.5117302139172497 390.0 75.0 284.0 
622.0003354523833 2591.0 NaN 1506.0841683366727 0.51695729302839 386.0 79.0 281.0 
624.0003354523833 2608.0 NaN 1512.3527054108213 0.5205812489947755 390.0 74.0 288.0 
626.0003354523833 2633.0 NaN 1515.4495657982636 0.5199191420528969 381.0 79.0 284.0 
628.0003354523833 2641.0 NaN 1515.460253841016 0.5228892488770035 383.0 76.0 287.0 
630.0003354523833 2628.0 NaN 1515.5136940547757 0.5106317242402449 381.0 79.0 284.0 
632.0003354523833 2643.0 NaN 1515.462925851703 0.5095114633366253 387.0 73.0 290.0 
634.0003354523833 2678.0 NaN 1521.6032064128265 0.5259256957229899 382.0 78.0 287.0 
636.0003354523833 2693.0 NaN 1527.847695390782 0.5207508551505632 391.0 75.0 292.0 
638.0003354523833 2683.0 NaN 1524.7481629926524 0.5189015291670489 382.0 85.0 281.0 
640.0003354523833 2666.0 NaN 1521.5818303273204 0.5122614786652762 389.0 77.0 288.0 
642.0003354523833 2670.0 NaN 1515.4094856379434 0.5196547048929108 383.0 83.0 280.0 
644.0003354523833 2657.0 NaN 1509.3066132264535 0.5294043402198911 390.0 74.0 287.0 
646.0003354523833 2651.0 NaN 1515.4682698730808 0.51396514684211 377.0 85.0 278.0 
648.0003354523833 2648.0 NaN 1515.3453573814281 0.5249343484953068 387.0 75.0 288.0 
650.0003354523833 2616.0 NaN 1521.5444221776897 0.5179515938508085 380.0 82.0 283.0 
652.0003354523833 2610.0 NaN 1521.5337341349364 0.5246189749940492 385.0 75.0 290.0 
654.0003354523833 2612.0 NaN 1521.5764863059455 0.5213936690107878 375.0 81.0 284.0 
656.0003354523833 2638.0 NaN 1527.7247828991303 0.5122904979821223 379.0 77.0 290.0 
658.0003354523833 2646.0 NaN 1533.792919171676 0.5249508034413265 381.0 77.0 292.0 
660.0003354523833 2635.0 NaN 1537.0501002004 0.5144528577653747 388.0 71.0 299.0 
662.0003354523833 2626.0 NaN 1536.825651302606 0.5241148773324767 383.0 76.0 294.0 
664.0003354523833 2615.0 NaN 1539.95991983968 0.5204412266870326 386.0 72.0 299.0 
#####################################################################
# End of data export. Simulation finished at: 2019-03-10T08:34+0000 #
#####################################################################
