#####################################################################
# Alchemist log file - simulation started at: 2019-03-06T05:04+0000 #
#####################################################################
# seed = 3.0, bandwidth = 1.0E8, propagationDelay = 0.01, baserange = 56.234132519034915
#
# The columns have the following meaning: 
# time neighbor_count[Sum] <value>@neighbor_count[Sum] packet_size[Mean] mean_delay[Mean] crowd[Sum] overcrowded[Sum] risk[Sum] 
0.0 NaN NaN NaN NaN NaN NaN NaN 
2.000479575718941 6162.0 NaN 4996.456913827656 0.5038817563547087 1497.0 0.0 1497.0 
4.00047961571894 6162.0 NaN 4998.749498997996 0.5038817217202873 1491.0 6.0 1491.0 
6.000084666035003 6165.0 NaN 4995.834335337341 0.5042062723161208 1466.0 31.0 1466.0 
8.000479575718941 6166.0 NaN 4996.769539078156 0.5040160622582178 1460.0 37.0 1460.0 
10.00033353340315 6168.0 NaN 4995.3533734134935 0.503390443536057 1461.0 36.0 1461.0 
12.00047949571894 6170.0 NaN 4995.561790247161 0.5037989163203044 1456.0 41.0 1456.0 
14.00047949571894 6174.0 NaN 4994.412825651302 0.5038433548105818 1454.0 43.0 1454.0 
16.000084666035004 6184.0 NaN 4995.214428857716 0.5061359259265399 1455.0 42.0 1455.0 
18.000479495718945 6182.0 NaN 4994.15631262525 0.5042020841006243 1456.0 41.0 1456.0 
20.00033353340315 6184.0 NaN 4994.917835671343 0.5037505996873034 1460.0 37.0 1460.0 
22.000479495718945 6188.0 NaN 4993.9425517702075 0.5037383423314993 1464.0 33.0 1464.0 
24.000479495718945 6190.0 NaN 4994.60788243153 0.5040200273926233 1457.0 40.0 1457.0 
26.000084666035004 6209.0 NaN 4993.891783567135 0.5067689469692414 1455.0 42.0 1455.0 
28.000479495718945 6207.0 NaN 4994.690714762859 0.5054193304666743 1459.0 38.0 1459.0 
30.00033353340315 6205.0 NaN 4993.784903139613 0.5050765844516645 1456.0 41.0 1456.0 
32.00047949571894 6216.0 NaN 4994.506346025384 0.5041531333911144 1457.0 40.0 1457.0 
34.00047949571894 6216.0 NaN 4993.661990647963 0.5040094037145524 1458.0 39.0 1458.0 
36.00008466603501 6238.0 NaN 4994.410153640614 0.5063136204531559 1458.0 39.0 1458.0 
38.00047949571894 6226.0 NaN 4993.715430861724 0.5043824113987794 1455.0 42.0 1455.0 
40.00033353340315 6228.0 NaN 4994.418169672679 0.5048142843629712 1456.0 41.0 1456.0 
42.00047949571894 6225.0 NaN 4993.536406145625 0.5050220954780038 1457.0 40.0 1457.0 
44.00047949571894 6236.0 NaN 4994.321977287909 0.5045210220238577 1455.0 42.0 1455.0 
46.00008466603501 6280.0 NaN 4993.589846359386 0.505970778406847 1457.0 40.0 1457.0 
48.00047949571894 6270.0 NaN 4994.327321309285 0.506074278289968 1455.0 42.0 1455.0 
50.00033353340315 6281.0 NaN 4993.672678690715 0.5057041546479314 1455.0 42.0 1455.0 
52.00047949571894 6281.0 NaN 4994.263193052772 0.5065609900606394 1454.0 43.0 1454.0 
54.00047949571894 6278.0 NaN 4993.523046092185 0.5049307464143346 1458.0 39.0 1458.0 
56.00008466603501 6303.0 NaN 4994.284569138276 0.5067668624583912 1455.0 42.0 1455.0 
58.00047949571894 6288.0 NaN 4993.62458249833 0.5105112939516184 1459.0 38.0 1459.0 
60.00033353340315 6268.0 NaN 4994.212424849699 0.5070289249945017 1457.0 40.0 1457.0 
62.00047949571894 6253.0 NaN 1522.0868403473632 0.5069546125073104 737.0 39.0 326.0 
64.00047949571893 6252.0 NaN 1521.8810955243816 0.5050217872978335 576.0 51.0 314.0 
66.00008466603501 6280.0 NaN 1521.8490313961267 0.5066160825437832 534.0 46.0 319.0 
68.00047949571895 6276.0 NaN 1521.7074148296606 0.5070714611881072 499.0 49.0 316.0 
70.00033353340315 6276.0 NaN 1524.8577154308632 0.5055802361389478 491.0 44.0 322.0 
72.00047949571895 6275.0 NaN 1524.6573146292576 0.5070577485917798 490.0 42.0 324.0 
74.00047949571895 6280.0 NaN 1524.7454909819635 0.5040632955335054 486.0 45.0 321.0 
76.00008466603501 6296.0 NaN 1524.6973947895792 0.5060372081957973 490.0 41.0 325.0 
78.00047949571895 6327.0 NaN 1533.9585838343364 0.5104034058215332 485.0 45.0 324.0 
80.00033353340315 6311.0 NaN 1534.0334001335998 0.5055633687253396 486.0 43.0 326.0 
82.00047949571895 6303.0 NaN 1533.9185036740153 0.5083869203042388 482.0 47.0 322.0 
84.00047949571895 6289.0 NaN 1533.9639278557092 0.5066651907624947 483.0 46.0 323.0 
86.00008466603501 6290.0 NaN 1533.9559118236457 0.5077564019282631 473.0 52.0 317.0 
88.00047949571895 6281.0 NaN 1533.9211756847028 0.5101869143475365 480.0 47.0 322.0 
90.00033353340315 6260.0 NaN 1536.9539078156304 0.5058064755598636 484.0 43.0 327.0 
92.00047949571895 6258.0 NaN 1536.9592518370087 0.5088353158471511 478.0 49.0 321.0 
94.00047949571895 6248.0 NaN 1536.8283233132931 0.5078014150663387 480.0 47.0 323.0 
96.00008466603501 6253.0 NaN 1539.983967935873 0.5050504784094167 478.0 48.0 323.0 
98.00047949571895 6268.0 NaN 1539.8663994655997 0.5059047069387236 476.0 51.0 320.0 
100.00033353340315 6263.0 NaN 1539.9786239144967 0.505233943619779 479.0 48.0 323.0 
102.00047949571895 6266.0 NaN 1539.8877755511003 0.5096444805588648 477.0 50.0 321.0 
104.00047949571895 6257.0 NaN 1539.9599198396795 0.505064027774523 478.0 49.0 322.0 
106.00008466603501 6256.0 NaN 1539.8957915831663 0.506725973214364 476.0 51.0 320.0 
108.00047949571895 6253.0 NaN 1539.9786239144967 0.5095533884945832 478.0 48.0 323.0 
110.00033353340315 6259.0 NaN 1539.9572478289908 0.508847510894899 474.0 52.0 319.0 
112.00047949571895 6263.0 NaN 1539.983967935873 0.5050461589706378 476.0 49.0 322.0 
114.00047949571895 6260.0 NaN 1539.9038076152299 0.5053519332755655 475.0 51.0 320.0 
116.00008466603501 6291.0 NaN 1546.1295925183701 0.510680490544165 477.0 51.0 322.0 
118.00047949571895 6291.0 NaN 1549.1970607882454 0.5084724826102878 477.0 52.0 322.0 
120.00033353340315 6271.0 NaN 1552.2324649298607 0.5063206742767346 478.0 51.0 324.0 
122.00047949571895 6275.0 NaN 1552.2965931863728 0.5106301625867591 477.0 52.0 323.0 
124.00047949571895 6274.0 NaN 1552.269873079491 0.5037689924764288 480.0 49.0 326.0 
126.00008466603501 6304.0 NaN 1549.2798931195728 0.5084762599337262 487.0 42.0 332.0 
128.00047949571893 6296.0 NaN 1546.2257849031391 0.5086188122292102 484.0 45.0 328.0 
130.00033353340314 6286.0 NaN 1546.185704742818 0.5077076311679911 489.0 40.0 333.0 
132.00047949571893 6262.0 NaN 1546.2070808283245 0.5111575566153139 486.0 43.0 330.0 
134.00047949571893 6246.0 NaN 1546.12959251837 0.503794248446742 484.0 43.0 330.0 
136.000084666035 6284.0 NaN 1546.126920507682 0.5063557513407757 484.0 41.0 332.0 
138.00047949571893 6289.0 NaN 1546.1589846359366 0.509445553948625 480.0 43.0 330.0 
140.00033353340314 6289.0 NaN 1543.1182364729455 0.5090311426496787 483.0 43.0 329.0 
142.00047949571893 6280.0 NaN 1549.2211088844365 0.5099543943155754 481.0 44.0 330.0 
144.00047949571893 6272.0 NaN 1552.3767535070153 0.506941647734872 477.0 48.0 327.0 
146.000084666035 6299.0 NaN 1543.1209084836341 0.5116408092672803 477.0 47.0 325.0 
148.00047949571893 6291.0 NaN 1543.1529726118908 0.5082548595696008 475.0 48.0 324.0 
150.00033353340314 6288.0 NaN 1543.0968603874423 0.5107131472437852 474.0 48.0 324.0 
152.00047949571893 6257.0 NaN 1543.1289245156997 0.5138546441164088 469.0 53.0 319.0 
154.00047949571893 6239.0 NaN 1539.994655978624 0.5051705983420277 472.0 51.0 320.0 
156.000084666035 6255.0 NaN 1540.09619238477 0.5094207855033069 473.0 52.0 319.0 
158.00047949571893 6250.0 NaN 1546.2551770207092 0.5074765160662812 471.0 52.0 321.0 
160.00033353340314 6232.0 NaN 1543.1983967935878 0.5083084952187275 475.0 45.0 327.0 
162.00047949571893 6214.0 NaN 1543.080828323312 0.5059254597530559 475.0 45.0 327.0 
164.00047949571893 6205.0 NaN 1543.0621242484972 0.5055518597771286 475.0 45.0 327.0 
166.000084666035 6223.0 NaN 1546.1189044756184 0.5052517716559323 477.0 44.0 329.0 
168.00047949571893 6233.0 NaN 1549.282565130261 0.5051346749024432 476.0 46.0 328.0 
170.00033353340314 6245.0 NaN 1549.1943887775544 0.5116864309841199 478.0 46.0 328.0 
172.00047949571893 6219.0 NaN 1549.2585170340699 0.5100953774888931 476.0 46.0 328.0 
174.00047949571893 6199.0 NaN 1546.126920507682 0.5031535336149127 478.0 44.0 329.0 
176.000084666035 6224.0 NaN 1539.9973279893115 0.5096033759392314 477.0 45.0 326.0 
178.00047949571893 6210.0 NaN 1540.0561122244483 0.5074284787107188 477.0 46.0 325.0 
180.00033353340314 6214.0 NaN 1540.024048096191 0.5092703814932983 477.0 45.0 326.0 
182.00047949571893 6179.0 NaN 1536.8684034736154 0.5085052605257744 476.0 47.0 323.0 
184.00047949571893 6180.0 NaN 1536.9512358049456 0.5059143437887441 468.0 51.0 319.0 
186.000084666035 6172.0 NaN 1536.8577154308637 0.5050388189953932 473.0 46.0 324.0 
188.00047949571893 6175.0 NaN 1536.9806279225118 0.5078393272917298 471.0 47.0 323.0 
190.00033353340314 6167.0 NaN 1536.8817635270545 0.5096263460857962 471.0 45.0 325.0 
192.00047949571893 6146.0 NaN 1533.8410153640634 0.5062475611083175 469.0 47.0 322.0 
194.00047949571893 6135.0 NaN 1533.750167000667 0.5097211620961615 466.0 50.0 319.0 
196.000084666035 6144.0 NaN 1533.8757515030065 0.5063610938188957 467.0 49.0 320.0 
198.00047949571893 6148.0 NaN 1533.8329993319974 0.5101197643649015 471.0 46.0 323.0 
200.00033353340314 6148.0 NaN 1536.8897795591183 0.5125965555741272 467.0 50.0 320.0 
202.00047949571893 6121.0 NaN 1543.0460921843699 0.5068431438909429 472.0 45.0 327.0 
204.00047949571893 6114.0 NaN 1540.0267201068818 0.510679797174928 468.0 48.0 323.0 
206.000084666035 6116.0 NaN 1540.0 0.5109883527817565 464.0 52.0 319.0 
208.00047949571893 6106.0 NaN 1540.1897127588518 0.5106940991209122 465.0 52.0 319.0 
210.00033353340314 6107.0 NaN 1530.7334669338666 0.5171790170168054 464.0 54.0 314.0 
212.00047949571893 6091.0 NaN 1533.8864395457574 0.5085629380611252 463.0 55.0 314.0 
214.00047949571893 6073.0 NaN 1530.706746826988 0.5046389351947422 462.0 53.0 315.0 
216.000084666035 6088.0 NaN 1530.7601870407482 0.5060126400913514 461.0 52.0 316.0 
218.00047949571893 6086.0 NaN 1527.6873747495001 0.5057215444130322 467.0 48.0 319.0 
220.00033353340314 6089.0 NaN 1527.722110888445 0.5093477317924674 467.0 46.0 321.0 
222.00047949571893 6071.0 NaN 1527.6045424181702 0.5077022973638402 462.0 52.0 315.0 
224.00047949571893 6048.0 NaN 1527.6045424181702 0.504250486603507 465.0 49.0 318.0 
226.000084666035 6053.0 NaN 1527.6045424181702 0.5101034307051235 467.0 47.0 320.0 
228.00047949571893 6034.0 NaN 1530.8002672010698 0.5100047927102107 467.0 48.0 320.0 
230.00033353340314 6022.0 NaN 1530.6880427521726 0.5110060690980451 465.0 50.0 318.0 
232.00047949571893 6021.0 NaN 1533.8329993319974 0.5091259577146566 467.0 48.0 321.0 
234.00047949571893 6000.0 NaN 1536.844355377421 0.5082919427630709 467.0 47.0 323.0 
236.000084666035 5989.0 NaN 1539.9732798931182 0.505262542296808 465.0 51.0 320.0 
238.00047949571893 5995.0 NaN 1536.876419505679 0.5093810586274531 465.0 50.0 320.0 
240.00033353340314 5990.0 NaN 1530.7628590514364 0.5070589028652319 466.0 49.0 319.0 
242.00047949571893 5986.0 NaN 1533.8704074816299 0.5066672856018506 463.0 52.0 317.0 
244.00047949571893 5981.0 NaN 1533.8009352037398 0.5076311367100967 469.0 48.0 321.0 
246.000084666035 5987.0 NaN 1533.7902471609907 0.5104115539855761 468.0 48.0 321.0 
248.00047949571893 5996.0 NaN 1527.655310621243 0.5148636732020436 465.0 50.0 317.0 
250.00033353340314 5957.0 NaN 1527.5938543754182 0.5116501618644921 468.0 46.0 321.0 
252.00047941571893 5946.0 NaN 1524.5183700734815 0.5115049926535813 466.0 48.0 318.0 
254.00047941571893 5930.0 NaN 1524.4595858383452 0.5090122464537588 466.0 48.0 318.0 
256.00008466603504 5939.0 NaN 1524.4916499666 0.5058277672126581 466.0 48.0 318.0 
258.0004794157189 5944.0 NaN 1524.4863059452246 0.5071619334500926 470.0 45.0 321.0 
260.00033353340314 5951.0 NaN 1524.438209752839 0.5109008074093163 470.0 46.0 320.0 
262.0004794157189 5955.0 NaN 1527.5564462257844 0.5100066002821828 471.0 45.0 322.0 
264.00047949571893 5926.0 NaN 1527.660654642618 0.5088726907687451 472.0 44.0 323.0 
266.00008466603504 5916.0 NaN 1536.9004676018726 0.5085870879350405 466.0 46.0 324.0 
268.00047949571893 5919.0 NaN 1536.9432197728793 0.514652411733421 468.0 45.0 325.0 
270.00033353340314 5911.0 NaN 1533.7742150968609 0.514755904409732 468.0 44.0 325.0 
272.00047949571893 5901.0 NaN 1533.8223112892456 0.5069911094322744 465.0 47.0 322.0 
274.00047949571893 5889.0 NaN 1530.752171008682 0.505226602031917 470.0 42.0 326.0 
276.00008466603504 5887.0 NaN 1527.65798263193 0.5100529199372938 468.0 43.0 324.0 
278.0004794157189 5886.0 NaN 1536.8203072812273 0.5134444029419502 469.0 45.0 325.0 
280.00033353340314 5868.0 NaN 1536.847027388109 0.5108924736874636 473.0 42.0 328.0 
282.0004794157189 5861.0 NaN 1533.734134936539 0.5104031312396077 470.0 44.0 325.0 
284.0004794157189 5837.0 NaN 1533.7822311289249 0.5077264838187877 470.0 43.0 326.0 
286.00008466603504 5832.0 NaN 1533.7394789579162 0.5115639482601458 472.0 41.0 328.0 
288.0004794157189 5838.0 NaN 1533.7127588510364 0.51655729948477 471.0 42.0 327.0 
290.00033353340314 5830.0 NaN 1533.6005344021364 0.5103682918206824 470.0 43.0 326.0 
292.0004794157189 5818.0 NaN 1533.8169672678703 0.5106578860101986 470.0 42.0 327.0 
294.0004794157189 5804.0 NaN 1533.7100868403456 0.5100308012015978 470.0 41.0 328.0 
296.00008466603504 5789.0 NaN 1536.7775551102181 0.5148601496972013 468.0 43.0 327.0 
298.0004794157189 5795.0 NaN 1536.8684034736154 0.508929110309755 469.0 42.0 328.0 
300.00033353340314 5796.0 NaN 1536.8256513026065 0.5166993939868207 468.0 41.0 329.0 
302.0004794157189 5793.0 NaN 1536.7561790247182 0.512124147940632 465.0 44.0 326.0 
304.0004794157189 5787.0 NaN 1533.814295257182 0.5129614835458384 466.0 41.0 328.0 
306.00008466603504 5774.0 NaN 1530.6265865063453 0.506467047333532 467.0 41.0 327.0 
308.0004794157189 5790.0 NaN 1530.6987307949248 0.5091606740378466 464.0 44.0 324.0 
310.00033353340314 5788.0 NaN 1533.7581830327338 0.5162280098814621 467.0 41.0 328.0 
312.00047949571893 5791.0 NaN 1530.7120908483637 0.510476813861652 463.0 42.0 326.0 
314.00047949571893 5779.0 NaN 1533.7047428189726 0.5112833332016444 463.0 43.0 326.0 
316.00008466603504 5768.0 NaN 1536.911155644621 0.5080304063325646 468.0 41.0 329.0 
318.00047949571893 5769.0 NaN 1536.8042752171 0.5143035901015955 467.0 42.0 328.0 
320.00033353340314 5761.0 NaN 1536.798931195725 0.5170569847759544 467.0 42.0 328.0 
322.00047949571893 5759.0 NaN 1539.8931195724792 0.5130771279903278 466.0 42.0 329.0 
324.00047949571893 5745.0 NaN 1540.016032064127 0.5119468882632894 466.0 41.0 330.0 
326.00008466603504 5738.0 NaN 1539.8423513694065 0.5095750496846282 466.0 42.0 329.0 
328.00047949571893 5749.0 NaN 1536.8924515698066 0.5109216417243716 465.0 42.0 328.0 
330.00033353340314 5770.0 NaN 1539.8396793587183 0.5073207849926562 466.0 41.0 330.0 
332.00047949571893 5769.0 NaN 1539.8049432197727 0.5117660895838279 464.0 43.0 328.0 
334.00047949571893 5764.0 NaN 1539.906479625918 0.5080618324909517 465.0 43.0 328.0 
336.00008466603504 5786.0 NaN 1533.7715430861729 0.5133121193457163 467.0 41.0 328.0 
338.00047949571893 5781.0 NaN 1530.725450901803 0.5097238637523651 467.0 43.0 325.0 
340.00033353340314 5787.0 NaN 1527.655310621243 0.516232785041766 469.0 41.0 326.0 
342.00047949571893 5771.0 NaN 1527.6820307281243 0.5150526841091747 466.0 44.0 323.0 
344.0004794157189 5768.0 NaN 1527.596526386106 0.5116876071211607 467.0 43.0 324.0 
346.00008466603504 5778.0 NaN 1530.7334669338666 0.5117227363759711 469.0 41.0 327.0 
348.0004794157189 5775.0 NaN 1527.6045424181702 0.5113040681109658 464.0 44.0 323.0 
350.00033353340314 5781.0 NaN 1524.513026052103 0.5118357295043598 468.0 44.0 322.0 
352.00047949571893 5780.0 NaN 1521.453573814294 0.5086961295290345 473.0 42.0 323.0 
354.00047949571893 5776.0 NaN 1524.6786907147637 0.5099055300398168 473.0 43.0 323.0 
356.00008466603504 5779.0 NaN 1524.6760187040734 0.5111683854368707 474.0 41.0 325.0 
358.00047949571893 5757.0 NaN 1524.6893787575157 0.5128551555712916 472.0 41.0 325.0 
360.00033353340314 5748.0 NaN 1527.759519038076 0.5132167003869103 470.0 45.0 322.0 
362.0004794157189 5739.0 NaN 1527.655310621243 0.5133736537914968 469.0 47.0 320.0 
364.00047949571893 5729.0 NaN 1524.595858383434 0.5080220791199294 475.0 40.0 326.0 
366.00008466603504 5755.0 NaN 1503.0140280561116 0.5125340955066265 477.0 40.0 319.0 
368.00047949571893 5752.0 NaN 1500.0507682030725 0.5078725497891053 473.0 42.0 316.0 
370.00033353340314 5761.0 NaN 1509.3066132264537 0.5099664443875843 475.0 40.0 321.0 
372.00047949571893 5768.0 NaN 1509.2638610554447 0.5122482466965388 472.0 42.0 319.0 
374.00047949571893 5757.0 NaN 1509.1863727454909 0.5128991857296877 474.0 41.0 320.0 
376.00008466603504 5751.0 NaN 1509.2184368737464 0.5082239385505266 475.0 41.0 320.0 
378.00047949571893 5761.0 NaN 1509.2692050768192 0.518036823782731 476.0 42.0 319.0 
380.00033353340314 5758.0 NaN 1509.1863727454909 0.5179509598678352 475.0 43.0 318.0 
382.00047949571893 5769.0 NaN 1506.20975283901 0.5108967073625014 474.0 42.0 318.0 
384.00047949571893 5772.0 NaN 1512.3740814963267 0.5116532063513737 475.0 43.0 319.0 
386.00008466603504 5777.0 NaN 1524.6065464261849 0.5110199493334013 476.0 43.0 323.0 
388.00047949571893 5772.0 NaN 1509.432197728791 0.5199129472870406 476.0 42.0 319.0 
390.00033353340314 5773.0 NaN 1509.2585170340697 0.5159069102039285 474.0 42.0 319.0 
392.0004794157189 5781.0 NaN 1512.4889779559114 0.5099841427988532 472.0 44.0 318.0 
394.00047949571893 5786.0 NaN 1512.4221776887098 0.5109763516650117 475.0 42.0 320.0 
396.00008466603504 5793.0 NaN 1512.4595858383448 0.5083299090169933 475.0 44.0 318.0 
398.00047949571893 5789.0 NaN 1509.2130928523723 0.5111543630619447 475.0 45.0 316.0 
400.00033353340314 5800.0 NaN 1512.4435537742158 0.5156974449688742 479.0 41.0 321.0 
402.0004794157189 5807.0 NaN 1512.3446893787568 0.5082444649721439 479.0 42.0 320.0 
404.0004794157189 5791.0 NaN 1518.5490981963915 0.5144527531709651 480.0 42.0 322.0 
406.00008466603504 5811.0 NaN 1521.6192384769547 0.5068137181742034 482.0 41.0 324.0 
408.00047949571893 5814.0 NaN 1524.7641950567813 0.5182603268723681 478.0 43.0 323.0 
410.00033353340314 5821.0 NaN 1527.6873747495001 0.511396971604721 481.0 41.0 326.0 
412.0004794157189 5833.0 NaN 1530.7842351369395 0.5102169489117828 481.0 43.0 325.0 
414.0004794157189 5800.0 NaN 1527.623246492985 0.5142169268815286 488.0 40.0 327.0 
416.00008466603504 5800.0 NaN 1527.6419505678004 0.5121667555455858 485.0 44.0 323.0 
418.00047949571893 5786.0 NaN 1527.7034068136272 0.5176103503728672 480.0 49.0 318.0 
420.00033353340314 5752.0 NaN 1518.5571142284564 0.5143593157502867 483.0 44.0 320.0 
422.00047937571895 5759.0 NaN 1512.2591850367396 0.5199210776357538 480.0 49.0 313.0 
424.0004793357189 5723.0 NaN 1506.2017368069467 0.5156168565824827 478.0 45.0 315.0 
426.00008466603504 5739.0 NaN 1518.4529058116239 0.5164447945420733 476.0 44.0 320.0 
428.0004793357189 5733.0 NaN 1509.3066132264535 0.5076844809318246 474.0 45.0 316.0 
430.00033353340314 5746.0 NaN 1509.2852371409476 0.5096269493787067 479.0 41.0 320.0 
432.0004794157189 5766.0 NaN 1506.241816967267 0.5138252121167934 476.0 44.0 316.0 
434.00047957571894 5735.0 NaN 1509.1970607882442 0.5170399312561921 477.0 44.0 317.0 
436.00008466603504 5735.0 NaN 1521.6352705410818 0.5110333645648693 479.0 46.0 319.0 
438.00047957571894 5758.0 NaN 1524.6519706078818 0.5117642736249283 473.0 52.0 314.0 
440.00033353340314 5769.0 NaN 1521.6085504342009 0.5112238721992831 478.0 47.0 318.0 
442.00047949571893 5775.0 NaN 1521.6780227120908 0.5109195244587852 474.0 52.0 313.0 
444.00047949571893 5749.0 NaN 1527.8076152304614 0.5083497678130982 475.0 50.0 317.0 
446.00008466603504 5747.0 NaN 1530.7548430193729 0.5109337641456073 484.0 45.0 323.0 
448.00047949571893 5763.0 NaN 1536.9672678690724 0.5111106348757681 483.0 46.0 324.0 
450.00033353340314 5777.0 NaN 1546.2845691382756 0.5104454384666889 485.0 45.0 328.0 
452.00047949571893 5781.0 NaN 1549.2371409485636 0.5089952722053663 483.0 46.0 328.0 
454.0004794157189 5762.0 NaN 1549.3520374081484 0.5061371615266296 486.0 42.0 332.0 
456.00008466603504 5755.0 NaN 1552.3500334001337 0.5070424811500636 486.0 42.0 333.0 
458.0004794157189 5776.0 NaN 1549.3119572478276 0.5086424246149387 484.0 45.0 329.0 
460.00033353340314 5786.0 NaN 1549.3066132264544 0.5162080757678897 483.0 44.0 330.0 
462.00047937571895 5775.0 NaN 1549.3039412157636 0.5129376798227367 484.0 43.0 331.0 
464.00047953571897 5747.0 NaN 1549.322645290582 0.508585721179461 485.0 42.0 332.0 
466.00008466603504 5751.0 NaN 1546.2605210420838 0.5118335393384194 485.0 43.0 330.0 
468.00047953571897 5755.0 NaN 1543.1583166332662 0.5132726937688052 486.0 43.0 329.0 
470.00033353340314 5748.0 NaN 1546.158984635937 0.5145512016880602 482.0 45.0 328.0 
472.00047953571897 5739.0 NaN 1533.873079492318 0.509354512297742 481.0 45.0 324.0 
474.00047953571897 5740.0 NaN 1530.8724114896452 0.5100015289449455 478.0 45.0 323.0 
476.00008466603504 5742.0 NaN 1527.706078824316 0.5093475976901675 479.0 42.0 325.0 
478.00047953571897 5762.0 NaN 1521.7234468937884 0.5114754733785698 478.0 43.0 322.0 
480.00033353340314 5760.0 NaN 1524.7321309285244 0.5173531760412573 478.0 43.0 323.0 
482.00047953571897 5754.0 NaN 1524.6973947895794 0.5151573481293542 473.0 45.0 321.0 
484.0004793357189 5718.0 NaN 1512.4943219772888 0.5105206379565641 476.0 43.0 319.0 
486.00008466603504 5718.0 NaN 1509.3119572478283 0.5146569938020521 472.0 45.0 316.0 
488.00047953571897 5718.0 NaN 1497.0768203072819 0.5120061383892878 470.0 45.0 312.0 
490.00033353340314 5714.0 NaN 1497.1543086172353 0.5149017583783758 474.0 43.0 314.0 
492.00047953571897 5724.0 NaN 1490.9472277889101 0.5103091585900884 475.0 43.0 312.0 
494.0004793357189 5711.0 NaN 1496.967267869072 0.516872141881078 469.0 43.0 314.0 
496.00008466603504 5707.0 NaN 1493.945223780894 0.5124963797690693 467.0 43.0 313.0 
498.00047953571897 5715.0 NaN 1494.0227120908476 0.5186275153158603 467.0 44.0 312.0 
500.00033353340314 5695.0 NaN 1493.9692718770882 0.5142678938691346 466.0 44.0 312.0 
502.00047929571895 5698.0 NaN 1490.9124916499657 0.5093255096312618 472.0 44.0 311.0 
504.00047929571895 5686.0 NaN 1484.7000668002663 0.5072077306496987 474.0 42.0 311.0 
506.00008466603504 5703.0 NaN 1487.727454909819 0.5080960283659276 473.0 42.0 312.0 
508.00047929571895 5711.0 NaN 1487.9706078824304 0.5100909794299308 472.0 42.0 312.0 
510.00033353340314 5713.0 NaN 1490.9044756179019 0.5166771652180027 472.0 41.0 314.0 
512.000479495719 5712.0 NaN 1493.9826319305273 0.5117579055989433 471.0 41.0 315.0 
514.0004794157189 5689.0 NaN 1494.0040080160334 0.508970713551319 472.0 41.0 315.0 
516.000084666035 5697.0 NaN 1490.9525718102882 0.5049301772541281 472.0 41.0 314.0 
518.0004794157189 5706.0 NaN 1481.6700066800274 0.5110618913068289 466.0 43.0 309.0 
520.0003335334031 5697.0 NaN 1472.4408817635274 0.5103935945999647 468.0 43.0 306.0 
522.0004793757189 5709.0 NaN 1472.4408817635274 0.5091893485450585 469.0 44.0 305.0 
524.000479295719 5695.0 NaN 1457.0794923179699 0.5107465974949985 463.0 42.0 302.0 
526.000084666035 5704.0 NaN 1453.9853039412162 0.5089900955546162 464.0 42.0 301.0 
528.000479295719 5713.0 NaN 1457.1195724782906 0.5098838878615214 461.0 44.0 300.0 
530.0003335334031 5711.0 NaN 1460.0320641282556 0.5136406077242882 464.0 43.0 302.0 
532.0004795757189 5718.0 NaN 1463.249164996661 0.515622954136941 469.0 44.0 302.0 
534.0004793757189 5698.0 NaN 1460.1603206412822 0.5077961461315801 467.0 43.0 302.0 
536.000084666035 5709.0 NaN 1466.2738810955252 0.5099198707538215 468.0 43.0 304.0 
538.0004793757189 5718.0 NaN 1466.4154976619911 0.5118317401337426 468.0 44.0 303.0 
540.0003335334031 5716.0 NaN 1466.241816967267 0.5100359465492643 469.0 42.0 305.0 
542.0004793757189 5717.0 NaN 1466.1670006680022 0.5093248477013722 471.0 41.0 306.0 
544.0004795757189 5708.0 NaN 1472.4221776887102 0.5040703225452621 474.0 40.0 309.0 
546.000084666035 5712.0 NaN 1472.3740814963264 0.5061546355989194 473.0 40.0 309.0 
548.0004795757189 5719.0 NaN 1475.4308617234462 0.5105053711984072 472.0 41.0 309.0 
550.0003335334031 5713.0 NaN 1469.3466933867733 0.5110328853910135 473.0 40.0 308.0 
552.000479295719 5727.0 NaN 1475.4041416165655 0.514252404832977 477.0 41.0 309.0 
554.000479295719 5744.0 NaN 1478.5090180360728 0.51359446798644 479.0 41.0 310.0 
556.000084666035 5718.0 NaN 1478.4903139612552 0.5083003121726568 479.0 41.0 310.0 
558.000479295719 5737.0 NaN 1478.5437541750173 0.5062834378191453 477.0 42.0 309.0 
560.0003335334031 5749.0 NaN 1466.1108884435541 0.5078944834255641 470.0 44.0 303.0 
562.0004334157189 5757.0 NaN 1466.1883767535078 0.520185903913372 468.0 41.0 306.0 
564.0004334157189 5771.0 NaN 1469.3734134936544 0.5146304492542679 469.0 41.0 307.0 
566.000084666035 5726.0 NaN 1472.3740814963264 0.5078732303858305 463.0 47.0 302.0 
568.0004334157189 5743.0 NaN 1478.5758183032729 0.5112157357136516 472.0 46.0 305.0 
570.0003335334031 5741.0 NaN 1478.5571142284566 0.5117316062265819 476.0 45.0 306.0 
572.0004334157189 5760.0 NaN 1478.562458249833 0.5160773362679494 473.0 47.0 304.0 
574.0004334157189 5751.0 NaN 1481.584502338009 0.52237037435851 475.0 46.0 306.0 
576.000084666035 5713.0 NaN 1490.8670674682708 0.5099270246448581 478.0 45.0 310.0 
578.0004334157189 5724.0 NaN 1487.7755511022033 0.515392280902092 482.0 44.0 310.0 
580.0003335334031 5732.0 NaN 1487.8423513694063 0.520729008297954 484.0 41.0 313.0 
582.0004334157189 5739.0 NaN 1487.8744154976623 0.518907915098524 484.0 40.0 314.0 
584.0004334157189 5722.0 NaN 1484.801603206412 0.5180578627760862 490.0 39.0 314.0 
586.000084666035 5704.0 NaN 1484.8069472277896 0.5105463446055037 487.0 39.0 314.0 
588.0004334157189 5709.0 NaN 1487.869071476285 0.5131822044088713 489.0 40.0 314.0 
590.0003335334031 5720.0 NaN 1490.837675350701 0.5091170920899947 488.0 39.0 316.0 
592.0004334157189 5718.0 NaN 1494.0788243152979 0.5142397530773684 488.0 40.0 316.0 
594.0004334157189 5698.0 NaN 1490.9124916499657 0.5178435175202076 491.0 40.0 315.0 
596.000084666035 5667.0 NaN 1490.8724114896454 0.5146605230882768 490.0 40.0 315.0 
598.0004334157189 5677.0 NaN 1481.7234468937882 0.5153084510873938 487.0 42.0 310.0 
600.0003335334031 5694.0 NaN 1487.7621910487635 0.5137277616206655 490.0 39.0 315.0 
602.0004334157189 5704.0 NaN 1484.780227120909 0.5120515926948827 489.0 40.0 313.0 
604.0004334157189 5735.0 NaN 1484.7080828323305 0.5118466255625329 492.0 39.0 314.0 
606.000084666035 5740.0 NaN 1490.8777555110212 0.5114877258123379 488.0 39.0 316.0 
608.0004334157189 5742.0 NaN 1493.8677354709425 0.5085970296348026 488.0 41.0 315.0 
610.0003335334031 5750.0 NaN 1497.0821643286565 0.5104058853845429 487.0 41.0 316.0 
612.0004334157189 5756.0 NaN 1497.0367401469616 0.5087557867603759 487.0 42.0 315.0 
614.0004334157189 5744.0 NaN 1497.0981963927848 0.516605893884629 489.0 41.0 316.0 
616.000084666035 5761.0 NaN 1493.9959919839669 0.5124395629324067 488.0 40.0 316.0 
618.0004334157189 5789.0 NaN 1490.9124916499657 0.5134121817086139 486.0 43.0 312.0 
620.0003335334031 5851.0 NaN 1500.0881763527063 0.5135004377928124 481.0 48.0 310.0 
622.0004334157189 5884.0 NaN 1503.396125584501 0.5203376430212077 482.0 46.0 313.0 
624.0004334157189 5847.0 NaN 1503.1155644622568 0.5139268868538723 487.0 39.0 320.0 
626.000084666035 5858.0 NaN 1506.388777555109 0.509899546712597 483.0 42.0 318.0 
628.0004334157189 5886.0 NaN 1509.421509686038 0.5098690142164226 485.0 46.0 315.0 
630.0003335334031 5898.0 NaN 1509.3734134936547 0.5171638969984613 486.0 45.0 316.0 
632.0004334157189 5863.0 NaN 1512.3981295925182 0.5158060768819974 487.0 43.0 319.0 
634.0004334157189 5834.0 NaN 1515.4655978623907 0.5094974253993748 480.0 49.0 314.0 
636.000084666035 5839.0 NaN 1515.4682698730805 0.5126874992038626 485.0 46.0 317.0 
638.0004334157189 5863.0 NaN 1515.3800935203735 0.5131219388482628 481.0 49.0 314.0 
640.0003335334031 5856.0 NaN 1512.3660654642624 0.5166604942355221 475.0 54.0 308.0 
642.0004334157189 5862.0 NaN 1512.4088176352716 0.5115363601082714 476.0 54.0 308.0 
644.0004334157189 5848.0 NaN 1509.3012692050756 0.5159707330020289 476.0 49.0 312.0 
646.000084666035 5835.0 NaN 1509.314629258518 0.5145670646245302 479.0 46.0 315.0 
648.0004334157189 5849.0 NaN 1515.4762859051443 0.5080804355522384 475.0 50.0 313.0 
650.0003335334031 5863.0 NaN 1518.4849699398806 0.5145366657458926 471.0 51.0 313.0 
652.0004334157189 5855.0 NaN 1515.5591182364726 0.5163330434492102 471.0 51.0 312.0 
654.0004334157189 5819.0 NaN 1515.4549098196383 0.5087254205840022 471.0 51.0 312.0 
656.000084666035 5828.0 NaN 1515.4736138944547 0.5112165776957697 475.0 46.0 317.0 
658.0004334157189 5842.0 NaN 1524.758851035403 0.5151764162422725 472.0 47.0 319.0 
660.0003335334031 5816.0 NaN 1530.8777555110212 0.5182387875129789 469.0 46.0 322.0 
662.0004334157189 5800.0 NaN 1530.8456913827647 0.519820703648898 476.0 41.0 327.0 
664.0004334157189 5786.0 NaN 1530.8002672010698 0.5111386851077854 477.0 41.0 327.0 
#####################################################################
# End of data export. Simulation finished at: 2019-03-06T05:10+0000 #
#####################################################################
