#####################################################################
# Alchemist log file - simulation started at: 2019-03-03T04:08+0000 #
#####################################################################
# seed = 1.0, bandwidth = 17782.79410038923, propagationDelay = 3.1622776601683795, baserange = 316.2277660168379
#
# The columns have the following meaning: 
# time neighbor_count[Sum] <value>@neighbor_count[Sum] packet_size[Mean] mean_delay[Mean] crowd[Sum] overcrowded[Sum] risk[Sum] 
0.0 NaN NaN NaN NaN NaN NaN NaN 
10.000417374280275 51288.0 NaN 4993.370741482966 1.5600127518959626 1495.0 2.0 1495.0 
20.00022434719928 51330.0 NaN 4993.271877087508 2.9262570361908593 1494.0 3.0 1494.0 
30.000417374280275 51413.0 NaN 4996.125584502338 1.5871009789096515 1494.0 3.0 1494.0 
40.00022434719928 51474.0 NaN 4996.112224448898 2.980302126700407 1494.0 3.0 1494.0 
50.000417374280275 51519.0 NaN 4993.319973279893 1.6351583827429945 1495.0 2.0 1495.0 
60.00022434719928 51554.0 NaN 4993.327989311957 3.028207360567773 1494.0 3.0 1494.0 
70.00041737428027 51651.0 NaN 1525.8810955243816 1.8625985002087115 603.0 2.0 364.0 
80.00041737428027 51673.0 NaN 1535.0514362057456 2.6885981276473485 551.0 2.0 367.0 
90.00041737428027 51725.0 NaN 1534.7762191048757 1.8318024461743392 536.0 2.0 367.0 
100.00041737428027 51706.0 NaN 1537.8196392785571 2.688402781984689 532.0 2.0 368.0 
110.00041737428027 51724.0 NaN 1538.012024048097 1.81088060535533 527.0 2.0 368.0 
120.00041737428027 51788.0 NaN 1541.1142284569148 2.6930257760876395 527.0 2.0 369.0 
130.0004173742803 51774.0 NaN 1540.8977955911816 1.821878329128936 528.0 2.0 369.0 
140.0004173742803 51769.0 NaN 1534.752171008682 2.7007460408731974 525.0 3.0 366.0 
150.0004173742803 51712.0 NaN 1550.3647294589182 1.8203020743641036 521.0 6.0 368.0 
160.0004173742803 51674.0 NaN 1541.1623246493 2.6928457290427152 519.0 6.0 365.0 
170.0004173742803 51599.0 NaN 1540.8871075484299 1.8473560360479104 519.0 5.0 366.0 
180.0004173742803 51542.0 NaN 1537.8517034068154 2.7198540006097818 523.0 6.0 364.0 
190.0004173742803 51368.0 NaN 1534.9659318637273 1.8639159656052207 517.0 6.0 363.0 
200.0004173742803 51297.0 NaN 1538.0627922511699 2.7373029090765426 514.0 6.0 364.0 
210.0004173742803 51165.0 NaN 1531.6873747495001 1.8412916872481266 512.0 6.0 362.0 
220.0004173742803 51091.0 NaN 1525.5470941883757 2.7035928800776894 513.0 6.0 360.0 
230.0004173742803 51019.0 NaN 1531.7755511022028 1.886313117875788 512.0 5.0 363.0 
240.0004173742803 51045.0 NaN 1528.7374749499 2.8017381655563387 510.0 5.0 362.0 
250.0004173742803 50971.0 NaN 1525.5096860387453 1.9064052860124647 509.0 5.0 361.0 
260.0004173742803 50948.0 NaN 1516.2591850367392 2.749113390444507 508.0 5.0 358.0 
270.0004173742803 50818.0 NaN 1528.7160988643973 1.8542419183519037 512.0 5.0 362.0 
280.0004173742803 50786.0 NaN 1528.6466265865067 2.773224852752175 511.0 5.0 362.0 
290.0004173742803 50644.0 NaN 1525.4134936539729 1.9561443523026356 509.0 5.0 361.0 
300.0004173742803 50488.0 NaN 1534.594522378091 2.7831511326397558 509.0 5.0 364.0 
310.0004173742803 50174.0 NaN 1531.7568470273886 1.9037411754407463 506.0 5.0 363.0 
320.0004173742803 50035.0 NaN 1525.6272545090183 2.7657422046238005 504.0 5.0 361.0 
330.0004173742803 49849.0 NaN 1543.890447561791 1.9082231241103491 505.0 5.0 367.0 
340.0004173742803 49734.0 NaN 1528.3820975283911 2.8039774721475594 503.0 6.0 361.0 
350.0004173742803 49609.0 NaN 1528.716098864397 1.9149537266113483 505.0 6.0 361.0 
360.0004173742803 49545.0 NaN 1519.436205744824 2.778217708596155 505.0 6.0 358.0 
370.0004173742803 49431.0 NaN 1513.0367401469612 1.9123684265259715 510.0 6.0 356.0 
380.0004173742803 49379.0 NaN 1500.694722778891 2.76772946718637 513.0 6.0 352.0 
390.0004173742803 49266.0 NaN 1507.1716766867073 1.885161415927771 511.0 6.0 354.0 
400.0004173742803 49183.0 NaN 1507.0781563126263 2.7697369850023503 514.0 3.0 357.0 
410.0004173742803 49095.0 NaN 1516.0855043420183 1.9317338849291736 521.0 2.0 361.0 
420.0004173742803 49095.0 NaN 1494.5891783567124 2.811243434508143 518.0 2.0 354.0 
430.0004173742803 48926.0 NaN 1507.1315965263852 1.9409479426982272 522.0 3.0 357.0 
440.0004173742803 48938.0 NaN 1519.382765531063 2.750992592649359 524.0 3.0 361.0 
450.0004173742803 48852.0 NaN 1540.7748830995333 1.9015881762034483 528.0 2.0 369.0 
460.0004173742803 48801.0 NaN 1543.8022712090844 2.8019033650571705 526.0 2.0 370.0 
470.0004173742803 48733.0 NaN 1540.8790915163659 1.9384689703178886 521.0 3.0 368.0 
480.0004173742803 48735.0 NaN 1525.4054776219095 2.741931691689026 516.0 3.0 363.0 
490.0004173742803 48768.0 NaN 1506.8029392117555 1.8580668929109958 514.0 4.0 356.0 
500.0004173742803 48834.0 NaN 1482.2872411489639 2.719568121438369 508.0 6.0 346.0 
510.0004173742803 48934.0 NaN 1494.8056112224456 1.914962730306208 516.0 3.0 353.0 
520.0004173742802 48932.0 NaN 1467.1957247828996 2.8159861599844027 513.0 2.0 345.0 
530.0004173742802 48946.0 NaN 1460.7775551102193 1.9305955039372837 512.0 2.0 343.0 
540.0004173742802 48973.0 NaN 1466.9792919171668 2.759396406141154 510.0 2.0 345.0 
550.0004173742802 48984.0 NaN 1479.385437541751 1.9269311756001428 515.0 2.0 349.0 
560.0004173742802 49053.0 NaN 1473.277221108884 2.8074472979476432 518.0 2.0 347.0 
570.0004173742802 49070.0 NaN 1488.464929859719 1.8881664499949955 517.0 3.0 351.0 
580.0004173742802 49206.0 NaN 1491.569806279226 2.7967222552147324 518.0 2.0 353.0 
590.0004173742802 49218.0 NaN 1500.919171676688 1.9732289380411234 526.0 2.0 356.0 
600.0004173742802 49281.0 NaN 1497.7287909151637 2.785935170285288 532.0 2.0 355.0 
610.0004173742802 49306.0 NaN 1516.154976619907 1.95162896933384 528.0 2.0 361.0 
620.0004173742802 49271.0 NaN 1519.2064128256523 2.803449799316852 528.0 2.0 362.0 
630.0004173742802 49218.0 NaN 1516.2885771543092 1.9268549609819756 526.0 2.0 361.0 
640.0004173742802 49191.0 NaN 1513.213092852372 2.8138836017096365 522.0 3.0 359.0 
650.0004173742802 49099.0 NaN 1516.299265197062 1.9124686719972936 524.0 3.0 360.0 
660.0004173742802 49107.0 NaN 1525.515030060119 2.809835342120973 518.0 2.0 364.0 
#####################################################################
# End of data export. Simulation finished at: 2019-03-03T04:26+0000 #
#####################################################################
