#####################################################################
# Alchemist log file - simulation started at: 2019-03-12T20:20+0000 #
#####################################################################
# seed = 6.0, bandwidth = 74989.42093324558, propagationDelay = 0.1, baserange = 562.341325190349
#
# The columns have the following meaning: 
# time neighbor_count[Sum] <value>@neighbor_count[Sum] packet_size[Mean] mean_delay[Mean] crowd[Sum] overcrowded[Sum] risk[Sum] 
0.0 NaN NaN NaN NaN NaN NaN NaN 
2.0013042135964882 97004.0 NaN 4994.704074816299 0.492539874375012 1497.0 0.0 1497.0 
4.001304213596488 98210.0 NaN 4993.50167000668 0.49814937688057426 1494.0 3.0 1494.0 
6.001304213596488 98210.0 NaN 4994.191048764195 0.49814432677510917 1494.0 3.0 1494.0 
8.001304213596487 98216.0 NaN 4994.436873747495 0.49816451354519486 1492.0 5.0 1492.0 
10.001304213596487 98226.0 NaN 4995.620574482298 0.4982186205813094 1495.0 2.0 1495.0 
12.001304213596487 98224.0 NaN 4995.233132932532 0.49813673630731514 1497.0 0.0 1497.0 
14.001304213596487 98225.0 NaN 4994.172344689378 0.49853338189934754 1496.0 1.0 1496.0 
16.001304213596487 98228.0 NaN 4994.380761523046 0.49934386107904677 1493.0 4.0 1493.0 
18.001304213596487 98268.0 NaN 4995.39879759519 0.49861321971837114 1495.0 2.0 1495.0 
20.001304213596487 98289.0 NaN 4995.588510354041 0.4983934745095486 1497.0 0.0 1497.0 
22.001304213596487 98290.0 NaN 4994.696058784235 0.49794447335940095 1497.0 0.0 1497.0 
24.001304213596487 98292.0 NaN 4994.506346025384 0.49853046964259384 1496.0 1.0 1496.0 
26.001304213596487 98325.0 NaN 4994.188376753507 0.5000363388146756 1493.0 4.0 1493.0 
28.001304213596487 98358.0 NaN 4995.056780227121 0.49966959795925386 1494.0 3.0 1494.0 
30.001304213596487 98366.0 NaN 4996.336673346694 0.49840604489973017 1497.0 0.0 1497.0 
32.001304213596484 98364.0 NaN 4994.712090848363 0.4979763965408189 1497.0 0.0 1497.0 
34.001304213596484 98375.0 NaN 4994.105544422177 0.49901798011769116 1496.0 1.0 1496.0 
36.001304213596484 98412.0 NaN 4994.733466933868 0.5005470333472293 1494.0 3.0 1494.0 
38.001304213596484 98455.0 NaN 4994.829659318637 0.5021757299605455 1494.0 3.0 1494.0 
40.001304213596484 98455.0 NaN 4995.858383433534 0.5022794578267459 1497.0 0.0 1497.0 
42.001304213596484 98443.0 NaN 4995.433533734135 0.4987312194530889 1497.0 0.0 1497.0 
44.001304213596484 98448.0 NaN 4994.140280561122 0.49884917409199847 1496.0 1.0 1496.0 
46.001304213596484 98493.0 NaN 4994.321977287909 0.5010891478836563 1493.0 4.0 1493.0 
48.001304213596484 98503.0 NaN 4995.2812291249165 0.5034742525669257 1495.0 2.0 1495.0 
50.001304213596484 98457.0 NaN 4995.583166332665 0.5018909213314916 1497.0 0.0 1497.0 
52.001304213596484 98438.0 NaN 4994.781563126253 0.49868062400266633 1497.0 0.0 1497.0 
54.001304213596484 98457.0 NaN 4994.639946559786 0.4988079636605657 1496.0 1.0 1496.0 
56.001304213596484 98552.0 NaN 4994.348697394789 0.500466133394189 1493.0 4.0 1493.0 
58.001304213596484 98567.0 NaN 4995.019372077489 0.5036989324330826 1494.0 3.0 1494.0 
60.001304213596484 98556.0 NaN 4996.192384769539 0.5013256578872142 1497.0 0.0 1497.0 
62.00052329078077 98588.0 NaN 1525.7314629258522 0.4965913183730532 785.0 4.0 362.0 
64.00052329078076 98613.0 NaN 1525.541750167 0.5008967113107866 619.0 9.0 357.0 
66.00052329078075 98661.0 NaN 1525.5444221776904 0.50127005267404 573.0 10.0 356.0 
68.00052329078075 98676.0 NaN 1528.6786907147637 0.5040683917642359 540.0 12.0 355.0 
70.00052329078075 98653.0 NaN 1528.7641950567813 0.5049405002711259 524.0 12.0 355.0 
72.00052329078075 98666.0 NaN 1528.7374749499 0.5028290322699395 521.0 12.0 355.0 
74.00052329078075 98670.0 NaN 1531.6980627922514 0.5012544911645256 519.0 12.0 356.0 
76.00052329078075 98729.0 NaN 1534.7521710086821 0.5018732875224109 519.0 12.0 357.0 
78.00052329078075 98735.0 NaN 1534.7708750835 0.5022107832034968 521.0 8.0 361.0 
80.00052329078075 98718.0 NaN 1534.86706746827 0.5013770123403107 518.0 11.0 358.0 
82.00052329078075 98744.0 NaN 1534.8911155644635 0.5008124298282199 516.0 13.0 356.0 
84.00052329078075 98749.0 NaN 1537.9372077488304 0.5008630289956515 518.0 11.0 359.0 
86.00052329078075 98769.0 NaN 1537.862391449564 0.5008734629693924 517.0 9.0 361.0 
88.00052329078075 98783.0 NaN 1537.8517034068152 0.5027088615988664 519.0 7.0 363.0 
90.00052329078075 98759.0 NaN 1537.907815631264 0.502678040436686 517.0 11.0 359.0 
92.00052329078075 98795.0 NaN 1537.8944555778212 0.5018577566427256 515.0 13.0 357.0 
94.00052329078075 98792.0 NaN 1537.862391449564 0.5015657737039403 517.0 11.0 359.0 
96.00052329078075 98806.0 NaN 1537.8463593854362 0.5030495973625324 519.0 9.0 361.0 
98.00052329078075 98802.0 NaN 1541.007348029391 0.5060113781443839 521.0 7.0 364.0 
100.00052329078075 98726.0 NaN 1541.0447561790247 0.5026368588875851 517.0 10.0 361.0 
102.00052329078075 98751.0 NaN 1540.9913159652635 0.5029850882232476 518.0 9.0 362.0 
104.00052329078075 98738.0 NaN 1540.943219772879 0.5008252190452948 519.0 7.0 364.0 
106.00052329078075 98766.0 NaN 1537.8490313961267 0.5011788071196517 520.0 6.0 364.0 
108.00052329078075 98786.0 NaN 1540.9619238476937 0.5021371493701181 521.0 6.0 365.0 
110.00052329078075 98805.0 NaN 1541.039412157648 0.5019166172751294 521.0 7.0 364.0 
112.00052329078075 98832.0 NaN 1541.028724114897 0.502666136749549 519.0 9.0 362.0 
114.00052329078075 98808.0 NaN 1540.943219772879 0.5018185157207075 521.0 8.0 363.0 
116.00052329078075 98826.0 NaN 1544.0 0.5027695098946183 521.0 9.0 363.0 
118.00052329078075 98819.0 NaN 1540.9352037408155 0.5022638436398693 523.0 7.0 364.0 
120.00052329078075 98814.0 NaN 1540.9886439545753 0.5019754669656145 521.0 9.0 362.0 
122.00052329078075 98817.0 NaN 1540.9592518370089 0.501402514860591 516.0 14.0 357.0 
124.00052329078075 98810.0 NaN 1540.9672678690727 0.5009432324172182 519.0 11.0 360.0 
126.00052329078075 98805.0 NaN 1537.8997995991997 0.5011188881433819 521.0 9.0 361.0 
128.00052329078076 98809.0 NaN 1537.8917835671364 0.5019784101930905 521.0 8.0 362.0 
130.00052329078076 98808.0 NaN 1537.9158316633275 0.5009548331380952 516.0 12.0 358.0 
132.00052329078076 98829.0 NaN 1537.8837675350699 0.5015390527653265 512.0 14.0 356.0 
134.00052329078076 98824.0 NaN 1537.8383433533725 0.5023902957194522 514.0 11.0 359.0 
136.00052329078076 98815.0 NaN 1534.7361389445548 0.502504909130872 514.0 9.0 360.0 
138.00052329078076 98823.0 NaN 1534.8109552438207 0.5025231167422007 515.0 8.0 361.0 
140.00052329078076 98832.0 NaN 1534.901803607215 0.5024695482131083 509.0 12.0 357.0 
142.00052329078076 98804.0 NaN 1537.945223780894 0.5013702248227238 507.0 14.0 356.0 
144.00052329078076 98799.0 NaN 1540.9592518370087 0.5012373720941165 509.0 11.0 360.0 
146.00052329078076 98796.0 NaN 1540.9752839011364 0.5013782843395213 512.0 9.0 362.0 
148.00052329078076 98828.0 NaN 1544.0320641282547 0.5016065628053127 515.0 8.0 364.0 
150.00052329078076 98843.0 NaN 1544.0721442885763 0.5017201617915861 511.0 12.0 360.0 
152.00052329078076 98814.0 NaN 1550.209752839009 0.501745276016724 510.0 14.0 360.0 
154.00052329078076 98805.0 NaN 1540.9886439545753 0.5021585083298149 514.0 11.0 360.0 
156.00052329078076 98813.0 NaN 1537.8891115564454 0.501942404824222 515.0 10.0 360.0 
158.00052329078076 98841.0 NaN 1537.9291917167664 0.502344438535516 516.0 9.0 361.0 
160.00052329078076 98840.0 NaN 1537.9986639946549 0.5021398237781416 511.0 11.0 359.0 
162.00052329078076 98818.0 NaN 1541.0420841683363 0.5013406464193192 510.0 12.0 359.0 
164.00052329078076 98816.0 NaN 1540.919171676688 0.5018504981635579 510.0 13.0 358.0 
166.00052329078076 98796.0 NaN 1537.8436873747485 0.5015580687322504 510.0 12.0 358.0 
168.00052329078076 98810.0 NaN 1541.002004008018 0.5020730514918181 513.0 8.0 363.0 
170.00052329078076 98787.0 NaN 1540.999331997327 0.5016576982140957 511.0 10.0 361.0 
172.00052329078076 98755.0 NaN 1540.964595858382 0.5014458926376163 512.0 10.0 361.0 
174.00052329078076 98755.0 NaN 1537.8329993319976 0.5025832401355975 509.0 11.0 359.0 
176.00052329078076 98735.0 NaN 1537.8517034068157 0.5019951928861647 506.0 15.0 355.0 
178.00052329078076 98749.0 NaN 1540.9619238476935 0.5021553003146232 505.0 16.0 355.0 
180.00052329078076 98742.0 NaN 1541.0100200400818 0.502311270292077 505.0 15.0 356.0 
182.00052329078076 98738.0 NaN 1540.9806279225115 0.5029677673449343 509.0 11.0 360.0 
184.00052329078076 98738.0 NaN 1540.9592518370089 0.5037143190475188 507.0 12.0 359.0 
186.00052329078076 98694.0 NaN 1537.81696726787 0.5023182245773335 508.0 10.0 360.0 
188.00052329078076 98700.0 NaN 1534.7922511690058 0.5017643841929266 506.0 11.0 358.0 
190.00052329078076 98671.0 NaN 1534.8430193720787 0.5023120729688795 502.0 15.0 354.0 
192.00052329078076 98632.0 NaN 1534.8082832331334 0.5027343813465335 502.0 16.0 353.0 
194.00052329078076 98628.0 NaN 1537.8971275885092 0.504213380706955 503.0 15.0 355.0 
196.00052329078076 98570.0 NaN 1537.9131596526363 0.5021146417513839 508.0 11.0 359.0 
198.00052329078076 98568.0 NaN 1537.9398797595181 0.5018380408391228 507.0 12.0 358.0 
200.00052329078076 98556.0 NaN 1537.9345357381428 0.501841294248056 509.0 10.0 360.0 
202.00052329078076 98523.0 NaN 1537.907815631264 0.5022279729966288 509.0 11.0 359.0 
204.00052329078076 98530.0 NaN 1537.8463593854362 0.5045381982696339 504.0 15.0 355.0 
206.00052329078076 98501.0 NaN 1534.8243152972614 0.5035305376372091 502.0 16.0 353.0 
208.00052329078076 98503.0 NaN 1534.888443553773 0.5039214700868804 498.0 16.0 353.0 
210.00052329078076 98474.0 NaN 1534.9926519706091 0.5028511008231532 502.0 12.0 357.0 
212.00052329078076 98461.0 NaN 1534.8376753507 0.5026869620545591 502.0 13.0 356.0 
214.00052329078076 98469.0 NaN 1534.7575150300609 0.5031403377520496 504.0 11.0 358.0 
216.00052329078076 98455.0 NaN 1528.5798263193062 0.5043749820375142 504.0 14.0 353.0 
218.00052329078076 98418.0 NaN 1528.6225784903154 0.5040672987386362 501.0 15.0 352.0 
220.00052329078076 98393.0 NaN 1528.662658650636 0.5043503934463636 501.0 15.0 352.0 
222.00052329078076 98351.0 NaN 1522.5410821643277 0.5039611624015571 503.0 13.0 352.0 
224.00052329078076 98410.0 NaN 1522.492985971945 0.50240790648101 507.0 9.0 356.0 
226.00052329078076 98428.0 NaN 1528.5931863727455 0.5024618071170891 505.0 11.0 356.0 
228.00052329078076 98417.0 NaN 1534.7869071476273 0.5032794764508326 505.0 10.0 359.0 
230.00052329078076 98402.0 NaN 1534.8563794255183 0.5033405309383034 503.0 11.0 358.0 
232.00052329078076 98363.0 NaN 1534.7815631262545 0.5012123020802448 502.0 12.0 357.0 
234.00052329078076 98367.0 NaN 1534.7334669338663 0.5019182409846514 502.0 13.0 356.0 
236.00052329078076 98353.0 NaN 1537.8036072144273 0.5024097969824729 501.0 13.0 357.0 
238.00052329078076 98360.0 NaN 1537.8757515030065 0.502659431573072 506.0 9.0 361.0 
240.00052329078076 98340.0 NaN 1534.8216432865727 0.5028424043145946 503.0 11.0 358.0 
242.00052329078076 98286.0 NaN 1534.7628590514364 0.5018424078022712 504.0 10.0 359.0 
244.00052329078076 98290.0 NaN 1531.615230460921 0.5020295854031648 503.0 11.0 357.0 
246.00052329078076 98272.0 NaN 1528.5076820307272 0.5038476537431855 502.0 12.0 355.0 
248.00052329078076 98272.0 NaN 1528.5637942551757 0.5051616323169504 501.0 13.0 354.0 
250.00052329078076 98210.0 NaN 1522.514362057448 0.5031635052650554 499.0 13.0 352.0 
252.00052329078076 98165.0 NaN 1522.5571142284566 0.5029550843271657 501.0 9.0 356.0 
254.00052329078076 98150.0 NaN 1522.4662658650636 0.5033423023815922 500.0 11.0 354.0 
256.00052329078073 98123.0 NaN 1522.3861055444213 0.50360406673842 502.0 9.0 356.0 
258.0005232907808 98095.0 NaN 1519.361389445557 0.5027052445294518 503.0 11.0 353.0 
260.0005232907808 98044.0 NaN 1516.3420173680702 0.502706154726831 501.0 12.0 351.0 
262.0005232907808 98001.0 NaN 1516.3420173680702 0.5026116231109969 500.0 13.0 350.0 
264.0005232907808 97983.0 NaN 1519.3961255845004 0.5031795321919487 502.0 13.0 351.0 
266.0005232907808 97942.0 NaN 1522.5170340681366 0.5045699346658392 506.0 9.0 356.0 
268.0005232907808 97923.0 NaN 1531.7087508350023 0.5048137552380579 502.0 11.0 357.0 
270.0005232907808 97886.0 NaN 1531.6927187708745 0.5053037903808495 503.0 9.0 359.0 
272.0005232907808 97822.0 NaN 1531.71409485638 0.5050495031276196 501.0 11.0 357.0 
274.0005232907808 97792.0 NaN 1528.5637942551753 0.5028945975324138 499.0 12.0 355.0 
276.0005232907808 97779.0 NaN 1528.5851703406818 0.5037704661313609 498.0 13.0 354.0 
278.0005232907808 97749.0 NaN 1531.6499665998658 0.5048697265100488 499.0 13.0 355.0 
280.0005232907808 97723.0 NaN 1531.695390781564 0.5057068023894552 507.0 9.0 359.0 
282.0005232907808 97678.0 NaN 1534.7788911155635 0.5023151173656155 504.0 11.0 358.0 
284.0005232907808 97670.0 NaN 1534.6800267201093 0.5031095952892507 505.0 9.0 360.0 
286.0005232907808 97619.0 NaN 1531.6366065464274 0.5031001965026755 502.0 11.0 357.0 
288.0005232907808 97603.0 NaN 1525.4909819639272 0.5040546596220905 501.0 12.0 354.0 
290.0005232907808 97553.0 NaN 1525.5203740814975 0.5040862508541635 501.0 13.0 353.0 
292.0005232907808 97479.0 NaN 1525.5150300601183 0.5018733599628002 502.0 12.0 354.0 
294.0005232907808 97478.0 NaN 1522.471609886439 0.5033491229528476 506.0 8.0 357.0 
296.0005232907808 97455.0 NaN 1522.4181696726794 0.5053118656138367 503.0 10.0 355.0 
298.0005232907808 97428.0 NaN 1531.682030728125 0.504141138935993 502.0 9.0 359.0 
300.0005232907808 97403.0 NaN 1534.8109552438202 0.5064583964207819 499.0 11.0 358.0 
302.0005232907808 97336.0 NaN 1534.792251169006 0.5048435851039962 498.0 12.0 357.0 
304.0005232907808 97338.0 NaN 1525.5577822311272 0.5026577061883803 497.0 13.0 353.0 
306.0005232907808 97290.0 NaN 1525.5203740814977 0.5033755494108513 496.0 12.0 354.0 
308.0005232907808 97257.0 NaN 1531.6847027388092 0.5035913004947065 495.0 13.0 355.0 
310.0005232907808 97233.0 NaN 1534.8109552438202 0.5037991288279177 495.0 13.0 356.0 
312.0005232907808 97175.0 NaN 1534.7441549766183 0.503496527657352 495.0 13.0 356.0 
314.0005232907808 97148.0 NaN 1534.7788911155635 0.5039206470210186 495.0 13.0 356.0 
316.0005232907808 97085.0 NaN 1531.6232464929844 0.5053318232434828 498.0 13.0 355.0 
318.0005232907808 97035.0 NaN 1531.6740146960574 0.5057365194834902 494.0 13.0 355.0 
320.0005232907808 96950.0 NaN 1531.7060788243157 0.5047321065844778 494.0 13.0 355.0 
322.0005232907808 96886.0 NaN 1534.8109552438207 0.5017050654455516 494.0 13.0 356.0 
324.0005232907808 96909.0 NaN 1534.7575150300609 0.5041486760448004 494.0 13.0 356.0 
326.0005232907808 96853.0 NaN 1537.88376753507 0.5045423885003992 494.0 13.0 357.0 
328.0005232907808 96825.0 NaN 1537.8810955243816 0.5044118067738408 493.0 13.0 357.0 
330.0005232907808 96777.0 NaN 1534.8590514362063 0.5052399924265174 495.0 13.0 356.0 
332.0005232907808 96685.0 NaN 1534.794923179691 0.5022462628077561 496.0 13.0 356.0 
334.0005232907808 96679.0 NaN 1534.7334669338663 0.5043854293948585 497.0 13.0 356.0 
336.0005232907808 96622.0 NaN 1525.5657982631913 0.5062431126183781 498.0 13.0 353.0 
338.0005232907808 96575.0 NaN 1531.7568470273884 0.5068153539464255 498.0 13.0 355.0 
340.0005232907808 96535.0 NaN 1525.6219104876425 0.5040105468626084 497.0 13.0 353.0 
342.0005232907808 96491.0 NaN 1522.5811623246484 0.5025075358522755 494.0 13.0 352.0 
344.0005232907808 96500.0 NaN 1519.404141616566 0.5038937021748999 494.0 13.0 351.0 
346.0005232907808 96448.0 NaN 1519.4388777555098 0.504275983060036 497.0 13.0 351.0 
348.0005232907808 96434.0 NaN 1522.3647294589182 0.5041975521399658 501.0 13.0 352.0 
350.0005232907808 96398.0 NaN 1522.4261857047431 0.504424620056115 499.0 13.0 352.0 
352.0005232907808 96357.0 NaN 1522.5036740146968 0.5043687613763346 498.0 13.0 352.0 
354.0005232907808 96337.0 NaN 1522.471609886439 0.5042802560674066 497.0 13.0 352.0 
356.0005232907808 96295.0 NaN 1522.5384101536395 0.5044953464846315 497.0 13.0 352.0 
358.0005232907808 96270.0 NaN 1522.5036740146968 0.5057268469693037 500.0 13.0 352.0 
360.0005232907808 96225.0 NaN 1528.5744822979277 0.5057582874155304 500.0 13.0 354.0 
362.0005232907808 96166.0 NaN 1525.5123580494333 0.5038446375313714 503.0 13.0 353.0 
364.0005232907808 96174.0 NaN 1525.4829659318634 0.5042867943738816 503.0 13.0 353.0 
366.0005232907808 96163.0 NaN 1519.2919171676697 0.5059406697142294 503.0 13.0 351.0 
368.0005232907808 96126.0 NaN 1516.2912491649972 0.5064042030749119 503.0 13.0 350.0 
370.0005232907808 96051.0 NaN 1513.271877087509 0.5053816548162106 505.0 13.0 349.0 
372.0005232907808 96049.0 NaN 1513.274549098197 0.5063526109240934 504.0 13.0 349.0 
374.0005232907808 96062.0 NaN 1513.1649966599878 0.5048573058575141 504.0 13.0 349.0 
376.0005232907808 96005.0 NaN 1506.9392117568464 0.505082114026831 503.0 13.0 347.0 
378.0005232907808 95970.0 NaN 1510.0734802939205 0.5052685006584321 506.0 13.0 348.0 
380.0005232907808 95911.0 NaN 1510.1322645290575 0.504264572614312 506.0 13.0 348.0 
382.0005232907808 95879.0 NaN 1516.3259853039424 0.5030703976479213 506.0 13.0 350.0 
384.0005232907808 95883.0 NaN 1522.5090180360728 0.5038257986882857 508.0 13.0 352.0 
386.0005232907808 95837.0 NaN 1519.4255177020718 0.5039188439912703 509.0 13.0 351.0 
388.0005232907808 95823.0 NaN 1528.6225784903152 0.5039942362655463 510.0 13.0 354.0 
390.0005232907808 95766.0 NaN 1525.5043420173668 0.5023940410397477 509.0 13.0 353.0 
392.0005232907808 95745.0 NaN 1522.3807615230453 0.5020227053041622 510.0 13.0 352.0 
394.0005232907808 95747.0 NaN 1516.2885771543092 0.5030537458573325 511.0 12.0 351.0 
396.0005232907808 95730.0 NaN 1510.255177020709 0.5036360490720171 511.0 12.0 349.0 
398.0005232907808 95696.0 NaN 1510.2471609886447 0.5037733139451632 511.0 12.0 349.0 
400.0005232907808 95673.0 NaN 1513.290581162325 0.5041150378812919 510.0 12.0 350.0 
402.0005232907808 95628.0 NaN 1519.3720774883093 0.5034092684321707 512.0 12.0 352.0 
404.0005232907808 95640.0 NaN 1525.4509018036085 0.503964040320396 512.0 13.0 353.0 
406.0005232907808 95618.0 NaN 1525.541750167 0.5076362178767176 511.0 13.0 353.0 
408.0005232907808 95612.0 NaN 1522.3941215764878 0.5099689539598962 512.0 13.0 352.0 
410.0005232907808 95522.0 NaN 1525.568470273882 0.5112857848198139 510.0 13.0 353.0 
412.0005232907808 95415.0 NaN 1534.8002672010698 0.5059200688870165 512.0 13.0 356.0 
414.0005232907808 95424.0 NaN 1537.8062792251178 0.50321920052422 513.0 13.0 357.0 
416.0005232907808 95415.0 NaN 1531.6713426853723 0.5028794814778035 513.0 13.0 355.0 
418.0005232907808 95453.0 NaN 1528.5103540414177 0.5047095454160391 512.0 13.0 354.0 
420.0005232907808 95428.0 NaN 1531.6285905143632 0.5050573245532033 514.0 13.0 355.0 
422.0005232907808 95351.0 NaN 1525.507014028055 0.5044217883836832 518.0 13.0 353.0 
424.0005232907808 95324.0 NaN 1513.2638610554447 0.5024576946334716 516.0 12.0 350.0 
426.0005232907808 95326.0 NaN 1516.4622578490303 0.5023288106699619 511.0 13.0 350.0 
428.0005232907808 95341.0 NaN 1513.2317969271885 0.5044189636431636 509.0 10.0 352.0 
430.0005232907808 95329.0 NaN 1513.1943887775544 0.5045678206550335 513.0 8.0 354.0 
432.0005232907808 95254.0 NaN 1510.0868403473626 0.5039674875422999 513.0 8.0 353.0 
434.0005232907808 95240.0 NaN 1513.1703406813635 0.5060356258605543 512.0 9.0 353.0 
436.0005232907808 95251.0 NaN 1528.595858383434 0.5090019459981945 520.0 7.0 360.0 
438.0005232907808 95249.0 NaN 1534.7708750835 0.5047891686279593 522.0 8.0 361.0 
440.0005232907808 95197.0 NaN 1534.7869071476275 0.5041401015132961 519.0 11.0 358.0 
442.0005232907808 95137.0 NaN 1531.6740146960574 0.5015869785254251 517.0 13.0 355.0 
444.0005232907808 95165.0 NaN 1531.6045424181702 0.5038079538800839 520.0 10.0 358.0 
446.0005232907808 95149.0 NaN 1543.8851035404152 0.5038439420184985 524.0 8.0 364.0 
448.0005232907808 95152.0 NaN 1550.0841683366725 0.5030676089783784 525.0 8.0 366.0 
450.0005232907808 95123.0 NaN 1543.983967935873 0.504341139923816 521.0 11.0 361.0 
452.0005232907808 95119.0 NaN 1547.123580494321 0.5054924718232805 518.0 12.0 361.0 
454.0005232907808 95154.0 NaN 1547.163660654643 0.5047203115688113 520.0 10.0 363.0 
456.0005232907808 95138.0 NaN 1553.2291249165 0.5040448833616239 521.0 8.0 367.0 
458.0005232907808 95119.0 NaN 1553.1863727454906 0.5028981407136813 521.0 8.0 367.0 
460.0005232907808 95112.0 NaN 1550.0601202404819 0.5029645634672743 518.0 11.0 363.0 
462.0005232907808 95089.0 NaN 1550.0814963259845 0.502190485582401 518.0 12.0 362.0 
464.0005232907808 95139.0 NaN 1550.1028724114908 0.5039300096866784 520.0 10.0 364.0 
466.0005232907808 95128.0 NaN 1544.018704074818 0.505130463733989 520.0 8.0 364.0 
468.0005232907808 95119.0 NaN 1540.9592518370089 0.5081731199472226 519.0 8.0 363.0 
470.0005232907808 95074.0 NaN 1534.8109552438207 0.506148843254853 516.0 11.0 358.0 
472.0005232907808 95025.0 NaN 1534.7575150300609 0.5018365178494526 515.0 12.0 357.0 
474.0005232907808 95085.0 NaN 1531.6339345357367 0.5035109229878938 516.0 10.0 358.0 
476.0005232907808 95092.0 NaN 1525.4989979959907 0.5042644858463957 512.0 8.0 358.0 
478.0005232907808 95098.0 NaN 1525.4749498998 0.5035306092846646 512.0 8.0 358.0 
480.0005232907808 95079.0 NaN 1525.541750167 0.5029049607624279 508.0 11.0 355.0 
482.0005232907808 95071.0 NaN 1525.5497661990635 0.5012504642195962 507.0 12.0 354.0 
484.0005232907808 95149.0 NaN 1522.420841683366 0.5034979862308657 509.0 10.0 355.0 
486.0005232907808 95176.0 NaN 1513.2424849699391 0.5044940634103554 511.0 8.0 354.0 
488.0005232907808 95187.0 NaN 1506.995323981297 0.5041720878881002 507.0 8.0 352.0 
490.0005232907808 95167.0 NaN 1500.961923847694 0.5036288816025454 504.0 10.0 348.0 
492.0005232907808 95149.0 NaN 1500.9405477621908 0.5043365579919984 500.0 11.0 347.0 
494.0005232907808 95159.0 NaN 1494.7922511690056 0.5053019130989169 500.0 10.0 346.0 
496.0005232907808 95157.0 NaN 1494.853707414829 0.5051151537443097 499.0 8.0 348.0 
498.0005232907808 95154.0 NaN 1491.727454909819 0.5042364928570313 502.0 7.0 348.0 
500.0005232907808 95125.0 NaN 1491.7755511022033 0.5036549288648763 500.0 10.0 345.0 
502.0005232907808 95130.0 NaN 1497.873079492318 0.5027797601981314 502.0 12.0 345.0 
504.0005232907808 95142.0 NaN 1491.647294589179 0.5046394574780153 503.0 11.0 344.0 
506.0005232907808 95133.0 NaN 1497.9158316633273 0.5045103330921586 504.0 11.0 346.0 
508.0005232907808 95123.0 NaN 1501.0073480293916 0.5025625871610173 507.0 11.0 347.0 
510.0005232907808 95128.0 NaN 1494.9498997996 0.5033607846566528 506.0 12.0 344.0 
512.0005232907808 95122.0 NaN 1497.9318637274544 0.5045952510759757 506.0 12.0 345.0 
514.0005232907808 95158.0 NaN 1494.786907147628 0.5066157548320732 506.0 12.0 344.0 
516.0005232907808 95115.0 NaN 1476.3126252505003 0.5035486885628415 503.0 12.0 338.0 
518.0005232907808 95143.0 NaN 1479.4388777555102 0.5031149172010777 501.0 12.0 339.0 
520.0005232907808 95161.0 NaN 1479.4655978623907 0.503840359085057 501.0 12.0 339.0 
522.0005232907808 95157.0 NaN 1479.5323981295917 0.5048828831109086 501.0 12.0 339.0 
524.0005232907808 95202.0 NaN 1467.1636606546435 0.5083922255161257 497.0 12.0 335.0 
526.0005232907808 95185.0 NaN 1460.9939879759525 0.5063176005402127 496.0 12.0 333.0 
528.0005232907808 95209.0 NaN 1467.1102204408817 0.5058674670704619 498.0 12.0 335.0 
530.0005232907808 95236.0 NaN 1464.0053440213755 0.5078773991039597 503.0 12.0 334.0 
532.0005232907808 95223.0 NaN 1467.1369405477628 0.5035117544358267 501.0 12.0 335.0 
534.0005232907808 95243.0 NaN 1470.19906479626 0.5053940286377794 500.0 12.0 336.0 
536.0005232907808 95295.0 NaN 1467.1289245156988 0.5051448523726297 499.0 12.0 335.0 
538.0005232907808 95317.0 NaN 1470.295257181028 0.5022777298689888 503.0 12.0 336.0 
540.0005232907808 95332.0 NaN 1473.3306613226455 0.5033333795957957 501.0 12.0 337.0 
542.0005232907808 95344.0 NaN 1470.2124248497 0.5055968606690137 502.0 12.0 336.0 
544.0005232907808 95354.0 NaN 1470.1723446893793 0.5052290944112466 502.0 11.0 337.0 
546.0005232907808 95377.0 NaN 1470.19906479626 0.5048865468289133 503.0 11.0 337.0 
548.0005232907808 95373.0 NaN 1473.282565130261 0.5032351318637461 505.0 11.0 338.0 
550.0005232907808 95361.0 NaN 1473.2505010020034 0.5043587737898649 505.0 11.0 338.0 
552.0005232907808 95356.0 NaN 1473.2317969271883 0.5027086887625747 506.0 11.0 338.0 
554.0005232907808 95402.0 NaN 1473.2718770875088 0.503031274192332 506.0 11.0 338.0 
556.0005232907808 95503.0 NaN 1464.0106880427525 0.5037678892046356 504.0 11.0 335.0 
558.0005232907808 95548.0 NaN 1460.943219772879 0.5029264945204269 502.0 11.0 334.0 
560.0005232907808 95565.0 NaN 1464.0374081496327 0.5036349308250843 501.0 11.0 335.0 
562.0005232907808 95536.0 NaN 1460.964595858383 0.5030520030526616 500.0 11.0 334.0 
564.0005232907808 95574.0 NaN 1460.99665998664 0.5047230422894837 496.0 11.0 334.0 
566.0005232907808 95599.0 NaN 1467.2491649966603 0.5059531829500556 499.0 11.0 336.0 
568.0005232907808 95552.0 NaN 1476.4408817635274 0.5041021510447824 501.0 11.0 339.0 
570.0005232907808 95557.0 NaN 1476.3927855711424 0.5041872130143554 504.0 11.0 339.0 
572.0005232907808 95528.0 NaN 1476.3099532398128 0.5070544118890533 507.0 11.0 339.0 
574.0005232907808 95532.0 NaN 1482.4689378757519 0.5109839266954503 508.0 11.0 341.0 
576.0005232907808 95490.0 NaN 1491.778223112892 0.5088156345666265 511.0 11.0 344.0 
578.0005232907808 95387.0 NaN 1488.7401469605886 0.5043409062247113 510.0 11.0 343.0 
580.0005232907808 95425.0 NaN 1485.6379425517707 0.5040321891570995 509.0 11.0 342.0 
582.0005232907808 95424.0 NaN 1488.6813627254517 0.50469607766729 510.0 11.0 343.0 
584.0005232907808 95445.0 NaN 1488.601202404809 0.50626764006503 510.0 11.0 343.0 
586.0005232907808 95428.0 NaN 1491.6820307281241 0.5071755725319728 511.0 11.0 344.0 
588.0005232907808 95437.0 NaN 1497.8249832999343 0.5075685880781676 512.0 11.0 346.0 
590.0005232907808 95432.0 NaN 1500.9752839011362 0.5048062542099833 513.0 11.0 347.0 
592.0005232907808 95414.0 NaN 1500.9645958583828 0.5032131034385902 512.0 11.0 347.0 
594.0005232907808 95430.0 NaN 1500.9138276553101 0.5037380443443787 514.0 11.0 347.0 
596.0005232907808 95446.0 NaN 1497.8276553106205 0.5055620688165142 517.0 11.0 346.0 
598.0005232907808 95448.0 NaN 1494.7575150300606 0.5075790359094575 517.0 11.0 345.0 
600.0005232907808 95387.0 NaN 1497.8329993319978 0.5037143466255911 515.0 12.0 345.0 
602.0005232907808 95442.0 NaN 1497.8329993319978 0.5035323120672144 515.0 11.0 346.0 
604.0005232907808 95450.0 NaN 1494.7040748162997 0.5038274218368497 520.0 8.0 348.0 
606.0005232907808 95483.0 NaN 1494.8162992651976 0.5030569285916004 520.0 8.0 348.0 
608.0005232907808 95492.0 NaN 1500.9726118904468 0.5037021250047697 519.0 8.0 350.0 
610.0005232907808 95464.0 NaN 1500.9939879759525 0.5040524290381669 517.0 8.0 350.0 
612.0005232907808 95495.0 NaN 1500.8737474949905 0.5037086457015044 514.0 8.0 350.0 
614.0005232907808 95526.0 NaN 1503.882431529727 0.5040473790745897 515.0 8.0 351.0 
616.0005232907808 95545.0 NaN 1503.9545758183024 0.5057428398169247 517.0 8.0 351.0 
618.0005232907808 95564.0 NaN 1513.1943887775544 0.5046514271898191 517.0 8.0 354.0 
620.0005232907808 95532.0 NaN 1510.2044088176362 0.5049997132442747 515.0 8.0 353.0 
622.0005232907808 95525.0 NaN 1513.3119572478286 0.5034632663836078 516.0 8.0 354.0 
624.0005232907808 95551.0 NaN 1516.309953239812 0.5026884009349433 518.0 8.0 355.0 
626.0005232907808 95560.0 NaN 1519.4201736806938 0.5030152458982394 515.0 8.0 356.0 
628.0005232907808 95567.0 NaN 1519.4308617234465 0.5044751939725118 514.0 8.0 356.0 
630.0005232907808 95527.0 NaN 1516.382097528391 0.5036134886110843 512.0 9.0 354.0 
632.0005232907808 95511.0 NaN 1510.2444889779554 0.5038874440533068 510.0 10.0 351.0 
634.0005232907808 95522.0 NaN 1516.3794255177013 0.507459014989555 508.0 9.0 354.0 
636.0005232907808 95453.0 NaN 1510.1830327321302 0.5085732940962618 512.0 8.0 353.0 
638.0005232907808 95419.0 NaN 1513.2692050768194 0.5062100766526911 513.0 8.0 354.0 
640.0005232907808 95375.0 NaN 1513.3466933867728 0.5076140240209748 515.0 8.0 354.0 
642.0005232907808 95360.0 NaN 1507.1636606546435 0.5068417070054123 515.0 8.0 352.0 
644.0005232907808 95359.0 NaN 1510.2872411489639 0.5089210471806412 513.0 8.0 353.0 
646.0005232907808 95235.0 NaN 1516.5050100200394 0.5044677074284972 513.0 8.0 355.0 
648.0005232907808 95212.0 NaN 1516.443553774216 0.5040507629796706 512.0 8.0 355.0 
650.0005232907808 95226.0 NaN 1516.4275217100878 0.5037779921219812 512.0 8.0 355.0 
652.0005232907808 95242.0 NaN 1516.3740814963264 0.5048213372036812 511.0 8.0 355.0 
654.0005232907808 95282.0 NaN 1516.3580494321989 0.5051012023609536 510.0 8.0 355.0 
656.0005232907808 95310.0 NaN 1534.8697394789576 0.5047644834427045 511.0 8.0 361.0 
658.0005232907808 95321.0 NaN 1541.047428189712 0.5060593297364333 511.0 8.0 363.0 
660.0005232907808 95277.0 NaN 1544.090848363393 0.5022020050180777 509.0 8.0 364.0 
662.0005232907808 95332.0 NaN 1544.0988643954565 0.5054886852759971 509.0 8.0 364.0 
664.0005232907808 95362.0 NaN 1544.0267201068807 0.5071537810973159 505.0 8.0 364.0 
#####################################################################
# End of data export. Simulation finished at: 2019-03-12T20:58+0000 #
#####################################################################
