#####################################################################
# Alchemist log file - simulation started at: 2019-03-21T12:33+0000 #
#####################################################################
# seed = 9.0, bandwidth = 5623413.251903491, propagationDelay = 0.1, baserange = 1000.0
#
# The columns have the following meaning: 
# time neighbor_count[Sum] <value>@neighbor_count[Sum] packet_size[Mean] mean_delay[Mean] crowd[Sum] overcrowded[Sum] risk[Sum] 
0.0 NaN NaN NaN NaN NaN NaN NaN 
2.000207564768536 208722.0 NaN 4995.048764195057 0.49750372665583575 1496.0 1.0 1496.0 
4.000207564768536 210022.0 NaN 4993.758183032732 0.5005635172873347 1495.0 2.0 1495.0 
6.000207564768536 210022.0 NaN 4994.0334001336005 0.5005633426060748 1493.0 4.0 1493.0 
8.000207564768536 210022.0 NaN 4994.655978623914 0.5005632505192793 1494.0 3.0 1494.0 
10.000207564768536 210024.0 NaN 4995.949231796927 0.5005622415207864 1496.0 1.0 1496.0 
12.000207564768536 210024.0 NaN 4995.185036740147 0.5005623814645619 1496.0 1.0 1496.0 
14.000207564768536 210027.0 NaN 4994.287241148964 0.5005660511920956 1495.0 2.0 1495.0 
16.000207564768537 210040.0 NaN 4994.383433533734 0.5005826227021531 1496.0 1.0 1496.0 
18.000207564768537 210071.0 NaN 4995.4148296593185 0.5008270047109067 1495.0 2.0 1495.0 
20.000207564768537 210090.0 NaN 4995.981295925184 0.500880149084173 1494.0 3.0 1494.0 
22.000207564768537 210092.0 NaN 4994.800267201069 0.5007845359246874 1496.0 1.0 1496.0 
24.000207564768537 210092.0 NaN 4994.444889779559 0.5006466513237883 1495.0 2.0 1495.0 
26.000207564768537 210099.0 NaN 4994.378089512358 0.5007815189380792 1496.0 1.0 1496.0 
28.000207564768537 210111.0 NaN 4995.404141616566 0.5007679899319416 1496.0 1.0 1496.0 
30.000207564768537 210143.0 NaN 4996.537074148297 0.5007758752860262 1497.0 0.0 1497.0 
32.00020756476854 210186.0 NaN 4994.746826987308 0.5008385443686575 1496.0 1.0 1496.0 
34.00020756476854 210182.0 NaN 4993.9692718770875 0.5009944065828241 1496.0 1.0 1496.0 
36.00020756476854 210173.0 NaN 4994.482297929192 0.5006786407910354 1494.0 3.0 1494.0 
38.00020756476854 210218.0 NaN 4995.094188376754 0.5010328827777398 1496.0 1.0 1496.0 
40.00020756476854 210239.0 NaN 4996.36873747495 0.5010179641969776 1496.0 1.0 1496.0 
42.00020756476854 210279.0 NaN 4995.551102204408 0.5008244715695599 1496.0 1.0 1496.0 
44.00020756476854 210281.0 NaN 4994.233800935203 0.5007169916228265 1496.0 1.0 1496.0 
46.00020756476854 210289.0 NaN 4994.311289245157 0.5006602657786301 1496.0 1.0 1496.0 
48.00020756476854 210307.0 NaN 4995.2678690714765 0.5012561921894818 1494.0 3.0 1494.0 
50.00020756476854 210337.0 NaN 4995.959919839679 0.5012853135017521 1494.0 3.0 1494.0 
52.00020756476854 210338.0 NaN 4994.936539746159 0.5009182230659445 1496.0 1.0 1496.0 
54.00020756476854 210337.0 NaN 4994.589178356713 0.5007427453502726 1496.0 1.0 1496.0 
56.00020756476854 210342.0 NaN 4994.602538410154 0.5008403732939577 1496.0 1.0 1496.0 
58.00020756476854 210363.0 NaN 4995.2545090180365 0.50163499917964 1496.0 1.0 1496.0 
60.00020756476854 210396.0 NaN 4996.374081496326 0.5015418106432938 1495.0 2.0 1495.0 
62.00033744596142 210328.0 NaN 1522.6639946559792 0.501233771053074 781.0 2.0 363.0 
64.00033744596142 210291.0 NaN 1522.4983299933185 0.5010930867562412 636.0 5.0 360.0 
66.00033744596142 210285.0 NaN 1522.5597862391458 0.5011283943790605 576.0 6.0 359.0 
68.00033744596142 210306.0 NaN 1525.7181028724112 0.5015013004571682 546.0 6.0 360.0 
70.00033744596142 210330.0 NaN 1525.8410153640632 0.5011943909401962 532.0 6.0 360.0 
72.00033744596142 210344.0 NaN 1525.6913827655303 0.5012085199188502 527.0 6.0 360.0 
74.00033744596142 210311.0 NaN 1531.7702070808273 0.5012025914723244 524.0 6.0 362.0 
76.00033744596142 210304.0 NaN 1534.7628590514364 0.5009862042626766 527.0 6.0 363.0 
78.00033744596142 210319.0 NaN 1534.8269873079485 0.5009248783062477 525.0 6.0 363.0 
80.00033744596142 210380.0 NaN 1534.9739478957908 0.5012768120007536 523.0 6.0 363.0 
82.00033744596142 210355.0 NaN 1534.936539746158 0.5009891049634682 523.0 6.0 363.0 
84.00033744596142 210342.0 NaN 1538.0467601870394 0.5008932697477447 523.0 6.0 364.0 
86.00033744596142 210369.0 NaN 1537.9692718770877 0.5010847601498187 521.0 6.0 364.0 
88.00033744596142 210411.0 NaN 1537.902471609888 0.5010259086166793 522.0 6.0 364.0 
90.00033744596142 210489.0 NaN 1537.9104876419515 0.5011830350131712 521.0 7.0 363.0 
92.00033744596142 210457.0 NaN 1537.9265197060793 0.5009548037097179 521.0 7.0 363.0 
94.00033744596142 210448.0 NaN 1537.9158316633273 0.5008310586983861 521.0 6.0 364.0 
96.00033744596142 210469.0 NaN 1537.9986639946549 0.5009717551953892 522.0 6.0 364.0 
98.00033744596142 210513.0 NaN 1538.1055444221788 0.5009625234766318 522.0 6.0 364.0 
100.00033744596142 210627.0 NaN 1538.0093520374091 0.5010249655681922 521.0 7.0 363.0 
102.00033744596142 210610.0 NaN 1541.0527722110905 0.5008389379775201 520.0 8.0 363.0 
104.00033744596142 210614.0 NaN 1540.9485637942544 0.5008438320048314 520.0 7.0 364.0 
106.00033744596142 210623.0 NaN 1540.9378757515026 0.5009796541317076 520.0 7.0 364.0 
108.00033744596142 210636.0 NaN 1541.0020040080178 0.500894887776082 519.0 7.0 364.0 
110.00033744596142 210694.0 NaN 1541.167668670673 0.5010336213057739 520.0 7.0 364.0 
112.00033744596142 210677.0 NaN 1541.1970607882452 0.5012122297564049 520.0 6.0 365.0 
114.00033744596142 210663.0 NaN 1541.0501002003998 0.5008455933399316 521.0 6.0 365.0 
116.00033744596142 210682.0 NaN 1547.169004676018 0.5009979301426255 521.0 7.0 366.0 
118.00033744596142 210663.0 NaN 1550.1482965931848 0.5009306980934377 521.0 8.0 366.0 
120.00033744596142 210659.0 NaN 1550.236472945891 0.5013018652792858 522.0 7.0 367.0 
122.00033744596142 210659.0 NaN 1550.2765531062118 0.5009446962103645 524.0 6.0 368.0 
124.00033744596142 210662.0 NaN 1550.2818971275885 0.5009510592775737 524.0 6.0 368.0 
126.00033744596142 210679.0 NaN 1547.326653306612 0.5010660256498041 524.0 6.0 367.0 
128.0003374459614 210668.0 NaN 1547.238476953909 0.5011350881960043 524.0 6.0 367.0 
130.0003374459614 210674.0 NaN 1544.2271209084818 0.5011817213968323 524.0 6.0 366.0 
132.0003374459614 210691.0 NaN 1544.0908483633937 0.500977590191869 524.0 6.0 366.0 
134.0003374459614 210692.0 NaN 1540.9752839011364 0.5009688112938194 523.0 6.0 365.0 
136.0003374459614 210698.0 NaN 1544.1042084168334 0.5012708665952286 519.0 6.0 366.0 
138.0003374459614 210686.0 NaN 1544.1870407481638 0.5010461246215245 520.0 6.0 366.0 
140.0003374459614 210717.0 NaN 1544.3660654642636 0.5011164109321471 520.0 6.0 366.0 
142.0003374459614 210724.0 NaN 1541.1810287241153 0.5010364905546795 518.0 6.0 365.0 
144.0003374459614 210725.0 NaN 1541.1088844355365 0.501021243463414 518.0 6.0 365.0 
146.0003374459614 210736.0 NaN 1544.0828323313274 0.5010692459341348 517.0 6.0 366.0 
148.0003374459614 210735.0 NaN 1544.0774883099543 0.5012336652078129 517.0 6.0 366.0 
150.0003374459614 210738.0 NaN 1538.0895123580485 0.5014172099452512 517.0 6.0 364.0 
152.0003374459614 210744.0 NaN 1538.11623246493 0.5013570438750666 517.0 6.0 364.0 
154.0003374459614 210719.0 NaN 1538.1670006680029 0.5009803327340172 518.0 6.0 364.0 
156.0003374459614 210718.0 NaN 1534.9579158316637 0.5010633493047362 520.0 6.0 363.0 
158.0003374459614 210734.0 NaN 1534.952571810288 0.501049756481695 515.0 6.0 363.0 
160.0003374459614 210759.0 NaN 1534.9392117568455 0.5012645981209528 515.0 6.0 363.0 
162.0003374459614 210752.0 NaN 1534.9151636606543 0.5011001117595202 515.0 6.0 363.0 
164.0003374459614 210736.0 NaN 1541.074148296591 0.5009967073280263 515.0 6.0 365.0 
166.0003374459614 210734.0 NaN 1541.1222444889788 0.5011864889074662 516.0 6.0 365.0 
168.0003374459614 210739.0 NaN 1544.3099532398119 0.501012468508694 517.0 6.0 366.0 
170.0003374459614 210758.0 NaN 1544.2511690046754 0.5009638410000772 519.0 6.0 366.0 
172.0003374459614 210741.0 NaN 1541.1169004676 0.5009365036802477 518.0 6.0 365.0 
174.0003374459614 210734.0 NaN 1537.9185036740155 0.500824190081164 517.0 6.0 364.0 
176.0003374459614 210737.0 NaN 1537.9505678022726 0.5009542654597651 517.0 6.0 364.0 
178.0003374459614 210748.0 NaN 1541.0901803607208 0.5011240068652235 517.0 6.0 365.0 
180.0003374459614 210763.0 NaN 1535.0541082164336 0.5010879309531343 518.0 6.0 363.0 
182.0003374459614 210749.0 NaN 1532.0774883099543 0.5010910066637443 518.0 5.0 363.0 
184.0003374459614 210732.0 NaN 1534.9873079492336 0.5009145538414856 517.0 5.0 364.0 
186.0003374459614 210730.0 NaN 1531.8770875083483 0.5009607197950707 515.0 5.0 363.0 
188.0003374459614 210738.0 NaN 1528.7267869071457 0.501040180769669 515.0 5.0 362.0 
190.0003374459614 210746.0 NaN 1528.7989311957247 0.5012360012549426 515.0 5.0 362.0 
192.0003374459614 210731.0 NaN 1531.9305277221092 0.5010450709001203 514.0 5.0 363.0 
194.0003374459614 210718.0 NaN 1531.9492317969275 0.5012622202405085 514.0 5.0 363.0 
196.0003374459614 210696.0 NaN 1532.0133600534393 0.5013440861494735 514.0 5.0 363.0 
198.0003374459614 210692.0 NaN 1531.9038076152299 0.5012902416993397 515.0 5.0 363.0 
200.0003374459614 210693.0 NaN 1535.043420173682 0.5010710846240007 516.0 5.0 364.0 
202.0003374459614 210792.0 NaN 1538.0253841015365 0.5010589913826522 516.0 5.0 365.0 
204.0003374459614 210782.0 NaN 1538.0120240480974 0.5010901088610451 515.0 5.0 365.0 
206.0003374459614 210775.0 NaN 1538.052104208418 0.5009990640028812 514.0 5.0 365.0 
208.0003374459614 210785.0 NaN 1538.0814963259847 0.5012545932985037 512.0 5.0 365.0 
210.0003374459614 210787.0 NaN 1538.1963927855725 0.5011077419880375 512.0 5.0 365.0 
212.0003374459614 210849.0 NaN 1534.9739478957908 0.5010577883273217 514.0 5.0 364.0 
214.0003374459614 210842.0 NaN 1534.9205076820301 0.501044774912426 514.0 5.0 364.0 
216.0003374459614 210842.0 NaN 1534.8697394789574 0.5013703266112918 511.0 5.0 364.0 
218.0003374459614 210858.0 NaN 1534.8964595858367 0.502050253478506 512.0 5.0 364.0 
220.0003374459614 210846.0 NaN 1538.1082164328639 0.5011858260047848 512.0 6.0 364.0 
222.0003374459614 210862.0 NaN 1534.9979959919822 0.5011188787718076 513.0 6.0 363.0 
224.0003374459614 210830.0 NaN 1535.0407481629913 0.5009928988464752 511.0 6.0 363.0 
226.0003374459614 210832.0 NaN 1534.9498997996 0.5008467451232634 512.0 6.0 363.0 
228.0003374459614 210857.0 NaN 1534.9418837675362 0.5011731636776158 510.0 6.0 363.0 
230.0003374459614 210869.0 NaN 1534.9659318637273 0.5012582105017808 509.0 6.0 363.0 
232.0003374459614 210912.0 NaN 1538.052104208418 0.5012757766385398 508.0 6.0 364.0 
234.0003374459614 210876.0 NaN 1541.119572478291 0.5009543144000923 509.0 6.0 365.0 
236.0003374459614 210878.0 NaN 1541.164996659988 0.5009653965583887 509.0 6.0 365.0 
238.0003374459614 210924.0 NaN 1541.2264529058116 0.5013029129927358 509.0 6.0 365.0 
240.0003374459614 210910.0 NaN 1531.9198396793574 0.5014037958899669 511.0 6.0 362.0 
242.0003374459614 210962.0 NaN 1531.8450233800936 0.5010369936697788 511.0 5.0 363.0 
244.0003374459614 210967.0 NaN 1531.732798931197 0.5011707166383319 511.0 5.0 363.0 
246.0003374459614 210964.0 NaN 1531.7702070808273 0.5010785399948815 511.0 5.0 363.0 
248.0003374459614 210988.0 NaN 1531.8610554442212 0.5011055185882476 511.0 5.0 363.0 
250.0003374459614 210999.0 NaN 1531.9171676686724 0.5012144650841046 511.0 5.0 363.0 
252.0003374459614 210991.0 NaN 1535.0380761523063 0.5011941634391038 511.0 5.0 364.0 
254.0003374459614 210991.0 NaN 1534.8937875751517 0.5012451984822954 512.0 5.0 364.0 
256.0003374459614 210985.0 NaN 1531.7461589846364 0.5012739134325428 512.0 5.0 363.0 
258.0003374459614 210992.0 NaN 1531.7034068136272 0.5011604076598647 513.0 5.0 363.0 
260.0003374459614 211008.0 NaN 1528.7267869071459 0.5015984328832415 512.0 5.0 362.0 
262.0003374459614 210987.0 NaN 1531.8450233800936 0.5013292670256309 512.0 5.0 363.0 
264.0003374459614 211010.0 NaN 1534.8857715430852 0.5012367009179336 511.0 5.0 364.0 
266.0003374459614 210993.0 NaN 1538.014696058784 0.5011889807733976 511.0 5.0 365.0 
268.0003374459614 211054.0 NaN 1534.8911155644635 0.5013218227704564 513.0 4.0 365.0 
270.0003374459614 211173.0 NaN 1528.7909151636609 0.5019227131882756 512.0 4.0 363.0 
272.0003374459614 211139.0 NaN 1541.031396125584 0.5012305827096949 513.0 4.0 367.0 
274.0003374459614 211142.0 NaN 1537.9291917167661 0.5013133906949288 514.0 5.0 365.0 
276.0003374459614 211121.0 NaN 1541.0153640614546 0.5012243263313534 514.0 5.0 366.0 
278.0003374459614 211140.0 NaN 1541.0207080828338 0.5014088763598991 513.0 5.0 366.0 
280.0003374459614 211176.0 NaN 1538.0440881763545 0.5015404927420954 513.0 5.0 365.0 
282.0003374459614 211137.0 NaN 1537.9772879091524 0.5015345687016113 513.0 5.0 365.0 
284.0003374459614 211129.0 NaN 1537.8971275885092 0.5012191378614268 513.0 5.0 365.0 
286.0003374459614 211104.0 NaN 1537.824983299934 0.5012862754193471 512.0 5.0 365.0 
288.0003374459614 211091.0 NaN 1534.8029392117546 0.5014206365755429 512.0 5.0 364.0 
290.0003374459614 211093.0 NaN 1531.7862391449548 0.5016782167633917 510.0 5.0 363.0 
292.0003374459614 211094.0 NaN 1531.8022712090842 0.5012680331109909 509.0 5.0 363.0 
294.0003374459614 211073.0 NaN 1531.8423513694065 0.5013083760669147 508.0 5.0 363.0 
296.0003374459614 211018.0 NaN 1531.7595190380755 0.5013955974061289 508.0 5.0 363.0 
298.0003374459614 211009.0 NaN 1534.8483633934547 0.5011681343392866 508.0 5.0 364.0 
300.0003374459614 211037.0 NaN 1531.7648630594545 0.5015283619138453 507.0 5.0 363.0 
302.0003374459614 211013.0 NaN 1528.6867067468274 0.501901584814203 506.0 5.0 362.0 
304.0003374459614 210989.0 NaN 1528.6199064796272 0.5012930900471964 506.0 5.0 362.0 
306.0003374459614 210956.0 NaN 1531.7087508350028 0.5014042009103337 505.0 5.0 363.0 
308.0003374459614 210936.0 NaN 1534.8830995323997 0.5012240427832139 505.0 5.0 364.0 
310.0003374459614 210991.0 NaN 1531.8690714762847 0.5013725882691231 503.0 6.0 362.0 
312.0003374459614 211006.0 NaN 1525.6619906479636 0.501498624503419 502.0 6.0 360.0 
314.0003374459614 210999.0 NaN 1528.5958583834338 0.5013463699246051 504.0 6.0 361.0 
316.0003374459614 210954.0 NaN 1528.627922511691 0.5010982293175321 503.0 6.0 361.0 
318.0003374459614 210968.0 NaN 1528.6386105544427 0.5011716497177312 504.0 6.0 361.0 
320.0003374459614 211000.0 NaN 1534.8830995324 0.5015756580868738 505.0 5.0 364.0 
322.0003374459614 210979.0 NaN 1534.8911155644635 0.5012532810414504 504.0 5.0 364.0 
324.0003374459614 210989.0 NaN 1531.7755511022028 0.5013823469948391 505.0 5.0 363.0 
326.0003374459614 210943.0 NaN 1531.732798931197 0.5012705149287632 505.0 5.0 363.0 
328.0003374459614 210926.0 NaN 1531.772879091518 0.5012279096020443 504.0 5.0 363.0 
330.0003374459614 210909.0 NaN 1531.8744154976634 0.5013517468487699 503.0 5.0 363.0 
332.0003374459614 210877.0 NaN 1531.7889111556456 0.500974739887911 503.0 5.0 363.0 
334.0003374459614 210895.0 NaN 1531.7354709418819 0.5016117805188399 503.0 5.0 363.0 
336.0003374459614 210821.0 NaN 1531.7140948563797 0.5011612853165505 504.0 5.0 363.0 
338.0003374459614 210797.0 NaN 1534.789579158318 0.5010812303220046 505.0 5.0 364.0 
340.0003374459614 210811.0 NaN 1537.9452237808937 0.5011195298941344 507.0 5.0 365.0 
342.0003374459614 210786.0 NaN 1534.8243152972614 0.5008955271844726 507.0 5.0 364.0 
344.0003374459614 210803.0 NaN 1531.735470941882 0.5014241816625024 507.0 5.0 363.0 
346.0003374459614 210752.0 NaN 1525.6085504342004 0.5009689538581432 505.0 5.0 361.0 
348.0003374459614 210734.0 NaN 1528.6626586506356 0.50098704299643 508.0 5.0 362.0 
350.0003374459614 210741.0 NaN 1531.828991315964 0.5013639326631868 510.0 6.0 362.0 
352.0003374459614 210703.0 NaN 1531.7434869739477 0.500902710208546 510.0 6.0 362.0 
354.0003374459614 210740.0 NaN 1525.520374081497 0.5012659925475695 509.0 6.0 360.0 
356.0003374459614 210726.0 NaN 1528.6065464261849 0.5009564578044693 508.0 6.0 361.0 
358.0003374459614 210730.0 NaN 1528.6760187040732 0.501335241736755 510.0 6.0 361.0 
360.0003374459614 210677.0 NaN 1528.790915163661 0.5019259881154335 511.0 6.0 361.0 
362.0003374459614 210597.0 NaN 1528.7508350033393 0.5009056090045835 512.0 6.0 361.0 
364.0003374459614 210633.0 NaN 1528.649298597194 0.5014498002284017 512.0 6.0 361.0 
366.0003374459614 210603.0 NaN 1525.5016700066815 0.5013510496723288 512.0 6.0 360.0 
368.0003374459614 210597.0 NaN 1522.4555778223098 0.5015691839231238 512.0 6.0 359.0 
370.0003374459614 210538.0 NaN 1516.384769539079 0.5020002157281571 509.0 6.0 357.0 
372.0003374459614 210387.0 NaN 1510.241816967267 0.5012792382053308 510.0 6.0 355.0 
374.0003374459614 210378.0 NaN 1510.161656646627 0.501555013087725 510.0 6.0 355.0 
376.0003374459614 210349.0 NaN 1513.2291249165 0.5013278960644733 511.0 6.0 356.0 
378.0003374459614 210358.0 NaN 1513.3199732798919 0.5016405887043547 513.0 6.0 356.0 
380.0003374459614 210322.0 NaN 1510.316633266534 0.501976136415685 514.0 6.0 355.0 
382.0003374459614 210228.0 NaN 1510.2979291917175 0.5028074274815395 514.0 6.0 355.0 
384.0003374459614 210207.0 NaN 1510.1857047428182 0.50169637054292 514.0 6.0 355.0 
386.0003374459614 210177.0 NaN 1513.2825651302612 0.5013746519337905 514.0 6.0 356.0 
388.0003374459614 210192.0 NaN 1516.400801603207 0.5016498879610845 515.0 6.0 357.0 
390.0003374459614 210181.0 NaN 1522.6292585170356 0.5019493876321647 516.0 6.0 359.0 
392.0003374459614 210112.0 NaN 1516.5023380093526 0.501477290291842 516.0 6.0 357.0 
394.0003374459614 210113.0 NaN 1519.4949899799608 0.5017944350169833 516.0 6.0 358.0 
396.0003374459614 210091.0 NaN 1519.4602538410159 0.5015874719670869 517.0 5.0 359.0 
398.0003374459614 210096.0 NaN 1516.366065464263 0.5020371916689106 516.0 5.0 358.0 
400.0003374459614 210082.0 NaN 1513.4161656646636 0.5018353077523777 514.0 6.0 356.0 
402.0003374459614 210058.0 NaN 1513.432197728791 0.501254757496778 515.0 6.0 356.0 
404.0003374459614 210086.0 NaN 1510.2765531062116 0.5015383251047062 516.0 6.0 355.0 
406.0003374459614 210074.0 NaN 1519.5030060120248 0.5014022561772127 517.0 5.0 359.0 
408.0003374459614 210095.0 NaN 1519.5217100868394 0.5020700892069673 518.0 5.0 359.0 
410.0003374459614 210085.0 NaN 1519.5778223112902 0.501741437637564 518.0 6.0 358.0 
412.0003374459614 210038.0 NaN 1525.7341349365395 0.5012219227725536 518.0 6.0 360.0 
414.0003374459614 210064.0 NaN 1528.7134268537086 0.5015791607321669 519.0 6.0 361.0 
416.0003374459614 210038.0 NaN 1522.5410821643277 0.5012369132632317 518.0 6.0 359.0 
418.0003374459614 210066.0 NaN 1522.535738142954 0.5019941840588605 515.0 6.0 359.0 
420.0003374459614 210048.0 NaN 1513.466933867736 0.5013994123213585 513.0 6.0 356.0 
422.0003374459614 210032.0 NaN 1519.556446225784 0.5011663535488596 512.0 6.0 358.0 
424.0003374459614 210073.0 NaN 1510.2685370741474 0.5014767866208416 515.0 6.0 355.0 
426.0003374459614 210039.0 NaN 1513.3333333333342 0.5016185925736395 515.0 6.0 356.0 
428.0003374459614 210013.0 NaN 1531.839679358718 0.502125819959105 516.0 6.0 362.0 
430.0003374459614 209984.0 NaN 1534.912491649966 0.5015088227685207 520.0 6.0 363.0 
432.0003374459614 209935.0 NaN 1534.8323313293265 0.5014294178762918 521.0 6.0 363.0 
434.0003374459614 209973.0 NaN 1534.8804275217092 0.5018033758808792 522.0 5.0 364.0 
436.0003374459614 209975.0 NaN 1531.8236472945903 0.5014859459168195 522.0 5.0 363.0 
438.0003374459614 209968.0 NaN 1531.7889111556453 0.5018065626119439 523.0 5.0 363.0 
440.0003374459614 209974.0 NaN 1534.904475617902 0.5015157062027167 523.0 6.0 363.0 
442.0003374459614 209941.0 NaN 1544.0801603206426 0.5014940486970092 524.0 6.0 366.0 
444.0003374459614 210002.0 NaN 1544.0908483633934 0.5021015273415803 524.0 6.0 366.0 
446.0003374459614 209924.0 NaN 1534.8243152972614 0.502239753631755 525.0 6.0 363.0 
448.0003374459614 209887.0 NaN 1541.015364061455 0.5016789706994291 526.0 5.0 366.0 
450.0003374459614 209894.0 NaN 1544.1229124916517 0.5014583462540095 526.0 5.0 367.0 
452.0003374459614 209886.0 NaN 1547.1529726118908 0.501367745079397 525.0 5.0 368.0 
454.0003374459614 209905.0 NaN 1553.3066132264544 0.501656409664358 524.0 6.0 369.0 
456.0003374459614 209883.0 NaN 1550.193720774882 0.5019096742527746 525.0 6.0 368.0 
458.0003374459614 209868.0 NaN 1550.2070808283243 0.5020300635304226 523.0 6.0 368.0 
460.0003374459614 209867.0 NaN 1553.3092852371426 0.5019013803531142 522.0 6.0 369.0 
462.0003374459614 209804.0 NaN 1550.263193052773 0.5013102649714478 524.0 5.0 369.0 
464.0003374459614 209829.0 NaN 1550.215096860388 0.5018927171169482 525.0 5.0 369.0 
466.0003374459614 209798.0 NaN 1553.2932531730119 0.5017079377799303 526.0 5.0 370.0 
468.0003374459614 209794.0 NaN 1544.0801603206426 0.502097876774944 524.0 6.0 366.0 
470.0003374459614 209758.0 NaN 1541.092852371409 0.5019374259739293 523.0 5.0 366.0 
472.0003374459614 209685.0 NaN 1541.0501002003998 0.501327904008658 524.0 4.0 367.0 
474.0003374459614 209719.0 NaN 1528.6412825651296 0.5020132918807922 520.0 4.0 363.0 
476.0003374459614 209666.0 NaN 1528.7241148964608 0.5014535347987494 517.0 4.0 363.0 
478.0003374459614 209709.0 NaN 1528.710754843018 0.5016728875479413 515.0 4.0 363.0 
480.0003374459614 209700.0 NaN 1528.7989311957251 0.5013983050788161 514.0 4.0 363.0 
482.0003374459614 209678.0 NaN 1528.6973947895797 0.5011121552549525 515.0 4.0 363.0 
484.0003374459614 209735.0 NaN 1522.5250501002 0.5018307897360831 515.0 4.0 361.0 
486.0003374459614 209699.0 NaN 1516.4034736138938 0.5014118708254022 513.0 4.0 359.0 
488.0003374459614 209727.0 NaN 1507.177020708082 0.5015645479268174 512.0 4.0 356.0 
490.0003374459614 209744.0 NaN 1504.2297929191725 0.501343186907215 512.0 4.0 355.0 
492.0003374459614 209709.0 NaN 1504.1255845023372 0.501203720241308 508.0 4.0 355.0 
494.0003374459614 209755.0 NaN 1501.0313961255838 0.5015867714918117 509.0 4.0 354.0 
496.0003374459614 209712.0 NaN 1497.950567802272 0.5015242742451236 511.0 4.0 353.0 
498.0003374459614 209737.0 NaN 1491.839679358718 0.5014559857330775 510.0 4.0 351.0 
500.0003374459614 209730.0 NaN 1491.9278557114237 0.5014248263078893 509.0 4.0 351.0 
502.0003374459614 209687.0 NaN 1488.7935871743477 0.5010993452570487 510.0 4.0 350.0 
504.0003374459614 209714.0 NaN 1494.9579158316637 0.5017125036993004 513.0 4.0 352.0 
506.0003374459614 209661.0 NaN 1494.9445557782244 0.5016708279867793 512.0 4.0 352.0 
508.0003374459614 209689.0 NaN 1498.0146960587836 0.5013399777530267 511.0 4.0 353.0 
510.0003374459614 209694.0 NaN 1501.1623246492993 0.5016935414481717 510.0 4.0 354.0 
512.0003374459613 209629.0 NaN 1494.9632598530386 0.5014415624950296 508.0 4.0 352.0 
514.0003374459613 209632.0 NaN 1494.928523714094 0.5015305676729 508.0 4.0 352.0 
516.0003374459613 209667.0 NaN 1494.9231796927181 0.5018355196958005 508.0 4.0 352.0 
518.0003374459613 209697.0 NaN 1485.7207748831 0.5017844297355771 508.0 4.0 349.0 
520.0003374459613 209675.0 NaN 1482.7094188376745 0.5016761464319904 507.0 4.0 348.0 
522.0003374459613 209605.0 NaN 1476.513026052103 0.5014035761643701 507.0 4.0 346.0 
524.0003374459613 209632.0 NaN 1476.4943219772888 0.5015870045969494 508.0 4.0 346.0 
526.0003374459613 209711.0 NaN 1470.3674014696069 0.5017902218531701 503.0 4.0 344.0 
528.0003374459613 209722.0 NaN 1464.2538410153636 0.5017976693317917 509.0 4.0 342.0 
530.0003374459613 209702.0 NaN 1464.2244488977967 0.5015948429350259 512.0 4.0 342.0 
532.0003374459613 209647.0 NaN 1473.504342017367 0.5013226169723568 511.0 5.0 344.0 
534.0003374459613 209662.0 NaN 1473.4375417501665 0.5015216673951335 510.0 5.0 344.0 
536.0003374459613 209688.0 NaN 1473.4081496325991 0.5016178330098099 509.0 5.0 344.0 
538.0003374459613 209700.0 NaN 1470.2658650634608 0.5015243218242716 509.0 5.0 343.0 
540.0003374459613 209809.0 NaN 1470.3219772879092 0.5017398824008492 510.0 5.0 343.0 
542.0003374459613 209738.0 NaN 1470.3326653306624 0.501459440245569 510.0 5.0 343.0 
544.0003374459613 209742.0 NaN 1467.281229124917 0.5023210069358399 509.0 5.0 342.0 
546.0003374459613 209708.0 NaN 1467.3346693386784 0.5016633128996485 508.0 5.0 342.0 
548.0003374459613 209722.0 NaN 1470.30861723447 0.5017026678627143 511.0 5.0 343.0 
550.0003374459613 209761.0 NaN 1470.3460253841008 0.5016131527142932 511.0 5.0 343.0 
552.0003374459613 209708.0 NaN 1470.2792251169 0.5013487990459974 512.0 5.0 343.0 
554.0003374459613 209724.0 NaN 1467.1850367401462 0.5018315243167655 512.0 5.0 342.0 
556.0003374459613 209714.0 NaN 1464.1389445557788 0.5020160026903993 510.0 5.0 341.0 
558.0003374459613 209767.0 NaN 1467.198396793588 0.5017728314416775 509.0 5.0 342.0 
560.0003374459613 209771.0 NaN 1458.1108884435541 0.5015788815332778 507.0 5.0 339.0 
562.0003374459613 209725.0 NaN 1461.1008684034732 0.5012684914836256 503.0 5.0 340.0 
564.0003374459613 209746.0 NaN 1464.1523046092182 0.5014948946106473 507.0 5.0 341.0 
566.0003374459613 209766.0 NaN 1464.1068804275212 0.5015589279035273 508.0 5.0 341.0 
568.0003374459613 209831.0 NaN 1473.362725450901 0.5016390748695145 510.0 5.0 344.0 
570.0003374459613 209829.0 NaN 1476.5023380093523 0.5013999329332538 509.0 5.0 345.0 
572.0003374459613 209795.0 NaN 1485.7314629258526 0.501667906185176 510.0 5.0 348.0 
574.0003374459613 209783.0 NaN 1485.7661990647969 0.5013840484818588 509.0 5.0 348.0 
576.0003374459613 209810.0 NaN 1488.822979291918 0.5018419114671221 511.0 5.0 349.0 
578.0003374459613 209864.0 NaN 1485.6913827655303 0.5015689404399791 511.0 5.0 348.0 
580.0003374459613 209915.0 NaN 1488.7428189712748 0.5019454318518078 511.0 5.0 349.0 
582.0003374459613 209887.0 NaN 1488.7828991315969 0.5018890852809086 511.0 5.0 349.0 
584.0003374459613 209836.0 NaN 1485.7181028724108 0.5015638446555281 511.0 5.0 348.0 
586.0003374459613 209854.0 NaN 1488.8149632598536 0.5017705699778795 515.0 5.0 349.0 
588.0003374459613 209884.0 NaN 1488.7935871743475 0.5018122785784123 514.0 5.0 349.0 
590.0003374459613 209910.0 NaN 1491.8370073480285 0.501506094810376 516.0 4.0 351.0 
592.0003374459613 209885.0 NaN 1497.9398797595184 0.5016877220638625 520.0 3.0 354.0 
594.0003374459613 209873.0 NaN 1488.6813627254517 0.5012873610135953 520.0 5.0 349.0 
596.0003374459613 209930.0 NaN 1485.6726786907152 0.5014978506864965 518.0 5.0 348.0 
598.0003374459613 209993.0 NaN 1485.65130260521 0.5016860838604351 518.0 5.0 348.0 
600.0003374459613 209996.0 NaN 1488.7348029392108 0.5015585735035453 520.0 3.0 351.0 
602.0003374459613 209994.0 NaN 1497.9799599198384 0.501682268167107 520.0 5.0 352.0 
604.0003374459613 209972.0 NaN 1497.9318637274544 0.501391922427018 519.0 5.0 352.0 
606.0003374459613 210005.0 NaN 1494.9018036072152 0.5014642681717655 521.0 5.0 351.0 
608.0003374459613 210030.0 NaN 1494.845691382765 0.5014767821269753 516.0 6.0 350.0 
610.0003374459613 210053.0 NaN 1494.9018036072152 0.50221147529422 517.0 5.0 351.0 
612.0003374459613 210004.0 NaN 1497.9746158984635 0.5023923215257526 518.0 5.0 352.0 
614.0003374459613 209936.0 NaN 1501.0367401469616 0.5015267202249296 518.0 6.0 352.0 
616.0003374459613 209949.0 NaN 1507.2732130928534 0.5017631047577108 521.0 5.0 355.0 
618.0003374459613 209970.0 NaN 1516.384769539079 0.5016434753026938 519.0 5.0 358.0 
620.0003374459613 209981.0 NaN 1516.3954575818293 0.5020376987881365 519.0 5.0 358.0 
622.0003374459613 209960.0 NaN 1513.2665330661334 0.501644141357356 520.0 5.0 357.0 
624.0003374459613 209959.0 NaN 1516.3820975283911 0.5016960044642962 519.0 6.0 357.0 
626.0003374459613 209962.0 NaN 1522.6746826987303 0.5014787853946806 518.0 6.0 359.0 
628.0003374459613 210028.0 NaN 1522.6265865063453 0.5017940712118869 515.0 6.0 359.0 
630.0003374459613 209999.0 NaN 1522.677354709418 0.5015811821114737 520.0 5.0 360.0 
632.0003374459613 209981.0 NaN 1522.551770207082 0.5015541456978316 519.0 5.0 360.0 
634.0003374459613 209989.0 NaN 1519.4789579158307 0.5016415167098871 523.0 5.0 359.0 
636.0003374459613 210008.0 NaN 1519.4549098196385 0.5014872251595807 523.0 6.0 358.0 
638.0003374459613 210035.0 NaN 1519.4762859051446 0.5016581876634081 523.0 6.0 358.0 
640.0003374459613 210021.0 NaN 1516.539746158984 0.5014382821439448 523.0 5.0 358.0 
642.0003374459613 210017.0 NaN 1519.5564462257842 0.5012854655146537 523.0 5.0 359.0 
644.0003374459613 210072.0 NaN 1522.6372745490992 0.5014003473191435 522.0 5.0 360.0 
646.0003374459613 210107.0 NaN 1519.5858383433545 0.5015181316421853 523.0 5.0 359.0 
648.0003374459613 210116.0 NaN 1519.5190380761537 0.5017139016719998 522.0 5.0 359.0 
650.0003374459613 210108.0 NaN 1519.5671342685364 0.5016339761389856 519.0 5.0 359.0 
652.0003374459613 210099.0 NaN 1516.4034736138938 0.5012140611395685 518.0 5.0 358.0 
654.0003374459613 210180.0 NaN 1519.5430861723453 0.5012379166630281 515.0 6.0 358.0 
656.0003374459613 210255.0 NaN 1528.7428189712748 0.5017119845234167 513.0 6.0 361.0 
658.0003374459613 210246.0 NaN 1531.9679358717444 0.5019707016462228 512.0 5.0 363.0 
660.0003374459613 210218.0 NaN 1531.8984635938546 0.5018540132522312 512.0 5.0 363.0 
662.0003374459613 210202.0 NaN 1538.030728122912 0.501532619276661 511.0 5.0 365.0 
664.0003374459613 210269.0 NaN 1537.9024716098877 0.5015906696838951 511.0 6.0 364.0 
#####################################################################
# End of data export. Simulation finished at: 2019-03-21T15:22+0000 #
#####################################################################
