#####################################################################
# Alchemist log file - simulation started at: 2019-03-03T09:19+0000 #
#####################################################################
# seed = 1.0, bandwidth = 316227.76601683797, propagationDelay = 0.1, baserange = 1000.0
#
# The columns have the following meaning: 
# time neighbor_count[Sum] <value>@neighbor_count[Sum] packet_size[Mean] mean_delay[Mean] crowd[Sum] overcrowded[Sum] risk[Sum] 
0.0 NaN NaN NaN NaN NaN NaN NaN 
10.000417374280275 210023.0 NaN 4995.991983967936 0.4987792555206362 1495.0 2.0 1495.0 
20.000417374280275 210072.0 NaN 4995.879759519038 0.4987564470214387 1495.0 2.0 1495.0 
30.000417374280275 210134.0 NaN 4996.398129592519 0.4987839661989093 1495.0 2.0 1495.0 
40.000417374280275 210274.0 NaN 4996.264529058116 0.49881839400028893 1494.0 3.0 1494.0 
50.000417374280275 210324.0 NaN 4995.858383433534 0.49877445311665736 1493.0 4.0 1493.0 
60.000417374280275 210330.0 NaN 4996.168336673347 0.4986983990942866 1493.0 4.0 1493.0 
70.0000934363221 210286.0 NaN 1525.7100868403459 0.4988434293104264 527.0 9.0 357.0 
80.0000934363221 210322.0 NaN 1534.8617234468936 0.49884874696446646 517.0 10.0 359.0 
90.0000934363221 210413.0 NaN 1534.859051436206 0.49886198906611184 518.0 9.0 360.0 
100.0000934363221 210514.0 NaN 1537.9425517702089 0.4988527212183223 518.0 9.0 361.0 
110.0000934363221 210630.0 NaN 1537.9746158984635 0.498726195419714 520.0 7.0 363.0 
120.0000934363221 210657.0 NaN 1544.0347361389454 0.4989374222594707 522.0 8.0 364.0 
130.0000934363221 210658.0 NaN 1540.9886439545755 0.49877255444120294 521.0 8.0 363.0 
140.0000934363221 210692.0 NaN 1541.1436205744817 0.49887454485018856 514.0 8.0 363.0 
150.0000934363221 210725.0 NaN 1544.114896459585 0.4991225957072052 516.0 8.0 364.0 
160.0000934363221 210725.0 NaN 1540.9699398797607 0.4989185226085349 514.0 7.0 364.0 
170.0000934363221 210731.0 NaN 1544.0507682030725 0.4988093652134938 513.0 7.0 365.0 
180.0000934363221 210766.0 NaN 1538.0387441549756 0.4988772851541805 515.0 6.0 364.0 
190.0000934363221 210741.0 NaN 1537.8917835671364 0.498902955790944 510.0 9.0 361.0 
200.0000934363221 210694.0 NaN 1537.88376753507 0.4990393098484851 512.0 7.0 363.0 
210.0000934363221 210775.0 NaN 1528.7828991315969 0.4990762746564772 506.0 8.0 359.0 
220.0000934363221 210831.0 NaN 1525.6860387441545 0.49943335605878547 509.0 10.0 356.0 
230.0000934363221 210859.0 NaN 1531.7541750167002 0.49881364021634883 506.0 8.0 360.0 
240.0000934363221 210889.0 NaN 1528.6065464261849 0.4986926431392552 507.0 7.0 360.0 
250.0000934363221 210993.0 NaN 1528.7374749499 0.4991417209056883 505.0 10.0 357.0 
260.0000934363222 210994.0 NaN 1522.503674014697 0.49870109357233483 506.0 10.0 355.0 
270.0000934363222 211050.0 NaN 1528.6519706078816 0.49878722294322 506.0 7.0 360.0 
280.0000934363222 211139.0 NaN 1528.6599866399454 0.49895028752981285 504.0 9.0 358.0 
290.0000934363222 211084.0 NaN 1531.7675350701388 0.49894479596240515 504.0 9.0 359.0 
300.0000934363222 211029.0 NaN 1531.7568470273889 0.49920340432955246 504.0 7.0 361.0 
310.0000934363222 210961.0 NaN 1531.7568470273886 0.4991399323338028 504.0 7.0 361.0 
320.0000934363222 210972.0 NaN 1531.7354709418819 0.49892018016638445 503.0 7.0 361.0 
330.0000934363222 210896.0 NaN 1540.9191716766884 0.4990583511626653 504.0 6.0 365.0 
340.0000934363222 210795.0 NaN 1528.6626586506359 0.49894001189839604 504.0 7.0 360.0 
350.0000934363222 210736.0 NaN 1525.5364061456248 0.49874362967913394 506.0 8.0 358.0 
360.0000934363222 210708.0 NaN 1522.5330661322637 0.49909962107394445 506.0 8.0 357.0 
370.0000934363222 210578.0 NaN 1510.1670006680022 0.4987996313775902 510.0 8.0 353.0 
380.0000934363222 210336.0 NaN 1500.9111556446219 0.4988271800296002 514.0 8.0 350.0 
390.0000934363222 210151.0 NaN 1504.0748162992645 0.49993926560826835 511.0 7.0 352.0 
400.0000934363222 210074.0 NaN 1507.136940547763 0.49920435210040215 512.0 7.0 353.0 
410.0000934363222 210044.0 NaN 1516.3446893787568 0.4990229909124909 515.0 8.0 355.0 
420.0000934363222 210032.0 NaN 1491.649966599866 0.4990797089910195 504.0 8.0 347.0 
430.0000934363222 209995.0 NaN 1507.0567802271203 0.49931053353901717 517.0 6.0 354.0 
440.0000934363222 209996.0 NaN 1519.2945891783554 0.4994669696607597 520.0 7.0 357.0 
450.0000934363222 209858.0 NaN 1534.7281229124908 0.4994719492163038 521.0 7.0 362.0 
460.0000934363222 209844.0 NaN 1543.9198396793574 0.4993506853815487 520.0 7.0 365.0 
470.0000934363222 209724.0 NaN 1531.649966599866 0.4993403546577159 514.0 7.0 361.0 
480.0000934363222 209681.0 NaN 1525.5283901135613 0.49927115591083004 512.0 7.0 359.0 
490.0000934363222 209766.0 NaN 1500.8790915163654 0.4994690764737428 510.0 7.0 351.0 
500.0000934363222 209722.0 NaN 1485.5150300601194 0.4993757610609525 500.0 7.0 346.0 
510.0000934363222 209696.0 NaN 1497.8116232464918 0.49935671463101206 509.0 6.0 351.0 
520.0000934363221 209674.0 NaN 1470.188376753508 0.49921201491873524 504.0 6.0 342.0 
530.0000934363221 209669.0 NaN 1454.8243152972618 0.4992082022172519 509.0 5.0 338.0 
540.0000934363221 209770.0 NaN 1467.1770207080822 0.4988992365903903 505.0 6.0 341.0 
550.0000934363221 209704.0 NaN 1473.210420841683 0.4989815166596268 510.0 6.0 343.0 
560.0000934363221 209759.0 NaN 1473.2398129592523 0.49917807233225825 511.0 7.0 342.0 
570.0000934363221 209819.0 NaN 1488.6279225116905 0.4991371360377581 513.0 7.0 347.0 
580.0000934363221 209819.0 NaN 1494.789579158317 0.49905615358606686 516.0 6.0 350.0 
590.0000934363221 209900.0 NaN 1504.0507682030725 0.49905504878970564 520.0 6.0 353.0 
600.0000934363221 209984.0 NaN 1500.916499665999 0.49897736975885437 526.0 6.0 352.0 
610.0000934363221 209972.0 NaN 1513.2825651302617 0.4991664407993824 525.0 6.0 356.0 
620.0000934363221 209939.0 NaN 1522.3380093520364 0.4992549248910877 523.0 6.0 359.0 
630.0000934363221 209993.0 NaN 1519.4228456913818 0.4994506461190497 520.0 7.0 357.0 
640.0000934363221 210065.0 NaN 1516.352705410821 0.49919284264673647 519.0 8.0 355.0 
650.0000934363221 210191.0 NaN 1525.6513026052098 0.49917697362849023 516.0 6.0 360.0 
660.0000934363221 210286.0 NaN 1531.8236472945898 0.4991239469185487 511.0 6.0 362.0 
#####################################################################
# End of data export. Simulation finished at: 2019-03-03T10:26+0000 #
#####################################################################
