#####################################################################
# Alchemist log file - simulation started at: 2019-03-01T19:54+0000 #
#####################################################################
# seed = 0.0, bandwidth = 1000.0, propagationDelay = 3.1622776601683795, baserange = 31.622776601683796
#
# The columns have the following meaning: 
# time neighbor_count[Sum] <value>@neighbor_count[Sum] packet_size[Mean] mean_delay[Mean] crowd[Sum] overcrowded[Sum] risk[Sum] 
0.0 NaN NaN NaN NaN NaN NaN NaN 
10.000405536260626 2754.0 NaN 4995.032732130929 0.8554118358380738 1497.0 0.0 1497.0 
20.000405536260626 2803.0 NaN 4993.9959919839675 1.864184983655424 1493.0 4.0 1493.0 
30.000405536260626 2810.0 NaN 4993.11957247829 2.906983682015995 1474.0 23.0 1474.0 
40.00040553626063 2837.0 NaN 4991.227788911156 3.9356149737061643 1460.0 37.0 1460.0 
50.00040553626063 2870.0 NaN 4992.852371409485 5.006159973360478 1443.0 54.0 1443.0 
60.00040553626063 2911.0 NaN 4988.315297261189 6.096218709701561 1429.0 67.0 1429.0 
70.00040553626063 2931.0 NaN 1524.3714094856366 5.294466030744401 501.0 67.0 299.0 
80.00040553626063 2956.0 NaN 1527.3373413493641 5.259508939384981 434.0 71.0 296.0 
90.00040553626063 2960.0 NaN 1533.7341349365395 4.7620571772449205 421.0 73.0 296.0 
100.00040553626063 2947.0 NaN 1536.9832999332002 1.7453499620358108 419.0 69.0 301.0 
110.00040553626063 2930.0 NaN 1536.649298597194 2.6943843846475497 417.0 67.0 303.0 
120.00040553626063 2940.0 NaN 1542.8002672010698 2.654579561500788 414.0 66.0 306.0 
130.00040553626064 2928.0 NaN 1542.7521710086817 3.8626743401800585 412.0 70.0 302.0 
140.00040553626064 2923.0 NaN 1536.6118904475634 3.9292258767212886 414.0 65.0 305.0 
150.00040553626064 2929.0 NaN 1542.5865063460271 4.9192897259763715 413.0 65.0 307.0 
160.00040553626064 2951.0 NaN 1530.4101536406151 4.8534450458892655 411.0 69.0 299.0 
170.00040553626064 2973.0 NaN 1536.5344021376093 6.0954636291474324 403.0 71.0 299.0 
180.00040553626064 2985.0 NaN 1536.7160988643977 4.549917418659154 404.0 70.0 300.0 
190.00040553626064 2994.0 NaN 1543.0060120240478 2.552405538880524 401.0 68.0 304.0 
200.00040553626064 2977.0 NaN 1546.0120240480974 2.470722419261781 397.0 75.0 298.0 
210.00040553626064 2938.0 NaN 1542.8216432865727 3.470540125955785 390.0 78.0 294.0 
220.00040553626064 2889.0 NaN 1542.6987307949244 3.3805501722492166 389.0 78.0 294.0 
230.00040553626064 2885.0 NaN 1548.8897795591183 4.385676991213739 389.0 76.0 298.0 
240.00040553626064 2874.0 NaN 1542.6212424849705 4.472131490821867 394.0 72.0 300.0 
250.00040553626064 2841.0 NaN 1530.386105544421 5.57716701788039 386.0 77.0 291.0 
260.00040553626064 2849.0 NaN 1530.340681362727 5.627292919894048 381.0 81.0 287.0 
270.00040553626064 2847.0 NaN 1539.72478289913 4.981904842895109 381.0 81.0 290.0 
280.00040553626064 2878.0 NaN 1552.1870407481638 2.459612657285035 401.0 66.0 309.0 
290.00040553626064 2836.0 NaN 1551.9973279893115 3.4475391390627452 399.0 67.0 308.0 
300.00040553626064 2792.0 NaN 1548.8657314629272 3.297731935833056 399.0 66.0 308.0 
310.00040553626064 2729.0 NaN 1539.6205744822998 3.874334426602196 394.0 67.0 304.0 
320.00040553626064 2714.0 NaN 1542.6025384101547 3.8527994038177025 398.0 62.0 310.0 
330.00040553626064 2720.0 NaN 1548.753507014027 4.8493398469827635 399.0 62.0 312.0 
340.00040553626064 2715.0 NaN 1536.5931863727455 4.8782825008793145 398.0 64.0 306.0 
350.00040553626064 2731.0 NaN 1530.479625918503 5.949389042068799 400.0 60.0 308.0 
360.00040553626064 2739.0 NaN 1533.6726786907152 4.36064654024796 402.0 60.0 309.0 
370.00040553626064 2788.0 NaN 1533.7448229792908 2.804081450086706 401.0 61.0 308.0 
380.00040553626064 2796.0 NaN 1527.5083500334 2.98729189079022 402.0 61.0 306.0 
390.00040553626064 2793.0 NaN 1521.253173012691 3.7912355517745664 407.0 59.0 306.0 
400.00040553626064 2785.0 NaN 1521.1062124248485 3.5978008482515706 410.0 59.0 306.0 
410.00040553626064 2811.0 NaN 1530.4983299933185 4.675532458228169 412.0 60.0 308.0 
420.00040553626064 2793.0 NaN 1524.2191048764187 4.7921329130445285 412.0 59.0 307.0 
430.00040553626064 2821.0 NaN 1518.0734802939205 5.85776604352583 414.0 56.0 308.0 
440.00040553626064 2804.0 NaN 1530.255177020709 6.037288496686789 422.0 55.0 313.0 
450.00040553626064 2777.0 NaN 1542.7655310621249 5.3933179479218705 425.0 54.0 318.0 
460.00040553626064 2780.0 NaN 1567.524382097527 2.455267633773285 430.0 54.0 326.0 
470.00040553626064 2793.0 NaN 1564.2404809619243 3.6091289509685405 429.0 57.0 322.0 
480.00040553626064 2758.0 NaN 1561.0661322645274 3.3386874295347453 424.0 58.0 320.0 
490.00040553626064 2714.0 NaN 1548.633266533066 4.15427424808586 422.0 59.0 315.0 
500.00040553626064 2683.0 NaN 1530.2792251168999 4.028157410210748 416.0 59.0 309.0 
510.00040553626064 2667.0 NaN 1533.2505010020031 4.9093575852544165 417.0 62.0 307.0 
520.0004055362606 2681.0 NaN 1514.9525718102882 4.877036552705458 411.0 64.0 299.0 
530.0004055362606 2693.0 NaN 1496.539746158984 5.991530329981822 407.0 65.0 292.0 
540.0004055362606 2743.0 NaN 1493.5524382097535 4.642648293032042 406.0 63.0 293.0 
550.0004055362606 2733.0 NaN 1496.6252505010011 2.887447698579836 411.0 61.0 296.0 
560.0004055362606 2739.0 NaN 1487.3293253173008 2.8023616192721246 405.0 64.0 290.0 
570.0004055362606 2740.0 NaN 1493.4268537074154 3.7767110645244846 401.0 65.0 291.0 
580.0004055362606 2742.0 NaN 1502.6559786239152 3.863611629384581 402.0 69.0 290.0 
590.0004055362606 2746.0 NaN 1496.5611222444898 4.704538631616543 406.0 64.0 293.0 
600.0004055362606 2744.0 NaN 1514.9605878423522 4.769590917250936 415.0 59.0 304.0 
610.0004055362606 2738.0 NaN 1521.0607882431534 5.757480274941337 419.0 56.0 309.0 
620.0004055362606 2725.0 NaN 1527.2598530394114 5.63306339938172 411.0 64.0 303.0 
630.0004055362606 2793.0 NaN 1536.627922511691 5.100928311546252 409.0 63.0 307.0 
640.0004055362606 2916.0 NaN 1539.7808951235813 2.8143395164816263 409.0 65.0 306.0 
650.0004055362606 2914.0 NaN 1539.68470273881 3.7251025187881877 406.0 66.0 305.0 
660.0004055362606 2893.0 NaN 1542.7601870407475 3.732329970048489 403.0 66.0 306.0 
#####################################################################
# End of data export. Simulation finished at: 2019-03-01T19:59+0000 #
#####################################################################
