#####################################################################
# Alchemist log file - simulation started at: 2019-03-09T13:01+0000 #
#####################################################################
# seed = 2.0, bandwidth = 1333521.4321633242, propagationDelay = 0.0031622776601683794, baserange = 17.78279410038923
#
# The columns have the following meaning: 
# time neighbor_count[Sum] <value>@neighbor_count[Sum] packet_size[Mean] mean_delay[Mean] crowd[Sum] overcrowded[Sum] risk[Sum] 
0.0 NaN NaN NaN NaN NaN NaN NaN 
2.0004464413142933 1118.0 NaN 4993.873079492318 0.5043815888182084 1497.0 0.0 1497.0 
4.000446441314293 1118.0 NaN 4995.855711422846 0.5043760248134873 1496.0 1.0 1496.0 
6.000446441314293 1118.0 NaN 4993.341349365397 0.5081279290234386 1494.0 3.0 1494.0 
8.000446441314294 1114.0 NaN 4993.095524382097 0.504512495135941 1488.0 9.0 1488.0 
10.000446441314294 1114.0 NaN 4993.100868403473 0.5045124880477525 1487.0 10.0 1487.0 
12.000446441314294 1119.0 NaN 4992.224448897796 0.506430887994192 1487.0 10.0 1487.0 
14.000446441314294 1118.0 NaN 4992.748162992652 0.5104570270919314 1487.0 10.0 1487.0 
16.000446441314292 1115.0 NaN 4992.304609218437 0.5053474824625342 1487.0 10.0 1487.0 
18.000446441314295 1116.0 NaN 4992.13627254509 0.5069466468467192 1487.0 10.0 1487.0 
20.000446441314295 1114.0 NaN 4992.384769539078 0.5055293951835533 1487.0 10.0 1487.0 
22.000446441314295 1118.0 NaN 4991.957247828991 0.5114078263157881 1487.0 10.0 1487.0 
24.000446441314295 1116.0 NaN 4992.12291249165 0.5083966602856104 1487.0 10.0 1487.0 
26.000446441314295 1120.0 NaN 4991.815631262525 0.5053708467095984 1487.0 10.0 1487.0 
28.000446441314295 1122.0 NaN 4992.002672010688 0.5086814807612512 1487.0 10.0 1487.0 
30.000446441314295 1121.0 NaN 4992.056112224449 0.5076647566508566 1487.0 10.0 1487.0 
32.000446441314295 1120.0 NaN 4991.839679358717 0.5089222192887812 1487.0 10.0 1487.0 
34.000446441314295 1117.0 NaN 4992.050768203073 0.5107139500933141 1487.0 10.0 1487.0 
36.000446441314295 1118.0 NaN 4991.842351369405 0.5063824558495601 1487.0 10.0 1487.0 
38.000446441314295 1128.0 NaN 4991.967935871743 0.510289085904221 1487.0 10.0 1487.0 
40.000446441314295 1126.0 NaN 4991.981295925184 0.5107851762431415 1487.0 10.0 1487.0 
42.000446441314295 1130.0 NaN 4991.845023380093 0.517077517761858 1487.0 10.0 1487.0 
44.000446441314295 1128.0 NaN 4991.951903807615 0.5050651294734934 1487.0 10.0 1487.0 
46.000446441314295 1132.0 NaN 4991.975951903808 0.5079654887963808 1487.0 10.0 1487.0 
48.000446441314295 1140.0 NaN 4992.098864395458 0.5044026158148257 1487.0 10.0 1487.0 
50.000446441314295 1145.0 NaN 4991.845023380093 0.5075374327955854 1487.0 10.0 1487.0 
52.000446441314295 1157.0 NaN 4992.179024716099 0.5181305163168329 1487.0 10.0 1487.0 
54.000446441314295 1153.0 NaN 4992.179024716099 0.5161368480930963 1487.0 10.0 1487.0 
56.000446441314295 1150.0 NaN 4991.583166332665 0.5120316590097526 1487.0 10.0 1487.0 
58.000446441314295 1146.0 NaN 4992.13627254509 0.5169922898754319 1487.0 10.0 1487.0 
60.000446441314295 1130.0 NaN 4992.133600534402 0.512804222092301 1487.0 10.0 1487.0 
62.00034131053569 1134.0 NaN 980.8897795591181 0.5230683473567597 484.0 9.0 180.0 
64.0003413105357 1131.0 NaN 983.7515030060104 0.520317184401167 470.0 9.0 181.0 
66.0003413105357 1126.0 NaN 983.6740146960558 0.5152659839721205 406.0 9.0 181.0 
68.0003413105357 1138.0 NaN 983.6392785571168 0.5188268895587882 364.0 9.0 181.0 
70.0003413105357 1129.0 NaN 983.5991983967922 0.5094823655018078 334.0 9.0 181.0 
72.0003413105357 1133.0 NaN 983.588510354044 0.5248741643147489 325.0 9.0 181.0 
74.0003413105357 1120.0 NaN 980.4943219772896 0.5114245096259739 315.0 9.0 180.0 
76.0003413105357 1114.0 NaN 980.3740814963273 0.5066428179976296 304.0 9.0 180.0 
78.0003413105357 1115.0 NaN 980.3767535070168 0.5089907401001834 296.0 9.0 180.0 
80.0003413105357 1115.0 NaN 980.4488977955907 0.5157176201431828 290.0 9.0 180.0 
82.0003413105357 1119.0 NaN 983.5484301937195 0.5080420959824159 289.0 9.0 181.0 
84.0003413105357 1119.0 NaN 986.6479625918532 0.5191424224426491 286.0 9.0 182.0 
86.0003413105357 1114.0 NaN 986.698730794926 0.510365328861392 283.0 9.0 182.0 
88.0003413105357 1118.0 NaN 986.6319305277195 0.5134300990225025 283.0 9.0 182.0 
90.0003413105357 1114.0 NaN 980.4569138276543 0.5170736526078937 281.0 9.0 180.0 
92.0003413105357 1117.0 NaN 986.6292585170368 0.5124310585493854 281.0 9.0 182.0 
94.0003413105357 1110.0 NaN 983.5617902471618 0.5171988970886225 282.0 9.0 181.0 
96.0003413105357 1106.0 NaN 986.6078824315293 0.5115732331987458 282.0 9.0 182.0 
98.0003413105357 1112.0 NaN 986.6265865063452 0.5211737568854493 281.0 9.0 182.0 
100.0003413105357 1103.0 NaN 986.6078824315292 0.507214910627136 280.0 9.0 182.0 
102.0003413105357 1103.0 NaN 989.7234468937892 0.5181055776865857 278.0 9.0 183.0 
104.0003413105357 1095.0 NaN 989.7207748831003 0.5119888255220096 277.0 9.0 183.0 
106.0003413105357 1100.0 NaN 992.7561790247183 0.5081973956652397 277.0 9.0 184.0 
108.0003413105357 1113.0 NaN 992.7989311957256 0.517941175886787 279.0 9.0 184.0 
110.0003413105357 1106.0 NaN 992.7962591850362 0.5145881888463358 281.0 9.0 184.0 
112.0003413105357 1113.0 NaN 998.9071476285911 0.5269656737635269 279.0 9.0 186.0 
114.0003413105357 1099.0 NaN 995.8610554442197 0.5199509860117776 276.0 9.0 185.0 
116.0003413105357 1101.0 NaN 989.6646626586528 0.517551034527099 273.0 9.0 183.0 
118.0003413105357 1101.0 NaN 989.760855043418 0.5330388109805142 272.0 9.0 183.0 
120.0003413105357 1089.0 NaN 983.5885103540437 0.5097211058530613 270.0 9.0 181.0 
122.0003413105357 1095.0 NaN 983.5965263861069 0.5177027468854838 271.0 9.0 181.0 
124.0003413105357 1100.0 NaN 983.6419505677998 0.5094538971511585 270.0 9.0 181.0 
126.0003413105357 1107.0 NaN 983.5858383433546 0.5194650376419169 270.0 9.0 181.0 
128.0003413105357 1120.0 NaN 983.5377421509701 0.5241616722649658 273.0 9.0 181.0 
130.0003413105357 1116.0 NaN 980.4569138276544 0.514632808391415 273.0 9.0 180.0 
132.0003413105357 1120.0 NaN 983.524382097527 0.51981288197947 269.0 9.0 181.0 
134.0003413105357 1115.0 NaN 989.7020708082819 0.5157122525552659 268.0 9.0 183.0 
136.0003413105357 1118.0 NaN 992.8630594522365 0.5160073197675978 270.0 9.0 184.0 
138.0003413105357 1121.0 NaN 995.8690714762843 0.5206957238738174 272.0 9.0 185.0 
140.0003413105357 1126.0 NaN 995.8770875083479 0.5083607033358399 273.0 9.0 185.0 
142.0003413105357 1138.0 NaN 998.968603874416 0.5232097396881962 274.0 9.0 186.0 
144.0003413105357 1135.0 NaN 992.8390113560454 0.5135022224842694 275.0 9.0 184.0 
146.0003413105357 1134.0 NaN 992.7909151636611 0.5080555461779407 277.0 9.0 184.0 
148.0003413105357 1142.0 NaN 992.847027388109 0.5190430298316651 275.0 9.0 184.0 
150.0003413105357 1132.0 NaN 989.7100868403455 0.5197482376445125 274.0 9.0 183.0 
152.0003413105357 1134.0 NaN 989.7234468937886 0.5138808509289053 270.0 9.0 183.0 
154.0003413105357 1150.0 NaN 986.6880427521726 0.5147975910448481 270.0 9.0 182.0 
156.0003413105357 1152.0 NaN 977.448229792918 0.5185397587826722 271.0 9.0 179.0 
158.0003413105357 1162.0 NaN 983.6259185036729 0.5272296774164997 273.0 9.0 181.0 
160.0003413105357 1150.0 NaN 986.701402805609 0.5112888211398431 274.0 9.0 182.0 
162.0003413105357 1162.0 NaN 986.6960587842362 0.5289552942036829 276.0 9.0 182.0 
164.0003413105357 1152.0 NaN 983.5484301937204 0.5278185073641296 280.0 9.0 181.0 
166.0003413105357 1145.0 NaN 986.6613226452911 0.5231329367452694 278.0 9.0 182.0 
168.0003413105357 1140.0 NaN 986.7040748163001 0.5193394361692536 278.0 9.0 182.0 
170.0003413105357 1136.0 NaN 992.8256513026068 0.509937047943095 279.0 9.0 184.0 
172.0003413105357 1142.0 NaN 995.8236472945908 0.5212844405710275 279.0 9.0 185.0 
174.0003413105357 1137.0 NaN 992.7615230460909 0.5194454268544548 278.0 9.0 184.0 
176.0003413105357 1132.0 NaN 986.6185704742818 0.5174043202201167 275.0 9.0 182.0 
178.0003413105357 1135.0 NaN 989.734134936539 0.5246129832291138 276.0 9.0 183.0 
180.0003413105357 1125.0 NaN 974.4475617902456 0.5071617403297249 275.0 9.0 178.0 
182.0003413105357 1130.0 NaN 971.2331329325303 0.5298249340564704 275.0 9.0 177.0 
184.0003413105357 1127.0 NaN 971.2919171676696 0.5218858245304667 273.0 9.0 177.0 
186.0003413105357 1129.0 NaN 971.3293253173001 0.5206948970180034 273.0 9.0 177.0 
188.0003413105357 1134.0 NaN 971.3079492317972 0.530119078404007 274.0 9.0 177.0 
190.0003413105357 1124.0 NaN 971.2598530394118 0.5101027123278703 273.0 9.0 177.0 
192.0003413105357 1130.0 NaN 974.3780895123575 0.5245124428116136 270.0 9.0 178.0 
194.0003413105357 1139.0 NaN 977.4268537074158 0.5211706685260294 271.0 9.0 179.0 
196.0003413105357 1133.0 NaN 977.4108216432882 0.5177513891116853 271.0 9.0 179.0 
198.0003413105357 1138.0 NaN 977.4241816967275 0.5189028329106122 271.0 9.0 179.0 
200.0003413105357 1140.0 NaN 980.475617902473 0.5120465440008931 269.0 9.0 180.0 
202.0003413105357 1145.0 NaN 980.4809619238454 0.518660354505228 270.0 9.0 180.0 
204.0003413105357 1154.0 NaN 983.5377421509704 0.5207085471389551 269.0 9.0 181.0 
206.0003413105357 1151.0 NaN 983.4575818303272 0.520701358889545 272.0 9.0 181.0 
208.0003413105357 1154.0 NaN 980.4595858383454 0.5434654539246699 267.0 9.0 180.0 
210.0003413105357 1137.0 NaN 980.4034736138935 0.5156769048612079 267.0 9.0 180.0 
212.0003413105357 1139.0 NaN 980.3714094856365 0.521638024776907 267.0 9.0 180.0 
214.0003413105357 1141.0 NaN 980.4836339345364 0.519107222962102 265.0 11.0 178.0 
216.0003413105357 1143.0 NaN 980.4916499666001 0.5091014464829637 264.0 13.0 176.0 
218.0003413105357 1150.0 NaN 971.3159652638612 0.5278586885143652 271.0 9.0 177.0 
220.0003413105357 1137.0 NaN 971.2411489645974 0.5089264542993056 270.0 9.0 177.0 
222.0003413105357 1150.0 NaN 974.3620574482301 0.5243233254105251 271.0 9.0 178.0 
224.0003413105357 1148.0 NaN 962.0948563794271 0.5296248876061682 267.0 9.0 174.0 
226.0003413105357 1137.0 NaN 962.0975283901122 0.5253697792951402 269.0 9.0 174.0 
228.0003413105357 1148.0 NaN 958.9953239812969 0.5313616791412605 265.0 9.0 173.0 
230.0003413105357 1140.0 NaN 962.1002004008001 0.5181704299848002 264.0 9.0 174.0 
232.0003413105357 1144.0 NaN 962.2364729458908 0.5178959842836861 264.0 9.0 174.0 
234.0003413105357 1146.0 NaN 955.9385437541728 0.5252941631099032 263.0 9.0 172.0 
236.0003413105357 1154.0 NaN 955.9519038076154 0.5251064669570731 266.0 9.0 172.0 
238.0003413105357 1155.0 NaN 968.3126252504998 0.5350554581376005 264.0 9.0 176.0 
240.0003413105357 1139.0 NaN 965.242484969939 0.5152893272483396 263.0 9.0 175.0 
242.0003413105357 1138.0 NaN 965.2237808951246 0.5267211671900032 262.0 9.0 175.0 
244.0003413105357 1132.0 NaN 962.0895123580483 0.5279310121163698 261.0 9.0 174.0 
246.0003413105357 1128.0 NaN 961.9986639946546 0.5310627288727622 261.0 9.0 174.0 
248.0003413105357 1125.0 NaN 955.9198396793576 0.5162565352983584 256.0 9.0 172.0 
250.0003413105357 1118.0 NaN 955.85036740147 0.5130134596824037 256.0 9.0 172.0 
252.0003413105357 1119.0 NaN 955.8236472945907 0.51596539450173 257.0 9.0 172.0 
254.0003413105357 1133.0 NaN 952.7802271209092 0.5304262452532049 260.0 9.0 171.0 
256.0003413105357 1127.0 NaN 952.8016032064124 0.5299900664461795 262.0 9.0 171.0 
258.00034131053576 1129.0 NaN 955.8957915831666 0.5158387666808928 262.0 9.0 172.0 
260.00034131053576 1131.0 NaN 955.9331997328003 0.5219599024098849 263.0 9.0 172.0 
262.00034131053576 1132.0 NaN 962.1429525718092 0.529008705196025 265.0 9.0 174.0 
264.00034131053576 1128.0 NaN 962.057448229791 0.5293524076057184 267.0 9.0 174.0 
266.00034131053576 1117.0 NaN 955.8877755511 0.5273537641703048 268.0 9.0 172.0 
268.00034131053576 1116.0 NaN 955.8851035404147 0.5234983048359344 266.0 9.0 172.0 
270.00034131053576 1100.0 NaN 955.8557114228454 0.5121515703132611 267.0 9.0 172.0 
272.00034131053576 1104.0 NaN 958.9472277889093 0.5341874400904839 267.0 9.0 173.0 
274.00034131053576 1113.0 NaN 959.0086840347365 0.5210672171627132 267.0 9.0 173.0 
276.00034131053576 1107.0 NaN 958.9365397461582 0.5230209006353514 265.0 9.0 173.0 
278.00034131053576 1112.0 NaN 971.2304609218454 0.525369599691998 266.0 9.0 177.0 
280.00034131053576 1104.0 NaN 974.2952571810274 0.5238436861132075 268.0 9.0 178.0 
282.00034131053576 1101.0 NaN 971.1636606546426 0.521923733330801 267.0 9.0 177.0 
284.00034131053576 1094.0 NaN 968.1229124916513 0.52976600777778 263.0 9.0 176.0 
286.00034131053576 1087.0 NaN 961.9585838343365 0.5152271059337047 261.0 9.0 174.0 
288.00034131053576 1092.0 NaN 961.9665998664002 0.5190696401646442 260.0 9.0 174.0 
290.00034131053576 1088.0 NaN 964.9832999332001 0.5127905089567393 261.0 9.0 175.0 
292.00034131053576 1098.0 NaN 974.2231128924514 0.5140256153081628 265.0 9.0 178.0 
294.00034131053576 1096.0 NaN 977.344021376085 0.5159483422706881 265.0 9.0 179.0 
296.00034131053576 1103.0 NaN 977.2932531730123 0.5113742295672355 267.0 9.0 179.0 
298.00034131053576 1106.0 NaN 968.109552438209 0.5303153224434961 270.0 9.0 176.0 
300.00034131053576 1103.0 NaN 958.8964595858363 0.5152615795896992 269.0 9.0 173.0 
302.00034131053576 1111.0 NaN 961.9612558450236 0.5413228862843052 267.0 9.0 174.0 
304.00034131053576 1099.0 NaN 961.9906479625907 0.5168430473089133 268.0 9.0 174.0 
306.00034131053576 1094.0 NaN 961.9665998664002 0.5254618884963737 272.0 9.0 174.0 
308.00034131053576 1093.0 NaN 961.9799599198398 0.5133564889277327 272.0 9.0 174.0 
310.00034131053576 1089.0 NaN 949.702070808282 0.5317782167596821 270.0 9.0 170.0 
312.00034131053576 1084.0 NaN 949.678022712091 0.5127756378301066 269.0 9.0 170.0 
314.00034131053576 1094.0 NaN 965.0287241148959 0.5317719891540557 272.0 9.0 175.0 
316.00034131053576 1084.0 NaN 968.1442885771546 0.5183854391976432 274.0 9.0 176.0 
318.00034131053576 1091.0 NaN 968.1068804275219 0.511634925263723 274.0 9.0 176.0 
320.00034131053576 1093.0 NaN 965.0340681362728 0.5113382077703631 273.0 9.0 175.0 
322.00034131053576 1096.0 NaN 962.012024048096 0.509834008547315 273.0 9.0 174.0 
324.00034131053576 1112.0 NaN 965.076820307282 0.5228361014883104 275.0 9.0 175.0 
326.00034131053576 1105.0 NaN 958.9525718102867 0.5207993436219811 270.0 9.0 173.0 
328.00034131053576 1103.0 NaN 962.0414161656635 0.5313938366665676 266.0 9.0 174.0 
330.00034131053576 1101.0 NaN 968.1202404809634 0.5146752997520656 267.0 9.0 176.0 
332.00034131053576 1097.0 NaN 965.1382765531051 0.5229300536714334 268.0 9.0 175.0 
334.00034131053576 1101.0 NaN 961.9612558450227 0.5180319093359013 270.0 9.0 174.0 
336.00034131053576 1095.0 NaN 961.9131596526365 0.5330812883319754 271.0 9.0 174.0 
338.00034131053576 1099.0 NaN 961.8891115564453 0.5164746839151381 271.0 9.0 174.0 
340.00034131053576 1100.0 NaN 952.7241148964589 0.5320006103098394 268.0 9.0 171.0 
342.00034131053576 1094.0 NaN 952.7588510354046 0.5351215634626311 269.0 9.0 171.0 
344.00034131053576 1085.0 NaN 955.7969271877092 0.5150380816043832 268.0 9.0 172.0 
346.00034131053576 1080.0 NaN 955.8156312625263 0.5182807209745867 266.0 9.0 172.0 
348.00034131053576 1076.0 NaN 949.707414829659 0.5173633064657919 264.0 9.0 170.0 
350.00034131053576 1073.0 NaN 949.6539746158987 0.5149570604942671 262.0 9.0 170.0 
352.00034131053576 1075.0 NaN 955.8877755511006 0.5346089554785391 264.0 9.0 172.0 
354.00034131053576 1068.0 NaN 958.9632598530404 0.5302083203615546 267.0 9.0 173.0 
356.00034131053576 1060.0 NaN 958.9632598530404 0.5169112659111251 265.0 9.0 173.0 
358.00034131053576 1065.0 NaN 958.9525718102863 0.5128374918124897 261.0 9.0 173.0 
360.00034131053576 1067.0 NaN 946.6586506346035 0.5174913257606151 259.0 9.0 169.0 
362.00034131053576 1078.0 NaN 943.5671342685363 0.5275803283859635 261.0 9.0 168.0 
364.00034131053576 1073.0 NaN 943.5163660654636 0.5097568448288385 264.0 9.0 168.0 
366.00034131053576 1076.0 NaN 940.4435537742144 0.5181933160908098 264.0 9.0 167.0 
368.00034131053576 1073.0 NaN 937.3841015364054 0.5126368625314613 260.0 9.0 166.0 
370.00034131053576 1076.0 NaN 937.3947895791588 0.5081634517160067 261.0 9.0 166.0 
372.00034131053576 1080.0 NaN 937.3894455577818 0.5301149580046058 264.0 9.0 166.0 
374.00034131053576 1066.0 NaN 940.4061456245817 0.5232086739460049 265.0 9.0 167.0 
376.00034131053576 1061.0 NaN 940.395457581831 0.5080958013541853 265.0 9.0 167.0 
378.00034131053576 1072.0 NaN 940.4702738810957 0.5135754829924015 262.0 9.0 167.0 
380.00034131053576 1066.0 NaN 937.4455577822314 0.5095089278725699 260.0 9.0 166.0 
382.00034131053576 1078.0 NaN 934.3166332665328 0.532669183039547 259.0 9.0 165.0 
384.00034131053576 1080.0 NaN 934.3780895123585 0.5138642632339975 258.0 9.0 165.0 
386.00034131053576 1082.0 NaN 934.3914495657997 0.5260983637785589 258.0 9.0 165.0 
388.00034131053576 1083.0 NaN 928.2565130260509 0.5351204949206471 256.0 9.0 163.0 
390.00034131053576 1069.0 NaN 928.2084168336683 0.512461574560897 251.0 9.0 163.0 
392.00034131053576 1068.0 NaN 928.2752171008682 0.5335472571169814 250.0 9.0 163.0 
394.00034131053576 1068.0 NaN 928.328657314628 0.5328552577213461 250.0 9.0 163.0 
396.00034131053576 1066.0 NaN 931.3480293921183 0.5173644404536377 248.0 9.0 164.0 
398.00034131053576 1074.0 NaN 934.4021376085502 0.5162937269317531 248.0 9.0 165.0 
400.00034131053576 1068.0 NaN 931.4201736806955 0.5173791232396808 248.0 9.0 164.0 
402.00034131053576 1076.0 NaN 919.1636606546418 0.5151055349041026 249.0 9.0 160.0 
404.00034131053576 1090.0 NaN 922.1189044756184 0.5284588743310228 251.0 9.0 161.0 
406.00034131053576 1090.0 NaN 922.1723446893783 0.5297535409607125 250.0 9.0 161.0 
408.00034131053576 1085.0 NaN 919.1102204408819 0.5316004814691223 250.0 9.0 160.0 
410.00034131053576 1072.0 NaN 912.9378757515037 0.5311184014712516 247.0 9.0 158.0 
412.00034131053576 1070.0 NaN 912.9164996659996 0.515728977125678 245.0 9.0 158.0 
414.00034131053576 1077.0 NaN 919.0701402805602 0.5229500820394841 247.0 9.0 160.0 
416.00034131053576 1076.0 NaN 922.1322645290581 0.5186455518980733 247.0 9.0 161.0 
418.00034131053576 1084.0 NaN 925.2371409485636 0.521997082090205 248.0 9.0 162.0 
420.00034131053576 1076.0 NaN 922.1643286573146 0.5176561870665525 247.0 9.0 161.0 
422.00034131053576 1077.0 NaN 922.1643286573141 0.5229097657638058 247.0 9.0 161.0 
424.00034131053576 1074.0 NaN 919.0113560454237 0.5156605647947964 247.0 9.0 160.0 
426.00034131053576 1073.0 NaN 918.9819639278543 0.5154474721512615 248.0 9.0 160.0 
428.00034131053576 1080.0 NaN 918.9926519706087 0.5278093587122392 245.0 9.0 160.0 
430.00034131053576 1069.0 NaN 919.0006680026729 0.5202855538727408 245.0 9.0 160.0 
432.00034131053576 1073.0 NaN 912.8737474949911 0.5077768212119054 244.0 9.0 158.0 
434.00034131053576 1072.0 NaN 906.7682030728128 0.5326490838740685 243.0 9.0 156.0 
436.00034131053576 1074.0 NaN 922.046760187041 0.5075886185830996 244.0 9.0 161.0 
438.00034131053576 1100.0 NaN 925.1409485637947 0.5261907310282941 247.0 9.0 162.0 
440.00034131053576 1095.0 NaN 925.1863727454909 0.5151165666224051 247.0 9.0 162.0 
442.00034131053576 1105.0 NaN 928.2752171008683 0.5214230754953951 245.0 9.0 163.0 
444.00034131053576 1090.0 NaN 928.2778891115552 0.5208683042058955 245.0 9.0 163.0 
446.00034131053576 1093.0 NaN 937.4642618570457 0.5261829222742105 247.0 9.0 166.0 
448.00034131053576 1089.0 NaN 937.4081496325997 0.5293856186229943 247.0 9.0 166.0 
450.00034131053576 1075.0 NaN 931.2758851035409 0.5182529922231662 245.0 9.0 164.0 
452.00034131053576 1082.0 NaN 931.2865731462915 0.517781645855822 244.0 9.0 164.0 
454.00034131053576 1077.0 NaN 931.2651970607872 0.5249444686695565 243.0 11.0 162.0 
456.00034131053576 1084.0 NaN 928.2030728122908 0.5137715476476105 240.0 16.0 156.0 
458.00034131053576 1091.0 NaN 922.073480293922 0.5341670129859615 240.0 17.0 153.0 
460.00034131053576 1076.0 NaN 922.0494321977278 0.5098697644282305 236.0 17.0 153.0 
462.00034131053576 1090.0 NaN 922.0574482297915 0.5261983125765449 238.0 17.0 153.0 
464.00034131053576 1083.0 NaN 922.0681362725455 0.5223270711327733 240.0 17.0 153.0 
466.00034131053576 1080.0 NaN 925.1088844355368 0.5356985919177938 239.0 17.0 154.0 
468.00034131053576 1076.0 NaN 922.0521042084177 0.5148756443732374 238.0 17.0 153.0 
470.00034131053576 1072.0 NaN 915.9064796259181 0.5180777457819747 235.0 17.0 151.0 
472.00034131053576 1071.0 NaN 918.9792919171681 0.5356280653504646 235.0 17.0 152.0 
474.00034131053576 1061.0 NaN 918.9418837675358 0.522024577399083 236.0 17.0 152.0 
476.00034131053576 1061.0 NaN 918.9686038744144 0.5233051067247574 237.0 15.0 154.0 
478.00034131053576 1062.0 NaN 919.0033400133592 0.5227805251829627 242.0 10.0 159.0 
480.00034131053576 1061.0 NaN 919.1075484301946 0.5144578021451338 242.0 9.0 160.0 
482.00034131053576 1063.0 NaN 916.010688042751 0.5505116333539288 241.0 9.0 159.0 
484.00034131053576 1051.0 NaN 912.873747494991 0.5132874600319862 241.0 9.0 158.0 
486.00034131053576 1059.0 NaN 915.9732798931187 0.5259812595940688 242.0 9.0 159.0 
488.00034131053576 1057.0 NaN 915.9625918503682 0.5241909355702274 240.0 9.0 159.0 
490.00034131053576 1058.0 NaN 915.9946559786233 0.5125051107382632 241.0 9.0 159.0 
492.00034131053576 1062.0 NaN 915.9572478289908 0.5265140998629507 240.0 9.0 159.0 
494.00034131053576 1057.0 NaN 915.9118236472955 0.5139861813410573 240.0 9.0 159.0 
496.00034131053576 1058.0 NaN 912.8096192384774 0.5142221989603961 239.0 9.0 158.0 
498.00034131053576 1068.0 NaN 912.8550434201727 0.5324323971197977 240.0 9.0 158.0 
500.00034131053576 1068.0 NaN 912.8283233132947 0.5254885365114028 239.0 9.0 158.0 
502.00034131053576 1058.0 NaN 912.8817635270547 0.5156300758942161 239.0 9.0 158.0 
504.00034131053576 1061.0 NaN 906.7147628590506 0.5055276514651345 239.0 9.0 156.0 
506.00034131053576 1068.0 NaN 903.5911823647277 0.5243988769233677 239.0 9.0 155.0 
508.00034131053576 1071.0 NaN 900.5611222444903 0.5326770373073518 238.0 9.0 154.0 
510.00034131053576 1066.0 NaN 891.3132932531726 0.5096128476057926 234.0 9.0 151.0 
512.0003413105358 1068.0 NaN 891.3106212424854 0.5315225138370075 234.0 9.0 151.0 
514.0003413105358 1062.0 NaN 891.2732130928534 0.5184960266283426 234.0 9.0 151.0 
516.0003413105358 1067.0 NaN 891.2865731462921 0.5255828814345463 234.0 9.0 151.0 
518.0003413105358 1065.0 NaN 894.4021376085499 0.5232428763551591 235.0 9.0 152.0 
520.0003413105358 1055.0 NaN 894.3674014696054 0.5324918169498627 235.0 9.0 152.0 
522.0003413105358 1039.0 NaN 891.2865731462921 0.5391602395909891 235.0 9.0 151.0 
524.0003413105358 1030.0 NaN 888.2271209084832 0.5105670702842157 232.0 10.0 149.0 
526.0003413105358 1035.0 NaN 882.1215764863059 0.5252314036593786 232.0 11.0 146.0 
528.0003413105358 1035.0 NaN 879.0754843019366 0.526625874103629 234.0 9.0 147.0 
530.0003413105358 1036.0 NaN 875.9572478289908 0.5363578940755881 234.0 9.0 146.0 
532.0003413105358 1031.0 NaN 875.9412157648637 0.5121410662896122 232.0 9.0 146.0 
534.0003413105358 1042.0 NaN 888.2565130260518 0.5203997026725332 236.0 9.0 150.0 
536.0003413105358 1054.0 NaN 891.3720774883093 0.5210948867462355 239.0 9.0 151.0 
538.0003413105358 1055.0 NaN 885.2237808951229 0.522428745826683 238.0 9.0 149.0 
540.0003413105358 1050.0 NaN 885.1623246492989 0.5084825902340604 238.0 9.0 149.0 
542.0003413105358 1054.0 NaN 885.1596526386104 0.5274443870898456 238.0 9.0 149.0 
544.0003413105358 1048.0 NaN 885.1516366065455 0.5147004701088237 239.0 9.0 149.0 
546.0003413105358 1052.0 NaN 888.2484969939878 0.5197682928353027 239.0 9.0 150.0 
548.0003413105358 1047.0 NaN 882.121576486306 0.5177001751540642 239.0 9.0 148.0 
550.0003413105358 1046.0 NaN 882.1536406145622 0.5156540027795976 237.0 9.0 148.0 
552.0003413105358 1046.0 NaN 888.2939211756847 0.527612182787839 240.0 9.0 150.0 
554.0003413105358 1051.0 NaN 885.2130928523712 0.5256047925849269 241.0 9.0 149.0 
556.0003413105358 1053.0 NaN 891.4201736806954 0.520481300048649 240.0 9.0 151.0 
558.0003413105358 1050.0 NaN 894.5303941215772 0.5268356193404838 240.0 9.0 152.0 
560.0003413105358 1057.0 NaN 894.4555778223106 0.5188194410134844 240.0 9.0 152.0 
562.0003413105358 1051.0 NaN 894.4529058116227 0.52987467608956 240.0 9.0 152.0 
564.0003413105358 1053.0 NaN 900.6092184368729 0.5503316148341666 242.0 9.0 154.0 
566.0003413105358 1038.0 NaN 897.5657982631926 0.5251264734264108 243.0 9.0 153.0 
568.0003413105358 1040.0 NaN 894.4609218436866 0.5225236625702254 242.0 9.0 152.0 
570.0003413105358 1045.0 NaN 897.5444221776892 0.5174893385156744 244.0 9.0 153.0 
572.0003413105358 1049.0 NaN 900.7080828323319 0.5091823002520021 244.0 9.0 154.0 
574.0003413105358 1067.0 NaN 900.6947227788909 0.5291235327319328 246.0 9.0 154.0 
576.0003413105358 1065.0 NaN 903.7942551770211 0.5249657971718465 246.0 9.0 155.0 
578.0003413105358 1068.0 NaN 903.7140948563789 0.5265592824163895 245.0 9.0 155.0 
580.0003413105358 1063.0 NaN 903.7194388777547 0.5263248018761607 242.0 9.0 155.0 
582.0003413105358 1061.0 NaN 894.6132264529059 0.539162960885243 240.0 9.0 152.0 
584.0003413105358 1056.0 NaN 900.7722110888453 0.5401321852661477 242.0 9.0 154.0 
586.0003413105358 1065.0 NaN 900.7080828323319 0.5301572996140266 247.0 9.0 154.0 
588.0003413105358 1067.0 NaN 897.7501670006683 0.5211009507959989 250.0 9.0 153.0 
590.0003413105358 1065.0 NaN 897.6673346693394 0.5293778412655479 250.0 9.0 153.0 
592.0003413105358 1067.0 NaN 900.6786907147635 0.5150143204977098 249.0 9.0 154.0 
594.0003413105358 1085.0 NaN 909.923847695391 0.5413157877572672 250.0 9.0 157.0 
596.0003413105358 1084.0 NaN 909.9078156312637 0.5293853913579972 251.0 9.0 157.0 
598.0003413105358 1076.0 NaN 903.8316633266535 0.525432783401337 247.0 9.0 155.0 
600.0003413105358 1078.0 NaN 909.9692718770863 0.5260609142776208 247.0 9.0 157.0 
602.0003413105358 1081.0 NaN 916.0320641282555 0.5231990969428099 250.0 9.0 159.0 
604.0003413105358 1089.0 NaN 916.0748162992646 0.5506281432443896 251.0 9.0 159.0 
606.0003413105358 1078.0 NaN 913.0501002004002 0.5265343900285798 252.0 9.0 158.0 
608.0003413105358 1083.0 NaN 916.1175684702728 0.524550591443657 253.0 9.0 159.0 
610.0003413105358 1089.0 NaN 925.3466933867727 0.5118216352413275 253.0 9.0 162.0 
612.0003413105358 1095.0 NaN 925.3707414829644 0.5167365669416567 253.0 9.0 162.0 
614.0003413105358 1096.0 NaN 922.2150968603863 0.5370484000902306 251.0 9.0 161.0 
616.0003413105358 1101.0 NaN 928.3259853039408 0.5306997575393125 249.0 9.0 163.0 
618.0003413105358 1097.0 NaN 928.3500334001324 0.5456466061664328 249.0 9.0 163.0 
620.0003413105358 1077.0 NaN 928.3927855711414 0.5131656914595731 248.0 9.0 163.0 
622.0003413105358 1087.0 NaN 928.3500334001324 0.5209054642773577 249.0 9.0 163.0 
624.0003413105358 1098.0 NaN 931.3720774883091 0.5237129624014514 251.0 9.0 164.0 
626.0003413105358 1096.0 NaN 931.4148296593181 0.5378116835321075 252.0 9.0 164.0 
628.0003413105358 1085.0 NaN 931.4121576486315 0.531706475801051 254.0 9.0 164.0 
630.0003413105358 1067.0 NaN 931.5297261189046 0.5189677007782107 255.0 9.0 164.0 
632.0003413105358 1067.0 NaN 931.494989979959 0.513756347116635 252.0 9.0 164.0 
634.0003413105358 1083.0 NaN 940.6760187040729 0.5372432929371627 253.0 9.0 167.0 
636.0003413105358 1092.0 NaN 943.890447561791 0.5383542687404834 255.0 9.0 168.0 
638.0003413105358 1111.0 NaN 956.1416165664674 0.5337132483072693 257.0 9.0 172.0 
640.0003413105358 1101.0 NaN 956.1389445557778 0.5198934596796393 260.0 9.0 172.0 
642.0003413105358 1103.0 NaN 956.0561122244496 0.5273352146184814 260.0 9.0 172.0 
644.0003413105358 1108.0 NaN 962.1589846359365 0.5257836148259738 260.0 9.0 174.0 
646.0003413105358 1109.0 NaN 962.1670006680031 0.5270679240522286 262.0 9.0 174.0 
648.0003413105358 1111.0 NaN 962.1376085504362 0.5415692000134801 267.0 9.0 174.0 
650.0003413105358 1082.0 NaN 962.0681362725455 0.5235739091326505 267.0 9.0 174.0 
652.0003413105358 1074.0 NaN 958.877755511022 0.5332488248871594 268.0 9.0 173.0 
654.0003413105358 1078.0 NaN 968.1469605878422 0.5337966932426166 269.0 9.0 176.0 
656.0003413105358 1092.0 NaN 977.4589178356725 0.529906232773501 271.0 9.0 179.0 
658.0003413105358 1087.0 NaN 977.4802939211754 0.5263647786730019 269.0 9.0 179.0 
660.0003413105358 1083.0 NaN 980.5290581162336 0.5137997018502306 272.0 9.0 180.0 
662.0003413105358 1089.0 NaN 977.4241816967274 0.5181482084183257 272.0 9.0 179.0 
664.0003413105358 1097.0 NaN 980.4569138276544 0.5385040346235236 271.0 9.0 180.0 
#####################################################################
# End of data export. Simulation finished at: 2019-03-09T13:05+0000 #
#####################################################################
