#####################################################################
# Alchemist log file - simulation started at: 2019-03-12T13:18+0000 #
#####################################################################
# seed = 6.0, bandwidth = 17782.79410038923, propagationDelay = 3.1622776601683795, baserange = 100.0
#
# The columns have the following meaning: 
# time neighbor_count[Sum] <value>@neighbor_count[Sum] packet_size[Mean] mean_delay[Mean] crowd[Sum] overcrowded[Sum] risk[Sum] 
0.0 NaN NaN NaN NaN NaN NaN NaN 
2.0013042135964882 NaN NaN 4988.0 NaN 1497.0 0.0 1497.0 
4.001304213596488 1996.0 NaN 4988.529058116233 0.1566835333098612 1497.0 0.0 1497.0 
6.001304213596488 13126.0 NaN 4996.879091516366 1.5553380194741937 1497.0 0.0 1497.0 
8.001304213596487 13126.0 NaN 4995.585838343353 2.9708424579384296 1496.0 1.0 1496.0 
10.001304213596487 13129.0 NaN 4995.067468269873 1.5562369355486483 1494.0 3.0 1494.0 
12.001161917871695 13130.0 NaN 4993.341349365397 2.973987344327403 1494.0 3.0 1494.0 
14.001304213596487 13130.0 NaN 4995.198396793588 1.5591475418331313 1488.0 9.0 1488.0 
16.000712044811543 13131.0 NaN 4994.637274549098 2.976726363542116 1488.0 9.0 1488.0 
18.001304213596487 13145.0 NaN 4993.862391449566 1.567558275412259 1488.0 9.0 1488.0 
20.00071204481154 13146.0 NaN 4993.148964595858 2.9873967400316923 1488.0 9.0 1488.0 
22.001304213596487 13152.0 NaN 4994.615898463594 1.5765434408763717 1485.0 12.0 1485.0 
24.00071204481154 13154.0 NaN 4994.29258517034 2.994055001847898 1485.0 12.0 1485.0 
26.001304213596487 13170.0 NaN 4993.768871075485 1.5866870015756975 1484.0 13.0 1484.0 
28.00071204481154 13179.0 NaN 4993.148964595858 3.007654378594137 1484.0 13.0 1484.0 
30.001304213596487 13220.0 NaN 4994.386105544422 1.604762371910584 1481.0 16.0 1481.0 
32.00071204481154 13221.0 NaN 4994.148296593186 3.023529303493728 1481.0 16.0 1481.0 
34.001304213596484 13224.0 NaN 4993.723446893788 1.6187364602258218 1481.0 16.0 1481.0 
36.000712044811536 13227.0 NaN 4993.207748830995 3.041621014780593 1481.0 16.0 1481.0 
38.001304213596484 13259.0 NaN 4994.351369405477 1.628649118718872 1480.0 17.0 1480.0 
40.000712044811536 13262.0 NaN 4994.15631262525 3.0476229289580012 1480.0 17.0 1480.0 
42.001304213596484 13287.0 NaN 4993.758183032732 1.6248355735618705 1481.0 16.0 1481.0 
44.000712044811536 13289.0 NaN 4993.221108884435 3.0451153343203807 1480.0 17.0 1480.0 
46.001304213596484 13305.0 NaN 4994.308617234469 1.6419584338983602 1481.0 16.0 1481.0 
48.000712044811536 13314.0 NaN 4994.105544422177 3.057840075603605 1481.0 16.0 1481.0 
50.001304213596484 13372.0 NaN 4993.691382765531 1.6709245421575698 1478.0 19.0 1478.0 
52.000712044811536 13374.0 NaN 4993.191716766867 3.091628194093844 1478.0 19.0 1478.0 
54.001304213596484 13361.0 NaN 4994.287241148964 1.6489831548977534 1477.0 20.0 1477.0 
56.000712044811536 13373.0 NaN 4994.076152304609 3.072823850580023 1477.0 20.0 1477.0 
58.001304213596484 13424.0 NaN 4993.704742818972 1.6973996685602992 1478.0 19.0 1478.0 
60.000712044811536 13429.0 NaN 4993.170340681363 3.1247462460157287 1478.0 19.0 1478.0 
62.001304213596484 13423.0 NaN 1522.5811623246484 1.6971539247481824 821.0 18.0 347.0 
64.00005796740908 13426.0 NaN 1522.567802271209 2.767001038333715 773.0 18.0 347.0 
66.00130421359648 13436.0 NaN 1522.4849699398812 1.8809696403872902 650.0 19.0 346.0 
68.00005796740909 13448.0 NaN 1522.1215764863064 2.8334330920943507 629.0 19.0 346.0 
70.00130421359648 13475.0 NaN 1525.3466933867726 1.9449221559308318 580.0 25.0 341.0 
72.00005796740909 13480.0 NaN 1525.285237140948 2.8968067024120017 571.0 25.0 341.0 
74.00130421359648 13468.0 NaN 1528.288577154309 1.9619288380974307 555.0 25.0 342.0 
76.00005796740909 13495.0 NaN 1531.3186372745483 2.913527854190509 547.0 25.0 343.0 
78.00130421359648 13533.0 NaN 1531.4736138944545 1.991558074472159 527.0 27.0 341.0 
80.00005796740909 13537.0 NaN 1531.4362057448243 2.9431024261002277 525.0 27.0 341.0 
82.00130421359648 13488.0 NaN 1531.305277221109 1.9133617873201705 517.0 27.0 341.0 
84.00005796740909 13497.0 NaN 1534.2818971275885 2.851943499767209 513.0 27.0 342.0 
86.00130421359648 13482.0 NaN 1534.5624582498333 1.9422287439534127 509.0 27.0 342.0 
88.00005796740909 13484.0 NaN 1534.4929859719452 2.898960564616442 507.0 28.0 341.0 
90.00130421359648 13484.0 NaN 1534.3780895123575 1.9717429810093676 508.0 28.0 341.0 
92.00005796740909 13498.0 NaN 1534.2845691382759 2.929310405963555 508.0 28.0 341.0 
94.00130421359648 13487.0 NaN 1534.5384101536395 1.9939939017395774 507.0 27.0 342.0 
96.00005796740909 13490.0 NaN 1534.4929859719452 2.9593336754400426 508.0 26.0 343.0 
98.00130421359648 13481.0 NaN 1537.4669338677363 2.0266989526053636 506.0 26.0 344.0 
100.00005796740909 13486.0 NaN 1537.3680694722789 2.9892457005087008 505.0 26.0 344.0 
102.00130421359648 13469.0 NaN 1537.5871743486973 2.0390595955170494 504.0 27.0 343.0 
104.00005796740909 13474.0 NaN 1537.5230460921846 2.999662458995946 503.0 27.0 343.0 
106.00130421359648 13461.0 NaN 1540.5263861055455 2.040081341757418 501.0 27.0 344.0 
108.00005796740909 13471.0 NaN 1540.438209752839 2.9960907156938834 501.0 26.0 345.0 
110.00130421359648 13471.0 NaN 1540.649298597194 1.9978694980574259 499.0 26.0 345.0 
112.00005796740909 13487.0 NaN 1540.579826319306 2.9529081039245715 499.0 26.0 345.0 
114.00130421359648 13509.0 NaN 1540.5344021376093 1.9582450340068251 501.0 25.0 346.0 
116.00005796740909 13521.0 NaN 1540.4649298597185 2.911739953978328 501.0 25.0 346.0 
118.00130421359648 13531.0 NaN 1543.6847027388094 1.971059644967438 508.0 20.0 352.0 
120.00005796740909 13545.0 NaN 1540.5931863727455 2.929130573899118 508.0 20.0 351.0 
122.00130421359648 13518.0 NaN 1540.515698062791 1.9144434261575172 508.0 20.0 351.0 
124.00005796740909 13525.0 NaN 1540.4408817635274 2.8655863349177904 508.0 20.0 351.0 
126.00130421359648 13533.0 NaN 1540.6680026720094 1.953638118467345 508.0 20.0 351.0 
128.00005796740908 13545.0 NaN 1537.5257181028728 2.9064308914350354 508.0 20.0 350.0 
130.00130421359648 13552.0 NaN 1537.4829659318634 1.9716559912818317 508.0 20.0 350.0 
132.00005796740908 13558.0 NaN 1537.3947895791575 2.9277061325741656 507.0 21.0 349.0 
134.00130421359648 13548.0 NaN 1537.5898463593849 1.9830983548239896 508.0 20.0 350.0 
136.00005796740908 13555.0 NaN 1534.4769539078154 2.9385300459063974 506.0 21.0 348.0 
138.00130421359648 13556.0 NaN 1534.3647294589182 1.9664408189485243 507.0 19.0 350.0 
140.00005796740908 13561.0 NaN 1534.2658650634605 2.9248441037912083 506.0 19.0 350.0 
142.00130421359648 13533.0 NaN 1534.4903139612547 1.9881181865129325 507.0 18.0 351.0 
144.00005796740908 13548.0 NaN 1534.439545758182 2.942863464730029 507.0 18.0 351.0 
146.00130421359648 13561.0 NaN 1540.5611222444907 1.9020481572062184 505.0 18.0 353.0 
148.00005796740908 13566.0 NaN 1540.4729458917823 2.8579075624965116 505.0 18.0 353.0 
150.00130421359648 13566.0 NaN 1543.794255177021 1.948311451440428 508.0 18.0 354.0 
152.00005796740908 13570.0 NaN 1546.7441549766183 2.9063772537043095 508.0 18.0 355.0 
154.00130421359648 13545.0 NaN 1546.7548430193729 1.9410226384683982 508.0 19.0 354.0 
156.00005796740908 13550.0 NaN 1540.5744822979275 2.8954401245095314 509.0 19.0 352.0 
158.00130421359648 13510.0 NaN 1540.6973947895792 1.938625954493249 510.0 19.0 352.0 
160.00005796740908 13516.0 NaN 1537.5738142952573 2.8962650650558266 510.0 19.0 351.0 
162.00130421359648 13493.0 NaN 1537.456245824982 1.9545297032279443 510.0 18.0 352.0 
164.00005796740908 13501.0 NaN 1537.410821643288 2.915213271216155 506.0 18.0 352.0 
166.00130421359648 13502.0 NaN 1540.6519706078818 2.00443148379978 505.0 18.0 353.0 
168.00005796740908 13510.0 NaN 1534.4769539078156 2.9683989021163617 505.0 18.0 351.0 
170.00130421359648 13512.0 NaN 1540.5450901803613 2.042329407698771 506.0 18.0 353.0 
172.00005796740908 13516.0 NaN 1537.3413493653975 3.004479163033639 504.0 19.0 351.0 
174.00130421359648 13443.0 NaN 1540.6519706078816 1.9573910089292585 508.0 18.0 353.0 
176.00005796740908 13447.0 NaN 1537.5390781563117 2.9148339767378353 508.0 18.0 352.0 
178.00130421359648 13446.0 NaN 1537.4535738142933 2.0038352879584176 507.0 19.0 351.0 
180.00005796740908 13456.0 NaN 1537.3974615898453 2.962001139941824 507.0 19.0 351.0 
182.00130421359648 13415.0 NaN 1540.6573146292571 2.000128199148747 501.0 24.0 347.0 
184.00005796740908 13421.0 NaN 1540.5771543086184 2.959446422373784 498.0 24.0 347.0 
186.00130421359648 13399.0 NaN 1540.5370741482973 1.9336898318911342 498.0 24.0 347.0 
188.00005796740908 13412.0 NaN 1540.4569138276545 2.892314532202481 497.0 24.0 347.0 
190.00130421359648 13390.0 NaN 1534.5597862391458 1.96540707698597 501.0 20.0 349.0 
192.00005796740908 13398.0 NaN 1534.4716098864392 2.9273484856101746 499.0 20.0 349.0 
194.00130421359648 13361.0 NaN 1534.4288577154302 1.9508203333221887 499.0 21.0 348.0 
196.00005796740908 13373.0 NaN 1534.3460253841001 2.907802755347188 499.0 21.0 348.0 
198.00130421359648 13392.0 NaN 1537.605878423512 1.9886068764659068 496.0 25.0 345.0 
200.00005796740908 13399.0 NaN 1537.5818303273209 2.953287085161019 494.0 24.0 346.0 
202.00130421359648 13327.0 NaN 1537.4215096860385 1.9680814244014821 498.0 24.0 346.0 
204.00005796740908 13332.0 NaN 1537.3814295257184 2.938293357603503 496.0 25.0 345.0 
206.00130421359648 13321.0 NaN 1537.6272545090183 2.01179909212475 497.0 25.0 345.0 
208.00005796740908 13332.0 NaN 1534.5170340681366 2.9808336215003033 492.0 26.0 343.0 
210.00130421359648 13336.0 NaN 1534.3887775551088 2.11026609527308 493.0 26.0 343.0 
212.00005796740908 13339.0 NaN 1534.2952571810274 3.0803324466999036 492.0 27.0 342.0 
214.00130421359648 13302.0 NaN 1537.573814295257 2.111149207232628 498.0 20.0 350.0 
216.00005796740908 13313.0 NaN 1528.3313293253182 3.0788850314381837 495.0 20.0 347.0 
218.00130421359648 13319.0 NaN 1528.1629926519724 2.195510203017165 499.0 20.0 347.0 
220.00005796740908 13326.0 NaN 1528.1148964595848 3.158991006168249 499.0 20.0 347.0 
222.00130421359648 13260.0 NaN 1522.2124248497 2.260041211017709 494.0 25.0 340.0 
224.00005796740908 13265.0 NaN 1522.1616566466273 3.222790899395877 491.0 25.0 340.0 
226.00130421359648 13245.0 NaN 1528.2244488977972 2.172671099405799 493.0 26.0 341.0 
228.00005796740908 13254.0 NaN 1528.136272545091 3.1362532342628455 492.0 27.0 340.0 
230.00130421359648 13218.0 NaN 1534.5410821643272 2.0711225113250613 495.0 23.0 346.0 
232.00005796740908 13220.0 NaN 1534.4235136940545 3.034300602349727 494.0 20.0 349.0 
234.00130421359648 13179.0 NaN 1534.3567134268546 1.9918944371595793 499.0 19.0 350.0 
236.00005796740908 13187.0 NaN 1534.2845691382756 2.94474090732 499.0 19.0 350.0 
238.00130421359648 13179.0 NaN 1534.4208416833662 2.056149935747201 498.0 19.0 350.0 
240.00005796740908 13190.0 NaN 1531.289245156982 3.0066585504247536 494.0 19.0 349.0 
242.00130421359648 13155.0 NaN 1531.238476953909 2.053934263266904 497.0 20.0 348.0 
244.00005796740908 13159.0 NaN 1528.1015364061454 3.015291237828737 494.0 23.0 344.0 
246.00130421359648 13139.0 NaN 1528.3233132932544 2.1035471860034995 490.0 27.0 340.0 
248.00005796740908 13151.0 NaN 1522.1189044756184 3.067401934094104 487.0 27.0 338.0 
250.00130421359648 13137.0 NaN 1515.8877755511003 2.1303166349141636 487.0 29.0 334.0 
252.00005796740908 13141.0 NaN 1515.8263193052755 3.0937244703802644 486.0 29.0 334.0 
254.00130421359648 13076.0 NaN 1515.9572478289908 2.14218361295833 487.0 26.0 337.0 
256.0000579674091 13085.0 NaN 1515.9572478289908 3.088451775096422 484.0 26.0 337.0 
258.0013042135965 13079.0 NaN 1515.871743486973 2.178129146381777 491.0 26.0 337.0 
260.0000579674091 13099.0 NaN 1512.7508350033393 3.1353314415862568 490.0 26.0 336.0 
262.0013042135965 13064.0 NaN 1512.9138276553094 2.0810938641382597 490.0 26.0 336.0 
264.0000579674091 13071.0 NaN 1509.7875751503 3.0339173873199345 487.0 26.0 335.0 
266.0013042135965 13032.0 NaN 1519.0140280561118 2.060880011248201 491.0 25.0 339.0 
268.0000579674091 13053.0 NaN 1518.925851703409 3.010960719072928 491.0 25.0 339.0 
270.0013042135965 13062.0 NaN 1528.293921175684 2.043870347388426 488.0 26.0 341.0 
272.0000579674091 13068.0 NaN 1528.1950567802273 3.0044342362965923 487.0 26.0 341.0 
274.0013042135965 13013.0 NaN 1525.1008684034728 2.089568416646157 487.0 25.0 341.0 
276.0000579674091 13021.0 NaN 1525.0661322645274 3.0563129361287458 487.0 25.0 341.0 
278.0013042135965 13046.0 NaN 1528.2191048764182 2.144539570493568 485.0 26.0 341.0 
280.0000579674091 13063.0 NaN 1534.305945223782 3.107506615753702 490.0 25.0 344.0 
282.0013042135965 13031.0 NaN 1537.3547094188364 2.192639269428352 490.0 25.0 345.0 
284.0000579674091 13035.0 NaN 1531.126252505009 3.1640902205280397 489.0 25.0 343.0 
286.0013042135965 12990.0 NaN 1528.1870407481638 2.1985653651683834 489.0 25.0 342.0 
288.0000579674091 12993.0 NaN 1528.1683366733455 3.1703292785723045 489.0 25.0 342.0 
290.0013042135965 12984.0 NaN 1525.039412157648 2.2335254193447396 490.0 24.0 342.0 
292.0000579674091 12987.0 NaN 1524.9405477621908 3.2085202592944477 492.0 22.0 344.0 
294.0013042135965 12900.0 NaN 1522.028056112225 2.1939698531763026 494.0 20.0 345.0 
296.0000579674091 12908.0 NaN 1522.0146960587838 3.1647447429733195 494.0 20.0 345.0 
298.0013042135965 12890.0 NaN 1528.1148964595843 2.139957054684118 493.0 19.0 348.0 
300.0000579674091 12904.0 NaN 1528.0240480961909 3.1098990444681966 493.0 19.0 348.0 
302.0013042135965 12866.0 NaN 1531.2651970607888 2.053859590336357 491.0 19.0 349.0 
304.0000579674091 12864.0 NaN 1528.2084168336662 3.0313974323990056 490.0 19.0 348.0 
306.0013042135965 12801.0 NaN 1528.056112224448 2.074825538219058 489.0 19.0 348.0 
308.0000579674091 12811.0 NaN 1524.9405477621908 3.055019235685484 489.0 19.0 347.0 
310.0013042135965 12800.0 NaN 1531.3453573814272 2.100031938132897 489.0 19.0 349.0 
312.0000579674091 12805.0 NaN 1531.3079492317977 3.079966810251453 490.0 19.0 349.0 
314.0013042135965 12753.0 NaN 1531.2251169004662 2.109670125218787 489.0 19.0 349.0 
316.0000579674091 12757.0 NaN 1528.0507682030725 3.065921263966499 489.0 19.0 348.0 
318.0013042135965 12740.0 NaN 1528.2351369405455 2.1057815022984903 489.0 19.0 348.0 
320.0000579674091 12750.0 NaN 1528.1736806947245 3.082991101153325 490.0 19.0 348.0 
322.0013042135965 12692.0 NaN 1531.1209084836341 2.1078407281301406 488.0 19.0 349.0 
324.0000579674091 12696.0 NaN 1531.078156312627 3.0801263073955107 488.0 19.0 349.0 
326.0013042135965 12658.0 NaN 1537.3814295257182 2.101809981005675 487.0 19.0 351.0 
328.0000579674091 12667.0 NaN 1534.305945223782 3.0790984734723015 486.0 19.0 350.0 
330.0013042135965 12669.0 NaN 1534.3246492985975 2.0611896133094554 489.0 19.0 350.0 
332.0000579674091 12676.0 NaN 1531.1823647294575 3.029422949315617 489.0 19.0 349.0 
334.0013042135965 12628.0 NaN 1531.3213092852363 2.030190898327099 490.0 19.0 349.0 
336.0000579674091 12642.0 NaN 1525.1275885103548 2.9920923874075434 490.0 19.0 347.0 
338.0013042135965 12665.0 NaN 1531.1903807615245 2.0725220376511837 492.0 19.0 349.0 
340.0000579674091 12677.0 NaN 1524.9164996659997 3.042461571084839 491.0 19.0 347.0 
342.0013042135965 12648.0 NaN 1525.13293253173 2.0561014247655494 490.0 19.0 347.0 
344.0000579674091 12658.0 NaN 1522.0521042084179 3.023267473870854 490.0 19.0 346.0 
346.0013042135965 12663.0 NaN 1524.999331997327 2.086741803247228 489.0 19.0 347.0 
348.0000579674091 12673.0 NaN 1524.951235804945 3.0547689714937563 489.0 19.0 347.0 
350.0013042135965 12677.0 NaN 1525.1115564462268 2.046297419385537 493.0 19.0 347.0 
352.0000579674091 12685.0 NaN 1525.0420841683363 3.0121880811928268 494.0 19.0 347.0 
354.0013042135965 12649.0 NaN 1525.0313961255843 2.00259609316358 492.0 19.0 347.0 
356.0000579674091 12657.0 NaN 1524.961923847694 2.971844518783734 493.0 19.0 347.0 
358.0013042135965 12675.0 NaN 1525.1222444889786 2.0114271983789376 492.0 18.0 348.0 
360.0000579674091 12686.0 NaN 1528.136272545091 2.982826421391607 493.0 18.0 349.0 
362.0013042135965 12667.0 NaN 1528.1336005344006 2.028999670554271 497.0 18.0 349.0 
364.0000579674091 12677.0 NaN 1525.028724114897 3.0064368831489183 497.0 18.0 348.0 
366.0013042135965 12660.0 NaN 1522.0681362725456 2.0509466372198517 497.0 18.0 347.0 
368.0000579674091 12665.0 NaN 1512.7828991315969 3.029853518659228 497.0 18.0 344.0 
370.0013042135965 12672.0 NaN 1515.8637274549092 2.070985407725892 497.0 18.0 345.0 
372.0000579674091 12676.0 NaN 1509.608550434201 3.0566804674103825 497.0 19.0 342.0 
374.0013042135965 12656.0 NaN 1512.8523714094847 2.143638248700697 498.0 19.0 343.0 
376.0000579674091 12668.0 NaN 1509.6459585838352 3.111098996725085 498.0 18.0 343.0 
378.0013042135965 12657.0 NaN 1509.6913827655303 2.1551588116866958 497.0 20.0 341.0 
380.0000579674091 12666.0 NaN 1509.6112224448907 3.1375403245817326 496.0 21.0 340.0 
382.0013042135965 12634.0 NaN 1512.7989311957253 2.1982713436608203 501.0 18.0 344.0 
384.0000579674091 12639.0 NaN 1512.7508350033393 3.189677538810601 502.0 19.0 343.0 
386.0013042135965 12613.0 NaN 1521.9933199732811 2.220346680464748 500.0 19.0 346.0 
388.0000579674091 12629.0 NaN 1521.9185036740153 3.215435825517136 501.0 19.0 346.0 
390.0013042135965 12635.0 NaN 1528.146960587843 2.2181380847715584 502.0 19.0 348.0 
392.0000579674091 12640.0 NaN 1525.0340681362727 3.212760671060118 502.0 19.0 347.0 
394.0013042135965 12622.0 NaN 1521.9612558450242 2.28006378816114 502.0 19.0 346.0 
396.0000579674091 12641.0 NaN 1509.69138276553 3.268705316740595 504.0 19.0 342.0 
398.0013042135965 12627.0 NaN 1509.7955911823635 2.25433625551362 504.0 19.0 342.0 
400.0000579674091 12633.0 NaN 1509.6860387441545 3.2411072181667513 504.0 19.0 342.0 
402.0013042135965 12610.0 NaN 1512.7962591850362 2.270496808280881 505.0 19.0 343.0 
404.0000579674091 12619.0 NaN 1518.8777555110212 3.2470118903223804 507.0 18.0 346.0 
406.0013042135965 12596.0 NaN 1522.0627922511696 2.224680143699423 505.0 18.0 347.0 
408.0000579674091 12609.0 NaN 1518.9098196392795 3.207645981476618 504.0 18.0 346.0 
410.0013042135965 12593.0 NaN 1525.0848363393457 2.163332156826088 506.0 18.0 348.0 
412.0000579674091 12599.0 NaN 1531.1716766867069 3.1396809692686936 505.0 18.0 350.0 
414.0013042135965 12579.0 NaN 1537.4722778891114 2.1212438321562774 506.0 18.0 352.0 
416.0000579674091 12595.0 NaN 1534.2845691382756 3.10339004466479 505.0 19.0 350.0 
418.0013042135965 12577.0 NaN 1531.1903807615242 2.1121747059941294 506.0 18.0 350.0 
420.0000579674091 12582.0 NaN 1531.1315965263848 3.0904168233906253 507.0 18.0 350.0 
422.0013042135965 12540.0 NaN 1531.2785571142272 2.130387729885228 509.0 18.0 350.0 
424.0000579674091 12550.0 NaN 1509.675350701402 3.1032219331554654 507.0 18.0 343.0 
426.0013042135965 12555.0 NaN 1515.82364729459 2.120581753103222 511.0 18.0 345.0 
428.0000579674091 12564.0 NaN 1512.6973947895797 3.074535037303098 508.0 18.0 344.0 
430.0013042135965 12568.0 NaN 1512.8390113560454 2.115037873504723 505.0 18.0 344.0 
432.0000579674091 12578.0 NaN 1509.6860387441545 3.077232246842451 503.0 18.0 343.0 
434.0013042135965 12549.0 NaN 1512.689378757516 2.081254050259837 502.0 18.0 344.0 
436.0000579674091 12560.0 NaN 1512.6813627254517 3.049123434256282 506.0 18.0 344.0 
438.0013042135965 12584.0 NaN 1534.3994655978634 2.1508676051940823 510.0 18.0 351.0 
440.0000579674091 12595.0 NaN 1534.2818971275888 3.1301808969799874 511.0 18.0 351.0 
442.0013042135965 12568.0 NaN 1534.2177688710754 2.0765830500469753 511.0 18.0 351.0 
444.0000579674091 12571.0 NaN 1528.0427521710092 3.051826405078 511.0 18.0 349.0 
446.0013042135965 12555.0 NaN 1534.3246492985975 2.1052134213363387 510.0 18.0 351.0 
448.0000579674091 12566.0 NaN 1540.3794255177002 3.0829793532909626 511.0 18.0 353.0 
450.0013042135965 12554.0 NaN 1546.6158984635933 2.1103338563590617 510.0 18.0 355.0 
452.0000579674091 12562.0 NaN 1546.5464261857064 3.1021399049314042 510.0 18.0 355.0 
454.0013042135965 12531.0 NaN 1546.5838343353362 2.1279767193024357 510.0 18.0 355.0 
456.0000579674091 12538.0 NaN 1549.6192384769547 3.119769907378377 508.0 18.0 356.0 
458.0013042135965 12558.0 NaN 1552.7695390781548 2.246946495028245 507.0 19.0 356.0 
460.0000579674091 12563.0 NaN 1552.6973947895794 3.235182625377983 509.0 19.0 356.0 
462.0013042135965 12538.0 NaN 1549.7154308617246 2.220407820275183 509.0 19.0 355.0 
464.0000579674091 12541.0 NaN 1549.6058784235117 3.200461384215759 509.0 19.0 355.0 
466.0013042135965 12513.0 NaN 1546.5170340681366 2.222627299527506 506.0 19.0 354.0 
468.0000579674091 12524.0 NaN 1543.3987975951911 3.209432686537697 506.0 19.0 353.0 
470.0013042135965 12491.0 NaN 1540.5130260521028 2.193175472590337 506.0 19.0 352.0 
472.0000579674091 12502.0 NaN 1534.2765531062116 3.180935526772099 505.0 19.0 350.0 
474.0013042135965 12497.0 NaN 1531.171676686707 2.1995339182613063 505.0 19.0 349.0 
476.0000579674091 12505.0 NaN 1524.9939879759522 3.1807487971092128 502.0 19.0 347.0 
478.0013042135965 12485.0 NaN 1525.1382765531068 2.1269334944380627 499.0 19.0 347.0 
480.0000579674091 12488.0 NaN 1525.0287241148972 3.0986516048590826 500.0 19.0 347.0 
482.0013042135965 12455.0 NaN 1525.0260521042092 2.028889351677254 499.0 19.0 347.0 
484.0000579674091 12459.0 NaN 1518.8537074148292 3.0002561079124574 499.0 19.0 345.0 
486.0013042135965 12471.0 NaN 1515.917167668672 2.1160429109743526 500.0 19.0 344.0 
488.0000579674091 12479.0 NaN 1509.7635270541089 3.0917518257123264 498.0 19.0 342.0 
490.0013042135965 12470.0 NaN 1509.6993987975939 2.109195182410171 496.0 19.0 342.0 
492.0000579674091 12476.0 NaN 1503.4602538410163 3.0784919602358207 497.0 19.0 340.0 
494.0013042135965 12468.0 NaN 1497.5016700066808 2.1071396541389946 493.0 19.0 338.0 
496.0000579674091 12480.0 NaN 1494.3727454909817 3.0846509463920198 492.0 19.0 337.0 
498.0013042135965 12485.0 NaN 1494.3540414161648 2.148471484777708 491.0 19.0 337.0 
500.0000579674091 12496.0 NaN 1494.2818971275892 3.1169031799534905 491.0 19.0 337.0 
502.0013042135965 12481.0 NaN 1497.4562458249827 2.1933203341661263 493.0 20.0 337.0 
504.0000579674091 12501.0 NaN 1494.2979291917175 3.1655480813989696 493.0 20.0 336.0 
506.0013042135965 12507.0 NaN 1503.5511022044093 2.232446022394565 495.0 20.0 339.0 
508.0000579674091 12512.0 NaN 1500.4328657314636 3.2118631811823852 495.0 20.0 338.0 
510.0013042135965 12477.0 NaN 1503.572478289912 2.206247251866685 498.0 20.0 339.0 
512.0000579674091 12482.0 NaN 1497.3333333333342 3.178982058602907 498.0 20.0 337.0 
514.0013042135965 12448.0 NaN 1500.400801603207 2.150075075983271 498.0 20.0 338.0 
516.000057967409 12460.0 NaN 1485.0287241148974 3.122792206435879 497.0 20.0 333.0 
518.0013042135965 12454.0 NaN 1485.2077488309944 2.1218846962195173 496.0 19.0 334.0 
520.000057967409 12467.0 NaN 1482.0200400801614 3.0908389217027903 495.0 19.0 333.0 
522.0013042135965 12438.0 NaN 1482.0146960587836 2.092446269432513 494.0 20.0 332.0 
524.000057967409 12460.0 NaN 1478.856379425518 3.048100578648199 495.0 20.0 331.0 
526.0013042135965 12501.0 NaN 1466.7575150300609 2.105897823842864 496.0 20.0 327.0 
528.000057967409 12515.0 NaN 1469.8169672678703 3.0608754022302893 496.0 20.0 328.0 
530.0013042135965 12523.0 NaN 1466.685370741482 2.0758377318169265 488.0 20.0 327.0 
532.000057967409 12532.0 NaN 1463.569806279226 3.017045182238135 489.0 20.0 326.0 
534.0013042135965 12510.0 NaN 1469.8062792251174 2.016721299680148 494.0 20.0 328.0 
536.000057967409 12530.0 NaN 1469.792919171676 2.962987562773804 494.0 20.0 328.0 
538.0013042135965 12578.0 NaN 1466.7254509018028 2.0780033095747332 493.0 20.0 327.0 
540.000057967409 12593.0 NaN 1466.6907147628576 3.021936899754998 492.0 20.0 327.0 
542.0013042135965 12590.0 NaN 1469.8597194388788 2.1105221552063744 491.0 21.0 327.0 
544.000057967409 12601.0 NaN 1469.712758851036 3.0658242375834197 491.0 21.0 327.0 
546.0013042135965 12606.0 NaN 1463.5671342685366 2.167672671884177 492.0 21.0 325.0 
548.000057967409 12614.0 NaN 1466.6693386773545 3.1254956911630933 493.0 21.0 326.0 
550.0013042135965 12615.0 NaN 1466.6960587842357 2.2133852840259767 495.0 21.0 326.0 
552.000057967409 12626.0 NaN 1466.6346025384096 3.1710828451552584 496.0 21.0 326.0 
554.0013042135965 12612.0 NaN 1466.6319305277216 2.2620111150947166 494.0 21.0 326.0 
556.000057967409 12624.0 NaN 1460.5076820307277 3.2201791728531357 492.0 21.0 324.0 
558.0013042135965 12643.0 NaN 1454.4555778223105 2.290867441474699 492.0 21.0 322.0 
560.000057967409 12650.0 NaN 1460.4782899131596 3.2459427661583717 490.0 22.0 323.0 
562.0013042135965 12603.0 NaN 1460.4569138276547 2.2655970666720484 491.0 22.0 323.0 
564.000057967409 12614.0 NaN 1457.400133600535 3.2193483224580643 488.0 22.0 322.0 
566.0013042135965 12624.0 NaN 1460.6279225116905 2.2789670068921426 488.0 21.0 324.0 
568.000057967409 12651.0 NaN 1463.6125584502338 3.214275643055043 488.0 21.0 325.0 
570.0013042135965 12663.0 NaN 1472.7802271209089 2.2196711654679575 490.0 22.0 327.0 
572.000057967409 12671.0 NaN 1469.712758851036 3.169372238632337 490.0 22.0 326.0 
574.0013042135965 12637.0 NaN 1475.9465597862388 2.186333791295041 496.0 21.0 329.0 
576.000057967409 12657.0 NaN 1475.8877755511012 3.1382488494872205 498.0 21.0 329.0 
578.0013042135965 12690.0 NaN 1482.156312625251 2.1689767916906617 497.0 20.0 332.0 
580.000057967409 12704.0 NaN 1475.9385437541741 3.126900366607931 498.0 18.0 332.0 
582.0013042135965 12699.0 NaN 1479.0915163660648 2.179057763196945 497.0 20.0 331.0 
584.000057967409 12704.0 NaN 1475.9305277221104 3.1360865343492508 495.0 21.0 329.0 
586.0013042135965 12716.0 NaN 1479.0300601202398 2.260423268331576 502.0 19.0 332.0 
588.000057967409 12740.0 NaN 1485.1222444889788 3.2239422733517418 503.0 19.0 334.0 
590.0013042135965 12782.0 NaN 1491.4335337341354 2.2803528235788812 507.0 19.0 336.0 
592.000057967409 12791.0 NaN 1491.3426853707424 3.249049235455631 506.0 19.0 336.0 
594.0013042135965 12715.0 NaN 1491.2972611890452 2.2664035174116735 507.0 19.0 336.0 
596.000057967409 12730.0 NaN 1488.2084168336667 3.2243661186902406 507.0 19.0 335.0 
598.0013042135965 12751.0 NaN 1488.3233132932535 2.3527470713494743 512.0 19.0 335.0 
600.000057967409 12771.0 NaN 1488.1950567802273 3.3186624259515147 511.0 19.0 335.0 
602.0013042135965 12727.0 NaN 1491.350701402806 2.3815692462842515 510.0 19.0 336.0 
604.000057967409 12741.0 NaN 1488.235136940547 3.354438442805681 509.0 19.0 335.0 
606.0013042135965 12735.0 NaN 1491.385437541751 2.3245245492725672 509.0 20.0 335.0 
608.000057967409 12759.0 NaN 1500.5450901803617 3.2816384168304586 511.0 20.0 338.0 
610.0013042135965 12780.0 NaN 1503.6339345357376 2.2455511422316543 511.0 20.0 339.0 
612.000057967409 12796.0 NaN 1503.5644622578484 3.2099399464160703 509.0 20.0 339.0 
614.0013042135965 12774.0 NaN 1503.6526386105547 2.214251713277145 507.0 20.0 339.0 
616.000057967409 12794.0 NaN 1500.5317301269195 3.1837893771431234 505.0 20.0 338.0 
618.0013042135965 12851.0 NaN 1503.7221108884444 2.2462494770358914 508.0 19.0 340.0 
620.000057967409 12861.0 NaN 1500.5531062124255 3.2203033825293645 507.0 19.0 339.0 
622.0013042135965 12844.0 NaN 1506.8056112224456 2.247894387805776 507.0 19.0 341.0 
624.000057967409 12855.0 NaN 1509.7581830327333 3.221526139665649 508.0 19.0 342.0 
626.0013042135965 12843.0 NaN 1512.876419505679 2.283085125015425 505.0 18.0 344.0 
628.000057967409 12866.0 NaN 1509.7608550434193 3.2653688971756964 503.0 18.0 343.0 
630.0013042135965 12898.0 NaN 1512.9966599866393 2.2864919148725047 501.0 19.0 343.0 
632.000057967409 12906.0 NaN 1509.8116232464922 3.252163275065768 500.0 19.0 342.0 
634.0013042135965 12870.0 NaN 1512.9245156980635 2.2231650480805043 498.0 19.0 343.0 
636.000057967409 12887.0 NaN 1512.935203740816 3.1922894060489106 499.0 19.0 343.0 
638.0013042135965 12906.0 NaN 1519.1396125584513 2.270331880227016 499.0 19.0 345.0 
640.000057967409 12914.0 NaN 1515.9759519038082 3.25168072570835 498.0 19.0 344.0 
642.0013042135965 12864.0 NaN 1516.0053440213758 2.2537457518541752 509.0 19.0 344.0 
644.000057967409 12875.0 NaN 1515.9305277221104 3.232080925225135 510.0 19.0 344.0 
646.0013042135965 12844.0 NaN 1516.0587842351363 2.276423223990615 507.0 19.0 344.0 
648.000057967409 12862.0 NaN 1512.8710754843012 3.2501296049704056 506.0 19.0 343.0 
650.0013042135965 12874.0 NaN 1519.147628590515 2.2583810532762514 505.0 18.0 346.0 
652.000057967409 12884.0 NaN 1515.9652638610548 3.2373897743434936 506.0 18.0 345.0 
654.0013042135965 12840.0 NaN 1519.1823647294577 2.1799898389199313 503.0 18.0 346.0 
656.000057967409 12849.0 NaN 1531.372077488309 3.157434800678504 502.0 18.0 350.0 
658.0013042135965 12870.0 NaN 1537.5764863059455 2.1880311757297743 501.0 18.0 352.0 
660.000057967409 12879.0 NaN 1540.5531062124255 3.17371777550742 501.0 18.0 353.0 
662.0013042135965 12809.0 NaN 1543.615230460921 2.172209545657639 496.0 18.0 354.0 
664.000057967409 12817.0 NaN 1540.4542418169665 3.1473364075633965 497.0 18.0 353.0 
#####################################################################
# End of data export. Simulation finished at: 2019-03-12T13:25+0000 #
#####################################################################
