#####################################################################
# Alchemist log file - simulation started at: 2019-03-06T01:27+0000 #
#####################################################################
# seed = 3.0, bandwidth = 5623413.251903491, propagationDelay = 3.1622776601683795, baserange = 10.0
#
# The columns have the following meaning: 
# time neighbor_count[Sum] <value>@neighbor_count[Sum] packet_size[Mean] mean_delay[Mean] crowd[Sum] overcrowded[Sum] risk[Sum] 
0.0 NaN NaN NaN NaN NaN NaN NaN 
2.0005923698108097 NaN NaN 4988.0 NaN 1497.0 0.0 1497.0 
4.000348723562368 173.0 NaN 4988.296593186373 0.26045272498123695 1497.0 0.0 1497.0 
6.000084666035003 486.0 NaN 4991.957247828991 1.842135686914436 1497.0 0.0 1497.0 
8.00034730093884 486.0 NaN 4991.2919171676685 2.4032468249763594 1497.0 0.0 1497.0 
10.00033353340315 486.0 NaN 4990.386105544422 1.8421348707829799 1497.0 0.0 1497.0 
12.00034730093884 487.0 NaN 4990.0040080160325 2.397015909397207 1497.0 0.0 1497.0 
14.00059236981081 488.0 NaN 4989.9799599198395 1.845275329752274 1497.0 0.0 1497.0 
16.000084666035004 488.0 NaN 4989.875751503006 2.4012004058384804 1497.0 0.0 1497.0 
18.00059236981081 488.0 NaN 4989.547094188377 1.8718546232969935 1497.0 0.0 1497.0 
20.00033353340315 487.0 NaN 4989.517702070808 2.3918030739571314 1497.0 0.0 1497.0 
22.00059236981081 492.0 NaN 4989.774215096861 1.871671254516772 1497.0 0.0 1497.0 
24.000347300938838 488.0 NaN 4989.715430861724 2.3993805896544687 1497.0 0.0 1497.0 
26.000084666035004 488.0 NaN 4989.629926519706 1.841985423162819 1497.0 0.0 1497.0 
28.000347300938838 491.0 NaN 4989.680694722779 2.3972038281087675 1497.0 0.0 1497.0 
30.00033353340315 494.0 NaN 4989.667334669339 1.8599937889255984 1497.0 0.0 1497.0 
32.00034730093884 493.0 NaN 4989.782231128925 2.394539028991461 1497.0 0.0 1497.0 
34.00059236981081 497.0 NaN 4989.477621910488 1.8659922222795866 1497.0 0.0 1497.0 
36.00008466603501 496.0 NaN 4989.477621910488 2.4092821952800145 1497.0 0.0 1497.0 
38.00059236981081 502.0 NaN 4989.710086840348 1.8749726908845135 1497.0 0.0 1497.0 
40.00033353340315 503.0 NaN 4989.76085504342 2.415447119373349 1497.0 0.0 1497.0 
42.00059236981081 508.0 NaN 4989.643286573147 1.9537062877870754 1497.0 0.0 1497.0 
44.000347300938834 501.0 NaN 4989.736806947228 2.39402579567486 1497.0 0.0 1497.0 
46.00008466603501 505.0 NaN 4989.680694722779 1.8685482569877307 1497.0 0.0 1497.0 
48.000347300938834 505.0 NaN 4989.795591182365 2.4016717433715287 1497.0 0.0 1497.0 
50.00033353340315 507.0 NaN 4989.547094188377 1.891816942261272 1497.0 0.0 1497.0 
52.000347300938834 501.0 NaN 4989.4749498998 2.422936964125588 1497.0 0.0 1497.0 
54.00059236981081 502.0 NaN 4989.763527054109 1.8812839224295141 1497.0 0.0 1497.0 
56.00008466603501 501.0 NaN 4989.712758851036 2.404511360006164 1497.0 0.0 1497.0 
58.00059236981081 512.0 NaN 4989.758183032732 1.9283548471556717 1497.0 0.0 1497.0 
60.00033353340315 502.0 NaN 4989.851703406814 2.4123403299548016 1497.0 0.0 1497.0 
62.00059236981081 507.0 NaN 596.5637942551774 1.9190866052258782 308.0 0.0 64.0 
64.00034730093884 500.0 NaN 596.6199064796257 2.4537109037860487 307.0 0.0 64.0 
66.00008466603501 503.0 NaN 599.593854375418 1.9213940533884368 305.0 0.0 65.0 
68.00059236981082 496.0 NaN 599.5591182364726 2.455746811643852 301.0 0.0 65.0 
70.00033353340315 500.0 NaN 602.615898463594 1.9720498038737058 300.0 0.0 66.0 
72.00059236981082 488.0 NaN 602.62124248497 2.4488279584685513 293.0 0.0 66.0 
74.00059236981082 491.0 NaN 602.6185704742818 1.901078027284932 293.0 0.0 66.0 
76.00008466603501 491.0 NaN 605.7047428189713 2.4440331320152855 292.0 0.0 67.0 
78.00059236981082 495.0 NaN 605.6833667334668 1.9258778259444522 292.0 0.0 67.0 
80.00033353340315 488.0 NaN 605.6940547762185 2.437959605179961 278.0 0.0 67.0 
82.00059236981082 495.0 NaN 608.7668670674682 1.895556106549934 257.0 0.0 68.0 
84.00059236981082 492.0 NaN 608.7561790247164 2.4662328134167906 241.0 0.0 68.0 
86.00008466603501 493.0 NaN 608.7508350033407 1.9255047730958168 222.0 0.0 68.0 
88.00059236981082 486.0 NaN 608.7561790247164 2.429093700280118 212.0 0.0 68.0 
90.00033353340315 490.0 NaN 605.6967267869072 1.911927166363221 197.0 0.0 67.0 
92.00059236981082 485.0 NaN 605.6700066800274 2.3894378848420863 195.0 0.0 67.0 
94.00059236981082 486.0 NaN 605.6887107548428 1.8868093509936723 189.0 0.0 67.0 
96.00008466603501 481.0 NaN 602.6319305277225 2.4127712388318887 184.0 0.0 66.0 
98.00059236981082 482.0 NaN 602.6426185704742 1.8817201987169614 178.0 0.0 66.0 
100.00033353340315 483.0 NaN 602.6372745490982 2.47042795864598 175.0 0.0 66.0 
102.00059236981082 491.0 NaN 608.7882431529729 1.9615467003315143 169.0 0.0 68.0 
104.00059236981082 480.0 NaN 608.7882431529729 2.4185237021555674 161.0 0.0 68.0 
106.00008466603501 480.0 NaN 605.7234468937878 1.841677543871256 149.0 0.0 67.0 
108.00059236981082 481.0 NaN 605.7234468937878 2.4247901403841867 146.0 0.0 67.0 
110.00033353340315 482.0 NaN 596.5237140948565 1.8764926845453347 143.0 0.0 64.0 
112.00059236981082 482.0 NaN 596.534402137609 2.422657329736105 144.0 0.0 64.0 
114.00059236981082 491.0 NaN 596.5183700734802 1.8930439267167511 144.0 0.0 64.0 
116.00008466603501 482.0 NaN 593.4509018036069 2.43638769710113 140.0 0.0 63.0 
118.00059236981082 487.0 NaN 590.380761523046 1.88471851645752 140.0 0.0 62.0 
120.00033353340315 486.0 NaN 590.380761523046 2.4631271091925924 137.0 0.0 62.0 
122.00059236981082 492.0 NaN 596.5370741482959 1.9390650950552584 136.0 0.0 64.0 
124.00059236981082 485.0 NaN 596.5263861055449 2.441329059300307 135.0 0.0 64.0 
126.00008466603501 486.0 NaN 596.5263861055449 1.8398063334861525 133.0 0.0 64.0 
128.00059236981082 490.0 NaN 599.6072144288578 2.4372622661215297 134.0 0.0 65.0 
130.00033353340314 500.0 NaN 602.6800267201073 1.8964125894495012 135.0 0.0 66.0 
132.00059236981082 495.0 NaN 605.7154308617231 2.4127450818838216 134.0 0.0 67.0 
134.00059236981082 509.0 NaN 608.8309953239819 1.8931605856628881 137.0 0.0 68.0 
136.000084666035 500.0 NaN 608.8096192384774 2.4241886415585503 136.0 0.0 68.0 
138.00059236981082 500.0 NaN 605.74749498998 1.8974954496718561 135.0 0.0 67.0 
140.00033353340314 502.0 NaN 608.8149632598531 2.3910072139544294 136.0 0.0 68.0 
142.00059236981082 512.0 NaN 618.0227120908487 1.893409298356921 136.0 0.0 71.0 
144.00059236981082 506.0 NaN 614.936539746159 2.422812789619148 135.0 0.0 70.0 
146.000084666035 508.0 NaN 614.9525718102867 1.8937010088498945 135.0 0.0 70.0 
148.00059236981082 507.0 NaN 611.8610554442225 2.4401526851890467 135.0 0.0 69.0 
150.00033353340314 511.0 NaN 611.8797595190381 1.9106040379859015 133.0 0.0 69.0 
152.00059236981082 509.0 NaN 611.8610554442225 2.3988570419713002 135.0 0.0 69.0 
154.00059236981082 519.0 NaN 608.8336673346683 1.9367771377833227 138.0 0.0 68.0 
156.000084666035 502.0 NaN 608.8042752171003 2.388963872458281 136.0 0.0 68.0 
158.00059236981082 508.0 NaN 611.8690714762864 1.9196582544755416 138.0 0.0 69.0 
160.00033353340314 502.0 NaN 611.8770875083501 2.4390258609000917 139.0 0.0 69.0 
162.00059236981082 506.0 NaN 608.8496993987975 1.9842886497062733 141.0 0.0 68.0 
164.00059236981082 493.0 NaN 605.7207748831 2.4079721871867164 138.0 0.0 67.0 
166.000084666035 495.0 NaN 605.7154308617232 1.9034662392001083 138.0 0.0 67.0 
168.00059236981082 493.0 NaN 605.7100868403475 2.424877052562128 134.0 0.0 67.0 
170.00033353340314 504.0 NaN 608.7695390781565 1.928119921920438 135.0 0.0 68.0 
172.00059236981082 497.0 NaN 608.7535070140277 2.445422474273345 133.0 0.0 68.0 
174.00059236981082 498.0 NaN 605.688710754843 1.9471142798536147 132.0 0.0 67.0 
176.000084666035 489.0 NaN 602.6265865063453 2.39762791295152 131.0 0.0 66.0 
178.00059236981082 494.0 NaN 602.6346025384095 1.9127126817067115 133.0 0.0 66.0 
180.00033353340314 493.0 NaN 602.6239144956588 2.4471414428034346 132.0 0.0 66.0 
182.00059236981082 498.0 NaN 608.7695390781564 2.034952329065953 136.0 0.0 68.0 
184.00059236981082 481.0 NaN 608.7615230460924 2.383913381564079 134.0 0.0 68.0 
186.000084666035 482.0 NaN 608.7561790247163 1.8987945270645175 133.0 0.0 68.0 
188.00059236981082 481.0 NaN 605.6860387441544 2.4001040557517617 131.0 0.0 67.0 
190.00033353340314 493.0 NaN 611.8851035404135 1.9228367364866996 131.0 0.0 69.0 
192.00059236981082 491.0 NaN 614.9579158316637 2.3825725615562785 133.0 0.0 70.0 
194.00059236981082 496.0 NaN 614.981963927855 1.8746899176057688 131.0 0.0 70.0 
196.000084666035 496.0 NaN 614.947227788911 2.3907663464024975 131.0 0.0 70.0 
198.00059236981082 504.0 NaN 614.9766199064798 1.8957064066243308 130.0 0.0 70.0 
200.00033353340314 500.0 NaN 614.971275885104 2.4293448929206556 130.0 0.0 70.0 
202.00059236981082 505.0 NaN 611.9144956579825 1.907203812851515 127.0 0.0 69.0 
204.00059236981082 505.0 NaN 614.9498997995994 2.4009139255749226 125.0 0.0 70.0 
206.000084666035 516.0 NaN 621.1329325317298 1.9237053447727122 126.0 0.0 72.0 
208.00059236981082 512.0 NaN 621.1302605210425 2.414855126624061 128.0 0.0 72.0 
210.00033353340314 519.0 NaN 624.1870407481633 1.9469568863696167 127.0 0.0 73.0 
212.00059236981082 506.0 NaN 624.162992651971 2.4304591662202317 125.0 0.0 73.0 
214.00059236981082 511.0 NaN 618.076152304609 1.9802101597227164 125.0 0.0 71.0 
216.000084666035 497.0 NaN 618.0654642618572 2.4097485065115034 124.0 0.0 71.0 
218.00059236981082 500.0 NaN 614.9686038744155 1.8926105826754274 122.0 0.0 70.0 
220.00033353340314 497.0 NaN 614.9445557782227 2.4028594887965187 122.0 0.0 70.0 
222.00059236981082 501.0 NaN 614.9739478957911 1.918331872726769 123.0 0.0 70.0 
224.00059236981082 489.0 NaN 614.9712758851044 2.3950673490489054 123.0 0.0 70.0 
226.000084666035 493.0 NaN 611.8984635938546 1.8958754924452825 122.0 0.0 69.0 
228.00059236981082 489.0 NaN 611.8770875083501 2.3946226281096803 122.0 0.0 69.0 
230.00033353340314 497.0 NaN 611.8824315297271 1.9881133038031387 121.0 0.0 69.0 
232.00059236981082 488.0 NaN 611.887775551102 2.424778032364627 119.0 0.0 69.0 
234.00059236981082 497.0 NaN 611.8984635938546 1.9722675833252563 118.0 0.0 69.0 
236.000084666035 488.0 NaN 611.9064796259181 2.4153172746082014 118.0 0.0 69.0 
238.00059236981082 498.0 NaN 611.8904475617907 1.8830464995498688 119.0 0.0 69.0 
240.00033353340314 498.0 NaN 611.8931195724775 2.4677161561728416 118.0 0.0 69.0 
242.00059236981082 506.0 NaN 614.9739478957911 1.9851660474722805 119.0 0.0 70.0 
244.00059236981082 497.0 NaN 618.0547762191044 2.4338863647319515 118.0 0.0 71.0 
246.000084666035 507.0 NaN 621.1409485637939 1.8654808598679742 119.0 0.0 72.0 
248.00059236981082 508.0 NaN 621.1062124248501 2.4613368721338786 119.0 0.0 72.0 
250.00033353340314 511.0 NaN 624.2030728122908 1.9511412918910518 120.0 0.0 73.0 
252.00059236981082 503.0 NaN 624.1629926519713 2.4315656910279837 120.0 0.0 73.0 
254.00059236981082 512.0 NaN 624.1309285237136 1.9241672402855639 122.0 0.0 73.0 
256.00008466603504 505.0 NaN 624.1576486305955 2.4627214603291714 123.0 0.0 73.0 
258.0005923698108 508.0 NaN 624.152304609218 1.9381469870175914 123.0 0.0 73.0 
260.00033353340314 494.0 NaN 624.152304609218 2.4816625992908947 121.0 0.0 73.0 
262.0005923698108 498.0 NaN 624.0908483633939 1.9463930603389288 120.0 0.0 73.0 
264.0005923698108 490.0 NaN 624.0908483633939 2.4798077117698925 119.0 0.0 73.0 
266.00008466603504 498.0 NaN 624.1336005344015 1.969595912215765 119.0 0.0 73.0 
268.0005923698108 488.0 NaN 624.1336005344015 2.4576322438045897 118.0 0.0 73.0 
270.00033353340314 492.0 NaN 624.1389445557772 1.895229635725097 119.0 0.0 73.0 
272.0005923698108 490.0 NaN 624.1148964595865 2.45736790538524 119.0 0.0 73.0 
274.0005923698108 499.0 NaN 621.1008684034728 1.9291466229559777 118.0 0.0 72.0 
276.00008466603504 494.0 NaN 621.076820307282 2.462254898472179 117.0 0.0 72.0 
278.0005923698108 502.0 NaN 621.063460253841 1.9784395812498985 118.0 0.0 72.0 
280.00033353340314 497.0 NaN 621.0794923179682 2.4125065977966274 118.0 0.0 72.0 
282.0005923698108 508.0 NaN 611.8717434869748 1.9106698750372133 119.0 0.0 69.0 
284.0005923698108 500.0 NaN 608.7882431529728 2.440805183531842 115.0 0.0 68.0 
286.00008466603504 499.0 NaN 608.7775551102202 1.9085153802522243 115.0 0.0 68.0 
288.0005923698108 501.0 NaN 602.6533066132272 2.3851159877440153 115.0 0.0 66.0 
290.00033353340314 511.0 NaN 605.7287909151637 1.89873895940584 114.0 0.0 67.0 
292.0005923698108 505.0 NaN 602.637274549098 2.396029000680948 115.0 0.0 66.0 
294.0005923698108 507.0 NaN 599.5858383433529 1.9126995999990026 115.0 0.0 65.0 
296.00008466603504 496.0 NaN 599.5858383433529 2.3991688109754916 114.0 0.0 65.0 
298.0005923698108 502.0 NaN 602.6559786239137 1.9309249205885064 116.0 0.0 66.0 
300.00033353340314 494.0 NaN 602.6559786239137 2.4636998793409277 115.0 0.0 66.0 
302.0005923698108 492.0 NaN 602.6853707414817 2.0053149350738555 115.0 0.0 66.0 
304.0005923698108 471.0 NaN 602.7254509018045 2.4017629129250393 114.0 0.0 66.0 
306.00008466603504 474.0 NaN 602.6452905811619 1.897382247829038 114.0 0.0 66.0 
308.0005923698108 474.0 NaN 602.6452905811619 2.386218055223259 113.0 0.0 66.0 
310.00033353340314 481.0 NaN 602.6746826987318 1.877310364575624 113.0 0.0 66.0 
312.0005923698108 477.0 NaN 602.6800267201073 2.4169302762718696 113.0 0.0 66.0 
314.0005923698108 480.0 NaN 602.6559786239137 1.9734471257371877 114.0 0.0 66.0 
316.00008466603504 472.0 NaN 602.6800267201075 2.4207371901615318 114.0 0.0 66.0 
318.0005923698108 472.0 NaN 584.2645290581161 1.9032923909513082 114.0 0.0 60.0 
320.00033353340314 472.0 NaN 587.366733466934 2.3957787159998443 114.0 0.0 61.0 
322.0005923698108 482.0 NaN 587.3132932531726 1.909922139104032 114.0 0.0 61.0 
324.0005923698108 480.0 NaN 587.331997327989 2.3836624142732785 113.0 0.0 61.0 
326.00008466603504 486.0 NaN 587.2972611890452 1.9116127102566411 114.0 0.0 61.0 
328.0005923698108 478.0 NaN 587.3186372745498 2.421278186700426 113.0 0.0 61.0 
330.00033353340314 479.0 NaN 587.3052772211091 1.9682370311289747 113.0 0.0 61.0 
332.0005923698108 470.0 NaN 587.3132932531726 2.381100360646506 113.0 0.0 61.0 
334.0005923698108 482.0 NaN 590.3807615230459 1.8720777910793778 112.0 0.0 62.0 
336.00008466603504 479.0 NaN 590.3887775551094 2.4497764281427936 112.0 0.0 62.0 
338.0005923698108 482.0 NaN 590.3620574482296 1.918706912700557 112.0 0.0 62.0 
340.00033353340314 483.0 NaN 590.3727454909817 2.439557970848854 112.0 0.0 62.0 
342.0005923698108 498.0 NaN 593.4375417501665 1.9275813082315782 112.0 0.0 63.0 
344.0005923698108 490.0 NaN 593.4509018036068 2.4656134217329493 114.0 0.0 63.0 
346.00008466603504 492.0 NaN 593.4028056112228 1.9923200385686666 114.0 0.0 63.0 
348.0005923698108 481.0 NaN 590.3567134268542 2.400818916108966 111.0 0.0 62.0 
350.00033353340314 484.0 NaN 590.3433533734137 1.9199189004613815 112.0 0.0 62.0 
352.0005923698108 480.0 NaN 590.3246492985977 2.408411899176855 111.0 0.0 62.0 
354.0005923698108 489.0 NaN 587.2919171676681 1.9388310404993692 111.0 0.0 61.0 
356.00008466603504 481.0 NaN 587.3132932531727 2.434460252977111 110.0 0.0 61.0 
358.0005923698108 482.0 NaN 587.3079492317974 1.931079116337475 110.0 0.0 61.0 
360.00033353340314 478.0 NaN 587.3186372745498 2.4382883106106434 111.0 0.0 61.0 
362.0005923698108 477.0 NaN 581.1649966599863 1.9456606443535476 110.0 0.0 59.0 
364.0005923698108 471.0 NaN 578.0788243152979 2.3640161824252623 110.0 0.0 58.0 
366.00008466603504 477.0 NaN 578.0788243152979 1.856244730278226 110.0 0.0 58.0 
368.0005923698108 479.0 NaN 578.1002004008016 2.425169507680844 111.0 0.0 58.0 
370.00033353340314 480.0 NaN 575.0193720774886 1.9355786400971493 110.0 0.0 57.0 
372.0005923698108 473.0 NaN 578.124248496994 2.4173854030612922 110.0 0.0 58.0 
374.0005923698108 480.0 NaN 587.3346693386773 1.9732119909607466 112.0 0.0 61.0 
376.00008466603504 470.0 NaN 590.415497661991 2.3951694627000806 111.0 0.0 62.0 
378.0005923698108 471.0 NaN 587.3613894455574 1.8570914811604011 109.0 0.0 61.0 
380.00033353340314 471.0 NaN 587.3694054776222 2.4288750320874373 110.0 0.0 61.0 
382.0005923698108 470.0 NaN 587.3533734134932 1.9502924206340386 108.0 0.0 61.0 
384.0005923698108 453.0 NaN 587.3774215096864 2.393408690144802 108.0 0.0 61.0 
386.00008466603504 454.0 NaN 587.3186372745495 1.906143192228573 106.0 0.0 61.0 
388.0005923698108 451.0 NaN 587.3293253173017 2.3989478179503445 105.0 0.0 61.0 
390.00033353340314 458.0 NaN 584.2672010688046 1.9367246447962372 105.0 0.0 60.0 
392.0005923698108 454.0 NaN 587.356045424182 2.37306486762121 105.0 0.0 61.0 
394.0005923698108 470.0 NaN 593.4856379425521 1.8997513573608813 106.0 0.0 63.0 
396.00008466603504 467.0 NaN 593.4936539746162 2.413390842990319 106.0 0.0 63.0 
398.0005923698108 471.0 NaN 593.461589846359 1.9174055204444538 108.0 0.0 63.0 
400.00033353340314 471.0 NaN 593.469605878423 2.4116263019050854 109.0 0.0 63.0 
402.0005923698108 478.0 NaN 593.4348697394794 2.0060983277350832 110.0 0.0 63.0 
404.0005923698108 460.0 NaN 593.4241816967274 2.3605074935435466 108.0 0.0 63.0 
406.00008466603504 468.0 NaN 596.5263861055454 1.857323771871268 110.0 0.0 64.0 
408.0005923698108 469.0 NaN 602.6907147628592 2.4275715926601755 111.0 0.0 66.0 
410.00033353340314 478.0 NaN 605.7474949899798 1.9824088352158278 112.0 0.0 67.0 
412.0005923698108 474.0 NaN 605.7688710754844 2.3798187335974745 112.0 0.0 67.0 
414.0005923698108 488.0 NaN 605.7982631930525 1.8704277717118456 114.0 0.0 67.0 
416.00008466603504 485.0 NaN 605.7875751502999 2.4269309354356086 113.0 0.0 67.0 
418.0005923698108 485.0 NaN 608.8229792919179 1.919208628138909 113.0 0.0 68.0 
420.00033353340314 487.0 NaN 618.084168336673 2.4021260964446016 115.0 0.0 71.0 
422.0005923698108 499.0 NaN 621.1409485637938 1.9912051389602965 117.0 0.0 72.0 
424.0005923698108 484.0 NaN 621.1302605210425 2.3691114202930517 115.0 0.0 72.0 
426.00008466603504 485.0 NaN 624.1336005344017 1.8758048225274289 119.0 0.0 73.0 
428.0005923698108 483.0 NaN 624.1496325985304 2.364491636305594 120.0 0.0 73.0 
430.00033353340314 489.0 NaN 624.1603206412819 1.8993200837357953 122.0 0.0 73.0 
432.0005923698108 488.0 NaN 627.2277889111546 2.36702498575914 124.0 0.0 74.0 
434.0005923698108 495.0 NaN 630.3193052772218 1.9914810079159158 125.0 0.0 75.0 
436.00008466603504 482.0 NaN 630.311289245158 2.3415085218600353 123.0 0.0 75.0 
438.0005923698108 486.0 NaN 630.2818971275875 1.9358281623398454 126.0 0.0 75.0 
440.00033353340314 484.0 NaN 630.2792251168999 2.334918182968823 128.0 0.0 75.0 
442.0005923698108 494.0 NaN 630.2872411489637 1.9366660972168168 127.0 0.0 75.0 
444.0005923698108 484.0 NaN 627.2331329325318 2.373794435943562 125.0 0.0 74.0 
446.00008466603504 480.0 NaN 624.1442885771546 1.9667375507565257 125.0 0.0 73.0 
448.0005923698108 472.0 NaN 630.3299933199726 2.3517467328012787 121.0 0.0 75.0 
450.00033353340314 479.0 NaN 630.2845691382772 1.9640891134445877 124.0 0.0 75.0 
452.0005923698108 469.0 NaN 636.4114896459591 2.373715861162778 125.0 0.0 77.0 
454.0005923698108 482.0 NaN 636.4328657314636 1.9860558621112283 127.0 0.0 77.0 
456.00008466603504 470.0 NaN 636.4301937207739 2.3957886890744997 126.0 0.0 77.0 
458.0005923698108 477.0 NaN 636.3901135604547 1.913557028208113 129.0 0.0 77.0 
460.00033353340314 477.0 NaN 636.3981295925181 2.3922767648737144 131.0 0.0 77.0 
462.0005923698108 490.0 NaN 633.338677354709 1.961934755519767 132.0 0.0 76.0 
464.0005923698108 484.0 NaN 636.4221776887101 2.398345270893354 129.0 0.0 77.0 
466.00008466603504 489.0 NaN 639.5136940547773 1.870121470542031 128.0 0.0 78.0 
468.0005923698108 489.0 NaN 639.4949899799591 2.481257562179985 129.0 0.0 78.0 
470.00033353340314 492.0 NaN 636.4248496993987 2.0482862421291186 128.0 0.0 77.0 
472.0005923698108 474.0 NaN 636.4221776887103 2.4653732326702134 125.0 0.0 77.0 
474.0005923698108 474.0 NaN 633.3466933867728 2.0088201880755143 123.0 0.0 76.0 
476.00008466603504 460.0 NaN 633.3360053440214 2.3919813111501242 121.0 0.0 76.0 
478.0005923698108 464.0 NaN 627.214428857715 1.8487062051647971 121.0 0.0 74.0 
480.00033353340314 468.0 NaN 627.2251169004684 2.4174987312491014 123.0 0.0 74.0 
482.0005923698108 476.0 NaN 624.1255845023377 1.958266505188604 123.0 0.0 73.0 
484.0005923698108 461.0 NaN 624.1042084168332 2.430792202145856 121.0 0.0 73.0 
486.00008466603504 464.0 NaN 624.1042084168332 1.919162161322349 122.0 0.0 73.0 
488.0005923698108 460.0 NaN 624.1068804275228 2.42459344603805 122.0 0.0 73.0 
490.00033353340314 473.0 NaN 618.0040080160318 1.920404278405083 121.0 0.0 71.0 
492.0005923698108 465.0 NaN 617.9853039412153 2.4381150792948105 121.0 0.0 71.0 
494.0005923698108 470.0 NaN 608.7828991315955 1.9100235061246529 121.0 0.0 68.0 
496.00008466603504 469.0 NaN 611.8610554442225 2.421785649832988 121.0 0.0 69.0 
498.0005923698108 476.0 NaN 611.8316633266529 1.8926046361538784 122.0 0.0 69.0 
500.00033353340314 473.0 NaN 611.8450233800936 2.4502696524551757 121.0 0.0 69.0 
502.0005923698108 478.0 NaN 602.6292585170344 1.955358948330864 119.0 0.0 66.0 
504.0005923698108 467.0 NaN 599.5564462257848 2.424638577966573 119.0 0.0 65.0 
506.00008466603504 470.0 NaN 590.3380093520371 1.8905330081989467 119.0 0.0 62.0 
508.0005923698108 469.0 NaN 587.2304609218434 2.4038410136774226 118.0 0.0 61.0 
510.00033353340314 472.0 NaN 590.3460253841016 1.8645464835782815 117.0 0.0 62.0 
512.0005923698109 471.0 NaN 590.3353373413494 2.408165052504008 116.0 0.0 62.0 
514.0005923698109 476.0 NaN 584.192384769539 1.9428957068781212 114.0 0.0 60.0 
516.000084666035 467.0 NaN 584.2084168336672 2.4153663004865464 113.0 0.0 60.0 
518.0005923698109 471.0 NaN 584.1950567802273 1.8849199884940255 113.0 0.0 60.0 
520.0003335334031 468.0 NaN 584.2164328657316 2.4582024730772702 113.0 0.0 60.0 
522.0005923698109 473.0 NaN 584.1763527054111 1.9869056272996874 113.0 0.0 60.0 
524.0005923698109 462.0 NaN 581.1356045424182 2.404896104454726 113.0 0.0 59.0 
526.000084666035 463.0 NaN 578.052104208417 1.9049213115038592 113.0 0.0 58.0 
528.0005923698109 460.0 NaN 578.0574482297932 2.422057440440179 115.0 0.0 58.0 
530.0003335334031 463.0 NaN 571.9198396793587 1.9049220357913124 113.0 0.0 56.0 
532.0005923698109 462.0 NaN 575.0033400133602 2.4036994253226416 113.0 0.0 57.0 
534.0005923698109 469.0 NaN 574.9953239812959 1.9336049870635694 111.0 0.0 57.0 
536.000084666035 465.0 NaN 575.0167000668 2.4476911119182128 110.0 0.0 57.0 
538.0005923698109 468.0 NaN 574.9979959919841 1.9371018375404838 110.0 0.0 57.0 
540.0003335334031 460.0 NaN 575.0140280561125 2.4383485577705146 110.0 0.0 57.0 
542.0005923698109 465.0 NaN 575.0220440881762 2.0051641358126386 109.0 0.0 57.0 
544.0005923698109 457.0 NaN 575.0273881095522 2.349047796676334 106.0 0.0 57.0 
546.000084666035 460.0 NaN 575.0300601202406 1.900869676951039 106.0 0.0 57.0 
548.0005923698109 457.0 NaN 578.1108884435538 2.3627810730408707 107.0 0.0 58.0 
550.0003335334031 463.0 NaN 575.0140280561125 1.8835463235835026 108.0 0.0 57.0 
552.0005923698109 463.0 NaN 578.1082164328659 2.3763301371338503 106.0 0.0 58.0 
554.0005923698109 466.0 NaN 578.0574482297932 1.9109274682306918 109.0 0.0 58.0 
556.000084666035 461.0 NaN 578.0814963259852 2.3932278926268626 109.0 0.0 58.0 
558.0005923698109 469.0 NaN 578.046760187041 1.9895191247792061 109.0 0.0 58.0 
560.0003335334031 456.0 NaN 578.052104208417 2.3688433352472695 107.0 0.0 58.0 
562.0005923698109 460.0 NaN 578.0761523046091 1.9627430171920583 106.0 0.0 58.0 
564.0005923698109 454.0 NaN 575.0140280561125 2.340757054834157 105.0 0.0 57.0 
566.000084666035 464.0 NaN 574.9979959919841 1.9328876518002982 109.0 0.0 57.0 
568.0005923698109 452.0 NaN 571.943887775551 2.3589972681631424 108.0 0.0 56.0 
570.0003335334031 453.0 NaN 571.9225116900466 1.9079912330304496 109.0 0.0 56.0 
572.0005923698109 451.0 NaN 571.9225116900466 2.3625925797415928 107.0 0.0 56.0 
574.0005923698109 463.0 NaN 575.0033400133602 1.9826505921562612 107.0 0.0 57.0 
576.000084666035 454.0 NaN 575.0086840347362 2.3245621877792817 106.0 0.0 57.0 
578.0005923698109 460.0 NaN 574.9953239812959 1.8724324277084758 107.0 0.0 57.0 
580.0003335334031 461.0 NaN 575.0086840347362 2.387678615163992 107.0 0.0 57.0 
582.0005923698109 467.0 NaN 571.935871743487 1.9902138614269105 109.0 0.0 56.0 
584.0005923698109 455.0 NaN 571.9412157648633 2.3586140054654763 107.0 0.0 56.0 
586.000084666035 464.0 NaN 571.9225116900466 1.966929447194705 106.0 0.0 56.0 
588.0005923698109 457.0 NaN 575.0060120240481 2.3942900841103065 107.0 0.0 57.0 
590.0003335334031 467.0 NaN 581.1730126920509 1.9412351374036174 107.0 0.0 59.0 
592.0005923698109 463.0 NaN 581.1649966599864 2.346029786325558 107.0 0.0 59.0 
594.0005923698109 468.0 NaN 581.1409485637944 1.9392301719550227 109.0 0.0 59.0 
596.000084666035 465.0 NaN 581.1569806279227 2.3875016365408843 108.0 0.0 59.0 
598.0005923698109 475.0 NaN 581.1249164996659 1.945210041035658 107.0 0.0 59.0 
600.0003335334031 473.0 NaN 581.1088844355376 2.3825286721756105 106.0 0.0 59.0 
602.0005923698109 484.0 NaN 584.2271209084837 1.9732807773176682 106.0 0.0 60.0 
604.0005923698109 469.0 NaN 587.3026052104207 2.4226191484501527 105.0 0.0 61.0 
606.000084666035 470.0 NaN 587.2651970607884 1.9792172221144364 106.0 0.0 61.0 
608.0005923698109 467.0 NaN 593.4455577822314 2.369738783229743 107.0 0.0 63.0 
610.0003335334031 487.0 NaN 596.5103540414158 1.9516354395838909 108.0 0.0 64.0 
612.0005923698109 478.0 NaN 596.4569138276551 2.40407328308727 108.0 0.0 64.0 
614.0005923698109 485.0 NaN 596.4836339345359 1.975433204339728 110.0 0.0 64.0 
616.000084666035 475.0 NaN 596.4889779559115 2.420964549749454 112.0 0.0 64.0 
618.0005923698109 481.0 NaN 593.4054776219108 1.9567190785068387 112.0 0.0 63.0 
620.0003335334031 478.0 NaN 596.5050100200406 2.4428611754937086 114.0 0.0 64.0 
622.0005923698109 482.0 NaN 593.4108216432863 2.034200729144749 113.0 0.0 63.0 
624.0005923698109 461.0 NaN 593.4375417501665 2.4014244808566474 113.0 0.0 63.0 
626.000084666035 471.0 NaN 593.3921175684704 1.9314494404452387 112.0 0.0 63.0 
628.0005923698109 471.0 NaN 593.4028056112228 2.410579071253896 113.0 0.0 63.0 
630.0003335334031 487.0 NaN 602.5945223780891 2.049694280431387 115.0 0.0 66.0 
632.0005923698109 474.0 NaN 602.5998663994659 2.358665925616485 116.0 0.0 66.0 
634.0005923698109 488.0 NaN 605.7154308617232 1.9612829118333268 120.0 0.0 67.0 
636.000084666035 478.0 NaN 605.7100868403477 2.387469198056282 122.0 0.0 67.0 
638.0005923698109 480.0 NaN 605.6940547762188 1.9237070654802173 122.0 0.0 67.0 
640.0003335334031 478.0 NaN 611.8637274549094 2.418349918702691 120.0 0.0 69.0 
642.0005923698109 486.0 NaN 614.9258517034068 2.03276981301345 121.0 0.0 70.0 
644.0005923698109 463.0 NaN 614.9071476285909 2.3743297437115247 121.0 0.0 70.0 
646.000084666035 463.0 NaN 614.8804275217096 1.884162137107583 121.0 0.0 70.0 
648.0005923698109 466.0 NaN 617.9612558450234 2.4179291439277035 124.0 0.0 71.0 
650.0003335334031 470.0 NaN 617.9746158984638 1.959624998681614 126.0 0.0 71.0 
652.0005923698109 464.0 NaN 617.9452237808955 2.390438296963703 128.0 0.0 71.0 
654.0005923698109 471.0 NaN 608.7561790247158 1.9157180752959253 129.0 0.0 68.0 
656.000084666035 465.0 NaN 608.7588510354045 2.389556734923324 131.0 0.0 68.0 
658.0005923698109 472.0 NaN 611.831663326653 1.8852100616042853 133.0 0.0 69.0 
660.0003335334031 476.0 NaN 614.9178356713431 2.4116232870051593 133.0 0.0 70.0 
662.0005923698109 489.0 NaN 618.0120240480959 1.97330429647587 135.0 0.0 71.0 
664.0005923698109 475.0 NaN 617.9986639946562 2.4726633041197186 132.0 0.0 71.0 
#####################################################################
# End of data export. Simulation finished at: 2019-03-06T01:30+0000 #
#####################################################################
