#####################################################################
# Alchemist log file - simulation started at: 2019-03-10T22:39+0000 #
#####################################################################
# seed = 2.0, bandwidth = 1.0E8, propagationDelay = 0.03162277660168379, baserange = 31.622776601683796
#
# The columns have the following meaning: 
# time neighbor_count[Sum] <value>@neighbor_count[Sum] packet_size[Mean] mean_delay[Mean] crowd[Sum] overcrowded[Sum] risk[Sum] 
0.0 NaN NaN NaN NaN NaN NaN NaN 
2.0005829790527505 2784.0 NaN 4996.7134268537075 0.5028661950563474 1496.0 1.0 1496.0 
4.0005829790527505 2786.0 NaN 4999.796927187709 0.5030764103161313 1483.0 14.0 1483.0 
6.0005829790527505 2795.0 NaN 4995.751503006012 0.5040770010072204 1452.0 45.0 1452.0 
8.000582979052751 2792.0 NaN 4997.042084168336 0.5035209120846085 1422.0 75.0 1422.0 
10.000582979052751 2792.0 NaN 4995.064796259185 0.5036785529240387 1412.0 85.0 1412.0 
12.000582979052751 2795.0 NaN 4995.500334001336 0.5043405691085163 1417.0 80.0 1417.0 
14.000582979052751 2794.0 NaN 4994.420841683367 0.5034719032144979 1423.0 74.0 1423.0 
16.00058297905275 2802.0 NaN 4995.441549766199 0.505611775071683 1412.0 85.0 1412.0 
18.00058297905275 2798.0 NaN 4994.158984635938 0.5033516020903759 1406.0 91.0 1406.0 
20.00058297905275 2803.0 NaN 4995.24916499666 0.5036874891553667 1411.0 86.0 1411.0 
22.00058297905275 2804.0 NaN 4993.939879759519 0.5091927125607029 1413.0 84.0 1413.0 
24.00058297905275 2797.0 NaN 4994.944555778223 0.5043558474087079 1415.0 82.0 1415.0 
26.00058297905275 2798.0 NaN 4993.694054776219 0.5080689292524697 1412.0 85.0 1412.0 
28.00058297905275 2801.0 NaN 4994.949899799599 0.5054012961755059 1410.0 87.0 1410.0 
30.00058297905275 2790.0 NaN 4993.798263193053 0.5032785541887236 1412.0 85.0 1412.0 
32.00058297905275 2806.0 NaN 4994.677354709419 0.504898704279262 1416.0 81.0 1416.0 
34.00058297905275 2810.0 NaN 4993.9478957915835 0.504286677999267 1415.0 82.0 1415.0 
36.00058297905275 2812.0 NaN 4994.591850367401 0.5055791211940632 1414.0 83.0 1414.0 
38.00058297905275 2817.0 NaN 4993.792919171677 0.5047357093553501 1416.0 81.0 1416.0 
40.00058297905275 2810.0 NaN 4994.888443553774 0.5048558812040238 1413.0 84.0 1413.0 
42.00058297905275 2826.0 NaN 4993.523046092185 0.507378331781244 1408.0 89.0 1408.0 
44.00058297905275 2828.0 NaN 4994.845691382766 0.5044272230508955 1404.0 93.0 1404.0 
46.00058297905275 2828.0 NaN 4993.688710754843 0.5052361421326916 1405.0 92.0 1405.0 
48.00058297905275 2835.0 NaN 4994.733466933868 0.5071074484778179 1409.0 88.0 1409.0 
50.00058297905275 2830.0 NaN 4993.726118904476 0.5038021359375167 1411.0 86.0 1411.0 
52.00058297905275 2859.0 NaN 4994.680026720107 0.5157581748379646 1408.0 89.0 1408.0 
54.00058297905275 2849.0 NaN 4993.752839011356 0.5117054873964749 1409.0 88.0 1409.0 
56.00058297905275 2839.0 NaN 4994.410153640614 0.5052485156730813 1408.0 89.0 1408.0 
58.00058297905275 2838.0 NaN 4993.9639278557115 0.5055164042804393 1408.0 89.0 1408.0 
60.00058297905275 2835.0 NaN 4991.481629926519 0.5037383337195633 1407.0 89.0 1407.0 
62.00058297905275 2868.0 NaN 1518.8269873079485 0.5111187873830554 584.0 89.0 275.0 
64.00058297905275 2845.0 NaN 1518.5330661322637 0.5064424760239286 498.0 87.0 277.0 
66.00058297905275 2845.0 NaN 1518.5490981963912 0.5064473362656446 445.0 89.0 275.0 
68.00058297905275 2854.0 NaN 1518.503674014697 0.5120459594692919 421.0 88.0 276.0 
70.00058297905275 2845.0 NaN 1518.506346025382 0.5059186231843815 405.0 88.0 276.0 
72.00058297905275 2844.0 NaN 1518.3593854375424 0.5077764856240554 406.0 86.0 278.0 
74.00058297905275 2841.0 NaN 1524.5744822979275 0.5076028653635167 402.0 85.0 281.0 
76.00058297905275 2839.0 NaN 1524.4408817635274 0.5035417567307735 400.0 86.0 280.0 
78.00058297905275 2847.0 NaN 1524.4569138276545 0.5072686976858868 398.0 85.0 281.0 
80.00058297905275 2851.0 NaN 1527.6205744823 0.5064913786868087 394.0 86.0 281.0 
82.00058297905275 2856.0 NaN 1527.5858383433547 0.5061030032622782 391.0 87.0 280.0 
84.00058297905275 2845.0 NaN 1530.8216432865727 0.5091741510749046 389.0 88.0 280.0 
86.00058297905275 2825.0 NaN 1530.682698730794 0.5044035153954695 389.0 86.0 282.0 
88.00058297905275 2813.0 NaN 1530.7735470941882 0.5078070338297704 388.0 86.0 282.0 
90.00058297905275 2802.0 NaN 1530.639946559785 0.502912158699566 389.0 83.0 285.0 
92.00058297905275 2809.0 NaN 1530.7040748163001 0.5049044885559056 389.0 82.0 286.0 
94.00058297905275 2803.0 NaN 1530.7708750835 0.5063973592170128 388.0 83.0 285.0 
96.00058297905275 2813.0 NaN 1530.5704742818973 0.5063676541216288 392.0 79.0 289.0 
98.00058297905275 2801.0 NaN 1530.7334669338666 0.5042442659346075 393.0 78.0 290.0 
100.00058297905275 2791.0 NaN 1530.6666666666663 0.5039973076306001 389.0 82.0 286.0 
102.00058297905275 2794.0 NaN 1533.7074148296606 0.5029200366534369 390.0 81.0 288.0 
104.00058297905275 2797.0 NaN 1533.8169672678698 0.5058902463075555 390.0 81.0 288.0 
106.00058297905275 2799.0 NaN 1533.7715430861729 0.507599083501458 390.0 81.0 288.0 
108.00058297905275 2803.0 NaN 1536.8710754843003 0.5089631629845734 390.0 80.0 290.0 
110.00058297905275 2798.0 NaN 1536.8924515698066 0.5071057063422088 393.0 77.0 293.0 
112.00058297905275 2804.0 NaN 1536.895123580494 0.5076515395110724 391.0 79.0 291.0 
114.00058297905275 2800.0 NaN 1536.8176352705425 0.512053084862364 392.0 79.0 291.0 
116.00058297905275 2804.0 NaN 1536.8550434201725 0.5128190599415363 396.0 77.0 293.0 
118.00058297905275 2801.0 NaN 1546.0681362725456 0.5117941959754223 396.0 77.0 296.0 
120.00058297905275 2810.0 NaN 1546.0654642618572 0.5083691679440698 400.0 73.0 300.0 
122.00058297905275 2806.0 NaN 1546.0814963259847 0.5138170885864674 401.0 71.0 302.0 
124.00058297905275 2792.0 NaN 1546.1776887107544 0.5072297165057178 399.0 74.0 299.0 
126.00058297905275 2807.0 NaN 1549.0581162324638 0.5069691633162626 402.0 73.0 301.0 
128.00058297905275 2801.0 NaN 1546.1002004008 0.5161326202345545 403.0 72.0 301.0 
130.00058297905275 2783.0 NaN 1546.0414161656636 0.509274710991005 402.0 73.0 300.0 
132.00058297905275 2775.0 NaN 1545.9772879091518 0.5092214978870462 397.0 74.0 299.0 
134.00058297905275 2763.0 NaN 1542.9899799599182 0.5064301356580432 397.0 73.0 299.0 
136.00058297905275 2770.0 NaN 1546.1349365397452 0.5081486507012802 398.0 70.0 303.0 
138.00058297905275 2781.0 NaN 1543.0220440881756 0.5111054158262189 391.0 76.0 296.0 
140.00058297905275 2803.0 NaN 1546.0547762191063 0.5058837345543413 385.0 81.0 292.0 
142.00058297905275 2825.0 NaN 1549.0875083500337 0.5128854411548723 382.0 83.0 291.0 
144.00058297905275 2836.0 NaN 1549.2344689378756 0.513071600805584 384.0 80.0 294.0 
146.00058297905275 2832.0 NaN 1549.1008684034728 0.507015763755152 381.0 84.0 290.0 
148.00058297905275 2845.0 NaN 1546.1803607214426 0.5134420630556187 381.0 87.0 286.0 
150.00058297905275 2846.0 NaN 1543.0140280561118 0.5111256622984324 384.0 82.0 290.0 
152.00058297905275 2836.0 NaN 1539.9545758183028 0.5118889175567105 384.0 83.0 288.0 
154.00058297905275 2836.0 NaN 1540.0668002671996 0.5103284346421224 378.0 87.0 284.0 
156.00058297905275 2825.0 NaN 1539.8690714762847 0.5095545993821678 389.0 78.0 293.0 
158.00058297905275 2841.0 NaN 1540.0267201068818 0.5074027836666135 389.0 77.0 294.0 
160.00058297905275 2843.0 NaN 1539.9438877755515 0.5061624469584848 383.0 83.0 288.0 
162.00058297905275 2849.0 NaN 1539.7995991983973 0.5154883153959626 388.0 78.0 293.0 
164.00058297905275 2821.0 NaN 1543.1850367401455 0.5178734979445185 381.0 83.0 289.0 
166.00058297905275 2811.0 NaN 1549.2211088844365 0.5088573397878611 377.0 87.0 287.0 
168.00058297905275 2812.0 NaN 1549.2772211088845 0.5138654192187116 381.0 83.0 291.0 
170.00058297905275 2802.0 NaN 1549.247828991318 0.5071607045225951 379.0 83.0 291.0 
172.00058297905275 2806.0 NaN 1543.0861723446908 0.5130886327243993 381.0 81.0 291.0 
174.00058297905275 2794.0 NaN 1543.0861723446908 0.5092986710620561 387.0 75.0 297.0 
176.00058297905275 2787.0 NaN 1543.030060120239 0.5140722649688313 386.0 74.0 298.0 
178.00058297905275 2786.0 NaN 1540.0908483633934 0.5138979836381262 383.0 77.0 294.0 
180.00058297905275 2764.0 NaN 1539.9599198396797 0.5083918916870495 385.0 77.0 294.0 
182.00058297905275 2764.0 NaN 1540.02939211757 0.513929021805249 388.0 75.0 296.0 
184.00058297905275 2781.0 NaN 1543.139612558452 0.5150923954633 384.0 79.0 293.0 
186.00058297905275 2777.0 NaN 1540.0053440213755 0.512365599153019 385.0 77.0 294.0 
188.00058297905275 2777.0 NaN 1543.2117568470271 0.5130429875976402 383.0 79.0 293.0 
190.00058297905275 2764.0 NaN 1539.9759519038091 0.5077792695382259 381.0 84.0 287.0 
192.00058297905275 2768.0 NaN 1540.0106880427525 0.5203560568038549 380.0 85.0 286.0 
194.00058297905275 2773.0 NaN 1540.1309285237153 0.5174304941848719 370.0 94.0 277.0 
196.00058297905275 2768.0 NaN 1540.0454241816974 0.5164415240574937 368.0 95.0 276.0 
198.00058297905275 2776.0 NaN 1543.078156312627 0.5161444853704534 368.0 95.0 277.0 
200.00058297905275 2767.0 NaN 1543.1583166332662 0.5078540837445675 380.0 84.0 288.0 
202.00058297905275 2781.0 NaN 1543.1075484301934 0.518917878566858 371.0 93.0 279.0 
204.00058297905275 2778.0 NaN 1546.076152304609 0.5180318241359341 369.0 95.0 278.0 
206.00058297905275 2762.0 NaN 1543.0968603874426 0.509951150297534 370.0 94.0 278.0 
208.00058297905275 2769.0 NaN 1543.1503006012022 0.5204989979298743 365.0 96.0 276.0 
210.00058297905275 2751.0 NaN 1539.9225116900457 0.5101056717179958 358.0 102.0 269.0 
212.00058297905275 2755.0 NaN 1540.0748162992638 0.5199271636210223 361.0 100.0 271.0 
214.00058297905275 2756.0 NaN 1543.1983967935882 0.5251674733883049 362.0 100.0 272.0 
216.00058297905275 2738.0 NaN 1543.0674682698727 0.5089699809916136 371.0 92.0 280.0 
218.00058297905275 2754.0 NaN 1543.0888443553793 0.5188782434878689 373.0 91.0 281.0 
220.00058297905275 2749.0 NaN 1539.9412157648637 0.5077663830603997 370.0 94.0 277.0 
222.00058297905275 2761.0 NaN 1539.8957915831663 0.518522783485015 372.0 93.0 278.0 
224.00058297905275 2756.0 NaN 1540.1202404809635 0.5109795229929556 371.0 93.0 278.0 
226.00058297905275 2754.0 NaN 1539.9706078824302 0.5148882430404 370.0 92.0 279.0 
228.00058297905275 2752.0 NaN 1539.975951903809 0.5134086890473818 368.0 94.0 277.0 
230.00058297905275 2744.0 NaN 1536.9672678690727 0.5112556435887111 364.0 95.0 275.0 
232.00058297905275 2747.0 NaN 1540.1336005344 0.5076697937272656 366.0 95.0 276.0 
234.00058297905275 2750.0 NaN 1540.0320641282547 0.5208279230304803 365.0 97.0 274.0 
236.00058297905275 2745.0 NaN 1543.0514362057456 0.512199103051546 365.0 97.0 275.0 
238.00058297905275 2742.0 NaN 1543.1315965263846 0.5203999507115177 361.0 98.0 274.0 
240.00058297905275 2722.0 NaN 1542.947227788909 0.5094683125110226 367.0 92.0 280.0 
242.00058297905275 2725.0 NaN 1539.9599198396795 0.5183388486432083 364.0 96.0 275.0 
244.00058297905275 2719.0 NaN 1540.024048096191 0.5126790079601226 365.0 93.0 278.0 
246.00058297905275 2720.0 NaN 1539.85036740147 0.50939835640992 363.0 94.0 277.0 
248.00058297905275 2713.0 NaN 1540.072144288576 0.5134406930807438 363.0 94.0 277.0 
250.00058297905275 2703.0 NaN 1539.9225116900454 0.5085290443762449 363.0 95.0 276.0 
252.00058297905275 2702.0 NaN 1533.784903139612 0.514446741249069 362.0 95.0 274.0 
254.00058297905275 2707.0 NaN 1533.9879759519029 0.5190572247520482 366.0 91.0 278.0 
256.00058297905275 2699.0 NaN 1530.7441549766186 0.5114499513663118 366.0 90.0 278.0 
258.00058297905275 2704.0 NaN 1530.7254509018028 0.5147108522604228 363.0 93.0 275.0 
260.00058297905275 2698.0 NaN 1530.8002672010698 0.5046642891488183 370.0 86.0 282.0 
262.00058297905275 2714.0 NaN 1524.553106212425 0.5130551612262207 373.0 84.0 282.0 
264.00058297905275 2716.0 NaN 1527.7568470273884 0.5279914458163352 377.0 81.0 286.0 
266.00058297905275 2693.0 NaN 1527.6686706746818 0.5124006000161595 382.0 78.0 289.0 
268.00058297905275 2691.0 NaN 1540.0 0.5128902610167911 381.0 79.0 292.0 
270.00058297905275 2679.0 NaN 1539.9144956579817 0.5045164175031736 382.0 78.0 293.0 
272.00058297905275 2676.0 NaN 1539.9038076152297 0.5245987049660772 386.0 75.0 296.0 
274.00058297905275 2664.0 NaN 1543.0220440881749 0.5164622577622202 384.0 77.0 295.0 
276.00058297905275 2651.0 NaN 1542.8724114896452 0.5043719177397228 390.0 71.0 301.0 
278.00058297905275 2650.0 NaN 1539.951903807616 0.5125548629516716 386.0 75.0 296.0 
280.00058297905275 2647.0 NaN 1539.7942551770204 0.5129641375022771 392.0 71.0 300.0 
282.00058297905275 2647.0 NaN 1536.657314629257 0.5158822882686884 382.0 81.0 289.0 
284.00058297905275 2638.0 NaN 1536.868403473616 0.5266025556444716 389.0 73.0 297.0 
286.00058297905275 2630.0 NaN 1536.8951235804934 0.5160766661271615 379.0 80.0 290.0 
288.00058297905275 2618.0 NaN 1536.7454909819635 0.5183909910323679 386.0 72.0 298.0 
290.00058297905275 2619.0 NaN 1536.8443553774205 0.5194760337915649 379.0 78.0 292.0 
292.00058297905275 2616.0 NaN 1536.7027388109545 0.5187617228219594 388.0 68.0 302.0 
294.00058297905275 2611.0 NaN 1530.5758183032726 0.517007338591394 382.0 74.0 294.0 
296.00058297905275 2601.0 NaN 1530.4742818971272 0.5150218898166562 390.0 66.0 302.0 
298.00058297905275 2608.0 NaN 1533.7207748831001 0.5129772905758075 383.0 73.0 296.0 
300.00058297905275 2602.0 NaN 1533.5470941883755 0.5177365407583361 390.0 66.0 303.0 
302.00058297905275 2605.0 NaN 1527.4816299265183 0.514540038096195 382.0 74.0 293.0 
304.00058297905275 2628.0 NaN 1530.6372745490999 0.5116806352744979 388.0 68.0 300.0 
306.00058297905275 2632.0 NaN 1530.5357381429544 0.5180894432045949 379.0 77.0 291.0 
308.00058297905275 2630.0 NaN 1530.6239144956573 0.5178844509453431 383.0 72.0 296.0 
310.00058297905275 2625.0 NaN 1536.7882431529729 0.5152417134673127 376.0 77.0 293.0 
312.00058297905275 2621.0 NaN 1536.6760187040727 0.5203355472226583 385.0 69.0 301.0 
314.00058297905275 2609.0 NaN 1533.8169672678703 0.5161320446365981 380.0 75.0 294.0 
316.00058297905275 2596.0 NaN 1527.6098864395453 0.5112814156032651 384.0 69.0 298.0 
318.00058297905275 2606.0 NaN 1527.5698062792271 0.5119562334213162 380.0 73.0 294.0 
320.00058297905275 2603.0 NaN 1530.6586506346025 0.5095662671207579 387.0 67.0 301.0 
322.00058297905275 2616.0 NaN 1527.6125584502338 0.5171528260753477 383.0 72.0 295.0 
324.00058297905275 2617.0 NaN 1530.7281229124908 0.5183176711988717 390.0 67.0 301.0 
326.00058297905275 2614.0 NaN 1530.7601870407482 0.5146803441364365 383.0 73.0 295.0 
328.00058297905275 2610.0 NaN 1530.6078824315296 0.5203219791451033 386.0 69.0 299.0 
330.00058297905275 2595.0 NaN 1530.6907147628574 0.5103192441291606 379.0 75.0 293.0 
332.00058297905275 2601.0 NaN 1527.625918503673 0.5218993070394917 387.0 67.0 300.0 
334.00058297905275 2608.0 NaN 1530.7708750835 0.5126570710279895 383.0 73.0 295.0 
336.00058297905275 2608.0 NaN 1530.677354709418 0.5183338271902417 392.0 64.0 304.0 
338.00058297905275 2625.0 NaN 1527.6018704074818 0.5137739295830906 386.0 72.0 295.0 
340.00058297905275 2618.0 NaN 1524.5183700734815 0.5122021290413218 390.0 67.0 299.0 
342.00058297905275 2633.0 NaN 1530.599866399464 0.5179516492197929 388.0 72.0 296.0 
344.00058297905275 2632.0 NaN 1533.814295257182 0.5187003668566842 392.0 68.0 301.0 
346.00058297905275 2625.0 NaN 1530.7334669338666 0.5154016726187138 386.0 74.0 294.0 
348.00058297905275 2619.0 NaN 1530.6132264529065 0.5181330430814128 394.0 67.0 301.0 
350.00058297905275 2619.0 NaN 1527.5457581830335 0.5177541696147033 385.0 74.0 293.0 
352.00058297905275 2642.0 NaN 1530.5758183032726 0.5248496489645142 391.0 68.0 300.0 
354.00058297905275 2633.0 NaN 1527.5617902471613 0.5205604964216537 385.0 74.0 293.0 
356.00058297905275 2638.0 NaN 1524.4916499666 0.520333548442538 390.0 69.0 297.0 
358.00058297905275 2630.0 NaN 1524.6172344689369 0.5355521892008108 385.0 74.0 292.0 
360.00058297905275 2600.0 NaN 1524.4836339345366 0.5187117890179215 379.0 78.0 288.0 
362.00058297905275 2618.0 NaN 1524.5611222444904 0.5247314164197264 374.0 83.0 283.0 
364.00058297905275 2616.0 NaN 1524.5210420841693 0.5162600030821125 382.0 75.0 291.0 
366.00058297905275 2618.0 NaN 1524.3954575818295 0.519996635574744 370.0 87.0 279.0 
368.00058297905275 2619.0 NaN 1524.419505678021 0.5131537149709519 376.0 81.0 285.0 
370.00058297905275 2617.0 NaN 1503.0354041416172 0.524289945277556 373.0 85.0 274.0 
372.00058297905275 2621.0 NaN 1502.837675350701 0.5258839981016218 378.0 80.0 279.0 
374.00058297905275 2613.0 NaN 1509.1623246492993 0.5293059649043016 373.0 86.0 275.0 
376.00058297905275 2604.0 NaN 1509.2291249165 0.515569392455507 383.0 77.0 284.0 
378.00058297905275 2613.0 NaN 1506.0788243152977 0.5177172809784212 374.0 86.0 274.0 
380.00058297905275 2615.0 NaN 1506.145624582499 0.5220521287990453 381.0 80.0 280.0 
382.00058297905275 2620.0 NaN 1499.772879091517 0.5329104247786534 376.0 83.0 275.0 
384.00058297905275 2623.0 NaN 1503.0140280561116 0.5172849432560194 382.0 77.0 282.0 
386.00058297905275 2626.0 NaN 1509.098196392785 0.5187868833719398 376.0 86.0 275.0 
388.00058297905275 2657.0 NaN 1509.213092852372 0.5180619022714344 384.0 79.0 282.0 
390.00058297905275 2632.0 NaN 1506.0734802939205 0.5169632874088295 382.0 79.0 281.0 
392.00058297905275 2624.0 NaN 1512.2378089512365 0.5299809307451924 381.0 79.0 283.0 
394.00058297905275 2621.0 NaN 1509.2424849699394 0.5297899827606756 372.0 91.0 270.0 
396.00058297905275 2620.0 NaN 1509.092852371409 0.5126283289979547 380.0 80.0 281.0 
398.00058297905275 2637.0 NaN 1509.1890447561796 0.519815077950794 378.0 81.0 280.0 
400.00058297905275 2623.0 NaN 1509.1783567134273 0.5121386155597845 387.0 76.0 285.0 
402.00058297905275 2637.0 NaN 1505.9746158984635 0.5162092996812347 393.0 73.0 287.0 
404.00058297905275 2650.0 NaN 1518.4154976619911 0.5227854847852834 400.0 66.0 298.0 
406.00058297905275 2650.0 NaN 1518.4769539078156 0.523552616248383 396.0 71.0 293.0 
408.00058297905275 2662.0 NaN 1521.5390781563121 0.5265173093312845 404.0 63.0 302.0 
410.00058297905275 2640.0 NaN 1527.7408149632606 0.5116143044637903 398.0 69.0 298.0 
412.00058297905275 2648.0 NaN 1530.760187040748 0.5188373233752449 404.0 63.0 305.0 
414.00058297905275 2643.0 NaN 1533.862391449564 0.5236591307952055 406.0 63.0 306.0 
416.00058297905275 2633.0 NaN 1533.814295257182 0.5154326885733591 414.0 55.0 314.0 
418.00058297905275 2634.0 NaN 1530.8403473613905 0.5232821596017359 405.0 64.0 304.0 
420.00058297905275 2609.0 NaN 1518.3861055444213 0.5017944048611162 415.0 57.0 307.0 
422.00058297905275 2637.0 NaN 1515.283901135603 0.5048586308891496 406.0 66.0 297.0 
424.00058297905275 2647.0 NaN 1512.2565130260527 0.5283372948829034 409.0 61.0 301.0 
426.00058297905275 2631.0 NaN 1518.3193052772206 0.5184595704802125 407.0 67.0 297.0 
428.00058297905275 2644.0 NaN 1518.3299933199726 0.5200485403540559 410.0 60.0 304.0 
430.00058297905275 2600.0 NaN 1515.3239812959264 0.504868934184957 398.0 72.0 291.0 
432.00058297905275 2621.0 NaN 1515.1663326653302 0.5104216779543714 402.0 69.0 294.0 
434.00058297905275 2619.0 NaN 1521.4509018036083 0.5219124906654391 399.0 75.0 290.0 
436.00058297905275 2612.0 NaN 1527.5110220440883 0.5216794549573652 408.0 68.0 299.0 
438.00058297905275 2634.0 NaN 1527.5350701402815 0.519919985913494 400.0 72.0 295.0 
440.00058297905275 2622.0 NaN 1527.580494321979 0.5045782861864355 410.0 62.0 305.0 
442.00058297905275 2627.0 NaN 1530.6907147628574 0.5066587345572277 402.0 70.0 298.0 
444.00058297905275 2619.0 NaN 1530.5571142284566 0.5143727652126764 412.0 61.0 307.0 
446.00058297905275 2620.0 NaN 1536.9458917835664 0.5143717946328582 404.0 69.0 301.0 
448.00058297905275 2634.0 NaN 1545.9719438877753 0.5140189347800799 414.0 65.0 308.0 
450.00058297905275 2617.0 NaN 1545.9719438877753 0.5069866576019877 409.0 70.0 303.0 
452.00058297905275 2618.0 NaN 1542.9018036072152 0.5137056428936024 415.0 62.0 310.0 
454.00058297905275 2590.0 NaN 1542.8937875751517 0.5122991266422354 406.0 70.0 302.0 
456.00058297905275 2596.0 NaN 1552.1229124916517 0.5135627587021403 415.0 62.0 313.0 
458.00058297905275 2602.0 NaN 1552.1736806947247 0.5168348551568933 408.0 70.0 305.0 
460.00058297905275 2573.0 NaN 1549.0554442217756 0.5098424272655968 412.0 63.0 311.0 
462.00058297905275 2579.0 NaN 1548.9271877087517 0.5126776144626027 407.0 68.0 306.0 
464.00058297905275 2577.0 NaN 1545.9452237808937 0.5099766998132956 415.0 61.0 312.0 
466.00058297905275 2581.0 NaN 1542.9124916499661 0.5196016153158676 408.0 68.0 304.0 
468.00058297905275 2573.0 NaN 1545.8891115564454 0.5214945490663144 414.0 62.0 311.0 
470.00058297905275 2569.0 NaN 1542.907147628591 0.5095586256361964 407.0 68.0 304.0 
472.00058297905275 2571.0 NaN 1536.6118904475634 0.5215721580351185 407.0 66.0 304.0 
474.00058297905275 2567.0 NaN 1530.5731462925846 0.5111330919761157 402.0 71.0 297.0 
476.00058297905275 2576.0 NaN 1521.3493653974629 0.5206642932686478 411.0 62.0 303.0 
478.00058297905275 2581.0 NaN 1515.1663326653302 0.5168081633186405 406.0 67.0 296.0 
480.00058297905275 2569.0 NaN 1515.222444889781 0.5053507516853215 411.0 61.0 302.0 
482.00058297905275 2586.0 NaN 1512.0507682030725 0.5253105281758472 396.0 74.0 288.0 
484.00058297905275 2572.0 NaN 1512.2004008016022 0.5090304105008165 401.0 67.0 295.0 
486.00058297905275 2584.0 NaN 1509.0901803607205 0.5177995117728798 395.0 72.0 289.0 
488.00058297905275 2576.0 NaN 1509.1783567134273 0.5189208020092493 407.0 59.0 302.0 
490.00058297905275 2568.0 NaN 1499.9091516366072 0.5137421894256287 397.0 67.0 291.0 
492.00058297905275 2565.0 NaN 1499.7087508350028 0.5226499443716751 403.0 60.0 298.0 
494.00058297905275 2558.0 NaN 1496.7962591850364 0.5147073946513974 396.0 66.0 291.0 
496.00058297905275 2559.0 NaN 1490.637274549099 0.5098216812898279 400.0 61.0 294.0 
498.00058297905275 2566.0 NaN 1493.7688710754837 0.5165106980436556 390.0 67.0 289.0 
500.00058297905275 2552.0 NaN 1490.5811623246484 0.5100628501495023 392.0 61.0 294.0 
502.00058297905275 2550.0 NaN 1493.6887107548437 0.5075762384770935 387.0 68.0 288.0 
504.00058297905275 2559.0 NaN 1493.7261189044748 0.5113537359268829 396.0 61.0 295.0 
506.00058297905275 2573.0 NaN 1502.989979959919 0.5127304307110284 394.0 67.0 292.0 
508.00058297905275 2588.0 NaN 1503.0220440881756 0.514190931944295 397.0 64.0 295.0 
510.00058297905275 2584.0 NaN 1502.9392117568461 0.5105835037785349 386.0 73.0 286.0 
512.0005829790528 2585.0 NaN 1502.8964595858372 0.5147478509314213 391.0 67.0 292.0 
514.0005829790528 2584.0 NaN 1499.9492317969275 0.5159479471414415 388.0 70.0 288.0 
516.0005829790528 2586.0 NaN 1487.5778223112898 0.5149561469380568 393.0 63.0 291.0 
518.0005829790528 2579.0 NaN 1478.4609218436883 0.5143221009014409 384.0 70.0 281.0 
520.0005829790528 2591.0 NaN 1475.3293253173008 0.5166242103620454 381.0 69.0 281.0 
522.0005829790528 2576.0 NaN 1475.2037408149638 0.5175868804402741 370.0 75.0 275.0 
524.0005829790528 2570.0 NaN 1463.1449565798268 0.5121772742483576 375.0 70.0 276.0 
526.0005829790528 2580.0 NaN 1459.9679358717444 0.5225226340342773 368.0 76.0 269.0 
528.0005829790528 2574.0 NaN 1456.9031396125577 0.5081701599504618 376.0 68.0 276.0 
530.0005829790528 2580.0 NaN 1459.9091516366072 0.5117962177598951 377.0 68.0 277.0 
532.0005829790528 2567.0 NaN 1460.0133600534393 0.5168970088165014 384.0 62.0 283.0 
534.0005829790528 2566.0 NaN 1462.9552438209746 0.5131333114779069 381.0 66.0 280.0 
536.0005829790528 2584.0 NaN 1466.2845691382756 0.5084365698474976 389.0 60.0 287.0 
538.0005829790528 2586.0 NaN 1463.1315965263852 0.5069747014611911 385.0 66.0 280.0 
540.0005829790528 2587.0 NaN 1463.0995323981285 0.5141070452529234 396.0 57.0 289.0 
542.0005829790528 2575.0 NaN 1463.0674682698727 0.5188940449175444 388.0 64.0 282.0 
544.0005829790528 2570.0 NaN 1463.1102204408817 0.5157384836115939 391.0 64.0 282.0 
546.0005829790528 2577.0 NaN 1459.9839679358722 0.5126026364953213 389.0 68.0 277.0 
548.0005829790528 2556.0 NaN 1460.1282565130266 0.5120738041046019 394.0 59.0 286.0 
550.0005829790528 2551.0 NaN 1462.9525718102877 0.5087974574695587 387.0 66.0 280.0 
552.0005829790528 2544.0 NaN 1463.0968603874421 0.5177504800496251 384.0 68.0 278.0 
554.0005829790528 2556.0 NaN 1469.1249164996657 0.5121050772957639 390.0 65.0 283.0 
556.0005829790528 2556.0 NaN 1472.4382097528387 0.5127557492723859 387.0 69.0 280.0 
558.0005829790528 2555.0 NaN 1466.2177688710754 0.5083051422705881 381.0 74.0 273.0 
560.0005829790528 2573.0 NaN 1457.1302605210417 0.5133452141266089 386.0 64.0 280.0 
562.0005829790528 2560.0 NaN 1460.1523046092182 0.5299034451232829 374.0 73.0 272.0 
564.0005829790528 2559.0 NaN 1466.2444889779554 0.5332664993210221 387.0 62.0 285.0 
566.0005829790528 2557.0 NaN 1472.5985303941216 0.5238495886686634 376.0 72.0 277.0 
568.0005829790528 2543.0 NaN 1472.3767535070144 0.5218311462386278 383.0 64.0 285.0 
570.0005829790528 2539.0 NaN 1475.4682698730803 0.5155421797851659 384.0 70.0 280.0 
572.0005829790528 2524.0 NaN 1481.600534402137 0.5223975622946834 397.0 59.0 293.0 
574.0005829790528 2546.0 NaN 1484.579826319306 0.5209492396560728 390.0 69.0 284.0 
576.0005829790528 2570.0 NaN 1490.786907147628 0.5180980778666774 399.0 61.0 294.0 
578.0005829790528 2564.0 NaN 1487.6793587174354 0.5159641817617399 398.0 64.0 290.0 
580.0005829790528 2559.0 NaN 1490.7388109552444 0.5113672381067315 404.0 58.0 297.0 
582.0005829790528 2559.0 NaN 1490.7307949231806 0.511484080878334 401.0 62.0 293.0 
584.0005829790528 2574.0 NaN 1490.6346025384094 0.5207690101688436 408.0 56.0 299.0 
586.0005829790528 2579.0 NaN 1499.9839679358727 0.521264972738143 406.0 64.0 294.0 
588.0005829790528 2570.0 NaN 1499.8503674014707 0.5129727380996151 409.0 60.0 298.0 
590.0005829790528 2570.0 NaN 1496.9271877087517 0.5159929341197483 404.0 62.0 295.0 
592.0005829790528 2571.0 NaN 1499.8370073480285 0.5176902706425192 412.0 58.0 300.0 
594.0005829790528 2591.0 NaN 1499.8209752839 0.5257119070776656 407.0 64.0 294.0 
596.0005829790528 2578.0 NaN 1502.9365397461581 0.5145645125494281 410.0 62.0 297.0 
598.0005829790528 2578.0 NaN 1499.8316633266536 0.5134801870317944 407.0 64.0 294.0 
600.0005829790528 2581.0 NaN 1493.5577822311286 0.5084198695370233 410.0 63.0 293.0 
602.0005829790528 2585.0 NaN 1496.7722110888453 0.5124016484877617 405.0 70.0 287.0 
604.0005829790528 2611.0 NaN 1496.7962591850362 0.514660423056383 397.0 72.0 285.0 
606.0005829790528 2608.0 NaN 1503.0434201736816 0.5152323464028264 391.0 79.0 280.0 
608.0005829790528 2605.0 NaN 1506.1857047428182 0.5128546060101299 404.0 66.0 294.0 
610.0005829790528 2599.0 NaN 1499.989311957247 0.5124539607956385 394.0 75.0 283.0 
612.0005829790528 2596.0 NaN 1502.9178356713433 0.5128955478646562 400.0 69.0 290.0 
614.0005829790528 2598.0 NaN 1502.9979959919829 0.5222755545899826 396.0 73.0 286.0 
616.0005829790528 2609.0 NaN 1505.9959919839666 0.5115030740763484 397.0 72.0 288.0 
618.0005829790528 2613.0 NaN 1506.0921843687363 0.522698462741195 397.0 71.0 289.0 
620.0005829790528 2581.0 NaN 1502.9979959919829 0.5105367607345254 399.0 67.0 292.0 
622.0005829790528 2591.0 NaN 1506.1028724114904 0.5161242728026709 387.0 79.0 281.0 
624.0005829790528 2608.0 NaN 1512.1523046092182 0.5180903129039254 393.0 72.0 290.0 
626.0005829790528 2635.0 NaN 1515.3640614562453 0.5182672122939446 381.0 80.0 283.0 
628.0005829790528 2640.0 NaN 1515.3961255845009 0.5190780837139707 387.0 73.0 290.0 
630.0005829790528 2629.0 NaN 1515.4415497662 0.508315967423306 392.0 69.0 294.0 
632.0005829790528 2640.0 NaN 1515.452237808952 0.5073462252942921 394.0 67.0 296.0 
634.0005829790528 2679.0 NaN 1521.531062124248 0.5226819756403474 382.0 79.0 286.0 
636.0005829790528 2695.0 NaN 1530.688042752172 0.5177817305950957 396.0 71.0 297.0 
638.0005829790528 2683.0 NaN 1524.627922511691 0.5167184170019091 386.0 82.0 284.0 
640.0005829790528 2666.0 NaN 1521.5711422845698 0.5110067505178991 393.0 74.0 291.0 
642.0005829790528 2668.0 NaN 1515.3346693386784 0.5194150063837906 387.0 79.0 284.0 
644.0005829790528 2658.0 NaN 1512.3313293253182 0.5304958052032295 386.0 79.0 283.0 
646.0005829790528 2650.0 NaN 1515.3453573814281 0.5141014684291795 381.0 83.0 280.0 
648.0005829790528 2647.0 NaN 1515.2277889111544 0.5235975639474951 386.0 78.0 285.0 
650.0005829790528 2616.0 NaN 1521.5310621242475 0.5185683546227812 376.0 87.0 278.0 
652.0005829790528 2608.0 NaN 1521.4268537074151 0.5219196270400284 389.0 73.0 292.0 
654.0005829790528 2612.0 NaN 1521.5818303273202 0.5209720010260863 386.0 73.0 292.0 
656.0005829790528 2639.0 NaN 1527.8289913159647 0.5120887790567193 393.0 64.0 303.0 
658.0005829790528 2642.0 NaN 1533.9986639946555 0.5197418845730095 394.0 66.0 303.0 
660.0005829790528 2635.0 NaN 1537.1275885103548 0.5112964771004469 396.0 64.0 306.0 
662.0005829790528 2626.0 NaN 1536.9993319973273 0.5207861356574227 392.0 68.0 302.0 
664.0005829790528 2617.0 NaN 1540.0320641282556 0.5188943030859923 396.0 63.0 308.0 
#####################################################################
# End of data export. Simulation finished at: 2019-03-10T22:44+0000 #
#####################################################################
