#####################################################################
# Alchemist log file - simulation started at: 2019-03-03T08:23+0000 #
#####################################################################
# seed = 1.0, bandwidth = 316227.76601683797, propagationDelay = 0.01, baserange = 31.622776601683796
#
# The columns have the following meaning: 
# time neighbor_count[Sum] <value>@neighbor_count[Sum] packet_size[Mean] mean_delay[Mean] crowd[Sum] overcrowded[Sum] risk[Sum] 
0.0 NaN NaN NaN NaN NaN NaN NaN 
10.000417374280275 2795.0 NaN 4994.62124248497 0.49385241312466516 1426.0 71.0 1426.0 
20.000417374280275 2803.0 NaN 4994.955243820976 0.4955036768685674 1422.0 75.0 1422.0 
30.000417374280275 2806.0 NaN 4993.547094188377 0.49472636360244027 1415.0 82.0 1415.0 
40.000417374280275 2823.0 NaN 4994.688042752171 0.4954591787211367 1417.0 80.0 1417.0 
50.000417374280275 2834.0 NaN 4993.333333333333 0.5057302258755146 1402.0 95.0 1402.0 
60.000417374280275 2818.0 NaN 4994.570474281897 0.49428753425958144 1405.0 92.0 1405.0 
70.00041737428027 2838.0 NaN 1524.4649298597185 0.5008265193458653 403.0 90.0 276.0 
80.00041737428027 2841.0 NaN 1533.7287909151637 0.501813645807469 390.0 92.0 277.0 
90.00041737428027 2819.0 NaN 1533.7902471609907 0.4991564994118088 387.0 87.0 282.0 
100.00041737428027 2798.0 NaN 1536.8924515698066 0.4977867221368578 381.0 91.0 279.0 
110.00041737428027 2793.0 NaN 1536.7214428857728 0.5021404974728768 389.0 82.0 288.0 
120.00041737428027 2792.0 NaN 1543.078156312627 0.5071234196346184 389.0 85.0 287.0 
130.0004173742803 2771.0 NaN 1539.906479625918 0.5035961494806303 399.0 73.0 298.0 
140.0004173742803 2785.0 NaN 1540.0213760855033 0.5037411660899198 384.0 80.0 291.0 
150.0004173742803 2833.0 NaN 1543.0621242484972 0.5065378374440418 372.0 95.0 277.0 
160.0004173742803 2842.0 NaN 1539.9438877755513 0.5042087106183384 373.0 95.0 276.0 
170.0004173742803 2801.0 NaN 1543.0728122912485 0.5090080391738998 379.0 84.0 288.0 
180.0004173742803 2777.0 NaN 1536.993987975952 0.5034939590307462 376.0 88.0 282.0 
190.0004173742803 2768.0 NaN 1536.9539078156301 0.5066350240931599 376.0 87.0 283.0 
200.0004173742803 2760.0 NaN 1537.0527722110908 0.4988223466160373 371.0 92.0 278.0 
210.0004173742803 2761.0 NaN 1527.7034068136272 0.5010542980549598 365.0 94.0 273.0 
220.0004173742803 2746.0 NaN 1524.5718102872424 0.498676290422733 374.0 92.0 274.0 
230.0004173742803 2749.0 NaN 1530.6720106880427 0.5039239974072975 367.0 94.0 274.0 
240.0004173742803 2725.0 NaN 1530.6372745490999 0.5018934079658316 364.0 93.0 275.0 
250.0004173742803 2704.0 NaN 1533.6432865731454 0.502590057950803 359.0 99.0 270.0 
260.0004173742803 2696.0 NaN 1524.5611222444907 0.5091269081594311 360.0 98.0 268.0 
270.0004173742803 2690.0 NaN 1527.6205744822998 0.5069022120225843 380.0 80.0 287.0 
280.0004173742803 2662.0 NaN 1527.4869739478972 0.5154586207630389 384.0 77.0 290.0 
290.0004173742803 2621.0 NaN 1533.7100868403456 0.5112248167927299 379.0 78.0 291.0 
300.0004173742803 2608.0 NaN 1536.6786907147637 0.5041620480007919 377.0 81.0 289.0 
310.0004173742803 2634.0 NaN 1533.5577822311275 0.5122937682872047 385.0 71.0 298.0 
320.0004173742803 2610.0 NaN 1530.7281229124908 0.5121059011041468 385.0 71.0 297.0 
330.0004173742803 2614.0 NaN 1542.925851703409 0.510832405527963 383.0 75.0 297.0 
340.0004173742803 2632.0 NaN 1530.5731462925849 0.513913583633932 384.0 71.0 297.0 
350.0004173742803 2620.0 NaN 1521.3119572478279 0.507739845386101 388.0 72.0 293.0 
360.0004173742803 2616.0 NaN 1521.3627254509006 0.5117617465134897 379.0 82.0 283.0 
370.0004173742803 2622.0 NaN 1518.2605210420838 0.5220758700019426 376.0 85.0 279.0 
380.0004173742803 2624.0 NaN 1502.8082832331331 0.5077397164562736 379.0 83.0 276.0 
390.0004173742803 2618.0 NaN 1509.263861055445 0.5077985792143075 378.0 80.0 281.0 
400.0004173742803 2619.0 NaN 1509.1356045424182 0.5149595373309763 383.0 82.0 279.0 
410.0004173742803 2635.0 NaN 1515.2491649966607 0.5093158151790209 394.0 75.0 288.0 
420.0004173742803 2635.0 NaN 1493.838343353373 0.5022934008375481 396.0 71.0 285.0 
430.0004173742803 2619.0 NaN 1515.1930527722102 0.5132471894156813 393.0 82.0 281.0 
440.0004173742803 2614.0 NaN 1518.3647294589182 0.5012790978029472 391.0 82.0 282.0 
450.0004173742803 2610.0 NaN 1533.7608550434186 0.5086177777117522 400.0 75.0 294.0 
460.0004173742803 2584.0 NaN 1542.8376753507002 0.5012298291752122 401.0 74.0 298.0 
470.0004173742803 2588.0 NaN 1533.6619906479636 0.5117592757503515 395.0 79.0 290.0 
480.0004173742803 2576.0 NaN 1527.4789579158307 0.5109169601331527 395.0 77.0 290.0 
490.0004173742803 2577.0 NaN 1506.006680026719 0.5137733226924036 392.0 75.0 285.0 
500.0004173742803 2554.0 NaN 1487.5484301937202 0.5102283042011188 386.0 69.0 285.0 
510.0004173742803 2578.0 NaN 1499.7995991983978 0.5002802641561472 386.0 76.0 282.0 
520.0004173742802 2580.0 NaN 1475.1503006012017 0.5119261324921228 377.0 75.0 275.0 
530.0004173742802 2577.0 NaN 1456.91382765531 0.514965200867381 377.0 72.0 272.0 
540.0004173742802 2577.0 NaN 1466.137608550435 0.5149223727926805 380.0 72.0 275.0 
550.0004173742802 2568.0 NaN 1475.2705410821638 0.5050007038179426 387.0 73.0 277.0 
560.0004173742802 2590.0 NaN 1472.3072812291252 0.5067180956268357 384.0 77.0 272.0 
570.0004173742802 2538.0 NaN 1487.665998663994 0.5063490669646746 389.0 73.0 281.0 
580.0004173742802 2554.0 NaN 1493.7555110220446 0.5102244762231775 401.0 66.0 290.0 
590.0004173742802 2571.0 NaN 1502.997995991983 0.5135027230867946 405.0 66.0 293.0 
600.0004173742802 2565.0 NaN 1503.0006680026727 0.5053992332403727 402.0 72.0 287.0 
610.0004173742802 2599.0 NaN 1512.1710086840353 0.5051519242081186 393.0 77.0 285.0 
620.0004173742802 2608.0 NaN 1521.4615898463605 0.5132539952972148 388.0 79.0 286.0 
630.0004173742802 2650.0 NaN 1518.498329993319 0.513203900392377 390.0 76.0 288.0 
640.0004173742802 2676.0 NaN 1515.535070140281 0.5181684273549503 392.0 74.0 289.0 
650.0004173742802 2630.0 NaN 1527.8156312625263 0.5163163410543459 387.0 78.0 289.0 
660.0004173742802 2623.0 NaN 1530.8350033400122 0.5144826100072357 384.0 77.0 291.0 
#####################################################################
# End of data export. Simulation finished at: 2019-03-03T08:28+0000 #
#####################################################################
