#####################################################################
# Alchemist log file - simulation started at: 2019-03-03T11:30+0000 #
#####################################################################
# seed = 1.0, bandwidth = 1333521.4321633242, propagationDelay = 0.01, baserange = 100.0
#
# The columns have the following meaning: 
# time neighbor_count[Sum] <value>@neighbor_count[Sum] packet_size[Mean] mean_delay[Mean] crowd[Sum] overcrowded[Sum] risk[Sum] 
0.0 NaN NaN NaN NaN NaN NaN NaN 
10.000215577850543 13130.0 NaN 4995.965263861055 0.4993829235159251 1486.0 11.0 1486.0 
20.000215577850543 13144.0 NaN 4995.970607882432 0.49936847545617025 1489.0 8.0 1489.0 
30.000215577850543 13177.0 NaN 4994.901803607215 0.4991118464302343 1490.0 7.0 1490.0 
40.00021557785055 13214.0 NaN 4995.807615230461 0.49956480054912317 1489.0 8.0 1489.0 
50.00021557785055 13243.0 NaN 4994.768203072812 0.5013806923105639 1488.0 9.0 1488.0 
60.00021557785055 13254.0 NaN 4995.4175016700065 0.5019120892837617 1485.0 12.0 1485.0 
70.00041737428027 13235.0 NaN 1525.6780227120908 0.5010784299157812 525.0 11.0 355.0 
80.00041737428027 13294.0 NaN 1534.9873079492334 0.5014045336927212 518.0 10.0 359.0 
90.00041737428027 13268.0 NaN 1534.6693386773545 0.5007353963812748 513.0 14.0 355.0 
100.00041737428027 13218.0 NaN 1537.9585838343364 0.5008946382212642 514.0 13.0 357.0 
110.00041737428027 13247.0 NaN 1537.6967267869088 0.5025140923251076 510.0 16.0 354.0 
120.00041737428027 13271.0 NaN 1544.1389445557788 0.5034259048637165 515.0 15.0 357.0 
130.0004173742803 13265.0 NaN 1540.7775551102181 0.5029170418417935 516.0 12.0 359.0 
140.0004173742803 13254.0 NaN 1541.1436205744817 0.5013230782421543 508.0 12.0 359.0 
150.0004173742803 13258.0 NaN 1543.90380761523 0.5056027009693332 509.0 15.0 357.0 
160.0004173742803 13168.0 NaN 1541.1222444889788 0.5010166005913728 510.0 11.0 360.0 
170.0004173742803 13147.0 NaN 1543.8851035404152 0.5007066071637475 501.0 19.0 353.0 
180.0004173742803 13099.0 NaN 1537.9104876419517 0.5009906923589692 506.0 14.0 356.0 
190.0004173742803 13067.0 NaN 1537.7474949899818 0.5010828254602864 507.0 12.0 358.0 
200.0004173742803 13042.0 NaN 1537.9425517702089 0.5092177369255735 502.0 17.0 353.0 
210.0004173742803 12996.0 NaN 1528.6893787575154 0.506256636024577 493.0 20.0 347.0 
220.0004173742803 12884.0 NaN 1525.5925183700726 0.5046019679063346 499.0 20.0 346.0 
230.0004173742803 12836.0 NaN 1531.580494321979 0.5053387027754971 497.0 16.0 352.0 
240.0004173742803 12773.0 NaN 1528.555778223112 0.5044988140358121 500.0 14.0 353.0 
250.0004173742803 12729.0 NaN 1528.515698062791 0.5069162392023893 500.0 14.0 353.0 
260.0004173742803 12728.0 NaN 1522.4368737474938 0.503468767752263 505.0 11.0 354.0 
270.0004173742803 12681.0 NaN 1531.5537742150973 0.504417496705241 497.0 17.0 351.0 
280.0004173742803 12637.0 NaN 1531.6232464929844 0.5066945923493764 498.0 17.0 351.0 
290.0004173742803 12550.0 NaN 1534.4048096192364 0.5045453597732613 495.0 17.0 352.0 
300.0004173742803 12492.0 NaN 1534.6533066132274 0.5049901479559366 493.0 17.0 352.0 
310.0004173742803 12433.0 NaN 1534.3700734802933 0.502770297753043 492.0 17.0 352.0 
320.0004173742803 12419.0 NaN 1531.655310621243 0.5038228176726213 495.0 14.0 354.0 
330.0004173742803 12400.0 NaN 1540.753507014027 0.5051056125056483 493.0 17.0 354.0 
340.0004173742803 12381.0 NaN 1528.5958583834338 0.5041550037607783 496.0 14.0 353.0 
350.0004173742803 12418.0 NaN 1525.3573814295266 0.5024936250709452 497.0 17.0 349.0 
360.0004173742803 12401.0 NaN 1522.281897127589 0.5042242144953806 499.0 15.0 350.0 
370.0004173742803 12354.0 NaN 1506.8162992651976 0.5058874602896234 502.0 16.0 344.0 
380.0004173742803 12318.0 NaN 1500.713426853708 0.5067845460452228 509.0 13.0 345.0 
390.0004173742803 12266.0 NaN 1506.7895791583173 0.5035270471294149 501.0 17.0 343.0 
400.0004173742803 12267.0 NaN 1506.9365397461581 0.5047326155994504 503.0 15.0 345.0 
410.0004173742803 12286.0 NaN 1515.9973279893113 0.5042124584953385 500.0 23.0 340.0 
420.0004173742803 12307.0 NaN 1491.5911823647286 0.5063623916287132 497.0 14.0 341.0 
430.0004173742803 12310.0 NaN 1506.861723446893 0.5033017847004273 506.0 17.0 343.0 
440.0004173742803 12275.0 NaN 1522.2150968603878 0.5049581884390094 513.0 13.0 352.0 
450.0004173742803 12253.0 NaN 1534.4555778223096 0.5059717359110788 512.0 16.0 353.0 
460.0004173742803 12232.0 NaN 1540.7508350033393 0.5086175079453554 513.0 13.0 358.0 
470.0004173742803 12246.0 NaN 1531.3026052104206 0.5017418976484128 504.0 17.0 351.0 
480.0004173742803 12221.0 NaN 1525.410821643288 0.507490403966038 504.0 14.0 352.0 
490.0004173742803 12175.0 NaN 1497.6138944555787 0.5070625492562582 498.0 17.0 340.0 
500.0004173742803 12188.0 NaN 1485.4402137608545 0.5102944183608529 492.0 14.0 339.0 
510.0004173742803 12209.0 NaN 1497.5604542418175 0.5050269095556883 497.0 18.0 339.0 
520.0004173742802 12258.0 NaN 1470.0895123580485 0.5037152071075851 492.0 16.0 332.0 
530.0004173742802 12340.0 NaN 1454.5437541750175 0.5056741591639156 497.0 17.0 326.0 
540.0004173742802 12348.0 NaN 1467.0380761523058 0.50632784606906 495.0 15.0 332.0 
550.0004173742802 12283.0 NaN 1473.0688042752179 0.5035635062425448 496.0 20.0 329.0 
560.0004173742802 12340.0 NaN 1473.2317969271883 0.5075520003865536 503.0 14.0 335.0 
570.0004173742802 12330.0 NaN 1488.5450901803613 0.5068327627831148 503.0 17.0 337.0 
580.0004173742802 12319.0 NaN 1494.84034736139 0.5092637799350861 509.0 13.0 343.0 
590.0004173742802 12358.0 NaN 1503.887775551101 0.5044294794813357 509.0 16.0 343.0 
600.0004173742802 12377.0 NaN 1500.8283233132927 0.5085863636986487 518.0 14.0 344.0 
610.0004173742802 12460.0 NaN 1513.0126920507666 0.5039393516973892 515.0 16.0 346.0 
620.0004173742802 12502.0 NaN 1522.3112892451563 0.5041259123297195 515.0 13.0 352.0 
630.0004173742802 12470.0 NaN 1519.1636606546433 0.5042928540086717 512.0 16.0 348.0 
640.0004173742802 12466.0 NaN 1516.3927855711433 0.5056948342916453 511.0 15.0 348.0 
650.0004173742802 12443.0 NaN 1525.5684702738818 0.5070647033245772 503.0 18.0 348.0 
660.0004173742802 12384.0 NaN 1531.727454909819 0.5070577619235642 502.0 13.0 355.0 
#####################################################################
# End of data export. Simulation finished at: 2019-03-03T11:41+0000 #
#####################################################################
