#####################################################################
# Alchemist log file - simulation started at: 2019-03-07T20:22+0000 #
#####################################################################
# seed = 5.0, bandwidth = 5623413.251903491, propagationDelay = 0.03162277660168379, baserange = 17.78279410038923
#
# The columns have the following meaning: 
# time neighbor_count[Sum] <value>@neighbor_count[Sum] packet_size[Mean] mean_delay[Mean] crowd[Sum] overcrowded[Sum] risk[Sum] 
0.0 NaN NaN NaN NaN NaN NaN NaN 
2.000101793669918 1118.0 NaN 4993.686038744155 0.48908994301540687 1497.0 0.0 1497.0 
4.000101793669918 1118.0 NaN 4995.831663326653 0.4890886526883168 1497.0 0.0 1497.0 
6.000101793669918 1118.0 NaN 4993.381429525718 0.48908921302902486 1493.0 4.0 1493.0 
8.000101793669918 1118.0 NaN 4993.167668670675 0.49130532689938117 1487.0 10.0 1487.0 
10.000101793669918 1115.0 NaN 4993.191716766867 0.4936667291273441 1487.0 10.0 1487.0 
12.000101793669918 1114.0 NaN 4992.12291249165 0.48902534855490554 1487.0 10.0 1487.0 
14.000101793669918 1114.0 NaN 4992.6492985971945 0.4890251292441898 1487.0 10.0 1487.0 
16.00010179366992 1118.0 NaN 4992.430193720775 0.49176340702600596 1487.0 10.0 1487.0 
18.00010179366992 1118.0 NaN 4992.331329325318 0.49230172448863047 1487.0 10.0 1487.0 
20.00010179366992 1116.0 NaN 4992.384769539078 0.49594531513588 1487.0 10.0 1487.0 
22.00010179366992 1116.0 NaN 4992.02672010688 0.4900656064165535 1487.0 10.0 1487.0 
24.00010179366992 1116.0 NaN 4992.406145624583 0.49520955342478273 1487.0 10.0 1487.0 
26.00010179366992 1113.0 NaN 4991.909151636606 0.4899787019888796 1487.0 10.0 1487.0 
28.00010179366992 1119.0 NaN 4992.104208416834 0.48965541277543284 1487.0 10.0 1487.0 
30.00010179366992 1121.0 NaN 4992.277889111557 0.4923421521627919 1487.0 10.0 1487.0 
32.00010179366992 1120.0 NaN 4991.874415497662 0.4952329210452668 1487.0 10.0 1487.0 
34.00010179366992 1122.0 NaN 4991.978623914496 0.49527276935370934 1487.0 10.0 1487.0 
36.00010179366992 1121.0 NaN 4992.002672010688 0.4922755294107993 1487.0 10.0 1487.0 
38.00010179366992 1120.0 NaN 4991.930527722111 0.4929082525343224 1487.0 10.0 1487.0 
40.00010179366992 1131.0 NaN 4992.189712758851 0.49311098622596317 1487.0 10.0 1487.0 
42.00010179366992 1131.0 NaN 4992.045424181697 0.4923232531787059 1487.0 10.0 1487.0 
44.00010179366992 1137.0 NaN 4991.853039412158 0.5012254048248993 1487.0 10.0 1487.0 
46.00010179366992 1139.0 NaN 4992.213760855044 0.49032932424164966 1487.0 10.0 1487.0 
48.00010179366992 1143.0 NaN 4992.272545090181 0.5032381104262886 1487.0 10.0 1487.0 
50.00010179366992 1147.0 NaN 4991.855711422846 0.49365876484138793 1487.0 10.0 1487.0 
52.00010179366992 1142.0 NaN 4992.184368737475 0.4974681020977843 1487.0 10.0 1487.0 
54.00010179366992 1143.0 NaN 4992.154976619907 0.4951818145259683 1487.0 10.0 1487.0 
56.00010179366992 1147.0 NaN 4991.690046760187 0.4933115867833447 1487.0 10.0 1487.0 
58.00010179366992 1152.0 NaN 4992.323313293253 0.5141523155135062 1487.0 10.0 1487.0 
60.00010179366992 1135.0 NaN 4989.116900467602 0.5030267199889461 1486.0 10.0 1486.0 
62.00010179366992 1123.0 NaN 980.9325317301275 0.5000075231524846 483.0 9.0 180.0 
64.00010179366993 1132.0 NaN 983.7675350701377 0.501947806785046 472.0 9.0 181.0 
66.00010179366993 1132.0 NaN 986.8109552438193 0.49249653763104767 413.0 9.0 182.0 
68.00010179366993 1132.0 NaN 986.8350033400102 0.5006538931856972 368.0 9.0 182.0 
70.00010179366993 1130.0 NaN 986.7735470941898 0.5045960393881804 338.0 9.0 182.0 
72.00010179366993 1122.0 NaN 986.6666666666648 0.49454234875976005 329.0 9.0 182.0 
74.00010179366993 1126.0 NaN 986.7227788911171 0.49554007299295977 323.0 9.0 182.0 
76.00010179366993 1119.0 NaN 986.7281229124908 0.49731642761463873 308.0 9.0 182.0 
78.00010179366993 1116.0 NaN 983.5671342685362 0.5086899435224133 300.0 9.0 181.0 
80.00010179366993 1110.0 NaN 983.5965263861077 0.4997506592350762 291.0 9.0 181.0 
82.00010179366993 1114.0 NaN 983.5671342685362 0.49138725971463354 291.0 9.0 181.0 
84.00010179366993 1118.0 NaN 983.4923179692729 0.5046347979525977 286.0 9.0 181.0 
86.00010179366993 1107.0 NaN 983.4976619906467 0.494806717274497 285.0 9.0 181.0 
88.00010179366993 1119.0 NaN 992.7828991315987 0.5052390461125511 284.0 9.0 184.0 
90.00010179366993 1109.0 NaN 992.7428189712739 0.48892635777282595 284.0 9.0 184.0 
92.00010179366993 1110.0 NaN 992.7080828323285 0.4915355759749713 284.0 9.0 184.0 
94.00010179366993 1123.0 NaN 995.823647294591 0.5035865401800086 284.0 9.0 185.0 
96.00010179366993 1113.0 NaN 989.691382765529 0.49338050599251226 283.0 9.0 183.0 
98.00010179366993 1118.0 NaN 995.8450233800925 0.49928884255056283 283.0 9.0 185.0 
100.00010179366993 1114.0 NaN 995.8931195724803 0.502501214324555 281.0 9.0 185.0 
102.00010179366993 1105.0 NaN 995.8824315297276 0.5069841629426078 279.0 9.0 185.0 
104.00010179366993 1101.0 NaN 995.834335337344 0.4966157771226818 280.0 9.0 185.0 
106.00010179366993 1097.0 NaN 995.8102872411471 0.49717141090147116 281.0 9.0 185.0 
108.00010179366993 1102.0 NaN 998.8216432865726 0.5151714166114275 282.0 9.0 186.0 
110.00010179366993 1094.0 NaN 998.9472277889088 0.4976991108023709 281.0 9.0 186.0 
112.00010179366993 1094.0 NaN 998.9365397461562 0.5100045478441022 280.0 9.0 186.0 
114.00010179366993 1100.0 NaN 1001.9211756847012 0.5022196337957244 279.0 9.0 187.0 
116.00010179366993 1091.0 NaN 995.8450233800925 0.49723629645251166 277.0 9.0 185.0 
118.00010179366993 1111.0 NaN 1005.0527722110911 0.516755044817811 275.0 9.0 188.0 
120.00010179366993 1097.0 NaN 986.578490313962 0.5048170793159146 274.0 9.0 182.0 
122.00010179366993 1096.0 NaN 986.5865063460275 0.5039437084309198 273.0 9.0 182.0 
124.00010179366993 1098.0 NaN 986.554442217771 0.5051370900592709 273.0 9.0 182.0 
126.00010179366993 1102.0 NaN 989.6245824983291 0.49288182236034445 272.0 9.0 183.0 
128.00010179366993 1123.0 NaN 986.5731462925837 0.5126827521700487 273.0 9.0 182.0 
130.00010179366993 1115.0 NaN 995.8289913159634 0.5077433842483466 274.0 9.0 185.0 
132.00010179366993 1108.0 NaN 992.7722110888458 0.5020885938413326 275.0 9.0 184.0 
134.00010179366993 1119.0 NaN 989.678022712091 0.49822810019054703 274.0 9.0 183.0 
136.00010179366993 1120.0 NaN 989.678022712091 0.4938480058293572 270.0 9.0 183.0 
138.00010179366993 1137.0 NaN 992.782899131597 0.5091349161809398 273.0 9.0 184.0 
140.00010179366993 1130.0 NaN 1002.0868403473638 0.5108559411804487 272.0 9.0 187.0 
142.00010179366993 1122.0 NaN 1002.1295925183705 0.49737253762548306 272.0 9.0 187.0 
144.00010179366993 1132.0 NaN 989.886439545757 0.5015506056718377 271.0 9.0 183.0 
146.00010179366993 1126.0 NaN 989.8116232464909 0.4989197686964708 270.0 9.0 183.0 
148.00010179366993 1148.0 NaN 996.0293921175709 0.5015609557120945 272.0 9.0 185.0 
150.00010179366993 1148.0 NaN 992.8951235804933 0.5041989449857504 272.0 9.0 184.0 
152.00010179366993 1143.0 NaN 992.8871075484294 0.5010316382890234 271.0 9.0 184.0 
154.00010179366993 1151.0 NaN 992.9512358049457 0.5083945996974347 272.0 9.0 184.0 
156.00010179366993 1141.0 NaN 989.9452237808933 0.49505584334768155 274.0 9.0 183.0 
158.00010179366993 1148.0 NaN 993.0367401469617 0.5163913716696963 280.0 9.0 184.0 
160.00010179366993 1149.0 NaN 992.9325317301274 0.5042623688633928 279.0 9.0 184.0 
162.00010179366993 1140.0 NaN 989.8623914495636 0.5005743486185973 279.0 9.0 183.0 
164.00010179366993 1149.0 NaN 989.8329993319978 0.5098316007153149 278.0 9.0 183.0 
166.00010179366993 1133.0 NaN 989.8276553106203 0.49497758770816325 277.0 9.0 183.0 
168.00010179366993 1142.0 NaN 992.8817635270547 0.5029218348144141 277.0 9.0 184.0 
170.00010179366993 1143.0 NaN 996.0347361389457 0.5068836342017952 275.0 9.0 185.0 
172.00010179366993 1134.0 NaN 1002.0948563794274 0.49362739126686517 277.0 9.0 187.0 
174.00010179366993 1147.0 NaN 1005.1649966599894 0.5180404215716184 278.0 9.0 188.0 
176.00010179366993 1137.0 NaN 1005.1970607882456 0.49508416131349375 277.0 9.0 188.0 
178.00010179366993 1140.0 NaN 995.9412157648638 0.5139977212432367 278.0 9.0 185.0 
180.00010179366993 1133.0 NaN 986.6880427521726 0.4993323433297948 276.0 9.0 182.0 
182.00010179366993 1129.0 NaN 977.4188376753518 0.49338299862143403 276.0 9.0 179.0 
184.00010179366993 1144.0 NaN 977.437541750166 0.5177005841967215 275.0 9.0 179.0 
186.00010179366993 1129.0 NaN 977.4081496325999 0.5041106473628684 271.0 9.0 179.0 
188.00010179366993 1131.0 NaN 977.3386773547089 0.5113257107489769 274.0 9.0 179.0 
190.00010179366993 1123.0 NaN 977.3146292585185 0.5010495987340965 274.0 9.0 179.0 
192.00010179366993 1118.0 NaN 977.2638610554452 0.49596154962307026 269.0 9.0 179.0 
194.00010179366993 1137.0 NaN 980.4328657314638 0.5080733628521199 269.0 9.0 180.0 
196.00010179366993 1124.0 NaN 980.4382097528387 0.48844191362066364 267.0 9.0 180.0 
198.00010179366993 1141.0 NaN 983.5270541082181 0.49116208940752126 272.0 9.0 181.0 
200.00010179366993 1146.0 NaN 983.5511022044093 0.510271273424494 272.0 9.0 181.0 
202.00010179366993 1140.0 NaN 983.5430861723456 0.48787216718900295 268.0 9.0 181.0 
204.00010179366993 1154.0 NaN 989.6566466265884 0.5028396366233773 273.0 9.0 183.0 
206.00010179366993 1144.0 NaN 983.5323981295909 0.4889556534739662 271.0 9.0 181.0 
208.00010179366993 1157.0 NaN 986.5838343353361 0.5188915542801293 273.0 9.0 182.0 
210.00010179366993 1152.0 NaN 989.7314629258527 0.5202201152734306 273.0 9.0 183.0 
212.00010179366993 1145.0 NaN 989.7154308617253 0.5056749503515692 270.0 9.0 183.0 
214.00010179366993 1146.0 NaN 989.7581830327345 0.4992744178202894 269.0 9.0 183.0 
216.00010179366993 1139.0 NaN 992.9058116232452 0.49047261647113055 269.0 9.0 184.0 
218.00010179366993 1143.0 NaN 992.8684034736156 0.5172949592431135 272.0 9.0 184.0 
220.00010179366993 1143.0 NaN 986.6506346025365 0.5052568817025739 271.0 9.0 182.0 
222.00010179366993 1148.0 NaN 980.4836339345366 0.4996143130128683 271.0 9.0 180.0 
224.00010179366993 1146.0 NaN 977.4295257181025 0.5162578549222959 272.0 9.0 179.0 
226.00010179366993 1124.0 NaN 971.2411489645972 0.49988755968909304 271.0 9.0 177.0 
228.00010179366993 1134.0 NaN 974.3807615230453 0.5099190871252033 271.0 9.0 178.0 
230.00010179366993 1133.0 NaN 968.2538410153635 0.5033473179594791 269.0 9.0 176.0 
232.00010179366993 1142.0 NaN 974.2605210420845 0.5060968567919018 269.0 9.0 178.0 
234.00010179366993 1149.0 NaN 974.3433533734119 0.51807657393427 269.0 9.0 178.0 
236.00010179366993 1142.0 NaN 971.3293253173001 0.5047748290950366 268.0 9.0 177.0 
238.00010179366993 1148.0 NaN 971.3587174348702 0.5136102002024654 269.0 9.0 177.0 
240.00010179366993 1145.0 NaN 971.334669338679 0.5132676516307696 265.0 9.0 177.0 
242.00010179366993 1138.0 NaN 971.4094856379429 0.5256442440815715 265.0 9.0 177.0 
244.00010179366993 1125.0 NaN 971.3907815631275 0.5077298431167697 264.0 9.0 177.0 
246.00010179366993 1121.0 NaN 971.3934535738155 0.49957829608512755 262.0 9.0 177.0 
248.00010179366993 1123.0 NaN 968.2725450901818 0.5107243942008763 260.0 9.0 176.0 
250.00010179366993 1126.0 NaN 965.1008684034726 0.5165302902316178 261.0 9.0 175.0 
252.00010179366993 1119.0 NaN 965.1543086172364 0.5081404817325427 261.0 9.0 175.0 
254.00010179366993 1126.0 NaN 965.1302605210428 0.5067671343009706 262.0 9.0 175.0 
256.00010179366996 1123.0 NaN 958.9739478957908 0.49811624852849823 265.0 9.0 173.0 
258.00010179366996 1130.0 NaN 955.9492317969273 0.5157808246569121 267.0 9.0 172.0 
260.00010179366996 1127.0 NaN 958.9712758851031 0.5095765754834111 265.0 9.0 173.0 
262.00010179366996 1131.0 NaN 958.9552438209756 0.5027173525173759 264.0 9.0 173.0 
264.00010179366996 1129.0 NaN 958.9552438209756 0.5368325404198523 265.0 9.0 173.0 
266.00010179366996 1112.0 NaN 955.8770875083486 0.49648598337116556 265.0 9.0 172.0 
268.00010179366996 1121.0 NaN 952.8363393453577 0.5056326156975794 266.0 9.0 171.0 
270.00010179366996 1120.0 NaN 946.6105544422184 0.4980467616458381 264.0 9.0 169.0 
272.00010179366996 1119.0 NaN 946.6399465597859 0.5109926315804654 265.0 9.0 169.0 
274.00010179366996 1120.0 NaN 962.0227120908487 0.4997388999917311 269.0 9.0 174.0 
276.00010179366996 1120.0 NaN 962.0467601870398 0.5069918967787235 268.0 9.0 174.0 
278.00010179366996 1118.0 NaN 965.1008684034726 0.5115194656834715 268.0 9.0 175.0 
280.00010179366996 1110.0 NaN 965.0661322645276 0.5169790942628283 267.0 9.0 175.0 
282.00010179366996 1099.0 NaN 965.0313961255852 0.5002272318763368 266.0 9.0 175.0 
284.00010179366996 1093.0 NaN 961.9639278557124 0.5024357752326098 265.0 9.0 174.0 
286.00010179366996 1090.0 NaN 952.7535070140272 0.4878197603781759 261.0 9.0 171.0 
288.00010179366996 1100.0 NaN 952.7615230460912 0.5041504726456775 261.0 9.0 171.0 
290.00010179366996 1097.0 NaN 955.871743486973 0.49816405990512597 262.0 9.0 172.0 
292.00010179366996 1098.0 NaN 952.761523046091 0.4912667632683408 264.0 9.0 171.0 
294.00010179366996 1102.0 NaN 962.0280561122231 0.4978989558311933 266.0 9.0 174.0 
296.00010179366996 1098.0 NaN 965.1195724782912 0.48957366295379967 266.0 9.0 175.0 
298.00010179366996 1115.0 NaN 965.1035404141636 0.504863046048626 267.0 9.0 175.0 
300.00010179366996 1105.0 NaN 958.9873079492321 0.5085053038637968 267.0 9.0 173.0 
302.00010179366996 1101.0 NaN 958.9739478957907 0.5082305261302674 266.0 9.0 173.0 
304.00010179366996 1098.0 NaN 958.9605878423508 0.5007151911728713 268.0 9.0 173.0 
306.00010179366996 1095.0 NaN 962.0921843687361 0.49769777167832385 270.0 9.0 174.0 
308.00010179366996 1095.0 NaN 958.9792919171678 0.5075986679756177 271.0 9.0 173.0 
310.00010179366996 1084.0 NaN 958.9392117568455 0.5045598951507356 265.0 9.0 173.0 
312.00010179366996 1080.0 NaN 955.7862391449545 0.4958451877531761 263.0 9.0 172.0 
314.00010179366996 1087.0 NaN 955.8183032732136 0.5068656033389516 264.0 9.0 172.0 
316.00010179366996 1090.0 NaN 962.0013360053455 0.5006607434351865 269.0 9.0 174.0 
318.00010179366996 1093.0 NaN 965.1115564462273 0.501852776754569 271.0 9.0 175.0 
320.00010179366996 1093.0 NaN 968.0748162992636 0.4984602800639756 270.0 9.0 176.0 
322.00010179366996 1102.0 NaN 965.0394121576496 0.5002223836376687 270.0 9.0 175.0 
324.00010179366996 1108.0 NaN 958.955243820977 0.5064010512510113 271.0 9.0 173.0 
326.00010179366996 1109.0 NaN 962.0227120908497 0.49965137649111147 272.0 9.0 174.0 
328.00010179366996 1108.0 NaN 958.9392117568459 0.507613894518287 271.0 9.0 173.0 
330.00010179366996 1104.0 NaN 958.8911155644631 0.4976060820666245 273.0 9.0 173.0 
332.00010179366996 1108.0 NaN 961.953239812959 0.5010305717069135 271.0 9.0 174.0 
334.00010179366996 1105.0 NaN 961.9318637274545 0.5084260235664071 270.0 9.0 174.0 
336.00010179366996 1096.0 NaN 961.9452237808955 0.49861048352145093 266.0 9.0 174.0 
338.00010179366996 1100.0 NaN 958.9285237140956 0.5069292533968469 265.0 9.0 173.0 
340.00010179366996 1090.0 NaN 958.8991315965274 0.5078951063317216 265.0 9.0 173.0 
342.00010179366996 1091.0 NaN 955.7808951235812 0.5109278664754915 264.0 9.0 172.0 
344.00010179366996 1087.0 NaN 955.7969271877092 0.5076999341710616 267.0 9.0 172.0 
346.00010179366996 1089.0 NaN 958.9258517034086 0.4991415054008047 268.0 9.0 173.0 
348.00010179366996 1090.0 NaN 958.8884435537733 0.5058353725723205 269.0 9.0 173.0 
350.00010179366996 1082.0 NaN 962.0654642618587 0.5198737640715931 271.0 9.0 174.0 
352.00010179366996 1074.0 NaN 958.9632598530403 0.5046980437046705 269.0 9.0 173.0 
354.00010179366996 1071.0 NaN 949.7181028724128 0.5192665753375079 266.0 9.0 170.0 
356.00010179366996 1064.0 NaN 946.6666666666674 0.49404884708684743 264.0 9.0 169.0 
358.00010179366996 1069.0 NaN 937.5257181028728 0.5096628306776704 261.0 9.0 166.0 
360.00010179366996 1079.0 NaN 943.7060788243142 0.5001457886460169 263.0 9.0 168.0 
362.00010179366996 1077.0 NaN 943.553774215096 0.5053274260295737 262.0 9.0 168.0 
364.00010179366996 1080.0 NaN 937.4108216432865 0.5018847352340778 262.0 9.0 166.0 
366.00010179366996 1077.0 NaN 931.3132932531727 0.49118913069612563 260.0 9.0 164.0 
368.00010179366996 1074.0 NaN 931.3079492317961 0.49556760990935683 262.0 9.0 164.0 
370.00010179366996 1078.0 NaN 931.302605210422 0.5142553064243816 264.0 9.0 164.0 
372.00010179366996 1060.0 NaN 931.2518370073493 0.5045263498483159 263.0 9.0 164.0 
374.00010179366996 1063.0 NaN 937.4081496325996 0.49465219765435 267.0 9.0 166.0 
376.00010179366996 1065.0 NaN 928.19238476954 0.49246867522851473 267.0 9.0 163.0 
378.00010179366996 1068.0 NaN 925.1382765531055 0.49953518221182863 267.0 9.0 162.0 
380.00010179366996 1077.0 NaN 934.4128256513033 0.5158489218858856 268.0 9.0 165.0 
382.00010179366996 1073.0 NaN 928.2324649298597 0.49612664671095263 264.0 9.0 163.0 
384.00010179366996 1073.0 NaN 931.3266533066128 0.5127748828583594 264.0 9.0 164.0 
386.00010179366996 1055.0 NaN 928.2431529726126 0.5005450483905558 258.0 9.0 163.0 
388.00010179366996 1058.0 NaN 931.3426853707416 0.5046166742235516 257.0 9.0 164.0 
390.00010179366996 1061.0 NaN 931.4335337341361 0.4979264590200909 254.0 9.0 164.0 
392.00010179366996 1068.0 NaN 931.4736138944543 0.49440298933971505 254.0 9.0 164.0 
394.00010179366996 1088.0 NaN 934.431529726118 0.5150445454790684 255.0 9.0 165.0 
396.00010179366996 1070.0 NaN 931.4629258517039 0.5003022345364019 252.0 9.0 164.0 
398.00010179366996 1080.0 NaN 925.3146292585185 0.496708055625377 250.0 9.0 162.0 
400.00010179366996 1080.0 NaN 925.3146292585185 0.4996927410097895 249.0 9.0 162.0 
402.00010179366996 1086.0 NaN 925.2531730126906 0.5151330910961374 251.0 9.0 162.0 
404.00010179366996 1088.0 NaN 925.2505010020034 0.5220610179977496 254.0 9.0 162.0 
406.00010179366996 1075.0 NaN 922.2311289245151 0.5051360215541731 252.0 9.0 161.0 
408.00010179366996 1081.0 NaN 922.2391449565818 0.5023792992162047 252.0 9.0 161.0 
410.00010179366996 1083.0 NaN 922.2845691382762 0.4931035162068883 252.0 9.0 161.0 
412.00010179366996 1091.0 NaN 919.0941883767548 0.5317138799378607 248.0 9.0 160.0 
414.00010179366996 1081.0 NaN 925.2638610554453 0.5158299872071987 249.0 9.0 162.0 
416.00010179366996 1069.0 NaN 925.3653974615912 0.49449842524151144 248.0 9.0 162.0 
418.00010179366996 1076.0 NaN 925.2905811623243 0.4900579918892323 247.0 9.0 162.0 
420.00010179366996 1083.0 NaN 922.2605210420849 0.5014457435347034 248.0 9.0 161.0 
422.00010179366996 1081.0 NaN 922.1910487641944 0.5064466209098785 246.0 9.0 161.0 
424.00010179366996 1081.0 NaN 925.2184368737455 0.5075750954712134 243.0 9.0 162.0 
426.00010179366996 1066.0 NaN 925.2211088844366 0.48673590654318355 244.0 9.0 162.0 
428.00010179366996 1074.0 NaN 919.0487641950547 0.5004059952260974 241.0 9.0 160.0 
430.00010179366996 1070.0 NaN 915.9225116900459 0.49711562130024983 242.0 9.0 159.0 
432.00010179366996 1072.0 NaN 909.8116232464914 0.5124812261766901 242.0 9.0 157.0 
434.00010179366996 1077.0 NaN 909.830327321309 0.49361464767973307 244.0 9.0 157.0 
436.00010179366996 1094.0 NaN 919.0514362057455 0.4928237493622478 243.0 9.0 160.0 
438.00010179366996 1106.0 NaN 925.2905811623235 0.5047899245181259 243.0 9.0 162.0 
440.00010179366996 1095.0 NaN 931.4335337341358 0.5315271150196316 248.0 9.0 164.0 
442.00010179366996 1090.0 NaN 940.5771543086183 0.5023787365204827 250.0 9.0 167.0 
444.00010179366996 1100.0 NaN 940.6305945223781 0.5034218956487533 249.0 9.0 167.0 
446.00010179366996 1098.0 NaN 943.7140948563788 0.5035471718368907 250.0 9.0 168.0 
448.00010179366996 1099.0 NaN 940.5824983299941 0.506171258152432 250.0 9.0 167.0 
450.00010179366996 1093.0 NaN 943.7648630594542 0.4938076873493026 250.0 9.0 168.0 
452.00010179366996 1096.0 NaN 946.8109552438212 0.5087738933809776 247.0 14.0 164.0 
454.00010179366996 1095.0 NaN 949.8410153640634 0.49821244905538936 247.0 16.0 163.0 
456.00010179366996 1101.0 NaN 943.5965263861059 0.5047657603390248 250.0 16.0 161.0 
458.00010179366996 1100.0 NaN 946.7388109552452 0.505980903279077 250.0 16.0 162.0 
460.00010179366996 1095.0 NaN 943.6312625250514 0.5130694488252749 251.0 16.0 161.0 
462.00010179366996 1087.0 NaN 943.5404141616548 0.5226950023569871 252.0 16.0 161.0 
464.00010179366996 1074.0 NaN 940.5050100200398 0.5005340992056787 245.0 16.0 160.0 
466.00010179366996 1074.0 NaN 940.4248496993997 0.5169160241165895 241.0 16.0 160.0 
468.00010179366996 1078.0 NaN 940.4756179024729 0.5097456389545693 243.0 16.0 160.0 
470.00010179366996 1067.0 NaN 940.4916499666001 0.5013327624219992 244.0 16.0 160.0 
472.00010179366996 1068.0 NaN 937.3653974615911 0.5112419844898248 245.0 15.0 160.0 
474.00010179366996 1064.0 NaN 934.3246492985962 0.5050566809113392 251.0 9.0 165.0 
476.00010179366996 1060.0 NaN 940.4649298597184 0.5165402403534863 251.0 9.0 167.0 
478.00010179366996 1061.0 NaN 940.4836339345364 0.5142605286005384 254.0 9.0 167.0 
480.00010179366996 1053.0 NaN 940.5263861055456 0.5137829517178284 253.0 9.0 167.0 
482.00010179366996 1065.0 NaN 934.3834335337361 0.5163002612869625 252.0 9.0 165.0 
484.00010179366996 1060.0 NaN 931.3346693386776 0.4977293370480179 251.0 9.0 164.0 
486.00010179366996 1056.0 NaN 928.2137608550453 0.5102566442044953 250.0 9.0 163.0 
488.00010179366996 1062.0 NaN 928.2404809619228 0.5132029188100117 250.0 9.0 163.0 
490.00010179366996 1064.0 NaN 934.4261857047416 0.5092903986717431 248.0 9.0 165.0 
492.00010179366996 1067.0 NaN 931.2892451569816 0.5107730796656521 247.0 9.0 164.0 
494.00010179366996 1063.0 NaN 928.1977287909142 0.5059293991869954 246.0 9.0 163.0 
496.00010179366996 1054.0 NaN 928.1950567802273 0.503737877831126 244.0 9.0 163.0 
498.00010179366996 1059.0 NaN 928.1683366733457 0.501645455519752 244.0 9.0 163.0 
500.00010179366996 1071.0 NaN 919.0140280561131 0.49997897255618273 241.0 9.0 160.0 
502.00010179366996 1075.0 NaN 915.8957915831677 0.5056497461140561 243.0 9.0 159.0 
504.00010179366996 1074.0 NaN 912.8256513026047 0.5072312414849335 244.0 9.0 158.0 
506.00010179366996 1068.0 NaN 909.7795591182363 0.4993781048536288 244.0 9.0 157.0 
508.00010179366996 1071.0 NaN 903.6499665998675 0.49274881503601864 244.0 9.0 155.0 
510.00010179366996 1076.0 NaN 900.5824983299946 0.5007882807943562 244.0 9.0 154.0 
512.00010179367 1066.0 NaN 900.5878423513689 0.5171094418044774 242.0 9.0 154.0 
514.00010179367 1060.0 NaN 894.4342017368082 0.5060765766495594 240.0 9.0 152.0 
516.00010179367 1049.0 NaN 891.3346693386773 0.49311283781577536 241.0 9.0 151.0 
518.00010179367 1052.0 NaN 891.2972611890456 0.4924265235930517 239.0 9.0 151.0 
520.00010179367 1056.0 NaN 891.3587174348694 0.49886287916280686 239.0 9.0 151.0 
522.00010179367 1053.0 NaN 882.1616566466272 0.524440440420921 237.0 9.0 148.0 
524.00010179367 1032.0 NaN 882.1803607214428 0.5086367487966044 236.0 9.0 148.0 
526.00010179367 1026.0 NaN 879.136940547762 0.4944314546246531 236.0 9.0 147.0 
528.00010179367 1028.0 NaN 872.9271877087502 0.4982674238277302 236.0 9.0 145.0 
530.00010179367 1033.0 NaN 869.867735470941 0.5078617419422993 235.0 9.0 144.0 
532.00010179367 1030.0 NaN 869.8784235136939 0.5186255678229682 235.0 9.0 144.0 
534.00010179367 1038.0 NaN 872.9779559118228 0.4936494998874653 239.0 9.0 145.0 
536.00010179367 1045.0 NaN 879.1396125584499 0.48883553347726083 241.0 9.0 147.0 
538.00010179367 1052.0 NaN 876.037408149632 0.4921992679140681 241.0 9.0 146.0 
540.00010179367 1061.0 NaN 876.0641282565134 0.5015350219055852 241.0 9.0 146.0 
542.00010179367 1057.0 NaN 876.0400801603207 0.5075806207363456 241.0 9.0 146.0 
544.00010179367 1054.0 NaN 882.1616566466272 0.4992464486992469 242.0 9.0 148.0 
546.00010179367 1051.0 NaN 888.3286573146291 0.49693037213430563 245.0 9.0 150.0 
548.00010179367 1057.0 NaN 888.3794255177019 0.4985166186247303 245.0 9.0 150.0 
550.00010179367 1053.0 NaN 888.3206412825652 0.49913204157955404 245.0 9.0 150.0 
552.00010179367 1054.0 NaN 885.3627254509017 0.4976960402794836 245.0 9.0 149.0 
554.00010179367 1058.0 NaN 888.3954575818304 0.5005071435054163 246.0 9.0 150.0 
556.00010179367 1056.0 NaN 888.3313293253179 0.5013775112105646 246.0 9.0 150.0 
558.00010179367 1053.0 NaN 891.4816299265196 0.49794732940781494 243.0 9.0 151.0 
560.00010179367 1055.0 NaN 891.521710086841 0.5146341214577498 243.0 9.0 151.0 
562.00010179367 1056.0 NaN 891.4869739478954 0.5235601702770454 241.0 9.0 151.0 
564.00010179367 1073.0 NaN 897.6967267869079 0.5037389558095466 243.0 9.0 153.0 
566.00010179367 1064.0 NaN 894.629258517035 0.5052416008700003 243.0 9.0 152.0 
568.00010179367 1053.0 NaN 891.545758183032 0.5083318642892422 242.0 9.0 151.0 
570.00010179367 1055.0 NaN 894.6292585170348 0.5116119859232874 244.0 9.0 152.0 
572.00010179367 1061.0 NaN 897.7474949899803 0.5128158023022493 243.0 9.0 153.0 
574.00010179367 1062.0 NaN 897.7047428189713 0.5073228796758759 245.0 9.0 153.0 
576.00010179367 1051.0 NaN 900.8256513026047 0.49886832586281554 244.0 9.0 154.0 
578.00010179367 1059.0 NaN 900.7481629926517 0.5031462754196627 244.0 9.0 154.0 
580.00010179367 1066.0 NaN 894.5811623246499 0.5191620650243132 242.0 9.0 152.0 
582.00010179367 1059.0 NaN 891.545758183032 0.5148348617460068 239.0 9.0 151.0 
584.00010179367 1061.0 NaN 891.4976619906482 0.5022180544453223 243.0 9.0 151.0 
586.00010179367 1056.0 NaN 891.5243820975273 0.4928068762729954 244.0 9.0 151.0 
588.00010179367 1066.0 NaN 897.6619906479635 0.49968656707661935 244.0 9.0 153.0 
590.00010179367 1069.0 NaN 900.7214428857714 0.5057031180891066 244.0 9.0 154.0 
592.00010179367 1067.0 NaN 900.6760187040741 0.507313831264567 245.0 9.0 154.0 
594.00010179367 1073.0 NaN 903.7007348029397 0.4980040398696322 246.0 9.0 155.0 
596.00010179367 1070.0 NaN 903.6873747494999 0.5028410159979146 246.0 9.0 155.0 
598.00010179367 1073.0 NaN 906.7575150300592 0.4965771884456702 247.0 9.0 156.0 
600.00010179367 1080.0 NaN 906.7548430193727 0.5104032838037239 245.0 9.0 156.0 
602.00010179367 1063.0 NaN 897.5070140280559 0.5120282922980103 242.0 9.0 153.0 
604.00010179367 1065.0 NaN 894.4475617902469 0.5137630306511813 242.0 9.0 152.0 
606.00010179367 1062.0 NaN 906.7494989979954 0.49672643154678814 242.0 9.0 156.0 
608.00010179367 1076.0 NaN 912.9779559118228 0.5049269083333279 243.0 9.0 158.0 
610.00010179367 1090.0 NaN 919.1422845691376 0.5309887414430515 245.0 9.0 160.0 
612.00010179367 1086.0 NaN 925.3173012692044 0.5038333845682714 250.0 9.0 162.0 
614.00010179367 1083.0 NaN 928.3473613894455 0.5166862139038668 248.0 9.0 163.0 
616.00010179367 1076.0 NaN 922.1482965931864 0.5153042886926512 247.0 9.0 161.0 
618.00010179367 1073.0 NaN 928.2939211756857 0.5092582407804829 248.0 9.0 163.0 
620.00010179367 1066.0 NaN 922.1963927855719 0.5019393202797832 247.0 9.0 161.0 
622.00010179367 1065.0 NaN 919.0888443553772 0.50574447753798 247.0 9.0 160.0 
624.00010179367 1074.0 NaN 931.3747494989996 0.503037174467433 253.0 9.0 164.0 
626.00010179367 1073.0 NaN 934.4876419505681 0.5045227704174029 253.0 9.0 165.0 
628.00010179367 1090.0 NaN 937.5257181028728 0.5237653730299112 256.0 9.0 166.0 
630.00010179367 1079.0 NaN 940.6305945223776 0.5131351601768557 257.0 9.0 167.0 
632.00010179367 1069.0 NaN 937.5925183700726 0.5087229001039673 255.0 9.0 166.0 
634.00010179367 1085.0 NaN 940.6947227788908 0.5086103831629087 254.0 9.0 167.0 
636.00010179367 1087.0 NaN 946.8323313293272 0.5172627721671831 255.0 9.0 169.0 
638.00010179367 1102.0 NaN 949.9425517702089 0.5350846296631967 259.0 9.0 170.0 
640.00010179367 1101.0 NaN 949.9826319305272 0.5070538861947539 259.0 9.0 170.0 
642.00010179367 1093.0 NaN 949.9425517702089 0.5129863275239533 259.0 9.0 170.0 
644.00010179367 1094.0 NaN 956.0774883099544 0.5079088824493004 260.0 9.0 172.0 
646.00010179367 1101.0 NaN 962.3193052772214 0.5015431529395373 261.0 9.0 174.0 
648.00010179367 1104.0 NaN 959.1609886439546 0.5282974140522789 265.0 9.0 173.0 
650.00010179367 1088.0 NaN 959.0861723446908 0.5060237777174489 264.0 9.0 173.0 
652.00010179367 1090.0 NaN 968.3286573146274 0.5029791416888061 266.0 9.0 176.0 
654.00010179367 1097.0 NaN 968.382097528391 0.5144447632067285 266.0 9.0 176.0 
656.00010179367 1081.0 NaN 974.415497661991 0.514218521841212 266.0 9.0 178.0 
658.00010179367 1091.0 NaN 974.434201736809 0.5094543081115818 269.0 9.0 178.0 
660.00010179367 1088.0 NaN 974.4235136940545 0.5098800669335288 268.0 9.0 178.0 
662.00010179367 1101.0 NaN 980.5744822979274 0.5217157940717909 272.0 9.0 180.0 
664.00010179367 1072.0 NaN 977.4428857715427 0.531298058385377 269.0 9.0 179.0 
#####################################################################
# End of data export. Simulation finished at: 2019-03-07T20:26+0000 #
#####################################################################
