#####################################################################
# Alchemist log file - simulation started at: 2019-03-08T04:06+0000 #
#####################################################################
# seed = 2.0, bandwidth = 4216.965034285822, propagationDelay = 10.0, baserange = 31.622776601683796
#
# The columns have the following meaning: 
# time neighbor_count[Sum] <value>@neighbor_count[Sum] packet_size[Mean] mean_delay[Mean] crowd[Sum] overcrowded[Sum] risk[Sum] 
0.0 NaN NaN NaN NaN NaN NaN NaN 
2.0005829790527505 NaN NaN 4988.0 NaN 1497.0 0.0 1497.0 
4.0005829790527505 NaN NaN 4988.0 NaN 1497.0 0.0 1497.0 
6.0005829790527505 NaN NaN 4988.0 NaN 1497.0 0.0 1497.0 
8.000582979052751 NaN NaN 4988.0 NaN 1497.0 0.0 1497.0 
10.000582979052751 NaN NaN 4988.0 NaN 1497.0 0.0 1497.0 
12.000582979052751 939.0 NaN 4988.889779559118 0.22964596997393805 1497.0 0.0 1497.0 
14.000582979052751 2794.0 NaN 4997.199732798931 1.8153790250067434 1497.0 0.0 1497.0 
16.00058297905275 2794.0 NaN 4993.9906479625915 3.8153790250067434 1497.0 0.0 1497.0 
18.00058297905275 2794.0 NaN 4993.929191716767 5.815379025006743 1497.0 0.0 1497.0 
20.00058297905275 2794.0 NaN 4993.923847695391 7.815379025006743 1497.0 0.0 1497.0 
22.00058297905275 2794.0 NaN 4993.939879759519 9.815379025006743 1497.0 0.0 1497.0 
24.00058297905275 2801.0 NaN 4995.943887775551 7.827896583767637 1496.0 1.0 1496.0 
26.00058297905275 2810.0 NaN 4994.086840347361 1.885316514279822 1493.0 4.0 1493.0 
28.00058297905275 2810.0 NaN 4991.607214428857 3.8853165142798223 1493.0 4.0 1493.0 
30.00058297905275 2810.0 NaN 4991.601870407481 5.885316514279822 1493.0 4.0 1493.0 
32.00058297905275 2810.0 NaN 4991.623246492986 7.885316514279822 1493.0 4.0 1493.0 
34.00058297905275 2810.0 NaN 4991.63126252505 9.885316514279822 1493.0 4.0 1493.0 
36.00001656177611 2823.0 NaN 4992.590514362058 7.9225829264229555 1486.0 11.0 1486.0 
38.00058297905275 2845.0 NaN 4994.765531062124 2.0074529710130555 1479.0 18.0 1479.0 
40.00058297905275 2845.0 NaN 4992.927187708751 4.007452971013056 1479.0 18.0 1479.0 
42.00058297905275 2842.0 NaN 4992.935203740815 5.995535268494437 1479.0 18.0 1479.0 
44.00058297905275 2829.0 NaN 4992.91382765531 7.893555734601527 1479.0 18.0 1479.0 
46.00058297905275 2829.0 NaN 4992.916499665998 9.893555734601527 1479.0 18.0 1479.0 
48.00058297905275 2852.0 NaN 4993.9879759519035 7.916867991930007 1471.0 26.0 1471.0 
50.00058297905275 2884.0 NaN 4992.539746158985 2.0601667352483353 1457.0 40.0 1457.0 
52.00058297905275 2884.0 NaN 4991.193052772211 4.060166735248336 1457.0 40.0 1457.0 
54.00058297905275 2875.0 NaN 4991.147628590515 6.033327424450883 1457.0 40.0 1457.0 
56.00058297905275 2862.0 NaN 4991.128924515698 7.915761885601731 1457.0 40.0 1457.0 
58.00058297905275 2862.0 NaN 4991.158316633267 9.91576188560173 1457.0 40.0 1457.0 
60.00001656177611 2884.0 NaN 4991.607214428857 8.009325779677818 1455.0 42.0 1455.0 
62.00058297905275 2932.0 NaN 1518.717434869739 2.196632926339403 660.0 47.0 317.0 
64.00058297905275 2932.0 NaN 1521.410821643288 4.1966329263394035 660.0 47.0 318.0 
66.00058297905275 2918.0 NaN 1521.4188376753516 6.150943348944592 659.0 47.0 318.0 
68.00058297905275 2896.0 NaN 1521.3814295257184 8.014948535175483 659.0 47.0 318.0 
70.00058297905275 2896.0 NaN 1521.3947895791575 10.014948535175483 660.0 46.0 319.0 
72.00058297905275 2921.0 NaN 1521.7982631930543 5.6764675359395484 583.0 54.0 311.0 
74.00058297905275 2969.0 NaN 1524.4595858383452 2.7756933142623375 561.0 68.0 298.0 
76.00058297905275 2969.0 NaN 1524.2725450901817 4.775693314262338 561.0 68.0 298.0 
78.00058297905275 2945.0 NaN 1524.2618570474272 6.641463721933708 560.0 68.0 298.0 
80.00058297905275 2906.0 NaN 1524.2778891115547 8.431704008815428 559.0 67.0 299.0 
82.00021346050522 2911.0 NaN 1524.2832331329334 8.879682964427106 543.0 67.0 299.0 
84.00058297905275 2940.0 NaN 1530.549098196391 5.591760833964255 495.0 71.0 297.0 
86.00058297905275 2976.0 NaN 1530.7708750835 3.2472067031913476 498.0 68.0 300.0 
88.00058297905275 2976.0 NaN 1530.5384101536392 5.247206703191348 498.0 68.0 300.0 
90.00058297905275 2951.0 NaN 1530.5838343353362 7.149541126632903 501.0 65.0 303.0 
92.00058297905275 2898.0 NaN 1530.543754175018 8.862775574407536 499.0 66.0 302.0 
94.00058297905275 2903.0 NaN 1530.5303941215757 6.572834039592506 472.0 66.0 302.0 
96.00049767580047 2917.0 NaN 1530.7014028056092 6.002781107732926 471.0 66.0 302.0 
98.00058297905275 2945.0 NaN 1530.5571142284568 3.6319413486482035 469.0 68.0 300.0 
100.00058297905275 2945.0 NaN 1530.305945223782 5.631941348648204 469.0 68.0 300.0 
102.00058297905275 2915.0 NaN 1533.3734134936547 7.489425116039905 468.0 69.0 300.0 
104.00021346050522 2861.0 NaN 1533.3680694722789 7.6801168630082035 463.0 68.0 301.0 
106.00058297905275 2864.0 NaN 1533.357381429527 6.501132746371134 448.0 69.0 300.0 
108.00058297905275 2874.0 NaN 1533.4589178356725 6.356450022888411 447.0 70.0 299.0 
110.00058297905275 2898.0 NaN 1533.750167000667 3.973953700100826 448.0 69.0 300.0 
112.00058297905275 2897.0 NaN 1533.5524382097542 5.961548146752387 448.0 69.0 300.0 
114.00058297905275 2873.0 NaN 1533.5577822311277 7.823783587829209 446.0 69.0 300.0 
116.00058297905275 2845.0 NaN 1533.5791583166338 5.3919679945806545 432.0 69.0 300.0 
118.00058297905275 2853.0 NaN 1533.5524382097542 6.976059794318177 433.0 69.0 300.0 
120.00058297905275 2879.0 NaN 1533.736806947227 6.8723906418970175 435.0 68.0 301.0 
122.00058297905275 2924.0 NaN 1536.6359385437547 4.5467046439646195 434.0 71.0 299.0 
124.00058297905275 2923.0 NaN 1536.4488977955907 6.541392935387726 434.0 71.0 299.0 
126.00021346050522 2911.0 NaN 1536.5050100200394 6.89469137001479 431.0 70.0 300.0 
128.00058297905275 2905.0 NaN 1536.4889779559119 5.698322386553653 426.0 70.0 300.0 
130.00058297905275 2912.0 NaN 1536.4782899131606 7.662192093718344 427.0 69.0 301.0 
132.00058297905275 2934.0 NaN 1539.6526386105547 7.609184420713439 426.0 70.0 301.0 
134.00058297905275 2966.0 NaN 1540.0 5.353987619851458 426.0 70.0 301.0 
136.00058297905275 2949.0 NaN 1539.7995991983973 7.1332782540971635 426.0 69.0 302.0 
138.00058297905275 2924.0 NaN 1536.7267869071457 4.717865818492032 421.0 69.0 301.0 
140.00058297905275 2871.0 NaN 1536.6920507682025 6.086243071916455 422.0 68.0 302.0 
142.00058297905275 2878.0 NaN 1536.6573146292576 8.050352867644598 422.0 68.0 302.0 
144.0004976758005 2910.0 NaN 1546.0280561122245 7.937982467472173 425.0 67.0 306.0 
146.00058297905275 2974.0 NaN 1545.9372077488304 5.531150684113859 423.0 69.0 304.0 
148.00021346050522 2973.0 NaN 1545.7047428189726 5.921135688895048 421.0 70.0 303.0 
150.00058297905275 2954.0 NaN 1539.583166332664 4.751608019319349 418.0 69.0 302.0 
152.00058297905275 2896.0 NaN 1536.5076820307272 6.450769295384879 417.0 69.0 301.0 
154.00058297905275 2900.0 NaN 1530.3513694054789 8.41006721569985 418.0 69.0 299.0 
156.00058297905275 2926.0 NaN 1527.4575818303274 8.292946639006267 418.0 70.0 297.0 
158.00058297905275 2961.0 NaN 1533.8383433533725 5.826927722656162 420.0 71.0 298.0 
160.00058297905275 2962.0 NaN 1533.6833667334665 3.565113872913209 415.0 71.0 298.0 
162.00058297905275 2956.0 NaN 1533.6272545090183 5.082302769833751 415.0 70.0 299.0 
164.00058297905275 2933.0 NaN 1533.6032064128271 6.933300825720827 414.0 70.0 299.0 
166.00058297905275 2937.0 NaN 1533.5978623914484 8.88392983345759 415.0 69.0 300.0 
168.0004976758005 2953.0 NaN 1533.7341349365395 8.636896702347357 414.0 70.0 299.0 
170.00021346050522 2993.0 NaN 1539.7995991983973 4.8451573633238825 413.0 71.0 300.0 
172.00058297905275 2995.0 NaN 1542.6800267201093 3.808994999489878 413.0 71.0 301.0 
174.00058297905275 2972.0 NaN 1542.6479625918516 5.658731454882026 413.0 71.0 301.0 
176.00058297905275 2921.0 NaN 1539.561790247161 7.416412053794168 412.0 71.0 300.0 
178.00058297905275 2915.0 NaN 1536.464929859718 9.280280745664356 412.0 71.0 299.0 
180.00058297905275 2927.0 NaN 1539.6446225784912 9.119835753348575 414.0 70.0 301.0 
182.00058297905275 2972.0 NaN 1542.917835671343 2.7874888081139573 409.0 74.0 298.0 
184.00058297905275 2974.0 NaN 1542.730794923182 4.373637875304805 409.0 74.0 298.0 
186.00058297905275 2942.0 NaN 1539.695390781564 6.1913673891696455 409.0 74.0 297.0 
188.00058297905275 2872.0 NaN 1536.585170340682 7.839703587201659 408.0 74.0 296.0 
190.00058297905275 2874.0 NaN 1536.627922511691 9.600038144161303 407.0 75.0 295.0 
192.00021346050522 2899.0 NaN 1542.8617234468934 7.932743073868088 403.0 77.0 295.0 
194.00058297905275 2953.0 NaN 1549.0020040080183 2.7805025436073425 407.0 73.0 301.0 
196.00058297905275 2952.0 NaN 1545.7314629258522 4.682909903888417 406.0 73.0 300.0 
198.00058297905275 2918.0 NaN 1542.661322645291 6.494112938573043 405.0 74.0 298.0 
200.00058297905275 2854.0 NaN 1542.6693386773545 8.165018432211912 404.0 75.0 297.0 
202.00058297905275 2853.0 NaN 1545.7100868403456 9.968393026601822 404.0 75.0 298.0 
204.00058297905275 2889.0 NaN 1548.9352037408157 5.707430779083111 400.0 79.0 295.0 
206.00058297905275 2944.0 NaN 1552.2672010688025 3.271308524656383 399.0 80.0 295.0 
208.00058297905275 2942.0 NaN 1548.9726118904455 5.159498749502416 396.0 80.0 294.0 
210.00058297905275 2909.0 NaN 1545.9104876419517 6.912313508529046 396.0 80.0 293.0 
212.00058297905275 2849.0 NaN 1545.8757515030065 8.462789800185776 396.0 80.0 293.0 
214.00021346050522 2850.0 NaN 1545.8249832999338 8.828122293422988 394.0 80.0 293.0 
216.00058297905275 2869.0 NaN 1549.1409485637937 5.857244172086832 394.0 78.0 296.0 
218.00058297905275 2905.0 NaN 1549.0474281897118 3.7669942024159955 390.0 82.0 292.0 
220.00058297905275 2908.0 NaN 1548.8256513026063 5.630883662276992 390.0 82.0 292.0 
222.00058297905275 2881.0 NaN 1545.776887107548 7.309034397587745 391.0 81.0 292.0 
224.00058297905275 2830.0 NaN 1545.7528390113546 8.939463086132667 391.0 81.0 292.0 
226.00058297905275 2839.0 NaN 1545.7822311289246 6.717934811793402 386.0 81.0 292.0 
228.00058297905275 2865.0 NaN 1542.8483633934547 6.345158750352169 385.0 81.0 291.0 
230.00058297905275 2904.0 NaN 1542.9044756179023 4.228668877894238 384.0 82.0 290.0 
232.00058297905275 2896.0 NaN 1542.7361389445546 6.024986526504498 384.0 82.0 290.0 
234.00058297905275 2866.0 NaN 1542.6960587842364 7.498890717888577 383.0 82.0 290.0 
236.00021346050522 2823.0 NaN 1545.7608550434184 7.65533346557399 381.0 81.0 292.0 
238.00058297905275 2835.0 NaN 1545.763527054109 6.618613953290221 380.0 80.0 293.0 
240.00058297905275 2849.0 NaN 1539.7408149632608 6.591662107073326 379.0 79.0 292.0 
242.00058297905275 2881.0 NaN 1539.7995991983973 4.482493590722746 378.0 79.0 292.0 
244.00058297905275 2879.0 NaN 1539.53774215097 6.308107796958705 378.0 79.0 292.0 
246.00058297905275 2847.0 NaN 1533.3974615898455 7.9573317953145155 378.0 79.0 290.0 
248.00058297905275 2820.0 NaN 1533.3680694722789 5.6408184469887654 380.0 78.0 291.0 
250.00058297905275 2820.0 NaN 1533.3627254509001 7.1789575666363294 381.0 78.0 291.0 
252.00058297905275 2832.0 NaN 1533.539078156312 7.177454911866916 378.0 81.0 288.0 
254.00058297905275 2843.0 NaN 1533.6967267869088 5.103109571217354 377.0 83.0 286.0 
256.00058297905275 2834.0 NaN 1533.5096860387453 6.8234160751022905 376.0 84.0 285.0 
258.0002134605052 2813.0 NaN 1533.5230460921844 7.028448081631555 375.0 84.0 285.0 
260.00058297905275 2783.0 NaN 1533.4749498998 5.777756306125849 377.0 82.0 287.0 
262.00058297905275 2786.0 NaN 1533.4509018036088 7.639907627292606 377.0 83.0 286.0 
264.00058297905275 2812.0 NaN 1533.6860387441545 7.607780155448058 378.0 83.0 286.0 
266.00058297905275 2854.0 NaN 1530.6346025384091 5.419882308283257 379.0 83.0 285.0 
268.00058297905275 2845.0 NaN 1530.4796259185027 7.063651421889956 378.0 83.0 285.0 
270.00058297905275 2838.0 NaN 1542.7361389445546 4.672031210140975 379.0 83.0 289.0 
272.00058297905275 2792.0 NaN 1542.7201068804272 6.088429806891951 381.0 81.0 291.0 
274.00058297905275 2790.0 NaN 1545.736806947227 7.991552383667199 381.0 81.0 292.0 
276.00058297905275 2803.0 NaN 1545.8704074816294 8.010978798330063 387.0 77.0 296.0 
278.00058297905275 2831.0 NaN 1549.0581162324638 5.830711541211234 392.0 74.0 300.0 
280.0002134605052 2830.0 NaN 1548.8443553774205 6.104237231119618 393.0 74.0 300.0 
282.00058297905275 2809.0 NaN 1542.7548430193729 4.947265326637538 393.0 74.0 298.0 
284.00058297905275 2767.0 NaN 1539.6526386105547 6.65173461195929 392.0 73.0 298.0 
286.00058297905275 2765.0 NaN 1539.6526386105547 8.51800206909355 392.0 73.0 298.0 
288.00058297905275 2776.0 NaN 1539.7889111556456 8.579040124818968 393.0 72.0 299.0 
290.00058297905275 2805.0 NaN 1539.7060788243157 6.445187948090803 394.0 71.0 300.0 
292.00058297905275 2809.0 NaN 1539.6072144288573 4.1246818095001565 394.0 71.0 300.0 
294.00058297905275 2778.0 NaN 1533.4348697394792 5.492972599007154 392.0 71.0 298.0 
296.00058297905275 2725.0 NaN 1530.3166332665337 7.179129330570393 390.0 70.0 298.0 
298.00058297905275 2722.0 NaN 1530.3112892451568 9.0418215275447 390.0 70.0 298.0 
300.00058297905275 2721.0 NaN 1530.3967935871729 8.862506403794761 388.0 71.0 297.0 
302.0002134605052 2750.0 NaN 1527.4308617234458 5.2696870950212125 388.0 71.0 296.0 
304.00058297905275 2758.0 NaN 1527.289245156982 4.127401815287907 389.0 71.0 296.0 
306.00058297905275 2729.0 NaN 1524.2618570474272 5.772930855597174 388.0 71.0 295.0 
308.00058297905275 2678.0 NaN 1527.2785571142272 7.3309578396289 388.0 71.0 296.0 
310.00058297905275 2675.0 NaN 1524.171008684036 9.080983193702847 386.0 70.0 296.0 
312.00058297905275 2691.0 NaN 1530.4475617902458 8.994412849273232 388.0 68.0 300.0 
314.00058297905275 2729.0 NaN 1530.3567134268546 2.7500369742493427 391.0 67.0 301.0 
316.00058297905275 2729.0 NaN 1530.1803607214429 4.257972780808459 391.0 67.0 301.0 
318.00058297905275 2714.0 NaN 1527.1289245156997 6.0500619915136005 390.0 67.0 300.0 
320.00058297905275 2675.0 NaN 1530.1830327321302 7.714964373002174 388.0 67.0 301.0 
322.00058297905275 2675.0 NaN 1527.0915163660638 9.421366556145895 389.0 67.0 300.0 
324.0002134605052 2692.0 NaN 1530.2551770207092 7.825733771399837 389.0 67.0 301.0 
326.00058297905275 2727.0 NaN 1536.7241148964608 2.7587629831568994 392.0 67.0 303.0 
328.00058297905275 2729.0 NaN 1536.5584502337997 4.571122488769227 392.0 67.0 303.0 
330.00058297905275 2713.0 NaN 1530.4074816299274 6.383991570488913 390.0 67.0 301.0 
332.00058297905275 2685.0 NaN 1530.3754175016702 8.02038935511791 389.0 67.0 301.0 
334.00058297905275 2678.0 NaN 1530.3139612558455 9.781715032235502 389.0 67.0 301.0 
336.00058297905275 2682.0 NaN 1527.404141616566 5.602484197538621 386.0 67.0 300.0 
338.00058297905275 2711.0 NaN 1524.2110888443544 3.2218009884185386 391.0 67.0 299.0 
340.00058297905275 2715.0 NaN 1527.1075484301934 5.1005926973726785 392.0 67.0 300.0 
342.00058297905275 2707.0 NaN 1524.064128256512 6.8675247166156925 392.0 67.0 299.0 
344.00058297905275 2678.0 NaN 1524.0828323313278 8.477393128722243 394.0 67.0 299.0 
346.0002134605052 2681.0 NaN 1521.0260521042092 8.757827794362663 394.0 67.0 298.0 
348.00058297905275 2703.0 NaN 1524.1816967267878 5.863682716479497 396.0 67.0 299.0 
350.00058297905275 2724.0 NaN 1524.3981295925182 3.7288762108917273 396.0 67.0 299.0 
352.00058297905275 2726.0 NaN 1524.2271209084824 5.577132830274765 396.0 67.0 299.0 
354.00058297905275 2713.0 NaN 1521.140948563794 7.2532172149174965 397.0 67.0 298.0 
356.00058297905275 2676.0 NaN 1521.1569806279213 8.7716507312119 395.0 67.0 298.0 
358.00058297905275 2683.0 NaN 1521.1142284569148 6.433036870353886 392.0 67.0 298.0 
360.00058297905275 2698.0 NaN 1518.1082164328643 6.1492250565683415 392.0 67.0 297.0 
362.00058297905275 2731.0 NaN 1521.1756847027384 4.171518458019388 393.0 67.0 298.0 
364.00058297905275 2734.0 NaN 1521.0714762859059 6.053367601356672 393.0 67.0 298.0 
366.00058297905275 2724.0 NaN 1521.0741482965916 7.770956045688919 392.0 67.0 298.0 
368.0002134605052 2702.0 NaN 1521.004676018703 7.993708854595485 391.0 67.0 298.0 
370.00058297905275 2704.0 NaN 1521.0340681362727 6.894488789858086 391.0 67.0 298.0 
372.00058297905275 2722.0 NaN 1521.0848363393457 6.888806080313078 391.0 67.0 298.0 
374.00058297905275 2764.0 NaN 1524.3019372077486 4.926107629676238 391.0 69.0 297.0 
376.00058297905275 2759.0 NaN 1524.1790247161 6.616909732192781 389.0 70.0 296.0 
378.00058297905275 2734.0 NaN 1521.1382765531068 8.130655107274842 388.0 71.0 294.0 
380.00058297905275 2699.0 NaN 1524.1843687374733 5.68875281702927 388.0 71.0 295.0 
382.00058297905275 2700.0 NaN 1521.0741482965916 7.167853816178227 386.0 72.0 293.0 
384.00058297905275 2716.0 NaN 1521.1329325317295 7.189127665364633 386.0 72.0 293.0 
386.00058297905275 2743.0 NaN 1518.1349365397455 5.117261938976818 388.0 72.0 292.0 
388.00058297905275 2739.0 NaN 1514.9098196392795 6.644596345564394 386.0 74.0 289.0 
390.0002134605052 2735.0 NaN 1508.8176352705425 6.927069727391471 384.0 75.0 286.0 
392.00058297905275 2705.0 NaN 1511.831663326654 5.7790366123529635 385.0 75.0 287.0 
394.00058297905275 2705.0 NaN 1505.6700066800274 7.561805481373652 387.0 74.0 286.0 
396.00058297905275 2721.0 NaN 1508.8737474949908 7.61510466572942 388.0 75.0 286.0 
398.00058297905275 2771.0 NaN 1505.8650634602545 5.574401690551676 389.0 74.0 286.0 
400.00058297905275 2764.0 NaN 1508.825651302606 7.153082612361431 390.0 74.0 287.0 
402.00058297905275 2768.0 NaN 1505.7207748831 4.999387487651855 390.0 74.0 286.0 
404.00058297905275 2747.0 NaN 1505.7181028724108 6.332616418150515 392.0 72.0 288.0 
406.00058297905275 2745.0 NaN 1505.7528390113555 8.150257591729048 393.0 72.0 288.0 
408.00058297905275 2781.0 NaN 1515.080828323312 8.128894486520522 396.0 70.0 293.0 
410.00058297905275 2821.0 NaN 1521.2237808951243 5.922990963243905 400.0 70.0 295.0 
412.0002134605052 2826.0 NaN 1521.087508350034 6.2074700038035235 401.0 69.0 296.0 
414.00058297905275 2826.0 NaN 1517.998663994655 5.199765064792469 400.0 69.0 295.0 
416.00058297905275 2772.0 NaN 1514.9819639278544 6.793841921636434 399.0 69.0 294.0 
418.00058297905275 2778.0 NaN 1514.995323981297 8.590414806089683 399.0 69.0 294.0 
420.00058297905275 2789.0 NaN 1514.995323981297 8.562457328477278 404.0 67.0 296.0 
422.00058297905275 2809.0 NaN 1518.2257849031387 6.457149695877471 406.0 66.0 298.0 
424.00058297905275 2825.0 NaN 1514.9712758851028 4.3330444909783346 404.0 66.0 297.0 
426.00058297905275 2808.0 NaN 1518.0788243152977 5.78279771601951 404.0 65.0 299.0 
428.00058297905275 2749.0 NaN 1514.9605878423522 7.312210413965199 403.0 64.0 299.0 
430.00058297905275 2746.0 NaN 1511.8824315297272 9.05406384891828 404.0 64.0 298.0 
432.00058297905275 2753.0 NaN 1511.9812959251828 8.823096416715074 406.0 64.0 298.0 
434.0002134605052 2798.0 NaN 1518.126920507682 5.315750671219508 409.0 62.0 302.0 
436.00058297905275 2813.0 NaN 1530.3219772879092 4.421435959051358 410.0 62.0 306.0 
438.00058297905275 2796.0 NaN 1530.3112892451568 6.135238234586228 409.0 63.0 305.0 
440.00058297905275 2758.0 NaN 1536.4676018704085 7.797861502021486 410.0 64.0 306.0 
442.00058297905275 2754.0 NaN 1533.3921175684707 9.48521009528023 406.0 68.0 301.0 
444.00058297905275 2753.0 NaN 1533.4909819639272 9.203369036072568 407.0 66.0 303.0 
446.00058297905275 2780.0 NaN 1542.7494989979969 3.265505369850553 407.0 65.0 307.0 
448.00058297905275 2779.0 NaN 1545.694054776218 4.683831424633299 407.0 64.0 309.0 
450.00058297905275 2751.0 NaN 1539.4949899799606 6.417930717460434 406.0 64.0 307.0 
452.00058297905275 2704.0 NaN 1542.6158984635933 8.022010555306677 411.0 62.0 310.0 
454.00058297905275 2696.0 NaN 1539.4976619906479 9.512017014402451 413.0 62.0 309.0 
456.0002134605052 2707.0 NaN 1539.6419505678004 8.018872720117033 417.0 59.0 312.0 
458.00058297905275 2756.0 NaN 1545.7608550434186 3.232057446081965 416.0 64.0 309.0 
460.00058297905275 2752.0 NaN 1542.5197060788248 4.8966632375044945 414.0 64.0 308.0 
462.00058297905275 2735.0 NaN 1542.4956579826332 6.663643898452737 415.0 63.0 309.0 
464.00058297905275 2703.0 NaN 1545.5711422845698 8.253774256840671 411.0 63.0 310.0 
466.00058297905275 2697.0 NaN 1545.6325985303934 9.93093953688629 412.0 64.0 309.0 
468.00058297905275 2717.0 NaN 1548.7267869071459 6.086578885862358 412.0 65.0 309.0 
470.00058297905275 2748.0 NaN 1542.677354709418 3.712366038767313 412.0 65.0 307.0 
472.00058297905275 2750.0 NaN 1533.3600534402153 5.483952195597043 413.0 64.0 305.0 
474.00058297905275 2720.0 NaN 1533.3466933867726 7.122884793841147 410.0 64.0 305.0 
476.00058297905275 2659.0 NaN 1533.3814295257184 8.593697350738077 410.0 63.0 306.0 
478.0002134605052 2658.0 NaN 1533.2718770875092 8.828284771843236 410.0 62.0 307.0 
480.00058297905275 2681.0 NaN 1533.338677354709 6.023256884450792 411.0 63.0 306.0 
482.00058297905275 2722.0 NaN 1533.4589178356723 3.987234081874689 412.0 64.0 305.0 
484.00058297905275 2723.0 NaN 1530.1830327321302 5.752418330477332 411.0 64.0 304.0 
486.00058297905275 2690.0 NaN 1524.0774883099539 7.397733078405118 411.0 64.0 302.0 
488.00058297905275 2654.0 NaN 1520.9966599866393 8.884143155008193 407.0 64.0 301.0 
490.00058297905275 2657.0 NaN 1517.9078156312637 6.638535153762276 407.0 64.0 300.0 
492.00058297905275 2677.0 NaN 1511.8637274549092 6.287948453969105 407.0 63.0 299.0 
494.00058297905275 2708.0 NaN 1515.0113560454251 4.3464420255080265 406.0 65.0 298.0 
496.00058297905275 2706.0 NaN 1511.8797595190374 6.119199346454507 405.0 65.0 297.0 
498.00058297905275 2691.0 NaN 1505.750167000667 7.853484337616773 406.0 65.0 295.0 
500.0002134605052 2659.0 NaN 1505.744822979291 7.898201269413667 405.0 66.0 294.0 
502.00058297905275 2655.0 NaN 1505.704742818972 6.8373599686517705 405.0 66.0 294.0 
504.00058297905275 2663.0 NaN 1505.8142952571816 6.815815409388642 403.0 67.0 293.0 
506.00058297905275 2687.0 NaN 1499.7461589846364 4.81000314128863 402.0 67.0 291.0 
508.00058297905275 2682.0 NaN 1496.5023380093528 6.487634200941833 402.0 67.0 290.0 
510.00058297905275 2658.0 NaN 1490.3834335337353 8.069614883276662 401.0 67.0 288.0 
512.0005829790528 2628.0 NaN 1496.4863059452246 5.597565003090764 401.0 67.0 290.0 
514.0005829790528 2626.0 NaN 1496.4488977955907 7.028632670883027 400.0 67.0 290.0 
516.0005829790528 2635.0 NaN 1493.4161656646634 6.983669127547909 398.0 68.0 288.0 
518.0005829790528 2672.0 NaN 1496.7535070140275 4.869427907703741 401.0 66.0 291.0 
520.0005829790528 2681.0 NaN 1487.3480293921182 6.5520475947859556 401.0 66.0 288.0 
522.0002134605053 2670.0 NaN 1487.3213092852366 6.876731660654914 401.0 66.0 288.0 
524.0005829790528 2660.0 NaN 1478.1670006680022 5.861040366333257 402.0 65.0 286.0 
526.0005829790528 2661.0 NaN 1475.1075484301932 7.64947289949884 402.0 65.0 285.0 
528.0005829790528 2676.0 NaN 1478.2525050100194 7.570768992743225 401.0 65.0 286.0 
530.0005829790528 2698.0 NaN 1481.3520374081486 5.5341825564109755 399.0 65.0 287.0 
532.0005829790528 2692.0 NaN 1481.1623246492993 7.1438802245256605 398.0 65.0 287.0 
534.0005829790528 2691.0 NaN 1475.0354041416174 4.9563214538053675 395.0 65.0 285.0 
536.0005829790528 2671.0 NaN 1468.9298597194384 6.2945019013947 396.0 65.0 283.0 
538.0005829790528 2676.0 NaN 1465.7875751503 8.058958672520873 394.0 65.0 282.0 
540.0005829790528 2685.0 NaN 1469.0126920507669 7.9968490757612765 394.0 65.0 283.0 
542.0005829790528 2715.0 NaN 1469.1169004676012 5.908638716288659 391.0 66.0 282.0 
544.0002134605053 2715.0 NaN 1472.0587842351363 6.181003341104299 392.0 66.0 283.0 
546.0005829790528 2711.0 NaN 1472.0587842351363 5.008401639705291 395.0 66.0 283.0 
548.0005829790528 2672.0 NaN 1468.9726118904466 6.627113434805377 396.0 65.0 283.0 
550.0005829790528 2663.0 NaN 1471.997327989311 8.34872057495661 396.0 64.0 285.0 
552.0005829790528 2675.0 NaN 1475.1209084836346 8.304236818177156 397.0 62.0 288.0 
554.0005829790528 2686.0 NaN 1481.2638610554445 6.130379527814216 394.0 64.0 288.0 
556.0005829790528 2698.0 NaN 1484.20574482298 4.0589158876222085 394.0 65.0 288.0 
558.0005829790528 2689.0 NaN 1471.9412157648635 5.386806308695724 395.0 63.0 286.0 
560.0005829790528 2663.0 NaN 1465.819639278557 7.0735575447595185 397.0 63.0 284.0 
562.0005829790528 2662.0 NaN 1465.7982631930533 8.802959119982182 396.0 63.0 284.0 
564.0005829790528 2668.0 NaN 1472.061456245826 8.559446460973902 399.0 63.0 286.0 
566.0002134605053 2702.0 NaN 1475.33199732799 5.274206394405522 397.0 65.0 285.0 
568.0005829790528 2711.0 NaN 1475.107548430193 4.380856120096097 396.0 65.0 285.0 
570.0005829790528 2696.0 NaN 1478.223112892452 5.9171799517306924 395.0 66.0 285.0 
572.0005829790528 2664.0 NaN 1478.1670006680024 7.483589044713075 397.0 66.0 285.0 
574.0005829790528 2665.0 NaN 1475.0915163660648 9.190890242885366 396.0 65.0 285.0 
576.0005829790528 2688.0 NaN 1487.5190380761533 9.05224107188669 398.0 65.0 289.0 
578.0005829790528 2750.0 NaN 1490.5464261857057 3.3942054586571135 404.0 62.0 293.0 
580.0005829790528 2756.0 NaN 1484.2057448229798 4.951226494744368 403.0 62.0 291.0 
582.0005829790528 2750.0 NaN 1484.2484969939887 6.576505283480677 403.0 62.0 291.0 
584.0005829790528 2701.0 NaN 1484.2778891115559 8.08160270832694 405.0 61.0 292.0 
586.0005829790528 2681.0 NaN 1481.1275885103546 9.539349040904744 405.0 61.0 291.0 
588.0002134605053 2696.0 NaN 1478.1723446893793 7.946687681873307 406.0 61.0 290.0 
590.0005829790528 2732.0 NaN 1490.5357381429533 3.391012390869857 406.0 62.0 293.0 
592.0005829790528 2734.0 NaN 1490.4048096192378 5.175670254087655 406.0 62.0 293.0 
594.0005829790528 2715.0 NaN 1493.4669338677359 6.733601382842899 407.0 62.0 294.0 
596.0005829790528 2664.0 NaN 1496.5771543086178 8.222587651339447 410.0 61.0 296.0 
598.0005829790528 2653.0 NaN 1493.4428857715436 9.82935384468379 410.0 61.0 295.0 
600.0005829790528 2685.0 NaN 1496.6145624582493 5.9959946201176075 414.0 60.0 297.0 
602.0005829790528 2731.0 NaN 1499.7167668670668 3.847497667887539 418.0 61.0 297.0 
604.0005829790528 2739.0 NaN 1496.4729458917832 5.612988328523892 420.0 60.0 297.0 
606.0005829790528 2720.0 NaN 1499.615230460921 7.09133788295141 418.0 60.0 298.0 
608.0005829790528 2687.0 NaN 1502.6399465597854 8.545213195560926 417.0 59.0 300.0 
610.0002134605053 2685.0 NaN 1496.406145624582 8.863706573759993 415.0 59.0 298.0 
612.0005829790528 2707.0 NaN 1493.4642618570467 6.21018227410489 415.0 60.0 296.0 
614.0005829790528 2728.0 NaN 1499.7408149632608 4.265522522860508 418.0 62.0 296.0 
616.0005829790528 2742.0 NaN 1499.6179024716093 6.013633263757967 417.0 62.0 296.0 
618.0005829790528 2722.0 NaN 1502.7227788911164 7.47914235900852 415.0 62.0 297.0 
620.0005829790528 2672.0 NaN 1502.7147628590524 8.80365021262741 414.0 63.0 296.0 
622.0005829790528 2687.0 NaN 1505.8356713426847 6.709624383502373 415.0 63.0 297.0 
624.0005829790528 2708.0 NaN 1508.9779559118244 6.388128697306625 411.0 66.0 295.0 
626.0005829790528 2747.0 NaN 1512.0427521710092 4.542673435858443 400.0 77.0 285.0 
628.0005829790528 2767.0 NaN 1508.822979291918 6.152927474278215 399.0 76.0 285.0 
630.0005829790528 2757.0 NaN 1505.744822979291 7.6362965801463 400.0 76.0 284.0 
632.0002134605053 2729.0 NaN 1508.830995323982 7.8323727596636425 400.0 77.0 284.0 
634.0005829790528 2742.0 NaN 1508.7962591850362 6.854216645920915 398.0 76.0 285.0 
636.0005829790528 2775.0 NaN 1511.9866399465607 6.881955813532148 400.0 74.0 288.0 
638.0005829790528 2865.0 NaN 1518.2471609886445 5.050974408306083 406.0 69.0 295.0 
640.0005829790528 2878.0 NaN 1518.1456245824988 6.651928346600199 406.0 69.0 295.0 
642.0005829790528 2852.0 NaN 1521.2478289913172 8.157473987608075 404.0 69.0 296.0 
644.0005829790528 2822.0 NaN 1518.1963927855716 5.904549028529758 402.0 70.0 294.0 
646.0005829790528 2820.0 NaN 1512.0160320641276 7.309150198578299 398.0 71.0 291.0 
648.0005829790528 2837.0 NaN 1512.0534402137619 7.383499930303577 397.0 71.0 291.0 
650.0005829790528 2868.0 NaN 1521.2692050768194 5.417742979193555 400.0 70.0 295.0 
652.0005829790528 2867.0 NaN 1521.0981963927848 7.026781783950287 400.0 70.0 295.0 
654.0002134605053 2857.0 NaN 1524.1790247160998 7.285524250013843 397.0 70.0 296.0 
656.0005829790528 2814.0 NaN 1524.2832331329334 6.204481097117453 402.0 70.0 296.0 
658.0005829790528 2815.0 NaN 1521.0875083500343 7.967914787635913 400.0 70.0 295.0 
660.0005829790528 2833.0 NaN 1524.248496993989 7.935186662196165 398.0 71.0 295.0 
662.0005829790528 2872.0 NaN 1536.6359385437547 5.967447777274976 398.0 71.0 299.0 
664.0005829790528 2850.0 NaN 1536.5931863727455 7.52285869906943 397.0 72.0 298.0 
#####################################################################
# End of data export. Simulation finished at: 2019-03-08T04:10+0000 #
#####################################################################
