#####################################################################
# Alchemist log file - simulation started at: 2019-03-07T22:45+0000 #
#####################################################################
# seed = 2.0, bandwidth = 4216.965034285822, propagationDelay = 0.03162277660168379, baserange = 316.2277660168379
#
# The columns have the following meaning: 
# time neighbor_count[Sum] <value>@neighbor_count[Sum] packet_size[Mean] mean_delay[Mean] crowd[Sum] overcrowded[Sum] risk[Sum] 
0.0 NaN NaN NaN NaN NaN NaN NaN 
2.0005829790527505 15701.0 NaN 4988.830995323981 0.19946402957052495 1497.0 0.0 1497.0 
4.0005829790527505 51288.0 NaN 4995.620574482298 1.1697654877158834 1497.0 0.0 1497.0 
6.0005829790527505 51288.0 NaN 4993.811623246493 1.1701457923851655 1495.0 2.0 1495.0 
8.000582979052751 51288.0 NaN 4994.928523714095 1.1700639685604408 1495.0 2.0 1495.0 
10.000582979052751 51289.0 NaN 4993.739478957916 1.1701436526953857 1495.0 2.0 1495.0 
12.000582979052751 51292.0 NaN 4994.896459585839 1.170160261525423 1495.0 2.0 1495.0 
14.000582979052751 51294.0 NaN 4993.739478957916 1.1702580565952208 1495.0 2.0 1495.0 
16.00058297905275 51297.0 NaN 4994.88042752171 1.1707323261101206 1495.0 2.0 1495.0 
18.00058297905275 51304.0 NaN 4993.744822979292 1.1727601369050704 1495.0 2.0 1495.0 
20.00058297905275 51313.0 NaN 4994.875083500334 1.1766441012279942 1494.0 3.0 1494.0 
22.00058297905275 51323.0 NaN 4993.750167000668 1.1804124441958503 1494.0 3.0 1494.0 
24.00058297905275 51357.0 NaN 4994.872411489646 1.1843387120306315 1494.0 3.0 1494.0 
26.00058297905275 51363.0 NaN 4993.742150968604 1.1884959861324536 1494.0 3.0 1494.0 
28.00058297905275 51371.0 NaN 4994.86706746827 1.1920906622658676 1494.0 3.0 1494.0 
30.00058297905275 51372.0 NaN 4993.744822979292 1.1956751608770388 1495.0 2.0 1495.0 
32.00058297905275 51387.0 NaN 4994.877755511022 1.2004526386426544 1495.0 2.0 1495.0 
34.00058297905275 51431.0 NaN 4993.808951235805 1.2067381174390497 1495.0 2.0 1495.0 
36.00058297905275 51435.0 NaN 4994.896459585839 1.2130880880562553 1495.0 2.0 1495.0 
38.00058297905275 51442.0 NaN 4993.787575150301 1.2200968962259344 1495.0 2.0 1495.0 
40.00058297905275 51448.0 NaN 4994.88042752171 1.2293145190026238 1495.0 2.0 1495.0 
42.00058297905275 51463.0 NaN 4993.803607214429 1.238910113817047 1495.0 2.0 1495.0 
44.00058297905275 51510.0 NaN 4994.912491649967 1.2440922627444175 1495.0 2.0 1495.0 
46.00058297905275 51505.0 NaN 4993.819639278557 1.2393291048222157 1495.0 2.0 1495.0 
48.00058297905275 51508.0 NaN 4994.928523714095 1.2279091028806173 1495.0 2.0 1495.0 
50.00058297905275 51517.0 NaN 4993.822311289246 1.2387042515470794 1495.0 2.0 1495.0 
52.00058297905275 51537.0 NaN 4994.920507682031 1.2472621327296483 1495.0 2.0 1495.0 
54.00058297905275 51572.0 NaN 4993.814295257181 1.2583540701572946 1495.0 2.0 1495.0 
56.00058297905275 51575.0 NaN 4994.912491649967 1.2691526978739889 1495.0 2.0 1495.0 
58.00058297905275 51592.0 NaN 4993.816967267869 1.2755699634429112 1495.0 2.0 1495.0 
60.00058297905275 51618.0 NaN 4991.855711422846 1.2910216161232404 1494.0 2.0 1494.0 
62.00058297905275 51636.0 NaN 1519.380093520373 0.888890550813245 797.0 0.0 364.0 
64.00058297905275 51696.0 NaN 1522.471609886439 0.8232396137251322 637.0 3.0 362.0 
66.00058297905275 51693.0 NaN 1522.4181696726791 0.8236679273775294 578.0 2.0 363.0 
68.00058297905275 51715.0 NaN 1522.3674014696064 0.8101560927372651 549.0 3.0 362.0 
70.00058297905275 51707.0 NaN 1522.4128256513027 0.8210992736556862 530.0 6.0 359.0 
72.00058297905275 51700.0 NaN 1522.3674014696064 0.8205595334477017 530.0 5.0 360.0 
74.00058297905275 51698.0 NaN 1528.5691382765544 0.8248253314136471 524.0 6.0 361.0 
76.00058297905275 51694.0 NaN 1528.4996659986634 0.7970601050981462 527.0 5.0 362.0 
78.00058297905275 51724.0 NaN 1528.5557782231122 0.8096556739144468 524.0 6.0 361.0 
80.00058297905275 51734.0 NaN 1531.5938543754182 0.8240167572922544 521.0 5.0 363.0 
82.00058297905275 51711.0 NaN 1531.6125584502338 0.8115148152857747 522.0 5.0 363.0 
84.00058297905275 51713.0 NaN 1534.6479625918516 0.8052403459326346 522.0 6.0 363.0 
86.00058297905275 51720.0 NaN 1534.677354709418 0.80533060105608 523.0 5.0 364.0 
88.00058297905275 51763.0 NaN 1534.62124248497 0.7888947185207339 523.0 5.0 364.0 
90.00058297905275 51780.0 NaN 1534.6666666666663 0.7997819814539493 522.0 6.0 363.0 
92.00058297905275 51760.0 NaN 1534.6105544422182 0.7911569607213137 522.0 6.0 363.0 
94.00058297905275 51768.0 NaN 1534.6506346025367 0.8028256382481085 520.0 6.0 363.0 
96.00058297905275 51746.0 NaN 1534.6105544422182 0.7968266187223496 520.0 6.0 363.0 
98.00058297905275 51773.0 NaN 1534.6666666666663 0.7960083495160364 520.0 6.0 363.0 
100.00058297905275 51758.0 NaN 1534.6319305277211 0.7918766385918451 520.0 6.0 363.0 
102.00058297905275 51750.0 NaN 1537.7528390113548 0.7890034257728552 520.0 6.0 364.0 
104.00058297905275 51749.0 NaN 1537.702070808282 0.7921110025548408 521.0 6.0 364.0 
106.00058297905275 51747.0 NaN 1537.731462925852 0.7965721832703948 520.0 6.0 364.0 
108.00058297905275 51748.0 NaN 1540.7668670674698 0.8005805869462741 521.0 6.0 365.0 
110.00058297905275 51768.0 NaN 1540.780227120909 0.8014871573919433 521.0 6.0 365.0 
112.00058297905275 51797.0 NaN 1540.7722110888458 0.7747971266800662 522.0 6.0 365.0 
114.00058297905275 51809.0 NaN 1540.780227120909 0.7839733778425111 522.0 6.0 365.0 
116.00058297905275 51806.0 NaN 1543.863727454909 0.792713560660567 524.0 6.0 366.0 
118.00058297905275 51821.0 NaN 1550.0227120908482 0.7989199744276637 524.0 6.0 368.0 
120.00058297905275 51829.0 NaN 1546.9124916499663 0.8019649383833264 524.0 6.0 367.0 
122.00058297905275 51859.0 NaN 1546.9178356713426 0.8096938103826689 523.0 6.0 367.0 
124.00058297905275 51865.0 NaN 1546.9018036072152 0.8187447549842705 524.0 5.0 368.0 
126.00058297905275 51851.0 NaN 1546.925851703409 0.8179848048603588 523.0 6.0 367.0 
128.00058297905275 51840.0 NaN 1546.909819639279 0.8016902954851519 523.0 6.0 367.0 
130.00058297905275 51816.0 NaN 1546.9285237140937 0.7909370689041003 524.0 5.0 368.0 
132.00058297905275 51826.0 NaN 1543.842351369406 0.7970011531077205 524.0 5.0 367.0 
134.00058297905275 51831.0 NaN 1543.8583834335336 0.7986475338919078 524.0 5.0 367.0 
136.00058297905275 51826.0 NaN 1546.9311957247814 0.8058320918428946 522.0 5.0 368.0 
138.00058297905275 51816.0 NaN 1543.8690714762847 0.7991632117516293 517.0 5.0 367.0 
140.00058297905275 51798.0 NaN 1546.9605878423517 0.7904375570433269 516.0 6.0 367.0 
142.00058297905275 51814.0 NaN 1550.0601202404819 0.8007942258853954 516.0 6.0 368.0 
144.00058297905275 51821.0 NaN 1550.0334001335998 0.7991903711632393 514.0 6.0 368.0 
146.00058297905275 51806.0 NaN 1550.0467601870394 0.7971461662953833 514.0 6.0 368.0 
148.00058297905275 51811.0 NaN 1546.9766199064816 0.80867241097313 515.0 5.0 368.0 
150.00058297905275 51780.0 NaN 1543.8904475617912 0.7978483445381801 515.0 6.0 366.0 
152.00058297905275 51763.0 NaN 1540.8176352705425 0.8017282776671588 512.0 6.0 365.0 
154.00058297905275 51768.0 NaN 1540.7828991315969 0.7943561103424238 509.0 6.0 365.0 
156.00058297905275 51760.0 NaN 1540.8122912491638 0.7837371411012937 511.0 6.0 365.0 
158.00058297905275 51777.0 NaN 1540.8042752171 0.7865496148419296 512.0 5.0 366.0 
160.00058297905275 51747.0 NaN 1540.7989311957244 0.7843165192393687 512.0 6.0 365.0 
162.00058297905275 51731.0 NaN 1540.8122912491638 0.7872643010169262 513.0 6.0 365.0 
164.00058297905275 51730.0 NaN 1543.8824315297275 0.7981055877372575 512.0 5.0 367.0 
166.00058297905275 51717.0 NaN 1543.8690714762847 0.8016329481523915 511.0 6.0 366.0 
168.00058297905275 51719.0 NaN 1550.0120240480971 0.8130277662182718 513.0 6.0 368.0 
170.00058297905275 51681.0 NaN 1550.014696058784 0.817563454570284 514.0 6.0 368.0 
172.00058297905275 51660.0 NaN 1543.8663994656 0.8217001025712152 516.0 5.0 367.0 
174.00058297905275 51667.0 NaN 1543.8877755511 0.8287150758887843 516.0 5.0 367.0 
176.00058297905275 51644.0 NaN 1543.8744154976634 0.8284284746624916 512.0 8.0 364.0 
178.00058297905275 51655.0 NaN 1537.736806947227 0.8307269315291149 511.0 7.0 363.0 
180.00058297905275 51595.0 NaN 1537.7181028724112 0.8354508034429959 513.0 7.0 363.0 
182.00058297905275 51573.0 NaN 1540.8256513026063 0.8455886050710081 512.0 7.0 364.0 
184.00058297905275 51563.0 NaN 1540.8016032064118 0.8366378415818994 512.0 7.0 364.0 
186.00058297905275 51504.0 NaN 1540.8122912491638 0.834347980008508 510.0 7.0 364.0 
188.00058297905275 51496.0 NaN 1540.83366733467 0.8421962096008807 510.0 7.0 364.0 
190.00058297905275 51439.0 NaN 1540.7428189712753 0.842831617167338 510.0 7.0 364.0 
192.00058297905275 51431.0 NaN 1540.8229792919183 0.8516598547947075 510.0 7.0 364.0 
194.00058297905275 51419.0 NaN 1540.8122912491638 0.8393103686174325 510.0 7.0 364.0 
196.00058297905275 51350.0 NaN 1540.780227120909 0.8209392035955067 510.0 7.0 364.0 
198.00058297905275 51359.0 NaN 1543.8851035404152 0.8356597009345796 511.0 7.0 365.0 
200.00058297905275 51329.0 NaN 1543.8877755511 0.8311384423504891 513.0 7.0 365.0 
202.00058297905275 51307.0 NaN 1543.8984635938546 0.8381532699933991 512.0 8.0 364.0 
204.00058297905275 51317.0 NaN 1546.8750835003343 0.8353398953836716 512.0 8.0 365.0 
206.00058297905275 51280.0 NaN 1543.9038076152299 0.8257540790688422 512.0 8.0 364.0 
208.00058297905275 51277.0 NaN 1543.8610554442212 0.8313813850916993 510.0 8.0 364.0 
210.00058297905275 51242.0 NaN 1540.7588510354028 0.8382492023524515 506.0 8.0 363.0 
212.00058297905275 51213.0 NaN 1540.790915163661 0.8383589699022218 506.0 8.0 363.0 
214.00058297905275 51187.0 NaN 1543.861055444221 0.800591583636984 507.0 7.0 365.0 
216.00058297905275 51164.0 NaN 1543.8316633266545 0.8013441313941888 505.0 8.0 364.0 
218.00058297905275 51158.0 NaN 1540.7294589178364 0.8142022836561209 507.0 7.0 364.0 
220.00058297905275 51136.0 NaN 1540.7027388109545 0.8210437613058837 508.0 8.0 363.0 
222.00058297905275 51111.0 NaN 1540.713426853709 0.8122332635863019 508.0 7.0 364.0 
224.00058297905275 51101.0 NaN 1540.6920507682025 0.8167333479475767 508.0 7.0 364.0 
226.00058297905275 51093.0 NaN 1540.7241148964608 0.8231222813537896 509.0 7.0 364.0 
228.00058297905275 51110.0 NaN 1540.6867067468274 0.8388083265610178 509.0 7.0 364.0 
230.00058297905275 51114.0 NaN 1537.6833667334663 0.8572648219223187 506.0 7.0 363.0 
232.00058297905275 51088.0 NaN 1540.7214428857728 0.8646629758142309 506.0 7.0 364.0 
234.00058297905275 51066.0 NaN 1540.718770875082 0.8809132747528168 509.0 5.0 366.0 
236.00058297905275 51085.0 NaN 1543.7488309953246 0.8892137149196374 511.0 4.0 368.0 
238.00058297905275 51126.0 NaN 1543.7728790915182 0.9104652257848783 511.0 5.0 367.0 
240.00058297905275 51125.0 NaN 1540.6466265865065 0.9312642566955917 511.0 4.0 367.0 
242.00058297905275 51103.0 NaN 1537.5845023380089 0.952933179045099 509.0 5.0 365.0 
244.00058297905275 51103.0 NaN 1537.5978623914482 0.9512733636931203 510.0 4.0 366.0 
246.00058297905275 51081.0 NaN 1534.549098196391 0.9413301295446839 509.0 6.0 363.0 
248.00058297905275 51081.0 NaN 1537.6192384769547 0.9315491573330704 511.0 5.0 365.0 
250.00058297905275 51087.0 NaN 1537.6325985303936 0.9433484528582635 508.0 7.0 363.0 
252.00058297905275 51050.0 NaN 1534.5330661322637 0.9291265706173502 506.0 7.0 362.0 
254.00058297905275 51035.0 NaN 1534.5410821643272 0.881923646294915 506.0 7.0 362.0 
256.00058297905275 51008.0 NaN 1531.462925851703 0.8407118977711936 507.0 7.0 361.0 
258.00058297905275 51000.0 NaN 1531.4789579158307 0.8395894734997331 507.0 7.0 361.0 
260.00058297905275 51015.0 NaN 1531.5003340013366 0.8494694972420326 510.0 4.0 364.0 
262.00058297905275 50993.0 NaN 1525.370741482964 0.8383717844686144 511.0 4.0 362.0 
264.00058297905275 50948.0 NaN 1528.4355377421516 0.8010803717978974 509.0 6.0 361.0 
266.00058297905275 50934.0 NaN 1528.4034736138938 0.8063227738068038 508.0 8.0 359.0 
268.00058297905275 50915.0 NaN 1528.382097528391 0.821778410466933 508.0 8.0 359.0 
270.00058297905275 50904.0 NaN 1540.6786907147637 0.835040786002344 508.0 8.0 363.0 
272.00058297905275 50868.0 NaN 1540.6733466933886 0.8404883232279758 508.0 8.0 363.0 
274.00058297905275 50891.0 NaN 1543.748830995325 0.8506820136045413 508.0 8.0 364.0 
276.00058297905275 50871.0 NaN 1540.6706746827 0.8649426294342772 507.0 8.0 363.0 
278.00058297905275 50866.0 NaN 1540.6492985971934 0.8832556573592545 507.0 8.0 363.0 
280.00058297905275 50862.0 NaN 1540.6653306613214 0.8984201481482215 509.0 8.0 363.0 
282.00058297905275 50828.0 NaN 1537.5978623914477 0.9111401055182273 509.0 8.0 362.0 
284.00058297905275 50799.0 NaN 1537.5951903807636 0.8933329186269121 510.0 8.0 362.0 
286.00058297905275 50770.0 NaN 1537.6138944555794 0.9071536207577948 507.0 8.0 362.0 
288.00058297905275 50756.0 NaN 1537.5764863059455 0.8929269930295209 507.0 8.0 362.0 
290.00058297905275 50735.0 NaN 1537.5978623914477 0.9061721611929512 506.0 8.0 362.0 
292.00058297905275 50708.0 NaN 1537.6379425517705 0.9202559006941804 506.0 8.0 362.0 
294.00058297905275 50667.0 NaN 1531.4923179692728 0.90259752794883 506.0 8.0 360.0 
296.00058297905275 50651.0 NaN 1528.392785571143 0.8871701126420808 506.0 8.0 359.0 
298.00058297905275 50625.0 NaN 1528.411489645957 0.890019657442464 505.0 8.0 359.0 
300.00058297905275 50577.0 NaN 1531.4923179692728 0.9003137464845299 503.0 8.0 360.0 
302.00058297905275 50440.0 NaN 1528.4061456245818 0.8786914366924541 502.0 8.0 359.0 
304.00058297905275 50401.0 NaN 1525.338677354709 0.8739491647944656 501.0 8.0 358.0 
306.00058297905275 50392.0 NaN 1528.4301937207729 0.8854051864796008 501.0 8.0 359.0 
308.00058297905275 50382.0 NaN 1528.422177688709 0.8828636320550848 501.0 8.0 359.0 
310.00058297905275 50366.0 NaN 1531.4335337341363 0.8851884092511798 500.0 8.0 360.0 
312.00058297905275 50306.0 NaN 1534.5597862391458 0.8844685915243171 500.0 8.0 361.0 
314.00058297905275 50253.0 NaN 1528.3473613894453 0.8684768777193814 501.0 8.0 359.0 
316.00058297905275 50216.0 NaN 1525.319973279891 0.8802679317376355 500.0 8.0 358.0 
318.00058297905275 50179.0 NaN 1525.3173012692064 0.873744213069497 501.0 8.0 358.0 
320.00058297905275 50141.0 NaN 1528.4435537742156 0.8755150432740803 501.0 8.0 359.0 
322.00058297905275 50098.0 NaN 1528.3901135604547 0.8805293918566935 502.0 8.0 359.0 
324.00058297905275 50040.0 NaN 1534.5651302605206 0.8560811874727035 502.0 8.0 361.0 
326.00058297905275 50039.0 NaN 1534.5330661322635 0.8771568007163747 501.0 8.0 361.0 
328.00058297905275 50004.0 NaN 1534.5384101536392 0.8744825655619973 501.0 8.0 361.0 
330.00058297905275 49990.0 NaN 1534.4903139612547 0.8898291748019119 502.0 8.0 361.0 
332.00058297905275 49951.0 NaN 1531.4602538410156 0.8837363992180255 503.0 8.0 360.0 
334.00058297905275 49899.0 NaN 1534.4635938543754 0.8813394717123015 503.0 8.0 361.0 
336.00058297905275 49891.0 NaN 1534.5063460253818 0.8910775042642871 503.0 8.0 361.0 
338.00058297905275 49851.0 NaN 1534.4689378757519 0.8991622260080554 503.0 8.0 361.0 
340.00058297905275 49850.0 NaN 1528.3580494321998 0.9119359490545533 504.0 8.0 359.0 
342.00058297905275 49796.0 NaN 1534.4662658650636 0.9106538485534601 505.0 8.0 361.0 
344.00058297905275 49751.0 NaN 1534.5090180360728 0.9126811983714385 506.0 8.0 361.0 
346.00058297905275 49724.0 NaN 1531.4148296593182 0.8815197926591533 506.0 8.0 360.0 
348.00058297905275 49699.0 NaN 1528.3473613894453 0.8887272143155615 506.0 8.0 359.0 
350.00058297905275 49711.0 NaN 1528.3313293253182 0.9068212300922721 509.0 8.0 359.0 
352.00058297905275 49662.0 NaN 1528.3687374749486 0.8888255200731053 508.0 8.0 359.0 
354.00058297905275 49646.0 NaN 1528.2965931863728 0.8844685744652285 509.0 8.0 359.0 
356.00058297905275 49637.0 NaN 1525.3092852371426 0.8873439588345454 508.0 8.0 358.0 
358.00058297905275 49619.0 NaN 1525.2478289913176 0.900158728439152 508.0 8.0 358.0 
360.00058297905275 49624.0 NaN 1525.322645290582 0.9107570665186109 507.0 8.0 358.0 
362.00058297905275 49586.0 NaN 1525.2905811623248 0.9049147247772231 508.0 8.0 358.0 
364.00058297905275 49579.0 NaN 1525.2905811623248 0.8800603513705789 508.0 8.0 358.0 
366.00058297905275 49567.0 NaN 1525.2718770875092 0.8839185146147811 510.0 8.0 358.0 
368.00058297905275 49554.0 NaN 1509.9425517702082 0.8818970025832742 509.0 8.0 353.0 
370.00058297905275 49570.0 NaN 1500.7160988643964 0.8907552310531277 507.0 8.0 350.0 
372.00058297905275 49532.0 NaN 1500.6760187040738 0.8862081443674167 507.0 8.0 350.0 
374.00058297905275 49505.0 NaN 1509.9024716098877 0.8806522236103906 510.0 8.0 353.0 
376.00058297905275 49491.0 NaN 1509.8810955243816 0.8933982083160438 511.0 8.0 353.0 
378.00058297905275 49473.0 NaN 1506.8350033400125 0.8781405283364226 511.0 8.0 352.0 
380.00058297905275 49467.0 NaN 1503.7862391449557 0.8907557662890616 510.0 8.0 351.0 
382.00058297905275 49428.0 NaN 1500.6786907147634 0.893180673025321 510.0 8.0 350.0 
384.00058297905275 49421.0 NaN 1500.646626586507 0.8904493554284205 509.0 8.0 350.0 
386.00058297905275 49384.0 NaN 1506.8403473613903 0.8766485083940387 509.0 9.0 351.0 
388.00058297905275 49354.0 NaN 1506.8109552438202 0.8780318227384505 509.0 9.0 351.0 
390.00058297905275 49329.0 NaN 1500.7401469605886 0.8586777501600893 508.0 9.0 349.0 
392.00058297905275 49310.0 NaN 1506.8109552438202 0.8683390150091139 508.0 9.0 351.0 
394.00058297905275 49298.0 NaN 1509.8891115564454 0.8722850519096471 509.0 9.0 352.0 
396.00058297905275 49294.0 NaN 1509.8864395457574 0.8898796885275093 510.0 9.0 352.0 
398.00058297905275 49295.0 NaN 1509.923847695391 0.8798380589380489 510.0 9.0 352.0 
400.00058297905275 49279.0 NaN 1506.8269873079485 0.8837527135005558 512.0 9.0 351.0 
402.00058297905275 49242.0 NaN 1509.9853039412162 0.8679291303858248 513.0 9.0 352.0 
404.00058297905275 49223.0 NaN 1519.1663326653304 0.8787535240668928 514.0 9.0 355.0 
406.00058297905275 49192.0 NaN 1519.1823647294575 0.8846863692213067 515.0 9.0 355.0 
408.00058297905275 49187.0 NaN 1522.2097528390095 0.888271157938738 514.0 9.0 356.0 
410.00058297905275 49176.0 NaN 1531.4736138944545 0.904388475534288 515.0 9.0 359.0 
412.00058297905275 49139.0 NaN 1531.454909819639 0.8978248270088334 514.0 10.0 358.0 
414.00058297905275 49149.0 NaN 1534.503674014697 0.8921202799820089 513.0 10.0 359.0 
416.00058297905275 49154.0 NaN 1531.4041416165662 0.9084132278755194 517.0 8.0 360.0 
418.00058297905275 49179.0 NaN 1519.1609886439546 0.9263250484185539 516.0 9.0 355.0 
420.00058297905275 49157.0 NaN 1519.0647962591843 0.9252838469052074 516.0 9.0 355.0 
422.00058297905275 49128.0 NaN 1516.0240480961916 0.9358492732059517 514.0 9.0 354.0 
424.00058297905275 49135.0 NaN 1512.9325317301273 0.9444750934700159 510.0 9.0 353.0 
426.00058297905275 49096.0 NaN 1516.0748162992643 0.9371622674113468 510.0 9.0 354.0 
428.00058297905275 49084.0 NaN 1515.93052772211 0.9201154873514515 511.0 9.0 354.0 
430.00058297905275 49055.0 NaN 1516.0213760855036 0.9112434175422063 510.0 9.0 354.0 
432.00058297905275 49008.0 NaN 1512.9058116232457 0.9010465306298537 510.0 9.0 353.0 
434.00058297905275 48988.0 NaN 1515.9812959251826 0.8379779842935348 513.0 9.0 354.0 
436.00058297905275 48985.0 NaN 1528.288577154309 0.8450518811966646 518.0 9.0 358.0 
438.00058297905275 48997.0 NaN 1528.3152972611904 0.8449936301727382 519.0 9.0 358.0 
440.00058297905275 48998.0 NaN 1531.3640614562453 0.8514961678323675 518.0 9.0 359.0 
442.00058297905275 48961.0 NaN 1531.3827655310633 0.8440647111684645 518.0 9.0 359.0 
444.00058297905275 48956.0 NaN 1531.3373413493641 0.8377803044391648 518.0 9.0 359.0 
446.00058297905275 48951.0 NaN 1537.5764863059455 0.8504147538855035 520.0 9.0 361.0 
448.00058297905275 48955.0 NaN 1540.58784235137 0.8615869113610075 523.0 9.0 362.0 
450.00058297905275 48924.0 NaN 1540.6519706078816 0.8647565174652425 521.0 9.0 362.0 
452.00058297905275 48898.0 NaN 1540.6813627254517 0.8665426309529252 521.0 9.0 362.0 
454.00058297905275 48889.0 NaN 1543.735470941882 0.8617687447503266 520.0 9.0 363.0 
456.00058297905275 48898.0 NaN 1552.969939879761 0.8672985163083192 520.0 9.0 366.0 
458.00058297905275 48877.0 NaN 1552.9004676018726 0.8803960595240915 519.0 9.0 366.0 
460.00058297905275 48866.0 NaN 1549.8356713426847 0.895196090160769 517.0 9.0 365.0 
462.00058297905275 48836.0 NaN 1546.7575150300609 0.8996799909805504 518.0 9.0 364.0 
464.00058297905275 48836.0 NaN 1540.6172344689367 0.9137405863648418 516.0 9.0 362.0 
466.00058297905275 48839.0 NaN 1543.655310621243 0.9234437355285656 517.0 9.0 363.0 
468.00058297905275 48809.0 NaN 1543.5858383433547 0.9214378905516163 517.0 9.0 363.0 
470.00058297905275 48825.0 NaN 1540.5771543086182 0.9248527355786914 516.0 9.0 362.0 
472.00058297905275 48795.0 NaN 1534.4181696726794 0.8957837596146526 514.0 9.0 360.0 
474.00058297905275 48807.0 NaN 1528.2645290581177 0.9102676784516508 514.0 9.0 358.0 
476.00058297905275 48806.0 NaN 1515.9652638610546 0.885310818760979 510.0 9.0 354.0 
478.00058297905275 48805.0 NaN 1515.9919839679364 0.8591954440981305 507.0 9.0 354.0 
480.00058297905275 48817.0 NaN 1515.9786239144967 0.8735256941559432 510.0 8.0 355.0 
482.00058297905275 48801.0 NaN 1509.8917835671355 0.8724026365620257 511.0 6.0 355.0 
484.00058297905275 48828.0 NaN 1509.8891115564456 0.8554722081969283 511.0 4.0 357.0 
486.00058297905275 48850.0 NaN 1509.8517034068152 0.8548098616412889 512.0 3.0 358.0 
488.00058297905275 48864.0 NaN 1500.6573146292576 0.834943875853233 511.0 2.0 356.0 
490.00058297905275 48889.0 NaN 1497.5524382097535 0.8454333177464934 511.0 2.0 355.0 
492.00058297905275 48857.0 NaN 1494.5303941215755 0.8189204303630523 510.0 2.0 354.0 
494.00058297905275 48876.0 NaN 1491.4388777555102 0.8060025163479347 509.0 2.0 353.0 
496.00058297905275 48895.0 NaN 1491.4415497661998 0.8198821652022815 507.0 2.0 353.0 
498.00058297905275 48932.0 NaN 1488.4382097528385 0.8115031821743692 507.0 2.0 352.0 
500.00058297905275 48936.0 NaN 1488.3473613894453 0.8219611452246698 506.0 2.0 352.0 
502.00058297905275 48917.0 NaN 1488.3820975283907 0.8231691494055872 509.0 2.0 352.0 
504.00058297905275 48927.0 NaN 1494.546426185706 0.8260579400732333 511.0 2.0 354.0 
506.00058297905275 48944.0 NaN 1494.5437541750173 0.8339971680997709 514.0 2.0 354.0 
508.00058297905275 49000.0 NaN 1491.4468937875745 0.8444928178578962 512.0 3.0 352.0 
510.00058297905275 48993.0 NaN 1497.5283901135615 0.8600227143731641 512.0 3.0 354.0 
512.0005829790528 48983.0 NaN 1497.5123580494333 0.8706149691414368 512.0 3.0 354.0 
514.0005829790528 48988.0 NaN 1491.3667334669346 0.8773031374396549 509.0 7.0 348.0 
516.0005829790528 48998.0 NaN 1482.19906479626 0.8953465871361594 503.0 9.0 343.0 
518.0005829790528 49002.0 NaN 1473.0073480293916 0.903026279061045 500.0 9.0 340.0 
520.0005829790528 49008.0 NaN 1466.856379425518 0.9177424620103158 500.0 8.0 339.0 
522.0005829790528 48999.0 NaN 1469.9452237808941 0.9231468787617071 497.0 8.0 340.0 
524.0005829790528 49022.0 NaN 1463.8102872411482 0.8899540590130288 498.0 8.0 338.0 
526.0005829790528 49026.0 NaN 1451.5350701402813 0.8898936004143463 498.0 8.0 334.0 
528.0005829790528 49033.0 NaN 1454.6052104208425 0.880308475550124 498.0 8.0 335.0 
530.0005829790528 49030.0 NaN 1454.5998663994646 0.8821061281775651 500.0 8.0 335.0 
532.0005829790528 49006.0 NaN 1454.549098196392 0.8868901350540276 499.0 8.0 335.0 
534.0005829790528 49022.0 NaN 1460.7267869071468 0.8960034458652146 500.0 8.0 337.0 
536.0005829790528 49032.0 NaN 1457.6726786907152 0.8747806118344481 500.0 8.0 336.0 
538.0005829790528 49056.0 NaN 1457.6860387441548 0.8729532844449089 501.0 8.0 336.0 
540.0005829790528 49033.0 NaN 1457.6352705410818 0.8625064623257057 502.0 8.0 336.0 
542.0005829790528 49013.0 NaN 1460.6733466933872 0.8679005856119043 502.0 8.0 337.0 
544.0005829790528 49027.0 NaN 1460.6573146292583 0.8736167954639994 505.0 8.0 337.0 
546.0005829790528 49049.0 NaN 1460.7160988643961 0.8890921619608749 505.0 8.0 337.0 
548.0005829790528 49041.0 NaN 1460.7080828323308 0.8810910859830635 508.0 8.0 337.0 
550.0005829790528 49036.0 NaN 1460.694722778891 0.8853846178480645 508.0 8.0 337.0 
552.0005829790528 49034.0 NaN 1460.676018704074 0.89636417896672 508.0 8.0 337.0 
554.0005829790528 49049.0 NaN 1466.8269873079487 0.8946533687098815 507.0 8.0 339.0 
556.0005829790528 49092.0 NaN 1469.899799599199 0.9146548368101827 505.0 8.0 340.0 
558.0005829790528 49110.0 NaN 1457.6138944555776 0.8904798991514127 501.0 8.0 336.0 
560.0005829790528 49118.0 NaN 1454.565130260521 0.8998705370276163 500.0 8.0 335.0 
562.0005829790528 49117.0 NaN 1454.5891783567135 0.9054577114202864 493.0 8.0 335.0 
564.0005829790528 49147.0 NaN 1460.7508350033404 0.8765222287461032 495.0 7.0 338.0 
566.0005829790528 49172.0 NaN 1463.8076152304604 0.8891881432247277 498.0 7.0 339.0 
568.0005829790528 49198.0 NaN 1469.9585838343357 0.8769881828785299 499.0 7.0 341.0 
570.0005829790528 49185.0 NaN 1476.0507682030725 0.8787981733479657 504.0 7.0 343.0 
572.0005829790528 49191.0 NaN 1479.1155644622575 0.8920117427423122 506.0 7.0 344.0 
574.0005829790528 49194.0 NaN 1482.2418169672674 0.8830353969254096 505.0 7.0 345.0 
576.0005829790528 49139.0 NaN 1488.400801603207 0.8620945446082661 505.0 7.0 347.0 
578.0005829790528 49203.0 NaN 1482.2605210420836 0.8614106472751996 507.0 7.0 345.0 
580.0005829790528 49219.0 NaN 1482.1883767535078 0.8856619502801001 506.0 7.0 345.0 
582.0005829790528 49218.0 NaN 1485.2772211088839 0.8994686201473417 510.0 7.0 346.0 
584.0005829790528 49246.0 NaN 1485.274549098197 0.8923452883801524 510.0 7.0 346.0 
586.0005829790528 49284.0 NaN 1491.4549098196383 0.910206469941834 514.0 7.0 348.0 
588.0005829790528 49297.0 NaN 1491.4415497661998 0.9211990223750564 514.0 7.0 348.0 
590.0005829790528 49300.0 NaN 1491.462925851703 0.9257953161222126 514.0 7.0 348.0 
592.0005829790528 49307.0 NaN 1491.4148296593182 0.9236427704302933 518.0 7.0 348.0 
594.0005829790528 49328.0 NaN 1491.4308617234465 0.9290796711630093 518.0 7.0 348.0 
596.0005829790528 49354.0 NaN 1494.4716098864385 0.9144625881948593 520.0 7.0 349.0 
598.0005829790528 49361.0 NaN 1491.3961255845013 0.9259092463263885 520.0 7.0 348.0 
600.0005829790528 49365.0 NaN 1488.288577154309 0.9391995863938359 521.0 7.0 347.0 
602.0005829790528 49358.0 NaN 1491.4308617234465 0.9112249732576757 523.0 7.0 348.0 
604.0005829790528 49367.0 NaN 1491.4121576486298 0.9067206424364146 521.0 7.0 348.0 
606.0005829790528 49371.0 NaN 1497.5230460921837 0.8964733357763206 518.0 7.0 350.0 
608.0005829790528 49398.0 NaN 1497.5257181028728 0.9147444305154417 519.0 7.0 350.0 
610.0005829790528 49409.0 NaN 1494.4796259185027 0.8880541138666058 518.0 7.0 349.0 
612.0005829790528 49407.0 NaN 1494.4689378757525 0.8941320793179709 515.0 7.0 349.0 
614.0005829790528 49414.0 NaN 1494.4422177688716 0.8978400114557947 515.0 7.0 349.0 
616.0005829790528 49408.0 NaN 1497.498997995991 0.9089569355666546 516.0 7.0 350.0 
618.0005829790528 49397.0 NaN 1497.5524382097533 0.9111147649126804 518.0 7.0 350.0 
620.0005829790528 49416.0 NaN 1494.4475617902467 0.9209405442016162 516.0 8.0 348.0 
622.0005829790528 49391.0 NaN 1497.5711422845698 0.9097867781588441 514.0 8.0 349.0 
624.0005829790528 49362.0 NaN 1503.7247828991303 0.8914622330850034 512.0 8.0 351.0 
626.0005829790528 49356.0 NaN 1500.6492985971938 0.8999648099047182 512.0 8.0 350.0 
628.0005829790528 49349.0 NaN 1506.7975951903818 0.9079583459966089 511.0 8.0 352.0 
630.0005829790528 49333.0 NaN 1506.773547094189 0.9059329967470561 509.0 8.0 352.0 
632.0005829790528 49300.0 NaN 1506.8002672010696 0.9026946939711379 509.0 8.0 352.0 
634.0005829790528 49285.0 NaN 1516.0106880427527 0.894488302545204 510.0 8.0 355.0 
636.0005829790528 49295.0 NaN 1512.9645958583828 0.9033427665297932 518.0 8.0 354.0 
638.0005829790528 49288.0 NaN 1516.0507682030725 0.9103319515776667 519.0 8.0 355.0 
640.0005829790528 49290.0 NaN 1516.04008016032 0.9235508684072447 518.0 8.0 355.0 
642.0005829790528 49275.0 NaN 1512.9298597194384 0.9272323588466529 519.0 8.0 354.0 
644.0005829790528 49281.0 NaN 1506.8243152972618 0.9070516292704343 520.0 8.0 352.0 
646.0005829790528 49276.0 NaN 1506.8296593186365 0.9219082069126396 518.0 8.0 352.0 
648.0005829790528 49277.0 NaN 1512.985971943889 0.9377107279092685 516.0 8.0 354.0 
650.0005829790528 49261.0 NaN 1519.0888443553788 0.9189752330103355 515.0 7.0 357.0 
652.0005829790528 49229.0 NaN 1519.0968603874423 0.8950977733417225 513.0 7.0 357.0 
654.0005829790528 49189.0 NaN 1522.191048764194 0.8893528750548664 512.0 7.0 358.0 
656.0005829790528 49211.0 NaN 1522.2070808283243 0.9024534349657453 509.0 7.0 358.0 
658.0005829790528 49217.0 NaN 1531.43887775551 0.8883440588307501 508.0 7.0 361.0 
660.0005829790528 49218.0 NaN 1534.4635938543747 0.9032332702111591 507.0 8.0 361.0 
662.0005829790528 49209.0 NaN 1534.476953907816 0.9129526556286918 508.0 7.0 362.0 
664.0005829790528 49218.0 NaN 1534.4315297261182 0.9017468724679439 509.0 7.0 362.0 
#####################################################################
# End of data export. Simulation finished at: 2019-03-07T23:02+0000 #
#####################################################################
