#####################################################################
# Alchemist log file - simulation started at: 2019-03-02T15:37+0000 #
#####################################################################
# seed = 0.0, bandwidth = 2.3713737056616552E7, propagationDelay = 1.0, baserange = 100.0
#
# The columns have the following meaning: 
# time neighbor_count[Sum] <value>@neighbor_count[Sum] packet_size[Mean] mean_delay[Mean] crowd[Sum] overcrowded[Sum] risk[Sum] 
0.0 NaN NaN NaN NaN NaN NaN NaN 
10.000405536260626 13127.0 NaN 4994.14295257181 0.9948386181973784 1490.0 7.0 1490.0 
20.000405536260626 13137.0 NaN 4993.910487641951 0.9959341935861424 1491.0 6.0 1491.0 
30.000405536260626 13173.0 NaN 4993.816967267869 0.9972053302931712 1491.0 6.0 1491.0 
40.00040553626063 13197.0 NaN 4993.814295257181 0.9946777241075522 1491.0 6.0 1491.0 
50.00040553626063 13239.0 NaN 4993.854375417502 0.996069367980094 1491.0 6.0 1491.0 
60.00040553626063 13285.0 NaN 4990.789579158317 0.9962575804744285 1490.0 6.0 1490.0 
70.00040553626063 13247.0 NaN 1528.430193720773 0.9960852361736673 538.0 13.0 354.0 
80.00040553626063 13280.0 NaN 1537.62458249833 0.9968639313372927 519.0 13.0 357.0 
90.00040553626063 13281.0 NaN 1537.5871743486973 0.9970281216556408 513.0 16.0 354.0 
100.00040553626063 13207.0 NaN 1540.5771543086184 0.996532424683063 513.0 14.0 357.0 
110.00040553626063 13220.0 NaN 1540.6680026720094 0.9961600959156467 511.0 17.0 354.0 
120.00040553626063 13264.0 NaN 1540.6519706078818 0.9978200342814033 515.0 15.0 356.0 
130.00040553626064 13247.0 NaN 1537.5577822311275 0.9975112894017713 515.0 14.0 356.0 
140.00040553626064 13247.0 NaN 1531.4923179692728 0.9974572676810406 516.0 12.0 356.0 
150.00040553626064 13245.0 NaN 1534.6426185704731 0.9969615230993524 510.0 14.0 355.0 
160.00040553626064 13162.0 NaN 1531.5751503006 0.9963938381411581 510.0 13.0 355.0 
170.00040553626064 13124.0 NaN 1537.6833667334663 0.9972000993730685 508.0 15.0 355.0 
180.00040553626064 13088.0 NaN 1531.5804943219794 0.9987093845142146 511.0 13.0 355.0 
190.00040553626064 13061.0 NaN 1531.6152304609209 0.9954130886878161 498.0 19.0 349.0 
200.00040553626064 13024.0 NaN 1537.811623246491 1.003612964037571 502.0 17.0 353.0 
210.00040553626064 12973.0 NaN 1531.5858383433547 1.0000927371400912 499.0 15.0 353.0 
220.00040553626064 12880.0 NaN 1528.5771543086184 1.001264444431776 502.0 12.0 355.0 
230.00040553626064 12824.0 NaN 1531.5885103540425 0.9994640102587001 498.0 14.0 354.0 
240.00040553626064 12782.0 NaN 1528.4756179024728 1.0045470013272373 499.0 12.0 355.0 
250.00040553626064 12728.0 NaN 1525.3841015364067 1.0035203819789293 498.0 15.0 351.0 
260.00040553626064 12702.0 NaN 1525.3734134936547 0.9999086545849594 499.0 14.0 352.0 
270.00040553626064 12672.0 NaN 1531.4228456913818 1.0046270498033874 498.0 14.0 354.0 
280.00040553626064 12613.0 NaN 1537.579158316634 1.0012675686907073 503.0 12.0 358.0 
290.00040553626064 12553.0 NaN 1531.4335337341363 0.9992513163969162 495.0 15.0 353.0 
300.00040553626064 12484.0 NaN 1531.468269873082 0.9985010656871881 495.0 13.0 355.0 
310.00040553626064 12432.0 NaN 1528.4008016032067 0.9978346124084949 491.0 15.0 352.0 
320.00040553626064 12411.0 NaN 1534.4742818971272 0.9988790686537928 495.0 13.0 356.0 
330.00040553626064 12391.0 NaN 1534.4742818971272 0.9999020130366103 492.0 15.0 354.0 
340.00040553626064 12391.0 NaN 1531.4201736806938 1.0009625486896014 497.0 13.0 355.0 
350.00040553626064 12407.0 NaN 1531.3854375417511 0.9988697191403099 500.0 15.0 353.0 
360.00040553626064 12423.0 NaN 1525.2344689378751 1.0014924299808816 501.0 13.0 353.0 
370.00040553626064 12397.0 NaN 1506.8002672010696 1.0072789417434005 501.0 15.0 345.0 
380.00040553626064 12304.0 NaN 1509.7715430861729 1.0037364888254254 503.0 14.0 347.0 
390.00040553626064 12269.0 NaN 1509.8169672678698 1.000558186309574 500.0 16.0 345.0 
400.00040553626064 12264.0 NaN 1506.7040748163 1.000705495849658 504.0 14.0 346.0 
410.00040553626064 12291.0 NaN 1518.9899799599189 0.9993945894684653 507.0 15.0 349.0 
420.00040553626064 12305.0 NaN 1512.8657314629268 0.9994985030315414 502.0 13.0 349.0 
430.00040553626064 12305.0 NaN 1500.553106212425 0.9993238311849075 499.0 15.0 343.0 
440.00040553626064 12288.0 NaN 1512.849699398798 0.9966129638525639 508.0 13.0 349.0 
450.00040553626064 12220.0 NaN 1534.3486973947906 0.9954361157190826 510.0 18.0 351.0 
460.00040553626064 12214.0 NaN 1540.4355377421516 0.9963138105988698 513.0 13.0 358.0 
470.00040553626064 12234.0 NaN 1531.2785571142272 0.9962291363768514 505.0 15.0 353.0 
480.00040553626064 12202.0 NaN 1519.0327321309278 0.9956270420758694 503.0 13.0 351.0 
490.00040553626064 12168.0 NaN 1497.5631262525062 1.003525265291367 495.0 16.0 341.0 
500.00040553626064 12166.0 NaN 1491.422845691382 0.998307227599238 494.0 14.0 341.0 
510.00040553626064 12206.0 NaN 1494.5357381429537 1.0001054780343823 495.0 15.0 341.0 
520.0004055362606 12236.0 NaN 1476.0828323313283 0.9963525041234449 491.0 17.0 333.0 
530.0004055362606 12305.0 NaN 1451.5030060120246 0.9973448315583638 489.0 15.0 327.0 
540.0004055362606 12336.0 NaN 1466.7682030728115 0.9973172799985576 491.0 13.0 334.0 
550.0004055362606 12295.0 NaN 1466.8002672010693 0.9967219810399779 494.0 15.0 332.0 
560.0004055362606 12305.0 NaN 1466.8350033400127 0.9947243578984752 497.0 13.0 334.0 
570.0004055362606 12311.0 NaN 1472.9645958583828 0.9969754510112729 492.0 15.0 334.0 
580.0004055362606 12313.0 NaN 1472.9512358049442 0.9979171580592435 501.0 12.0 337.0 
590.0004055362606 12347.0 NaN 1469.9024716098868 0.9984440410432569 502.0 14.0 334.0 
600.0004055362606 12327.0 NaN 1488.368737474949 1.0021702642917492 513.0 12.0 342.0 
610.0004055362606 12435.0 NaN 1497.6058784235122 1.002234353680706 513.0 14.0 343.0 
620.0004055362606 12470.0 NaN 1494.5250501002 1.0022005006022228 513.0 12.0 344.0 
630.0004055362606 12503.0 NaN 1510.030728122912 0.9996050083813329 505.0 15.0 346.0 
640.0004055362606 12455.0 NaN 1506.9178356713435 0.9970283802093013 513.0 15.0 345.0 
650.0004055362606 12428.0 NaN 1522.2231128924525 1.0033390071389028 502.0 15.0 350.0 
660.0004055362606 12385.0 NaN 1525.3466933867726 1.0000665602431824 502.0 14.0 352.0 
#####################################################################
# End of data export. Simulation finished at: 2019-03-02T15:46+0000 #
#####################################################################
