#####################################################################
# Alchemist log file - simulation started at: 2019-03-15T18:58+0000 #
#####################################################################
# seed = 8.0, bandwidth = 74989.42093324558, propagationDelay = 0.0031622776601683794, baserange = 1000.0
#
# The columns have the following meaning: 
# time neighbor_count[Sum] <value>@neighbor_count[Sum] packet_size[Mean] mean_delay[Mean] crowd[Sum] overcrowded[Sum] risk[Sum] 
0.0 NaN NaN NaN NaN NaN NaN NaN 
2.0001655438397337 209541.0 NaN 4995.409485637942 0.49936568036589607 1497.0 0.0 1497.0 
4.000165543839734 210022.0 NaN 4994.094856379425 0.5006850064929664 1497.0 0.0 1497.0 
6.000165543839734 210022.0 NaN 4993.9986639946555 0.5006855894024508 1497.0 0.0 1497.0 
8.000165543839733 210022.0 NaN 4994.434201736807 0.50068523320942 1496.0 1.0 1496.0 
10.000165543839733 210022.0 NaN 4995.65798263193 0.5006752733981326 1494.0 3.0 1494.0 
12.000165543839733 210045.0 NaN 4994.997995991984 0.5006798448403341 1496.0 1.0 1496.0 
14.000165543839733 210051.0 NaN 4994.271209084836 0.5006886166077721 1497.0 0.0 1497.0 
16.00016554383973 210054.0 NaN 4994.29258517034 0.5006637093689128 1496.0 1.0 1496.0 
18.000165543839735 210068.0 NaN 4995.193052772211 0.5010475113169431 1495.0 2.0 1495.0 
20.000165543839735 210072.0 NaN 4995.641950567802 0.5015384344014655 1496.0 1.0 1496.0 
22.000165543839735 210086.0 NaN 4994.655978623914 0.5007131824934644 1496.0 1.0 1496.0 
24.000165543839735 210094.0 NaN 4994.367401469606 0.5009248238987368 1497.0 0.0 1497.0 
26.000165543839735 210135.0 NaN 4994.348697394789 0.5015187901491426 1497.0 0.0 1497.0 
28.000165543839735 210176.0 NaN 4995.307949231797 0.5024457880075945 1494.0 3.0 1494.0 
30.000165543839735 210148.0 NaN 4996.227120908484 0.502384477445532 1495.0 2.0 1495.0 
32.000165543839735 210156.0 NaN 4994.733466933868 0.500855159652747 1496.0 1.0 1496.0 
34.000165543839735 210166.0 NaN 4993.899799599199 0.5012447444310432 1497.0 0.0 1497.0 
36.000165543839735 210236.0 NaN 4994.367401469606 0.5011694309240301 1497.0 0.0 1497.0 
38.000165543839735 210288.0 NaN 4995.008684034736 0.5018066973532861 1496.0 1.0 1496.0 
40.000165543839735 210270.0 NaN 4996.144288577154 0.502300605848988 1494.0 3.0 1494.0 
42.000165543839735 210279.0 NaN 4995.473613894455 0.5007873716851338 1496.0 1.0 1496.0 
44.000165543839735 210299.0 NaN 4994.201736806947 0.5009502873128142 1497.0 0.0 1497.0 
46.000165543839735 210343.0 NaN 4994.212424849699 0.5011191046677561 1496.0 1.0 1496.0 
48.000165543839735 210363.0 NaN 4994.995323981296 0.5021679311748797 1495.0 2.0 1495.0 
50.000165543839735 210348.0 NaN 4995.682030728123 0.5031715371647658 1496.0 1.0 1496.0 
52.000165543839735 210347.0 NaN 4994.800267201069 0.5009304911624106 1496.0 1.0 1496.0 
54.000165543839735 210365.0 NaN 4994.506346025384 0.5019477223319849 1497.0 0.0 1497.0 
56.000165543839735 210401.0 NaN 4994.509018036072 0.5027295222881986 1496.0 1.0 1496.0 
58.000165543839735 210432.0 NaN 4995.094188376754 0.50164758025755 1494.0 3.0 1494.0 
60.000165543839735 210456.0 NaN 4996.061456245825 0.5029422529261248 1495.0 2.0 1495.0 
62.000165543839735 210433.0 NaN 1519.4388777555093 0.49865154640061216 781.0 0.0 364.0 
64.00016554383973 210344.0 NaN 1522.4235136940545 0.5000202871269643 619.0 0.0 365.0 
66.00016554383973 210373.0 NaN 1522.5116900467606 0.5005218953398876 581.0 1.0 364.0 
68.00016554383973 210436.0 NaN 1522.5838343353364 0.5021958407203179 548.0 1.0 364.0 
70.00016554383973 210419.0 NaN 1525.702070808282 0.5031001065469048 536.0 1.0 365.0 
72.00016554383973 210383.0 NaN 1525.6325985303936 0.5018454963362389 533.0 0.0 366.0 
74.00016554383973 210318.0 NaN 1525.5390781563121 0.5000939890295811 531.0 0.0 366.0 
76.00016554383973 210344.0 NaN 1531.6018704074818 0.5003007931079116 531.0 0.0 368.0 
78.00016554383973 210366.0 NaN 1531.5911823647277 0.5005947336909371 528.0 0.0 368.0 
80.00016554383973 210414.0 NaN 1531.6285905143634 0.5008957035800096 527.0 0.0 368.0 
82.00016554383973 210402.0 NaN 1531.6686706746818 0.5008690876520078 526.0 1.0 367.0 
84.00016554383973 210379.0 NaN 1534.9044756179023 0.5001774704927582 528.0 1.0 368.0 
86.00016554383973 210373.0 NaN 1534.8830995324 0.5004227658053503 526.0 1.0 368.0 
88.00016554383973 210377.0 NaN 1534.8136272545091 0.49994358066394295 528.0 0.0 369.0 
90.00016554383973 210497.0 NaN 1534.7788911155635 0.5002755858569661 528.0 0.0 369.0 
92.00016554383973 210497.0 NaN 1534.725450901803 0.5007956524702923 527.0 0.0 369.0 
94.00016554383973 210464.0 NaN 1534.7307949231815 0.5004478345757223 528.0 0.0 369.0 
96.00016554383973 210455.0 NaN 1537.8303273213091 0.500187747851446 527.0 1.0 369.0 
98.00016554383973 210476.0 NaN 1537.8543754175003 0.4999767144012023 527.0 1.0 369.0 
100.00016554383973 210669.0 NaN 1537.7982631930543 0.5003063341608859 528.0 0.0 370.0 
102.00016554383973 210660.0 NaN 1537.8196392785571 0.5004953638186441 528.0 0.0 370.0 
104.00016554383973 210637.0 NaN 1537.7955911823633 0.5004060449819879 527.0 0.0 370.0 
106.00016554383973 210627.0 NaN 1537.7982631930543 0.500554908477596 528.0 0.0 370.0 
108.00016554383973 210617.0 NaN 1537.9265197060793 0.5002844674673412 527.0 0.0 370.0 
110.00016554383973 210688.0 NaN 1537.9185036740153 0.5000858263454667 527.0 0.0 370.0 
112.00016554383973 210684.0 NaN 1541.0340681362727 0.5000527727760891 526.0 0.0 371.0 
114.00016554383973 210687.0 NaN 1540.8871075484299 0.5002807417878834 527.0 0.0 371.0 
116.00016554383973 210675.0 NaN 1540.8203072812275 0.5003905202492583 528.0 0.0 371.0 
118.00016554383973 210676.0 NaN 1543.871743486973 0.5003155086500567 530.0 0.0 372.0 
120.00016554383973 210693.0 NaN 1547.0327321309273 0.5005019461924943 530.0 0.0 373.0 
122.00016554383973 210686.0 NaN 1547.070140280561 0.5008170559241689 529.0 0.0 373.0 
124.00016554383973 210686.0 NaN 1544.0106880427522 0.5003038105970454 529.0 1.0 371.0 
126.00016554383973 210686.0 NaN 1544.152304609218 0.5003262160288063 528.0 1.0 371.0 
128.00016554383973 210690.0 NaN 1544.0106880427522 0.5004660818550599 528.0 0.0 372.0 
130.00016554383973 210684.0 NaN 1540.9378757515028 0.4999948874434557 528.0 0.0 371.0 
132.00016554383973 210674.0 NaN 1540.8283233132934 0.5002149559005932 525.0 0.0 371.0 
134.00016554383973 210701.0 NaN 1537.7127588510366 0.5003110874823161 524.0 0.0 370.0 
136.00016554383973 210710.0 NaN 1531.6633266533067 0.5003826185089111 522.0 1.0 367.0 
138.00016554383973 210697.0 NaN 1534.8243152972611 0.5003745514923137 519.0 1.0 368.0 
140.00016554383973 210718.0 NaN 1538.0040080160334 0.5006587267457098 520.0 1.0 369.0 
142.00016554383973 210727.0 NaN 1544.0320641282547 0.5005210672002647 521.0 0.0 372.0 
144.00016554383973 210737.0 NaN 1544.0187040748178 0.5001399439292697 522.0 0.0 372.0 
146.00016554383973 210743.0 NaN 1543.906479625918 0.5004057673088347 522.0 0.0 372.0 
148.00016554383973 210719.0 NaN 1550.0895123580485 0.5002495652199335 522.0 0.0 374.0 
150.00016554383973 210746.0 NaN 1550.1456245825 0.5003974688025548 523.0 0.0 374.0 
152.00016554383973 210743.0 NaN 1540.8897795591183 0.500921443890075 522.0 1.0 370.0 
154.00016554383973 210742.0 NaN 1537.9372077488304 0.49997055392086787 520.0 1.0 369.0 
156.00016554383973 210767.0 NaN 1540.9458917835666 0.5004980131058422 518.0 1.0 370.0 
158.00016554383973 210753.0 NaN 1540.9352037408155 0.5003733472507548 521.0 0.0 371.0 
160.00016554383973 210777.0 NaN 1540.8363393453574 0.5005515178305306 522.0 0.0 371.0 
162.00016554383973 210792.0 NaN 1540.8764195056788 0.5008872391591636 520.0 0.0 371.0 
164.00016554383973 210769.0 NaN 1543.981295925182 0.5005438165457666 520.0 0.0 372.0 
166.00016554383973 210744.0 NaN 1544.0133600534393 0.4999828130304207 520.0 0.0 372.0 
168.00016554383973 210731.0 NaN 1540.9592518370089 0.49999445405893217 520.0 0.0 371.0 
170.00016554383973 210744.0 NaN 1540.7909151636609 0.5004726801669181 521.0 0.0 371.0 
172.00016554383973 210758.0 NaN 1546.928523714094 0.5001589033864755 524.0 0.0 373.0 
174.00016554383973 210756.0 NaN 1546.9445557782244 0.5000697557583164 523.0 0.0 373.0 
176.00016554383973 210751.0 NaN 1543.983967935873 0.5000308327092294 522.0 0.0 372.0 
178.00016554383973 210754.0 NaN 1544.018704074818 0.500235158264381 522.0 0.0 372.0 
180.00016554383973 210774.0 NaN 1544.0961923847701 0.5005581913313484 522.0 0.0 372.0 
182.00016554383973 210779.0 NaN 1537.9345357381428 0.5005534330719987 520.0 1.0 369.0 
184.00016554383973 210772.0 NaN 1537.8704074816299 0.500396204423908 519.0 1.0 369.0 
186.00016554383973 210750.0 NaN 1537.8196392785571 0.5001533817443278 520.0 1.0 369.0 
188.00016554383973 210755.0 NaN 1540.7374749499 0.5003092530596837 520.0 1.0 370.0 
190.00016554383973 210760.0 NaN 1534.6586506346025 0.500301307747527 517.0 2.0 367.0 
192.00016554383973 210779.0 NaN 1534.7548430193729 0.500991560851153 517.0 3.0 366.0 
194.00016554383973 210763.0 NaN 1537.9639278557092 0.5012666334106757 517.0 3.0 367.0 
196.00016554383973 210725.0 NaN 1538.0494321977274 0.5008264833369738 517.0 3.0 367.0 
198.00016554383973 210729.0 NaN 1534.925851703409 0.5009657043216276 517.0 3.0 366.0 
200.00016554383973 210734.0 NaN 1540.9966599866393 0.5014224011248638 518.0 3.0 368.0 
202.00016554383973 210720.0 NaN 1540.8363393453571 0.5001785319687567 520.0 3.0 368.0 
204.00016554383973 210824.0 NaN 1540.8336673346698 0.5003534091521337 520.0 3.0 368.0 
206.00016554383973 210821.0 NaN 1540.8416833667336 0.5007638130138043 520.0 3.0 368.0 
208.00016554383973 210811.0 NaN 1534.7601870407482 0.5003833933641496 518.0 3.0 366.0 
210.00016554383973 210839.0 NaN 1531.8129592518362 0.5008094840583981 514.0 3.0 365.0 
212.00016554383973 210829.0 NaN 1528.638610554443 0.5014874774611551 514.0 3.0 364.0 
214.00016554383973 210900.0 NaN 1531.7354709418819 0.5016578355987208 514.0 3.0 365.0 
216.00016554383973 210879.0 NaN 1534.7975951903818 0.5009783069293582 515.0 3.0 366.0 
218.00016554383973 210864.0 NaN 1528.582498329993 0.5016973697048523 514.0 3.0 364.0 
220.00016554383973 210867.0 NaN 1528.6680026720094 0.5028265264459535 513.0 3.0 364.0 
222.00016554383973 210856.0 NaN 1525.5791583166338 0.5010248341964558 515.0 1.0 365.0 
224.00016554383973 210899.0 NaN 1522.5357381429542 0.5002164187076704 515.0 1.0 364.0 
226.00016554383973 210909.0 NaN 1525.517702070809 0.5010352444274525 515.0 1.0 365.0 
228.00016554383973 210883.0 NaN 1528.582498329993 0.5010355668971549 513.0 1.0 366.0 
230.00016554383973 210894.0 NaN 1528.5771543086182 0.5012860838446335 510.0 3.0 364.0 
232.00016554383973 210898.0 NaN 1534.7468269873093 0.5003918204863409 509.0 3.0 366.0 
234.00016554383973 210944.0 NaN 1534.8243152972614 0.5006481317238175 510.0 3.0 366.0 
236.00016554383973 210939.0 NaN 1534.7869071476275 0.5010686718798666 510.0 3.0 366.0 
238.00016554383973 210901.0 NaN 1534.8403473613907 0.5009864895840203 510.0 3.0 366.0 
240.00016554383973 210922.0 NaN 1531.7060788243157 0.5006577744186115 509.0 4.0 364.0 
242.00016554383973 210932.0 NaN 1531.6419505678002 0.5000137448498498 511.0 2.0 366.0 
244.00016554383973 211008.0 NaN 1525.4375417501665 0.4999188215242436 513.0 1.0 365.0 
246.00016554383973 211022.0 NaN 1525.493653974618 0.5006094424069597 513.0 1.0 365.0 
248.00016554383973 211005.0 NaN 1528.6172344689364 0.5008482537757651 513.0 1.0 366.0 
250.00016554383973 211017.0 NaN 1525.5764863059455 0.5004805238391955 512.0 2.0 364.0 
252.00016554383973 211034.0 NaN 1525.7154308617244 0.49999457724436497 512.0 2.0 364.0 
254.00016554383973 211058.0 NaN 1525.5551102204392 0.5004810850247671 510.0 3.0 363.0 
256.0001655438397 211061.0 NaN 1525.5123580494335 0.501174914963724 511.0 3.0 363.0 
258.0001655438397 211018.0 NaN 1525.4241816967274 0.5007615402368429 513.0 3.0 363.0 
260.0001655438397 211018.0 NaN 1522.3193052772206 0.500347220442429 512.0 4.0 361.0 
262.0001655438397 211023.0 NaN 1516.2992651970615 0.49966691037405675 512.0 3.0 360.0 
264.0001655438397 211079.0 NaN 1516.4328657314636 0.5000724252152579 511.0 2.0 361.0 
266.0001655438397 211154.0 NaN 1516.5263861055455 0.5005111288191509 511.0 1.0 362.0 
268.0001655438397 211168.0 NaN 1525.6539746158996 0.5006942876872115 514.0 0.0 366.0 
270.0001655438397 211179.0 NaN 1531.7648630594545 0.5013187675244339 512.0 1.0 367.0 
272.0001655438397 211169.0 NaN 1531.5511022044093 0.5001001553337973 513.0 0.0 368.0 
274.0001655438397 211190.0 NaN 1534.6800267201093 0.50043502063043 514.0 1.0 368.0 
276.0001655438397 211199.0 NaN 1534.7254509018028 0.5005513819501421 513.0 3.0 366.0 
278.0001655438397 211188.0 NaN 1528.5557782231117 0.5004678318446147 512.0 3.0 364.0 
280.0001655438397 211196.0 NaN 1531.7247828991297 0.5008522285864275 512.0 3.0 365.0 
282.0001655438397 211175.0 NaN 1531.6847027388092 0.5005852152553594 512.0 3.0 365.0 
284.0001655438397 211207.0 NaN 1531.71409485638 0.5012294779775514 515.0 2.0 366.0 
286.0001655438397 211186.0 NaN 1531.6205744823 0.5021480643832787 515.0 1.0 367.0 
288.0001655438397 211130.0 NaN 1531.6873747495001 0.5005400740960941 514.0 1.0 367.0 
290.0001655438397 211150.0 NaN 1534.6960587842364 0.501835697702355 513.0 1.0 368.0 
292.0001655438397 211126.0 NaN 1534.661322645291 0.5005708546639737 511.0 2.0 367.0 
294.0001655438397 211151.0 NaN 1534.7441549766183 0.5010988924181395 510.0 3.0 366.0 
296.0001655438397 211112.0 NaN 1537.7608550434181 0.500680711271427 511.0 2.0 368.0 
298.0001655438397 211063.0 NaN 1537.7234468937888 0.5002568135225588 510.0 2.0 368.0 
300.0001655438397 211090.0 NaN 1540.8603874415476 0.5014956964437799 509.0 3.0 368.0 
302.0001655438397 211081.0 NaN 1540.8577154308637 0.5010166675276376 511.0 1.0 370.0 
304.0001655438397 211080.0 NaN 1531.6686706746818 0.5013992307423412 512.0 0.0 368.0 
306.0001655438397 211039.0 NaN 1540.9726118904455 0.5017989491932248 510.0 1.0 370.0 
308.0001655438397 211005.0 NaN 1537.8329993319978 0.501553406322625 508.0 1.0 369.0 
310.0001655438397 211014.0 NaN 1534.6533066132274 0.5027857644794085 508.0 1.0 368.0 
312.0001655438397 210996.0 NaN 1534.6826987307934 0.5002621217065976 508.0 1.0 368.0 
314.0001655438397 211014.0 NaN 1534.613226452907 0.5008043354681242 510.0 1.0 368.0 
316.0001655438397 210998.0 NaN 1531.5751503006 0.5009892498682829 510.0 1.0 367.0 
318.0001655438397 210971.0 NaN 1537.7448229792908 0.4999206465761344 511.0 1.0 369.0 
320.0001655438397 211017.0 NaN 1531.6179024716089 0.5004982646023624 509.0 1.0 367.0 
322.0001655438397 211051.0 NaN 1531.625918503673 0.5012095695064771 509.0 1.0 367.0 
324.0001655438397 211040.0 NaN 1537.763527054109 0.501777777752236 509.0 0.0 370.0 
326.0001655438397 211005.0 NaN 1537.758183032734 0.5007838906695966 510.0 0.0 370.0 
328.0001655438397 210982.0 NaN 1540.836339345357 0.500196327044128 510.0 0.0 371.0 
330.0001655438397 211004.0 NaN 1543.9278557114242 0.5007042847300214 510.0 1.0 371.0 
332.0001655438397 211001.0 NaN 1540.8203072812273 0.5008670513606696 509.0 1.0 370.0 
334.0001655438397 211001.0 NaN 1537.7581830327335 0.5011986847821965 510.0 1.0 369.0 
336.0001655438397 210951.0 NaN 1534.7628590514364 0.5010163097722801 511.0 1.0 368.0 
338.0001655438397 210888.0 NaN 1531.6125584502338 0.5005906793917225 512.0 0.0 368.0 
340.0001655438397 210917.0 NaN 1531.6419505678002 0.5016068661779904 511.0 0.0 368.0 
342.0001655438397 210907.0 NaN 1537.7501670006668 0.5009582659114333 510.0 0.0 370.0 
344.0001655438397 210905.0 NaN 1537.6753507014025 0.5015391198167385 513.0 1.0 369.0 
346.0001655438397 210851.0 NaN 1537.742150968603 0.5011063881696672 513.0 1.0 369.0 
348.0001655438397 210791.0 NaN 1534.680026720109 0.5001610070956997 513.0 1.0 368.0 
350.0001655438397 210801.0 NaN 1531.6205744822996 0.5009288089372457 513.0 1.0 367.0 
352.0001655438397 210790.0 NaN 1531.5136940547757 0.5009264225721874 516.0 0.0 368.0 
354.0001655438397 210799.0 NaN 1528.5397461589841 0.5014897172870344 516.0 0.0 367.0 
356.0001655438397 210755.0 NaN 1528.5744822979277 0.5013385815771992 515.0 0.0 367.0 
358.0001655438397 210733.0 NaN 1528.6038744154996 0.5001255051401713 513.0 1.0 366.0 
360.0001655438397 210762.0 NaN 1528.6038744154996 0.5010503121246926 513.0 1.0 366.0 
362.0001655438397 210779.0 NaN 1528.5023380093521 0.5016150318120802 515.0 1.0 366.0 
364.0001655438397 210690.0 NaN 1525.4081496325996 0.5014001626171116 517.0 1.0 365.0 
366.0001655438397 210665.0 NaN 1525.317301269206 0.5017914968214334 518.0 1.0 365.0 
368.0001655438397 210640.0 NaN 1509.9532398129604 0.500808733047225 517.0 1.0 360.0 
370.0001655438397 210650.0 NaN 1506.8617234468932 0.5018985590732549 517.0 1.0 359.0 
372.0001655438397 210635.0 NaN 1510.0708082832339 0.5020868140819307 517.0 1.0 360.0 
374.0001655438397 210519.0 NaN 1513.2077488309944 0.5020057414444845 518.0 1.0 361.0 
376.0001655438397 210446.0 NaN 1519.3132932531726 0.5015325150067509 517.0 1.0 363.0 
378.0001655438397 210399.0 NaN 1513.2798931195728 0.500336969339612 517.0 1.0 361.0 
380.0001655438397 210407.0 NaN 1513.0955243820981 0.5014532373603243 517.0 1.0 361.0 
382.0001655438397 210400.0 NaN 1510.0654642618565 0.5019439294030826 518.0 1.0 360.0 
384.0001655438397 210313.0 NaN 1516.2110888443547 0.5015043332846502 517.0 1.0 362.0 
386.0001655438397 210251.0 NaN 1516.133600534401 0.5014220738740547 518.0 1.0 362.0 
388.0001655438397 210279.0 NaN 1509.9906479625909 0.5019970637569552 515.0 2.0 359.0 
390.0001655438397 210257.0 NaN 1510.0414161656638 0.5037098418804478 516.0 2.0 359.0 
392.0001655438397 210214.0 NaN 1510.1750167000662 0.5040810728818237 516.0 1.0 360.0 
394.0001655438397 210152.0 NaN 1513.1783567134273 0.5062354964196987 517.0 1.0 361.0 
396.0001655438397 210101.0 NaN 1513.1810287241158 0.5023305694774692 516.0 2.0 360.0 
398.0001655438397 210133.0 NaN 1510.0200400801612 0.5010995173635658 520.0 2.0 359.0 
400.0001655438397 210135.0 NaN 1507.0006680026727 0.5015991827689912 519.0 2.0 358.0 
402.0001655438397 210183.0 NaN 1507.0541082164334 0.502261779886719 519.0 1.0 359.0 
404.0001655438397 210127.0 NaN 1513.1649966599878 0.5019931430849528 520.0 1.0 361.0 
406.0001655438397 210078.0 NaN 1516.2565130260523 0.5011788503943072 521.0 2.0 361.0 
408.0001655438397 210182.0 NaN 1522.3647294589182 0.5016006021265212 521.0 2.0 363.0 
410.0001655438397 210181.0 NaN 1525.4535738142938 0.5028516759774999 521.0 2.0 364.0 
412.0001655438397 210179.0 NaN 1522.2979291917177 0.5022571625274664 522.0 2.0 363.0 
414.0001655438397 210141.0 NaN 1525.509686038745 0.5020883488263906 522.0 2.0 364.0 
416.0001655438397 210088.0 NaN 1522.3219772879092 0.5016699495857282 522.0 2.0 363.0 
418.0001655438397 210087.0 NaN 1522.3006012024061 0.5008156229367924 523.0 2.0 363.0 
420.0001655438397 210090.0 NaN 1510.070808283234 0.5015626187482348 524.0 2.0 359.0 
422.0001655438397 210110.0 NaN 1509.9585838343362 0.5020315899382614 523.0 2.0 359.0 
424.0001655438397 210121.0 NaN 1506.9098196392792 0.5028473761937566 519.0 2.0 358.0 
426.0001655438397 210051.0 NaN 1506.8537074148292 0.501656778866435 517.0 1.0 359.0 
428.0001655438397 210054.0 NaN 1506.9205076820303 0.5009201386726081 518.0 1.0 359.0 
430.0001655438397 210045.0 NaN 1500.8069472277898 0.5014276170574248 518.0 1.0 357.0 
432.0001655438397 210039.0 NaN 1513.2104208416827 0.5016243577434063 517.0 2.0 360.0 
434.0001655438397 210026.0 NaN 1519.2758851035394 0.5015558120618061 517.0 3.0 361.0 
436.0001655438397 209997.0 NaN 1525.2291249165 0.5017185246509861 525.0 1.0 365.0 
438.0001655438397 210036.0 NaN 1525.2371409485636 0.5021170796332433 526.0 1.0 365.0 
440.0001655438397 210059.0 NaN 1525.1730126920518 0.5019466275008483 526.0 2.0 364.0 
442.0001655438397 210061.0 NaN 1534.551770207082 0.5026953898073362 525.0 3.0 366.0 
444.0001655438397 210023.0 NaN 1531.5030060120246 0.5019437133199939 527.0 3.0 365.0 
446.0001655438397 209973.0 NaN 1534.6265865063453 0.5021709608315811 526.0 3.0 366.0 
448.0001655438397 209984.0 NaN 1531.60454241817 0.5016512293099501 524.0 4.0 364.0 
450.0001655438397 209999.0 NaN 1534.642618570473 0.5024529048182742 524.0 3.0 366.0 
452.0001655438397 210007.0 NaN 1534.6052104208427 0.5023932493965786 525.0 2.0 367.0 
454.0001655438397 210005.0 NaN 1543.7461589846364 0.5026882315100925 525.0 2.0 370.0 
456.0001655438397 209956.0 NaN 1546.8269873079482 0.5029456505755954 525.0 3.0 370.0 
458.0001655438397 209895.0 NaN 1543.7621910487635 0.5015564224127513 522.0 3.0 369.0 
460.0001655438397 209917.0 NaN 1543.7915831663336 0.5015276477137051 522.0 2.0 370.0 
462.0001655438397 209918.0 NaN 1540.8577154308634 0.5022593919960503 526.0 1.0 370.0 
464.0001655438397 209936.0 NaN 1537.6940547762183 0.5024987297338942 524.0 2.0 368.0 
466.0001655438397 209892.0 NaN 1537.6406145624574 0.5034459077378668 523.0 2.0 368.0 
468.0001655438397 209845.0 NaN 1537.6299265197065 0.5028618973421034 522.0 3.0 367.0 
470.0001655438397 209796.0 NaN 1531.5003340013366 0.5024177036964689 522.0 1.0 367.0 
472.0001655438397 209748.0 NaN 1528.4248496994 0.5023384809474002 521.0 1.0 366.0 
474.0001655438397 209764.0 NaN 1525.384101536407 0.5022104742578215 519.0 1.0 365.0 
476.0001655438397 209750.0 NaN 1522.2658650634608 0.5034246790561492 518.0 2.0 363.0 
478.0001655438397 209718.0 NaN 1525.2692050768187 0.5022586397610113 516.0 3.0 363.0 
480.0001655438397 209763.0 NaN 1528.384769539079 0.5016126097345849 516.0 2.0 365.0 
482.0001655438397 209735.0 NaN 1519.214428857716 0.5015208453119444 515.0 2.0 362.0 
484.0001655438397 209732.0 NaN 1519.241148964597 0.5013289043581404 516.0 2.0 362.0 
486.0001655438397 209708.0 NaN 1513.1115564462266 0.501866760988166 512.0 2.0 360.0 
488.0001655438397 209727.0 NaN 1506.9365397461581 0.5023721879974402 510.0 2.0 358.0 
490.0001655438397 209820.0 NaN 1506.9392117568461 0.5017919474542363 511.0 1.0 359.0 
492.0001655438397 209820.0 NaN 1500.7695390781557 0.501663206082821 510.0 1.0 357.0 
494.0001655438397 209801.0 NaN 1491.5003340013363 0.5019375986419576 511.0 1.0 354.0 
496.0001655438397 209805.0 NaN 1491.486973947897 0.5025944060488855 509.0 0.0 355.0 
498.0001655438397 209767.0 NaN 1494.5918503674009 0.5015335717988378 506.0 1.0 355.0 
500.0001655438397 209801.0 NaN 1494.5918503674009 0.501672279707746 511.0 0.0 356.0 
502.0001655438397 209771.0 NaN 1497.7181028724108 0.5019931597165164 512.0 1.0 356.0 
504.0001655438397 209734.0 NaN 1491.6953907815637 0.5018057297278666 512.0 2.0 353.0 
506.0001655438397 209720.0 NaN 1494.6880427521717 0.5015276094554142 512.0 2.0 354.0 
508.0001655438397 209729.0 NaN 1491.572478289912 0.5017242545527905 516.0 2.0 353.0 
510.0001655438397 209807.0 NaN 1494.5624582498335 0.5016732154567435 514.0 3.0 353.0 
512.0001655438398 209799.0 NaN 1488.4168336673354 0.5022534364800524 515.0 2.0 352.0 
514.0001655438398 209772.0 NaN 1488.4515698062798 0.5028808087207278 514.0 1.0 353.0 
516.0001655438398 209750.0 NaN 1488.555778223112 0.5030037414588269 511.0 1.0 353.0 
518.0001655438398 209724.0 NaN 1482.4929859719446 0.5017669889164234 512.0 0.0 352.0 
520.0001655438398 209797.0 NaN 1482.391449565799 0.5025786552514778 510.0 0.0 352.0 
522.0001655438398 209790.0 NaN 1476.2992651970617 0.5021838493229793 510.0 0.0 350.0 
524.0001655438398 209790.0 NaN 1460.8523714094847 0.5033759881068728 508.0 0.0 345.0 
526.0001655438398 209789.0 NaN 1463.9572478289908 0.5039431525723683 504.0 0.0 346.0 
528.0001655438398 209731.0 NaN 1463.95991983968 0.5022480372643493 502.0 0.0 346.0 
530.0001655438398 209739.0 NaN 1463.8797595190376 0.501554835273822 500.0 0.0 346.0 
532.0001655438398 209737.0 NaN 1463.9625918503666 0.5018729488711857 505.0 0.0 346.0 
534.0001655438398 209726.0 NaN 1467.0514362057454 0.5019530024139601 506.0 0.0 347.0 
536.0001655438398 209742.0 NaN 1467.0995323981285 0.5017175390829951 507.0 0.0 347.0 
538.0001655438398 209717.0 NaN 1467.0487641950556 0.5011910063572961 509.0 0.0 347.0 
540.0001655438398 209853.0 NaN 1467.0754843019367 0.5017347931484766 510.0 0.0 347.0 
542.0001655438398 209850.0 NaN 1467.0567802271205 0.502598280798393 513.0 0.0 347.0 
544.0001655438398 209805.0 NaN 1463.9759519038082 0.5022980490437825 514.0 0.0 346.0 
546.0001655438398 209788.0 NaN 1464.0374081496334 0.5025210048687508 513.0 1.0 345.0 
548.0001655438398 209764.0 NaN 1466.973947895791 0.5019906828190838 512.0 2.0 345.0 
550.0001655438398 209816.0 NaN 1463.9171676686715 0.5011359788906972 512.0 1.0 345.0 
552.0001655438398 209816.0 NaN 1476.2431529726111 0.5025115232072817 511.0 1.0 349.0 
554.0001655438398 209852.0 NaN 1476.272545090181 0.5034681033152095 512.0 2.0 348.0 
556.0001655438398 209825.0 NaN 1473.1837007348024 0.502966620576711 512.0 2.0 347.0 
558.0001655438398 209788.0 NaN 1470.2150968603876 0.5017978787757583 512.0 2.0 346.0 
560.0001655438398 209857.0 NaN 1467.0941883767541 0.5017956098561079 511.0 1.0 346.0 
562.0001655438398 209870.0 NaN 1466.963259853039 0.5025997942209015 510.0 1.0 346.0 
564.0001655438398 209912.0 NaN 1470.1028724114901 0.5028528700595603 511.0 1.0 347.0 
566.0001655438398 209898.0 NaN 1469.977287909152 0.5021863615927177 513.0 0.0 348.0 
568.0001655438398 209855.0 NaN 1470.0494321977283 0.5014382000268729 512.0 0.0 348.0 
570.0001655438398 209893.0 NaN 1470.0547762191054 0.5021154660719733 515.0 0.0 348.0 
572.0001655438398 209923.0 NaN 1473.1890447561793 0.5024393479914926 514.0 0.0 349.0 
574.0001655438398 209958.0 NaN 1476.280561122245 0.5020484635353165 512.0 0.0 350.0 
576.0001655438398 209926.0 NaN 1476.3046092184363 0.5019746838754188 514.0 0.0 350.0 
578.0001655438398 209890.0 NaN 1476.2645290581168 0.5013267960218688 514.0 0.0 350.0 
580.0001655438398 209922.0 NaN 1479.3293253173008 0.501699391748933 515.0 0.0 351.0 
582.0001655438398 209941.0 NaN 1476.2698730794918 0.5023627110184948 512.0 0.0 350.0 
584.0001655438398 210012.0 NaN 1488.5156980627917 0.5028567537556662 516.0 0.0 354.0 
586.0001655438398 210031.0 NaN 1485.40547762191 0.5029384721581458 520.0 0.0 353.0 
588.0001655438398 209997.0 NaN 1482.3861055444213 0.5027445722840715 520.0 0.0 352.0 
590.0001655438398 209954.0 NaN 1485.4428857715438 0.5015465813411623 522.0 0.0 353.0 
592.0001655438398 209957.0 NaN 1488.526386105545 0.5020854276137438 523.0 0.0 354.0 
594.0001655438398 210032.0 NaN 1485.4776219104883 0.5018403064820354 522.0 1.0 352.0 
596.0001655438398 210071.0 NaN 1485.4509018036078 0.5026292022841852 518.0 2.0 351.0 
598.0001655438398 210042.0 NaN 1488.5023380093526 0.502863425264802 522.0 0.0 354.0 
600.0001655438398 209992.0 NaN 1494.661322645291 0.5011410811436621 529.0 0.0 356.0 
602.0001655438398 210028.0 NaN 1497.7261189044748 0.5010145535344709 528.0 0.0 357.0 
604.0001655438398 210106.0 NaN 1494.599866399465 0.5019069311598559 530.0 0.0 356.0 
606.0001655438398 210144.0 NaN 1494.6052104208422 0.5030145257126979 531.0 0.0 356.0 
608.0001655438398 210094.0 NaN 1491.5003340013363 0.5026654696395793 531.0 0.0 355.0 
610.0001655438398 210021.0 NaN 1497.6833667334658 0.501270952373269 529.0 0.0 357.0 
612.0001655438398 210036.0 NaN 1500.8149632598536 0.5014883543172953 524.0 0.0 358.0 
614.0001655438398 210071.0 NaN 1513.1222444889788 0.5027488102196614 527.0 0.0 362.0 
616.0001655438398 210115.0 NaN 1513.181028724116 0.5036381333171701 528.0 0.0 362.0 
618.0001655438398 210061.0 NaN 1510.0360721442896 0.5027352276542059 527.0 0.0 361.0 
620.0001655438398 209990.0 NaN 1506.859051436206 0.5019836787995093 526.0 0.0 360.0 
622.0001655438398 210000.0 NaN 1509.905143620574 0.5016851145538596 526.0 0.0 361.0 
624.0001655438398 210061.0 NaN 1512.9993319973273 0.5026626579231431 523.0 1.0 361.0 
626.0001655438398 210083.0 NaN 1516.1122244488988 0.5029113650620154 524.0 1.0 362.0 
628.0001655438398 210046.0 NaN 1519.241148964597 0.5028376302669944 526.0 3.0 361.0 
630.0001655438398 210045.0 NaN 1522.4074816299271 0.5017151662368451 529.0 2.0 363.0 
632.0001655438398 210057.0 NaN 1519.230460921844 0.5016715040838431 529.0 2.0 362.0 
634.0001655438398 210106.0 NaN 1525.3947895791575 0.5017649555371879 529.0 4.0 362.0 
636.0001655438398 210111.0 NaN 1525.3707414829648 0.5018382666801702 534.0 3.0 363.0 
638.0001655438398 210091.0 NaN 1525.3279893119566 0.5014161243162998 530.0 3.0 363.0 
640.0001655438398 210119.0 NaN 1519.177020708082 0.5012047725400658 528.0 3.0 361.0 
642.0001655438398 210146.0 NaN 1519.3239812959262 0.500841309836116 526.0 3.0 361.0 
644.0001655438398 210175.0 NaN 1519.3587174348706 0.5008942011745725 527.0 1.0 363.0 
646.0001655438398 210202.0 NaN 1522.3593854375426 0.5016515067549333 527.0 1.0 364.0 
648.0001655438398 210171.0 NaN 1519.3106212424839 0.50132574361413 528.0 0.0 364.0 
650.0001655438398 210233.0 NaN 1519.2331329325305 0.5010900944131884 525.0 0.0 364.0 
652.0001655438398 210280.0 NaN 1525.4455577822303 0.5014126843884571 522.0 3.0 363.0 
654.0001655438398 210325.0 NaN 1525.43486973948 0.5012869492200508 522.0 1.0 365.0 
656.0001655438398 210312.0 NaN 1528.4061456245818 0.5013201670595627 523.0 0.0 367.0 
658.0001655438398 210314.0 NaN 1528.4756179024728 0.5014184275023208 521.0 0.0 367.0 
660.0001655438398 210395.0 NaN 1528.4676018704079 0.5028352010442465 522.0 0.0 367.0 
662.0001655438398 210389.0 NaN 1528.5744822979282 0.5026152449183107 522.0 0.0 367.0 
664.0001655438398 210414.0 NaN 1537.7635270541089 0.5024195352363868 517.0 0.0 370.0 
#####################################################################
# End of data export. Simulation finished at: 2019-03-15T21:42+0000 #
#####################################################################
