#####################################################################
# Alchemist log file - simulation started at: 2019-03-07T13:06+0000 #
#####################################################################
# seed = 5.0, bandwidth = 74989.42093324558, propagationDelay = 0.1, baserange = 10.0
#
# The columns have the following meaning: 
# time neighbor_count[Sum] <value>@neighbor_count[Sum] packet_size[Mean] mean_delay[Mean] crowd[Sum] overcrowded[Sum] risk[Sum] 
0.0 NaN NaN NaN NaN NaN NaN NaN 
2.000101793669918 479.0 NaN 4990.466265865063 0.49186880898783036 1497.0 0.0 1497.0 
4.000101793669918 486.0 NaN 4992.173680694723 0.4982058529345893 1497.0 0.0 1497.0 
6.000101793669918 486.0 NaN 4990.901803607215 0.4982769311086143 1497.0 0.0 1497.0 
8.000101793669918 486.0 NaN 4990.137608550434 0.4983345407161744 1497.0 0.0 1497.0 
10.000101793669918 486.0 NaN 4989.851703406814 0.4983734262011361 1497.0 0.0 1497.0 
12.000101793669918 486.0 NaN 4989.832999331998 0.4983722912262283 1497.0 0.0 1497.0 
14.000101793669918 486.0 NaN 4989.913159652639 0.4983672149546432 1497.0 0.0 1497.0 
16.00010179366992 488.0 NaN 4989.710086840348 0.4997875783913927 1497.0 0.0 1497.0 
18.00010179366992 488.0 NaN 4989.768871075485 0.499784270431249 1497.0 0.0 1497.0 
20.00010179366992 488.0 NaN 4989.744822979292 0.506427311935754 1497.0 0.0 1497.0 
22.00010179366992 488.0 NaN 4989.648630594523 0.5230491665074481 1497.0 0.0 1497.0 
24.00010179366992 487.0 NaN 4989.73413493654 0.5129904187403098 1497.0 0.0 1497.0 
26.00010179366992 490.0 NaN 4989.742150968604 0.5295004551841309 1497.0 0.0 1497.0 
28.00010179366992 498.0 NaN 4989.800935203741 0.5088364778385668 1497.0 0.0 1497.0 
30.00010179366992 500.0 NaN 4989.629926519706 0.5221544254492095 1497.0 0.0 1497.0 
32.00010179366992 498.0 NaN 4989.718102872412 0.5124264321600772 1497.0 0.0 1497.0 
34.00010179366992 501.0 NaN 4989.61122244489 0.5058298805022475 1497.0 0.0 1497.0 
36.00010179366992 502.0 NaN 4989.62458249833 0.5093519885780189 1497.0 0.0 1497.0 
38.00010179366992 502.0 NaN 4989.592518370074 0.5247528832431122 1497.0 0.0 1497.0 
40.00010179366992 504.0 NaN 4989.691382765531 0.5352607750318719 1497.0 0.0 1497.0 
42.00010179366992 506.0 NaN 4989.63794255177 0.5617103283621798 1497.0 0.0 1497.0 
44.00010179366992 510.0 NaN 4989.742150968604 0.5183985500350311 1497.0 0.0 1497.0 
46.00010179366992 512.0 NaN 4989.73413493654 0.5235339691888229 1497.0 0.0 1497.0 
48.00010179366992 512.0 NaN 4989.680694722779 0.5440405068426073 1497.0 0.0 1497.0 
50.00010179366992 523.0 NaN 4989.686038744155 0.5700832076862993 1497.0 0.0 1497.0 
52.00010179366992 521.0 NaN 4989.712758851036 0.5422685029931282 1497.0 0.0 1497.0 
54.00010179366992 519.0 NaN 4989.715430861724 0.542331368079931 1497.0 0.0 1497.0 
56.00010179366992 520.0 NaN 4989.645958583835 0.5589466752635116 1497.0 0.0 1497.0 
58.00010179366992 520.0 NaN 4989.661990647963 0.5325603245846071 1497.0 0.0 1497.0 
60.00010179366992 522.0 NaN 4986.698730794923 0.5484145433419537 1496.0 0.0 1496.0 
62.00010179366992 519.0 NaN 608.9432197728788 0.5756945236179484 310.0 0.0 68.0 
64.00010179366993 510.0 NaN 608.8256513026046 0.5700697542455944 311.0 0.0 68.0 
66.00010179366993 505.0 NaN 608.8203072812289 0.5626839429380356 308.0 0.0 68.0 
68.00010179366993 508.0 NaN 608.8176352705409 0.5911881637329686 296.0 0.0 68.0 
70.00010179366993 501.0 NaN 611.9118236472956 0.5579143706504424 257.0 0.0 69.0 
72.00010179366993 495.0 NaN 611.8744154976623 0.5128349676849568 227.0 0.0 69.0 
74.00010179366993 499.0 NaN 618.0013360053441 0.5370350519681071 200.0 0.0 71.0 
76.00010179366993 499.0 NaN 617.9505678022714 0.5822332789835898 179.0 0.0 71.0 
78.00010179366993 490.0 NaN 617.9291917167669 0.5312576945895418 164.0 0.0 71.0 
80.00010179366993 488.0 NaN 617.9131596526377 0.5264049237059528 158.0 0.0 71.0 
82.00010179366993 489.0 NaN 620.9913159652635 0.5178257086019706 157.0 0.0 72.0 
84.00010179366993 488.0 NaN 620.996659986641 0.5327061031644706 144.0 0.0 72.0 
86.00010179366993 488.0 NaN 620.9859719438875 0.6094074334307419 142.0 0.0 72.0 
88.00010179366993 491.0 NaN 620.9806279225123 0.506727765261753 146.0 0.0 72.0 
90.00010179366993 488.0 NaN 617.9158316633273 0.5128440624001972 145.0 0.0 71.0 
92.00010179366993 486.0 NaN 617.9158316633273 0.5181356781278077 145.0 0.0 71.0 
94.00010179366993 484.0 NaN 617.9211756847031 0.4873359269959781 140.0 0.0 71.0 
96.00010179366993 486.0 NaN 617.9158316633273 0.5085742495657419 138.0 0.0 71.0 
98.00010179366993 489.0 NaN 617.929191716767 0.5308594151133024 136.0 0.0 71.0 
100.00010179366993 488.0 NaN 614.8430193720772 0.5882514569521148 136.0 0.0 70.0 
102.00010179366993 481.0 NaN 614.8430193720772 0.5117655708608717 132.0 0.0 70.0 
104.00010179366993 488.0 NaN 614.851035404141 0.4807138479168148 129.0 0.0 70.0 
106.00010179366993 489.0 NaN 614.8617234468943 0.4887831757163699 128.0 0.0 70.0 
108.00010179366993 495.0 NaN 614.8750835003332 0.5159242856059217 127.0 0.0 70.0 
110.00010179366993 498.0 NaN 617.929191716767 0.5808507981562204 128.0 0.0 71.0 
112.00010179366993 494.0 NaN 605.6539746158988 0.5472575791477577 125.0 0.0 67.0 
114.00010179366993 488.0 NaN 605.6593186372743 0.5063758751403765 126.0 0.0 67.0 
116.00010179366993 486.0 NaN 599.5297261189046 0.49387035039120875 122.0 0.0 65.0 
118.00010179366993 485.0 NaN 602.64796259185 0.4992949002568845 122.0 0.0 66.0 
120.00010179366993 486.0 NaN 599.5911823647289 0.5326478797587879 121.0 0.0 65.0 
122.00010179366993 485.0 NaN 599.5724782899136 0.5281179764251378 122.0 0.0 65.0 
124.00010179366993 489.0 NaN 596.5290581162322 0.5159657223160239 124.0 0.0 64.0 
126.00010179366993 490.0 NaN 596.5103540414163 0.4725846985694517 123.0 0.0 64.0 
128.00010179366993 501.0 NaN 602.6319305277224 0.5131415205944843 126.0 0.0 66.0 
130.00010179366993 510.0 NaN 602.642618570474 0.5632507453617719 129.0 0.0 66.0 
132.00010179366993 502.0 NaN 602.6239144956587 0.5280054211341119 127.0 0.0 66.0 
134.00010179366993 501.0 NaN 602.6185704742818 0.4912475270806795 127.0 0.0 66.0 
136.00010179366993 504.0 NaN 602.6052104208413 0.5023822585543826 124.0 0.0 66.0 
138.00010179366993 506.0 NaN 602.642618570474 0.5012184853447603 125.0 0.0 66.0 
140.00010179366993 508.0 NaN 605.7314629258518 0.5429580147220199 125.0 0.0 67.0 
142.00010179366993 509.0 NaN 605.7581830327317 0.5354311706838809 125.0 0.0 67.0 
144.00010179366993 510.0 NaN 611.8851035404136 0.4909548900614741 126.0 0.0 69.0 
146.00010179366993 510.0 NaN 608.7989311957244 0.4939030435742051 127.0 0.0 68.0 
148.00010179366993 519.0 NaN 608.7935871743485 0.5547363309132216 128.0 0.0 68.0 
150.00010179366993 527.0 NaN 605.7421509686042 0.6063177193442909 126.0 0.0 67.0 
152.00010179366993 515.0 NaN 605.7661990647957 0.5418755524930042 125.0 0.0 67.0 
154.00010179366993 514.0 NaN 602.6586506346025 0.5165345163676348 126.0 0.0 66.0 
156.00010179366993 514.0 NaN 602.6292585170345 0.5216893702582663 126.0 0.0 66.0 
158.00010179366993 508.0 NaN 605.7127588510359 0.5039238945660541 129.0 0.0 67.0 
160.00010179366993 512.0 NaN 605.6860387441545 0.5702301647962809 129.0 0.0 67.0 
162.00010179366993 510.0 NaN 608.7641950567804 0.5764976409148733 128.0 0.0 68.0 
164.00010179366993 502.0 NaN 602.6346025384097 0.5383665109962817 127.0 0.0 66.0 
166.00010179366993 502.0 NaN 605.7261189044756 0.5871611233872884 126.0 0.0 67.0 
168.00010179366993 499.0 NaN 605.678022712091 0.5796816752242588 131.0 0.0 67.0 
170.00010179366993 502.0 NaN 605.6673346693386 0.5847900913752181 133.0 0.0 67.0 
172.00010179366993 497.0 NaN 605.6726786907142 0.5282819354785245 132.0 0.0 67.0 
174.00010179366993 504.0 NaN 602.6052104208414 0.5476133436692222 133.0 0.0 66.0 
176.00010179366993 501.0 NaN 602.6212424849704 0.5718318957677487 133.0 0.0 66.0 
178.00010179366993 497.0 NaN 599.5377421509681 0.5575996036018267 131.0 0.0 65.0 
180.00010179366993 501.0 NaN 605.704742818971 0.6186340480769073 133.0 0.0 67.0 
182.00010179366993 493.0 NaN 605.6593186372749 0.5794211276841645 129.0 0.0 67.0 
184.00010179366993 493.0 NaN 608.729458917836 0.5925648169632611 131.0 0.0 68.0 
186.00010179366993 496.0 NaN 611.7942551770208 0.5736381651623346 131.0 0.0 69.0 
188.00010179366993 494.0 NaN 614.923179692718 0.5327799452448833 130.0 0.0 70.0 
190.00010179366993 499.0 NaN 624.1416165664664 0.5530585827954079 130.0 0.0 73.0 
192.00010179366993 497.0 NaN 621.0714762859045 0.5286793296454955 128.0 0.0 72.0 
194.00010179366993 500.0 NaN 621.0233800935201 0.49346736047789097 129.0 0.0 72.0 
196.00010179366993 502.0 NaN 621.0020040080161 0.526930953193602 129.0 0.0 72.0 
198.00010179366993 506.0 NaN 624.080160320641 0.5435035021438641 130.0 0.0 73.0 
200.00010179366993 504.0 NaN 624.0935203740819 0.5181099578138126 129.0 0.0 73.0 
202.00010179366993 505.0 NaN 617.9372077488313 0.5153658199202973 127.0 0.0 71.0 
204.00010179366993 504.0 NaN 627.1636606546429 0.5295517641246943 127.0 0.0 74.0 
206.00010179366993 507.0 NaN 627.1877087508349 0.5839228646363651 126.0 0.0 74.0 
208.00010179366993 505.0 NaN 627.1877087508349 0.5485563891973735 127.0 0.0 74.0 
210.00010179366993 515.0 NaN 627.1743486973953 0.5693844134397494 125.0 0.0 74.0 
212.00010179366993 516.0 NaN 630.2578490313956 0.5914555615144377 126.0 0.0 75.0 
214.00010179366993 508.0 NaN 627.2090848363395 0.5500837274672422 125.0 0.0 74.0 
216.00010179366993 505.0 NaN 627.1716766867063 0.5704227937059296 125.0 0.0 74.0 
218.00010179366993 504.0 NaN 627.177020708082 0.5104532234193833 125.0 0.0 74.0 
220.00010179366993 510.0 NaN 627.2064128256515 0.5463767997884411 126.0 0.0 74.0 
222.00010179366993 502.0 NaN 624.1095524382092 0.5473823718051337 125.0 0.0 73.0 
224.00010179366993 498.0 NaN 621.0180360721454 0.5447551626481891 123.0 0.0 72.0 
226.00010179366993 495.0 NaN 621.0287241148956 0.5465685045478266 123.0 0.0 72.0 
228.00010179366993 499.0 NaN 624.1015364061454 0.5694523844325807 123.0 0.0 73.0 
230.00010179366993 502.0 NaN 624.1015364061454 0.6128407876097457 123.0 0.0 73.0 
232.00010179366993 495.0 NaN 624.0881763527046 0.6072989716509105 120.0 0.0 73.0 
234.00010179366993 493.0 NaN 621.0180360721454 0.5672498187712371 120.0 0.0 72.0 
236.00010179366993 490.0 NaN 617.9398797595184 0.5097989760183763 116.0 0.0 71.0 
238.00010179366993 494.0 NaN 617.953239812959 0.5379452120948987 118.0 0.0 71.0 
240.00010179366993 500.0 NaN 617.9719438877754 0.5758950391192397 120.0 0.0 71.0 
242.00010179366993 504.0 NaN 614.8857715430864 0.5609208909222039 120.0 0.0 70.0 
244.00010179366993 504.0 NaN 617.9853039412155 0.514356896277449 120.0 0.0 71.0 
246.00010179366993 507.0 NaN 617.9826319305272 0.5382704077738985 120.0 0.0 71.0 
248.00010179366993 512.0 NaN 614.9044756179026 0.5223033621267219 121.0 0.0 70.0 
250.00010179366993 514.0 NaN 617.9719438877754 0.5216445320872045 122.0 0.0 71.0 
252.00010179366993 518.0 NaN 621.0447561790244 0.5730048629331538 122.0 0.0 72.0 
254.00010179366993 523.0 NaN 621.0207080828317 0.5646945055143014 121.0 0.0 72.0 
256.00010179366996 517.0 NaN 624.0721442885774 0.5285217552174869 122.0 0.0 73.0 
258.00010179366996 516.0 NaN 624.0908483633939 0.5440971514247579 123.0 0.0 73.0 
260.00010179366996 513.0 NaN 624.1042084168333 0.5559646877815674 123.0 0.0 73.0 
262.00010179366996 511.0 NaN 624.0828323313286 0.5441179272612868 122.0 0.0 73.0 
264.00010179366996 508.0 NaN 624.0961923847696 0.6062707652038406 122.0 0.0 73.0 
266.00010179366996 506.0 NaN 624.0988643954577 0.6209938809231279 121.0 0.0 73.0 
268.00010179366996 501.0 NaN 624.1469605878423 0.548798086666062 122.0 0.0 73.0 
270.00010179366996 500.0 NaN 624.090848363394 0.5598515421961461 122.0 0.0 73.0 
272.00010179366996 501.0 NaN 624.1255845023377 0.5531462127012904 121.0 0.0 73.0 
274.00010179366996 499.0 NaN 624.0801603206409 0.5407446076616936 120.0 0.0 73.0 
276.00010179366996 496.0 NaN 624.0774883099532 0.5257977757144235 120.0 0.0 73.0 
278.00010179366996 503.0 NaN 624.0668002671999 0.5599118908545728 120.0 0.0 73.0 
280.00010179366996 507.0 NaN 617.9211756847026 0.5840339581710056 121.0 0.0 71.0 
282.00010179366996 504.0 NaN 617.9158316633273 0.5558177809665137 118.0 0.0 71.0 
284.00010179366996 503.0 NaN 611.8183032732138 0.5629235013670548 118.0 0.0 69.0 
286.00010179366996 503.0 NaN 611.7755511022046 0.5533114649663682 117.0 0.0 69.0 
288.00010179366996 511.0 NaN 614.8884435537744 0.5189681829476772 118.0 0.0 70.0 
290.00010179366996 510.0 NaN 608.7214428857709 0.5104817636707718 116.0 0.0 68.0 
292.00010179366996 511.0 NaN 608.7267869071472 0.5306254762388262 116.0 0.0 68.0 
294.00010179366996 504.0 NaN 602.5918503674018 0.5173468935656276 116.0 0.0 66.0 
296.00010179366996 507.0 NaN 599.5404141616564 0.5423801588409162 115.0 0.0 65.0 
298.00010179366996 508.0 NaN 599.5511022044092 0.6264806699558997 113.0 0.0 65.0 
300.00010179366996 502.0 NaN 599.5457581830319 0.6297809264014921 110.0 0.0 65.0 
302.00010179366996 494.0 NaN 602.6426185704744 0.6090067424704065 114.0 0.0 66.0 
304.00010179366996 482.0 NaN 602.6533066132272 0.5528069803319577 114.0 0.0 66.0 
306.00010179366996 482.0 NaN 605.7875751502999 0.555163130340155 115.0 0.0 67.0 
308.00010179366996 483.0 NaN 605.7314629258518 0.5487566558164175 113.0 0.0 67.0 
310.00010179366996 479.0 NaN 605.723446893788 0.5538786439865171 109.0 0.0 67.0 
312.00010179366996 476.0 NaN 605.6860387441544 0.483771946336305 108.0 0.0 67.0 
314.00010179366996 478.0 NaN 605.6993987975956 0.5147378267644359 108.0 0.0 67.0 
316.00010179366996 479.0 NaN 605.6967267869073 0.5502838403716348 108.0 0.0 67.0 
318.00010179366996 483.0 NaN 605.6993987975956 0.5694340996207837 109.0 0.0 67.0 
320.00010179366996 480.0 NaN 605.707414829659 0.5722248782688824 109.0 0.0 67.0 
322.00010179366996 478.0 NaN 605.6539746158984 0.5648875066061041 108.0 0.0 67.0 
324.00010179366996 477.0 NaN 596.454241816968 0.5959013827863948 108.0 0.0 64.0 
326.00010179366996 474.0 NaN 596.4435537742154 0.5829869889848612 108.0 0.0 64.0 
328.00010179366996 474.0 NaN 587.2678690714771 0.570708044885763 107.0 0.0 61.0 
330.00010179366996 481.0 NaN 590.327321309286 0.5592599362697815 108.0 0.0 62.0 
332.00010179366996 478.0 NaN 590.3086172344686 0.5281567346729712 108.0 0.0 62.0 
334.00010179366996 477.0 NaN 590.3086172344686 0.5189186784846681 107.0 0.0 62.0 
336.00010179366996 481.0 NaN 593.3734134936547 0.49527393503966355 107.0 0.0 63.0 
338.00010179366996 490.0 NaN 590.3193052772209 0.5467176492596962 112.0 0.0 62.0 
340.00010179366996 498.0 NaN 590.3193052772209 0.6191400869780979 112.0 0.0 62.0 
342.00010179366996 493.0 NaN 590.3433533734137 0.6063204103778597 111.0 0.0 62.0 
344.00010179366996 484.0 NaN 590.295257181029 0.532734415671414 111.0 0.0 62.0 
346.00010179366996 488.0 NaN 593.3760855043411 0.5344335036217435 110.0 0.0 63.0 
348.00010179366996 490.0 NaN 593.4161656646636 0.5691350846219413 111.0 0.0 63.0 
350.00010179366996 489.0 NaN 593.4241816967274 0.6477717698603165 112.0 0.0 63.0 
352.00010179366996 490.0 NaN 590.3513694054772 0.6668294085370883 112.0 0.0 62.0 
354.00010179366996 476.0 NaN 590.3112892451571 0.563265556538397 112.0 0.0 62.0 
356.00010179366996 479.0 NaN 590.3006012024044 0.5415916382881504 112.0 0.0 62.0 
358.00010179366996 488.0 NaN 587.23580494322 0.5126740803729406 114.0 0.0 61.0 
360.00010179366996 487.0 NaN 587.2464929859725 0.5406819657621458 111.0 0.0 61.0 
362.00010179366996 486.0 NaN 584.1816967267862 0.551922091824723 108.0 0.0 60.0 
364.00010179366996 477.0 NaN 584.1816967267862 0.5278741611950424 107.0 0.0 60.0 
366.00010179366996 478.0 NaN 584.1816967267862 0.5342887985844098 107.0 0.0 60.0 
368.00010179366996 482.0 NaN 581.1169004676024 0.5560255305853032 108.0 0.0 59.0 
370.00010179366996 483.0 NaN 574.9712758851036 0.5936040431529308 108.0 0.0 57.0 
372.00010179366996 484.0 NaN 574.9712758851036 0.6173471401412491 108.0 0.0 57.0 
374.00010179366996 479.0 NaN 581.1489645958584 0.5676315491442522 109.0 0.0 59.0 
376.00010179366996 473.0 NaN 581.1516366065464 0.5424294500954149 109.0 0.0 59.0 
378.00010179366996 476.0 NaN 584.2404809619235 0.5297984351163838 108.0 0.0 60.0 
380.00010179366996 479.0 NaN 587.3026052104206 0.5693220136762521 108.0 0.0 61.0 
382.00010179366996 479.0 NaN 587.2972611890448 0.5673537513821206 107.0 0.0 61.0 
384.00010179366996 475.0 NaN 587.2945891783568 0.5346783579760546 106.0 0.0 61.0 
386.00010179366996 472.0 NaN 587.2839011356045 0.5710175624587029 106.0 0.0 61.0 
388.00010179366996 468.0 NaN 590.3967935871743 0.5118721612664696 107.0 0.0 62.0 
390.00010179366996 473.0 NaN 593.4642618570476 0.5467724614287568 108.0 0.0 63.0 
392.00010179366996 478.0 NaN 599.5991983967934 0.587627512524681 109.0 0.0 65.0 
394.00010179366996 481.0 NaN 605.7368069472271 0.5402103656249166 112.0 0.0 67.0 
396.00010179366996 480.0 NaN 605.7100868403471 0.5209570459264594 114.0 0.0 67.0 
398.00010179366996 484.0 NaN 605.7020708082833 0.5466823592546951 115.0 0.0 67.0 
400.00010179366996 485.0 NaN 608.7828991315954 0.585251041923269 115.0 0.0 68.0 
402.00010179366996 487.0 NaN 608.8096192384774 0.6398073231178594 116.0 0.0 68.0 
404.00010179366996 487.0 NaN 614.9766199064801 0.6378024259699799 119.0 0.0 70.0 
406.00010179366996 480.0 NaN 614.9338677354709 0.5210671425269392 116.0 0.0 70.0 
408.00010179366996 486.0 NaN 614.9392117568469 0.5425395248436033 116.0 0.0 70.0 
410.00010179366996 488.0 NaN 614.9285237140956 0.5438640819442655 118.0 0.0 70.0 
412.00010179366996 492.0 NaN 614.9525718102867 0.5410207102236783 117.0 0.0 70.0 
414.00010179366996 493.0 NaN 614.9258517034074 0.564694821052322 118.0 0.0 70.0 
416.00010179366996 495.0 NaN 614.9418837675349 0.6289883619938669 118.0 0.0 70.0 
418.00010179366996 495.0 NaN 618.0253841015362 0.5547583861642364 119.0 0.0 71.0 
420.00010179366996 495.0 NaN 621.0955243820971 0.5711014504351892 121.0 0.0 72.0 
422.00010179366996 500.0 NaN 621.0474281897135 0.5896673405315404 122.0 0.0 72.0 
424.00010179366996 506.0 NaN 630.2311289245149 0.5301779224720456 124.0 0.0 75.0 
426.00010179366996 508.0 NaN 633.3279893119577 0.555928951960662 127.0 0.0 76.0 
428.00010179366996 510.0 NaN 633.3493653974623 0.5715917458488199 130.0 0.0 76.0 
430.00010179366996 506.0 NaN 633.3306613226455 0.6097483625197281 130.0 0.0 76.0 
432.00010179366996 492.0 NaN 633.3386773547089 0.5662775316585726 129.0 0.0 76.0 
434.00010179366996 490.0 NaN 633.3012692050773 0.5376638463508278 128.0 0.0 76.0 
436.00010179366996 494.0 NaN 639.5030060120237 0.5706451694155108 125.0 0.0 78.0 
438.00010179366996 487.0 NaN 636.4221776887101 0.5661748283286201 126.0 0.0 77.0 
440.00010179366996 486.0 NaN 639.470941883768 0.6130716345345419 126.0 0.0 78.0 
442.00010179366996 484.0 NaN 639.4175016700058 0.6229165855765273 126.0 0.0 78.0 
444.00010179366996 483.0 NaN 642.4983299933192 0.5168620402823588 126.0 0.0 79.0 
446.00010179366996 488.0 NaN 642.4983299933192 0.5500118837490358 128.0 0.0 79.0 
448.00010179366996 497.0 NaN 642.530394121577 0.625398980079108 130.0 0.0 79.0 
450.00010179366996 485.0 NaN 642.5143620574487 0.6254594315811495 130.0 0.0 79.0 
452.00010179366996 488.0 NaN 639.4308617234464 0.6204923787329024 127.0 0.0 78.0 
454.00010179366996 493.0 NaN 642.5277221108877 0.5933576902045126 127.0 0.0 79.0 
456.00010179366996 486.0 NaN 636.4141616566465 0.5772707741043583 127.0 0.0 77.0 
458.00010179366996 491.0 NaN 639.4522378089513 0.5709296608724274 129.0 0.0 78.0 
460.00010179366996 498.0 NaN 639.4308617234466 0.5597311896181764 129.0 0.0 78.0 
462.00010179366996 498.0 NaN 642.5170340681364 0.6251954825421655 129.0 0.0 79.0 
464.00010179366996 490.0 NaN 639.4362057448226 0.6165054816224512 127.0 0.0 78.0 
466.00010179366996 481.0 NaN 639.4255177020714 0.5173142842712932 127.0 0.0 78.0 
468.00010179366996 487.0 NaN 636.36873747495 0.5372422022388341 125.0 0.0 77.0 
470.00010179366996 488.0 NaN 636.3393453573818 0.5997776772594433 126.0 0.0 77.0 
472.00010179366996 485.0 NaN 636.3179692718774 0.6486971767919407 125.0 0.0 77.0 
474.00010179366996 479.0 NaN 636.3527054108228 0.591237732994492 124.0 0.0 77.0 
476.00010179366996 469.0 NaN 630.1776887107544 0.5380807738463507 123.0 0.0 75.0 
478.00010179366996 476.0 NaN 627.1102204408819 0.564535139081337 123.0 0.0 74.0 
480.00010179366996 474.0 NaN 627.1102204408819 0.563105970384734 123.0 0.0 74.0 
482.00010179366996 476.0 NaN 627.0941883767547 0.6162698601288364 123.0 0.0 74.0 
484.00010179366996 472.0 NaN 627.1102204408819 0.5907021238936323 123.0 0.0 74.0 
486.00010179366996 465.0 NaN 627.1102204408819 0.5173652334956419 122.0 0.0 74.0 
488.00010179366996 462.0 NaN 627.0835003340012 0.5263591580816124 123.0 0.0 74.0 
490.00010179366996 473.0 NaN 630.1910487641956 0.5493293539372164 123.0 0.0 75.0 
492.00010179366996 484.0 NaN 621.0153640614564 0.5370335171930387 125.0 0.0 72.0 
494.00010179366996 482.0 NaN 614.8750835003336 0.5366341133168029 123.0 0.0 70.0 
496.00010179366996 475.0 NaN 614.85370741483 0.5344491270102841 122.0 0.0 70.0 
498.00010179366996 476.0 NaN 611.791583166332 0.5216933019168406 121.0 0.0 69.0 
500.00010179366996 482.0 NaN 611.8263193052774 0.5543769387421141 120.0 0.0 69.0 
502.00010179366996 484.0 NaN 605.678022712091 0.5981318283116105 119.0 0.0 67.0 
504.00010179366996 478.0 NaN 605.6887107548429 0.5787129610935412 118.0 0.0 67.0 
506.00010179366996 466.0 NaN 605.678022712091 0.48629107962701773 117.0 0.0 67.0 
508.00010179366996 469.0 NaN 602.5704742818974 0.4954348200884308 117.0 0.0 66.0 
510.00010179366996 479.0 NaN 590.303273213093 0.5171996942327354 116.0 0.0 62.0 
512.00010179367 480.0 NaN 590.2818971275886 0.5646475816025551 117.0 0.0 62.0 
514.00010179367 479.0 NaN 590.2872411489645 0.6145506743637827 117.0 0.0 62.0 
516.00010179367 467.0 NaN 590.2818971275886 0.5286865516723678 115.0 0.0 62.0 
518.00010179367 466.0 NaN 584.1736806947226 0.520588045443398 112.0 0.0 60.0 
520.00010179367 472.0 NaN 587.2464929859719 0.5447020524960052 112.0 0.0 61.0 
522.00010179367 472.0 NaN 584.1710086840349 0.5325134285535166 112.0 0.0 60.0 
524.00010179367 465.0 NaN 578.0547762191048 0.5055083865383261 111.0 0.0 58.0 
526.00010179367 465.0 NaN 578.0280561122246 0.5338855949621071 107.0 0.0 58.0 
528.00010179367 463.0 NaN 578.046760187041 0.5280159099268797 106.0 0.0 58.0 
530.00010179367 467.0 NaN 574.9819639278558 0.5560559325213739 105.0 0.0 57.0 
532.00010179367 473.0 NaN 574.9899799599198 0.5557049152884527 109.0 0.0 57.0 
534.00010179367 475.0 NaN 578.0921843687374 0.5828977590877664 108.0 0.0 58.0 
536.00010179367 474.0 NaN 578.1082164328659 0.5437375254687506 105.0 0.0 58.0 
538.00010179367 472.0 NaN 578.1349365397461 0.5152343148921258 103.0 0.0 58.0 
540.00010179367 474.0 NaN 578.0761523046091 0.5756460567273137 101.0 0.0 58.0 
542.00010179367 472.0 NaN 578.1002004008016 0.5864961543029976 101.0 0.0 58.0 
544.00010179367 470.0 NaN 581.194388777555 0.566377253565658 101.0 0.0 59.0 
546.00010179367 468.0 NaN 581.189044756179 0.5339646977789605 101.0 0.0 59.0 
548.00010179367 470.0 NaN 578.0841683366734 0.5788532166657204 101.0 0.0 58.0 
550.00010179367 471.0 NaN 578.0788243152973 0.5665965387948408 102.0 0.0 58.0 
552.00010179367 468.0 NaN 578.0681362725451 0.5288279808232624 100.0 0.0 58.0 
554.00010179367 480.0 NaN 581.1516366065466 0.5762525583241365 101.0 0.0 59.0 
556.00010179367 478.0 NaN 581.1462925851705 0.5756156654157072 102.0 0.0 59.0 
558.00010179367 474.0 NaN 581.1703406813626 0.5512778643501625 102.0 0.0 59.0 
560.00010179367 473.0 NaN 581.1436205744823 0.5495388429987044 102.0 0.0 59.0 
562.00010179367 475.0 NaN 581.1356045424182 0.5852271627816505 103.0 0.0 59.0 
564.00010179367 476.0 NaN 575.0006680026721 0.5852247325033273 105.0 0.0 57.0 
566.00010179367 466.0 NaN 574.9899799599198 0.5350692627828298 105.0 0.0 57.0 
568.00010179367 466.0 NaN 578.052104208417 0.5745936020156898 106.0 0.0 58.0 
570.00010179367 466.0 NaN 578.065464261857 0.5450562113919234 106.0 0.0 58.0 
572.00010179367 472.0 NaN 581.1489645958584 0.6215339604425215 106.0 0.0 59.0 
574.00010179367 469.0 NaN 578.1108884435538 0.562925873617121 105.0 0.0 58.0 
576.00010179367 465.0 NaN 578.0734802939212 0.5682733894983186 105.0 0.0 58.0 
578.00010179367 457.0 NaN 578.0627922511693 0.5359858178555102 105.0 0.0 58.0 
580.00010179367 469.0 NaN 578.0788243152973 0.5483962846735926 106.0 0.0 58.0 
582.00010179367 472.0 NaN 574.992651970608 0.5569175427213006 104.0 0.0 57.0 
584.00010179367 481.0 NaN 571.9278557114227 0.6425316820885539 104.0 0.0 56.0 
586.00010179367 471.0 NaN 571.930527722111 0.5570199147238012 105.0 0.0 56.0 
588.00010179367 465.0 NaN 571.930527722111 0.547161152916938 104.0 0.0 56.0 
590.00010179367 473.0 NaN 581.138276553106 0.6031395969049551 106.0 0.0 59.0 
592.00010179367 470.0 NaN 581.1516366065465 0.6133124709985699 106.0 0.0 59.0 
594.00010179367 471.0 NaN 581.1462925851705 0.5356858529935653 105.0 0.0 59.0 
596.00010179367 471.0 NaN 578.0627922511693 0.5280011780762368 104.0 0.0 58.0 
598.00010179367 471.0 NaN 578.0895123580498 0.5430770822291737 105.0 0.0 58.0 
600.00010179367 482.0 NaN 578.0868403473614 0.5724142835808242 106.0 0.0 58.0 
602.00010179367 484.0 NaN 578.070808283233 0.680829197228233 106.0 0.0 58.0 
604.00010179367 483.0 NaN 581.1810287241149 0.708197590442343 105.0 0.0 59.0 
606.00010179367 479.0 NaN 581.1329325317298 0.6317824214977342 103.0 0.0 59.0 
608.00010179367 481.0 NaN 581.1329325317298 0.5529739203529256 104.0 0.0 59.0 
610.00010179367 490.0 NaN 590.383433533734 0.56916434912388 105.0 0.0 62.0 
612.00010179367 489.0 NaN 590.3914495657978 0.575032557731902 107.0 0.0 62.0 
614.00010179367 482.0 NaN 590.3780895123583 0.5435568761412161 107.0 0.0 62.0 
616.00010179367 484.0 NaN 590.3380093520371 0.5988202570842498 107.0 0.0 62.0 
618.00010179367 486.0 NaN 587.2839011356045 0.5967014252483669 107.0 0.0 61.0 
620.00010179367 489.0 NaN 593.4054776219104 0.6022495572837244 109.0 0.0 63.0 
622.00010179367 481.0 NaN 590.3754175016703 0.5858993766319522 109.0 0.0 62.0 
624.00010179367 481.0 NaN 584.2565130260523 0.5909400077853341 109.0 0.0 60.0 
626.00010179367 484.0 NaN 593.4989979959918 0.5518124861361489 109.0 0.0 63.0 
628.00010179367 488.0 NaN 599.6232464929864 0.5904482150539266 112.0 0.0 65.0 
630.00010179367 492.0 NaN 599.6499665998658 0.636416710526838 113.0 0.0 65.0 
632.00010179367 492.0 NaN 602.7762191048766 0.6553689179716893 115.0 0.0 66.0 
634.00010179367 475.0 NaN 602.7361389445563 0.5569317129232203 115.0 0.0 66.0 
636.00010179367 478.0 NaN 602.7040748162995 0.5574573548045093 116.0 0.0 66.0 
638.00010179367 491.0 NaN 605.7314629258524 0.5721714693336084 116.0 0.0 67.0 
640.00010179367 498.0 NaN 611.8824315297265 0.5669594455976179 119.0 0.0 69.0 
642.00010179367 488.0 NaN 611.9225116900469 0.5352276507943478 119.0 0.0 69.0 
644.00010179367 488.0 NaN 611.8744154976621 0.5616253078360927 120.0 0.0 69.0 
646.00010179367 484.0 NaN 617.971943887775 0.5246617232276012 124.0 0.0 71.0 
648.00010179367 488.0 NaN 621.0501002004007 0.5830764547002151 129.0 0.0 72.0 
650.00010179367 490.0 NaN 621.0661322645294 0.6610044143578147 131.0 0.0 72.0 
652.00010179367 482.0 NaN 624.1255845023379 0.5841039786396405 131.0 0.0 73.0 
654.00010179367 483.0 NaN 627.2358049432198 0.5346635107785735 132.0 0.0 74.0 
656.00010179367 487.0 NaN 630.2925851703409 0.5883619812110843 131.0 0.0 75.0 
658.00010179367 491.0 NaN 630.3006012024044 0.5775318484914961 129.0 0.0 75.0 
660.00010179367 489.0 NaN 630.2631930527725 0.5576829144433554 134.0 0.0 75.0 
662.00010179367 491.0 NaN 633.3653974615901 0.5815278526793806 134.0 0.0 76.0 
664.00010179367 497.0 NaN 633.3466933867735 0.6372778252450083 132.0 0.0 76.0 
#####################################################################
# End of data export. Simulation finished at: 2019-03-07T13:09+0000 #
#####################################################################
