#####################################################################
# Alchemist log file - simulation started at: 2019-03-14T13:09+0000 #
#####################################################################
# seed = 6.0, bandwidth = 2.3713737056616552E7, propagationDelay = 0.1, baserange = 177.82794100389228
#
# The columns have the following meaning: 
# time neighbor_count[Sum] <value>@neighbor_count[Sum] packet_size[Mean] mean_delay[Mean] crowd[Sum] overcrowded[Sum] risk[Sum] 
0.0 NaN NaN NaN NaN NaN NaN NaN 
2.0007099204035526 26441.0 NaN 4995.2651970607885 0.501969090947844 1497.0 0.0 1497.0 
4.000709920403552 26546.0 NaN 4994.428857715431 0.5046519136291745 1493.0 4.0 1493.0 
6.000709920403551 26546.0 NaN 4993.9986639946555 0.5046518862992222 1493.0 4.0 1493.0 
8.000709920403551 26548.0 NaN 4994.591850367401 0.5044134217058613 1494.0 3.0 1494.0 
10.000709920403551 26550.0 NaN 4995.2892451569805 0.5044109583615027 1494.0 3.0 1494.0 
12.000709920403551 26554.0 NaN 4994.984635938544 0.5043937719877941 1495.0 2.0 1495.0 
14.000709920403551 26554.0 NaN 4994.602538410154 0.5070696153021572 1496.0 1.0 1496.0 
16.000709920403555 26547.0 NaN 4994.800267201069 0.5053050867311464 1495.0 2.0 1495.0 
18.000709920403555 26568.0 NaN 4995.182364729459 0.5053520238732148 1495.0 2.0 1495.0 
20.000709920403555 26564.0 NaN 4995.716766867067 0.5065682176343246 1495.0 2.0 1495.0 
22.000709920403555 26562.0 NaN 4994.808283233133 0.5043663373872368 1495.0 2.0 1495.0 
24.000709920403555 26560.0 NaN 4994.693386773547 0.5043284175344327 1495.0 2.0 1495.0 
26.000709920403555 26583.0 NaN 4994.367401469606 0.5058703091202871 1495.0 2.0 1495.0 
28.000709920403555 26602.0 NaN 4995.299933199733 0.5046564586017704 1496.0 1.0 1496.0 
30.000709920403555 26603.0 NaN 4995.76753507014 0.5043768356420364 1496.0 1.0 1496.0 
32.00070992040355 26609.0 NaN 4994.981963927856 0.505302547287719 1495.0 2.0 1495.0 
34.00070992040355 26606.0 NaN 4994.26586506346 0.5036577799067061 1495.0 2.0 1495.0 
36.00070992040355 26614.0 NaN 4994.629258517034 0.5061443354184451 1495.0 2.0 1495.0 
38.00070992040355 26632.0 NaN 4994.939211756847 0.5066065132787188 1495.0 2.0 1495.0 
40.00070992040355 26626.0 NaN 4995.943887775551 0.5039889728456066 1495.0 2.0 1495.0 
42.00070992040355 26637.0 NaN 4995.163660654643 0.5044055960091435 1496.0 1.0 1496.0 
44.00070992040355 26634.0 NaN 4994.663994655979 0.5041620142195185 1495.0 2.0 1495.0 
46.00070992040355 26643.0 NaN 4994.442217768871 0.5072696441080807 1495.0 2.0 1495.0 
48.00070992040355 26671.0 NaN 4995.075484301938 0.5053979629684504 1495.0 2.0 1495.0 
50.00070992040355 26657.0 NaN 4995.462925851703 0.5037956570581326 1495.0 2.0 1495.0 
52.00070992040355 26666.0 NaN 4994.952571810287 0.5040134093048236 1495.0 2.0 1495.0 
54.00070992040355 26663.0 NaN 4994.575818303273 0.503811301853184 1495.0 2.0 1495.0 
56.00070992040355 26660.0 NaN 4994.802939211757 0.5080966983945707 1496.0 1.0 1496.0 
58.00070992040355 26665.0 NaN 4995.070140280561 0.5040834851997372 1496.0 1.0 1496.0 
60.00070992040355 26636.0 NaN 4995.850367401469 0.5039793174319427 1496.0 1.0 1496.0 
62.00051644604778 26650.0 NaN 1525.6513026052094 0.5035721793407056 787.0 1.0 365.0 
64.00051644604778 26653.0 NaN 1525.6940547762183 0.5034729632549946 621.0 6.0 360.0 
66.00051644604777 26715.0 NaN 1525.5684702738818 0.5082302143988336 575.0 8.0 358.0 
68.00051644604777 26725.0 NaN 1528.7508350033393 0.5025530196310898 545.0 7.0 360.0 
70.00051644604777 26707.0 NaN 1528.7668670674698 0.5023929888925902 526.0 8.0 359.0 
72.00051644604777 26730.0 NaN 1528.7962591850362 0.5025076912029283 518.0 13.0 354.0 
74.00051644604777 26733.0 NaN 1531.7434869739477 0.5022783356144418 512.0 17.0 351.0 
76.00051644604777 26810.0 NaN 1534.8430193720787 0.5052389803808357 512.0 17.0 352.0 
78.00051644604777 26785.0 NaN 1534.8029392117548 0.5034383526479201 511.0 16.0 353.0 
80.00051644604777 26784.0 NaN 1534.8884435537732 0.5026867447151864 514.0 14.0 355.0 
82.00051644604777 26790.0 NaN 1534.9338677354724 0.5030840398492678 515.0 14.0 355.0 
84.00051644604777 26770.0 NaN 1537.9559118236457 0.5023315598745276 514.0 15.0 355.0 
86.00051644604777 26797.0 NaN 1537.902471609888 0.5043362835803308 511.0 15.0 355.0 
88.00051644604777 26770.0 NaN 1537.873079492318 0.5021064436479543 512.0 14.0 356.0 
90.00051644604777 26767.0 NaN 1537.9505678022724 0.501267597749319 514.0 14.0 356.0 
92.00051644604777 26777.0 NaN 1537.9532398129606 0.5027495630146535 514.0 14.0 356.0 
94.00051644604777 26774.0 NaN 1537.873079492318 0.5015622979633687 514.0 14.0 356.0 
96.00051644604777 26772.0 NaN 1537.9291917167664 0.5061726121582193 514.0 14.0 356.0 
98.00051644604777 26727.0 NaN 1541.0020040080178 0.5023239455655916 512.0 16.0 355.0 
100.00051644604777 26738.0 NaN 1541.0768203072819 0.5033063550204488 511.0 16.0 355.0 
102.00051644604777 26770.0 NaN 1540.9672678690724 0.5037640095880487 510.0 16.0 355.0 
104.00051644604777 26760.0 NaN 1540.9512358049453 0.5036883086918629 511.0 15.0 356.0 
106.00051644604777 26771.0 NaN 1537.8223112892456 0.5041541040972046 510.0 15.0 355.0 
108.00051644604777 26758.0 NaN 1540.8897795591183 0.5024707348069948 512.0 15.0 356.0 
110.00051644604777 26759.0 NaN 1540.9325317301273 0.5031694974940921 510.0 17.0 354.0 
112.00051644604777 26771.0 NaN 1540.993987975952 0.5038629740456186 508.0 20.0 351.0 
114.00051644604777 26745.0 NaN 1540.8496993987978 0.5059939399851038 513.0 15.0 356.0 
116.00051644604777 26748.0 NaN 1543.9973279893118 0.5036064993946779 514.0 16.0 356.0 
118.00051644604777 26722.0 NaN 1540.8496993987976 0.5032702294672746 511.0 19.0 352.0 
120.00051644604777 26701.0 NaN 1540.919171676688 0.5033612903933532 513.0 17.0 354.0 
122.00051644604777 26723.0 NaN 1540.8790915163659 0.5032207642424829 511.0 18.0 353.0 
124.00051644604777 26697.0 NaN 1540.9378757515026 0.5025869350297896 510.0 19.0 352.0 
126.00051644604777 26689.0 NaN 1537.8223112892456 0.5032597911401929 512.0 17.0 353.0 
128.00051644604775 26669.0 NaN 1537.8436873747485 0.5036757486804989 510.0 18.0 352.0 
130.00051644604775 26641.0 NaN 1537.7234468937882 0.5044005975671618 508.0 19.0 351.0 
132.00051644604775 26676.0 NaN 1537.835671342685 0.5036804162935457 508.0 17.0 353.0 
134.00051644604775 26654.0 NaN 1537.739478957916 0.5029947325655856 507.0 17.0 353.0 
136.00051644604775 26655.0 NaN 1534.8136272545091 0.504692563422053 504.0 18.0 351.0 
138.00051644604775 26649.0 NaN 1534.8350033400122 0.5043726433433031 506.0 16.0 353.0 
140.00051644604775 26622.0 NaN 1534.8884435537732 0.5021606966497467 504.0 17.0 352.0 
142.00051644604775 26652.0 NaN 1537.945223780894 0.5027789080863171 503.0 18.0 352.0 
144.00051644604775 26638.0 NaN 1540.895123580494 0.5020758520880005 505.0 15.0 356.0 
146.00051644604775 26644.0 NaN 1540.8924515698066 0.5029807159029351 505.0 16.0 355.0 
148.00051644604775 26646.0 NaN 1544.016032064127 0.5028827082199627 504.0 19.0 353.0 
150.00051644604775 26619.0 NaN 1543.9599198396795 0.5038431982136827 506.0 16.0 356.0 
152.00051644604775 26643.0 NaN 1550.2070808283245 0.5021393030451269 508.0 16.0 358.0 
154.00051644604775 26630.0 NaN 1541.0100200400816 0.5021584250279948 509.0 16.0 355.0 
156.00051644604775 26618.0 NaN 1537.9318637274544 0.502966024346525 507.0 18.0 352.0 
158.00051644604775 26623.0 NaN 1537.857047428191 0.5034578889695664 507.0 18.0 352.0 
160.00051644604775 26592.0 NaN 1537.9532398129606 0.5020360701004676 503.0 19.0 351.0 
162.00051644604775 26603.0 NaN 1540.9111556446212 0.5037551977174171 507.0 15.0 356.0 
164.00051644604775 26569.0 NaN 1540.919171676688 0.5038609831855229 506.0 17.0 354.0 
166.00051644604775 26576.0 NaN 1537.8864395457574 0.5046496414078915 506.0 16.0 354.0 
168.00051644604775 26559.0 NaN 1541.0447561790247 0.5046081422798515 507.0 14.0 357.0 
170.00051644604775 26530.0 NaN 1541.0340681362727 0.5023364136494085 505.0 15.0 356.0 
172.00051644604775 26528.0 NaN 1541.0901803607205 0.5046422611140984 505.0 16.0 355.0 
174.00051644604775 26512.0 NaN 1537.8436873747482 0.502093028221324 506.0 14.0 356.0 
176.00051644604775 26523.0 NaN 1537.934535738143 0.5031464077058702 506.0 15.0 355.0 
178.00051644604775 26491.0 NaN 1540.9726118904455 0.5028812306848971 504.0 17.0 354.0 
180.00051644604775 26444.0 NaN 1541.0821643286572 0.5041486900433028 505.0 15.0 356.0 
182.00051644604775 26450.0 NaN 1540.9726118904455 0.5041841381526272 504.0 16.0 355.0 
184.00051644604775 26426.0 NaN 1541.0367401469612 0.5050145536625807 503.0 16.0 355.0 
186.00051644604775 26458.0 NaN 1534.8350033400118 0.5037857350061841 504.0 14.0 355.0 
188.00051644604775 26436.0 NaN 1534.8724114896452 0.5042507854120813 503.0 14.0 355.0 
190.00051644604775 26393.0 NaN 1534.86706746827 0.5026075384872494 502.0 14.0 355.0 
192.00051644604775 26383.0 NaN 1534.7922511690058 0.5024596896216496 503.0 15.0 354.0 
194.00051644604775 26357.0 NaN 1537.8650634602548 0.503313838711524 504.0 14.0 356.0 
196.00051644604775 26377.0 NaN 1537.9211756847028 0.5021162727758754 502.0 17.0 353.0 
198.00051644604775 26353.0 NaN 1537.9345357381428 0.5024789740069243 502.0 17.0 353.0 
200.00051644604775 26331.0 NaN 1537.9559118236457 0.5018554836950743 504.0 15.0 355.0 
202.00051644604775 26325.0 NaN 1537.9265197060793 0.5031277627774066 506.0 14.0 356.0 
204.00051644604775 26320.0 NaN 1537.8623914495638 0.5038679586528262 502.0 17.0 353.0 
206.00051644604775 26295.0 NaN 1534.8109552438207 0.5083308248911195 502.0 16.0 353.0 
208.00051644604775 26266.0 NaN 1534.8911155644635 0.5028733527851554 500.0 14.0 355.0 
210.00051644604775 26252.0 NaN 1534.9445557782244 0.5087790222982398 502.0 12.0 357.0 
212.00051644604775 26248.0 NaN 1534.885771543085 0.505310322191407 502.0 13.0 356.0 
214.00051644604775 26229.0 NaN 1534.8537074148294 0.5054110439226484 503.0 12.0 357.0 
216.00051644604775 26217.0 NaN 1528.716098864397 0.5039600378025287 503.0 15.0 352.0 
218.00051644604775 26185.0 NaN 1528.6546426185726 0.5067432490027611 500.0 16.0 351.0 
220.00051644604775 26121.0 NaN 1528.6680026720094 0.5044729002245372 503.0 13.0 354.0 
222.00051644604775 26114.0 NaN 1522.4502338009365 0.5038471687618451 502.0 14.0 351.0 
224.00051644604775 26098.0 NaN 1522.4822979291907 0.5061953332056041 499.0 17.0 348.0 
226.00051644604775 26075.0 NaN 1528.6519706078818 0.5097008823344408 499.0 17.0 350.0 
228.00051644604775 26054.0 NaN 1534.9338677354729 0.5068606064650267 497.0 16.0 353.0 
230.00051644604775 26043.0 NaN 1534.9338677354729 0.5044588816943559 493.0 19.0 350.0 
232.00051644604775 26046.0 NaN 1534.9445557782244 0.5062845064086421 495.0 17.0 352.0 
234.00051644604775 26016.0 NaN 1534.8243152972614 0.5043357419968258 495.0 17.0 352.0 
236.00051644604775 26016.0 NaN 1537.947895791582 0.5074288560567517 497.0 16.0 354.0 
238.00051644604775 25996.0 NaN 1537.9398797595181 0.5079276063112673 496.0 16.0 354.0 
240.00051644604775 25969.0 NaN 1534.8510354041425 0.5065086429773343 498.0 15.0 354.0 
242.00051644604775 25962.0 NaN 1534.8590514362063 0.5045691930188323 499.0 15.0 354.0 
244.00051644604775 25962.0 NaN 1531.7675350701393 0.5053577179995176 497.0 17.0 351.0 
246.00051644604775 25942.0 NaN 1528.673346693388 0.5055670303296528 496.0 18.0 349.0 
248.00051644604775 25923.0 NaN 1528.6412825651298 0.5044054119367514 494.0 18.0 349.0 
250.00051644604775 25895.0 NaN 1522.597194388779 0.5026476162418397 493.0 18.0 347.0 
252.00051644604775 25892.0 NaN 1522.586506346027 0.5031906821576996 494.0 14.0 351.0 
254.00051644604775 25881.0 NaN 1522.5731462925846 0.503495153507628 496.0 15.0 350.0 
256.0005164460478 25890.0 NaN 1522.5597862391458 0.5045006536498636 494.0 15.0 350.0 
258.0005164460478 25870.0 NaN 1519.4923179692728 0.5059833624969955 495.0 17.0 347.0 
260.0005164460478 25819.0 NaN 1516.4114896459575 0.5036666736052894 494.0 16.0 347.0 
262.0005164460478 25788.0 NaN 1519.4843019372088 0.5048750183822972 496.0 15.0 349.0 
264.0005164460478 25750.0 NaN 1519.4602538410156 0.5045797832547959 500.0 14.0 350.0 
266.0005164460478 25750.0 NaN 1522.5811623246484 0.5037174515964064 499.0 16.0 349.0 
268.0005164460478 25783.0 NaN 1531.7942551770204 0.5076543936699215 499.0 13.0 355.0 
270.0005164460478 25664.0 NaN 1531.8663994656 0.5042549039101341 497.0 14.0 354.0 
272.0005164460478 25652.0 NaN 1531.7327989311977 0.504895016959287 498.0 13.0 355.0 
274.0005164460478 25630.0 NaN 1528.643954575818 0.506676330342117 495.0 15.0 352.0 
276.0005164460478 25644.0 NaN 1528.5584502338 0.5050669701052888 497.0 13.0 354.0 
278.0005164460478 25677.0 NaN 1531.751503006011 0.5060417039325157 498.0 14.0 354.0 
280.0005164460478 25642.0 NaN 1531.8156312625274 0.5045281948372338 501.0 14.0 354.0 
282.0005164460478 25633.0 NaN 1534.8350033400113 0.5064926109007176 498.0 16.0 353.0 
284.0005164460478 25606.0 NaN 1534.7628590514364 0.507522280879649 499.0 14.0 355.0 
286.0005164460478 25638.0 NaN 1531.6793587174363 0.506746767001527 495.0 17.0 351.0 
288.0005164460478 25598.0 NaN 1525.5871743486975 0.5066703744076562 496.0 16.0 350.0 
290.0005164460478 25570.0 NaN 1525.6165664662635 0.5050448295141138 498.0 16.0 350.0 
292.0005164460478 25550.0 NaN 1525.5738142952569 0.5057408856199954 499.0 14.0 352.0 
294.0005164460478 25530.0 NaN 1522.5597862391458 0.509162557620965 497.0 16.0 349.0 
296.0005164460478 25558.0 NaN 1522.468937875752 0.5055081288491909 498.0 14.0 351.0 
298.0005164460478 25564.0 NaN 1531.7728790915182 0.5054347694283413 496.0 14.0 354.0 
300.0005164460478 25533.0 NaN 1534.8857715430847 0.5044393625261674 497.0 12.0 357.0 
302.0005164460478 25517.0 NaN 1534.8403473613907 0.5063586655785809 494.0 16.0 353.0 
304.0005164460478 25495.0 NaN 1525.5871743486978 0.5058152888130414 495.0 14.0 352.0 
306.0005164460478 25505.0 NaN 1525.5524382097544 0.5064450653845166 490.0 18.0 348.0 
308.0005164460478 25487.0 NaN 1531.7675350701386 0.508212267365735 490.0 16.0 352.0 
310.0005164460478 25448.0 NaN 1534.8857715430847 0.5074970921626398 490.0 17.0 352.0 
312.0005164460478 25432.0 NaN 1534.7815631262545 0.5070618436299554 491.0 16.0 353.0 
314.0005164460478 25413.0 NaN 1534.8216432865727 0.506443189345465 490.0 16.0 353.0 
316.0005164460478 25387.0 NaN 1531.7354709418819 0.5094272792484368 496.0 13.0 355.0 
318.0005164460478 25367.0 NaN 1531.7862391449548 0.5065911733250191 490.0 16.0 352.0 
320.0005164460478 25345.0 NaN 1531.778223112891 0.5046655648924625 493.0 15.0 353.0 
322.0005164460478 25342.0 NaN 1534.8029392117546 0.5050543651341342 492.0 16.0 353.0 
324.0005164460478 25329.0 NaN 1531.6740146960574 0.5045561594248532 491.0 16.0 352.0 
326.0005164460478 25332.0 NaN 1537.8597194388792 0.5076592194553953 491.0 16.0 354.0 
328.0005164460478 25309.0 NaN 1537.8249832999338 0.5045140087718979 491.0 15.0 355.0 
330.0005164460478 25296.0 NaN 1534.8563794255183 0.5033993584962204 492.0 17.0 352.0 
332.0005164460478 25293.0 NaN 1534.835003340012 0.5063254842441333 495.0 15.0 354.0 
334.0005164460478 25278.0 NaN 1534.7842351369393 0.5052125069809974 494.0 17.0 352.0 
336.0005164460478 25282.0 NaN 1525.603206412827 0.5026713009420769 496.0 15.0 351.0 
338.0005164460478 25317.0 NaN 1531.7862391449548 0.5033487152606565 496.0 15.0 353.0 
340.0005164460478 25297.0 NaN 1525.5337341349364 0.5022543378426737 495.0 15.0 351.0 
342.0005164460478 25313.0 NaN 1522.4849699398812 0.5047789952135482 492.0 16.0 349.0 
344.0005164460478 25295.0 NaN 1519.3987975951911 0.5067488645699311 493.0 15.0 349.0 
346.0005164460478 25295.0 NaN 1519.5083500334 0.5031677398838995 493.0 17.0 347.0 
348.0005164460478 25291.0 NaN 1522.5571142284566 0.504710958545268 500.0 14.0 351.0 
350.0005164460478 25264.0 NaN 1522.5384101536395 0.5031330185650325 496.0 16.0 349.0 
352.0005164460478 25280.0 NaN 1522.5170340681366 0.5030036135552141 496.0 16.0 349.0 
354.0005164460478 25264.0 NaN 1522.4956579826332 0.505127232807549 494.0 17.0 348.0 
356.0005164460478 25285.0 NaN 1522.4261857047431 0.5053100166940532 495.0 16.0 349.0 
358.0005164460478 25272.0 NaN 1522.567802271209 0.5078270024205658 497.0 16.0 349.0 
360.0005164460478 25234.0 NaN 1528.6920507682023 0.503929441679746 499.0 14.0 353.0 
362.0005164460478 25237.0 NaN 1525.672678690715 0.5053991458481655 500.0 16.0 350.0 
364.0005164460478 25199.0 NaN 1525.6513026052096 0.5042020618950227 503.0 14.0 352.0 
366.0005164460478 25199.0 NaN 1519.4068136272545 0.5052863845446942 501.0 16.0 348.0 
368.0005164460478 25177.0 NaN 1516.3927855711431 0.5039270033353591 500.0 16.0 347.0 
370.0005164460478 25157.0 NaN 1513.293253173012 0.5034760699990656 502.0 16.0 346.0 
372.0005164460478 25152.0 NaN 1513.2852371409476 0.5063037603587001 502.0 15.0 347.0 
374.0005164460478 25114.0 NaN 1513.2291249165 0.5081065345726108 501.0 17.0 345.0 
376.0005164460478 25124.0 NaN 1507.0861723446899 0.5069727232280673 501.0 16.0 344.0 
378.0005164460478 25113.0 NaN 1510.2017368069467 0.5051770297029177 503.0 17.0 344.0 
380.0005164460478 25085.0 NaN 1510.2979291917175 0.5040267159246984 505.0 14.0 347.0 
382.0005164460478 25080.0 NaN 1516.3660654642629 0.5076928889025323 504.0 15.0 348.0 
384.0005164460478 25068.0 NaN 1522.5116900467606 0.5066060190576964 506.0 15.0 350.0 
386.0005164460478 25087.0 NaN 1519.3854375417511 0.5037328914056416 505.0 16.0 348.0 
388.0005164460478 25099.0 NaN 1528.6065464261849 0.5060500456281151 507.0 15.0 352.0 
390.0005164460478 25050.0 NaN 1525.5925183700729 0.5055141382832077 503.0 17.0 349.0 
392.0005164460478 25037.0 NaN 1522.4689378757523 0.5080215812177018 506.0 15.0 350.0 
394.0005164460478 25014.0 NaN 1516.3259853039424 0.5071687734624915 504.0 17.0 346.0 
396.0005164460478 25027.0 NaN 1510.273881095525 0.5050169986342974 507.0 14.0 347.0 
398.0005164460478 25027.0 NaN 1510.2792251169 0.506266040462741 504.0 17.0 344.0 
400.0005164460478 24994.0 NaN 1513.360053440215 0.5061440433424133 505.0 15.0 347.0 
402.0005164460478 24977.0 NaN 1519.462925851703 0.5056588690722704 506.0 16.0 348.0 
404.0005164460478 24971.0 NaN 1525.5845023380089 0.5028890801885186 507.0 17.0 349.0 
406.0005164460478 25001.0 NaN 1525.6272545090183 0.504693827351281 506.0 17.0 349.0 
408.0005164460478 24985.0 NaN 1522.5838343353362 0.5049762120106682 508.0 16.0 349.0 
410.0005164460478 24956.0 NaN 1525.6566466265874 0.5047957681783027 505.0 16.0 350.0 
412.0005164460478 24941.0 NaN 1534.8670674682703 0.5057750228439177 510.0 13.0 356.0 
414.0005164460478 24931.0 NaN 1534.8483633934547 0.5034203869019626 508.0 16.0 353.0 
416.0005164460478 24969.0 NaN 1531.7354709418823 0.5043521402096774 510.0 15.0 353.0 
418.0005164460478 24957.0 NaN 1528.7000668002668 0.5060408767390622 509.0 15.0 352.0 
420.0005164460478 24912.0 NaN 1531.7995991983976 0.5026937643573819 509.0 16.0 352.0 
422.0005164460478 24903.0 NaN 1522.4876419505667 0.5044625049251266 513.0 16.0 349.0 
424.0005164460478 24868.0 NaN 1516.3714094856373 0.5033012941803313 512.0 15.0 348.0 
426.0005164460478 24903.0 NaN 1516.31529726119 0.506485109072805 506.0 17.0 346.0 
428.0005164460478 24878.0 NaN 1513.3066132264537 0.5074792842279218 503.0 15.0 347.0 
430.0005164460478 24831.0 NaN 1513.2959251837 0.5029012645413653 503.0 18.0 344.0 
432.0005164460478 24829.0 NaN 1510.2471609886445 0.503753135462022 502.0 17.0 344.0 
434.0005164460478 24813.0 NaN 1513.2692050768192 0.5052490472699225 506.0 14.0 348.0 
436.0005164460478 24831.0 NaN 1528.5718102872424 0.5037584808872816 508.0 18.0 349.0 
438.0005164460478 24841.0 NaN 1534.717434869739 0.5045707675330602 513.0 16.0 353.0 
440.0005164460478 24821.0 NaN 1534.6800267201088 0.5029504006565436 512.0 17.0 352.0 
442.0005164460478 24838.0 NaN 1531.6793587174361 0.5037926749961902 513.0 16.0 352.0 
444.0005164460478 24824.0 NaN 1531.6820307281243 0.5049493243603118 515.0 14.0 354.0 
446.0005164460478 24880.0 NaN 1544.0106880427525 0.5073975140463031 517.0 15.0 357.0 
448.0005164460478 24872.0 NaN 1550.263193052773 0.5059860052030299 513.0 19.0 355.0 
450.0005164460478 24856.0 NaN 1543.9973279893115 0.503726739556049 514.0 17.0 355.0 
452.0005164460478 24865.0 NaN 1547.0273881095545 0.5046493046914474 510.0 19.0 354.0 
454.0005164460478 24839.0 NaN 1547.0567802271207 0.5050960245458523 512.0 17.0 356.0 
456.0005164460478 24875.0 NaN 1553.2692050768183 0.5043532061919619 512.0 16.0 359.0 
458.0005164460478 24863.0 NaN 1553.2264529058116 0.5033673075253302 513.0 15.0 360.0 
460.0005164460478 24860.0 NaN 1550.2070808283245 0.5042519784837963 514.0 15.0 359.0 
462.0005164460478 24863.0 NaN 1550.1670006680026 0.503710005586384 515.0 15.0 359.0 
464.0005164460478 24839.0 NaN 1550.1536406145638 0.5033893704024258 512.0 18.0 356.0 
466.0005164460478 24842.0 NaN 1543.9732798931182 0.5052143641326012 512.0 16.0 356.0 
468.0005164460478 24835.0 NaN 1540.8924515698066 0.506539010695826 509.0 18.0 353.0 
470.0005164460478 24810.0 NaN 1534.8162992651976 0.5019034694219463 509.0 17.0 352.0 
472.0005164460478 24826.0 NaN 1534.7922511690058 0.5031328986588555 509.0 18.0 351.0 
474.0005164460478 24821.0 NaN 1531.6820307281243 0.5009878819809803 507.0 19.0 349.0 
476.0005164460478 24860.0 NaN 1525.605878423512 0.5028645877574991 501.0 18.0 348.0 
478.0005164460478 24853.0 NaN 1525.5711422845698 0.5037963146634535 504.0 15.0 351.0 
480.0005164460478 24818.0 NaN 1525.5631262525062 0.5013266892850837 504.0 15.0 351.0 
482.0005164460478 24833.0 NaN 1525.4856379425523 0.501485609683244 504.0 15.0 351.0 
484.0005164460478 24833.0 NaN 1522.3754175016704 0.5037460452900819 504.0 15.0 350.0 
486.0005164460478 24853.0 NaN 1513.1783567134273 0.5026438754646575 504.0 15.0 347.0 
488.0005164460478 24898.0 NaN 1507.0915163660645 0.5029678617608068 500.0 15.0 345.0 
490.0005164460478 24883.0 NaN 1501.0073480293916 0.5022694031145802 499.0 15.0 343.0 
492.0005164460478 24894.0 NaN 1501.0501002004 0.5028636547296528 497.0 14.0 344.0 
494.0005164460478 24881.0 NaN 1494.8029392117558 0.5048321233574055 495.0 15.0 341.0 
496.0005164460478 24884.0 NaN 1494.84034736139 0.5046699539350799 489.0 17.0 339.0 
498.0005164460478 24900.0 NaN 1491.7007348029383 0.5030101926323448 494.0 15.0 340.0 
500.0005164460478 24901.0 NaN 1491.7301269205084 0.5029199043424124 490.0 19.0 336.0 
502.0005164460478 24921.0 NaN 1497.9398797595184 0.5060361587350888 497.0 16.0 341.0 
504.0005164460478 24888.0 NaN 1491.7354709418828 0.5054452118546763 496.0 17.0 338.0 
506.0005164460478 24875.0 NaN 1501.023380093519 0.5024488125186155 498.0 16.0 342.0 
508.0005164460478 24888.0 NaN 1501.0207080828332 0.5030423879710764 503.0 14.0 344.0 
510.0005164460478 24881.0 NaN 1494.8296593186365 0.5032618100501093 500.0 17.0 339.0 
512.0005164460478 24901.0 NaN 1497.9612558450242 0.5026168888060105 499.0 18.0 339.0 
514.0005164460479 24935.0 NaN 1494.7949231796918 0.5014845769297428 498.0 19.0 337.0 
516.0005164460479 24963.0 NaN 1476.376753507015 0.5024702031942246 498.0 16.0 334.0 
518.0005164460479 24941.0 NaN 1479.4335337341356 0.504443893668954 498.0 15.0 336.0 
520.0005164460479 24936.0 NaN 1479.5644622578482 0.5067008564026975 499.0 14.0 337.0 
522.0005164460479 24962.0 NaN 1479.5003340013363 0.5031095947995529 498.0 15.0 336.0 
524.0005164460479 24986.0 NaN 1467.1930527722102 0.5060289186467747 493.0 16.0 331.0 
526.0005164460479 24997.0 NaN 1461.0554442217758 0.5019438493438624 492.0 16.0 329.0 
528.0005164460479 24997.0 NaN 1467.2117568470271 0.5008884814243856 494.0 16.0 331.0 
530.0005164460479 25005.0 NaN 1464.1336005344012 0.5017724058486933 498.0 17.0 329.0 
532.0005164460479 24994.0 NaN 1467.2384769539083 0.5026281469072393 497.0 16.0 331.0 
534.0005164460479 24972.0 NaN 1470.2177688710747 0.5036341357779666 496.0 16.0 332.0 
536.0005164460479 24990.0 NaN 1467.2678690714756 0.5031797106650195 497.0 14.0 333.0 
538.0005164460479 24974.0 NaN 1467.174348697394 0.5021515387415258 499.0 15.0 332.0 
540.0005164460479 24980.0 NaN 1470.3406813627262 0.5032736571395453 498.0 15.0 333.0 
542.0005164460479 24990.0 NaN 1467.2571810287247 0.5033380617889288 498.0 16.0 331.0 
544.0005164460479 24965.0 NaN 1467.3186372745483 0.505216574022288 499.0 15.0 332.0 
546.0005164460479 24966.0 NaN 1467.2545090180365 0.5028906879195008 500.0 16.0 331.0 
548.0005164460479 24977.0 NaN 1473.389445557782 0.5040019409975401 503.0 15.0 334.0 
550.0005164460479 24941.0 NaN 1473.2905811623252 0.5016762648673142 502.0 16.0 333.0 
552.0005164460479 24943.0 NaN 1473.3600534402146 0.5013922044943632 505.0 14.0 335.0 
554.0005164460479 24948.0 NaN 1473.2905811623252 0.5041077565956792 504.0 15.0 334.0 
556.0005164460479 24950.0 NaN 1464.1469605878426 0.5020993594063264 502.0 15.0 331.0 
558.0005164460479 25000.0 NaN 1461.079492317969 0.5030594527308099 499.0 16.0 329.0 
560.0005164460479 24994.0 NaN 1464.213760855044 0.5014100527688241 499.0 15.0 331.0 
562.0005164460479 24987.0 NaN 1461.0287241148962 0.501989287659684 497.0 16.0 329.0 
564.0005164460479 24988.0 NaN 1460.9699398797595 0.5036948961414575 494.0 15.0 330.0 
566.0005164460479 24974.0 NaN 1467.1422845691377 0.5030286043692442 496.0 16.0 331.0 
568.0005164460479 25019.0 NaN 1476.494321977288 0.5032146712926832 501.0 14.0 336.0 
570.0005164460479 24988.0 NaN 1476.4515698062794 0.5008401992376327 503.0 15.0 335.0 
572.0005164460479 24986.0 NaN 1476.486305945224 0.503556235238493 506.0 15.0 335.0 
574.0005164460479 24965.0 NaN 1482.5437541750173 0.5079260381065608 505.0 16.0 336.0 
576.0005164460479 24961.0 NaN 1491.8183032732122 0.5033790052671537 507.0 15.0 340.0 
578.0005164460479 25005.0 NaN 1488.689378757516 0.5051679878437025 505.0 16.0 338.0 
580.0005164460479 24982.0 NaN 1482.5571142284562 0.502187799147942 505.0 15.0 337.0 
582.0005164460479 25023.0 NaN 1488.6706746826992 0.5029509308115215 505.0 16.0 338.0 
584.0005164460479 25021.0 NaN 1488.7267869071468 0.5044819712757502 507.0 14.0 340.0 
586.0005164460479 25046.0 NaN 1491.8102872411482 0.5028013485299235 507.0 15.0 340.0 
588.0005164460479 25085.0 NaN 1498.0066800267193 0.5044667818158635 508.0 15.0 342.0 
590.0005164460479 25076.0 NaN 1501.0153640614558 0.5025070134718711 508.0 16.0 342.0 
592.0005164460479 25077.0 NaN 1501.068804275218 0.504080510288676 508.0 15.0 343.0 
594.0005164460479 25057.0 NaN 1500.9726118904468 0.5035689081356542 509.0 16.0 342.0 
596.0005164460479 25082.0 NaN 1497.8837675350708 0.5038545746302149 513.0 15.0 342.0 
598.0005164460479 25115.0 NaN 1494.7682030728117 0.5035819839558838 512.0 16.0 340.0 
600.0005164460479 25096.0 NaN 1497.979959919839 0.5009087020708541 512.0 14.0 343.0 
602.0005164460479 25123.0 NaN 1494.8082832331334 0.506279676048115 510.0 15.0 341.0 
604.0005164460479 25116.0 NaN 1494.802939211756 0.5033256117078918 512.0 15.0 341.0 
606.0005164460479 25161.0 NaN 1494.8136272545091 0.5088685801237752 511.0 16.0 340.0 
608.0005164460479 25151.0 NaN 1501.0394121576478 0.5027554585014896 511.0 15.0 343.0 
610.0005164460479 25127.0 NaN 1500.9966599866393 0.5030642927645723 508.0 16.0 342.0 
612.0005164460479 25131.0 NaN 1501.002004008017 0.5067945479582933 506.0 15.0 343.0 
614.0005164460479 25115.0 NaN 1503.981295925183 0.5030712656100926 506.0 16.0 343.0 
616.0005164460479 25167.0 NaN 1504.1496325985295 0.5017286055311485 509.0 15.0 344.0 
618.0005164460479 25173.0 NaN 1513.2852371409476 0.5028468581821876 508.0 16.0 346.0 
620.0005164460479 25124.0 NaN 1510.2471609886445 0.5007777869222769 507.0 15.0 346.0 
622.0005164460479 25130.0 NaN 1513.2959251837 0.5024432819742298 507.0 16.0 346.0 
624.0005164460479 25114.0 NaN 1516.406145624582 0.5047341452490997 511.0 14.0 349.0 
626.0005164460479 25161.0 NaN 1519.436205744824 0.503957364953993 507.0 15.0 349.0 
628.0005164460479 25153.0 NaN 1519.5404141616557 0.5035539518417963 506.0 15.0 349.0 
630.0005164460479 25099.0 NaN 1516.4008016032071 0.5012423092429873 503.0 17.0 346.0 
632.0005164460479 25111.0 NaN 1513.392117568471 0.5009828409049563 503.0 16.0 346.0 
634.0005164460479 25140.0 NaN 1516.3446893787566 0.5040491087147189 500.0 16.0 347.0 
636.0005164460479 25162.0 NaN 1510.3380093520366 0.5015530880422315 504.0 15.0 346.0 
638.0005164460479 25154.0 NaN 1513.3547094188373 0.502774905783597 505.0 15.0 347.0 
640.0005164460479 25113.0 NaN 1513.4589178356719 0.5033746392566814 507.0 14.0 348.0 
642.0005164460479 25096.0 NaN 1507.2758851035394 0.502016894201877 507.0 15.0 345.0 
644.0005164460479 25113.0 NaN 1510.4048096192378 0.5006768006936435 505.0 15.0 346.0 
646.0005164460479 25147.0 NaN 1516.5130260521032 0.5026523338044687 503.0 16.0 347.0 
648.0005164460479 25133.0 NaN 1516.4328657314636 0.5034346599035546 503.0 15.0 348.0 
650.0005164460479 25091.0 NaN 1516.4943219772888 0.5010319924907304 502.0 16.0 347.0 
652.0005164460479 25084.0 NaN 1516.5450901803615 0.5002120676787095 502.0 15.0 348.0 
654.0005164460479 25075.0 NaN 1516.4836339345363 0.5032211578282936 501.0 15.0 348.0 
656.0005164460479 25086.0 NaN 1538.0574482297923 0.501071627151396 505.0 14.0 356.0 
658.0005164460479 25090.0 NaN 1541.0875083500343 0.5024972855743963 503.0 15.0 356.0 
660.0005164460479 25036.0 NaN 1541.140948563794 0.5015795878855298 502.0 14.0 357.0 
662.0005164460479 25027.0 NaN 1544.1336005344012 0.5028945824201487 498.0 15.0 357.0 
664.0005164460479 25001.0 NaN 1544.1362725450908 0.5040321024852151 499.0 13.0 359.0 
#####################################################################
# End of data export. Simulation finished at: 2019-03-14T13:20+0000 #
#####################################################################
