#####################################################################
# Alchemist log file - simulation started at: 2019-03-14T01:27+0000 #
#####################################################################
# seed = 6.0, bandwidth = 5623413.251903491, propagationDelay = 0.03162277660168379, baserange = 100.0
#
# The columns have the following meaning: 
# time neighbor_count[Sum] <value>@neighbor_count[Sum] packet_size[Mean] mean_delay[Mean] crowd[Sum] overcrowded[Sum] risk[Sum] 
0.0 NaN NaN NaN NaN NaN NaN NaN 
2.000196580572309 13119.0 NaN 4996.472945891784 0.49845649149242616 1497.0 0.0 1497.0 
4.000196580572309 13126.0 NaN 4998.749498997996 0.49873919213864865 1491.0 6.0 1491.0 
6.000196580572309 13126.0 NaN 4996.390113560455 0.4987663313353466 1493.0 4.0 1493.0 
8.00019658057231 13127.0 NaN 4997.354709418838 0.49890906175508337 1486.0 11.0 1486.0 
10.000196580572307 13124.0 NaN 4996.066800267201 0.49883849861321955 1487.0 10.0 1487.0 
12.000196580572307 13122.0 NaN 4996.7454909819635 0.49873974588711484 1489.0 8.0 1489.0 
14.000196580572307 13122.0 NaN 4995.764863059452 0.5011933187268832 1489.0 8.0 1489.0 
16.000196580572307 13118.0 NaN 4996.7401469605875 0.49884474870158757 1486.0 11.0 1486.0 
18.000196580572307 13135.0 NaN 4995.3293253173015 0.4991071989263177 1485.0 12.0 1485.0 
20.000196580572307 13132.0 NaN 4996.243152972612 0.49888939337954613 1489.0 8.0 1489.0 
22.000196580572307 13139.0 NaN 4995.2839011356045 0.4986462496145128 1484.0 13.0 1484.0 
24.000196580572307 13140.0 NaN 4995.906479625918 0.4984805814891765 1486.0 11.0 1486.0 
26.000196580572307 13161.0 NaN 4995.11289245157 0.499473592071314 1491.0 6.0 1491.0 
28.000196580572307 13183.0 NaN 4996.082832331329 0.5009710236015777 1491.0 6.0 1491.0 
30.000196580572307 13176.0 NaN 4995.048764195057 0.49927096535688886 1490.0 7.0 1490.0 
32.00019658057231 13173.0 NaN 4995.895791583166 0.49870553851817623 1492.0 5.0 1492.0 
34.000196580572315 13176.0 NaN 4995.144956579827 0.49836742466617506 1492.0 5.0 1492.0 
36.000196580572315 13181.0 NaN 4995.561790247161 0.5018554418496567 1494.0 3.0 1494.0 
38.000196580572315 13198.0 NaN 4995.080828323314 0.49975395706018916 1493.0 4.0 1493.0 
40.000196580572315 13205.0 NaN 4995.834335337341 0.49878815126746967 1491.0 6.0 1491.0 
42.000196580572315 13208.0 NaN 4994.789579158317 0.49865173892590026 1493.0 4.0 1493.0 
44.000196580572315 13226.0 NaN 4995.778223112892 0.49934170584964793 1488.0 9.0 1488.0 
46.000196580572315 13234.0 NaN 4995.054108216433 0.5022900426577608 1490.0 7.0 1490.0 
48.000196580572315 13265.0 NaN 4995.641950567802 0.5003140233250825 1492.0 5.0 1492.0 
50.000196580572315 13250.0 NaN 4995.040748162993 0.4984944467389592 1489.0 8.0 1489.0 
52.000196580572315 13260.0 NaN 4995.674014696059 0.49930029183109287 1493.0 4.0 1493.0 
54.000196580572315 13254.0 NaN 4994.749498997996 0.49915059004158796 1490.0 7.0 1490.0 
56.000196580572315 13268.0 NaN 4995.735470941884 0.510098485562566 1490.0 7.0 1490.0 
58.000196580572315 13294.0 NaN 4995.032732130929 0.502062600127128 1493.0 4.0 1493.0 
60.000196580572315 13249.0 NaN 4995.486973947895 0.5003728104918577 1487.0 10.0 1487.0 
62.0001448713581 13251.0 NaN 1526.2792251169 0.5002790075971134 774.0 8.0 358.0 
64.00014487135809 13236.0 NaN 1526.0948563794268 0.49917161882629113 609.0 12.0 354.0 
66.00014487135809 13244.0 NaN 1525.977287909152 0.5014180065386814 567.0 12.0 354.0 
68.00014487135809 13261.0 NaN 1529.124916499666 0.49817956123769774 538.0 13.0 354.0 
70.00014487135809 13242.0 NaN 1529.0554442217758 0.4978579832259527 520.0 14.0 353.0 
72.00014487135809 13248.0 NaN 1529.119572478291 0.49900385078877363 510.0 22.0 345.0 
74.00014487135809 13245.0 NaN 1532.0026720106882 0.4981172051621288 514.0 15.0 353.0 
76.00014487135809 13309.0 NaN 1535.0327321309276 0.5012732900458383 513.0 17.0 352.0 
78.00014487135809 13291.0 NaN 1535.1289245156997 0.49858457007889034 513.0 14.0 355.0 
80.00014487135809 13278.0 NaN 1534.952571810288 0.5003546189093333 507.0 19.0 350.0 
82.00014487135809 13294.0 NaN 1535.1022044088184 0.5002614078049272 505.0 21.0 348.0 
84.00014487135809 13295.0 NaN 1538.0868403473635 0.5023594790015448 508.0 19.0 351.0 
86.00014487135809 13290.0 NaN 1538.0681362725456 0.5030943354289829 507.0 17.0 353.0 
88.00014487135809 13253.0 NaN 1538.140280561121 0.4984178145989199 511.0 15.0 355.0 
90.00014487135809 13253.0 NaN 1538.0681362725456 0.49824614121805727 503.0 24.0 346.0 
92.00014487135809 13269.0 NaN 1538.0440881763543 0.49976301490932906 508.0 19.0 351.0 
94.00014487135809 13249.0 NaN 1538.0788243152972 0.5013215862706527 508.0 19.0 351.0 
96.00014487135809 13251.0 NaN 1538.1536406145638 0.5023158008044002 509.0 18.0 352.0 
98.00014487135809 13213.0 NaN 1541.0821643286572 0.49705809337577483 511.0 16.0 355.0 
100.00014487135809 13219.0 NaN 1541.0634602538419 0.49728644814933864 510.0 16.0 355.0 
102.00014487135809 13228.0 NaN 1541.0794923179697 0.4995181194388913 508.0 18.0 353.0 
104.00014487135809 13218.0 NaN 1540.9913159652635 0.49756386641590333 512.0 13.0 358.0 
106.00014487135809 13236.0 NaN 1538.0360721442905 0.49934977551351445 506.0 20.0 350.0 
108.00014487135809 13230.0 NaN 1541.0527722110905 0.4993667327157114 506.0 21.0 350.0 
110.00014487135809 13242.0 NaN 1541.1356045424182 0.49737337330570186 512.0 13.0 358.0 
112.00014487135809 13278.0 NaN 1540.9512358049453 0.5033829017298157 509.0 19.0 352.0 
114.00014487135809 13251.0 NaN 1541.0741482965911 0.49774953220553236 518.0 10.0 361.0 
116.00014487135809 13261.0 NaN 1544.0400801603205 0.49920298647679184 513.0 17.0 355.0 
118.00014487135809 13267.0 NaN 1541.0501002003998 0.49940148748804475 512.0 17.0 354.0 
120.00014487135809 13269.0 NaN 1540.9645958583822 0.5015153153392949 518.0 11.0 360.0 
122.00014487135809 13286.0 NaN 1541.1088844355365 0.5001526926193477 514.0 16.0 355.0 
124.00014487135809 13280.0 NaN 1540.9485637942544 0.4959485971296994 521.0 9.0 362.0 
126.00014487135809 13281.0 NaN 1538.0868403473637 0.49680498683931157 513.0 17.0 353.0 
128.00014487135812 13293.0 NaN 1537.9372077488304 0.4980062223336716 511.0 17.0 353.0 
130.00014487135812 13271.0 NaN 1538.0387441549758 0.4962016638981594 516.0 11.0 359.0 
132.00014487135812 13280.0 NaN 1538.073480293921 0.4974970294328856 507.0 18.0 352.0 
134.00014487135812 13259.0 NaN 1537.9585838343364 0.4949635562970572 510.0 14.0 356.0 
136.00014487135812 13275.0 NaN 1535.070140280561 0.4972976652412464 500.0 21.0 348.0 
138.00014487135812 13283.0 NaN 1534.875083500334 0.498453588110188 503.0 19.0 350.0 
140.00014487135812 13232.0 NaN 1534.8857715430852 0.49616417686073766 506.0 13.0 356.0 
142.00014487135812 13264.0 NaN 1538.0146960587842 0.49644487575774576 501.0 19.0 351.0 
144.00014487135812 13277.0 NaN 1541.282565130261 0.4963353943052288 501.0 18.0 353.0 
146.00014487135812 13282.0 NaN 1544.3874415497664 0.5021651000220719 500.0 20.0 352.0 
148.00014487135812 13282.0 NaN 1544.2511690046756 0.5006821030526895 499.0 22.0 350.0 
150.00014487135812 13218.0 NaN 1544.3446893787573 0.4961692424350171 504.0 17.0 355.0 
152.00014487135812 13233.0 NaN 1550.2979291917181 0.4964425586429155 501.0 22.0 352.0 
154.00014487135812 13207.0 NaN 1541.1569806279215 0.49605623385827274 506.0 18.0 353.0 
156.00014487135812 13203.0 NaN 1538.2070808283243 0.4971548309103778 506.0 18.0 352.0 
158.00014487135812 13209.0 NaN 1538.0227120908482 0.5026383406271892 498.0 24.0 346.0 
160.00014487135812 13168.0 NaN 1537.9906479625906 0.4974001134460891 501.0 19.0 351.0 
162.00014487135812 13181.0 NaN 1541.0420841683363 0.4966826091002665 496.0 24.0 347.0 
164.00014487135812 13174.0 NaN 1541.0153640614549 0.4964110524630697 504.0 17.0 354.0 
166.00014487135812 13174.0 NaN 1538.1189044756184 0.4973403511314007 497.0 23.0 347.0 
168.00014487135812 13161.0 NaN 1541.119572478291 0.49722699535499504 497.0 22.0 349.0 
170.00014487135812 13132.0 NaN 1541.156980627921 0.4962279954962064 493.0 25.0 346.0 
172.00014487135812 13142.0 NaN 1541.148964595857 0.49565265811857195 497.0 23.0 348.0 
174.00014487135812 13134.0 NaN 1538.0120240480974 0.4957592901476074 497.0 22.0 348.0 
176.00014487135812 13125.0 NaN 1538.065464261857 0.49747956562722795 502.0 18.0 352.0 
178.00014487135812 13110.0 NaN 1541.0714762859063 0.5001795748784515 492.0 27.0 344.0 
180.00014487135812 13091.0 NaN 1541.0581162324638 0.4967547126882931 500.0 18.0 353.0 
182.00014487135812 13089.0 NaN 1541.052772211091 0.49704340031964706 504.0 15.0 356.0 
184.00014487135812 13086.0 NaN 1540.9752839011364 0.49592741765261583 502.0 16.0 355.0 
186.00014487135812 13096.0 NaN 1534.9873079492336 0.49946729307442966 497.0 20.0 349.0 
188.00014487135812 13086.0 NaN 1534.907147628591 0.4995096413853973 494.0 21.0 348.0 
190.00014487135812 13059.0 NaN 1534.9392117568457 0.49835919919716287 496.0 19.0 350.0 
192.00014487135812 13063.0 NaN 1534.9739478957908 0.4977551327381761 498.0 19.0 350.0 
194.00014487135812 13052.0 NaN 1538.0547762191063 0.49692616134805 495.0 22.0 348.0 
196.00014487135812 13071.0 NaN 1538.0654642618572 0.4981094139963804 502.0 16.0 354.0 
198.00014487135812 13057.0 NaN 1538.022712090848 0.4980640214989452 495.0 22.0 348.0 
200.00014487135812 13026.0 NaN 1538.030728122912 0.5046872791721974 498.0 19.0 351.0 
202.00014487135812 13012.0 NaN 1538.0601202404819 0.5034721956356366 502.0 17.0 353.0 
204.00014487135812 13007.0 NaN 1538.0040080160334 0.502502490471409 500.0 18.0 352.0 
206.00014487135812 13009.0 NaN 1535.056780227121 0.5020479787481404 495.0 22.0 347.0 
208.00014487135812 12985.0 NaN 1534.997995991982 0.5010036570874821 489.0 23.0 346.0 
210.00014487135812 12957.0 NaN 1534.9579158316637 0.5021234458176296 494.0 19.0 350.0 
212.00014487135812 12954.0 NaN 1534.9151636606543 0.49765350075113446 496.0 18.0 351.0 
214.00014487135812 12968.0 NaN 1534.8563794255183 0.4987791164853796 496.0 18.0 351.0 
216.00014487135812 12941.0 NaN 1528.7722110888458 0.4998155034270151 496.0 21.0 346.0 
218.00014487135812 12923.0 NaN 1528.761523046091 0.49844850768689414 500.0 14.0 353.0 
220.00014487135812 12886.0 NaN 1528.6199064796272 0.49650104713834 501.0 13.0 354.0 
222.00014487135812 12878.0 NaN 1522.6158984635933 0.4980674670482903 503.0 12.0 353.0 
224.00014487135812 12879.0 NaN 1522.4822979291907 0.49830252937219605 503.0 12.0 353.0 
226.00014487135812 12881.0 NaN 1531.8610554442212 0.5004209105889975 501.0 14.0 354.0 
228.00014487135812 12872.0 NaN 1535.0968603874426 0.49910057271116104 494.0 20.0 349.0 
230.00014487135812 12849.0 NaN 1534.8697394789574 0.49764864527531794 501.0 12.0 357.0 
232.00014487135812 12831.0 NaN 1534.86706746827 0.498405453628018 493.0 20.0 349.0 
234.00014487135812 12826.0 NaN 1534.7388109552455 0.5011263914539825 504.0 11.0 358.0 
236.00014487135812 12812.0 NaN 1538.0066800267182 0.5036642012052523 488.0 25.0 345.0 
238.00014487135812 12794.0 NaN 1537.9024716098882 0.500789168869527 496.0 18.0 352.0 
240.00014487135812 12758.0 NaN 1534.6853707414816 0.49778840128873036 493.0 18.0 351.0 
242.00014487135812 12760.0 NaN 1534.7014028056092 0.4978610901619995 491.0 21.0 348.0 
244.00014487135812 12758.0 NaN 1531.700734802939 0.49962505136260155 496.0 16.0 352.0 
246.00014487135812 12752.0 NaN 1528.7294589178364 0.5014120380007209 495.0 17.0 350.0 
248.00014487135812 12755.0 NaN 1528.6118904475634 0.500123112220699 495.0 16.0 351.0 
250.00014487135812 12719.0 NaN 1522.4315297261182 0.49743952955327164 491.0 18.0 347.0 
252.00014487135812 12708.0 NaN 1522.4342017368087 0.5002827061274085 488.0 20.0 345.0 
254.00014487135812 12707.0 NaN 1522.3567134268546 0.4973632366138989 499.0 10.0 355.0 
256.0001448713581 12713.0 NaN 1522.460921843688 0.49904383914203887 492.0 17.0 348.0 
258.00014487135815 12730.0 NaN 1519.3132932531726 0.4991148352457128 495.0 16.0 348.0 
260.00014487135815 12710.0 NaN 1519.3079492317975 0.5022632954337809 492.0 18.0 346.0 
262.00014487135815 12703.0 NaN 1519.369405477621 0.4984783236414009 489.0 24.0 340.0 
264.00014487135815 12691.0 NaN 1519.4148296593182 0.5000876827395181 493.0 21.0 343.0 
266.00014487135815 12708.0 NaN 1522.5010020040093 0.5013794003229687 492.0 22.0 343.0 
268.00014487135815 12709.0 NaN 1531.6793587174363 0.5002774055677864 489.0 22.0 346.0 
270.00014487135815 12666.0 NaN 1531.7060788243161 0.4973380352748784 486.0 24.0 344.0 
272.00014487135815 12649.0 NaN 1531.6900467601886 0.5003039303862207 490.0 20.0 348.0 
274.00014487135815 12624.0 NaN 1528.547762191048 0.5095492452980328 487.0 23.0 344.0 
276.00014487135815 12621.0 NaN 1528.643954575818 0.49816821874365025 491.0 19.0 348.0 
278.00014487135815 12664.0 NaN 1531.5163660654634 0.4997910245568633 489.0 22.0 346.0 
280.00014487135815 12637.0 NaN 1531.6072144288567 0.4992072830802687 492.0 22.0 346.0 
282.00014487135815 12617.0 NaN 1534.5865063460271 0.501943421847499 493.0 20.0 349.0 
284.00014487135815 12595.0 NaN 1534.607882431529 0.5017604789438319 491.0 22.0 347.0 
286.00014487135815 12583.0 NaN 1528.5370741482973 0.5026795588433852 489.0 22.0 345.0 
288.00014487135815 12573.0 NaN 1525.531062124248 0.501557384978608 491.0 21.0 345.0 
290.00014487135815 12540.0 NaN 1525.4428857715434 0.5003129442774157 490.0 23.0 343.0 
292.00014487135815 12508.0 NaN 1525.3974615898455 0.5000545654790344 490.0 23.0 343.0 
294.00014487135815 12499.0 NaN 1522.4128256513025 0.5037350455975956 493.0 20.0 345.0 
296.00014487135815 12507.0 NaN 1522.3380093520364 0.5012653239488268 492.0 21.0 344.0 
298.00014487135815 12504.0 NaN 1531.5404141616546 0.5012197700005936 493.0 18.0 350.0 
300.00014487135815 12478.0 NaN 1534.7628590514364 0.5008367669333254 489.0 21.0 348.0 
302.00014487135815 12475.0 NaN 1534.6265865063453 0.5009280630056502 486.0 23.0 346.0 
304.00014487135815 12461.0 NaN 1525.4615898463612 0.5074320326946096 490.0 19.0 347.0 
306.00014487135815 12445.0 NaN 1525.4134936539729 0.5019644188694848 485.0 23.0 343.0 
308.00014487135815 12455.0 NaN 1534.6319305277207 0.5041559754841944 487.0 21.0 348.0 
310.00014487135815 12429.0 NaN 1534.7254509018026 0.4986939176294463 486.0 22.0 347.0 
312.00014487135815 12446.0 NaN 1534.661322645291 0.5032116260658384 485.0 22.0 347.0 
314.00014487135815 12434.0 NaN 1534.613226452907 0.5028466831720868 483.0 24.0 345.0 
316.00014487135815 12422.0 NaN 1531.577822311291 0.49946471640883916 491.0 19.0 349.0 
318.00014487135815 12417.0 NaN 1531.730126920509 0.5012243488620268 486.0 22.0 346.0 
320.00014487135815 12405.0 NaN 1531.647294589179 0.49896331043726777 492.0 17.0 351.0 
322.00014487135815 12416.0 NaN 1534.7842351369393 0.5014411467829011 487.0 22.0 347.0 
324.00014487135815 12409.0 NaN 1531.623246492985 0.503306384487708 486.0 22.0 346.0 
326.00014487135815 12419.0 NaN 1537.8864395457572 0.5006799843277231 488.0 20.0 350.0 
328.00014487135815 12411.0 NaN 1537.8784235136934 0.5022645857322251 486.0 22.0 348.0 
330.00014487135815 12386.0 NaN 1534.7842351369393 0.5013889657831258 488.0 22.0 347.0 
332.00014487135815 12389.0 NaN 1534.6479625918516 0.5026827079097833 490.0 21.0 348.0 
334.00014487135815 12377.0 NaN 1534.8029392117546 0.49754989654842996 488.0 23.0 346.0 
336.00014487135815 12397.0 NaN 1525.5150300601185 0.4998235266829826 489.0 23.0 343.0 
338.00014487135815 12423.0 NaN 1531.6045424181702 0.5057895111508193 492.0 20.0 348.0 
340.00014487135815 12384.0 NaN 1525.5444221776906 0.4976776264943646 491.0 21.0 345.0 
342.00014487135815 12400.0 NaN 1522.4368737474938 0.5007875035807692 491.0 18.0 347.0 
344.00014487135815 12394.0 NaN 1519.4148296593182 0.49929000079703995 488.0 21.0 343.0 
346.00014487135815 12423.0 NaN 1519.3213092852363 0.49915272354168627 488.0 23.0 341.0 
348.00014487135815 12443.0 NaN 1522.4502338009365 0.5008623831640052 496.0 19.0 346.0 
350.00014487135815 12413.0 NaN 1522.4128256513025 0.49824594140164336 490.0 23.0 342.0 
352.00014487135815 12430.0 NaN 1522.332665330663 0.5006529178868063 491.0 21.0 344.0 
354.00014487135815 12407.0 NaN 1522.3780895123577 0.5003042305028824 489.0 22.0 343.0 
356.00014487135815 12425.0 NaN 1522.3486973947904 0.5037991643021478 488.0 22.0 343.0 
358.00014487135815 12447.0 NaN 1522.3460253841006 0.503136899573474 489.0 24.0 341.0 
360.00014487135815 12414.0 NaN 1528.5584502337997 0.5010480011001838 494.0 19.0 348.0 
362.00014487135815 12418.0 NaN 1525.4241816967274 0.5056355124039666 494.0 23.0 343.0 
364.00014487135815 12380.0 NaN 1525.4268537074151 0.5024289777968145 498.0 19.0 347.0 
366.00014487135815 12384.0 NaN 1516.3286573146281 0.5032384787336478 493.0 24.0 339.0 
368.00014487135815 12383.0 NaN 1516.1015364061454 0.5015037288296395 492.0 24.0 339.0 
370.00014487135815 12352.0 NaN 1513.1115564462264 0.49994960491841833 497.0 21.0 341.0 
372.00014487135815 12356.0 NaN 1513.1249164996655 0.5038049453993011 495.0 23.0 339.0 
374.00014487135815 12341.0 NaN 1513.1730126920515 0.5037141730241438 495.0 23.0 339.0 
376.00014487135815 12354.0 NaN 1506.9392117568464 0.5000336582134871 496.0 21.0 339.0 
378.00014487135815 12354.0 NaN 1510.0334001336 0.505524394914597 495.0 24.0 337.0 
380.00014487135815 12301.0 NaN 1510.0414161656638 0.4985657375413873 496.0 23.0 338.0 
382.00014487135815 12306.0 NaN 1516.2110888443547 0.5006216841220839 499.0 20.0 343.0 
384.00014487135815 12300.0 NaN 1522.415497661991 0.5066950890510403 500.0 22.0 343.0 
386.00014487135815 12302.0 NaN 1519.0968603874423 0.5084144604889325 503.0 19.0 345.0 
388.00014487135815 12314.0 NaN 1528.569138276554 0.5028228892634834 500.0 23.0 344.0 
390.00014487135815 12286.0 NaN 1525.4509018036083 0.501611664452145 496.0 25.0 341.0 
392.00014487135815 12297.0 NaN 1522.4074816299271 0.5012105319963853 502.0 20.0 345.0 
394.00014487135815 12296.0 NaN 1516.2484969939887 0.5009811414611989 500.0 22.0 341.0 
396.00014487135815 12319.0 NaN 1510.2150968603878 0.5035307078197571 501.0 22.0 339.0 
398.00014487135815 12311.0 NaN 1510.049432197728 0.5031081591889939 501.0 22.0 339.0 
400.00014487135815 12277.0 NaN 1513.2478289913174 0.5037253168704188 499.0 22.0 340.0 
402.00014487135815 12287.0 NaN 1519.3293253173006 0.501101906511047 499.0 24.0 340.0 
404.00014487135815 12298.0 NaN 1525.4722778891112 0.500307502364354 503.0 20.0 346.0 
406.00014487135815 12311.0 NaN 1525.4081496325994 0.5084485438916598 500.0 23.0 343.0 
408.00014487135815 12289.0 NaN 1522.5330661322637 0.5033921833680287 505.0 19.0 346.0 
410.00014487135815 12264.0 NaN 1525.4295257181022 0.4983323097914721 497.0 25.0 341.0 
412.00014487135815 12291.0 NaN 1534.7494989979969 0.5022871615600543 497.0 26.0 343.0 
414.00014487135815 12302.0 NaN 1534.781563126254 0.5014005040564931 501.0 23.0 346.0 
416.00014487135815 12329.0 NaN 1531.633934535737 0.5080579815628407 500.0 25.0 343.0 
418.00014487135815 12313.0 NaN 1528.5210420841693 0.504234345286401 501.0 23.0 344.0 
420.00014487135815 12279.0 NaN 1531.7274549098186 0.49987266232655264 504.0 22.0 346.0 
422.00014487135815 12294.0 NaN 1522.4101536406151 0.5039358207494855 505.0 24.0 341.0 
424.00014487135815 12283.0 NaN 1516.3500334001342 0.5001875912047048 503.0 23.0 340.0 
426.00014487135815 12298.0 NaN 1516.3366733466928 0.5062836519547164 500.0 20.0 343.0 
428.00014487135815 12284.0 NaN 1513.1356045424182 0.5032253281971525 497.0 21.0 341.0 
430.00014487135815 12263.0 NaN 1513.1569806279215 0.4978808739531133 502.0 18.0 344.0 
432.00014487135815 12302.0 NaN 1510.1696726786909 0.4986110997890764 497.0 23.0 338.0 
434.00014487135815 12304.0 NaN 1513.0501002004 0.5013702389013296 493.0 26.0 336.0 
436.00014487135815 12320.0 NaN 1528.5637942551757 0.5062065631346234 505.0 20.0 347.0 
438.00014487135815 12315.0 NaN 1534.760187040748 0.5047475622476303 505.0 24.0 345.0 
440.00014487135815 12294.0 NaN 1534.6693386773545 0.4997384582396286 508.0 21.0 348.0 
442.00014487135815 12297.0 NaN 1531.5350701402817 0.5012369246620656 508.0 21.0 347.0 
444.00014487135815 12281.0 NaN 1531.7274549098183 0.5013588850784726 507.0 21.0 347.0 
446.00014487135815 12289.0 NaN 1547.0167000667998 0.506421281260497 508.0 23.0 350.0 
448.00014487135815 12261.0 NaN 1550.1215764863066 0.4993101882302166 514.0 17.0 357.0 
450.00014487135815 12253.0 NaN 1543.9492317969275 0.5004212093622268 514.0 18.0 354.0 
452.00014487135815 12257.0 NaN 1546.8857715430852 0.505838173620186 517.0 13.0 360.0 
454.00014487135815 12233.0 NaN 1547.000668002673 0.508583656150918 512.0 18.0 355.0 
456.00014487135815 12238.0 NaN 1553.2317969271885 0.5030644646797512 510.0 18.0 357.0 
458.00014487135815 12220.0 NaN 1553.095524382098 0.4993045400927846 512.0 16.0 359.0 
460.00014487135815 12215.0 NaN 1550.1028724114908 0.4958864316809204 509.0 20.0 354.0 
462.00014487135815 12232.0 NaN 1550.0414161656636 0.4986424217726219 506.0 23.0 351.0 
464.00014487135815 12223.0 NaN 1550.0975283901118 0.5000800564358423 509.0 20.0 354.0 
466.00014487135815 12236.0 NaN 1543.8396793587183 0.5024757286111948 509.0 19.0 353.0 
468.00014487135815 12230.0 NaN 1540.993987975952 0.5034085945090406 505.0 20.0 351.0 
470.00014487135815 12222.0 NaN 1534.629258517036 0.499658735331053 507.0 18.0 351.0 
472.00014487135815 12242.0 NaN 1534.6987307949244 0.49944371082232103 508.0 19.0 350.0 
474.00014487135815 12223.0 NaN 1531.5297261189062 0.5009565666372396 511.0 14.0 354.0 
476.00014487135815 12236.0 NaN 1525.4589178356723 0.49957470867009357 501.0 18.0 348.0 
478.00014487135815 12223.0 NaN 1525.3707414829641 0.5033451001752616 497.0 21.0 345.0 
480.00014487135815 12213.0 NaN 1522.4742818971272 0.4988090372960638 499.0 17.0 348.0 
482.00014487135815 12225.0 NaN 1525.2237808951245 0.5034679193349838 500.0 19.0 347.0 
484.00014487135815 12186.0 NaN 1522.3674014696066 0.5058563923844999 500.0 18.0 347.0 
486.00014487135815 12189.0 NaN 1513.1302605210426 0.5022253093210137 497.0 20.0 342.0 
488.00014487135815 12179.0 NaN 1507.0968603874426 0.5022211510585317 493.0 20.0 340.0 
490.00014487135815 12150.0 NaN 1500.7748830995333 0.5058752965711735 493.0 20.0 338.0 
492.00014487135815 12170.0 NaN 1500.8416833667343 0.5002666824875059 492.0 16.0 342.0 
494.00014487135815 12167.0 NaN 1494.5544422177697 0.5038531901968085 484.0 25.0 331.0 
496.00014487135815 12170.0 NaN 1494.8002672010698 0.4993329403715799 486.0 21.0 335.0 
498.00014487135815 12158.0 NaN 1491.6419505678011 0.4978406310993451 488.0 19.0 336.0 
500.00014487135815 12159.0 NaN 1491.5778223112898 0.49758972772792553 487.0 22.0 333.0 
502.00014487135815 12186.0 NaN 1497.6272545090183 0.4983849872724649 488.0 24.0 333.0 
504.00014487135815 12195.0 NaN 1491.7354709418828 0.5002704249290704 485.0 28.0 327.0 
506.00014487135815 12215.0 NaN 1500.6973947895797 0.5014350089212698 495.0 19.0 339.0 
508.00014487135815 12202.0 NaN 1500.9298597194384 0.5018268839879005 497.0 21.0 337.0 
510.00014487135815 12186.0 NaN 1494.6933867735463 0.49638852813764855 482.0 32.0 324.0 
512.0001448713581 12198.0 NaN 1497.8062792251176 0.49858725024405637 485.0 31.0 326.0 
514.0001448713581 12208.0 NaN 1491.5030060120253 0.49797516684325077 491.0 25.0 330.0 
516.0001448713581 12226.0 NaN 1476.2805611222452 0.49770115002253484 489.0 24.0 326.0 
518.0001448713581 12226.0 NaN 1479.1877087508358 0.4969525597174228 496.0 17.0 334.0 
520.0001448713581 12240.0 NaN 1479.3613894455568 0.4985757805422328 490.0 19.0 332.0 
522.0001448713581 12247.0 NaN 1479.16633266533 0.495807117675107 488.0 21.0 330.0 
524.0001448713581 12278.0 NaN 1467.0247160988638 0.4992168382919068 488.0 18.0 329.0 
526.0001448713581 12319.0 NaN 1460.7000668002663 0.49740322653401314 485.0 20.0 325.0 
528.0001448713581 12327.0 NaN 1467.0006680026727 0.5019415551359271 491.0 15.0 332.0 
530.0001448713581 12311.0 NaN 1463.727454909819 0.4984052430878626 492.0 20.0 326.0 
532.0001448713581 12322.0 NaN 1466.9659318637273 0.49817122208109527 490.0 19.0 328.0 
534.0001448713581 12332.0 NaN 1469.8543754175012 0.5010226443926726 487.0 20.0 328.0 
536.0001448713581 12356.0 NaN 1467.0621242484976 0.5004186801130573 489.0 19.0 328.0 
538.0001448713581 12345.0 NaN 1466.81095524382 0.5008516347747084 488.0 21.0 326.0 
540.0001448713581 12329.0 NaN 1470.0814963259845 0.49996848259404125 491.0 18.0 330.0 
542.0001448713581 12348.0 NaN 1466.9846359385442 0.5020913970202585 489.0 21.0 326.0 
544.0001448713581 12324.0 NaN 1467.0167000668 0.5013102078394807 492.0 19.0 328.0 
546.0001448713581 12313.0 NaN 1467.0968603874423 0.5034220752012033 493.0 20.0 327.0 
548.0001448713581 12298.0 NaN 1473.0581162324643 0.502131286352175 494.0 21.0 328.0 
550.0001448713581 12276.0 NaN 1473.1169004676012 0.49415994973332594 493.0 22.0 327.0 
552.0001448713581 12300.0 NaN 1473.1409485637937 0.49798067108378735 497.0 19.0 330.0 
554.0001448713581 12288.0 NaN 1473.039412157648 0.5019404923531038 496.0 20.0 329.0 
556.0001448713581 12297.0 NaN 1460.8309953239818 0.4984497286873357 497.0 16.0 329.0 
558.0001448713581 12301.0 NaN 1460.9539078156313 0.4972566098251794 491.0 20.0 325.0 
560.0001448713581 12301.0 NaN 1463.9091516366066 0.4963846674014167 490.0 20.0 326.0 
562.0001448713581 12291.0 NaN 1460.8336673346691 0.4986128629301268 489.0 19.0 326.0 
564.0001448713581 12313.0 NaN 1460.879091516366 0.4984135171438765 484.0 22.0 323.0 
566.0001448713581 12331.0 NaN 1467.0647962591847 0.5020817595295906 491.0 19.0 328.0 
568.0001448713581 12343.0 NaN 1476.2965931863728 0.5016970012105832 493.0 19.0 331.0 
570.0001448713581 12305.0 NaN 1476.2912491649968 0.49562496899665026 494.0 22.0 328.0 
572.0001448713581 12313.0 NaN 1476.1015364061454 0.4965033012395723 497.0 20.0 330.0 
574.0001448713581 12320.0 NaN 1482.4235136940545 0.4969295159229816 508.0 13.0 339.0 
576.0001448713581 12320.0 NaN 1491.6419505678011 0.5005348904828643 508.0 14.0 341.0 
578.0001448713581 12342.0 NaN 1488.5611222444898 0.5014091636498543 510.0 11.0 343.0 
580.0001448713581 12319.0 NaN 1482.3887775551093 0.5054705568456199 506.0 14.0 338.0 
582.0001448713581 12309.0 NaN 1488.5637942551762 0.4995547959015684 505.0 16.0 338.0 
584.0001448713581 12300.0 NaN 1488.4943219772888 0.4982159730112528 509.0 12.0 342.0 
586.0001448713581 12314.0 NaN 1491.580494321979 0.5065454051428172 506.0 16.0 339.0 
588.0001448713581 12344.0 NaN 1500.8790915163654 0.5005477078786519 509.0 14.0 344.0 
590.0001448713581 12349.0 NaN 1503.9786239144967 0.5021820438062038 509.0 15.0 344.0 
592.0001448713581 12330.0 NaN 1503.9412157648637 0.49717050036443244 508.0 15.0 344.0 
594.0001448713581 12324.0 NaN 1503.8931195724788 0.5008560576319055 510.0 17.0 342.0 
596.0001448713581 12331.0 NaN 1500.830995323982 0.49714670822946305 517.0 12.0 346.0 
598.0001448713581 12375.0 NaN 1497.8410153640623 0.49955308935305576 513.0 15.0 342.0 
600.0001448713581 12367.0 NaN 1500.892451569807 0.4982356871204268 515.0 10.0 348.0 
602.0001448713581 12362.0 NaN 1497.7982631930531 0.5064350117406297 508.0 17.0 340.0 
604.0001448713581 12366.0 NaN 1497.675350701402 0.4990108715063314 506.0 21.0 336.0 
606.0001448713581 12416.0 NaN 1497.9024716098872 0.5013445026275342 507.0 19.0 338.0 
608.0001448713581 12446.0 NaN 1503.973279893119 0.5034191545769013 504.0 21.0 338.0 
610.0001448713581 12414.0 NaN 1503.9358717434877 0.4975846513625525 502.0 21.0 338.0 
612.0001448713581 12439.0 NaN 1503.8984635938546 0.5014394940621716 500.0 20.0 339.0 
614.0001448713581 12423.0 NaN 1507.0060120240473 0.502666314502537 499.0 22.0 338.0 
616.0001448713581 12468.0 NaN 1507.0460921843696 0.5018925487998659 501.0 22.0 338.0 
618.0001448713581 12492.0 NaN 1516.3179692718759 0.504887546709545 504.0 19.0 344.0 
620.0001448713581 12432.0 NaN 1513.1569806279215 0.4991805358476634 501.0 20.0 342.0 
622.0001448713581 12441.0 NaN 1516.3019372077483 0.4996772218976999 503.0 19.0 344.0 
624.0001448713581 12419.0 NaN 1519.3373413493648 0.5044644948872956 502.0 22.0 342.0 
626.0001448713581 12486.0 NaN 1522.4048096192375 0.49896896763694726 497.0 24.0 341.0 
628.0001448713581 12492.0 NaN 1522.362057448229 0.5040759825470377 498.0 22.0 343.0 
630.0001448713581 12443.0 NaN 1519.3400133600544 0.5018090976317275 493.0 27.0 337.0 
632.0001448713581 12459.0 NaN 1516.248496993989 0.5002223274540144 496.0 23.0 340.0 
634.0001448713581 12442.0 NaN 1519.3961255845013 0.49923768047999356 492.0 25.0 339.0 
636.0001448713581 12473.0 NaN 1513.2398129592525 0.49935160922174415 494.0 25.0 337.0 
638.0001448713581 12484.0 NaN 1516.430193720774 0.502915610791509 496.0 25.0 338.0 
640.0001448713581 12414.0 NaN 1516.3206412825646 0.5002292111726849 501.0 20.0 343.0 
642.0001448713581 12408.0 NaN 1510.2444889779554 0.499823746200069 501.0 21.0 340.0 
644.0001448713581 12394.0 NaN 1513.271877087509 0.4977726054954985 497.0 22.0 340.0 
646.0001448713581 12429.0 NaN 1519.5537742150977 0.4973906640482928 492.0 26.0 338.0 
648.0001448713581 12466.0 NaN 1519.4335337341354 0.5006405599480953 493.0 25.0 339.0 
650.0001448713581 12408.0 NaN 1516.4275217100878 0.49859268163119386 500.0 18.0 345.0 
652.0001448713581 12425.0 NaN 1516.1950567802273 0.5043721946284669 497.0 20.0 343.0 
654.0001448713581 12392.0 NaN 1516.339345357382 0.5071381195469834 496.0 20.0 343.0 
656.0001448713581 12401.0 NaN 1537.7421509686033 0.5017167960957938 498.0 20.0 350.0 
658.0001448713581 12414.0 NaN 1540.8844355377432 0.5040881573013475 496.0 21.0 350.0 
660.0001448713581 12348.0 NaN 1540.694722778891 0.49879241958889114 494.0 21.0 350.0 
662.0001448713581 12345.0 NaN 1543.8744154976625 0.49988843989147974 494.0 18.0 354.0 
664.0001448713581 12347.0 NaN 1543.828991315965 0.49979228905206735 492.0 19.0 353.0 
#####################################################################
# End of data export. Simulation finished at: 2019-03-14T01:36+0000 #
#####################################################################
