#####################################################################
# Alchemist log file - simulation started at: 2019-03-07T19:54+0000 #
#####################################################################
# seed = 5.0, bandwidth = 5623413.251903491, propagationDelay = 0.0031622776601683794, baserange = 56.234132519034915
#
# The columns have the following meaning: 
# time neighbor_count[Sum] <value>@neighbor_count[Sum] packet_size[Mean] mean_delay[Mean] crowd[Sum] overcrowded[Sum] risk[Sum] 
0.0 NaN NaN NaN NaN NaN NaN NaN 
2.000101793669918 6162.0 NaN 4996.542418169673 0.4967786635881066 1496.0 1.0 1496.0 
4.000101793669918 6162.0 NaN 4998.778891115565 0.49677809568902703 1490.0 7.0 1490.0 
6.000101793669918 6162.0 NaN 4996.018704074816 0.49677888621146005 1477.0 20.0 1477.0 
8.000101793669918 6165.0 NaN 4996.820307281229 0.4967990813323803 1462.0 35.0 1462.0 
10.000101793669918 6166.0 NaN 4995.00334001336 0.496721882337423 1469.0 28.0 1469.0 
12.000101793669918 6166.0 NaN 4996.005344021376 0.49741116257029333 1461.0 36.0 1461.0 
14.000101793669918 6167.0 NaN 4994.661322645291 0.4970217046348772 1458.0 39.0 1458.0 
16.00010179366992 6177.0 NaN 4995.179692718771 0.49715097657045904 1452.0 45.0 1452.0 
18.00010179366992 6178.0 NaN 4994.110888443553 0.4973438038441128 1452.0 45.0 1452.0 
20.00010179366992 6180.0 NaN 4994.837675350702 0.49969823997152746 1452.0 45.0 1452.0 
22.00010179366992 6179.0 NaN 4993.897127588511 0.4970398600444145 1448.0 49.0 1448.0 
24.00010179366992 6187.0 NaN 4994.594522378089 0.496436040239334 1445.0 52.0 1445.0 
26.00010179366992 6199.0 NaN 4993.731462925852 0.4989466978398593 1450.0 47.0 1450.0 
28.00010179366992 6199.0 NaN 4994.51169004676 0.4980730729422078 1449.0 48.0 1449.0 
30.00010179366992 6209.0 NaN 4993.723446893788 0.4981812458972151 1451.0 46.0 1451.0 
32.00010179366992 6207.0 NaN 4994.439545758183 0.4994638658038574 1451.0 46.0 1451.0 
34.00010179366992 6210.0 NaN 4993.635270541082 0.4991313462485676 1465.0 32.0 1465.0 
36.00010179366992 6215.0 NaN 4994.48496993988 0.49763758406100006 1461.0 36.0 1461.0 
38.00010179366992 6213.0 NaN 4993.728790915164 0.49908587262539517 1463.0 34.0 1463.0 
40.00010179366992 6241.0 NaN 4994.313961255845 0.5007088993072248 1461.0 36.0 1461.0 
42.00010179366992 6231.0 NaN 4993.680694722779 0.4986270091288631 1457.0 40.0 1457.0 
44.00010179366992 6240.0 NaN 4994.38877755511 0.4989283265545776 1460.0 37.0 1460.0 
46.00010179366992 6253.0 NaN 4993.549766199065 0.4986369553865047 1463.0 34.0 1463.0 
48.00010179366992 6265.0 NaN 4994.281897127588 0.4995048848457223 1463.0 34.0 1463.0 
50.00010179366992 6287.0 NaN 4993.539078156313 0.5013231095404016 1463.0 34.0 1463.0 
52.00010179366992 6270.0 NaN 4994.185704742819 0.4979473327521926 1461.0 36.0 1461.0 
54.00010179366992 6276.0 NaN 4993.437541750167 0.5027118205949836 1462.0 35.0 1462.0 
56.00010179366992 6260.0 NaN 4994.209752839011 0.4981503548711392 1462.0 35.0 1462.0 
58.00010179366992 6296.0 NaN 4993.536406145625 0.5019871964311243 1459.0 38.0 1459.0 
60.00010179366992 6297.0 NaN 4991.107548430194 0.5018586425839692 1458.0 38.0 1458.0 
62.00010179366992 6260.0 NaN 1522.0093520374091 0.5014236799787555 732.0 46.0 319.0 
64.00010179366993 6264.0 NaN 1521.702070808282 0.5026015810865709 568.0 56.0 309.0 
66.00010179366993 6249.0 NaN 1521.6780227120908 0.49881172413735264 534.0 48.0 317.0 
68.00010179366993 6261.0 NaN 1524.7828991315969 0.4999335118973221 500.0 47.0 319.0 
70.00010179366993 6264.0 NaN 1524.6546426185726 0.5042903496724692 485.0 48.0 318.0 
72.00010179366993 6266.0 NaN 1524.6920507682025 0.5009195783454838 484.0 47.0 319.0 
74.00010179366993 6287.0 NaN 1527.7675350701393 0.4997975992445734 480.0 48.0 319.0 
76.00010179366993 6285.0 NaN 1527.759519038076 0.4987789463356654 477.0 50.0 317.0 
78.00010179366993 6320.0 NaN 1533.9585838343364 0.5023239708265512 479.0 48.0 321.0 
80.00010179366993 6290.0 NaN 1533.987975951903 0.4997129089563577 478.0 49.0 320.0 
82.00010179366993 6283.0 NaN 1533.8810955243816 0.5012234884334285 470.0 56.0 313.0 
84.00010179366993 6284.0 NaN 1533.987975951903 0.49993523902925424 472.0 53.0 316.0 
86.00010179366993 6269.0 NaN 1533.8971275885092 0.4991728520140175 471.0 52.0 317.0 
88.00010179366993 6297.0 NaN 1533.9772879091518 0.5054794995819301 469.0 53.0 316.0 
90.00010179366993 6249.0 NaN 1533.8917835671361 0.5006003954682731 477.0 45.0 324.0 
92.00010179366993 6251.0 NaN 1533.9665998664002 0.49930544822920486 477.0 48.0 321.0 
94.00010179366993 6266.0 NaN 1533.9158316633273 0.5029037497623711 479.0 46.0 323.0 
96.00010179366993 6241.0 NaN 1533.9505678022726 0.4985987964101303 474.0 50.0 319.0 
98.00010179366993 6261.0 NaN 1537.0126920507666 0.5001481272472573 474.0 50.0 320.0 
100.00010179366993 6249.0 NaN 1537.0046760187029 0.5002810722508725 473.0 51.0 319.0 
102.00010179366993 6260.0 NaN 1536.9138276553094 0.5037157406073645 472.0 50.0 320.0 
104.00010179366993 6262.0 NaN 1540.0561122244487 0.5026325126574193 473.0 50.0 321.0 
106.00010179366993 6245.0 NaN 1539.983967935873 0.4999665764297802 472.0 51.0 320.0 
108.00010179366993 6256.0 NaN 1540.0347361389454 0.501819480481866 472.0 50.0 321.0 
110.00010179366993 6241.0 NaN 1540.0053440213758 0.49772886720767306 468.0 55.0 316.0 
112.00010179366993 6263.0 NaN 1540.0026720106882 0.5020168181372432 466.0 57.0 314.0 
114.00010179366993 6289.0 NaN 1540.0267201068816 0.5017034070357975 466.0 56.0 315.0 
116.00010179366993 6260.0 NaN 1540.1122244488997 0.4989607379660349 477.0 47.0 324.0 
118.00010179366993 6284.0 NaN 1540.093520374082 0.5030003268187251 477.0 50.0 321.0 
120.00010179366993 6251.0 NaN 1540.114896459585 0.4990758212226453 478.0 48.0 323.0 
122.00010179366993 6265.0 NaN 1543.070140280561 0.5014668444119723 479.0 48.0 324.0 
124.00010179366993 6276.0 NaN 1543.1583166332664 0.49991014051848326 476.0 51.0 321.0 
126.00010179366993 6272.0 NaN 1543.1128924515701 0.4994323789967891 479.0 47.0 325.0 
128.00010179366993 6319.0 NaN 1540.304609218436 0.5035019550137083 482.0 45.0 326.0 
130.00010179366993 6285.0 NaN 1540.1897127588516 0.5065962935989726 481.0 46.0 325.0 
132.00010179366993 6268.0 NaN 1537.1516366065453 0.5001366818666588 481.0 44.0 326.0 
134.00010179366993 6295.0 NaN 1536.9913159652635 0.5020528529301659 487.0 39.0 331.0 
136.00010179366993 6282.0 NaN 1537.092852371409 0.5003608417683486 483.0 40.0 330.0 
138.00010179366993 6315.0 NaN 1534.0280561122247 0.5063059969381505 480.0 41.0 328.0 
140.00010179366993 6266.0 NaN 1534.0841683366727 0.5071412894584529 478.0 45.0 324.0 
142.00010179366993 6246.0 NaN 1536.9913159652635 0.4994856715917624 477.0 46.0 324.0 
144.00010179366993 6302.0 NaN 1537.1088844355365 0.50313642686094 477.0 44.0 326.0 
146.00010179366993 6280.0 NaN 1534.0334001335998 0.5006245536743001 473.0 47.0 322.0 
148.00010179366993 6296.0 NaN 1534.0440881763543 0.5064593072911737 470.0 50.0 319.0 
150.00010179366993 6255.0 NaN 1530.8136272545091 0.5072609435888423 477.0 42.0 326.0 
152.00010179366993 6239.0 NaN 1527.8476953907818 0.5114724484339617 476.0 43.0 324.0 
154.00010179366993 6267.0 NaN 1527.7702070808273 0.5007050493978836 469.0 47.0 320.0 
156.00010179366993 6263.0 NaN 1530.8777555110212 0.5006536184222136 469.0 46.0 322.0 
158.00010179366993 6271.0 NaN 1533.9986639946546 0.5055125358096095 474.0 46.0 323.0 
160.00010179366993 6239.0 NaN 1534.0146960587842 0.5027319631038001 473.0 47.0 322.0 
162.00010179366993 6227.0 NaN 1533.942551770209 0.5015601268336366 468.0 51.0 318.0 
164.00010179366993 6236.0 NaN 1537.063460253842 0.5054949159810068 473.0 47.0 323.0 
166.00010179366993 6204.0 NaN 1536.9859719438882 0.5004565625963128 472.0 48.0 322.0 
168.00010179366993 6226.0 NaN 1540.141616566466 0.5048063480464273 472.0 47.0 324.0 
170.00010179366993 6217.0 NaN 1537.0126920507662 0.5061916831721212 474.0 48.0 322.0 
172.00010179366993 6203.0 NaN 1536.95390781563 0.4998449575193937 469.0 50.0 320.0 
174.00010179366993 6255.0 NaN 1540.0133600534389 0.5044756777733931 466.0 50.0 321.0 
176.00010179366993 6209.0 NaN 1533.9398797595181 0.5056590909417056 465.0 50.0 319.0 
178.00010179366993 6226.0 NaN 1536.916499666 0.5075884939984278 465.0 51.0 319.0 
180.00010179366993 6196.0 NaN 1536.961923847693 0.5042802687075713 468.0 49.0 321.0 
182.00010179366993 6192.0 NaN 1536.8951235804934 0.49956294278476987 469.0 49.0 321.0 
184.00010179366993 6212.0 NaN 1540.0080160320636 0.5053719952998701 470.0 48.0 323.0 
186.00010179366993 6161.0 NaN 1536.9218436873728 0.49925406833937314 469.0 48.0 322.0 
188.00010179366993 6180.0 NaN 1543.2438209752818 0.5029131825009753 469.0 48.0 324.0 
190.00010179366993 6170.0 NaN 1536.916499666 0.5021500290649636 470.0 47.0 323.0 
192.00010179366993 6157.0 NaN 1536.9859719438884 0.5002525560571609 469.0 47.0 323.0 
194.00010179366993 6179.0 NaN 1540.0641282565116 0.5043206315732468 472.0 45.0 326.0 
196.00010179366993 6146.0 NaN 1540.1175684702725 0.5014598362915935 469.0 48.0 323.0 
198.00010179366993 6153.0 NaN 1543.1983967935885 0.5076405865931594 476.0 41.0 331.0 
200.00010179366993 6132.0 NaN 1546.3246492985977 0.5036493706273465 471.0 48.0 325.0 
202.00010179366993 6119.0 NaN 1546.2044088176367 0.5016622385610556 470.0 49.0 324.0 
204.00010179366993 6130.0 NaN 1546.2845691382752 0.5102319283761594 474.0 43.0 330.0 
206.00010179366993 6080.0 NaN 1546.2044088176367 0.5023604561228292 474.0 44.0 329.0 
208.00010179366993 6093.0 NaN 1540.152304609218 0.5067211633950544 472.0 48.0 323.0 
210.00010179366993 6083.0 NaN 1536.9859719438884 0.5047533866968176 473.0 47.0 323.0 
212.00010179366993 6070.0 NaN 1536.9004676018726 0.49873929125396277 471.0 47.0 323.0 
214.00010179366993 6091.0 NaN 1539.890447561791 0.5018645382860328 470.0 48.0 323.0 
216.00010179366993 6067.0 NaN 1533.7822311289246 0.4988677569818939 470.0 47.0 322.0 
218.00010179366993 6082.0 NaN 1530.7414829659301 0.501439683869674 468.0 48.0 320.0 
220.00010179366993 6078.0 NaN 1530.7682030728117 0.504609686551811 470.0 45.0 323.0 
222.00010179366993 6072.0 NaN 1533.8009352037398 0.5011437631437946 462.0 51.0 318.0 
224.00010179366993 6080.0 NaN 1533.8517034068154 0.5028100326892587 467.0 48.0 321.0 
226.00010179366993 6052.0 NaN 1530.7441549766183 0.5044053032684974 464.0 50.0 318.0 
228.00010179366993 6034.0 NaN 1533.857047428191 0.5021017018399023 464.0 50.0 319.0 
230.00010179366993 6038.0 NaN 1537.0420841683363 0.5067884215240368 464.0 50.0 320.0 
232.00010179366993 6022.0 NaN 1540.0561122244483 0.4999244530825505 459.0 55.0 316.0 
234.00010179366993 6020.0 NaN 1540.0587842351363 0.5088078526902813 462.0 50.0 321.0 
236.00010179366993 5983.0 NaN 1536.943219772879 0.5007064013563617 464.0 50.0 320.0 
238.00010179366993 5982.0 NaN 1533.8036072144273 0.5019303782071652 464.0 51.0 318.0 
240.00010179366993 5988.0 NaN 1533.8704074816299 0.5016534882671777 468.0 46.0 323.0 
242.00010179366993 5983.0 NaN 1533.8036072144273 0.5045383557333375 465.0 49.0 320.0 
244.00010179366993 5993.0 NaN 1533.8223112892456 0.5062759051274544 459.0 56.0 313.0 
246.00010179366993 5974.0 NaN 1533.8036072144273 0.5049347924640539 463.0 50.0 319.0 
248.00010179366993 5975.0 NaN 1527.6980627922517 0.5099014460705894 465.0 49.0 318.0 
250.00010179366993 5957.0 NaN 1530.7414829659301 0.4999175227253341 465.0 47.0 321.0 
252.00010179366993 5958.0 NaN 1527.6499665998663 0.5022101122506788 465.0 46.0 321.0 
254.00010179366993 5966.0 NaN 1533.9398797595181 0.5111557965301207 466.0 47.0 322.0 
256.00010179366996 5937.0 NaN 1530.789579158318 0.49903784664954015 464.0 50.0 318.0 
258.00010179366996 5941.0 NaN 1530.7762191048755 0.5081322266790185 464.0 49.0 319.0 
260.00010179366996 5930.0 NaN 1530.8857715430852 0.5091568018031188 464.0 50.0 318.0 
262.00010179366996 5932.0 NaN 1524.555778223112 0.5037762506888811 466.0 48.0 318.0 
264.00010179366996 5940.0 NaN 1536.9859719438882 0.5068803487013543 467.0 46.0 324.0 
266.00010179366996 5909.0 NaN 1536.9539078156301 0.5011541438448507 465.0 47.0 323.0 
268.00010179366996 5921.0 NaN 1536.8977955911816 0.5057111186376453 464.0 47.0 323.0 
270.00010179366996 5903.0 NaN 1533.7982631930543 0.5033689609589629 466.0 44.0 325.0 
272.00010179366996 5905.0 NaN 1533.8891115564454 0.5025749863894008 465.0 44.0 325.0 
274.00010179366996 5894.0 NaN 1533.8463593854362 0.5093812409915401 464.0 45.0 324.0 
276.00010179366996 5857.0 NaN 1540.0961923847703 0.5028834570327756 463.0 44.0 327.0 
278.00010179366996 5856.0 NaN 1539.9358717434884 0.5028516778846985 465.0 45.0 326.0 
280.00010179366996 5868.0 NaN 1536.8630594522365 0.5081534298144111 463.0 48.0 322.0 
282.00010179366996 5857.0 NaN 1533.7982631930543 0.5024575828329079 464.0 46.0 323.0 
284.00010179366996 5855.0 NaN 1533.8062792251183 0.5039285992521322 468.0 44.0 325.0 
286.00010179366996 5843.0 NaN 1533.7608550434184 0.5123526100003182 470.0 42.0 327.0 
288.00010179366996 5829.0 NaN 1533.736806947227 0.5047234713940274 470.0 40.0 329.0 
290.00010179366996 5836.0 NaN 1533.7982631930543 0.5073394882921081 471.0 40.0 329.0 
292.00010179366996 5835.0 NaN 1533.7127588510364 0.5046539896393588 470.0 41.0 328.0 
294.00010179366996 5828.0 NaN 1530.6826987307936 0.5077597409236951 469.0 40.0 328.0 
296.00010179366996 5801.0 NaN 1530.794923179691 0.5046162691349094 470.0 40.0 328.0 
298.00010179366996 5794.0 NaN 1539.9358717434884 0.508603538681519 469.0 41.0 330.0 
300.00010179366996 5782.0 NaN 1539.9946559786247 0.5128248051763994 467.0 40.0 331.0 
302.00010179366996 5770.0 NaN 1530.6265865063453 0.5026093250647089 467.0 40.0 328.0 
304.00010179366996 5784.0 NaN 1533.8436873747485 0.5103461388436761 465.0 41.0 328.0 
306.00010179366996 5774.0 NaN 1536.8817635270545 0.49955530615918337 466.0 40.0 330.0 
308.00010179366996 5781.0 NaN 1536.9084836339362 0.5049886397046003 467.0 40.0 330.0 
310.00010179366996 5773.0 NaN 1536.7748830995336 0.5101946739795079 464.0 41.0 329.0 
312.00010179366996 5768.0 NaN 1530.6506346025365 0.5055927310131431 464.0 40.0 328.0 
314.00010179366996 5761.0 NaN 1530.7174348697388 0.5083943771947849 459.0 45.0 323.0 
316.00010179366996 5740.0 NaN 1530.7788911155635 0.5002051220400027 457.0 47.0 321.0 
318.00010179366996 5751.0 NaN 1530.7120908483637 0.501268395407413 458.0 45.0 323.0 
320.00010179366996 5768.0 NaN 1530.888443553773 0.5032895171120665 465.0 40.0 328.0 
322.00010179366996 5757.0 NaN 1533.8329993319974 0.5030325295802451 465.0 41.0 328.0 
324.00010179366996 5760.0 NaN 1530.8750835003343 0.5049772818690426 464.0 40.0 328.0 
326.00010179366996 5755.0 NaN 1530.714762859052 0.5048874686036203 463.0 41.0 327.0 
328.00010179366996 5770.0 NaN 1530.8403473613907 0.5037081764381619 463.0 42.0 326.0 
330.00010179366996 5769.0 NaN 1530.7922511690058 0.5042746936923933 465.0 40.0 328.0 
332.00010179366996 5767.0 NaN 1530.8537074148294 0.5073425101943552 466.0 40.0 328.0 
334.00010179366996 5754.0 NaN 1530.7094188376752 0.5093711944081932 463.0 42.0 326.0 
336.00010179366996 5736.0 NaN 1530.9098196392792 0.5017349634032906 461.0 43.0 325.0 
338.00010179366996 5737.0 NaN 1530.7762191048753 0.5101284696264861 467.0 40.0 328.0 
340.00010179366996 5748.0 NaN 1524.7748830995333 0.5089247338287284 466.0 41.0 325.0 
342.00010179366996 5741.0 NaN 1524.6065464261849 0.5031027639269307 466.0 40.0 326.0 
344.00010179366996 5759.0 NaN 1527.8263193052755 0.5071241901550351 467.0 40.0 327.0 
346.00010179366996 5768.0 NaN 1518.492985971945 0.4998027893898715 465.0 41.0 323.0 
348.00010179366996 5773.0 NaN 1518.5758183032726 0.5045302681175418 464.0 40.0 324.0 
350.00010179366996 5790.0 NaN 1524.6599866399451 0.5103644083063869 467.0 40.0 326.0 
352.00010179366996 5775.0 NaN 1521.5978623914484 0.5064733213371178 467.0 42.0 323.0 
354.00010179366996 5769.0 NaN 1518.5544422177695 0.5025732951767323 470.0 40.0 324.0 
356.00010179366996 5765.0 NaN 1518.5116900467604 0.49888179422286716 471.0 40.0 324.0 
358.00010179366996 5779.0 NaN 1518.479625918503 0.503773331794528 469.0 40.0 324.0 
360.00010179366996 5785.0 NaN 1518.5170340681366 0.5114283869842632 470.0 39.0 325.0 
362.00010179366996 5765.0 NaN 1515.3774215096848 0.5056459593309034 471.0 39.0 324.0 
364.00010179366996 5749.0 NaN 1509.293253173012 0.514500199783041 470.0 40.0 321.0 
366.00010179366996 5730.0 NaN 1506.164328657315 0.5117398691443038 470.0 39.0 321.0 
368.00010179366996 5731.0 NaN 1503.08617234469 0.508591923609684 463.0 48.0 311.0 
370.00010179366996 5751.0 NaN 1509.2184368737462 0.51263280421415 459.0 51.0 310.0 
372.00010179366996 5747.0 NaN 1509.1489645958575 0.5060911762776639 462.0 47.0 314.0 
374.00010179366996 5758.0 NaN 1506.0253841015365 0.5020991767869981 468.0 46.0 314.0 
376.00010179366996 5758.0 NaN 1503.0300601202393 0.5087684513128942 467.0 47.0 312.0 
378.00010179366996 5779.0 NaN 1499.8022712090842 0.5039852528206179 467.0 45.0 313.0 
380.00010179366996 5792.0 NaN 1503.0754843019365 0.5132477305587593 466.0 45.0 314.0 
382.00010179366996 5781.0 NaN 1499.9385437541737 0.5104748077838932 467.0 48.0 310.0 
384.00010179366996 5796.0 NaN 1500.0187040748172 0.5044193159977655 467.0 47.0 311.0 
386.00010179366996 5793.0 NaN 1496.8897795591183 0.5108286035791806 470.0 44.0 313.0 
388.00010179366996 5794.0 NaN 1496.9458917835666 0.5091845021848842 469.0 45.0 312.0 
390.00010179366996 5791.0 NaN 1503.08617234469 0.5059798782198596 468.0 44.0 315.0 
392.00010179366996 5789.0 NaN 1500.1549766199068 0.5133864210806844 473.0 44.0 314.0 
394.00010179366996 5797.0 NaN 1509.2665330661334 0.5092569616226335 474.0 45.0 316.0 
396.00010179366996 5785.0 NaN 1509.277221108884 0.504714759940233 474.0 44.0 317.0 
398.00010179366996 5797.0 NaN 1506.1028724114904 0.5118510942438282 479.0 40.0 320.0 
400.00010179366996 5798.0 NaN 1503.169004676018 0.508069717237739 476.0 41.0 318.0 
402.00010179366996 5801.0 NaN 1506.1563126252513 0.5088891202124705 477.0 39.0 321.0 
404.00010179366996 5813.0 NaN 1509.3707414829644 0.5079795155255307 481.0 39.0 322.0 
406.00010179366996 5795.0 NaN 1515.462925851703 0.5004999329970655 480.0 40.0 323.0 
408.00010179366996 5800.0 NaN 1527.983967935873 0.5030270152968505 482.0 41.0 326.0 
410.00010179366996 5813.0 NaN 1527.7995991983976 0.5063465969898665 484.0 40.0 327.0 
412.00010179366996 5809.0 NaN 1524.726786907146 0.5168860185567685 484.0 42.0 324.0 
414.00010179366996 5799.0 NaN 1521.6058784235122 0.5127153199555605 486.0 39.0 326.0 
416.00010179366996 5766.0 NaN 1512.4595858383445 0.504278606826999 487.0 39.0 323.0 
418.00010179366996 5769.0 NaN 1512.3633934535728 0.5087745017032124 484.0 40.0 322.0 
420.00010179366996 5748.0 NaN 1506.225784903139 0.5177943231243491 484.0 39.0 321.0 
422.00010179366996 5736.0 NaN 1493.862391449565 0.5120396621168554 477.0 40.0 316.0 
424.00010179366996 5755.0 NaN 1503.1369405477626 0.5128205233577723 473.0 44.0 315.0 
426.00010179366996 5744.0 NaN 1506.2017368069469 0.5043707900378938 475.0 42.0 318.0 
428.00010179366996 5766.0 NaN 1506.3727454909817 0.5099096331123814 475.0 43.0 317.0 
430.00010179366996 5770.0 NaN 1503.150300601202 0.5085643075698622 478.0 40.0 319.0 
432.00010179366996 5756.0 NaN 1518.6185704742818 0.5077963634981383 474.0 47.0 317.0 
434.00010179366996 5749.0 NaN 1518.5731462925846 0.5130299844465136 481.0 43.0 321.0 
436.00010179366996 5729.0 NaN 1518.5865063460262 0.5057914191209325 481.0 43.0 321.0 
438.00010179366996 5748.0 NaN 1521.6165664662647 0.5001009570222719 479.0 44.0 321.0 
440.00010179366996 5765.0 NaN 1524.7615230460915 0.5048958623274796 485.0 40.0 326.0 
442.00010179366996 5772.0 NaN 1536.9806279225115 0.5078939575924111 481.0 45.0 325.0 
444.00010179366996 5778.0 NaN 1533.998663994655 0.5115668559612772 481.0 46.0 323.0 
446.00010179366996 5768.0 NaN 1540.0374081496334 0.5120969118797823 486.0 45.0 326.0 
448.00010179366996 5765.0 NaN 1540.1282565130268 0.5014669569160244 487.0 44.0 327.0 
450.00010179366996 5777.0 NaN 1543.0754843019363 0.5086006095053923 488.0 41.0 331.0 
452.00010179366996 5781.0 NaN 1543.1903807615242 0.51345185516789 489.0 39.0 333.0 
454.00010179366996 5775.0 NaN 1546.060120240482 0.5027276459808905 487.0 41.0 332.0 
456.00010179366996 5774.0 NaN 1546.1563126252513 0.5043238494255279 488.0 39.0 334.0 
458.00010179366996 5761.0 NaN 1546.142952571809 0.503179628829614 484.0 41.0 332.0 
460.00010179366996 5749.0 NaN 1546.191048764194 0.5056563242532197 483.0 41.0 332.0 
462.00010179366996 5753.0 NaN 1545.971943887775 0.5059139464099978 481.0 41.0 332.0 
464.00010179366996 5746.0 NaN 1546.1803607214429 0.5098696158887295 484.0 41.0 332.0 
466.00010179366996 5746.0 NaN 1542.8296593186365 0.5041867528611523 483.0 42.0 330.0 
468.00010179366996 5742.0 NaN 1540.0106880427525 0.5095195101486473 481.0 40.0 331.0 
470.00010179366996 5735.0 NaN 1539.871743486973 0.503875457203249 479.0 41.0 330.0 
472.00010179366996 5743.0 NaN 1533.862391449564 0.5044061754364004 477.0 42.0 327.0 
474.00010179366996 5742.0 NaN 1530.6479625918516 0.5055036927848269 476.0 41.0 327.0 
476.00010179366996 5736.0 NaN 1527.6259185036731 0.5094493178679744 478.0 42.0 325.0 
478.00010179366996 5724.0 NaN 1527.5564462257842 0.5058686034101698 476.0 42.0 325.0 
480.00010179366996 5717.0 NaN 1524.5210420841693 0.5045050337517181 476.0 41.0 325.0 
482.00010179366996 5726.0 NaN 1521.4402137608542 0.5137419058342386 475.0 41.0 324.0 
484.00010179366996 5724.0 NaN 1509.234468937875 0.5087997660410988 472.0 42.0 319.0 
486.00010179366996 5716.0 NaN 1499.9251837007355 0.509261390265282 469.0 41.0 317.0 
488.00010179366996 5710.0 NaN 1497.0153640614556 0.5104916585619651 469.0 41.0 316.0 
490.00010179366996 5716.0 NaN 1499.9652638610548 0.5065873156949721 468.0 42.0 316.0 
492.00010179366996 5711.0 NaN 1490.9044756179019 0.5174080984459474 470.0 40.0 315.0 
494.00010179366996 5704.0 NaN 1484.6760187040738 0.5085084354102919 468.0 40.0 313.0 
496.00010179366996 5699.0 NaN 1484.7374749499 0.5027990416931465 464.0 42.0 311.0 
498.00010179366996 5706.0 NaN 1484.6359385437545 0.511736379440787 465.0 41.0 312.0 
500.00010179366996 5701.0 NaN 1490.8857715430852 0.5030036587810542 465.0 42.0 313.0 
502.00010179366996 5702.0 NaN 1487.727454909819 0.5023265246257765 466.0 42.0 312.0 
504.00010179366996 5693.0 NaN 1487.8316633266538 0.5069609188948629 466.0 41.0 313.0 
506.00010179366996 5683.0 NaN 1493.9799599198386 0.5070191478742156 470.0 41.0 315.0 
508.00010179366996 5685.0 NaN 1497.0287241148972 0.504081054946211 470.0 42.0 315.0 
510.00010179366996 5694.0 NaN 1493.875751503007 0.5022844405398932 468.0 41.0 315.0 
512.00010179367 5697.0 NaN 1487.8530394121567 0.5029857810371352 468.0 41.0 313.0 
514.00010179367 5699.0 NaN 1481.592518370073 0.5122258099132652 465.0 42.0 310.0 
516.00010179367 5690.0 NaN 1475.4629258517027 0.5010262537912687 463.0 41.0 309.0 
518.00010179367 5708.0 NaN 1475.4148296593182 0.5040792197680017 465.0 41.0 309.0 
520.00010179367 5726.0 NaN 1460.1523046092182 0.5065695120366795 464.0 42.0 303.0 
522.00010179367 5718.0 NaN 1460.0748162992645 0.504918016054318 460.0 41.0 304.0 
524.00010179367 5701.0 NaN 1463.2945891783556 0.5115403909386405 461.0 41.0 305.0 
526.00010179367 5689.0 NaN 1460.0561122244483 0.5061501546365934 462.0 42.0 303.0 
528.00010179367 5701.0 NaN 1463.3159652638617 0.5075308471751039 463.0 41.0 305.0 
530.00010179367 5703.0 NaN 1450.917835671343 0.5046537927074308 463.0 41.0 301.0 
532.00010179367 5712.0 NaN 1450.925851703408 0.5063615169581475 463.0 42.0 300.0 
534.00010179367 5714.0 NaN 1450.8376753507007 0.5110883563574441 464.0 40.0 302.0 
536.00010179367 5690.0 NaN 1454.0307281229123 0.5032234988494908 463.0 40.0 303.0 
538.00010179367 5697.0 NaN 1460.1389445557788 0.5051997599863418 464.0 41.0 304.0 
540.00010179367 5702.0 NaN 1460.1950567802273 0.5033480080779292 464.0 40.0 305.0 
542.00010179367 5708.0 NaN 1466.3112892451566 0.5129280657818472 466.0 39.0 308.0 
544.00010179367 5712.0 NaN 1469.4188376753514 0.5076202329999326 465.0 41.0 307.0 
546.00010179367 5707.0 NaN 1466.231128924516 0.5034342248468071 464.0 43.0 304.0 
548.00010179367 5709.0 NaN 1466.3861055444222 0.507929351459627 469.0 39.0 308.0 
550.00010179367 5701.0 NaN 1463.1983967935878 0.5082589179927368 467.0 40.0 306.0 
552.00010179367 5700.0 NaN 1463.209084836339 0.5034455537721686 467.0 39.0 307.0 
554.00010179367 5722.0 NaN 1466.3299933199728 0.509671236999408 469.0 39.0 308.0 
556.00010179367 5706.0 NaN 1457.0313961255845 0.5020657621320397 467.0 40.0 304.0 
558.00010179367 5711.0 NaN 1453.9398797595184 0.5036823456266034 466.0 39.0 304.0 
560.00010179367 5723.0 NaN 1453.9612558450233 0.5035068190519987 463.0 39.0 304.0 
562.00010179367 5738.0 NaN 1456.9378757515028 0.506899596340051 463.0 40.0 304.0 
564.00010179367 5771.0 NaN 1460.2244488977954 0.5056923201086517 463.0 41.0 304.0 
566.00010179367 5743.0 NaN 1454.0681362725456 0.5085894085568763 463.0 41.0 302.0 
568.00010179367 5751.0 NaN 1460.3954575818304 0.5034236508975712 465.0 41.0 304.0 
570.00010179367 5749.0 NaN 1466.3353373413495 0.5077019227873439 463.0 43.0 304.0 
572.00010179367 5756.0 NaN 1475.7167668670672 0.5072817199462325 460.0 47.0 303.0 
574.00010179367 5740.0 NaN 1478.567802271209 0.5079892075003541 456.0 50.0 301.0 
576.00010179367 5698.0 NaN 1475.561790247161 0.4999196854991767 456.0 49.0 301.0 
578.00010179367 5712.0 NaN 1472.5076820307277 0.51282887472864 462.0 46.0 303.0 
580.00010179367 5708.0 NaN 1472.5023380093523 0.5110846743169035 464.0 43.0 306.0 
582.00010179367 5723.0 NaN 1475.5778223112898 0.5080950475507482 466.0 42.0 308.0 
584.00010179367 5721.0 NaN 1478.6720106880432 0.5126720499576677 474.0 42.0 309.0 
586.00010179367 5696.0 NaN 1475.4255177020714 0.5112829905169609 474.0 43.0 307.0 
588.00010179367 5704.0 NaN 1478.6399465597856 0.504837312362358 475.0 42.0 309.0 
590.00010179367 5700.0 NaN 1484.700066800267 0.5128388596961658 479.0 42.0 311.0 
592.00010179367 5698.0 NaN 1484.7294589178362 0.5146397801998983 477.0 45.0 308.0 
594.00010179367 5676.0 NaN 1487.783567134269 0.5093188981445105 480.0 42.0 312.0 
596.00010179367 5669.0 NaN 1487.7755511022037 0.5033672775945491 480.0 42.0 312.0 
598.00010179367 5682.0 NaN 1490.8162992651976 0.5068940222349447 478.0 43.0 312.0 
600.00010179367 5687.0 NaN 1493.9933199732804 0.51026140841834 479.0 42.0 314.0 
602.00010179367 5732.0 NaN 1490.837675350701 0.5124706307265003 480.0 42.0 313.0 
604.00010179367 5719.0 NaN 1503.190380761524 0.5090443299517212 484.0 43.0 316.0 
606.00010179367 5717.0 NaN 1499.9839679358724 0.5098456996405805 482.0 42.0 316.0 
608.00010179367 5724.0 NaN 1506.3326653306624 0.5045829949432519 483.0 42.0 318.0 
610.00010179367 5729.0 NaN 1503.0541082164334 0.5117691558014111 482.0 44.0 315.0 
612.00010179367 5726.0 NaN 1503.219772879091 0.5063706614981356 477.0 47.0 312.0 
614.00010179367 5737.0 NaN 1503.198396793588 0.5144146403528261 480.0 46.0 313.0 
616.00010179367 5737.0 NaN 1506.3353373413486 0.5011292551352803 474.0 48.0 312.0 
618.00010179367 5766.0 NaN 1506.3353373413486 0.5081351646328779 476.0 45.0 315.0 
620.00010179367 5789.0 NaN 1518.6933867735465 0.5089097185012438 474.0 49.0 315.0 
622.00010179367 5798.0 NaN 1521.6352705410818 0.5047105247153573 472.0 50.0 315.0 
624.00010179367 5837.0 NaN 1521.6673346693374 0.5080891189231579 480.0 42.0 323.0 
626.00010179367 5827.0 NaN 1521.5951903807625 0.504049448853295 481.0 42.0 323.0 
628.00010179367 5862.0 NaN 1521.6352705410818 0.510285695460886 478.0 44.0 321.0 
630.00010179367 5841.0 NaN 1524.7187708750828 0.5077597431380794 474.0 49.0 317.0 
632.00010179367 5838.0 NaN 1524.6867067468274 0.5073216813700353 477.0 48.0 318.0 
634.00010179367 5847.0 NaN 1524.6893787575161 0.5092022396391629 481.0 51.0 315.0 
636.00010179367 5832.0 NaN 1524.6653306613218 0.5031265159117677 479.0 51.0 315.0 
638.00010179367 5841.0 NaN 1521.5898463593846 0.5119209241708225 483.0 50.0 315.0 
640.00010179367 5823.0 NaN 1515.4682698730805 0.5142250169852727 477.0 53.0 310.0 
642.00010179367 5820.0 NaN 1512.4382097528382 0.5149922958764501 468.0 53.0 309.0 
644.00010179367 5818.0 NaN 1515.4976619906472 0.5074079780461852 467.0 54.0 309.0 
646.00010179367 5817.0 NaN 1515.369405477621 0.5003612641053108 472.0 49.0 314.0 
648.00010179367 5843.0 NaN 1515.444221776888 0.5035108334031789 470.0 48.0 315.0 
650.00010179367 5844.0 NaN 1512.376753507015 0.5068288189631 473.0 47.0 315.0 
652.00010179367 5843.0 NaN 1524.8443553774205 0.5053719259881262 470.0 51.0 315.0 
654.00010179367 5850.0 NaN 1524.8603874415485 0.5129625119912288 468.0 50.0 316.0 
656.00010179367 5827.0 NaN 1524.8203072812282 0.5076270493742642 472.0 46.0 320.0 
658.00010179367 5843.0 NaN 1524.8684034736152 0.5071403629677053 471.0 46.0 320.0 
660.00010179367 5831.0 NaN 1534.078824315298 0.5083599345030698 464.0 47.0 322.0 
662.00010179367 5819.0 NaN 1537.2585170340697 0.5094086344055986 473.0 41.0 329.0 
664.00010179367 5819.0 NaN 1537.1062124248485 0.5172138478204066 476.0 41.0 329.0 
#####################################################################
# End of data export. Simulation finished at: 2019-03-07T20:00+0000 #
#####################################################################
