#####################################################################
# Alchemist log file - simulation started at: 2019-03-01T18:09+0000 #
#####################################################################
# seed = 0.0, bandwidth = 1000.0, propagationDelay = 0.0031622776601683794, baserange = 17.78279410038923
#
# The columns have the following meaning: 
# time neighbor_count[Sum] <value>@neighbor_count[Sum] packet_size[Mean] mean_delay[Mean] crowd[Sum] overcrowded[Sum] risk[Sum] 
0.0 NaN NaN NaN NaN NaN NaN NaN 
10.00003367240226 1118.0 NaN 4991.869071476286 3.999967550609899 1497.0 0.0 1497.0 
20.000405536260626 1120.0 NaN 4990.738810955244 4.052088610306687 1495.0 2.0 1495.0 
30.000405536260626 1130.0 NaN 4990.84034736139 2.6625900671302514 1490.0 7.0 1490.0 
40.00040553626063 1144.0 NaN 4990.653306613226 3.255748893528196 1490.0 7.0 1490.0 
50.00040553626063 1166.0 NaN 4990.623914495658 3.886150697522094 1490.0 7.0 1490.0 
60.00040553626063 1193.0 NaN 4987.64462257849 3.0283641003724893 1489.0 7.0 1489.0 
70.00040553626063 1207.0 NaN 995.9331997328003 2.295066713485082 385.0 6.0 188.0 
80.00040553626063 1206.0 NaN 995.9038076152284 2.7318303752475512 319.0 6.0 188.0 
90.00040553626063 1187.0 NaN 998.9018036072168 2.0303886669951225 296.0 6.0 189.0 
100.00040553626063 1192.0 NaN 1011.1877087508366 2.321087063689381 290.0 6.0 193.0 
110.00040553626063 1198.0 NaN 1014.2551770207093 2.794531108969095 292.0 6.0 194.0 
120.00040553626063 1202.0 NaN 1011.2224448897822 2.4336841361134063 290.0 6.0 193.0 
130.00040553626064 1215.0 NaN 1023.481629926518 2.6313136634650807 292.0 6.0 197.0 
140.00040553626064 1207.0 NaN 1020.438209752838 3.1135556806505162 285.0 9.0 193.0 
150.00040553626064 1219.0 NaN 1020.4809619238451 2.340894769454384 284.0 8.0 194.0 
160.00040553626064 1251.0 NaN 1023.5751503006 2.216648383718913 287.0 8.0 195.0 
170.00040553626064 1278.0 NaN 1035.8263193052737 2.960802535029232 289.0 7.0 200.0 
180.00040553626064 1278.0 NaN 1020.5130260521015 2.8154798431613206 292.0 6.0 196.0 
190.00040553626064 1243.0 NaN 1014.3326653306623 2.602044850074386 285.0 6.0 194.0 
200.00040553626064 1241.0 NaN 1017.3760855043438 2.962133142591425 285.0 9.0 192.0 
210.00040553626064 1244.0 NaN 1005.0928523714089 2.5962830425069248 290.0 6.0 191.0 
220.00040553626064 1238.0 NaN 1011.2331329325291 2.5655631364596876 288.0 6.0 193.0 
230.00040553626064 1262.0 NaN 1026.5544422177713 3.063981200902316 283.0 12.0 192.0 
240.00040553626064 1270.0 NaN 1017.3573814295273 2.8492682011494415 290.0 6.0 195.0 
250.00040553626064 1247.0 NaN 1008.1923847695375 3.1226965314054405 287.0 6.0 192.0 
260.00040553626064 1231.0 NaN 1008.045424181699 3.1286718874356834 285.0 6.0 192.0 
270.00040553626064 1222.0 NaN 998.7815631262547 2.7046813578972775 281.0 6.0 189.0 
280.00040553626064 1219.0 NaN 1011.0434201736822 2.9557559916282647 286.0 6.0 193.0 
290.00040553626064 1195.0 NaN 1001.9051436205726 3.512873418235971 285.0 6.0 190.0 
300.00040553626064 1188.0 NaN 1011.1022044088185 2.7446302741957287 288.0 6.0 193.0 
310.00040553626064 1184.0 NaN 995.8076152304608 2.6664224226028126 280.0 6.0 188.0 
320.00040553626064 1202.0 NaN 989.6138944555788 2.9873618406009186 277.0 6.0 186.0 
330.00040553626064 1196.0 NaN 995.7648630594547 2.551775508074891 284.0 6.0 188.0 
340.00040553626064 1192.0 NaN 1004.9539078156306 2.609578369210356 286.0 6.0 191.0 
350.00040553626064 1186.0 NaN 995.8236472945908 3.2060701536288874 287.0 6.0 188.0 
360.00040553626064 1169.0 NaN 998.8537074148302 2.973796094237694 289.0 6.0 189.0 
370.00040553626064 1162.0 NaN 995.7675350701398 2.9415472737039305 285.0 6.0 188.0 
380.00040553626064 1151.0 NaN 995.6953907815638 2.880909497564278 286.0 6.0 188.0 
390.00040553626064 1161.0 NaN 974.2551770207093 2.481103710824902 280.0 6.0 181.0 
400.00040553626064 1176.0 NaN 974.2792251168997 2.6236232391988907 280.0 6.0 181.0 
410.00040553626064 1205.0 NaN 965.1249164996669 3.1702345728485466 277.0 6.0 178.0 
420.00040553626064 1199.0 NaN 943.6499665998665 2.8081824005514937 271.0 6.0 171.0 
430.00040553626064 1186.0 NaN 937.4669338677367 2.8659976730667927 263.0 6.0 169.0 
440.00040553626064 1196.0 NaN 958.9579158316637 3.294958151566155 261.0 6.0 176.0 
450.00040553626064 1205.0 NaN 962.0547762191065 2.880256264340585 267.0 6.0 177.0 
460.00040553626064 1218.0 NaN 952.8069472277908 2.8416859006185664 265.0 6.0 174.0 
470.00040553626064 1206.0 NaN 955.871743486973 3.0837903792978194 263.0 6.0 175.0 
480.00040553626064 1177.0 NaN 946.6613226452911 2.827498000344599 257.0 12.0 166.0 
490.00040553626064 1176.0 NaN 952.7294589178365 2.859755621591952 252.0 14.0 166.0 
500.00040553626064 1162.0 NaN 952.7695390781547 2.947217997090388 254.0 14.0 166.0 
510.00040553626064 1152.0 NaN 934.3299933199725 2.2598705182972574 255.0 8.0 166.0 
520.0004055362606 1140.0 NaN 925.1142284569139 2.5942109396172772 255.0 6.0 165.0 
530.0004055362606 1136.0 NaN 912.8256513026046 2.9443443977787362 249.0 6.0 161.0 
540.0004055362606 1137.0 NaN 915.9091516366052 2.4241999655014 251.0 6.0 162.0 
550.0004055362606 1131.0 NaN 912.847027388109 2.6514775387921814 250.0 6.0 161.0 
560.0004055362606 1139.0 NaN 909.7581830327317 2.9233817062338794 254.0 6.0 160.0 
570.0004055362606 1177.0 NaN 912.9164996659994 2.668185102858604 253.0 6.0 161.0 
580.0004055362606 1191.0 NaN 915.9786239144954 2.8548735377599015 252.0 6.0 162.0 
590.0004055362606 1187.0 NaN 922.1322645290592 3.0338824040991197 256.0 6.0 164.0 
600.0004055362606 1192.0 NaN 931.3159652638595 2.7706690225960986 264.0 6.0 167.0 
610.0004055362606 1210.0 NaN 943.5885103540411 2.7635621357345164 268.0 6.0 171.0 
620.0004055362606 1221.0 NaN 955.8610554442225 3.3047438076017914 269.0 6.0 175.0 
630.0004055362606 1231.0 NaN 962.0334001335998 3.032569195937563 266.0 6.0 177.0 
640.0004055362606 1274.0 NaN 983.6847027388094 3.1445793533290676 271.0 6.0 184.0 
650.0004055362606 1280.0 NaN 989.7795591182363 3.398587933615877 277.0 6.0 186.0 
660.0004055362606 1274.0 NaN 1002.0334001335998 3.1756314528733 277.0 10.0 186.0 
#####################################################################
# End of data export. Simulation finished at: 2019-03-01T18:12+0000 #
#####################################################################
