#####################################################################
# Alchemist log file - simulation started at: 2019-03-20T16:41+0000 #
#####################################################################
# seed = 9.0, bandwidth = 316227.76601683797, propagationDelay = 1.0, baserange = 1000.0
#
# The columns have the following meaning: 
# time neighbor_count[Sum] <value>@neighbor_count[Sum] packet_size[Mean] mean_delay[Mean] crowd[Sum] overcrowded[Sum] risk[Sum] 
0.0 NaN NaN NaN NaN NaN NaN NaN 
2.0003374459614243 101838.0 NaN 4989.186372745491 0.255717226593354 1497.0 0.0 1497.0 
4.000337445961424 210022.0 NaN 4994.519706078824 1.0155183586094558 1496.0 1.0 1496.0 
6.000337445961424 210022.0 NaN 4993.910487641951 1.0155308439142259 1496.0 1.0 1496.0 
8.000337445961424 210022.0 NaN 4993.9746158984635 1.0155334980925133 1496.0 1.0 1496.0 
10.000337445961424 210023.0 NaN 4993.910487641951 1.0155287934123831 1496.0 1.0 1496.0 
12.000337445961424 210024.0 NaN 4993.9746158984635 1.0155333638728004 1496.0 1.0 1496.0 
14.000337445961424 210026.0 NaN 4993.910487641951 1.015523660711223 1496.0 1.0 1496.0 
16.000337445961424 210035.0 NaN 4993.9746158984635 1.0155484892077464 1496.0 1.0 1496.0 
18.000337445961424 210053.0 NaN 4993.910487641951 1.0156193867373495 1496.0 1.0 1496.0 
20.000337445961424 210084.0 NaN 4993.9746158984635 1.0161947788196304 1496.0 1.0 1496.0 
22.000337445961424 210090.0 NaN 4993.913159652639 1.0157825151107713 1496.0 1.0 1496.0 
24.000337445961424 210091.0 NaN 4993.9612558450235 1.0157121044635191 1496.0 1.0 1496.0 
26.000337445961424 210096.0 NaN 4993.899799599199 1.015857340201408 1496.0 1.0 1496.0 
28.000337445961424 210096.0 NaN 4993.9826319305275 1.0157792276619455 1496.0 1.0 1496.0 
30.000337445961424 210131.0 NaN 4993.9452237808955 1.0158778294903599 1496.0 1.0 1496.0 
32.00033744596142 210178.0 NaN 4993.9933199732795 1.016051794023816 1496.0 1.0 1496.0 
34.00033744596142 210161.0 NaN 4993.9612558450235 1.0157844797642221 1496.0 1.0 1496.0 
36.00033744596142 210166.0 NaN 4993.9933199732795 1.0157744540423983 1496.0 1.0 1496.0 
38.00033744596142 210196.0 NaN 4993.9639278557115 1.016065889931774 1496.0 1.0 1496.0 
40.00033744596142 210222.0 NaN 4994.0066800267205 1.016125816541967 1496.0 1.0 1496.0 
42.00033744596142 210262.0 NaN 4993.9585838343355 1.0159406268774906 1496.0 1.0 1496.0 
44.00033744596142 210278.0 NaN 4994.0066800267205 1.0159066493771844 1496.0 1.0 1496.0 
46.00033744596142 210285.0 NaN 4993.9746158984635 1.0158625305148803 1496.0 1.0 1496.0 
48.00033744596142 210301.0 NaN 4994.0066800267205 1.0163023326236778 1496.0 1.0 1496.0 
50.00033744596142 210319.0 NaN 4993.9746158984635 1.0164435185632876 1496.0 1.0 1496.0 
52.00033744596142 210325.0 NaN 4994.0227120908485 1.0160658274639331 1496.0 1.0 1496.0 
54.00033744596142 210326.0 NaN 4993.9746158984635 1.0160015108763876 1496.0 1.0 1496.0 
56.00033744596142 210336.0 NaN 4994.0066800267205 1.016285422994742 1496.0 1.0 1496.0 
58.00033744596142 210351.0 NaN 4993.9746158984635 1.0166414273886597 1496.0 1.0 1496.0 
60.00033744596142 210354.0 NaN 4994.0066800267205 1.0162764771441752 1496.0 1.0 1496.0 
62.00033744596142 210323.0 NaN 1522.022712090848 1.0038099771558069 769.0 0.0 365.0 
64.00033744596142 210270.0 NaN 1521.9318637274544 1.004419822196543 664.0 0.0 365.0 
66.00033744596142 210280.0 NaN 1521.8997995991995 1.0056396506655723 601.0 1.0 364.0 
68.00033744596142 210280.0 NaN 1521.8997995991995 1.0057124113609652 571.0 1.0 364.0 
70.00033744596142 210308.0 NaN 1521.88376753507 1.0055644264641437 550.0 1.0 364.0 
72.00033744596142 210336.0 NaN 1521.88376753507 1.0057771330282408 542.0 1.0 364.0 
74.00033744596142 210288.0 NaN 1524.9645958583822 1.0053846929180343 535.0 1.0 365.0 
76.00033744596142 210298.0 NaN 1528.0454241816974 1.005456269795414 534.0 1.0 366.0 
78.00033744596142 210319.0 NaN 1531.1369405477635 1.0053360066277481 533.0 1.0 367.0 
80.00033744596142 210354.0 NaN 1531.1209084836341 1.0055322021509963 532.0 1.0 367.0 
82.00033744596142 210352.0 NaN 1531.1209084836341 1.0053860258314127 531.0 1.0 367.0 
84.00033744596142 210342.0 NaN 1534.1990647962602 1.0053246658864698 530.0 1.0 368.0 
86.00033744596142 210361.0 NaN 1534.193720774882 1.0053900649725098 528.0 1.0 368.0 
88.00033744596142 210411.0 NaN 1534.1776887107544 1.005275266522409 529.0 1.0 368.0 
90.00033744596142 210460.0 NaN 1534.1776887107544 1.005505449921287 529.0 1.0 368.0 
92.00033744596142 210456.0 NaN 1534.1776887107544 1.0054145692793788 528.0 1.0 368.0 
94.00033744596142 210448.0 NaN 1534.1776887107544 1.0053516768987396 527.0 1.0 368.0 
96.00033744596142 210463.0 NaN 1534.1776887107544 1.0054744251988765 527.0 1.0 368.0 
98.00033744596142 210512.0 NaN 1534.1750167000664 1.005326679199626 527.0 1.0 368.0 
100.00033744596142 210604.0 NaN 1534.1670006680026 1.0054937952886238 527.0 1.0 368.0 
102.00033744596142 210610.0 NaN 1537.247828991318 1.0054047582515848 527.0 1.0 369.0 
104.00033744596142 210613.0 NaN 1537.2424849699394 1.0054150850858754 527.0 1.0 369.0 
106.00033744596142 210619.0 NaN 1537.2424849699394 1.0054791979901125 526.0 1.0 369.0 
108.00033744596142 210633.0 NaN 1537.2424849699394 1.005373713623283 525.0 1.0 369.0 
110.00033744596142 210682.0 NaN 1540.3233132932544 1.0055133532110552 525.0 1.0 370.0 
112.00033744596142 210673.0 NaN 1540.3366733466933 1.0055323537872454 526.0 1.0 370.0 
114.00033744596142 210662.0 NaN 1540.3259853039424 1.0053434417808982 526.0 1.0 370.0 
116.00033744596142 210677.0 NaN 1546.4689378757519 1.0054573538948002 528.0 1.0 372.0 
118.00033744596142 210660.0 NaN 1549.5337341349364 1.0054768371426983 528.0 1.0 373.0 
120.00033744596142 210646.0 NaN 1549.5337341349364 1.0054338933814597 528.0 1.0 373.0 
122.00033744596142 210651.0 NaN 1549.5524382097544 1.0053599340185968 529.0 1.0 373.0 
124.00033744596142 210658.0 NaN 1549.5577822311275 1.005327105674615 529.0 1.0 373.0 
126.00033744596142 210673.0 NaN 1546.4903139612545 1.005381630034077 529.0 1.0 372.0 
128.0003374459614 210653.0 NaN 1546.4822979291907 1.0053692250149346 529.0 1.0 372.0 
130.0003374459614 210660.0 NaN 1546.4769539078154 1.0053810909403782 529.0 1.0 372.0 
132.0003374459614 210679.0 NaN 1543.4041416165664 1.0053853438376041 529.0 1.0 371.0 
134.0003374459614 210689.0 NaN 1540.3366733466935 1.0052732092413585 529.0 1.0 370.0 
136.0003374459614 210692.0 NaN 1543.4175016700067 1.005496826963625 527.0 1.0 371.0 
138.0003374459614 210683.0 NaN 1543.4175016700067 1.0052342059701305 527.0 1.0 371.0 
140.0003374459614 210697.0 NaN 1543.4014696058787 1.0052848070224047 528.0 1.0 371.0 
142.0003374459614 210706.0 NaN 1540.3366733466933 1.005244703532388 524.0 1.0 370.0 
144.0003374459614 210722.0 NaN 1540.339345357382 1.0052189319570446 523.0 1.0 370.0 
146.0003374459614 210730.0 NaN 1543.4041416165664 1.005225848342992 523.0 1.0 371.0 
148.0003374459614 210728.0 NaN 1543.3934535738151 1.0054529475466358 524.0 1.0 371.0 
150.0003374459614 210718.0 NaN 1537.2665330661334 1.0054700179564064 524.0 1.0 369.0 
152.0003374459614 210710.0 NaN 1537.261189044755 1.0053067878269435 523.0 1.0 369.0 
154.0003374459614 210717.0 NaN 1537.2585170340697 1.0051930019815374 524.0 1.0 369.0 
156.0003374459614 210713.0 NaN 1534.2044088176367 1.005173413529117 526.0 1.0 368.0 
158.0003374459614 210721.0 NaN 1534.2204408817638 1.0051354887294754 522.0 1.0 368.0 
160.0003374459614 210743.0 NaN 1534.2044088176367 1.0053943954529208 520.0 1.0 368.0 
162.0003374459614 210738.0 NaN 1534.2044088176367 1.0053003400342917 520.0 1.0 368.0 
164.0003374459614 210729.0 NaN 1540.3527054108213 1.0051232498566567 520.0 1.0 370.0 
166.0003374459614 210730.0 NaN 1540.3420173680702 1.0053515067072034 520.0 1.0 370.0 
168.0003374459614 210733.0 NaN 1540.3420173680702 1.0051571811932234 522.0 1.0 370.0 
170.0003374459614 210744.0 NaN 1543.4228456913816 1.0051855330088886 524.0 1.0 371.0 
172.0003374459614 210732.0 NaN 1540.3580494322 1.005211508266564 523.0 1.0 370.0 
174.0003374459614 210733.0 NaN 1537.3092852371428 1.0051444559381213 523.0 1.0 369.0 
176.0003374459614 210734.0 NaN 1537.3092852371428 1.0053077626019256 523.0 1.0 369.0 
178.0003374459614 210738.0 NaN 1537.2932531730119 1.005219187458388 522.0 1.0 369.0 
180.0003374459614 210746.0 NaN 1534.2284569138271 1.0053573014598198 524.0 1.0 368.0 
182.0003374459614 210735.0 NaN 1534.2284569138271 1.005363589872728 522.0 1.0 368.0 
184.0003374459614 210726.0 NaN 1534.263193052773 1.0052293510925658 520.0 1.0 368.0 
186.0003374459614 210728.0 NaN 1531.169004676018 1.0053499136735997 519.0 1.0 367.0 
188.0003374459614 210725.0 NaN 1528.0801603206426 1.0052587237498538 518.0 1.0 366.0 
190.0003374459614 210729.0 NaN 1528.0748162992638 1.0053726757855967 518.0 1.0 366.0 
192.0003374459614 210729.0 NaN 1531.1583166332662 1.0053858426529338 518.0 1.0 367.0 
194.0003374459614 210707.0 NaN 1528.0828323313276 1.0053764193471546 518.0 1.0 366.0 
196.0003374459614 210693.0 NaN 1531.1609886439546 1.005520235153063 518.0 1.0 367.0 
198.0003374459614 210686.0 NaN 1531.155644622579 1.0055623266501963 518.0 1.0 367.0 
200.0003374459614 210678.0 NaN 1534.2391449565816 1.0051989128617802 520.0 1.0 368.0 
202.0003374459614 210756.0 NaN 1537.3092852371428 1.005213228409412 520.0 1.0 369.0 
204.0003374459614 210777.0 NaN 1537.327989311957 1.0053803981580414 520.0 1.0 369.0 
206.0003374459614 210771.0 NaN 1534.2525050100182 1.0054233717253989 519.0 1.0 368.0 
208.0003374459614 210776.0 NaN 1537.3146292585184 1.0053967505530823 516.0 1.0 369.0 
210.0003374459614 210766.0 NaN 1537.3039412157636 1.005228783616543 516.0 1.0 369.0 
212.0003374459614 210816.0 NaN 1537.2798931195728 1.0052219092843682 518.0 1.0 369.0 
214.0003374459614 210838.0 NaN 1531.1396125584515 1.0053325714192811 518.0 1.0 367.0 
216.0003374459614 210840.0 NaN 1534.1857047428182 1.0057571972528476 515.0 1.0 368.0 
218.0003374459614 210842.0 NaN 1534.18303273213 1.0053588231906867 516.0 1.0 368.0 
220.0003374459614 210837.0 NaN 1537.2665330661334 1.0053397768943302 517.0 1.0 369.0 
222.0003374459614 210832.0 NaN 1534.1589846359368 1.0051781175161216 517.0 2.0 367.0 
224.0003374459614 210823.0 NaN 1534.193720774882 1.0052165257740988 515.0 2.0 367.0 
226.0003374459614 210830.0 NaN 1534.193720774882 1.0050549829407123 516.0 2.0 367.0 
228.0003374459614 210849.0 NaN 1534.1910487641937 1.005405642203179 515.0 2.0 367.0 
230.0003374459614 210849.0 NaN 1534.2097528390093 1.005150591437184 514.0 2.0 367.0 
232.0003374459614 210876.0 NaN 1537.2745490981972 1.0052500481212128 512.0 2.0 368.0 
234.0003374459614 210868.0 NaN 1537.2451569806271 1.005111961446624 513.0 2.0 368.0 
236.0003374459614 210870.0 NaN 1537.2638610554454 1.0050663658121544 513.0 2.0 368.0 
238.0003374459614 210903.0 NaN 1537.2558450233817 1.005443946041591 513.0 2.0 368.0 
240.0003374459614 210895.0 NaN 1527.9973279893115 1.0050592930354507 514.0 2.0 365.0 
242.0003374459614 210933.0 NaN 1527.9893119572475 1.005051083094151 514.0 2.0 365.0 
244.0003374459614 210954.0 NaN 1528.0053440213755 1.0051677589695163 514.0 2.0 365.0 
246.0003374459614 210939.0 NaN 1527.9812959251822 1.0049580892419376 514.0 2.0 365.0 
248.0003374459614 210973.0 NaN 1527.9732798931184 1.0050655631701282 514.0 2.0 365.0 
250.0003374459614 210984.0 NaN 1531.0647962591845 1.0053287299365607 514.0 2.0 366.0 
252.0003374459614 210958.0 NaN 1534.1643286573153 1.005111870197317 514.0 2.0 367.0 
254.0003374459614 210984.0 NaN 1534.185704742818 1.0052917784294098 515.0 2.0 367.0 
256.0003374459614 210970.0 NaN 1531.0621242484974 1.0051444337835793 515.0 2.0 366.0 
258.0003374459614 210980.0 NaN 1531.0621242484974 1.005182435885468 515.0 2.0 366.0 
260.0003374459614 210987.0 NaN 1531.0941883767546 1.0056611468733399 516.0 2.0 366.0 
262.0003374459614 210965.0 NaN 1528.0267201068816 1.0051378698897675 514.0 2.0 365.0 
264.0003374459614 210996.0 NaN 1534.2017368069457 1.0052192513447276 514.0 2.0 367.0 
266.0003374459614 210984.0 NaN 1537.239812959252 1.0051736322241416 514.0 2.0 368.0 
268.0003374459614 211045.0 NaN 1534.1723446893793 1.0053946779785223 515.0 2.0 367.0 
270.0003374459614 211124.0 NaN 1528.0026720106882 1.0055517566598833 514.0 2.0 365.0 
272.0003374459614 211109.0 NaN 1534.1376085504362 1.0053836080239562 515.0 2.0 367.0 
274.0003374459614 211127.0 NaN 1537.2692050768183 1.005505943828015 517.0 2.0 368.0 
276.0003374459614 211103.0 NaN 1540.3152972611908 1.0053092522900098 517.0 2.0 369.0 
278.0003374459614 211127.0 NaN 1540.3179692718752 1.0054992842660129 516.0 2.0 369.0 
280.0003374459614 211149.0 NaN 1540.317969271875 1.005483167188805 516.0 2.0 369.0 
282.0003374459614 211111.0 NaN 1540.3126252504999 1.0056912823870479 516.0 2.0 369.0 
284.0003374459614 211110.0 NaN 1540.2965931863728 1.0054352940108016 515.0 2.0 369.0 
286.0003374459614 211078.0 NaN 1540.2832331329341 1.0053603488873344 515.0 2.0 369.0 
288.0003374459614 211077.0 NaN 1537.2211088844365 1.0055979129600685 513.0 2.0 368.0 
290.0003374459614 211072.0 NaN 1534.1643286573158 1.005665703569499 513.0 2.0 367.0 
292.0003374459614 211058.0 NaN 1534.1295925183704 1.0053620526780667 512.0 2.0 367.0 
294.0003374459614 211056.0 NaN 1534.175016700066 1.0055432798478965 511.0 2.0 367.0 
296.0003374459614 210982.0 NaN 1534.1536406145638 1.0052373558807852 511.0 2.0 367.0 
298.0003374459614 210994.0 NaN 1534.1536406145638 1.005217876037737 511.0 2.0 367.0 
300.0003374459614 211018.0 NaN 1537.2531730126907 1.0057095241639527 510.0 2.0 368.0 
302.0003374459614 210954.0 NaN 1528.0454241816976 1.0054477669905686 509.0 2.0 365.0 
304.0003374459614 210965.0 NaN 1531.1102204408817 1.0054942153574726 510.0 2.0 366.0 
306.0003374459614 210915.0 NaN 1534.180360721443 1.005369526873395 509.0 2.0 367.0 
308.0003374459614 210925.0 NaN 1534.1670006680024 1.0054566448139373 509.0 2.0 367.0 
310.0003374459614 210961.0 NaN 1534.1803607214429 1.0055994098956538 508.0 2.0 367.0 
312.0003374459614 210994.0 NaN 1528.0213760855033 1.0056832772526578 508.0 1.0 366.0 
314.0003374459614 210969.0 NaN 1531.0968603874423 1.0054353565710068 507.0 2.0 366.0 
316.0003374459614 210939.0 NaN 1531.0380761523063 1.0054641819828753 507.0 2.0 366.0 
318.0003374459614 210958.0 NaN 1531.080828323312 1.005488258110958 508.0 2.0 366.0 
320.0003374459614 210968.0 NaN 1537.2985971943908 1.0056441251273485 507.0 2.0 368.0 
322.0003374459614 210960.0 NaN 1537.2611890447547 1.005513599926546 507.0 2.0 368.0 
324.0003374459614 210961.0 NaN 1534.185704742818 1.0056364967934859 506.0 2.0 367.0 
326.0003374459614 210907.0 NaN 1534.185704742818 1.00551822441536 508.0 2.0 367.0 
328.0003374459614 210907.0 NaN 1534.185704742818 1.0055064288789821 507.0 2.0 367.0 
330.0003374459614 210888.0 NaN 1534.2044088176367 1.0055007978412396 506.0 2.0 367.0 
332.0003374459614 210865.0 NaN 1534.1883767535091 1.0053252931735774 506.0 2.0 367.0 
334.0003374459614 210865.0 NaN 1531.0941883767546 1.0059255884996146 506.0 2.0 366.0 
336.0003374459614 210785.0 NaN 1534.150968603873 1.0053126645263832 507.0 2.0 367.0 
338.0003374459614 210788.0 NaN 1534.1295925183704 1.0053623007393753 507.0 2.0 367.0 
340.0003374459614 210790.0 NaN 1531.0968603874426 1.00530413187136 508.0 2.0 366.0 
342.0003374459614 210777.0 NaN 1531.126252505009 1.005229684338054 508.0 2.0 366.0 
344.0003374459614 210784.0 NaN 1528.0400801603205 1.0054328436633126 509.0 2.0 365.0 
346.0003374459614 210727.0 NaN 1521.8463593854362 1.0051242095434951 508.0 2.0 363.0 
348.0003374459614 210723.0 NaN 1524.908483633936 1.0051424971489598 513.0 2.0 364.0 
350.0003374459614 210721.0 NaN 1528.0 1.005417116071551 511.0 2.0 365.0 
352.0003374459614 210693.0 NaN 1527.9812959251822 1.0052596664286726 511.0 2.0 365.0 
354.0003374459614 210706.0 NaN 1524.9138276553094 1.0054487844921287 511.0 2.0 364.0 
356.0003374459614 210701.0 NaN 1524.908483633936 1.0052399600803035 510.0 2.0 364.0 
358.0003374459614 210709.0 NaN 1524.9298597194388 1.0056927172671684 511.0 2.0 364.0 
360.0003374459614 210624.0 NaN 1524.951235804945 1.0058671028287796 511.0 2.0 364.0 
362.0003374459614 210592.0 NaN 1524.9058116232454 1.0052736085700338 514.0 2.0 364.0 
364.0003374459614 210617.0 NaN 1524.9058116232454 1.0056745286086017 513.0 2.0 364.0 
366.0003374459614 210586.0 NaN 1521.8169672678698 1.0057481927846867 514.0 2.0 363.0 
368.0003374459614 210575.0 NaN 1518.7254509018032 1.0058486734343224 514.0 2.0 362.0 
370.0003374459614 210448.0 NaN 1512.5718102872422 1.0060702172829545 513.0 2.0 360.0 
372.0003374459614 210344.0 NaN 1506.4555778223103 1.0054666485639003 513.0 2.0 358.0 
374.0003374459614 210355.0 NaN 1506.4635938543747 1.005786754508846 512.0 2.0 358.0 
376.0003374459614 210323.0 NaN 1509.523046092184 1.005477201816281 513.0 2.0 359.0 
378.0003374459614 210339.0 NaN 1509.5310621242477 1.0057524912458824 513.0 2.0 359.0 
380.0003374459614 210254.0 NaN 1506.4315297261182 1.0060518426719267 515.0 2.0 358.0 
382.0003374459614 210181.0 NaN 1506.4849699398808 1.0060506159204976 518.0 2.0 358.0 
384.0003374459614 210178.0 NaN 1506.479625918503 1.0052847452752547 517.0 2.0 358.0 
386.0003374459614 210158.0 NaN 1506.4956579826332 1.0050373020615317 516.0 2.0 358.0 
388.0003374459614 210168.0 NaN 1512.6359385437547 1.0051403710298927 516.0 2.0 360.0 
390.0003374459614 210131.0 NaN 1515.695390781564 1.0053616480897418 518.0 2.0 361.0 
392.0003374459614 210081.0 NaN 1512.6706746826994 1.0050860416815093 519.0 2.0 360.0 
394.0003374459614 210093.0 NaN 1515.7327989311968 1.0053698487395157 519.0 2.0 361.0 
396.0003374459614 210057.0 NaN 1515.7194388777546 1.0053201359529857 519.0 2.0 361.0 
398.0003374459614 210064.0 NaN 1515.6873747495 1.0056037794035968 519.0 2.0 361.0 
400.0003374459614 210026.0 NaN 1512.6145624582489 1.0053615868688945 518.0 2.0 360.0 
402.0003374459614 210052.0 NaN 1512.654642618572 1.005085040425449 520.0 2.0 360.0 
404.0003374459614 210071.0 NaN 1509.5845023380089 1.0053636127813879 519.0 2.0 359.0 
406.0003374459614 210046.0 NaN 1518.7975951903818 1.0050602028158495 521.0 2.0 362.0 
408.0003374459614 210074.0 NaN 1518.7922511690056 1.0056651934610876 521.0 2.0 362.0 
410.0003374459614 210027.0 NaN 1521.859719438879 1.0052047774025241 521.0 2.0 363.0 
412.0003374459614 210026.0 NaN 1524.9699398797607 1.0050320031028666 522.0 2.0 364.0 
414.0003374459614 210049.0 NaN 1528.0240480961913 1.005303964482727 522.0 2.0 365.0 
416.0003374459614 210018.0 NaN 1521.891783567136 1.0050064879742022 522.0 2.0 363.0 
418.0003374459614 210036.0 NaN 1521.8971275885094 1.0053143134487246 522.0 2.0 363.0 
420.0003374459614 210018.0 NaN 1512.6626586506354 1.0050233482156865 518.0 2.0 360.0 
422.0003374459614 210021.0 NaN 1515.751503006011 1.0047860689927863 516.0 2.0 361.0 
424.0003374459614 210054.0 NaN 1515.7621910487635 1.0051199288326704 517.0 2.0 361.0 
426.0003374459614 210014.0 NaN 1512.6599866399456 1.005199083527195 519.0 2.0 360.0 
428.0003374459614 209966.0 NaN 1518.7815631262533 1.0050913471349905 521.0 2.0 362.0 
430.0003374459614 209948.0 NaN 1534.1482965931848 1.004919836014124 524.0 2.0 367.0 
432.0003374459614 209914.0 NaN 1534.1215764863068 1.0048466934686107 525.0 2.0 367.0 
434.0003374459614 209935.0 NaN 1537.2451569806271 1.0051366824983536 525.0 2.0 368.0 
436.0003374459614 209936.0 NaN 1531.1102204408817 1.0047320160348672 525.0 2.0 366.0 
438.0003374459614 209941.0 NaN 1531.115564462257 1.0051724288658717 525.0 2.0 366.0 
440.0003374459614 209938.0 NaN 1534.140280561121 1.0051736996184544 528.0 2.0 367.0 
442.0003374459614 209923.0 NaN 1543.4281897127576 1.0050496795230048 528.0 2.0 370.0 
444.0003374459614 209957.0 NaN 1543.366733466934 1.0062322967965134 528.0 2.0 370.0 
446.0003374459614 209860.0 NaN 1531.0835003340003 1.005556157068812 529.0 2.0 366.0 
448.0003374459614 209852.0 NaN 1534.1242484969935 1.0054824130777589 527.0 2.0 367.0 
450.0003374459614 209852.0 NaN 1540.277889111555 1.0055076395075973 529.0 2.0 369.0 
452.0003374459614 209862.0 NaN 1543.372077488309 1.0052933317441917 528.0 2.0 370.0 
454.0003374459614 209881.0 NaN 1546.4689378757519 1.00564789769608 528.0 2.0 371.0 
456.0003374459614 209849.0 NaN 1546.439545758182 1.0057984816146393 529.0 2.0 371.0 
458.0003374459614 209836.0 NaN 1543.3934535738151 1.0061236893681 527.0 2.0 370.0 
460.0003374459614 209816.0 NaN 1546.458249833 1.005667700751536 524.0 2.0 371.0 
462.0003374459614 209786.0 NaN 1546.4502338009365 1.0055070430144506 527.0 2.0 371.0 
464.0003374459614 209797.0 NaN 1546.4555778223096 1.0059107896532091 526.0 2.0 371.0 
466.0003374459614 209764.0 NaN 1549.496325985303 1.0057527082866407 530.0 2.0 372.0 
468.0003374459614 209762.0 NaN 1540.2805611222454 1.005940759971524 526.0 2.0 369.0 
470.0003374459614 209729.0 NaN 1537.164996659988 1.0058557147408709 529.0 1.0 369.0 
472.0003374459614 209671.0 NaN 1534.1028724114906 1.0055644363070795 525.0 1.0 368.0 
474.0003374459614 209673.0 NaN 1524.884435537743 1.0058966536842435 526.0 1.0 365.0 
476.0003374459614 209639.0 NaN 1524.892451569807 1.0054726502408784 522.0 1.0 365.0 
478.0003374459614 209680.0 NaN 1524.9058116232454 1.0055338053155412 522.0 1.0 365.0 
480.0003374459614 209684.0 NaN 1524.9111556446212 1.0055183614292729 519.0 1.0 365.0 
482.0003374459614 209661.0 NaN 1524.8790915163656 1.0052900608074036 521.0 1.0 365.0 
484.0003374459614 209682.0 NaN 1515.6793587174357 1.0055658300897006 519.0 1.0 362.0 
486.0003374459614 209670.0 NaN 1512.6412825651294 1.005291842901932 519.0 1.0 361.0 
488.0003374459614 209705.0 NaN 1503.396125584501 1.0053948811825117 515.0 1.0 358.0 
490.0003374459614 209724.0 NaN 1497.2505010020031 1.0051944550340675 516.0 1.0 356.0 
492.0003374459614 209695.0 NaN 1497.2371409485636 1.0050486148848967 510.0 1.0 356.0 
494.0003374459614 209710.0 NaN 1497.2772211088839 1.0054655293284203 511.0 1.0 356.0 
496.0003374459614 209672.0 NaN 1491.0888443553786 1.0050455669955516 513.0 1.0 354.0 
498.0003374459614 209718.0 NaN 1484.9859719438884 1.0052321365726122 514.0 1.0 352.0 
500.0003374459614 209705.0 NaN 1484.9619238476942 1.0050530690419701 512.0 1.0 352.0 
502.0003374459614 209675.0 NaN 1481.8650634602543 1.0049008908093002 512.0 1.0 351.0 
504.0003374459614 209686.0 NaN 1484.9458917835664 1.0055106218328442 512.0 1.0 352.0 
506.0003374459614 209633.0 NaN 1488.0480961923838 1.0052701729763083 514.0 1.0 353.0 
508.0003374459614 209663.0 NaN 1488.064128256512 1.0050801949198676 512.0 1.0 353.0 
510.0003374459614 209666.0 NaN 1497.3039412157643 1.0056605139327035 515.0 1.0 356.0 
512.0003374459613 209611.0 NaN 1491.1422845691375 1.0052463909189082 512.0 1.0 354.0 
514.0003374459613 209616.0 NaN 1491.1315965263848 1.0055848246574877 513.0 1.0 354.0 
516.0003374459613 209637.0 NaN 1491.1102204408817 1.0054120867151615 511.0 1.0 354.0 
518.0003374459613 209664.0 NaN 1484.9645958583828 1.005654347018773 513.0 1.0 352.0 
520.0003374459613 209644.0 NaN 1478.81095524382 1.005388884734544 511.0 1.0 350.0 
522.0003374459613 209595.0 NaN 1472.6760187040738 1.0053431130977104 512.0 1.0 348.0 
524.0003374459613 209610.0 NaN 1475.756847027389 1.0055830960991663 511.0 1.0 349.0 
526.0003374459613 209665.0 NaN 1466.549098196392 1.0053466713092734 508.0 1.0 346.0 
528.0003374459613 209693.0 NaN 1466.6105544422182 1.0054031220422204 511.0 1.0 346.0 
530.0003374459613 209669.0 NaN 1463.4629258517027 1.0052378938440787 515.0 1.0 345.0 
532.0003374459613 209632.0 NaN 1469.6379425517707 1.0050366026822104 515.0 1.0 347.0 
534.0003374459613 209643.0 NaN 1472.6760187040738 1.0053638864141505 517.0 1.0 348.0 
536.0003374459613 209650.0 NaN 1472.6599866399456 1.005092479254505 514.0 1.0 348.0 
538.0003374459613 209670.0 NaN 1469.5951903807625 1.0051259253982816 516.0 1.0 347.0 
540.0003374459613 209715.0 NaN 1469.5951903807625 1.0052116818727594 515.0 1.0 347.0 
542.0003374459613 209724.0 NaN 1469.5951903807625 1.0053122585494076 514.0 1.0 347.0 
544.0003374459613 209706.0 NaN 1466.5490981963922 1.0057056473621668 513.0 1.0 346.0 
546.0003374459613 209676.0 NaN 1466.506346025383 1.0052713667573876 512.0 1.0 346.0 
548.0003374459613 209686.0 NaN 1469.5738142952564 1.0054123467104177 514.0 1.0 347.0 
550.0003374459613 209707.0 NaN 1469.5951903807625 1.0052385725228228 516.0 1.0 347.0 
552.0003374459613 209692.0 NaN 1469.5444221776895 1.0050446647460278 516.0 1.0 347.0 
554.0003374459613 209697.0 NaN 1466.463593854375 1.0056340279424936 516.0 1.0 346.0 
556.0003374459613 209675.0 NaN 1463.4068136272545 1.0052061568312656 514.0 1.0 345.0 
558.0003374459613 209702.0 NaN 1466.4822979291914 1.0053652531926647 514.0 1.0 346.0 
560.0003374459613 209718.0 NaN 1457.3039412157643 1.0051372180450295 511.0 1.0 343.0 
562.0003374459613 209710.0 NaN 1457.290581162325 1.0049876945880012 510.0 1.0 343.0 
564.0003374459613 209718.0 NaN 1463.4442217768876 1.0052645966007083 511.0 1.0 345.0 
566.0003374459613 209731.0 NaN 1463.4415497661996 1.004972835205003 512.0 1.0 345.0 
568.0003374459613 209774.0 NaN 1466.506346025383 1.005204257507287 513.0 1.0 346.0 
570.0003374459613 209782.0 NaN 1469.6192384769545 1.005305883993572 513.0 1.0 347.0 
572.0003374459613 209777.0 NaN 1481.9265197060795 1.0053150685237604 514.0 1.0 351.0 
574.0003374459613 209761.0 NaN 1485.0233800935196 1.0051730700691155 515.0 1.0 352.0 
576.0003374459613 209774.0 NaN 1484.9726118904466 1.0054059655151324 515.0 1.0 352.0 
578.0003374459613 209813.0 NaN 1484.9913159652635 1.0053658112245298 515.0 1.0 352.0 
580.0003374459613 209853.0 NaN 1488.061456245826 1.0054609675267263 515.0 1.0 353.0 
582.0003374459613 209858.0 NaN 1488.0668002671998 1.0055148116470431 516.0 1.0 353.0 
584.0003374459613 209824.0 NaN 1484.9966599866393 1.0053022195197774 515.0 1.0 352.0 
586.0003374459613 209824.0 NaN 1488.0961923847706 1.0053878701700734 518.0 1.0 353.0 
588.0003374459613 209841.0 NaN 1488.04008016032 1.0050293927443108 520.0 1.0 353.0 
590.0003374459613 209881.0 NaN 1491.0888443553788 1.0051338784092647 520.0 1.0 354.0 
592.0003374459613 209867.0 NaN 1497.2558450233805 1.0051242325466985 522.0 1.0 356.0 
594.0003374459613 209852.0 NaN 1488.0748162992647 1.0049184572775354 523.0 1.0 353.0 
596.0003374459613 209892.0 NaN 1484.9779559118244 1.0051703340990743 523.0 1.0 352.0 
598.0003374459613 209937.0 NaN 1484.9832999332002 1.0049579053831257 522.0 1.0 352.0 
600.0003374459613 209964.0 NaN 1488.0374081496334 1.0049003638907998 522.0 1.0 353.0 
602.0003374459613 209966.0 NaN 1494.17234468938 1.0052513408092827 524.0 1.0 355.0 
604.0003374459613 209950.0 NaN 1497.279893119573 1.0048904219678607 523.0 1.0 356.0 
606.0003374459613 209977.0 NaN 1494.1803607214435 1.0050425943734853 526.0 1.0 355.0 
608.0003374459613 210000.0 NaN 1494.1776887107544 1.0051283161636633 522.0 1.0 355.0 
610.0003374459613 210008.0 NaN 1494.1830327321302 1.0053169266750175 521.0 1.0 355.0 
612.0003374459613 209970.0 NaN 1497.2424849699394 1.0058379002615456 521.0 1.0 356.0 
614.0003374459613 209913.0 NaN 1500.3500334001344 1.005157611559793 523.0 1.0 357.0 
616.0003374459613 209920.0 NaN 1506.5303941215757 1.0053155309284818 525.0 1.0 359.0 
618.0003374459613 209933.0 NaN 1515.775551102203 1.005466210327943 524.0 1.0 362.0 
620.0003374459613 209925.0 NaN 1515.7060788243161 1.0055098226022803 523.0 1.0 362.0 
622.0003374459613 209930.0 NaN 1512.6092184368727 1.0054033942163259 524.0 1.0 361.0 
624.0003374459613 209931.0 NaN 1512.643954575818 1.0051684823238758 524.0 1.0 361.0 
626.0003374459613 209944.0 NaN 1518.8029392117553 1.0053440353204617 525.0 1.0 363.0 
628.0003374459613 209968.0 NaN 1518.7842351369395 1.0052371243744902 522.0 1.0 363.0 
630.0003374459613 209961.0 NaN 1521.8704074816294 1.0053036282898853 525.0 1.0 364.0 
632.0003374459613 209958.0 NaN 1521.873079492318 1.005278397402952 523.0 1.0 364.0 
634.0003374459613 209967.0 NaN 1518.8510354041425 1.0052117368388656 527.0 1.0 363.0 
636.0003374459613 209985.0 NaN 1518.8430193720787 1.0051724107943787 528.0 1.0 363.0 
638.0003374459613 210001.0 NaN 1518.8350033400122 1.0051980418607411 529.0 1.0 363.0 
640.0003374459613 209997.0 NaN 1515.7648630594538 1.00515415232614 530.0 1.0 362.0 
642.0003374459613 210004.0 NaN 1518.8563794255183 1.0049924738019436 528.0 1.0 363.0 
644.0003374459613 210049.0 NaN 1521.8997995991992 1.0048629227652859 528.0 1.0 364.0 
646.0003374459613 210081.0 NaN 1518.8430193720787 1.0050569085335634 528.0 1.0 363.0 
648.0003374459613 210081.0 NaN 1518.786907147628 1.005141210711732 529.0 1.0 363.0 
650.0003374459613 210087.0 NaN 1518.7762191048757 1.004977339035258 525.0 1.0 363.0 
652.0003374459613 210081.0 NaN 1515.7087508350028 1.004875519940555 524.0 1.0 362.0 
654.0003374459613 210144.0 NaN 1518.7762191048757 1.0047389768939095 522.0 1.0 363.0 
656.0003374459613 210231.0 NaN 1528.0507682030725 1.0051846142406438 520.0 1.0 366.0 
658.0003374459613 210208.0 NaN 1531.0968603874423 1.005717346734237 518.0 1.0 367.0 
660.0003374459613 210189.0 NaN 1531.0781563126263 1.0049893554284828 517.0 1.0 367.0 
662.0003374459613 210183.0 NaN 1531.0835003340007 1.0048153305547274 516.0 1.0 367.0 
664.0003374459613 210210.0 NaN 1537.234468937875 1.0047719031165843 515.0 1.0 369.0 
#####################################################################
# End of data export. Simulation finished at: 2019-03-20T19:01+0000 #
#####################################################################
