#####################################################################
# Alchemist log file - simulation started at: 2019-03-17T11:49+0000 #
#####################################################################
# seed = 8.0, bandwidth = 5623413.251903491, propagationDelay = 3.1622776601683795, baserange = 177.82794100389228
#
# The columns have the following meaning: 
# time neighbor_count[Sum] <value>@neighbor_count[Sum] packet_size[Mean] mean_delay[Mean] crowd[Sum] overcrowded[Sum] risk[Sum] 
0.0 NaN NaN NaN NaN NaN NaN NaN 
2.000927030832833 NaN NaN 4988.0 NaN 1497.0 0.0 1497.0 
4.0004801313653235 9294.0 NaN 4988.935203740815 0.23494077823240012 1497.0 0.0 1497.0 
6.000198348008885 26546.0 NaN 4995.665998663994 1.8369047630963153 1497.0 0.0 1497.0 
8.000478708741793 26548.0 NaN 4995.3640614562455 2.453695002504961 1496.0 1.0 1496.0 
10.000927030832834 26552.0 NaN 4993.9853039412155 1.8376828088804165 1494.0 3.0 1494.0 
12.000478708741793 26554.0 NaN 4993.806279225117 2.4553467229949653 1493.0 4.0 1493.0 
14.000927030832834 26555.0 NaN 4994.704074816299 1.8404599494707188 1493.0 4.0 1493.0 
16.000198348008887 26549.0 NaN 4994.655978623914 2.454780642385595 1493.0 4.0 1493.0 
18.000927030832834 26554.0 NaN 4993.841015364062 1.842831649753421 1493.0 4.0 1493.0 
20.00047870874179 26548.0 NaN 4993.803607214429 2.4538097092615443 1493.0 4.0 1493.0 
22.000927030832834 26551.0 NaN 4994.669338677355 1.841073834685362 1493.0 4.0 1493.0 
24.00047870874179 26554.0 NaN 4994.639946559786 2.4527187171874663 1493.0 4.0 1493.0 
26.000198348008887 26578.0 NaN 4993.886439545759 1.8381969720881435 1493.0 4.0 1493.0 
28.00047870874179 26574.0 NaN 4993.819639278557 2.45357969857183 1493.0 4.0 1493.0 
30.000927030832834 26593.0 NaN 4994.631930527722 1.8452590479832867 1494.0 3.0 1494.0 
32.000478708741795 26577.0 NaN 4994.637274549098 2.4565983153368123 1494.0 3.0 1494.0 
34.000927030832834 26620.0 NaN 4993.835671342686 1.8476917123972316 1494.0 3.0 1494.0 
36.00019834800889 26610.0 NaN 4993.795591182365 2.453883032747653 1494.0 3.0 1494.0 
38.000927030832834 26611.0 NaN 4994.658650634603 1.8410353634985426 1494.0 3.0 1494.0 
40.00047870874179 26601.0 NaN 4994.658650634603 2.452569077470864 1494.0 3.0 1494.0 
42.000927030832834 26621.0 NaN 4993.838343353374 1.8397638993765522 1494.0 3.0 1494.0 
44.00047870874179 26628.0 NaN 4993.779559118237 2.4529386789102174 1493.0 4.0 1493.0 
46.00019834800889 26666.0 NaN 4994.682698730795 1.8397654238151142 1493.0 4.0 1493.0 
48.00047870874179 26640.0 NaN 4994.650634602538 2.4544111851998682 1493.0 4.0 1493.0 
50.000927030832834 26649.0 NaN 4993.859719438878 1.8493532913755093 1493.0 4.0 1493.0 
52.00047870874179 26649.0 NaN 4993.814295257181 2.451558579945276 1493.0 4.0 1493.0 
54.000927030832834 26690.0 NaN 4994.677354709419 1.839030725751669 1493.0 4.0 1493.0 
56.00019834800889 26661.0 NaN 4994.696058784235 2.4516783225759076 1493.0 4.0 1493.0 
58.000927030832834 26678.0 NaN 4993.897127588511 1.8442263267410501 1493.0 4.0 1493.0 
60.00047870874179 26657.0 NaN 4993.8810955243825 2.453652820283649 1493.0 4.0 1493.0 
62.000927030832834 26677.0 NaN 1519.305277221109 1.8494456557601324 838.0 1.0 363.0 
64.0004787087418 26675.0 NaN 1519.315965263861 2.4487485527184516 790.0 1.0 363.0 
66.0001983480089 26716.0 NaN 1519.4014696058787 1.8407165715580855 666.0 1.0 363.0 
68.00049030620221 26698.0 NaN 1519.2972611890455 2.454688467389637 647.0 2.0 362.0 
70.00092703083283 26740.0 NaN 1519.2464929859727 1.8443189902017894 602.0 3.0 361.0 
72.00049030620221 26731.0 NaN 1519.2064128256518 2.4555713103356873 591.0 3.0 361.0 
74.00092703083283 26754.0 NaN 1522.268537074148 1.8433706611896734 577.0 3.0 362.0 
76.0001983480089 26754.0 NaN 1525.3573814295269 2.459859875627399 570.0 3.0 363.0 
78.00092703083283 26801.0 NaN 1528.4355377421516 1.8482511658951575 551.0 3.0 364.0 
80.00049030620221 26785.0 NaN 1528.427521710088 2.4582913345975017 548.0 3.0 364.0 
82.00092703083283 26806.0 NaN 1528.4061456245818 1.845596433938049 542.0 3.0 364.0 
84.00049030620221 26788.0 NaN 1531.4949899799606 2.4526999671171206 541.0 3.0 365.0 
86.0001983480089 26798.0 NaN 1531.505678022712 1.8412202016230297 535.0 2.0 366.0 
88.00049030620221 26783.0 NaN 1531.484301937209 2.4565522061542806 535.0 2.0 366.0 
90.00092703083283 26804.0 NaN 1531.4789579158307 1.8503107616863586 534.0 2.0 366.0 
92.00049030620221 26759.0 NaN 1531.4816299265183 2.4521448071484024 534.0 2.0 366.0 
94.00092703083283 26783.0 NaN 1531.5003340013366 1.8493459287879666 532.0 2.0 366.0 
96.0001983480089 26748.0 NaN 1534.5571142284568 2.4530007775678895 532.0 2.0 367.0 
98.00092703083283 26769.0 NaN 1534.5597862391458 1.8408949608963987 530.0 2.0 367.0 
100.00049030620221 26747.0 NaN 1534.567802271209 2.452438309793432 530.0 2.0 367.0 
102.00092703083283 26787.0 NaN 1534.5704742818973 1.8476713526043766 530.0 2.0 367.0 
104.00049030620221 26759.0 NaN 1534.5624582498333 2.449413163224759 529.0 2.0 367.0 
106.0001983480089 26789.0 NaN 1534.5597862391458 1.8418988264538774 526.0 3.0 366.0 
108.00049030620221 26760.0 NaN 1534.5571142284568 2.450103066423228 525.0 3.0 366.0 
110.00092703083283 26802.0 NaN 1534.5704742818973 1.8440149483209891 524.0 3.0 366.0 
112.00049030620221 26756.0 NaN 1537.6272545090183 2.450711574791103 524.0 3.0 367.0 
114.00092703083283 26774.0 NaN 1537.6406145624576 1.8475803225382221 523.0 3.0 367.0 
116.0001983480089 26737.0 NaN 1537.6513026052094 2.448049902038938 523.0 2.0 368.0 
118.00092703083283 26757.0 NaN 1537.6513026052094 1.848655654578049 526.0 2.0 368.0 
120.00049030620221 26702.0 NaN 1534.5838343353362 2.452265521454043 526.0 2.0 367.0 
122.00092703083283 26739.0 NaN 1543.8129592518362 1.853845554576207 527.0 2.0 370.0 
124.00049030620221 26693.0 NaN 1543.8236472945907 2.449356932718924 527.0 2.0 370.0 
126.0001983480089 26732.0 NaN 1543.8503674014698 1.842362260208521 527.0 2.0 370.0 
128.0004903062022 26678.0 NaN 1543.807615230461 2.4517143980207456 527.0 2.0 370.0 
130.00092703083283 26697.0 NaN 1543.8263193052755 1.8449428474048657 527.0 2.0 370.0 
132.0004903062022 26655.0 NaN 1540.761523046091 2.4533412659259057 527.0 2.0 369.0 
134.00092703083283 26706.0 NaN 1537.6806947227792 1.8435550655529698 526.0 2.0 368.0 
136.0001983480089 26649.0 NaN 1531.561790247161 2.4558194959471753 526.0 2.0 366.0 
138.00092703083283 26681.0 NaN 1531.5484301937208 1.8478896700386602 525.0 2.0 366.0 
140.0004903062022 26644.0 NaN 1531.5484301937208 2.453763295368779 525.0 2.0 366.0 
142.00092703083283 26674.0 NaN 1540.753507014027 1.845508022717399 525.0 2.0 369.0 
144.0004903062022 26642.0 NaN 1540.7454909819635 2.452963668527885 524.0 2.0 369.0 
146.0001983480089 26665.0 NaN 1543.8476953907818 1.840287395471156 524.0 2.0 370.0 
148.0004903062022 26631.0 NaN 1550.0227120908485 2.4535963084345553 524.0 2.0 372.0 
150.00092703083283 26667.0 NaN 1549.9799599198393 1.840019843290627 523.0 2.0 372.0 
152.0004903062022 26645.0 NaN 1540.7722110888458 2.4579993308151824 524.0 2.0 369.0 
154.00092703083283 26669.0 NaN 1537.696726786909 1.8426727102204095 525.0 2.0 368.0 
156.0001983480089 26624.0 NaN 1540.780227120909 2.456752619917411 525.0 2.0 369.0 
158.00092703083283 26646.0 NaN 1540.7855711422847 1.8403547806721223 523.0 2.0 369.0 
160.0004903062022 26607.0 NaN 1540.7935871743482 2.459214874644149 525.0 2.0 369.0 
162.00092703083283 26628.0 NaN 1540.780227120909 1.848429398635827 523.0 2.0 369.0 
164.0004903062022 26568.0 NaN 1540.7828991315969 2.4607792710755834 523.0 2.0 369.0 
166.0001983480089 26596.0 NaN 1543.8744154976637 1.8528833873889605 521.0 2.0 370.0 
168.0004903062022 26535.0 NaN 1540.780227120909 2.4563098311710347 520.0 2.0 369.0 
170.00092703083283 26559.0 NaN 1540.7668670674698 1.8456079590512082 521.0 2.0 369.0 
172.0004903062022 26535.0 NaN 1540.7668670674698 2.455250365899035 523.0 2.0 369.0 
174.00092703083283 26565.0 NaN 1546.9231796927181 1.8473341845451854 525.0 2.0 371.0 
176.0001983480089 26475.0 NaN 1543.8370073480273 2.4520453150021586 527.0 1.0 371.0 
178.00092703083283 26503.0 NaN 1543.8396793587183 1.840843213637861 525.0 1.0 371.0 
180.0004903062022 26465.0 NaN 1543.8503674014703 2.4549852274961124 526.0 1.0 371.0 
182.00092703083283 26497.0 NaN 1540.748162992652 1.8483567004821557 524.0 2.0 369.0 
184.0004903062022 26439.0 NaN 1537.694054776218 2.457382692348427 523.0 2.0 368.0 
186.0001983480089 26469.0 NaN 1537.6619906479636 1.8513819692745213 522.0 2.0 368.0 
188.0004903062022 26421.0 NaN 1540.7401469605884 2.4551519753516344 521.0 3.0 368.0 
190.00092703083283 26436.0 NaN 1537.6753507014025 1.8499061123904086 520.0 3.0 367.0 
192.0004903062022 26406.0 NaN 1534.5918503674002 2.4536246312458285 518.0 3.0 366.0 
194.00092703083283 26433.0 NaN 1534.5891783567117 1.843651041956215 519.0 3.0 366.0 
196.0001983480089 26362.0 NaN 1537.7074148296608 2.4541183093982366 519.0 3.0 367.0 
198.00092703083283 26371.0 NaN 1534.6185704742816 1.8457325125296562 518.0 3.0 366.0 
200.0004903062022 26344.0 NaN 1534.6265865063453 2.455426743472098 519.0 3.0 366.0 
202.00092703083283 26383.0 NaN 1540.7775551102181 1.8514302014137467 520.0 3.0 368.0 
204.0004903062022 26301.0 NaN 1540.761523046091 2.462322271057472 520.0 3.0 368.0 
206.0001983480089 26318.0 NaN 1540.7588510354028 1.8618372483421792 521.0 3.0 368.0 
208.0004903062022 26276.0 NaN 1534.5918503674002 2.460828361691175 519.0 3.0 366.0 
210.00092703083283 26311.0 NaN 1531.561790247161 1.8520944872844627 518.0 3.0 365.0 
212.0004903062022 26252.0 NaN 1528.4782899131608 2.460979405709184 517.0 2.0 365.0 
214.00092703083283 26264.0 NaN 1531.5297261189062 1.8450543744865693 519.0 2.0 366.0 
216.0001983480089 26191.0 NaN 1534.597194388779 2.4638242031022464 519.0 2.0 367.0 
218.00092703083283 26209.0 NaN 1534.5945223780907 1.8495760916425332 518.0 2.0 367.0 
220.0004903062022 26168.0 NaN 1528.4488977955907 2.4653056337720396 518.0 2.0 365.0 
222.00092703083283 26183.0 NaN 1525.3734134936547 1.856107402488222 515.0 2.0 364.0 
224.0004903062022 26094.0 NaN 1522.2925851703394 2.4618344256819387 516.0 2.0 363.0 
226.0001983480089 26106.0 NaN 1525.3734134936547 1.8484319533298261 514.0 3.0 363.0 
228.0004903062022 26067.0 NaN 1528.4328657314638 2.4602078429986602 515.0 3.0 364.0 
230.00092703083283 26105.0 NaN 1528.4595858383452 1.851318243279524 513.0 3.0 364.0 
232.0004903062022 26032.0 NaN 1531.5350701402817 2.459270572518521 513.0 3.0 365.0 
234.00092703083283 26041.0 NaN 1531.4976619906479 1.8461369242629082 512.0 3.0 365.0 
236.0001983480089 25981.0 NaN 1531.5003340013366 2.455347730406081 512.0 3.0 365.0 
238.00092703083283 26007.0 NaN 1534.5918503674002 1.848081687788021 512.0 3.0 366.0 
240.0004903062022 25993.0 NaN 1531.5083500334 2.458191257426056 512.0 3.0 365.0 
242.00092703083283 26019.0 NaN 1531.5243820975272 1.8529578577585069 512.0 3.0 365.0 
244.0004903062022 25931.0 NaN 1528.4382097528387 2.459983152336866 513.0 3.0 364.0 
246.0001983480089 25969.0 NaN 1528.4141616566453 1.8535888019336895 513.0 3.0 364.0 
248.0004903062022 25933.0 NaN 1525.338677354709 2.45594639930968 513.0 3.0 363.0 
250.00092703083283 25976.0 NaN 1525.3333333333337 1.8448053155588282 512.0 3.0 363.0 
252.0004903062022 25892.0 NaN 1525.32531730127 2.460337226871803 512.0 3.0 363.0 
254.00092703083283 25924.0 NaN 1525.2879091516363 1.8510422397182495 511.0 4.0 362.0 
256.0001983480089 25835.0 NaN 1525.3173012692062 2.456191815902806 512.0 4.0 362.0 
258.0009270308328 25880.0 NaN 1525.32531730127 1.8427849336758781 515.0 3.0 363.0 
260.0004903062022 25839.0 NaN 1525.338677354709 2.4579359123423057 515.0 3.0 363.0 
262.0009270308328 25873.0 NaN 1522.2952571810276 1.850411642502469 516.0 2.0 363.0 
264.0004903062022 25781.0 NaN 1519.2251169004667 2.4563872803675455 514.0 2.0 362.0 
266.0001983480089 25794.0 NaN 1519.187708750836 1.8463610444897047 514.0 2.0 362.0 
268.0004903062022 25749.0 NaN 1522.2578490313972 2.4597159631313144 514.0 2.0 363.0 
270.0009270308328 25795.0 NaN 1534.543754175018 1.851016513812482 513.0 2.0 367.0 
272.0004903062022 25656.0 NaN 1531.4762859051452 2.460817118591313 513.0 2.0 366.0 
274.0009270308328 25695.0 NaN 1534.551770207082 1.8508613518530144 515.0 2.0 367.0 
276.0001983480089 25623.0 NaN 1534.5357381429544 2.458438606862602 515.0 2.0 367.0 
278.0009270308328 25644.0 NaN 1534.5063460253818 1.8435179712079777 516.0 2.0 367.0 
280.0004903062022 25616.0 NaN 1534.5303941215752 2.4635555473165605 516.0 2.0 367.0 
282.0009270308328 25658.0 NaN 1534.4983299933183 1.8522983911028645 516.0 2.0 367.0 
284.0004903062022 25605.0 NaN 1528.3286573146274 2.463654323907808 517.0 2.0 365.0 
286.0001983480089 25652.0 NaN 1528.3660654642636 1.8480949706291143 516.0 2.0 365.0 
288.0004903062022 25590.0 NaN 1528.350033400134 2.4653099742804856 515.0 2.0 365.0 
290.0009270308328 25639.0 NaN 1531.3747494989998 1.8496585051589276 513.0 2.0 366.0 
292.0004903062022 25576.0 NaN 1531.3694054776206 2.4670964543950666 513.0 2.0 366.0 
294.0009270308328 25624.0 NaN 1531.3774215096842 1.85691244428657 513.0 2.0 366.0 
296.0001983480089 25545.0 NaN 1534.4903139612545 2.4649633612985924 513.0 2.0 367.0 
298.0009270308328 25575.0 NaN 1534.4742818971272 1.8432107114421488 513.0 2.0 367.0 
300.0004903062022 25526.0 NaN 1534.5036740146977 2.467994892474916 513.0 2.0 367.0 
302.0009270308328 25572.0 NaN 1540.6145624582482 1.8512798789770373 512.0 2.0 369.0 
304.0004903062022 25494.0 NaN 1537.5604542418182 2.4643314674078263 512.0 2.0 368.0 
306.0001983480089 25518.0 NaN 1546.8456913827638 1.8447662227564026 511.0 2.0 371.0 
308.0004903062022 25500.0 NaN 1537.6138944555794 2.4655204347310335 510.0 2.0 368.0 
310.0009270308328 25528.0 NaN 1537.5150300601183 1.8548899789701938 510.0 2.0 368.0 
312.0004903062022 25439.0 NaN 1531.356045424182 2.4684350524456966 509.0 2.0 366.0 
314.0009270308328 25459.0 NaN 1531.3854375417516 1.862796266703499 508.0 2.0 366.0 
316.0001983480089 25360.0 NaN 1528.339345357382 2.4619019612972983 507.0 2.0 365.0 
318.0009270308328 25376.0 NaN 1528.3259853039428 1.8508666014104216 508.0 2.0 365.0 
320.0004903062022 25344.0 NaN 1528.3313293253182 2.4665942171286614 506.0 2.0 365.0 
322.0009270308328 25384.0 NaN 1531.4869739478972 1.8560388533414698 506.0 2.0 366.0 
324.0004903062022 25308.0 NaN 1534.5624582498338 2.461355228235388 506.0 2.0 367.0 
326.0001983480089 25334.0 NaN 1537.6138944555792 1.843991581283348 507.0 2.0 368.0 
328.0004903062022 25287.0 NaN 1537.6325985303931 2.465159401788676 507.0 2.0 368.0 
330.0009270308328 25319.0 NaN 1540.6653306613214 1.8504240966533978 508.0 2.0 369.0 
332.0004903062022 25264.0 NaN 1537.5764863059455 2.4652009852078156 508.0 2.0 368.0 
334.0009270308328 25292.0 NaN 1537.6032064128271 1.8507339519498822 508.0 2.0 368.0 
336.0001983480089 25263.0 NaN 1531.433533734136 2.4628219160180396 509.0 2.0 366.0 
338.0009270308328 25306.0 NaN 1534.506346025382 1.8445106477327333 509.0 2.0 367.0 
340.0004903062022 25281.0 NaN 1531.4362057448243 2.4656238398729884 509.0 2.0 366.0 
342.0009270308328 25329.0 NaN 1531.4709418837667 1.8509835876378378 508.0 2.0 366.0 
344.0004903062022 25280.0 NaN 1534.5384101536392 2.4658385537045953 510.0 2.0 367.0 
346.0001983480089 25311.0 NaN 1534.4689378757519 1.8465607239961832 512.0 2.0 367.0 
348.0004903062022 25275.0 NaN 1531.3854375417511 2.464312178339641 512.0 2.0 366.0 
350.0009270308328 25327.0 NaN 1531.4308617234458 1.8503909236893865 512.0 2.0 366.0 
352.0004903062022 25290.0 NaN 1528.3152972611904 2.4702500122485755 513.0 2.0 365.0 
354.0009270308328 25316.0 NaN 1528.2324649298607 1.8578871177524947 513.0 2.0 365.0 
356.0001983480089 25241.0 NaN 1525.1917167668669 2.467387478987181 513.0 2.0 364.0 
358.0009270308328 25258.0 NaN 1525.2932531730123 1.8510095823684614 512.0 2.0 364.0 
360.0004903062022 25240.0 NaN 1525.2825651302612 2.4626760711432074 512.0 2.0 364.0 
362.0009270308328 25280.0 NaN 1525.2371409485636 1.8443406723987867 513.0 2.0 364.0 
364.0004903062022 25236.0 NaN 1522.1616566466273 2.4673732161301385 516.0 2.0 363.0 
366.0001983480089 25271.0 NaN 1522.19906479626 1.8568887014842905 516.0 3.0 362.0 
368.0004903062022 25202.0 NaN 1509.9078156312635 2.468243750874098 515.0 3.0 358.0 
370.0009270308328 25224.0 NaN 1506.7575150300606 1.8500715706974218 516.0 2.0 358.0 
372.0004903062022 25169.0 NaN 1503.6713426853717 2.471446590158999 517.0 2.0 357.0 
374.0009270308328 25195.0 NaN 1506.8029392117555 1.8594241052438667 516.0 3.0 357.0 
376.0001983480089 25127.0 NaN 1506.8323313293263 2.4680327784449987 515.0 3.0 357.0 
378.0009270308328 25147.0 NaN 1509.774215096861 1.846959868512153 516.0 2.0 359.0 
380.0004903062022 25117.0 NaN 1509.7341349365395 2.469125153293462 515.0 2.0 359.0 
382.0009270308328 25145.0 NaN 1503.7007348029385 1.8540203552300183 516.0 2.0 357.0 
384.0004903062022 25057.0 NaN 1509.8623914495647 2.4707255092954523 517.0 2.0 359.0 
386.0001983480089 25080.0 NaN 1512.9539078156304 1.8534595210440727 517.0 2.0 360.0 
388.0004903062022 25029.0 NaN 1506.7975951903816 2.468727322645394 516.0 2.0 358.0 
390.0009270308328 25071.0 NaN 1509.9372077488301 1.8561827427092923 516.0 2.0 359.0 
392.0004903062022 25022.0 NaN 1506.8857715430852 2.4682557328335593 516.0 2.0 358.0 
394.0009270308328 25046.0 NaN 1506.7949231796918 1.849399148073442 515.0 2.0 358.0 
396.0001983480089 24999.0 NaN 1509.8784235136934 2.4697733368828407 514.0 2.0 359.0 
398.0009270308328 25022.0 NaN 1509.8784235136934 1.859845650291041 521.0 2.0 359.0 
400.0004903062022 24976.0 NaN 1509.9051436205737 2.462591608168377 521.0 2.0 359.0 
402.0009270308328 25016.0 NaN 1506.8456913827645 1.8565853907261614 520.0 2.0 358.0 
404.0004903062022 24954.0 NaN 1509.8944555778212 2.4574380597788754 521.0 2.0 359.0 
406.0001983480089 24991.0 NaN 1512.9859719438884 1.846945604265545 521.0 2.0 360.0 
408.0004903062022 24955.0 NaN 1516.0400801603203 2.460216165009281 521.0 2.0 361.0 
410.0009270308328 24991.0 NaN 1522.247160988645 1.8563416294093003 521.0 2.0 363.0 
412.0004903062022 24946.0 NaN 1516.0427521710092 2.458871562704278 522.0 2.0 361.0 
414.0009270308328 24981.0 NaN 1519.1342685370732 1.853139417644662 522.0 2.0 362.0 
416.0001983480089 24915.0 NaN 1516.0748162992643 2.4597177040956972 522.0 2.0 361.0 
418.0009270308328 24943.0 NaN 1512.9592518370084 1.854759688946634 520.0 3.0 359.0 
420.0004903062022 24880.0 NaN 1506.8216432865727 2.458876570844893 521.0 3.0 357.0 
422.0009270308328 24908.0 NaN 1509.8891115564456 1.849133880726463 521.0 3.0 358.0 
424.0004903062022 24858.0 NaN 1497.6032064128262 2.45697881142113 519.0 3.0 354.0 
426.0001983480089 24882.0 NaN 1503.7621910487637 1.8461056986269682 516.0 3.0 356.0 
428.0004903062022 24828.0 NaN 1503.735470941883 2.4572836910665115 518.0 2.0 357.0 
430.0009270308328 24858.0 NaN 1503.759519038076 1.8582960460667037 517.0 2.0 357.0 
432.0004903062022 24817.0 NaN 1500.689378757516 2.455420759202143 517.0 2.0 356.0 
434.0009270308328 24840.0 NaN 1516.0267201068812 1.848464858431359 518.0 2.0 361.0 
436.0001983480089 24807.0 NaN 1515.9946559786245 2.456994997956084 518.0 2.0 361.0 
438.0009270308328 24840.0 NaN 1525.274549098197 1.8479306995061207 524.0 2.0 364.0 
440.0004903062022 24812.0 NaN 1525.274549098197 2.4617764698895193 525.0 2.0 364.0 
442.0009270308328 24845.0 NaN 1531.4682698730812 1.8537835256503057 526.0 2.0 366.0 
444.0004903062022 24798.0 NaN 1525.3146292585182 2.4585073678959817 527.0 2.0 364.0 
446.0001983480089 24839.0 NaN 1537.5631262525062 1.8446550951529799 527.0 3.0 367.0 
448.0004903062022 24826.0 NaN 1531.417501670007 2.460168216109352 525.0 3.0 365.0 
450.0009270308328 24876.0 NaN 1531.3587174348702 1.8494816316029974 527.0 3.0 365.0 
452.0004903062022 24834.0 NaN 1531.3533734134933 2.454597191660706 528.0 2.0 366.0 
454.0009270308328 24864.0 NaN 1543.695390781564 1.8463546257900427 527.0 2.0 370.0 
456.0001983480089 24841.0 NaN 1546.8056112224456 2.45667235785163 527.0 2.0 371.0 
458.0009270308328 24893.0 NaN 1546.8216432865727 1.8563187469432232 526.0 2.0 371.0 
460.0004903062022 24864.0 NaN 1543.7167668670666 2.456713143567498 524.0 2.0 370.0 
462.0009270308328 24909.0 NaN 1546.7575150300606 1.852025701504141 525.0 2.0 371.0 
464.0004903062022 24861.0 NaN 1543.692718770875 2.4630130135555843 526.0 2.0 370.0 
466.0001983480089 24887.0 NaN 1540.630594522379 1.8575941524467756 527.0 2.0 369.0 
468.0004903062022 24842.0 NaN 1540.5798263193062 2.463877117751463 527.0 2.0 369.0 
470.0009270308328 24881.0 NaN 1537.539078156312 1.857963328329664 526.0 2.0 368.0 
472.0004903062022 24832.0 NaN 1531.380093520373 2.4650636377213098 524.0 2.0 366.0 
474.0009270308328 24858.0 NaN 1534.3807615230453 1.8569117363513572 524.0 2.0 367.0 
476.0001983480089 24809.0 NaN 1531.3293253173003 2.4623569190815573 523.0 2.0 366.0 
478.0009270308328 24852.0 NaN 1534.4021376085516 1.8469163472750443 522.0 2.0 367.0 
480.0004903062022 24830.0 NaN 1531.3533734134933 2.46089466995682 523.0 2.0 366.0 
482.0009270308328 24879.0 NaN 1531.3827655310631 1.8504127169651778 522.0 2.0 366.0 
484.0004903062022 24867.0 NaN 1528.3179692718757 2.45938975792065 522.0 2.0 365.0 
486.0001983480089 24919.0 NaN 1528.3126252504999 1.8489212216177922 518.0 2.0 365.0 
488.0004903062022 24879.0 NaN 1512.9726118904464 2.4618853883996294 517.0 2.0 360.0 
490.0009270308328 24908.0 NaN 1512.9485637942544 1.8486122912091794 517.0 2.0 360.0 
492.0004903062022 24889.0 NaN 1506.8029392117555 2.463005828547871 517.0 2.0 358.0 
494.0009270308328 24930.0 NaN 1503.7488309953249 1.8499294442277927 516.0 2.0 357.0 
496.0001983480089 24894.0 NaN 1500.6840347361383 2.459197526435462 516.0 2.0 356.0 
498.0009270308328 24918.0 NaN 1497.5631262525062 1.85539886389341 514.0 2.0 355.0 
500.0004903062022 24889.0 NaN 1497.5551102204392 2.4588445793687876 514.0 2.0 355.0 
502.0009270308328 24925.0 NaN 1497.565798263192 1.8533786140162898 514.0 3.0 354.0 
504.0004903062022 24870.0 NaN 1494.5384101536395 2.4607910690495443 514.0 3.0 353.0 
506.0001983480089 24909.0 NaN 1494.5384101536395 1.8521207037338845 515.0 3.0 353.0 
508.0004903062022 24890.0 NaN 1494.5544422177697 2.454517692930398 517.0 3.0 353.0 
510.0009270308328 24963.0 NaN 1500.6573146292576 1.8506820008149123 515.0 3.0 355.0 
512.0004903062021 24924.0 NaN 1491.4415497662 2.4561213386034417 517.0 2.0 353.0 
514.0009270308328 24958.0 NaN 1491.5003340013366 1.8530071369475636 519.0 2.0 353.0 
516.0001983480089 24935.0 NaN 1488.4863059452246 2.4549471128170777 516.0 3.0 351.0 
518.0009270308328 24950.0 NaN 1488.4141616566455 1.849467038470715 514.0 3.0 351.0 
520.0004903062021 24924.0 NaN 1482.3032732130919 2.4532583935357497 514.0 3.0 349.0 
522.0009270308328 24996.0 NaN 1482.2685370741474 1.8482693741121248 514.0 3.0 349.0 
524.0004903062021 24979.0 NaN 1466.9018036072155 2.4604571899863013 511.0 3.0 344.0 
526.0001983480089 25024.0 NaN 1463.8797595190374 1.8612689527378123 508.0 2.0 344.0 
528.0004903062021 24999.0 NaN 1460.8309953239818 2.4636714105193165 505.0 2.0 343.0 
530.0009270308328 25038.0 NaN 1466.9525718102882 1.8554945129735574 502.0 2.0 345.0 
532.0004903062021 24995.0 NaN 1457.7314629258524 2.460160367612892 506.0 2.0 342.0 
534.0009270308328 25022.0 NaN 1460.7909151636613 1.8484739260874372 505.0 2.0 343.0 
536.0001983480089 24987.0 NaN 1470.0440881763534 2.461119227426097 506.0 2.0 346.0 
538.0009270308328 25015.0 NaN 1469.9879759519029 1.8509364019533345 508.0 2.0 346.0 
540.0004903062021 25005.0 NaN 1469.9719438877746 2.466232082695358 510.0 2.0 346.0 
542.0009270308328 25039.0 NaN 1473.0340681362727 1.8591765091945844 513.0 2.0 347.0 
544.0004903062021 24941.0 NaN 1466.8857715430856 2.4656538339542737 515.0 2.0 345.0 
546.0001983480089 24976.0 NaN 1470.0681362725454 1.8504012326648918 515.0 2.0 346.0 
548.0004903062021 24950.0 NaN 1470.0440881763534 2.4664543776112127 514.0 2.0 346.0 
550.0009270308328 24983.0 NaN 1473.0180360721452 1.8482618999337823 513.0 2.0 347.0 
552.0004903062021 24941.0 NaN 1479.206412825652 2.465218560596836 513.0 2.0 349.0 
554.0009270308328 24964.0 NaN 1476.0961923847701 1.8490675584771148 517.0 2.0 348.0 
556.0001983480089 24930.0 NaN 1473.031396125584 2.4638432278459543 516.0 2.0 347.0 
558.0009270308328 24971.0 NaN 1479.1449565798268 1.8456516742339368 516.0 2.0 349.0 
560.0004903062021 24958.0 NaN 1469.923847695391 2.463930884982753 514.0 2.0 346.0 
562.0009270308328 25013.0 NaN 1469.9425517702077 1.8525004118098833 513.0 2.0 346.0 
564.0004903062021 24967.0 NaN 1469.9665998664 2.4616278482565064 512.0 2.0 346.0 
566.0001983480089 25043.0 NaN 1473.0126920507673 1.856129707209597 515.0 2.0 347.0 
568.0004903062021 24940.0 NaN 1476.0561122244485 2.4586734685674587 513.0 2.0 348.0 
570.0009270308328 24964.0 NaN 1472.967267869072 1.850696863322878 515.0 2.0 347.0 
572.0004903062021 24938.0 NaN 1476.0774883099537 2.458821959133798 514.0 2.0 348.0 
574.0009270308328 24989.0 NaN 1479.1930527722104 1.8516436648289103 513.0 2.0 349.0 
576.0001983480089 24976.0 NaN 1479.233132932531 2.4602278052360944 514.0 2.0 349.0 
578.0009270308328 25024.0 NaN 1479.1155644622572 1.8532447059161306 514.0 2.0 349.0 
580.0004903062021 24961.0 NaN 1479.1128924515704 2.455898730294987 515.0 2.0 349.0 
582.0009270308328 25008.0 NaN 1479.1609886439546 1.8471621909522142 513.0 2.0 349.0 
584.0004903062021 25005.0 NaN 1488.4328657314634 2.4608913999686 517.0 2.0 352.0 
586.0001983480089 25098.0 NaN 1488.4114896459578 1.8551160590303573 521.0 2.0 352.0 
588.0004903062021 25014.0 NaN 1485.338677354709 2.455753763887393 521.0 2.0 351.0 
590.0009270308328 25065.0 NaN 1488.3580494321989 1.8432507590071983 523.0 2.0 352.0 
592.0004903062021 25060.0 NaN 1491.4575818303274 2.459925692259134 526.0 2.0 353.0 
594.0009270308328 25097.0 NaN 1491.4682698730805 1.853016797283121 526.0 2.0 353.0 
596.0001983480089 25053.0 NaN 1485.3279893119568 2.4564628526436745 524.0 2.0 351.0 
598.0009270308328 25113.0 NaN 1488.3954575818295 1.8523971332658211 522.0 2.0 352.0 
600.0004903062021 25061.0 NaN 1491.4655978623907 2.454253932603108 527.0 2.0 353.0 
602.0009270308328 25114.0 NaN 1497.6219104876425 1.850370560808422 528.0 2.0 355.0 
604.0004903062021 25110.0 NaN 1494.5410821643281 2.4603891106143805 527.0 2.0 354.0 
606.0001983480089 25201.0 NaN 1494.468937875752 1.8657233754046831 529.0 2.0 354.0 
608.0004903062021 25092.0 NaN 1491.4121576486302 2.459017031371584 528.0 2.0 353.0 
610.0009270308328 25143.0 NaN 1494.5490981963922 1.857733094302797 528.0 2.0 354.0 
612.0004903062021 25119.0 NaN 1500.7160988643968 2.457213839833176 524.0 2.0 356.0 
614.0009270308328 25170.0 NaN 1506.8269873079482 1.8589007706977685 523.0 2.0 358.0 
616.0001983480089 25122.0 NaN 1509.905143620574 2.4556700873636568 524.0 2.0 359.0 
618.0009270308328 25185.0 NaN 1513.0233800935196 1.8575635588219177 527.0 2.0 360.0 
620.0004903062021 25124.0 NaN 1509.9505678022717 2.4552400665002994 526.0 2.0 359.0 
622.0009270308328 25161.0 NaN 1509.8944555778214 1.848853091427867 526.0 2.0 359.0 
624.0004903062021 25124.0 NaN 1509.9131596526374 2.460573129378733 525.0 2.0 359.0 
626.0001983480089 25188.0 NaN 1516.026720106881 1.8541605244624753 525.0 2.0 361.0 
628.0004903062021 25116.0 NaN 1516.0347361389452 2.4641700234346673 526.0 2.0 361.0 
630.0009270308328 25176.0 NaN 1522.2444889779554 1.8554493618781267 528.0 3.0 362.0 
632.0004903062021 25110.0 NaN 1513.0581162324645 2.456965039287969 528.0 3.0 359.0 
634.0009270308328 25179.0 NaN 1516.1015364061454 1.8534469332839956 528.0 3.0 360.0 
636.0001983480089 25157.0 NaN 1519.1422845691377 2.464460240878836 528.0 3.0 361.0 
638.0009270308328 25177.0 NaN 1522.257849031397 1.8566410472726107 525.0 3.0 362.0 
640.0004903062021 25086.0 NaN 1519.1529726118908 2.463831646498555 524.0 3.0 361.0 
642.0009270308328 25136.0 NaN 1522.2631930527727 1.8461375569653036 527.0 3.0 362.0 
644.0004903062021 25100.0 NaN 1516.1336005344012 2.4659533377484837 527.0 3.0 360.0 
646.0001983480089 25136.0 NaN 1519.2010688042744 1.8569160471848176 525.0 2.0 362.0 
648.0004903062021 25066.0 NaN 1519.243820975283 2.4630851805642773 524.0 2.0 362.0 
650.0009270308328 25098.0 NaN 1519.1663326653302 1.8456625697646334 524.0 2.0 362.0 
652.0004903062021 25047.0 NaN 1522.2845691382759 2.4680076854887956 524.0 2.0 363.0 
654.0009270308328 25105.0 NaN 1525.4001336005351 1.854632421141348 522.0 2.0 364.0 
656.0001983480089 25069.0 NaN 1528.4782899131606 2.4666647899567233 521.0 2.0 365.0 
658.0009270308328 25090.0 NaN 1528.3981295925182 1.8549415922532313 519.0 2.0 365.0 
660.0004903062021 25043.0 NaN 1528.3954575818293 2.4619580927567375 521.0 2.0 365.0 
662.0009270308328 25094.0 NaN 1531.5190380761535 1.8514296085197874 520.0 2.0 366.0 
664.0004903062021 25007.0 NaN 1534.6292585170352 2.466819208119972 519.0 2.0 367.0 
#####################################################################
# End of data export. Simulation finished at: 2019-03-17T12:31+0000 #
#####################################################################
