#####################################################################
# Alchemist log file - simulation started at: 2019-03-14T14:36+0000 #
#####################################################################
# seed = 8.0, bandwidth = 1000.0, propagationDelay = 0.31622776601683794, baserange = 17.78279410038923
#
# The columns have the following meaning: 
# time neighbor_count[Sum] <value>@neighbor_count[Sum] packet_size[Mean] mean_delay[Mean] crowd[Sum] overcrowded[Sum] risk[Sum] 
0.0 NaN NaN NaN NaN NaN NaN NaN 
2.000927030832833 NaN NaN 4988.0 NaN 1497.0 0.0 1497.0 
4.000927030832833 NaN NaN 4988.0 NaN 1497.0 0.0 1497.0 
6.000198348008885 274.0 NaN 4988.424849699399 0.20728401500685 1497.0 0.0 1497.0 
8.000927030832834 1118.0 NaN 4994.51169004676 1.6928445684068723 1497.0 0.0 1497.0 
10.000927030832834 1118.0 NaN 4992.053440213761 3.6928445684068723 1497.0 0.0 1497.0 
12.00002887190616 1118.0 NaN 4993.020708082832 4.249962658451342 1496.0 1.0 1496.0 
14.000927030832834 1118.0 NaN 4993.047428189713 1.7090759054406635 1496.0 1.0 1496.0 
16.000198348008887 1118.0 NaN 4990.845691382766 3.7070309156656123 1496.0 1.0 1496.0 
18.00002887190616 1119.0 NaN 4991.449565798263 4.33616499399414 1496.0 1.0 1496.0 
20.000927030832834 1128.0 NaN 4991.810287241149 1.7479568973931177 1495.0 2.0 1495.0 
22.000927030832834 1128.0 NaN 4990.805611222445 3.7479568973931174 1495.0 2.0 1495.0 
24.00002887190616 1128.0 NaN 4991.158316633267 4.360673974680747 1492.0 5.0 1492.0 
26.000198348008887 1134.0 NaN 4991.3426853707415 1.8078312598477166 1491.0 6.0 1491.0 
28.000927030832834 1134.0 NaN 4990.506346025384 3.809876249622768 1491.0 6.0 1491.0 
30.00002887190616 1135.0 NaN 4990.701402805611 4.42065292487975 1491.0 6.0 1491.0 
32.000927030832834 1138.0 NaN 4991.3400133600535 1.927335253982673 1490.0 7.0 1490.0 
34.000927030832834 1138.0 NaN 4990.909819639279 3.9273352539826734 1490.0 7.0 1490.0 
36.00002887190616 1140.0 NaN 4991.201068804276 4.490208393459985 1490.0 7.0 1490.0 
38.000927030832834 1148.0 NaN 4991.136940547763 1.9802232690225643 1490.0 7.0 1490.0 
40.000927030832834 1148.0 NaN 4990.559786239145 3.9802232690225643 1490.0 7.0 1490.0 
42.00002887190616 1148.0 NaN 4990.754843019372 4.576687398087934 1490.0 7.0 1490.0 
44.000927030832834 1154.0 NaN 4991.374749498998 1.9755509855497178 1490.0 7.0 1490.0 
46.00019834800889 1154.0 NaN 4990.965931863728 3.9735266940517415 1490.0 7.0 1490.0 
48.00002887190616 1159.0 NaN 4991.243820975284 4.590618911726302 1490.0 7.0 1490.0 
50.000927030832834 1176.0 NaN 4991.115564462258 2.0542517819304074 1490.0 7.0 1490.0 
52.000927030832834 1176.0 NaN 4990.565130260521 4.054251781930407 1490.0 7.0 1490.0 
54.00002887190616 1179.0 NaN 4990.71743486974 4.6120590861306106 1490.0 7.0 1490.0 
56.00019834800889 1197.0 NaN 4991.307949231797 2.0739867387881117 1490.0 7.0 1490.0 
58.000927030832834 1197.0 NaN 4990.885771543086 4.0760069408083135 1490.0 7.0 1490.0 
60.00002887190616 1200.0 NaN 4991.094188376754 4.704210870348972 1490.0 7.0 1490.0 
62.00032561841174 1207.0 NaN 983.9358717434897 1.8197923491708148 488.0 6.0 184.0 
64.00032561841175 1213.0 NaN 989.8116232464906 2.8603643407103627 488.0 6.0 186.0 
66.0001983480089 1225.0 NaN 992.8790915163647 3.191411253890283 470.0 6.0 187.0 
68.00032561841175 1225.0 NaN 995.9679358717457 1.7845615655374143 448.0 6.0 188.0 
70.00032561841175 1226.0 NaN 995.8450233800921 2.682577246525501 415.0 6.0 188.0 
72.00032561841175 1225.0 NaN 995.8851035404169 2.9226923864598975 381.0 6.0 188.0 
74.00032561841175 1221.0 NaN 995.9572478289907 1.8932039423181304 358.0 6.0 188.0 
76.0001983480089 1221.0 NaN 995.8530394121557 2.7964400829715763 345.0 6.0 188.0 
78.00032561841175 1215.0 NaN 995.8797595190363 3.058062436019604 340.0 6.0 188.0 
80.00032561841175 1199.0 NaN 995.9011356045443 1.9740964003322385 329.0 6.0 188.0 
82.00032561841175 1203.0 NaN 995.8263193052738 2.849454572693559 322.0 6.0 188.0 
84.00032561841175 1204.0 NaN 995.8851035404169 3.1113575476718 317.0 6.0 188.0 
86.0001983480089 1200.0 NaN 1002.0681362725456 1.8625681096743303 313.0 6.0 190.0 
88.00032561841175 1200.0 NaN 1001.9772879091535 2.775763749375996 310.0 6.0 190.0 
90.00032561841175 1196.0 NaN 1002.0173680694729 3.01428935676115 305.0 6.0 190.0 
92.00032561841175 1183.0 NaN 1001.9799599198373 1.8442123668379011 297.0 6.0 190.0 
94.00032561841175 1187.0 NaN 998.8590514362081 2.729738262583545 294.0 6.0 189.0 
96.0001983480089 1195.0 NaN 1005.0634602538438 2.964606525047342 292.0 6.0 191.0 
98.00032561841175 1189.0 NaN 1014.3299933199725 1.8659692441916822 293.0 6.0 194.0 
100.00032561841175 1188.0 NaN 1014.2444889779543 2.7558521641554767 293.0 6.0 194.0 
102.00032561841175 1186.0 NaN 1014.2551770207093 2.9797102110797744 291.0 6.0 194.0 
104.00032561841175 1188.0 NaN 1014.3540414161633 1.8437093245014273 290.0 6.0 194.0 
106.0001983480089 1189.0 NaN 1014.2284569138271 2.7330423120217975 287.0 6.0 194.0 
108.00032561841175 1184.0 NaN 1014.2792251168997 2.939909470288591 288.0 6.0 194.0 
110.00032561841175 1185.0 NaN 1017.4001336005366 1.9941764615181095 289.0 6.0 195.0 
112.00032561841175 1184.0 NaN 1017.290581162326 2.9047239352702046 289.0 6.0 195.0 
114.00032561841175 1189.0 NaN 1014.2712090848363 3.176936871109967 289.0 6.0 194.0 
116.0001983480089 1198.0 NaN 1017.3226452905819 2.1356741958499814 287.0 6.0 195.0 
118.00032561841175 1195.0 NaN 1017.2638610554455 2.9461096744766015 287.0 6.0 195.0 
120.00032561841175 1197.0 NaN 1020.4195056780192 3.1536337653469375 287.0 6.0 196.0 
122.00032561841175 1199.0 NaN 1023.4789579158288 2.1126007521103225 288.0 6.0 197.0 
124.00032561841175 1198.0 NaN 1020.3420173680715 3.0165550353761272 287.0 6.0 196.0 
126.0001983480089 1207.0 NaN 1026.5330661322635 3.252199970611759 288.0 6.0 198.0 
128.00032561841175 1204.0 NaN 1026.623914495656 2.1878675434716675 287.0 6.0 198.0 
130.00032561841175 1207.0 NaN 1023.4762859051457 3.033479404806685 286.0 6.0 197.0 
132.00032561841175 1200.0 NaN 1017.3547094188363 3.1522293335309306 286.0 6.0 195.0 
134.00032561841175 1192.0 NaN 1020.464929859718 2.028440547528331 288.0 6.0 196.0 
136.0001983480089 1193.0 NaN 1017.2879091516363 2.95146442769419 287.0 6.0 195.0 
138.00032561841175 1192.0 NaN 1020.438209752838 3.008712493046511 284.0 6.0 196.0 
140.00032561841175 1199.0 NaN 1023.5591182364726 2.112809058621585 283.0 6.0 197.0 
142.00032561841175 1203.0 NaN 1023.5190380761549 2.9999706854637087 280.0 6.0 197.0 
144.00032561841175 1204.0 NaN 1020.5397461589831 3.0049847365810374 281.0 6.0 196.0 
146.0001983480089 1213.0 NaN 1029.7795591182362 1.8502857095457022 281.0 6.0 199.0 
148.00032561841175 1215.0 NaN 1029.7127588510366 2.6768457870057745 281.0 6.0 199.0 
150.00032561841175 1222.0 NaN 1029.7555110220458 2.8035608881634015 282.0 6.0 199.0 
152.00032561841175 1247.0 NaN 1026.7174348697374 1.8751468375954257 286.0 6.0 198.0 
154.00032561841175 1248.0 NaN 1026.5784903139624 2.7474952767519922 285.0 6.0 198.0 
156.0001983480089 1248.0 NaN 1026.6105544422182 2.7847922539172894 283.0 6.0 198.0 
158.00032561841175 1248.0 NaN 1026.6800267201095 1.749756108347491 284.0 6.0 198.0 
160.00032561841175 1251.0 NaN 1026.6052104208443 2.5270893567803605 284.0 6.0 198.0 
162.00032561841175 1255.0 NaN 1026.6746826987285 2.7089496145003857 285.0 6.0 198.0 
164.00032561841175 1265.0 NaN 1026.6372745491003 1.895896100078827 287.0 6.0 198.0 
166.0001983480089 1268.0 NaN 1023.4923179692729 2.8203005923528996 288.0 6.0 197.0 
168.00032561841175 1267.0 NaN 1017.4348697394804 3.003994245846549 289.0 6.0 195.0 
170.00032561841175 1271.0 NaN 1020.521042084171 2.168079297579979 290.0 6.0 196.0 
172.00032561841175 1275.0 NaN 1020.422177688709 3.070535216971295 290.0 6.0 196.0 
174.00032561841175 1278.0 NaN 1017.3520374081469 3.335140873901649 290.0 6.0 195.0 
176.0001983480089 1267.0 NaN 1023.6072144288557 2.2967912584237697 289.0 6.0 197.0 
178.00032561841175 1267.0 NaN 1020.4248496993999 3.1627525610543255 290.0 6.0 196.0 
180.00032561841175 1262.0 NaN 1008.2297929191731 3.340606148919692 289.0 6.0 192.0 
182.00032561841175 1258.0 NaN 1011.3052772211092 2.4517514726644003 290.0 6.0 193.0 
184.00032561841175 1257.0 NaN 1011.1690046760181 3.2599552891636847 290.0 6.0 193.0 
186.0001983480089 1250.0 NaN 1008.0881763527076 3.4056105695127914 289.0 6.0 192.0 
188.00032561841175 1224.0 NaN 1008.152304609218 2.172827976477656 288.0 6.0 192.0 
190.00032561841175 1227.0 NaN 1004.9966599866382 2.9949969346367595 285.0 6.0 191.0 
192.00032561841175 1226.0 NaN 1001.9746158984638 3.1358122959506773 285.0 6.0 190.0 
194.00032561841175 1234.0 NaN 1008.1763527054093 2.121587957913659 288.0 6.0 192.0 
196.0001983480089 1239.0 NaN 1008.1148964595835 3.0279871987908105 288.0 6.0 192.0 
198.00032561841175 1238.0 NaN 1005.1195724782912 3.2321796587405536 287.0 6.0 191.0 
200.00032561841175 1230.0 NaN 1005.1088844355365 2.1902523028629086 288.0 6.0 191.0 
202.00032561841175 1231.0 NaN 1005.0474281897107 3.0841813209362643 289.0 6.0 191.0 
204.00032561841175 1241.0 NaN 995.8717434869728 3.2813970052919377 288.0 6.0 188.0 
206.0001983480089 1234.0 NaN 1002.0467601870378 2.209547369201384 290.0 6.0 190.0 
208.00032561841175 1235.0 NaN 998.8483633934549 3.0145740210714895 289.0 6.0 189.0 
210.00032561841175 1238.0 NaN 1002.004008016035 3.070999310372851 289.0 6.0 190.0 
212.00032561841175 1242.0 NaN 1005.1222444889803 2.2417183823414275 290.0 6.0 191.0 
214.00032561841175 1248.0 NaN 1005.0233800935181 3.08872579061655 290.0 6.0 191.0 
216.0001983480089 1249.0 NaN 1011.286573146291 3.2733762438403167 291.0 6.0 193.0 
218.00032561841175 1244.0 NaN 1014.3273213092837 2.0776141518495854 290.0 6.0 194.0 
220.00032561841175 1242.0 NaN 1014.2605210420834 2.9643586647199935 290.0 6.0 194.0 
222.00032561841175 1244.0 NaN 1014.2899131596546 3.138765270746933 289.0 6.0 194.0 
224.00032561841175 1250.0 NaN 1014.316633266535 2.2891349848972053 291.0 6.0 194.0 
226.0001983480089 1246.0 NaN 1014.2712090848363 3.131973595108262 289.0 6.0 194.0 
228.00032561841175 1262.0 NaN 1017.3947895791562 3.332807331396997 289.0 6.0 195.0 
230.00032561841175 1263.0 NaN 1020.5130260521015 2.474879330991012 288.0 6.0 196.0 
232.00032561841175 1259.0 NaN 1020.3901135604547 3.2793629419078605 288.0 6.0 196.0 
234.00032561841175 1259.0 NaN 1023.5430861723457 3.3898688683357387 289.0 6.0 197.0 
236.0001983480089 1257.0 NaN 1023.5190380761547 2.5347119484034013 291.0 6.0 197.0 
238.00032561841175 1257.0 NaN 1020.3847695390801 3.3869376963559774 291.0 6.0 196.0 
240.00032561841175 1268.0 NaN 1026.6292585170365 3.4671526428737387 288.0 6.0 198.0 
242.00032561841175 1269.0 NaN 1026.6185704742816 2.729292119386988 288.0 6.0 198.0 
244.00032561841175 1272.0 NaN 1023.4255177020729 3.6258083118261766 288.0 6.0 197.0 
246.0001983480089 1255.0 NaN 1020.4382097528376 3.5494705837028206 288.0 6.0 196.0 
248.00032561841175 1242.0 NaN 1017.3493653974638 2.5302070681120687 288.0 6.0 195.0 
250.00032561841175 1241.0 NaN 1014.2391449565819 3.299204543237317 288.0 6.0 194.0 
252.00032561841175 1243.0 NaN 1005.0581162324637 3.464153852433697 288.0 6.0 191.0 
254.00032561841175 1242.0 NaN 1004.9993319973271 2.665851870979291 289.0 6.0 191.0 
256.0001983480089 1240.0 NaN 1004.9405477621908 3.482731030359999 290.0 6.0 191.0 
258.0003256184117 1240.0 NaN 1001.923847695391 3.60683996278228 290.0 6.0 190.0 
260.0003256184117 1232.0 NaN 1004.9832999332001 2.469160345272932 284.0 6.0 191.0 
262.0003256184117 1234.0 NaN 1004.9806279225104 3.202389044489204 284.0 6.0 191.0 
264.0003256184117 1232.0 NaN 1008.0587842351362 3.2658224639645588 285.0 6.0 192.0 
266.0001983480089 1217.0 NaN 1008.0881763527077 2.240896308888309 284.0 6.0 192.0 
268.0003256184117 1214.0 NaN 1001.923847695391 3.076203165012529 287.0 6.0 190.0 
270.0003256184117 1213.0 NaN 998.8857715430833 3.1445389739274505 288.0 6.0 189.0 
272.0003256184117 1220.0 NaN 1001.8944555778198 2.355363964756697 289.0 6.0 190.0 
274.0003256184117 1219.0 NaN 1001.8329993319984 3.200394760829955 289.0 6.0 190.0 
276.0001983480089 1215.0 NaN 995.7541750167 3.242344402068116 288.0 6.0 188.0 
278.0003256184117 1216.0 NaN 995.7995991983981 2.5206761397818633 292.0 6.0 188.0 
280.0003256184117 1221.0 NaN 1008.0187040748184 3.2969083378622837 291.0 6.0 192.0 
282.0003256184117 1218.0 NaN 1005.0180360721457 3.5769839324143495 290.0 6.0 191.0 
284.0003256184117 1212.0 NaN 1001.8490313961274 2.6718565737857523 289.0 6.0 190.0 
286.0001983480089 1212.0 NaN 1001.8677354709438 3.5618748323699547 288.0 6.0 190.0 
288.0003256184117 1208.0 NaN 998.8937875751529 3.570450556002882 286.0 6.0 189.0 
290.0003256184117 1199.0 NaN 998.9445557782262 2.4922357505103157 284.0 6.0 189.0 
292.0003256184117 1201.0 NaN 998.8323313293275 3.420825602798477 282.0 6.0 189.0 
294.0003256184117 1199.0 NaN 989.6352705410817 3.440191878671404 282.0 6.0 186.0 
296.0001983480089 1185.0 NaN 995.8851035404161 2.400238955066244 284.0 6.0 188.0 
298.0003256184117 1188.0 NaN 998.8670674682706 3.276487205375334 286.0 6.0 189.0 
300.0003256184117 1194.0 NaN 1014.2872411489633 3.2875091908626852 289.0 6.0 194.0 
302.0003256184117 1193.0 NaN 1014.2712090848363 2.4075730098493335 289.0 6.0 194.0 
304.0003256184117 1194.0 NaN 1011.1209084836346 3.198961231171548 289.0 6.0 193.0 
306.0001983480089 1191.0 NaN 1005.1062124248476 3.1179072326623682 289.0 6.0 191.0 
308.0003256184117 1188.0 NaN 1008.1897127588522 2.2065359022233473 289.0 6.0 192.0 
310.0003256184117 1186.0 NaN 1008.0721442885751 2.905726319681299 287.0 6.0 192.0 
312.0003256184117 1185.0 NaN 1005.0420841683363 3.0745178877653387 284.0 6.0 191.0 
314.0003256184117 1184.0 NaN 1008.1229124916525 2.114401734169441 283.0 6.0 192.0 
316.0001983480089 1183.0 NaN 1008.0507682030727 2.9192379339729206 281.0 6.0 192.0 
318.0003256184117 1189.0 NaN 1001.953239812961 3.1219219457000937 280.0 6.0 190.0 
320.0003256184117 1201.0 NaN 1005.1062124248477 2.292139840887146 284.0 6.0 191.0 
322.0003256184117 1205.0 NaN 1005.0367401469614 3.150062067073302 285.0 6.0 191.0 
324.0003256184117 1206.0 NaN 995.9331997328003 3.2281411833983027 285.0 6.0 188.0 
326.0001983480089 1200.0 NaN 995.8183032732114 2.291667714545561 290.0 6.0 188.0 
328.0003256184117 1197.0 NaN 995.7889111556457 3.036323594600615 290.0 6.0 188.0 
330.0003256184117 1201.0 NaN 1008.1362725450911 3.086528288101659 292.0 6.0 192.0 
332.0003256184117 1200.0 NaN 1008.1309285237157 2.197017239841515 289.0 6.0 192.0 
334.0003256184117 1202.0 NaN 1008.0668002671997 3.050033224715048 289.0 6.0 192.0 
336.0001983480089 1190.0 NaN 1008.1068804275208 3.045741666267853 292.0 6.0 192.0 
338.0003256184117 1187.0 NaN 1008.104208416834 2.3187107730182923 294.0 6.0 192.0 
340.0003256184117 1188.0 NaN 1004.9539078156301 3.115247106995842 294.0 6.0 191.0 
342.0003256184117 1194.0 NaN 998.8777555110214 3.1910579543552724 291.0 6.0 189.0 
344.0003256184117 1191.0 NaN 1001.9372077488308 2.2221473927404665 291.0 6.0 190.0 
346.0001983480089 1192.0 NaN 1001.8971275885092 3.1324930533454394 292.0 6.0 190.0 
348.0003256184117 1197.0 NaN 1001.9665998664002 3.3609525757775924 292.0 6.0 190.0 
350.0003256184117 1192.0 NaN 1001.8810955243817 2.677927651558927 291.0 6.0 190.0 
352.0003256184117 1192.0 NaN 1001.8597194388786 3.4184907414232675 290.0 6.0 190.0 
354.0003256184117 1189.0 NaN 995.7114228456908 3.5168724268527414 292.0 6.0 188.0 
356.0001983480089 1185.0 NaN 1001.8704074816302 2.775332205750769 292.0 6.0 190.0 
358.0003256184117 1185.0 NaN 1001.8436873747486 3.5099966753182685 292.0 6.0 190.0 
360.0003256184117 1182.0 NaN 1004.9084836339364 3.636356617041849 291.0 6.0 191.0 
362.0003256184117 1177.0 NaN 1001.8704074816303 2.9822683103973433 289.0 6.0 190.0 
364.0003256184117 1180.0 NaN 1001.7849031396124 3.776238979463771 288.0 6.0 190.0 
366.0001983480089 1177.0 NaN 1004.9672678690727 3.830528950580695 288.0 6.0 191.0 
368.0003256184117 1167.0 NaN 1005.0100200400817 2.829670818084784 287.0 6.0 191.0 
370.0003256184117 1166.0 NaN 1008.0187040748181 3.5222352752479544 288.0 6.0 192.0 
372.0003256184117 1159.0 NaN 1001.9478957915821 3.334218170678662 288.0 6.0 190.0 
374.0003256184117 1159.0 NaN 1001.939879759518 2.3426147377615756 287.0 6.0 190.0 
376.0001983480089 1159.0 NaN 998.7949231796913 3.129950692379593 286.0 6.0 189.0 
378.0003256184117 1166.0 NaN 1001.9853039412156 3.0761984317854094 287.0 6.0 190.0 
380.0003256184117 1167.0 NaN 1001.9158316633275 2.2542583598984773 288.0 6.0 190.0 
382.0003256184117 1167.0 NaN 998.8189712758848 3.045355139890907 287.0 6.0 189.0 
384.0003256184117 1158.0 NaN 989.6566466265871 2.887503907636116 285.0 6.0 186.0 
386.0001983480089 1158.0 NaN 974.3139612558456 2.1974690679901374 284.0 6.0 181.0 
388.0003256184117 1161.0 NaN 968.1629926519723 3.002023410018817 282.0 6.0 179.0 
390.0003256184117 1176.0 NaN 971.3694054776225 3.043947499829682 283.0 6.0 180.0 
392.0003256184117 1178.0 NaN 971.3026052104221 2.357157510841558 279.0 6.0 180.0 
394.0003256184117 1189.0 NaN 968.1469605878415 3.1116257901198945 278.0 6.0 179.0 
396.0001983480089 1187.0 NaN 968.243152972613 3.051627869471491 279.0 6.0 179.0 
398.0003256184117 1194.0 NaN 965.2077488309947 2.482007409055381 277.0 6.0 178.0 
400.0003256184117 1196.0 NaN 962.02004008016 3.3806734504641898 276.0 6.0 177.0 
402.0003256184117 1196.0 NaN 952.8710754843 3.3440531108467964 275.0 6.0 174.0 
404.0003256184117 1200.0 NaN 952.8844355377421 2.592210357455018 277.0 6.0 174.0 
406.0001983480089 1203.0 NaN 952.8416833667328 3.4389128911727127 277.0 6.0 174.0 
408.0003256184117 1199.0 NaN 949.8543754175001 3.315926314246109 277.0 6.0 173.0 
410.0003256184117 1200.0 NaN 946.7254509018039 2.433482255863017 275.0 6.0 172.0 
412.0003256184117 1199.0 NaN 946.706746826987 3.1091241835167014 274.0 6.0 172.0 
414.0003256184117 1190.0 NaN 949.7715430861729 3.058972402593169 274.0 6.0 173.0 
416.0001983480089 1183.0 NaN 949.7661990647966 2.385134133113767 273.0 6.0 173.0 
418.0003256184117 1186.0 NaN 946.6639946559787 3.252560014732754 272.0 6.0 172.0 
420.0003256184117 1187.0 NaN 940.5637942551758 3.3478001085427076 271.0 6.0 170.0 
422.0003256184117 1184.0 NaN 946.7334669338665 2.555592172302542 271.0 6.0 172.0 
424.0003256184117 1186.0 NaN 943.5537742150972 3.3682496962097694 268.0 6.0 171.0 
426.0001983480089 1182.0 NaN 934.4342017368092 3.3531653174643745 267.0 6.0 168.0 
428.0003256184117 1182.0 NaN 934.3914495657999 2.5668094528295993 264.0 6.0 168.0 
430.0003256184117 1188.0 NaN 934.3406813627273 3.4140898870862015 263.0 6.0 168.0 
432.0003256184117 1179.0 NaN 934.431529726118 3.394424398121519 264.0 6.0 168.0 
434.0003256184117 1180.0 NaN 934.4261857047424 2.516134850403882 262.0 6.0 168.0 
436.0001983480089 1185.0 NaN 937.4509018036091 3.287539679361456 262.0 6.0 169.0 
438.0003256184117 1180.0 NaN 940.6305945223784 3.2072122210637537 263.0 6.0 170.0 
440.0003256184117 1174.0 NaN 943.6820307281242 2.4100766796498925 263.0 6.0 171.0 
442.0003256184117 1185.0 NaN 962.065464261857 3.2020988479830392 266.0 6.0 177.0 
444.0003256184117 1194.0 NaN 965.114228456916 3.36634030028956 267.0 6.0 178.0 
446.0001983480089 1195.0 NaN 968.2458249833 2.536093793341922 267.0 6.0 179.0 
448.0003256184117 1196.0 NaN 968.2244488977979 3.262466408994989 270.0 6.0 179.0 
450.0003256184117 1200.0 NaN 968.2378089512366 3.3363500639908015 270.0 6.0 179.0 
452.0003256184117 1204.0 NaN 962.1189044756184 2.717915671097698 269.0 6.0 177.0 
454.0003256184117 1207.0 NaN 965.1756847027387 3.3376373120389298 269.0 6.0 178.0 
456.0001983480089 1206.0 NaN 962.1082164328636 3.35863838584318 268.0 6.0 177.0 
458.0003256184117 1205.0 NaN 959.0541082164334 2.6147381952811783 267.0 6.0 176.0 
460.0003256184117 1210.0 NaN 958.9445557782245 3.2403630368862726 270.0 6.0 176.0 
462.0003256184117 1210.0 NaN 955.8877755511 3.379898141116121 268.0 7.0 174.0 
464.0003256184117 1210.0 NaN 952.8122912491639 2.5744714591032505 266.0 7.0 173.0 
466.0001983480089 1206.0 NaN 952.7722110888457 3.009481503861021 268.0 7.0 173.0 
468.0003256184117 1193.0 NaN 952.825651302606 3.0987582910325804 268.0 7.0 173.0 
470.0003256184117 1196.0 NaN 952.8096192384758 2.5012091184175733 263.0 12.0 168.0 
472.0003256184117 1193.0 NaN 952.8069472277907 3.2513992899485493 263.0 12.0 168.0 
474.0003256184117 1185.0 NaN 952.7962591850363 3.3126635212470132 263.0 12.0 168.0 
476.0001983480089 1170.0 NaN 952.756179024718 2.6978456903923727 262.0 13.0 167.0 
478.0003256184117 1165.0 NaN 949.6700066800274 3.3832812650146917 259.0 13.0 166.0 
480.0003256184117 1164.0 NaN 952.7748830995336 3.451156845131138 261.0 13.0 167.0 
482.0003256184117 1163.0 NaN 949.7608550434185 2.7558840237110944 260.0 13.0 166.0 
484.0003256184117 1171.0 NaN 949.6753507014025 3.353871254541431 261.0 13.0 166.0 
486.0001983480089 1174.0 NaN 955.8583834335341 3.393787812548904 262.0 13.0 168.0 
488.0003256184117 1164.0 NaN 958.9498997996002 2.6981988219136053 262.0 13.0 169.0 
490.0003256184117 1156.0 NaN 958.8724114896453 3.1207582502923485 261.0 13.0 169.0 
492.0003256184117 1163.0 NaN 952.7828991315971 3.2200447266598693 260.0 13.0 167.0 
494.0003256184117 1159.0 NaN 955.8824315297276 2.4531423121692035 258.0 13.0 168.0 
496.0001983480089 1158.0 NaN 955.8263193052753 3.08348889006695 257.0 13.0 168.0 
498.0003256184117 1155.0 NaN 952.8122912491639 3.1320172940647684 257.0 13.0 167.0 
500.0003256184117 1159.0 NaN 952.8069472277908 2.463271108749063 259.0 13.0 167.0 
502.0003256184117 1161.0 NaN 946.6132264529058 3.065982975325055 257.0 13.0 165.0 
504.0003256184117 1162.0 NaN 943.6232464929858 2.9289746944602766 258.0 13.0 164.0 
506.0001983480089 1151.0 NaN 943.617902471609 2.090630305281401 258.0 13.0 164.0 
508.0003256184117 1154.0 NaN 937.453573814295 2.6973785642386914 254.0 13.0 162.0 
510.0003256184117 1152.0 NaN 937.4829659318636 2.777985156610248 256.0 12.0 163.0 
512.0003256184117 1153.0 NaN 940.4943219772871 2.031726209537659 255.0 12.0 164.0 
514.0003256184117 1147.0 NaN 940.4889779559129 2.699215992582025 256.0 12.0 164.0 
516.0001983480089 1143.0 NaN 934.3727454909817 2.7493301096624134 256.0 12.0 162.0 
518.0003256184117 1140.0 NaN 922.108216432864 2.120251337917989 260.0 7.0 163.0 
520.0003256184117 1144.0 NaN 922.0414161656635 2.8908405111498165 260.0 7.0 163.0 
522.0003256184117 1139.0 NaN 922.1295925183686 2.9781923608229457 257.0 7.0 163.0 
524.0003256184117 1140.0 NaN 925.1569806279224 2.4277850894746913 257.0 6.0 165.0 
526.0001983480089 1141.0 NaN 925.1329325317314 3.1702025701200554 256.0 6.0 165.0 
528.0003256184117 1142.0 NaN 925.1703406813639 3.2256596289337276 255.0 6.0 165.0 
530.0003256184117 1146.0 NaN 925.1489645958588 2.6402563045665035 253.0 6.0 165.0 
532.0003256184117 1142.0 NaN 922.076152304609 2.950608069547226 250.0 6.0 164.0 
534.0003256184117 1147.0 NaN 922.1002004008001 3.1911235616920375 250.0 6.0 164.0 
536.0001983480089 1151.0 NaN 922.036072144287 2.614102788473785 252.0 6.0 164.0 
538.0003256184117 1164.0 NaN 925.1596526386093 3.180127920437927 254.0 6.0 165.0 
540.0003256184117 1158.0 NaN 922.0948563794267 3.1977069064516677 253.0 6.0 164.0 
542.0003256184117 1154.0 NaN 922.0841683366726 2.4244857022753696 255.0 6.0 164.0 
544.0003256184117 1154.0 NaN 919.0033400133591 3.06203484672907 255.0 6.0 163.0 
546.0001983480089 1155.0 NaN 919.0167000667999 3.1860153480722007 255.0 6.0 163.0 
548.0003256184117 1144.0 NaN 912.9164996659991 2.34371527516242 253.0 6.0 161.0 
550.0003256184117 1141.0 NaN 912.8630594522373 2.9400804325160177 252.0 6.0 161.0 
552.0003256184117 1136.0 NaN 909.8570474281898 3.034711744449836 251.0 6.0 160.0 
554.0003256184117 1130.0 NaN 909.7902471609898 2.1932801538473132 253.0 6.0 160.0 
556.0001983480089 1132.0 NaN 909.7581830327317 2.9106697530054686 255.0 6.0 160.0 
558.0003256184117 1133.0 NaN 903.6740146960592 3.0956027721789865 255.0 6.0 158.0 
560.0003256184117 1136.0 NaN 906.7227788911151 2.353644809527804 256.0 6.0 159.0 
562.0003256184117 1144.0 NaN 903.6419505678015 3.071391898078968 255.0 6.0 158.0 
564.0003256184117 1153.0 NaN 903.7007348029395 3.1181353484268213 256.0 6.0 158.0 
566.0001983480089 1159.0 NaN 906.7762191048772 2.421976561287419 255.0 6.0 159.0 
568.0003256184117 1161.0 NaN 912.9164996659993 2.8216104722994335 255.0 6.0 161.0 
570.0003256184117 1164.0 NaN 912.9592518370082 2.9962084342165127 255.0 6.0 161.0 
572.0003256184117 1172.0 NaN 906.7441549766193 2.453459881196536 252.0 6.0 159.0 
574.0003256184117 1183.0 NaN 903.6633266533057 3.0979288987149514 251.0 6.0 158.0 
576.0001983480089 1201.0 NaN 903.6953907815638 3.350156437631663 254.0 6.0 158.0 
578.0003256184117 1203.0 NaN 912.9218436873737 2.6177269175031768 253.0 6.0 161.0 
580.0003256184117 1195.0 NaN 909.811623246492 3.20731851484935 253.0 6.0 160.0 
582.0003256184117 1187.0 NaN 909.8837675350693 3.3047009178748357 251.0 6.0 160.0 
584.0003256184117 1178.0 NaN 909.9104876419499 2.4198601788899246 252.0 6.0 160.0 
586.0001983480089 1183.0 NaN 912.9111556446228 3.1559487920460225 255.0 6.0 161.0 
588.0003256184117 1182.0 NaN 909.9452237808955 3.4224557877579085 254.0 6.0 160.0 
590.0003256184117 1175.0 NaN 916.0240480961917 2.612953131250619 253.0 6.0 162.0 
592.0003256184117 1169.0 NaN 915.9812959251826 3.1122757722081773 255.0 6.0 162.0 
594.0003256184117 1184.0 NaN 928.3473613894455 3.198750996247992 255.0 6.0 166.0 
596.0001983480089 1185.0 NaN 928.2458249833 2.5683982359743025 258.0 6.0 166.0 
598.0003256184117 1190.0 NaN 934.415497661991 3.2719995869481684 260.0 6.0 168.0 
600.0003256184117 1190.0 NaN 940.6038744154962 3.2805044027044072 263.0 6.0 170.0 
602.0003256184117 1182.0 NaN 940.5691382765543 2.64935304281305 259.0 6.0 170.0 
604.0003256184117 1181.0 NaN 940.5103540414179 3.276058868502925 261.0 6.0 170.0 
606.0001983480089 1187.0 NaN 934.4288577154316 3.427624084289557 263.0 6.0 168.0 
608.0003256184117 1194.0 NaN 934.4181696726779 2.846168120518963 265.0 6.0 168.0 
610.0003256184117 1188.0 NaN 934.3834335337359 3.18356246928006 265.0 6.0 168.0 
612.0003256184117 1185.0 NaN 934.3994655978632 3.0558540799096203 266.0 6.0 168.0 
614.0003256184117 1190.0 NaN 946.7067468269864 2.3347522859040555 266.0 6.0 172.0 
616.0001983480089 1192.0 NaN 946.6426185704731 3.0735414503809384 266.0 6.0 172.0 
618.0003256184117 1195.0 NaN 946.7067468269864 3.223213546128381 266.0 6.0 172.0 
620.0003256184117 1194.0 NaN 946.6693386773545 2.6518647035910394 266.0 6.0 172.0 
622.0003256184117 1195.0 NaN 946.6933867735461 3.2885712647852254 264.0 6.0 172.0 
624.0003256184117 1208.0 NaN 940.5878423513687 3.5263350214747073 264.0 6.0 170.0 
626.0001983480089 1222.0 NaN 952.8977955911816 3.0587761837341865 267.0 6.0 174.0 
628.0003256184117 1226.0 NaN 952.8390113560454 3.8388940133411 267.0 6.0 174.0 
630.0003256184117 1238.0 NaN 956.0160320641271 3.6663755750032645 269.0 6.0 175.0 
632.0003256184117 1236.0 NaN 962.1322645290587 2.908367094764834 268.0 6.0 177.0 
634.0003256184117 1232.0 NaN 965.1462925851692 3.3909702511914808 267.0 6.0 178.0 
636.0001983480089 1247.0 NaN 968.2484969939873 3.5854552441457277 269.0 6.0 179.0 
638.0003256184117 1262.0 NaN 974.44488977956 3.0203846579458626 268.0 6.0 181.0 
640.0003256184117 1265.0 NaN 980.5370741482964 3.8326677513718628 271.0 6.0 183.0 
642.0003256184117 1258.0 NaN 980.5691382765543 3.6745773921272082 272.0 6.0 183.0 
644.0003256184117 1270.0 NaN 983.6392785571148 3.1035262475607475 272.0 6.0 184.0 
646.0001983480089 1272.0 NaN 983.5911823647273 3.759666359500536 275.0 6.0 184.0 
648.0003256184117 1257.0 NaN 992.9485637942544 3.7048605486619186 279.0 6.0 187.0 
650.0003256184117 1261.0 NaN 999.0327321309273 3.1102040120578587 282.0 6.0 189.0 
652.0003256184117 1254.0 NaN 1002.057448229791 3.7690780782730418 281.0 6.0 190.0 
654.0003256184117 1251.0 NaN 999.0113560454247 3.5941939081770276 282.0 6.0 189.0 
656.0001983480089 1263.0 NaN 1002.076152304609 3.0935594810245344 283.0 7.0 189.0 
658.0003256184117 1266.0 NaN 1008.2244488977977 3.7955646863433468 282.0 7.0 191.0 
660.0003256184117 1267.0 NaN 1008.2885771543092 3.77597574258428 281.0 10.0 188.0 
662.0003256184117 1265.0 NaN 1017.4188376753528 3.0096986376262658 281.0 11.0 190.0 
664.0003256184117 1264.0 NaN 1023.4709418837656 3.657752198723452 281.0 11.0 192.0 
#####################################################################
# End of data export. Simulation finished at: 2019-03-14T14:51+0000 #
#####################################################################
