#####################################################################
# Alchemist log file - simulation started at: 2019-03-09T11:59+0000 #
#####################################################################
# seed = 2.0, bandwidth = 1333521.4321633242, propagationDelay = 0.001, baserange = 31.622776601683796
#
# The columns have the following meaning: 
# time neighbor_count[Sum] <value>@neighbor_count[Sum] packet_size[Mean] mean_delay[Mean] crowd[Sum] overcrowded[Sum] risk[Sum] 
0.0 NaN NaN NaN NaN NaN NaN NaN 
2.000508775618342 2785.0 NaN 4997.004676018704 0.5027676799461122 1496.0 1.0 1496.0 
4.000505776041505 2786.0 NaN 4999.682030728123 0.502867144207653 1482.0 15.0 1482.0 
6.000505776041505 2795.0 NaN 4995.90380761523 0.5037200844628356 1441.0 56.0 1441.0 
8.00049977688783 2792.0 NaN 4996.77755511022 0.503103915566065 1420.0 77.0 1420.0 
10.00049977688783 2792.0 NaN 4994.845691382766 0.5032646237955547 1413.0 84.0 1413.0 
12.00049977688783 2795.0 NaN 4995.457581830327 0.5039255627599544 1417.0 80.0 1417.0 
14.00049977688783 2794.0 NaN 4994.273881095524 0.5030591567808965 1427.0 70.0 1427.0 
16.00049977688783 2802.0 NaN 4995.486973947895 0.5052754655194792 1416.0 81.0 1416.0 
18.00049977688783 2797.0 NaN 4994.0280561122245 0.5028703297217748 1410.0 87.0 1410.0 
20.00049977688783 2803.0 NaN 4995.131596526386 0.5033174315211568 1420.0 77.0 1420.0 
22.00049977688783 2804.0 NaN 4994.0013360053445 0.5095329504051562 1414.0 83.0 1414.0 
24.00049977688783 2797.0 NaN 4995.011356045424 0.5046184201601925 1419.0 78.0 1419.0 
26.00049977688783 2798.0 NaN 4993.61122244489 0.5083341710865867 1412.0 85.0 1412.0 
28.00049977688783 2801.0 NaN 4994.920507682031 0.505588167203709 1414.0 83.0 1414.0 
30.00049977688783 2790.0 NaN 4993.659318637275 0.5034421939464628 1414.0 83.0 1414.0 
32.00049977688783 2807.0 NaN 4994.722778891116 0.5051412649088557 1416.0 81.0 1416.0 
34.00049977688783 2810.0 NaN 4993.841015364062 0.5042817931880901 1415.0 82.0 1415.0 
36.00049977688783 2812.0 NaN 4994.74415497662 0.5056055020640703 1415.0 82.0 1415.0 
38.00049977688783 2817.0 NaN 4993.63794255177 0.5047780287383425 1416.0 81.0 1416.0 
40.00049977688783 2810.0 NaN 4994.821643286573 0.5051792430635119 1414.0 83.0 1414.0 
42.00049977688783 2826.0 NaN 4993.587174348698 0.5075429547472533 1409.0 88.0 1409.0 
44.00049977688783 2828.0 NaN 4994.738810955244 0.504741594407111 1410.0 87.0 1410.0 
46.00049977688783 2828.0 NaN 4993.678022712091 0.5055524144231224 1405.0 92.0 1405.0 
48.00049977688783 2835.0 NaN 4994.746826987308 0.5073007863915064 1408.0 89.0 1408.0 
50.00049977688783 2831.0 NaN 4993.547094188377 0.5046554745687936 1405.0 92.0 1405.0 
52.00049977688783 2859.0 NaN 4994.765531062124 0.5161964343026838 1405.0 92.0 1405.0 
54.00049977688783 2849.0 NaN 4993.712758851036 0.5113914545509222 1408.0 89.0 1408.0 
56.00049977688783 2839.0 NaN 4994.40213760855 0.504904323434424 1407.0 90.0 1407.0 
58.00049977688783 2838.0 NaN 4993.841015364062 0.5044209632009721 1406.0 91.0 1406.0 
60.00049977688783 2836.0 NaN 4994.495657982632 0.502606772757062 1407.0 90.0 1407.0 
62.000009164543556 2868.0 NaN 1518.7949231796913 0.5083328826663842 581.0 92.0 272.0 
64.00000916454356 2845.0 NaN 1518.4502338009365 0.5037350093925604 487.0 91.0 273.0 
66.00000916454357 2845.0 NaN 1518.5464261857062 0.5042134221651311 443.0 91.0 273.0 
68.00000916454357 2853.0 NaN 1518.4502338009365 0.509792315559361 417.0 90.0 274.0 
70.00000916454357 2845.0 NaN 1518.471609886439 0.5036336302782994 400.0 91.0 273.0 
72.00000916454357 2844.0 NaN 1518.4021376085516 0.5056744425045874 402.0 87.0 277.0 
74.00000916454357 2841.0 NaN 1524.537074148297 0.5048136287545878 399.0 87.0 279.0 
76.00000916454357 2840.0 NaN 1524.4809619238456 0.5026417842903096 398.0 88.0 278.0 
78.00000916454357 2847.0 NaN 1524.4969939879754 0.5059407760585642 395.0 87.0 279.0 
80.00000916454357 2849.0 NaN 1524.4355377421516 0.50627525090676 392.0 88.0 278.0 
82.00000916454357 2854.0 NaN 1527.5537742150973 0.5046853943499743 389.0 89.0 278.0 
84.00000916454357 2846.0 NaN 1530.7361389445546 0.5078617103130861 389.0 88.0 280.0 
86.00000916454357 2825.0 NaN 1530.6880427521726 0.5035764245220853 388.0 87.0 281.0 
88.00000916454357 2813.0 NaN 1530.7869071476275 0.5069312706933153 386.0 88.0 280.0 
90.00000916454357 2801.0 NaN 1530.6746826987303 0.5019997281802208 391.0 81.0 287.0 
92.00000916454357 2809.0 NaN 1530.8403473613907 0.5038578072951733 395.0 76.0 292.0 
94.00000916454357 2805.0 NaN 1530.6746826987303 0.5051424966339596 389.0 82.0 286.0 
96.00000916454357 2809.0 NaN 1530.5918503674002 0.5046719353766006 390.0 81.0 287.0 
98.00000916454357 2803.0 NaN 1530.6880427521726 0.5044052134927673 396.0 75.0 293.0 
100.00000916454357 2791.0 NaN 1530.682698730794 0.5031818781725966 399.0 72.0 296.0 
102.00000916454357 2794.0 NaN 1533.694054776218 0.5019597234693113 396.0 75.0 294.0 
104.00000916454357 2798.0 NaN 1533.814295257182 0.5054381848099939 395.0 76.0 293.0 
106.00000916454357 2797.0 NaN 1533.6700066800274 0.5064021599182362 394.0 77.0 292.0 
108.00000916454357 2804.0 NaN 1536.9111556446212 0.5083184219229123 390.0 80.0 290.0 
110.00000916454357 2798.0 NaN 1536.8684034736152 0.5057109933955598 392.0 78.0 292.0 
112.00000916454357 2808.0 NaN 1536.825651302606 0.5066321384304865 390.0 80.0 290.0 
114.00000916454357 2800.0 NaN 1536.8710754843003 0.5109229394012121 389.0 82.0 288.0 
116.00000916454357 2803.0 NaN 1536.8390113560454 0.5101062490794885 394.0 79.0 291.0 
118.00000916454357 2803.0 NaN 1546.0360721442908 0.5107526604235196 396.0 77.0 296.0 
120.00000916454357 2810.0 NaN 1546.0814963259847 0.5067247202211306 400.0 73.0 300.0 
122.00000916454357 2806.0 NaN 1546.0440881763543 0.5120968694071798 401.0 71.0 302.0 
124.00000916454357 2792.0 NaN 1546.076152304609 0.5060783121089988 397.0 76.0 297.0 
126.00000916454357 2804.0 NaN 1549.0420841683363 0.5038391995566942 397.0 78.0 296.0 
128.00000916454357 2807.0 NaN 1546.126920507682 0.5165692148961714 403.0 72.0 301.0 
130.00000916454354 2784.0 NaN 1546.0440881763545 0.5078757150954233 396.0 79.0 294.0 
132.00000916454354 2776.0 NaN 1546.0547762191063 0.5081507829959331 391.0 80.0 293.0 
134.00000916454354 2763.0 NaN 1542.8964595858363 0.5041503881879627 390.0 80.0 292.0 
136.00000916454354 2767.0 NaN 1546.057448229791 0.5052494694653236 391.0 77.0 296.0 
138.00000916454354 2783.0 NaN 1542.909819639279 0.5093456421186267 388.0 79.0 293.0 
140.00000916454354 2804.0 NaN 1546.0334001335998 0.5032111601093997 382.0 84.0 289.0 
142.00000916454354 2827.0 NaN 1549.0821643286574 0.5105784938966241 379.0 86.0 288.0 
144.00000916454354 2836.0 NaN 1549.1543086172362 0.5104040246017314 379.0 85.0 289.0 
146.00000916454354 2832.0 NaN 1549.0581162324638 0.5044108169207806 380.0 85.0 289.0 
148.00000916454354 2845.0 NaN 1546.0574482297911 0.5095244787245188 382.0 86.0 287.0 
150.00000916454354 2846.0 NaN 1542.9124916499663 0.508864613601549 381.0 85.0 287.0 
152.00000916454354 2835.0 NaN 1539.9118236472939 0.5092535696544441 381.0 86.0 285.0 
154.00000916454354 2835.0 NaN 1539.8797595190365 0.5074726265843216 375.0 90.0 281.0 
156.00000916454354 2824.0 NaN 1539.9091516366063 0.507164615826661 382.0 85.0 286.0 
158.00000916454354 2841.0 NaN 1539.9545758183028 0.5051866642361005 384.0 82.0 289.0 
160.00000916454354 2844.0 NaN 1539.7915831663333 0.503786272720149 380.0 86.0 285.0 
162.00000916454354 2851.0 NaN 1539.8396793587183 0.5134635782296473 379.0 87.0 284.0 
164.00000916454354 2822.0 NaN 1542.9311957247814 0.5153989554362107 374.0 90.0 282.0 
166.00000916454354 2810.0 NaN 1549.1275885103548 0.5062390537276621 378.0 86.0 288.0 
168.00000916454354 2812.0 NaN 1549.1516366065453 0.511953101944803 378.0 86.0 288.0 
170.00000916454354 2801.0 NaN 1549.2024048096182 0.5046241397052444 374.0 88.0 286.0 
172.00000916454354 2806.0 NaN 1543.0140280561116 0.5112101434541703 377.0 85.0 287.0 
174.00000916454354 2796.0 NaN 1543.1930527722093 0.5074188665490738 373.0 89.0 283.0 
176.00000916454354 2787.0 NaN 1543.126252505009 0.5119782583349176 370.0 90.0 282.0 
178.00000916454354 2786.0 NaN 1539.853039412157 0.5117790995751107 375.0 85.0 286.0 
180.00000916454354 2763.0 NaN 1539.986639946561 0.5054844745439048 370.0 92.0 279.0 
182.00000916454354 2764.0 NaN 1539.8102872411482 0.5113441023994487 375.0 88.0 283.0 
184.00000916454354 2781.0 NaN 1543.0086840347365 0.5128845928144286 370.0 93.0 279.0 
186.00000916454354 2777.0 NaN 1539.890447561791 0.5103378800137903 376.0 86.0 285.0 
188.00000916454354 2777.0 NaN 1543.0995323981272 0.5110399016800214 377.0 85.0 287.0 
190.00000916454354 2763.0 NaN 1539.8343353373427 0.5059153728541833 381.0 84.0 287.0 
192.00000916454354 2767.0 NaN 1540.0480961923843 0.5185499906432811 386.0 79.0 292.0 
194.00000916454354 2774.0 NaN 1540.072144288576 0.5161270745388873 382.0 82.0 289.0 
196.00000916454354 2767.0 NaN 1540.0400801603205 0.5119586636656528 380.0 83.0 288.0 
198.00000916454354 2778.0 NaN 1543.0487641950544 0.513615233977157 381.0 82.0 290.0 
200.00000916454354 2766.0 NaN 1543.1262525050088 0.5035612378645336 383.0 81.0 291.0 
202.00000916454354 2781.0 NaN 1543.1262525050088 0.5144727122789077 380.0 84.0 288.0 
204.00000916454354 2778.0 NaN 1546.1322645290575 0.5149456813016898 376.0 88.0 285.0 
206.00000916454354 2761.0 NaN 1543.043420173682 0.504964613759526 376.0 88.0 284.0 
208.00000916454354 2770.0 NaN 1542.9231796927181 0.5167336681619441 369.0 91.0 281.0 
210.00000916454354 2750.0 NaN 1539.9919839679364 0.5050521234814324 365.0 94.0 277.0 
212.00000916454354 2755.0 NaN 1539.9038076152299 0.5147073442965637 365.0 95.0 276.0 
214.00000916454354 2756.0 NaN 1543.0674682698727 0.5209956151340369 360.0 102.0 270.0 
216.00000916454354 2739.0 NaN 1542.9846359385454 0.5053958063983078 369.0 93.0 279.0 
218.00000916454354 2755.0 NaN 1542.9552438209753 0.5133043698795109 366.0 97.0 275.0 
220.00000916454354 2748.0 NaN 1539.906479625918 0.5046546038697755 367.0 97.0 274.0 
222.00000916454354 2761.0 NaN 1539.8530394121572 0.5161520109189507 368.0 97.0 274.0 
224.00000916454354 2756.0 NaN 1539.9438877755517 0.5097316451638326 367.0 97.0 274.0 
226.00000916454354 2752.0 NaN 1539.8770875083483 0.5119468018465062 365.0 97.0 274.0 
228.00000916454354 2754.0 NaN 1539.8797595190365 0.5130057153931982 370.0 92.0 279.0 
230.00000916454354 2744.0 NaN 1536.782899131597 0.5112083263162901 369.0 90.0 280.0 
232.00000916454354 2747.0 NaN 1539.9572478289908 0.506283003233865 369.0 92.0 279.0 
234.00000916454354 2750.0 NaN 1539.9572478289908 0.5194340814527194 373.0 89.0 282.0 
236.00000916454354 2745.0 NaN 1542.9525718102884 0.5106469829124515 374.0 88.0 284.0 
238.00000916454354 2743.0 NaN 1543.0647962591843 0.5200497057701913 369.0 90.0 282.0 
240.00000916454354 2722.0 NaN 1542.9365397461577 0.508681874388599 365.0 94.0 278.0 
242.00000916454354 2724.0 NaN 1539.8236472945907 0.5175711475585482 365.0 95.0 276.0 
244.00000916454354 2719.0 NaN 1539.7595190380755 0.512051990733609 362.0 96.0 275.0 
246.00000916454354 2718.0 NaN 1539.7568470273884 0.5082158534708322 353.0 104.0 267.0 
248.00000916454354 2713.0 NaN 1539.895791583166 0.5127806671140648 355.0 102.0 269.0 
250.00000916454354 2703.0 NaN 1539.7274549098183 0.5078441935448856 353.0 104.0 267.0 
252.00000916454354 2702.0 NaN 1533.6566466265876 0.5134734731827965 353.0 103.0 266.0 
254.00000916454354 2708.0 NaN 1533.7207748831 0.5200356026802716 357.0 99.0 270.0 
256.00000916454354 2698.0 NaN 1530.5758183032726 0.5108411636083328 355.0 101.0 267.0 
258.00000916454354 2705.0 NaN 1530.6399465597847 0.5153015696229526 354.0 102.0 266.0 
260.00000916454354 2697.0 NaN 1530.6239144956576 0.5043925657658518 367.0 89.0 279.0 
262.00000916454354 2714.0 NaN 1524.4088176352723 0.5144671431559024 364.0 93.0 273.0 
264.00000916454354 2716.0 NaN 1527.655310621243 0.5278707103188062 369.0 89.0 278.0 
266.00000916454354 2692.0 NaN 1527.5404141616548 0.51170168407039 380.0 80.0 287.0 
268.00000916454354 2691.0 NaN 1539.858383433534 0.5129931963383275 382.0 78.0 293.0 
270.00000916454354 2679.0 NaN 1539.901135604543 0.5042304307702213 382.0 78.0 293.0 
272.00000916454354 2677.0 NaN 1539.847695390782 0.5249678187773461 387.0 74.0 297.0 
274.00000916454354 2664.0 NaN 1542.7975951903818 0.5161781993999132 385.0 76.0 296.0 
276.00000916454354 2652.0 NaN 1542.9178356713433 0.5037006830908268 391.0 70.0 302.0 
278.00000916454354 2651.0 NaN 1539.8557114228454 0.5108496731916365 386.0 75.0 296.0 
280.00000916454354 2647.0 NaN 1539.7595190380753 0.5109917563282181 392.0 71.0 300.0 
282.00000916454354 2648.0 NaN 1536.6973947895797 0.5128972329679334 384.0 79.0 291.0 
284.00000916454354 2638.0 NaN 1536.7561790247182 0.5237736831433615 390.0 72.0 298.0 
286.00000916454354 2630.0 NaN 1536.7828991315976 0.512610750966023 380.0 79.0 291.0 
288.00000916454354 2619.0 NaN 1536.6760187040727 0.5145615354917265 386.0 72.0 298.0 
290.00000916454354 2617.0 NaN 1536.700066800266 0.5152802614106697 380.0 77.0 293.0 
292.00000916454354 2615.0 NaN 1536.6225784903158 0.5140243499545403 389.0 67.0 303.0 
294.00000916454354 2611.0 NaN 1530.4529058116245 0.5119944683688479 384.0 72.0 296.0 
296.00000916454354 2601.0 NaN 1530.4422177688725 0.5092561052759922 390.0 66.0 302.0 
298.00000916454354 2608.0 NaN 1533.6432865731454 0.506532157729224 383.0 73.0 296.0 
300.00000916454354 2603.0 NaN 1533.5470941883755 0.5130799093437138 390.0 66.0 303.0 
302.00000916454354 2605.0 NaN 1527.524382097527 0.5084548718757533 384.0 72.0 295.0 
304.00000916454354 2628.0 NaN 1530.4502338009365 0.5059301847471104 389.0 67.0 301.0 
306.00000916454354 2632.0 NaN 1530.5250501002 0.5131567217282768 384.0 72.0 296.0 
308.00000916454354 2630.0 NaN 1530.55444221777 0.513195163968494 389.0 66.0 302.0 
310.00000916454354 2625.0 NaN 1536.6225784903156 0.510098618950122 381.0 72.0 298.0 
312.00000916454354 2622.0 NaN 1536.790915163661 0.515976924499522 389.0 65.0 305.0 
314.00000916454354 2608.0 NaN 1533.7127588510366 0.5085831901564007 383.0 71.0 298.0 
316.00000916454354 2596.0 NaN 1527.4923179692728 0.507240357346536 387.0 66.0 301.0 
318.00000916454354 2606.0 NaN 1527.5083500334 0.5077623891531392 383.0 71.0 296.0 
320.00000916454354 2603.0 NaN 1530.6372745490999 0.5047838338438487 389.0 65.0 303.0 
322.00000916454354 2617.0 NaN 1527.6205744822998 0.5116731319098874 383.0 72.0 295.0 
324.00000916454354 2616.0 NaN 1530.6987307949244 0.5121762541819245 391.0 66.0 302.0 
326.00000916454354 2614.0 NaN 1530.6826987307938 0.5092265370645226 384.0 72.0 296.0 
328.00000916454354 2609.0 NaN 1530.5330661322635 0.5138544898324495 386.0 69.0 299.0 
330.00000916454354 2595.0 NaN 1530.6479625918516 0.5046812414563381 380.0 74.0 294.0 
332.00000916454354 2601.0 NaN 1527.6125584502338 0.5172646790876213 388.0 66.0 301.0 
334.00000916454354 2608.0 NaN 1530.6853707414816 0.5077823019864284 383.0 73.0 295.0 
336.00000916454354 2608.0 NaN 1530.6666666666663 0.5105539517622794 392.0 64.0 304.0 
338.00000916454354 2626.0 NaN 1527.5858383433547 0.5105706617620341 386.0 72.0 295.0 
340.00000916454354 2618.0 NaN 1524.5210420841693 0.505553295414067 390.0 67.0 299.0 
342.00000916454354 2634.0 NaN 1530.677354709418 0.5114777518046936 388.0 72.0 296.0 
344.00000916454354 2632.0 NaN 1533.849031396127 0.5106282596994404 392.0 68.0 301.0 
346.00000916454354 2624.0 NaN 1530.760187040748 0.507349612094233 386.0 74.0 294.0 
348.00000916454354 2619.0 NaN 1530.6533066132274 0.5105764320601223 394.0 67.0 301.0 
350.00000916454354 2619.0 NaN 1527.5457581830335 0.5115457279839315 385.0 74.0 293.0 
352.00000916454354 2642.0 NaN 1530.5918503674004 0.5167156257421126 391.0 68.0 300.0 
354.00000916454354 2633.0 NaN 1527.5778223112904 0.5134909967912167 383.0 76.0 291.0 
356.00000916454354 2638.0 NaN 1524.563794255176 0.5138839926648966 388.0 71.0 295.0 
358.00000916454354 2630.0 NaN 1524.3901135604547 0.5284359517111319 380.0 79.0 287.0 
360.00000916454354 2602.0 NaN 1524.4863059452243 0.5151702741778759 385.0 72.0 294.0 
362.00000916454354 2617.0 NaN 1524.5450901803613 0.5171500309629036 374.0 83.0 283.0 
364.00000916454354 2616.0 NaN 1524.3607214428848 0.5062456651394346 381.0 76.0 290.0 
366.00000916454354 2617.0 NaN 1524.5450901803613 0.5095275267624043 375.0 82.0 284.0 
368.00000916454354 2621.0 NaN 1524.334001336006 0.5044892932662343 380.0 77.0 289.0 
370.00000916454354 2617.0 NaN 1502.9712758851033 0.5150593328362688 375.0 83.0 276.0 
372.00000916454354 2622.0 NaN 1505.9104876419512 0.515759955506002 382.0 76.0 284.0 
374.00000916454354 2611.0 NaN 1508.9779559118244 0.5182442364346254 377.0 82.0 279.0 
376.00000916454354 2603.0 NaN 1509.028724114897 0.5056557157200438 385.0 75.0 286.0 
378.00000916454354 2613.0 NaN 1505.950567802272 0.5081047266206942 379.0 81.0 279.0 
380.00000916454354 2614.0 NaN 1505.9665998664002 0.5128770757302735 384.0 77.0 283.0 
382.00000916454354 2620.0 NaN 1499.8183032732127 0.5223571761448244 381.0 78.0 280.0 
384.00000916454354 2622.0 NaN 1502.84034736139 0.5078450174347354 384.0 75.0 284.0 
386.00000916454354 2628.0 NaN 1509.1195724782908 0.5107167507429969 380.0 82.0 279.0 
388.00000916454354 2657.0 NaN 1509.087508350034 0.5100439122510081 388.0 75.0 286.0 
390.00000916454354 2632.0 NaN 1506.009352037409 0.5104596005620441 383.0 78.0 282.0 
392.00000916454354 2622.0 NaN 1512.2591850367394 0.5194132247810108 382.0 78.0 284.0 
394.00000916454354 2620.0 NaN 1509.0501002004 0.5223152802879173 378.0 85.0 276.0 
396.00000916454354 2620.0 NaN 1509.1649966599878 0.5060065053308928 380.0 80.0 281.0 
398.00000916454354 2639.0 NaN 1509.255845023381 0.5128730778079802 378.0 81.0 280.0 
400.00000916454354 2622.0 NaN 1509.0207080828332 0.5049242611813711 393.0 70.0 291.0 
402.00000916454354 2637.0 NaN 1506.1108884435544 0.508633966220088 395.0 71.0 289.0 
404.00000916454354 2650.0 NaN 1518.3139612558455 0.5182940170674128 396.0 70.0 294.0 
406.00000916454354 2649.0 NaN 1518.383433533736 0.5192991973046571 396.0 71.0 293.0 
408.00000916454354 2661.0 NaN 1521.4989979959907 0.5215269528608052 403.0 64.0 301.0 
410.00000916454354 2640.0 NaN 1527.7194388777543 0.5077229226809634 397.0 70.0 297.0 
412.00000916454354 2648.0 NaN 1530.8002672010698 0.5126942390614642 404.0 63.0 305.0 
414.00000916454354 2643.0 NaN 1533.8944555778212 0.5200906633563381 406.0 63.0 306.0 
416.00000916454354 2628.0 NaN 1533.7234468937884 0.5114618510974639 410.0 59.0 310.0 
418.00000916454354 2635.0 NaN 1530.7361389445548 0.5207199289174889 400.0 69.0 299.0 
420.00000916454354 2609.0 NaN 1518.3727454909817 0.5013981095736574 409.0 63.0 301.0 
422.00000916454354 2636.0 NaN 1515.2999331997335 0.5027584346702302 406.0 65.0 298.0 
424.00000916454354 2647.0 NaN 1512.1523046092182 0.5284965316372222 405.0 65.0 297.0 
426.00000916454354 2630.0 NaN 1518.3299933199726 0.5172416576958806 406.0 68.0 296.0 
428.00000916454354 2643.0 NaN 1518.175016700066 0.5185555315672448 406.0 64.0 300.0 
430.00000916454354 2599.0 NaN 1515.2331329325305 0.5059022943189836 392.0 77.0 286.0 
432.00000916454354 2621.0 NaN 1515.144956579827 0.5112819649259568 398.0 72.0 291.0 
434.00000916454354 2619.0 NaN 1521.4268537074154 0.5221372226633001 395.0 78.0 287.0 
436.00000916454354 2611.0 NaN 1527.5136940547754 0.5212354328009716 407.0 68.0 299.0 
438.00000916454354 2635.0 NaN 1527.4976619906477 0.519657154124134 396.0 74.0 293.0 
440.00000916454354 2622.0 NaN 1527.4923179692728 0.5056354094490951 401.0 68.0 299.0 
442.00000916454354 2627.0 NaN 1530.5250501002 0.5071761208950302 394.0 75.0 293.0 
444.00000916454354 2620.0 NaN 1530.5945223780907 0.514908258462437 402.0 68.0 300.0 
446.00000916454354 2620.0 NaN 1536.830995323982 0.5147007341702742 396.0 74.0 296.0 
448.00000916454354 2634.0 NaN 1545.8810955243816 0.5146254360890516 409.0 68.0 305.0 
450.00000916454354 2617.0 NaN 1545.8971275885092 0.5091310719320274 409.0 69.0 304.0 
452.00000916454354 2618.0 NaN 1542.8296593186362 0.5147566639242972 413.0 63.0 309.0 
454.00000916454354 2590.0 NaN 1542.8136272545094 0.5135158412247881 403.0 72.0 300.0 
456.00000916454354 2595.0 NaN 1552.1229124916517 0.5146842846660791 413.0 63.0 312.0 
458.00000916454354 2601.0 NaN 1552.0534402137612 0.5167208443662632 408.0 69.0 306.0 
460.00000916454354 2573.0 NaN 1549.002004008018 0.5116236356568787 410.0 64.0 310.0 
462.00000916454354 2579.0 NaN 1548.956579826318 0.5134188231615077 404.0 70.0 304.0 
464.00000916454354 2578.0 NaN 1545.8623914495638 0.5098033196761764 410.0 65.0 308.0 
466.00000916454354 2581.0 NaN 1542.9231796927181 0.5169815095540123 405.0 70.0 302.0 
468.00000916454354 2574.0 NaN 1545.8303273213091 0.5188843494948083 412.0 63.0 310.0 
470.00000916454354 2570.0 NaN 1542.8029392117546 0.512950039154231 404.0 70.0 302.0 
472.00000916454354 2571.0 NaN 1536.595858383434 0.5173627420211125 401.0 71.0 299.0 
474.00000916454354 2568.0 NaN 1530.5250501002 0.5093330479078976 396.0 76.0 292.0 
476.00000916454354 2576.0 NaN 1521.311957247828 0.5183920592287367 404.0 68.0 297.0 
478.00000916454354 2582.0 NaN 1515.179692718772 0.5151095903548644 399.0 73.0 290.0 
480.00000916454354 2569.0 NaN 1515.115564462257 0.5043261115651181 406.0 65.0 298.0 
482.00000916454354 2585.0 NaN 1512.1202404809626 0.5210716624935285 393.0 76.0 286.0 
484.00000916454354 2573.0 NaN 1512.0587842351363 0.5077594867500275 396.0 71.0 291.0 
486.00000916454354 2582.0 NaN 1509.1409485637937 0.5161965864121351 390.0 76.0 285.0 
488.00000916454354 2580.0 NaN 1509.0447561790254 0.5170687660306424 401.0 64.0 297.0 
490.00000916454354 2568.0 NaN 1499.8209752839002 0.5127897000098883 391.0 72.0 286.0 
492.00000916454354 2565.0 NaN 1499.7969271877091 0.5207675438277541 398.0 64.0 294.0 
494.00000916454354 2558.0 NaN 1496.734802939211 0.5126595882384679 387.0 74.0 283.0 
496.00000916454354 2559.0 NaN 1490.7254509018028 0.5060530441076236 389.0 70.0 285.0 
498.00000916454354 2567.0 NaN 1493.8142952571816 0.5125659200878449 380.0 75.0 281.0 
500.00000916454354 2551.0 NaN 1490.5571142284562 0.5058668703642428 382.0 70.0 285.0 
502.00000916454354 2550.0 NaN 1493.6780227120908 0.5030787335862186 382.0 72.0 284.0 
504.00000916454354 2559.0 NaN 1493.683366733466 0.5086735928894321 391.0 65.0 291.0 
506.00000916454354 2573.0 NaN 1502.9525718102882 0.5072557703108426 388.0 72.0 287.0 
508.00000916454354 2587.0 NaN 1502.9819639278546 0.5115216058217782 394.0 66.0 293.0 
510.00000916454354 2586.0 NaN 1502.9979959919826 0.5098365608530198 383.0 75.0 284.0 
512.0000091645435 2585.0 NaN 1502.8964595858372 0.5118528730520866 389.0 68.0 291.0 
514.0000091645435 2585.0 NaN 1499.8984635938546 0.514452731280444 382.0 75.0 283.0 
516.0000091645435 2585.0 NaN 1487.6740146960576 0.5093224822006532 388.0 67.0 287.0 
518.0000091645435 2583.0 NaN 1478.4395457581825 0.5138272442258504 379.0 74.0 277.0 
520.0000091645435 2589.0 NaN 1475.2785571142274 0.5180758271476765 381.0 68.0 282.0 
522.0000091645435 2574.0 NaN 1475.283901135603 0.5156236995566233 365.0 79.0 271.0 
524.0000091645435 2570.0 NaN 1463.0621242484976 0.5125476886754382 370.0 74.0 272.0 
526.0000091645435 2576.0 NaN 1460.04008016032 0.5176413256644254 364.0 79.0 266.0 
528.0000091645435 2575.0 NaN 1456.9859719438884 0.5087739002266226 378.0 65.0 279.0 
530.0000091645435 2580.0 NaN 1459.8984635938546 0.5129283819923524 376.0 68.0 277.0 
532.0000091645435 2567.0 NaN 1459.9679358717442 0.5175362313361134 382.0 63.0 282.0 
534.0000091645435 2567.0 NaN 1463.0514362057454 0.5137637199737538 378.0 68.0 278.0 
536.0000091645435 2581.0 NaN 1466.1937207748824 0.506751170858822 387.0 61.0 286.0 
538.0000091645435 2589.0 NaN 1463.0968603874423 0.5079866081521688 379.0 71.0 275.0 
540.0000091645435 2587.0 NaN 1463.0273881095534 0.5137740522326176 385.0 67.0 279.0 
542.0000091645435 2576.0 NaN 1463.0701402805614 0.5198216145116817 379.0 72.0 274.0 
544.0000091645435 2570.0 NaN 1463.014028056112 0.5161285442413817 387.0 67.0 279.0 
546.0000091645435 2575.0 NaN 1459.9866399465604 0.511820090855982 383.0 73.0 272.0 
548.0000091645435 2557.0 NaN 1462.9605878423517 0.5108342536710355 389.0 63.0 283.0 
550.0000091645435 2551.0 NaN 1462.845691382765 0.5122081310106519 384.0 68.0 278.0 
552.0000091645435 2544.0 NaN 1462.9071476285908 0.5184182453870115 390.0 61.0 285.0 
554.0000091645435 2556.0 NaN 1469.082164328657 0.5097539834939755 387.0 67.0 281.0 
556.0000091645435 2555.0 NaN 1472.2431529726114 0.5110694075738674 391.0 64.0 285.0 
558.0000091645435 2556.0 NaN 1466.2311289245158 0.507466331677215 384.0 70.0 277.0 
560.0000091645435 2572.0 NaN 1456.8897795591183 0.5118323761968708 385.0 64.0 280.0 
562.0000091645435 2560.0 NaN 1459.9545758183035 0.5284329858698573 373.0 73.0 272.0 
564.0000091645435 2559.0 NaN 1466.1002004008012 0.5299332222643915 382.0 66.0 281.0 
566.0000091645435 2557.0 NaN 1472.221776887108 0.5199521134607711 376.0 71.0 278.0 
568.0000091645435 2543.0 NaN 1472.2324649298598 0.517709895665037 380.0 66.0 283.0 
570.0000091645435 2541.0 NaN 1475.201068804275 0.5118030872932662 383.0 70.0 280.0 
572.0000091645435 2525.0 NaN 1481.4402137608545 0.5166864000939955 391.0 64.0 288.0 
574.0000091645435 2546.0 NaN 1484.4328657314634 0.5200028205266852 388.0 70.0 283.0 
576.0000091645435 2567.0 NaN 1490.7414829659308 0.5137214034498413 397.0 62.0 293.0 
578.0000091645435 2565.0 NaN 1487.5537742150975 0.5158258022752484 395.0 66.0 288.0 
580.0000091645435 2559.0 NaN 1490.5838343353366 0.5106313078411456 400.0 61.0 294.0 
582.0000091645435 2559.0 NaN 1490.6265865063453 0.5087271191823705 396.0 66.0 289.0 
584.0000091645435 2573.0 NaN 1490.6239144956576 0.5211211804436862 403.0 60.0 295.0 
586.0000091645435 2580.0 NaN 1499.8263193052755 0.5212914895542156 401.0 68.0 290.0 
588.0000091645435 2571.0 NaN 1499.906479625918 0.5132762751113663 406.0 62.0 296.0 
590.0000091645435 2570.0 NaN 1496.713426853708 0.5165086480787943 399.0 66.0 291.0 
592.0000091645435 2572.0 NaN 1499.7621910487635 0.5192860938064766 408.0 61.0 297.0 
594.0000091645435 2591.0 NaN 1499.751503006011 0.5252323661505516 403.0 67.0 291.0 
596.0000091645435 2577.0 NaN 1502.832331329326 0.516227537642669 409.0 62.0 297.0 
598.0000091645435 2578.0 NaN 1499.7889111556453 0.5161017269750974 404.0 67.0 291.0 
600.0000091645435 2581.0 NaN 1493.563126252506 0.5103423258303619 405.0 67.0 289.0 
602.0000091645435 2585.0 NaN 1496.6492985971938 0.5143107351968894 400.0 74.0 283.0 
604.0000091645435 2611.0 NaN 1496.69739478958 0.5163085442879239 394.0 74.0 283.0 
606.0000091645435 2608.0 NaN 1502.9926519706084 0.5158265869756845 390.0 79.0 280.0 
608.0000091645435 2606.0 NaN 1506.0227120908473 0.5135052119259217 395.0 73.0 287.0 
610.0000091645435 2598.0 NaN 1499.839679358718 0.5110364108228618 387.0 81.0 277.0 
612.0000091645435 2596.0 NaN 1502.9231796927181 0.5127926305579641 393.0 75.0 284.0 
614.0000091645435 2599.0 NaN 1502.8537074148292 0.5225174741651957 390.0 78.0 281.0 
616.0000091645435 2609.0 NaN 1505.945223780894 0.5113928698830059 390.0 78.0 282.0 
618.0000091645435 2613.0 NaN 1506.1135604542426 0.5223583814762673 384.0 83.0 277.0 
620.0000091645435 2581.0 NaN 1502.9178356713435 0.5123069933265921 390.0 75.0 284.0 
622.0000091645435 2591.0 NaN 1505.9478957915826 0.5175352926306276 386.0 79.0 281.0 
624.0000091645435 2608.0 NaN 1512.1870407481638 0.5211497553457359 390.0 74.0 288.0 
626.0000091645435 2633.0 NaN 1515.305277221109 0.5202439503582809 381.0 79.0 284.0 
628.0000091645435 2642.0 NaN 1515.3186372745483 0.52395259638997 382.0 77.0 286.0 
630.0000091645435 2628.0 NaN 1515.4468937875747 0.5109485646736854 380.0 80.0 283.0 
632.0000091645435 2643.0 NaN 1515.3800935203733 0.5098291653560149 387.0 73.0 290.0 
634.0000091645435 2678.0 NaN 1521.5123580494333 0.5262574340156004 382.0 78.0 287.0 
636.0000091645435 2693.0 NaN 1527.7621910487635 0.5210707473323556 391.0 75.0 292.0 
638.0000091645435 2683.0 NaN 1524.6519706078816 0.5199325206906626 382.0 85.0 281.0 
640.0000091645435 2666.0 NaN 1521.6058784235122 0.5132661107969296 389.0 77.0 288.0 
642.0000091645435 2670.0 NaN 1515.3507014028062 0.5206574654229033 383.0 83.0 280.0 
644.0000091645435 2657.0 NaN 1509.2611890447556 0.5304139469389927 390.0 74.0 287.0 
646.0000091645435 2651.0 NaN 1515.444221776888 0.5149931385044179 377.0 85.0 278.0 
648.0000091645435 2648.0 NaN 1515.3400133600546 0.5252532139870317 387.0 75.0 288.0 
650.0000091645435 2616.0 NaN 1521.5310621242475 0.5182718915547815 380.0 82.0 283.0 
652.0000091645435 2610.0 NaN 1521.520374081497 0.5249375512284656 385.0 75.0 290.0 
654.0000091645435 2612.0 NaN 1521.6058784235122 0.5217122168844911 375.0 81.0 284.0 
656.0000091645435 2638.0 NaN 1527.8156312625263 0.5128240976542857 379.0 77.0 290.0 
658.0000091645435 2646.0 NaN 1533.8917835671352 0.5254970502916477 381.0 77.0 292.0 
660.0000091645435 2635.0 NaN 1537.098196392785 0.5149923819879196 388.0 71.0 299.0 
662.0000091645435 2626.0 NaN 1536.868403473615 0.5246531715566433 383.0 76.0 294.0 
664.0000091645435 2615.0 NaN 1540.0133600534396 0.5210276790675944 386.0 72.0 299.0 
#####################################################################
# End of data export. Simulation finished at: 2019-03-09T12:04+0000 #
#####################################################################
