#####################################################################
# Alchemist log file - simulation started at: 2019-03-03T14:41+0000 #
#####################################################################
# seed = 1.0, bandwidth = 5623413.251903491, propagationDelay = 0.01, baserange = 177.82794100389228
#
# The columns have the following meaning: 
# time neighbor_count[Sum] <value>@neighbor_count[Sum] packet_size[Mean] mean_delay[Mean] crowd[Sum] overcrowded[Sum] risk[Sum] 
0.0 NaN NaN NaN NaN NaN NaN NaN 
10.000417374280275 26556.0 NaN 4995.075484301938 0.49523489896278083 1495.0 2.0 1495.0 
20.000417374280275 26570.0 NaN 4995.607214428857 0.4960749800565653 1496.0 1.0 1496.0 
30.000417374280275 26598.0 NaN 4995.706078824315 0.49534444426565144 1495.0 2.0 1495.0 
40.000417374280275 26631.0 NaN 4996.157648630595 0.4960200688831097 1496.0 1.0 1496.0 
50.000417374280275 26663.0 NaN 4995.746158984636 0.4962433471887535 1496.0 1.0 1496.0 
60.000417374280275 26661.0 NaN 4995.847695390781 0.4960971888394739 1496.0 1.0 1496.0 
70.00034299119687 26704.0 NaN 1525.645958583836 0.4964138842827045 533.0 3.0 363.0 
80.00034299119687 26782.0 NaN 1534.8617234468936 0.49969334988525654 525.0 3.0 366.0 
90.00034299119687 26767.0 NaN 1534.8510354041425 0.49672205096905936 525.0 2.0 367.0 
100.00034299119687 26765.0 NaN 1537.9265197060793 0.4970987911049892 526.0 2.0 368.0 
110.00034299119687 26768.0 NaN 1538.0173680694727 0.49681335330599 525.0 2.0 368.0 
120.00034299119687 26694.0 NaN 1544.0507682030725 0.4996616753715688 528.0 2.0 370.0 
130.00034299119687 26656.0 NaN 1541.1142284569148 0.4975609899327194 525.0 2.0 369.0 
140.00034299119687 26641.0 NaN 1541.0794923179694 0.49632598118724114 517.0 3.0 368.0 
150.00034299119687 26648.0 NaN 1544.171008684036 0.49622154608344526 520.0 4.0 368.0 
160.00034299119687 26597.0 NaN 1541.336005344021 0.49685098981961645 518.0 3.0 368.0 
170.00034299119687 26535.0 NaN 1543.9706078824302 0.4968810134503473 513.0 7.0 365.0 
180.00034299119687 26482.0 NaN 1538.2525050100182 0.49748850731363525 515.0 5.0 365.0 
190.00034299119687 26400.0 NaN 1538.017368069473 0.5000526897656352 516.0 3.0 367.0 
200.00034299119687 26346.0 NaN 1538.0253841015365 0.49720812229803696 515.0 4.0 366.0 
210.00034299119687 26270.0 NaN 1528.8844355377428 0.5012580928049347 510.0 4.0 363.0 
220.00034299119687 26162.0 NaN 1525.6379425517703 0.4991254245714887 514.0 5.0 361.0 
230.00034299119687 26061.0 NaN 1531.8717434869727 0.49959849466912937 509.0 4.0 364.0 
240.00034299119687 25997.0 NaN 1528.7775551102184 0.4973843897023905 510.0 4.0 363.0 
250.00034299119687 25937.0 NaN 1528.6973947895792 0.49730687668790163 511.0 4.0 363.0 
260.0003429911969 25854.0 NaN 1522.7281229124908 0.49802765808873656 511.0 5.0 360.0 
270.0003429911969 25728.0 NaN 1528.7000668002665 0.4979301369236133 510.0 3.0 364.0 
280.0003429911969 25630.0 NaN 1528.6412825651298 0.4984849034902806 509.0 4.0 363.0 
290.0003429911969 25613.0 NaN 1534.8162992651976 0.49781071155760104 510.0 3.0 366.0 
300.0003429911969 25530.0 NaN 1534.7708750835 0.49715372161167076 507.0 4.0 365.0 
310.0003429911969 25468.0 NaN 1534.8216432865727 0.5016000602388085 504.0 4.0 365.0 
320.0003429911969 25337.0 NaN 1531.78356713427 0.4958754199018776 505.0 5.0 363.0 
330.0003429911969 25288.0 NaN 1540.8764195056792 0.4964500373018927 507.0 2.0 369.0 
340.0003429911969 25278.0 NaN 1528.8844355377428 0.49711396755358295 507.0 4.0 363.0 
350.0003429911969 25278.0 NaN 1525.3814295257184 0.4989338200482431 508.0 5.0 361.0 
360.0003429911969 25260.0 NaN 1522.484969939881 0.49685673080752824 508.0 6.0 359.0 
370.0003429911969 25162.0 NaN 1507.139612558451 0.4972923800159441 511.0 6.0 354.0 
380.0003429911969 25081.0 NaN 1500.7722110888453 0.4974187581451943 519.0 4.0 354.0 
390.0003429911969 25038.0 NaN 1507.19305277221 0.4985059441487887 515.0 2.0 358.0 
400.0003429911969 24965.0 NaN 1507.0567802271205 0.4982334536316815 512.0 6.0 354.0 
410.0003429911969 24954.0 NaN 1516.3446893787568 0.4968161656953992 520.0 2.0 361.0 
420.0003429911969 24862.0 NaN 1491.727454909819 0.49705524894163905 505.0 5.0 350.0 
430.0003429911969 24820.0 NaN 1507.0861723446899 0.49672655281201566 519.0 4.0 356.0 
440.0003429911969 24809.0 NaN 1522.5170340681366 0.4971007495805357 521.0 5.0 360.0 
450.0003429911969 24855.0 NaN 1534.8483633934545 0.4979739142260846 524.0 4.0 365.0 
460.0003429911969 24876.0 NaN 1540.9271877087517 0.49832427384645867 524.0 3.0 368.0 
470.0003429911969 24834.0 NaN 1531.7194388777546 0.4988469572362231 516.0 5.0 363.0 
480.0003429911969 24842.0 NaN 1525.5257181028728 0.4988059391754399 514.0 4.0 362.0 
490.0003429911969 24915.0 NaN 1497.8650634602543 0.49881073560438893 512.0 3.0 354.0 
500.0003429911969 24893.0 NaN 1485.6058784235126 0.4988153281773221 504.0 3.0 350.0 
510.0003429911969 24917.0 NaN 1497.7795591182362 0.5004610576259401 510.0 4.0 353.0 
520.0003429911968 24976.0 NaN 1470.4181696726796 0.498776365456234 506.0 2.0 346.0 
530.0003429911968 25000.0 NaN 1454.7094188376748 0.49757677711311227 510.0 3.0 340.0 
540.0003429911968 24987.0 NaN 1467.305277221109 0.4986330912498632 508.0 3.0 344.0 
550.0003429911968 24942.0 NaN 1473.2718770875088 0.4984093672655675 512.0 4.0 345.0 
560.0003429911968 24988.0 NaN 1473.2798931195728 0.5008597838655492 515.0 3.0 346.0 
570.0003429911968 24979.0 NaN 1488.7802271209089 0.49934120629213097 516.0 4.0 350.0 
580.0003429911968 24995.0 NaN 1494.8056112224456 0.499485121644669 518.0 5.0 351.0 
590.0003429911968 25074.0 NaN 1504.0400801603198 0.4994216201057889 521.0 4.0 355.0 
600.0003429911968 25100.0 NaN 1500.895123580494 0.4997186975966665 530.0 2.0 356.0 
610.0003429911968 25163.0 NaN 1513.2424849699394 0.5017425107526444 526.0 5.0 357.0 
620.0003429911968 25150.0 NaN 1522.3513694054789 0.500486762645956 523.0 5.0 360.0 
630.0003429911968 25128.0 NaN 1519.5377421509697 0.49858500111773363 521.0 5.0 359.0 
640.0003429911968 25147.0 NaN 1516.4168336673351 0.5010836471930415 523.0 3.0 360.0 
650.0003429911968 25105.0 NaN 1525.6165664662644 0.49905748672970196 518.0 4.0 362.0 
660.0003429911968 25068.0 NaN 1531.802271209084 0.501106416005821 513.0 3.0 365.0 
#####################################################################
# End of data export. Simulation finished at: 2019-03-03T14:57+0000 #
#####################################################################
