#####################################################################
# Alchemist log file - simulation started at: 2019-03-06T06:56+0000 #
#####################################################################
# seed = 3.0, bandwidth = 1.0E8, propagationDelay = 10.0, baserange = 1000.0
#
# The columns have the following meaning: 
# time neighbor_count[Sum] <value>@neighbor_count[Sum] packet_size[Mean] mean_delay[Mean] crowd[Sum] overcrowded[Sum] risk[Sum] 
0.0 NaN NaN NaN NaN NaN NaN NaN 
2.0005923698108097 NaN NaN 4988.0 NaN 1497.0 0.0 1497.0 
4.00059236981081 NaN NaN 4988.0 NaN 1497.0 0.0 1497.0 
6.000084666035003 NaN NaN 4988.0 NaN 1497.0 0.0 1497.0 
8.00059236981081 NaN NaN 4988.0 NaN 1497.0 0.0 1497.0 
10.00033353340315 NaN NaN 4988.0 NaN 1497.0 0.0 1497.0 
12.00059236981081 210034.0 NaN 4995.828991315965 1.0010095951436382 1497.0 0.0 1497.0 
14.00059236981081 210034.0 NaN 4996.785571142284 3.001009595143638 1497.0 0.0 1497.0 
16.000084666035004 210034.0 NaN 4996.77755511022 5.000341592471628 1497.0 0.0 1497.0 
18.00059236981081 210034.0 NaN 4996.785571142284 7.001009595143638 1497.0 0.0 1497.0 
20.00033353340315 210034.0 NaN 4996.780227120908 9.000341592471628 1497.0 0.0 1497.0 
22.00059236981081 210057.0 NaN 4996.788243152972 5.485682757627798 1497.0 0.0 1497.0 
24.00059236981081 210082.0 NaN 4995.139612558451 2.005017390008102 1497.0 0.0 1497.0 
26.000084666035004 210082.0 NaN 4994.113560454241 4.004349387336092 1497.0 0.0 1497.0 
28.00059236981081 210082.0 NaN 4994.113560454241 6.005017390008102 1497.0 0.0 1497.0 
30.00033353340315 210082.0 NaN 4994.113560454241 8.004349387336092 1497.0 0.0 1497.0 
32.00059236981081 210066.0 NaN 4994.113560454241 10.001095550187824 1497.0 0.0 1497.0 
34.00059236981081 210232.0 NaN 4995.794255177021 1.011011547182665 1497.0 0.0 1497.0 
36.00008466603501 210232.0 NaN 4996.828323313293 3.0103435445106546 1497.0 0.0 1497.0 
38.00059236981081 210232.0 NaN 4996.836339345357 5.011011547182665 1497.0 0.0 1497.0 
40.00033353340315 210232.0 NaN 4996.839011356045 7.010343544510654 1497.0 0.0 1497.0 
42.00059236981081 210196.0 NaN 4996.847027388109 9.007229740366698 1497.0 0.0 1497.0 
44.00059236981081 210244.0 NaN 4996.830995323981 5.484752709612923 1497.0 0.0 1497.0 
46.00008466603501 210330.0 NaN 4995.091516366066 2.007658289050519 1497.0 0.0 1497.0 
48.00059236981081 210330.0 NaN 4994.0440881763525 4.008326291722529 1497.0 0.0 1497.0 
50.00033353340315 210330.0 NaN 4994.0440881763525 6.007658289050519 1497.0 0.0 1497.0 
52.00059236981081 210330.0 NaN 4994.0280561122245 8.008326291722529 1497.0 0.0 1497.0 
54.00059236981081 210274.0 NaN 4994.060120240481 10.0010711725411 1497.0 0.0 1497.0 
56.00008466603501 210448.0 NaN 4995.775551102204 1.0201106131172197 1497.0 0.0 1497.0 
58.00059236981081 210448.0 NaN 4996.809619238477 3.0207786157892302 1497.0 0.0 1497.0 
60.00033353340315 210448.0 NaN 4996.801603206412 5.02011061311722 1497.0 0.0 1497.0 
62.00059236981081 210448.0 NaN 1523.7675350701393 7.02077861578923 838.0 0.0 365.0 
64.00059236981082 210389.0 NaN 1523.7675350701393 9.010827050074033 838.0 0.0 365.0 
66.00008466603501 210426.0 NaN 1523.7595190380757 5.498084636460726 759.0 0.0 365.0 
68.00059236981082 210528.0 NaN 1525.5845023380089 2.019989169408965 669.0 0.0 366.0 
70.00033353340315 210528.0 NaN 1525.2585170340697 4.019321166736954 669.0 0.0 366.0 
72.00059236981082 210528.0 NaN 1525.2585170340697 6.019989169408965 669.0 0.0 366.0 
74.00059236981082 210528.0 NaN 1525.2585170340697 8.019989169408964 669.0 0.0 366.0 
76.00008466603501 210272.0 NaN 1525.2585170340697 10.000203630139232 671.0 0.0 366.0 
78.00059236981082 210477.0 NaN 1535.4789579158307 1.0160290928116906 604.0 4.0 365.0 
80.00033353340315 210477.0 NaN 1535.828991315964 3.0153610901396797 604.0 4.0 365.0 
82.00059236981082 210477.0 NaN 1535.8370073480276 5.01602909281169 604.0 4.0 365.0 
84.00059236981082 210477.0 NaN 1535.8316633266545 7.01602909281169 604.0 4.0 365.0 
86.00008466603501 210389.0 NaN 1535.8236472945907 9.007838704974931 604.0 4.0 365.0 
88.00059236981082 210405.0 NaN 1535.8316633266545 5.4855928343491795 594.0 0.0 369.0 
90.00033353340315 210504.0 NaN 1538.2525050100185 2.0078229441749174 584.0 0.0 370.0 
92.00059236981082 210504.0 NaN 1537.8944555778212 4.008490946846928 584.0 0.0 370.0 
94.00059236981082 210504.0 NaN 1537.8944555778212 6.008490946846928 584.0 0.0 370.0 
96.00008466603501 210504.0 NaN 1540.9752839011364 8.007822944174917 584.0 0.0 371.0 
98.00059236981082 210405.0 NaN 1540.9592518370087 10.000962520538508 584.0 0.0 371.0 
100.00033353340315 210642.0 NaN 1541.5657982631913 1.0060466283775282 555.0 3.0 368.0 
102.00059236981082 210642.0 NaN 1541.9532398129606 3.006714631049539 555.0 3.0 368.0 
104.00059236981082 210642.0 NaN 1541.9532398129606 5.0067146310495385 555.0 3.0 368.0 
106.00008466603501 210642.0 NaN 1541.945223780894 7.006046628377528 554.0 3.0 368.0 
108.00059236981082 210588.0 NaN 1541.9532398129606 9.003985088031605 554.0 3.0 368.0 
110.00033353340315 210635.0 NaN 1541.945223780894 5.491350162259764 551.0 0.0 371.0 
112.00059236981082 210734.0 NaN 1541.1703406813638 2.006779215639256 547.0 0.0 371.0 
114.00059236981082 210734.0 NaN 1540.8283233132931 4.006779215639256 547.0 0.0 371.0 
116.00008466603501 210734.0 NaN 1543.8931195724788 6.006111212967245 547.0 0.0 372.0 
118.00059236981082 210734.0 NaN 1543.8744154976634 8.006779215639256 547.0 0.0 372.0 
120.00033353340315 210648.0 NaN 1543.871743486973 10.000309279736639 547.0 0.0 372.0 
122.00059236981082 210737.0 NaN 1553.8784235136936 1.008092391248276 537.0 3.0 372.0 
124.00059236981082 210737.0 NaN 1554.2070808283243 3.008092391248276 537.0 3.0 372.0 
126.00008466603501 210737.0 NaN 1551.1396125584515 5.007424388576266 537.0 3.0 371.0 
128.00059236981082 210737.0 NaN 1551.1476285905153 7.008092391248276 537.0 3.0 371.0 
130.00033353340314 210684.0 NaN 1551.1342685370728 9.003831613142225 537.0 3.0 371.0 
132.00059236981082 210692.0 NaN 1551.1396125584515 5.485430651142061 539.0 0.0 374.0 
134.00059236981082 210753.0 NaN 1550.386105544421 2.0078800352637614 538.0 0.0 374.0 
136.000084666035 210753.0 NaN 1546.9953239812971 4.007212032591751 538.0 0.0 373.0 
138.00059236981082 210753.0 NaN 1543.9385437541728 6.007880035263762 538.0 0.0 372.0 
140.00033353340314 210753.0 NaN 1543.9732798931182 8.00721203259175 539.0 0.0 372.0 
142.00059236981082 210664.0 NaN 1540.8977955911816 10.000867121711805 537.0 0.0 371.0 
144.00059236981082 210779.0 NaN 1553.8757515030063 1.007498696126543 535.0 3.0 372.0 
146.000084666035 210779.0 NaN 1554.1776887107544 3.0068306934545324 535.0 3.0 372.0 
148.00059236981082 210779.0 NaN 1544.9806279225118 5.007498696126543 535.0 3.0 369.0 
150.00033353340314 210779.0 NaN 1544.9726118904457 7.006830693454533 535.0 3.0 369.0 
152.00059236981082 210741.0 NaN 1544.9645958583822 9.003624243501013 535.0 3.0 369.0 
154.00059236981082 210754.0 NaN 1541.8810955243816 5.487115577401484 537.0 0.0 371.0 
156.000084666035 210804.0 NaN 1544.2672010688032 2.0098517012764905 535.0 0.0 372.0 
158.00059236981082 210804.0 NaN 1543.9305277221094 4.010519703948502 535.0 0.0 372.0 
160.00033353340314 210804.0 NaN 1537.7661990647969 6.0098517012764905 535.0 0.0 370.0 
162.00059236981082 210804.0 NaN 1537.7608550434184 8.010519703948502 535.0 0.0 370.0 
164.00059236981082 210682.0 NaN 1537.7448229792908 10.000901166387294 535.0 0.0 370.0 
166.000084666035 210838.0 NaN 1544.5664662658637 1.010987670142364 533.0 3.0 369.0 
168.00059236981082 210838.0 NaN 1544.8684034736152 3.0116556728143746 533.0 3.0 369.0 
170.00033353340314 210838.0 NaN 1544.8603874415485 5.010987670142364 533.0 3.0 369.0 
172.00059236981082 210838.0 NaN 1544.8684034736152 7.011655672814375 533.0 3.0 369.0 
174.00059236981082 210776.0 NaN 1544.8844355377425 9.007198276220956 533.0 3.0 369.0 
176.000084666035 210775.0 NaN 1547.9679358717456 5.491318126505065 533.0 1.0 372.0 
178.00059236981082 210837.0 NaN 1547.372077488309 2.007730672140056 532.0 2.0 371.0 
180.00033353340314 210837.0 NaN 1540.927187708752 4.007062669468046 532.0 2.0 369.0 
182.00059236981082 210837.0 NaN 1534.7548430193729 6.007730672140056 532.0 2.0 367.0 
184.00059236981082 210837.0 NaN 1534.7708750835 8.007730672140056 532.0 2.0 367.0 
186.000084666035 210738.0 NaN 1534.789579158318 10.000348157459285 532.0 2.0 367.0 
188.00059236981082 210852.0 NaN 1538.3807615230453 1.009957725816781 531.0 3.0 367.0 
190.00033353340314 210852.0 NaN 1538.6185704742816 3.00928972314477 531.0 3.0 367.0 
192.00059236981082 210852.0 NaN 1535.5591182364726 5.009957725816781 531.0 3.0 366.0 
194.00059236981082 210852.0 NaN 1535.5537742150973 7.009957725816781 531.0 3.0 366.0 
196.000084666035 210787.0 NaN 1535.5457581830335 9.004527620009672 531.0 3.0 366.0 
198.00059236981082 210762.0 NaN 1538.6399465597847 5.488529682156395 531.0 2.0 368.0 
200.00033353340314 210800.0 NaN 1541.1863727454909 2.0150552543521285 531.0 2.0 369.0 
202.00059236981082 210800.0 NaN 1543.9919839679364 4.015723257024139 532.0 2.0 370.0 
204.00059236981082 210800.0 NaN 1543.986639946561 6.015723257024139 531.0 2.0 370.0 
206.000084666035 210800.0 NaN 1543.986639946561 8.015055254352129 531.0 2.0 370.0 
208.00059236981082 210671.0 NaN 1543.983967935873 10.000972019321562 531.0 2.0 370.0 
210.00033353340314 210874.0 NaN 1544.4355377421516 1.0089054170546352 530.0 5.0 367.0 
212.00059236981082 210874.0 NaN 1544.58784235137 3.009573419726646 530.0 5.0 367.0 
214.00059236981082 210874.0 NaN 1532.3179692718754 5.009573419726646 530.0 5.0 363.0 
216.000084666035 210874.0 NaN 1529.2451569806271 7.008905417054636 529.0 5.0 362.0 
218.00059236981082 210821.0 NaN 1529.2558450233817 9.005033570614627 529.0 5.0 362.0 
220.00033353340314 210861.0 NaN 1535.4415497662003 5.496647078413973 530.0 3.0 366.0 
222.00059236981082 210959.0 NaN 1538.0654642618572 2.021644312520576 527.0 3.0 367.0 
224.00059236981082 210959.0 NaN 1534.7334669338666 4.021644312520576 527.0 3.0 366.0 
226.000084666035 210959.0 NaN 1534.749498997997 6.020976309848565 527.0 3.0 366.0 
228.00059236981082 210959.0 NaN 1537.849031396127 8.021644312520575 527.0 3.0 367.0 
230.00033353340314 210815.0 NaN 1537.8383433533727 10.000423617987202 528.0 3.0 367.0 
232.00059236981082 210993.0 NaN 1541.3867735470935 1.0151376053528314 524.0 5.0 366.0 
234.00059236981082 210993.0 NaN 1541.5364061456246 3.0151376053528316 524.0 5.0 366.0 
236.000084666035 210993.0 NaN 1541.4936539746182 5.014469602680821 524.0 5.0 366.0 
238.00059236981082 210993.0 NaN 1535.366733466934 7.015137605352831 523.0 5.0 364.0 
240.00033353340314 210922.0 NaN 1529.2130928523725 9.006936584315861 523.0 5.0 362.0 
242.00059236981082 210948.0 NaN 1535.409485637943 5.484012563510981 521.0 5.0 364.0 
244.00059236981082 211043.0 NaN 1534.928523714094 2.0113547855887224 517.0 4.0 365.0 
246.000084666035 211043.0 NaN 1528.5344021376093 4.010686782916712 517.0 4.0 363.0 
248.00059236981082 211043.0 NaN 1528.5344021376093 6.011354785588723 518.0 3.0 364.0 
250.00033353340314 211043.0 NaN 1528.5317301269183 8.010686782916713 517.0 3.0 364.0 
252.00059236981082 210903.0 NaN 1528.5263861055455 10.00124478438352 517.0 3.0 364.0 
254.00059236981082 211124.0 NaN 1529.0153640614549 1.0133991743081376 515.0 6.0 361.0 
256.00008466603504 211124.0 NaN 1529.13293253173 3.012731171636127 517.0 6.0 361.0 
258.0005923698108 211124.0 NaN 1523.0193720774885 5.013399174308137 517.0 6.0 359.0 
260.00033353340314 211124.0 NaN 1523.0167000667998 7.012731171636127 517.0 6.0 359.0 
262.0005923698108 211060.0 NaN 1526.0895123580485 9.006138881867379 517.0 6.0 360.0 
264.0005923698108 211077.0 NaN 1526.097528390112 5.486006873463495 520.0 4.0 362.0 
266.00008466603504 211159.0 NaN 1522.6639946559792 2.013936596452276 520.0 2.0 363.0 
268.0005923698108 211159.0 NaN 1522.3914495657996 4.0146045991242865 519.0 2.0 363.0 
270.00033353340314 211159.0 NaN 1519.3079492317975 6.013936596452276 518.0 2.0 362.0 
272.0005923698108 211159.0 NaN 1519.3026052104206 8.014604599124286 517.0 2.0 362.0 
274.0005923698108 210979.0 NaN 1522.3674014696066 10.001180411398112 517.0 2.0 363.0 
276.00008466603504 211300.0 NaN 1532.1015364061454 1.0104511974523196 514.0 5.0 363.0 
278.0005923698108 211300.0 NaN 1538.2578490313972 3.0111192001243303 514.0 5.0 365.0 
280.00033353340314 211300.0 NaN 1532.1122244489 5.01045119745232 514.0 5.0 363.0 
282.0005923698108 211300.0 NaN 1532.1148964595848 7.01111920012433 514.0 5.0 363.0 
284.0005923698108 211222.0 NaN 1532.0988643954572 9.00717562301068 514.0 5.0 363.0 
286.00008466603504 211250.0 NaN 1532.1282565130273 5.494151750787145 518.0 3.0 365.0 
288.0005923698108 211364.0 NaN 1534.8082832331336 2.0189162302864503 518.0 2.0 367.0 
290.00033353340314 211364.0 NaN 1528.4435537742158 4.018248227614439 518.0 2.0 365.0 
292.0005923698108 211364.0 NaN 1525.394789579157 6.01891623028645 517.0 2.0 364.0 
294.0005923698108 211364.0 NaN 1525.394789579157 8.01891623028645 517.0 2.0 364.0 
296.00008466603504 211083.0 NaN 1525.4295257181025 10.00058734049396 515.0 2.0 364.0 
298.0005923698108 211287.0 NaN 1528.9752839011364 1.0203587676846912 511.0 5.0 362.0 
300.00033353340314 211287.0 NaN 1528.9832999332002 3.0196907650126805 511.0 5.0 362.0 
302.0005923698108 211287.0 NaN 1525.907815631264 5.020358767684691 511.0 5.0 361.0 
304.0005923698108 211287.0 NaN 1525.923847695391 7.020358767684691 511.0 5.0 361.0 
306.00008466603504 211150.0 NaN 1525.9104876419517 9.010129230000866 510.0 5.0 361.0 
308.0005923698108 211118.0 NaN 1525.9104876419517 5.490501518171729 510.0 3.0 363.0 
310.00033353340314 211222.0 NaN 1528.6920507682025 2.022855700231827 510.0 2.0 365.0 
312.0005923698108 211222.0 NaN 1525.3547094188366 4.023523702903837 510.0 2.0 364.0 
314.0005923698108 211222.0 NaN 1516.1442885771546 6.023523702903838 511.0 1.0 362.0 
316.00008466603504 211222.0 NaN 1516.1389445557788 8.022855700231828 511.0 1.0 362.0 
318.0005923698108 210890.0 NaN 1516.1549766199064 10.001125472816781 511.0 1.0 362.0 
320.00033353340314 211171.0 NaN 1525.8410153640634 1.018262740859351 507.0 4.0 362.0 
322.0005923698108 211171.0 NaN 1525.8757515030065 3.0189307435313615 508.0 4.0 362.0 
324.0005923698108 211171.0 NaN 1525.9211756847028 5.018930743531362 507.0 4.0 362.0 
326.00008466603504 211171.0 NaN 1525.902471609888 7.018262740859351 508.0 4.0 362.0 
328.0005923698108 211040.0 NaN 1525.923847695391 9.010849320613199 508.0 4.0 362.0 
330.00033353340314 211020.0 NaN 1529.0260521042092 5.495944123815934 508.0 2.0 365.0 
332.0005923698108 211137.0 NaN 1528.6012024048089 2.0200889715843777 507.0 3.0 364.0 
334.0005923698108 211137.0 NaN 1525.2959251836999 4.020088971584378 507.0 3.0 363.0 
336.00008466603504 211137.0 NaN 1516.0961923847701 6.019420968912367 509.0 3.0 360.0 
338.0005923698108 211137.0 NaN 1516.0855043420183 8.020088971584379 509.0 3.0 360.0 
340.00033353340314 210844.0 NaN 1513.0100200400814 10.000432012473354 508.0 3.0 359.0 
342.0005923698108 211031.0 NaN 1522.8617234468936 1.0179985656363855 506.0 5.0 360.0 
344.0005923698108 211031.0 NaN 1522.9258517034089 3.0179985656363852 506.0 5.0 360.0 
346.00008466603504 211031.0 NaN 1522.9338677354726 5.017330562964375 507.0 5.0 360.0 
348.0005923698108 211031.0 NaN 1519.8557114228454 7.017998565636385 506.0 5.0 359.0 
350.00033353340314 210892.0 NaN 1522.9205076820306 9.009307121990892 507.0 5.0 360.0 
352.0005923698108 210829.0 NaN 1526.0334001335998 5.487588953529471 507.0 2.0 364.0 
354.0005923698108 210915.0 NaN 1525.6219104876425 2.0160014820145986 510.0 2.0 364.0 
356.00008466603504 210915.0 NaN 1522.297929191718 4.015333479342588 508.0 2.0 363.0 
358.0005923698108 210915.0 NaN 1519.2251169004667 6.016001482014599 508.0 2.0 362.0 
360.00033353340314 210915.0 NaN 1519.2251169004667 8.015333479342589 508.0 2.0 362.0 
362.0005923698108 210675.0 NaN 1519.2144288577156 10.001138907743911 509.0 2.0 362.0 
364.0005923698108 210932.0 NaN 1516.6626586506356 1.0200048356802902 509.0 4.0 359.0 
366.00008466603504 210932.0 NaN 1516.7428189712753 3.0193368330082793 509.0 4.0 359.0 
368.0005923698108 210932.0 NaN 1495.2598530394114 5.02000483568029 509.0 4.0 352.0 
370.00033353340314 210932.0 NaN 1498.3353373413486 7.019336833008279 509.0 4.0 353.0 
372.0005923698108 210805.0 NaN 1498.3326653306626 9.011574420579258 509.0 4.0 353.0 
374.0005923698108 210754.0 NaN 1501.432197728791 5.490555792369627 510.0 2.0 356.0 
376.00008466603504 210840.0 NaN 1503.9893119572473 2.019864213549503 513.0 2.0 357.0 
378.0005923698108 210840.0 NaN 1503.7434869739473 4.020532216221514 513.0 2.0 357.0 
380.00033353340314 210840.0 NaN 1503.7488309953249 6.0198642135495035 513.0 2.0 357.0 
382.0005923698108 210840.0 NaN 1503.7568470273889 8.020532216221515 513.0 2.0 357.0 
384.0005923698108 210508.0 NaN 1503.7621910487635 10.001030034370208 513.0 2.0 357.0 
386.00008466603504 210732.0 NaN 1519.6659986639938 1.040022253361008 516.0 3.0 361.0 
388.0005923698108 210732.0 NaN 1510.5811623246484 3.040690256033019 515.0 3.0 358.0 
390.00033353340314 210732.0 NaN 1501.3573814295264 5.040022253361008 516.0 3.0 355.0 
392.0005923698108 210732.0 NaN 1504.4542418169665 7.0406902560330185 516.0 3.0 356.0 
394.0005923698108 210473.0 NaN 1504.4435537742158 9.024885776810489 517.0 3.0 356.0 
396.00008466603504 210359.0 NaN 1510.6132264529065 5.495326231438658 519.0 0.0 361.0 
398.0005923698108 210517.0 NaN 1510.2070808283243 2.0264228185441455 519.0 2.0 359.0 
400.00033353340314 210517.0 NaN 1509.9559118236461 4.025754369346284 519.0 2.0 359.0 
402.0005923698108 210517.0 NaN 1506.8937875751515 6.0264228185441455 520.0 2.0 358.0 
404.0005923698108 210517.0 NaN 1509.9826319305273 8.026422818544146 520.0 2.0 359.0 
406.00008466603504 210011.0 NaN 1509.971943887775 10.000802584038421 521.0 2.0 359.0 
408.0005923698108 210445.0 NaN 1516.5237140948552 1.0254015209661362 519.0 4.0 359.0 
410.00033353340314 210445.0 NaN 1519.644622578491 3.024733071768275 519.0 4.0 360.0 
412.0005923698108 210445.0 NaN 1510.4448897795605 5.0254015209661365 520.0 4.0 357.0 
414.0005923698108 210445.0 NaN 1510.4315297261182 7.0254015209661365 519.0 4.0 357.0 
416.00008466603504 210245.0 NaN 1507.3373413493646 9.012049670459671 520.0 3.0 357.0 
418.0005923698108 210189.0 NaN 1516.638610554443 5.487634691238118 521.0 1.0 362.0 
420.00033353340314 210333.0 NaN 1513.2825651302612 2.0253788231681 520.0 3.0 359.0 
422.0005923698108 210333.0 NaN 1506.891115564463 4.026047272365961 520.0 3.0 357.0 
424.0005923698108 210333.0 NaN 1491.535070140281 6.02604727236596 519.0 3.0 352.0 
426.00008466603504 210333.0 NaN 1491.532398129592 8.025378823168099 520.0 3.0 352.0 
428.0005923698108 209979.0 NaN 1488.4622578490307 10.001600474078373 520.0 3.0 351.0 
430.00033353340314 210245.0 NaN 1507.3266533066123 1.0229434617384656 511.0 3.0 357.0 
432.0005923698108 210245.0 NaN 1504.2965931863728 3.0236119109363266 510.0 3.0 356.0 
434.0005923698108 210245.0 NaN 1498.1670006680022 5.023611910936327 510.0 3.0 354.0 
436.00008466603504 210245.0 NaN 1504.288577154309 7.022943461738466 510.0 3.0 356.0 
438.0005923698108 210082.0 NaN 1507.3640614562455 9.012470707956293 512.0 3.0 357.0 
440.00033353340314 210075.0 NaN 1510.4716098864387 5.49229071397662 517.0 1.0 360.0 
442.0005923698108 210220.0 NaN 1519.369405477621 2.0233337043118627 523.0 3.0 361.0 
444.0005923698108 210220.0 NaN 1509.929191716766 4.023333704311862 522.0 3.0 358.0 
446.00008466603504 210220.0 NaN 1506.853707414829 6.022665255114002 522.0 3.0 357.0 
448.0005923698108 210220.0 NaN 1516.0961923847703 8.023333704311863 522.0 3.0 360.0 
450.00033353340314 209902.0 NaN 1516.090848363393 10.00094677449705 521.0 3.0 360.0 
452.0005923698108 210260.0 NaN 1535.0861723446903 1.0354814710110978 522.0 4.0 365.0 
454.0005923698108 210260.0 NaN 1532.0053440213755 3.035481471011098 522.0 4.0 364.0 
456.00008466603504 210260.0 NaN 1531.9973279893113 5.034813468339087 520.0 4.0 364.0 
458.0005923698108 210260.0 NaN 1532.0026720106887 7.0354814710110976 520.0 4.0 364.0 
460.00033353340314 210033.0 NaN 1531.9732798931186 9.016457553423292 520.0 4.0 364.0 
462.0005923698108 209937.0 NaN 1528.919171676688 5.491679661087106 523.0 2.0 365.0 
464.0005923698108 210067.0 NaN 1531.5938543754182 2.0277014899200965 521.0 3.0 365.0 
466.00008466603504 210067.0 NaN 1528.2832331329334 4.027033487248086 522.0 3.0 364.0 
468.0005923698108 210067.0 NaN 1528.2912491649972 6.027701489920097 521.0 3.0 364.0 
470.00033353340314 210067.0 NaN 1531.3774215096848 8.027033487248087 521.0 3.0 365.0 
472.0005923698108 209725.0 NaN 1528.3099532398119 10.00124394902508 520.0 3.0 364.0 
474.0005923698108 209984.0 NaN 1528.857715430863 1.037612245794593 519.0 3.0 364.0 
476.00008466603504 209984.0 NaN 1528.849699398798 3.0369442431225826 519.0 3.0 364.0 
478.0005923698108 209984.0 NaN 1516.598530394121 5.037612245794593 516.0 3.0 360.0 
480.00033353340314 209984.0 NaN 1519.6873747495 7.036944243122583 516.0 3.0 361.0 
482.0005923698108 209784.0 NaN 1516.5958583834342 9.021490269807158 516.0 3.0 360.0 
484.0005923698108 209722.0 NaN 1516.617234468937 5.4903730266141855 520.0 1.0 362.0 
486.00008466603504 209847.0 NaN 1519.3640614562453 2.0234809219503624 519.0 2.0 362.0 
488.0005923698108 209847.0 NaN 1512.9699398797607 4.024148924622374 517.0 2.0 360.0 
490.00033353340314 209847.0 NaN 1500.69739478958 6.023480921950362 516.0 2.0 356.0 
492.0005923698108 209847.0 NaN 1497.6112224448907 8.024148924622374 516.0 2.0 355.0 
494.0005923698108 209566.0 NaN 1500.692050768202 10.001128428715877 517.0 2.0 356.0 
496.00008466603504 209990.0 NaN 1507.3453573814281 1.0245986018854751 518.0 2.0 358.0 
498.0005923698108 209990.0 NaN 1507.3453573814281 3.025266604557486 519.0 2.0 358.0 
500.00033353340314 209990.0 NaN 1495.0567802271203 5.024598601885475 519.0 2.0 354.0 
502.0005923698108 209990.0 NaN 1492.0133600534393 7.025266604557486 519.0 2.0 353.0 
504.0005923698108 209836.0 NaN 1492.0187040748172 9.013766153253076 519.0 2.0 353.0 
506.00008466603504 209839.0 NaN 1498.191048764194 5.496171008487988 520.0 1.0 356.0 
508.0005923698108 209987.0 NaN 1500.980627922511 2.0207731800306554 521.0 2.0 356.0 
510.00033353340314 209987.0 NaN 1497.6566466265874 4.020105177358645 522.0 1.0 356.0 
512.0005923698109 209987.0 NaN 1494.5651302605202 6.020773180030655 522.0 1.0 355.0 
514.0005923698109 209987.0 NaN 1494.5544422177697 8.020773180030655 522.0 1.0 355.0 
516.000084666035 209672.0 NaN 1491.4923179692728 10.000434156618041 523.0 1.0 354.0 
518.0005923698109 209935.0 NaN 1495.126252505009 1.032349556364136 518.0 1.0 355.0 
520.0003335334031 209935.0 NaN 1495.1396125584515 3.0316815536921253 518.0 1.0 355.0 
522.0005923698109 209935.0 NaN 1473.6432865731458 5.032349556364136 518.0 1.0 348.0 
524.0005923698109 209935.0 NaN 1461.3440213760848 7.032349556364136 518.0 1.0 344.0 
526.000084666035 209758.0 NaN 1467.4843019372083 9.015744501475252 518.0 1.0 346.0 
528.0005923698109 209746.0 NaN 1473.6459585838352 5.492735976433781 517.0 0.0 349.0 
530.0003335334031 209920.0 NaN 1479.4308617234462 2.029960227739105 516.0 1.0 350.0 
532.0005923698109 209920.0 NaN 1469.9879759519029 4.030628230411116 517.0 1.0 347.0 
534.0005923698109 209920.0 NaN 1460.782899131597 6.030628230411116 516.0 1.0 344.0 
536.000084666035 209920.0 NaN 1463.8663994655988 8.029960227739105 517.0 1.0 345.0 
538.0005923698109 209567.0 NaN 1466.9498997995997 10.001011285404909 518.0 1.0 346.0 
540.0003335334031 209999.0 NaN 1476.5905143620566 1.0232315208179685 518.0 1.0 349.0 
542.0005923698109 209999.0 NaN 1476.5611222444898 3.023899523489979 517.0 1.0 349.0 
544.0005923698109 209999.0 NaN 1476.5771543086178 5.0238995234899795 519.0 1.0 349.0 
546.000084666035 209999.0 NaN 1476.5691382765538 7.023231520817968 518.0 1.0 349.0 
548.0005923698109 209837.0 NaN 1479.6927187708745 9.012062686965645 518.0 1.0 350.0 
550.0003335334031 209808.0 NaN 1488.9539078156304 5.4991305270514195 517.0 0.0 354.0 
552.0005923698109 209934.0 NaN 1491.7247828991306 2.0267417011316593 521.0 1.0 354.0 
554.0005923698109 209934.0 NaN 1491.5056780227112 4.02674170113166 521.0 1.0 354.0 
556.000084666035 209934.0 NaN 1482.2765531062116 6.026073698459649 522.0 1.0 351.0 
558.0005923698109 209934.0 NaN 1482.265865063461 8.026741701131659 523.0 1.0 351.0 
560.0003335334031 209611.0 NaN 1476.1336005344012 10.000270871457369 521.0 1.0 349.0 
562.0005923698109 210034.0 NaN 1482.7040748162997 1.0279987939189832 518.0 1.0 351.0 
564.0005923698109 210034.0 NaN 1482.680026720108 3.027998793918983 518.0 1.0 351.0 
566.000084666035 210034.0 NaN 1479.6045424181702 5.027330791246972 518.0 1.0 350.0 
568.0005923698109 210034.0 NaN 1482.706746826988 7.027998793918983 518.0 1.0 351.0 
570.0003335334031 209856.0 NaN 1482.6880427521717 9.013845568121958 517.0 1.0 351.0 
572.0005923698109 209887.0 NaN 1485.7982631930533 5.4917439713594725 521.0 0.0 353.0 
574.0005923698109 210092.0 NaN 1485.6112224448905 2.0226279202803523 520.0 2.0 351.0 
576.000084666035 210092.0 NaN 1494.602538410154 4.021959917608342 519.0 2.0 354.0 
578.0005923698109 210092.0 NaN 1491.5243820975277 6.022627920280352 520.0 2.0 353.0 
580.0003335334031 210092.0 NaN 1491.532398129592 8.021959917608342 519.0 2.0 353.0 
582.0005923698109 209761.0 NaN 1491.5724782899122 10.000818836551403 519.0 2.0 353.0 
584.0005923698109 210192.0 NaN 1492.010688042753 1.0308343933150395 528.0 2.0 353.0 
586.000084666035 210192.0 NaN 1491.9144956579821 3.0301663906430285 528.0 2.0 353.0 
588.0005923698109 210192.0 NaN 1482.7281229124912 5.03083439331504 527.0 2.0 350.0 
590.0003335334031 210192.0 NaN 1482.725450901803 7.0301663906430285 526.0 2.0 350.0 
592.0005923698109 209992.0 NaN 1485.8223112892456 9.014658286063776 527.0 2.0 351.0 
594.0005923698109 209998.0 NaN 1488.8951235804943 5.49414094761844 532.0 0.0 354.0 
596.000084666035 210202.0 NaN 1494.6239144956578 2.022062822732559 530.0 3.0 353.0 
598.0005923698109 210202.0 NaN 1485.2130928523718 4.02273082540457 530.0 3.0 350.0 
600.0003335334031 210202.0 NaN 1488.280561122245 6.022062822732559 531.0 3.0 351.0 
602.0005923698109 210202.0 NaN 1485.218436873747 8.02273082540457 531.0 3.0 350.0 
604.0005923698109 209914.0 NaN 1485.2451569806276 10.000578426529728 531.0 3.0 350.0 
606.000084666035 210265.0 NaN 1495.1102204408817 1.02208173481817 529.0 1.0 355.0 
608.0005923698109 210265.0 NaN 1498.150968603874 3.0227497374901806 529.0 1.0 356.0 
610.0003335334031 210265.0 NaN 1488.9218436873741 5.02208173481817 529.0 1.0 353.0 
612.0005923698109 210265.0 NaN 1485.8570474281905 7.022749737490181 528.0 1.0 352.0 
614.0005923698109 210123.0 NaN 1485.8356713426847 9.011900529541673 528.0 1.0 352.0 
616.000084666035 210129.0 NaN 1485.838343353373 5.506544533776985 532.0 0.0 353.0 
618.0005923698109 210281.0 NaN 1485.5738142952566 2.0311975635074786 528.0 2.0 351.0 
620.0003335334031 210281.0 NaN 1488.4248496993996 4.030529560835467 529.0 2.0 352.0 
622.0005923698109 210281.0 NaN 1488.411489645958 6.031197563507479 530.0 2.0 352.0 
624.0005923698109 210281.0 NaN 1485.3253173012697 8.031197563507478 529.0 2.0 351.0 
626.000084666035 209885.0 NaN 1488.3874415497655 9.999959183505444 530.0 2.0 352.0 
628.0005923698109 210250.0 NaN 1510.5437541750173 1.0243195762325712 534.0 1.0 360.0 
630.0003335334031 210250.0 NaN 1510.458249833 3.0236515735605605 534.0 1.0 360.0 
632.0005923698109 210250.0 NaN 1507.4068136272545 5.024319576232571 534.0 1.0 359.0 
634.0005923698109 210250.0 NaN 1507.3907815631271 7.024319576232571 533.0 1.0 359.0 
636.000084666035 210078.0 NaN 1507.3827655310627 9.01168889455988 533.0 1.0 359.0 
638.0005923698109 210122.0 NaN 1516.6626586506352 5.494081316690235 530.0 1.0 362.0 
640.0003335334031 210340.0 NaN 1525.5444221776895 2.0247989206540646 528.0 2.0 364.0 
642.0005923698109 210340.0 NaN 1522.2872411489636 4.025466923326076 527.0 2.0 363.0 
644.0005923698109 210340.0 NaN 1516.1523046092182 6.025466923326076 528.0 2.0 361.0 
646.000084666035 210340.0 NaN 1516.1389445557788 8.024798920654066 528.0 2.0 361.0 
648.0005923698109 210022.0 NaN 1519.2171008684031 10.000682502304997 530.0 2.0 362.0 
650.0003335334031 210352.0 NaN 1525.8062792251174 1.0169730232040748 527.0 3.0 363.0 
652.0005923698109 210352.0 NaN 1525.7581830327333 3.0176410258760855 526.0 3.0 363.0 
654.0005923698109 210352.0 NaN 1522.6987307949244 5.0176410258760855 527.0 3.0 362.0 
656.000084666035 210352.0 NaN 1522.67468269873 7.016973023204074 527.0 3.0 362.0 
658.0005923698109 210239.0 NaN 1528.8550434201727 9.00876658943663 529.0 3.0 364.0 
660.0003335334031 210296.0 NaN 1531.9679358717444 5.499656634412461 526.0 5.0 363.0 
662.0005923698109 210465.0 NaN 1537.7795591182362 2.022482163586907 524.0 2.0 368.0 
664.0005923698109 210465.0 NaN 1534.4769539078163 4.022482163586907 525.0 2.0 367.0 
#####################################################################
# End of data export. Simulation finished at: 2019-03-06T07:31+0000 #
#####################################################################
