#####################################################################
# Alchemist log file - simulation started at: 2019-03-18T17:07+0000 #
#####################################################################
# seed = 9.0, bandwidth = 1000.0, propagationDelay = 0.1, baserange = 100.0
#
# The columns have the following meaning: 
# time neighbor_count[Sum] <value>@neighbor_count[Sum] packet_size[Mean] mean_delay[Mean] crowd[Sum] overcrowded[Sum] risk[Sum] 
0.0 NaN NaN NaN NaN NaN NaN NaN 
2.0003374459614243 NaN NaN 4988.0 NaN 1497.0 0.0 1497.0 
4.000337445961424 NaN NaN 4988.0 NaN 1497.0 0.0 1497.0 
6.000266260173651 5433.0 NaN 4989.034068136272 0.26777370381506843 1497.0 0.0 1497.0 
8.000337445961424 13122.0 NaN 4996.010688042752 1.9065981175945632 1497.0 0.0 1497.0 
10.000337445961424 13122.0 NaN 4994.968603874416 3.906598117594563 1497.0 0.0 1497.0 
12.000337445961424 13123.0 NaN 4995.711422845691 3.4698335587321614 1496.0 1.0 1496.0 
14.000337445961424 13124.0 NaN 4993.62458249833 1.9043110585089347 1491.0 6.0 1491.0 
16.000337445961424 13124.0 NaN 4992.6786907147625 3.904311058508935 1491.0 6.0 1491.0 
18.000337445961424 13128.0 NaN 4992.884435537742 3.4915777961041075 1488.0 9.0 1488.0 
20.000337445961424 13138.0 NaN 4994.85370741483 1.91077539320508 1492.0 5.0 1492.0 
22.000337445961424 13138.0 NaN 4994.482297929192 3.9107753932050797 1492.0 5.0 1492.0 
24.000337445961424 13147.0 NaN 4994.837675350702 3.48205128982859 1492.0 5.0 1492.0 
26.000337445961424 13163.0 NaN 4993.544422177689 1.9271163317733364 1490.0 7.0 1490.0 
28.000337445961424 13163.0 NaN 4993.135604542418 3.9271163317733366 1490.0 7.0 1490.0 
30.000337445961424 13179.0 NaN 4993.247828991316 3.5089362749971444 1487.0 10.0 1487.0 
32.00033744596142 13203.0 NaN 4994.370073480294 1.9489969651144852 1487.0 10.0 1487.0 
34.00033744596142 13203.0 NaN 4994.060120240481 3.9489969651144854 1487.0 10.0 1487.0 
36.00033744596142 13213.0 NaN 4994.41549766199 3.521604808011395 1489.0 8.0 1489.0 
38.00033744596142 13231.0 NaN 4993.498997995992 1.9789580136327936 1488.0 9.0 1488.0 
40.00033744596142 13231.0 NaN 4993.178356713427 3.9789580136327936 1488.0 9.0 1488.0 
42.00033744596142 13254.0 NaN 4993.319973279893 3.5395950345943414 1486.0 11.0 1486.0 
44.00033744596142 13290.0 NaN 4994.36205744823 1.9860535193114932 1488.0 9.0 1488.0 
46.00033744596142 13290.0 NaN 4994.110888443553 3.986053519311493 1488.0 9.0 1488.0 
48.00033744596142 13300.0 NaN 4994.37541750167 3.5639159384683086 1489.0 8.0 1489.0 
50.00033744596142 13323.0 NaN 4993.51503006012 2.0269783481536097 1488.0 9.0 1488.0 
52.00033744596142 13323.0 NaN 4993.221108884435 4.02697834815361 1488.0 9.0 1488.0 
54.00033744596142 13346.0 NaN 4993.368069472278 3.5894965505589074 1486.0 11.0 1486.0 
56.00033744596142 13372.0 NaN 4994.364729458918 2.06787660536501 1487.0 10.0 1487.0 
58.00033744596142 13372.0 NaN 4994.145624582498 4.06787660536501 1487.0 10.0 1487.0 
60.00033744596142 13395.0 NaN 4994.444889779559 3.64484615360347 1490.0 7.0 1490.0 
62.00033744596142 13450.0 NaN 1525.4509018036088 1.4272252422549883 815.0 4.0 362.0 
64.00033744596142 13452.0 NaN 1525.2077488309944 2.343369150344033 699.0 4.0 362.0 
66.00033744596142 13448.0 NaN 1525.261189044755 2.1344259995603445 644.0 5.0 361.0 
68.00033744596142 13450.0 NaN 1525.5177020708093 1.2194893122630117 590.0 5.0 361.0 
70.00033744596142 13461.0 NaN 1525.4161656646638 1.9129845835353687 554.0 5.0 361.0 
72.00033744596142 13498.0 NaN 1525.448229792918 1.7350818634216967 545.0 5.0 361.0 
74.00033744596142 13510.0 NaN 1528.419505678021 1.2488359902990784 537.0 5.0 362.0 
76.00033744596142 13521.0 NaN 1528.3607214428848 1.9670938620310916 533.0 5.0 362.0 
78.00033744596142 13527.0 NaN 1528.3794255177002 1.752122051379639 528.0 5.0 362.0 
80.00033744596142 13544.0 NaN 1531.5457581830335 1.2190510907635703 527.0 5.0 363.0 
82.00033744596142 13546.0 NaN 1531.5136940547757 1.9449607860283258 526.0 5.0 363.0 
84.00033744596142 13514.0 NaN 1534.6185704742816 1.750282098044452 524.0 6.0 363.0 
86.00033744596142 13474.0 NaN 1534.5384101536395 1.2007100507272344 524.0 5.0 364.0 
88.00033744596142 13481.0 NaN 1534.5277221108886 1.9144701170821647 524.0 5.0 364.0 
90.00033744596142 13490.0 NaN 1534.5250501002 1.7273809758377445 523.0 4.0 365.0 
92.00033744596142 13506.0 NaN 1534.567802271209 1.2618187318385556 523.0 5.0 364.0 
94.00033744596142 13504.0 NaN 1534.5357381429544 1.9838626920857392 521.0 5.0 364.0 
96.00033744596142 13501.0 NaN 1534.5704742818973 1.825308769184726 519.0 7.0 362.0 
98.00033744596142 13509.0 NaN 1534.5464261857062 1.3702134500669898 521.0 5.0 364.0 
100.00033744596142 13509.0 NaN 1534.5197060788246 2.0513046331774154 521.0 5.0 364.0 
102.00033744596142 13499.0 NaN 1537.6085504342004 1.8752549672995635 521.0 5.0 365.0 
104.00033744596142 13482.0 NaN 1537.6272545090183 1.3764404050747834 520.0 6.0 364.0 
106.00033744596142 13476.0 NaN 1537.5951903807634 2.0338297315132943 520.0 6.0 364.0 
108.00033744596142 13495.0 NaN 1534.5731462925849 1.8703039226552307 517.0 8.0 361.0 
110.00033744596142 13502.0 NaN 1540.6412825651298 1.3296128260347384 518.0 6.0 365.0 
112.00033744596142 13503.0 NaN 1540.5985303941213 2.057123638031645 518.0 6.0 365.0 
114.00033744596142 13495.0 NaN 1540.6145624582489 1.8492875720803958 520.0 4.0 367.0 
116.00033744596142 13489.0 NaN 1543.7434869739477 1.3310191635016213 521.0 5.0 367.0 
118.00033744596142 13476.0 NaN 1543.6980627922514 1.9871776457113917 521.0 5.0 367.0 
120.00033744596142 13483.0 NaN 1543.7221108884453 1.7444295126692924 522.0 6.0 366.0 
122.00033744596142 13518.0 NaN 1549.814295257182 1.2727362381271998 523.0 5.0 369.0 
124.00033744596142 13519.0 NaN 1549.7768871075482 1.9728301537920696 523.0 5.0 369.0 
126.00033744596142 13530.0 NaN 1546.7735470941882 1.7555387873236223 526.0 3.0 370.0 
128.0003374459614 13552.0 NaN 1546.7708750835 1.2899155161680207 526.0 3.0 370.0 
130.0003374459614 13554.0 NaN 1546.7014028056092 2.0216750953387863 526.0 3.0 370.0 
132.0003374459614 13553.0 NaN 1546.7414829659301 1.8411388186856625 526.0 3.0 370.0 
134.0003374459614 13544.0 NaN 1540.5344021376093 1.3279106329321086 526.0 3.0 368.0 
136.0003374459614 13557.0 NaN 1537.410821643288 1.9796624296608616 524.0 3.0 367.0 
138.0003374459614 13574.0 NaN 1537.4883099532394 1.802045126857005 523.0 4.0 366.0 
140.0003374459614 13596.0 NaN 1543.6873747495001 1.3017748148874735 524.0 4.0 368.0 
142.0003374459614 13595.0 NaN 1540.4969939879754 1.9877893993422375 521.0 4.0 367.0 
144.0003374459614 13588.0 NaN 1540.58784235137 1.8105910332373143 520.0 3.0 368.0 
146.0003374459614 13581.0 NaN 1543.6847027388092 1.3080283995221713 518.0 5.0 367.0 
148.0003374459614 13585.0 NaN 1543.6125584502336 2.0035070484579056 517.0 5.0 367.0 
150.0003374459614 13581.0 NaN 1537.5497661990635 1.7702537741367856 518.0 4.0 366.0 
152.0003374459614 13546.0 NaN 1537.589846359385 1.2062489740571118 520.0 3.0 367.0 
154.0003374459614 13547.0 NaN 1537.4909819639272 1.9263711329596134 519.0 3.0 367.0 
156.0003374459614 13538.0 NaN 1531.4362057448243 1.757751359323093 519.0 3.0 365.0 
158.0003374459614 13553.0 NaN 1534.431529726118 1.266764040466505 513.0 6.0 363.0 
160.0003374459614 13561.0 NaN 1534.3513694054789 1.9741297320757674 513.0 6.0 363.0 
162.0003374459614 13543.0 NaN 1534.3914495657998 1.7986594615666223 514.0 5.0 364.0 
164.0003374459614 13501.0 NaN 1537.5631262525062 1.3024950261111918 509.0 10.0 360.0 
166.0003374459614 13502.0 NaN 1537.5283901135608 2.0160855776209394 509.0 10.0 360.0 
168.0003374459614 13496.0 NaN 1540.6599866399451 1.8470333212865386 506.0 12.0 359.0 
170.0003374459614 13492.0 NaN 1543.6740146960572 1.3470451722684813 514.0 6.0 366.0 
172.0003374459614 13493.0 NaN 1543.6339345357364 2.077666539814571 514.0 5.0 367.0 
174.0003374459614 13492.0 NaN 1537.5177020708093 1.8996079059767819 517.0 4.0 366.0 
176.0003374459614 13479.0 NaN 1537.5177020708093 1.338504014664404 516.0 4.0 366.0 
178.0003374459614 13477.0 NaN 1537.4909819639272 2.036688360023536 516.0 4.0 366.0 
180.0003374459614 13469.0 NaN 1531.3907815631273 1.794987676153441 518.0 3.0 365.0 
182.0003374459614 13448.0 NaN 1534.3460253841001 1.3030952699496046 517.0 4.0 365.0 
184.0003374459614 13451.0 NaN 1534.3193052772206 2.0208113700268306 517.0 4.0 365.0 
186.0003374459614 13434.0 NaN 1531.3827655310636 1.7915980738545423 511.0 10.0 358.0 
188.0003374459614 13419.0 NaN 1528.3233132932544 1.3264824828371415 510.0 10.0 357.0 
190.0003374459614 13418.0 NaN 1528.2725450901817 1.9826660169471706 509.0 11.0 356.0 
192.0003374459614 13421.0 NaN 1531.372077488309 1.7453834870958793 508.0 11.0 357.0 
194.0003374459614 13390.0 NaN 1528.1870407481638 1.2520285947688983 509.0 10.0 357.0 
196.0003374459614 13391.0 NaN 1528.136272545091 1.9640970863698943 509.0 10.0 357.0 
198.0003374459614 13381.0 NaN 1528.1629926519727 1.758373126376959 509.0 10.0 357.0 
200.0003374459614 13373.0 NaN 1534.4529058116243 1.2964761670962894 504.0 17.0 352.0 
202.0003374459614 13375.0 NaN 1534.340681362727 2.0175671389503127 503.0 18.0 351.0 
204.0003374459614 13376.0 NaN 1534.4903139612547 1.829077663101044 502.0 19.0 350.0 
206.0003374459614 13364.0 NaN 1534.305945223782 1.384792501138973 504.0 16.0 353.0 
208.0003374459614 13368.0 NaN 1534.2391449565816 2.0734867513007043 501.0 16.0 353.0 
210.0003374459614 13363.0 NaN 1534.2979291917181 1.8426126387134214 501.0 16.0 353.0 
212.0003374459614 13354.0 NaN 1537.4749498998 1.349605842971516 504.0 15.0 355.0 
214.0003374459614 13355.0 NaN 1534.3567134268546 2.0913149102774806 503.0 15.0 354.0 
216.0003374459614 13342.0 NaN 1531.361389445557 1.9143725393132043 505.0 13.0 355.0 
218.0003374459614 13328.0 NaN 1534.3620574482297 1.4875723664430565 505.0 10.0 359.0 
220.0003374459614 13332.0 NaN 1534.2471609886452 2.224306521218586 505.0 10.0 359.0 
222.0003374459614 13318.0 NaN 1537.4001336005363 2.0435082062187218 505.0 11.0 359.0 
224.0003374459614 13278.0 NaN 1537.4722778891114 1.5880590379840862 500.0 15.0 355.0 
226.0003374459614 13276.0 NaN 1537.4402137608542 2.2881308896158536 501.0 15.0 355.0 
228.0003374459614 13262.0 NaN 1537.4749498998 2.104244207351707 502.0 13.0 357.0 
230.0003374459614 13231.0 NaN 1537.3841015364067 1.5859072767063833 503.0 11.0 359.0 
232.0003374459614 13223.0 NaN 1540.4008016032064 2.1624590828288164 502.0 11.0 360.0 
234.0003374459614 13232.0 NaN 1537.3841015364064 1.9315894536720961 501.0 12.0 358.0 
236.0003374459614 13237.0 NaN 1537.5096860387453 1.4149177757741038 499.0 12.0 358.0 
238.0003374459614 13231.0 NaN 1537.4669338677363 2.077659889085698 500.0 12.0 358.0 
240.0003374459614 13216.0 NaN 1528.2164328657302 1.8497583250113545 502.0 11.0 356.0 
242.0003374459614 13204.0 NaN 1528.0881763527063 1.3971036628397684 501.0 13.0 354.0 
244.0003374459614 13205.0 NaN 1528.0561122244485 2.113182053111872 500.0 13.0 354.0 
246.0003374459614 13195.0 NaN 1528.1656646626575 1.8997866847888245 504.0 9.0 358.0 
248.0003374459614 13170.0 NaN 1528.2084168336664 1.4258826146863874 512.0 2.0 365.0 
250.0003374459614 13166.0 NaN 1528.14963259853 2.112169090363989 513.0 2.0 365.0 
252.0003374459614 13142.0 NaN 1528.1656646626575 1.9151456951263768 513.0 3.0 364.0 
254.0003374459614 13128.0 NaN 1528.0374081496336 1.4463378656530526 515.0 2.0 365.0 
256.0003374459614 13141.0 NaN 1524.9352037408157 2.153914243740172 513.0 2.0 364.0 
258.0003374459614 13117.0 NaN 1524.9886439545753 1.9623055587174345 511.0 3.0 363.0 
260.0003374459614 13108.0 NaN 1525.111556446227 1.4968684539491612 515.0 1.0 365.0 
262.0003374459614 13105.0 NaN 1525.0661322645276 2.187873149909101 516.0 1.0 365.0 
264.0003374459614 13104.0 NaN 1531.2678690714756 1.9603704089367189 516.0 2.0 366.0 
266.0003374459614 13099.0 NaN 1528.14963259853 1.4524719372010768 514.0 2.0 365.0 
268.0003374459614 13099.0 NaN 1525.0260521042092 2.087628146182234 513.0 2.0 364.0 
270.0003374459614 13094.0 NaN 1525.1142284569148 1.8711414819511045 510.0 4.0 362.0 
272.0003374459614 13081.0 NaN 1528.1977287909156 1.4520092283185368 510.0 5.0 362.0 
274.0003374459614 13070.0 NaN 1528.1549766199064 2.147244277701277 510.0 5.0 362.0 
276.0003374459614 13070.0 NaN 1525.1810287241155 1.9206987494851007 509.0 7.0 359.0 
278.0003374459614 13063.0 NaN 1531.2571810287245 1.4421392797549621 512.0 5.0 363.0 
280.0003374459614 13063.0 NaN 1537.3841015364067 2.1447801835992966 512.0 5.0 365.0 
282.0003374459614 13042.0 NaN 1534.2899131596544 1.9617125394417034 512.0 5.0 364.0 
284.0003374459614 13021.0 NaN 1534.3460253841001 1.5258033627048209 510.0 8.0 361.0 
286.0003374459614 13029.0 NaN 1534.2872411489636 2.2232419436706694 509.0 8.0 361.0 
288.0003374459614 13008.0 NaN 1531.2571810287247 2.033058557885885 507.0 8.0 360.0 
290.0003374459614 12982.0 NaN 1531.2571810287247 1.6151042169676282 507.0 8.0 360.0 
292.0003374459614 12979.0 NaN 1528.109552438209 2.330663879557291 506.0 8.0 359.0 
294.0003374459614 12948.0 NaN 1528.1656646626573 2.0809586907283024 504.0 8.0 359.0 
296.0003374459614 12939.0 NaN 1528.2057448229793 1.53234349148398 504.0 8.0 359.0 
298.0003374459614 12931.0 NaN 1528.1576486305937 2.2030156330461734 504.0 8.0 359.0 
300.0003374459614 12912.0 NaN 1531.2919171676701 1.9573227793867227 503.0 8.0 360.0 
302.0003374459614 12897.0 NaN 1525.0848363393457 1.5529502572497957 503.0 7.0 359.0 
304.0003374459614 12884.0 NaN 1525.036740146961 2.21612667402694 503.0 8.0 358.0 
306.0003374459614 12875.0 NaN 1521.9532398129609 1.9703127397568205 502.0 8.0 357.0 
308.0003374459614 12860.0 NaN 1525.1382765531066 1.4766234852794415 499.0 9.0 357.0 
310.0003374459614 12866.0 NaN 1528.14963259853 2.136894894900338 500.0 9.0 358.0 
312.0003374459614 12823.0 NaN 1528.157648630594 1.8961876205986243 500.0 9.0 358.0 
314.0003374459614 12776.0 NaN 1531.2758851035392 1.4467371841030316 500.0 9.0 359.0 
316.0003374459614 12777.0 NaN 1528.1336005344 2.1067370246392887 500.0 9.0 358.0 
318.0003374459614 12771.0 NaN 1531.2117568470271 1.9034487451947038 500.0 9.0 359.0 
320.0003374459614 12749.0 NaN 1531.3426853707424 1.4554015350133804 499.0 10.0 358.0 
322.0003374459614 12751.0 NaN 1531.2705410821636 2.143625037800589 499.0 10.0 358.0 
324.0003374459614 12715.0 NaN 1534.4074816299274 1.929299291538129 497.0 10.0 359.0 
326.0003374459614 12703.0 NaN 1534.2845691382756 1.4944383749457373 499.0 10.0 359.0 
328.0003374459614 12705.0 NaN 1537.3039412157636 2.126504209580145 499.0 10.0 360.0 
330.0003374459614 12696.0 NaN 1537.3306613226455 1.8716414430180384 497.0 10.0 360.0 
332.0003374459614 12687.0 NaN 1537.3894455577818 1.4297216927145528 496.0 10.0 360.0 
334.0003374459614 12674.0 NaN 1534.2712090848363 2.0833241942527563 496.0 10.0 359.0 
336.0003374459614 12672.0 NaN 1534.3433533734124 1.8902274349309416 497.0 10.0 359.0 
338.0003374459614 12674.0 NaN 1537.3734134936547 1.4440381651994243 498.0 10.0 360.0 
340.0003374459614 12682.0 NaN 1537.3012692050754 2.0793986542913037 498.0 10.0 360.0 
342.0003374459614 12663.0 NaN 1531.219772879091 1.8498639039595925 500.0 10.0 358.0 
344.0003374459614 12653.0 NaN 1534.3166332665337 1.3738207862686473 500.0 10.0 359.0 
346.0003374459614 12658.0 NaN 1531.1770207080817 2.0662740295786324 498.0 10.0 358.0 
348.0003374459614 12664.0 NaN 1528.1496325985297 1.8686383854978823 500.0 10.0 357.0 
350.0003374459614 12674.0 NaN 1531.1983967935878 1.4411561577355883 498.0 10.0 358.0 
352.0003374459614 12679.0 NaN 1531.1289245156997 2.0944926689478183 501.0 10.0 358.0 
354.0003374459614 12670.0 NaN 1528.093520374082 1.8681455334888963 502.0 10.0 357.0 
356.0003374459614 12676.0 NaN 1528.1816967267878 1.4322974270818076 502.0 10.0 357.0 
358.0003374459614 12676.0 NaN 1528.136272545091 2.0365067518958306 502.0 10.0 357.0 
360.0003374459614 12680.0 NaN 1528.1816967267878 1.774307371599132 504.0 10.0 357.0 
362.0003374459614 12698.0 NaN 1528.0507682030725 1.365046523339448 504.0 10.0 357.0 
364.0003374459614 12698.0 NaN 1527.9812959251824 2.0329330404073334 505.0 10.0 357.0 
366.0003374459614 12701.0 NaN 1528.0427521710092 1.8125957568644093 506.0 10.0 357.0 
368.0003374459614 12693.0 NaN 1528.1336005344006 1.3742545655232643 506.0 10.0 357.0 
370.0003374459614 12704.0 NaN 1525.0313961255843 2.0651269033301163 505.0 10.0 356.0 
372.0003374459614 12703.0 NaN 1506.6853707414818 1.8760691134050063 505.0 10.0 350.0 
374.0003374459614 12692.0 NaN 1512.6546426185719 1.485963063421398 505.0 10.0 352.0 
376.0003374459614 12696.0 NaN 1515.6847027388098 2.128168740861526 505.0 10.0 353.0 
378.0003374459614 12690.0 NaN 1512.6386105544432 1.9098193596976865 506.0 10.0 352.0 
380.0003374459614 12696.0 NaN 1512.7535070140275 1.5283431768960711 505.0 11.0 351.0 
382.0003374459614 12713.0 NaN 1512.7160988643968 2.2386017249803296 505.0 12.0 350.0 
384.0003374459614 12699.0 NaN 1506.607882431529 2.0369595090048818 504.0 12.0 348.0 
386.0003374459614 12685.0 NaN 1506.5517702070817 1.6200172766964702 506.0 10.0 350.0 
388.0003374459614 12679.0 NaN 1506.5357381429535 2.252817143193833 505.0 10.0 350.0 
390.0003374459614 12678.0 NaN 1509.6459585838354 2.0971643764628753 507.0 10.0 351.0 
392.0003374459614 12667.0 NaN 1515.8476953907818 1.7080812193800674 509.0 9.0 354.0 
394.0003374459614 12680.0 NaN 1518.856379425518 2.362870666607437 510.0 9.0 355.0 
396.0003374459614 12633.0 NaN 1515.839679358718 2.0649754618639578 511.0 9.0 354.0 
398.0003374459614 12628.0 NaN 1515.7007348029388 1.6577475448052754 510.0 9.0 354.0 
400.0003374459614 12632.0 NaN 1518.7227788911157 2.342869122490758 510.0 9.0 355.0 
402.0003374459614 12631.0 NaN 1515.764863059454 2.129355996919741 512.0 9.0 354.0 
404.0003374459614 12609.0 NaN 1515.8370073480278 1.7079199164962129 511.0 9.0 354.0 
406.0003374459614 12600.0 NaN 1512.6973947895794 2.2823965374738466 509.0 9.0 353.0 
408.0003374459614 12595.0 NaN 1525.0501002003998 2.0190831734899755 512.0 9.0 357.0 
410.0003374459614 12595.0 NaN 1527.9973279893115 1.5701134460294706 512.0 9.0 358.0 
412.0003374459614 12592.0 NaN 1527.9732798931186 2.186349454286461 511.0 10.0 357.0 
414.0003374459614 12594.0 NaN 1531.1048764195061 1.9280259465030927 513.0 9.0 359.0 
416.0003374459614 12591.0 NaN 1531.1369405477633 1.5331858459431622 513.0 9.0 359.0 
418.0003374459614 12583.0 NaN 1531.1075484301934 2.0755011156496477 511.0 9.0 359.0 
420.0003374459614 12591.0 NaN 1518.9231796927181 1.8550945623384767 505.0 13.0 351.0 
422.0003374459614 12581.0 NaN 1518.8350033400122 1.4529503308227958 503.0 13.0 351.0 
424.0003374459614 12568.0 NaN 1521.8757515030068 2.110968444808226 504.0 13.0 352.0 
426.0003374459614 12572.0 NaN 1518.8670674682708 1.872785694049139 507.0 10.0 354.0 
428.0003374459614 12605.0 NaN 1528.0133600534393 1.480155365470542 510.0 10.0 357.0 
430.0003374459614 12612.0 NaN 1531.0327321309278 2.1433716766921576 512.0 10.0 358.0 
432.0003374459614 12623.0 NaN 1531.0701402805614 1.8930507034258983 512.0 10.0 358.0 
434.0003374459614 12613.0 NaN 1543.3587174348702 1.4879537251240376 517.0 9.0 363.0 
436.0003374459614 12615.0 NaN 1537.2211088844363 2.1651470904087646 517.0 9.0 361.0 
438.0003374459614 12600.0 NaN 1537.2451569806271 1.9155571491447125 516.0 9.0 361.0 
440.0003374459614 12591.0 NaN 1540.3340013360062 1.516241110303339 520.0 9.0 362.0 
442.0003374459614 12592.0 NaN 1543.294589178355 2.1972881701303617 520.0 9.0 363.0 
444.0003374459614 12582.0 NaN 1546.567802271209 1.9869780751802615 519.0 10.0 363.0 
446.0003374459614 12581.0 NaN 1546.3994655978636 1.5645747104038246 518.0 11.0 362.0 
448.0003374459614 12577.0 NaN 1546.396793587173 2.2521155396324213 518.0 11.0 362.0 
450.0003374459614 12569.0 NaN 1537.2291249165 1.9392337467847907 519.0 11.0 359.0 
452.0003374459614 12558.0 NaN 1546.458249833 1.534423568883653 517.0 13.0 360.0 
454.0003374459614 12560.0 NaN 1549.5123580494335 2.213030385720086 516.0 13.0 361.0 
456.0003374459614 12570.0 NaN 1552.5771543086182 2.013111608671581 518.0 12.0 363.0 
458.0003374459614 12575.0 NaN 1552.537074148297 1.6068581898005754 519.0 10.0 365.0 
460.0003374459614 12571.0 NaN 1552.5237140948548 2.2857892054232565 518.0 10.0 365.0 
462.0003374459614 12549.0 NaN 1543.3132932531726 2.0498164069273375 516.0 11.0 361.0 
464.0003374459614 12547.0 NaN 1549.5818303273206 1.6117898688063153 516.0 11.0 363.0 
466.0003374459614 12541.0 NaN 1552.5851703406818 2.249578034212619 517.0 11.0 364.0 
468.0003374459614 12537.0 NaN 1543.3934535738153 1.9681151030534465 515.0 11.0 361.0 
470.0003374459614 12527.0 NaN 1543.3827655310633 1.5459639467071802 515.0 11.0 361.0 
472.0003374459614 12527.0 NaN 1543.2865731462912 2.218818345840955 514.0 11.0 361.0 
474.0003374459614 12511.0 NaN 1534.137608550436 1.9764834885817406 514.0 11.0 358.0 
476.0003374459614 12492.0 NaN 1531.1770207080817 1.5269433917911397 512.0 11.0 357.0 
478.0003374459614 12503.0 NaN 1531.091516366064 2.214980885990206 512.0 11.0 357.0 
480.0003374459614 12495.0 NaN 1531.1289245156995 1.9880971211335052 509.0 11.0 357.0 
482.0003374459614 12483.0 NaN 1531.0594522378092 1.5860095135920242 511.0 11.0 357.0 
484.0003374459614 12489.0 NaN 1531.0647962591843 2.188775119472013 508.0 11.0 357.0 
486.0003374459614 12486.0 NaN 1518.8670674682705 1.9572153232970346 509.0 11.0 353.0 
488.0003374459614 12491.0 NaN 1515.775551102203 1.4638920199117458 503.0 11.0 352.0 
490.0003374459614 12491.0 NaN 1512.7214428857726 2.113631735341741 504.0 11.0 351.0 
492.0003374459614 12489.0 NaN 1503.5163660654637 1.894953842631967 502.0 11.0 348.0 
494.0003374459614 12491.0 NaN 1506.5223780895114 1.5128201855078152 501.0 11.0 349.0 
496.0003374459614 12492.0 NaN 1503.4068136272545 2.1239118666391756 500.0 11.0 348.0 
498.0003374459614 12502.0 NaN 1497.2852371409476 1.9234730046490658 502.0 11.0 346.0 
500.0003374459614 12493.0 NaN 1497.360053440215 1.535343301396046 504.0 11.0 346.0 
502.0003374459614 12483.0 NaN 1494.2044088176362 2.171290595540152 504.0 11.0 345.0 
504.0003374459614 12488.0 NaN 1497.3734134936547 1.94574394318169 504.0 11.0 346.0 
506.0003374459614 12504.0 NaN 1500.4408817635274 1.5800367440233705 505.0 11.0 347.0 
508.0003374459614 12524.0 NaN 1509.5871743486978 2.250714568898268 504.0 11.0 350.0 
510.0003374459614 12516.0 NaN 1506.5758183032726 2.023289829992662 504.0 12.0 348.0 
512.0003374459613 12501.0 NaN 1503.5457581830335 1.6058373645925736 500.0 12.0 347.0 
514.0003374459613 12488.0 NaN 1503.5217100868394 2.1692389149206934 501.0 12.0 347.0 
516.0003374459613 12496.0 NaN 1494.4101536406154 1.9319480023713358 498.0 13.0 343.0 
518.0003374459613 12495.0 NaN 1494.2525050100191 1.5410936839517617 499.0 12.0 344.0 
520.0003374459613 12514.0 NaN 1491.1476285905155 2.1806896903593924 499.0 12.0 343.0 
522.0003374459613 12501.0 NaN 1482.0040080160334 1.9220839456969743 501.0 11.0 341.0 
524.0003374459613 12503.0 NaN 1475.861055444221 1.455082369956153 498.0 12.0 338.0 
526.0003374459613 12512.0 NaN 1469.6860387441545 2.097856922730632 499.0 11.0 337.0 
528.0003374459613 12542.0 NaN 1469.7635270541089 1.8636991970210495 498.0 11.0 337.0 
530.0003374459613 12566.0 NaN 1469.7207748831 1.4505252616666855 499.0 11.0 337.0 
532.0003374459613 12571.0 NaN 1472.758851035403 2.0716409440534163 503.0 11.0 338.0 
534.0003374459613 12580.0 NaN 1469.7207748831 1.870394053244822 505.0 11.0 337.0 
536.0003374459613 12578.0 NaN 1469.742150968603 1.3844519579047063 502.0 11.0 337.0 
538.0003374459613 12591.0 NaN 1469.6700066800274 1.9839509041090506 504.0 11.0 337.0 
540.0003374459613 12620.0 NaN 1466.658650634602 1.8194211689554436 505.0 11.0 336.0 
542.0003374459613 12634.0 NaN 1466.6292585170352 1.4477497984170333 504.0 11.0 336.0 
544.0003374459613 12634.0 NaN 1466.5811623246484 2.050579830610969 502.0 11.0 336.0 
546.0003374459613 12642.0 NaN 1469.6780227120908 1.8635593471143637 502.0 11.0 337.0 
548.0003374459613 12654.0 NaN 1469.7127588510361 1.5201862192906328 502.0 11.0 337.0 
550.0003374459613 12661.0 NaN 1472.756179024717 2.1491940317605156 503.0 11.0 338.0 
552.0003374459613 12667.0 NaN 1469.7261189044748 1.9691492365780803 503.0 11.0 337.0 
554.0003374459613 12656.0 NaN 1469.7234468937884 1.547081594714614 506.0 11.0 337.0 
556.0003374459613 12661.0 NaN 1469.6860387441545 2.1962715436408233 503.0 11.0 337.0 
558.0003374459613 12656.0 NaN 1466.6052104208425 2.0334129279332047 503.0 11.0 336.0 
560.0003374459613 12679.0 NaN 1463.5537742150973 1.6806387580091473 503.0 11.0 335.0 
562.0003374459613 12691.0 NaN 1469.6513026052098 2.2455226531539823 503.0 11.0 337.0 
564.0003374459613 12687.0 NaN 1469.7020708082825 2.0090829020987875 500.0 11.0 337.0 
566.0003374459613 12687.0 NaN 1469.6619906479632 1.625506984452058 501.0 11.0 337.0 
568.0003374459613 12700.0 NaN 1472.7267869071468 2.2305841808597546 502.0 11.0 338.0 
570.0003374459613 12671.0 NaN 1469.6753507014023 2.0374594438121942 503.0 11.0 337.0 
572.0003374459613 12674.0 NaN 1478.9124916499661 1.6720041407002655 504.0 11.0 340.0 
574.0003374459613 12658.0 NaN 1485.0180360721452 2.174428622492272 506.0 10.0 343.0 
576.0003374459613 12679.0 NaN 1485.0714762859059 2.0348664239893015 508.0 10.0 343.0 
578.0003374459613 12714.0 NaN 1482.0521042084172 1.688729651515853 507.0 10.0 342.0 
580.0003374459613 12728.0 NaN 1488.0721442885763 2.268227562373675 505.0 10.0 344.0 
582.0003374459613 12758.0 NaN 1488.1042084168346 2.0725460022247773 514.0 4.0 350.0 
584.0003374459613 12766.0 NaN 1485.055444221776 1.593754635319637 513.0 3.0 350.0 
586.0003374459613 12775.0 NaN 1485.0527722110899 2.1427931015581865 514.0 3.0 350.0 
588.0003374459613 12768.0 NaN 1485.0848363393457 1.9825894682547505 515.0 3.0 350.0 
590.0003374459613 12781.0 NaN 1488.114896459585 1.6558991540671135 515.0 3.0 351.0 
592.0003374459613 12786.0 NaN 1491.1182364729455 2.230706671520425 515.0 3.0 352.0 
594.0003374459613 12770.0 NaN 1494.2097528390102 2.0644082339699734 517.0 3.0 353.0 
596.0003374459613 12792.0 NaN 1491.1609886439546 1.672047231495296 520.0 3.0 352.0 
598.0003374459613 12810.0 NaN 1491.1503006012017 2.3022013912227854 520.0 3.0 352.0 
600.0003374459613 12777.0 NaN 1491.152972611891 2.1201992403054692 522.0 3.0 352.0 
602.0003374459613 12774.0 NaN 1497.1997327989304 1.7580721984966603 522.0 3.0 354.0 
604.0003374459613 12773.0 NaN 1494.129592518371 2.390494087166988 519.0 3.0 353.0 
606.0003374459613 12793.0 NaN 1497.2665330661332 2.22215499621474 524.0 3.0 354.0 
608.0003374459613 12819.0 NaN 1497.2985971943897 1.7563259237165787 524.0 3.0 354.0 
610.0003374459613 12803.0 NaN 1494.19906479626 2.3128234862088943 523.0 3.0 353.0 
612.0003374459613 12811.0 NaN 1494.207080828324 2.1567610639695056 524.0 3.0 353.0 
614.0003374459613 12844.0 NaN 1503.4522378089525 1.780712616811715 526.0 3.0 356.0 
616.0003374459613 12850.0 NaN 1506.5223780895112 2.3066632794740833 527.0 3.0 357.0 
618.0003374459613 12856.0 NaN 1509.629926519707 2.1440895737807564 525.0 3.0 358.0 
620.0003374459613 12875.0 NaN 1509.608550434201 1.758874852939348 526.0 3.0 358.0 
622.0003374459613 12891.0 NaN 1512.6519706078816 2.323569827755634 526.0 2.0 360.0 
624.0003374459613 12889.0 NaN 1515.7675350701395 2.155958717198632 527.0 2.0 361.0 
626.0003374459613 12922.0 NaN 1521.9826319305273 1.7191664442947134 523.0 4.0 361.0 
628.0003374459613 12923.0 NaN 1525.004676018703 2.2102722184198433 522.0 4.0 362.0 
630.0003374459613 12925.0 NaN 1524.9726118904462 2.019804911438155 515.0 10.0 356.0 
632.0003374459613 12902.0 NaN 1524.9832999332002 1.6067653176348273 511.0 12.0 354.0 
634.0003374459613 12909.0 NaN 1524.9859719438887 2.213816389740139 517.0 12.0 354.0 
636.0003374459613 12915.0 NaN 1524.9645958583826 2.0918298863439952 519.0 10.0 356.0 
638.0003374459613 12925.0 NaN 1518.8456913827645 1.6351121949123137 518.0 11.0 353.0 
640.0003374459613 12937.0 NaN 1518.8563794255183 2.247412745394721 520.0 11.0 353.0 
642.0003374459613 12944.0 NaN 1518.8991315965272 2.1623942892004546 516.0 11.0 353.0 
644.0003374459613 12910.0 NaN 1525.0581162324643 1.785661203801704 515.0 11.0 355.0 
646.0003374459613 12912.0 NaN 1525.0768203072819 2.3339546545314764 516.0 11.0 355.0 
648.0003374459613 12914.0 NaN 1525.0581162324643 2.1857586641925906 516.0 11.0 355.0 
650.0003374459613 12909.0 NaN 1524.9886439545749 1.718965907578112 515.0 11.0 355.0 
652.0003374459613 12900.0 NaN 1521.9478957915826 2.296782671472749 517.0 11.0 354.0 
654.0003374459613 12882.0 NaN 1522.030728122912 2.120144488877833 517.0 10.0 355.0 
656.0003374459613 12845.0 NaN 1528.1897127588516 1.6441043323832125 514.0 11.0 356.0 
658.0003374459613 12850.0 NaN 1531.1609886439546 2.1904921158230386 510.0 11.0 357.0 
660.0003374459613 12860.0 NaN 1531.1449565798273 2.0586573987093053 510.0 11.0 357.0 
662.0003374459613 12872.0 NaN 1537.3413493653982 1.6874925032295123 509.0 12.0 358.0 
664.0003374459613 12846.0 NaN 1537.3333333333344 2.256622082761895 509.0 12.0 358.0 
#####################################################################
# End of data export. Simulation finished at: 2019-03-18T17:32+0000 #
#####################################################################
