#####################################################################
# Alchemist log file - simulation started at: 2019-03-03T07:55+0000 #
#####################################################################
# seed = 1.0, bandwidth = 316227.76601683797, propagationDelay = 0.001, baserange = 1000.0
#
# The columns have the following meaning: 
# time neighbor_count[Sum] <value>@neighbor_count[Sum] packet_size[Mean] mean_delay[Mean] crowd[Sum] overcrowded[Sum] risk[Sum] 
0.0 NaN NaN NaN NaN NaN NaN NaN 
10.000191291826484 210023.0 NaN 4995.457581830327 0.4996711095257742 1497.0 0.0 1497.0 
20.000191291826486 210072.0 NaN 4996.056112224449 0.49967551056165554 1497.0 0.0 1497.0 
30.000191291826486 210134.0 NaN 4996.253841015364 0.4996890101168056 1497.0 0.0 1497.0 
40.00019129182648 210274.0 NaN 4996.384769539078 0.4997312051644403 1497.0 0.0 1497.0 
50.00019129182648 210324.0 NaN 4996.101536406146 0.4996118218449395 1497.0 0.0 1497.0 
60.00019129182648 210330.0 NaN 4996.162992651971 0.499755179153432 1497.0 0.0 1497.0 
70.00041737428027 210286.0 NaN 1525.7287909151637 0.5000870367784945 535.0 1.0 365.0 
80.00041737428027 210322.0 NaN 1534.8483633934547 0.500050017619188 527.0 1.0 368.0 
90.00041737428027 210415.0 NaN 1534.880427521709 0.5000599836613131 527.0 1.0 368.0 
100.00041737428027 210515.0 NaN 1537.9291917167664 0.5000188254067559 528.0 0.0 370.0 
110.00041737428027 210630.0 NaN 1537.9746158984635 0.49987516103115054 527.0 0.0 370.0 
120.00041737428027 210658.0 NaN 1543.9545758183028 0.5001135758589359 529.0 1.0 371.0 
130.0004173742803 210659.0 NaN 1541.1756847027389 0.4999758849862049 526.0 2.0 369.0 
140.0004173742803 210695.0 NaN 1540.8817635270545 0.50009492664818 519.0 1.0 370.0 
150.0004173742803 210728.0 NaN 1544.221776887109 0.5002931047628429 523.0 1.0 371.0 
160.0004173742803 210726.0 NaN 1541.0848363393457 0.5000213691753022 520.0 1.0 370.0 
170.0004173742803 210732.0 NaN 1543.9599198396795 0.4999596359943767 519.0 1.0 371.0 
180.0004173742803 210766.0 NaN 1538.1563126252518 0.5001145654741468 520.0 1.0 369.0 
190.0004173742803 210742.0 NaN 1537.8463593854362 0.5002067225720348 518.0 1.0 369.0 
200.0004173742803 210693.0 NaN 1537.8997995991997 0.5001945797284485 517.0 2.0 368.0 
210.0004173742803 210776.0 NaN 1528.684034736139 0.500257893799116 513.0 1.0 366.0 
220.0004173742803 210830.0 NaN 1525.7127588510366 0.5006740284076396 518.0 1.0 365.0 
230.0004173742803 210861.0 NaN 1531.6366065464274 0.500181380165197 514.0 1.0 367.0 
240.0004173742803 210890.0 NaN 1528.662658650636 0.500052616494769 513.0 1.0 366.0 
250.0004173742803 210998.0 NaN 1528.6172344689364 0.5005739555420102 514.0 1.0 366.0 
260.0004173742803 210997.0 NaN 1522.5624582498335 0.500080797255086 515.0 1.0 364.0 
270.0004173742803 211053.0 NaN 1528.5183700734817 0.5000578576911809 511.0 2.0 365.0 
280.0004173742803 211139.0 NaN 1528.7668670674698 0.5001843469803865 512.0 1.0 366.0 
290.0004173742803 211086.0 NaN 1534.6372745490999 0.5002240014449495 512.0 1.0 368.0 
300.0004173742803 211027.0 NaN 1534.7254509018026 0.5003490146581776 510.0 1.0 368.0 
310.0004173742803 210959.0 NaN 1534.8563794255183 0.5004131177936934 508.0 1.0 368.0 
320.0004173742803 210978.0 NaN 1531.5484301937208 0.5002528046866743 509.0 1.0 367.0 
330.0004173742803 210902.0 NaN 1541.044756179025 0.5004542600409191 509.0 1.0 370.0 
340.0004173742803 210798.0 NaN 1528.6893787575154 0.5002869052246254 510.0 1.0 366.0 
350.0004173742803 210737.0 NaN 1525.4963259853032 0.5002144716287767 513.0 1.0 365.0 
360.0004173742803 210708.0 NaN 1522.3674014696066 0.5006426367192874 514.0 1.0 364.0 
370.0004173742803 210576.0 NaN 1507.171676686707 0.5003454927611334 517.0 2.0 358.0 
380.0004173742803 210339.0 NaN 1500.601202404809 0.5004416354062463 522.0 1.0 357.0 
390.0004173742803 210154.0 NaN 1507.2090848363387 0.5014458569614757 517.0 1.0 359.0 
400.0004173742803 210072.0 NaN 1507.011356045425 0.500419553416405 517.0 2.0 358.0 
410.0004173742803 210046.0 NaN 1516.1790247161 0.5003109405454109 522.0 1.0 362.0 
420.0004173742803 210033.0 NaN 1491.7702070808277 0.5002969771186849 510.0 2.0 353.0 
430.0004173742803 209998.0 NaN 1506.8911155644628 0.5004287592193084 522.0 1.0 359.0 
440.0004173742803 209995.0 NaN 1522.567802271209 0.5007075644516064 526.0 1.0 364.0 
450.0004173742803 209860.0 NaN 1534.6319305277211 0.500603940236578 527.0 1.0 368.0 
460.0004173742803 209843.0 NaN 1540.8149632598543 0.5006100066795565 526.0 1.0 370.0 
470.0004173742803 209726.0 NaN 1531.5831663326642 0.5006036609498021 520.0 1.0 367.0 
480.0004173742803 209682.0 NaN 1525.5631262525062 0.5004332691840039 518.0 1.0 365.0 
490.0004173742803 209771.0 NaN 1497.6753507014018 0.5007867878005912 514.0 1.0 356.0 
500.0004173742803 209723.0 NaN 1485.5738142952569 0.5006737993321113 506.0 1.0 352.0 
510.0004173742803 209699.0 NaN 1497.7261189044746 0.5007306096248575 514.0 1.0 356.0 
520.0004173742802 209676.0 NaN 1470.196392785572 0.5006353729101449 508.0 1.0 347.0 
530.0004173742802 209680.0 NaN 1454.8109552438204 0.500637111547038 512.0 2.0 341.0 
540.0004173742802 209771.0 NaN 1466.9659318637273 0.5003866963034367 510.0 1.0 346.0 
550.0004173742802 209709.0 NaN 1473.3814295257182 0.5004460583011957 515.0 1.0 348.0 
560.0004173742802 209764.0 NaN 1473.0607882431534 0.5005858589609976 517.0 1.0 348.0 
570.0004173742802 209824.0 NaN 1488.6599866399458 0.5004854715591641 520.0 0.0 354.0 
580.0004173742802 209825.0 NaN 1494.6586506346018 0.5003952597359446 522.0 1.0 355.0 
590.0004173742802 209903.0 NaN 1503.8129592518364 0.5003830840992448 524.0 1.0 358.0 
600.0004173742802 209986.0 NaN 1500.8229792919178 0.5002007394895308 531.0 1.0 357.0 
610.0004173742802 209976.0 NaN 1513.2130928523718 0.5003388835560898 530.0 1.0 361.0 
620.0004173742802 209939.0 NaN 1522.236472945891 0.5004434368027229 528.0 1.0 364.0 
630.0004173742802 209992.0 NaN 1519.2785571142272 0.5005524296803617 525.0 1.0 363.0 
640.0004173742802 210063.0 NaN 1516.2404809619243 0.5003800492802516 526.0 1.0 362.0 
650.0004173742802 210188.0 NaN 1525.4375417501665 0.5002888230938926 521.0 1.0 365.0 
660.0004173742802 210288.0 NaN 1531.8209752839 0.5003316473130269 516.0 1.0 367.0 
#####################################################################
# End of data export. Simulation finished at: 2019-03-03T08:58+0000 #
#####################################################################
