#####################################################################
# Alchemist log file - simulation started at: 2019-03-20T18:20+0000 #
#####################################################################
# seed = 9.0, bandwidth = 316227.76601683797, propagationDelay = 10.0, baserange = 17.78279410038923
#
# The columns have the following meaning: 
# time neighbor_count[Sum] <value>@neighbor_count[Sum] packet_size[Mean] mean_delay[Mean] crowd[Sum] overcrowded[Sum] risk[Sum] 
0.0 NaN NaN NaN NaN NaN NaN NaN 
2.0003374459614243 NaN NaN 4988.0 NaN 1497.0 0.0 1497.0 
4.000337445961424 NaN NaN 4988.0 NaN 1497.0 0.0 1497.0 
6.000337445961424 NaN NaN 4988.0 NaN 1497.0 0.0 1497.0 
8.000337445961424 NaN NaN 4988.0 NaN 1497.0 0.0 1497.0 
10.000337445961424 NaN NaN 4988.0 NaN 1497.0 0.0 1497.0 
12.000337445961424 1116.0 NaN 4993.485637942552 0.9862690967581759 1497.0 0.0 1497.0 
14.000337445961424 1116.0 NaN 4992.6332665330665 2.9862690967581758 1497.0 0.0 1497.0 
16.000337445961424 1116.0 NaN 4992.229792919172 4.986269096758176 1497.0 0.0 1497.0 
18.000337445961424 1116.0 NaN 4992.248496993988 6.986269096758176 1497.0 0.0 1497.0 
20.000337445961424 1116.0 NaN 4992.227120908484 8.986269096758177 1497.0 0.0 1497.0 
22.000337445961424 1119.0 NaN 4994.276553106212 5.684537411222829 1497.0 0.0 1497.0 
24.000337445961424 1122.0 NaN 4992.056112224449 2.1114762257518107 1496.0 1.0 1496.0 
26.000337445961424 1122.0 NaN 4991.072812291249 4.111476225751811 1496.0 1.0 1496.0 
28.000337445961424 1122.0 NaN 4991.088844355378 6.111476225751811 1496.0 1.0 1496.0 
30.000337445961424 1122.0 NaN 4991.075484301938 8.11147622575181 1496.0 1.0 1496.0 
32.00033744596142 1121.0 NaN 4991.118236472946 10.088141741036617 1496.0 1.0 1496.0 
34.00033744596142 1122.0 NaN 4993.28256513026 1.016530198756104 1495.0 2.0 1495.0 
36.00033744596142 1122.0 NaN 4990.979291917168 3.016530198756104 1495.0 2.0 1495.0 
38.00033744596142 1122.0 NaN 4990.949899799599 5.0165301987561035 1495.0 2.0 1495.0 
40.00033744596142 1122.0 NaN 4990.960587842352 7.0165301987561035 1495.0 2.0 1495.0 
42.00033744596142 1122.0 NaN 4990.941883767535 9.016530198756104 1495.0 2.0 1495.0 
44.00033744596142 1131.0 NaN 4991.812959251837 5.664863887493976 1495.0 2.0 1495.0 
46.00033744596142 1145.0 NaN 4991.23580494322 2.12944705709482 1491.0 6.0 1491.0 
48.00033744596142 1145.0 NaN 4990.583834335337 4.12944705709482 1491.0 6.0 1491.0 
50.00033744596142 1145.0 NaN 4990.567802271209 6.12944705709482 1491.0 6.0 1491.0 
52.00033744596142 1145.0 NaN 4990.557114228457 8.12944705709482 1491.0 6.0 1491.0 
54.00033744596142 1141.0 NaN 4990.605210420842 10.08246776385875 1491.0 6.0 1491.0 
56.00033744596142 1166.0 NaN 4992.040080160321 1.272279839742346 1490.0 7.0 1490.0 
58.00033744596142 1166.0 NaN 4991.3507014028055 3.272279839742346 1490.0 7.0 1490.0 
60.00033744596142 1166.0 NaN 4991.2625250501005 5.272279839742346 1490.0 7.0 1490.0 
62.00033744596142 1166.0 NaN 959.1770207080815 7.272279839742346 488.0 6.0 176.0 
64.00033744596142 1166.0 NaN 959.1743486973924 9.272279839742346 488.0 6.0 176.0 
66.00033744596142 1150.0 NaN 977.9211756847013 5.768770599292625 485.0 6.0 182.0 
68.00033744596142 1172.0 NaN 983.7728790915183 2.3587678222883794 487.0 6.0 184.0 
70.00033744596142 1172.0 NaN 983.6659986639921 4.358767822288378 487.0 6.0 184.0 
72.00033744596142 1172.0 NaN 983.6499665998648 6.358767822288378 487.0 6.0 184.0 
74.00033744596142 1172.0 NaN 983.6526386105545 8.35876782228838 487.0 6.0 184.0 
76.00033744596142 1157.0 NaN 983.6740146960557 10.281010896730107 487.0 6.0 184.0 
78.00033744596142 1149.0 NaN 986.9953239812987 1.3015658162171915 470.0 6.0 185.0 
80.00033744596142 1149.0 NaN 986.6506346025361 3.3015658162171913 470.0 6.0 185.0 
82.00033744596142 1149.0 NaN 986.6265865063452 5.301565816217192 470.0 6.0 185.0 
84.00033744596142 1149.0 NaN 986.6212424849716 7.301565816217193 470.0 6.0 185.0 
86.00033744596142 1149.0 NaN 986.6292585170366 9.301565816217192 470.0 6.0 185.0 
88.00033744596142 1130.0 NaN 989.8436873747467 5.6503178197183015 442.0 6.0 186.0 
90.00033744596142 1143.0 NaN 995.9251837007365 2.268674767911157 414.0 6.0 188.0 
92.00033744596142 1143.0 NaN 992.7588510354012 4.268674767911158 413.0 6.0 187.0 
94.00033744596142 1143.0 NaN 992.764195056782 6.268674767911157 413.0 6.0 187.0 
96.00033744596142 1143.0 NaN 992.7588510354012 8.268674767911158 413.0 6.0 187.0 
98.00033744596142 1133.0 NaN 992.764195056782 10.184937869537343 412.0 6.0 187.0 
100.00033744596142 1155.0 NaN 1005.4054776219089 1.4312695673216815 380.0 6.0 191.0 
102.00033744596142 1155.0 NaN 1005.1970607882458 3.431269567321681 380.0 6.0 191.0 
104.00033744596142 1155.0 NaN 999.0487641950542 5.431269567321681 380.0 6.0 189.0 
106.00033744596142 1155.0 NaN 999.0487641950542 7.431269567321681 380.0 6.0 189.0 
108.00033744596142 1155.0 NaN 999.0541082164349 9.431269567321682 380.0 6.0 189.0 
110.00033744596142 1121.0 NaN 1002.2498329993351 5.677386581371792 367.0 6.0 190.0 
112.00033744596142 1132.0 NaN 1005.1489645958558 2.3205913142304597 356.0 6.0 191.0 
114.00033744596142 1132.0 NaN 1005.0180360721457 4.320591314230459 356.0 6.0 191.0 
116.00033744596142 1132.0 NaN 1001.9505678022729 6.32059131423046 356.0 6.0 190.0 
118.00033744596142 1132.0 NaN 998.8830995324001 8.32059131423046 355.0 6.0 189.0 
120.00033744596142 1124.0 NaN 998.8430193720804 10.291506392522166 355.0 6.0 189.0 
122.00033744596142 1135.0 NaN 1008.3420173680717 1.377942824968497 341.0 6.0 192.0 
124.00033744596142 1135.0 NaN 1008.1416165664649 3.3779428249684966 341.0 6.0 192.0 
126.00033744596142 1135.0 NaN 998.9205076820288 5.377942824968497 338.0 6.0 189.0 
128.0003374459614 1135.0 NaN 998.9205076820288 7.377942824968498 338.0 6.0 189.0 
130.0003374459614 1135.0 NaN 998.9018036072168 9.377942824968498 338.0 6.0 189.0 
132.0003374459614 1120.0 NaN 1002.1242484969924 5.660210040557691 330.0 6.0 190.0 
134.0003374459614 1146.0 NaN 1002.1082164328634 2.3661409296324165 331.0 6.0 190.0 
136.0003374459614 1146.0 NaN 989.760855043418 4.366140929632417 330.0 6.0 186.0 
138.0003374459614 1146.0 NaN 989.7341349365387 6.366140929632417 330.0 6.0 186.0 
140.0003374459614 1146.0 NaN 989.7314629258524 8.366140929632417 330.0 6.0 186.0 
142.0003374459614 1136.0 NaN 989.7207748831003 10.247532535042248 329.0 6.0 186.0 
144.0003374459614 1166.0 NaN 1011.4976619906472 1.349808991117116 326.0 6.0 193.0 
146.0003374459614 1166.0 NaN 1011.233132932529 3.3498089911171163 326.0 6.0 193.0 
148.0003374459614 1166.0 NaN 1008.1469605878436 5.349808991117115 325.0 6.0 192.0 
150.0003374459614 1166.0 NaN 1008.1362725450911 7.349808991117117 325.0 6.0 192.0 
152.0003374459614 1166.0 NaN 1008.1255845023363 9.349808991117117 325.0 6.0 192.0 
154.0003374459614 1147.0 NaN 1011.3800935203726 5.615769753057995 326.0 6.0 193.0 
156.0003374459614 1175.0 NaN 1014.3674014696076 2.321254909095897 326.0 6.0 194.0 
158.0003374459614 1175.0 NaN 1002.0494321977272 4.321254909095898 324.0 6.0 190.0 
160.0003374459614 1175.0 NaN 1002.0173680694728 6.321254909095897 324.0 6.0 190.0 
162.0003374459614 1175.0 NaN 1002.0013360053455 8.321254909095899 324.0 6.0 190.0 
164.0003374459614 1167.0 NaN 1002.0307281229116 10.260970283788087 324.0 6.0 190.0 
166.0003374459614 1189.0 NaN 1011.481629926518 1.422666532860261 317.0 6.0 193.0 
168.0003374459614 1189.0 NaN 1005.1436205744816 3.422666532860262 317.0 6.0 191.0 
170.0003374459614 1189.0 NaN 989.7742150968611 5.42266653286026 317.0 6.0 186.0 
172.0003374459614 1189.0 NaN 986.6746826987302 7.422666532860262 315.0 6.0 185.0 
174.0003374459614 1189.0 NaN 986.6907147628574 9.422666532860262 315.0 6.0 185.0 
176.0003374459614 1166.0 NaN 989.9585838343365 5.691699740207556 308.0 6.0 186.0 
178.0003374459614 1183.0 NaN 992.8042752170999 2.3387866871636644 305.0 6.0 187.0 
180.0003374459614 1183.0 NaN 986.6185704742818 4.338786687163663 304.0 6.0 185.0 
182.0003374459614 1183.0 NaN 986.5624582498336 6.3387866871636644 304.0 6.0 185.0 
184.0003374459614 1183.0 NaN 986.5651302605208 8.338786687163664 304.0 6.0 185.0 
186.0003374459614 1168.0 NaN 983.5217100868396 10.237931439905461 301.0 6.0 184.0 
188.0003374459614 1168.0 NaN 986.7307949231817 1.6041342864647952 299.0 6.0 185.0 
190.0003374459614 1168.0 NaN 983.5617902471608 3.6041342864647956 299.0 6.0 184.0 
192.0003374459614 1168.0 NaN 968.1977287909152 5.604134286464796 298.0 6.0 179.0 
194.0003374459614 1168.0 NaN 968.1790247161003 7.604134286464795 298.0 6.0 179.0 
196.0003374459614 1168.0 NaN 965.1302605210423 9.604134286464795 297.0 6.0 178.0 
198.0003374459614 1132.0 NaN 965.2611890447547 5.669346294428529 293.0 6.0 178.0 
200.0003374459614 1151.0 NaN 968.227120908482 2.307252445468597 296.0 6.0 179.0 
202.0003374459614 1151.0 NaN 962.0307281229129 4.307252445468598 296.0 6.0 177.0 
204.0003374459614 1151.0 NaN 962.0307281229129 6.307252445468598 296.0 6.0 177.0 
206.0003374459614 1151.0 NaN 962.0387441549764 8.307252445468597 296.0 6.0 177.0 
208.0003374459614 1146.0 NaN 962.0494321977275 10.224837456503565 295.0 6.0 177.0 
210.0003374459614 1170.0 NaN 971.489645958582 1.5084495991564941 297.0 6.0 180.0 
212.0003374459614 1170.0 NaN 971.2625250501 3.5084495991564943 297.0 6.0 180.0 
214.0003374459614 1170.0 NaN 968.1870407481638 5.508449599156495 296.0 6.0 179.0 
216.0003374459614 1170.0 NaN 968.1977287909157 7.508449599156495 296.0 6.0 179.0 
218.0003374459614 1170.0 NaN 965.1195724782912 9.508449599156494 295.0 6.0 178.0 
220.0003374459614 1149.0 NaN 971.4228456913817 5.72751651286972 289.0 6.0 180.0 
222.0003374459614 1174.0 NaN 974.439545758182 2.469809793898786 293.0 6.0 181.0 
224.0003374459614 1174.0 NaN 971.3026052104215 4.469809793898786 291.0 6.0 180.0 
226.0003374459614 1174.0 NaN 968.2538410153635 6.469809793898788 290.0 6.0 179.0 
228.0003374459614 1174.0 NaN 968.2431529726125 8.469809793898786 290.0 6.0 179.0 
230.0003374459614 1158.0 NaN 968.2324649298599 10.308879978441919 288.0 6.0 179.0 
232.0003374459614 1174.0 NaN 980.7107548430183 1.5045347953326915 287.0 7.0 182.0 
234.0003374459614 1174.0 NaN 968.1950567802273 3.5045347953326917 285.0 7.0 178.0 
236.0003374459614 1174.0 NaN 955.9225116900458 5.504534795332692 283.0 7.0 174.0 
238.0003374459614 1174.0 NaN 955.9225116900458 7.504534795332691 283.0 7.0 174.0 
240.0003374459614 1174.0 NaN 949.776887107549 9.504534795332692 280.0 7.0 172.0 
242.0003374459614 1157.0 NaN 959.1663326653307 5.742814292832142 273.0 6.0 176.0 
244.0003374459614 1181.0 NaN 959.0728122912489 2.479849493802965 269.0 11.0 171.0 
246.0003374459614 1181.0 NaN 952.8603874415488 4.4798494938029645 269.0 11.0 169.0 
248.0003374459614 1181.0 NaN 952.8657314629271 6.479849493802962 269.0 11.0 169.0 
250.0003374459614 1181.0 NaN 952.8336673346691 8.479849493802963 268.0 11.0 169.0 
252.0003374459614 1165.0 NaN 952.847027388109 10.32894934333189 266.0 11.0 169.0 
254.0003374459614 1164.0 NaN 952.9378757515033 1.4141204972329684 268.0 6.0 174.0 
256.0003374459614 1164.0 NaN 952.8256513026057 3.4141204972329686 268.0 6.0 174.0 
258.0003374459614 1164.0 NaN 949.7501670006673 5.414120497232969 267.0 6.0 173.0 
260.0003374459614 1164.0 NaN 949.7287909151637 7.414120497232971 267.0 6.0 173.0 
262.0003374459614 1164.0 NaN 949.7394789579149 9.41412049723297 266.0 6.0 173.0 
264.0003374459614 1142.0 NaN 952.9752839011365 5.7379789284330425 266.0 6.0 174.0 
266.0003374459614 1164.0 NaN 955.9893119572486 2.550168999787556 269.0 6.0 175.0 
268.0003374459614 1164.0 NaN 952.8496993987973 4.550168999787557 269.0 6.0 174.0 
270.0003374459614 1164.0 NaN 952.8229792919184 6.550168999787556 269.0 6.0 174.0 
272.0003374459614 1164.0 NaN 952.825651302606 8.550168999787559 268.0 6.0 174.0 
274.0003374459614 1153.0 NaN 952.8309953239819 10.421885081773931 268.0 6.0 174.0 
276.0003374459614 1153.0 NaN 959.1556446225786 1.5727705618461778 271.0 6.0 176.0 
278.0003374459614 1153.0 NaN 959.00334001336 3.572770561846182 271.0 6.0 176.0 
280.0003374459614 1153.0 NaN 952.8443553774216 5.5727705618461805 270.0 6.0 174.0 
282.0003374459614 1153.0 NaN 952.8416833667328 7.572770561846177 270.0 6.0 174.0 
284.0003374459614 1153.0 NaN 952.8309953239819 9.572770561846182 269.0 6.0 174.0 
286.0003374459614 1117.0 NaN 956.0454241816966 5.812738264875784 271.0 6.0 175.0 
288.0003374459614 1130.0 NaN 968.2484969939878 2.554871936655728 274.0 6.0 179.0 
290.0003374459614 1130.0 NaN 955.8744154976634 4.55487193665573 272.0 6.0 175.0 
292.0003374459614 1130.0 NaN 952.8042752170999 6.554871936655729 271.0 6.0 174.0 
294.0003374459614 1130.0 NaN 952.812291249164 8.554871936655728 271.0 6.0 174.0 
296.0003374459614 1116.0 NaN 949.7661990647955 10.406182777069036 270.0 6.0 173.0 
298.0003374459614 1128.0 NaN 971.4682698730779 1.3189324089987955 273.0 6.0 180.0 
300.0003374459614 1128.0 NaN 968.1736806947229 3.3189324089987955 273.0 6.0 179.0 
302.0003374459614 1128.0 NaN 965.0794923179681 5.318932408998796 273.0 6.0 178.0 
304.0003374459614 1128.0 NaN 965.0981963927865 7.318932408998794 273.0 6.0 178.0 
306.0003374459614 1128.0 NaN 965.092852371409 9.318932408998794 273.0 6.0 178.0 
308.0003374459614 1121.0 NaN 965.1917167668685 5.678550680899518 269.0 6.0 178.0 
310.0003374459614 1139.0 NaN 965.1623246492998 2.4847973448194804 272.0 6.0 178.0 
312.0003374459614 1139.0 NaN 952.8069472277908 4.484797344819481 272.0 6.0 174.0 
314.0003374459614 1139.0 NaN 952.8203072812274 6.48479734481948 271.0 6.0 174.0 
316.0003374459614 1139.0 NaN 952.8042752170999 8.484797344819478 271.0 6.0 174.0 
318.0003374459614 1121.0 NaN 952.8229792919184 10.307206709859173 271.0 6.0 174.0 
320.0003374459614 1121.0 NaN 962.1402805611226 1.3235425084803378 276.0 6.0 177.0 
322.0003374459614 1121.0 NaN 958.9044756179043 3.323542508480338 276.0 6.0 176.0 
324.0003374459614 1121.0 NaN 958.9151636606546 5.323542508480338 276.0 6.0 176.0 
326.0003374459614 1121.0 NaN 955.8289913159639 7.323542508480338 275.0 6.0 175.0 
328.0003374459614 1121.0 NaN 955.8690714762864 9.323542508480338 275.0 6.0 175.0 
330.0003374459614 1112.0 NaN 959.0140280561133 5.6619012976181295 274.0 6.0 176.0 
332.0003374459614 1128.0 NaN 962.0547762191046 2.408183518064982 274.0 6.0 177.0 
334.0003374459614 1128.0 NaN 952.7989311957233 4.408183518064983 273.0 6.0 174.0 
336.0003374459614 1128.0 NaN 952.7722110888456 6.408183518064982 273.0 6.0 174.0 
338.0003374459614 1128.0 NaN 952.7989311957233 8.408183518064982 273.0 6.0 174.0 
340.0003374459614 1117.0 NaN 952.7722110888456 10.271198010218114 272.0 6.0 174.0 
342.0003374459614 1131.0 NaN 962.1937207748825 1.5386212383737563 277.0 6.0 177.0 
344.0003374459614 1131.0 NaN 958.9766199064809 3.538621238373756 276.0 6.0 176.0 
346.0003374459614 1131.0 NaN 949.7608550434194 5.538621238373756 275.0 6.0 173.0 
348.0003374459614 1131.0 NaN 949.782231128924 7.538621238373755 275.0 6.0 173.0 
350.0003374459614 1131.0 NaN 949.7501670006683 9.538621238373755 275.0 6.0 173.0 
352.0003374459614 1094.0 NaN 956.0774883099535 5.774107684708122 274.0 6.0 175.0 
354.0003374459614 1104.0 NaN 955.8450233800944 2.5189572414545243 275.0 6.0 175.0 
356.0003374459614 1104.0 NaN 946.58116232465 4.518957241454524 274.0 6.0 172.0 
358.0003374459614 1104.0 NaN 946.5918503674012 6.518957241454527 274.0 6.0 172.0 
360.0003374459614 1104.0 NaN 946.5490981963923 8.518957241454528 274.0 6.0 172.0 
362.0003374459614 1089.0 NaN 946.5437541750169 10.344171738102311 272.0 6.0 172.0 
364.0003374459614 1094.0 NaN 959.046092184368 1.4766562399460874 275.0 6.0 176.0 
366.0003374459614 1094.0 NaN 958.8991315965274 3.476656239946088 275.0 6.0 176.0 
368.0003374459614 1094.0 NaN 952.7615230460913 5.476656239946088 274.0 6.0 174.0 
370.0003374459614 1094.0 NaN 949.66466265865 7.476656239946085 272.0 6.0 173.0 
372.0003374459614 1094.0 NaN 949.6673346693401 9.476656239946085 272.0 6.0 173.0 
374.0003374459614 1080.0 NaN 949.7795591182363 5.639029151131645 270.0 6.0 173.0 
376.0003374459614 1101.0 NaN 949.7528390113551 2.2772806662685308 274.0 6.0 173.0 
378.0003374459614 1101.0 NaN 928.1603206412817 4.27728066626853 273.0 6.0 166.0 
380.0003374459614 1101.0 NaN 925.076820307282 6.277280666268529 273.0 6.0 165.0 
382.0003374459614 1101.0 NaN 925.0955243820966 8.277280666268531 273.0 6.0 165.0 
384.0003374459614 1095.0 NaN 925.0955243820966 10.223713818729772 273.0 6.0 165.0 
386.0003374459614 1111.0 NaN 937.5497661990634 1.5290841787848228 266.0 6.0 169.0 
388.0003374459614 1111.0 NaN 937.4161656646638 3.5290841787848226 266.0 6.0 169.0 
390.0003374459614 1111.0 NaN 925.1008684034726 5.5290841787848235 266.0 6.0 165.0 
392.0003374459614 1111.0 NaN 925.0848363393454 7.5290841787848235 266.0 6.0 165.0 
394.0003374459614 1111.0 NaN 925.090180360722 9.529084178784823 266.0 6.0 165.0 
396.0003374459614 1097.0 NaN 925.1703406813638 5.835371625084399 264.0 6.0 165.0 
398.0003374459614 1117.0 NaN 937.5577822311275 2.5441601673489744 263.0 6.0 169.0 
400.0003374459614 1117.0 NaN 931.2892451569815 4.5441601673489735 262.0 6.0 167.0 
402.0003374459614 1117.0 NaN 931.3106212424856 6.544160167348977 262.0 6.0 167.0 
404.0003374459614 1117.0 NaN 931.3239812959271 8.544160167348974 262.0 6.0 167.0 
406.0003374459614 1103.0 NaN 931.3373413493639 10.429115494899673 261.0 6.0 167.0 
408.0003374459614 1112.0 NaN 931.4068136272546 1.5173209656814455 264.0 6.0 167.0 
410.0003374459614 1112.0 NaN 928.2110888443543 3.5173209656814466 264.0 6.0 166.0 
412.0003374459614 1112.0 NaN 915.9412157648638 5.517320965681446 264.0 6.0 162.0 
414.0003374459614 1112.0 NaN 912.8550434201725 7.517320965681447 262.0 6.0 161.0 
416.0003374459614 1112.0 NaN 909.7902471609909 9.517320965681446 261.0 6.0 160.0 
418.0003374459614 1094.0 NaN 919.1690046760181 5.706699661671161 261.0 6.0 163.0 
420.0003374459614 1111.0 NaN 922.1322645290576 2.4548584837280436 265.0 6.0 164.0 
422.0003374459614 1111.0 NaN 919.014028056112 4.454858483728044 264.0 6.0 163.0 
424.0003374459614 1111.0 NaN 919.014028056112 6.454858483728046 262.0 6.0 163.0 
426.0003374459614 1111.0 NaN 918.9819639278543 8.454858483728044 262.0 6.0 163.0 
428.0003374459614 1099.0 NaN 915.9331997328003 10.33187657684639 261.0 6.0 162.0 
430.0003374459614 1105.0 NaN 922.2044088176366 1.576238208950877 258.0 6.0 164.0 
432.0003374459614 1105.0 NaN 922.0627922511692 3.576238208950881 257.0 6.0 164.0 
434.0003374459614 1105.0 NaN 922.076152304609 5.576238208950878 257.0 6.0 164.0 
436.0003374459614 1105.0 NaN 918.9846359385454 7.576238208950879 256.0 6.0 163.0 
438.0003374459614 1105.0 NaN 919.0086840347365 9.576238208950878 256.0 6.0 163.0 
440.0003374459614 1084.0 NaN 934.4876419505666 5.711124777923526 259.0 6.0 168.0 
442.0003374459614 1117.0 NaN 946.6720106880426 2.37863161717868 260.0 6.0 172.0 
444.0003374459614 1117.0 NaN 937.4402137608544 4.37863161717868 258.0 6.0 169.0 
446.0003374459614 1117.0 NaN 937.4268537074151 6.37863161717868 258.0 6.0 169.0 
448.0003374459614 1117.0 NaN 934.378089512358 8.37863161717868 257.0 6.0 168.0 
450.0003374459614 1107.0 NaN 934.367401469606 10.240420681386404 256.0 6.0 168.0 
452.0003374459614 1145.0 NaN 943.7060788243153 1.3806221683851512 262.0 6.0 171.0 
454.0003374459614 1145.0 NaN 943.5804943219789 3.380622168385151 262.0 6.0 171.0 
456.0003374459614 1145.0 NaN 937.4402137608544 5.380622168385151 262.0 6.0 169.0 
458.0003374459614 1145.0 NaN 934.3700734802944 7.380622168385151 261.0 6.0 168.0 
460.0003374459614 1145.0 NaN 934.3700734802944 9.380622168385152 261.0 6.0 168.0 
462.0003374459614 1116.0 NaN 934.4475617902458 5.839709474304946 265.0 6.0 168.0 
464.0003374459614 1136.0 NaN 937.4669338677365 2.537157785767004 265.0 6.0 169.0 
466.0003374459614 1136.0 NaN 928.1950567802273 4.537157785767008 264.0 6.0 166.0 
468.0003374459614 1136.0 NaN 928.2164328657311 6.537157785767005 264.0 6.0 166.0 
470.0003374459614 1136.0 NaN 928.1897127588506 8.537157785767006 263.0 6.0 166.0 
472.0003374459614 1117.0 NaN 925.1302605210417 10.396585233231976 261.0 6.0 165.0 
474.0003374459614 1102.0 NaN 928.2832331329321 1.4782809722334553 261.0 7.0 165.0 
476.0003374459614 1102.0 NaN 928.2030728122908 3.4782809722334553 261.0 7.0 165.0 
478.0003374459614 1102.0 NaN 925.1142284569138 5.478280972233456 261.0 7.0 164.0 
480.0003374459614 1102.0 NaN 922.0280561122235 7.478280972233457 261.0 7.0 163.0 
482.0003374459614 1102.0 NaN 922.0066800267186 9.47828097223346 260.0 7.0 163.0 
484.0003374459614 1079.0 NaN 922.1402805611226 5.823678009373819 259.0 9.0 161.0 
486.0003374459614 1099.0 NaN 928.2191048764184 2.5489734708431633 258.0 9.0 163.0 
488.0003374459614 1099.0 NaN 925.0901803607222 4.548973470843163 258.0 8.0 163.0 
490.0003374459614 1099.0 NaN 925.0420841683363 6.548973470843162 258.0 8.0 163.0 
492.0003374459614 1099.0 NaN 925.0607882431542 8.548973470843162 257.0 9.0 162.0 
494.0003374459614 1087.0 NaN 921.9933199732815 10.383934537605679 255.0 8.0 162.0 
496.0003374459614 1085.0 NaN 925.1810287241142 1.375376408789783 257.0 11.0 160.0 
498.0003374459614 1085.0 NaN 922.0334001335998 3.375376408789784 257.0 11.0 159.0 
500.0003374459614 1085.0 NaN 915.8824315297275 5.375376408789783 256.0 11.0 157.0 
502.0003374459614 1085.0 NaN 912.833667334668 7.375376408789783 255.0 11.0 156.0 
504.0003374459614 1085.0 NaN 912.8229792919183 9.375376408789782 254.0 11.0 156.0 
506.0003374459614 1075.0 NaN 916.0668002671998 5.68942906372301 253.0 12.0 156.0 
508.0003374459614 1098.0 NaN 915.9599198396778 2.4588984933145794 259.0 8.0 160.0 
510.0003374459614 1098.0 NaN 906.6746826987319 4.458898493314581 258.0 8.0 157.0 
512.0003374459613 1098.0 NaN 906.6907147628591 6.458898493314581 258.0 8.0 157.0 
514.0003374459613 1098.0 NaN 906.6800267201087 8.458898493314582 258.0 8.0 157.0 
516.0003374459613 1092.0 NaN 906.6773547094181 10.370763913188096 257.0 8.0 157.0 
518.0003374459613 1088.0 NaN 912.9699398797592 1.509956414124236 255.0 6.0 161.0 
520.0003374459613 1088.0 NaN 912.8390113560454 3.509956414124237 255.0 6.0 161.0 
522.0003374459613 1088.0 NaN 894.4261857047419 5.509956414124235 254.0 6.0 155.0 
524.0003374459613 1088.0 NaN 894.4261857047419 7.509956414124236 252.0 6.0 155.0 
526.0003374459613 1088.0 NaN 891.3453573814285 9.509956414124238 251.0 6.0 154.0 
528.0003374459613 1060.0 NaN 891.4415497662 5.8120639085932435 250.0 6.0 154.0 
530.0003374459613 1076.0 NaN 894.5090180360729 2.5434973737285254 250.0 6.0 155.0 
532.0003374459613 1076.0 NaN 888.2832331329319 4.543497373728527 250.0 6.0 153.0 
534.0003374459613 1076.0 NaN 885.2264529058118 6.5434973737285285 249.0 6.0 152.0 
536.0003374459613 1076.0 NaN 885.215764863059 8.543497373728528 249.0 6.0 152.0 
538.0003374459613 1063.0 NaN 885.2558450233801 10.423795439892633 248.0 6.0 152.0 
540.0003374459613 1078.0 NaN 906.9098196392783 1.368417380828035 251.0 6.0 159.0 
542.0003374459613 1078.0 NaN 903.6553106212423 3.3684173808280344 251.0 6.0 158.0 
544.0003374459613 1078.0 NaN 888.3046092184363 5.368417380828036 251.0 6.0 153.0 
546.0003374459613 1078.0 NaN 885.2237808951231 7.368417380828036 251.0 6.0 152.0 
548.0003374459613 1078.0 NaN 885.2264529058117 9.368417380828033 251.0 6.0 152.0 
550.0003374459613 1071.0 NaN 894.5303941215772 5.795499688503282 251.0 6.0 155.0 
552.0003374459613 1089.0 NaN 900.6359385437545 2.4650690892205476 250.0 6.0 157.0 
554.0003374459613 1089.0 NaN 897.5070140280561 4.465069089220549 249.0 6.0 156.0 
556.0003374459613 1089.0 NaN 897.4989979959911 6.465069089220548 249.0 6.0 156.0 
558.0003374459613 1089.0 NaN 897.5016700066801 8.465069089220547 248.0 6.0 156.0 
560.0003374459613 1079.0 NaN 897.509686038744 10.342483825391488 248.0 6.0 156.0 
562.0003374459613 1090.0 NaN 903.8236472945895 1.6116710881534775 249.0 6.0 158.0 
564.0003374459613 1090.0 NaN 903.7034068136272 3.6116710881534777 249.0 6.0 158.0 
566.0003374459613 1090.0 NaN 900.6118904475622 5.611671088153479 249.0 6.0 157.0 
568.0003374459613 1090.0 NaN 900.6225784903136 7.611671088153479 249.0 6.0 157.0 
570.0003374459613 1090.0 NaN 900.6252505010016 9.611671088153479 249.0 6.0 157.0 
572.0003374459613 1075.0 NaN 906.9285237140956 5.723865780021188 251.0 6.0 159.0 
574.0003374459613 1106.0 NaN 913.0420841683363 2.467132922560742 251.0 6.0 161.0 
576.0003374459613 1106.0 NaN 909.8383433533727 4.467132922560741 250.0 6.0 160.0 
578.0003374459613 1106.0 NaN 909.8623914495649 6.467132922560741 250.0 6.0 160.0 
580.0003374459613 1106.0 NaN 909.8196392785578 8.467132922560742 250.0 6.0 160.0 
582.0003374459613 1090.0 NaN 909.8036072144284 10.347397271673227 250.0 6.0 160.0 
584.0003374459613 1120.0 NaN 916.2004008016036 1.618111899735686 260.0 6.0 162.0 
586.0003374459613 1120.0 NaN 912.9084836339352 3.618111899735687 259.0 6.0 161.0 
588.0003374459613 1120.0 NaN 897.6112224448908 5.618111899735684 258.0 6.0 156.0 
590.0003374459613 1120.0 NaN 897.584502338009 7.618111899735686 258.0 6.0 156.0 
592.0003374459613 1120.0 NaN 897.5871743486971 9.618111899735684 258.0 6.0 156.0 
594.0003374459613 1084.0 NaN 909.985303941215 5.786883213735714 259.0 6.0 160.0 
596.0003374459613 1105.0 NaN 912.9859719438873 2.5698892678496628 262.0 6.0 161.0 
598.0003374459613 1105.0 NaN 912.9084836339354 4.569889267849663 261.0 6.0 161.0 
600.0003374459613 1105.0 NaN 912.8871075484309 6.569889267849663 261.0 6.0 161.0 
602.0003374459613 1105.0 NaN 912.8550434201728 8.569889267849662 261.0 6.0 161.0 
604.0003374459613 1089.0 NaN 906.7388109552442 10.386355470878827 258.0 6.0 159.0 
606.0003374459613 1097.0 NaN 916.1469605878417 1.6011651332001333 258.0 6.0 162.0 
608.0003374459613 1097.0 NaN 916.0133600534409 3.601165133200131 258.0 6.0 162.0 
610.0003374459613 1097.0 NaN 909.7849031396137 5.601165133200132 258.0 6.0 160.0 
612.0003374459613 1097.0 NaN 909.7768871075492 7.601165133200131 258.0 6.0 160.0 
614.0003374459613 1097.0 NaN 909.7822311289236 9.601165133200134 258.0 6.0 160.0 
616.0003374459613 1076.0 NaN 922.1883767535085 5.656292173528957 259.0 6.0 164.0 
618.0003374459613 1110.0 NaN 931.4923179692728 2.4280252093017114 263.0 6.0 167.0 
620.0003374459613 1110.0 NaN 922.0788243152963 4.428025209301711 263.0 6.0 164.0 
622.0003374459613 1110.0 NaN 912.8710754843007 6.42802520930171 261.0 6.0 161.0 
624.0003374459613 1110.0 NaN 909.8009352037409 8.428025209301712 261.0 6.0 160.0 
626.0003374459613 1102.0 NaN 909.8062792251174 10.320049383737949 261.0 6.0 160.0 
628.0003374459613 1148.0 NaN 940.7935871743492 1.5591892779934438 267.0 6.0 170.0 
630.0003374459613 1148.0 NaN 940.6145624582496 3.559189277993444 267.0 6.0 170.0 
632.0003374459613 1148.0 NaN 934.4288577154315 5.559189277993444 266.0 6.0 168.0 
634.0003374459613 1148.0 NaN 928.3072812291233 7.559189277993444 264.0 6.0 166.0 
636.0003374459613 1148.0 NaN 928.2778891115547 9.55918927799344 264.0 6.0 166.0 
638.0003374459613 1117.0 NaN 943.8209752838998 5.832231108866103 265.0 6.0 171.0 
640.0003374459613 1160.0 NaN 946.8109552438221 2.819435876332202 263.0 6.0 172.0 
642.0003374459613 1160.0 NaN 946.7094188376767 4.819435876332202 263.0 6.0 172.0 
644.0003374459613 1160.0 NaN 946.7040748163001 6.819435876332202 263.0 6.0 172.0 
646.0003374459613 1160.0 NaN 946.6960587842362 8.819435876332202 263.0 6.0 172.0 
648.0003374459613 1143.0 NaN 943.6793587174362 10.679787205063668 263.0 6.0 171.0 
650.0003374459613 1148.0 NaN 962.3246492985969 1.6907009273385525 266.0 6.0 177.0 
652.0003374459613 1148.0 NaN 962.1349365397452 3.6907009273385545 266.0 6.0 177.0 
654.0003374459613 1148.0 NaN 959.0167000667999 5.690700927338555 266.0 6.0 176.0 
656.0003374459613 1148.0 NaN 958.9899799599183 7.690700927338553 266.0 6.0 176.0 
658.0003374459613 1148.0 NaN 959.0247160988635 9.690700927338552 266.0 6.0 176.0 
660.0003374459613 1113.0 NaN 968.3500334001336 5.671533694400168 272.0 6.0 179.0 
662.0003374459613 1151.0 NaN 977.5257181028728 2.6140420529176245 274.0 6.0 182.0 
664.0003374459613 1151.0 NaN 974.3593854375428 4.614042052917626 274.0 6.0 181.0 
#####################################################################
# End of data export. Simulation finished at: 2019-03-20T18:33+0000 #
#####################################################################
