#####################################################################
# Alchemist log file - simulation started at: 2019-03-02T19:01+0000 #
#####################################################################
# seed = 0.0, bandwidth = 1.0E8, propagationDelay = 3.1622776601683795, baserange = 17.78279410038923
#
# The columns have the following meaning: 
# time neighbor_count[Sum] <value>@neighbor_count[Sum] packet_size[Mean] mean_delay[Mean] crowd[Sum] overcrowded[Sum] risk[Sum] 
0.0 NaN NaN NaN NaN NaN NaN NaN 
10.000405536260626 1119.0 NaN 4992.772211088844 1.8476841350555635 1497.0 0.0 1497.0 
20.000405536260626 1117.0 NaN 4990.899131596527 2.4615408018571614 1495.0 2.0 1495.0 
30.000405536260626 1119.0 NaN 4991.3720774883095 1.8466720963058496 1490.0 7.0 1490.0 
40.00040553626063 1130.0 NaN 4990.971275885104 2.4458135293165295 1490.0 7.0 1490.0 
50.00040553626063 1143.0 NaN 4990.864395457582 1.8780461854454118 1490.0 7.0 1490.0 
60.00040553626063 1136.0 NaN 4988.064128256513 2.473260913933498 1489.0 7.0 1489.0 
70.00040553626063 1127.0 NaN 986.6078824315285 1.8806082345524422 469.0 6.0 185.0 
80.00040553626063 1128.0 NaN 983.5377421509714 2.461439496847272 368.0 6.0 184.0 
90.00040553626063 1123.0 NaN 989.7207748831003 1.8853354420872608 331.0 6.0 186.0 
100.00040553626063 1118.0 NaN 992.7909151636619 2.4649056445056514 316.0 6.0 187.0 
110.00040553626063 1119.0 NaN 998.8136272545091 1.877820344816482 300.0 6.0 189.0 
120.00040553626063 1096.0 NaN 998.8590514362078 2.4508376498423194 288.0 6.0 189.0 
130.00040553626064 1121.0 NaN 986.6533066132275 1.904878675236188 285.0 6.0 185.0 
140.00040553626064 1120.0 NaN 995.9091516366067 2.455360543885174 277.0 6.0 188.0 
150.00040553626064 1149.0 NaN 989.8784235136934 1.8585016349486383 281.0 6.0 186.0 
160.00040553626064 1157.0 NaN 989.7795591182363 2.4577534907117324 280.0 6.0 186.0 
170.00040553626064 1158.0 NaN 989.7715430861729 1.8896901255492202 282.0 6.0 186.0 
180.00040553626064 1129.0 NaN 980.5370741482969 2.4402713362346646 279.0 6.0 183.0 
190.00040553626064 1142.0 NaN 983.5644622578484 1.9423425603312354 279.0 6.0 184.0 
200.00040553626064 1137.0 NaN 986.6452905811635 2.441108670740798 282.0 6.0 185.0 
210.00040553626064 1155.0 NaN 986.7094188376747 1.9120933550094104 278.0 6.0 185.0 
220.00040553626064 1149.0 NaN 986.6506346025365 2.428881145126324 273.0 6.0 185.0 
230.00040553626064 1156.0 NaN 977.4909819639271 1.9281952435637486 281.0 6.0 182.0 
240.00040553626064 1146.0 NaN 971.3319973279908 2.3995829989900015 273.0 6.0 180.0 
250.00040553626064 1143.0 NaN 965.1756847027386 1.8945181314162307 263.0 6.0 178.0 
260.00040553626064 1122.0 NaN 962.0253841015362 2.4261376892495266 265.0 6.0 177.0 
270.00040553626064 1127.0 NaN 955.9305277221092 1.9331928387565418 264.0 6.0 175.0 
280.00040553626064 1113.0 NaN 971.1609886439546 2.3938453154044557 270.0 6.0 180.0 
290.00040553626064 1099.0 NaN 962.0253841015362 1.8959624305297071 268.0 6.0 177.0 
300.00040553626064 1100.0 NaN 971.3213092852362 2.3831750000809846 272.0 6.0 180.0 
310.00040553626064 1092.0 NaN 955.9305277221091 1.890620111309046 272.0 6.0 175.0 
320.00040553626064 1099.0 NaN 958.9205076820319 2.374823443676048 271.0 6.0 176.0 
330.00040553626064 1116.0 NaN 965.1249164996674 1.9339953429235914 273.0 6.0 178.0 
340.00040553626064 1100.0 NaN 962.036072144287 2.4210584581580346 273.0 6.0 177.0 
350.00040553626064 1085.0 NaN 952.7187708750827 1.9587027399509431 275.0 6.0 174.0 
360.00040553626064 1062.0 NaN 946.6158984635949 2.413564065405884 269.0 6.0 172.0 
370.00040553626064 1071.0 NaN 937.3921175684688 1.8715876855283913 264.0 6.0 169.0 
380.00040553626064 1069.0 NaN 937.4188376753502 2.4374474345752954 269.0 6.0 169.0 
390.00040553626064 1077.0 NaN 928.2698730794915 1.8800131430693923 256.0 6.0 166.0 
400.00040553626064 1074.0 NaN 922.1429525718095 2.4448513181845524 257.0 6.0 164.0 
410.00040553626064 1098.0 NaN 916.0641282565128 1.925107413280057 256.0 6.0 162.0 
420.00040553626064 1083.0 NaN 928.3366733466937 2.4372273751679066 256.0 6.0 166.0 
430.00040553626064 1087.0 NaN 925.1356045424182 1.9035565923254434 251.0 6.0 165.0 
440.00040553626064 1076.0 NaN 928.2511690046765 2.4148311829506874 251.0 6.0 166.0 
450.00040553626064 1109.0 NaN 943.5911823647275 1.9254788308774453 253.0 6.0 171.0 
460.00040553626064 1094.0 NaN 931.2919171676685 2.454414443534435 249.0 6.0 167.0 
470.00040553626064 1096.0 NaN 925.1356045424182 1.954417033673892 242.0 14.0 157.0 
480.00040553626064 1065.0 NaN 922.0440881763542 2.429808066315279 235.0 18.0 152.0 
490.00040553626064 1072.0 NaN 922.1910487641953 1.890191601812698 245.0 8.0 162.0 
500.00040553626064 1061.0 NaN 915.9652638610544 2.4349563042375615 249.0 6.0 162.0 
510.00040553626064 1071.0 NaN 906.7174348697401 1.8989192170868505 247.0 6.0 159.0 
520.0004055362606 1052.0 NaN 900.601202404809 2.416416596314603 244.0 6.0 157.0 
530.0004055362606 1053.0 NaN 885.2505010020047 1.9009602985370073 240.0 6.0 152.0 
540.0004055362606 1041.0 NaN 875.9893119572481 2.40261493858466 240.0 6.0 149.0 
550.0004055362606 1056.0 NaN 876.077488309953 1.873045988195155 240.0 6.0 149.0 
560.0004055362606 1053.0 NaN 885.3066132264529 2.419167060586147 250.0 6.0 152.0 
570.0004055362606 1063.0 NaN 894.5891783567137 1.9289917641377514 246.0 6.0 155.0 
580.0004055362606 1062.0 NaN 894.565130260521 2.4508027686261604 246.0 6.0 155.0 
590.0004055362606 1067.0 NaN 891.4308617234468 1.9127729208469884 248.0 6.0 154.0 
600.0004055362606 1066.0 NaN 903.6579826319308 2.4112938118651885 249.0 6.0 158.0 
610.0004055362606 1083.0 NaN 915.9706078824319 1.9250417600102767 250.0 6.0 162.0 
620.0004055362606 1089.0 NaN 925.3146292585184 2.41232036746036 260.0 6.0 165.0 
630.0004055362606 1086.0 NaN 934.506346025382 1.9079746485554823 260.0 6.0 168.0 
640.0004055362606 1109.0 NaN 959.1048764195056 2.3798128521016535 258.0 11.0 171.0 
650.0004055362606 1127.0 NaN 971.3747494989999 1.975430485615798 268.0 7.0 179.0 
660.0004055362606 1088.0 NaN 980.5023380093518 2.4054722621262927 272.0 6.0 183.0 
#####################################################################
# End of data export. Simulation finished at: 2019-03-02T19:06+0000 #
#####################################################################
