#####################################################################
# Alchemist log file - simulation started at: 2019-03-10T16:27+0000 #
#####################################################################
# seed = 2.0, bandwidth = 2.3713737056616552E7, propagationDelay = 1.0, baserange = 1000.0
#
# The columns have the following meaning: 
# time neighbor_count[Sum] <value>@neighbor_count[Sum] packet_size[Mean] mean_delay[Mean] crowd[Sum] overcrowded[Sum] risk[Sum] 
0.0 NaN NaN NaN NaN NaN NaN NaN 
2.0005829790527505 104996.0 NaN 4989.197060788243 0.24793219317490192 1497.0 0.0 1497.0 
4.0005829790527505 210022.0 NaN 4994.527722110888 0.9990383591099207 1497.0 0.0 1497.0 
6.0005829790527505 210022.0 NaN 4993.9612558450235 0.9990383272312837 1497.0 0.0 1497.0 
8.000582979052751 210022.0 NaN 4993.9719438877755 0.9990383640127551 1496.0 1.0 1496.0 
10.000582979052751 210024.0 NaN 4993.9719438877755 0.9990378638873492 1496.0 1.0 1496.0 
12.000582979052751 210032.0 NaN 4993.9719438877755 0.9990500299699929 1496.0 1.0 1496.0 
14.000582979052751 210033.0 NaN 4993.9719438877755 0.9990476002498887 1496.0 1.0 1496.0 
16.00058297905275 210045.0 NaN 4993.9559118236475 0.9990147887534105 1496.0 1.0 1496.0 
18.00058297905275 210061.0 NaN 4993.9585838343355 0.999206842301755 1496.0 1.0 1496.0 
20.00058297905275 210064.0 NaN 4993.9585838343355 0.9991059987752237 1496.0 1.0 1496.0 
22.00058297905275 210066.0 NaN 4993.9585838343355 0.9990912065502003 1496.0 1.0 1496.0 
24.00058297905275 210072.0 NaN 4993.9585838343355 0.9990862601258431 1496.0 1.0 1496.0 
26.00058297905275 210084.0 NaN 4993.9585838343355 0.998950709319203 1496.0 1.0 1496.0 
28.00058297905275 210114.0 NaN 4993.9425517702075 0.9992177983052638 1496.0 1.0 1496.0 
30.00058297905275 210121.0 NaN 4993.9452237808955 0.9988881079619749 1496.0 1.0 1496.0 
32.00058297905275 210162.0 NaN 4993.9692718770875 0.9991793177661796 1496.0 1.0 1496.0 
34.00058297905275 210144.0 NaN 4993.9959919839675 0.9988814769711141 1496.0 1.0 1496.0 
36.00058297905275 210150.0 NaN 4993.9959919839675 0.9988239892529276 1496.0 1.0 1496.0 
38.00058297905275 210188.0 NaN 4993.9799599198395 0.9990366583151288 1496.0 1.0 1496.0 
40.00058297905275 210208.0 NaN 4993.9799599198395 0.9989726013592948 1496.0 1.0 1496.0 
42.00058297905275 210240.0 NaN 4993.9959919839675 0.9989205785648028 1496.0 1.0 1496.0 
44.00058297905275 210283.0 NaN 4993.9959919839675 0.9990194931514409 1496.0 1.0 1496.0 
46.00058297905275 210282.0 NaN 4993.9959919839675 0.9989235455540195 1496.0 1.0 1496.0 
48.00058297905275 210302.0 NaN 4993.9959919839675 0.9992783895930737 1496.0 1.0 1496.0 
50.00058297905275 210297.0 NaN 4993.9826319305275 0.9992005229486749 1496.0 1.0 1496.0 
52.00058297905275 210324.0 NaN 4993.9879759519035 0.9989492192121504 1496.0 1.0 1496.0 
54.00058297905275 210364.0 NaN 4993.9746158984635 0.9993326763433354 1496.0 1.0 1496.0 
56.00058297905275 210366.0 NaN 4993.9799599198395 0.9990837486831395 1496.0 1.0 1496.0 
58.00058297905275 210391.0 NaN 4993.9933199732795 0.9993735241253427 1496.0 1.0 1496.0 
60.00058297905275 210352.0 NaN 4990.939211756847 0.9991540384324492 1495.0 1.0 1495.0 
62.00058297905275 210344.0 NaN 1518.8857715430852 0.9988846239764111 782.0 0.0 364.0 
64.00058297905275 210340.0 NaN 1521.8784235136936 0.9988420189312367 661.0 1.0 364.0 
66.00058297905275 210338.0 NaN 1521.8249832999338 0.9988647421834783 598.0 2.0 363.0 
68.00058297905275 210347.0 NaN 1521.8249832999338 0.999366148460301 566.0 1.0 364.0 
70.00058297905275 210303.0 NaN 1521.8249832999338 0.9989550209676462 550.0 1.0 364.0 
72.00058297905275 210318.0 NaN 1521.8249832999338 0.9990736341555951 538.0 1.0 364.0 
74.00058297905275 210296.0 NaN 1527.9893119572478 0.9988575527575746 534.0 1.0 366.0 
76.00058297905275 210295.0 NaN 1527.9786239144967 0.998769878710254 534.0 1.0 366.0 
78.00058297905275 210310.0 NaN 1527.9786239144967 0.9989172683199594 533.0 1.0 366.0 
80.00058297905275 210331.0 NaN 1531.0621242484974 0.9988799382249518 531.0 1.0 367.0 
82.00058297905275 210345.0 NaN 1531.0460921843699 0.9988211223884539 530.0 1.0 367.0 
84.00058297905275 210346.0 NaN 1534.126920507682 0.9987080811596052 530.0 1.0 368.0 
86.00058297905275 210349.0 NaN 1534.126920507682 0.9988851651699158 529.0 1.0 368.0 
88.00058297905275 210366.0 NaN 1534.1108884435546 0.9988171251805161 529.0 1.0 368.0 
90.00058297905275 210416.0 NaN 1534.1055444221788 0.9988671409350263 529.0 1.0 368.0 
92.00058297905275 210436.0 NaN 1534.1002004008003 0.9987464646201457 529.0 1.0 368.0 
94.00058297905275 210445.0 NaN 1534.1002004008003 0.9988129089067466 527.0 1.0 368.0 
96.00058297905275 210435.0 NaN 1534.097528390112 0.9987130429034311 527.0 1.0 368.0 
98.00058297905275 210454.0 NaN 1534.1082164328639 0.9987880600701826 527.0 1.0 368.0 
100.00058297905275 210542.0 NaN 1534.1082164328639 0.998738296356259 527.0 1.0 368.0 
102.00058297905275 210613.0 NaN 1537.1943887775544 0.9987634073028683 527.0 1.0 369.0 
104.00058297905275 210618.0 NaN 1537.1890447561793 0.9987966331906019 527.0 1.0 369.0 
106.00058297905275 210602.0 NaN 1537.1890447561793 0.9987645348622566 526.0 1.0 369.0 
108.00058297905275 210604.0 NaN 1540.2698730794912 0.9988063287758266 527.0 1.0 370.0 
110.00058297905275 210635.0 NaN 1540.2538410153636 0.9988007339685309 527.0 1.0 370.0 
112.00058297905275 210662.0 NaN 1540.2511690046754 0.9988079423381723 527.0 1.0 370.0 
114.00058297905275 210666.0 NaN 1540.2458249832998 0.9989944295415462 527.0 1.0 370.0 
116.00058297905275 210648.0 NaN 1543.3266533066121 0.9988765619101108 529.0 1.0 371.0 
118.00058297905275 210652.0 NaN 1549.4722778891114 0.9988347325760406 529.0 1.0 373.0 
120.00058297905275 210650.0 NaN 1546.4208416833662 0.9987931939341336 529.0 1.0 372.0 
122.00058297905275 210645.0 NaN 1546.4128256513027 0.9986952822926835 529.0 1.0 372.0 
124.00058297905275 210652.0 NaN 1546.4074816299274 0.9988549635606425 529.0 1.0 372.0 
126.00058297905275 210648.0 NaN 1546.4288577154302 0.998747611455974 529.0 1.0 372.0 
128.00058297905275 210651.0 NaN 1546.434201736809 0.9988144388221132 529.0 1.0 372.0 
130.00058297905275 210642.0 NaN 1546.4235136940545 0.9988317656891598 529.0 1.0 372.0 
132.00058297905275 210640.0 NaN 1543.3480293921184 0.9987463070293287 529.0 1.0 371.0 
134.00058297905275 210678.0 NaN 1543.3453573814272 0.9988989416338783 529.0 1.0 371.0 
136.00058297905275 210682.0 NaN 1546.4208416833665 0.998925128435682 529.0 1.0 372.0 
138.00058297905275 210695.0 NaN 1543.3400133600549 0.9987789813788311 526.0 1.0 371.0 
140.00058297905275 210691.0 NaN 1546.4395457581818 0.9987749597771926 523.0 1.0 372.0 
142.00058297905275 210685.0 NaN 1549.5257181028728 0.9987165427488671 522.0 1.0 373.0 
144.00058297905275 210701.0 NaN 1549.5283901135608 0.9987639276004012 522.0 1.0 373.0 
146.00058297905275 210711.0 NaN 1549.5337341349364 0.9987630796464374 521.0 1.0 373.0 
148.00058297905275 210720.0 NaN 1546.4876419505667 0.9987190858925915 524.0 1.0 372.0 
150.00058297905275 210712.0 NaN 1543.350701402806 0.9987594535180818 524.0 1.0 371.0 
152.00058297905275 210701.0 NaN 1540.3019372077486 0.9986303320740867 521.0 1.0 370.0 
154.00058297905275 210726.0 NaN 1540.2965931863728 0.9988294718807011 519.0 1.0 370.0 
156.00058297905275 210723.0 NaN 1540.291249164997 0.9986594698621437 516.0 1.0 370.0 
158.00058297905275 210738.0 NaN 1540.291249164997 0.9989205696753375 518.0 1.0 370.0 
160.00058297905275 210718.0 NaN 1540.291249164997 0.9986710436404821 520.0 1.0 370.0 
162.00058297905275 210714.0 NaN 1540.291249164997 0.9986727943499895 521.0 1.0 370.0 
164.00058297905275 210724.0 NaN 1543.3694054776213 0.9987092693957353 520.0 1.0 371.0 
166.00058297905275 210724.0 NaN 1543.3640614562453 0.9988760881132256 521.0 1.0 371.0 
168.00058297905275 210732.0 NaN 1549.5257181028728 0.9987809918223696 521.0 1.0 373.0 
170.00058297905275 210708.0 NaN 1546.460921843688 0.9986710940033613 521.0 1.0 372.0 
172.00058297905275 210718.0 NaN 1543.3934535738153 0.9987297875952852 522.0 1.0 371.0 
174.00058297905275 210725.0 NaN 1543.3881095524364 0.998739747632621 522.0 1.0 371.0 
176.00058297905275 210725.0 NaN 1543.3907815631273 0.9987182965158906 521.0 1.0 371.0 
178.00058297905275 210747.0 NaN 1537.2558450233817 0.9988765540679201 521.0 1.0 369.0 
180.00058297905275 210733.0 NaN 1540.3340013360064 0.9988162398907358 522.0 1.0 370.0 
182.00058297905275 210733.0 NaN 1540.3152972611908 0.998882026932435 523.0 1.0 370.0 
184.00058297905275 210741.0 NaN 1540.3152972611908 0.9989922256262082 520.0 1.0 370.0 
186.00058297905275 210724.0 NaN 1540.3259853039426 0.9987087613361895 518.0 2.0 369.0 
188.00058297905275 210744.0 NaN 1537.2451569806271 0.9988283086442511 517.0 2.0 368.0 
190.00058297905275 210723.0 NaN 1540.3313293253182 0.998749032635372 517.0 2.0 369.0 
192.00058297905275 210715.0 NaN 1540.3206412825637 0.998780212109927 517.0 2.0 369.0 
194.00058297905275 210713.0 NaN 1540.3340013360062 0.9989552546430933 517.0 2.0 369.0 
196.00058297905275 210700.0 NaN 1540.339345357382 0.9990804679325903 517.0 2.0 369.0 
198.00058297905275 210713.0 NaN 1540.339345357382 0.9990451165373277 518.0 2.0 369.0 
200.00058297905275 210702.0 NaN 1543.4148296593182 0.998916926624949 520.0 2.0 370.0 
202.00058297905275 210698.0 NaN 1543.41215764863 0.9989236885268424 520.0 2.0 370.0 
204.00058297905275 210702.0 NaN 1546.460921843688 0.9989768017829923 520.0 2.0 371.0 
206.00058297905275 210744.0 NaN 1543.4228456913816 0.9988563794092522 520.0 2.0 370.0 
208.00058297905275 210796.0 NaN 1543.4228456913816 0.9989705506543125 519.0 2.0 370.0 
210.00058297905275 210790.0 NaN 1537.2772211088843 0.9987665265586538 517.0 2.0 368.0 
212.00058297905275 210795.0 NaN 1540.355377421509 0.9988866827772637 514.0 2.0 369.0 
214.00058297905275 210787.0 NaN 1543.4308617234456 0.9993472467203012 515.0 2.0 370.0 
216.00058297905275 210801.0 NaN 1543.4281897127573 0.9998988978360366 514.0 2.0 370.0 
218.00058297905275 210826.0 NaN 1540.3072812291252 0.9991601040515561 516.0 2.0 369.0 
220.00058297905275 210820.0 NaN 1540.304609218436 0.9990548451708985 517.0 2.0 369.0 
222.00058297905275 210825.0 NaN 1540.299265197061 0.9989785353966639 517.0 2.0 369.0 
224.00058297905275 210843.0 NaN 1540.2965931863728 0.9992431876411827 516.0 2.0 369.0 
226.00058297905275 210872.0 NaN 1540.2725450901817 0.9992234207578934 517.0 2.0 369.0 
228.00058297905275 210872.0 NaN 1540.2965931863728 0.9993058008062645 517.0 2.0 369.0 
230.00058297905275 210863.0 NaN 1537.2451569806271 0.9990348903048686 513.0 2.0 368.0 
232.00058297905275 210879.0 NaN 1540.3152972611908 0.9991618871476936 513.0 2.0 369.0 
234.00058297905275 210868.0 NaN 1540.267201068803 0.9993537910779957 513.0 2.0 369.0 
236.00058297905275 210872.0 NaN 1543.3640614562453 0.9993197931866077 514.0 2.0 370.0 
238.00058297905275 210881.0 NaN 1543.3480293921182 0.999268567068014 514.0 2.0 370.0 
240.00058297905275 210894.0 NaN 1540.2645290581181 0.9992146314811938 514.0 2.0 369.0 
242.00058297905275 210903.0 NaN 1540.2431529726116 0.9991940524674681 515.0 2.0 369.0 
244.00058297905275 210918.0 NaN 1540.2458249832998 0.9991061789604421 516.0 2.0 369.0 
246.00058297905275 210923.0 NaN 1537.1943887775544 0.9988844487904559 516.0 2.0 368.0 
248.00058297905275 210950.0 NaN 1540.2725450901817 0.9990159339232397 516.0 2.0 369.0 
250.00058297905275 210930.0 NaN 1537.2237808951245 0.9988945043740998 515.0 2.0 368.0 
252.00058297905275 210933.0 NaN 1534.142952571809 0.9988219995904613 511.0 2.0 367.0 
254.00058297905275 210951.0 NaN 1534.1376085504362 0.9990057613209362 512.0 2.0 367.0 
256.00058297905275 210945.0 NaN 1531.0621242484974 0.9986624225936153 513.0 2.0 366.0 
258.00058297905275 210974.0 NaN 1531.0460921843699 0.9987575283204726 514.0 2.0 366.0 
260.00058297905275 210971.0 NaN 1531.0460921843699 0.9987075947431703 514.0 2.0 366.0 
262.00058297905275 210980.0 NaN 1524.9164996659997 0.9987307706805202 515.0 2.0 364.0 
264.00058297905275 211029.0 NaN 1524.9325317301273 0.9988657959886815 515.0 2.0 364.0 
266.00058297905275 211055.0 NaN 1527.9973279893115 0.9988633749345825 514.0 2.0 365.0 
268.00058297905275 211082.0 NaN 1537.2317969271885 0.9990728723864678 514.0 2.0 368.0 
270.00058297905275 211065.0 NaN 1540.2591850367387 0.9989222466907388 514.0 2.0 369.0 
272.00058297905275 211065.0 NaN 1540.2484969939887 0.99894994020027 514.0 2.0 369.0 
274.00058297905275 211117.0 NaN 1543.3453573814272 0.9989253725495219 514.0 2.0 370.0 
276.00058297905275 211123.0 NaN 1540.293921175684 0.998771265244542 513.0 2.0 369.0 
278.00058297905275 211142.0 NaN 1540.2645290581181 0.9992240833064501 513.0 2.0 369.0 
280.00058297905275 211115.0 NaN 1540.2645290581181 0.9987793415426939 515.0 2.0 369.0 
282.00058297905275 211116.0 NaN 1537.1837007348022 0.9988927386683858 515.0 2.0 368.0 
284.00058297905275 211107.0 NaN 1537.1863727454909 0.9991958326924418 515.0 2.0 368.0 
286.00058297905275 211083.0 NaN 1537.2024048096182 0.9988483096833557 515.0 2.0 368.0 
288.00058297905275 211107.0 NaN 1537.1623246493 0.9991692823453708 515.0 2.0 368.0 
290.00058297905275 211055.0 NaN 1537.1543086172362 0.9990109321480318 514.0 2.0 368.0 
292.00058297905275 211048.0 NaN 1537.1596526386093 0.9990816280692898 512.0 2.0 368.0 
294.00058297905275 211054.0 NaN 1531.04609218437 0.9990611410079973 513.0 2.0 366.0 
296.00058297905275 211045.0 NaN 1531.0327321309273 0.9991080674249933 512.0 2.0 366.0 
298.00058297905275 211072.0 NaN 1531.0514362057456 0.9993701450157424 512.0 2.0 366.0 
300.00058297905275 210971.0 NaN 1534.132264529057 0.999030028372609 510.0 2.0 367.0 
302.00058297905275 210947.0 NaN 1527.9893119572475 0.9989135047202872 509.0 2.0 365.0 
304.00058297905275 210959.0 NaN 1527.986639946561 0.9991476820514016 507.0 2.0 365.0 
306.00058297905275 210950.0 NaN 1531.0567802271207 0.9988834070071174 507.0 2.0 366.0 
308.00058297905275 210994.0 NaN 1527.983967935873 0.9995912990528426 507.0 2.0 365.0 
310.00058297905275 210972.0 NaN 1531.0514362057456 0.9990528134425197 508.0 2.0 366.0 
312.00058297905275 210967.0 NaN 1531.0407481629911 0.9990618320786532 508.0 1.0 367.0 
314.00058297905275 210970.0 NaN 1527.9545758183024 0.9994785668407876 507.0 2.0 365.0 
316.00058297905275 210941.0 NaN 1524.9084836339362 0.9991202517425765 506.0 2.0 364.0 
318.00058297905275 210962.0 NaN 1524.9191716766882 0.999127486092857 508.0 2.0 364.0 
320.00058297905275 210970.0 NaN 1528.0026720106882 0.9991630062723941 507.0 2.0 365.0 
322.00058297905275 210962.0 NaN 1528.0080160320636 0.999269551019272 508.0 2.0 365.0 
324.00058297905275 210965.0 NaN 1531.0781563126272 0.9994535648170395 508.0 2.0 366.0 
326.00058297905275 210942.0 NaN 1531.0701402805612 0.9993244755525941 507.0 2.0 366.0 
328.00058297905275 210942.0 NaN 1531.0621242484974 0.9993392246193094 507.0 2.0 366.0 
330.00058297905275 210908.0 NaN 1531.0541082164336 0.999316175442482 508.0 2.0 366.0 
332.00058297905275 210873.0 NaN 1527.983967935873 0.9991273131146117 509.0 2.0 365.0 
334.00058297905275 210896.0 NaN 1531.0193720774882 0.9995298402583009 509.0 2.0 366.0 
336.00058297905275 210833.0 NaN 1534.1082164328639 0.9990509770384386 509.0 2.0 367.0 
338.00058297905275 210833.0 NaN 1534.097528390112 0.9990190544630588 510.0 2.0 367.0 
340.00058297905275 210822.0 NaN 1527.9732798931184 0.9992823891925966 510.0 2.0 365.0 
342.00058297905275 210788.0 NaN 1534.11623246493 0.9989807624078577 515.0 2.0 367.0 
344.00058297905275 210792.0 NaN 1534.1242484969935 0.9993527930747591 512.0 2.0 367.0 
346.00058297905275 210736.0 NaN 1531.0460921843696 0.998899293156611 512.0 2.0 366.0 
348.00058297905275 210741.0 NaN 1527.9599198396795 0.9989274791937498 513.0 2.0 365.0 
350.00058297905275 210726.0 NaN 1527.9625918503666 0.9990794012986604 515.0 2.0 365.0 
352.00058297905275 210699.0 NaN 1527.967935871745 0.9988088338697106 514.0 2.0 365.0 
354.00058297905275 210718.0 NaN 1527.967935871745 0.9992374483548946 515.0 2.0 365.0 
356.00058297905275 210669.0 NaN 1524.9058116232454 0.9987212380155033 514.0 2.0 364.0 
358.00058297905275 210699.0 NaN 1524.8924515698068 0.9989040955095576 513.0 2.0 364.0 
360.00058297905275 210702.0 NaN 1524.9004676018722 0.9989281514812139 513.0 2.0 364.0 
362.00058297905275 210634.0 NaN 1524.863059452237 0.9987530403888419 514.0 2.0 364.0 
364.00058297905275 210641.0 NaN 1524.857715430863 0.9994500741168977 515.0 2.0 364.0 
366.00058297905275 210562.0 NaN 1524.8470273881092 0.9990555139769233 516.0 2.0 364.0 
368.00058297905275 210567.0 NaN 1506.4315297261182 0.9992094670890692 514.0 2.0 358.0 
370.00058297905275 210500.0 NaN 1500.2698730794918 0.9992882232126877 514.0 2.0 356.0 
372.00058297905275 210387.0 NaN 1506.4128256513022 0.9987490953009577 514.0 2.0 358.0 
374.00058297905275 210415.0 NaN 1509.4829659318634 0.9991285713969692 517.0 2.0 359.0 
376.00058297905275 210364.0 NaN 1506.4048096192373 0.9988379276869717 517.0 2.0 358.0 
378.00058297905275 210380.0 NaN 1506.3967935871735 0.9990118475508565 517.0 2.0 358.0 
380.00058297905275 210330.0 NaN 1503.33199732799 1.0005582364104906 516.0 2.0 357.0 
382.00058297905275 210227.0 NaN 1500.2484969939885 0.9991238861687759 516.0 2.0 356.0 
384.00058297905275 210234.0 NaN 1503.3239812959262 0.9995028726154042 517.0 2.0 357.0 
386.00058297905275 210160.0 NaN 1509.4883099532394 0.9993244393131485 517.0 2.0 359.0 
388.00058297905275 210158.0 NaN 1509.4776219104883 0.9996445104151622 517.0 2.0 359.0 
390.00058297905275 210074.0 NaN 1503.3640614562453 0.9990939114188016 516.0 2.0 357.0 
392.00058297905275 210036.0 NaN 1512.579826319306 0.9989812567054117 516.0 2.0 360.0 
394.00058297905275 210033.0 NaN 1512.5771543086182 0.9994549538179165 518.0 2.0 360.0 
396.00058297905275 209956.0 NaN 1509.517702070809 0.9989348514963536 517.0 2.0 359.0 
398.00058297905275 210044.0 NaN 1509.5016700066813 0.9990088367145272 517.0 2.0 359.0 
400.00058297905275 210117.0 NaN 1506.4342017368083 0.9993392292449248 519.0 2.0 358.0 
402.00058297905275 210049.0 NaN 1509.5390781563121 0.9991818718917452 520.0 2.0 359.0 
404.00058297905275 210037.0 NaN 1518.7521710086821 0.9992097774224563 521.0 2.0 362.0 
406.00058297905275 210013.0 NaN 1518.7307949231813 0.9990377079596483 521.0 2.0 362.0 
408.00058297905275 210080.0 NaN 1521.7849031396122 0.9992684745058364 521.0 2.0 363.0 
410.00058297905275 210097.0 NaN 1531.0514362057456 0.9993061721435128 522.0 2.0 366.0 
412.00058297905275 210054.0 NaN 1531.0327321309276 0.9992697103638631 522.0 2.0 366.0 
414.00058297905275 210049.0 NaN 1534.0788243152974 0.9991737892443282 521.0 2.0 367.0 
416.00058297905275 210023.0 NaN 1534.097528390112 0.9989390205212206 521.0 2.0 367.0 
418.00058297905275 210064.0 NaN 1518.6960587842361 0.9991435960127714 523.0 2.0 362.0 
420.00058297905275 210073.0 NaN 1518.6639946559792 0.9991793362829746 522.0 2.0 362.0 
422.00058297905275 210040.0 NaN 1515.5965263861062 0.9991796814532802 520.0 2.0 361.0 
424.00058297905275 210045.0 NaN 1512.518370073481 0.9993013365583049 518.0 2.0 360.0 
426.00058297905275 209960.0 NaN 1515.6339345357371 0.9989717690429151 516.0 2.0 361.0 
428.00058297905275 209977.0 NaN 1515.5858383433545 0.9990465870263077 517.0 2.0 361.0 
430.00058297905275 209962.0 NaN 1515.6045424181705 0.9990373955005352 517.0 2.0 361.0 
432.00058297905275 209965.0 NaN 1512.555778223112 0.9990582439729354 518.0 2.0 360.0 
434.00058297905275 209977.0 NaN 1521.7581830327333 0.999514493624961 522.0 2.0 363.0 
436.00058297905275 209906.0 NaN 1527.9331997328002 0.9994772978679015 524.0 2.0 365.0 
438.00058297905275 209931.0 NaN 1527.922511690046 0.9989392857162228 525.0 2.0 365.0 
440.00058297905275 209938.0 NaN 1527.9412157648637 0.9982890687705336 525.0 2.0 365.0 
442.00058297905275 209953.0 NaN 1530.9953239812971 0.9986492365015387 525.0 2.0 366.0 
444.00058297905275 209973.0 NaN 1530.9659318637273 0.9992689319668592 525.0 2.0 366.0 
446.00058297905275 209900.0 NaN 1537.1302605210426 0.9987154796064945 529.0 2.0 368.0 
448.00058297905275 209922.0 NaN 1543.305277221109 0.9990659677816202 531.0 2.0 370.0 
450.00058297905275 209862.0 NaN 1540.221776887109 0.9990478957240994 528.0 2.0 369.0 
452.00058297905275 209826.0 NaN 1540.2511690046754 0.9984450062874881 528.0 2.0 369.0 
454.00058297905275 209841.0 NaN 1543.3266533066121 0.9986918131354512 527.0 2.0 370.0 
456.00058297905275 209789.0 NaN 1552.555778223112 0.9982194269237623 527.0 2.0 373.0 
458.00058297905275 209815.0 NaN 1552.5397461589844 0.9985142693026081 525.0 2.0 373.0 
460.00058297905275 209808.0 NaN 1549.4188376753516 0.998611345586321 524.0 2.0 372.0 
462.00058297905275 209802.0 NaN 1546.3754175016702 0.9986163082264812 524.0 2.0 371.0 
464.00058297905275 209793.0 NaN 1540.2164328657302 0.9989075746992218 523.0 2.0 369.0 
466.00058297905275 209710.0 NaN 1543.2865731462914 0.9987445227792664 523.0 2.0 370.0 
468.00058297905275 209688.0 NaN 1543.2625250501 0.9989136570483391 524.0 2.0 370.0 
470.00058297905275 209659.0 NaN 1540.1736806947245 0.998907594489423 523.0 2.0 369.0 
472.00058297905275 209653.0 NaN 1534.0734802939207 0.9987302972280319 521.0 2.0 367.0 
474.00058297905275 209659.0 NaN 1524.8603874415485 0.999200377401464 521.0 1.0 365.0 
476.00058297905275 209644.0 NaN 1515.6205744822992 0.9990025940946482 519.0 1.0 362.0 
478.00058297905275 209642.0 NaN 1515.6152304609209 0.9987761432627582 516.0 1.0 362.0 
480.00058297905275 209631.0 NaN 1515.617902471609 0.9988934342887965 519.0 1.0 362.0 
482.00058297905275 209645.0 NaN 1509.5043420173668 0.9986907368554928 517.0 1.0 360.0 
484.00058297905275 209662.0 NaN 1509.496325985303 0.9988313961753018 515.0 1.0 360.0 
486.00058297905275 209672.0 NaN 1509.4909819639272 0.9989625969384957 514.0 1.0 360.0 
488.00058297905275 209701.0 NaN 1500.2618570474276 0.9988499991862827 513.0 1.0 357.0 
490.00058297905275 209683.0 NaN 1497.1623246492993 0.998943129980199 512.0 1.0 356.0 
492.00058297905275 209693.0 NaN 1494.1322645290572 0.9987898231523805 512.0 1.0 355.0 
494.00058297905275 209691.0 NaN 1491.0621242484979 0.9989999548196319 511.0 1.0 354.0 
496.00058297905275 209679.0 NaN 1491.080828323312 0.9988446715696959 511.0 1.0 354.0 
498.00058297905275 209675.0 NaN 1488.0 0.9987511487566543 510.0 1.0 353.0 
500.00058297905275 209667.0 NaN 1487.95991983968 0.9987277882302583 508.0 1.0 353.0 
502.00058297905275 209673.0 NaN 1487.9759519038082 0.9987005792604401 510.0 1.0 353.0 
504.00058297905275 209659.0 NaN 1491.0621242484979 0.9987797379110485 512.0 1.0 354.0 
506.00058297905275 209662.0 NaN 1497.221108884436 0.9987807324756748 515.0 1.0 356.0 
508.00058297905275 209680.0 NaN 1491.0541082164336 0.9988919933464723 515.0 0.0 355.0 
510.00058297905275 209643.0 NaN 1497.1943887775544 0.99874479002372 514.0 1.0 356.0 
512.0005829790528 209645.0 NaN 1497.2184368737464 0.9985426118519993 514.0 1.0 356.0 
514.0005829790528 209652.0 NaN 1491.0701402805619 0.9987382307152131 515.0 1.0 354.0 
516.0005829790528 209658.0 NaN 1478.7895791583173 0.9986340474852822 512.0 1.0 350.0 
518.0005829790528 209636.0 NaN 1472.6118904475627 0.9989358529531304 508.0 1.0 348.0 
520.0005829790528 209612.0 NaN 1466.463593854375 0.9986713409331454 508.0 1.0 346.0 
522.0005829790528 209672.0 NaN 1469.5764863059455 0.9986332701733226 509.0 1.0 347.0 
524.0005829790528 209623.0 NaN 1457.2798931195728 0.9986848650588359 505.0 1.0 343.0 
526.0005829790528 209621.0 NaN 1451.1315965263852 0.998570624285179 505.0 1.0 341.0 
528.0005829790528 209623.0 NaN 1454.2177688710751 0.9987066357308008 505.0 1.0 342.0 
530.0005829790528 209622.0 NaN 1454.2364729458914 0.9986572719137263 505.0 1.0 342.0 
532.0005829790528 209680.0 NaN 1454.2284569138274 0.9985708038945356 507.0 1.0 342.0 
534.0005829790528 209658.0 NaN 1460.3901135604547 0.9985683482456384 508.0 1.0 344.0 
536.0005829790528 209642.0 NaN 1457.3039412157643 0.998631623233119 506.0 1.0 343.0 
538.0005829790528 209714.0 NaN 1457.3119572478286 0.9986510232433491 508.0 1.0 343.0 
540.0005829790528 209739.0 NaN 1457.309285237142 0.9989948587880568 509.0 1.0 343.0 
542.0005829790528 209733.0 NaN 1460.3820975283904 0.9987913003809668 509.0 1.0 344.0 
544.0005829790528 209716.0 NaN 1460.3740814963264 0.9989912670421812 512.0 1.0 344.0 
546.0005829790528 209686.0 NaN 1460.3847695390787 0.9988186069307875 512.0 1.0 344.0 
548.0005829790528 209713.0 NaN 1457.3092852371415 0.9990863679528229 515.0 1.0 343.0 
550.0005829790528 209690.0 NaN 1460.3206412825646 0.9989899032386602 515.0 1.0 344.0 
552.0005829790528 209701.0 NaN 1460.3179692718766 0.9987916941298538 515.0 1.0 344.0 
554.0005829790528 209715.0 NaN 1466.4742818971272 0.9989058337448535 514.0 1.0 346.0 
556.0005829790528 209693.0 NaN 1469.5577822311284 0.9988712730521373 512.0 1.0 347.0 
558.0005829790528 209727.0 NaN 1454.2124248497 0.9992378788926183 508.0 1.0 342.0 
560.0005829790528 209707.0 NaN 1451.1503006012028 0.9991048826961296 507.0 1.0 341.0 
562.0005829790528 209741.0 NaN 1454.2338009352043 0.9989533881336616 503.0 1.0 342.0 
564.0005829790528 209749.0 NaN 1460.4195056780227 0.9988223662198005 501.0 1.0 344.0 
566.0005829790528 209770.0 NaN 1466.5277221108884 0.9988713659230555 504.0 1.0 346.0 
568.0005829790528 209785.0 NaN 1469.6192384769545 0.9992733900921661 505.0 1.0 347.0 
570.0005829790528 209725.0 NaN 1475.7568470273884 0.9988829462538047 513.0 1.0 349.0 
572.0005829790528 209744.0 NaN 1478.843019372078 0.9989059676467934 512.0 1.0 350.0 
574.0005829790528 209779.0 NaN 1481.9318637274546 0.9989243596129129 511.0 1.0 351.0 
576.0005829790528 209777.0 NaN 1488.0881763527061 0.9987405729471822 511.0 1.0 353.0 
578.0005829790528 209839.0 NaN 1481.9024716098872 0.9987900336240632 511.0 1.0 351.0 
580.0005829790528 209872.0 NaN 1484.980627922511 0.99881765485773 512.0 1.0 352.0 
582.0005829790528 209888.0 NaN 1484.9512358049442 0.9991217575896012 516.0 1.0 352.0 
584.0005829790528 209865.0 NaN 1484.9325317301273 0.9989191782328528 517.0 1.0 352.0 
586.0005829790528 209867.0 NaN 1491.0968603874423 0.9992114450838046 521.0 1.0 354.0 
588.0005829790528 209853.0 NaN 1491.0781563126259 0.9989682888187645 522.0 1.0 354.0 
590.0005829790528 209873.0 NaN 1491.0728122912485 0.9988805822116482 522.0 1.0 354.0 
592.0005829790528 209892.0 NaN 1491.0674682698727 0.9989028411379379 526.0 1.0 354.0 
594.0005829790528 209889.0 NaN 1491.05678022712 0.998824033239965 524.0 1.0 354.0 
596.0005829790528 209911.0 NaN 1494.1295925183708 0.9988216451606118 526.0 1.0 355.0 
598.0005829790528 209953.0 NaN 1491.0140280561113 0.9991596692619737 526.0 1.0 354.0 
600.0005829790528 209937.0 NaN 1487.9652638610548 0.9986397215063489 527.0 1.0 353.0 
602.0005829790528 209977.0 NaN 1491.0781563126259 0.998912449125645 528.0 1.0 354.0 
604.0005829790528 209999.0 NaN 1491.064796259184 0.9988760259215971 527.0 1.0 354.0 
606.0005829790528 210006.0 NaN 1497.2317969271887 0.99888117179017 527.0 1.0 356.0 
608.0005829790528 210020.0 NaN 1497.2344689378747 0.9992785325068054 524.0 1.0 356.0 
610.0005829790528 209953.0 NaN 1494.1670006680017 0.9990089957426669 523.0 1.0 355.0 
612.0005829790528 209937.0 NaN 1494.1696726786909 0.9990311846954756 522.0 1.0 355.0 
614.0005829790528 209927.0 NaN 1494.1616566466273 0.9990654175662004 521.0 1.0 355.0 
616.0005829790528 209943.0 NaN 1497.2211088844363 0.9989729172236643 522.0 1.0 356.0 
618.0005829790528 209964.0 NaN 1497.2211088844363 0.9991293675418936 523.0 1.0 356.0 
620.0005829790528 209939.0 NaN 1494.150968603874 0.9988490731370945 523.0 1.0 355.0 
622.0005829790528 209953.0 NaN 1500.2992651970617 0.9990168786893737 521.0 1.0 357.0 
624.0005829790528 209935.0 NaN 1503.3881095524373 0.999074992694397 519.0 1.0 358.0 
626.0005829790528 209893.0 NaN 1503.401469605879 0.9990515018358935 519.0 1.0 358.0 
628.0005829790528 209937.0 NaN 1506.5090180360728 0.9987423306022449 517.0 1.0 359.0 
630.0005829790528 209963.0 NaN 1506.5090180360728 0.9987567486829915 517.0 1.0 359.0 
632.0005829790528 209956.0 NaN 1506.506346025383 0.9990192591913973 515.0 1.0 359.0 
634.0005829790528 209960.0 NaN 1515.7461589846364 0.9989799566496663 516.0 2.0 361.0 
636.0005829790528 209962.0 NaN 1512.6840347361383 0.9987220552359427 520.0 2.0 360.0 
638.0005829790528 210005.0 NaN 1515.7595190380757 0.9987250171168676 524.0 2.0 361.0 
640.0005829790528 210005.0 NaN 1515.7327989311968 0.9985547084953666 525.0 2.0 361.0 
642.0005829790528 210048.0 NaN 1509.6032064128262 0.9987276865775124 525.0 2.0 359.0 
644.0005829790528 210082.0 NaN 1506.546426185706 0.9989208846956659 526.0 1.0 359.0 
646.0005829790528 210085.0 NaN 1509.6032064128262 0.9985782825865968 524.0 1.0 360.0 
648.0005829790528 210141.0 NaN 1512.649298597194 0.9987539191864331 523.0 1.0 361.0 
650.0005829790528 210141.0 NaN 1518.8456913827647 0.9987543095515162 521.0 1.0 363.0 
652.0005829790528 210158.0 NaN 1521.9265197060797 0.9989459302869924 519.0 1.0 364.0 
654.0005829790528 210174.0 NaN 1521.9185036740153 0.9986901767532916 517.0 1.0 364.0 
656.0005829790528 210203.0 NaN 1524.9832999332002 0.9987756034332 516.0 1.0 365.0 
658.0005829790528 210218.0 NaN 1534.1963927855718 0.9988512271074006 514.0 1.0 368.0 
660.0005829790528 210226.0 NaN 1534.2418169672667 0.9986162342467912 515.0 1.0 368.0 
662.0005829790528 210246.0 NaN 1534.2044088176365 0.9988607118358261 515.0 1.0 368.0 
664.0005829790528 210293.0 NaN 1537.2959251837 0.998944546135096 518.0 1.0 369.0 
#####################################################################
# End of data export. Simulation finished at: 2019-03-10T17:15+0000 #
#####################################################################
