#####################################################################
# Alchemist log file - simulation started at: 2019-03-03T06:51+0000 #
#####################################################################
# seed = 1.0, bandwidth = 74989.42093324558, propagationDelay = 1.0, baserange = 177.82794100389228
#
# The columns have the following meaning: 
# time neighbor_count[Sum] <value>@neighbor_count[Sum] packet_size[Mean] mean_delay[Mean] crowd[Sum] overcrowded[Sum] risk[Sum] 
0.0 NaN NaN NaN NaN NaN NaN NaN 
10.000417374280275 26552.0 NaN 4994.070808283233 1.0528816935890608 1492.0 5.0 1492.0 
20.000417374280275 26579.0 NaN 4994.183032732131 1.0588623119692848 1492.0 5.0 1492.0 
30.000417374280275 26604.0 NaN 4994.0414161656645 1.0529784646015259 1492.0 5.0 1492.0 
40.000417374280275 26648.0 NaN 4994.207080828323 1.055518993258612 1492.0 5.0 1492.0 
50.000417374280275 26682.0 NaN 4994.068136272545 1.0642466394029317 1492.0 5.0 1492.0 
60.000417374280275 26682.0 NaN 4994.180360721443 1.0550610750674432 1492.0 5.0 1492.0 
70.00027942889974 26738.0 NaN 1525.2184368737458 1.0242495699837821 546.0 4.0 362.0 
80.00027942889974 26804.0 NaN 1534.4609218436879 1.0221719727406486 526.0 5.0 364.0 
90.00027942889974 26806.0 NaN 1534.4502338009365 1.021239576409807 523.0 5.0 364.0 
100.00027942889974 26803.0 NaN 1537.5310621242481 1.0206727775959998 521.0 5.0 365.0 
110.00027942889974 26808.0 NaN 1537.5016700066817 1.0190239793819797 519.0 6.0 364.0 
120.00027942889974 26776.0 NaN 1543.6553106212427 1.025948638187386 525.0 4.0 368.0 
130.00027942889974 26700.0 NaN 1540.5584502337997 1.0204884646849683 524.0 4.0 367.0 
140.00027942889974 26672.0 NaN 1540.5664662658637 1.0200706036530809 516.0 4.0 367.0 
150.00027942889974 26669.0 NaN 1543.625918503673 1.0180767154142192 518.0 4.0 368.0 
160.00027942889974 26637.0 NaN 1540.5691382765544 1.0196466143149148 516.0 3.0 368.0 
170.00027942889974 26575.0 NaN 1543.6633266533067 1.0265457750980735 517.0 3.0 369.0 
180.00027942889974 26536.0 NaN 1537.4989979959905 1.0265680090346927 515.0 5.0 365.0 
190.00027942889974 26445.0 NaN 1534.426185704743 1.02453506028986 513.0 5.0 364.0 
200.00027942889974 26380.0 NaN 1537.5043420173665 1.027841797241522 513.0 5.0 365.0 
210.00027942889974 26331.0 NaN 1528.2939211756843 1.038213599412069 507.0 6.0 361.0 
220.00027942889974 26228.0 NaN 1525.1997327989302 1.024899655239396 512.0 5.0 361.0 
230.00027942889974 26124.0 NaN 1531.350701402806 1.0266967256297288 511.0 3.0 365.0 
240.00027942889974 26051.0 NaN 1528.221776887109 1.031115350157106 511.0 3.0 364.0 
250.00027942889974 25994.0 NaN 1525.1997327989302 1.024796107585812 509.0 5.0 361.0 
260.0002794288997 25912.0 NaN 1519.0113560454247 1.0241064942227724 509.0 5.0 359.0 
270.0002794288997 25795.0 NaN 1528.2404809619243 1.0266798181298524 508.0 5.0 362.0 
280.0002794288997 25754.0 NaN 1528.2004008016027 1.039407520213488 505.0 6.0 361.0 
290.0002794288997 25673.0 NaN 1531.2491649966614 1.0306234986570288 505.0 6.0 362.0 
300.0002794288997 25599.0 NaN 1534.3567134268546 1.0276461416679066 504.0 6.0 363.0 
310.0002794288997 25525.0 NaN 1531.2919171676704 1.0349620749717598 505.0 4.0 364.0 
320.0002794288997 25394.0 NaN 1531.3026052104208 1.0406623594722337 503.0 4.0 364.0 
330.0002794288997 25320.0 NaN 1540.5504342017364 1.0290524693643228 502.0 4.0 367.0 
340.0002794288997 25334.0 NaN 1531.3453573814274 1.0253510232980267 503.0 4.0 364.0 
350.0002794288997 25321.0 NaN 1525.1917167668669 1.0274336031890743 506.0 4.0 362.0 
360.0002794288997 25309.0 NaN 1522.126920507682 1.0207036709177748 507.0 4.0 361.0 
370.0002794288997 25232.0 NaN 1509.7982631930536 1.0268097155437894 512.0 4.0 357.0 
380.0002794288997 25153.0 NaN 1500.5611222444898 1.0332886057522714 516.0 3.0 355.0 
390.0002794288997 25103.0 NaN 1506.7895791583173 1.0344899709420146 511.0 3.0 357.0 
400.0002794288997 25032.0 NaN 1506.7120908483637 1.0415729784539725 512.0 3.0 357.0 
410.0002794288997 25011.0 NaN 1515.914495657982 1.0305826987479647 518.0 3.0 360.0 
420.0002794288997 24955.0 NaN 1491.385437541751 1.0305282868519692 510.0 3.0 352.0 
430.0002794288997 24889.0 NaN 1503.668670674682 1.0304667316164131 518.0 4.0 355.0 
440.0002794288997 24881.0 NaN 1522.1616566466273 1.0321086868402207 522.0 4.0 361.0 
450.0002794288997 24902.0 NaN 1534.4128256513025 1.0240708050489584 523.0 4.0 365.0 
460.0002794288997 24895.0 NaN 1543.6018704074818 1.0280520553168817 523.0 4.0 368.0 
470.0002794288997 24874.0 NaN 1531.2705410821636 1.02890179580427 517.0 4.0 364.0 
480.0002794288997 24868.0 NaN 1525.0741482965914 1.0238884577806533 516.0 4.0 362.0 
490.0002794288997 24950.0 NaN 1506.6720106880434 1.0249860065420442 514.0 3.0 357.0 
500.0002794288997 24933.0 NaN 1485.2344689378751 1.031211167735906 504.0 4.0 349.0 
510.0002794288997 24953.0 NaN 1494.4448897795608 1.031259719027704 509.0 4.0 352.0 
520.0002794288998 24998.0 NaN 1469.929191716766 1.02457679290173 504.0 3.0 345.0 
530.0002794288998 25029.0 NaN 1454.5357381429535 1.034469026778944 510.0 3.0 340.0 
540.0002794288998 25025.0 NaN 1466.8456913827647 1.032105755389288 507.0 3.0 344.0 
550.0002794288998 24978.0 NaN 1472.9432197728795 1.02541652714867 512.0 3.0 346.0 
560.0002794288998 25042.0 NaN 1472.96993987976 1.0315541254434464 511.0 3.0 346.0 
570.0002794288998 25028.0 NaN 1485.2291249165 1.0296652974007505 513.0 6.0 347.0 
580.0002794288998 25037.0 NaN 1494.533066132264 1.0286123374990195 520.0 3.0 353.0 
590.0002794288998 25118.0 NaN 1503.644622578491 1.0297703124842161 523.0 3.0 356.0 
600.0002794288998 25136.0 NaN 1497.4642618570467 1.0331919356503936 528.0 4.0 353.0 
610.0002794288998 25221.0 NaN 1515.9385437541737 1.044125296814957 526.0 4.0 359.0 
620.0002794288998 25194.0 NaN 1522.0387441549758 1.035310565380238 525.0 3.0 362.0 
630.0002794288998 25211.0 NaN 1515.9866399465607 1.034846929111794 522.0 4.0 359.0 
640.0002794288998 25212.0 NaN 1515.9973279893109 1.0417641270963507 520.0 4.0 359.0 
650.0002794288998 25146.0 NaN 1522.1616566466273 1.0263102404179405 521.0 3.0 362.0 
660.0002794288998 25128.0 NaN 1531.401469605879 1.0367638904932264 514.0 3.0 365.0 
#####################################################################
# End of data export. Simulation finished at: 2019-03-03T07:06+0000 #
#####################################################################
