#####################################################################
# Alchemist log file - simulation started at: 2019-03-06T19:17+0000 #
#####################################################################
# seed = 4.0, bandwidth = 1333521.4321633242, propagationDelay = 0.001, baserange = 1000.0
#
# The columns have the following meaning: 
# time neighbor_count[Sum] <value>@neighbor_count[Sum] packet_size[Mean] mean_delay[Mean] crowd[Sum] overcrowded[Sum] risk[Sum] 
0.0 NaN NaN NaN NaN NaN NaN NaN 
2.000262314194091 210020.0 NaN 4995.935871743487 0.5001614205886576 1497.0 0.0 1497.0 
4.000262314194091 210022.0 NaN 4994.338009352037 0.5001642163015785 1496.0 1.0 1496.0 
6.000262314194091 210022.0 NaN 4993.889111556447 0.5001637090929315 1497.0 0.0 1497.0 
8.000262314194092 210022.0 NaN 4994.452905811623 0.5001633996526251 1497.0 0.0 1497.0 
10.000247316309903 210022.0 NaN 4995.390781563126 0.5001614023513503 1497.0 0.0 1497.0 
12.000253315463578 210034.0 NaN 4994.343353373413 0.5001616926140112 1497.0 0.0 1497.0 
14.000253315463578 210034.0 NaN 4993.84368737475 0.5001615460541419 1496.0 1.0 1496.0 
16.000253315463578 210049.0 NaN 4993.915831663327 0.5001831146594957 1497.0 0.0 1497.0 
18.00025331546358 210066.0 NaN 4994.843019372078 0.5003493060340739 1497.0 0.0 1497.0 
20.000250315886742 210069.0 NaN 4995.722110888443 0.5004978186339368 1497.0 0.0 1497.0 
22.000262314194092 210073.0 NaN 4994.690714762859 0.5002476575334287 1497.0 0.0 1497.0 
24.000262314194092 210103.0 NaN 4994.060120240481 0.5007441301479072 1497.0 0.0 1497.0 
26.000262314194092 210127.0 NaN 4994.506346025384 0.5003799933871088 1496.0 1.0 1496.0 
28.000262314194092 210136.0 NaN 4995.484301937207 0.5006467032485319 1497.0 0.0 1497.0 
30.000262314194092 210118.0 NaN 4996.197728790915 0.5002990831281201 1497.0 0.0 1497.0 
32.0002473163099 210130.0 NaN 4994.832331329325 0.5002962687643164 1497.0 0.0 1497.0 
34.000253315463574 210172.0 NaN 4993.9719438877755 0.5003990173174667 1496.0 1.0 1496.0 
36.000253315463574 210216.0 NaN 4994.287241148964 0.500295242170693 1497.0 0.0 1497.0 
38.000253315463574 210260.0 NaN 4995.09953239813 0.5005744499724257 1497.0 0.0 1497.0 
40.000253315463574 210262.0 NaN 4996.299265197061 0.5006405159273621 1497.0 0.0 1497.0 
42.00025031588674 210260.0 NaN 4995.2758851035405 0.5003067562980374 1497.0 0.0 1497.0 
44.00026231419409 210277.0 NaN 4994.215096860387 0.5003828057178858 1496.0 1.0 1496.0 
46.00026231419409 210303.0 NaN 4994.185704742819 0.5003096706247366 1496.0 1.0 1496.0 
48.00026231419409 210341.0 NaN 4994.888443553774 0.5005423058564914 1497.0 0.0 1497.0 
50.00026231419409 210342.0 NaN 4996.133600534402 0.5011452674093335 1496.0 1.0 1496.0 
52.00026231419409 210359.0 NaN 4995.11289245157 0.5008489150765669 1496.0 1.0 1496.0 
54.00026231419409 210327.0 NaN 4994.503674014696 0.5011402046881167 1497.0 0.0 1497.0 
56.00026231419409 210343.0 NaN 4994.784235136941 0.5005541444180646 1497.0 0.0 1497.0 
58.00026231419409 210360.0 NaN 4995.2839011356045 0.5005598086987244 1497.0 0.0 1497.0 
60.00026231419409 210353.0 NaN 4995.898463593854 0.5006163770779813 1497.0 0.0 1497.0 
62.00026231419409 210388.0 NaN 1522.2818971275888 0.5010166203847554 773.0 0.0 365.0 
64.00026231419409 210290.0 NaN 1522.108216432864 0.5003143533986204 618.0 1.0 364.0 
66.00026231419409 210294.0 NaN 1525.2451569806271 0.5002536447333295 583.0 2.0 364.0 
68.00026231419409 210330.0 NaN 1525.2665330661334 0.5004996273913653 548.0 2.0 364.0 
70.00026231419409 210282.0 NaN 1525.2638610554452 0.5005477989254857 533.0 2.0 364.0 
72.00026231419409 210318.0 NaN 1528.3874415497662 0.5003545445730875 531.0 2.0 365.0 
74.00026231419409 210294.0 NaN 1531.3774215096848 0.5001862022514003 529.0 2.0 366.0 
76.00026231419409 210300.0 NaN 1531.4255177020725 0.5000875238515722 529.0 2.0 366.0 
78.00024731630991 210331.0 NaN 1534.6132264529065 0.5003032061148409 528.0 2.0 367.0 
80.00025331546358 210300.0 NaN 1537.7181028724115 0.500016628047683 529.0 0.0 370.0 
82.00025331546358 210408.0 NaN 1537.7902471609907 0.5004263620314453 529.0 0.0 370.0 
84.00025331546358 210363.0 NaN 1537.9398797595181 0.49996736879613557 530.0 0.0 370.0 
86.00025331546358 210364.0 NaN 1538.1750167000664 0.49997091639103913 528.0 0.0 370.0 
88.00025031588675 210380.0 NaN 1538.236472945891 0.5001129101965278 528.0 0.0 370.0 
90.00026231419409 210390.0 NaN 1538.2311289245158 0.49994063003607453 528.0 0.0 370.0 
92.00026231419409 210529.0 NaN 1538.076152304609 0.5003928427446009 528.0 0.0 370.0 
94.00026231419409 210476.0 NaN 1537.9692718770877 0.4999090199362035 527.0 1.0 369.0 
96.00026231419409 210481.0 NaN 1537.9318637274544 0.5000409918010719 528.0 0.0 370.0 
98.00026231419409 210486.0 NaN 1537.814295257182 0.5000428606690334 527.0 1.0 369.0 
100.00024731630991 210479.0 NaN 1540.7668670674698 0.5000212406926847 527.0 1.0 370.0 
102.00025331546358 210652.0 NaN 1540.7241148964606 0.5001935245819192 528.0 0.0 371.0 
104.00025331546358 210629.0 NaN 1540.748162992652 0.5000016712920073 527.0 1.0 370.0 
106.00025331546358 210632.0 NaN 1540.844355377421 0.5000385024453079 527.0 1.0 370.0 
108.00025331546358 210629.0 NaN 1540.9325317301273 0.500174023950155 528.0 0.0 371.0 
110.00025031588675 210605.0 NaN 1540.9405477621908 0.49993454921503055 528.0 0.0 371.0 
112.00026231419409 210689.0 NaN 1540.865731462927 0.5002319274091194 527.0 1.0 370.0 
114.00026231419409 210660.0 NaN 1540.7134268537088 0.4999137993487731 526.0 2.0 369.0 
116.00026231419409 210672.0 NaN 1540.710754843018 0.5000294113120158 527.0 2.0 369.0 
118.00026231419409 210692.0 NaN 1546.9579158316637 0.5002840505947896 528.0 2.0 371.0 
120.00026231419409 210666.0 NaN 1550.0681362725456 0.49998043742273024 528.0 2.0 372.0 
122.00024731630991 210670.0 NaN 1550.0227120908482 0.5001704041368671 528.0 2.0 372.0 
124.00025331546358 210642.0 NaN 1550.0066800267182 0.500025443814362 528.0 2.0 372.0 
126.00025331546358 210647.0 NaN 1550.1509686038728 0.5001224071541484 529.0 1.0 373.0 
128.0002533154636 210688.0 NaN 1547.1022044088184 0.5001801231287338 530.0 0.0 373.0 
130.0002533154636 210667.0 NaN 1547.123580494321 0.4999582009305046 529.0 0.0 373.0 
132.00025031588677 210695.0 NaN 1543.906479625918 0.5001431437148026 527.0 0.0 372.0 
134.00026231419412 210681.0 NaN 1540.7374749499 0.5000820161803295 526.0 1.0 370.0 
136.00026231419412 210687.0 NaN 1540.8416833667336 0.5001538063367079 525.0 1.0 370.0 
138.00026231419412 210725.0 NaN 1544.109552438209 0.5003989009533426 524.0 1.0 371.0 
140.00026231419412 210712.0 NaN 1541.140948563794 0.49996143410691885 522.0 2.0 369.0 
142.00026231419412 210737.0 NaN 1547.2758851035394 0.5002008233449181 523.0 1.0 372.0 
144.00024731630992 210712.0 NaN 1550.3593854375424 0.49997324051278913 525.0 1.0 373.0 
146.0002533154636 210722.0 NaN 1547.3613894455573 0.49997673932755554 525.0 0.0 373.0 
148.0002533154636 210760.0 NaN 1553.5791583166335 0.5003292927755578 524.0 0.0 375.0 
150.0002533154636 210739.0 NaN 1553.4989979959907 0.500036904678284 523.0 0.0 375.0 
152.0002533154636 210758.0 NaN 1550.2979291917181 0.5004216335939183 523.0 1.0 373.0 
154.00025031588677 210730.0 NaN 1544.1015364061454 0.5000995320279474 520.0 1.0 371.0 
156.00026231419412 210746.0 NaN 1544.1042084168334 0.500069447072997 520.0 0.0 372.0 
158.00026231419412 210771.0 NaN 1543.9545758183028 0.500370323811939 520.0 1.0 371.0 
160.00026231419412 210728.0 NaN 1543.8610554442212 0.5000209145764759 522.0 0.0 372.0 
162.00026231419412 210750.0 NaN 1543.8557114228454 0.5003648374026196 520.0 1.0 371.0 
164.00026231419412 210727.0 NaN 1543.778223112891 0.5000258708906685 518.0 2.0 370.0 
166.00024731630992 210736.0 NaN 1543.8102872411484 0.5000623323044143 517.0 2.0 370.0 
168.0002533154636 210748.0 NaN 1543.842351369406 0.500332569021792 517.0 2.0 370.0 
170.0002533154636 210735.0 NaN 1543.9572478289908 0.49998003896044174 518.0 2.0 370.0 
172.0002533154636 210743.0 NaN 1544.0400801603203 0.5000598778339186 519.0 1.0 371.0 
174.0002533154636 210735.0 NaN 1538.0253841015365 0.5000909768093387 519.0 0.0 370.0 
176.00025031588677 210748.0 NaN 1541.2478289913183 0.5000626421855067 520.0 0.0 371.0 
178.00026231419412 210752.0 NaN 1541.3867735470935 0.5001746584190025 520.0 0.0 371.0 
180.00026231419412 210726.0 NaN 1541.4001336005363 0.5000600090613437 521.0 0.0 371.0 
182.00026231419412 210731.0 NaN 1538.188376753509 0.5001268259295434 518.0 1.0 369.0 
184.00026231419412 210725.0 NaN 1538.0440881763545 0.50007554689075 519.0 0.0 370.0 
186.00026231419412 210726.0 NaN 1540.9512358049456 0.5000148411615547 518.0 0.0 371.0 
188.00024731630992 210748.0 NaN 1537.7287909151637 0.5002200476923491 516.0 2.0 368.0 
190.0002533154636 210725.0 NaN 1534.6399465597847 0.4999951384637624 516.0 2.0 367.0 
192.0002533154636 210727.0 NaN 1537.7234468937882 0.5002580760124062 515.0 2.0 368.0 
194.0002533154636 210696.0 NaN 1537.7581830327335 0.5002478512760049 518.0 0.0 370.0 
196.0002533154636 210699.0 NaN 1537.9211756847028 0.5000369025457077 518.0 0.0 370.0 
198.00025031588677 210713.0 NaN 1538.0788243152972 0.500299897250194 518.0 0.0 370.0 
200.00026231419412 210798.0 NaN 1538.1990647962602 0.5003308895832468 517.0 1.0 369.0 
202.00026231419412 210791.0 NaN 1544.2538410153636 0.5001070316737874 518.0 1.0 371.0 
204.00026231419412 210774.0 NaN 1547.2651970607883 0.4999666164466502 520.0 0.0 373.0 
206.00026231419412 210770.0 NaN 1544.2244488977974 0.49994519207627625 519.0 0.0 372.0 
208.00026231419412 210779.0 NaN 1538.0253841015365 0.5000959331159412 518.0 1.0 369.0 
210.00024731630992 210841.0 NaN 1534.8991315965272 0.5002796330623569 516.0 1.0 368.0 
212.0002533154636 210841.0 NaN 1537.9158316633273 0.500230377946062 517.0 1.0 369.0 
214.0002533154636 210818.0 NaN 1540.9138276553092 0.5006617953702001 515.0 3.0 368.0 
216.0002533154636 210826.0 NaN 1537.9318637274544 0.49996676304329934 514.0 3.0 367.0 
218.0002533154636 210855.0 NaN 1537.894455577821 0.5003789473775535 513.0 1.0 369.0 
220.00025031588677 210857.0 NaN 1537.8891115564454 0.5002799152784647 514.0 0.0 370.0 
222.00026231419412 210840.0 NaN 1534.8216432865727 0.5000140118446528 514.0 0.0 369.0 
224.00026231419412 210837.0 NaN 1534.789579158318 0.4999614479782879 514.0 0.0 369.0 
226.00026231419412 210847.0 NaN 1537.8757515030065 0.5001752729136305 514.0 0.0 370.0 
228.00026231419412 210876.0 NaN 1544.0748162992638 0.5001417715963506 514.0 2.0 370.0 
230.00026231419412 210911.0 NaN 1544.2271209084818 0.5006520265145422 515.0 1.0 371.0 
232.00024731630992 210865.0 NaN 1544.2404809619245 0.5001110135126496 514.0 1.0 371.0 
234.0002533154636 210854.0 NaN 1547.3800935203726 0.4999732848260575 514.0 1.0 372.0 
236.0002533154636 210866.0 NaN 1541.1917167668664 0.5002872766717462 513.0 1.0 370.0 
238.0002533154636 210878.0 NaN 1541.1409485637935 0.5003544736219719 513.0 1.0 370.0 
240.0002533154636 210917.0 NaN 1537.9746158984635 0.5002503660125912 512.0 2.0 368.0 
242.00025031588677 210918.0 NaN 1534.8029392117546 0.49996958101396966 513.0 0.0 369.0 
244.00026231419412 210931.0 NaN 1534.7441549766183 0.499777339618091 515.0 0.0 369.0 
246.00026231419412 210968.0 NaN 1534.7414829659301 0.4998823425134546 515.0 0.0 369.0 
248.00026231419412 210972.0 NaN 1534.7227788911155 0.5002926935125603 514.0 0.0 369.0 
250.00026231419412 210985.0 NaN 1534.7094188376755 0.5002196769507545 514.0 1.0 368.0 
252.00026231419412 210946.0 NaN 1531.617902471609 0.49998296165848227 514.0 0.0 368.0 
254.00024731630992 210932.0 NaN 1528.5397461589844 0.4999414175571304 512.0 1.0 366.0 
256.0002533154636 210962.0 NaN 1528.6519706078818 0.5001709402433342 515.0 0.0 367.0 
258.00025331546357 210975.0 NaN 1528.750835003339 0.5000709320037697 515.0 0.0 367.0 
260.00025331546357 210986.0 NaN 1528.873747494991 0.4999508129861327 516.0 0.0 367.0 
262.00025331546357 210986.0 NaN 1528.798931195725 0.4999082010757741 515.0 1.0 366.0 
264.0002503158867 211006.0 NaN 1528.9084836339362 0.5002750063537178 515.0 1.0 366.0 
266.00026231419406 211034.0 NaN 1544.3473613894453 0.4999396697674351 514.0 0.0 372.0 
268.00026231419406 211064.0 NaN 1544.3152972611908 0.5000261257531979 513.0 1.0 371.0 
270.00026231419406 211181.0 NaN 1541.266533066134 0.5003469605333855 514.0 0.0 371.0 
272.00026231419406 211149.0 NaN 1534.904475617902 0.5000247283275718 513.0 0.0 369.0 
274.00026231419406 211150.0 NaN 1534.7548430193729 0.5000366625129969 512.0 0.0 369.0 
276.00024731630987 211151.0 NaN 1537.776887107548 0.5000914024230524 514.0 0.0 370.0 
278.00025331546357 211141.0 NaN 1540.7855711422842 0.5000292146564477 512.0 1.0 370.0 
280.00025331546357 211149.0 NaN 1540.7241148964613 0.5003906645714925 514.0 1.0 370.0 
282.00025331546357 211151.0 NaN 1540.7054108216453 0.5000760132168781 516.0 1.0 370.0 
284.00025331546357 211141.0 NaN 1534.6319305277207 0.5002319637993983 516.0 0.0 369.0 
286.0002503158867 211155.0 NaN 1534.7281229124908 0.5005652866241277 515.0 0.0 369.0 
288.00026231419406 211131.0 NaN 1534.7575150300613 0.5002639580326389 514.0 0.0 369.0 
290.00026231419406 211120.0 NaN 1531.644622578491 0.5004474789168832 511.0 0.0 368.0 
292.00026231419406 211089.0 NaN 1531.5751503006 0.500258586412459 512.0 0.0 368.0 
294.00026231419406 211051.0 NaN 1537.7154308617248 0.5003884850630663 512.0 0.0 370.0 
296.00026231419406 211042.0 NaN 1537.7074148296613 0.500196315751494 511.0 1.0 369.0 
298.00024731630987 211034.0 NaN 1540.742818971275 0.5000476853003246 512.0 0.0 371.0 
300.00025331546357 211046.0 NaN 1540.7641950567818 0.5002238965879591 511.0 0.0 371.0 
302.00025331546357 211056.0 NaN 1537.763527054109 0.5003735168208266 510.0 1.0 369.0 
304.00025331546357 211019.0 NaN 1537.8383433533727 0.5011322052196534 509.0 0.0 370.0 
306.00025331546357 210942.0 NaN 1534.8563794255183 0.5003618615708711 510.0 0.0 369.0 
308.0002503158867 210922.0 NaN 1531.7648630594545 0.5002337686714048 509.0 0.0 368.0 
310.00026231419406 210968.0 NaN 1531.740814963261 0.5000829253630734 507.0 2.0 366.0 
312.00026231419406 210996.0 NaN 1534.7361389445546 0.5001269340027666 508.0 1.0 368.0 
314.00026231419406 210995.0 NaN 1534.5865063460271 0.5001173204164192 511.0 0.0 369.0 
316.00026231419406 210989.0 NaN 1534.6158984635933 0.5002796133194146 512.0 0.0 369.0 
318.00026231419406 210966.0 NaN 1534.6372745490999 0.5003555061499976 511.0 0.0 369.0 
320.00024731630987 210981.0 NaN 1534.7254509018028 0.5002628822784536 510.0 1.0 368.0 
322.00025331546357 210992.0 NaN 1531.7541750167002 0.5005270140395948 509.0 1.0 367.0 
324.00025331546357 210964.0 NaN 1531.7354709418819 0.5006212194539951 510.0 0.0 368.0 
326.00025331546357 210934.0 NaN 1531.7702070808273 0.5003148490064043 510.0 0.0 368.0 
328.00025331546357 210921.0 NaN 1534.875083500334 0.5002052457149022 509.0 1.0 368.0 
330.0002503158867 210937.0 NaN 1528.7294589178366 0.5003493078854833 507.0 1.0 366.0 
332.00026231419406 210929.0 NaN 1528.6893787575154 0.500424226365056 508.0 0.0 367.0 
334.00026231419406 210865.0 NaN 1534.714762859052 0.5003253228861058 510.0 0.0 369.0 
336.00026231419406 210856.0 NaN 1525.3760855043424 0.5004392673024243 509.0 1.0 365.0 
338.00026231419406 210799.0 NaN 1525.3012692050756 0.5001390431954511 510.0 0.0 366.0 
340.00026231419406 210824.0 NaN 1525.2130928523723 0.5002411751844162 511.0 0.0 366.0 
342.00024731630987 210798.0 NaN 1525.1382765531066 0.5002767157863328 512.0 1.0 365.0 
344.00025331546357 210766.0 NaN 1531.3079492317975 0.5002561478838762 516.0 0.0 368.0 
346.00025331546357 210759.0 NaN 1534.5010020040093 0.5001424819889783 516.0 0.0 369.0 
348.00025331546357 210757.0 NaN 1531.4789579158307 0.5000065410863016 515.0 0.0 368.0 
350.00025331546357 210769.0 NaN 1525.4241816967274 0.5002753349131357 513.0 1.0 365.0 
352.0002503158867 210731.0 NaN 1525.4161656646638 0.5005958604359051 517.0 0.0 366.0 
354.00026231419406 210686.0 NaN 1525.5257181028728 0.500036627081624 515.0 1.0 365.0 
356.00026231419406 210699.0 NaN 1525.5898463593849 0.500243345383666 515.0 0.0 366.0 
358.00026231419406 210711.0 NaN 1525.5951903807631 0.5000311949280476 515.0 0.0 366.0 
360.00026231419406 210744.0 NaN 1525.6780227120908 0.5005479543699235 515.0 0.0 366.0 
362.00026231419406 210707.0 NaN 1525.6806947227794 0.5009266274822726 517.0 0.0 366.0 
364.00024731630987 210600.0 NaN 1525.6700066800274 0.5002740777963508 516.0 0.0 366.0 
366.00025331546357 210612.0 NaN 1516.3794255177008 0.5004986585526876 515.0 1.0 362.0 
368.00025331546357 210586.0 NaN 1510.2471609886447 0.5002262827854503 515.0 1.0 360.0 
370.00025331546357 210594.0 NaN 1507.0514362057454 0.5003540984308741 518.0 0.0 360.0 
372.00025331546357 210522.0 NaN 1510.0360721442898 0.5007714559155864 517.0 0.0 361.0 
374.0002503158867 210373.0 NaN 1506.944555778224 0.5000105803084657 519.0 0.0 360.0 
376.00026231419406 210381.0 NaN 1506.9231796927181 0.5003733869000907 517.0 1.0 359.0 
378.00026231419406 210368.0 NaN 1506.8884435537736 0.5000595082498596 519.0 1.0 359.0 
380.00026231419406 210383.0 NaN 1506.9285237140941 0.500627205996253 520.0 1.0 359.0 
382.00026231419406 210298.0 NaN 1509.9826319305273 0.5008911949779788 517.0 1.0 360.0 
384.00026231419406 210173.0 NaN 1512.988643954575 0.5006943702563331 517.0 1.0 361.0 
386.00024731630987 210168.0 NaN 1516.0774883099539 0.5015856984425106 520.0 0.0 363.0 
388.00025331546357 210174.0 NaN 1516.0213760855033 0.49998318401577957 520.0 0.0 363.0 
390.00025331546357 210175.0 NaN 1509.9772879091524 0.500422299962098 521.0 0.0 361.0 
392.00025331546357 210105.0 NaN 1510.012024048097 0.5004967252950078 519.0 0.0 361.0 
394.00025331546357 210055.0 NaN 1510.0654642618567 0.5000516776177159 518.0 0.0 361.0 
396.0002503158867 210066.0 NaN 1513.1543086172358 0.5002602587819043 519.0 0.0 362.0 
398.00026231419406 210070.0 NaN 1507.0674682698727 0.49996548406040703 521.0 0.0 360.0 
400.00026231419406 210143.0 NaN 1503.9866399465607 0.5006254857502828 519.0 1.0 358.0 
402.00026231419406 210132.0 NaN 1510.0601202404816 0.5007621051333552 521.0 0.0 361.0 
404.00026231419406 210061.0 NaN 1509.9933199732811 0.5000989376268172 521.0 0.0 361.0 
406.00026231419406 210049.0 NaN 1510.1082164328643 0.5003480033952045 521.0 1.0 360.0 
408.00024731630987 210078.0 NaN 1513.3012692050756 0.5001258773425561 523.0 0.0 362.0 
410.00025331546357 210132.0 NaN 1516.3794255177006 0.5003535521907876 523.0 0.0 363.0 
412.00025331546357 210080.0 NaN 1522.639946559785 0.5004379474874942 523.0 0.0 365.0 
414.00025331546357 210020.0 NaN 1522.677354709418 0.5002537506701036 523.0 0.0 365.0 
416.00025331546357 210030.0 NaN 1519.5591182364726 0.5004585901769559 525.0 0.0 364.0 
418.0002503158867 210014.0 NaN 1513.3279893119568 0.5000441884402241 520.0 0.0 362.0 
420.00026231419406 210056.0 NaN 1510.233800935203 0.500552961382124 517.0 0.0 361.0 
422.00026231419406 210038.0 NaN 1513.1596526386097 0.5005295437858628 517.0 1.0 361.0 
424.00026231419406 210022.0 NaN 1510.054776219106 0.500318429169103 518.0 2.0 359.0 
426.00026231419406 210028.0 NaN 1510.0227120908476 0.5006148327291745 516.0 1.0 360.0 
428.00026231419406 209967.0 NaN 1513.0340681362727 0.5005203656654669 517.0 1.0 361.0 
430.00024731630987 209968.0 NaN 1506.8269873079482 0.5003198450352516 525.0 0.0 360.0 
432.00025331546357 209986.0 NaN 1513.0340681362727 0.5004125662312474 525.0 0.0 362.0 
434.00025331546357 209989.0 NaN 1519.2625250501 0.49995105371617404 526.0 1.0 363.0 
436.00025331546357 210021.0 NaN 1522.4395457581822 0.5008037459946694 526.0 0.0 365.0 
438.00025331546357 209934.0 NaN 1525.5016700066813 0.5006481519375344 526.0 1.0 365.0 
440.0002503158867 209939.0 NaN 1528.5611222444904 0.5004114599541414 527.0 1.0 366.0 
442.00026231419406 209996.0 NaN 1528.5156980627912 0.5008131275913212 529.0 0.0 367.0 
444.00026231419406 209988.0 NaN 1525.3413493653977 0.5007209804618993 527.0 1.0 365.0 
446.00026231419406 209971.0 NaN 1519.219772879091 0.5009543816103387 526.0 1.0 363.0 
448.00026231419406 209890.0 NaN 1537.7875751503 0.5008157944380043 527.0 0.0 370.0 
450.00026231419406 209907.0 NaN 1547.0541082164336 0.5008698772901116 529.0 0.0 373.0 
452.00024731630987 209929.0 NaN 1550.0440881763545 0.500701871777814 528.0 0.0 374.0 
454.00025331546357 209902.0 NaN 1550.0334001335998 0.5009441348335727 527.0 1.0 373.0 
456.00025331546357 209877.0 NaN 1550.0414161656636 0.5010211487816109 526.0 0.0 374.0 
458.00025331546357 209828.0 NaN 1550.1028724114908 0.5003240112401434 526.0 0.0 374.0 
460.00025331546357 209855.0 NaN 1547.0621242484974 0.5008226503485227 525.0 0.0 373.0 
462.0002503158867 209844.0 NaN 1543.890447561791 0.5006181155409615 523.0 0.0 372.0 
464.00026231419406 209833.0 NaN 1543.895791583166 0.500533992488582 524.0 0.0 372.0 
466.00026231419406 209825.0 NaN 1543.9144956579817 0.5010340539966373 526.0 0.0 372.0 
468.00026231419406 209768.0 NaN 1543.983967935873 0.5012162319003303 523.0 2.0 370.0 
470.00026231419406 209729.0 NaN 1543.967935871745 0.5008985572586077 524.0 2.0 370.0 
472.00026231419406 209710.0 NaN 1540.825651302606 0.5009879232892317 524.0 2.0 369.0 
474.00024731630987 209673.0 NaN 1531.417501670007 0.5009402030459175 521.0 1.0 367.0 
476.00025331546357 209674.0 NaN 1522.1482965931848 0.5010698320274432 520.0 1.0 364.0 
478.00025331546357 209646.0 NaN 1522.263193052773 0.5010711246146778 521.0 1.0 364.0 
480.00025331546357 209637.0 NaN 1525.3360053440206 0.5004815274821101 521.0 0.0 366.0 
482.00025331546357 209681.0 NaN 1525.3653974615909 0.5005673523252149 520.0 1.0 365.0 
484.0002503158867 209654.0 NaN 1525.317301269206 0.5004185157746778 520.0 0.0 366.0 
486.00026231419406 209693.0 NaN 1513.0554442217758 0.5007478978681672 518.0 0.0 362.0 
488.00026231419406 209661.0 NaN 1506.899131596527 0.5005687399189045 516.0 1.0 359.0 
490.00026231419406 209687.0 NaN 1491.6018704074818 0.5005952259628546 516.0 0.0 355.0 
492.00026231419406 209731.0 NaN 1491.5751503006004 0.5005492342848611 513.0 0.0 355.0 
494.00026231419406 209744.0 NaN 1494.6639946559794 0.5008109215058489 511.0 0.0 356.0 
496.00024731630987 209721.0 NaN 1494.6426185704736 0.5005845421148765 508.0 0.0 356.0 
498.00025331546357 209705.0 NaN 1491.6259185036733 0.500423558053559 508.0 0.0 355.0 
500.00025331546357 209693.0 NaN 1482.5624582498335 0.5006450137717157 513.0 0.0 352.0 
502.00025331546357 209731.0 NaN 1482.5865063460262 0.5006103985080991 513.0 0.0 352.0 
504.00025331546357 209708.0 NaN 1485.683366733466 0.5006483232096043 513.0 0.0 353.0 
506.0002503158867 209668.0 NaN 1494.9071476285908 0.5004995111991616 515.0 0.0 356.0 
508.00026231419406 209659.0 NaN 1485.7261189044748 0.5006855296457959 513.0 0.0 353.0 
510.00026231419406 209633.0 NaN 1491.7835671342698 0.5003707660518643 514.0 0.0 355.0 
512.0002623141941 209675.0 NaN 1491.6659986639936 0.5007612643525153 514.0 0.0 355.0 
514.0002623141941 209685.0 NaN 1479.2892451569815 0.5011030920789787 515.0 0.0 351.0 
516.0002623141941 209713.0 NaN 1476.1015364061454 0.5006402319324554 513.0 0.0 350.0 
518.0002473163099 209681.0 NaN 1460.7882431529729 0.5008528087660826 511.0 1.0 344.0 
520.0002533154636 209658.0 NaN 1460.8096192384758 0.5004429932540848 512.0 0.0 345.0 
522.0002533154636 209693.0 NaN 1460.8149632598538 0.5005938703714952 510.0 0.0 345.0 
524.0002533154636 209699.0 NaN 1463.9144956579821 0.5008343835340604 507.0 0.0 346.0 
526.0002533154636 209739.0 NaN 1454.7254509018028 0.5008671503025753 506.0 0.0 343.0 
528.0002503158868 209700.0 NaN 1451.6579826319298 0.5011566323292672 503.0 1.0 341.0 
530.0002623141941 209682.0 NaN 1451.649966599866 0.5004509755144684 506.0 0.0 342.0 
532.0002623141941 209659.0 NaN 1460.8710754843012 0.5007017085938501 505.0 1.0 344.0 
534.0002623141941 209651.0 NaN 1460.809619238476 0.5006222748825437 503.0 0.0 345.0 
536.0002623141941 209699.0 NaN 1457.8543754175012 0.5005840387183847 506.0 0.0 344.0 
538.0002623141941 209670.0 NaN 1461.0981963927848 0.5006224575172141 506.0 0.0 345.0 
540.0002473163099 209641.0 NaN 1464.1576486305937 0.5004970884773835 508.0 0.0 346.0 
542.0002533154636 209755.0 NaN 1470.2765531062116 0.5006369334285875 508.0 0.0 348.0 
544.0002533154636 209728.0 NaN 1473.354709418837 0.5004836894877208 511.0 0.0 349.0 
546.0002533154636 209723.0 NaN 1470.2979291917172 0.5005129838560484 510.0 0.0 348.0 
548.0002533154636 209711.0 NaN 1467.2411489645965 0.5007881379101468 512.0 0.0 347.0 
550.0002503158868 209679.0 NaN 1467.1690046760182 0.5004988328459222 511.0 1.0 346.0 
552.0002623141941 209775.0 NaN 1467.1796927187715 0.5008225624947242 509.0 1.0 346.0 
554.0002623141941 209760.0 NaN 1467.1182364729457 0.5008562947524348 510.0 0.0 347.0 
556.0002623141941 209785.0 NaN 1467.1289245156988 0.5006461042817801 512.0 0.0 347.0 
558.0002623141941 209767.0 NaN 1467.1422845691377 0.5006052555897741 513.0 0.0 347.0 
560.0002623141941 209745.0 NaN 1457.8810955243816 0.5005034765075731 506.0 0.0 344.0 
562.0002473163099 209814.0 NaN 1457.8650634602543 0.5009780574333916 507.0 0.0 344.0 
564.0002533154636 209801.0 NaN 1454.7441549766197 0.5005384061568866 506.0 0.0 343.0 
566.0002533154636 209829.0 NaN 1460.8416833667334 0.5006891520671136 508.0 0.0 345.0 
568.0002533154636 209804.0 NaN 1482.44488977956 0.5005641248333156 510.0 0.0 352.0 
570.0002533154636 209787.0 NaN 1482.407481629927 0.5006678223450018 510.0 0.0 352.0 
572.0002503158868 209839.0 NaN 1479.3640614562455 0.5006786015060051 510.0 0.0 351.0 
574.0002623141941 209829.0 NaN 1476.2565130260525 0.500548342215676 508.0 0.0 350.0 
576.0002623141941 209864.0 NaN 1482.4529058116239 0.500671042868367 508.0 0.0 352.0 
578.0002623141941 209826.0 NaN 1479.4468937875747 0.5004811612877371 509.0 1.0 350.0 
580.0002623141941 209855.0 NaN 1485.6085504342013 0.5007379456167672 510.0 0.0 353.0 
582.0002623141941 209885.0 NaN 1485.5524382097533 0.5006931214197085 509.0 0.0 353.0 
584.0002473163099 209892.0 NaN 1488.515698062792 0.5006718881836332 508.0 1.0 353.0 
586.0002533154636 209934.0 NaN 1485.4883099532394 0.5008916579597293 516.0 0.0 353.0 
588.0002533154636 209898.0 NaN 1485.5898463593846 0.5011561628481673 519.0 0.0 353.0 
590.0002533154636 209900.0 NaN 1488.7561790247169 0.5004080224886004 521.0 0.0 354.0 
592.0002533154636 209903.0 NaN 1488.8603874415487 0.5009179507766002 522.0 0.0 354.0 
594.0002503158868 209891.0 NaN 1491.9358717434877 0.5006482773789634 524.0 0.0 355.0 
596.0002623141941 209918.0 NaN 1488.8684034736148 0.500361026752418 529.0 0.0 354.0 
598.0002623141941 209933.0 NaN 1488.9245156980633 0.5002889754816019 527.0 0.0 354.0 
600.0002623141941 209976.0 NaN 1491.839679358718 0.5006607614761582 529.0 0.0 355.0 
602.0002623141941 209954.0 NaN 1500.8390113560454 0.5007662551893026 531.0 0.0 358.0 
604.0002623141941 209958.0 NaN 1497.6940547762185 0.5005639762326767 530.0 0.0 357.0 
606.0002473163099 209992.0 NaN 1500.694722778891 0.5004333450610058 528.0 0.0 358.0 
608.0002533154636 210008.0 NaN 1506.9098196392797 0.5006656721679561 526.0 0.0 360.0 
610.0002533154636 210038.0 NaN 1513.0875083500343 0.5012021159936195 526.0 0.0 362.0 
612.0002533154636 209961.0 NaN 1510.0066800267193 0.5012174300846364 527.0 0.0 361.0 
614.0002533154636 209930.0 NaN 1506.952571810288 0.5008910377678228 527.0 0.0 360.0 
616.0002503158868 209932.0 NaN 1507.032732130928 0.5006784190031808 527.0 0.0 360.0 
618.0002623141941 209917.0 NaN 1504.0881763527061 0.5005468561457898 526.0 1.0 358.0 
620.0002623141941 209971.0 NaN 1513.3573814295264 0.500878944849429 525.0 2.0 360.0 
622.0002623141941 209956.0 NaN 1525.5925183700726 0.5008975189351392 528.0 0.0 366.0 
624.0002623141941 209949.0 NaN 1522.4903139612554 0.5007672387973683 525.0 0.0 365.0 
626.0002473163099 209970.0 NaN 1525.5390781563121 0.5005739449704781 526.0 0.0 366.0 
628.0002533154636 209957.0 NaN 1525.5978623914484 0.5008893907675981 527.0 0.0 366.0 
630.0002533154636 209986.0 NaN 1519.4709418837667 0.5006834997238082 523.0 0.0 364.0 
632.0002533154636 209991.0 NaN 1522.4395457581822 0.500999859104264 522.0 0.0 365.0 
634.0002503158868 209976.0 NaN 1519.3667334669346 0.5003201730664355 522.0 0.0 364.0 
636.0002623141941 210063.0 NaN 1522.3513694054789 0.500361912866004 528.0 0.0 365.0 
638.0002623141941 210057.0 NaN 1519.2171008684031 0.5008549753051205 531.0 0.0 364.0 
640.0002623141941 210076.0 NaN 1522.3032732130919 0.5005406898543183 529.0 0.0 365.0 
642.0002623141941 210095.0 NaN 1525.413493653974 0.5003926852377417 531.0 1.0 365.0 
644.0002473163099 210106.0 NaN 1522.3540414161648 0.5003366340106258 530.0 1.0 364.0 
646.0002533154636 210128.0 NaN 1519.4041416165655 0.5003667055669475 528.0 0.0 364.0 
648.0002533154636 210139.0 NaN 1525.6673346693374 0.5003165134081007 525.0 0.0 366.0 
650.0002533154636 210167.0 NaN 1522.7307949231806 0.5006157731376544 522.0 0.0 365.0 
652.0002503158868 210165.0 NaN 1525.6753507014018 0.5005954818811871 523.0 0.0 366.0 
654.0002623141941 210168.0 NaN 1525.637942551771 0.5002328467580388 522.0 0.0 366.0 
656.0002623141941 210246.0 NaN 1534.786907147628 0.5005779752196148 521.0 0.0 369.0 
658.0002623141941 210239.0 NaN 1544.0240480961918 0.5008126772453505 520.0 0.0 372.0 
660.0002623141941 210199.0 NaN 1544.0293921175696 0.500390493082982 519.0 0.0 372.0 
662.0002473163099 210228.0 NaN 1544.016032064127 0.5005836135280004 517.0 1.0 371.0 
664.0002533154636 210241.0 NaN 1541.0180360721456 0.500636913626184 517.0 0.0 371.0 
#####################################################################
# End of data export. Simulation finished at: 2019-03-06T20:09+0000 #
#####################################################################
