#####################################################################
# Alchemist log file - simulation started at: 2019-03-18T14:26+0000 #
#####################################################################
# seed = 9.0, bandwidth = 1000.0, propagationDelay = 0.01, baserange = 31.622776601683796
#
# The columns have the following meaning: 
# time neighbor_count[Sum] <value>@neighbor_count[Sum] packet_size[Mean] mean_delay[Mean] crowd[Sum] overcrowded[Sum] risk[Sum] 
0.0 NaN NaN NaN NaN NaN NaN NaN 
2.0003374459614243 NaN NaN 4988.0 NaN 1497.0 0.0 1497.0 
4.000337445961424 NaN NaN 4988.0 NaN 1497.0 0.0 1497.0 
6.000337445961424 1389.0 NaN 4989.258517034068 0.30489152515260615 1497.0 0.0 1497.0 
8.000337445961424 2794.0 NaN 4996.951235804943 2.0023002677517168 1497.0 0.0 1497.0 
10.000337445961424 2794.0 NaN 4994.070808283233 4.002300267751717 1497.0 0.0 1497.0 
12.000337445961424 2795.0 NaN 4997.074148296593 3.0319607329579337 1496.0 1.0 1496.0 
14.000337445961424 2796.0 NaN 4993.675350701403 1.9939429412643925 1491.0 6.0 1491.0 
16.000337445961424 2796.0 NaN 4991.719438877755 3.9939429412643928 1491.0 6.0 1491.0 
18.000337445961424 2800.0 NaN 4993.039412157648 2.9832450920760016 1482.0 15.0 1482.0 
20.000337445961424 2804.0 NaN 4994.471609886439 2.076025068006397 1466.0 31.0 1466.0 
22.000337445961424 2804.0 NaN 4992.817635270541 3.9643229403468228 1466.0 31.0 1466.0 
24.000337445961424 2805.0 NaN 4994.490313961256 3.02310295188321 1458.0 39.0 1458.0 
26.000337445961424 2806.0 NaN 4992.390113560455 2.159892420333991 1446.0 51.0 1446.0 
28.000337445961424 2810.0 NaN 4991.2705410821645 3.9148782897782395 1446.0 51.0 1446.0 
30.000337445961424 2820.0 NaN 4991.933199732799 2.8150237887787486 1426.0 71.0 1426.0 
32.00033744596142 2824.0 NaN 4993.9933199732795 2.2395517087294308 1421.0 76.0 1421.0 
34.00033744596142 2826.0 NaN 4992.879091516366 3.909899771577644 1421.0 76.0 1421.0 
36.00033744596142 2833.0 NaN 4994.311289245157 2.959738079595448 1422.0 75.0 1422.0 
38.00033744596142 2838.0 NaN 4992.074816299265 2.3492529695144624 1425.0 72.0 1425.0 
40.00033744596142 2841.0 NaN 4991.230460921844 3.798166427473235 1430.0 67.0 1430.0 
42.00033744596142 2850.0 NaN 4991.850367401469 3.022009112682599 1425.0 72.0 1425.0 
44.00033744596142 2861.0 NaN 4993.731462925852 2.3610848069332904 1426.0 71.0 1426.0 
46.00033744596142 2863.0 NaN 4992.772211088844 3.9056381343105886 1425.0 72.0 1425.0 
48.00033744596142 2870.0 NaN 4994.150968603874 3.03571695831204 1418.0 79.0 1418.0 
50.00033744596142 2890.0 NaN 4991.983967935872 2.26070893383305 1418.0 79.0 1418.0 
52.00033744596142 2899.0 NaN 4991.2651970607885 3.966261259747289 1414.0 83.0 1414.0 
54.00033744596142 2907.0 NaN 4991.855711422846 3.138795390571993 1408.0 89.0 1408.0 
56.00033744596142 2911.0 NaN 4993.627254509018 2.476517241091876 1407.0 90.0 1407.0 
58.00033744596142 2913.0 NaN 4992.7241148964595 4.080822294139861 1411.0 86.0 1411.0 
60.00033744596142 2923.0 NaN 4993.9772879091515 3.0556646798625056 1413.0 84.0 1413.0 
62.00033744596142 2948.0 NaN 1518.4716098864392 2.161266195017041 611.0 81.0 283.0 
64.00033744596142 2949.0 NaN 1518.3674014696064 3.1342852915957296 563.0 81.0 283.0 
66.00033744596142 2956.0 NaN 1524.5718102872424 2.4194966791555497 508.0 85.0 281.0 
68.00033744596142 2955.0 NaN 1524.5931863727455 1.9829166201568915 473.0 83.0 283.0 
70.00033744596142 2955.0 NaN 1524.4355377421516 2.7735161113193985 445.0 80.0 286.0 
72.00033744596142 2969.0 NaN 1524.6225784903152 2.356962361549193 427.0 81.0 285.0 
74.00033744596142 2983.0 NaN 1524.4114896459575 1.9335174921804623 425.0 77.0 289.0 
76.00033744596142 2984.0 NaN 1524.2725450901814 2.7930135357366552 420.0 76.0 290.0 
78.00033744596142 2989.0 NaN 1527.4709418837667 2.3226274971457346 414.0 77.0 290.0 
80.00033744596142 2995.0 NaN 1530.714762859052 1.8458186935269525 410.0 78.0 290.0 
82.00033744596142 2991.0 NaN 1530.5303941215757 2.780457716574701 409.0 78.0 290.0 
84.00033744596142 2990.0 NaN 1533.8650634602548 2.322631226082432 408.0 79.0 290.0 
86.00033744596142 2971.0 NaN 1533.645958583836 1.9824566248224778 406.0 80.0 289.0 
88.00033744596142 2972.0 NaN 1533.5096860387453 2.8268335002483838 403.0 81.0 288.0 
90.00033744596142 2981.0 NaN 1533.63794255177 2.332931569043385 402.0 81.0 288.0 
92.00033744596142 2980.0 NaN 1533.6539746158999 2.0921793092284457 402.0 80.0 289.0 
94.00033744596142 2980.0 NaN 1533.5631262525062 2.869160554638254 398.0 80.0 289.0 
96.00033744596142 2967.0 NaN 1533.7795591182362 2.3830338190178098 398.0 80.0 289.0 
98.00033744596142 2951.0 NaN 1533.5390781563121 2.02653690584397 401.0 76.0 293.0 
100.00033744596142 2950.0 NaN 1533.4241816967274 2.769301113436743 400.0 76.0 293.0 
102.00033744596142 2940.0 NaN 1536.6305945223787 2.4230809178063044 395.0 81.0 289.0 
104.00033744596142 2917.0 NaN 1536.6332665330663 1.9654335203484776 399.0 77.0 293.0 
106.00033744596142 2921.0 NaN 1536.5584502338 2.820886318069293 398.0 78.0 292.0 
108.00033744596142 2928.0 NaN 1536.7267869071457 2.4354113328466926 393.0 83.0 287.0 
110.00033744596142 2920.0 NaN 1536.5958583834338 1.9312133639511795 393.0 83.0 287.0 
112.00033744596142 2920.0 NaN 1536.5290581162333 2.782672917088544 392.0 84.0 286.0 
114.00033744596142 2920.0 NaN 1542.875083500334 2.3369691321249255 393.0 82.0 290.0 
116.00033744596142 2917.0 NaN 1545.857047428191 1.884427884467959 394.0 81.0 292.0 
118.00033744596142 2932.0 NaN 1551.8824315297275 2.7488623294005095 396.0 80.0 295.0 
120.00033744596142 2949.0 NaN 1552.1683366733455 2.3401178650409666 398.0 79.0 296.0 
122.00033744596142 2963.0 NaN 1551.9118236472939 2.117436700290007 401.0 78.0 297.0 
124.00033744596142 2968.0 NaN 1551.8557114228454 2.9137745883417616 401.0 78.0 297.0 
126.00033744596142 2967.0 NaN 1548.911155644621 2.598176416265339 400.0 80.0 294.0 
128.0003374459614 2969.0 NaN 1552.0614562458272 2.190007762922581 403.0 77.0 298.0 
130.0003374459614 2972.0 NaN 1551.9625918503664 2.9428186530876226 402.0 78.0 297.0 
132.0003374459614 2963.0 NaN 1552.1576486305937 2.621714192296373 399.0 80.0 295.0 
134.0003374459614 2966.0 NaN 1551.9599198396795 2.301990225275532 401.0 78.0 297.0 
136.0003374459614 2976.0 NaN 1548.8042752171 3.1499931846818034 400.0 78.0 296.0 
138.0003374459614 2979.0 NaN 1552.0748162992638 2.8117500523527603 399.0 77.0 298.0 
140.0003374459614 2986.0 NaN 1554.9953239812971 2.368778739163537 396.0 79.0 297.0 
142.0003374459614 2980.0 NaN 1554.888443553773 3.2221624653294896 395.0 81.0 295.0 
144.0003374459614 2962.0 NaN 1555.1529726118908 2.809064667429377 392.0 84.0 292.0 
146.0003374459614 2957.0 NaN 1555.0220440881756 2.4246842193916147 389.0 87.0 289.0 
148.0003374459614 2964.0 NaN 1554.9178356713426 3.18396106392442 390.0 86.0 290.0 
150.0003374459614 2969.0 NaN 1558.2391449565819 2.6506800718990347 392.0 85.0 292.0 
152.0003374459614 2977.0 NaN 1555.0674682698727 2.271713065365702 390.0 86.0 290.0 
154.0003374459614 2979.0 NaN 1545.8249832999336 2.996290230696508 394.0 81.0 292.0 
156.0003374459614 2980.0 NaN 1536.8229792919183 2.563410965570828 390.0 84.0 286.0 
158.0003374459614 2989.0 NaN 1536.710754843018 2.217293331583264 391.0 85.0 285.0 
160.0003374459614 2992.0 NaN 1536.6760187040727 2.8984745208038856 387.0 87.0 283.0 
162.0003374459614 2984.0 NaN 1536.8096192384755 2.625141992695179 387.0 88.0 282.0 
164.0003374459614 2981.0 NaN 1539.8343353373427 2.2179188793405578 386.0 89.0 282.0 
166.0003374459614 2974.0 NaN 1539.7434869739477 2.917819085620131 385.0 90.0 281.0 
168.0003374459614 2972.0 NaN 1542.997995991982 2.5917255408381608 382.0 91.0 281.0 
170.0003374459614 2980.0 NaN 1545.905143620573 2.1137302384960175 382.0 89.0 284.0 
172.0003374459614 2980.0 NaN 1548.8951235804939 3.021245219622445 382.0 89.0 285.0 
174.0003374459614 2992.0 NaN 1545.93720774883 2.630347178827672 381.0 88.0 285.0 
176.0003374459614 3000.0 NaN 1549.0634602538423 2.2734643025147925 382.0 86.0 288.0 
178.0003374459614 3009.0 NaN 1548.9245156980637 3.117564498920919 384.0 85.0 289.0 
180.0003374459614 3005.0 NaN 1542.9819639278544 2.612241873880767 379.0 90.0 282.0 
182.0003374459614 2999.0 NaN 1542.7628590514364 2.323731149879222 377.0 88.0 284.0 
184.0003374459614 2997.0 NaN 1542.7494989979973 3.102222535579253 379.0 87.0 285.0 
186.0003374459614 2999.0 NaN 1539.8744154976637 2.70110017739825 378.0 87.0 284.0 
188.0003374459614 3011.0 NaN 1542.8830995324 2.3849178338274535 377.0 87.0 285.0 
190.0003374459614 3009.0 NaN 1542.8109552438207 3.073838715047839 377.0 88.0 284.0 
192.0003374459614 2997.0 NaN 1542.960587842352 2.7023516356806114 373.0 93.0 279.0 
194.0003374459614 2988.0 NaN 1545.8517034068154 2.229790821166132 374.0 93.0 280.0 
196.0003374459614 2987.0 NaN 1545.8249832999338 2.990433553259135 368.0 99.0 274.0 
198.0003374459614 2989.0 NaN 1542.9018036072152 2.5784725709264134 365.0 102.0 270.0 
200.0003374459614 2984.0 NaN 1542.9659318637273 2.1686302110413824 366.0 102.0 270.0 
202.0003374459614 2981.0 NaN 1545.8784235136936 3.0080331604690462 364.0 104.0 269.0 
204.0003374459614 2982.0 NaN 1549.122244488979 2.6119047755323606 368.0 101.0 273.0 
206.0003374459614 2969.0 NaN 1549.0180360721456 2.2302208016956966 378.0 91.0 283.0 
208.0003374459614 2971.0 NaN 1548.9458917835664 2.9879068784423874 377.0 90.0 284.0 
210.0003374459614 2964.0 NaN 1546.0040080160336 2.5482799854008586 378.0 87.0 286.0 
212.0003374459614 2954.0 NaN 1545.907815631264 2.2742707341916395 377.0 89.0 284.0 
214.0003374459614 2945.0 NaN 1542.8029392117546 2.9639867787373415 376.0 89.0 283.0 
216.0003374459614 2949.0 NaN 1546.0334001335998 2.6393453957413078 371.0 93.0 280.0 
218.0003374459614 2949.0 NaN 1549.0714762859063 2.3306939827228828 370.0 96.0 278.0 
220.0003374459614 2957.0 NaN 1548.969939879761 3.0876386006840435 371.0 95.0 279.0 
222.0003374459614 2969.0 NaN 1548.9832999332002 2.8599993190682707 374.0 94.0 280.0 
224.0003374459614 2968.0 NaN 1548.9939879759522 2.495059293990777 371.0 96.0 278.0 
226.0003374459614 2971.0 NaN 1548.9378757515026 3.0994671615132905 374.0 93.0 281.0 
228.0003374459614 2946.0 NaN 1546.0601202404819 2.7525449152046235 370.0 96.0 277.0 
230.0003374459614 2939.0 NaN 1542.877755511021 2.3341671821468566 378.0 87.0 285.0 
232.0003374459614 2937.0 NaN 1548.9111556446205 3.2518217353956613 371.0 93.0 281.0 
234.0003374459614 2934.0 NaN 1548.9752839011364 2.8567812078856467 368.0 96.0 278.0 
236.0003374459614 2929.0 NaN 1552.2084168336658 2.2840737794302166 365.0 99.0 276.0 
238.0003374459614 2928.0 NaN 1552.0534402137616 3.116594500679371 365.0 99.0 276.0 
240.0003374459614 2911.0 NaN 1549.1275885103548 2.668456247562402 361.0 103.0 271.0 
242.0003374459614 2902.0 NaN 1545.8784235136932 2.389004638647627 363.0 102.0 271.0 
244.0003374459614 2900.0 NaN 1545.8329993319976 3.1667900839783747 368.0 98.0 275.0 
246.0003374459614 2891.0 NaN 1542.8724114896452 2.7785464826279647 372.0 93.0 279.0 
248.0003374459614 2869.0 NaN 1542.9018036072155 2.3838672974986888 373.0 92.0 280.0 
250.0003374459614 2863.0 NaN 1539.7327989311973 3.023886149449781 372.0 93.0 278.0 
252.0003374459614 2863.0 NaN 1539.8022712090844 2.7891305510031534 371.0 94.0 277.0 
254.0003374459614 2871.0 NaN 1539.7060788243157 2.3552001472302093 372.0 93.0 278.0 
256.0003374459614 2868.0 NaN 1536.5637942551757 3.148838131796604 377.0 87.0 283.0 
258.0003374459614 2870.0 NaN 1536.684034736139 2.7310967511254653 377.0 86.0 284.0 
260.0003374459614 2855.0 NaN 1533.603206412827 2.2408117197518864 378.0 83.0 286.0 
262.0003374459614 2866.0 NaN 1536.5718102872424 3.1394774291531817 379.0 83.0 287.0 
264.0003374459614 2873.0 NaN 1536.7454909819635 2.617496598188006 380.0 83.0 287.0 
266.0003374459614 2873.0 NaN 1536.6492985971938 2.2353706676850873 381.0 82.0 288.0 
268.0003374459614 2879.0 NaN 1533.5310621242481 2.977352638591599 381.0 82.0 287.0 
270.0003374459614 2879.0 NaN 1530.6239144956573 2.5342810048371662 378.0 83.0 285.0 
272.0003374459614 2880.0 NaN 1536.6973947895792 2.3538466667921343 383.0 79.0 291.0 
274.0003374459614 2885.0 NaN 1536.58784235137 3.1136451194901476 382.0 79.0 291.0 
276.0003374459614 2884.0 NaN 1542.8830995324 2.770734471410871 382.0 79.0 293.0 
278.0003374459614 2885.0 NaN 1548.9325317301273 2.5318185216636127 390.0 75.0 299.0 
280.0003374459614 2888.0 NaN 1555.0781563126272 3.215761175064197 391.0 75.0 301.0 
282.0003374459614 2871.0 NaN 1555.1235804943203 2.95146838403816 393.0 74.0 302.0 
284.0003374459614 2847.0 NaN 1558.1456245825 2.514258428346762 391.0 74.0 303.0 
286.0003374459614 2855.0 NaN 1554.9525718102886 3.31783951390949 392.0 74.0 302.0 
288.0003374459614 2855.0 NaN 1555.126252505009 2.996683697550278 391.0 74.0 302.0 
290.0003374459614 2853.0 NaN 1558.1349365397452 2.59591032655964 392.0 73.0 304.0 
292.0003374459614 2845.0 NaN 1551.890447561791 3.4452120911844073 392.0 72.0 303.0 
294.0003374459614 2842.0 NaN 1552.0587842351363 3.044275178291289 389.0 74.0 301.0 
296.0003374459614 2829.0 NaN 1548.9619238476937 2.7091967126898147 390.0 73.0 301.0 
298.0003374459614 2825.0 NaN 1548.9031396125572 3.4680712723856915 389.0 73.0 301.0 
300.0003374459614 2821.0 NaN 1546.0173680694727 3.0603377730535355 388.0 74.0 299.0 
302.0003374459614 2820.0 NaN 1542.7227788911157 2.838698652694353 383.0 76.0 296.0 
304.0003374459614 2809.0 NaN 1539.5991983967933 3.4338385626959718 382.0 76.0 295.0 
306.0003374459614 2800.0 NaN 1536.6412825651296 2.9153155085873337 383.0 76.0 294.0 
308.0003374459614 2796.0 NaN 1536.7294589178366 2.5868983996405146 385.0 74.0 296.0 
310.0003374459614 2788.0 NaN 1536.5931863727455 3.155166683820115 384.0 75.0 295.0 
312.0003374459614 2763.0 NaN 1536.6573146292571 2.690999855170132 383.0 75.0 295.0 
314.0003374459614 2751.0 NaN 1536.5531062124253 2.1630072039747694 385.0 72.0 298.0 
316.0003374459614 2748.0 NaN 1536.4275217100885 2.8406071722321813 389.0 69.0 301.0 
318.0003374459614 2745.0 NaN 1536.571810287243 2.558710653848439 387.0 69.0 301.0 
320.0003374459614 2759.0 NaN 1542.8403473613907 2.1471816607245606 390.0 68.0 304.0 
322.0003374459614 2760.0 NaN 1542.6212424849705 2.980439379843543 390.0 68.0 304.0 
324.0003374459614 2748.0 NaN 1542.8911155644637 2.5057521613838283 388.0 69.0 303.0 
326.0003374459614 2745.0 NaN 1542.6158984635933 2.183104767415568 390.0 68.0 304.0 
328.0003374459614 2744.0 NaN 1545.694054776218 2.9373652379835526 391.0 68.0 305.0 
330.0003374459614 2745.0 NaN 1545.7661990647973 2.5290713506220666 391.0 68.0 305.0 
332.0003374459614 2744.0 NaN 1548.841683366734 2.2696648910883197 393.0 68.0 306.0 
334.0003374459614 2738.0 NaN 1548.780227120909 2.9325040328132777 393.0 68.0 306.0 
336.0003374459614 2738.0 NaN 1548.935203740816 2.586060748065956 392.0 69.0 305.0 
338.0003374459614 2748.0 NaN 1542.709418837675 2.2569615231777997 393.0 69.0 303.0 
340.0003374459614 2756.0 NaN 1545.7822311289249 2.887527279902554 393.0 69.0 304.0 
342.0003374459614 2753.0 NaN 1542.8563794255183 2.5776399168755533 391.0 70.0 302.0 
344.0003374459614 2747.0 NaN 1542.7682030728115 2.198349263710902 393.0 68.0 304.0 
346.0003374459614 2747.0 NaN 1539.5911823647273 2.827193210774347 391.0 68.0 303.0 
348.0003374459614 2751.0 NaN 1542.8456913827638 2.5341461797942624 392.0 69.0 303.0 
350.0003374459614 2754.0 NaN 1539.5698062792271 2.182425578670838 391.0 68.0 303.0 
352.0003374459614 2758.0 NaN 1539.4976619906479 2.969293163989017 394.0 68.0 303.0 
354.0003374459614 2757.0 NaN 1536.555778223112 2.634286219987541 394.0 68.0 302.0 
356.0003374459614 2761.0 NaN 1536.553106212425 2.350153314543739 394.0 68.0 302.0 
358.0003374459614 2761.0 NaN 1536.5130260521028 3.023409218203263 394.0 68.0 302.0 
360.0003374459614 2776.0 NaN 1533.6005344021364 2.575433303862648 391.0 69.0 300.0 
362.0003374459614 2778.0 NaN 1533.4589178356725 2.417914584186094 391.0 70.0 299.0 
364.0003374459614 2774.0 NaN 1536.4408817635274 3.033290436166134 387.0 73.0 297.0 
366.0003374459614 2772.0 NaN 1536.5076820307272 2.548879465422972 381.0 78.0 292.0 
368.0003374459614 2769.0 NaN 1536.5317301269183 2.3279468227885163 382.0 77.0 293.0 
370.0003374459614 2768.0 NaN 1533.432197728791 2.984075482227506 384.0 76.0 293.0 
372.0003374459614 2783.0 NaN 1536.643954575818 2.7567842894215295 383.0 77.0 293.0 
374.0003374459614 2787.0 NaN 1536.5424181696726 2.495725833490106 382.0 77.0 293.0 
376.0003374459614 2786.0 NaN 1539.6179024716089 3.1319880679410423 383.0 77.0 294.0 
378.0003374459614 2791.0 NaN 1536.5744822979275 2.817286665642071 383.0 77.0 293.0 
380.0003374459614 2796.0 NaN 1536.633266533066 2.533725927851193 385.0 76.0 294.0 
382.0003374459614 2804.0 NaN 1533.448229792918 3.4014658560382407 386.0 76.0 293.0 
384.0003374459614 2791.0 NaN 1536.6973947895792 2.908274006851299 382.0 80.0 290.0 
386.0003374459614 2790.0 NaN 1530.5170340681366 2.58382012674061 379.0 81.0 287.0 
388.0003374459614 2796.0 NaN 1530.3861055444213 3.19710033969137 380.0 81.0 287.0 
390.0003374459614 2819.0 NaN 1533.5764863059455 2.809158579258166 381.0 80.0 289.0 
392.0003374459614 2829.0 NaN 1533.541750167 2.636902993188687 383.0 79.0 290.0 
394.0003374459614 2836.0 NaN 1533.5043420173665 3.186707611888532 383.0 80.0 289.0 
396.0003374459614 2842.0 NaN 1521.4402137608542 2.8604463790502885 387.0 79.0 286.0 
398.0003374459614 2845.0 NaN 1524.3019372077483 2.517377379879278 389.0 79.0 287.0 
400.0003374459614 2845.0 NaN 1524.184368737473 3.1655159328850972 390.0 78.0 288.0 
402.0003374459614 2848.0 NaN 1524.2672010688032 2.941072211418621 395.0 73.0 293.0 
404.0003374459614 2858.0 NaN 1521.140948563794 2.6455052322780768 402.0 69.0 296.0 
406.0003374459614 2860.0 NaN 1517.9906479625909 3.2812149164048283 402.0 69.0 295.0 
408.0003374459614 2864.0 NaN 1524.2778891115552 3.0105561728192534 401.0 70.0 296.0 
410.0003374459614 2864.0 NaN 1524.2618570474274 2.7151292610282924 402.0 70.0 296.0 
412.0003374459614 2881.0 NaN 1527.198396793588 3.5473932171860403 400.0 71.0 296.0 
414.0003374459614 2852.0 NaN 1527.4495657982636 2.9756505243108102 400.0 70.0 297.0 
416.0003374459614 2851.0 NaN 1524.2832331329334 2.773070448407756 399.0 69.0 297.0 
418.0003374459614 2857.0 NaN 1527.2812291249177 3.4262925118238625 401.0 68.0 299.0 
420.0003374459614 2866.0 NaN 1527.4789579158307 3.07909160612848 397.0 72.0 295.0 
422.0003374459614 2867.0 NaN 1527.372077488309 2.9192406255685985 402.0 69.0 298.0 
424.0003374459614 2867.0 NaN 1524.2378089512365 3.477444647286297 403.0 69.0 297.0 
426.0003374459614 2860.0 NaN 1530.4181696726794 2.9973508974103735 403.0 68.0 300.0 
428.0003374459614 2859.0 NaN 1539.5991983967933 2.704900128224944 407.0 70.0 301.0 
430.0003374459614 2858.0 NaN 1536.4221776887096 3.4081017388239254 409.0 67.0 303.0 
432.0003374459614 2861.0 NaN 1536.6145624582489 3.198589508249348 402.0 75.0 295.0 
434.0003374459614 2849.0 NaN 1551.8984635938546 2.936776933868469 405.0 75.0 300.0 
436.0003374459614 2852.0 NaN 1548.6733466933879 3.5590809676320103 406.0 74.0 300.0 
438.0003374459614 2845.0 NaN 1551.9625918503666 3.2438723336215043 405.0 74.0 301.0 
440.0003374459614 2842.0 NaN 1551.893119572479 2.730472301578323 413.0 69.0 306.0 
442.0003374459614 2837.0 NaN 1564.1656646626573 3.355808346892731 416.0 68.0 311.0 
444.0003374459614 2848.0 NaN 1561.250501002003 3.0026290649518237 411.0 71.0 307.0 
446.0003374459614 2853.0 NaN 1554.8697394789576 2.8571991513613453 414.0 68.0 308.0 
448.0003374459614 2860.0 NaN 1564.1469605878428 3.5967845065238078 417.0 68.0 311.0 
450.0003374459614 2841.0 NaN 1570.426185704743 3.2019098168368196 418.0 70.0 311.0 
452.0003374459614 2836.0 NaN 1567.2732130928543 3.025612940213614 417.0 70.0 310.0 
454.0003374459614 2829.0 NaN 1570.249832999333 3.540282886990948 420.0 69.0 312.0 
456.0003374459614 2810.0 NaN 1576.5424181696726 2.9985601214934023 426.0 65.0 318.0 
458.0003374459614 2802.0 NaN 1576.4916499666 2.744452826915455 426.0 64.0 319.0 
460.0003374459614 2802.0 NaN 1579.524382097527 3.35416692087971 424.0 64.0 320.0 
462.0003374459614 2786.0 NaN 1576.553106212425 2.9881688357565905 420.0 68.0 315.0 
464.0003374459614 2792.0 NaN 1567.337341349364 2.677025141543882 415.0 68.0 312.0 
466.0003374459614 2790.0 NaN 1567.2491649966607 3.2639935570539347 416.0 68.0 312.0 
468.0003374459614 2795.0 NaN 1567.4255177020727 3.001652130443572 413.0 70.0 310.0 
470.0003374459614 2783.0 NaN 1567.2010688042753 2.7191996742708535 416.0 69.0 311.0 
472.0003374459614 2769.0 NaN 1567.169004676018 3.3618535803290355 415.0 69.0 311.0 
474.0003374459614 2766.0 NaN 1561.1062124248483 3.0087411867706995 416.0 69.0 309.0 
476.0003374459614 2760.0 NaN 1561.0554442217756 2.766971419979289 416.0 68.0 310.0 
478.0003374459614 2763.0 NaN 1561.0501002003998 3.4372403090884385 418.0 68.0 310.0 
480.0003374459614 2765.0 NaN 1558.0494321977274 3.036846209222669 415.0 71.0 306.0 
482.0003374459614 2774.0 NaN 1554.9205076820301 2.91350236952989 416.0 71.0 305.0 
484.0003374459614 2766.0 NaN 1557.9906479625906 3.4658127366539127 412.0 71.0 306.0 
486.0003374459614 2766.0 NaN 1551.890447561791 2.9912148943218253 410.0 72.0 303.0 
488.0003374459614 2761.0 NaN 1542.7120908483637 2.7384273631524865 409.0 70.0 302.0 
490.0003374459614 2750.0 NaN 1548.7775551102186 3.200674947868439 408.0 71.0 303.0 
492.0003374459614 2751.0 NaN 1545.8623914495643 2.9635324471328093 405.0 73.0 300.0 
494.0003374459614 2742.0 NaN 1539.5858383433547 2.635885648299532 407.0 72.0 299.0 
496.0003374459614 2731.0 NaN 1533.4188376753516 3.241662852600388 407.0 71.0 298.0 
498.0003374459614 2723.0 NaN 1533.4989979959907 2.9208332531015784 407.0 70.0 299.0 
500.0003374459614 2721.0 NaN 1533.4749498998 2.5450235594812933 403.0 70.0 299.0 
502.0003374459614 2715.0 NaN 1530.3593854375426 3.2615130277800297 404.0 71.0 297.0 
504.0003374459614 2705.0 NaN 1527.4362057448243 2.7908448808615147 403.0 72.0 295.0 
506.0003374459614 2716.0 NaN 1530.4796259185027 2.5575703571344817 407.0 70.0 298.0 
508.0003374459614 2720.0 NaN 1536.537074148297 3.1742766076880162 407.0 70.0 300.0 
510.0003374459614 2723.0 NaN 1536.6680026720096 2.7591640542026616 407.0 72.0 298.0 
512.0003374459613 2720.0 NaN 1530.4128256513022 2.6010386375111016 408.0 68.0 300.0 
514.0003374459613 2702.0 NaN 1521.2024048096182 2.905488793663321 407.0 69.0 296.0 
516.0003374459613 2701.0 NaN 1521.322645290582 2.4734504827641444 399.0 75.0 290.0 
518.0003374459613 2702.0 NaN 1518.185704742818 2.2381487301004825 402.0 73.0 291.0 
520.0003374459613 2707.0 NaN 1512.0053440213758 2.8439859479221057 399.0 73.0 289.0 
522.0003374459613 2715.0 NaN 1502.7922511690056 2.671163120046598 405.0 68.0 291.0 
524.0003374459613 2713.0 NaN 1496.7027388109545 2.412174732578951 401.0 68.0 289.0 
526.0003374459613 2720.0 NaN 1493.472277889111 3.0422370965841252 403.0 68.0 288.0 
528.0003374459613 2731.0 NaN 1496.6786907147637 2.719272063567607 403.0 69.0 288.0 
530.0003374459613 2744.0 NaN 1502.7227788911161 2.4293720342186242 402.0 68.0 291.0 
532.0003374459613 2751.0 NaN 1496.513026052103 3.158851048653034 400.0 68.0 289.0 
534.0003374459613 2754.0 NaN 1499.751503006011 2.8510115976910533 405.0 69.0 289.0 
536.0003374459613 2772.0 NaN 1502.7388109552444 2.55200586581812 405.0 68.0 291.0 
538.0003374459613 2777.0 NaN 1502.6720106880437 3.230998660505976 407.0 68.0 291.0 
540.0003374459613 2781.0 NaN 1502.8029392117555 2.796983380471726 406.0 69.0 290.0 
542.0003374459613 2775.0 NaN 1499.5965263861062 2.6851296168186094 406.0 69.0 289.0 
544.0003374459613 2771.0 NaN 1496.510354041417 3.250619594025835 401.0 72.0 285.0 
546.0003374459613 2771.0 NaN 1490.4849699398806 2.9121639932643 400.0 72.0 283.0 
548.0003374459613 2769.0 NaN 1490.4796259185027 2.651407381303866 399.0 72.0 283.0 
550.0003374459613 2764.0 NaN 1487.3106212424839 3.1479204902728157 400.0 68.0 286.0 
552.0003374459613 2762.0 NaN 1484.3152972611897 3.019714764494939 396.0 70.0 283.0 
554.0003374459613 2749.0 NaN 1481.15965263861 2.6134483985611205 395.0 69.0 283.0 
556.0003374459613 2745.0 NaN 1478.070808283234 3.2316719920008747 386.0 74.0 277.0 
558.0003374459613 2740.0 NaN 1484.3340013360062 2.8649268212270464 383.0 77.0 276.0 
560.0003374459613 2745.0 NaN 1481.1943887775544 2.510944077875742 387.0 75.0 277.0 
562.0003374459613 2744.0 NaN 1484.1870407481636 3.343716370095827 386.0 77.0 276.0 
564.0003374459613 2732.0 NaN 1484.3981295925182 2.763212471655493 384.0 78.0 275.0 
566.0003374459613 2734.0 NaN 1475.0754843019367 2.4859773556965363 382.0 76.0 274.0 
568.0003374459613 2753.0 NaN 1481.2024048096187 3.1843962944337507 385.0 74.0 278.0 
570.0003374459613 2760.0 NaN 1484.3340013360062 2.74087063782935 385.0 75.0 278.0 
572.0003374459613 2754.0 NaN 1490.4342017368078 2.633912940371146 390.0 73.0 282.0 
574.0003374459613 2750.0 NaN 1499.620574482299 3.22844821213036 398.0 65.0 293.0 
576.0003374459613 2755.0 NaN 1502.8216432865727 2.918775366495263 401.0 67.0 292.0 
578.0003374459613 2764.0 NaN 1502.8136272545094 2.7799063602875407 406.0 65.0 294.0 
580.0003374459613 2782.0 NaN 1499.7301269205082 3.3874537094796855 408.0 65.0 293.0 
582.0003374459613 2783.0 NaN 1505.8864395457574 3.2284337353148898 410.0 66.0 294.0 
584.0003374459613 2797.0 NaN 1502.7521710086828 3.016669284437585 411.0 65.0 294.0 
586.0003374459613 2795.0 NaN 1508.9271877087515 3.4763598798013065 411.0 65.0 296.0 
588.0003374459613 2787.0 NaN 1509.023380093519 3.058047709245504 406.0 67.0 294.0 
590.0003374459613 2771.0 NaN 1512.06947227789 2.707117470144288 404.0 67.0 295.0 
592.0003374459613 2781.0 NaN 1518.1696726786909 3.461857648463436 403.0 70.0 294.0 
594.0003374459613 2781.0 NaN 1515.1903807615242 3.054463606885365 398.0 74.0 289.0 
596.0003374459613 2785.0 NaN 1512.0213760855033 2.7122680343372263 398.0 75.0 287.0 
598.0003374459613 2789.0 NaN 1511.9706078824304 3.3439917883605896 396.0 78.0 284.0 
600.0003374459613 2785.0 NaN 1518.2712090848363 2.980682655682745 394.0 79.0 285.0 
602.0003374459613 2786.0 NaN 1518.1509686038737 2.796512444046421 395.0 78.0 286.0 
604.0003374459613 2779.0 NaN 1521.132932531729 3.349922363715873 394.0 77.0 288.0 
606.0003374459613 2772.0 NaN 1524.2965931863728 3.0061037509081205 389.0 83.0 283.0 
608.0003374459613 2763.0 NaN 1524.304609218436 2.659640278816195 394.0 77.0 289.0 
610.0003374459613 2769.0 NaN 1518.0681362725456 3.306345215842114 393.0 78.0 286.0 
612.0003374459613 2779.0 NaN 1521.2104208416827 3.1533344928916223 387.0 84.0 281.0 
614.0003374459613 2778.0 NaN 1518.0521042084174 2.8495616554346275 391.0 81.0 283.0 
616.0003374459613 2787.0 NaN 1517.993319973281 3.323813887236846 393.0 80.0 284.0 
618.0003374459613 2793.0 NaN 1530.479625918503 3.0709559714093064 399.0 75.0 293.0 
620.0003374459613 2788.0 NaN 1530.4154976619911 2.7956439649589555 398.0 76.0 292.0 
622.0003374459613 2792.0 NaN 1530.3299933199726 3.4394754711735946 401.0 72.0 296.0 
624.0003374459613 2799.0 NaN 1533.4776219104886 3.0592573665603497 402.0 72.0 297.0 
626.0003374459613 2820.0 NaN 1533.464261857046 2.781781145560371 400.0 73.0 296.0 
628.0003374459613 2824.0 NaN 1539.6579826319298 3.1495225996475416 398.0 75.0 296.0 
630.0003374459613 2841.0 NaN 1542.6960587842361 2.837650837940703 396.0 78.0 294.0 
632.0003374459613 2860.0 NaN 1539.695390781564 2.749051415917665 401.0 73.0 298.0 
634.0003374459613 2872.0 NaN 1536.547762191048 3.2981565037212572 407.0 68.0 302.0 
636.0003374459613 2891.0 NaN 1542.8082832331334 2.9185734010804962 402.0 71.0 301.0 
638.0003374459613 2912.0 NaN 1542.7094188376752 2.6539838214432487 403.0 69.0 303.0 
640.0003374459613 2928.0 NaN 1542.6506346025367 3.3137365009886395 403.0 70.0 302.0 
642.0003374459613 2923.0 NaN 1539.6659986639938 3.1641350921933524 402.0 73.0 298.0 
644.0003374459613 2929.0 NaN 1539.6686706746818 2.997376868903661 398.0 75.0 296.0 
646.0003374459613 2916.0 NaN 1536.4836339345366 3.4980725955460628 402.0 71.0 299.0 
648.0003374459613 2929.0 NaN 1542.7174348697388 3.0550285105117316 403.0 72.0 300.0 
650.0003374459613 2925.0 NaN 1542.6533066132274 2.802923355396351 403.0 71.0 301.0 
652.0003374459613 2928.0 NaN 1539.5537742150977 3.5221766720398495 400.0 75.0 296.0 
654.0003374459613 2918.0 NaN 1542.725450901803 3.1852240697847822 396.0 78.0 294.0 
656.0003374459613 2917.0 NaN 1548.8577154308628 2.9160647967459457 400.0 75.0 299.0 
658.0003374459613 2923.0 NaN 1548.8871075484292 3.507511823603396 398.0 74.0 300.0 
660.0003374459613 2917.0 NaN 1545.961255845024 3.1595534114853696 399.0 74.0 299.0 
662.0003374459613 2908.0 NaN 1554.997995991983 3.071685936810698 407.0 67.0 309.0 
664.0003374459613 2893.0 NaN 1554.9712758851033 3.686826186841849 409.0 66.0 310.0 
#####################################################################
# End of data export. Simulation finished at: 2019-03-18T14:46+0000 #
#####################################################################
