#####################################################################
# Alchemist log file - simulation started at: 2019-03-06T11:59+0000 #
#####################################################################
# seed = 4.0, bandwidth = 17782.79410038923, propagationDelay = 0.0031622776601683794, baserange = 316.2277660168379
#
# The columns have the following meaning: 
# time neighbor_count[Sum] <value>@neighbor_count[Sum] packet_size[Mean] mean_delay[Mean] crowd[Sum] overcrowded[Sum] risk[Sum] 
0.0 NaN NaN NaN NaN NaN NaN NaN 
2.0003127080081637 49408.0 NaN 4993.221108884435 0.4858822326199501 1497.0 0.0 1497.0 
4.000312708008163 51288.0 NaN 4993.437541750167 0.5051306532862512 1496.0 1.0 1496.0 
6.000312708008163 51288.0 NaN 4995.179692718771 0.5052064053660981 1497.0 0.0 1497.0 
8.000312708008163 51288.0 NaN 4994.423513694055 0.5051655301150784 1497.0 0.0 1497.0 
10.000312708008165 51288.0 NaN 4995.217100868404 0.505163653760753 1497.0 0.0 1497.0 
12.000312708008165 51294.0 NaN 4995.764863059452 0.5052726926502937 1497.0 0.0 1497.0 
14.000312708008165 51294.0 NaN 4993.9585838343355 0.5051771210926156 1497.0 0.0 1497.0 
16.000312708008163 51322.0 NaN 4994.340681362725 0.5055319476621157 1497.0 0.0 1497.0 
18.000312708008167 51338.0 NaN 4995.938543754175 0.5079245377071814 1497.0 0.0 1497.0 
20.000312708008167 51344.0 NaN 4994.933867735471 0.5116247407827964 1497.0 0.0 1497.0 
22.000312708008167 51348.0 NaN 4994.599866399466 0.5156344770593472 1497.0 0.0 1497.0 
24.000312708008167 51350.0 NaN 4995.4175016700065 0.520054684514157 1497.0 0.0 1497.0 
26.000312708008167 51381.0 NaN 4994.0307281229125 0.5242599365057211 1497.0 0.0 1497.0 
28.000312708008167 51413.0 NaN 4994.813627254509 0.5279102808519338 1497.0 0.0 1497.0 
30.000312708008167 51419.0 NaN 4996.366065464262 0.5338947616079472 1497.0 0.0 1497.0 
32.00031270800817 51424.0 NaN 4994.367401469606 0.5393849907601468 1497.0 0.0 1497.0 
34.00031270800816 51424.0 NaN 4994.321977287909 0.5451306843958147 1497.0 0.0 1497.0 
36.00031270800816 51458.0 NaN 4995.519038076152 0.551053685233452 1497.0 0.0 1497.0 
38.00031270800816 51468.0 NaN 4994.538410153641 0.5391097994922464 1497.0 0.0 1497.0 
40.00031270800816 51470.0 NaN 4995.2839011356045 0.5394834366509047 1497.0 0.0 1497.0 
42.00031270800816 51475.0 NaN 4995.783567134268 0.538186934539603 1497.0 0.0 1497.0 
44.00031270800816 51477.0 NaN 4994.0494321977285 0.546878651354059 1497.0 0.0 1497.0 
46.00031270800816 51508.0 NaN 4994.37541750167 0.5575484170603782 1497.0 0.0 1497.0 
48.00031270800816 51498.0 NaN 4995.957247828991 0.5588264189766958 1497.0 0.0 1497.0 
50.00031270800816 51510.0 NaN 4994.944555778223 0.557132606231237 1497.0 0.0 1497.0 
52.00031270800816 51523.0 NaN 4994.615898463594 0.568242636815474 1497.0 0.0 1497.0 
54.00031270800816 51527.0 NaN 4995.3694054776215 0.5818218923996772 1497.0 0.0 1497.0 
56.00031270800816 51546.0 NaN 4994.0467601870405 0.5950393438718364 1497.0 0.0 1497.0 
58.00031270800816 51531.0 NaN 4994.773547094188 0.5851312733450216 1497.0 0.0 1497.0 
60.00031270800816 51533.0 NaN 4996.334001336006 0.5938737198908659 1497.0 0.0 1497.0 
62.00005418760041 51543.0 NaN 1522.5758183032726 0.5652598567829327 778.0 0.0 365.0 
64.00005418760041 51551.0 NaN 1522.6372745490996 0.5897072212358858 616.0 6.0 359.0 
66.00005418760041 51597.0 NaN 1525.6513026052094 0.5669976478719395 578.0 7.0 359.0 
68.00005418760041 51625.0 NaN 1525.6913827655303 0.5570516938907837 542.0 8.0 358.0 
70.00005418760041 51634.0 NaN 1525.798263193054 0.5650575227999183 527.0 8.0 358.0 
72.00005418760041 51644.0 NaN 1528.8042752171 0.5699774419745749 524.0 8.0 359.0 
74.00005418760041 51640.0 NaN 1531.7782231128913 0.5639055615996715 521.0 8.0 360.0 
76.00005418760041 51646.0 NaN 1531.828991315964 0.5740848998690473 521.0 8.0 360.0 
78.00005418760041 51639.0 NaN 1535.0140280561118 0.5713157738375022 521.0 7.0 362.0 
80.00005418760041 51643.0 NaN 1538.0040080160334 0.5729861834603508 522.0 7.0 363.0 
82.00005418760041 51656.0 NaN 1538.0414161656636 0.5587270363853254 524.0 7.0 363.0 
84.00005418760041 51653.0 NaN 1538.0227120908482 0.558534752382322 527.0 5.0 365.0 
86.00005418760041 51644.0 NaN 1537.9291917167664 0.5674093535127799 521.0 5.0 365.0 
88.00005418760041 51685.0 NaN 1538.0521042084179 0.5649869633782943 522.0 5.0 365.0 
90.00005418760041 51691.0 NaN 1538.097528390112 0.5609281806149528 522.0 5.0 365.0 
92.00005418760041 51693.0 NaN 1537.9639278557092 0.5608823753983286 522.0 5.0 365.0 
94.00005418760041 51680.0 NaN 1537.979959919839 0.554299363721311 522.0 5.0 365.0 
96.00005418760041 51678.0 NaN 1537.985303941216 0.5628845390650579 522.0 5.0 365.0 
98.00005418760041 51694.0 NaN 1537.9906479625909 0.567493083289327 522.0 5.0 365.0 
100.00005418760041 51683.0 NaN 1541.1356045424182 0.5658818987984219 522.0 5.0 366.0 
102.00005418760041 51690.0 NaN 1541.124916499666 0.5477703263869874 522.0 5.0 366.0 
104.00005418760041 51678.0 NaN 1541.0046760187029 0.5437656809701186 522.0 5.0 366.0 
106.00005418760041 51704.0 NaN 1541.0153640614549 0.5532274264816848 522.0 5.0 366.0 
108.00005418760041 51722.0 NaN 1541.092852371409 0.5619129231064471 522.0 5.0 366.0 
110.00005418760041 51732.0 NaN 1541.0955243820977 0.566808922815693 522.0 5.0 366.0 
112.00005418760041 51763.0 NaN 1541.0848363393457 0.5713508360251318 522.0 5.0 366.0 
114.00005418760041 51754.0 NaN 1541.0207080828332 0.5704941207201633 522.0 5.0 366.0 
116.00005418760041 51774.0 NaN 1540.9645958583822 0.578820354811714 522.0 5.0 366.0 
118.00005418760041 51779.0 NaN 1544.1549766199064 0.5777400364871463 524.0 5.0 367.0 
120.00005418760041 51786.0 NaN 1550.4128256513027 0.5728365776734549 524.0 5.0 369.0 
122.00005418760041 51800.0 NaN 1550.2712090848363 0.57625257348874 524.0 5.0 369.0 
124.00005418760041 51749.0 NaN 1550.2177688710756 0.5548132237183184 524.0 5.0 369.0 
126.00005418760041 51752.0 NaN 1550.2017368069457 0.5641135998054522 524.0 5.0 369.0 
128.0000541876004 51756.0 NaN 1547.1663326653302 0.5655057976520922 524.0 5.0 368.0 
130.00005418760043 51747.0 NaN 1547.2945891783547 0.5674598852332937 523.0 5.0 368.0 
132.00005418760043 51745.0 NaN 1544.1870407481638 0.5712154341468236 520.0 6.0 366.0 
134.00005418760043 51736.0 NaN 1540.985971943888 0.5648295132600241 520.0 6.0 365.0 
136.00005418760043 51738.0 NaN 1541.0180360721456 0.5730400006129233 519.0 6.0 365.0 
138.00005418760043 51723.0 NaN 1544.1496325985302 0.574649216054285 519.0 4.0 368.0 
140.00005418760043 51720.0 NaN 1541.1035404141635 0.56988707730124 517.0 6.0 365.0 
142.00005418760043 51710.0 NaN 1547.243820975282 0.568975140582689 518.0 6.0 367.0 
144.00005418760043 51698.0 NaN 1550.3406813627273 0.5472323974339033 517.0 7.0 367.0 
146.00005418760043 51687.0 NaN 1547.1155644622575 0.5533108029741222 518.0 5.0 368.0 
148.00005418760043 51681.0 NaN 1553.3547094188364 0.5524579608522124 516.0 6.0 369.0 
150.00005418760043 51678.0 NaN 1553.5096860387455 0.5579404472193682 515.0 6.0 369.0 
152.00005418760043 51662.0 NaN 1550.2872411489634 0.5616525432415088 516.0 6.0 368.0 
154.00005418760043 51636.0 NaN 1544.2030728122909 0.5538811702997986 514.0 5.0 367.0 
156.00005418760043 51633.0 NaN 1544.2404809619243 0.5622836727930313 512.0 6.0 366.0 
158.00005418760043 51663.0 NaN 1544.221776887109 0.5726692209312915 515.0 5.0 367.0 
160.00005418760043 51680.0 NaN 1544.2965931863728 0.5850417243104817 514.0 6.0 366.0 
162.00005418760043 51640.0 NaN 1544.2030728122909 0.5771055242152564 516.0 5.0 367.0 
164.00005418760043 51612.0 NaN 1544.1175684702725 0.5696260121139557 514.0 6.0 366.0 
166.00005418760043 51615.0 NaN 1544.1523046092182 0.5808053085154808 512.0 7.0 365.0 
168.00005418760043 51621.0 NaN 1544.2859051436203 0.5921029246208053 512.0 7.0 365.0 
170.00005418760043 51606.0 NaN 1541.2184368737458 0.5869273539771681 513.0 6.0 365.0 
172.00005418760043 51531.0 NaN 1544.1736806947247 0.5816569393428368 510.0 7.0 365.0 
174.00005418760043 51515.0 NaN 1538.0975283901118 0.5899102465766948 511.0 7.0 363.0 
176.00005418760043 51499.0 NaN 1541.0714762859063 0.5916014513981613 512.0 7.0 364.0 
178.00005418760043 51464.0 NaN 1541.1676686706728 0.5916855867520068 514.0 5.0 366.0 
180.00005418760043 51471.0 NaN 1541.2665330661337 0.5989214019477307 514.0 6.0 365.0 
182.00005418760043 51353.0 NaN 1538.1028724114908 0.5927001980385262 512.0 7.0 363.0 
184.00005418760043 51329.0 NaN 1537.9986639946546 0.5778143982229577 511.0 7.0 363.0 
186.00005418760043 51340.0 NaN 1541.0768203072819 0.5896626602510123 512.0 6.0 365.0 
188.00005418760043 51317.0 NaN 1538.0788243152974 0.5847225820289232 511.0 7.0 363.0 
190.00005418760043 51323.0 NaN 1535.0861723446908 0.5812429391384265 510.0 7.0 362.0 
192.00005418760043 51256.0 NaN 1538.0360721442908 0.5714321501780646 512.0 5.0 365.0 
194.00005418760043 51226.0 NaN 1537.9906479625906 0.5692914654131833 511.0 6.0 364.0 
196.00005418760043 51219.0 NaN 1537.8971275885092 0.5783776220887814 509.0 8.0 362.0 
198.00005418760043 51205.0 NaN 1538.0601202404819 0.5722360478028484 510.0 8.0 362.0 
200.00005418760043 51211.0 NaN 1538.0334001335998 0.5817188084032966 511.0 7.0 363.0 
202.00005418760043 51180.0 NaN 1544.1148964595848 0.5859713827696176 512.0 7.0 365.0 
204.00005418760043 51141.0 NaN 1547.2438209752818 0.5846218904516282 513.0 7.0 366.0 
206.00005418760043 51128.0 NaN 1544.1148964595845 0.587745561796351 512.0 7.0 365.0 
208.00005418760043 51124.0 NaN 1538.014696058784 0.5907932724377575 511.0 7.0 363.0 
210.00005418760043 51131.0 NaN 1538.0734802939207 0.5834650479742787 511.0 6.0 364.0 
212.00005418760043 51074.0 NaN 1538.0093520374094 0.5844801830229929 511.0 7.0 363.0 
214.00005418760043 51043.0 NaN 1541.0260521042092 0.577494500652456 510.0 7.0 364.0 
216.00005418760043 51026.0 NaN 1537.9398797595181 0.5780606556220869 512.0 5.0 365.0 
218.00005418760043 51024.0 NaN 1537.9585838343364 0.5785588618748767 508.0 6.0 364.0 
220.00005418760043 51029.0 NaN 1538.0895123580483 0.5804154726156763 506.0 7.0 363.0 
222.00005418760043 50977.0 NaN 1535.0621242484974 0.5783447696722723 507.0 7.0 362.0 
224.00005418760043 50979.0 NaN 1534.952571810288 0.584920256957389 508.0 6.0 363.0 
226.00005418760043 50985.0 NaN 1537.934535738143 0.6007355798103743 506.0 7.0 363.0 
228.00005418760043 50985.0 NaN 1544.2645290581181 0.6136512797834254 507.0 8.0 364.0 
230.00005418760043 51017.0 NaN 1544.2805611222457 0.6190179247897589 508.0 7.0 365.0 
232.00005418760043 50980.0 NaN 1544.21643286573 0.6141779898074685 507.0 7.0 365.0 
234.00005418760043 50962.0 NaN 1547.305277221109 0.6284257124911751 506.0 9.0 364.0 
236.00005418760043 50964.0 NaN 1544.0801603206428 0.6440963649127834 505.0 9.0 363.0 
238.00005418760043 50972.0 NaN 1541.0714762859066 0.659339776992627 505.0 9.0 362.0 
240.00005418760043 51018.0 NaN 1538.2070808283245 0.6591772713712227 510.0 5.0 365.0 
242.00005418760043 50989.0 NaN 1534.8697394789574 0.6653375556680474 507.0 6.0 363.0 
244.00005418760043 50960.0 NaN 1534.86706746827 0.6302917976273801 508.0 5.0 364.0 
246.00005418760043 50960.0 NaN 1534.8857715430852 0.6308210574514895 510.0 5.0 364.0 
248.00005418760043 50933.0 NaN 1534.9418837675362 0.6277751212357395 510.0 5.0 364.0 
250.00005418760043 50925.0 NaN 1534.9819639278544 0.6215227887586362 507.0 7.0 362.0 
252.00005418760043 50898.0 NaN 1531.8583834335338 0.6049171188107538 509.0 6.0 362.0 
254.00005418760043 50887.0 NaN 1528.6599866399454 0.6057293657286006 507.0 6.0 361.0 
256.0000541876004 50910.0 NaN 1528.748162992652 0.6028354133193008 509.0 6.0 361.0 
258.0000541876004 50859.0 NaN 1528.7962591850362 0.590474518394085 510.0 5.0 362.0 
260.0000541876004 50839.0 NaN 1525.7795591182362 0.5641539870454099 510.0 5.0 361.0 
262.0000541876004 50815.0 NaN 1528.7668670674698 0.5626976502321714 509.0 5.0 362.0 
264.0000541876004 50805.0 NaN 1528.8042752171 0.5687263899165473 509.0 7.0 360.0 
266.0000541876004 50799.0 NaN 1544.2030728122909 0.5825869078906564 505.0 8.0 364.0 
268.0000541876004 50768.0 NaN 1544.2110888443544 0.5907623173253375 508.0 5.0 367.0 
270.0000541876004 50791.0 NaN 1541.1783567134273 0.6038165641989041 506.0 7.0 364.0 
272.0000541876004 50782.0 NaN 1538.0387441549753 0.6162429948025304 504.0 7.0 363.0 
274.0000541876004 50765.0 NaN 1534.8376753507 0.6286542247064493 502.0 9.0 360.0 
276.0000541876004 50756.0 NaN 1537.9906479625909 0.6432072420216234 506.0 6.0 364.0 
278.0000541876004 50711.0 NaN 1541.1088844355363 0.6477232994879865 506.0 6.0 365.0 
280.0000541876004 50707.0 NaN 1541.1543086172362 0.6454042284641791 506.0 8.0 363.0 
282.0000541876004 50669.0 NaN 1541.0634602538423 0.6401186449658777 509.0 7.0 364.0 
284.0000541876004 50641.0 NaN 1534.826987307948 0.6438029538903757 509.0 5.0 364.0 
286.0000541876004 50631.0 NaN 1534.8563794255183 0.6354370926472693 510.0 4.0 365.0 
288.0000541876004 50570.0 NaN 1534.925851703409 0.6225249883864843 507.0 6.0 363.0 
290.0000541876004 50566.0 NaN 1531.906479625918 0.6368113164014207 502.0 8.0 360.0 
292.0000541876004 50417.0 NaN 1531.7942551770207 0.6131704033130964 505.0 6.0 362.0 
294.0000541876004 50373.0 NaN 1537.923847695391 0.6040744227821081 507.0 4.0 366.0 
296.0000541876004 50354.0 NaN 1537.9505678022726 0.6107439584195727 505.0 6.0 364.0 
298.0000541876004 50312.0 NaN 1541.0260521042092 0.6161497331615879 505.0 6.0 365.0 
300.0000541876004 50309.0 NaN 1541.1409485637935 0.6267589144931788 505.0 5.0 366.0 
302.0000541876004 50265.0 NaN 1538.0066800267182 0.6165568913813082 503.0 7.0 363.0 
304.0000541876004 50235.0 NaN 1537.857047428191 0.6205209398214471 499.0 9.0 361.0 
306.0000541876004 50234.0 NaN 1534.8697394789572 0.6340906800356443 503.0 6.0 363.0 
308.0000541876004 50171.0 NaN 1531.895791583166 0.6319390645106108 503.0 6.0 362.0 
310.0000541876004 50127.0 NaN 1531.9091516366068 0.6146387425780877 503.0 5.0 363.0 
312.0000541876004 50065.0 NaN 1534.955243820975 0.6086047204156789 504.0 4.0 365.0 
314.0000541876004 50032.0 NaN 1534.826987307948 0.6133804786862868 506.0 5.0 364.0 
316.0000541876004 50005.0 NaN 1531.7595190380755 0.6215713866108239 506.0 5.0 363.0 
318.0000541876004 49921.0 NaN 1534.9418837675362 0.6137026827751666 505.0 5.0 364.0 
320.0000541876004 49891.0 NaN 1534.9873079492336 0.5997505106275762 502.0 6.0 363.0 
322.0000541876004 49877.0 NaN 1531.8396793587183 0.5979367265823532 502.0 7.0 361.0 
324.0000541876004 49872.0 NaN 1531.7889111556456 0.6070241642508387 503.0 7.0 361.0 
326.0000541876004 49870.0 NaN 1531.8022712090844 0.6179209174120441 503.0 5.0 363.0 
328.0000541876004 49781.0 NaN 1534.835003340012 0.6135285211262733 503.0 6.0 363.0 
330.0000541876004 49783.0 NaN 1528.8283233132931 0.627801802824988 502.0 6.0 361.0 
332.0000541876004 49736.0 NaN 1528.7935871743482 0.6266023534535551 502.0 6.0 361.0 
334.0000541876004 49705.0 NaN 1534.8537074148294 0.6262788582480789 503.0 5.0 364.0 
336.0000541876004 49701.0 NaN 1525.6513026052094 0.6052123317638176 505.0 4.0 362.0 
338.0000541876004 49646.0 NaN 1525.7154308617241 0.6038804994959871 505.0 5.0 361.0 
340.0000541876004 49661.0 NaN 1525.7608550434186 0.6152913346646763 506.0 4.0 362.0 
342.0000541876004 49627.0 NaN 1525.736806947227 0.6158796725609831 504.0 6.0 360.0 
344.0000541876004 49607.0 NaN 1528.6813627254517 0.610595754906971 505.0 8.0 359.0 
346.0000541876004 49585.0 NaN 1534.8243152972614 0.6089856666229798 510.0 6.0 363.0 
348.0000541876004 49538.0 NaN 1531.8583834335338 0.6095722698389977 510.0 4.0 364.0 
350.0000541876004 49557.0 NaN 1525.752839011355 0.6223933866368931 507.0 6.0 360.0 
352.0000541876004 49548.0 NaN 1525.6165664662642 0.628882405368828 510.0 6.0 360.0 
354.0000541876004 49527.0 NaN 1525.6272545090183 0.633290248311289 511.0 5.0 361.0 
356.0000541876004 49528.0 NaN 1525.6325985303934 0.6400529369259639 509.0 5.0 361.0 
358.0000541876004 49487.0 NaN 1525.6967267869086 0.6383562047679381 508.0 6.0 360.0 
360.0000541876004 49489.0 NaN 1525.6593186372734 0.6370573100635566 508.0 6.0 360.0 
362.0000541876004 49453.0 NaN 1525.6566466265874 0.62776700104263 512.0 6.0 360.0 
364.0000541876004 49431.0 NaN 1525.541750167 0.6184516742825603 510.0 5.0 361.0 
366.0000541876004 49443.0 NaN 1516.3633934535728 0.626394654501309 511.0 4.0 359.0 
368.0000541876004 49406.0 NaN 1510.2765531062116 0.6232674636512209 511.0 5.0 356.0 
370.0000541876004 49393.0 NaN 1507.2411489645967 0.6285999804070579 511.0 5.0 355.0 
372.0000541876004 49391.0 NaN 1510.2525050100191 0.6117374651155018 511.0 5.0 356.0 
374.0000541876004 49381.0 NaN 1507.1663326653304 0.6252445534129816 510.0 6.0 354.0 
376.0000541876004 49365.0 NaN 1507.0941883767543 0.6287992368536206 510.0 7.0 353.0 
378.0000541876004 49306.0 NaN 1507.1877087508356 0.6171415767171141 512.0 7.0 353.0 
380.0000541876004 49279.0 NaN 1507.2010688042749 0.6213990065744792 514.0 5.0 355.0 
382.0000541876004 49282.0 NaN 1510.20975283901 0.6136891499187591 511.0 6.0 355.0 
384.0000541876004 49264.0 NaN 1510.148296593185 0.6118966461509306 510.0 6.0 355.0 
386.0000541876004 49270.0 NaN 1516.3259853039424 0.6107615303009554 514.0 6.0 357.0 
388.0000541876004 49250.0 NaN 1516.3687374749486 0.6066957769651483 514.0 5.0 358.0 
390.0000541876004 49229.0 NaN 1510.3433533734126 0.6153142435373046 515.0 5.0 356.0 
392.0000541876004 49185.0 NaN 1510.2765531062116 0.6048769608652286 514.0 4.0 357.0 
394.0000541876004 49158.0 NaN 1510.247160988645 0.6042950120950372 511.0 6.0 355.0 
396.0000541876004 49165.0 NaN 1513.3493653974629 0.6163925488367518 512.0 6.0 356.0 
398.0000541876004 49164.0 NaN 1507.2010688042749 0.623250058155401 515.0 6.0 354.0 
400.0000541876004 49116.0 NaN 1504.1496325985297 0.6080693109966836 515.0 5.0 354.0 
402.0000541876004 49091.0 NaN 1510.289913159654 0.6085802320318243 515.0 6.0 355.0 
404.0000541876004 49068.0 NaN 1507.171676686707 0.6206122801348738 515.0 7.0 353.0 
406.0000541876004 49076.0 NaN 1510.19906479626 0.6403954451926167 517.0 6.0 355.0 
408.0000541876004 49080.0 NaN 1513.4295257181022 0.6381325558223465 518.0 4.0 358.0 
410.0000541876004 49068.0 NaN 1516.5103540414175 0.6519195721999562 516.0 6.0 357.0 
412.0000541876004 49052.0 NaN 1522.6078824315293 0.6432584161720099 517.0 5.0 360.0 
414.0000541876004 49030.0 NaN 1525.6379425517703 0.6548515789633319 518.0 5.0 361.0 
416.0000541876004 49046.0 NaN 1519.4923179692728 0.6732936647004354 519.0 5.0 359.0 
418.0000541876004 49020.0 NaN 1513.3279893119568 0.6724291307662825 513.0 6.0 356.0 
420.0000541876004 48984.0 NaN 1510.3700734802933 0.6674291082294465 511.0 6.0 355.0 
422.0000541876004 48964.0 NaN 1513.3894455577818 0.659801297982014 512.0 6.0 356.0 
424.0000541876004 48925.0 NaN 1510.2471609886447 0.6454243930438726 514.0 5.0 356.0 
426.0000541876004 48919.0 NaN 1507.1396125584513 0.6132952005933909 513.0 4.0 356.0 
428.0000541876004 48903.0 NaN 1513.2879091516363 0.6005045384190131 513.0 5.0 357.0 
430.0000541876004 48908.0 NaN 1507.1796927187718 0.6008740901999416 516.0 5.0 355.0 
432.0000541876004 48879.0 NaN 1513.3440213760846 0.5977540379166768 519.0 5.0 357.0 
434.0000541876004 48858.0 NaN 1519.398797595191 0.5841227696084432 519.0 7.0 357.0 
436.0000541876004 48865.0 NaN 1522.4395457581822 0.5947747761882674 517.0 8.0 357.0 
438.0000541876004 48856.0 NaN 1525.6272545090183 0.5968709169148274 520.0 6.0 360.0 
440.0000541876004 48864.0 NaN 1528.812291249164 0.5962861925154732 521.0 7.0 360.0 
442.0000541876004 48858.0 NaN 1528.6760187040732 0.5939781972985987 520.0 9.0 358.0 
444.0000541876004 48842.0 NaN 1525.6593186372731 0.5968656013493207 517.0 9.0 357.0 
446.0000541876004 48842.0 NaN 1522.4983299933187 0.6101743581545805 518.0 9.0 356.0 
448.0000541876004 48825.0 NaN 1531.8744154976632 0.6046216137615348 517.0 8.0 360.0 
450.0000541876004 48835.0 NaN 1547.246492985973 0.6137500517096897 519.0 10.0 363.0 
452.0000541876004 48787.0 NaN 1550.2765531062118 0.6148428559408302 518.0 9.0 365.0 
454.0000541876004 48746.0 NaN 1550.18303273213 0.6134975147198538 517.0 11.0 363.0 
456.0000541876004 48752.0 NaN 1550.2792251169 0.6289531869435063 516.0 9.0 365.0 
458.0000541876004 48747.0 NaN 1550.193720774882 0.6473862512308521 516.0 10.0 364.0 
460.0000541876004 48745.0 NaN 1547.2304609218452 0.6529439593115833 517.0 9.0 364.0 
462.0000541876004 48720.0 NaN 1544.0881763527063 0.6626365791730796 511.0 12.0 360.0 
464.0000541876004 48676.0 NaN 1544.0587842351363 0.6583439771231466 512.0 11.0 361.0 
466.0000541876004 48704.0 NaN 1543.906479625918 0.6423785169104816 514.0 11.0 361.0 
468.0000541876004 48698.0 NaN 1544.0480961923843 0.6363272131274695 515.0 9.0 363.0 
470.0000541876004 48689.0 NaN 1544.1603206412817 0.6314959209987776 514.0 12.0 360.0 
472.0000541876004 48658.0 NaN 1540.911155644621 0.6208049721250456 520.0 5.0 366.0 
474.0000541876004 48652.0 NaN 1531.6793587174361 0.607239972707897 517.0 4.0 364.0 
476.0000541876004 48673.0 NaN 1522.5303941215757 0.6106923955426293 514.0 7.0 358.0 
478.0000541876004 48652.0 NaN 1522.484969939881 0.5965437691461586 508.0 14.0 351.0 
480.0000541876004 48653.0 NaN 1525.7314629258524 0.5773044654011459 508.0 12.0 354.0 
482.0000541876004 48654.0 NaN 1525.5203740814973 0.5767617338900848 512.0 8.0 358.0 
484.0000541876004 48668.0 NaN 1525.552438209754 0.5810934158981288 515.0 6.0 360.0 
486.0000541876004 48705.0 NaN 1513.1863727454909 0.5854777530791776 505.0 13.0 349.0 
488.0000541876004 48711.0 NaN 1510.20975283901 0.591086754007053 510.0 6.0 355.0 
490.0000541876004 48720.0 NaN 1491.79425517702 0.5965452019488281 505.0 10.0 345.0 
492.0000541876004 48761.0 NaN 1491.7408149632608 0.5948866479131315 508.0 5.0 350.0 
494.0000541876004 48783.0 NaN 1494.7521710086828 0.6010537347672216 508.0 4.0 352.0 
496.0000541876004 48789.0 NaN 1494.7334669338666 0.5875295287451527 504.0 5.0 351.0 
498.0000541876004 48795.0 NaN 1491.7755511022033 0.6014959127879272 503.0 5.0 350.0 
500.0000541876004 48801.0 NaN 1488.7668670674695 0.6061741519437096 506.0 5.0 349.0 
502.0000541876004 48823.0 NaN 1482.546426185706 0.6052829374365952 507.0 7.0 345.0 
504.0000541876004 48833.0 NaN 1485.6646626586517 0.6102217054166799 503.0 9.0 344.0 
506.0000541876004 48833.0 NaN 1491.7488309953249 0.6201370372979873 508.0 6.0 349.0 
508.0000541876004 48829.0 NaN 1485.6780227120908 0.6241087961052934 509.0 4.0 349.0 
510.0000541876004 48841.0 NaN 1491.8904475617908 0.6320863883567825 506.0 6.0 349.0 
512.0000541876004 48874.0 NaN 1491.8289913159645 0.6265951975714144 505.0 8.0 347.0 
514.0000541876004 48875.0 NaN 1482.533066132264 0.6187671877416745 508.0 6.0 346.0 
516.0000541876004 48877.0 NaN 1476.3874415497655 0.6202219858322837 507.0 5.0 345.0 
518.0000541876004 48887.0 NaN 1464.181696726788 0.6243230017563742 506.0 6.0 340.0 
520.0000541876004 48894.0 NaN 1461.2291249165 0.6254619962465993 505.0 5.0 340.0 
522.0000541876004 48878.0 NaN 1461.0581162324643 0.6345933516620521 505.0 4.0 341.0 
524.0000541876004 48886.0 NaN 1461.0287241148974 0.6331817161229241 502.0 5.0 340.0 
526.0000541876004 48891.0 NaN 1454.8777555110212 0.6037309489479515 499.0 5.0 338.0 
528.0000541876004 48920.0 NaN 1451.9305277221101 0.6109230416808634 498.0 5.0 337.0 
530.0000541876004 48929.0 NaN 1451.9305277221101 0.6113128092216882 497.0 6.0 336.0 
532.0000541876004 48912.0 NaN 1461.1008684034732 0.6162795142942648 498.0 7.0 338.0 
534.0000541876004 48896.0 NaN 1461.0714762859059 0.6083144967400687 496.0 7.0 338.0 
536.0000541876004 48937.0 NaN 1458.0494321977283 0.6074076059320112 500.0 5.0 339.0 
538.0000541876004 48945.0 NaN 1461.1382765531068 0.6066464488616903 501.0 4.0 341.0 
540.0000541876004 48940.0 NaN 1461.1810287241155 0.6123252606154309 502.0 6.0 339.0 
542.0000541876004 48924.0 NaN 1470.3807615230455 0.6226201979138006 503.0 4.0 344.0 
544.0000541876004 48904.0 NaN 1473.2985971943895 0.6200806711553778 505.0 6.0 343.0 
546.0000541876004 48939.0 NaN 1470.268537074148 0.6253069857543861 505.0 5.0 343.0 
548.0000541876004 48941.0 NaN 1467.227788911155 0.637008647824572 505.0 6.0 341.0 
550.0000541876004 48940.0 NaN 1467.2758851035396 0.6500606799600157 508.0 4.0 343.0 
552.0000541876004 48947.0 NaN 1467.2491649966607 0.6558373668800953 505.0 6.0 341.0 
554.0000541876004 48963.0 NaN 1467.2197728790911 0.6477363413382682 505.0 5.0 342.0 
556.0000541876004 49003.0 NaN 1467.1449565798268 0.6459333068576498 506.0 6.0 341.0 
558.0000541876004 49026.0 NaN 1467.227788911155 0.6535776392733463 508.0 4.0 343.0 
560.0000541876004 49023.0 NaN 1458.0788243152972 0.6377090716127836 500.0 6.0 338.0 
562.0000541876004 49022.0 NaN 1457.9986639946555 0.6184747573327485 501.0 5.0 339.0 
564.0000541876004 49045.0 NaN 1454.8964595858376 0.6046888507453396 501.0 6.0 337.0 
566.0000541876004 49075.0 NaN 1461.0020040080167 0.6163472085401638 501.0 4.0 341.0 
568.0000541876004 49033.0 NaN 1482.6586506346023 0.6064057218883162 503.0 6.0 346.0 
570.0000541876004 49027.0 NaN 1482.7281229124912 0.6075031463691238 504.0 5.0 347.0 
572.0000541876004 49076.0 NaN 1479.6446225784907 0.614178145979675 505.0 5.0 346.0 
574.0000541876004 49088.0 NaN 1476.4756179024723 0.625054823598663 503.0 4.0 346.0 
576.0000541876004 49108.0 NaN 1479.4949899799606 0.6435879947805334 502.0 6.0 345.0 
578.0000541876004 49093.0 NaN 1479.6285905143627 0.6466296485044803 501.0 6.0 345.0 
580.0000541876004 49102.0 NaN 1485.7982631930531 0.6394196339114053 503.0 7.0 346.0 
582.0000541876004 49154.0 NaN 1485.873079492318 0.6480653578370267 508.0 4.0 349.0 
584.0000541876004 49171.0 NaN 1488.8069472277896 0.6674308073766303 504.0 6.0 348.0 
586.0000541876004 49213.0 NaN 1485.6406145624574 0.6364884596969596 507.0 7.0 346.0 
588.0000541876004 49213.0 NaN 1485.6726786907152 0.6354210301812937 512.0 6.0 347.0 
590.0000541876004 49213.0 NaN 1488.7615230460917 0.6450868107802232 516.0 5.0 349.0 
592.0000541876004 49223.0 NaN 1488.825651302606 0.6274224813284119 517.0 5.0 349.0 
594.0000541876004 49253.0 NaN 1491.7327989311966 0.6433360477140064 520.0 4.0 351.0 
596.0000541876004 49281.0 NaN 1488.606546426185 0.6530210670820952 523.0 5.0 349.0 
598.0000541876004 49267.0 NaN 1491.7488309953249 0.6352798628941025 522.0 5.0 350.0 
600.0000541876004 49252.0 NaN 1491.8851035404148 0.6450272950141679 523.0 5.0 350.0 
602.0000541876004 49197.0 NaN 1501.0207080828332 0.6409371991325574 524.0 6.0 352.0 
604.0000541876004 49226.0 NaN 1497.8997995991988 0.6394637490057457 523.0 6.0 351.0 
606.0000541876004 49241.0 NaN 1500.9271877087515 0.625777704022041 522.0 6.0 352.0 
608.0000541876004 49225.0 NaN 1507.169004676018 0.6351714191448845 520.0 5.0 355.0 
610.0000541876004 49239.0 NaN 1513.4001336005354 0.6338260139687312 522.0 4.0 358.0 
612.0000541876004 49236.0 NaN 1510.1990647962602 0.6222876206413946 522.0 5.0 356.0 
614.0000541876004 49273.0 NaN 1507.1102204408817 0.6312243313533835 520.0 5.0 355.0 
616.0000541876004 49285.0 NaN 1507.0167000667998 0.6329566690421115 519.0 7.0 353.0 
618.0000541876004 49258.0 NaN 1504.0721442885763 0.6232583712705022 518.0 8.0 351.0 
620.0000541876004 49239.0 NaN 1510.2150968603878 0.6186592335320195 521.0 6.0 355.0 
622.0000541876004 49222.0 NaN 1525.6780227120908 0.6157277273269296 523.0 4.0 362.0 
624.0000541876004 49211.0 NaN 1522.4742818971272 0.616740360180045 518.0 6.0 359.0 
626.0000541876004 49210.0 NaN 1525.520374081497 0.6251046246041083 520.0 5.0 361.0 
628.0000541876004 49184.0 NaN 1525.5577822311282 0.6304648743148616 522.0 5.0 361.0 
630.0000541876004 49188.0 NaN 1519.580494321979 0.6367418299639739 519.0 5.0 359.0 
632.0000541876004 49178.0 NaN 1522.519706078825 0.6355626099407904 515.0 6.0 359.0 
634.0000541876004 49167.0 NaN 1519.4762859051443 0.6495576140184014 515.0 6.0 358.0 
636.0000541876004 49183.0 NaN 1522.5143620574472 0.6548626301926415 522.0 6.0 359.0 
638.0000541876004 49179.0 NaN 1519.5617902471618 0.6744293215065129 525.0 5.0 359.0 
640.0000541876004 49166.0 NaN 1519.5591182364726 0.6615325677328758 523.0 4.0 360.0 
642.0000541876004 49120.0 NaN 1525.68069472278 0.6425294549753973 525.0 5.0 361.0 
644.0000541876004 49128.0 NaN 1522.5571142284562 0.6291243885682231 525.0 5.0 360.0 
646.0000541876004 49104.0 NaN 1522.607882431529 0.6193165667998556 523.0 5.0 360.0 
648.0000541876004 49076.0 NaN 1525.763527054109 0.6260090120048982 519.0 6.0 360.0 
650.0000541876004 49076.0 NaN 1522.6479625918514 0.6319893505857865 515.0 6.0 359.0 
652.0000541876004 49007.0 NaN 1525.6700066800274 0.626450939778106 517.0 6.0 360.0 
654.0000541876004 49040.0 NaN 1525.7287909151637 0.6414851132278147 516.0 5.0 361.0 
656.0000541876004 49081.0 NaN 1534.8483633934545 0.6357079558360111 515.0 4.0 365.0 
658.0000541876004 49114.0 NaN 1544.2030728122909 0.6484804253033641 515.0 5.0 367.0 
660.0000541876004 49119.0 NaN 1544.2378089512365 0.647308342631519 515.0 4.0 368.0 
662.0000541876004 49052.0 NaN 1544.2004008016022 0.6395443004329029 510.0 7.0 365.0 
664.0000541876004 49054.0 NaN 1540.9993319973273 0.6471819023107626 509.0 7.0 364.0 
#####################################################################
# End of data export. Simulation finished at: 2019-03-06T12:17+0000 #
#####################################################################
