#####################################################################
# Alchemist log file - simulation started at: 2019-03-06T21:21+0000 #
#####################################################################
# seed = 4.0, bandwidth = 1333521.4321633242, propagationDelay = 10.0, baserange = 17.78279410038923
#
# The columns have the following meaning: 
# time neighbor_count[Sum] <value>@neighbor_count[Sum] packet_size[Mean] mean_delay[Mean] crowd[Sum] overcrowded[Sum] risk[Sum] 
0.0 NaN NaN NaN NaN NaN NaN NaN 
2.0004793365590676 NaN NaN 4988.0 NaN 1497.0 0.0 1497.0 
4.00042902272939 NaN NaN 4988.0 NaN 1497.0 0.0 1497.0 
6.000479336559067 NaN NaN 4988.0 NaN 1497.0 0.0 1497.0 
8.000479336559067 NaN NaN 4988.0 NaN 1497.0 0.0 1497.0 
10.000479336559067 NaN NaN 4988.0 NaN 1497.0 0.0 1497.0 
12.000479336559067 1112.0 NaN 4993.528390113561 0.9926683410281884 1497.0 0.0 1497.0 
14.00042902272939 1112.0 NaN 4992.6786907147625 2.9926683410281885 1497.0 0.0 1497.0 
16.000479336559067 1112.0 NaN 4992.216432865732 4.992668341028188 1497.0 0.0 1497.0 
18.000479336559067 1112.0 NaN 4992.200400801603 6.992668341028188 1497.0 0.0 1497.0 
20.000479336559067 1112.0 NaN 4992.240480961924 8.992668341028189 1497.0 0.0 1497.0 
22.00026526296459 1115.0 NaN 4994.37541750167 5.592028518940853 1497.0 0.0 1497.0 
24.000429022729392 1118.0 NaN 4992.149632598531 2.064766104782748 1496.0 1.0 1496.0 
26.000479336559067 1118.0 NaN 4991.027388109553 4.0647661047827475 1496.0 1.0 1496.0 
28.000479336559067 1118.0 NaN 4991.008684034736 6.0647661047827475 1496.0 1.0 1496.0 
30.000479336559067 1118.0 NaN 4991.046092184369 8.064766104782748 1496.0 1.0 1496.0 
32.00047933655907 1113.0 NaN 4991.035404141617 9.998609724680222 1496.0 1.0 1496.0 
34.00042902272939 1130.0 NaN 4993.074148296593 1.1158894921333677 1495.0 2.0 1495.0 
36.00047933655907 1130.0 NaN 4991.046092184369 3.1158894921333684 1495.0 2.0 1495.0 
38.00047933655907 1130.0 NaN 4990.912491649967 5.115889492133368 1495.0 2.0 1495.0 
40.00047933655907 1130.0 NaN 4990.96325985304 7.115889492133368 1495.0 2.0 1495.0 
42.00047933655907 1126.0 NaN 4990.923179692719 9.069753692202514 1495.0 2.0 1495.0 
44.00026526296459 1127.0 NaN 4991.663326653306 5.639423239493533 1493.0 4.0 1493.0 
46.00047933655907 1139.0 NaN 4991.179692718771 2.171309754127873 1491.0 6.0 1491.0 
48.00047933655907 1139.0 NaN 4990.522378089512 4.171309754127873 1491.0 6.0 1491.0 
50.00047933655907 1139.0 NaN 4990.549098196393 6.171309754127873 1491.0 6.0 1491.0 
52.00047933655907 1139.0 NaN 4990.535738142952 8.171309754127874 1491.0 6.0 1491.0 
54.00042902272939 1126.0 NaN 4990.5250501002 10.00963197602834 1491.0 6.0 1491.0 
56.00047933655907 1164.0 NaN 4991.764863059452 1.314031730682416 1490.0 7.0 1490.0 
58.00047933655907 1164.0 NaN 4991.243820975284 3.314031730682416 1490.0 7.0 1490.0 
60.00047933655907 1164.0 NaN 4988.154976619907 5.314031730682416 1489.0 7.0 1489.0 
62.00047933655907 1164.0 NaN 959.1877087508364 7.314031730682416 486.0 6.0 176.0 
64.00042902272939 1156.0 NaN 959.1877087508364 9.271327085325295 486.0 6.0 176.0 
66.0002592638109 1136.0 NaN 974.7735470941897 5.717286740132307 484.0 6.0 181.0 
68.00047933655907 1151.0 NaN 977.7047428189727 2.305898707104489 486.0 6.0 182.0 
70.00047933655907 1151.0 NaN 977.5764863059455 4.30589870710449 486.0 6.0 182.0 
72.00047933655907 1151.0 NaN 977.5577822311272 6.30589870710449 486.0 6.0 182.0 
74.00042902272939 1151.0 NaN 977.5417501669999 8.30589870710449 486.0 6.0 182.0 
76.00047933655907 1116.0 NaN 977.544422177691 10.008295956545421 482.0 6.0 182.0 
78.00047933655907 1140.0 NaN 977.6806947227803 1.1717088243514917 469.0 6.0 182.0 
80.00047933655907 1140.0 NaN 977.4108216432894 3.1717088243514913 469.0 6.0 182.0 
82.00047933655907 1140.0 NaN 977.3894455577816 5.171708824351492 469.0 6.0 182.0 
84.00042902272939 1140.0 NaN 977.3921175684713 7.169680426785569 469.0 6.0 182.0 
86.00047933655907 1135.0 NaN 977.3760855043437 9.112215040274059 469.0 6.0 182.0 
88.0002592638109 1136.0 NaN 983.6633266533076 5.7012048431483615 440.0 6.0 184.0 
90.00047933655907 1149.0 NaN 986.7094188376744 2.3280343924939735 411.0 6.0 185.0 
92.00047933655907 1149.0 NaN 986.63193052772 4.328034392493973 411.0 6.0 185.0 
94.00042902272939 1149.0 NaN 986.6105544422184 6.3260101009959975 411.0 6.0 185.0 
96.00047933655907 1149.0 NaN 986.5998663994636 8.328034392493974 411.0 6.0 185.0 
98.00047933655907 1112.0 NaN 986.6105544422184 9.993867250870137 409.0 6.0 185.0 
100.00047933655907 1143.0 NaN 996.0187040748184 1.3871438665540394 380.0 6.0 188.0 
102.00047933655907 1143.0 NaN 986.6132264529072 3.3871438665540397 380.0 6.0 185.0 
104.00042902272939 1143.0 NaN 986.6132264529072 5.385119575056064 380.0 6.0 185.0 
106.00047933655907 1143.0 NaN 986.6132264529072 7.387143866554039 380.0 6.0 185.0 
108.00047933655907 1132.0 NaN 986.6132264529072 9.289803662485031 377.0 6.0 185.0 
110.0002592638109 1115.0 NaN 989.814295257182 5.7469272588027165 365.0 6.0 186.0 
112.00047933655907 1134.0 NaN 992.7935871743471 2.4125228554157485 356.0 6.0 187.0 
114.00042902272939 1134.0 NaN 992.7428189712743 4.410498563917774 356.0 6.0 187.0 
116.00047933655907 1134.0 NaN 992.7374749499002 6.41252285541575 355.0 6.0 187.0 
118.00047933655907 1134.0 NaN 992.7267869071452 8.41252285541575 355.0 6.0 187.0 
120.00047933655907 1093.0 NaN 992.753507014027 9.992913188079024 351.0 6.0 187.0 
122.00047933655907 1139.0 NaN 1002.1830327321287 1.4142315719710212 337.0 6.0 190.0 
124.00042902272939 1139.0 NaN 989.7287909151637 3.4121949120932213 336.0 6.0 186.0 
126.00047933655907 1139.0 NaN 989.7127588510367 5.414231571971021 336.0 6.0 186.0 
128.00047933655907 1139.0 NaN 989.7020708082816 7.414231571971022 336.0 6.0 186.0 
130.00047933655907 1124.0 NaN 986.6613226452911 9.328652385257952 335.0 6.0 185.0 
132.0002592638109 1114.0 NaN 989.8009352037384 5.650900622207949 328.0 6.0 186.0 
134.0004290227294 1140.0 NaN 992.7828991315978 2.3642168987676806 327.0 6.0 187.0 
136.00047933655907 1140.0 NaN 989.6299265197067 4.366241190265657 326.0 6.0 186.0 
138.00047933655907 1140.0 NaN 989.6219104876429 6.366241190265656 326.0 6.0 186.0 
140.00047933655907 1140.0 NaN 989.6673346693386 8.366241190265654 326.0 6.0 186.0 
142.00047933655907 1109.0 NaN 989.6700066800275 10.03254505934348 321.0 6.0 186.0 
144.0004290227294 1166.0 NaN 1008.3927855711437 1.285566943127145 322.0 6.0 192.0 
146.00047933655907 1166.0 NaN 1008.1656646626565 3.2875953406930685 322.0 6.0 192.0 
148.00047933655907 1166.0 NaN 1008.152304609218 5.287595340693067 322.0 6.0 192.0 
150.00047933655907 1166.0 NaN 1005.1195724782912 7.287595340693069 322.0 6.0 191.0 
152.00047933655907 1157.0 NaN 1005.0741482965908 9.219186779005426 321.0 6.0 191.0 
154.0002592638109 1154.0 NaN 1008.267201068802 5.6417645173891415 319.0 6.0 192.0 
156.00047933655907 1182.0 NaN 1005.2104208416818 2.3032600105277266 320.0 6.0 191.0 
158.00047933655907 1182.0 NaN 989.7875751502999 4.303260010527728 319.0 6.0 186.0 
160.00047933655907 1182.0 NaN 989.8062792251181 6.303260010527728 319.0 6.0 186.0 
162.00047933655907 1182.0 NaN 989.7768871075476 8.303260010527728 319.0 6.0 186.0 
164.0004290227294 1140.0 NaN 989.8036072144273 10.00847596260486 318.0 6.0 186.0 
166.00047933655907 1195.0 NaN 1005.3573814295274 1.4486827716809156 314.0 6.0 191.0 
168.00047933655907 1195.0 NaN 998.9044756179018 3.4486827716809163 313.0 6.0 189.0 
170.00047933655907 1195.0 NaN 992.7935871743473 5.448682771680915 312.0 6.0 187.0 
172.00047933655907 1195.0 NaN 992.7828991315977 7.448682771680915 312.0 6.0 187.0 
174.0004290227294 1184.0 NaN 989.6967267869092 9.376528140330104 311.0 6.0 186.0 
176.0002592638109 1161.0 NaN 992.9111556446203 5.7256551292434015 308.0 6.0 187.0 
178.00047933655907 1185.0 NaN 992.9084836339363 2.450968151379916 305.0 6.0 187.0 
180.00047933655907 1185.0 NaN 989.7929191716753 4.450968151379916 305.0 6.0 186.0 
182.00047933655907 1185.0 NaN 989.7100868403455 6.450968151379916 305.0 6.0 186.0 
184.0004290227294 1185.0 NaN 989.7020708082819 8.44898007980934 305.0 6.0 186.0 
186.00047933655907 1132.0 NaN 989.7181028724114 10.06459201653358 303.0 6.0 186.0 
188.00047933655907 1162.0 NaN 999.1716766867072 1.4679531971934618 299.0 6.0 189.0 
190.00047933655907 1162.0 NaN 971.3426853707424 3.4679531971934616 297.0 6.0 180.0 
192.00047933655907 1162.0 NaN 971.2892451569817 5.467953197193462 297.0 6.0 180.0 
194.0004290227294 1162.0 NaN 968.2191048764183 7.465953197193464 296.0 6.0 179.0 
196.00047933655907 1153.0 NaN 968.2404809619238 9.400544168512692 295.0 6.0 179.0 
198.0002592638109 1140.0 NaN 971.4228456913817 5.679158336514864 298.0 6.0 180.0 
200.00047933655907 1164.0 NaN 974.3994655978635 2.399860321426354 299.0 6.0 181.0 
202.00047933655907 1164.0 NaN 974.3299933199725 4.399860321426353 299.0 6.0 181.0 
204.0004290227294 1164.0 NaN 974.3353373413482 6.3978603214263545 299.0 6.0 181.0 
206.00047933655907 1164.0 NaN 971.2545090180365 8.399860321426354 298.0 6.0 180.0 
208.00047933655907 1130.0 NaN 971.3052772211092 9.991747885608696 295.0 6.0 180.0 
210.00047933655907 1184.0 NaN 980.6973947895794 1.53861172697099 297.0 6.0 183.0 
212.00047933655907 1184.0 NaN 977.4589178356725 3.5386117269709914 296.0 6.0 182.0 
214.0004290227294 1184.0 NaN 977.4402137608544 5.536635442386009 296.0 6.0 182.0 
216.00047933655907 1184.0 NaN 977.4161656646638 7.538611726970991 296.0 6.0 182.0 
218.00047933655907 1172.0 NaN 977.4241816967275 9.423764707667576 295.0 6.0 182.0 
220.0002592638109 1161.0 NaN 980.6466265865066 5.690037629007318 290.0 6.0 183.0 
222.00047933655907 1183.0 NaN 980.5076820307272 2.4060377122256518 292.0 6.0 183.0 
224.0004290227294 1183.0 NaN 980.4328657314637 4.404057514205849 292.0 6.0 183.0 
226.00047933655907 1183.0 NaN 980.4382097528393 6.406037712225651 290.0 6.0 183.0 
228.00047933655907 1183.0 NaN 980.4301937207729 8.406037712225654 290.0 6.0 183.0 
230.00047933655907 1141.0 NaN 980.488977955912 10.005362865500114 289.0 6.0 183.0 
232.00047933655907 1182.0 NaN 986.8350033400122 1.611189506343412 287.0 6.0 185.0 
234.0004290227294 1182.0 NaN 965.1596526386093 3.6092210024064046 284.0 6.0 178.0 
236.00047933655907 1182.0 NaN 958.997995991982 5.611189506343412 284.0 6.0 176.0 
238.00047933655907 1182.0 NaN 959.0033400133601 7.611189506343412 284.0 6.0 176.0 
240.00047933655907 1166.0 NaN 955.9812959251819 9.442180211820219 282.0 6.0 175.0 
242.0002592638109 1148.0 NaN 959.1128924515696 5.795101172244174 279.0 7.0 175.0 
244.0004290227294 1171.0 NaN 965.1917167668669 2.5397731685340346 280.0 6.0 178.0 
246.00047933655907 1171.0 NaN 955.9438877755512 4.539773168534035 278.0 6.0 175.0 
248.00047933655907 1171.0 NaN 955.9225116900456 6.539773168534034 277.0 6.0 175.0 
250.00047933655907 1171.0 NaN 952.9004676018695 8.539773168534037 275.0 6.0 174.0 
252.00047933655907 1122.0 NaN 952.8871075484305 9.999325084422244 267.0 6.0 174.0 
254.0004290227294 1147.0 NaN 956.152304609218 1.372964457884619 265.0 6.0 175.0 
256.00047933655907 1147.0 NaN 955.9331997328003 3.374964457884619 265.0 6.0 175.0 
258.00047933655907 1147.0 NaN 955.9011356045426 5.37496445788462 265.0 6.0 175.0 
260.00047933655907 1147.0 NaN 955.9305277221092 7.37496445788462 265.0 6.0 175.0 
262.00047933655907 1137.0 NaN 955.8984635938546 9.27359193044927 264.0 6.0 175.0 
264.00025926381096 1132.0 NaN 965.2638610554453 5.743060807696791 267.0 6.0 178.0 
266.00047933655907 1157.0 NaN 968.2965931863728 2.509051692588943 269.0 7.0 178.0 
268.00047933655907 1157.0 NaN 965.1249164996666 4.509051692588943 269.0 7.0 177.0 
270.00047933655907 1157.0 NaN 962.0868403473637 6.509051692588944 268.0 7.0 176.0 
272.00047933655907 1157.0 NaN 962.0547762191061 8.509051692588944 268.0 7.0 176.0 
274.0004290227294 1114.0 NaN 962.0841683366726 10.016113997742409 266.0 7.0 176.0 
276.00047933655907 1150.0 NaN 962.2444889779547 1.4534655156973055 269.0 12.0 171.0 
278.00047933655907 1150.0 NaN 952.8790915163669 3.453465515697306 269.0 12.0 168.0 
280.00047933655907 1150.0 NaN 952.8737474949911 5.453465515697305 267.0 12.0 168.0 
282.00047933655907 1150.0 NaN 952.8309953239819 7.453465515697307 267.0 12.0 168.0 
284.0004290227294 1138.0 NaN 952.8684034736144 9.329399476963442 267.0 12.0 168.0 
286.00025926381096 1121.0 NaN 965.2905811623243 5.816847695392404 270.0 11.0 173.0 
288.00047933655907 1138.0 NaN 965.1703406813639 2.5540735165646336 271.0 11.0 173.0 
290.00047933655907 1138.0 NaN 962.0734802939212 4.554073516564633 270.0 11.0 172.0 
292.00047933655907 1138.0 NaN 962.0280561122242 6.5540735165646336 270.0 11.0 172.0 
294.0004290227294 1138.0 NaN 962.052104208418 8.554073516564634 270.0 11.0 172.0 
296.00047933655907 1094.0 NaN 958.9819639278543 10.012953837587181 266.0 11.0 171.0 
298.00047933655907 1131.0 NaN 980.7348029392122 1.3534348514243182 275.0 6.0 183.0 
300.00047933655907 1131.0 NaN 971.3052772211092 3.3534348514243177 275.0 6.0 180.0 
302.00047933655907 1131.0 NaN 971.2411489645963 5.353434851424319 275.0 6.0 180.0 
304.0004290227294 1131.0 NaN 968.1843687374726 7.353434851424319 275.0 6.0 179.0 
306.00047933655907 1118.0 NaN 968.1603206412816 9.204239027261341 273.0 6.0 179.0 
308.00025926381096 1115.0 NaN 968.2565130260509 5.676744207369885 274.0 6.0 179.0 
310.00047933655907 1134.0 NaN 974.4635938543763 2.426019734458582 274.0 6.0 181.0 
312.00047933655907 1134.0 NaN 958.9792919171676 4.426019734458582 274.0 6.0 176.0 
314.0004290227294 1134.0 NaN 958.9792919171676 6.426019734458583 274.0 6.0 176.0 
316.00047933655907 1134.0 NaN 958.9792919171676 8.426019734458583 274.0 6.0 176.0 
318.00047933655907 1090.0 NaN 959.0086840347365 10.001176355636055 273.0 6.0 176.0 
320.00047933655907 1131.0 NaN 974.5678022712091 1.2888508296688166 282.0 6.0 181.0 
322.00047933655907 1131.0 NaN 974.2952571810273 3.2888508296688164 282.0 6.0 181.0 
324.0004290227294 1131.0 NaN 971.2358049432182 5.288850829668816 281.0 6.0 180.0 
326.00047933655907 1131.0 NaN 968.181696726787 7.2888508296688155 280.0 6.0 179.0 
328.00047933655907 1127.0 NaN 968.1763527054092 9.22811736423211 279.0 6.0 179.0 
330.00025926381096 1126.0 NaN 974.4235136940545 5.796117845316093 281.0 6.0 181.0 
332.00047933655907 1145.0 NaN 974.415497661991 2.568925108615442 284.0 6.0 181.0 
334.0004290227294 1145.0 NaN 971.2839011356044 4.5689251086154385 284.0 6.0 180.0 
336.00047933655907 1145.0 NaN 971.2839011356044 6.5689251086154385 284.0 6.0 180.0 
338.00047933655907 1145.0 NaN 971.2785571142274 8.568925108615439 284.0 6.0 180.0 
340.00047933655907 1098.0 NaN 968.2832331329319 10.035783232650756 280.0 6.0 179.0 
342.00047933655907 1126.0 NaN 974.5010020040093 1.48943978419924 285.0 6.0 181.0 
344.0004290227294 1126.0 NaN 965.0875083500323 3.487423655166982 284.0 6.0 178.0 
346.00047933655907 1126.0 NaN 965.076820307282 5.48943978419924 284.0 6.0 178.0 
348.00047933655907 1126.0 NaN 962.0120240480954 7.48943978419924 283.0 6.0 177.0 
350.00047933655907 1118.0 NaN 958.9739478957908 9.405401158854886 282.0 6.0 176.0 
352.00025926381096 1095.0 NaN 962.0681362725455 5.826610525344136 277.0 6.0 177.0 
354.0004290227294 1108.0 NaN 965.1462925851687 2.5877018499083952 279.0 6.0 178.0 
356.00047933655907 1108.0 NaN 955.8396793587184 4.589755237998746 279.0 6.0 175.0 
358.00047933655907 1108.0 NaN 955.8450233800947 6.589755237998748 279.0 6.0 175.0 
360.00047933655907 1108.0 NaN 955.847695390782 8.589755237998748 279.0 6.0 175.0 
362.00047933655907 1063.0 NaN 955.8450233800947 10.01186243490412 274.0 6.0 175.0 
364.0004290227294 1093.0 NaN 962.1482965931864 1.4481103159014805 283.0 6.0 177.0 
366.00047933655907 1093.0 NaN 940.4996659986635 3.4481103159014803 281.0 6.0 170.0 
368.00047933655907 1093.0 NaN 937.4348697394785 5.44811031590148 281.0 6.0 169.0 
370.00047933655907 1093.0 NaN 937.4589178356716 7.44811031590148 280.0 6.0 169.0 
372.00047933655907 1087.0 NaN 934.3273213092865 9.378326839735582 279.0 6.0 168.0 
374.00025926381096 1079.0 NaN 940.5664662658645 5.655700637517731 274.0 6.0 170.0 
376.00047933655907 1096.0 NaN 937.5337341349364 2.3903967715616115 276.0 6.0 169.0 
378.00047933655907 1096.0 NaN 931.3132932531726 4.390396771561611 276.0 6.0 167.0 
380.00047933655907 1096.0 NaN 931.3533734134946 6.390396771561614 276.0 6.0 167.0 
382.00047933655907 1096.0 NaN 931.2972611890456 8.39039677156161 276.0 6.0 167.0 
384.0004290227294 1056.0 NaN 928.2565130260512 10.017129482907736 270.0 6.0 166.0 
386.00047933655907 1101.0 NaN 940.6760187040734 1.373566056406875 269.0 6.0 170.0 
388.00047933655907 1101.0 NaN 928.2137608550447 3.373566056406875 268.0 6.0 166.0 
390.00047933655907 1101.0 NaN 928.1977287909144 5.373566056406876 268.0 6.0 166.0 
392.00047933655907 1101.0 NaN 928.1816967267862 7.373566056406875 268.0 6.0 166.0 
394.0004290227294 1096.0 NaN 928.2057448229782 9.351675183608855 268.0 6.0 166.0 
396.00025926381096 1097.0 NaN 937.4989979959907 5.664386122635722 270.0 6.0 169.0 
398.00047933655907 1126.0 NaN 934.4502338009366 2.4828879573931655 272.0 6.0 168.0 
400.00047933655907 1126.0 NaN 925.1756847027401 4.482887957393166 269.0 6.0 165.0 
402.00047933655907 1126.0 NaN 925.1409485637947 6.482887957393164 269.0 6.0 165.0 
404.0004290227294 1126.0 NaN 925.1409485637947 8.482887957393164 269.0 6.0 165.0 
406.00047933655907 1076.0 NaN 925.1730126920498 10.017095456698343 265.0 6.0 165.0 
408.00047933655907 1120.0 NaN 931.4923179692729 1.5827608417859425 263.0 6.0 167.0 
410.00047933655907 1120.0 NaN 915.9946559786235 3.5827608417859405 263.0 6.0 162.0 
412.00047933655907 1120.0 NaN 915.9545758183037 5.582760841785942 263.0 6.0 162.0 
414.0004290227294 1120.0 NaN 912.8764195056773 7.582760841785944 262.0 6.0 161.0 
416.00047933655907 1111.0 NaN 912.8897795591181 9.490951823590663 261.0 6.0 161.0 
418.00025926381096 1097.0 NaN 916.05344021376 5.679369893917654 261.0 6.0 162.0 
420.00047933655907 1125.0 NaN 928.3099532398122 2.492516181409831 264.0 6.0 166.0 
422.00047933655907 1125.0 NaN 925.1970607882454 4.492516181409831 263.0 6.0 165.0 
424.0004290227294 1125.0 NaN 925.1810287241153 6.492516181409831 262.0 6.0 165.0 
426.00047933655907 1125.0 NaN 922.124248496994 8.492516181409831 262.0 6.0 164.0 
428.00047933655907 1074.0 NaN 922.1616566466274 10.003235257826333 260.0 6.0 164.0 
430.00047933655907 1110.0 NaN 922.2818971275874 1.4722153572685932 260.0 6.0 164.0 
432.00047933655907 1110.0 NaN 922.1269205076817 3.4722153572685928 260.0 6.0 164.0 
434.0004290227294 1110.0 NaN 919.0460921843685 5.4722153572685945 260.0 6.0 163.0 
436.00047933655907 1110.0 NaN 919.056780227122 7.4722153572685945 260.0 6.0 163.0 
438.00047933655907 1100.0 NaN 919.0487641950548 9.318801885785753 259.0 6.0 163.0 
440.00025926381096 1105.0 NaN 934.5597862391456 5.757216042743841 262.0 6.0 168.0 
442.00047933655907 1138.0 NaN 937.5657982631914 2.6962708199088197 262.0 6.0 169.0 
444.0004290227294 1138.0 NaN 934.4181696726781 4.696270819908821 261.0 6.0 168.0 
446.00047933655907 1138.0 NaN 934.3887775551088 6.696270819908821 261.0 6.0 168.0 
448.00047933655907 1138.0 NaN 934.3967935871731 8.696270819908818 261.0 6.0 168.0 
450.00047933655907 1085.0 NaN 934.4582498330001 10.02472244880901 259.0 6.0 168.0 
452.00047933655907 1144.0 NaN 949.8891115564453 1.497794872143605 263.0 6.0 173.0 
454.0004290227294 1144.0 NaN 949.7528390113548 3.4977948721436047 263.0 6.0 173.0 
456.00047933655907 1144.0 NaN 949.7474949899816 5.497794872143605 262.0 6.0 173.0 
458.00047933655907 1144.0 NaN 949.7474949899816 7.497794872143603 261.0 6.0 173.0 
460.00047933655907 1129.0 NaN 949.8089512358058 9.41448358547463 261.0 6.0 173.0 
462.00025926381096 1104.0 NaN 946.818971275885 5.6387988527376125 264.0 6.0 172.0 
464.0004290227294 1126.0 NaN 946.7414829659332 2.4238874867140474 267.0 7.0 171.0 
466.00047933655907 1126.0 NaN 943.6366065464274 4.423887486714043 266.0 7.0 170.0 
468.00047933655907 1126.0 NaN 943.625918503673 6.423887486714044 266.0 7.0 170.0 
470.00047933655907 1126.0 NaN 940.5771543086183 8.423887486714044 265.0 7.0 169.0 
472.00047933655907 1087.0 NaN 934.4128256513038 10.02910779016234 263.0 7.0 167.0 
474.0004290227294 1101.0 NaN 937.5577822311275 1.5623998895478992 256.0 12.0 163.0 
476.00047933655907 1101.0 NaN 931.265197060787 3.562399889547899 254.0 12.0 161.0 
478.00047933655907 1101.0 NaN 931.259853039413 5.562399889547899 253.0 12.0 161.0 
480.00047933655907 1101.0 NaN 931.2972611890455 7.5623998895479 252.0 12.0 161.0 
482.00047933655907 1088.0 NaN 931.2411489645957 9.35156372523285 252.0 12.0 161.0 
484.00025926381096 1074.0 NaN 937.4802939211766 5.678532365505583 250.0 12.0 163.0 
486.00047933655907 1098.0 NaN 937.4589178356724 2.4223560213706254 251.0 13.0 162.0 
488.00047933655907 1098.0 NaN 928.1950567802273 4.422356021370628 249.0 13.0 159.0 
490.00047933655907 1098.0 NaN 928.2244488977957 6.422356021370626 249.0 13.0 159.0 
492.00047933655907 1098.0 NaN 928.2030728122908 8.422356021370627 249.0 13.0 159.0 
494.0004290227294 1061.0 NaN 928.1843687374729 10.005933375183005 246.0 13.0 159.0 
496.00047933655907 1095.0 NaN 931.4442217768866 1.50865082648274 250.0 13.0 160.0 
498.00047933655907 1095.0 NaN 919.0514362057455 3.50865082648274 249.0 13.0 156.0 
500.00047933655907 1095.0 NaN 919.0941883767548 5.50865082648274 249.0 13.0 156.0 
502.00047933655907 1095.0 NaN 919.0514362057455 7.508650826482739 249.0 13.0 156.0 
504.0004290227294 1082.0 NaN 919.0460921843681 9.393532163332035 250.0 12.0 157.0 
506.00025926381096 1069.0 NaN 919.1155644622584 5.6000376937868035 252.0 9.0 160.0 
508.00047933655907 1089.0 NaN 915.9919839679366 2.3317144788052255 256.0 7.0 161.0 
510.00047933655907 1089.0 NaN 900.6386105544418 4.3317144788052255 254.0 7.0 156.0 
512.000479336559 1089.0 NaN 900.6118904475628 6.3317144788052255 254.0 7.0 156.0 
514.0004290227293 1089.0 NaN 900.601202404809 8.331714478805225 254.0 7.0 156.0 
516.000479336559 1063.0 NaN 900.5905143620582 10.017881062774293 254.0 7.0 156.0 
518.000479336559 1085.0 NaN 906.8830995323995 1.3783389316867443 254.0 6.0 159.0 
520.000479336559 1085.0 NaN 894.4662658650636 3.378338931686744 253.0 6.0 155.0 
522.000479336559 1085.0 NaN 894.45557782231 5.378338931686743 253.0 6.0 155.0 
524.0004290227293 1085.0 NaN 894.4502338009365 7.378338931686744 253.0 6.0 155.0 
526.000479336559 1079.0 NaN 891.3720774883092 9.300304064760075 251.0 6.0 154.0 
528.0002592638109 1062.0 NaN 891.446893787576 5.791434035803631 250.0 6.0 154.0 
530.000479336559 1074.0 NaN 888.3660654642621 2.5563741986521924 250.0 6.0 153.0 
532.000479336559 1074.0 NaN 885.2424849699408 4.556374198652193 250.0 6.0 152.0 
534.0004290227293 1074.0 NaN 885.2291249165 6.556374198652193 250.0 6.0 152.0 
536.000479336559 1074.0 NaN 885.2237808951228 8.556374198652195 250.0 6.0 152.0 
538.000479336559 1023.0 NaN 885.2398129592515 9.995034727445166 248.0 6.0 152.0 
540.000479336559 1075.0 NaN 906.917835671342 1.322908922550904 251.0 6.0 159.0 
542.000479336559 1075.0 NaN 888.3366733466936 3.3229089225509028 251.0 6.0 153.0 
544.0004290227293 1075.0 NaN 888.3259853039408 5.322908922550903 251.0 6.0 153.0 
546.000479336559 1075.0 NaN 888.3179692718774 7.322908922550903 251.0 6.0 153.0 
548.000479336559 1069.0 NaN 888.3126252505002 9.275893750917731 251.0 6.0 153.0 
550.0002592638109 1063.0 NaN 891.5243820975276 5.694286576591414 247.0 6.0 154.0 
552.000479336559 1081.0 NaN 900.6092184368729 2.428156175935206 247.0 6.0 157.0 
554.0004290227293 1081.0 NaN 894.4288577154316 4.4281561759352055 246.0 6.0 155.0 
556.000479336559 1081.0 NaN 894.4208416833668 6.428156175935205 246.0 6.0 155.0 
558.000479336559 1081.0 NaN 894.415497661991 8.428156175935205 246.0 6.0 155.0 
560.000479336559 1045.0 NaN 894.4502338009362 9.99322562562832 246.0 6.0 155.0 
562.000479336559 1085.0 NaN 897.6940547762183 1.4544404376566633 248.0 6.0 156.0 
564.0004290227293 1085.0 NaN 891.4362057448226 3.454440437656663 248.0 6.0 154.0 
566.000479336559 1085.0 NaN 891.4388777555107 5.454440437656663 248.0 6.0 154.0 
568.000479336559 1085.0 NaN 891.4549098196395 7.454440437656664 248.0 6.0 154.0 
570.000479336559 1079.0 NaN 891.4602538410153 9.3527218847373 248.0 6.0 154.0 
572.0002592638109 1082.0 NaN 903.9011356045419 5.683407460046298 252.0 6.0 158.0 
574.0004290227293 1118.0 NaN 906.8216432865727 2.5241241006394075 253.0 6.0 159.0 
576.000479336559 1118.0 NaN 903.6766867067466 4.5261241006394055 252.0 6.0 158.0 
578.000479336559 1118.0 NaN 903.6740146960592 6.526124100639407 252.0 6.0 158.0 
580.000479336559 1118.0 NaN 903.7034068136272 8.526124100639406 252.0 6.0 158.0 
582.000479336559 1058.0 NaN 903.6953907815637 9.990602452423664 251.0 6.0 158.0 
584.0004290227293 1107.0 NaN 909.971943887776 1.6993089335485156 253.0 6.0 160.0 
586.000479336559 1107.0 NaN 909.8169672678682 3.7013169656770306 252.0 6.0 160.0 
588.000479336559 1107.0 NaN 909.7955911823638 5.701316965677029 252.0 6.0 160.0 
590.000479336559 1107.0 NaN 909.8116232464921 7.701316965677031 252.0 6.0 160.0 
592.000479336559 1092.0 NaN 909.8116232464921 9.59222561937676 252.0 6.0 160.0 
594.0002592638109 1070.0 NaN 919.1235804943228 5.705826698847138 256.0 6.0 163.0 
596.000479336559 1095.0 NaN 931.4415497662001 2.415104312938459 256.0 6.0 167.0 
598.000479336559 1095.0 NaN 919.0781563126263 4.41510431293846 255.0 6.0 163.0 
600.000479336559 1095.0 NaN 919.0754843019364 6.4151043129384595 255.0 6.0 163.0 
602.000479336559 1095.0 NaN 916.0106880427512 8.415104312938459 254.0 6.0 162.0 
604.0004290227293 1055.0 NaN 912.9645958583828 9.992926545679595 252.0 6.0 161.0 
606.000479336559 1104.0 NaN 922.3166332665326 1.5257115476338983 255.0 6.0 164.0 
608.000479336559 1104.0 NaN 912.9004676018694 3.5257115476338994 254.0 6.0 161.0 
610.000479336559 1104.0 NaN 912.9084836339352 5.525711547633899 254.0 6.0 161.0 
612.000479336559 1104.0 NaN 912.9191716766862 7.5257115476338985 254.0 6.0 161.0 
614.0004290227293 1085.0 NaN 912.9138276553101 9.356013167828324 254.0 6.0 161.0 
616.0002592638109 1080.0 NaN 928.3981295925181 5.629039856913869 257.0 6.0 166.0 
618.000479336559 1111.0 NaN 937.5871743486961 2.4408603569344804 260.0 6.0 169.0 
620.000479336559 1111.0 NaN 928.2859051436218 4.440860356934481 260.0 6.0 166.0 
622.000479336559 1111.0 NaN 925.255845023381 6.440860356934481 259.0 6.0 165.0 
624.0004290227293 1111.0 NaN 922.1750167000673 8.440860356934481 259.0 6.0 164.0 
626.000479336559 1076.0 NaN 922.1750167000673 10.010295700333035 257.0 6.0 164.0 
628.000479336559 1136.0 NaN 943.9144956579818 1.650191904534314 265.0 6.0 171.0 
630.000479336559 1136.0 NaN 934.5357381429541 3.6501919045343114 263.0 6.0 168.0 
632.000479336559 1136.0 NaN 934.5063460253822 5.6501919045343145 263.0 6.0 168.0 
634.0004290227293 1136.0 NaN 931.4255177020723 7.650191904534314 262.0 6.0 167.0 
636.000479336559 1117.0 NaN 931.4308617234458 9.559479422215528 262.0 6.0 167.0 
638.0002592638109 1108.0 NaN 940.7722110888456 5.721764969361206 263.0 6.0 170.0 
640.000479336559 1161.0 NaN 962.3112892451582 2.638994516277442 267.0 6.0 177.0 
642.000479336559 1161.0 NaN 959.0487641950548 4.6389945162774415 266.0 6.0 176.0 
644.0004290227293 1161.0 NaN 959.0380761523047 6.638994516277438 266.0 6.0 176.0 
646.000479336559 1161.0 NaN 959.0380761523047 8.638994516277442 266.0 6.0 176.0 
648.000479336559 1100.0 NaN 959.0086840347365 10.045719508008963 263.0 6.0 176.0 
650.000479336559 1160.0 NaN 977.6833667334664 1.7405545324250553 269.0 6.0 182.0 
652.000479336559 1160.0 NaN 977.4402137608544 3.7405545324250546 269.0 6.0 182.0 
654.0004290227293 1160.0 NaN 977.4188376753515 5.738526134859133 269.0 6.0 182.0 
656.000479336559 1160.0 NaN 977.4241816967275 7.7405545324250555 269.0 6.0 182.0 
658.000479336559 1132.0 NaN 977.3921175684699 9.589394371986637 269.0 6.0 182.0 
660.0002592638109 1103.0 NaN 980.5905143620572 5.764826759069002 275.0 6.0 183.0 
662.000479336559 1142.0 NaN 992.8363393453565 2.605527364105609 278.0 6.0 187.0 
664.0004290227293 1142.0 NaN 989.6806947227794 4.603527364105611 277.0 6.0 186.0 
#####################################################################
# End of data export. Simulation finished at: 2019-03-06T21:24+0000 #
#####################################################################
