#####################################################################
# Alchemist log file - simulation started at: 2019-03-07T18:01+0000 #
#####################################################################
# seed = 5.0, bandwidth = 1333521.4321633242, propagationDelay = 0.03162277660168379, baserange = 100.0
#
# The columns have the following meaning: 
# time neighbor_count[Sum] <value>@neighbor_count[Sum] packet_size[Mean] mean_delay[Mean] crowd[Sum] overcrowded[Sum] risk[Sum] 
0.0 NaN NaN NaN NaN NaN NaN NaN 
2.000101793669918 13121.0 NaN 4996.301937207749 0.505807092375501 1496.0 1.0 1496.0 
4.000101793669918 13126.0 NaN 4998.623914495658 0.5059693941361476 1488.0 9.0 1488.0 
6.000101793669918 13126.0 NaN 4996.141616566466 0.5059728052312168 1490.0 7.0 1490.0 
8.000101793669918 13127.0 NaN 4996.943219772879 0.5060845916601555 1482.0 15.0 1482.0 
10.000101793669918 13123.0 NaN 4995.847695390781 0.5060388609577463 1485.0 12.0 1485.0 
12.000101793669918 13124.0 NaN 4996.7374749498995 0.5059761405081853 1482.0 15.0 1482.0 
14.000101793669918 13124.0 NaN 4995.465597862391 0.5060827361694047 1479.0 18.0 1479.0 
16.00010179366992 13130.0 NaN 4996.366065464262 0.5059689050186429 1479.0 18.0 1479.0 
18.00010179366992 13130.0 NaN 4995.2651970607885 0.506331315729183 1482.0 15.0 1482.0 
20.00010179366992 13146.0 NaN 4995.962591850367 0.5091234878613019 1475.0 22.0 1475.0 
22.00010179366992 13144.0 NaN 4994.987307949232 0.5064657358434325 1474.0 23.0 1474.0 
24.00010179366992 13145.0 NaN 4995.727454909819 0.5066978213702392 1482.0 15.0 1482.0 
26.00010179366992 13156.0 NaN 4994.749498997996 0.5063812352743104 1480.0 17.0 1480.0 
28.00010179366992 13163.0 NaN 4995.826319305277 0.5061011307590213 1480.0 17.0 1480.0 
30.00010179366992 13183.0 NaN 4994.672010688043 0.5084036641784411 1481.0 16.0 1481.0 
32.00010179366992 13180.0 NaN 4995.647294589178 0.5062961636912081 1476.0 21.0 1476.0 
34.00010179366992 13185.0 NaN 4994.789579158317 0.5073623867589221 1480.0 17.0 1480.0 
36.00010179366992 13189.0 NaN 4995.409485637942 0.5061482923193624 1481.0 16.0 1481.0 
38.00010179366992 13190.0 NaN 4994.655978623914 0.5071683692663222 1479.0 18.0 1479.0 
40.00010179366992 13229.0 NaN 4995.470941883767 0.5092051400502049 1480.0 17.0 1480.0 
42.00010179366992 13218.0 NaN 4994.51169004676 0.5070464531809721 1476.0 21.0 1476.0 
44.00010179366992 13223.0 NaN 4995.3720774883095 0.5087433613320512 1482.0 15.0 1482.0 
46.00010179366992 13223.0 NaN 4994.567802271209 0.5074638161752084 1481.0 16.0 1481.0 
48.00010179366992 13235.0 NaN 4995.2865731462925 0.5069801816406978 1480.0 17.0 1480.0 
50.00010179366992 13263.0 NaN 4994.546426185705 0.5071648823779594 1478.0 19.0 1478.0 
52.00010179366992 13247.0 NaN 4995.2919171676685 0.5083854475456814 1480.0 17.0 1480.0 
54.00010179366992 13265.0 NaN 4994.386105544422 0.5099566011866086 1478.0 19.0 1478.0 
56.00010179366992 13255.0 NaN 4995.3373413493655 0.5071013804510387 1479.0 18.0 1479.0 
58.00010179366992 13266.0 NaN 4994.567802271209 0.5074645062061779 1479.0 18.0 1479.0 
60.00010179366992 13289.0 NaN 4992.128256513026 0.5099223675221831 1478.0 18.0 1478.0 
62.00010179366992 13249.0 NaN 1522.952571810288 0.5087376029703559 766.0 15.0 350.0 
64.00010179366993 13254.0 NaN 1522.7575150300606 0.508945708644142 612.0 15.0 350.0 
66.00010179366993 13247.0 NaN 1522.567802271209 0.509350439482814 571.0 13.0 352.0 
68.00010179366993 13253.0 NaN 1525.7875751503 0.5099684434728525 540.0 12.0 354.0 
70.00010179366993 13249.0 NaN 1525.5577822311275 0.5069900625878139 524.0 10.0 356.0 
72.00010179366993 13267.0 NaN 1525.645958583836 0.507572822508877 521.0 11.0 355.0 
74.00010179366993 13289.0 NaN 1528.7561790247178 0.5090058848054523 514.0 15.0 352.0 
76.00010179366993 13281.0 NaN 1528.6760187040732 0.5064203317997119 519.0 9.0 358.0 
78.00010179366993 13328.0 NaN 1534.8510354041425 0.5077933408050354 516.0 13.0 356.0 
80.00010179366993 13300.0 NaN 1534.8697394789576 0.5126778046734015 510.0 19.0 350.0 
82.00010179366993 13305.0 NaN 1534.7682030728117 0.5102026706156284 514.0 15.0 354.0 
84.00010179366993 13309.0 NaN 1534.8323313293272 0.5114988670821212 507.0 22.0 347.0 
86.00010179366993 13292.0 NaN 1534.8002672010698 0.5070871572464998 515.0 12.0 357.0 
88.00010179366993 13319.0 NaN 1534.8563794255183 0.5113817694822569 509.0 17.0 352.0 
90.00010179366993 13261.0 NaN 1534.7682030728117 0.5127448488952625 515.0 12.0 357.0 
92.00010179366993 13261.0 NaN 1534.8002672010698 0.5084580098609117 511.0 17.0 352.0 
94.00010179366993 13262.0 NaN 1534.6533066132274 0.5094109018310199 518.0 10.0 359.0 
96.00010179366993 13241.0 NaN 1534.7414829659303 0.5102540540549199 509.0 19.0 350.0 
98.00010179366993 13251.0 NaN 1537.7822311289244 0.5109778010277645 516.0 12.0 358.0 
100.00010179366993 13222.0 NaN 1537.8436873747485 0.5114344062082355 509.0 19.0 351.0 
102.00010179366993 13222.0 NaN 1537.7715430861729 0.5087213165275284 509.0 18.0 352.0 
104.00010179366993 13223.0 NaN 1540.9779559118242 0.5101958344764649 509.0 18.0 353.0 
106.00010179366993 13224.0 NaN 1540.9325317301273 0.5086941312963411 509.0 18.0 353.0 
108.00010179366993 13251.0 NaN 1540.9645958583822 0.509474544368162 510.0 17.0 354.0 
110.00010179366993 13226.0 NaN 1540.9164996659997 0.5115358969427358 507.0 20.0 351.0 
112.00010179366993 13272.0 NaN 1540.9058116232454 0.5088406664806507 509.0 17.0 354.0 
114.00010179366993 13285.0 NaN 1540.9752839011364 0.5095379597687525 509.0 16.0 355.0 
116.00010179366993 13268.0 NaN 1540.929859719439 0.5077682418350682 510.0 18.0 353.0 
118.00010179366993 13306.0 NaN 1540.9084836339362 0.51018217769519 514.0 13.0 358.0 
120.00010179366993 13257.0 NaN 1540.9111556446212 0.5107273753156827 512.0 17.0 354.0 
122.00010179366993 13260.0 NaN 1540.993987975952 0.5115125255380765 512.0 15.0 356.0 
124.00010179366993 13285.0 NaN 1543.981295925182 0.5111139025813515 513.0 16.0 356.0 
126.00010179366993 13277.0 NaN 1544.0293921175698 0.5077993329935678 512.0 15.0 357.0 
128.00010179366993 13310.0 NaN 1540.921843687373 0.5107188573972493 513.0 16.0 355.0 
130.00010179366993 13260.0 NaN 1540.9832999332002 0.5124499637895178 513.0 13.0 358.0 
132.00010179366993 13243.0 NaN 1537.8490313961272 0.5092501473534429 516.0 10.0 360.0 
134.00010179366993 13281.0 NaN 1537.8249832999336 0.5103423442331136 513.0 14.0 356.0 
136.00010179366993 13249.0 NaN 1537.7929191716757 0.5083943246205952 510.0 13.0 357.0 
138.00010179366993 13276.0 NaN 1534.7708750835 0.5106149378125916 511.0 12.0 357.0 
140.00010179366993 13232.0 NaN 1534.7682030728117 0.5117073076563032 509.0 14.0 355.0 
142.00010179366993 13223.0 NaN 1537.7688710754842 0.5086901185157182 512.0 11.0 359.0 
144.00010179366993 13281.0 NaN 1537.8810955243816 0.5094811356906536 509.0 12.0 358.0 
146.00010179366993 13259.0 NaN 1534.875083500334 0.5085024237174405 510.0 11.0 358.0 
148.00010179366993 13283.0 NaN 1534.832331329327 0.5123933317792323 504.0 16.0 353.0 
150.00010179366993 13226.0 NaN 1531.6847027388094 0.5136335214422519 511.0 10.0 358.0 
152.00010179366993 13209.0 NaN 1528.6626586506359 0.5100445115409243 502.0 17.0 350.0 
154.00010179366993 13228.0 NaN 1528.6546426185723 0.5092392610569242 507.0 10.0 357.0 
156.00010179366993 13202.0 NaN 1531.8102872411484 0.5083252716538014 500.0 16.0 352.0 
158.00010179366993 13220.0 NaN 1534.7708750835 0.5139932093193678 507.0 14.0 355.0 
160.00010179366993 13174.0 NaN 1534.7788911155635 0.5138119133009118 508.0 12.0 357.0 
162.00010179366993 13142.0 NaN 1534.7361389445546 0.5110546772675307 510.0 11.0 358.0 
164.00010179366993 13177.0 NaN 1537.942551770209 0.5097977904828942 507.0 13.0 357.0 
166.00010179366993 13146.0 NaN 1537.766199064797 0.5083401615318098 511.0 9.0 361.0 
168.00010179366993 13168.0 NaN 1537.8891115564454 0.510896870879592 509.0 12.0 358.0 
170.00010179366993 13129.0 NaN 1537.8517034068157 0.5088448117659885 505.0 18.0 352.0 
172.00010179366993 13117.0 NaN 1537.8009352037395 0.509218037472622 500.0 18.0 352.0 
174.00010179366993 13152.0 NaN 1540.847027388109 0.5096702653465036 498.0 18.0 353.0 
176.00010179366993 13119.0 NaN 1537.8917835671366 0.5087547196522212 499.0 17.0 353.0 
178.00010179366993 13135.0 NaN 1537.7661990647975 0.5129999664048037 498.0 19.0 351.0 
180.00010179366993 13081.0 NaN 1537.8089512358067 0.512274977703561 501.0 18.0 352.0 
182.00010179366993 13079.0 NaN 1537.6993987975932 0.5084620278298717 498.0 21.0 349.0 
184.00010179366993 13108.0 NaN 1540.849699398798 0.5091850146280282 499.0 20.0 351.0 
186.00010179366993 13074.0 NaN 1537.7849031396117 0.506873977444321 496.0 21.0 349.0 
188.00010179366993 13098.0 NaN 1543.9144956579817 0.5103941145946144 496.0 19.0 353.0 
190.00010179366993 13073.0 NaN 1537.6700066800274 0.510401897305689 495.0 21.0 349.0 
192.00010179366993 13065.0 NaN 1537.736806947227 0.5077160515820285 497.0 18.0 352.0 
194.00010179366993 13096.0 NaN 1540.9859719438884 0.5098666204371446 495.0 20.0 351.0 
196.00010179366993 13045.0 NaN 1540.8016032064115 0.5081351993265998 495.0 21.0 350.0 
198.00010179366993 13053.0 NaN 1543.9706078824297 0.5191645846802813 497.0 19.0 353.0 
200.00010179366993 13010.0 NaN 1547.1262525050088 0.509748548060474 501.0 17.0 356.0 
202.00010179366993 12986.0 NaN 1547.0300601202389 0.5095362005616424 498.0 21.0 352.0 
204.00010179366993 13020.0 NaN 1546.955243820975 0.5143075242805263 497.0 20.0 353.0 
206.00010179366993 12992.0 NaN 1543.9492317969275 0.5097041801717218 498.0 19.0 353.0 
208.00010179366993 13001.0 NaN 1540.8256513026065 0.511017794970776 502.0 18.0 353.0 
210.00010179366993 12962.0 NaN 1537.7608550434181 0.5100430917128399 502.0 18.0 352.0 
212.00010179366993 12952.0 NaN 1537.7154308617246 0.5066363427686437 500.0 17.0 353.0 
214.00010179366993 12981.0 NaN 1540.780227120909 0.5090803632152116 495.0 23.0 348.0 
216.00010179366993 12924.0 NaN 1534.551770207082 0.5085244087596885 500.0 17.0 352.0 
218.00010179366993 12919.0 NaN 1531.660654642618 0.5099191709883449 497.0 18.0 350.0 
220.00010179366993 12901.0 NaN 1531.4949899799608 0.5076349303155843 496.0 19.0 349.0 
222.00010179366993 12880.0 NaN 1534.5704742818973 0.5083759746246593 491.0 23.0 346.0 
224.00010179366993 12884.0 NaN 1534.7040748163001 0.5116460242553611 493.0 22.0 347.0 
226.00010179366993 12861.0 NaN 1531.5511022044093 0.5073344684788239 495.0 20.0 348.0 
228.00010179366993 12865.0 NaN 1534.594522378091 0.5092879875762775 493.0 21.0 348.0 
230.00010179366993 12847.0 NaN 1537.814295257182 0.510010747555674 494.0 19.0 351.0 
232.00010179366993 12838.0 NaN 1540.7989311957247 0.5056796384791837 491.0 23.0 348.0 
234.00010179366993 12855.0 NaN 1540.9058116232454 0.5121847812812943 495.0 18.0 353.0 
236.00010179366993 12816.0 NaN 1537.7768871075482 0.5075734637655072 497.0 16.0 354.0 
238.00010179366993 12796.0 NaN 1534.6533066132274 0.5087309078993696 495.0 20.0 349.0 
240.00010179366993 12788.0 NaN 1534.6346025384091 0.5124494303202016 496.0 16.0 353.0 
242.00010179366993 12769.0 NaN 1534.7655310621246 0.5067088387876962 495.0 18.0 351.0 
244.00010179366993 12778.0 NaN 1534.6052104208427 0.5112764689543629 496.0 20.0 349.0 
246.00010179366993 12725.0 NaN 1534.7307949231817 0.5071262981356331 495.0 19.0 350.0 
248.00010179366993 12711.0 NaN 1528.545090180361 0.5107963759120401 494.0 19.0 348.0 
250.00010179366993 12715.0 NaN 1531.655310621243 0.5125712253553979 494.0 19.0 349.0 
252.00010179366993 12704.0 NaN 1528.4542418169665 0.5064505843705793 492.0 20.0 347.0 
254.00010179366993 12721.0 NaN 1534.7468269873093 0.5081625057464235 493.0 19.0 350.0 
256.00010179366996 12709.0 NaN 1531.6045424181702 0.5103808761515387 498.0 17.0 351.0 
258.00010179366996 12699.0 NaN 1531.6766867067456 0.5101097658055732 495.0 19.0 349.0 
260.00010179366996 12707.0 NaN 1531.583166332664 0.50755856950535 495.0 19.0 349.0 
262.00010179366996 12717.0 NaN 1525.603206412827 0.5088699321263376 496.0 18.0 348.0 
264.00010179366996 12712.0 NaN 1537.806279225118 0.509072371029021 497.0 16.0 354.0 
266.00010179366996 12679.0 NaN 1537.8517034068154 0.5073011727186632 494.0 18.0 352.0 
268.00010179366996 12680.0 NaN 1534.6185704742816 0.510486523138316 494.0 17.0 352.0 
270.00010179366996 12709.0 NaN 1534.7227788911157 0.5151804002258894 491.0 19.0 350.0 
272.00010179366996 12680.0 NaN 1534.5651302605206 0.5098443730515714 494.0 16.0 353.0 
274.00010179366996 12677.0 NaN 1534.7388109552453 0.5112705298907667 492.0 17.0 352.0 
276.00010179366996 12663.0 NaN 1540.7561790247182 0.5123823948805762 491.0 17.0 354.0 
278.00010179366996 12641.0 NaN 1540.9058116232454 0.5091342445063429 493.0 19.0 352.0 
280.00010179366996 12629.0 NaN 1537.683366733466 0.5145977240675544 496.0 16.0 354.0 
282.00010179366996 12606.0 NaN 1534.7174348697388 0.5075185119166954 494.0 18.0 351.0 
284.00010179366996 12618.0 NaN 1534.5410821643272 0.5109450134285091 497.0 16.0 353.0 
286.00010179366996 12593.0 NaN 1534.7281229124908 0.5099881002476219 493.0 19.0 350.0 
288.00010179366996 12559.0 NaN 1534.5544422177702 0.509829643840182 495.0 17.0 352.0 
290.00010179366996 12546.0 NaN 1534.647962591852 0.5126970550149775 494.0 18.0 351.0 
292.00010179366996 12531.0 NaN 1534.5143620574477 0.507918037929933 496.0 16.0 353.0 
294.00010179366996 12530.0 NaN 1531.612558450234 0.5116030099162998 489.0 22.0 346.0 
296.00010179366996 12510.0 NaN 1531.4789579158305 0.5101672564434783 494.0 17.0 351.0 
298.00010179366996 12502.0 NaN 1540.8336673346703 0.508398492257112 492.0 18.0 353.0 
300.00010179366996 12482.0 NaN 1540.7508350033388 0.5100314023234653 492.0 17.0 354.0 
302.00010179366996 12470.0 NaN 1531.5457581830337 0.5068492915684036 489.0 19.0 349.0 
304.00010179366996 12456.0 NaN 1534.6933867735456 0.5105421438381862 490.0 17.0 352.0 
306.00010179366996 12447.0 NaN 1537.907815631264 0.5080542114611912 486.0 22.0 348.0 
308.00010179366996 12454.0 NaN 1537.6566466265876 0.5112142775107047 490.0 17.0 353.0 
310.00010179366996 12445.0 NaN 1537.8356713426845 0.5108999683070041 486.0 20.0 350.0 
312.00010179366996 12433.0 NaN 1531.5858383433547 0.506309367372919 488.0 17.0 351.0 
314.00010179366996 12430.0 NaN 1531.5938543754182 0.5121509564155862 487.0 18.0 350.0 
316.00010179366996 12404.0 NaN 1531.6312625250519 0.5064764759925011 490.0 16.0 352.0 
318.00010179366996 12428.0 NaN 1531.6766867067456 0.5069823623346381 484.0 22.0 346.0 
320.00010179366996 12424.0 NaN 1531.6820307281243 0.5082341390212368 490.0 17.0 351.0 
322.00010179366996 12422.0 NaN 1534.80026720107 0.5065525805485 489.0 18.0 351.0 
324.00010179366996 12413.0 NaN 1531.663326653307 0.5105239663911216 489.0 17.0 351.0 
326.00010179366996 12392.0 NaN 1531.6713426853726 0.5084576253349831 486.0 19.0 349.0 
328.00010179366996 12421.0 NaN 1531.6793587174363 0.5090256466408002 491.0 16.0 352.0 
330.00010179366996 12408.0 NaN 1531.6526386105547 0.5090826554112678 486.0 21.0 347.0 
332.00010179366996 12397.0 NaN 1531.6098864395453 0.5078651385120178 490.0 17.0 351.0 
334.00010179366996 12394.0 NaN 1531.6579826319298 0.5089181982716899 487.0 19.0 349.0 
336.00010179366996 12381.0 NaN 1531.7087508350028 0.5064410365300805 489.0 17.0 351.0 
338.00010179366996 12391.0 NaN 1528.7054108216453 0.5091450117312756 490.0 18.0 349.0 
340.00010179366996 12407.0 NaN 1525.3974615898453 0.5107241523400485 492.0 16.0 350.0 
342.00010179366996 12379.0 NaN 1525.493653974618 0.5070010828712953 486.0 22.0 344.0 
344.00010179366996 12399.0 NaN 1528.4676018704088 0.5084106154867853 491.0 17.0 350.0 
346.00010179366996 12376.0 NaN 1519.3453573814277 0.5081743905011745 489.0 18.0 346.0 
348.00010179366996 12381.0 NaN 1519.2785571142272 0.5051334892327947 489.0 17.0 347.0 
350.00010179366996 12418.0 NaN 1525.4722778891114 0.5079350592593577 489.0 19.0 347.0 
352.00010179366996 12414.0 NaN 1522.2899131596541 0.5072082604621484 494.0 16.0 349.0 
354.00010179366996 12414.0 NaN 1519.3800935203733 0.5114763132428807 491.0 21.0 343.0 
356.00010179366996 12396.0 NaN 1519.1770207080817 0.5068838236174801 495.0 17.0 347.0 
358.00010179366996 12416.0 NaN 1519.3373413493644 0.510082566607086 491.0 19.0 345.0 
360.00010179366996 12428.0 NaN 1516.1710086840358 0.5112560090314054 494.0 17.0 346.0 
362.00010179366996 12409.0 NaN 1513.1543086172355 0.5101894964879515 493.0 18.0 344.0 
364.00010179366996 12396.0 NaN 1506.971275885103 0.5103112009353591 495.0 16.0 344.0 
366.00010179366996 12383.0 NaN 1503.9465597862384 0.5087476888263802 489.0 22.0 337.0 
368.00010179366996 12365.0 NaN 1500.7989311957253 0.5145684805815176 495.0 17.0 341.0 
370.00010179366996 12363.0 NaN 1507.0647962591843 0.5144265243171201 494.0 18.0 342.0 
372.00010179366996 12338.0 NaN 1506.8162992651978 0.5092728341774698 494.0 18.0 342.0 
374.00010179366996 12331.0 NaN 1503.9198396793577 0.5120917376248918 495.0 20.0 339.0 
376.00010179366996 12333.0 NaN 1500.7882431529729 0.5074487979864037 499.0 16.0 342.0 
378.00010179366996 12348.0 NaN 1497.7127588510361 0.5130578633812983 492.0 22.0 335.0 
380.00010179366996 12337.0 NaN 1500.7374749499 0.5118265756906745 494.0 18.0 340.0 
382.00010179366996 12327.0 NaN 1497.80093520374 0.5105861088784086 496.0 19.0 338.0 
384.00010179366996 12327.0 NaN 1497.6112224448907 0.5153545415313193 499.0 17.0 340.0 
386.00010179366996 12291.0 NaN 1494.7361389445553 0.5142725741147014 496.0 19.0 337.0 
388.00010179366996 12306.0 NaN 1494.567802271209 0.5150096498140876 494.0 19.0 337.0 
390.00010179366996 12307.0 NaN 1500.892451569807 0.5147861982693975 488.0 25.0 333.0 
392.00010179366996 12301.0 NaN 1500.841683366734 0.5151125819302489 501.0 16.0 342.0 
394.00010179366996 12276.0 NaN 1507.131596526385 0.5132012710789963 503.0 16.0 344.0 
396.00010179366996 12262.0 NaN 1506.9392117568461 0.5128466988271307 502.0 17.0 343.0 
398.00010179366996 12273.0 NaN 1503.9385437541737 0.5104699138606192 501.0 19.0 340.0 
400.00010179366996 12291.0 NaN 1500.8363393453567 0.5098951626996805 502.0 17.0 341.0 
402.00010179366996 12287.0 NaN 1503.8984635938546 0.5143187694756891 497.0 21.0 338.0 
404.00010179366996 12274.0 NaN 1506.933867735472 0.5121054180641751 501.0 18.0 342.0 
406.00010179366996 12269.0 NaN 1513.108884435537 0.5114836849678779 500.0 20.0 342.0 
408.00010179366996 12271.0 NaN 1522.3914495657991 0.5157526706763044 504.0 21.0 344.0 
410.00010179366996 12280.0 NaN 1525.4615898463605 0.5081670220514698 507.0 18.0 348.0 
412.00010179366996 12269.0 NaN 1522.3513694054789 0.5089055389935724 511.0 16.0 349.0 
414.00010179366996 12282.0 NaN 1519.2812291249174 0.509758118628101 505.0 22.0 342.0 
416.00010179366996 12287.0 NaN 1510.0200400801612 0.5091617120845577 504.0 23.0 338.0 
418.00010179366996 12309.0 NaN 1513.1623246492993 0.5106827167214092 504.0 21.0 341.0 
420.00010179366996 12331.0 NaN 1506.8884435537736 0.515720808542974 506.0 19.0 341.0 
422.00010179366996 12317.0 NaN 1494.6132264529062 0.5127708080326927 500.0 18.0 338.0 
424.00010179366996 12307.0 NaN 1503.8877755511012 0.5127398684551799 501.0 16.0 343.0 
426.00010179366996 12286.0 NaN 1506.9285237140948 0.5128621031486564 500.0 20.0 340.0 
428.00010179366996 12283.0 NaN 1506.963259853039 0.5121817802923078 502.0 18.0 342.0 
430.00010179366996 12306.0 NaN 1503.906479625918 0.5114043691987403 502.0 18.0 341.0 
432.00010179366996 12322.0 NaN 1519.2358049432191 0.513648168808355 506.0 18.0 346.0 
434.00010179366996 12322.0 NaN 1519.257181028725 0.5128287186813777 510.0 17.0 347.0 
436.00010179366996 12301.0 NaN 1519.1716766867073 0.5097646129516167 510.0 17.0 347.0 
438.00010179366996 12297.0 NaN 1522.2925851703394 0.5107625800091156 501.0 25.0 340.0 
440.00010179366996 12291.0 NaN 1525.384101536407 0.5089674770035063 505.0 22.0 344.0 
442.00010179366996 12314.0 NaN 1537.718102872411 0.5157487509897835 511.0 17.0 353.0 
444.00010179366996 12301.0 NaN 1534.535738142954 0.5147054113523762 508.0 22.0 347.0 
446.00010179366996 12266.0 NaN 1540.7027388109545 0.515517040331754 515.0 18.0 353.0 
448.00010179366996 12256.0 NaN 1540.7374749499 0.5114094372958624 517.0 16.0 355.0 
450.00010179366996 12247.0 NaN 1543.890447561791 0.5119039462627127 511.0 21.0 351.0 
452.00010179366996 12241.0 NaN 1543.7434869739477 0.5109534399540486 512.0 18.0 354.0 
454.00010179366996 12228.0 NaN 1543.8129592518362 0.5128027182980553 512.0 18.0 354.0 
456.00010179366996 12220.0 NaN 1546.8376753507002 0.5163180609887812 510.0 18.0 355.0 
458.00010179366996 12217.0 NaN 1546.8777555110212 0.5120485907226744 509.0 18.0 355.0 
460.00010179366996 12224.0 NaN 1546.832331329327 0.5122748587299291 510.0 16.0 357.0 
462.00010179366996 12248.0 NaN 1546.7869071476275 0.5148928698095361 504.0 21.0 352.0 
464.00010179366996 12242.0 NaN 1543.7675350701393 0.5147315581432073 509.0 18.0 354.0 
466.00010179366996 12228.0 NaN 1543.8503674014703 0.5135507757741811 508.0 17.0 355.0 
468.00010179366996 12229.0 NaN 1540.5798263193062 0.5130133196866308 505.0 19.0 352.0 
470.00010179366996 12245.0 NaN 1540.6973947895794 0.5105120168260936 504.0 18.0 353.0 
472.00010179366996 12242.0 NaN 1534.482297929191 0.510434831872896 505.0 16.0 353.0 
474.00010179366996 12246.0 NaN 1528.3313293253182 0.5115864157252586 500.0 20.0 347.0 
476.00010179366996 12230.0 NaN 1528.3019372077483 0.510115314133737 504.0 18.0 349.0 
478.00010179366996 12218.0 NaN 1528.3446893787568 0.5102997706247968 502.0 18.0 349.0 
480.00010179366996 12218.0 NaN 1525.2291249165 0.5113396250540643 501.0 19.0 347.0 
482.00010179366996 12214.0 NaN 1522.30861723447 0.5124607755648498 497.0 21.0 344.0 
484.00010179366996 12218.0 NaN 1506.8590514362063 0.5161162633812306 495.0 20.0 340.0 
486.00010179366996 12198.0 NaN 1500.734802939211 0.5160246638580531 487.0 25.0 333.0 
488.00010179366996 12192.0 NaN 1494.5651302605202 0.5105235423652241 489.0 22.0 334.0 
490.00010179366996 12192.0 NaN 1500.7962591850364 0.513290529236341 493.0 19.0 339.0 
492.00010179366996 12174.0 NaN 1491.5404141616557 0.5167836197032801 491.0 21.0 334.0 
494.00010179366996 12171.0 NaN 1485.3573814295264 0.5129476367676528 487.0 21.0 332.0 
496.00010179366996 12155.0 NaN 1485.4108216432876 0.5145641134039672 489.0 18.0 335.0 
498.00010179366996 12174.0 NaN 1485.4696058784243 0.50797207194297 486.0 22.0 331.0 
500.00010179366996 12192.0 NaN 1488.4355377421518 0.5122061201746342 488.0 20.0 334.0 
502.00010179366996 12193.0 NaN 1491.6713426853717 0.5156027791560938 491.0 18.0 337.0 
504.00010179366996 12212.0 NaN 1485.496325985303 0.5114044371418655 490.0 18.0 335.0 
506.00010179366996 12188.0 NaN 1494.6586506346018 0.5097448502446581 494.0 17.0 339.0 
508.00010179366996 12196.0 NaN 1497.7982631930533 0.5113449583206566 498.0 16.0 341.0 
510.00010179366996 12208.0 NaN 1494.6559786239154 0.5102258358787825 490.0 21.0 335.0 
512.00010179367 12212.0 NaN 1488.5397461589837 0.5112284858172991 492.0 18.0 336.0 
514.00010179367 12221.0 NaN 1482.4742818971272 0.514874012516833 492.0 17.0 335.0 
516.00010179367 12206.0 NaN 1476.1843687374737 0.5087225075335148 488.0 18.0 332.0 
518.00010179367 12225.0 NaN 1476.2805611222452 0.5078746218158143 490.0 18.0 332.0 
520.00010179367 12239.0 NaN 1464.042752171009 0.5105352199564915 491.0 16.0 330.0 
522.00010179367 12258.0 NaN 1460.8790915163654 0.5122067982782588 482.0 22.0 323.0 
524.00010179367 12281.0 NaN 1463.8717434869734 0.5099874254636295 485.0 18.0 328.0 
526.00010179367 12281.0 NaN 1460.876419505679 0.5093994417439214 486.0 19.0 326.0 
528.00010179367 12313.0 NaN 1463.9919839679362 0.5104798820768188 487.0 19.0 327.0 
530.00010179367 12326.0 NaN 1451.7301269205084 0.5117948646958744 486.0 19.0 323.0 
532.00010179367 12334.0 NaN 1451.6018704074818 0.5123915977383882 488.0 17.0 325.0 
534.00010179367 12372.0 NaN 1451.6419505678014 0.5133271863631144 483.0 22.0 320.0 
536.00010179367 12350.0 NaN 1454.7067468269877 0.5089310666040667 481.0 22.0 321.0 
538.00010179367 12364.0 NaN 1461.0634602538416 0.5147145231785006 487.0 18.0 327.0 
540.00010179367 12351.0 NaN 1460.9004676018715 0.5135134675135332 486.0 19.0 326.0 
542.00010179367 12334.0 NaN 1467.1903807615238 0.511004086745209 488.0 18.0 329.0 
544.00010179367 12332.0 NaN 1470.1322645290575 0.5165637000242621 489.0 17.0 331.0 
546.00010179367 12293.0 NaN 1467.1850367401464 0.5117850483027712 488.0 20.0 327.0 
548.00010179367 12310.0 NaN 1466.9979959919833 0.5134817296704556 487.0 21.0 326.0 
550.00010179367 12304.0 NaN 1464.1095524382092 0.5129137172851641 489.0 18.0 328.0 
552.00010179367 12309.0 NaN 1463.8931195724788 0.5191265132687723 488.0 19.0 327.0 
554.00010179367 12320.0 NaN 1467.1289245156988 0.5138196996790005 491.0 17.0 330.0 
556.00010179367 12293.0 NaN 1457.7287909151637 0.509412152764906 488.0 17.0 327.0 
558.00010179367 12305.0 NaN 1454.8617234468936 0.5122222863415544 483.0 21.0 322.0 
560.00010179367 12298.0 NaN 1454.5945223780898 0.5125796305586736 483.0 19.0 324.0 
562.00010179367 12324.0 NaN 1457.9345357381428 0.5104239038362203 486.0 17.0 327.0 
564.00010179367 12349.0 NaN 1460.822979291918 0.5121627997516648 486.0 19.0 326.0 
566.00010179367 12334.0 NaN 1454.888443553774 0.5091384777821807 486.0 18.0 325.0 
568.00010179367 12340.0 NaN 1460.9619238476953 0.5103703993906792 489.0 17.0 328.0 
570.00010179367 12345.0 NaN 1467.2117568470271 0.5132276093954193 490.0 19.0 328.0 
572.00010179367 12348.0 NaN 1473.2424849699398 0.5127031559409069 491.0 18.0 331.0 
574.00010179367 12351.0 NaN 1476.4435537742152 0.5128327942937131 491.0 17.0 333.0 
576.00010179367 12326.0 NaN 1473.2718770875088 0.5144942355900084 490.0 18.0 331.0 
578.00010179367 12329.0 NaN 1470.2818971275885 0.5140499283659323 494.0 16.0 332.0 
580.00010179367 12338.0 NaN 1470.0868403473623 0.5127428732628777 494.0 16.0 332.0 
582.00010179367 12359.0 NaN 1473.2451569806274 0.5147596756129835 491.0 20.0 329.0 
584.00010179367 12342.0 NaN 1476.1736806947235 0.5138015232670139 500.0 17.0 333.0 
586.00010179367 12324.0 NaN 1473.2424849699394 0.5137479444103814 503.0 16.0 333.0 
588.00010179367 12346.0 NaN 1476.1549766199066 0.5112054062052864 502.0 17.0 333.0 
590.00010179367 12343.0 NaN 1482.4422177688714 0.5077986860281312 505.0 17.0 335.0 
592.00010179367 12355.0 NaN 1482.4448897795598 0.5122462847916411 508.0 16.0 336.0 
594.00010179367 12348.0 NaN 1485.6272545090183 0.512335491587121 506.0 19.0 334.0 
596.00010179367 12320.0 NaN 1485.4696058784239 0.5087031560740868 508.0 17.0 336.0 
598.00010179367 12334.0 NaN 1488.7374749499 0.5138422982392844 506.0 17.0 337.0 
600.00010179367 12365.0 NaN 1491.6285905143625 0.518332663740085 508.0 17.0 338.0 
602.00010179367 12372.0 NaN 1488.5905143620569 0.5117491593272738 508.0 16.0 338.0 
604.00010179367 12368.0 NaN 1500.9512358049442 0.5098698415168261 511.0 16.0 342.0 
606.00010179367 12382.0 NaN 1497.8810955243816 0.5107923545273603 506.0 20.0 337.0 
608.00010179367 12406.0 NaN 1503.9331997328 0.5118754892413359 510.0 17.0 342.0 
610.00010179367 12433.0 NaN 1504.0587842351363 0.5142429308744214 512.0 16.0 343.0 
612.00010179367 12432.0 NaN 1500.8897795591183 0.5102687575985236 510.0 17.0 341.0 
614.00010179367 12438.0 NaN 1500.8122912491647 0.510673502120827 509.0 17.0 341.0 
616.00010179367 12431.0 NaN 1500.961923847694 0.5104953711695668 508.0 16.0 342.0 
618.00010179367 12470.0 NaN 1504.0347361389452 0.5101197420659316 504.0 19.0 340.0 
620.00010179367 12492.0 NaN 1516.2752171008694 0.5081278574779108 508.0 17.0 346.0 
622.00010179367 12507.0 NaN 1516.4328657314636 0.5105260388075641 507.0 17.0 346.0 
624.00010179367 12505.0 NaN 1516.291249164997 0.5111135304308746 507.0 17.0 346.0 
626.00010179367 12477.0 NaN 1516.3206412825646 0.5110227568775257 507.0 17.0 346.0 
628.00010179367 12490.0 NaN 1519.4175016700074 0.5157372463476418 506.0 17.0 347.0 
630.00010179367 12455.0 NaN 1516.3633934535728 0.5118006824593736 505.0 21.0 342.0 
632.00010179367 12436.0 NaN 1525.608550434201 0.5108983342138438 507.0 20.0 346.0 
634.00010179367 12441.0 NaN 1522.5811623246484 0.510869049344207 514.0 18.0 347.0 
636.00010179367 12421.0 NaN 1522.4742818971272 0.5085536556815926 512.0 20.0 345.0 
638.00010179367 12428.0 NaN 1519.3480293921182 0.5092921076985543 514.0 19.0 345.0 
640.00010179367 12439.0 NaN 1513.1730126920515 0.5107101139317408 508.0 19.0 343.0 
642.00010179367 12428.0 NaN 1510.1082164328648 0.5078171992627742 500.0 23.0 338.0 
644.00010179367 12438.0 NaN 1513.2024048096184 0.5103793106270126 500.0 22.0 340.0 
646.00010179367 12417.0 NaN 1513.183700734802 0.5089184279054441 498.0 23.0 339.0 
648.00010179367 12437.0 NaN 1513.2344689378747 0.5126536704947834 497.0 22.0 340.0 
650.00010179367 12415.0 NaN 1510.1857047428184 0.5137049824307474 498.0 22.0 339.0 
652.00010179367 12375.0 NaN 1525.600534402137 0.5105689801721118 499.0 22.0 344.0 
654.00010179367 12397.0 NaN 1525.6325985303931 0.5097213964889815 494.0 25.0 341.0 
656.00010179367 12399.0 NaN 1525.5283901135615 0.511132103471251 495.0 23.0 343.0 
658.00010179367 12390.0 NaN 1525.6032064128262 0.5117872124989037 496.0 21.0 345.0 
660.00010179367 12399.0 NaN 1534.7575150300606 0.5134348938560209 491.0 20.0 349.0 
662.00010179367 12376.0 NaN 1538.0253841015365 0.5088328044719623 494.0 20.0 350.0 
664.00010179367 12361.0 NaN 1537.9772879091527 0.5125038536369101 497.0 19.0 351.0 
#####################################################################
# End of data export. Simulation finished at: 2019-03-07T18:10+0000 #
#####################################################################
