#####################################################################
# Alchemist log file - simulation started at: 2019-03-20T08:21+0000 #
#####################################################################
# seed = 9.0, bandwidth = 316227.76601683797, propagationDelay = 0.001, baserange = 56.234132519034915
#
# The columns have the following meaning: 
# time neighbor_count[Sum] <value>@neighbor_count[Sum] packet_size[Mean] mean_delay[Mean] crowd[Sum] overcrowded[Sum] risk[Sum] 
0.0 NaN NaN NaN NaN NaN NaN NaN 
2.000022157089317 6162.0 NaN 4996.363393453574 0.5015781266445085 1497.0 0.0 1497.0 
4.000022157089317 6164.0 NaN 4998.746826987308 0.5015729368204345 1490.0 7.0 1490.0 
6.000022157089317 6167.0 NaN 4996.157648630595 0.5017592723345377 1483.0 14.0 1483.0 
8.000022157089317 6166.0 NaN 4996.705410821643 0.5018231164629869 1474.0 23.0 1474.0 
10.000337445961424 6164.0 NaN 4995.583166332665 0.5012610909758122 1469.0 28.0 1469.0 
12.000337445961424 6164.0 NaN 4995.724782899131 0.501256571498139 1465.0 32.0 1465.0 
14.000337445961424 6165.0 NaN 4994.797595190381 0.5013996231803313 1459.0 38.0 1459.0 
16.000337445961424 6171.0 NaN 4995.2892451569805 0.5009358166897849 1462.0 35.0 1462.0 
18.000337445961424 6178.0 NaN 4994.396793587174 0.5007005773511031 1461.0 36.0 1461.0 
20.000337445961424 6180.0 NaN 4994.960587842352 0.5034414401142308 1468.0 29.0 1468.0 
22.000337445961424 6184.0 NaN 4994.158984635938 0.5008616035846644 1460.0 37.0 1460.0 
24.000337445961424 6189.0 NaN 4994.792251169005 0.500997342035882 1469.0 28.0 1469.0 
26.000337445961424 6196.0 NaN 4993.910487641951 0.5010334062761377 1461.0 36.0 1461.0 
28.000337445961424 6202.0 NaN 4994.736138944556 0.502087893643472 1463.0 34.0 1463.0 
30.000337445961424 6214.0 NaN 4994.0066800267205 0.5023004186866273 1459.0 38.0 1459.0 
32.00033744596142 6212.0 NaN 4994.677354709419 0.5028085164186885 1461.0 36.0 1461.0 
34.00033744596142 6206.0 NaN 4993.9719438877755 0.5009055201903256 1459.0 38.0 1459.0 
36.00033744596142 6208.0 NaN 4994.677354709419 0.5021759910786011 1457.0 40.0 1457.0 
38.00033744596142 6204.0 NaN 4993.894455577823 0.5005763576162137 1461.0 36.0 1461.0 
40.00033744596142 6241.0 NaN 4994.575818303273 0.5042898172982565 1457.0 40.0 1457.0 
42.00033744596142 6239.0 NaN 4993.9425517702075 0.5014866531602684 1461.0 36.0 1461.0 
44.00033744596142 6241.0 NaN 4994.495657982632 0.5017537262091752 1458.0 39.0 1458.0 
46.00033744596142 6242.0 NaN 4993.854375417502 0.5022212581414132 1460.0 37.0 1460.0 
48.00033744596142 6252.0 NaN 4994.594522378089 0.5015396942212815 1458.0 39.0 1458.0 
50.00033744596142 6294.0 NaN 4993.678022712091 0.5038916718136986 1461.0 36.0 1461.0 
52.00033744596142 6284.0 NaN 4994.551770207081 0.5011084512731186 1457.0 40.0 1457.0 
54.00033744596142 6297.0 NaN 4993.838343353374 0.5026451543015066 1461.0 36.0 1461.0 
56.00033744596142 6288.0 NaN 4994.386105544422 0.5066582478761066 1457.0 40.0 1457.0 
58.00033744596142 6288.0 NaN 4993.824983299934 0.5037642905754968 1461.0 36.0 1461.0 
60.00033744596142 6310.0 NaN 4994.426185704743 0.5063418908604937 1459.0 38.0 1459.0 
62.00002533996469 6270.0 NaN 1525.2424849699394 0.5048335980105161 736.0 34.0 332.0 
64.00002533996468 6272.0 NaN 1524.9084836339362 0.5013953233119921 582.0 44.0 322.0 
66.0000253399647 6279.0 NaN 1524.9699398797607 0.503101259642294 534.0 45.0 321.0 
68.0000253399647 6276.0 NaN 1528.032064128255 0.5042060492482916 493.0 50.0 317.0 
70.0000253399647 6281.0 NaN 1527.9331997328002 0.5046154660705139 479.0 52.0 315.0 
72.0000253399647 6276.0 NaN 1527.9786239144967 0.5050127550243682 478.0 50.0 317.0 
74.0000253399647 6288.0 NaN 1531.0140280561118 0.5016635021808225 479.0 46.0 322.0 
76.0000253399647 6306.0 NaN 1534.0841683366727 0.5058084470102742 476.0 50.0 319.0 
78.0000253399647 6304.0 NaN 1534.0868403473635 0.5054718689630848 477.0 48.0 321.0 
80.0000253399647 6285.0 NaN 1534.0013360053454 0.5040787278937395 471.0 51.0 318.0 
82.0000253399647 6280.0 NaN 1533.8623914495638 0.5039887299178849 474.0 48.0 321.0 
84.0000253399647 6277.0 NaN 1537.124916499666 0.5037924840185511 472.0 51.0 319.0 
86.0000253399647 6274.0 NaN 1536.9832999332002 0.5035255287017923 472.0 48.0 322.0 
88.0000253399647 6281.0 NaN 1537.028724114897 0.5088591882757023 471.0 51.0 319.0 
90.0000253399647 6249.0 NaN 1536.993987975952 0.505135665840965 477.0 45.0 325.0 
92.0000253399647 6239.0 NaN 1537.0340681362727 0.5020584484482377 477.0 45.0 325.0 
94.0000253399647 6238.0 NaN 1536.9779559118244 0.5011532322737259 482.0 41.0 329.0 
96.0000253399647 6252.0 NaN 1537.0020040080178 0.5046377656449309 480.0 43.0 327.0 
98.0000253399647 6260.0 NaN 1536.8977955911816 0.5028654849470372 483.0 40.0 330.0 
100.0000253399647 6256.0 NaN 1536.943219772879 0.5021923357159164 479.0 44.0 326.0 
102.0000253399647 6250.0 NaN 1539.9973279893118 0.5020442667207319 482.0 41.0 330.0 
104.0000253399647 6261.0 NaN 1540.0668002671998 0.5043569153657691 479.0 44.0 327.0 
106.0000253399647 6246.0 NaN 1539.938543754173 0.5077962458384007 481.0 41.0 330.0 
108.0000253399647 6242.0 NaN 1540.0187040748178 0.5038475271027707 477.0 44.0 327.0 
110.0000253399647 6257.0 NaN 1540.016032064127 0.5025880628583971 481.0 41.0 330.0 
112.0000253399647 6254.0 NaN 1540.016032064127 0.5050665426727954 479.0 43.0 328.0 
114.0000253399647 6270.0 NaN 1540.0721442885763 0.505591337781982 480.0 42.0 329.0 
116.0000253399647 6261.0 NaN 1543.2251169004667 0.50455792475603 477.0 47.0 325.0 
118.0000253399647 6283.0 NaN 1549.338677354709 0.5042986578969615 482.0 42.0 332.0 
120.0000253399647 6272.0 NaN 1549.3814295257184 0.5048636370385445 478.0 47.0 327.0 
122.0000253399647 6258.0 NaN 1549.3520374081484 0.5061102134502046 484.0 42.0 332.0 
124.0000253399647 6286.0 NaN 1549.3306613226455 0.5039636025606167 481.0 44.0 330.0 
126.0000253399647 6287.0 NaN 1549.338677354709 0.5057184829302256 485.0 40.0 334.0 
128.00002533996468 6294.0 NaN 1546.3219772879092 0.507594489226447 481.0 44.0 329.0 
130.00002533996468 6264.0 NaN 1543.1877087508365 0.5064715566908634 488.0 37.0 335.0 
132.00002533996468 6253.0 NaN 1543.1369405477635 0.5044964425492309 485.0 40.0 332.0 
134.00002533996468 6278.0 NaN 1540.1042084168334 0.5044765716798757 484.0 41.0 330.0 
136.00002215708932 6271.0 NaN 1543.1529726118908 0.5052528705378003 476.0 45.0 327.0 
138.00002533996468 6306.0 NaN 1543.2037408149638 0.5093378393180098 477.0 44.0 328.0 
140.00002533996468 6282.0 NaN 1543.1449565798275 0.5040725432633639 469.0 52.0 320.0 
142.00002533996468 6265.0 NaN 1540.1309285237153 0.5056488853201716 467.0 52.0 319.0 
144.00002215708932 6283.0 NaN 1540.2084168336667 0.5043262133207073 465.0 54.0 317.0 
146.00002533996468 6299.0 NaN 1543.2224448897819 0.5060627105242175 475.0 44.0 328.0 
148.00002533996468 6307.0 NaN 1543.246492985973 0.5105799067250353 474.0 45.0 327.0 
150.00002533996468 6282.0 NaN 1537.1115564462268 0.5104063767351761 466.0 52.0 318.0 
152.00002533996468 6254.0 NaN 1537.0794923179694 0.511707862782759 465.0 53.0 317.0 
154.00002533996468 6256.0 NaN 1536.980627922512 0.5046699790684199 473.0 46.0 324.0 
156.00002533996468 6228.0 NaN 1533.9772879091518 0.5046035014899961 471.0 49.0 320.0 
158.00002533996468 6228.0 NaN 1533.9692718770877 0.5048974137704024 471.0 45.0 324.0 
160.00002533996468 6247.0 NaN 1533.9505678022726 0.5038613889718009 468.0 48.0 321.0 
162.00002533996468 6239.0 NaN 1533.9585838343364 0.5033235041875657 472.0 44.0 325.0 
164.00002533996468 6239.0 NaN 1540.1148964595848 0.5030823603441403 469.0 47.0 324.0 
166.00002533996468 6224.0 NaN 1540.109552438209 0.507529896696682 471.0 45.0 326.0 
168.00002533996468 6210.0 NaN 1543.251837007348 0.5075661370360993 470.0 47.0 325.0 
170.00002533996468 6205.0 NaN 1543.2117568470271 0.5082903868799595 476.0 42.0 330.0 
172.00002533996468 6209.0 NaN 1540.098864395457 0.5083187273866208 475.0 43.0 328.0 
174.00002533996468 6213.0 NaN 1540.104208416834 0.5049240739637576 476.0 42.0 329.0 
176.00002533996468 6196.0 NaN 1537.0768203072819 0.5061126782155984 475.0 43.0 327.0 
178.00002533996468 6202.0 NaN 1540.0427521710092 0.5065422625916818 478.0 40.0 331.0 
180.00002533996468 6210.0 NaN 1533.9746158984635 0.5061519148350382 476.0 43.0 326.0 
182.00002533996468 6195.0 NaN 1530.8724114896452 0.5044563499355149 478.0 40.0 328.0 
184.00002533996468 6212.0 NaN 1533.905143620573 0.5090900069776981 473.0 44.0 325.0 
186.00002533996468 6193.0 NaN 1530.8537074148294 0.5054630191524742 466.0 47.0 321.0 
188.00002533996468 6181.0 NaN 1527.9144956579817 0.50773376647762 462.0 50.0 317.0 
190.00002533996468 6186.0 NaN 1527.8129592518362 0.5064593767723844 464.0 47.0 320.0 
192.00002533996468 6169.0 NaN 1530.9605878423517 0.5087799964443781 462.0 49.0 319.0 
194.00002533996468 6158.0 NaN 1530.8991315965272 0.5078177275114482 465.0 46.0 322.0 
196.00002533996468 6133.0 NaN 1530.9178356713428 0.5077899763741636 462.0 50.0 318.0 
198.00002533996468 6139.0 NaN 1530.925851703409 0.5107140560139906 466.0 47.0 321.0 
200.00002533996468 6133.0 NaN 1533.9933199732818 0.50534671025047 461.0 53.0 316.0 
202.00002533996468 6133.0 NaN 1537.0260521042092 0.5066325612877881 467.0 47.0 323.0 
204.00002533996468 6131.0 NaN 1537.1302605210426 0.5115566975589033 463.0 50.0 320.0 
206.00002533996468 6110.0 NaN 1536.9645958583822 0.5077706368072391 460.0 54.0 316.0 
208.00002533996468 6101.0 NaN 1536.9806279225118 0.5164425399780248 453.0 57.0 313.0 
210.00002533996468 6079.0 NaN 1536.921843687373 0.5076578433954138 457.0 54.0 316.0 
212.00002533996468 6088.0 NaN 1533.8463593854362 0.5076927616231575 456.0 57.0 312.0 
214.00002533996468 6102.0 NaN 1533.862391449564 0.5070122508717151 460.0 53.0 316.0 
216.00002533996468 6084.0 NaN 1533.8303273213091 0.506775493921594 463.0 50.0 319.0 
218.00002533996468 6080.0 NaN 1533.8249832999338 0.5057615670890114 466.0 47.0 322.0 
220.00002533996468 6079.0 NaN 1536.911155644621 0.5098746213325053 462.0 52.0 318.0 
222.00002533996468 6056.0 NaN 1533.7822311289246 0.5052048898076651 473.0 42.0 327.0 
224.00002533996468 6068.0 NaN 1533.7955911823635 0.5073899519969756 470.0 44.0 325.0 
226.00002533996468 6057.0 NaN 1533.7261189044752 0.5085514254850421 478.0 37.0 332.0 
228.00002533996468 6040.0 NaN 1533.8410153640634 0.5103134225320689 470.0 44.0 325.0 
230.00002533996468 6036.0 NaN 1533.8677354709425 0.5094603855577413 470.0 41.0 328.0 
232.00002533996468 6000.0 NaN 1536.8951235804939 0.5070387840343265 462.0 49.0 321.0 
234.00002533996468 6002.0 NaN 1540.0320641282547 0.5081323077350626 465.0 46.0 325.0 
236.00002533996468 5982.0 NaN 1540.0400801603205 0.5033195727327838 461.0 50.0 321.0 
238.00002533996468 5990.0 NaN 1540.0641282565118 0.5124242006888201 464.0 47.0 324.0 
240.00002533996468 5990.0 NaN 1530.8082832331334 0.5088114028657169 462.0 50.0 318.0 
242.00002533996468 5984.0 NaN 1530.7361389445546 0.5074356629216179 467.0 45.0 323.0 
244.00002533996468 5992.0 NaN 1530.714762859052 0.5080632489488031 464.0 47.0 321.0 
246.00002533996468 5973.0 NaN 1530.752171008682 0.5105944060824801 465.0 46.0 322.0 
248.00002215708932 5966.0 NaN 1530.789579158318 0.5077873004139873 462.0 49.0 319.0 
250.00002215708932 5972.0 NaN 1530.6639946559792 0.5055732068154886 467.0 45.0 323.0 
252.00002533996468 5970.0 NaN 1533.790247160991 0.5071807938070505 465.0 47.0 322.0 
254.00002533996468 5979.0 NaN 1533.7474949899818 0.5085312626600198 466.0 45.0 324.0 
256.0000253399647 5962.0 NaN 1530.6372745490999 0.5072698830422135 463.0 50.0 318.0 
258.0000253399647 5949.0 NaN 1530.680026720109 0.5137529758154037 468.0 45.0 323.0 
260.00002215708935 5936.0 NaN 1527.6740146960574 0.5035407662023885 466.0 45.0 322.0 
262.0000253399647 5927.0 NaN 1530.7040748163001 0.5080270039270035 469.0 42.0 326.0 
264.0000253399647 5937.0 NaN 1533.8704074816299 0.508048229450961 465.0 45.0 324.0 
266.0000253399647 5944.0 NaN 1536.8790915163659 0.5157595720010945 470.0 42.0 328.0 
268.0000253399647 5936.0 NaN 1533.859719438879 0.5114305876966171 467.0 45.0 324.0 
270.0000253399647 5912.0 NaN 1530.746826987309 0.5067300526678543 469.0 42.0 326.0 
272.0000253399647 5894.0 NaN 1539.9118236472934 0.502769089501219 467.0 45.0 326.0 
274.0000253399647 5911.0 NaN 1536.8203072812273 0.5116543568411238 472.0 42.0 328.0 
276.0000253399647 5897.0 NaN 1539.9144956579817 0.5078592157813479 470.0 44.0 327.0 
278.0000253399647 5875.0 NaN 1539.9278557114242 0.5067802605833339 475.0 38.0 333.0 
280.0000253399647 5858.0 NaN 1539.906479625918 0.5105799716166702 472.0 41.0 330.0 
282.0000253399647 5843.0 NaN 1539.9545758183021 0.5115968102119548 475.0 38.0 333.0 
284.0000253399647 5845.0 NaN 1539.9545758183021 0.5068124075648404 470.0 41.0 330.0 
286.0000253399647 5857.0 NaN 1539.8984635938546 0.5120078970726477 471.0 39.0 332.0 
288.00002215708935 5840.0 NaN 1536.8176352705432 0.5059203852319033 467.0 43.0 327.0 
290.0000253399647 5828.0 NaN 1533.7314629258524 0.511620736168534 472.0 38.0 331.0 
292.0000253399647 5813.0 NaN 1533.6539746158999 0.5050346447800845 468.0 41.0 328.0 
294.0000253399647 5826.0 NaN 1533.726118904475 0.5160488196983053 470.0 38.0 331.0 
296.0000253399647 5800.0 NaN 1533.6887107548434 0.5158267212240955 468.0 41.0 328.0 
298.0000253399647 5786.0 NaN 1536.7615230460908 0.5069673684910061 470.0 38.0 332.0 
300.0000253399647 5779.0 NaN 1533.7234468937884 0.5098824958616253 467.0 41.0 328.0 
302.0000253399647 5761.0 NaN 1530.6265865063453 0.5067693927871229 468.0 38.0 330.0 
304.0000253399647 5774.0 NaN 1527.5644622578482 0.5032776912118334 465.0 41.0 326.0 
306.0000253399647 5788.0 NaN 1533.763527054109 0.5103366271492349 466.0 38.0 331.0 
308.0000253399647 5780.0 NaN 1536.9138276553092 0.5093005130075334 464.0 41.0 329.0 
310.0000253399647 5792.0 NaN 1536.7882431529729 0.5083700112501991 468.0 38.0 332.0 
312.0000253399647 5778.0 NaN 1530.6853707414816 0.509342576728748 462.0 42.0 326.0 
314.0000253399647 5774.0 NaN 1533.696726786909 0.5092144938797292 465.0 40.0 329.0 
316.0000253399647 5766.0 NaN 1530.6452905811634 0.5138653871038993 462.0 42.0 326.0 
318.0000253399647 5762.0 NaN 1530.6185704742816 0.5084886357468105 467.0 38.0 330.0 
320.0000253399647 5751.0 NaN 1536.7775551102181 0.5085207655525964 465.0 41.0 329.0 
322.0000253399647 5752.0 NaN 1536.798931195725 0.5045451745396426 466.0 38.0 332.0 
324.0000253399647 5758.0 NaN 1533.7207748831 0.515786838213662 464.0 41.0 328.0 
326.0000253399647 5759.0 NaN 1533.648630594521 0.5131508307307613 466.0 38.0 331.0 
328.0000253399647 5774.0 NaN 1533.7047428189726 0.5059685124109872 460.0 42.0 327.0 
330.0000253399647 5764.0 NaN 1533.7421509686026 0.5088834728514737 461.0 40.0 329.0 
332.0000253399647 5749.0 NaN 1533.8623914495638 0.5061664926132078 457.0 44.0 325.0 
334.0000253399647 5765.0 NaN 1533.734134936539 0.5092484076781878 457.0 44.0 325.0 
336.00002215708935 5767.0 NaN 1533.814295257182 0.5079966196743777 460.0 42.0 327.0 
338.0000253399647 5777.0 NaN 1536.8416833667338 0.5156436784402039 465.0 38.0 332.0 
340.00002215708935 5770.0 NaN 1539.983967935873 0.514504127458806 464.0 41.0 330.0 
342.0000253399647 5746.0 NaN 1533.763527054109 0.510248962563411 467.0 38.0 331.0 
344.0000253399647 5763.0 NaN 1530.642618570473 0.5091919427201886 464.0 41.0 327.0 
346.0000253399647 5770.0 NaN 1524.4248496994 0.5105444349801365 465.0 38.0 328.0 
348.0000253399647 5778.0 NaN 1527.6579826319298 0.5094907098218506 466.0 41.0 326.0 
350.0000253399647 5790.0 NaN 1530.6346025384091 0.509347229503351 471.0 38.0 330.0 
352.0000253399647 5782.0 NaN 1530.6239144956576 0.5072181943454324 468.0 41.0 327.0 
354.0000253399647 5783.0 NaN 1524.4408817635274 0.50875079433151 470.0 38.0 328.0 
356.0000253399647 5781.0 NaN 1527.572478289912 0.5064154770317337 466.0 41.0 326.0 
358.0000253399647 5779.0 NaN 1527.5911823647277 0.5235443005686564 470.0 38.0 329.0 
360.0000253399647 5739.0 NaN 1527.655310621243 0.5061895491243841 469.0 41.0 326.0 
362.0000253399647 5731.0 NaN 1527.524382097527 0.5034091684738492 474.0 38.0 329.0 
364.0000253399647 5743.0 NaN 1527.5110220440883 0.5089054257793205 471.0 41.0 326.0 
366.0000253399647 5742.0 NaN 1527.5136940547757 0.5107904190632043 472.0 41.0 326.0 
368.0000253399647 5748.0 NaN 1524.523714094855 0.5098321806433281 464.0 47.0 319.0 
370.0000253399647 5750.0 NaN 1518.2338009352031 0.511627222243663 466.0 44.0 320.0 
372.0000253399647 5748.0 NaN 1512.219104876419 0.5029781980485125 461.0 47.0 315.0 
374.0000253399647 5758.0 NaN 1512.1656646626575 0.5060714699315402 464.0 44.0 318.0 
376.0000253399647 5772.0 NaN 1512.1790247161 0.5063701159940471 463.0 46.0 316.0 
378.0000253399647 5780.0 NaN 1512.2057448229798 0.5133735491420529 469.0 43.0 319.0 
380.0000253399647 5763.0 NaN 1509.1249164996655 0.5159938651163429 468.0 47.0 314.0 
382.0000253399647 5765.0 NaN 1509.1676686706737 0.5051800827537559 475.0 41.0 320.0 
384.0000253399647 5774.0 NaN 1509.1275885103546 0.5082439927319666 471.0 44.0 317.0 
386.0000253399647 5780.0 NaN 1512.2511690046751 0.5065671514481909 474.0 40.0 322.0 
388.0000253399647 5792.0 NaN 1515.3480293921182 0.50583020602859 473.0 43.0 320.0 
390.0000253399647 5775.0 NaN 1521.5123580494333 0.5184898940907352 478.0 40.0 325.0 
392.0000253399647 5763.0 NaN 1515.4094856379434 0.5004515348306666 473.0 43.0 320.0 
394.0000253399647 5765.0 NaN 1512.2992651970615 0.5023485490570838 476.0 41.0 321.0 
396.0000253399647 5787.0 NaN 1518.5517702070817 0.5089202980695084 474.0 43.0 321.0 
398.0000253399647 5785.0 NaN 1518.4635938543752 0.5087713593318299 479.0 38.0 326.0 
400.0000253399647 5792.0 NaN 1512.3152972611904 0.5089963314613338 475.0 41.0 321.0 
402.0000253399647 5809.0 NaN 1512.3714094856368 0.5069789512706397 477.0 38.0 324.0 
404.0000253399647 5813.0 NaN 1509.2211088844363 0.5017179079578924 476.0 41.0 320.0 
406.0000253399647 5818.0 NaN 1518.4475617902463 0.5061091422497044 479.0 38.0 326.0 
408.0000253399647 5817.0 NaN 1518.3861055444213 0.5071595968720315 478.0 41.0 323.0 
410.0000253399647 5807.0 NaN 1521.4455577822303 0.51060097203237 481.0 38.0 327.0 
412.0000253399647 5811.0 NaN 1524.6145624582489 0.5047691627958905 476.0 42.0 324.0 
414.0000253399647 5815.0 NaN 1527.6259185036731 0.5147924443356373 480.0 40.0 327.0 
416.0000253399647 5783.0 NaN 1521.531062124248 0.5125359497301705 478.0 41.0 324.0 
418.0000253399647 5785.0 NaN 1521.4562458249823 0.5134458490949151 478.0 38.0 327.0 
420.0000253399647 5751.0 NaN 1512.309953239812 0.5114428662291555 471.0 42.0 320.0 
422.0000253399647 5747.0 NaN 1518.476953907816 0.5081377398952343 470.0 43.0 321.0 
424.0000253399647 5763.0 NaN 1509.2077488309944 0.5201924026417426 474.0 42.0 319.0 
426.0000253399647 5739.0 NaN 1512.2324649298605 0.5058625133366037 478.0 38.0 324.0 
428.0000253399647 5761.0 NaN 1530.786907147628 0.5122569336969265 476.0 42.0 326.0 
430.0000253399647 5752.0 NaN 1533.7688710754837 0.5162820509372248 482.0 39.0 330.0 
432.0000253399647 5740.0 NaN 1533.7581830327333 0.5060806740039353 478.0 44.0 325.0 
434.0000253399647 5751.0 NaN 1530.746826987309 0.5097583795934022 480.0 42.0 326.0 
436.0000253399647 5729.0 NaN 1530.7895791583176 0.510943268302443 477.0 45.0 323.0 
438.0000253399647 5739.0 NaN 1530.835003340012 0.5120541862978671 480.0 43.0 325.0 
440.0000253399647 5754.0 NaN 1530.615898463593 0.5090867400151775 478.0 46.0 322.0 
442.0000253399647 5770.0 NaN 1543.0728122912483 0.5024184122746592 481.0 44.0 328.0 
444.0000253399647 5777.0 NaN 1543.0995323981276 0.5130044371480198 481.0 44.0 328.0 
446.0000253399647 5750.0 NaN 1533.9265197060793 0.5101278082653358 485.0 41.0 328.0 
448.0000253399647 5777.0 NaN 1539.9812959251822 0.506205224259818 483.0 44.0 327.0 
450.0000253399647 5779.0 NaN 1543.0754843019363 0.5051242333815555 486.0 40.0 332.0 
452.0000253399647 5780.0 NaN 1546.0921843687363 0.5058181589636823 484.0 41.0 332.0 
454.0000253399647 5777.0 NaN 1552.2591850367392 0.5057738401394017 485.0 40.0 335.0 
456.0000253399647 5762.0 NaN 1549.2077488309944 0.5101402149288577 483.0 43.0 331.0 
458.0000253399647 5766.0 NaN 1549.2211088844365 0.5098832252021954 483.0 41.0 333.0 
460.0000253399647 5747.0 NaN 1552.221776887109 0.5082080573577236 480.0 43.0 332.0 
462.0000253399647 5752.0 NaN 1552.1790247161 0.5167744898297193 486.0 38.0 337.0 
464.0000253399647 5742.0 NaN 1552.2084168336664 0.5035709072657769 486.0 41.0 334.0 
466.0000253399647 5739.0 NaN 1555.171676686707 0.5055461678486588 485.0 42.0 334.0 
468.0000253399647 5742.0 NaN 1546.0574482297911 0.5113187173536852 484.0 42.0 331.0 
470.0000253399647 5727.0 NaN 1542.789579158318 0.5064550756218164 484.0 38.0 334.0 
472.0000253399647 5723.0 NaN 1539.7889111556456 0.5068783555794502 483.0 40.0 331.0 
474.0000253399647 5746.0 NaN 1527.5217100868394 0.5119989372123366 483.0 37.0 330.0 
476.0000253399647 5748.0 NaN 1527.5270541082175 0.5075749909475077 476.0 40.0 327.0 
478.0000253399647 5760.0 NaN 1527.4736138944545 0.5145500536739517 477.0 38.0 329.0 
480.0000253399647 5720.0 NaN 1527.5003340013366 0.5079700242325096 472.0 42.0 325.0 
482.0000253399647 5703.0 NaN 1527.4843019372086 0.506959196366727 477.0 37.0 330.0 
484.0000253399647 5707.0 NaN 1524.4729458917825 0.5179140396189279 474.0 41.0 325.0 
486.0000253399647 5715.0 NaN 1515.2732130928537 0.5090814756084544 474.0 38.0 325.0 
488.0000253399647 5724.0 NaN 1509.1623246492993 0.5156929982645246 470.0 41.0 320.0 
490.0000253399647 5711.0 NaN 1502.9712758851028 0.5096922625038329 474.0 37.0 322.0 
492.0000253399647 5705.0 NaN 1502.933867735472 0.5083697076560717 466.0 41.0 318.0 
494.0000253399647 5703.0 NaN 1499.893119572479 0.5175952467676316 469.0 39.0 319.0 
496.0000253399647 5698.0 NaN 1496.8309953239818 0.5112010488276099 470.0 40.0 317.0 
498.0000253399647 5711.0 NaN 1493.750167000667 0.5137941303547781 472.0 38.0 318.0 
500.0000253399647 5692.0 NaN 1490.6800267201081 0.5079772298692496 470.0 40.0 315.0 
502.0000253399647 5694.0 NaN 1487.6312625250514 0.5094920494969086 473.0 36.0 318.0 
504.0000253399647 5690.0 NaN 1487.5671342685364 0.5126312661191124 472.0 40.0 314.0 
506.0000253399647 5688.0 NaN 1493.8142952571816 0.5124101901332492 474.0 37.0 319.0 
508.0000253399647 5707.0 NaN 1496.9298597194384 0.5058217913329679 469.0 40.0 317.0 
510.0000253399647 5694.0 NaN 1500.0293921175696 0.506330365151789 470.0 38.0 320.0 
512.0000253399646 5690.0 NaN 1493.875751503007 0.5053417184984496 466.0 40.0 316.0 
514.0000253399646 5696.0 NaN 1493.7555110220449 0.5052716793023534 467.0 39.0 317.0 
516.0000253399646 5705.0 NaN 1493.81696726787 0.5081019086556451 465.0 41.0 315.0 
518.0000253399646 5727.0 NaN 1484.5584502338002 0.5098376308922973 465.0 40.0 313.0 
520.0000253399646 5718.0 NaN 1481.4241816967271 0.5073147905899683 457.0 46.0 306.0 
522.0000253399646 5716.0 NaN 1478.4529058116243 0.5073687766294304 459.0 44.0 307.0 
524.0000253399646 5704.0 NaN 1475.3346693386784 0.5142698561313487 463.0 42.0 308.0 
526.0000253399646 5706.0 NaN 1469.213092852372 0.5114851739726906 464.0 36.0 312.0 
528.0000253399646 5701.0 NaN 1463.1075484301928 0.506841947744884 466.0 39.0 307.0 
530.0000253399646 5713.0 NaN 1463.123580494321 0.5089958402714253 471.0 36.0 310.0 
532.0000253399646 5702.0 NaN 1472.3072812291255 0.504825249733378 467.0 40.0 309.0 
534.0000253399646 5713.0 NaN 1472.4355377421516 0.5067487519159092 473.0 36.0 313.0 
536.0000253399646 5702.0 NaN 1472.355377421509 0.5160960478563443 468.0 39.0 310.0 
538.0000253399646 5695.0 NaN 1469.205076820308 0.5088260601146642 468.0 39.0 309.0 
540.0000253399646 5692.0 NaN 1469.2077488309944 0.5095300353198209 470.0 38.0 310.0 
542.0000253399646 5682.0 NaN 1469.2024048096187 0.5056878259273633 472.0 35.0 313.0 
544.0000253399646 5710.0 NaN 1466.0681362725456 0.5070534235296956 468.0 39.0 308.0 
546.0000253399646 5697.0 NaN 1466.0521042084174 0.5141223394039118 470.0 36.0 311.0 
548.0000253399646 5719.0 NaN 1469.1623246492993 0.50914402789391 470.0 39.0 309.0 
550.0000253399646 5725.0 NaN 1469.151636606546 0.5119474762127422 473.0 38.0 310.0 
552.0000253399646 5719.0 NaN 1469.1649966599875 0.5079532030205083 470.0 40.0 308.0 
554.0000253399646 5728.0 NaN 1466.0601202404814 0.5055552806944549 475.0 35.0 312.0 
556.0000253399646 5726.0 NaN 1463.08617234469 0.5131826728754962 470.0 38.0 308.0 
558.0000253399646 5733.0 NaN 1466.19906479626 0.5119444726780892 471.0 36.0 311.0 
560.0000253399646 5720.0 NaN 1456.9271877087515 0.5053665903504402 464.0 42.0 302.0 
562.0000253399646 5740.0 NaN 1460.0694722778899 0.5090819071582479 458.0 43.0 302.0 
564.0000253399646 5737.0 NaN 1463.1903807615238 0.5093382404998504 463.0 42.0 304.0 
566.0000253399646 5777.0 NaN 1463.1182364729457 0.5172884531166175 470.0 36.0 310.0 
568.0000253399646 5737.0 NaN 1472.4141616566458 0.5138105960166427 467.0 41.0 308.0 
570.0000253399646 5734.0 NaN 1475.532398129592 0.5106732106019427 468.0 41.0 309.0 
572.0000253399646 5739.0 NaN 1481.6379425517707 0.5110805986369654 463.0 46.0 306.0 
574.0000253399646 5734.0 NaN 1484.646626586507 0.5092527105240545 469.0 43.0 310.0 
576.0000253399646 5730.0 NaN 1484.7027388109545 0.5182357393153022 467.0 46.0 307.0 
578.0000253399646 5701.0 NaN 1481.5684702738818 0.5200177023231133 470.0 42.0 310.0 
580.0000253399646 5706.0 NaN 1484.5584502338 0.5137988213427055 468.0 43.0 310.0 
582.0000253399646 5712.0 NaN 1484.6599866399454 0.5115039661493342 471.0 40.0 313.0 
584.0000253399646 5693.0 NaN 1481.5818303273204 0.5069431722056066 469.0 42.0 310.0 
586.0000253399646 5704.0 NaN 1484.5878423513705 0.5157206673314858 473.0 39.0 314.0 
588.0000253399646 5703.0 NaN 1484.5931863727455 0.514348002740753 471.0 42.0 311.0 
590.0000253399646 5709.0 NaN 1487.5644622578484 0.5126479026689252 475.0 39.0 315.0 
592.0000253399646 5728.0 NaN 1493.742150968603 0.5178691062909637 475.0 42.0 314.0 
594.0000253399646 5692.0 NaN 1484.6599866399454 0.5113224959655819 481.0 39.0 314.0 
596.0000253399646 5696.0 NaN 1481.5577822311286 0.5187610466820315 478.0 42.0 310.0 
598.0000253399646 5696.0 NaN 1481.5096860387446 0.5112962926896676 478.0 40.0 312.0 
600.0000253399646 5704.0 NaN 1484.5905143620564 0.5113646967471943 472.0 46.0 307.0 
602.0000253399646 5730.0 NaN 1493.8223112892456 0.5137205396275804 477.0 43.0 313.0 
604.0000253399646 5703.0 NaN 1490.7494989979969 0.5105081124119142 471.0 46.0 309.0 
606.0000253399646 5731.0 NaN 1490.725450901803 0.5117503083647985 476.0 44.0 311.0 
608.0000253399646 5749.0 NaN 1490.7414829659303 0.5169589283092779 471.0 47.0 308.0 
610.0000253399646 5727.0 NaN 1490.661322645291 0.5139687202728406 472.0 44.0 311.0 
612.0000253399646 5726.0 NaN 1493.870407481629 0.5061454718745874 469.0 48.0 308.0 
614.0000253399646 5750.0 NaN 1496.8951235804939 0.5062873915879842 473.0 46.0 311.0 
616.0000253399646 5765.0 NaN 1506.100200400801 0.5100942447195573 470.0 50.0 310.0 
618.0000253399646 5801.0 NaN 1515.4041416165655 0.5205557252589349 477.0 43.0 320.0 
620.0000253399646 5786.0 NaN 1515.283901135603 0.5144342865191996 477.0 42.0 321.0 
622.0000253399646 5828.0 NaN 1512.2164328657304 0.5116398206396995 480.0 40.0 322.0 
624.0000253399646 5857.0 NaN 1515.2678690714758 0.508731458650922 471.0 49.0 314.0 
626.0000253399646 5890.0 NaN 1521.4936539746177 0.5175275348112479 476.0 44.0 321.0 
628.0000253399646 5882.0 NaN 1521.4749498998 0.5135796224275025 470.0 48.0 317.0 
630.0000253399646 5840.0 NaN 1521.54442217769 0.5075007712260148 475.0 45.0 320.0 
632.0000253399646 5870.0 NaN 1521.5551102204392 0.51769820782986 474.0 46.0 319.0 
634.0000253399646 5819.0 NaN 1521.5657982631917 0.5072980135259139 474.0 48.0 317.0 
636.0000253399646 5849.0 NaN 1518.4422177688718 0.5132153846581463 472.0 54.0 310.0 
638.0000253399646 5856.0 NaN 1518.4422177688718 0.5208360331556042 475.0 50.0 314.0 
640.0000253399646 5816.0 NaN 1515.2945891783552 0.5128148251428499 468.0 56.0 307.0 
642.0000253399646 5825.0 NaN 1518.452905811624 0.5107409463591397 471.0 54.0 310.0 
644.0000253399646 5849.0 NaN 1521.5711422845698 0.5122462877830153 475.0 49.0 316.0 
646.0000253399646 5855.0 NaN 1518.3433533734126 0.5194545637014494 478.0 47.0 317.0 
648.0000253399646 5842.0 NaN 1518.45557782231 0.515004348743227 470.0 54.0 310.0 
650.0000253399646 5826.0 NaN 1518.3353373413486 0.5095840965187242 469.0 52.0 312.0 
652.0000253399646 5832.0 NaN 1518.4502338009363 0.5078843609042909 467.0 52.0 312.0 
654.0000253399646 5847.0 NaN 1518.498329993319 0.5127209547587271 473.0 45.0 319.0 
656.0000253399646 5848.0 NaN 1527.8370073480282 0.5157139205531772 464.0 51.0 316.0 
658.0000253399646 5839.0 NaN 1530.8884435537736 0.511216424184698 469.0 45.0 323.0 
660.0000253399646 5833.0 NaN 1530.8724114896452 0.5085620766997484 468.0 44.0 324.0 
662.0000253399646 5840.0 NaN 1537.0607882431536 0.5117537113428378 473.0 38.0 332.0 
664.0000253399646 5821.0 NaN 1536.921843687374 0.5109989195822423 477.0 36.0 334.0 
#####################################################################
# End of data export. Simulation finished at: 2019-03-20T08:44+0000 #
#####################################################################
