#####################################################################
# Alchemist log file - simulation started at: 2019-03-02T10:59+0000 #
#####################################################################
# seed = 0.0, bandwidth = 5623413.251903491, propagationDelay = 0.0031622776601683794, baserange = 1000.0
#
# The columns have the following meaning: 
# time neighbor_count[Sum] <value>@neighbor_count[Sum] packet_size[Mean] mean_delay[Mean] crowd[Sum] overcrowded[Sum] risk[Sum] 
0.0 NaN NaN NaN NaN NaN NaN NaN 
10.000263928986783 210022.0 NaN 4995.374749498998 0.5003310670879899 1497.0 0.0 1497.0 
20.000263928986787 210073.0 NaN 4995.692718770875 0.5007177288478434 1497.0 0.0 1497.0 
30.000263928986787 210121.0 NaN 4996.042752171009 0.500422263913088 1497.0 0.0 1497.0 
40.00026392898678 210259.0 NaN 4996.272545090181 0.5006654955812032 1496.0 1.0 1496.0 
50.00026392898678 210333.0 NaN 4995.927855711423 0.5011773150772658 1497.0 0.0 1497.0 
60.00026392898678 210389.0 NaN 4995.799599198397 0.5014035477542239 1497.0 0.0 1497.0 
70.00023104832437 210339.0 NaN 1528.7374749499 0.5015341863098881 534.0 1.0 366.0 
80.00023104832437 210337.0 NaN 1537.7902471609907 0.5006609332803729 526.0 2.0 368.0 
90.00023104832437 210406.0 NaN 1538.076152304609 0.5006650748376139 528.0 0.0 370.0 
100.00023104832437 210526.0 NaN 1540.8176352705425 0.5006645183198116 524.0 3.0 368.0 
110.00023104832437 210627.0 NaN 1540.9966599866395 0.5004428011697344 528.0 0.0 371.0 
120.00023104832437 210671.0 NaN 1540.6867067468274 0.5005606789111152 530.0 0.0 371.0 
130.0002310483244 210663.0 NaN 1537.902471609888 0.5005014949849929 527.0 1.0 369.0 
140.0002310483244 210694.0 NaN 1531.6713426853726 0.5004431580284503 524.0 0.0 368.0 
150.0002310483244 210718.0 NaN 1534.7094188376757 0.5006649260078142 523.0 1.0 368.0 
160.0002310483244 210743.0 NaN 1531.7541750167002 0.5008487890573933 521.0 1.0 367.0 
170.0002310483244 210732.0 NaN 1537.5791583166338 0.5004484328095095 520.0 2.0 368.0 
180.0002310483244 210743.0 NaN 1531.9385437541728 0.5005799280998611 522.0 0.0 368.0 
190.0002310483244 210742.0 NaN 1534.6479625918516 0.5009106741202863 519.0 0.0 369.0 
200.0002310483244 210761.0 NaN 1537.905143620573 0.5009887992644405 521.0 0.0 370.0 
210.0002310483244 210842.0 NaN 1528.537074148297 0.5007581654178523 516.0 0.0 367.0 
220.0002310483244 210851.0 NaN 1528.633266533066 0.5012151577663666 516.0 0.0 367.0 
230.0002310483244 210892.0 NaN 1531.8316633266545 0.5009735771645119 514.0 0.0 368.0 
240.0002310483244 210926.0 NaN 1528.5210420841693 0.5007463258119863 514.0 0.0 367.0 
250.0002310483244 211010.0 NaN 1525.485637942552 0.5011263577901659 515.0 0.0 366.0 
260.0002310483244 211002.0 NaN 1525.5951903807634 0.5004037062308467 513.0 2.0 364.0 
270.0002310483244 211115.0 NaN 1531.7835671342698 0.5007866427881297 514.0 0.0 368.0 
280.0002310483244 211173.0 NaN 1537.7608550434184 0.5009533124807093 515.0 1.0 369.0 
290.0002310483244 211122.0 NaN 1531.7327989311973 0.5011387340454554 510.0 1.0 367.0 
300.0002310483244 211067.0 NaN 1534.4716098864385 0.500700352612909 507.0 3.0 366.0 
310.0002310483244 210957.0 NaN 1531.6392785571156 0.5007214007795636 508.0 1.0 367.0 
320.0002310483244 210991.0 NaN 1537.7929191716753 0.5010501753819654 509.0 1.0 369.0 
330.0002310483244 210945.0 NaN 1537.8517034068154 0.5010206010505629 507.0 2.0 368.0 
340.0002310483244 210847.0 NaN 1531.6633266533067 0.5006842101510534 509.0 3.0 365.0 
350.0002310483244 210746.0 NaN 1528.3019372077486 0.5010039901161499 517.0 0.0 367.0 
360.0002310483244 210737.0 NaN 1525.7127588510366 0.5012746117512762 516.0 0.0 366.0 
370.0002310483244 210614.0 NaN 1506.931195724782 0.5011429321255392 517.0 1.0 359.0 
380.0002310483244 210376.0 NaN 1510.1563126252513 0.500833119566054 517.0 2.0 359.0 
390.0002310483244 210181.0 NaN 1509.993319973281 0.5009051313536476 514.0 4.0 357.0 
400.0002310483244 210088.0 NaN 1506.9579158316637 0.5012810541365831 520.0 0.0 360.0 
410.0002310483244 210109.0 NaN 1519.289245156982 0.5009131245380768 524.0 0.0 364.0 
420.0002310483244 210068.0 NaN 1510.239144956581 0.5009991655221474 515.0 0.0 361.0 
430.0002310483244 210025.0 NaN 1509.9612558450242 0.5008885807714344 519.0 0.0 361.0 
440.0002310483244 209986.0 NaN 1516.0668002672 0.5008782158594403 525.0 0.0 363.0 
450.0002310483244 209957.0 NaN 1540.8550434201725 0.5012207022140137 531.0 0.0 371.0 
460.0002310483244 209898.0 NaN 1540.6813627254517 0.5013265177014212 525.0 0.0 371.0 
470.0002310483244 209804.0 NaN 1531.633934535737 0.5019748493556921 519.0 1.0 367.0 
480.0002310483244 209711.0 NaN 1519.0728122912483 0.5013749431017922 516.0 0.0 364.0 
490.0002310483244 209779.0 NaN 1497.7581830327333 0.5015687136116026 513.0 0.0 357.0 
500.0002310483244 209760.0 NaN 1491.5457581830335 0.5014434264197594 509.0 0.0 355.0 
510.0002310483244 209742.0 NaN 1497.8410153640625 0.5016078763537725 511.0 0.0 357.0 
520.0002310483243 209739.0 NaN 1467.0888443553788 0.5014211493347426 508.0 0.0 347.0 
530.0002310483243 209758.0 NaN 1445.4161656646631 0.5015006158859827 506.0 0.0 340.0 
540.0002310483243 209820.0 NaN 1467.0300601202396 0.5014244876792547 507.0 0.0 347.0 
550.0002310483243 209804.0 NaN 1467.0380761523056 0.5016595097890277 510.0 1.0 346.0 
560.0002310483243 209805.0 NaN 1460.967267869072 0.5015137811772475 511.0 0.0 345.0 
570.0002310483243 209841.0 NaN 1473.0607882431534 0.501197148808247 511.0 0.0 349.0 
580.0002310483243 209942.0 NaN 1476.1362725450906 0.501469725207237 513.0 0.0 350.0 
590.0002310483243 209958.0 NaN 1476.235136940547 0.5015122512464311 518.0 0.0 350.0 
600.0002310483243 210024.0 NaN 1488.646626586507 0.500991851941982 526.0 0.0 354.0 
610.0002310483243 210060.0 NaN 1494.6559786239154 0.5014440360610276 528.0 0.0 356.0 
620.0002310483243 210041.0 NaN 1500.643954575818 0.5010447200987226 526.0 0.0 358.0 
630.0002310483243 210040.0 NaN 1507.1342685370737 0.5011124845029926 522.0 0.0 360.0 
640.0002310483243 210088.0 NaN 1506.9792919171668 0.5010486557100823 525.0 1.0 359.0 
650.0002310483243 210204.0 NaN 1522.5090180360728 0.5010624147945457 521.0 0.0 365.0 
660.0002310483243 210377.0 NaN 1531.6072144288567 0.5013336205422644 517.0 0.0 368.0 
#####################################################################
# End of data export. Simulation finished at: 2019-03-02T11:58+0000 #
#####################################################################
