#####################################################################
# Alchemist log file - simulation started at: 2019-03-18T22:09+0000 #
#####################################################################
# seed = 9.0, bandwidth = 1000.0, propagationDelay = 10.0, baserange = 1000.0
#
# The columns have the following meaning: 
# time neighbor_count[Sum] <value>@neighbor_count[Sum] packet_size[Mean] mean_delay[Mean] crowd[Sum] overcrowded[Sum] risk[Sum] 
0.0 NaN NaN NaN NaN NaN NaN NaN 
2.0003374459614243 NaN NaN 4988.0 NaN 1497.0 0.0 1497.0 
4.000337445961424 NaN NaN 4988.0 NaN 1497.0 0.0 1497.0 
6.000337445961424 NaN NaN 4988.0 NaN 1497.0 0.0 1497.0 
8.000337445961424 NaN NaN 4988.0 NaN 1497.0 0.0 1497.0 
10.000337445961424 NaN NaN 4988.0 NaN 1497.0 0.0 1497.0 
12.000337445961424 NaN NaN 4988.0 NaN 1497.0 0.0 1497.0 
14.000337445961424 NaN NaN 4988.0 NaN 1497.0 0.0 1497.0 
16.000337445961424 105985.0 NaN 4989.2291249165 0.26082461784439465 1497.0 0.0 1497.0 
18.000337445961424 210039.0 NaN 4994.693386773547 2.0038989799757703 1497.0 0.0 1497.0 
20.000337445961424 210039.0 NaN 4994.693386773547 4.00389897997577 1497.0 0.0 1497.0 
22.000337445961424 210039.0 NaN 4994.693386773547 6.00389897997577 1497.0 0.0 1497.0 
24.000337445961424 210039.0 NaN 4994.688042752171 8.003898979975771 1497.0 0.0 1497.0 
26.000337445961424 210039.0 NaN 4994.704074816299 10.003898979975771 1497.0 0.0 1497.0 
28.000337445961424 210039.0 NaN 4994.720106880428 12.003898979975771 1497.0 0.0 1497.0 
30.000337445961424 210039.0 NaN 4994.736138944556 14.00272097845816 1497.0 0.0 1497.0 
32.00033744596142 210199.0 NaN 4994.48496993988 1.0245064884712358 1496.0 1.0 1496.0 
34.00033744596142 210199.0 NaN 4993.934535738143 3.0245064884712356 1496.0 1.0 1496.0 
36.00033744596142 210199.0 NaN 4993.934535738143 5.024506488471236 1496.0 1.0 1496.0 
38.00033744596142 210199.0 NaN 4993.937207748831 7.024506488471236 1496.0 1.0 1496.0 
40.00033744596142 210199.0 NaN 4993.937207748831 9.024506488471236 1496.0 1.0 1496.0 
42.00033744596142 210199.0 NaN 4993.921175684703 11.024506488471236 1496.0 1.0 1496.0 
44.00033744596142 210199.0 NaN 4993.937207748831 13.024506488471236 1496.0 1.0 1496.0 
46.0002111449745 210306.0 NaN 4994.060120240481 7.493031789541069 1494.0 3.0 1494.0 
48.00033744596142 210390.0 NaN 4994.324649298597 2.0166571182292503 1495.0 2.0 1495.0 
50.00033744596142 210390.0 NaN 4994.324649298597 4.016657118229251 1495.0 2.0 1495.0 
52.00033744596142 210390.0 NaN 4994.324649298597 6.016657118229251 1495.0 2.0 1495.0 
54.00033744596142 210390.0 NaN 4994.308617234469 8.01665711822925 1495.0 2.0 1495.0 
56.00033744596142 210390.0 NaN 4994.308617234469 10.01665711822925 1495.0 2.0 1495.0 
58.00033744596142 210390.0 NaN 4994.308617234469 12.01665711822925 1495.0 2.0 1495.0 
60.00033744596142 210390.0 NaN 4994.308617234469 14.015831550636173 1495.0 2.0 1495.0 
62.0002111449745 210549.0 NaN 1518.9205076820303 3.958550424856008 834.0 0.0 364.0 
64.00033744596142 210584.0 NaN 1518.8136272545091 2.6728015834830203 828.0 0.0 364.0 
66.00033744596142 210584.0 NaN 1521.8677354709425 4.67280158348302 828.0 0.0 365.0 
68.00033744596142 210584.0 NaN 1521.8677354709425 6.67280158348302 828.0 0.0 365.0 
70.00033744596142 210584.0 NaN 1521.8677354709425 8.67280158348302 828.0 0.0 365.0 
72.00033744596142 210709.0 NaN 1521.8677354709425 6.105426964439257 742.0 0.0 365.0 
74.00033744596142 210743.0 NaN 1524.9458917835666 5.799870302167116 667.0 0.0 366.0 
76.00033744596142 210627.0 NaN 1524.9458917835666 6.848903975553859 655.0 0.0 366.0 
78.0002111449745 210494.0 NaN 1524.9619238476937 6.085008700622181 645.0 1.0 365.0 
80.00033744596142 210514.0 NaN 1528.0374081496336 6.315899476484288 644.0 2.0 365.0 
82.00033744596142 210527.0 NaN 1528.0320641282547 7.375614859483643 644.0 2.0 365.0 
84.00033744596142 210612.0 NaN 1531.1102204408817 4.133002027904974 614.0 2.0 366.0 
86.00033744596142 210623.0 NaN 1531.1022044088184 4.917096590221713 585.0 2.0 366.0 
88.00033744596142 210638.0 NaN 1531.0968603874423 6.170673685471172 586.0 2.0 366.0 
90.00033744596142 210638.0 NaN 1531.0968603874423 8.161145662916008 587.0 2.0 366.0 
92.00033744596142 210471.0 NaN 1531.0995323981274 9.82358693721053 587.0 2.0 366.0 
94.0002111449745 210565.0 NaN 1531.1235804943212 5.0107829862545 583.0 1.0 367.0 
96.00033744596142 210626.0 NaN 1531.1102204408817 3.002627113315536 563.0 1.0 367.0 
98.00033744596142 210644.0 NaN 1531.1102204408817 4.026270792649691 562.0 1.0 367.0 
100.00033744596142 210645.0 NaN 1531.1102204408817 5.918614348818928 562.0 1.0 367.0 
102.00033744596142 210588.0 NaN 1534.2070808283243 7.907392249102982 562.0 1.0 368.0 
104.00033744596142 210599.0 NaN 1534.2070808283243 8.950927320731406 562.0 1.0 368.0 
106.00033744596142 210715.0 NaN 1534.2044088176367 5.554383245249783 552.0 1.0 368.0 
108.00033744596142 210736.0 NaN 1534.2150968603878 6.1317440082851915 549.0 1.0 368.0 
110.0002111449745 210765.0 NaN 1534.2231128924518 5.366639126676962 550.0 1.0 368.0 
112.00033744596142 210787.0 NaN 1537.2959251836999 5.691850743222241 549.0 1.0 369.0 
114.00033744596142 210722.0 NaN 1537.293253173012 7.680350865464544 549.0 1.0 369.0 
116.00033744596142 210802.0 NaN 1540.355377421509 4.835406667663972 550.0 1.0 370.0 
118.00033744596142 210816.0 NaN 1540.3446893787573 4.552411596106302 542.0 1.0 370.0 
120.00033744596142 210827.0 NaN 1546.5090180360728 5.562132715586968 541.0 1.0 372.0 
122.00033744596142 210835.0 NaN 1546.5143620574481 7.177247282647049 542.0 1.0 372.0 
124.00033744596142 210781.0 NaN 1549.5818303273209 9.042236176762527 542.0 1.0 373.0 
126.0002111449745 210771.0 NaN 1549.5925183700726 8.15149173849591 543.0 1.0 373.0 
128.0003374459614 210820.0 NaN 1549.5764863059455 3.2571748482105507 539.0 1.0 373.0 
130.0003374459614 210830.0 NaN 1549.5738142952573 4.050271099545425 536.0 1.0 373.0 
132.0003374459614 210836.0 NaN 1549.5738142952573 5.250031043856147 536.0 1.0 373.0 
134.0003374459614 210820.0 NaN 1549.5738142952573 7.242657117262011 536.0 1.0 373.0 
136.0003374459614 210776.0 NaN 1543.438877755509 9.066159454657718 536.0 1.0 371.0 
138.0003374459614 210806.0 NaN 1540.3527054108213 6.066046988093469 535.0 1.0 370.0 
140.0003374459614 210834.0 NaN 1537.2798931195728 5.665674985527376 534.0 1.0 369.0 
142.00021114497451 210846.0 NaN 1534.2070808283243 4.783799089953359 534.0 1.0 368.0 
144.0003374459614 210854.0 NaN 1540.3446893787573 5.021543427651124 536.0 1.0 370.0 
146.0003374459614 210796.0 NaN 1543.4281897127576 6.999355426041536 536.0 1.0 371.0 
148.0003374459614 210790.0 NaN 1543.4228456913816 8.018949203984576 536.0 1.0 371.0 
150.0003374459614 210834.0 NaN 1543.438877755509 4.771743109913039 534.0 1.0 371.0 
152.0003374459614 210884.0 NaN 1540.403473613894 5.2767953196380315 532.0 1.0 370.0 
154.0003374459614 210892.0 NaN 1537.3306613226455 6.4101771377471355 532.0 1.0 369.0 
156.0003374459614 210871.0 NaN 1534.260521042084 8.319510631871557 532.0 1.0 368.0 
158.00021114497451 210842.0 NaN 1534.2738810955245 8.419412824277195 534.0 1.0 368.0 
160.0003374459614 210888.0 NaN 1537.3146292585184 3.922574846981555 537.0 1.0 369.0 
162.0003374459614 210924.0 NaN 1537.3146292585184 3.6740492161693163 535.0 1.0 369.0 
164.0003374459614 210948.0 NaN 1537.3146292585184 4.66573570399489 535.0 1.0 369.0 
166.0003374459614 210949.0 NaN 1534.233800935203 6.389071819438239 535.0 1.0 368.0 
168.0003374459614 210903.0 NaN 1534.2177688710756 8.212479430058993 535.0 1.0 368.0 
170.0003374459614 210891.0 NaN 1534.2177688710756 9.153394680423451 532.0 1.0 368.0 
172.0003374459614 210918.0 NaN 1537.3146292585184 5.880630133679976 532.0 1.0 369.0 
174.00021114497451 210932.0 NaN 1543.4709418837665 4.7762990188274514 530.0 1.0 371.0 
176.0003374459614 210950.0 NaN 1546.5303941215755 4.3398440951096715 531.0 1.0 372.0 
178.0003374459614 210936.0 NaN 1546.5223780895117 6.322879475608247 531.0 1.0 372.0 
180.0003374459614 210852.0 NaN 1543.4362057448247 8.26261755845698 531.0 1.0 371.0 
182.0003374459614 210892.0 NaN 1543.4549098196385 5.141632388787925 530.0 1.0 371.0 
184.0003374459614 210916.0 NaN 1540.3981295925182 4.824579181487313 533.0 1.0 370.0 
186.0003374459614 210937.0 NaN 1531.152972611891 5.816906582077034 532.0 1.0 367.0 
188.0003374459614 210926.0 NaN 1528.069472277891 7.622517737575473 533.0 1.0 366.0 
190.00021114497451 210876.0 NaN 1531.1716766867069 7.692976442973185 534.0 1.0 367.0 
192.0003374459614 210873.0 NaN 1534.215096860388 7.085354586130283 534.0 1.0 368.0 
194.0003374459614 210923.0 NaN 1531.1422845691366 3.896088739866311 532.0 1.0 367.0 
196.0003374459614 210925.0 NaN 1531.1369405477635 4.539347492817478 532.0 1.0 367.0 
198.0003374459614 210939.0 NaN 1531.0861723446908 5.559619301574126 532.0 1.0 367.0 
200.0003374459614 210931.0 NaN 1537.285237140948 7.427281950848468 533.0 1.0 369.0 
202.0003374459614 210870.0 NaN 1537.2692050768183 9.3778031671844 533.0 1.0 369.0 
204.0003374459614 210938.0 NaN 1540.3633934535724 6.477907291813785 531.0 1.0 370.0 
206.00021114497451 210949.0 NaN 1540.4221776887093 4.412312124202888 530.0 1.0 370.0 
208.0003374459614 210986.0 NaN 1540.3660654642636 3.793039663929193 530.0 1.0 370.0 
210.0003374459614 210989.0 NaN 1540.3607214428846 5.650238828485942 530.0 1.0 370.0 
212.0003374459614 210927.0 NaN 1540.3473613894453 7.326970511580252 530.0 1.0 370.0 
214.0003374459614 210941.0 NaN 1537.285237140948 8.239288911111299 530.0 1.0 369.0 
216.0003374459614 210996.0 NaN 1534.233800935203 5.020828791500028 529.0 1.0 368.0 
218.0003374459614 211001.0 NaN 1534.233800935203 5.812830019262052 528.0 1.0 368.0 
220.0003374459614 211009.0 NaN 1534.2311289245158 6.924398049544272 528.0 1.0 368.0 
222.00021114497451 211006.0 NaN 1531.1583166332662 7.023842182232558 529.0 1.0 367.0 
224.0003374459614 210958.0 NaN 1531.1503006012022 7.346186694855723 527.0 1.0 367.0 
226.0003374459614 211020.0 NaN 1531.1449565798273 4.388040929047794 528.0 1.0 367.0 
228.0003374459614 211044.0 NaN 1531.1449565798273 4.037163163138696 526.0 1.0 367.0 
230.0003374459614 211053.0 NaN 1531.1449565798273 4.922773022213176 526.0 1.0 367.0 
232.0003374459614 211059.0 NaN 1537.322645290582 6.761280475321057 526.0 1.0 369.0 
234.0003374459614 211003.0 NaN 1537.2879091516363 8.660819781337322 526.0 1.0 369.0 
236.0003374459614 210996.0 NaN 1534.2177688710754 9.594549920159157 525.0 1.0 368.0 
238.00021114497451 211092.0 NaN 1534.2231128924518 4.616622747331752 524.0 1.0 368.0 
240.0003374459614 211119.0 NaN 1531.1128924515701 3.8214515433910643 521.0 1.0 367.0 
242.0003374459614 211135.0 NaN 1534.193720774882 4.752550203802221 520.0 2.0 367.0 
244.0003374459614 211131.0 NaN 1534.1750167000664 6.580151397984003 520.0 2.0 367.0 
246.0003374459614 211053.0 NaN 1534.1696726786909 8.453034508271195 520.0 2.0 367.0 
248.0003374459614 211150.0 NaN 1534.172344689379 5.619191905521604 520.0 2.0 367.0 
250.0003374459614 211188.0 NaN 1531.1396125584515 5.393863449255295 519.0 2.0 366.0 
252.0003374459614 211216.0 NaN 1531.0968603874426 6.301754847778473 518.0 2.0 366.0 
254.00021114497451 211247.0 NaN 1531.0915163660638 6.333060772990937 519.0 2.0 366.0 
256.0003374459614 211190.0 NaN 1528.0320641282547 6.542521359324991 519.0 1.0 366.0 
258.0003374459614 211178.0 NaN 1524.9565798263181 7.4261280261242195 518.0 2.0 364.0 
260.0003374459614 211216.0 NaN 1525.0207080828334 4.14767216671604 517.0 2.0 364.0 
262.0003374459614 211233.0 NaN 1528.104208416834 4.922790823406108 519.0 2.0 365.0 
264.0003374459614 211258.0 NaN 1534.2444889779547 6.083657470383312 522.0 2.0 367.0 
266.0003374459614 211241.0 NaN 1531.1583166332662 7.97280872931901 520.0 2.0 366.0 
268.0003374459614 211162.0 NaN 1524.9779559118244 9.80422316630922 519.0 2.0 364.0 
270.0002111449745 211345.0 NaN 1521.8810955243816 5.19376906089424 519.0 2.0 363.0 
272.0003374459614 211416.0 NaN 1528.0293921175698 3.1815353608242565 519.0 1.0 366.0 
274.0003374459614 211441.0 NaN 1531.1155644622572 4.106649632983399 519.0 1.0 367.0 
276.0003374459614 211445.0 NaN 1537.239812959252 5.907496680337386 519.0 1.0 369.0 
278.0003374459614 211367.0 NaN 1537.2371409485636 7.7706992323922695 521.0 1.0 369.0 
280.0003374459614 211346.0 NaN 1534.1696726786909 8.741761604493258 520.0 1.0 368.0 
282.0003374459614 211420.0 NaN 1531.1075484301932 5.543417926611563 520.0 1.0 367.0 
284.0003374459614 211426.0 NaN 1531.1102204408817 6.279325304224689 519.0 1.0 367.0 
286.0002111449745 211472.0 NaN 1534.1990647962605 5.546272562802978 519.0 1.0 368.0 
288.0003374459614 211481.0 NaN 1534.1990647962605 5.786100526473632 519.0 1.0 368.0 
290.0003374459614 211366.0 NaN 1534.209752839009 7.625654201415363 519.0 1.0 368.0 
292.0003374459614 211408.0 NaN 1531.1315965263846 4.774900805260104 517.0 1.0 367.0 
294.0003374459614 211442.0 NaN 1528.0801603206426 4.53040791003727 514.0 1.0 366.0 
296.0003374459614 211467.0 NaN 1528.0534402137612 5.48484692011072 512.0 1.0 366.0 
298.0003374459614 211462.0 NaN 1521.902471609888 7.282974163556067 513.0 1.0 364.0 
300.0003374459614 211352.0 NaN 1524.988643954575 9.106939536799944 514.0 1.0 365.0 
302.0002111449745 211340.0 NaN 1521.9425517702089 8.124576816096727 515.0 1.0 364.0 
304.0003374459614 211389.0 NaN 1521.9665998664002 3.3384135464742637 515.0 1.0 364.0 
306.0003374459614 211427.0 NaN 1521.947895791582 4.097675528675363 513.0 1.0 364.0 
308.0003374459614 211437.0 NaN 1525.0100200400816 5.235900794101241 511.0 1.0 365.0 
310.0003374459614 211427.0 NaN 1528.0534402137612 7.123082587519888 513.0 1.0 366.0 
312.0003374459614 211305.0 NaN 1524.9512358049453 9.01644474743375 512.0 1.0 365.0 
314.0003374459614 211358.0 NaN 1521.8677354709425 6.159346421926494 510.0 1.0 364.0 
316.0003374459614 211360.0 NaN 1521.859719438879 5.702236683453815 510.0 1.0 364.0 
318.0002111449745 211415.0 NaN 1521.859719438879 4.831437960439171 510.0 1.0 364.0 
320.0003374459614 211434.0 NaN 1528.0400801603205 5.063630768119918 509.0 1.0 366.0 
322.0003374459614 211351.0 NaN 1528.0187040748178 6.958608430477439 509.0 1.0 366.0 
324.0003374459614 211305.0 NaN 1524.9565798263181 7.913444470562127 506.0 1.0 365.0 
326.0003374459614 211346.0 NaN 1528.0347361389454 4.696751583563301 507.0 1.0 366.0 
328.0003374459614 211355.0 NaN 1528.024048096191 5.4843336594947365 510.0 0.0 367.0 
330.0003374459614 211371.0 NaN 1521.8704074816299 6.587240378071826 509.0 0.0 365.0 
332.0003374459614 211337.0 NaN 1524.9859719438882 8.183155278780122 508.0 1.0 365.0 
334.0002111449745 211237.0 NaN 1528.0828323313276 8.336530371366711 507.0 1.0 366.0 
336.0003374459614 211300.0 NaN 1528.0480961923845 3.9409132326141454 509.0 1.0 366.0 
338.0003374459614 211311.0 NaN 1528.0454241816974 3.7071811225586915 509.0 1.0 366.0 
340.0003374459614 211332.0 NaN 1528.0748162992638 4.644566084482494 508.0 1.0 366.0 
342.0003374459614 211331.0 NaN 1528.0774883099543 6.432750308925687 509.0 1.0 366.0 
344.0003374459614 211222.0 NaN 1528.0587842351363 8.35395699222965 509.0 1.0 366.0 
346.0003374459614 211147.0 NaN 1525.0020040080178 9.133228228682686 509.0 0.0 366.0 
348.0003374459614 211179.0 NaN 1531.1048764195061 5.760243963534159 508.0 1.0 367.0 
350.0002111449745 211178.0 NaN 1531.1075484301934 4.7986558429025985 507.0 2.0 366.0 
352.0003374459614 211190.0 NaN 1531.0968603874423 4.40135255967237 507.0 2.0 366.0 
354.0003374459614 211162.0 NaN 1528.0454241816974 6.285756943908573 506.0 2.0 365.0 
356.0003374459614 211015.0 NaN 1528.0374081496334 8.1499136294141 509.0 2.0 365.0 
358.0003374459614 211062.0 NaN 1524.9458917835666 5.280625095568856 509.0 2.0 364.0 
360.0003374459614 211092.0 NaN 1521.8891115564454 5.075431351687991 509.0 2.0 363.0 
362.0003374459614 211092.0 NaN 1521.891783567136 5.774891059872401 512.0 1.0 364.0 
364.0003374459614 211076.0 NaN 1524.9966599866395 7.451035751835533 511.0 1.0 365.0 
366.0002111449745 210989.0 NaN 1524.9859719438884 7.660123701238034 512.0 1.0 365.0 
368.0003374459614 210988.0 NaN 1524.9699398797607 7.088643090584092 515.0 1.0 365.0 
370.0003374459614 211076.0 NaN 1521.9104876419515 3.8660701919643166 514.0 1.0 364.0 
372.0003374459614 211082.0 NaN 1521.9104876419515 4.625133909338696 514.0 1.0 364.0 
374.0003374459614 211100.0 NaN 1524.993987975952 5.732269463450587 513.0 1.0 365.0 
376.0003374459614 211054.0 NaN 1524.9672678690724 7.530417154314155 513.0 1.0 365.0 
378.0003374459614 210946.0 NaN 1518.7975951903818 9.285830284398962 514.0 1.0 363.0 
380.0003374459614 210967.0 NaN 1515.7194388777546 6.328347727848768 514.0 1.0 362.0 
382.0002111449745 210976.0 NaN 1509.6005344021369 4.4332075741333945 513.0 1.0 360.0 
384.0003374459614 211005.0 NaN 1515.7408149632606 3.8427671851147607 515.0 1.0 362.0 
386.0003374459614 211017.0 NaN 1515.7515030060113 5.594546104262813 513.0 1.0 362.0 
388.0003374459614 210795.0 NaN 1512.6786907147634 7.478703038075191 513.0 1.0 361.0 
390.0003374459614 210724.0 NaN 1512.6733466933879 8.415090199672841 513.0 1.0 361.0 
392.0003374459614 210770.0 NaN 1509.6058784235122 5.048287578041278 514.0 2.0 359.0 
394.0003374459614 210795.0 NaN 1515.7648630594538 5.740202539667472 517.0 2.0 361.0 
396.0003374459614 210759.0 NaN 1515.7461589846364 6.774464287497243 516.0 2.0 361.0 
398.0002111449745 210727.0 NaN 1521.8917835671357 6.986636885340047 518.0 2.0 363.0 
400.0003374459614 210597.0 NaN 1521.8784235136934 7.368928174062496 517.0 2.0 363.0 
402.0003374459614 210635.0 NaN 1531.1315965263848 4.496856166870664 519.0 2.0 366.0 
404.0003374459614 210651.0 NaN 1528.0427521710092 4.265272969481481 519.0 2.0 365.0 
406.0003374459614 210692.0 NaN 1521.9104876419515 5.035475908353131 520.0 1.0 364.0 
408.0003374459614 210707.0 NaN 1524.9993319973273 6.723480101712356 519.0 2.0 364.0 
410.0003374459614 210583.0 NaN 1518.8510354041425 8.540653802969814 520.0 2.0 362.0 
412.0003374459614 210510.0 NaN 1531.1770207080817 9.440752056997118 520.0 2.0 366.0 
414.0002111449745 210576.0 NaN 1531.1449565798275 4.614188719965765 520.0 2.0 366.0 
416.0003374459614 210637.0 NaN 1531.1422845691368 3.8583133962802276 517.0 2.0 366.0 
418.0003374459614 210669.0 NaN 1531.0915163660638 4.917407176650262 516.0 2.0 366.0 
420.0003374459614 210638.0 NaN 1534.1803607214429 6.786362654723986 517.0 2.0 367.0 
422.0003374459614 210502.0 NaN 1531.1289245156997 8.437257116391473 518.0 1.0 367.0 
424.0003374459614 210587.0 NaN 1531.1289245156995 5.56092411791705 519.0 1.0 367.0 
426.0003374459614 210632.0 NaN 1518.7628590514364 5.332127901265024 522.0 1.0 363.0 
428.0003374459614 210588.0 NaN 1528.0053440213755 6.173689699245863 519.0 1.0 366.0 
430.0002111449745 210553.0 NaN 1534.1322645290575 6.316835774272517 519.0 1.0 368.0 
432.0003374459614 210424.0 NaN 1534.1028724114904 6.704060401488422 518.0 1.0 368.0 
434.0003374459614 210399.0 NaN 1537.1863727454909 7.628829003724101 518.0 1.0 369.0 
436.0003374459614 210454.0 NaN 1543.369405477621 4.3215475604023075 518.0 1.0 371.0 
438.0003374459614 210456.0 NaN 1543.3533734134935 4.926343615430492 517.0 1.0 371.0 
440.0003374459614 210470.0 NaN 1543.3587174348702 5.942492127194463 519.0 1.0 371.0 
442.0003374459614 210445.0 NaN 1540.291249164997 7.79422120398526 522.0 0.0 371.0 
444.0003374459614 210312.0 NaN 1543.3907815631273 9.667644325161652 527.0 0.0 372.0 
446.0002111449745 210412.0 NaN 1543.3587174348702 5.221020163540618 527.0 0.0 372.0 
448.0003374459614 210472.0 NaN 1543.3453573814274 3.5257522460101485 527.0 0.0 372.0 
450.0003374459614 210496.0 NaN 1543.3507014028062 4.401885753291186 531.0 0.0 372.0 
452.0003374459614 210470.0 NaN 1546.420841683366 5.937221726071191 529.0 1.0 372.0 
454.0003374459614 210363.0 NaN 1549.4642618570456 7.7438224143441925 530.0 1.0 373.0 
456.0003374459614 210354.0 NaN 1543.3159652638612 8.615449085645675 530.0 1.0 371.0 
458.0003374459614 210420.0 NaN 1546.4128256513025 5.452223808796942 529.0 1.0 372.0 
460.0003374459614 210406.0 NaN 1549.4215096860385 6.174943228422552 527.0 1.0 373.0 
462.0002111449745 210394.0 NaN 1549.432197728791 5.648538698758875 527.0 1.0 373.0 
464.0003374459614 210389.0 NaN 1549.456245824982 6.040104774058231 527.0 1.0 373.0 
466.0003374459614 210253.0 NaN 1552.5424181696726 7.789742127309965 528.0 0.0 375.0 
468.0003374459614 210314.0 NaN 1549.44555778223 4.828619561469236 528.0 1.0 373.0 
470.0003374459614 210311.0 NaN 1549.432197728791 4.532656547106662 529.0 1.0 373.0 
472.0003374459614 210321.0 NaN 1546.3433533734124 5.375030566370635 528.0 1.0 372.0 
474.0003374459614 210310.0 NaN 1543.2758851035392 7.156003631515614 526.0 1.0 371.0 
476.0003374459614 210185.0 NaN 1540.2030728122909 8.978980168752088 526.0 1.0 370.0 
478.0002111449745 210163.0 NaN 1534.0627922511699 8.307635326436559 526.0 1.0 368.0 
480.0003374459614 210268.0 NaN 1534.0547762191063 3.6541418899947846 525.0 1.0 368.0 
482.0003374459614 210288.0 NaN 1530.9766199064816 4.224651950057246 523.0 1.0 367.0 
484.0003374459614 210304.0 NaN 1527.9251837007362 5.271008960439926 520.0 1.0 366.0 
486.0003374459614 210243.0 NaN 1515.6686706746818 7.092652706833589 520.0 1.0 362.0 
488.0003374459614 210124.0 NaN 1509.5657982631917 8.842967684696202 518.0 1.0 360.0 
490.0003374459614 210198.0 NaN 1500.3072812291255 5.999530338571173 518.0 1.0 357.0 
492.0003374459614 210164.0 NaN 1500.3019372077483 5.732993479044027 517.0 1.0 357.0 
494.0002111449745 210211.0 NaN 1494.1776887107544 5.045149850997817 518.0 1.0 355.0 
496.0003374459614 210236.0 NaN 1491.0754843019365 5.258349568007026 521.0 0.0 355.0 
498.0003374459614 210125.0 NaN 1491.0487641950556 7.023117670159051 521.0 1.0 354.0 
500.0003374459614 210096.0 NaN 1491.0220440881756 7.863098857823156 520.0 1.0 354.0 
502.0003374459614 210157.0 NaN 1487.9412157648637 4.615475521920513 519.0 1.0 353.0 
504.0003374459614 210172.0 NaN 1487.9652638610548 5.350881519140963 520.0 1.0 353.0 
506.0003374459614 210223.0 NaN 1491.0728122912483 6.428317331502749 521.0 1.0 354.0 
508.0003374459614 210156.0 NaN 1494.1536406145635 8.242215912449344 522.0 1.0 355.0 
510.0002111449745 210053.0 NaN 1497.2371409485636 8.5051656561569 527.0 1.0 356.0 
512.0003374459613 210131.0 NaN 1497.2237808951245 3.998245643735552 528.0 0.0 357.0 
514.0003374459613 210142.0 NaN 1494.1723446893798 3.758048233649874 528.0 0.0 356.0 
516.0003374459613 210237.0 NaN 1497.234468937875 4.600002998836577 529.0 0.0 357.0 
518.0003374459613 210211.0 NaN 1494.1589846359375 6.31942032450554 528.0 0.0 356.0 
520.0003374459613 210115.0 NaN 1481.8704074816292 8.183786628022604 524.0 0.0 352.0 
522.0003374459613 210086.0 NaN 1481.8704074816292 9.088324752956135 526.0 0.0 352.0 
524.0003374459613 210091.0 NaN 1478.7708750835 5.866266144058522 524.0 0.0 351.0 
526.0002111449744 210137.0 NaN 1475.7301269205084 4.898930280037725 522.0 0.0 350.0 
528.0003374459613 210226.0 NaN 1481.8784235136932 4.472949403120925 521.0 1.0 351.0 
530.0003374459613 210191.0 NaN 1478.7788911155637 6.288762781746861 520.0 1.0 350.0 
532.0003374459613 210081.0 NaN 1475.7301269205084 8.07938597112251 520.0 1.0 349.0 
534.0003374459613 210152.0 NaN 1469.587174348698 5.16623613621478 525.0 1.0 347.0 
536.0003374459613 210142.0 NaN 1475.7782231128917 4.970783570063178 525.0 1.0 349.0 
538.0003374459613 210200.0 NaN 1475.7461589846364 5.840675624649765 524.0 1.0 349.0 
540.0003374459613 210164.0 NaN 1469.608550434201 7.581913237304108 525.0 1.0 347.0 
542.0003374459613 210069.0 NaN 1472.638610554443 7.5758089171790015 521.0 1.0 348.0 
544.0003374459613 210125.0 NaN 1472.6760187040738 7.091350651952259 519.0 1.0 348.0 
546.0003374459613 210196.0 NaN 1475.7221108884444 3.898879057620928 520.0 1.0 349.0 
548.0003374459613 210236.0 NaN 1472.6733466933879 4.605053575891473 521.0 1.0 348.0 
550.0003374459613 210250.0 NaN 1475.7942551770202 5.618481397713732 521.0 1.0 349.0 
552.0003374459613 210203.0 NaN 1469.6299265197067 7.454825234938779 522.0 1.0 347.0 
554.0003374459613 210113.0 NaN 1469.6219104876427 9.311532960026893 524.0 1.0 347.0 
556.0003374459613 210189.0 NaN 1460.4168336673351 6.302188063372624 524.0 1.0 344.0 
558.0003374459613 210219.0 NaN 1469.6379425517707 4.388747907416779 522.0 1.0 347.0 
560.0003374459613 210304.0 NaN 1466.5330661322641 3.850395864856886 521.0 1.0 346.0 
562.0003374459613 210281.0 NaN 1466.5437541750173 5.612695482486873 521.0 1.0 346.0 
564.0003374459613 210186.0 NaN 1466.5357381429533 7.399767129842152 520.0 1.0 346.0 
566.0003374459613 210177.0 NaN 1463.4388777555102 8.29802725037005 521.0 1.0 345.0 
568.0003374459613 210309.0 NaN 1466.4929859719446 5.067048352211637 516.0 1.0 346.0 
570.0003374459613 210354.0 NaN 1469.5898463593849 5.795756685135245 517.0 1.0 347.0 
572.0003374459613 210343.0 NaN 1484.9752839011362 6.64775434733155 517.0 1.0 352.0 
574.0003374459613 210338.0 NaN 1488.0347361389452 6.879877573111973 518.0 0.0 354.0 
576.0003374459613 210267.0 NaN 1488.0320641282556 7.360083292855588 521.0 0.0 354.0 
578.0003374459613 210332.0 NaN 1488.0160320641276 4.501678784675792 523.0 0.0 354.0 
580.0003374459613 210374.0 NaN 1491.0728122912483 4.1953627443324555 526.0 0.0 355.0 
582.0003374459613 210445.0 NaN 1491.0941883767543 5.019723725010852 525.0 0.0 355.0 
584.0003374459613 210423.0 NaN 1484.9645958583828 6.762651080887677 527.0 0.0 353.0 
586.0003374459613 210285.0 NaN 1484.9645958583828 8.484321775103817 526.0 0.0 353.0 
588.0003374459613 210258.0 NaN 1484.9645958583828 9.331885673516451 527.0 0.0 353.0 
590.0003374459613 210361.0 NaN 1484.961923847694 4.4910993241433115 525.0 0.0 353.0 
592.0003374459613 210435.0 NaN 1494.19906479626 3.89028765234305 522.0 1.0 355.0 
594.0003374459613 210465.0 NaN 1497.253173012691 4.9378319295633055 521.0 1.0 356.0 
596.0003374459613 210443.0 NaN 1497.2665330661332 6.7230507653358975 522.0 1.0 356.0 
598.0003374459613 210348.0 NaN 1497.274549098197 8.557380455593025 523.0 1.0 356.0 
600.0003374459613 210444.0 NaN 1494.2124248497 5.645560018954986 524.0 1.0 355.0 
602.0003374459613 210464.0 NaN 1494.2097528390102 5.205778221796999 526.0 1.0 355.0 
604.0003374459613 210499.0 NaN 1491.152972611891 6.030235938049366 523.0 1.0 354.0 
606.0003374459613 210490.0 NaN 1497.3119572478286 6.203268613039321 525.0 1.0 356.0 
608.0003374459613 210350.0 NaN 1497.3066132264535 6.728801258968542 524.0 1.0 356.0 
610.0003374459613 210333.0 NaN 1494.2231128924525 7.59529038863694 525.0 1.0 355.0 
612.0003374459613 210429.0 NaN 1494.19906479626 4.339854141015665 526.0 1.0 355.0 
614.0003374459613 210466.0 NaN 1494.2124248497 5.08811924924891 527.0 1.0 355.0 
616.0003374459613 210482.0 NaN 1494.2070808283243 5.9694563802945595 527.0 1.0 355.0 
618.0003374459613 210471.0 NaN 1494.2097528390102 7.693934719435462 528.0 1.0 355.0 
620.0003374459613 210336.0 NaN 1500.3446893787566 9.494862366930475 527.0 1.0 357.0 
622.0003374459613 210445.0 NaN 1497.2905811623255 5.088677232096279 526.0 0.0 357.0 
624.0003374459613 210528.0 NaN 1497.3066132264535 3.563288814454784 527.0 0.0 357.0 
626.0003374459613 210568.0 NaN 1500.4061456245818 4.3586504931502565 526.0 0.0 358.0 
628.0003374459613 210577.0 NaN 1503.489645958583 6.0456448919873615 524.0 0.0 359.0 
630.0003374459613 210399.0 NaN 1503.511022044089 7.8726911456947235 525.0 0.0 359.0 
632.0003374459613 210396.0 NaN 1503.505678022711 8.51334436770524 525.0 0.0 359.0 
634.0003374459613 210506.0 NaN 1512.7134268537081 5.288710047874747 525.0 0.0 362.0 
636.0003374459613 210500.0 NaN 1509.6058784235122 6.04806748772699 526.0 0.0 361.0 
638.0003374459613 210530.0 NaN 1509.6272545090183 5.555286438982049 524.0 1.0 360.0 
640.0003374459613 210516.0 NaN 1512.716098864397 6.062562802958115 529.0 1.0 361.0 
642.0003374459613 210377.0 NaN 1512.7054108216444 7.820822044982977 527.0 1.0 361.0 
644.0003374459613 210482.0 NaN 1521.9532398129604 4.920101595273305 528.0 1.0 364.0 
646.0003374459613 210527.0 NaN 1521.945223780894 4.582189624920554 528.0 1.0 364.0 
648.0003374459613 210549.0 NaN 1518.853707414829 5.297511418078117 527.0 1.0 363.0 
650.0003374459613 210550.0 NaN 1521.945223780894 6.9910436693457925 532.0 1.0 364.0 
652.0003374459613 210394.0 NaN 1521.9398797595181 8.826882341624348 532.0 1.0 364.0 
654.0003374459613 210370.0 NaN 1521.9532398129606 8.158173336187854 532.0 1.0 364.0 
656.0003374459613 210511.0 NaN 1528.082832331328 3.6467000827759137 529.0 1.0 366.0 
658.0003374459613 210543.0 NaN 1528.1362725450908 4.371931846113487 528.0 1.0 366.0 
660.0003374459613 210578.0 NaN 1531.1957247829 5.398011606224097 529.0 1.0 367.0 
662.0003374459613 210588.0 NaN 1531.2064128256525 7.019628738305715 528.0 1.0 367.0 
664.0003374459613 210502.0 NaN 1531.1957247829 8.70963489361168 525.0 1.0 367.0 
#####################################################################
# End of data export. Simulation finished at: 2019-03-18T23:54+0000 #
#####################################################################
