#####################################################################
# Alchemist log file - simulation started at: 2019-03-01T21:37+0000 #
#####################################################################
# seed = 0.0, bandwidth = 4216.965034285822, propagationDelay = 0.1, baserange = 17.78279410038923
#
# The columns have the following meaning: 
# time neighbor_count[Sum] <value>@neighbor_count[Sum] packet_size[Mean] mean_delay[Mean] crowd[Sum] overcrowded[Sum] risk[Sum] 
0.0 NaN NaN NaN NaN NaN NaN NaN 
10.00024667683853 1120.0 NaN 4992.152304609219 1.2327621981960077 1495.0 2.0 1495.0 
20.000246676838533 1126.0 NaN 4991.080828323314 1.308277844412956 1490.0 7.0 1490.0 
30.000246676838533 1136.0 NaN 4990.848363393454 1.4182646150213034 1490.0 7.0 1490.0 
40.000246676838536 1147.0 NaN 4990.912491649967 1.4501094724482946 1490.0 7.0 1490.0 
50.000246676838536 1171.0 NaN 4991.00334001336 1.4973530577605119 1490.0 7.0 1490.0 
60.000246676838536 1201.0 NaN 4991.054108216433 1.850020684361016 1490.0 7.0 1490.0 
70.00026411476475 1220.0 NaN 995.9652638610543 1.6715640787081696 361.0 6.0 188.0 
80.00040553626063 1213.0 NaN 995.917167668673 1.730188792139687 309.0 6.0 188.0 
90.00040553626063 1205.0 NaN 1002.0440881763548 1.625166820597078 294.0 6.0 190.0 
100.00040553626063 1196.0 NaN 1014.207080828326 1.6322549898890906 291.0 6.0 194.0 
110.00026411476475 1208.0 NaN 1020.4034736138922 1.7191476534002033 291.0 6.0 196.0 
120.00040553626063 1214.0 NaN 1020.4248496994 1.9081246659362665 290.0 6.0 196.0 
130.00040553626064 1226.0 NaN 1026.5918503674 1.9396746175612434 292.0 6.0 198.0 
140.00040553626064 1224.0 NaN 1020.4141616566454 2.1076479752275157 290.0 6.0 196.0 
150.00040553626064 1231.0 NaN 1020.4969939879743 1.730433834260497 287.0 6.0 196.0 
160.00040553626064 1262.0 NaN 1023.5163660654634 1.5766752969736577 288.0 6.0 197.0 
170.00040553626064 1285.0 NaN 1029.632598530392 1.9150895389582905 292.0 6.0 199.0 
180.00040553626064 1290.0 NaN 1023.5831663326635 2.1741416792672803 291.0 6.0 197.0 
190.00040553626064 1265.0 NaN 1020.4248496993999 2.0278419988158123 287.0 6.0 196.0 
200.00040553626064 1251.0 NaN 1017.3814295257182 1.929461144593934 290.0 6.0 195.0 
210.00040553626064 1254.0 NaN 1008.2618570474269 2.084675302947919 289.0 7.0 191.0 
220.00040553626064 1249.0 NaN 1011.3159652638618 1.8489049258125578 288.0 7.0 192.0 
230.00040553626064 1282.0 NaN 1029.7528390113544 2.1854159666837667 295.0 7.0 198.0 
240.00040553626064 1278.0 NaN 1023.5377421509716 2.2676733585783126 291.0 6.0 197.0 
250.00040553626064 1259.0 NaN 1008.2110888443543 2.505432410973975 285.0 8.0 190.0 
260.00040553626064 1244.0 NaN 1008.0454241816991 2.1752316289828126 286.0 6.0 192.0 
270.00040553626064 1228.0 NaN 1001.8971275885091 2.137631841541732 284.0 6.0 190.0 
280.00040553626064 1229.0 NaN 1014.2338009352012 2.2955443673698888 289.0 6.0 194.0 
290.00040553626064 1205.0 NaN 1004.9485637942544 2.431670584512446 287.0 6.0 191.0 
300.00040553626064 1200.0 NaN 1011.1128924515707 2.2517588529255494 290.0 6.0 193.0 
310.00040553626064 1194.0 NaN 1004.9699398797615 2.028645473239589 279.0 6.0 191.0 
320.00040553626064 1211.0 NaN 1001.9051436205726 1.9728346746708916 281.0 6.0 190.0 
330.00040553626064 1219.0 NaN 1001.9478957915818 2.159323240830538 285.0 6.0 190.0 
340.00040553626064 1198.0 NaN 1011.1396125584513 2.010280103101763 290.0 6.0 193.0 
350.00040553626064 1194.0 NaN 1001.8810955243817 2.2349584624704466 291.0 6.0 190.0 
360.00040553626064 1182.0 NaN 1001.939879759518 2.3718463610661793 290.0 6.0 190.0 
370.00040553626064 1168.0 NaN 1001.8463593854364 2.2679730806753584 287.0 6.0 190.0 
380.00040553626064 1160.0 NaN 1004.8817635270547 1.9679190495790684 290.0 6.0 191.0 
390.00040553626064 1176.0 NaN 980.392785571142 1.9891780830317674 284.0 6.0 183.0 
400.00040553626064 1183.0 NaN 977.360053440215 2.010604476104611 281.0 6.0 182.0 
410.00040553626064 1214.0 NaN 968.2217768871091 2.248105427603676 279.0 7.0 178.0 
420.00040553626064 1212.0 NaN 949.8570474281908 2.416901044469065 268.0 9.0 170.0 
430.00040553626064 1196.0 NaN 940.5584502337997 2.3298639373258623 260.0 10.0 166.0 
440.00040553626064 1204.0 NaN 955.8824315297277 2.3912281149145898 263.0 6.0 175.0 
450.00040553626064 1216.0 NaN 965.1329325317296 2.401624427043958 268.0 6.0 178.0 
460.00040553626064 1229.0 NaN 952.8016032064121 2.2572177330309775 265.0 7.0 173.0 
470.00040553626064 1224.0 NaN 962.060120240482 2.21252706053232 258.0 13.0 170.0 
480.00040553626064 1197.0 NaN 958.9953239812972 2.5181596606059617 256.0 13.0 169.0 
490.00040553626064 1190.0 NaN 958.907147628591 2.331135955053263 254.0 14.0 168.0 
500.00040553626064 1169.0 NaN 955.8156312625273 2.156043462953259 256.0 13.0 168.0 
510.00040553626064 1160.0 NaN 934.3299933199725 1.881088925735876 256.0 7.0 167.0 
520.0004055362606 1139.0 NaN 925.0981963927861 1.9706964538883913 255.0 6.0 165.0 
530.0004055362606 1144.0 NaN 915.9679358717451 2.1474997148575126 250.0 6.0 162.0 
540.0004055362606 1144.0 NaN 922.076152304609 1.9430217216506782 250.0 6.0 164.0 
550.0004055362606 1141.0 NaN 912.9325317301274 2.1719897966390422 252.0 6.0 161.0 
560.0004055362606 1152.0 NaN 912.8416833667327 2.1701726486417483 257.0 6.0 161.0 
570.0004055362606 1181.0 NaN 912.873747494991 2.204000769669065 253.0 6.0 161.0 
580.0004055362606 1202.0 NaN 916.0374081496318 2.285556469938101 254.0 6.0 162.0 
590.0004055362606 1196.0 NaN 919.1075484301945 2.2804329936133536 257.0 6.0 163.0 
600.0004055362606 1198.0 NaN 937.5283901135597 2.2420740695329417 265.0 6.0 169.0 
610.0004055362606 1223.0 NaN 943.6098864395453 2.151927939490681 267.0 6.0 171.0 
620.0004055362606 1231.0 NaN 959.0060120240493 2.366048004437364 271.0 6.0 176.0 
630.0004055362606 1239.0 NaN 962.1002004008002 2.512513487577808 270.0 6.0 177.0 
640.0004055362606 1294.0 NaN 992.9779559118238 2.4574096647306605 267.0 11.0 182.0 
650.0004055362606 1314.0 NaN 998.9686038744155 2.601278178262507 282.0 6.0 189.0 
660.0004055362606 1293.0 NaN 1008.28590514362 2.5452228097145135 279.0 12.0 186.0 
#####################################################################
# End of data export. Simulation finished at: 2019-03-01T21:41+0000 #
#####################################################################
