#####################################################################
# Alchemist log file - simulation started at: 2019-03-03T03:34+0000 #
#####################################################################
# seed = 1.0, bandwidth = 17782.79410038923, propagationDelay = 1.0, baserange = 17.78279410038923
#
# The columns have the following meaning: 
# time neighbor_count[Sum] <value>@neighbor_count[Sum] packet_size[Mean] mean_delay[Mean] crowd[Sum] overcrowded[Sum] risk[Sum] 
0.0 NaN NaN NaN NaN NaN NaN NaN 
10.000417374280275 1120.0 NaN 4992.45156980628 1.1711041152953479 1494.0 3.0 1494.0 
20.000417374280275 1126.0 NaN 4990.907147628591 1.2619019121755022 1490.0 7.0 1490.0 
30.000417374280275 1138.0 NaN 4990.845691382766 1.3541352943350555 1490.0 7.0 1490.0 
40.000417374280275 1149.0 NaN 4990.98997995992 1.298750070856212 1490.0 7.0 1490.0 
50.000417374280275 1174.0 NaN 4991.011356045424 1.48991966791293 1490.0 7.0 1490.0 
60.000417374280275 1197.0 NaN 4991.011356045424 1.7199378367459537 1490.0 7.0 1490.0 
70.00041737428027 1200.0 NaN 986.7468269873094 1.8050926097213942 373.0 6.0 185.0 
80.00041737428027 1184.0 NaN 989.7207748831003 1.871247668144342 322.0 6.0 186.0 
90.00041737428027 1166.0 NaN 995.9652638610543 1.5532849858707838 295.0 6.0 188.0 
100.00041737428027 1181.0 NaN 1005.1676686706725 1.7537453583606815 289.0 6.0 191.0 
110.00041737428027 1184.0 NaN 1008.162992651973 1.9179330625667113 290.0 6.0 192.0 
120.00041737428027 1191.0 NaN 1002.0280561122258 1.984576780798557 287.0 6.0 190.0 
130.0004173742803 1189.0 NaN 1014.2418169672649 1.9993537606941827 288.0 6.0 194.0 
140.0004173742803 1173.0 NaN 1014.3941215764838 1.7548575754782996 280.0 6.0 194.0 
150.0004173742803 1213.0 NaN 1023.5911823647269 1.823235238789977 282.0 6.0 197.0 
160.0004173742803 1245.0 NaN 1020.4996659986635 1.7144350670868191 286.0 6.0 196.0 
170.0004173742803 1253.0 NaN 1020.454241816965 1.8806801691539972 290.0 6.0 196.0 
180.0004173742803 1250.0 NaN 1008.1389445557803 2.055621175238123 288.0 6.0 192.0 
190.0004173742803 1224.0 NaN 1011.2277889111542 1.8729663901854343 286.0 6.0 193.0 
200.0004173742803 1227.0 NaN 999.0113560454258 1.88578256884299 285.0 6.0 189.0 
210.0004173742803 1238.0 NaN 1005.0848363393454 2.0884800275549664 292.0 6.0 191.0 
220.0004173742803 1239.0 NaN 1014.2818971275896 1.980694274645092 290.0 12.0 188.0 
230.0004173742803 1239.0 NaN 1023.4148296593181 2.2539263387784794 286.0 11.0 192.0 
240.0004173742803 1240.0 NaN 1029.6646626586535 2.2093489816105802 292.0 6.0 199.0 
250.0004173742803 1222.0 NaN 1008.2030728122908 2.1920654409046803 286.0 6.0 192.0 
260.0004173742803 1206.0 NaN 1014.2685370741466 2.00391674604926 283.0 6.0 194.0 
270.0004173742803 1216.0 NaN 1008.098864395456 1.8971012401739917 290.0 6.0 192.0 
280.0004173742803 1208.0 NaN 992.7080828323296 2.2566058852197735 289.0 6.0 187.0 
290.0004173742803 1200.0 NaN 1004.9859719438892 2.482061983724752 288.0 6.0 191.0 
300.0004173742803 1175.0 NaN 998.859051436207 2.0460310506177715 283.0 6.0 189.0 
310.0004173742803 1174.0 NaN 1008.1362725450911 1.7170690902909131 279.0 6.0 192.0 
320.0004173742803 1194.0 NaN 995.8637274549089 2.048914131194121 287.0 6.0 188.0 
330.0004173742803 1184.0 NaN 1005.0607882431545 2.0196323401800345 291.0 6.0 191.0 
340.0004173742803 1184.0 NaN 1005.0153640614545 1.9206768493134838 293.0 6.0 191.0 
350.0004173742803 1170.0 NaN 995.8156312625272 2.217990642381314 290.0 6.0 188.0 
360.0004173742803 1158.0 NaN 998.8216432865726 2.424645155212985 291.0 6.0 189.0 
370.0004173742803 1145.0 NaN 992.812291249164 2.056499060398417 287.0 6.0 187.0 
380.0004173742803 1145.0 NaN 977.3627254509003 2.008350066926796 281.0 6.0 182.0 
390.0004173742803 1150.0 NaN 962.0841683366726 2.018526685841941 277.0 6.0 177.0 
400.0004173742803 1174.0 NaN 959.0407481629911 2.028679133456988 275.0 6.0 176.0 
410.0004173742803 1173.0 NaN 946.754843019373 2.3583784801855554 268.0 6.0 172.0 
420.0004173742803 1182.0 NaN 934.5090180360729 2.2531434596242423 259.0 12.0 162.0 
430.0004173742803 1157.0 NaN 934.4956579826334 1.9868776216718391 260.0 6.0 168.0 
440.0004173742803 1180.0 NaN 959.0541082164335 2.1876785617242125 267.0 6.0 176.0 
450.0004173742803 1189.0 NaN 974.3513694054799 2.174138051082688 270.0 6.0 181.0 
460.0004173742803 1202.0 NaN 968.1923847695384 2.235728443998747 259.0 12.0 173.0 
470.0004173742803 1167.0 NaN 965.0955243820978 2.0165412592893803 255.0 19.0 165.0 
480.0004173742803 1160.0 NaN 965.1169004676001 2.3855939420377714 254.0 17.0 167.0 
490.0004173742803 1165.0 NaN 955.8877755511 2.1771687530067276 254.0 18.0 163.0 
500.0004173742803 1147.0 NaN 946.6452905811634 1.9262130354636744 251.0 17.0 161.0 
510.0004173742803 1152.0 NaN 931.2919171676684 2.049666746982618 262.0 7.0 166.0 
520.0004173742802 1140.0 NaN 919.0086840347365 2.2152686476913566 254.0 6.0 163.0 
530.0004173742802 1125.0 NaN 912.8817635270547 2.158520426298013 245.0 6.0 161.0 
540.0004173742802 1143.0 NaN 922.1589846359366 2.14390480869389 250.0 6.0 164.0 
550.0004173742802 1122.0 NaN 912.92718770875 2.0835414801903878 252.0 6.0 161.0 
560.0004173742802 1136.0 NaN 909.8142952571818 2.096647550087988 253.0 6.0 160.0 
570.0004173742802 1173.0 NaN 912.967267869072 2.3383251203551834 258.0 6.0 161.0 
580.0004173742802 1171.0 NaN 925.231796927187 2.2443803801163607 256.0 6.0 165.0 
590.0004173742802 1182.0 NaN 931.38543754175 2.202152108072637 264.0 6.0 167.0 
600.0004173742802 1176.0 NaN 952.8016032064131 2.3268630188164496 269.0 6.0 174.0 
610.0004173742802 1179.0 NaN 943.6098864395453 2.15835154752331 269.0 6.0 171.0 
620.0004173742802 1189.0 NaN 974.3647294589183 2.2897638495225268 272.0 6.0 181.0 
630.0004173742802 1219.0 NaN 974.4021376085511 2.187002043831166 269.0 6.0 181.0 
640.0004173742802 1252.0 NaN 971.3587174348695 2.324096171781191 270.0 7.0 179.0 
650.0004173742802 1256.0 NaN 989.814295257182 2.613820986735638 268.0 16.0 176.0 
660.0004173742802 1252.0 NaN 1008.3072812291255 2.49484987666752 274.0 17.0 181.0 
#####################################################################
# End of data export. Simulation finished at: 2019-03-03T03:39+0000 #
#####################################################################
