#####################################################################
# Alchemist log file - simulation started at: 2019-03-04T20:18+0000 #
#####################################################################
# seed = 1.0, bandwidth = 1000.0, accessPointCount = 274.2481756762073, baserange = 177.82794100389228
#
# The columns have the following meaning: 
# time neighbor_count[Sum] <value>@neighbor_count[Sum] packet_size[Mean] mean_delay[Mean] crowd[Sum] overcrowded[Sum] risk[Sum] 
0.0 NaN NaN NaN NaN NaN NaN NaN 
10.000417374280275 109.0 57.0 4984.415584415585 4.0186509163087125 1497.0 0.0 1497.0 
20.000417374280275 411.0 171.0 4984.844720496894 5.944640620770689 1497.0 0.0 1497.0 
30.000417374280275 592.0 214.0 4985.025409373236 8.64012472062797 1497.0 0.0 1497.0 
40.000417374280275 878.0 267.0 4985.404856013552 9.204076781501783 1497.0 0.0 1497.0 
50.000417374280275 961.0 280.0 4985.321287408244 10.273538578799174 1497.0 0.0 1497.0 
60.000417374280275 1000.0 289.0 4985.352907961604 12.022634433464027 1497.0 0.0 1497.0 
70.0001875928288 1029.0 289.0 441.54488989271584 5.7024071277935535 96.0 0.0 16.0 
80.0001875928288 1758.0 346.0 547.7560700169388 3.6369826536180274 107.0 0.0 57.0 
90.0001875928288 2131.0 354.0 584.2145680406555 3.5930540912541127 104.0 0.0 71.0 
100.0001875928288 2298.0 379.0 584.3478260869551 4.3408105460726 96.0 0.0 71.0 
110.0001875928288 2320.0 373.0 625.8407679277236 3.75835870392396 110.0 0.0 87.0 
120.0001875928288 3319.0 423.0 781.2377188029373 3.6455018548573834 171.0 0.0 147.0 
130.00018759282878 3868.0 471.0 828.2936194240524 4.498570216986451 198.0 0.0 165.0 
140.00018759282878 3706.0 466.0 828.252964426876 5.449015552877175 199.0 0.0 165.0 
150.00018759282878 2821.0 428.0 828.5172219085287 4.319234658963421 201.0 0.0 165.0 
160.00018759282878 2611.0 410.0 838.2540937323564 3.308563289109066 201.0 0.0 169.0 
170.00018759282878 2506.0 396.0 832.9734613212846 3.748926221593229 196.0 0.0 167.0 
180.00018759282878 2390.0 386.0 817.2851496329724 3.8918980697360332 191.0 0.0 161.0 
190.00018759282878 2334.0 387.0 804.3229813664568 3.2139131753225008 191.0 0.0 156.0 
200.00018759282878 2443.0 393.0 783.6408808582694 3.572072701453081 178.0 0.0 148.0 
210.00018759282878 2600.0 405.0 638.5996612083579 3.7819499350659047 123.0 0.0 92.0 
220.00018759282878 2643.0 407.0 620.5623941276107 3.511538460347856 123.0 0.0 85.0 
230.00018759282878 3464.0 451.0 758.0914737436451 3.6299323391210843 173.0 0.0 138.0 
240.00018759282878 3870.0 473.0 797.4590626764533 4.39892182586081 204.0 0.0 153.0 
250.00018759282878 4244.0 484.0 862.4551101072825 5.618388526469379 220.0 0.0 178.0 
260.00018759282875 3536.0 442.0 867.6928289102191 6.042762179337301 222.0 0.0 180.0 
270.00018759282875 2934.0 405.0 864.4630152456248 4.915437887176628 212.0 0.0 179.0 
280.00018759282875 2403.0 388.0 856.3749294184065 3.8163081366774305 203.0 0.0 176.0 
290.00018759282875 2426.0 396.0 843.2795031055922 3.5285960515922845 209.0 0.0 171.0 
300.00018759282875 2486.0 402.0 835.498588368155 4.184376307159455 217.0 0.0 168.0 
310.00018759282875 2718.0 415.0 845.9740259740288 3.691724301757811 218.0 0.0 172.0 
320.00018759282875 2641.0 412.0 773.3980801806879 3.7854835136433627 184.0 0.0 144.0 
330.00018759282875 2552.0 405.0 690.5499717673611 3.751156843120002 145.0 0.0 112.0 
340.00018759282875 2838.0 425.0 708.7430830039531 3.5748178442308767 154.0 0.0 119.0 
350.00018759282875 3184.0 442.0 740.0496894409958 3.7824315508414394 170.0 0.0 131.0 
360.00018759282875 3259.0 445.0 745.2557876905668 4.620914639637305 174.0 0.0 133.0 
370.00018759282875 3114.0 433.0 784.2642574816522 4.746165206495469 184.0 0.0 148.0 
380.00018759282875 3163.0 436.0 836.151326933937 4.387334522014166 209.0 0.0 168.0 
390.00018759282875 3377.0 443.0 872.2348955392465 4.343821073621424 217.0 0.0 182.0 
400.00018759282875 3299.0 439.0 861.888198757765 4.161479956822435 225.0 0.0 178.0 
410.00018759282875 2983.0 425.0 861.7684923771876 4.160570239815614 233.0 0.0 178.0 
420.00018759282875 2700.0 415.0 866.7871259175621 4.226475793803127 223.0 0.0 180.0 
430.00018759282875 2586.0 411.0 825.2987012987027 3.919973043847753 204.0 0.0 164.0 
440.00018759282875 2410.0 397.0 747.4714850367029 3.705248691065875 171.0 0.0 134.0 
450.00018759282875 2659.0 411.0 791.457933370979 3.8658695695818577 188.0 0.0 151.0 
460.00018759282875 3077.0 437.0 846.2134387351753 3.3109003392221736 213.0 0.0 172.0 
470.00018759282875 3388.0 462.0 807.4466403162041 4.380126959624205 199.0 0.0 157.0 
480.00018759282875 3125.0 446.0 760.8944099378893 5.5808994129374065 179.0 0.0 139.0 
490.00018759282875 2569.0 412.0 737.4726143421764 4.825952942580058 168.0 0.0 130.0 
500.00018759282875 2314.0 395.0 739.6453980801837 3.790957202298672 162.0 0.0 131.0 
510.00018759282875 2873.0 423.0 807.1936758893281 3.0138480591034047 196.0 0.0 157.0 
520.0001875928288 3085.0 437.0 799.5753811405962 3.7748222194332604 204.0 0.0 154.0 
530.0001875928288 3237.0 438.0 817.7526821005116 3.939716721568756 214.0 0.0 161.0 
540.0001875928288 2987.0 429.0 815.175607001691 3.911496950491763 204.0 0.0 160.0 
550.0001875928288 2875.0 421.0 745.1631846414488 4.215388206534534 168.0 0.0 133.0 
560.0001875928288 2980.0 436.0 781.5313382269878 4.767525405218176 190.0 0.0 147.0 
570.0001875928288 3127.0 443.0 838.5296442687779 4.002965365921198 220.0 0.0 169.0 
580.0001875928288 3350.0 451.0 872.3952569169984 4.268343611040249 233.0 0.0 182.0 
590.0001875928288 3091.0 435.0 885.3077357425174 4.896345842202893 237.0 0.0 187.0 
600.0001875928288 2888.0 421.0 838.7600225861095 4.897130412278061 210.0 0.0 169.0 
610.0001875928288 2588.0 407.0 822.9181253529067 3.946337776146022 197.0 0.0 163.0 
620.0001875928288 2706.0 410.0 820.126482213438 3.548739789103581 200.0 0.0 162.0 
630.0001875928288 2819.0 418.0 791.6860530773586 3.4800902254783357 193.0 0.0 151.0 
640.0001875928288 2963.0 423.0 830.683229813666 3.5773966294753867 212.0 0.0 166.0 
650.0001875928288 3186.0 439.0 833.1902879728951 4.043607138397347 207.0 0.0 167.0 
660.0001875928288 3086.0 431.0 796.9237718802954 4.639589234304443 190.0 0.0 153.0 
#####################################################################
# End of data export. Simulation finished at: 2019-03-04T20:27+0000 #
#####################################################################
