#####################################################################
# Alchemist log file - simulation started at: 2019-03-11T23:54+0000 #
#####################################################################
# seed = 4.0, bandwidth = 1.0E8, accessPointCount = 10.0, baserange = 100.0
#
# The columns have the following meaning: 
# time neighbor_count[Sum] <value>@neighbor_count[Sum] packet_size[Mean] mean_delay[Mean] crowd[Sum] overcrowded[Sum] risk[Sum] 
0.0 NaN NaN NaN NaN NaN NaN NaN 
2.00002053203234 43.0 13.0 4987.8991373589915 0.4382411465147101 1497.0 0.0 1497.0 
4.00002053203234 58.0 13.0 4987.938951559389 0.390176314749457 1497.0 0.0 1497.0 
6.00002053203234 78.0 13.0 4987.891174518912 0.4894875338184443 1497.0 0.0 1497.0 
8.000020532032341 117.0 13.0 4987.981420039814 0.4788380966003643 1497.0 0.0 1497.0 
10.000020532032341 134.0 13.0 4988.002654280027 0.4993784414822482 1497.0 0.0 1497.0 
12.000020532032341 134.0 13.0 4987.99203715992 0.49937840398224825 1496.0 1.0 1496.0 
14.000020532032341 134.0 13.0 4987.978765759788 0.4993785819822482 1496.0 1.0 1496.0 
16.00002053203234 134.0 13.0 4987.968148639681 0.49937887198224823 1496.0 1.0 1496.0 
18.000020532032337 134.0 13.0 4987.954877239549 0.4993789309822488 1496.0 1.0 1496.0 
20.000020532032337 134.0 13.0 4987.957531519575 0.4993788264822488 1496.0 1.0 1496.0 
22.000020532032337 134.0 13.0 4987.973457199734 0.4993788939822487 1496.0 1.0 1496.0 
24.000020532032337 134.0 13.0 4987.954877239549 0.4993789309822488 1496.0 1.0 1496.0 
26.000020532032337 134.0 13.0 4987.957531519575 0.4993788264822488 1496.0 1.0 1496.0 
28.000020532032337 134.0 13.0 4987.973457199734 0.4993788939822487 1496.0 1.0 1496.0 
30.000020532032337 134.0 13.0 4987.954877239549 0.4993789309822488 1496.0 1.0 1496.0 
32.00002053203234 134.0 13.0 4987.957531519575 0.4993788264822488 1496.0 1.0 1496.0 
34.00002053203234 134.0 13.0 4987.973457199734 0.49937889398224905 1496.0 1.0 1496.0 
36.00002053203234 134.0 13.0 4987.954877239549 0.4993789309822491 1496.0 1.0 1496.0 
38.00002053203234 134.0 13.0 4987.957531519575 0.4993788264822493 1496.0 1.0 1496.0 
40.00002053203234 134.0 13.0 4987.973457199734 0.49937889398224905 1496.0 1.0 1496.0 
42.00002053203234 134.0 13.0 4987.954877239549 0.4993789309822491 1496.0 1.0 1496.0 
44.00002053203234 134.0 13.0 4987.957531519575 0.4993788264822493 1496.0 1.0 1496.0 
46.00002053203234 134.0 13.0 4987.973457199734 0.49937889398224905 1496.0 1.0 1496.0 
48.00002053203234 134.0 13.0 4987.954877239549 0.4993789309822491 1496.0 1.0 1496.0 
50.00002053203234 134.0 13.0 4987.957531519575 0.4993788264822493 1496.0 1.0 1496.0 
52.00002053203234 134.0 13.0 4987.973457199734 0.49937889398224905 1496.0 1.0 1496.0 
54.00002053203234 134.0 13.0 4987.954877239549 0.4993789309822491 1496.0 1.0 1496.0 
56.00002053203234 134.0 13.0 4987.957531519575 0.4993788264822493 1496.0 1.0 1496.0 
58.00002053203234 134.0 13.0 4987.973457199734 0.49937889398224905 1496.0 1.0 1496.0 
60.00002053203234 134.0 13.0 4987.954877239549 0.4993789309822491 1496.0 1.0 1496.0 
62.00047933655907 134.0 13.0 430.5719973457201 0.4994508399822495 12.0 1.0 9.0 
64.00042902272939 134.0 13.0 430.57996018579945 0.49945083098224946 6.0 5.0 5.0 
66.00047933655907 134.0 13.0 430.5746516257467 0.49945061248224654 3.0 8.0 2.0 
68.00047933655907 134.0 13.0 430.5613802256137 0.4994508649822457 5.0 6.0 4.0 
70.00047933655907 134.0 13.0 430.5507631055075 0.4994509509822459 5.0 6.0 4.0 
72.00047933655907 134.0 13.0 430.5454545454547 0.4994510779822449 5.0 6.0 4.0 
74.00042902272939 134.0 13.0 430.5454545454547 0.4994510779822449 5.0 6.0 4.0 
76.00047933655907 134.0 13.0 430.5454545454547 0.4994510779822449 5.0 6.0 4.0 
78.00047933655907 134.0 13.0 430.5454545454547 0.4994510779822449 5.0 6.0 4.0 
80.00047933655907 134.0 13.0 430.5454545454547 0.4994510779822449 5.0 6.0 4.0 
82.00047933655907 134.0 13.0 430.5454545454547 0.4994510779822449 5.0 6.0 4.0 
84.00042902272939 134.0 13.0 430.5454545454547 0.4994510779822449 5.0 6.0 4.0 
86.00047933655907 134.0 13.0 430.5454545454547 0.4994510779822449 5.0 6.0 4.0 
88.00047933655907 134.0 13.0 430.5454545454547 0.4994510779822449 5.0 6.0 4.0 
90.00047933655907 134.0 13.0 430.5454545454547 0.4994510779822449 5.0 6.0 4.0 
92.00047933655907 134.0 13.0 430.5454545454547 0.4994510779822449 5.0 6.0 4.0 
94.00042902272939 134.0 13.0 430.5454545454547 0.4994510779822449 5.0 6.0 4.0 
96.00047933655907 134.0 13.0 430.5454545454547 0.4994510779822449 5.0 6.0 4.0 
98.00047933655907 134.0 13.0 430.5454545454547 0.4994510779822449 5.0 6.0 4.0 
100.00047933655907 134.0 13.0 430.5454545454547 0.4994510779822449 5.0 6.0 4.0 
102.00047933655907 134.0 13.0 430.5454545454547 0.4994510779822449 5.0 6.0 4.0 
104.00042902272939 134.0 13.0 430.5454545454547 0.4994510779822449 5.0 6.0 4.0 
106.00047933655907 134.0 13.0 430.5454545454547 0.4994510779822449 5.0 6.0 4.0 
108.00047933655907 134.0 13.0 430.5454545454547 0.4994510779822449 5.0 6.0 4.0 
110.00047933655907 134.0 13.0 430.5454545454547 0.4994510779822449 5.0 6.0 4.0 
112.00047933655907 134.0 13.0 430.5454545454547 0.4994510779822449 5.0 6.0 4.0 
114.00042902272939 134.0 13.0 430.5454545454547 0.4994510779822449 5.0 6.0 4.0 
116.00047933655907 134.0 13.0 430.5454545454547 0.4994510779822449 5.0 6.0 4.0 
118.00047933655907 134.0 13.0 430.5454545454547 0.4994510779822449 5.0 6.0 4.0 
120.00047933655907 134.0 13.0 430.5454545454547 0.4994510779822449 5.0 6.0 4.0 
122.00047933655907 134.0 13.0 430.5454545454547 0.4994510779822449 5.0 6.0 4.0 
124.00042902272939 134.0 13.0 430.5454545454547 0.4994510779822449 5.0 6.0 4.0 
126.00047933655907 134.0 13.0 430.5454545454547 0.4994510779822449 5.0 6.0 4.0 
128.00047933655907 134.0 13.0 430.5454545454547 0.4994510779822449 5.0 6.0 4.0 
130.00047933655907 134.0 13.0 430.5454545454547 0.4994510779822512 5.0 6.0 4.0 
132.00047933655907 134.0 13.0 430.5454545454547 0.4994510779822512 5.0 6.0 4.0 
134.0004290227294 134.0 13.0 430.5454545454547 0.4994510779822512 5.0 6.0 4.0 
136.00047933655907 134.0 13.0 430.5454545454547 0.4994510779822512 5.0 6.0 4.0 
138.00047933655907 134.0 13.0 430.5454545454547 0.4994510779822512 5.0 6.0 4.0 
140.00047933655907 134.0 13.0 430.5454545454547 0.4994510779822512 5.0 6.0 4.0 
142.00047933655907 134.0 13.0 430.5454545454547 0.4994510779822512 5.0 6.0 4.0 
144.0004290227294 134.0 13.0 430.5454545454547 0.4994510779822512 5.0 6.0 4.0 
146.00047933655907 134.0 13.0 430.5454545454547 0.4994510779822512 5.0 6.0 4.0 
148.00047933655907 134.0 13.0 430.5454545454547 0.4994510779822512 5.0 6.0 4.0 
150.00047933655907 134.0 13.0 430.5454545454547 0.4994510779822512 5.0 6.0 4.0 
152.00047933655907 134.0 13.0 430.5454545454547 0.4994510779822512 5.0 6.0 4.0 
154.0004290227294 134.0 13.0 430.5454545454547 0.4994510779822512 5.0 6.0 4.0 
156.00047933655907 134.0 13.0 430.5454545454547 0.4994510779822512 5.0 6.0 4.0 
158.00047933655907 134.0 13.0 430.5454545454547 0.4994510779822512 5.0 6.0 4.0 
160.00047933655907 134.0 13.0 430.5454545454547 0.4994510779822512 5.0 6.0 4.0 
162.00047933655907 134.0 13.0 430.5454545454547 0.4994510779822512 5.0 6.0 4.0 
164.0004290227294 134.0 13.0 430.5454545454547 0.4994510779822512 5.0 6.0 4.0 
166.00047933655907 134.0 13.0 430.5454545454547 0.4994510779822512 5.0 6.0 4.0 
168.00047933655907 134.0 13.0 430.5454545454547 0.4994510779822512 5.0 6.0 4.0 
170.00047933655907 134.0 13.0 430.5454545454547 0.4994510779822512 5.0 6.0 4.0 
172.00047933655907 134.0 13.0 430.5454545454547 0.4994510779822512 5.0 6.0 4.0 
174.0004290227294 134.0 13.0 430.5454545454547 0.4994510779822512 5.0 6.0 4.0 
176.00047933655907 134.0 13.0 430.5454545454547 0.4994510779822512 5.0 6.0 4.0 
178.00047933655907 134.0 13.0 430.5454545454547 0.4994510779822512 5.0 6.0 4.0 
180.00047933655907 134.0 13.0 430.5454545454547 0.4994510779822512 5.0 6.0 4.0 
182.00047933655907 134.0 13.0 430.5454545454547 0.4994510779822512 5.0 6.0 4.0 
184.0004290227294 134.0 13.0 430.5454545454547 0.4994510779822512 5.0 6.0 4.0 
186.00047933655907 134.0 13.0 430.5454545454547 0.4994510779822512 5.0 6.0 4.0 
188.00047933655907 134.0 13.0 430.5454545454547 0.4994510779822512 5.0 6.0 4.0 
190.00047933655907 134.0 13.0 430.5454545454547 0.4994510779822512 5.0 6.0 4.0 
192.00047933655907 134.0 13.0 430.5454545454547 0.4994510779822512 5.0 6.0 4.0 
194.0004290227294 134.0 13.0 430.5454545454547 0.4994510779822512 5.0 6.0 4.0 
196.00047933655907 134.0 13.0 430.5454545454547 0.4994510779822512 5.0 6.0 4.0 
198.00047933655907 134.0 13.0 430.5454545454547 0.4994510779822512 5.0 6.0 4.0 
200.00047933655907 134.0 13.0 430.5454545454547 0.4994510779822512 5.0 6.0 4.0 
202.00047933655907 134.0 13.0 430.5454545454547 0.4994510779822512 5.0 6.0 4.0 
204.0004290227294 156.0 15.0 433.5978765759785 0.49296765550424676 6.0 6.0 5.0 
206.00047933655907 160.0 15.0 433.6270736562706 0.49974966167506346 4.0 8.0 3.0 
208.00047933655907 162.0 16.0 433.6111479761116 0.49459889020341563 3.0 9.0 2.0 
210.00047933655907 162.0 16.0 433.6138022561383 0.4945989722799714 6.0 6.0 5.0 
212.00047933655907 162.0 16.0 433.5978765759785 0.4945990158015025 6.0 6.0 5.0 
214.0004290227294 162.0 16.0 433.6031851360321 0.4945990270806094 6.0 6.0 5.0 
216.00047933655907 162.0 16.0 433.5978765759785 0.49459906736769077 6.0 6.0 5.0 
218.00047933655907 166.0 16.0 433.5978765759785 0.5052361965022767 6.0 6.0 5.0 
220.00047933655907 166.0 16.0 433.5978765759785 0.5052361965022767 6.0 6.0 5.0 
222.00047933655907 166.0 16.0 433.5978765759785 0.5052361965022767 6.0 6.0 5.0 
224.0004290227294 166.0 16.0 433.60849369608485 0.5867231991306687 5.0 7.0 4.0 
226.00047933655907 148.0 15.0 433.5952222959518 0.6426593646348471 6.0 6.0 5.0 
228.00047933655907 150.0 15.0 433.5899137358991 0.49984774708875845 7.0 6.0 5.0 
230.00047933655907 150.0 15.0 433.5899137358991 0.49984774708875845 7.0 6.0 5.0 
232.00047933655907 150.0 15.0 433.5899137358991 0.49984774708875845 7.0 6.0 5.0 
234.0004290227294 150.0 15.0 433.5899137358991 0.49984774708875845 7.0 6.0 5.0 
236.00047933655907 150.0 15.0 433.5899137358991 0.49984774708875845 7.0 6.0 5.0 
238.00047933655907 150.0 15.0 433.5899137358991 0.5229958952369066 7.0 6.0 5.0 
240.00047933655907 148.0 15.0 433.5899137358991 0.5026388709923334 7.0 6.0 5.0 
242.00047933655907 148.0 15.0 433.5899137358991 0.5026388709923334 7.0 6.0 5.0 
244.0004290227294 148.0 15.0 433.5899137358991 0.5026388709923334 7.0 6.0 5.0 
246.00047933655907 148.0 15.0 433.5899137358991 0.5026388709923334 7.0 6.0 5.0 
248.00047933655907 148.0 15.0 433.5899137358991 0.5026388709923334 7.0 6.0 5.0 
250.00047933655907 148.0 15.0 433.5899137358991 0.5026388709923334 7.0 6.0 5.0 
252.00047933655907 148.0 15.0 433.5899137358991 0.5026388709923334 7.0 6.0 5.0 
254.0004290227294 148.0 15.0 433.5899137358991 0.5026388709923334 7.0 6.0 5.0 
256.00047933655907 148.0 15.0 433.5899137358991 0.5026388709923334 7.0 6.0 5.0 
258.00047933655907 148.0 15.0 433.5899137358991 0.5026388709923396 7.0 6.0 5.0 
260.00047933655907 148.0 15.0 433.5899137358991 0.5026388709923396 7.0 6.0 5.0 
262.00047933655907 148.0 15.0 433.5899137358991 0.5026388709923396 7.0 6.0 5.0 
264.0004290227294 148.0 15.0 433.5899137358991 0.5026388709923396 7.0 6.0 5.0 
266.00047933655907 148.0 15.0 433.5899137358991 0.5026388709923396 7.0 6.0 5.0 
268.00047933655907 148.0 15.0 433.5899137358991 0.5026388709923396 7.0 6.0 5.0 
270.00047933655907 148.0 15.0 433.5899137358991 0.5026388709923396 7.0 6.0 5.0 
272.00047933655907 148.0 15.0 433.5899137358991 0.5026388709923396 7.0 6.0 5.0 
274.0004290227294 148.0 15.0 433.5899137358991 0.5026388709923396 7.0 6.0 5.0 
276.00047933655907 148.0 15.0 433.5899137358991 0.5026388709923396 7.0 6.0 5.0 
278.00047933655907 148.0 15.0 433.5899137358991 0.5026388709923396 7.0 6.0 5.0 
280.00047933655907 148.0 15.0 433.5899137358991 0.5026388709923396 7.0 6.0 5.0 
282.00047933655907 148.0 15.0 433.5899137358991 0.5026388709923396 7.0 6.0 5.0 
284.0004290227294 148.0 15.0 430.5454545454547 0.5026388709923396 6.0 6.0 4.0 
286.00047933655907 148.0 15.0 430.5454545454547 0.5026388709923396 6.0 6.0 4.0 
288.00047933655907 148.0 15.0 430.5454545454547 0.5026388709923396 6.0 6.0 4.0 
290.00047933655907 148.0 15.0 430.5454545454547 0.5026388709923396 6.0 6.0 4.0 
292.00047933655907 148.0 15.0 430.5454545454547 0.5026388709923396 6.0 6.0 4.0 
294.0004290227294 148.0 15.0 430.5454545454547 0.5026388709923396 6.0 6.0 4.0 
296.00047933655907 148.0 15.0 430.5454545454547 0.5026388709923396 6.0 6.0 4.0 
298.00047933655907 148.0 15.0 430.5454545454547 0.5026388709923396 6.0 6.0 4.0 
300.00047933655907 148.0 15.0 430.5454545454547 0.5026388709923396 6.0 6.0 4.0 
302.00047933655907 148.0 15.0 430.5454545454547 0.5026388709923396 6.0 6.0 4.0 
304.0004290227294 148.0 15.0 430.5454545454547 0.5026388709923396 6.0 6.0 4.0 
306.00047933655907 148.0 15.0 430.5454545454547 0.5026388709923396 6.0 6.0 4.0 
308.00047933655907 148.0 15.0 430.5454545454547 0.5026388709923396 6.0 6.0 4.0 
310.00047933655907 148.0 15.0 430.5454545454547 0.5026388709923396 6.0 6.0 4.0 
312.00047933655907 148.0 15.0 430.5454545454547 0.5026388709923396 6.0 6.0 4.0 
314.0004290227294 148.0 15.0 430.5454545454547 0.5026388709923396 6.0 6.0 4.0 
316.00047933655907 148.0 15.0 430.5454545454547 0.5026388709923396 6.0 6.0 4.0 
318.00047933655907 148.0 15.0 430.5454545454547 0.5026388709923396 6.0 6.0 4.0 
320.00047933655907 148.0 15.0 430.5454545454547 0.5026388709923396 6.0 6.0 4.0 
322.00047933655907 148.0 15.0 430.5454545454547 0.5026388709923396 6.0 6.0 4.0 
324.0004290227294 148.0 15.0 430.5454545454547 0.5026388709923396 6.0 6.0 4.0 
326.00047933655907 148.0 15.0 430.5454545454547 0.5026388709923396 6.0 6.0 4.0 
328.00047933655907 148.0 15.0 430.5454545454547 0.5026388709923396 6.0 6.0 4.0 
330.00047933655907 148.0 15.0 430.5454545454547 0.5026388709923396 6.0 6.0 4.0 
332.00047933655907 148.0 15.0 430.5454545454547 0.5026388709923396 6.0 6.0 4.0 
334.0004290227294 150.0 15.0 430.5454545454547 0.49597645538426643 6.0 6.0 4.0 
336.00047933655907 152.0 16.0 430.5454545454547 0.5024991409401134 6.0 6.0 4.0 
338.00047933655907 152.0 16.0 430.5454545454547 0.5024991409401134 6.0 6.0 4.0 
340.00047933655907 152.0 16.0 430.5454545454547 0.5024991409401134 6.0 6.0 4.0 
342.00047933655907 157.0 17.0 433.60583941605836 0.4947321368294954 7.0 6.0 5.0 
344.0004290227294 158.0 17.0 433.589913735899 0.5023661018930998 9.0 6.0 5.0 
346.00047933655907 158.0 17.0 433.589913735899 0.5023661018930998 8.0 6.0 5.0 
348.00047933655907 158.0 17.0 433.589913735899 0.5023661018930998 8.0 6.0 5.0 
350.00047933655907 160.0 17.0 433.589913735899 0.49886940375350836 9.0 6.0 5.0 
352.00047933655907 166.0 18.0 433.589913735899 0.5260592456124763 10.0 6.0 5.0 
354.0004290227294 165.0 18.0 433.589913735899 0.5686997254009737 10.0 6.0 5.0 
356.00047933655907 160.0 18.0 433.589913735899 0.5516425632540558 9.0 6.0 5.0 
358.00047933655907 158.0 18.0 433.59522229595206 0.5812777020115849 6.0 6.0 5.0 
360.00047933655907 152.0 18.0 433.589913735899 0.5001971314125317 7.0 6.0 5.0 
362.00047933655907 155.0 19.0 433.589913735899 0.6877040865373039 7.0 6.0 5.0 
364.0004290227294 149.0 17.0 433.589913735899 0.7950499251152117 7.0 6.0 5.0 
366.00047933655907 142.0 16.0 433.589913735899 0.6618227674037717 6.0 6.0 5.0 
368.00047933655907 140.0 15.0 433.59522229595206 0.6095995808149465 6.0 6.0 5.0 
370.00047933655907 138.0 14.0 433.589913735899 0.5288941712774217 6.0 6.0 5.0 
372.00047933655907 137.0 14.0 433.589913735899 0.7453814199282754 6.0 6.0 5.0 
374.0004290227294 134.0 13.0 433.589913735899 0.4994510779822584 6.0 6.0 5.0 
376.00047933655907 134.0 13.0 433.589913735899 0.4994510779822584 6.0 6.0 5.0 
378.00047933655907 134.0 13.0 433.59522229595206 0.4994510429822578 6.0 6.0 5.0 
380.00047933655907 136.0 14.0 433.589913735899 0.47708649968091094 6.0 6.0 5.0 
382.00047933655907 138.0 14.0 433.589913735899 0.49948242633624557 6.0 6.0 5.0 
384.0004290227294 138.0 14.0 433.589913735899 0.49948242633624557 6.0 6.0 5.0 
386.00047933655907 144.0 15.0 433.589913735899 0.4995098470953338 6.0 6.0 5.0 
388.00047933655907 144.0 15.0 433.59522229595206 0.4995098159842221 6.0 6.0 5.0 
390.00047933655907 152.0 16.0 445.80225613802264 0.4995049974587434 10.0 6.0 9.0 
392.00047933655907 156.0 16.0 445.8394160583943 0.4892767416546987 11.0 6.0 9.0 
394.0004290227294 174.0 18.0 451.9469143994691 0.4994972917960022 12.0 6.0 11.0 
396.00047933655907 188.0 19.0 455.03118779031183 0.4994969060650172 13.0 6.0 12.0 
398.00047933655907 188.0 19.0 455.017916390179 0.49948819489618534 13.0 6.0 12.0 
400.00047933655907 188.0 19.0 454.99137358991385 0.5384492974935894 13.0 6.0 12.0 
402.00047933655907 185.0 19.0 455.01260783012606 0.49793590314334146 13.0 6.0 12.0 
404.0004290227294 186.0 19.0 451.9389515593896 0.5002143345864001 12.0 6.0 11.0 
406.00047933655907 188.0 19.0 451.93629727936286 0.5384494629481331 12.0 6.0 11.0 
408.00047933655907 184.0 19.0 451.94426011944273 0.49824263879689823 12.0 6.0 11.0 
410.00047933655907 184.0 19.0 451.91506303915077 0.5588487061908382 12.0 6.0 11.0 
412.00047933655907 177.0 19.0 451.9495686794959 0.5367380716440384 12.0 6.0 11.0 
414.0004290227294 182.0 19.0 451.94426011944273 0.5364507930836677 12.0 6.0 11.0 
416.00047933655907 180.0 19.0 451.91771731917703 0.7542234016271424 12.0 6.0 11.0 
418.00047933655907 156.0 17.0 451.9389515593896 0.508226349001946 12.0 6.0 11.0 
420.00047933655907 156.0 17.0 451.8779031187792 0.6157319670019451 12.0 6.0 11.0 
422.00047933655907 148.0 16.0 451.9124087591239 0.5080202943924924 12.0 6.0 11.0 
424.0004290227294 148.0 16.0 451.888520238885 0.560651881760913 12.0 6.0 11.0 
426.00047933655907 150.0 17.0 451.91506303915077 0.5016962416154307 13.0 6.0 11.0 
428.00047933655907 150.0 17.0 451.8991373589913 0.501695201615432 13.0 6.0 11.0 
430.00047933655907 150.0 17.0 451.91506303915077 0.5616999883487631 13.0 6.0 11.0 
432.00047933655907 146.0 16.0 451.90179163901803 0.6825872848310921 13.0 6.0 11.0 
434.0004290227294 143.0 16.0 451.8699402786993 0.744868977205603 13.0 6.0 11.0 
436.00047933655907 138.0 14.0 451.8619774386197 0.49947702868918487 13.0 6.0 11.0 
438.00047933655907 138.0 14.0 451.8566688785666 0.49947702868918487 13.0 6.0 11.0 
440.00047933655907 138.0 14.0 451.8566688785666 0.49947702868918487 13.0 6.0 11.0 
442.00047933655907 138.0 14.0 451.8566688785666 0.49947702868918487 13.0 6.0 11.0 
444.0004290227294 138.0 14.0 451.8566688785666 0.49947702868918487 13.0 6.0 11.0 
446.00047933655907 139.0 14.0 451.8566688785666 0.49387820629882334 13.0 6.0 11.0 
448.00047933655907 150.0 16.0 451.8566688785666 0.4974857164454251 15.0 6.0 11.0 
450.00047933655907 154.0 16.0 451.8566688785666 0.4870149855090206 15.0 6.0 11.0 
452.00047933655907 158.0 17.0 451.8566688785666 0.49552720909272086 15.0 6.0 11.0 
454.0004290227294 158.0 17.0 451.8566688785666 0.49552720909272086 15.0 6.0 11.0 
456.00047933655907 158.0 17.0 451.8566688785666 0.5755297336927179 14.0 6.0 11.0 
458.00047933655907 152.0 16.0 454.919708029197 0.49951457935347837 15.0 6.0 12.0 
460.00047933655907 152.0 16.0 454.9409422694092 0.5258303161955823 14.0 6.0 12.0 
462.00047933655907 150.0 16.0 451.88321167883186 0.5481576564919715 13.0 6.0 11.0 
464.0004290227294 148.0 16.0 451.89648307896505 0.4892855483234033 13.0 6.0 11.0 
466.00047933655907 148.0 16.0 451.89648307896505 0.4892855188497184 13.0 6.0 11.0 
468.00047933655907 148.0 16.0 445.7783676177837 0.48929362972691126 13.0 6.0 9.0 
470.00047933655907 148.0 16.0 445.7677504976776 0.541926447130418 12.0 6.0 9.0 
472.00047933655907 146.0 16.0 445.7677504976776 0.5602395893405163 12.0 6.0 9.0 
474.0004290227294 144.0 15.0 442.72329130723284 0.4995022004286676 11.0 6.0 8.0 
476.00047933655907 144.0 15.0 439.67883211678827 0.4995022004286676 10.0 6.0 7.0 
478.00047933655907 144.0 15.0 433.595222295952 0.610613280428667 8.0 6.0 5.0 
480.00047933655907 140.0 15.0 433.589913735899 0.49682697961863914 7.0 6.0 5.0 
482.00047933655907 140.0 15.0 433.589913735899 0.49682699828530613 7.0 6.0 5.0 
484.0004290227294 140.0 15.0 433.589913735899 0.49682699828530613 7.0 6.0 5.0 
486.00047933655907 144.0 16.0 433.589913735899 0.4900149660836287 7.0 6.0 5.0 
488.00047933655907 148.0 17.0 433.595222295952 0.6999611656792719 7.0 6.0 5.0 
490.00047933655907 145.0 15.0 436.65029860650293 0.4960635477565358 7.0 6.0 6.0 
492.00047933655907 152.0 16.0 445.8314532183145 0.49949518145874383 10.0 6.0 9.0 
494.0004290227294 152.0 16.0 445.82083609820836 0.49949514566926945 10.0 6.0 9.0 
496.00047933655907 152.0 16.0 445.82083609820836 0.4994951625113724 10.0 6.0 9.0 
498.00047933655907 152.0 16.0 445.8049104180491 0.499495200406112 10.0 6.0 9.0 
500.00047933655907 152.0 16.0 445.8394160583943 0.4994950774587416 10.0 6.0 9.0 
502.00047933655907 152.0 16.0 445.7916390179165 0.49949516672189903 10.0 6.0 9.0 
504.0004290227294 152.0 16.0 445.8367617783675 0.49949514356400687 10.0 6.0 9.0 
506.00047933655907 152.0 16.0 445.82083609820836 0.5521266698797935 10.0 6.0 9.0 
508.00047933655907 150.0 16.0 445.7916390179165 0.5038360056666453 10.0 6.0 9.0 
510.00047933655907 150.0 16.0 445.8155275381554 0.5038359255262943 10.0 6.0 9.0 
512.000479336559 150.0 16.0 445.82614465826134 0.565239400754364 10.0 6.0 9.0 
514.0004290227293 148.0 16.0 445.799601857996 0.5059947123108678 10.0 6.0 9.0 
516.000479336559 148.0 16.0 445.8102189781023 0.6024888909073596 10.0 6.0 9.0 
518.000479336559 142.0 15.0 445.8367617783675 0.5177445246583708 10.0 6.0 9.0 
520.000479336559 141.0 15.0 445.78898473788985 0.5664508418202451 10.0 6.0 9.0 
522.000479336559 140.0 15.0 445.7783676177837 0.7055052383311868 10.0 6.0 9.0 
524.0004290227293 136.0 14.0 445.7730590577306 0.5086490837950189 10.0 6.0 9.0 
526.000479336559 136.0 14.0 442.72329130723284 0.5086490885009017 9.0 6.0 8.0 
528.000479336559 136.0 14.0 442.728599867286 0.5380622873244307 9.0 6.0 8.0 
530.000479336559 135.0 13.0 442.72329130723284 0.6272688733790286 9.0 6.0 8.0 
532.000479336559 134.0 13.0 442.72329130723284 0.4994482104822609 9.0 6.0 8.0 
534.0004290227293 134.0 13.0 442.72329130723284 0.4994482104822609 9.0 6.0 8.0 
536.000479336559 134.0 13.0 442.72329130723284 0.4994482104822609 9.0 6.0 8.0 
538.000479336559 134.0 13.0 442.728599867286 0.4994481754822603 9.0 6.0 8.0 
540.000479336559 134.0 13.0 442.72329130723284 0.4994481894822605 9.0 6.0 8.0 
542.000479336559 134.0 13.0 442.72329130723284 0.4994482104822609 9.0 6.0 8.0 
544.0004290227293 134.0 13.0 442.72329130723284 0.4994482104822609 9.0 6.0 8.0 
546.000479336559 134.0 13.0 442.72329130723284 0.4994482104822609 9.0 6.0 8.0 
548.000479336559 134.0 13.0 442.728599867286 0.4994481754822603 9.0 6.0 8.0 
550.000479336559 134.0 13.0 442.72329130723284 0.4994481894822605 9.0 6.0 8.0 
552.000479336559 134.0 13.0 442.72329130723284 0.4994482104822609 9.0 6.0 8.0 
554.0004290227293 134.0 13.0 442.72329130723284 0.5619482104822608 9.0 6.0 8.0 
556.000479336559 133.0 12.0 442.72329130723284 0.642044231039143 9.0 6.0 8.0 
558.000479336559 132.0 12.0 442.728599867286 0.49937319197972574 9.0 6.0 8.0 
560.000479336559 132.0 12.0 436.6343729263437 0.499373207979726 7.0 6.0 6.0 
562.000479336559 132.0 12.0 436.6343729263437 0.49937323197972644 7.0 6.0 6.0 
564.0004290227293 132.0 12.0 433.589913735899 0.49937323197972644 6.0 6.0 5.0 
566.000479336559 132.0 12.0 433.589913735899 0.49937323197972644 6.0 6.0 5.0 
568.000479336559 132.0 12.0 433.5952222959519 0.49937319197972574 6.0 6.0 5.0 
570.000479336559 132.0 12.0 430.5454545454547 0.499373207979726 5.0 6.0 4.0 
572.000479336559 134.0 13.0 430.5454545454547 0.4994510779822619 5.0 6.0 4.0 
574.0004290227293 134.0 13.0 430.5454545454547 0.4994510779822619 5.0 6.0 4.0 
576.000479336559 134.0 13.0 430.5454545454547 0.4994510779822619 5.0 6.0 4.0 
578.000479336559 134.0 13.0 430.5507631055075 0.4994510429822613 5.0 6.0 4.0 
580.000479336559 134.0 13.0 430.5454545454547 0.4994510569822615 5.0 6.0 4.0 
582.000479336559 134.0 13.0 430.5454545454547 0.4994510779822619 5.0 6.0 4.0 
584.0004290227293 134.0 13.0 430.5454545454547 0.4994510779822619 5.0 6.0 4.0 
586.000479336559 134.0 13.0 430.5454545454547 0.4994510779822619 5.0 6.0 4.0 
588.000479336559 134.0 13.0 430.5507631055075 0.4994510429822613 5.0 6.0 4.0 
590.000479336559 134.0 13.0 430.5454545454547 0.4994510569822615 5.0 6.0 4.0 
592.000479336559 138.0 14.0 430.5454545454547 0.49948242633624884 5.0 6.0 4.0 
594.0004290227293 138.0 14.0 430.5454545454547 0.49948242633624884 5.0 6.0 4.0 
596.000479336559 138.0 14.0 430.5454545454547 0.49948242633624884 5.0 6.0 4.0 
598.000479336559 138.0 14.0 430.5507631055075 0.4994823933950718 5.0 6.0 4.0 
600.000479336559 138.0 14.0 430.5454545454547 0.49948240657154264 5.0 6.0 4.0 
602.000479336559 138.0 14.0 430.5454545454547 0.6171294851597783 5.0 6.0 4.0 
604.0004290227293 136.0 14.0 430.5454545454547 0.4968834555206546 5.0 6.0 4.0 
606.000479336559 136.0 14.0 430.5454545454547 0.4968834555206546 5.0 6.0 4.0 
608.000479336559 136.0 14.0 430.5507631055075 0.4968834225794776 5.0 6.0 4.0 
610.000479336559 136.0 14.0 430.5454545454547 0.4968834357559484 5.0 6.0 4.0 
612.000479336559 136.0 14.0 430.5454545454547 0.6145308672853597 5.0 6.0 4.0 
614.0004290227293 134.0 13.0 430.5454545454547 0.4994510779822619 5.0 6.0 4.0 
616.000479336559 134.0 13.0 430.5454545454547 0.4994510779822619 5.0 6.0 4.0 
618.000479336559 136.0 14.0 430.5507631055075 0.4994187758943247 5.0 6.0 4.0 
620.000479336559 136.0 14.0 430.5454545454547 0.4994187890707955 5.0 6.0 4.0 
622.000479336559 136.0 14.0 430.5454545454547 0.49941880883550177 5.0 6.0 4.0 
624.0004290227293 136.0 14.0 430.5454545454547 0.49941880883550177 5.0 6.0 4.0 
626.000479336559 136.0 14.0 430.5454545454547 0.49941880883550177 5.0 6.0 4.0 
628.000479336559 136.0 14.0 430.5454545454547 0.49941880883550177 5.0 6.0 4.0 
630.000479336559 136.0 14.0 430.5454545454547 0.49941880883550177 5.0 6.0 4.0 
632.000479336559 136.0 14.0 430.5454545454547 0.6758897500119715 5.0 6.0 4.0 
634.0004290227293 136.0 14.0 430.5454545454547 0.4995116248731228 5.0 6.0 4.0 
636.000479336559 136.0 14.0 430.5454545454547 0.4995116248731228 5.0 6.0 4.0 
638.000479336559 136.0 14.0 430.5454545454547 0.4995116248731228 5.0 6.0 4.0 
640.000479336559 136.0 14.0 430.5454545454547 0.4995116248731228 5.0 6.0 4.0 
642.000479336559 136.0 14.0 430.5454545454547 0.4995116248731228 5.0 6.0 4.0 
644.0004290227293 136.0 14.0 430.5454545454547 0.4995116248731228 5.0 6.0 4.0 
646.000479336559 136.0 14.0 430.5454545454547 0.4995116248731228 5.0 6.0 4.0 
648.000479336559 136.0 14.0 430.5454545454547 0.4995116248731228 5.0 6.0 4.0 
650.000479336559 136.0 14.0 430.5454545454547 0.4995116248731228 5.0 6.0 4.0 
652.000479336559 136.0 14.0 430.5454545454547 0.4995116248731228 5.0 6.0 4.0 
654.0004290227293 136.0 14.0 430.5454545454547 0.4995116248731228 5.0 6.0 4.0 
656.000479336559 136.0 14.0 430.5454545454547 0.4995116248731228 5.0 6.0 4.0 
658.000479336559 136.0 14.0 430.5507631055075 0.6661782870953449 5.0 6.0 4.0 
660.000479336559 134.0 13.0 430.5454545454547 0.49945102698226096 5.0 6.0 4.0 
662.000479336559 134.0 13.0 430.5454545454547 0.4994510779822619 5.0 6.0 4.0 
664.0004290227293 134.0 13.0 430.5454545454547 0.7494510779822618 5.0 6.0 4.0 
#####################################################################
# End of data export. Simulation finished at: 2019-03-12T00:01+0000 #
#####################################################################
