#####################################################################
# Alchemist log file - simulation started at: 2019-03-03T08:34+0000 #
#####################################################################
# seed = 9.0, bandwidth = 2.3713737056616552E7, accessPointCount = 1031.338537721246, baserange = 562.341325190349
#
# The columns have the following meaning: 
# time neighbor_count[Sum] <value>@neighbor_count[Sum] packet_size[Mean] mean_delay[Mean] crowd[Sum] overcrowded[Sum] risk[Sum] 
0.0 NaN NaN NaN NaN NaN NaN NaN 
10.000337445961424 22211.0 13160.0 4984.598101265823 0.5715780615906768 1494.0 3.0 1494.0 
20.000337445961424 21925.0 12964.0 4984.995253164557 0.49955905276277224 1487.0 10.0 1487.0 
30.000337445961424 21910.0 12961.0 4985.14240506329 0.4986725875847114 1483.0 14.0 1483.0 
40.00033744596142 21941.0 12963.0 4985.123417721519 0.5010555943287427 1487.0 10.0 1487.0 
50.00033744596142 22002.0 12962.0 4984.93829113924 0.500134684067176 1484.0 13.0 1484.0 
60.00033744596142 22020.0 12964.0 4984.973101265823 0.5021786695968906 1486.0 11.0 1486.0 
70.00033744596142 21944.0 12962.0 973.4936708860765 0.500560012001093 447.0 19.0 296.0 
80.00033744596142 21979.0 12963.0 975.2009493670897 0.5013708964851155 410.0 22.0 294.0 
90.00033744596142 22024.0 12965.0 976.9841772151894 0.5016104134913296 403.0 24.0 293.0 
100.00033744596142 21969.0 12964.0 973.375 0.5004182727421309 400.0 25.0 290.0 
110.00033744596142 21995.0 12967.0 975.0791139240438 0.5021938959801644 401.0 25.0 291.0 
120.00033744596142 21878.0 12966.0 980.6613924050682 0.5011337429087435 404.0 22.0 297.0 
130.0003374459614 21816.0 12966.0 980.6613924050679 0.5019711971219035 404.0 22.0 297.0 
140.0003374459614 21865.0 12966.0 980.6582278480936 0.5007516501800355 399.0 22.0 297.0 
150.0003374459614 21911.0 12967.0 976.9841772151894 0.5025765427829013 394.0 25.0 292.0 
160.0003374459614 21954.0 12971.0 984.2895569620273 0.5047159620379669 406.0 22.0 299.0 
170.0003374459614 21863.0 12965.0 986.022151898744 0.501421042553638 408.0 22.0 300.0 
180.0003374459614 21882.0 12966.0 987.9066455696267 0.5018274750701328 413.0 22.0 301.0 
190.0003374459614 21828.0 12966.0 986.0822784810233 0.5027185391756019 409.0 22.0 300.0 
200.0003374459614 21878.0 12966.0 984.2041139240438 0.5041319211179168 407.0 22.0 299.0 
210.0003374459614 21786.0 12966.0 984.1914556962016 0.5033313979760273 405.0 22.0 299.0 
220.0003374459614 21794.0 12969.0 980.5458860759562 0.5034624614106806 408.0 22.0 297.0 
230.0003374459614 21750.0 12964.0 982.3053797468388 0.49994245515082075 410.0 22.0 298.0 
240.0003374459614 21766.0 12968.0 987.833860759485 0.5036324553476506 412.0 22.0 301.0 
250.0003374459614 21544.0 12966.0 989.6202531645596 0.5018668550666439 412.0 22.0 302.0 
260.0003374459614 21472.0 12967.0 991.4098101265874 0.5031270050785809 415.0 22.0 303.0 
270.0003374459614 21344.0 12966.0 991.3987341772117 0.5020230289364813 416.0 22.0 303.0 
280.0003374459614 21347.0 12966.0 996.9129746835356 0.5029263645432591 415.0 22.0 306.0 
290.0003374459614 21229.0 12968.0 996.8908227848085 0.5023576177611103 410.0 25.0 303.0 
300.0003374459614 21239.0 12967.0 993.2784810126519 0.501656124304629 406.0 25.0 301.0 
310.0003374459614 21248.0 12968.0 986.0189873417646 0.5026312326206039 404.0 24.0 298.0 
320.0003374459614 21186.0 12967.0 989.6408227848093 0.5030224233993926 396.0 24.0 300.0 
330.0003374459614 21157.0 12965.0 989.7167721519074 0.5009999816584854 398.0 22.0 302.0 
340.0003374459614 21186.0 12970.0 991.4446202531612 0.5023545484689899 402.0 22.0 303.0 
350.0003374459614 21156.0 12967.0 985.9525316455625 0.503745942557582 400.0 22.0 300.0 
360.0003374459614 21098.0 12967.0 985.9398734177202 0.5026276768916931 403.0 22.0 300.0 
370.0003374459614 20988.0 12965.0 975.0221518987453 0.5006617699600431 397.0 22.0 294.0 
380.0003374459614 21045.0 12971.0 978.5949367088664 0.5037222963133817 403.0 22.0 296.0 
390.0003374459614 21047.0 12965.0 980.5870253164655 0.5023518055734929 405.0 25.0 294.0 
400.0003374459614 20920.0 12967.0 982.411392405069 0.5018496469251088 412.0 22.0 298.0 
410.0003374459614 21004.0 12966.0 980.4794303797484 0.5013734623829014 417.0 22.0 297.0 
420.0003374459614 20933.0 12965.0 982.3496835443069 0.5016906532987905 411.0 23.0 297.0 
430.0003374459614 20922.0 12964.0 982.3670886075992 0.5017089998431482 415.0 23.0 297.0 
440.0003374459614 20918.0 12965.0 975.0189873417646 0.5028132446165926 420.0 22.0 294.0 
450.0003374459614 20832.0 12966.0 982.2895569620277 0.5052713567323706 420.0 22.0 298.0 
460.0003374459614 20743.0 12966.0 989.6329113924015 0.5029148804975674 421.0 22.0 302.0 
470.0003374459614 20722.0 12966.0 985.8465189873484 0.501628694626849 421.0 22.0 300.0 
480.0003374459614 20665.0 12968.0 967.6946202531615 0.5021894125549631 414.0 22.0 290.0 
490.0003374459614 20651.0 12967.0 958.6946202531614 0.501654244147854 404.0 22.0 285.0 
500.0003374459614 20692.0 12969.0 955.0348101265841 0.5040267643065629 400.0 24.0 281.0 
510.0003374459614 20713.0 12965.0 956.8259493670915 0.5023036995255185 404.0 24.0 282.0 
520.0003374459613 20752.0 12967.0 953.1439873417646 0.5020627796972739 406.0 21.0 283.0 
530.0003374459613 20715.0 12966.0 953.0965189873488 0.5005264185113721 405.0 21.0 283.0 
540.0003374459613 20679.0 12965.0 951.2832278480927 0.500478042924256 408.0 21.0 282.0 
550.0003374459613 20674.0 12968.0 954.9477848101194 0.5030409896407534 404.0 23.0 282.0 
560.0003374459613 20642.0 12966.0 945.8417721519074 0.501557434106195 396.0 25.0 275.0 
570.0003374459613 20666.0 12968.0 945.9193037974666 0.5037462587027413 402.0 23.0 277.0 
580.0003374459613 20667.0 12969.0 945.9098101265832 0.504246805019383 395.0 19.0 281.0 
590.0003374459613 20620.0 12963.0 958.5886075949311 0.5000287853230747 403.0 19.0 288.0 
600.0003374459613 20687.0 12968.0 958.5949367088641 0.5032027564361458 405.0 19.0 288.0 
610.0003374459613 20582.0 12965.0 965.9414556962035 0.5029245449935666 404.0 22.0 289.0 
620.0003374459613 20595.0 12970.0 978.625 0.5043740466357527 406.0 22.0 296.0 
630.0003374459613 20606.0 12968.0 982.3655063291185 0.5049329542200734 394.0 28.0 292.0 
640.0003374459613 20613.0 12968.0 982.2943037974703 0.5027328328211473 404.0 28.0 292.0 
650.0003374459613 20541.0 12964.0 985.938291139239 0.5023661514459747 408.0 27.0 295.0 
660.0003374459613 20524.0 12963.0 986.0237341772103 0.5026605802396279 406.0 22.0 300.0 
#####################################################################
# End of data export. Simulation finished at: 2019-03-03T08:55+0000 #
#####################################################################
