#####################################################################
# Alchemist log file - simulation started at: 2019-03-12T09:08+0000 #
#####################################################################
# seed = 5.0, bandwidth = 4216.965034285822, accessPointCount = 10.0, baserange = 316.2277660168379
#
# The columns have the following meaning: 
# time neighbor_count[Sum] <value>@neighbor_count[Sum] packet_size[Mean] mean_delay[Mean] crowd[Sum] overcrowded[Sum] risk[Sum] 
0.0 NaN NaN NaN NaN NaN NaN NaN 
2.000101793669918 3.0 2.0 4987.840743198408 0.2221562590371518 1497.0 0.0 1497.0 
4.000054491034843 10.0 5.0 4987.840743198408 0.7638553872912488 1497.0 0.0 1497.0 
6.000054491034843 10.0 5.0 4987.840743198408 1.431154420279425 1497.0 0.0 1497.0 
8.000054491034842 27.0 8.0 4987.848706038487 0.7832083898138142 1497.0 0.0 1497.0 
10.000054491034842 62.0 11.0 4987.896483078965 1.0278185505179984 1497.0 0.0 1497.0 
12.000054491034842 102.0 19.0 4987.962840079628 2.164580327843135 1497.0 0.0 1497.0 
14.000054491034842 102.0 19.0 4987.946914399469 3.324580327843135 1497.0 0.0 1497.0 
16.00005449103484 102.0 19.0 4987.946914399469 3.6846182698224257 1497.0 0.0 1497.0 
18.00005449103484 274.0 37.0 4988.0 2.307383114591344 1497.0 0.0 1497.0 
20.00005449103484 462.0 48.0 4988.122096881221 2.9273041122757957 1497.0 0.0 1497.0 
22.00005449103484 462.0 48.0 4988.111479761114 3.214621898305338 1497.0 0.0 1497.0 
24.00005449103484 462.0 48.0 4988.1008626410085 4.643023943040648 1497.0 0.0 1497.0 
26.00005449103484 462.0 48.0 4988.1008626410085 5.624929662812939 1497.0 0.0 1497.0 
28.00005449103484 462.0 48.0 4988.1008626410085 7.249929662812939 1497.0 0.0 1497.0 
30.00005449103484 462.0 48.0 4988.1008626410085 8.767786805670083 1497.0 0.0 1497.0 
32.000054491034845 890.0 51.0 4988.196416721964 5.982083867796448 1497.0 0.0 1497.0 
34.000054491034845 1094.0 74.0 4988.398142003982 6.98140527948263 1497.0 0.0 1497.0 
36.000054491034845 1094.0 74.0 4988.390179163902 5.816194852636114 1497.0 0.0 1497.0 
38.000054491034845 1094.0 74.0 4988.347710683477 4.311225002184243 1497.0 0.0 1497.0 
40.000054491034845 1094.0 74.0 4988.323822163238 5.63652620700352 1497.0 0.0 1497.0 
42.000054491034845 1094.0 74.0 4988.286662242866 6.156053700586754 1497.0 0.0 1497.0 
44.000054491034845 1094.0 74.0 4988.286662242866 7.903041652393982 1497.0 0.0 1497.0 
46.000054491034845 1094.0 74.0 4988.286662242866 9.650029604201212 1497.0 0.0 1497.0 
48.000054491034845 1094.0 74.0 4988.286662242866 11.264487435526513 1497.0 0.0 1497.0 
50.000054491034845 1094.0 74.0 4988.286662242866 12.397154695692624 1497.0 0.0 1497.0 
52.000054491034845 1094.0 74.0 4988.289316522893 10.592705474784633 1497.0 0.0 1497.0 
54.000054491034845 1094.0 74.0 4988.278699402787 11.859559392518005 1497.0 0.0 1497.0 
56.000054491034845 1094.0 74.0 4988.297279362972 10.049504238209233 1497.0 0.0 1497.0 
58.000054491034845 1094.0 74.0 4988.307896483079 11.362894389941607 1497.0 0.0 1497.0 
60.000054491034845 1094.0 74.0 4988.307896483079 13.037593185122331 1497.0 0.0 1497.0 
62.00010179366992 685.0 72.0 473.30325149303235 11.53151261398683 56.0 0.0 24.0 
64.00010179366993 1104.0 75.0 473.3510285335101 4.877956334620204 57.0 0.0 24.0 
66.00010179366993 1108.0 75.0 473.3589913735899 5.7534838822592125 56.0 0.0 24.0 
68.00010179366993 1108.0 75.0 473.3483742534836 6.935256628222581 56.0 0.0 24.0 
70.00010179366993 1108.0 75.0 473.34041141340384 5.293714181123161 52.0 0.0 24.0 
72.00010179366993 1108.0 75.0 473.33510285335126 5.852810035300447 51.0 0.0 24.0 
74.00010179366993 1108.0 75.0 473.3457199734572 3.2914595637060544 48.0 0.0 24.0 
76.00010179366993 1108.0 75.0 473.32448573324496 3.873141672746809 46.0 0.0 24.0 
78.00010179366993 1108.0 75.0 473.32448573324496 4.3616782389391116 46.0 0.0 24.0 
80.00010179366993 1108.0 75.0 473.32448573324496 5.088714734189892 45.0 0.0 24.0 
82.00010179366993 1108.0 75.0 473.32183145321807 5.537160494737348 43.0 0.0 24.0 
84.00010179366993 1108.0 75.0 473.3377571333778 5.796206854496628 43.0 0.0 24.0 
86.00010179366993 1108.0 75.0 473.3271400132715 6.392785754882431 43.0 0.0 24.0 
88.00010179366993 1108.0 75.0 473.3271400132715 6.858571452494857 43.0 0.0 24.0 
90.00010179366993 1108.0 75.0 473.3271400132715 7.34710801868716 43.0 0.0 24.0 
92.00010179366993 1106.0 75.0 473.3589913735899 7.381077722501295 43.0 0.0 24.0 
94.00010179366993 916.0 58.0 473.19442601194436 1.2368498798988494 41.0 0.0 24.0 
96.00010179366993 1108.0 75.0 473.28201725282014 1.648387584960353 43.0 0.0 24.0 
98.00010179366993 1108.0 75.0 473.2714001327137 2.419641767285964 42.0 0.0 24.0 
100.00010179366993 1108.0 75.0 473.30325149303235 2.7642959155101328 41.0 0.0 24.0 
102.00010179366993 1108.0 75.0 473.29263437292633 3.297050168777265 41.0 0.0 24.0 
104.00010179366993 1108.0 75.0 473.2873258128734 3.864927834190066 41.0 0.0 24.0 
106.00010179366993 1108.0 75.0 473.2846715328465 4.4496086925980896 41.0 0.0 24.0 
108.00010179366993 1108.0 75.0 473.30590577305924 4.737929582346331 41.0 0.0 24.0 
110.00010179366993 1108.0 75.0 473.25812873258144 5.069952953931975 41.0 0.0 24.0 
112.00010179366993 1107.0 75.0 473.25812873258144 5.645505678518194 41.0 0.0 24.0 
114.00010179366993 1105.0 75.0 473.25812873258144 6.15125298691168 41.0 0.0 24.0 
116.00010179366993 1105.0 75.0 473.2634372926343 6.711419554892451 41.0 0.0 24.0 
118.00010179366993 1105.0 75.0 473.2793629727937 7.304276760762535 41.0 0.0 24.0 
120.00010179366993 1097.0 74.0 473.27405441274027 7.456281722655517 41.0 0.0 24.0 
122.00010179366993 1094.0 74.0 473.27405441274027 7.810349051454098 41.0 0.0 24.0 
124.00010179366993 852.0 73.0 473.30325149303235 5.459482857757872 40.0 0.0 24.0 
126.00010179366993 1091.0 74.0 473.22893165228936 1.6329140718611077 41.0 0.0 24.0 
128.00010179366993 1091.0 74.0 473.2634372926343 1.937053126745984 41.0 0.0 24.0 
130.00010179366993 1091.0 74.0 473.25812873258144 2.54597659500364 41.0 0.0 24.0 
132.00010179366993 1091.0 74.0 473.28998009289995 2.8285554523559746 41.0 0.0 24.0 
134.00010179366993 1091.0 74.0 473.2793629727937 3.5843091417019277 41.0 0.0 24.0 
136.00010179366993 1091.0 74.0 473.2714001327137 4.190222582944193 41.0 0.0 24.0 
138.00010179366993 1089.0 74.0 473.26609157266086 4.41704351980378 41.0 0.0 24.0 
140.00010179366993 1089.0 74.0 473.29263437292633 4.918744239319639 41.0 0.0 24.0 
142.00010179366993 1089.0 74.0 473.2501658925016 5.521444829156281 41.0 0.0 24.0 
144.00010179366993 1086.0 74.0 473.2501658925016 5.927808677511582 41.0 0.0 24.0 
146.00010179366993 1086.0 74.0 473.2501658925016 6.2306558356377515 41.0 0.0 24.0 
148.00010179366993 1086.0 74.0 473.25547445255455 6.564834196011984 41.0 0.0 24.0 
150.00010179366993 1086.0 74.0 473.2714001327137 7.090339897667689 41.0 0.0 24.0 
152.00010179366993 1086.0 74.0 473.26609157266086 7.838061458499586 41.0 0.0 24.0 
154.00010179366993 1079.0 74.0 473.26609157266086 7.92042576169944 41.0 0.0 24.0 
156.00010179366993 907.0 58.0 473.2368944923687 1.1666335098899534 40.0 0.0 24.0 
158.00010179366993 1031.0 73.0 473.2422030524222 1.8381507817681342 41.0 0.0 24.0 
160.00010179366993 1030.0 73.0 473.2368944923687 2.3551337077699386 41.0 0.0 24.0 
162.00010179366993 1030.0 73.0 473.23954877239566 2.660837884538095 41.0 0.0 24.0 
164.00010179366993 1030.0 73.0 473.25812873258144 2.890242843010201 41.0 0.0 24.0 
166.00010179366993 1030.0 73.0 470.2083609820834 3.4637955750545273 40.0 0.0 23.0 
168.00010179366993 1033.0 74.0 470.21366954213704 3.79025091197396 40.0 0.0 23.0 
170.00010179366993 1038.0 74.0 470.21897810218985 4.452782254101139 40.0 0.0 23.0 
172.00010179366993 1038.0 74.0 470.19243530192466 4.795639128491831 40.0 0.0 23.0 
174.00010179366993 1038.0 74.0 470.2057067020568 5.118947209336743 40.0 0.0 23.0 
176.00010179366993 1038.0 74.0 470.22428666224255 5.797200108917698 40.0 0.0 23.0 
178.00010179366993 1038.0 74.0 470.2083609820834 6.362442828935246 40.0 0.0 23.0 
180.00010179366993 1040.0 74.0 470.23490378234885 6.68559613600997 40.0 0.0 23.0 
182.00010179366993 1040.0 74.0 470.19243530192466 6.931763396117375 40.0 0.0 23.0 
184.00010179366993 1038.0 73.0 467.14001327140005 7.150757919581184 40.0 0.0 22.0 
186.00010179366993 1037.0 73.0 467.1426675514266 2.2763894616087836 40.0 0.0 22.0 
188.00010179366993 1036.0 73.0 467.15063039150607 1.5664364970949565 40.0 0.0 22.0 
190.00010179366993 1036.0 73.0 467.14001327140005 2.0386974337911905 40.0 0.0 22.0 
192.00010179366993 1036.0 73.0 467.14532183145354 2.29591678870589 40.0 0.0 22.0 
194.00010179366993 1036.0 73.0 467.15063039150607 2.948173193658048 40.0 0.0 22.0 
196.00010179366993 1036.0 73.0 467.12408759124094 3.4650381170524995 40.0 0.0 22.0 
198.00010179366993 1036.0 73.0 467.13735899137384 3.721366760867999 40.0 0.0 22.0 
200.00010179366993 1036.0 73.0 467.1559389515595 4.1904444753057914 40.0 0.0 22.0 
202.00010179366993 1036.0 73.0 467.14001327140005 4.424199035405446 40.0 0.0 22.0 
204.00010179366993 1036.0 73.0 467.16655607166587 4.681001953962078 40.0 0.0 22.0 
206.00010179366993 1036.0 73.0 467.12408759124094 5.123333674418708 40.0 0.0 22.0 
208.00010179366993 1036.0 73.0 467.12408759124094 5.64019859781316 40.0 0.0 22.0 
210.00010179366993 1038.0 73.0 467.12674187126754 5.895544794530244 40.0 0.0 22.0 
212.00010179366993 1038.0 73.0 467.14532183145354 6.547174576849131 40.0 0.0 22.0 
214.00010179366993 1038.0 73.0 467.14001327140005 7.063771475585314 40.0 0.0 22.0 
216.00010179366993 1032.0 73.0 467.14532183145354 2.4323582244747195 40.0 0.0 22.0 
218.00010179366993 1038.0 73.0 467.15063039150607 1.9416431835674453 40.0 0.0 22.0 
220.00010179366993 1040.0 73.0 467.12408759124094 1.9993491923036095 40.0 0.0 22.0 
222.00010179366993 1040.0 73.0 467.13735899137384 2.0957940207474888 40.0 0.0 22.0 
224.00010179366993 1040.0 73.0 467.1559389515595 2.7040253438500206 40.0 0.0 22.0 
226.00010179366993 1040.0 73.0 467.14001327140005 3.2239502154263717 40.0 0.0 22.0 
228.00010179366993 1041.0 73.0 467.16655607166587 3.481365024571911 40.0 0.0 22.0 
230.00010179366993 1042.0 73.0 467.12408759124094 4.133461307098942 40.0 0.0 22.0 
232.00010179366993 1042.0 73.0 467.12408759124094 4.65258108945557 40.0 0.0 22.0 
234.00010179366993 1042.0 73.0 467.12674187126754 4.910910103347759 40.0 0.0 22.0 
236.00010179366993 1042.0 73.0 467.14532183145354 5.565062769287091 40.0 0.0 22.0 
238.00010179366993 1042.0 73.0 467.14001327140005 5.907919485441628 40.0 0.0 22.0 
240.00010179366993 1042.0 73.0 467.14532183145354 5.651156244361537 40.0 0.0 22.0 
242.00010179366993 1042.0 73.0 467.15063039150607 6.305667508275871 40.0 0.0 22.0 
244.00010179366993 1042.0 73.0 467.12408759124094 6.824787290632498 40.0 0.0 22.0 
246.00010179366993 1042.0 73.0 467.13735899137384 2.226196591907263 40.0 0.0 22.0 
248.00010179366993 1043.0 73.0 467.1559389515595 1.708879609129558 40.0 0.0 22.0 
250.00010179366993 1043.0 73.0 464.0955540809556 2.2278430437688623 40.0 0.0 21.0 
252.00010179366993 1043.0 73.0 464.1220968812207 2.486744473570347 40.0 0.0 21.0 
254.00010179366993 1043.0 73.0 464.0796284007966 3.1408217655286457 40.0 0.0 21.0 
256.00010179366996 1043.0 73.0 464.0796284007966 3.4968414366144303 40.0 0.0 21.0 
258.00010179366996 1044.0 73.0 464.0822826808225 3.226106686548084 40.0 0.0 21.0 
260.00010179366996 1044.0 73.0 464.1061712010619 3.8824742784828294 40.0 0.0 21.0 
262.00010179366996 1046.0 73.0 464.1008626410083 4.403594744548821 40.0 0.0 21.0 
264.00010179366996 1046.0 73.0 464.1061712010619 4.665051596383943 40.0 0.0 21.0 
266.00010179366996 1046.0 73.0 464.1114797611146 5.3215454982565245 40.0 0.0 21.0 
268.00010179366996 1046.0 73.0 464.08493696084923 5.8426479185714 40.0 0.0 21.0 
270.00010179366996 1046.0 73.0 467.1585932315858 6.103214059307324 40.0 0.0 22.0 
272.00010179366996 1046.0 73.0 467.1612475116124 6.759326227851677 40.0 0.0 22.0 
274.00010179366996 1046.0 73.0 467.14532183145354 7.070781587909736 40.0 0.0 22.0 
276.00010179366996 1046.0 73.0 467.1957531519573 2.299379700841908 40.0 0.0 22.0 
278.00010179366996 1046.0 73.0 467.089581950896 1.4575269393835493 40.0 0.0 22.0 
280.00010179366996 1046.0 73.0 467.089581950896 1.9786293596984248 40.0 0.0 22.0 
282.00010179366996 1046.0 73.0 467.09223623092225 2.238941011548863 40.0 0.0 22.0 
284.00010179366996 1046.0 73.0 467.11081619110803 2.8950763154464423 40.0 0.0 22.0 
286.00010179366996 1046.0 73.0 467.1055076310552 3.4161787357613176 40.0 0.0 22.0 
288.00010179366996 1046.0 73.0 467.11081619110803 3.6776355875964404 40.0 0.0 22.0 
290.00010179366996 1050.0 73.0 467.11612475116146 4.161289554903883 40.0 0.0 22.0 
292.00010179366996 1050.0 73.0 467.089581950896 4.633890205985281 40.0 0.0 22.0 
294.00010179366996 1050.0 73.0 467.1028533510283 4.892657874191024 40.0 0.0 22.0 
296.00010179366996 1058.0 74.0 467.121433311214 5.0227789034139105 40.0 0.0 22.0 
298.00010179366996 1059.0 74.0 467.1055076310552 5.522492690068556 40.0 0.0 22.0 
300.00010179366996 1060.0 74.0 467.1320504313203 5.776440992696674 40.0 0.0 22.0 
302.00010179366996 1063.0 74.0 467.089581950896 6.352630263175498 40.0 0.0 22.0 
304.00010179366996 1070.0 75.0 467.089581950896 6.83539188612437 40.0 0.0 22.0 
306.00010179366996 1068.0 74.0 467.1028533510283 2.3733211264694143 40.0 0.0 22.0 
308.00010179366996 1076.0 75.0 467.1612475116124 1.6532730590986677 40.0 0.0 22.0 
310.00010179366996 1076.0 75.0 467.15063039150607 2.1593510797598134 40.0 0.0 22.0 
312.00010179366996 1076.0 75.0 467.15063039150607 2.5831715910098723 41.0 0.0 22.0 
314.00010179366996 1077.0 75.0 467.17717319177154 3.003901520940205 41.0 0.0 22.0 
316.00010179366996 1078.0 75.0 467.13470471134724 3.0281414726177305 41.0 0.0 22.0 
318.00010179366996 1078.0 75.0 467.13470471134724 3.4516012335070387 41.0 0.0 22.0 
320.00010179366996 1078.0 75.0 467.13470471134724 4.137623611808612 41.0 0.0 22.0 
322.00010179366996 1078.0 75.0 470.20305242203074 4.362562674330391 41.0 0.0 23.0 
324.00010179366996 1078.0 75.0 470.2083609820834 4.648631056756892 41.0 0.0 23.0 
326.00010179366996 1078.0 75.0 470.20305242203074 5.300814258362147 41.0 0.0 23.0 
328.00010179366996 1078.0 75.0 470.20305242203074 5.836140808271821 41.0 0.0 23.0 
330.00010179366996 1078.0 75.0 470.2163238221631 5.914351771881239 41.0 0.0 23.0 
332.00010179366996 1078.0 75.0 470.2057067020567 6.624031048839711 41.0 0.0 23.0 
334.00010179366996 1078.0 75.0 470.2057067020567 7.159357598749387 41.0 0.0 23.0 
336.00010179366996 1077.0 75.0 470.22694094226915 2.679474010137175 41.0 0.0 23.0 
338.00010179366996 1078.0 75.0 470.187126741871 1.5486264590724073 41.0 0.0 23.0 
340.00010179366996 1078.0 75.0 470.1605839416057 2.0839530089820824 41.0 0.0 23.0 
342.00010179366996 1078.0 75.0 470.16589250165924 2.332366585896635 41.0 0.0 23.0 
344.00010179366996 1079.0 75.0 470.155275381553 3.0404841096287654 41.0 0.0 23.0 
346.00010179366996 1080.0 75.0 473.21831453218306 3.1893120082365902 41.0 0.0 24.0 
348.00010179366996 1080.0 75.0 473.2023888520243 3.6633779090177527 41.0 0.0 24.0 
350.00010179366996 1082.0 75.0 473.2023888520243 4.389668685574195 41.0 0.0 24.0 
352.00010179366996 1081.0 75.0 473.21300597213025 4.924352305802866 41.0 0.0 24.0 
354.00010179366996 1080.0 75.0 473.1997345719973 4.875791764212598 41.0 0.0 24.0 
356.00010179366996 1080.0 75.0 473.1944260119445 5.602913915756802 41.0 0.0 24.0 
358.00010179366996 1080.0 75.0 473.1944260119445 5.500942440395762 41.0 0.0 24.0 
360.00010179366996 1080.0 75.0 473.1944260119445 5.925863042031626 41.0 0.0 24.0 
362.00010179366996 1080.0 75.0 473.1944260119445 6.177268992126486 41.0 0.0 24.0 
364.00010179366996 1080.0 75.0 473.1944260119445 6.730038416621893 41.0 0.0 24.0 
366.00010179366996 1071.0 74.0 473.1997345719973 2.4266911691608253 41.0 0.0 24.0 
368.00010179366996 1080.0 75.0 473.24485733244853 2.023966631818321 41.0 0.0 24.0 
370.00010179366996 1080.0 75.0 476.30258792302556 2.1006810871921466 41.0 0.0 25.0 
372.00010179366996 1086.0 75.0 476.2972793629731 2.5849541189218397 41.0 0.0 25.0 
374.00010179366996 1087.0 75.0 476.2972793629731 3.336640459033409 41.0 0.0 25.0 
376.00010179366996 1087.0 75.0 476.2972793629731 3.729271006833811 41.0 0.0 25.0 
378.00010179366996 1094.0 76.0 476.2972793629731 3.80516574405047 42.0 0.0 25.0 
380.00010179366996 1094.0 76.0 476.2972793629731 4.252294611373449 42.0 0.0 25.0 
382.00010179366996 1094.0 76.0 476.2919708029195 4.88118859214047 42.0 0.0 25.0 
384.00010179366996 1094.0 76.0 476.2919708029195 5.252036465268257 42.0 0.0 25.0 
386.00010179366996 1094.0 76.0 476.2919708029195 5.960634288801079 42.0 0.0 25.0 
388.00010179366996 1094.0 76.0 476.2919708029195 6.5895282695681 42.0 0.0 25.0 
390.00010179366996 1094.0 76.0 476.2972793629731 6.643034717720332 44.0 0.0 25.0 
392.00010179366996 1094.0 76.0 476.2919708029195 7.16591450206442 44.0 0.0 25.0 
394.00010179366996 1094.0 76.0 476.2919708029195 7.749217169382986 44.0 0.0 25.0 
396.00010179366996 1094.0 76.0 476.31851360318547 3.349939240291003 44.0 0.0 25.0 
398.00010179366996 1094.0 76.0 476.268082282681 2.8066301436639676 44.0 0.0 25.0 
400.00010179366996 1084.0 75.0 476.25215660252195 2.638077299674945 44.0 0.0 25.0 
402.00010179366996 1076.0 74.0 476.24684804246834 2.703434823365632 44.0 0.0 25.0 
404.00010179366996 1070.0 74.0 476.24684804246834 3.044479935816264 44.0 0.0 25.0 
406.00010179366996 1070.0 74.0 476.24684804246834 3.6296915634089704 44.0 0.0 25.0 
408.00010179366996 1070.0 74.0 476.24684804246834 3.94370282003142 44.0 0.0 25.0 
410.00010179366996 1070.0 74.0 476.25215660252195 4.152020382328886 44.0 0.0 25.0 
412.00010179366996 1070.0 74.0 473.20238885202417 4.608550978509996 43.0 0.0 24.0 
414.00010179366996 1070.0 74.0 473.20238885202417 4.904404017716684 43.0 0.0 24.0 
416.00010179366996 1070.0 74.0 473.20238885202417 5.548417449008422 42.0 0.0 24.0 
418.00010179366996 1070.0 74.0 473.20238885202417 5.646467677090332 42.0 0.0 24.0 
420.00010179366996 1070.0 74.0 473.2076974120768 5.944032194374476 42.0 0.0 24.0 
422.00010179366996 1070.0 74.0 473.20238885202417 6.598372648041429 42.0 0.0 24.0 
424.00010179366996 1070.0 74.0 473.20238885202417 7.211696075940615 42.0 0.0 24.0 
426.00010179366996 1096.0 73.0 476.2707365627073 2.5039266381561696 43.0 0.0 25.0 
428.00010179366996 1112.0 75.0 476.3052422030525 2.0661848732157817 43.0 0.0 25.0 
430.00010179366996 1112.0 75.0 473.2528201725281 2.4297380238446866 43.0 0.0 24.0 
432.00010179366996 1112.0 75.0 473.24751161247514 2.793904145840862 43.0 0.0 24.0 
434.00010179366996 1112.0 75.0 473.24751161247514 3.4889045868227093 43.0 0.0 24.0 
436.00010179366996 1112.0 75.0 473.24751161247514 3.9133755751526094 43.0 0.0 24.0 
438.00010179366996 1112.0 75.0 473.24751161247514 3.9653359135144295 42.0 0.0 24.0 
440.00010179366996 1118.0 76.0 473.2528201725281 4.677508079000033 41.0 0.0 24.0 
442.00010179366996 1131.0 76.0 473.24751161247514 5.168262397044773 41.0 0.0 24.0 
444.00010179366996 1132.0 76.0 473.24751161247514 5.301659799964579 41.0 0.0 24.0 
446.00010179366996 1132.0 76.0 473.24751161247514 6.0306939718470485 41.0 0.0 24.0 
448.00010179366996 1132.0 76.0 473.24751161247514 6.603146962390369 41.0 0.0 24.0 
450.00010179366996 1134.0 76.0 473.2528201725281 6.715967578065678 42.0 0.0 24.0 
452.00010179366996 1127.0 75.0 473.24751161247514 6.8664251079567915 42.0 0.0 24.0 
454.00010179366996 1127.0 75.0 473.2528201725281 7.4036702230314075 42.0 0.0 24.0 
456.00010179366996 817.0 69.0 473.3032514930324 3.264762362514394 40.0 0.0 24.0 
458.00010179366996 1130.0 75.0 473.26874585268763 1.4629475059798815 42.0 0.0 24.0 
460.00010179366996 1130.0 75.0 473.26343729263436 1.8446941081802075 41.0 0.0 24.0 
462.00010179366996 1130.0 75.0 473.2581287325814 2.1099131976455907 41.0 0.0 24.0 
464.00010179366996 1130.0 75.0 473.2581287325814 2.812105387243795 41.0 0.0 24.0 
466.00010179366996 1130.0 75.0 473.2581287325814 3.3564875681511284 41.0 0.0 24.0 
468.00010179366996 1130.0 75.0 473.2581287325814 3.668786066303063 41.0 0.0 24.0 
470.00010179366996 1131.0 75.0 473.26343729263436 4.374362590942481 41.0 0.0 24.0 
472.00010179366996 1134.0 75.0 473.2581287325814 4.610276399872053 41.0 0.0 24.0 
474.00010179366996 1141.0 76.0 473.2581287325814 4.93722533109576 41.0 0.0 24.0 
476.00010179366996 1144.0 76.0 473.2581287325814 5.13838438311379 41.0 0.0 24.0 
478.00010179366996 1144.0 76.0 473.2581287325814 5.476739929052671 41.0 0.0 24.0 
480.00010179366996 1144.0 76.0 473.26343729263436 5.787187801714182 41.0 0.0 24.0 
482.00010179366996 1145.0 76.0 473.2581287325814 6.484742532182324 41.0 0.0 24.0 
484.00010179366996 1148.0 76.0 473.2581287325814 7.023547157869908 41.0 0.0 24.0 
486.00010179366996 1142.0 76.0 473.2581287325814 7.302747815023127 41.0 0.0 24.0 
488.00010179366996 1002.0 62.0 473.1811546118116 1.7761178139428764 40.0 0.0 24.0 
490.00010179366996 1148.0 76.0 473.2607830126078 2.1429671503181704 41.0 0.0 24.0 
492.00010179366996 1150.0 76.0 473.2342402123424 2.171183239515635 43.0 0.0 24.0 
494.00010179366996 1152.0 76.0 473.2342402123424 2.710784192659384 43.0 0.0 24.0 
496.00010179366996 1151.0 76.0 473.2342402123424 3.1855483588252014 43.0 0.0 24.0 
498.00010179366996 1150.0 76.0 473.2342402123424 2.97989441087529 43.0 0.0 24.0 
500.00010179366996 1150.0 76.0 473.2342402123424 3.616316036305261 43.0 0.0 24.0 
502.00010179366996 1155.0 76.0 473.2342402123424 4.099344415625646 43.0 0.0 24.0 
504.00010179366996 1177.0 77.0 473.2342402123424 4.425721371030037 43.0 0.0 24.0 
506.00010179366996 1177.0 77.0 473.2342402123424 5.094288818872791 43.0 0.0 24.0 
508.00010179366996 1177.0 77.0 473.2342402123424 5.619919503786917 43.0 0.0 24.0 
510.00010179366996 1177.0 77.0 473.2342402123424 5.9182545875853325 43.0 0.0 24.0 
512.00010179367 1178.0 77.0 473.2342402123424 6.411289171338347 43.0 0.0 24.0 
514.00010179367 1180.0 77.0 473.2342402123424 6.709906131236133 43.0 0.0 24.0 
516.00010179367 1180.0 77.0 473.2342402123424 6.958145165766935 43.0 0.0 24.0 
518.00010179367 926.0 74.0 473.2528201725281 4.744447879556073 41.0 0.0 24.0 
520.00010179367 1182.0 77.0 473.2501658925016 1.402354770759663 43.0 0.0 24.0 
522.00010179367 1183.0 77.0 473.2342402123424 1.6525490649143086 43.0 0.0 24.0 
524.00010179367 1188.0 77.0 473.2342402123424 2.33624588761575 43.0 0.0 24.0 
526.00010179367 1188.0 77.0 473.2342402123424 2.8675031165285136 43.0 0.0 24.0 
528.00010179367 1188.0 77.0 473.2342402123424 3.1714647443255664 43.0 0.0 24.0 
530.00010179367 1188.0 77.0 473.2342402123424 3.643275637286849 43.0 0.0 24.0 
532.00010179367 1188.0 77.0 473.2342402123424 4.174532866199613 43.0 0.0 24.0 
534.00010179367 1192.0 77.0 473.2342402123424 4.467054245112544 43.0 0.0 24.0 
536.00010179367 1194.0 77.0 473.2342402123424 4.86324569423652 43.0 0.0 24.0 
538.00010179367 1197.0 77.0 473.2342402123424 5.355138016709114 44.0 0.0 24.0 
540.00010179367 1220.0 78.0 473.2342402123424 5.508658456455769 44.0 0.0 24.0 
542.00010179367 1222.0 78.0 476.2972793629731 5.777687866713641 46.0 0.0 25.0 
544.00010179367 1224.0 78.0 476.2866622428668 6.26493628015446 46.0 0.0 25.0 
546.00010179367 1226.0 78.0 476.2866622428668 6.594995576430684 46.0 0.0 25.0 
548.00010179367 1223.0 78.0 473.24220305242227 7.073585310693856 46.0 0.0 24.0 
550.00010179367 1094.0 64.0 473.18646317186443 1.6705872048111792 45.0 0.0 24.0 
552.00010179367 1247.0 78.0 470.2295952222961 1.9667279315979982 46.0 0.0 23.0 
554.00010179367 1247.0 78.0 470.21366954213676 2.7359026159318676 46.0 0.0 23.0 
556.00010179367 1247.0 78.0 470.21366954213676 3.3278858837313448 45.0 0.0 23.0 
558.00010179367 1250.0 78.0 470.22694094226927 3.4770181523788235 44.0 0.0 23.0 
560.00010179367 1259.0 79.0 470.205706702057 4.14413736511592 44.0 0.0 23.0 
562.00010179367 1259.0 79.0 470.20836098208343 4.696112872675429 43.0 0.0 23.0 
564.00010179367 1261.0 79.0 470.20836098208343 4.516106251154232 44.0 0.0 23.0 
566.00010179367 1263.0 79.0 473.2475116124751 4.799830959644043 45.0 0.0 24.0 
568.00010179367 1259.0 79.0 473.2528201725279 5.317120074672508 45.0 0.0 24.0 
570.00010179367 1248.0 79.0 473.2528201725279 5.595699199979353 46.0 0.0 24.0 
572.00010179367 1243.0 79.0 473.25812873258144 6.006424673392153 46.0 0.0 24.0 
574.00010179367 1242.0 79.0 473.2528201725279 6.513432648287122 46.0 0.0 24.0 
576.00010179367 1242.0 79.0 476.31585932315875 6.997639349432706 46.0 0.0 25.0 
578.00010179367 1242.0 79.0 476.3052422030525 7.606671534954965 46.0 0.0 25.0 
580.00010179367 961.0 76.0 479.40013271400136 4.694374618128784 44.0 0.0 26.0 
582.00010179367 1030.0 63.0 479.25414731254136 1.9591667599474158 43.0 0.0 26.0 
584.00010179367 1233.0 79.0 479.34970139349696 2.419667373421361 45.0 0.0 26.0 
586.00010179367 1233.0 79.0 479.36297279362987 2.3341898040715394 44.0 0.0 26.0 
588.00010179367 1231.0 79.0 479.3576642335765 2.737901862742589 44.0 0.0 26.0 
590.00010179367 1231.0 79.0 479.3576642335765 3.547561390364769 44.0 0.0 26.0 
592.00010179367 1230.0 79.0 479.3576642335765 4.02971692942736 44.0 0.0 26.0 
594.00010179367 1229.0 79.0 479.3576642335765 4.574075022915651 44.0 0.0 26.0 
596.00010179367 1226.0 79.0 476.31320504313203 5.354874712650095 44.0 0.0 25.0 
598.00010179367 1223.0 79.0 476.31320504313203 5.778769622800905 44.0 0.0 25.0 
600.00010179367 1223.0 79.0 476.31320504313203 6.3485129730625935 44.0 0.0 25.0 
602.00010179367 1220.0 79.0 476.31320504313203 6.932569061343479 44.0 0.0 25.0 
604.00010179367 1220.0 79.0 476.31320504313203 7.427681043851271 44.0 0.0 25.0 
606.00010179367 1219.0 79.0 476.31320504313203 7.767454059835925 44.0 0.0 25.0 
608.00010179367 1195.0 79.0 476.29727936297286 8.136130133262428 44.0 0.0 25.0 
610.00010179367 1158.0 76.0 476.29727936297286 7.7686767836015775 44.0 0.0 25.0 
612.00010179367 982.0 77.0 473.27670869276716 5.617912923570111 43.0 0.0 24.0 
614.00010179367 892.0 62.0 473.15461181154626 2.4930372269880112 40.0 0.0 24.0 
616.00010179367 1188.0 76.0 473.2952886529529 2.1779834982280293 42.0 0.0 24.0 
618.00010179367 1180.0 76.0 473.2793629727937 2.272347374732868 42.0 0.0 24.0 
620.00010179367 1175.0 76.0 473.2793629727937 2.842696748948019 43.0 0.0 24.0 
622.00010179367 1170.0 76.0 473.2793629727937 2.924093668517866 42.0 0.0 24.0 
624.00010179367 1170.0 76.0 473.2793629727937 3.419509351826584 42.0 0.0 24.0 
626.00010179367 1170.0 76.0 473.2793629727937 4.00964612242559 42.0 0.0 24.0 
628.00010179367 1170.0 76.0 473.2793629727937 4.368520395405883 42.0 0.0 24.0 
630.00010179367 1170.0 76.0 473.2793629727937 4.863936078714601 43.0 0.0 24.0 
632.00010179367 1170.0 76.0 473.2793629727937 5.634585953420742 41.0 0.0 24.0 
634.00010179367 1170.0 76.0 473.2793629727937 6.031559750113661 41.0 0.0 24.0 
636.00010179367 1170.0 76.0 473.2793629727937 6.526975433422378 41.0 0.0 24.0 
638.00010179367 1170.0 76.0 473.2793629727937 7.083882580268144 41.0 0.0 24.0 
640.00010179367 1165.0 76.0 473.2793629727937 7.454785443380015 41.0 0.0 24.0 
642.00010179367 1119.0 74.0 473.28732581287335 7.658605681832417 40.0 0.0 24.0 
644.00010179367 1046.0 74.0 470.23490378234897 7.070714048169021 40.0 0.0 23.0 
646.00010179367 827.0 60.0 470.2216323822164 1.8596531662000635 36.0 0.0 23.0 
648.00010179367 1091.0 70.0 470.17385534173866 1.2517801672895714 37.0 0.0 23.0 
650.00010179367 1162.0 75.0 470.2163238221632 1.9031121950999839 36.0 0.0 23.0 
652.00010179367 1162.0 75.0 470.2163238221632 2.233603673759621 36.0 0.0 23.0 
654.00010179367 1162.0 75.0 470.2163238221632 2.6865103658451046 36.0 0.0 23.0 
656.00010179367 1162.0 75.0 470.2163238221632 3.2511409434688643 36.0 0.0 23.0 
658.00010179367 1162.0 75.0 470.2163238221632 3.6260725058542995 36.0 0.0 23.0 
660.00010179367 1162.0 75.0 470.2163238221632 4.100385455773296 36.0 0.0 23.0 
662.00010179367 1162.0 75.0 470.2163238221632 4.854524387350116 36.0 0.0 23.0 
664.00010179367 1162.0 75.0 470.2163238221632 5.229455949735551 36.0 0.0 23.0 
#####################################################################
# End of data export. Simulation finished at: 2019-03-12T09:16+0000 #
#####################################################################
