#####################################################################
# Alchemist log file - simulation started at: 2019-03-05T09:58+0000 #
#####################################################################
# seed = 6.0, bandwidth = 74989.42093324558, accessPointCount = 1031.338537721246, baserange = 1000.0
#
# The columns have the following meaning: 
# time neighbor_count[Sum] <value>@neighbor_count[Sum] packet_size[Mean] mean_delay[Mean] crowd[Sum] overcrowded[Sum] risk[Sum] 
0.0 NaN NaN NaN NaN NaN NaN NaN 
2.0000757661004798 3148.0 2819.0 4978.242088607594 0.37595592044123827 1497.0 0.0 1497.0 
4.000671846315423 13123.0 11847.0 4978.957278481013 0.71850849007816 1497.0 0.0 1497.0 
6.001304213596488 25389.0 22869.0 4979.789556962025 1.0477799739229332 1497.0 0.0 1497.0 
8.001304213596487 37360.0 32893.0 4981.604430379747 1.2487405301173213 1497.0 0.0 1497.0 
10.000864995350476 42731.0 35631.0 4983.183544303798 1.5075110752206207 1497.0 0.0 1497.0 
12.001304213596487 42035.0 33186.0 4984.193037974683 1.623074504319393 1497.0 0.0 1497.0 
14.000897953477896 39025.0 30252.0 4983.716772151898 1.4680011216565403 1497.0 0.0 1497.0 
16.001304213596487 41651.0 33252.0 4983.670886075949 1.376515889887944 1497.0 0.0 1497.0 
18.00057478878824 42793.0 33424.0 4983.775316455696 1.358522975203397 1495.0 2.0 1495.0 
20.001304213596487 42419.0 32899.0 4984.412974683544 1.531181963362535 1494.0 3.0 1494.0 
22.001304213596487 42395.0 33102.0 4984.166139240506 1.4796870807984897 1491.0 6.0 1491.0 
24.001304213596487 40152.0 31359.0 4983.8259493670885 1.4588686604861412 1493.0 4.0 1493.0 
26.000646218960107 44121.0 34917.0 4983.590189873417 1.3158073163822348 1492.0 5.0 1492.0 
28.001304213596487 41969.0 32550.0 4984.205696202532 1.493254701326939 1494.0 3.0 1494.0 
30.000574788788242 40924.0 31720.0 4983.849683544304 1.544648659538737 1493.0 4.0 1493.0 
32.000897953477896 41994.0 33045.0 4983.943037974683 1.3481785942502293 1485.0 12.0 1485.0 
34.001304213596484 41816.0 32671.0 4983.658227848102 1.472031780295471 1489.0 8.0 1489.0 
36.00064621896011 42219.0 32956.0 4983.988924050633 1.4169183529419318 1487.0 10.0 1487.0 
38.000897953477896 43101.0 33774.0 4983.64240506329 1.4139913131792465 1493.0 4.0 1493.0 
40.001304213596484 42196.0 33088.0 4983.863924050633 1.5838758943840379 1494.0 3.0 1494.0 
42.001304213596484 39884.0 30576.0 4983.541139240506 1.3457781754319456 1488.0 9.0 1488.0 
44.000897953477896 44120.0 35132.0 4983.827531645569 1.4448992697671361 1490.0 7.0 1490.0 
46.0006462189601 42782.0 33442.0 4984.01582278481 1.461019800870269 1490.0 7.0 1490.0 
48.001304213596484 38433.0 29185.0 4983.901898734177 1.4659835787290167 1492.0 5.0 1492.0 
50.000897953477896 43951.0 34775.0 4983.625 1.4325906619232953 1492.0 5.0 1492.0 
52.001304213596484 43972.0 34943.0 4983.8781645569625 1.416957255218133 1490.0 7.0 1490.0 
54.001304213596484 40813.0 31486.0 4983.691455696202 1.5518819550873673 1491.0 6.0 1491.0 
56.0006462189601 40052.0 30846.0 4983.848101265823 1.3637267566853573 1491.0 6.0 1491.0 
58.001304213596484 44349.0 35190.0 4983.905063291139 1.3993262937115487 1492.0 5.0 1492.0 
60.001304213596484 42389.0 33042.0 4983.981012658228 1.5714426096482965 1491.0 6.0 1491.0 
62.000529962642574 40346.0 31157.0 1035.7468354430387 1.099381739073617 815.0 7.0 342.0 
64.00052996264257 41790.0 32872.0 1035.8702531645595 0.8514647784713149 606.0 6.0 343.0 
66.00052996264257 44752.0 35248.0 1035.4699367088708 0.7223214331242461 548.0 7.0 342.0 
68.00052996264257 45365.0 35821.0 1035.6867088607587 0.688130295605887 516.0 7.0 342.0 
70.00052996264257 45186.0 35797.0 1037.3386075949295 0.7577610291648953 477.0 10.0 340.0 
72.00039771611746 44934.0 35774.0 1037.24367088608 0.6346018691985134 474.0 11.0 339.0 
74.00039771611746 45460.0 35823.0 1039.1012658227912 0.6854426749013837 469.0 13.0 338.0 
76.00039771611746 45497.0 35825.0 1042.780063291129 0.7265351267051423 468.0 12.0 341.0 
78.00039771611746 45234.0 35803.0 1042.6598101265913 0.7373684302037283 463.0 16.0 337.0 
80.00039771611746 44906.0 35775.0 1042.6091772151944 0.6509342233394776 460.0 13.0 340.0 
82.00039771611746 45389.0 35817.0 1042.7183544303703 0.685332872096773 459.0 13.0 340.0 
84.00039771611746 45523.0 35828.0 1044.5031645569616 0.7112424742468912 457.0 17.0 337.0 
86.00039771611746 45099.0 35791.0 1044.5237341772088 0.7413404894586078 450.0 19.0 335.0 
88.00039771611746 44924.0 35782.0 1044.4857594936766 0.6441131586562236 445.0 17.0 337.0 
90.00039771611746 45273.0 35817.0 1044.3639240506354 0.7070170899514944 453.0 18.0 336.0 
92.00052996264257 45280.0 35813.0 1044.4129746835324 0.6924369733957236 454.0 19.0 335.0 
94.00052996264257 45284.0 35809.0 1044.4145569620323 0.7155172228455786 455.0 17.0 337.0 
96.00052996264257 45093.0 35798.0 1044.452531645565 0.6926419015730214 452.0 17.0 337.0 
98.00052996264257 45135.0 35807.0 1044.4493670886015 0.6892015582308285 455.0 15.0 339.0 
100.00052996264257 45078.0 35796.0 1046.2674050633063 0.6847997355072531 450.0 19.0 336.0 
102.00052996264257 45375.0 35824.0 1046.3291139240437 0.7109604521953846 449.0 21.0 334.0 
104.00052996264257 45009.0 35793.0 1046.2800632911287 0.6862565823171731 446.0 20.0 335.0 
106.00052996264257 44995.0 35791.0 1044.4857594936766 0.7148162688866121 449.0 16.0 338.0 
108.00052996264257 45195.0 35813.0 1044.3544303797526 0.6553503326539951 454.0 17.0 337.0 
110.00052996264257 45383.0 35820.0 1046.2753164556884 0.735935247945071 452.0 18.0 337.0 
112.00052996264257 45183.0 35800.0 1046.2705696202474 0.6958839973879457 448.0 17.0 338.0 
114.00052996264257 45091.0 35793.0 1046.1914556961997 0.6836101778263649 449.0 18.0 337.0 
116.00052996264257 45172.0 35811.0 1046.251582278479 0.6929924447582642 453.0 17.0 338.0 
118.00052996264257 45275.0 35815.0 1048.0522151898756 0.7146325051475702 454.0 16.0 340.0 
120.00052996264257 45098.0 35794.0 1046.2341772151947 0.6955927900700285 448.0 17.0 338.0 
122.00052996264257 45248.0 35806.0 1044.4224683544353 0.6803556571315774 452.0 17.0 337.0 
124.00052996264257 45207.0 35806.0 1042.6756329113985 0.687397115010334 449.0 16.0 337.0 
126.00052996264257 45247.0 35813.0 1040.7879746835324 0.7474684722365682 452.0 17.0 335.0 
128.00052996264256 44930.0 35776.0 1040.8101265822797 0.6420814228391231 446.0 17.0 335.0 
130.0005299626426 45392.0 35822.0 1039.034810126591 0.7031583981699975 450.0 16.0 335.0 
132.0005299626426 45350.0 35822.0 1039.0031645569613 0.7000623062854074 451.0 17.0 334.0 
134.0005299626426 45048.0 35792.0 1038.9129746835324 0.7259707928939552 449.0 17.0 334.0 
136.0005299626426 45100.0 35788.0 1037.1392405063232 0.6603641735756766 444.0 16.0 334.0 
138.0005299626426 45540.0 35828.0 1037.2088607594844 0.6875317653891543 449.0 17.0 333.0 
140.0005299626426 45391.0 35816.0 1037.1977848101242 0.731070207321067 448.0 17.0 333.0 
142.0005299626426 45038.0 35775.0 1037.1582278480903 0.7029575197317722 443.0 16.0 334.0 
144.0005299626426 45174.0 35792.0 1037.13132911392 0.64814594342157 444.0 17.0 333.0 
146.0005299626426 45533.0 35821.0 1037.11867088608 0.7160264947204706 446.0 17.0 333.0 
148.0005299626426 45460.0 35811.0 1037.1756329113985 0.7039664954049987 448.0 17.0 333.0 
150.0005299626426 45376.0 35804.0 1036.9794303797523 0.7291841958832672 450.0 18.0 332.0 
152.0005299626426 45106.0 35786.0 1038.876582278479 0.6603643577661265 446.0 18.0 333.0 
154.0005299626426 45564.0 35817.0 1035.2958860759563 0.6980888579233666 450.0 17.0 332.0 
156.0005299626426 45520.0 35811.0 1033.446202531645 0.7118385519792355 445.0 23.0 325.0 
158.0005299626426 45450.0 35811.0 1033.4889240506348 0.7137716833775299 447.0 24.0 324.0 
160.0005299626426 45081.0 35782.0 1035.2768987341876 0.6811472776184178 443.0 17.0 332.0 
162.0005299626426 45277.0 35804.0 1037.13132911392 0.6892619414391531 447.0 18.0 332.0 
164.0005299626426 45456.0 35814.0 1037.001582278479 0.6730763902498643 449.0 18.0 332.0 
166.0005299626426 45476.0 35819.0 1035.2753164556887 0.746013782571979 451.0 16.0 333.0 
168.0005299626426 45281.0 35798.0 1035.2120253164676 0.6866663041380825 446.0 17.0 332.0 
170.0005299626426 45129.0 35784.0 1037.1155063291187 0.678942220692107 448.0 17.0 333.0 
172.0005299626426 45518.0 35818.0 1035.2816455696295 0.6724811130323971 449.0 17.0 332.0 
174.0005299626426 45622.0 35826.0 1033.460443037968 0.7391057858148935 449.0 18.0 330.0 
176.0005299626426 45155.0 35781.0 1033.5379746835324 0.698487867331582 443.0 20.0 328.0 
178.0005299626426 45268.0 35791.0 1033.3575949366937 0.6597049519906797 445.0 19.0 329.0 
180.00039771611745 45427.0 35817.0 1033.3639240506352 0.6931948228763797 452.0 18.0 330.0 
182.00039771611745 45486.0 35818.0 1033.4414556962 0.7320539712793535 449.0 21.0 327.0 
184.00039771611745 45157.0 35780.0 1035.2816455696295 0.6590300166195214 442.0 21.0 328.0 
186.00039771611745 45558.0 35816.0 1035.2262658227912 0.7134508024877193 446.0 23.0 326.0 
188.00039771611745 45408.0 35813.0 1037.0253164556887 0.6751216655906933 448.0 22.0 328.0 
190.00039771611745 45417.0 35806.0 1033.3860759493648 0.7362079831105318 446.0 20.0 328.0 
192.00039771611745 45371.0 35799.0 1038.7420886075965 0.6630110018189028 448.0 18.0 333.0 
194.00039771611745 45416.0 35812.0 1038.9367088607585 0.7012443822792573 451.0 19.0 332.0 
196.00039771611745 45224.0 35806.0 1038.9113924050707 0.7175869063328829 448.0 19.0 332.0 
198.00039771611745 45076.0 35791.0 1038.8417721519095 0.6936399164480302 446.0 23.0 328.0 
200.0005299626426 45143.0 35800.0 1037.1344936708813 0.6688626717746681 436.0 31.0 319.0 
202.0005299626426 45383.0 35824.0 1037.0743670886018 0.7020979876779389 441.0 28.0 322.0 
204.0005299626426 45225.0 35814.0 1037.039556962032 0.7107325273159929 445.0 26.0 324.0 
206.0005299626426 45066.0 35799.0 1038.835443037968 0.7163548689574768 447.0 25.0 326.0 
208.0005299626426 45105.0 35798.0 1038.8702531645595 0.6499600434099864 441.0 25.0 326.0 
210.0005299626426 45459.0 35830.0 1037.0569620253168 0.7255029462662124 444.0 26.0 324.0 
212.0005299626426 45031.0 35797.0 1038.9462025316445 0.6816271961117049 445.0 25.0 326.0 
214.0005299626426 45058.0 35803.0 1038.88132911392 0.7048538495274602 443.0 25.0 326.0 
216.0005299626426 44979.0 35794.0 1038.7753164556887 0.6923302997823445 442.0 26.0 325.0 
218.0005299626426 45199.0 35813.0 1038.8797468354405 0.6834594290155661 444.0 26.0 325.0 
220.0005299626426 45257.0 35819.0 1038.8148734177203 0.6917068465610956 447.0 25.0 326.0 
222.0005299626426 45169.0 35817.0 1037.0094936708813 0.7352071200576897 446.0 26.0 324.0 
224.0005299626426 44791.0 35783.0 1038.8386075949293 0.6671146328017123 442.0 26.0 325.0 
226.0005299626426 45042.0 35797.0 1038.8338607594847 0.6850244828319703 442.0 25.0 326.0 
228.0005299626426 45417.0 35835.0 1040.6708860759566 0.6866899269118704 444.0 26.0 326.0 
230.0005299626426 45148.0 35814.0 1037.1408227848058 0.7517611921150276 443.0 26.0 324.0 
232.0005299626426 44669.0 35768.0 1037.0886075949295 0.6625103127696903 433.0 25.0 325.0 
234.0005299626426 45087.0 35810.0 1035.1107594936768 0.66486629172662 442.0 26.0 323.0 
236.0005299626426 45195.0 35826.0 1035.2120253164676 0.7044256145003531 442.0 26.0 323.0 
238.0005299626426 45159.0 35818.0 1035.2278481012527 0.7340581753640416 439.0 25.0 324.0 
240.0005299626426 44721.0 35775.0 1031.4825949366937 0.6768181399452258 434.0 26.0 321.0 
242.0005299626426 44980.0 35810.0 1031.5458860759563 0.6689902028826863 437.0 27.0 320.0 
244.0005299626426 45104.0 35826.0 1031.6075949366937 0.6841573629847428 436.0 28.0 319.0 
246.0005299626426 45062.0 35818.0 1029.7832278480905 0.7601482587111205 438.0 27.0 319.0 
248.0005299626426 44741.0 35785.0 1027.9319620253173 0.6454846995410479 435.0 26.0 319.0 
250.0005299626426 44868.0 35806.0 1026.1155063291187 0.6919950170913223 429.0 26.0 318.0 
252.0005299626426 45029.0 35824.0 1026.0427215189734 0.6934350655677768 433.0 26.0 318.0 
254.0005299626426 44870.0 35800.0 1026.1186708860796 0.7082674868456502 433.0 27.0 317.0 
256.0005299626426 44875.0 35806.0 1022.5110759493655 0.680762725855503 428.0 28.0 314.0 
258.0005299626426 45083.0 35827.0 1024.2674050633063 0.6997423474154111 432.0 29.0 314.0 
260.0005299626426 44805.0 35807.0 1022.4841772151934 0.697705414821939 436.0 28.0 314.0 
262.0005299626426 44902.0 35807.0 1018.770569620249 0.6941400556626143 434.0 28.0 312.0 
264.0005299626426 44891.0 35812.0 1020.5759493670861 0.6670737564646371 434.0 26.0 315.0 
266.0005299626426 44982.0 35819.0 1022.4841772151931 0.7299181539634396 437.0 26.0 316.0 
268.0005299626426 44636.0 35791.0 1024.3259493670862 0.6637815464744788 431.0 27.0 316.0 
270.0005299626426 44862.0 35819.0 1031.4968354430393 0.7225737867410694 445.0 21.0 326.0 
272.0005299626426 44732.0 35807.0 1033.3686708860796 0.671157253463252 438.0 22.0 326.0 
274.0005299626426 44846.0 35814.0 1031.5886075949295 0.6925337346103161 435.0 26.0 321.0 
276.0005299626426 44836.0 35816.0 1031.4462025316452 0.6997279514020999 435.0 28.0 319.0 
278.0005299626426 44738.0 35808.0 1033.3354430379684 0.6958132396955322 434.0 26.0 322.0 
280.0005299626426 44723.0 35800.0 1036.9731012658124 0.682557614715975 436.0 21.0 329.0 
282.0005299626426 44882.0 35808.0 1036.9968354430387 0.6778950352044285 436.0 22.0 328.0 
284.0005299626426 44931.0 35821.0 1038.7705696202477 0.6867512553225147 439.0 22.0 329.0 
286.0005299626426 44750.0 35803.0 1036.9731012658124 0.7373661636458789 436.0 20.0 330.0 
288.0005299626426 44580.0 35793.0 1038.7800632911292 0.6606005353058486 435.0 20.0 331.0 
290.0005299626426 45016.0 35819.0 1038.7626582278444 0.6873076072759442 441.0 18.0 333.0 
292.0005299626426 45079.0 35830.0 1038.8117088607587 0.6992233724218853 443.0 17.0 334.0 
294.0005299626426 44915.0 35816.0 1036.9018987341876 0.7428025018856517 442.0 18.0 332.0 
296.0005299626426 44353.0 35770.0 1036.947784810124 0.6648314277024681 437.0 18.0 332.0 
298.0005299626426 44947.0 35822.0 1038.8243670886018 0.656003677245999 440.0 17.0 334.0 
300.0005299626426 45058.0 35839.0 1040.6028481012527 0.7204392786341323 441.0 18.0 334.0 
302.0005299626426 44710.0 35801.0 1040.6329113924032 0.7305409357983916 440.0 18.0 334.0 
304.0005299626426 44457.0 35778.0 1036.9098101265909 0.642960513186825 430.0 17.0 333.0 
306.0005299626426 44871.0 35822.0 1036.9129746835324 0.7007840407564134 439.0 18.0 332.0 
308.0005299626426 45020.0 35834.0 1035.1598101265909 0.6996472997931422 439.0 18.0 331.0 
310.0005299626426 44741.0 35800.0 1037.0648734177203 0.7234736065194421 437.0 17.0 333.0 
312.0005299626426 44622.0 35801.0 1036.9889240506352 0.6655727047223194 434.0 18.0 332.0 
314.0005299626426 44704.0 35810.0 1037.0332278480905 0.6744434931922118 435.0 19.0 331.0 
316.0005299626426 44829.0 35819.0 1037.0427215189734 0.7068682342866609 439.0 17.0 333.0 
318.0005299626426 44909.0 35818.0 1035.1455696202477 0.7020235314330766 438.0 18.0 331.0 
320.0005299626426 44567.0 35793.0 1035.248417721521 0.6813558052022164 433.0 18.0 331.0 
322.0005299626426 44668.0 35803.0 1037.080696202526 0.6817706320827128 432.0 17.0 333.0 
324.0005299626426 44655.0 35804.0 1036.924050632915 0.6694958521122156 437.0 18.0 332.0 
326.0005299626426 44906.0 35828.0 1036.9905063291187 0.7375902463199568 436.0 18.0 332.0 
328.0005299626426 44706.0 35809.0 1035.2136075949295 0.6687785133923118 433.0 16.0 333.0 
330.0005299626426 44681.0 35812.0 1031.5759493670857 0.7196346562800489 435.0 17.0 330.0 
332.0005299626426 44593.0 35809.0 1031.4462025316452 0.6583226367468054 436.0 17.0 330.0 
334.0005299626426 44765.0 35817.0 1033.4351265822797 0.7032681236647293 436.0 16.0 332.0 
336.0005299626426 44711.0 35807.0 1033.3433544303703 0.7075863937728702 431.0 17.0 331.0 
338.0005299626426 44594.0 35794.0 1037.0205696202477 0.668263446552685 435.0 17.0 333.0 
340.0005299626426 44647.0 35811.0 1036.9968354430384 0.6830318335639395 431.0 16.0 334.0 
342.0005299626426 44657.0 35815.0 1035.1123417721558 0.7163754650558796 436.0 17.0 332.0 
344.0005299626426 44480.0 35791.0 1035.180379746839 0.6661974604874036 431.0 17.0 332.0 
346.0005299626426 44745.0 35816.0 1035.1550632911292 0.6877554084716506 433.0 16.0 333.0 
348.0005299626426 44774.0 35826.0 1035.1360759493652 0.6857066801539081 435.0 17.0 332.0 
350.0005299626426 44550.0 35802.0 1035.072784810124 0.735917304691899 435.0 17.0 332.0 
352.0005299626426 44361.0 35775.0 1035.1787974683548 0.635590999366336 429.0 16.0 333.0 
354.0005299626426 44941.0 35834.0 1031.5 0.6804954884820271 433.0 17.0 330.0 
356.0005299626426 44824.0 35827.0 1031.5427215189734 0.7260073023102045 432.0 17.0 330.0 
358.0005299626426 44499.0 35792.0 1031.6170886075968 0.7116739654136229 425.0 16.0 331.0 
360.0005299626426 44410.0 35786.0 1033.24367088608 0.6529649102048227 426.0 17.0 331.0 
362.0005299626426 44819.0 35824.0 1033.4430379746832 0.6829386222991788 433.0 17.0 331.0 
364.0005299626426 44850.0 35829.0 1033.3829113924032 0.7066525223182993 432.0 16.0 332.0 
366.0005299626426 44505.0 35792.0 1031.4825949366937 0.7364693219043955 428.0 17.0 330.0 
368.0005299626426 44353.0 35784.0 1026.0458860759566 0.6310218796251972 427.0 17.0 327.0 
370.0005299626426 44721.0 35817.0 1024.2816455696295 0.6882664762655637 429.0 16.0 327.0 
372.0005299626426 44774.0 35822.0 1022.4604430379686 0.6978230872158122 433.0 17.0 325.0 
374.0005299626426 44604.0 35804.0 1022.4003164556891 0.7043733820173764 435.0 17.0 325.0 
376.0005299626426 44340.0 35782.0 1020.6360759493656 0.6690704271000303 423.0 16.0 325.0 
378.0005299626426 44715.0 35814.0 1016.9018987341876 0.6771536382982444 435.0 17.0 322.0 
380.0005299626426 44733.0 35805.0 1016.976265822791 0.6854032697935698 437.0 17.0 322.0 
382.0005299626426 44892.0 35823.0 1018.8655063291186 0.7073469169246501 440.0 16.0 324.0 
384.0005299626426 44617.0 35802.0 1020.5363924050706 0.6815310494780836 435.0 17.0 324.0 
386.0005299626426 44549.0 35797.0 1024.2895569620312 0.7046550049881274 439.0 17.0 326.0 
388.0005299626426 44795.0 35815.0 1024.2879746835324 0.6456292540171895 440.0 16.0 327.0 
390.0005299626426 44920.0 35827.0 1024.294303797473 0.7444211585266001 438.0 17.0 326.0 
392.0005299626426 44503.0 35790.0 1022.518987341764 0.6862566339921979 435.0 17.0 325.0 
394.0005299626426 44397.0 35779.0 1020.6740506329143 0.6530323951761255 431.0 16.0 325.0 
396.0005299626426 44782.0 35824.0 1022.3575949366938 0.6918780390684222 437.0 17.0 325.0 
398.0005299626426 44850.0 35822.0 1020.6819620253175 0.7194634887371343 440.0 18.0 323.0 
400.0005299626426 44476.0 35791.0 1020.6740506329143 0.6862973109793848 436.0 16.0 325.0 
402.0005299626426 44629.0 35808.0 1024.2420886075972 0.6761768907772397 440.0 17.0 326.0 
404.0005299626426 44593.0 35817.0 1029.6613924050705 0.6754918262792492 441.0 17.0 329.0 
406.0005299626426 44724.0 35819.0 1029.7768987341876 0.7423060191209794 441.0 16.0 330.0 
408.0005299626426 44541.0 35792.0 1027.922468354436 0.6558893862497281 436.0 17.0 328.0 
410.0005299626426 44761.0 35820.0 1027.9651898734098 0.7009434182817985 442.0 17.0 328.0 
412.0005299626426 44625.0 35810.0 1029.7958860759563 0.6800889685198648 440.0 16.0 330.0 
414.0005299626426 44612.0 35801.0 1033.2911392405153 0.7185470706298539 444.0 17.0 331.0 
416.0005299626426 44752.0 35797.0 1033.3354430379684 0.6760436491952345 440.0 17.0 331.0 
418.0005299626426 44996.0 35824.0 1029.8196202531612 0.6767405300405946 442.0 16.0 330.0 
420.0005299626426 44945.0 35821.0 1029.6693037974733 0.7300297067476289 442.0 17.0 329.0 
422.0005299626426 44525.0 35782.0 1026.080696202527 0.6926086946293075 444.0 17.0 327.0 
424.0005299626426 44653.0 35794.0 1018.7784810126496 0.6439292377744078 441.0 16.0 324.0 
426.0005299626426 44992.0 35827.0 1020.6518987341874 0.7151002536125706 444.0 17.0 324.0 
428.0005299626426 44744.0 35812.0 1020.7025316455641 0.6954105268366819 442.0 17.0 324.0 
430.0005299626426 44596.0 35791.0 1022.425632911397 0.7152744853549503 442.0 16.0 326.0 
432.0005299626426 44525.0 35795.0 1020.5189873417642 0.6532022134757103 441.0 17.0 324.0 
434.0005299626426 44867.0 35823.0 1024.2325949366939 0.690517792291512 446.0 17.0 326.0 
436.0005299626426 44723.0 35808.0 1033.3544303797519 0.7012412504217298 450.0 16.0 332.0 
438.0005299626426 44780.0 35815.0 1042.3924050633063 0.7153655102448736 452.0 17.0 336.0 
440.0005299626426 44370.0 35789.0 1042.422468354435 0.674766113444381 451.0 17.0 336.0 
442.0005299626426 44716.0 35812.0 1038.9018987341876 0.6831382630759311 454.0 16.0 335.0 
444.0005299626426 44885.0 35826.0 1036.9667721519095 0.6856199676488898 453.0 17.0 333.0 
446.0005299626426 44742.0 35815.0 1040.7072784810266 0.7470856702883706 452.0 17.0 335.0 
448.0005299626426 44413.0 35781.0 1046.1392405063234 0.6685114572274388 445.0 17.0 338.0 
450.0005299626426 44561.0 35795.0 1046.0743670886015 0.67999401548929 451.0 18.0 337.0 
452.0005299626426 44891.0 35828.0 1046.0727848101249 0.6821685049076264 454.0 18.0 337.0 
454.0005299626426 44842.0 35820.0 1046.1518987341876 0.7302258035164019 454.0 17.0 338.0 
456.0005299626426 44473.0 35787.0 1046.0759493670846 0.7102883022569016 446.0 18.0 337.0 
458.0005299626426 44548.0 35798.0 1047.8623417721549 0.6503446075931512 452.0 18.0 338.0 
460.0005299626426 44786.0 35823.0 1046.1439873417642 0.6948628709436612 449.0 17.0 338.0 
462.0005299626426 44900.0 35821.0 1044.2816455696297 0.7385758930059416 451.0 18.0 336.0 
464.0005299626426 44424.0 35776.0 1044.3006329113985 0.6640321195385144 446.0 18.0 336.0 
466.0005299626426 44726.0 35807.0 1040.7405063291187 0.6916270785516142 445.0 17.0 335.0 
468.0005299626426 44845.0 35821.0 1040.6107594936766 0.6879983866802378 449.0 18.0 334.0 
470.0005299626426 44756.0 35807.0 1036.9857594936768 0.735018072500301 445.0 18.0 332.0 
472.0005299626426 44634.0 35793.0 1038.7816455696297 0.6519561096942285 442.0 17.0 334.0 
474.0005299626426 44819.0 35816.0 1038.772151898747 0.6987528537674648 443.0 18.0 333.0 
476.0005299626426 44708.0 35810.0 1035.1218354430384 0.707393166680293 442.0 19.0 330.0 
478.0005299626426 44677.0 35797.0 1035.2357594936768 0.6864823845345176 438.0 20.0 329.0 
480.0005299626426 44817.0 35811.0 1035.1708860759563 0.6860340739552047 435.0 21.0 328.0 
482.0005299626426 44878.0 35818.0 1037.0648734177203 0.7047210833179504 437.0 21.0 329.0 
484.0005299626426 44652.0 35806.0 1031.569620253161 0.6943384801032663 439.0 17.0 330.0 
486.0005299626426 44764.0 35813.0 1027.746835443039 0.7267043594097058 440.0 18.0 327.0 
488.0005299626426 44723.0 35807.0 1026.128164556961 0.6589367275643725 432.0 19.0 325.0 
490.0005299626426 44889.0 35819.0 1024.3702531645597 0.7152753227900568 435.0 17.0 326.0 
492.0005299626426 44647.0 35802.0 1024.177215189876 0.6822582140719823 434.0 18.0 325.0 
494.0005299626426 44647.0 35807.0 1024.2167721519095 0.6920817225493175 436.0 19.0 324.0 
496.0005299626426 44662.0 35798.0 1022.4398734177202 0.6840853054654514 433.0 17.0 325.0 
498.0005299626426 44944.0 35819.0 1017.069620253161 0.6893209198476663 434.0 18.0 321.0 
500.0005299626426 44880.0 35814.0 1016.955696202527 0.6885944942772183 433.0 18.0 321.0 
502.0005299626426 44792.0 35802.0 1017.0221518987471 0.7097719052817394 433.0 17.0 322.0 
504.0005299626426 44723.0 35796.0 1015.0870253164674 0.6738252343357262 432.0 18.0 320.0 
506.0005299626426 44856.0 35805.0 1015.2484177215196 0.6874771817650772 434.0 18.0 320.0 
508.0005299626426 45147.0 35833.0 1018.9177215189736 0.6732365227763991 441.0 17.0 323.0 
510.0005299626426 45010.0 35817.0 1016.9620253164674 0.7529547358891596 439.0 18.0 321.0 
512.0005299626425 44571.0 35775.0 1013.3607594936767 0.654500082775689 435.0 18.0 319.0 
514.0005299626425 45046.0 35814.0 1015.1218354430406 0.6570516807196198 437.0 18.0 320.0 
516.0005299626425 45248.0 35838.0 1009.7373417721578 0.7156561341752571 433.0 19.0 316.0 
518.0005299626425 45009.0 35810.0 1002.4841772151917 0.7270000277628328 432.0 19.0 312.0 
520.0005299626425 44490.0 35761.0 1002.4746835443086 0.6501385903809974 423.0 17.0 314.0 
522.0005299626425 45039.0 35821.0 1000.5727848101214 0.6636394753054408 430.0 18.0 312.0 
524.0005299626425 45187.0 35837.0 998.7547468354404 0.6910658653965904 430.0 19.0 310.0 
526.0005299626425 45002.0 35808.0 989.7816455696294 0.7486626027925097 427.0 17.0 307.0 
528.0005299626425 44808.0 35787.0 995.0458860759564 0.6412124930652222 427.0 18.0 309.0 
530.0005299626425 44957.0 35809.0 989.6882911392377 0.6811483550820898 431.0 19.0 305.0 
532.0005299626425 45135.0 35827.0 987.9256329113971 0.6846591719648015 432.0 17.0 306.0 
534.0005299626425 45032.0 35810.0 986.0569620253203 0.7118252781553223 430.0 18.0 304.0 
536.0005299626425 44821.0 35799.0 984.2737341772091 0.6748985515322382 424.0 18.0 303.0 
538.0005299626425 44898.0 35805.0 984.2721518987469 0.6651265970378478 424.0 17.0 304.0 
540.0005299626425 44916.0 35811.0 987.8939873417643 0.6941946920083639 424.0 19.0 304.0 
542.0005299626425 45018.0 35811.0 989.6977848101207 0.6878771270516947 422.0 19.0 305.0 
544.0005299626425 44879.0 35800.0 991.4936708860769 0.6597313885480169 420.0 18.0 307.0 
546.0005299626425 45078.0 35820.0 995.1582278480906 0.7252589359247965 426.0 19.0 308.0 
548.0005299626425 44780.0 35798.0 998.780063291132 0.6540363266272845 429.0 19.0 310.0 
550.0005299626425 45020.0 35817.0 998.830696202529 0.7118390965774111 428.0 18.0 311.0 
552.0005299626425 44908.0 35808.0 996.9161392405157 0.669793316551131 426.0 19.0 309.0 
554.0005299626425 44883.0 35807.0 997.037974683533 0.6884096836113814 428.0 19.0 309.0 
556.0005299626425 44863.0 35805.0 995.0696202531609 0.6813354173138606 424.0 18.0 309.0 
558.0005299626425 44970.0 35818.0 993.2294303797487 0.698693571889746 427.0 19.0 307.0 
560.0005299626425 44843.0 35804.0 995.1202531645596 0.6796607015796282 421.0 19.0 308.0 
562.0005299626425 44927.0 35808.0 993.3734177215179 0.671312678523782 427.0 18.0 308.0 
564.0005299626425 45060.0 35826.0 995.087025316467 0.6849223802164089 428.0 19.0 308.0 
566.0005299626425 44847.0 35808.0 996.8433544303705 0.7246798593410244 432.0 19.0 309.0 
568.0005299626425 44701.0 35791.0 998.7484177215193 0.6501835009638492 431.0 19.0 310.0 
570.0005299626425 45127.0 35823.0 998.7373417721583 0.6918434391258222 437.0 20.0 309.0 
572.0000136481748 45016.0 35824.0 1000.5886075949296 0.6920536152504538 435.0 19.0 311.0 
574.0005299626425 44796.0 35801.0 1002.3892405063233 0.7222621415725146 433.0 19.0 312.0 
576.0005299626425 44503.0 35777.0 1004.0870253164671 0.6642789498583327 431.0 20.0 312.0 
578.0005299626425 45027.0 35824.0 1007.9224683544376 0.6582403726294562 436.0 19.0 315.0 
580.0005299626425 45078.0 35832.0 1011.481012658236 0.7153136878832016 438.0 18.0 318.0 
582.0005299626425 44802.0 35808.0 1011.4129746835329 0.7310528973403897 438.0 19.0 317.0 
584.0005299626425 44541.0 35783.0 1011.3465189873501 0.6402680078209655 435.0 19.0 317.0 
586.0005299626425 45013.0 35824.0 1016.9082278480907 0.7007189803901962 442.0 18.0 321.0 
588.0005299626425 45191.0 35842.0 1018.7515822784796 0.7098595830118588 444.0 19.0 321.0 
590.0005299626425 44729.0 35799.0 1020.6582278480907 0.7303140446119076 442.0 19.0 322.0 
592.0005299626425 44513.0 35781.0 1022.4367088607594 0.6468827218049927 440.0 16.0 326.0 
594.0005299626425 44896.0 35820.0 1018.7088607594842 0.6815385720055622 450.0 15.0 325.0 
596.0005299626425 44982.0 35826.0 1018.8117088607597 0.7252536942004092 450.0 16.0 324.0 
598.0005299626425 45050.0 35823.0 1015.1455696202493 0.7082565993179983 451.0 15.0 323.0 
600.0005299626425 44822.0 35803.0 1013.2674050633063 0.6994149429323209 444.0 15.0 322.0 
602.0005299626425 44940.0 35815.0 1015.1281645569602 0.687940395844875 448.0 15.0 323.0 
604.0005299626425 44934.0 35807.0 1013.3623417721567 0.6719746352162976 447.0 15.0 322.0 
606.0005299626425 45190.0 35829.0 1015.1803797468391 0.7391081485249251 450.0 15.0 323.0 
608.0005299626425 44783.0 35794.0 1017.0601265822798 0.669281187726167 443.0 15.0 324.0 
610.0005299626425 44909.0 35794.0 1013.4303797468391 0.6911888851841231 440.0 15.0 322.0 
612.0005299626425 45115.0 35817.0 1013.2389240506341 0.6689711041700026 445.0 15.0 322.0 
614.0005299626425 45175.0 35823.0 1013.3417721519093 0.7127882003124602 445.0 15.0 322.0 
616.0005299626425 44987.0 35802.0 1011.5474683544364 0.7066500422832976 440.0 15.0 321.0 
618.0005299626425 45059.0 35806.0 1013.3655063291186 0.6750784042456912 442.0 15.0 322.0 
620.0005299626425 45120.0 35820.0 1013.2974683544362 0.6909647329467831 441.0 15.0 322.0 
622.0005299626425 45217.0 35823.0 1018.7737341772089 0.7188683017977726 443.0 15.0 325.0 
624.0005299626425 45060.0 35805.0 1020.617088607597 0.6874056990294312 444.0 16.0 325.0 
626.0005299626425 45187.0 35812.0 1022.4193037974736 0.6989802200682591 450.0 13.0 329.0 
628.0005299626425 45180.0 35811.0 1020.6867088607592 0.6764024654025058 447.0 13.0 328.0 
630.0005299626425 45260.0 35817.0 1022.444620253161 0.7433082862087457 451.0 13.0 329.0 
632.0005299626425 44930.0 35782.0 1022.4462025316451 0.6520191259046622 443.0 15.0 327.0 
634.0005299626425 45342.0 35825.0 1029.7689873417642 0.682023704697602 443.0 18.0 328.0 
636.0005299626425 45301.0 35825.0 1027.8623417721558 0.7386603064938878 441.0 21.0 324.0 
638.0005299626425 45059.0 35802.0 1026.1677215189734 0.7079790508077971 445.0 20.0 324.0 
640.0005299626425 44960.0 35790.0 1026.020569620248 0.6603057861234121 441.0 19.0 325.0 
642.0005299626425 45326.0 35830.0 1022.4588607594845 0.6943272338629091 442.0 20.0 322.0 
644.0005299626425 45178.0 35821.0 1022.4825949366938 0.7174855139445823 443.0 18.0 324.0 
646.0005299626425 44816.0 35782.0 1022.5047468354404 0.7204967976454604 442.0 15.0 327.0 
648.0005299626425 44996.0 35801.0 1022.4351265822798 0.6541610024751914 442.0 15.0 327.0 
650.0005299626425 45332.0 35825.0 1017.0458860759564 0.7102127067206773 443.0 17.0 322.0 
652.0005299626425 45170.0 35818.0 1017.1487341772089 0.7034509061259879 442.0 16.0 323.0 
654.0005299626425 45057.0 35811.0 1016.8860759493655 0.7153896845341459 441.0 15.0 324.0 
656.0005299626425 44839.0 35794.0 1022.4509493670853 0.6797400231454682 439.0 14.0 328.0 
658.0005299626425 45237.0 35820.0 1028.0 0.6857522014916599 441.0 15.0 330.0 
660.0005299626425 45205.0 35816.0 1026.1534810126498 0.7055739397615763 439.0 14.0 330.0 
662.0005299626425 45168.0 35817.0 1027.9715189873502 0.7159501797443443 440.0 14.0 331.0 
664.0005299626425 44844.0 35790.0 1027.86867088608 0.6860973517403655 435.0 14.0 331.0 
#####################################################################
# End of data export. Simulation finished at: 2019-03-05T10:08+0000 #
#####################################################################
