#####################################################################
# Alchemist log file - simulation started at: 2019-03-07T16:52+0000 #
#####################################################################
# seed = 2.0, bandwidth = 1333521.4321633242, accessPointCount = 531.8295896944988, baserange = 31.622776601683796
#
# The columns have the following meaning: 
# time neighbor_count[Sum] <value>@neighbor_count[Sum] packet_size[Mean] mean_delay[Mean] crowd[Sum] overcrowded[Sum] risk[Sum] 
0.0 NaN NaN NaN NaN NaN NaN NaN 
10.000582979052751 178.0 50.0 4982.532544378699 0.5062080830092854 1496.0 1.0 1496.0 
20.00058297905275 178.0 50.0 4982.542406311637 0.5062088132984173 1495.0 2.0 1495.0 
30.00058297905275 178.0 50.0 4982.449704142012 0.5062105017857055 1497.0 0.0 1497.0 
40.00058297905275 178.0 50.0 4982.495069033531 0.5062160230656199 1496.0 1.0 1496.0 
50.00058297905275 176.0 49.0 4982.343195266272 0.5099228060371133 1495.0 2.0 1495.0 
60.00058297905275 176.0 49.0 4980.276134122288 0.5101449457791745 1496.0 0.0 1496.0 
70.00017667639393 176.0 49.0 434.01577909270225 0.49792631105566093 22.0 2.0 13.0 
80.00017667639393 176.0 49.0 434.00197238658757 0.49634152769035583 18.0 2.0 13.0 
90.00017667639393 176.0 49.0 434.01577909270225 0.4963411595830822 16.0 0.0 15.0 
100.00017667639393 178.0 50.0 434.01577909270225 0.4964402984450176 13.0 2.0 13.0 
110.00017667639393 176.0 49.0 434.00197238658757 0.49634152769035583 13.0 2.0 13.0 
120.00017667639393 176.0 49.0 434.01577909270225 0.4963411595830822 15.0 0.0 15.0 
130.00017667639392 174.0 48.0 434.01577909270225 0.49787256162352733 13.0 2.0 13.0 
140.00017667639392 176.0 49.0 434.00197238658757 0.4979248676318459 13.0 2.0 13.0 
150.00017667639392 176.0 49.0 434.01577909270225 0.5420421519967382 15.0 0.0 15.0 
160.00017667639392 174.0 48.0 434.01577909270225 0.49787256162352733 13.0 2.0 13.0 
170.00017667639392 176.0 49.0 434.00197238658757 0.4979248676318459 13.0 2.0 13.0 
180.00017667639392 178.0 50.0 434.01577909270225 0.4979752345772965 15.0 0.0 15.0 
190.00017667639392 178.0 50.0 434.01577909270225 0.4979769890916845 13.0 2.0 13.0 
200.00017667639392 179.0 51.0 434.00197238658757 0.4939972190052677 13.0 2.0 13.0 
210.00017667639392 186.0 53.0 434.01577909270225 0.5076987892083776 15.0 0.0 15.0 
220.00017667639392 184.0 51.0 434.01577909270225 0.4979512784330773 13.0 2.0 13.0 
230.00017667639392 180.0 51.0 434.00197238658757 0.49802348844764766 13.0 2.0 13.0 
240.00017667639392 180.0 51.0 434.01577909270225 0.4980231459033793 15.0 0.0 15.0 
250.00017667639392 181.0 50.0 434.01577909270225 0.5335277398824596 13.0 2.0 13.0 
260.00017667639395 180.0 50.0 440.79881656804747 0.497687544954178 16.0 2.0 16.0 
270.00017667639395 180.0 50.0 440.80276134122266 0.4977876081325395 19.0 0.0 18.0 
280.00017667639395 172.0 47.0 440.80276134122266 0.49776169481073584 16.0 2.0 16.0 
290.00017667639395 182.0 50.0 447.6035502958576 0.49742805982168353 19.0 2.0 19.0 
300.00017667639395 172.0 47.0 447.6035502958576 0.49754390001511095 21.0 0.0 21.0 
310.00017667639395 175.0 49.0 447.5956607495072 0.49458360154688424 19.0 2.0 19.0 
320.00017667639395 180.0 49.0 443.0571992110454 0.5088378253409945 18.0 2.0 17.0 
330.00017667639395 174.0 47.0 443.071005917159 0.5308668028228998 20.0 0.0 19.0 
340.00017667639395 178.0 49.0 443.071005917159 0.497629383071553 17.0 2.0 17.0 
350.00017667639395 184.0 50.0 440.7948717948721 0.5469301176325928 17.0 2.0 16.0 
360.00017667639395 184.0 51.0 436.27810650887557 0.4979495239186805 18.0 0.0 16.0 
370.00017667639395 185.0 51.0 438.5404339250495 0.5493595751053622 17.0 2.0 15.0 
380.00017667639395 180.0 50.0 438.5266272189348 0.4945038659992102 15.0 2.0 15.0 
390.00017667639395 176.0 50.0 436.28599605522675 0.48990463126289 16.0 0.0 16.0 
400.00017667639395 172.0 49.0 436.27810650887557 0.49546864100409466 14.0 2.0 14.0 
410.00017667639395 182.0 52.0 438.54635108481233 0.4945212978777977 15.0 2.0 15.0 
420.00017667639395 184.0 52.0 438.56213017751486 0.4934559059468071 18.0 0.0 17.0 
430.00017667639395 170.0 49.0 436.27810650887557 0.4940741631421904 15.0 2.0 14.0 
440.00017667639395 174.0 51.0 436.26429980276083 0.49438973164749145 15.0 2.0 14.0 
450.00017667639395 172.0 50.0 434.01577909270236 0.49566108758952815 16.0 0.0 15.0 
460.00017667639395 177.0 52.0 434.01577909270236 0.4948319420779671 13.0 2.0 13.0 
470.00017667639395 187.0 55.0 434.00197238658757 0.49778662621423664 13.0 2.0 13.0 
480.00017667639395 185.0 56.0 434.01577909270236 0.5305448089029917 15.0 0.0 15.0 
490.00017667639395 182.0 53.0 438.57790927021654 0.49190059824548443 15.0 2.0 15.0 
500.00017667639395 180.0 51.0 438.57396449704123 0.49388256619243076 16.0 2.0 15.0 
510.00017667639395 182.0 52.0 438.58185404339207 0.4940444590059281 18.0 0.0 17.0 
520.000176676394 181.0 52.0 438.56015779092746 0.5279781610836253 16.0 2.0 15.0 
530.000176676394 176.0 50.0 438.570019723866 0.4938113545455157 16.0 2.0 15.0 
540.000176676394 186.0 54.0 438.5759368836289 0.4945804576928566 18.0 0.0 17.0 
550.000176676394 182.0 53.0 438.5759368836289 0.48787868475269325 16.0 2.0 15.0 
560.000176676394 185.0 54.0 438.56213017751514 0.48581205416311524 16.0 2.0 15.0 
570.000176676394 188.0 55.0 438.5759368836289 0.5024339284083195 18.0 0.0 17.0 
580.000176676394 184.0 56.0 438.5719921104536 0.4902126814670927 16.0 2.0 15.0 
590.000176676394 182.0 54.0 438.53648915187415 0.4873457260167225 16.0 2.0 15.0 
600.000176676394 179.0 54.0 438.5660749506907 0.4857650891343572 18.0 0.0 17.0 
610.000176676394 171.0 49.0 438.56015779092746 0.5250837841494143 16.0 2.0 15.0 
620.000176676394 170.0 49.0 438.55818540433984 0.4946743505989756 16.0 2.0 15.0 
630.000176676394 170.0 49.0 438.5719921104536 0.4946739824917017 18.0 0.0 17.0 
640.000176676394 172.0 49.0 431.7534516765286 0.5019144325627152 15.0 2.0 12.0 
650.000176676394 174.0 50.0 431.73964497041453 0.49943239258650374 14.0 2.0 12.0 
660.000176676394 178.0 51.0 434.0157790927022 0.49765604748020775 17.0 0.0 15.0 
#####################################################################
# End of data export. Simulation finished at: 2019-03-07T17:00+0000 #
#####################################################################
