#####################################################################
# Alchemist log file - simulation started at: 2019-03-04T13:01+0000 #
#####################################################################
# seed = 6.0, bandwidth = 1000.0, accessPointCount = 274.2481756762073, baserange = 562.341325190349
#
# The columns have the following meaning: 
# time neighbor_count[Sum] <value>@neighbor_count[Sum] packet_size[Mean] mean_delay[Mean] crowd[Sum] overcrowded[Sum] risk[Sum] 
0.0 NaN NaN NaN NaN NaN NaN NaN 
2.0013042135964882 NaN NaN 4984.286843591191 NaN 1497.0 0.0 1497.0 
4.001304213596488 NaN NaN 4984.286843591191 NaN 1497.0 0.0 1497.0 
6.001304213596488 31.0 9.0 4984.286843591191 0.3385065319059617 1497.0 0.0 1497.0 
8.001304213596487 59.0 27.0 4984.286843591191 2.0039332343132092 1497.0 0.0 1497.0 
10.001304213596487 59.0 27.0 4984.286843591191 4.003933234313209 1497.0 0.0 1497.0 
12.001304213596487 221.0 93.0 4984.286843591191 1.7626285503346952 1497.0 0.0 1497.0 
14.001304213596487 221.0 93.0 4984.286843591191 3.7626285503346955 1497.0 0.0 1497.0 
16.001304213596487 368.0 150.0 4984.307171089779 3.097289921728632 1497.0 0.0 1497.0 
18.001304213596487 487.0 190.0 4984.458498023715 3.922183103266587 1497.0 0.0 1497.0 
20.001304213596487 488.0 190.0 4984.453980801807 5.904759720125288 1497.0 0.0 1497.0 
22.001304213596487 841.0 316.0 4984.634669678148 3.944863901830697 1497.0 0.0 1497.0 
24.001304213596487 841.0 316.0 4984.639186900056 5.944863901830697 1497.0 0.0 1497.0 
26.001304213596487 1083.0 376.0 4984.6617730095995 5.779333547997757 1497.0 0.0 1497.0 
28.001304213596487 1207.0 407.0 4984.740824392999 7.039715928518091 1497.0 0.0 1497.0 
30.000094213323216 1207.0 407.0 4984.709203839639 9.03971592851809 1497.0 0.0 1497.0 
32.001304213596484 1503.0 505.0 4984.761151891586 7.373554490455029 1497.0 0.0 1497.0 
34.001304213596484 1503.0 505.0 4984.743083003953 9.37355449045503 1497.0 0.0 1497.0 
36.001304213596484 1699.0 555.0 4984.788255223038 9.480237441996493 1497.0 0.0 1497.0 
38.001304213596484 1868.0 595.0 4984.955392433653 10.2722267567185 1497.0 0.0 1497.0 
40.001304213596484 1870.0 596.0 4984.90570299266 12.211524139368159 1497.0 0.0 1497.0 
42.001304213596484 2625.0 700.0 4985.289666854885 9.324334611024831 1497.0 0.0 1497.0 
44.001304213596484 2625.0 700.0 4985.316770186336 11.324334611024831 1497.0 0.0 1497.0 
46.001304213596484 2802.0 739.0 4985.375494071146 11.064512109672375 1497.0 0.0 1497.0 
48.001304213596484 2951.0 769.0 4985.472614342179 11.609123611480205 1497.0 0.0 1497.0 
50.001304213596484 2957.0 771.0 4985.431959345003 13.54438601691637 1497.0 0.0 1497.0 
52.001304213596484 3166.0 830.0 4985.558441558442 10.849958153525554 1497.0 0.0 1497.0 
54.001304213596484 3166.0 830.0 4985.427442123094 12.849958153525554 1497.0 0.0 1497.0 
56.001304213596484 3174.0 861.0 4985.468097120271 12.197004286695142 1497.0 0.0 1497.0 
58.001304213596484 3202.0 874.0 4985.599096555618 12.63625280380705 1497.0 0.0 1497.0 
60.001304213596484 3203.0 874.0 4985.553924336533 14.601091990513904 1497.0 0.0 1497.0 
62.001304213596484 3261.0 899.0 459.78994918125375 11.567231444921191 247.0 0.0 23.0 
64.00130421359648 3263.0 899.0 459.7763975155277 13.17499632121151 240.0 0.0 23.0 
66.00130421359648 3442.0 941.0 470.22924901185786 12.54178302078709 234.0 0.0 27.0 
68.00130421359648 3511.0 941.0 490.92715979672494 12.127434357700157 225.0 0.0 35.0 
70.00130421359648 3520.0 942.0 490.891022021457 13.166080381258363 217.0 0.0 35.0 
72.00130421359648 3013.0 962.0 490.8752117447772 9.025005075392116 171.0 0.0 35.0 
74.00130421359648 3014.0 962.0 490.84810841332586 10.035756757986258 172.0 0.0 35.0 
76.00130421359648 2990.0 967.0 490.85940146809725 9.096515896662815 150.0 0.0 35.0 
78.00130421359648 2950.0 969.0 490.8164878599662 7.409770766306443 108.0 0.0 35.0 
80.00130421359648 2957.0 973.0 490.80745341614886 7.70333115130735 109.0 0.0 35.0 
82.00130421359648 3112.0 992.0 514.1705251270469 5.093147361373739 99.0 0.0 44.0 
84.00130421359648 3113.0 992.0 514.1072840203277 5.606257626468869 99.0 0.0 44.0 
86.00130421359648 3147.0 1008.0 514.1276115189157 4.1402877229799495 90.0 0.0 44.0 
88.00074210797246 3163.0 1025.0 514.2292490118577 2.681589094947301 66.0 0.0 44.0 
90.00130421359648 3170.0 1026.0 514.1931112365897 2.759002622133912 64.0 0.0 44.0 
92.00130421359648 3243.0 1051.0 514.1931112365897 2.9332336450337335 61.0 0.0 44.0 
94.00074210797246 3246.0 1052.0 514.1931112365897 2.9679341657170446 57.0 0.0 44.0 
96.00130421359648 3337.0 1080.0 514.1998870694525 2.6905677466156073 56.0 0.0 44.0 
98.00130421359648 3430.0 1098.0 519.4014680971205 2.8272031849808763 56.0 0.0 46.0 
100.00074210797246 3413.0 1097.0 519.3924336533032 3.123641115248387 56.0 0.0 46.0 
102.00130421359648 3850.0 1178.0 537.6645962732919 2.8105814426328677 70.0 0.0 53.0 
104.00130421359648 3846.0 1179.0 537.5019762845855 3.2354090133338325 69.0 0.0 53.0 
106.00074210797246 4081.0 1203.0 545.3980801806886 2.509399066486522 70.0 0.0 56.0 
108.00130421359648 4270.0 1219.0 558.2111801242235 2.5211280349539686 78.0 0.0 61.0 
110.00130421359648 4277.0 1223.0 555.6024844720496 2.865758218648283 79.0 0.0 60.0 
112.00074210797246 4363.0 1239.0 555.6024844720496 2.8344110419492163 79.0 0.0 60.0 
114.00130421359648 4346.0 1237.0 555.6070016939582 2.882033757041581 80.0 0.0 60.0 
116.00130421359648 4507.0 1267.0 560.878599661209 2.699439399722856 82.0 0.0 62.0 
118.00074210797246 4534.0 1268.0 571.1914172783744 2.5901190829534277 89.0 0.0 66.0 
120.00130421359648 4526.0 1267.0 571.1710897797863 2.7628931143669178 90.0 0.0 66.0 
122.00130421359648 4817.0 1303.0 581.6284584980235 2.617281277842026 97.0 0.0 70.0 
124.00074210797246 4805.0 1301.0 581.5878035008461 2.939502617813154 97.0 0.0 70.0 
126.00130421359648 5116.0 1342.0 594.6245059288531 2.58112288642576 102.0 0.0 75.0 
128.00130421359648 5270.0 1345.0 597.1383399209474 3.0276888275473923 103.0 0.0 76.0 
130.00074210797246 5276.0 1346.0 594.5567476002263 3.3381957755439124 102.0 0.0 75.0 
132.00130421359648 5514.0 1360.0 612.8063241106719 2.9662594222543843 111.0 0.0 82.0 
134.00130421359648 5522.0 1360.0 612.7295313382269 3.1754667214759285 111.0 0.0 82.0 
136.00074210797248 5459.0 1360.0 615.4195369847557 2.64023301559318 115.0 0.0 83.0 
138.00130421359648 5430.0 1360.0 615.4624505928844 2.709931014445441 112.0 0.0 83.0 
140.00130421359648 5419.0 1361.0 615.4240542066635 3.029485659767712 109.0 0.0 83.0 
142.00074210797248 5543.0 1373.0 607.638622247319 3.07469315156154 105.0 0.0 80.0 
144.00130421359648 5550.0 1375.0 607.6228119706392 3.2452122049384937 104.0 0.0 80.0 
146.00130421359648 6015.0 1420.0 615.4647092038379 2.625080735727016 107.0 0.0 83.0 
148.00074210797248 6362.0 1444.0 623.1959345002816 2.7840982988616942 107.0 0.0 86.0 
150.00130421359648 6346.0 1444.0 623.1078486730642 3.192760172829162 106.0 0.0 86.0 
152.00130421359648 6448.0 1449.0 625.693958215697 3.265450838771752 110.0 0.0 87.0 
154.00074210797248 6452.0 1450.0 625.6036137775258 3.433124786717249 111.0 0.0 87.0 
156.00130421359648 6651.0 1472.0 638.7035573122513 3.073437818520307 116.0 0.0 92.0 
158.00130421359648 6711.0 1470.0 641.3529079616038 3.14286517088698 118.0 0.0 93.0 
160.00074210797248 6722.0 1470.0 625.7459062676458 3.1728031358667645 112.0 0.0 87.0 
162.00130421359648 6703.0 1474.0 623.1823828345563 2.949541717220938 111.0 0.0 86.0 
164.00130421359648 6716.0 1475.0 623.1326933935626 3.3760710742711124 112.0 0.0 86.0 
166.00074210797248 6521.0 1467.0 623.1281761716557 3.154009357226691 108.0 0.0 86.0 
168.00130421359648 6486.0 1462.0 623.0265386787122 3.187147003299729 108.0 0.0 86.0 
170.00130421359648 6486.0 1464.0 622.985883681537 3.273153077782 108.0 0.0 86.0 
172.00074210797248 6547.0 1473.0 622.985883681537 3.225302830255864 107.0 0.0 86.0 
174.00130421359648 6519.0 1470.0 622.985883681537 3.1784555042175153 106.0 0.0 86.0 
176.00130421359648 6442.0 1465.0 630.7916431394689 3.057415713890778 109.0 0.0 89.0 
178.00074210797248 6396.0 1466.0 635.9186900056468 3.0650019368241384 111.0 0.0 91.0 
180.00130421359648 6411.0 1467.0 635.9186900056468 3.346317132023904 111.0 0.0 91.0 
182.00130421359648 6518.0 1473.0 636.0112930547714 3.068717347611127 108.0 0.0 91.0 
184.00074210797248 6520.0 1472.0 635.9887069452285 3.5195518203346525 108.0 0.0 91.0 
186.00130421359648 6463.0 1477.0 633.4771315640876 3.1022198395669522 107.0 0.0 90.0 
188.00130421359648 6609.0 1489.0 646.394127611517 3.178353666297996 112.0 0.0 95.0 
190.00074210797248 6637.0 1492.0 636.0180688876349 3.422487664475471 107.0 0.0 91.0 
192.00130421359648 6641.0 1496.0 649.1157538114062 3.3169078366547224 107.0 0.0 96.0 
194.00130421359648 6588.0 1493.0 646.5273856578216 3.4612155565180527 105.0 0.0 95.0 
196.00074210797248 6623.0 1494.0 623.0762281197045 3.531983222371086 96.0 0.0 86.0 
198.00130421359648 6683.0 1497.0 625.6533032185222 3.6290522692102694 98.0 0.0 87.0 
200.00130421359648 6703.0 1500.0 625.6578204404295 4.086672998593939 98.0 0.0 87.0 
202.00074210797248 6753.0 1502.0 625.6533032185222 3.1912002008552505 102.0 0.0 87.0 
204.00130421359648 6759.0 1503.0 625.6533032185222 3.5450750552734234 103.0 0.0 87.0 
206.00130421359648 6780.0 1503.0 628.2710333145102 3.485611749189356 104.0 0.0 88.0 
208.00074210797248 6793.0 1504.0 633.450028232639 3.726689073166851 114.0 0.0 90.0 
210.00130421359648 6808.0 1504.0 636.0496894409933 3.6562058736739065 117.0 0.0 91.0 
212.00130421359648 6838.0 1505.0 636.1919819311106 3.6411289394981003 120.0 0.0 91.0 
214.00074210797248 6850.0 1509.0 636.2010163749286 4.120278340470117 122.0 0.0 91.0 
216.00130421359648 6830.0 1505.0 636.2145680406558 3.538506555308105 122.0 0.0 91.0 
218.00130421359648 6782.0 1501.0 636.2100508187485 3.4862424627966044 123.0 0.0 91.0 
220.00074210797248 6795.0 1502.0 628.252964426876 3.4339813214900556 121.0 0.0 88.0 
222.00130421359648 6724.0 1498.0 625.6962168266507 3.231565543178044 121.0 0.0 87.0 
224.00130421359648 6711.0 1497.0 617.9062676453979 3.561119746211672 120.0 0.0 84.0 
226.00074210797248 6691.0 1496.0 597.1857707509866 3.3947141465917112 118.0 0.0 76.0 
228.00130421359648 6604.0 1492.0 597.1609260304919 3.5940190501091633 117.0 0.0 76.0 
230.00130421359648 6599.0 1491.0 597.0999435347263 3.4022087985083767 117.0 0.0 76.0 
232.00074210797248 6591.0 1492.0 597.0750988142283 3.4422981288412866 115.0 0.0 76.0 
234.00130421359648 6605.0 1490.0 597.1383399209475 3.4048471910638667 115.0 0.0 76.0 
236.00130421359648 6654.0 1493.0 589.3461321287416 3.4048625283131524 113.0 0.0 73.0 
238.00074210797248 6671.0 1497.0 589.3754940711469 3.671796512125785 108.0 0.0 73.0 
240.00130421359648 6683.0 1497.0 589.3800112930546 4.146474228590385 105.0 0.0 73.0 
242.00016695427533 6595.0 1493.0 591.9435347261424 3.6949531160421407 92.0 0.0 74.0 
244.00074210797248 6547.0 1487.0 591.8938452851489 3.5816194373550214 92.0 0.0 74.0 
246.00130421359648 6517.0 1487.0 565.9220779220781 3.2409834336876457 80.0 0.0 64.0 
248.00130421359648 6520.0 1487.0 565.9808018068898 3.710046787932324 77.0 0.0 64.0 
250.00016695427533 6486.0 1486.0 558.1931112365885 3.7629308939307404 71.0 0.0 61.0 
252.00130421359648 6494.0 1487.0 560.7837380011304 3.278386541048315 79.0 0.0 62.0 
254.00130421359648 6562.0 1495.0 558.1885940146802 3.3167368625506035 78.0 0.0 61.0 
256.0007421079725 7205.0 1531.0 610.272162619989 3.060847853327814 97.0 0.0 81.0 
258.00016695427536 7679.0 1543.0 633.3167701863358 2.960368052143918 106.0 0.0 90.0 
260.0013042135965 7708.0 1545.0 635.9141727837375 3.422466631146057 107.0 0.0 91.0 
262.0007421079725 8018.0 1557.0 667.281761716545 3.286884034617068 120.0 0.0 103.0 
264.0013042135965 8025.0 1558.0 672.3636363636358 3.469898726298652 124.0 0.0 105.0 
266.0013042135965 8224.0 1572.0 693.2557876905695 3.3394832375566246 135.0 0.0 113.0 
268.0007421079725 8403.0 1578.0 711.5324675324682 3.4876503953914195 153.0 0.0 120.0 
270.0013042135965 8571.0 1592.0 732.2100508187473 3.449836909408983 157.0 0.0 128.0 
272.0013042135965 8663.0 1594.0 737.3190287972902 3.670972726677586 161.0 0.0 130.0 
274.0007421079725 8683.0 1595.0 737.2987012987026 3.5194591394271586 161.0 0.0 130.0 
276.0013042135965 8854.0 1606.0 737.357425183513 3.5871510164427107 162.0 0.0 130.0 
278.0013042135965 8816.0 1601.0 740.0045172219083 3.883396762319263 164.0 0.0 131.0 
280.0007421079725 8849.0 1603.0 739.9887069452298 4.257256039721481 164.0 0.0 131.0 
282.0013042135965 8905.0 1604.0 724.4268774703564 4.15569176931738 153.0 0.0 125.0 
284.0013042135965 8862.0 1600.0 724.4020327498592 4.519211640424267 150.0 0.0 125.0 
286.0007421079725 8689.0 1588.0 719.2049689440985 4.505135241218902 147.0 0.0 123.0 
288.0013042135965 8533.0 1589.0 714.0530773574244 4.601105630507792 145.0 0.0 121.0 
290.0013042135965 8481.0 1584.0 716.6391869000562 4.345243560648948 144.0 0.0 122.0 
292.0007421079725 8313.0 1577.0 716.5985319028794 3.8273162822761138 144.0 0.0 122.0 
294.0013042135965 8315.0 1579.0 716.6324110671937 3.9825964499972915 143.0 0.0 122.0 
296.0013042135965 8183.0 1575.0 716.5601355166565 3.7658189176375845 141.0 0.0 122.0 
298.0007421079725 8066.0 1572.0 719.1552795031068 3.836454339010999 139.0 0.0 123.0 
300.0013042135965 7932.0 1567.0 708.6459627329198 3.960923988908515 136.0 0.0 119.0 
302.0013042135965 7865.0 1565.0 713.8430265386785 4.116966006427619 142.0 0.0 121.0 
304.0007421079725 7844.0 1565.0 708.6301524562392 4.401397620206216 140.0 0.0 119.0 
306.0013042135965 7895.0 1565.0 724.3546019198192 3.6135072370892534 145.0 0.0 125.0 
308.0013042135965 8243.0 1580.0 739.7605872388476 3.6661893180300655 157.0 0.0 131.0 
310.0007421079725 8284.0 1584.0 750.1072840203278 3.734211115359701 163.0 0.0 135.0 
312.0013042135965 8718.0 1602.0 770.9339356295882 3.472749801832017 179.0 0.0 143.0 
314.0013042135965 8815.0 1608.0 783.9751552795027 3.401330619260189 182.0 0.0 148.0 
316.0007421079725 9468.0 1637.0 841.242236024844 3.378569390939577 208.0 0.0 170.0 
318.0013042135965 10124.0 1662.0 905.870129870129 3.346563011411348 234.0 0.0 195.0 
320.0013042135965 10243.0 1682.0 910.9542631281761 3.8545296110356992 239.0 0.0 197.0 
322.0007421079725 11805.0 1732.0 966.0056465273856 3.5785941072249434 276.0 0.0 218.0 
324.0013042135965 11777.0 1730.0 963.2456239412774 3.8012114998046713 276.0 0.0 217.0 
326.0013042135965 11888.0 1734.0 968.431394692264 3.8694623582388608 276.0 0.0 219.0 
328.0007421079725 12047.0 1738.0 984.018068887634 4.168479544784205 284.0 0.0 225.0 
330.0013042135965 12032.0 1732.0 986.6041784302643 4.1908227486016205 285.0 0.0 226.0 
332.0013042135965 12709.0 1764.0 1015.3020892151308 4.135310133818609 297.0 0.0 237.0 
334.0007421079725 12713.0 1763.0 1017.9017504234902 4.276210834836672 298.0 0.0 238.0 
336.0013042135965 12896.0 1775.0 1043.9887069452282 4.418128799817813 306.0 0.0 248.0 
338.0013042135965 12785.0 1773.0 1049.285149632974 4.439845237008977 306.0 0.0 250.0 
340.0007421079725 12731.0 1768.0 1051.758328627895 4.715269479863897 305.0 0.0 251.0 
342.0013042135965 12530.0 1761.0 1049.2106154714866 4.540801867907212 304.0 0.0 250.0 
344.0013042135965 12444.0 1755.0 1051.7447769621674 4.919772739879329 303.0 0.0 251.0 
346.0007421079725 12151.0 1744.0 1033.59909655562 4.725809882346455 293.0 0.0 244.0 
348.0013042135965 11759.0 1731.0 1033.4680971202713 4.891227528737847 293.0 0.0 244.0 
350.0013042135965 11612.0 1725.0 1004.8469791078476 4.9048072620700305 279.0 0.0 233.0 
352.0007421079725 10302.0 1694.0 1004.7453416149064 4.537874855343736 283.0 0.0 233.0 
354.0013042135965 10271.0 1694.0 1004.3817052512713 4.433436390384975 284.0 0.0 233.0 
356.0013042135965 10179.0 1691.0 1001.7617165443248 4.584727175445656 282.0 0.0 232.0 
358.0007421079725 10063.0 1686.0 988.8537549407137 4.626299923485742 280.0 0.0 227.0 
360.00016695427536 9990.0 1683.0 957.6804065499703 4.804362159825549 270.0 0.0 215.0 
362.0013042135965 9392.0 1662.0 960.126482213438 3.9762417932269267 266.0 0.0 216.0 
364.0007421079725 9347.0 1660.0 952.1852060982499 4.160359693874806 263.0 0.0 213.0 
366.0013042135965 9251.0 1656.0 926.3579898362502 4.099215273567354 251.0 0.0 203.0 
368.0013042135965 9039.0 1646.0 926.2834556747613 4.043483530792509 255.0 0.0 203.0 
370.0007421079725 8842.0 1640.0 923.6273291925464 3.941647555763221 248.0 0.0 202.0 
372.0013042135965 8826.0 1638.0 923.5211744776976 4.014799157932374 245.0 0.0 202.0 
374.0013042135965 8886.0 1642.0 923.5076228119694 3.8071791377118718 246.0 0.0 202.0 
376.0007421079725 8931.0 1645.0 944.2981366459641 3.9964016647013603 252.0 0.0 210.0 
378.0013042135965 8923.0 1643.0 949.5268210050809 3.6832747502153302 251.0 0.0 212.0 
380.0013042135965 8872.0 1641.0 949.5426312817627 3.9105119091908938 246.0 0.0 212.0 
382.0007421079725 8865.0 1644.0 949.5290796160349 3.6861930311957 240.0 0.0 212.0 
384.0013042135965 8963.0 1650.0 944.3794466403142 3.566666834371694 239.0 0.0 210.0 
386.0013042135965 9009.0 1654.0 944.4404291360808 3.438491940766633 237.0 0.0 210.0 
388.0007421079725 8987.0 1655.0 944.4810841332592 3.630647896183081 240.0 0.0 210.0 
390.0013042135965 9011.0 1660.0 939.2456239412772 3.788652300596114 237.0 0.0 208.0 
392.0013042135965 9043.0 1660.0 931.4782608695638 4.039052339537971 235.0 0.0 205.0 
394.0007421079725 9030.0 1660.0 931.4556747600216 3.976219831892902 233.0 0.0 205.0 
396.0013042135965 8945.0 1658.0 921.0570299265943 3.729189085219164 226.0 0.0 201.0 
398.0013042135965 8929.0 1659.0 921.1089779785447 3.783693110688475 229.0 0.0 201.0 
400.0007421079725 8932.0 1660.0 902.8977978543177 4.184607687539366 227.0 0.0 194.0 
402.0013042135965 9143.0 1672.0 892.5601355166565 3.789011630107962 229.0 0.0 190.0 
404.0013042135965 9187.0 1674.0 884.8018068887641 3.9147824270018856 228.0 0.0 187.0 
406.0007421079725 9163.0 1673.0 879.7154150197637 3.737114949685466 228.0 0.0 185.0 
408.0013042135965 9135.0 1671.0 864.1784302653882 4.156619009018153 221.0 0.0 179.0 
410.0013042135965 9064.0 1668.0 770.909090909092 4.081475971437716 187.0 0.0 143.0 
412.0007421079725 9009.0 1663.0 750.08243929983 4.251233782634444 180.0 0.0 135.0 
414.0013042135965 9019.0 1661.0 742.3512140033887 3.9887952827837054 179.0 0.0 132.0 
416.0013042135965 9072.0 1665.0 742.3308865047985 3.8274788107278295 172.0 0.0 132.0 
418.0007421079725 9084.0 1664.0 731.8712591756076 3.7301558252226528 167.0 0.0 128.0 
420.0013042135965 9098.0 1664.0 674.8684359119145 3.9135458812056627 145.0 0.0 106.0 
422.0013042135965 9067.0 1665.0 677.4025974025964 3.7627858954030415 140.0 0.0 107.0 
424.0007421079725 9141.0 1667.0 687.7696216826653 3.797405265139672 144.0 0.0 111.0 
426.0013042135965 9262.0 1673.0 661.9220779220781 3.6371598963515828 132.0 0.0 101.0 
428.0013042135965 9272.0 1673.0 654.154714850367 3.6345389811849103 123.0 0.0 98.0 
430.0007421079725 9295.0 1674.0 649.0163749294192 3.8494318349143843 125.0 0.0 96.0 
432.0013042135965 9530.0 1682.0 693.1744776962177 3.7623540928927124 139.0 0.0 113.0 
434.0013042135965 9605.0 1685.0 716.5127046866183 3.7442724588692102 150.0 0.0 122.0 
436.0007421079725 9669.0 1687.0 724.3229813664591 3.841465997435635 155.0 0.0 125.0 
438.0013042135965 9766.0 1692.0 729.5584415584416 3.951391957015038 164.0 0.0 127.0 
440.0013042135965 9737.0 1692.0 727.0016939582165 3.9846549664867115 159.0 0.0 126.0 
442.0007421079725 9757.0 1694.0 726.9881422924896 3.9710889035881385 162.0 0.0 126.0 
444.0013042135965 9771.0 1696.0 724.4901185770758 3.807882038742405 164.0 0.0 125.0 
446.0013042135965 9767.0 1695.0 721.8791643139473 3.6287600708360253 167.0 0.0 124.0 
448.0007421079725 9810.0 1697.0 716.7024280067761 4.050186861663148 166.0 0.0 122.0 
450.0013042135965 9841.0 1702.0 714.1343873517794 3.9364306219008145 165.0 0.0 121.0 
452.0013042135965 9860.0 1704.0 714.1095426312813 4.216378761612825 169.0 0.0 121.0 
454.0007421079725 9752.0 1699.0 721.8136645962727 4.327668676703262 174.0 0.0 124.0 
456.0013042135965 9690.0 1694.0 721.8226990400913 4.36372431232566 173.0 0.0 124.0 
458.0013042135965 9698.0 1697.0 716.5962732919245 4.250755161598163 170.0 0.0 122.0 
460.0007421079725 9658.0 1696.0 716.5601355166566 4.424265079674019 170.0 0.0 122.0 
462.0013042135965 9454.0 1687.0 729.5561829474866 4.105022404624869 172.0 0.0 127.0 
464.0013042135965 9339.0 1684.0 729.4839073969514 4.174852196249523 172.0 0.0 127.0 
466.0007421079725 9205.0 1679.0 721.836250705815 4.018030601799998 173.0 0.0 124.0 
468.0013042135965 9052.0 1672.0 724.2732919254664 3.9746391600434 173.0 0.0 125.0 
470.0013042135965 9105.0 1676.0 716.4381705251267 4.049964632742172 172.0 0.0 122.0 
472.0007421079725 9047.0 1676.0 737.2106154714846 3.9449263413256164 177.0 0.0 130.0 
474.0013042135965 8950.0 1674.0 742.348955392435 3.878988516645293 170.0 0.0 132.0 
476.0013042135965 8951.0 1671.0 763.0739695087518 3.7853416010039243 177.0 0.0 140.0 
478.0007421079725 9057.0 1674.0 765.6736307171093 3.6572914440007183 194.0 0.0 141.0 
480.00016695427536 9075.0 1672.0 763.0287972896674 3.838210851983571 196.0 0.0 140.0 
482.0013042135965 9217.0 1678.0 783.8057594579335 3.6598094723214722 202.0 0.0 148.0 
484.0007421079725 9257.0 1681.0 791.5957086391874 3.800619020559822 206.0 0.0 151.0 
486.00016695427536 9291.0 1686.0 791.5957086391874 3.38737917599535 202.0 0.0 151.0 
488.0013042135965 9479.0 1691.0 812.4923771880306 3.5340118711418946 213.0 0.0 159.0 
490.0007421079725 9589.0 1700.0 820.1942405420664 3.797588140383031 218.0 0.0 162.0 
492.0013042135965 9694.0 1705.0 822.8661773009588 3.9970112786325296 219.0 0.0 163.0 
494.0013042135965 9766.0 1704.0 835.8644833427452 4.005434901975456 220.0 0.0 168.0 
496.0007421079725 9748.0 1702.0 835.907396950875 4.021524494817433 221.0 0.0 168.0 
498.0013042135965 9774.0 1702.0 838.509316770187 4.068598796159764 223.0 0.0 169.0 
500.0013042135965 9765.0 1699.0 838.443817052514 4.177509715377678 222.0 0.0 169.0 
502.0007421079725 9858.0 1702.0 830.6787125917552 4.284193700824769 227.0 0.0 166.0 
504.0013042135965 9825.0 1702.0 817.8272162619995 4.393078029565465 227.0 0.0 161.0 
506.0013042135965 9825.0 1702.0 815.1823828345574 4.028089050760278 233.0 0.0 160.0 
508.0007421079725 9859.0 1701.0 828.1558441558439 4.050196091228258 236.0 0.0 165.0 
510.0013042135965 9887.0 1702.0 828.0090344438169 4.157162345227778 234.0 0.0 165.0 
512.0013042135965 9665.0 1690.0 815.0536420101623 4.0346366118973975 219.0 0.0 160.0 
514.0007421079724 9633.0 1688.0 812.4313946922651 4.274170289786356 219.0 0.0 159.0 
516.0001669542753 9676.0 1688.0 804.6685488424632 4.153063604540542 217.0 0.0 156.0 
518.0013042135965 9787.0 1688.0 809.910784867307 3.868582495068051 217.0 0.0 158.0 
520.0007421079724 9721.0 1686.0 809.879164313948 3.956355471289576 216.0 0.0 158.0 
522.0001669542754 9707.0 1686.0 814.9768492377189 3.7103432924378237 219.0 0.0 160.0 
524.0013042135965 9663.0 1686.0 815.0287972896673 3.9789432570956547 224.0 0.0 160.0 
526.0007421079724 9661.0 1689.0 817.7052512704688 3.9171149682799666 214.0 0.0 161.0 
528.0001669542754 9673.0 1689.0 799.4895539243378 3.824932794698599 212.0 0.0 154.0 
530.0013042135965 9924.0 1697.0 783.9977413890465 3.809461045760867 208.0 0.0 148.0 
532.0007421079724 10181.0 1703.0 797.0502540937325 3.7358838002703174 217.0 0.0 153.0 
534.0001669542754 10275.0 1708.0 802.2021456804064 3.9527447088437655 220.0 0.0 155.0 
536.0013042135965 10243.0 1709.0 804.8153585544882 4.024436982580138 216.0 0.0 156.0 
538.0007421079724 10013.0 1700.0 804.8379446640313 3.8148342422417745 210.0 0.0 156.0 
540.0001669542754 9972.0 1698.0 804.7498588368146 4.0425077624200485 209.0 0.0 156.0 
542.0013042135965 9996.0 1696.0 804.7250141163179 3.8487566781377307 205.0 0.0 156.0 
544.0007421079724 10069.0 1701.0 812.5059288537541 4.191265909254649 206.0 0.0 159.0 
546.0001669542754 10091.0 1702.0 825.4477696216838 4.294049086002829 209.0 0.0 164.0 
548.0013042135965 9933.0 1702.0 828.0903444381711 4.048314958995602 209.0 0.0 165.0 
550.0007421079724 9981.0 1703.0 830.6561264822145 3.896627659380367 212.0 0.0 166.0 
552.0001669542754 9993.0 1708.0 830.6674195369844 4.044428867046614 215.0 0.0 166.0 
554.0013042135965 9994.0 1710.0 830.72840203275 4.338205234278663 218.0 0.0 166.0 
556.0007421079724 10040.0 1709.0 848.8966685488433 4.277702222860547 227.0 0.0 173.0 
558.0001669542754 10127.0 1716.0 864.451722190854 4.339550155151486 233.0 0.0 179.0 
560.0013042135965 10117.0 1715.0 872.2055335968388 4.324204257164967 234.0 0.0 182.0 
562.0007421079724 9899.0 1709.0 879.9638622247325 4.0257752312070805 230.0 0.0 185.0 
564.0001669542754 9794.0 1706.0 882.4460756634678 4.055793161952215 230.0 0.0 186.0 
566.0013042135965 9806.0 1704.0 874.7148503670254 3.9022325832290914 228.0 0.0 183.0 
568.0007421079724 10161.0 1711.0 898.2111801242226 3.864999192835973 237.0 0.0 192.0 
570.0001669542754 10266.0 1716.0 898.1976284584995 3.816496258116486 240.0 0.0 192.0 
572.0013042135965 11539.0 1756.0 939.9457933370963 3.867141347787264 260.0 0.0 208.0 
574.0007421079724 11608.0 1753.0 937.190287972896 3.900811424118776 264.0 0.0 207.0 
576.0013042135965 11736.0 1765.0 929.4025974025963 4.149243153151914 265.0 0.0 204.0 
578.0013042135965 11630.0 1765.0 929.4364765669103 4.21067931225684 269.0 0.0 204.0 
580.0007421079724 11581.0 1763.0 911.3608130999429 4.357336256488375 267.0 0.0 197.0 
582.0013042135965 11924.0 1787.0 963.1055900621118 4.21028738464603 285.0 0.0 217.0 
584.0013042135965 11921.0 1785.0 963.071710897798 4.385523746947915 290.0 0.0 217.0 
586.0007421079724 12046.0 1795.0 981.3980801806881 4.3654899017400846 296.0 0.0 224.0 
588.0001669542754 12135.0 1797.0 981.3574251835124 4.491023706119531 296.0 0.0 224.0 
590.0013042135965 12235.0 1803.0 991.7583286278945 4.548206333127113 302.0 1.0 227.0 
592.0007421079724 12472.0 1825.0 1030.9610389610361 4.602108908149847 320.0 1.0 242.0 
594.0013042135965 12473.0 1824.0 1038.5906267645396 4.699373555564987 320.0 1.0 245.0 
596.0013042135965 12544.0 1828.0 1049.0367024280047 4.7673735714352246 321.0 0.0 250.0 
598.0007421079724 12577.0 1834.0 1077.5923207227534 4.671885853236941 330.0 0.0 261.0 
600.0013042135965 12364.0 1823.0 1077.5042348955387 4.796283970199204 331.0 0.0 261.0 
602.0013042135965 11347.0 1799.0 1080.0903444381677 4.597506806083098 330.0 0.0 262.0 
604.0007421079724 11227.0 1798.0 1079.9638622247294 4.4573354835078405 330.0 0.0 262.0 
606.0013042135965 11313.0 1803.0 1061.7978543195936 4.421801884940105 330.0 0.0 255.0 
608.0013042135965 11426.0 1809.0 1059.3246753246779 4.640964708124673 325.0 0.0 254.0 
610.0007421079724 11350.0 1807.0 1051.5076228119694 4.743052293969145 325.0 0.0 251.0 
612.0013042135965 11271.0 1798.0 1061.8859401468112 4.834605944144919 332.0 0.0 255.0 
614.0013042135965 11252.0 1801.0 1061.8769057029963 4.995622962985154 332.0 0.0 255.0 
616.0007421079724 11157.0 1794.0 1051.552795031059 5.082788054252178 326.0 0.0 251.0 
618.0013042135965 10862.0 1781.0 1035.8441558441561 4.9571227071052935 314.0 0.0 245.0 
620.0013042135965 10702.0 1774.0 1015.0694522868437 4.985183583133082 316.0 0.0 237.0 
622.0007421079724 10529.0 1758.0 1014.9474872953128 4.562481025641039 307.0 0.0 237.0 
624.0013042135965 10503.0 1756.0 1017.1405985319049 4.5446647211433895 309.0 0.0 238.0 
626.0013042135965 10504.0 1754.0 1024.9576510446027 4.303725859851584 314.0 0.0 241.0 
628.0007421079724 10317.0 1746.0 1032.7747035573125 4.396893866513385 319.0 0.0 244.0 
630.0013042135965 10311.0 1743.0 1030.0892151326905 4.279093956820823 314.0 0.0 243.0 
632.0013042135965 10352.0 1747.0 1045.6713721061556 4.242501350498437 320.0 0.0 249.0 
634.0007421079724 10274.0 1742.0 1040.6030491247845 4.151399694669516 316.0 0.0 247.0 
636.0013042135965 10279.0 1746.0 1048.4223602484437 4.000249452626493 318.0 0.0 250.0 
638.0013042135965 10199.0 1741.0 1035.3879164313994 4.087473221436835 310.0 0.0 245.0 
640.0007421079724 10113.0 1737.0 1027.6092603049092 4.143784101822032 305.0 0.0 242.0 
642.0013042135965 10147.0 1743.0 1035.3178994918126 4.0325221511809435 301.0 0.0 245.0 
644.0013042135965 10134.0 1743.0 1030.1140598531888 4.219476317669624 297.0 0.0 243.0 
646.0007421079724 10175.0 1744.0 1027.5008469791019 4.095162502453644 295.0 0.0 242.0 
648.0013042135965 10209.0 1746.0 1019.7289666854933 4.393803618389792 294.0 0.0 239.0 
650.0013042135965 10169.0 1744.0 1011.9819311123694 4.458693056488871 295.0 0.0 236.0 
652.0007421079724 10173.0 1740.0 1014.6470920384003 4.263423384490546 302.0 0.0 237.0 
654.0013042135965 10153.0 1742.0 1014.5635234330913 4.291121469644852 306.0 0.0 237.0 
656.0013042135965 10048.0 1737.0 1014.5477131564072 4.322947948304315 299.0 0.0 237.0 
658.0007421079724 10032.0 1737.0 1019.7041219649946 4.441983803532805 305.0 0.0 239.0 
660.0013042135965 10012.0 1736.0 1014.4709203839664 4.389662656573218 302.0 0.0 237.0 
662.0013042135965 10002.0 1733.0 973.0525127046873 4.325769880908303 288.0 0.0 221.0 
664.0007421079724 9930.0 1730.0 973.0660643704092 4.384785173442977 288.0 0.0 221.0 
#####################################################################
# End of data export. Simulation finished at: 2019-03-04T13:05+0000 #
#####################################################################
