#####################################################################
# Alchemist log file - simulation started at: 2019-03-07T22:44+0000 #
#####################################################################
# seed = 2.0, bandwidth = 5623413.251903491, accessPointCount = 1031.338537721246, baserange = 10.0
#
# The columns have the following meaning: 
# time neighbor_count[Sum] <value>@neighbor_count[Sum] packet_size[Mean] mean_delay[Mean] crowd[Sum] overcrowded[Sum] risk[Sum] 
0.0 NaN NaN NaN NaN NaN NaN NaN 
10.000011609901309 102.0 48.0 4978.697784810127 0.5030510558280117 1497.0 0.0 1497.0 
20.000011609901307 102.0 48.0 4978.68829113924 0.5030508989210049 1497.0 0.0 1497.0 
30.000011609901307 102.0 48.0 4978.694620253164 0.5030509303024062 1497.0 0.0 1497.0 
40.00001160990131 100.0 47.0 4978.680379746836 0.5031704988024545 1497.0 0.0 1497.0 
50.00001160990131 98.0 46.0 4978.636075949367 0.5032972402491036 1497.0 0.0 1497.0 
60.00001160990131 98.0 46.0 4978.666139240506 0.5032970401926699 1497.0 0.0 1497.0 
70.00058297905275 102.0 47.0 409.08860759493683 0.5041845804871653 24.0 0.0 5.0 
80.00058297905275 100.0 47.0 409.08386075949363 0.5041231715809413 10.0 0.0 5.0 
90.00058297905275 102.0 47.0 409.09493670886064 0.4995804553886438 7.0 0.0 5.0 
100.00058297905275 102.0 47.0 409.08860759493683 0.4995806386053102 6.0 0.0 5.0 
110.00058297905275 100.0 46.0 409.08386075949363 0.4995695896972939 5.0 0.0 5.0 
120.00058297905275 100.0 46.0 409.09493670886064 0.4995695674688013 5.0 0.0 5.0 
130.00058297905275 100.0 46.0 409.08860759493683 0.4995697564109814 5.0 0.0 5.0 
140.00058297905275 102.0 47.0 409.08386075949363 0.4995804769435382 5.0 0.0 5.0 
150.00058297905275 104.0 48.0 409.09493670886064 0.543708349901429 5.0 0.0 5.0 
160.00058297905275 98.0 46.0 409.08860759493683 0.5457324103485469 5.0 0.0 5.0 
170.00058297905275 96.0 45.0 409.08386075949363 0.4995672740528874 5.0 0.0 5.0 
180.00058297905275 98.0 46.0 409.09493670886064 0.4995783781593164 5.0 0.0 5.0 
190.00058297905275 102.0 48.0 409.08860759493683 0.49959887170941886 5.0 0.0 5.0 
200.00058297905275 102.0 48.0 409.08386075949363 0.4995987170764266 5.0 0.0 5.0 
210.00058297905275 100.0 47.0 409.09493670886064 0.4995888405672051 5.0 0.0 5.0 
220.00058297905275 100.0 47.0 409.08860759493683 0.49958902104929437 5.0 0.0 5.0 
230.00058297905275 104.0 49.0 409.08386075949363 0.4996080171256424 5.0 0.0 5.0 
240.00058297905275 106.0 49.0 409.09493670886064 0.49960036472777647 5.0 0.0 5.0 
250.00058297905275 110.0 51.0 409.08860759493683 0.4996182851153877 5.0 0.0 5.0 
260.00058297905275 108.0 50.0 409.08386075949363 0.4996095096002046 5.0 0.0 5.0 
270.00058297905275 108.0 50.0 409.09493670886064 0.5412761565082113 5.0 0.0 5.0 
280.0000108727454 110.0 49.0 414.544303797468 0.49948392785189744 8.0 0.0 8.0 
290.00058297905275 104.0 48.0 414.5411392405064 0.4995426369961944 8.0 0.0 8.0 
300.00058297905275 104.0 48.0 414.5632911392405 0.4995424173263858 8.0 0.0 8.0 
310.00058297905275 106.0 49.0 414.55696202531624 0.4995536213832803 8.0 0.0 8.0 
320.00058297905275 100.0 47.0 414.5284810126584 0.4995766845676521 8.0 0.0 8.0 
330.00058297905275 99.0 46.0 414.5395569620254 0.5348998327138472 8.0 0.0 8.0 
340.00058297905275 96.0 45.0 414.5332278481011 0.4995674434128277 8.0 0.0 8.0 
350.00058297905275 97.0 45.0 409.08386075949363 0.4947754448996745 5.0 0.0 5.0 
360.00058297905275 100.0 47.0 409.09493670886064 0.51451421370153 5.0 0.0 5.0 
370.00058297905275 96.0 45.0 409.08860759493683 0.4995674434128277 5.0 0.0 5.0 
380.00058297905275 98.0 46.0 409.08386075949363 0.49957840004582854 5.0 0.0 5.0 
390.00058297905275 98.0 46.0 409.09493670886064 0.4995783781593129 5.0 0.0 5.0 
400.00058297905275 96.0 45.0 409.08860759493683 0.4995674434128277 5.0 0.0 5.0 
410.00058297905275 98.0 46.0 409.08386075949363 0.49957840004582854 5.0 0.0 5.0 
420.00058297905275 101.0 48.0 409.09493670886064 0.5288543766044542 5.0 0.0 5.0 
430.00058297905275 100.0 47.0 409.08860759493683 0.499589021049291 5.0 0.0 5.0 
440.00058297905275 92.0 44.0 409.08386075949363 0.49457020304324434 5.0 0.0 5.0 
450.00058297905275 96.0 46.0 409.09493670886064 0.49489994520474984 5.0 0.0 5.0 
460.00058297905275 104.0 50.0 409.08860759493683 0.49545122576982775 5.0 0.0 5.0 
470.00058297905275 99.0 47.0 409.08386075949363 0.5254560235770284 5.0 0.0 5.0 
480.00058297905275 94.0 45.0 409.09493670886064 0.5026577008448339 5.0 0.0 5.0 
490.00058297905275 94.0 45.0 409.08860759493683 0.49597607552344286 5.0 0.0 5.0 
500.00058297905275 92.0 44.0 409.08386075949363 0.49956488371027946 5.0 0.0 5.0 
510.00058297905275 92.0 44.0 409.09493670886064 0.4995648607647389 5.0 0.0 5.0 
520.0005829790528 94.0 45.0 409.08860759493683 0.504326456842523 5.0 0.0 5.0 
530.0005829790528 96.0 46.0 409.08386075949363 0.5041909822930742 5.0 0.0 5.0 
540.0005829790528 98.0 47.0 409.09493670886064 0.5040637337921425 5.0 0.0 5.0 
550.0005829790528 98.0 47.0 409.08860759493683 0.5040639142742317 5.0 0.0 5.0 
560.0005829790528 103.0 48.0 409.08386075949363 0.49731236563589426 5.0 0.0 5.0 
570.0005829790528 102.0 48.0 409.09493670886064 0.5140914500819239 5.0 0.0 5.0 
580.0005829790528 104.0 48.0 410.90348101265835 0.5005281116642132 8.0 0.0 6.0 
590.0005829790528 102.0 48.0 412.71835443038015 0.49955135814539753 7.0 0.0 7.0 
600.0005829790528 100.0 47.0 412.7294303797471 0.49954006793673994 7.0 0.0 7.0 
610.0005829790528 100.0 47.0 412.71835443038015 0.49956466658386184 8.0 0.0 7.0 
620.0005829790528 96.0 46.0 412.71360759493683 0.49957458167789975 7.0 0.0 7.0 
630.0005829790528 102.0 48.0 412.7294303797471 0.49955133752766473 7.0 0.0 7.0 
640.0005829790528 104.0 49.0 412.7215189873416 0.49959667621136067 7.0 0.0 7.0 
650.0005829790528 100.0 48.0 409.08386075949363 0.4996064820089909 6.0 0.0 5.0 
660.0005829790528 94.0 45.0 409.09493670886064 0.4995762360166239 5.0 0.0 5.0 
#####################################################################
# End of data export. Simulation finished at: 2019-03-07T22:54+0000 #
#####################################################################
