#####################################################################
# Alchemist log file - simulation started at: 2019-03-04T01:47+0000 #
#####################################################################
# seed = 0.0, bandwidth = 5623413.251903491, accessPointCount = 10.0, baserange = 31.622776601683796
#
# The columns have the following meaning: 
# time neighbor_count[Sum] <value>@neighbor_count[Sum] packet_size[Mean] mean_delay[Mean] crowd[Sum] overcrowded[Sum] risk[Sum] 
0.0 NaN NaN NaN NaN NaN NaN NaN 
10.00022733547309 4.0 2.0 4987.86197743862 0.4991112159508626 1497.0 0.0 1497.0 
20.00022733547309 4.0 2.0 4987.941605839416 0.4991087263596876 1497.0 0.0 1497.0 
30.00022733547309 4.0 2.0 4987.867285998673 0.49911050463909845 1497.0 0.0 1497.0 
40.00022733547309 4.0 2.0 4987.941605839416 0.4991087263596867 1497.0 0.0 1497.0 
50.00022733547309 4.0 2.0 4987.867285998673 0.49911050463909845 1497.0 0.0 1497.0 
60.00022733547309 4.0 2.0 4987.941605839416 0.4991087263596867 1497.0 0.0 1497.0 
70.00040553626063 4.0 2.0 400.0 0.4999288688236021 0.0 0.0 0.0 
80.00040553626063 4.0 2.0 400.0 0.4999288688236021 0.0 0.0 0.0 
90.00040553626063 4.0 2.0 400.0 0.4999288688236021 0.0 0.0 0.0 
100.00040553626063 4.0 2.0 400.0 0.4999288688236021 0.0 0.0 0.0 
110.00040553626063 4.0 2.0 400.0 0.4999288688236021 0.0 0.0 0.0 
120.00040553626063 4.0 2.0 400.0 0.4999288688236021 0.0 0.0 0.0 
130.00040553626064 4.0 2.0 400.0 0.4999288688235879 0.0 0.0 0.0 
140.00040553626064 4.0 2.0 400.0 0.4999288688235879 0.0 0.0 0.0 
150.00040553626064 4.0 2.0 400.0 0.4999288688235879 0.0 0.0 0.0 
160.00040553626064 4.0 2.0 400.0 0.4999288688235879 0.0 0.0 0.0 
170.00040553626064 4.0 2.0 400.0 0.4999288688235879 0.0 0.0 0.0 
180.00040553626064 4.0 2.0 400.0 0.4999288688235879 0.0 0.0 0.0 
190.00040553626064 4.0 2.0 400.0 0.4999288688235879 0.0 0.0 0.0 
200.00040553626064 4.0 2.0 400.0 0.4999288688235879 0.0 0.0 0.0 
210.00040553626064 4.0 2.0 400.0 0.4999288688235879 0.0 0.0 0.0 
220.00040553626064 4.0 2.0 400.0 0.4999288688235879 0.0 0.0 0.0 
230.00040553626064 4.0 2.0 400.0 0.4999288688235879 0.0 0.0 0.0 
240.00040553626064 4.0 2.0 400.0 0.4999288688235879 0.0 0.0 0.0 
250.00040553626064 4.0 2.0 400.0 0.4999288688235879 0.0 0.0 0.0 
260.00040553626064 4.0 2.0 400.0 0.4999288688235879 0.0 0.0 0.0 
270.00040553626064 4.0 2.0 400.0 0.4999288688235879 0.0 0.0 0.0 
280.00040553626064 4.0 2.0 400.0 0.4999288688235879 0.0 0.0 0.0 
290.00040553626064 4.0 2.0 400.0 0.4999288688235879 0.0 0.0 0.0 
300.00040553626064 4.0 2.0 400.0 0.4999288688235879 0.0 0.0 0.0 
310.00040553626064 4.0 2.0 400.0 0.4999288688235879 0.0 0.0 0.0 
320.00040553626064 4.0 2.0 400.0 0.4999288688235879 0.0 0.0 0.0 
330.00040553626064 4.0 2.0 400.0 0.4999288688235879 0.0 0.0 0.0 
340.00040553626064 5.0 3.0 400.0 0.5083194027209288 0.0 0.0 0.0 
350.00040553626064 10.0 4.0 400.0 0.49989838403369696 0.0 0.0 0.0 
360.00040553626064 10.0 4.0 400.0 0.49989838403369696 0.0 0.0 0.0 
370.00040553626064 10.0 4.0 400.0 0.6427555268908398 0.0 0.0 0.0 
380.00040553626064 8.0 3.0 400.0 0.4998861901177406 0.0 0.0 0.0 
390.00040553626064 8.0 3.0 400.0 0.4998861901177406 0.0 0.0 0.0 
400.00040553626064 8.0 3.0 400.0 0.4998861901177406 0.0 0.0 0.0 
410.00040553626064 8.0 3.0 400.0 0.4998861901177406 0.0 0.0 0.0 
420.00040553626064 10.0 4.0 400.0 0.49989838403369696 0.0 0.0 0.0 
430.00040553626064 10.0 4.0 400.0 0.49989838403369696 0.0 0.0 0.0 
440.00040553626064 10.0 4.0 400.0 0.49989838403369696 0.0 0.0 0.0 
450.00040553626064 8.0 3.0 400.0 0.4998861901177406 0.0 0.0 0.0 
460.00040553626064 8.0 3.0 400.0 0.4998861901177406 0.0 0.0 0.0 
470.00040553626064 8.0 3.0 400.0 0.4998861901177406 0.0 0.0 0.0 
480.00040553626064 8.0 3.0 400.0 0.4998861901177406 0.0 0.0 0.0 
490.00040553626064 8.0 3.0 400.0 0.4998861901177406 0.0 0.0 0.0 
500.00040553626064 8.0 3.0 400.0 0.4998861901177406 0.0 0.0 0.0 
510.00040553626064 8.0 3.0 400.0 0.4998861901177406 0.0 0.0 0.0 
520.0004055362606 8.0 3.0 400.0 0.49988619011776336 0.0 0.0 0.0 
530.0004055362606 8.0 3.0 400.0 0.49988619011776336 0.0 0.0 0.0 
540.0004055362606 8.0 3.0 400.0 0.49988619011776336 0.0 0.0 0.0 
550.0004055362606 8.0 3.0 400.0 0.49988619011776336 0.0 0.0 0.0 
560.0004055362606 8.0 3.0 400.0 0.49988619011776336 0.0 0.0 0.0 
570.0004055362606 8.0 3.0 400.0 0.49988619011776336 0.0 0.0 0.0 
580.0004055362606 8.0 3.0 400.0 0.49988619011776336 0.0 0.0 0.0 
590.0004055362606 10.0 4.0 400.0 0.4998983840337295 0.0 0.0 0.0 
600.0004055362606 10.0 4.0 400.0 0.4998983840337295 0.0 0.0 0.0 
610.0004055362606 10.0 4.0 400.0 0.4998983840337295 0.0 0.0 0.0 
620.0004055362606 10.0 4.0 400.0 0.4998983840337295 0.0 0.0 0.0 
630.0004055362606 10.0 4.0 400.0 0.4998983840337295 0.0 0.0 0.0 
640.0004055362606 10.0 4.0 400.0 0.4998983840337295 0.0 0.0 0.0 
650.0004055362606 10.0 4.0 400.0 0.4998983840337295 0.0 0.0 0.0 
660.0004055362606 10.0 4.0 400.0 0.4998983840337295 0.0 0.0 0.0 
#####################################################################
# End of data export. Simulation finished at: 2019-03-04T01:55+0000 #
#####################################################################
