#####################################################################
# Alchemist log file - simulation started at: 2019-03-03T22:41+0000 #
#####################################################################
# seed = 0.0, bandwidth = 1333521.4321633242, accessPointCount = 274.2481756762073, baserange = 177.82794100389228
#
# The columns have the following meaning: 
# time neighbor_count[Sum] <value>@neighbor_count[Sum] packet_size[Mean] mean_delay[Mean] crowd[Sum] overcrowded[Sum] risk[Sum] 
0.0 NaN NaN NaN NaN NaN NaN NaN 
10.000405536260626 3603.0 563.0 4987.5550536420105 0.5444898723256995 1492.0 5.0 1492.0 
20.000405536260626 3484.0 545.0 4987.701863354037 0.50421173756161 1495.0 2.0 1495.0 
30.000405536260626 3478.0 544.0 4987.207227555054 0.5036935313138591 1495.0 2.0 1495.0 
40.00040553626063 3483.0 545.0 4987.3382269904005 0.5032113581340587 1495.0 2.0 1495.0 
50.00040553626063 3524.0 546.0 4987.139469226426 0.5033506839902553 1495.0 2.0 1495.0 
60.00040553626063 3532.0 547.0 4984.8514963297575 0.5054100099098348 1494.0 2.0 1494.0 
70.00040553626063 3531.0 547.0 789.7526821005112 0.5046783794306997 219.0 4.0 146.0 
80.00040553626063 3521.0 548.0 781.8114059853162 0.5052015052969167 199.0 5.0 142.0 
90.00040553626063 3561.0 549.0 784.4088085827201 0.5034858425112791 194.0 5.0 143.0 
100.00040553626063 3552.0 549.0 786.9745906267651 0.505959160258711 196.0 5.0 144.0 
110.00040553626063 3541.0 549.0 789.6307171089809 0.5052757990956528 196.0 5.0 145.0 
120.00040553626063 3548.0 551.0 786.9881422924876 0.5046911053311457 195.0 8.0 141.0 
130.00040553626064 3593.0 552.0 792.1942405420649 0.5044547748954799 201.0 5.0 146.0 
140.00040553626064 3559.0 549.0 786.9294184076762 0.5071977453094554 199.0 5.0 144.0 
150.00040553626064 3462.0 546.0 787.0513833992067 0.4992833370976232 198.0 5.0 144.0 
160.00040553626064 3419.0 545.0 786.9271597967222 0.509826420536566 199.0 5.0 144.0 
170.00040553626064 3408.0 547.0 784.3794466403142 0.5069390640034181 199.0 5.0 143.0 
180.00040553626064 3465.0 549.0 786.9361942405441 0.49894441147260654 201.0 5.0 144.0 
190.00040553626064 3466.0 548.0 786.9542631281745 0.4984822244289071 198.0 5.0 144.0 
200.00040553626064 3467.0 549.0 786.872953133825 0.5005853783046277 197.0 5.0 144.0 
210.00040553626064 3436.0 549.0 781.773009599095 0.50044679094903 193.0 6.0 141.0 
220.00040553626064 3507.0 552.0 779.1168831168864 0.5040890700115059 195.0 6.0 140.0 
230.00040553626064 3488.0 551.0 776.5962732919236 0.5054626329714285 193.0 6.0 139.0 
240.00040553626064 3489.0 549.0 781.6962168266535 0.5047683825273344 195.0 6.0 141.0 
250.00040553626064 3478.0 548.0 781.7413890457354 0.4997510609221599 195.0 6.0 141.0 
260.00040553626064 3529.0 551.0 781.7007340485615 0.506793431032233 197.0 6.0 141.0 
270.00040553626064 3473.0 547.0 776.578204404294 0.5021943984890186 195.0 6.0 139.0 
280.00040553626064 3468.0 547.0 773.8994918125335 0.5019092243501371 193.0 6.0 138.0 
290.00040553626064 3474.0 546.0 781.7752682100486 0.5087068680744883 198.0 6.0 141.0 
300.00040553626064 3517.0 545.0 781.7210615471523 0.5060042106366424 198.0 6.0 141.0 
310.00040553626064 3524.0 545.0 784.4110671936745 0.5023124305891283 197.0 6.0 142.0 
320.00040553626064 3497.0 545.0 784.3568605307773 0.5047058773063522 198.0 6.0 142.0 
330.00040553626064 3480.0 544.0 794.7622811970629 0.5107347689957223 201.0 6.0 146.0 
340.00040553626064 3522.0 544.0 799.8848108413306 0.5000084009228853 204.0 6.0 148.0 
350.00040553626064 3564.0 544.0 805.1631846414488 0.4998563907945593 204.0 6.0 150.0 
360.00040553626064 3601.0 545.0 812.9079616036119 0.5005994855172756 203.0 7.0 152.0 
370.00040553626064 3616.0 550.0 810.4031620553396 0.5003614644099422 203.0 5.0 153.0 
380.00040553626064 3616.0 551.0 807.6612083568599 0.5180000716392714 207.0 5.0 152.0 
390.00040553626064 3582.0 547.0 810.4076792772469 0.503709312324975 204.0 6.0 152.0 
400.00040553626064 3708.0 553.0 820.7408243929993 0.5112496796787438 208.0 5.0 157.0 
410.00040553626064 3687.0 554.0 823.3653303218549 0.5197083840482596 208.0 5.0 158.0 
420.00040553626064 3646.0 549.0 825.8317334839068 0.5099223997620865 209.0 5.0 159.0 
430.00040553626064 3638.0 549.0 828.4675324675318 0.5012771236018022 214.0 5.0 160.0 
440.00040553626064 3702.0 552.0 828.465273856578 0.5002637446570066 212.0 9.0 156.0 
450.00040553626064 3638.0 550.0 818.089215132691 0.5036248066728815 214.0 6.0 155.0 
460.00040553626064 3634.0 551.0 815.4330886504816 0.5015360971988814 209.0 8.0 152.0 
470.00040553626064 3509.0 546.0 812.8921513269358 0.5199120315344581 206.0 6.0 153.0 
480.00040553626064 3481.0 549.0 802.5070581592333 0.5072537942842776 202.0 6.0 149.0 
490.00040553626064 3478.0 547.0 799.9254658385122 0.5189032586939185 203.0 6.0 148.0 
500.00040553626064 3370.0 542.0 810.2473178994891 0.5010578830847587 204.0 6.0 152.0 
510.00040553626064 3380.0 542.0 807.740259740262 0.49980489563993147 202.0 6.0 151.0 
520.0004055362606 3383.0 542.0 805.0525127046872 0.5022730378747013 202.0 6.0 150.0 
530.0004055362606 3394.0 542.0 797.3506493506524 0.5040954057872353 199.0 6.0 147.0 
540.0004055362606 3386.0 541.0 802.450592885375 0.499288264252789 203.0 6.0 149.0 
550.0004055362606 3418.0 542.0 802.5748164878596 0.5043233360376885 203.0 6.0 149.0 
560.0004055362606 3392.0 543.0 794.7419536984725 0.5033755099470174 200.0 6.0 146.0 
570.0004055362606 3397.0 545.0 792.1942405420649 0.4992192671338144 198.0 6.0 145.0 
580.0004055362606 3361.0 545.0 794.7238848108427 0.5003028451783486 198.0 5.0 147.0 
590.0004055362606 3371.0 545.0 797.3890457368735 0.5120585758718786 199.0 5.0 148.0 
600.0004055362606 3353.0 544.0 807.8012422360276 0.5011827255108258 201.0 5.0 152.0 
610.0004055362606 3361.0 543.0 810.4347826086987 0.4998606324137599 201.0 5.0 153.0 
620.0004055362606 3376.0 543.0 802.5499717673611 0.5163481957410647 197.0 5.0 150.0 
630.0004055362606 3403.0 544.0 805.1902879728941 0.5013733680036476 198.0 5.0 151.0 
640.0004055362606 3375.0 542.0 802.6199887069417 0.5002376251157008 196.0 5.0 150.0 
650.0004055362606 3398.0 543.0 792.1716544325271 0.5048734878255209 190.0 5.0 146.0 
660.0004055362606 3418.0 542.0 792.149068322983 0.502587008855563 188.0 5.0 146.0 
#####################################################################
# End of data export. Simulation finished at: 2019-03-03T22:51+0000 #
#####################################################################
