#####################################################################
# Alchemist log file - simulation started at: 2019-03-10T15:32+0000 #
#####################################################################
# seed = 4.0, bandwidth = 4216.965034285822, accessPointCount = 1031.338537721246, baserange = 562.341325190349
#
# The columns have the following meaning: 
# time neighbor_count[Sum] <value>@neighbor_count[Sum] packet_size[Mean] mean_delay[Mean] crowd[Sum] overcrowded[Sum] risk[Sum] 
0.0 NaN NaN NaN NaN NaN NaN NaN 
2.0000042429967895 26.0 18.0 4978.213607594937 0.2676665206292015 1497.0 0.0 1497.0 
4.0000042429967895 327.0 228.0 4978.2468354430375 0.8030160158744262 1497.0 0.0 1497.0 
6.0000042429967895 918.0 621.0 4978.332278481013 1.220615459280622 1497.0 0.0 1497.0 
8.00000424299679 1694.0 1113.0 4978.474683544304 1.7687659075325717 1497.0 0.0 1497.0 
10.00000424299679 2515.0 1628.0 4978.631329113924 2.079024405891626 1497.0 0.0 1497.0 
12.00000424299679 3387.0 2174.0 4978.797468354431 2.4796992129500515 1497.0 0.0 1497.0 
14.00000424299679 4218.0 2706.0 4978.973101265823 2.833966440911401 1497.0 0.0 1497.0 
16.000004242996788 4944.0 3228.0 4979.156645569621 3.2634663982099688 1497.0 0.0 1497.0 
18.000004242996788 5456.0 3675.0 4979.197784810127 3.9168203636586307 1497.0 0.0 1497.0 
20.000004242996788 6204.0 4295.0 4979.473101265823 4.269937485629305 1497.0 0.0 1497.0 
22.000004242996788 7073.0 4969.0 4979.791139240506 4.510439821705214 1497.0 0.0 1497.0 
24.000004242996788 7786.0 5641.0 4979.897151898735 5.151477859978977 1497.0 0.0 1497.0 
26.000004242996788 8625.0 6368.0 4980.050632911392 5.141809401860976 1497.0 0.0 1497.0 
28.000004242996788 9124.0 6777.0 4980.197784810127 5.694799514476517 1497.0 0.0 1497.0 
30.000004242996788 9866.0 7380.0 4980.319620253164 6.135672249229408 1497.0 0.0 1497.0 
32.00000424299679 10477.0 7876.0 4980.637658227848 6.430620062938432 1497.0 0.0 1497.0 
34.00000424299679 11221.0 8449.0 4980.851265822785 6.461411333975565 1497.0 0.0 1497.0 
36.00000424299679 12028.0 9061.0 4981.026898734177 6.637365793004613 1497.0 0.0 1497.0 
38.00000424299679 12940.0 9604.0 4981.136075949367 6.422144534823429 1497.0 0.0 1497.0 
40.00000424299679 13667.0 10129.0 4981.439873417721 6.774257880008878 1497.0 0.0 1497.0 
42.00000424299679 14096.0 10587.0 4981.401898734177 7.249488517956557 1497.0 0.0 1497.0 
44.00000424299679 14389.0 10918.0 4981.572784810127 7.032742144662255 1497.0 0.0 1497.0 
46.00000424299679 14796.0 11250.0 4981.501582278481 7.012265138178132 1497.0 0.0 1497.0 
48.00000424299679 15235.0 11574.0 4981.6344936708865 7.401661693779459 1497.0 0.0 1497.0 
50.00000424299679 15453.0 11744.0 4981.625 7.625249296477265 1497.0 0.0 1497.0 
52.00000424299679 15820.0 12121.0 4981.863924050633 7.882901101741158 1497.0 0.0 1497.0 
54.00000424299679 16165.0 12459.0 4981.810126582279 8.493263525337738 1497.0 0.0 1497.0 
56.00000424299679 16360.0 12640.0 4981.810126582279 8.77778725217571 1497.0 0.0 1497.0 
58.00000424299679 16489.0 12706.0 4981.827531645569 9.287613055898882 1497.0 0.0 1497.0 
60.00000424299679 16294.0 12540.0 4980.06170886076 9.357664251500273 1497.0 0.0 1497.0 
62.00000424299679 16022.0 12324.0 505.58544303797606 9.398649012173003 662.0 0.0 58.0 
64.0000042429968 15785.0 12040.0 521.9920886075935 9.088932131595364 592.0 0.0 67.0 
66.0000042429968 15464.0 11728.0 554.7041139240506 7.970092067537309 498.0 0.0 85.0 
68.0000042429968 15129.0 11532.0 554.7104430379775 7.208589534211753 439.0 0.0 85.0 
70.0000042429968 14835.0 11298.0 554.7136075949372 6.344069013621112 395.0 0.0 85.0 
72.0000042429968 14744.0 11102.0 563.7974683544301 5.740401473098522 366.0 0.0 90.0 
74.0000042429968 14789.0 11102.0 563.7848101265807 5.165830225828009 326.0 0.0 90.0 
76.0000042429968 14609.0 10952.0 563.7721518987322 4.843504900890778 290.0 0.0 90.0 
78.0000042429968 14503.0 10920.0 563.765822784811 4.041380091091537 244.0 0.0 90.0 
80.0000042429968 14675.0 11098.0 563.7610759493692 3.904027408450615 224.0 0.0 90.0 
82.0000042429968 14513.0 10880.0 565.6012658227812 3.318125039239002 194.0 0.0 91.0 
84.0000042429968 14693.0 10875.0 587.4256329113931 2.9671631637932343 194.0 0.0 103.0 
86.0000042429968 14611.0 10789.0 587.3560126582308 2.5376648841649327 182.0 0.0 103.0 
88.0000042429968 15085.0 10978.0 592.9129746835475 1.7730668891374135 179.0 0.0 106.0 
90.0000042429968 15494.0 11266.0 601.9731012658273 1.6269089420397183 176.0 0.0 111.0 
92.0000042429968 15594.0 11328.0 603.8053797468378 1.5436217963275 176.0 0.0 112.0 
94.0000042429968 15904.0 11521.0 607.4936708860812 1.6546862549310433 177.0 0.0 114.0 
96.0000042429968 16254.0 11657.0 645.6629746835482 1.6297639877802772 199.0 0.0 135.0 
98.0000042429968 16585.0 11824.0 674.7278481012667 1.6366856777030063 218.0 0.0 151.0 
100.0000042429968 17021.0 11896.0 709.3101265822798 1.6716716846029391 242.0 0.0 170.0 
102.0000042429968 18005.0 12228.0 756.6693037974641 1.6554281202860168 274.0 0.0 196.0 
104.0000042429968 18705.0 12470.0 769.4731012658161 1.7774480936271864 290.0 0.0 203.0 
106.0000042429968 19255.0 12869.0 784.0379746835355 1.8388247785117748 301.0 0.0 211.0 
108.0000042429968 19515.0 13016.0 791.2832278480925 1.9983651905794064 305.0 0.0 215.0 
110.0000042429968 19589.0 13065.0 791.2642405063237 2.154135691661184 305.0 0.0 215.0 
112.0000042429968 19693.0 13158.0 791.2610759493753 2.3307795591898004 306.0 0.0 215.0 
114.0000042429968 19704.0 13205.0 807.6534810126512 2.4272579410931554 315.0 0.0 224.0 
116.0000042429968 19814.0 13246.0 816.7341772151838 2.4407994027350544 325.0 0.0 229.0 
118.0000042429968 21247.0 13309.0 920.7721518987457 2.2120053268066675 386.0 0.0 286.0 
120.0000042429968 21530.0 13341.0 958.5712025316512 2.205762904853655 403.0 0.0 307.0 
122.0000042429968 22336.0 13431.0 1000.5395569620284 2.255922941691422 426.0 0.0 330.0 
124.0000042429968 22343.0 13432.0 1004.1392405063236 2.5278764959253084 428.0 0.0 332.0 
126.0000042429968 22280.0 13426.0 1004.1281645569584 2.612377432388806 436.0 0.0 332.0 
128.0000042429968 22238.0 13423.0 1002.3212025316476 2.7682435287653706 440.0 0.0 331.0 
130.0000042429968 21956.0 13401.0 1004.1487341772089 2.7898041431731815 436.0 0.0 332.0 
132.0000042429968 21600.0 13375.0 1003.9825949366943 2.6896728966291112 434.0 0.0 332.0 
134.0000042429968 21308.0 13359.0 1003.9889240506322 2.690651341440641 431.0 0.0 332.0 
136.0000042429968 21154.0 13349.0 1003.8164556962028 2.6142807557506966 428.0 0.0 332.0 
138.0000042429968 21180.0 13351.0 1005.6376582278418 2.517398503773839 426.0 0.0 333.0 
140.0000042429968 21335.0 13356.0 1005.6060126582355 2.4968910961377153 428.0 0.0 333.0 
142.0000042429968 21661.0 13375.0 1009.2784810126498 2.5358489331014686 440.0 0.0 335.0 
144.0000042429968 21736.0 13380.0 1009.2642405063236 2.708897436187933 441.0 0.0 335.0 
146.0000042429968 21771.0 13381.0 1009.4098101265884 2.786779956168576 444.0 0.0 335.0 
148.0000042429968 20762.0 13354.0 1009.4113924050705 2.772852957636222 442.0 0.0 335.0 
150.0000042429968 20454.0 13335.0 1009.3797468354404 2.7302320748964357 443.0 0.0 335.0 
152.0000042429968 19672.0 13292.0 1007.5886075949295 2.1580105023936484 436.0 0.0 334.0 
154.0000042429968 19660.0 13291.0 1005.3275316455619 2.1837870509691 441.0 0.0 333.0 
156.0000042429968 19954.0 13308.0 1005.5838607594848 2.1436073649123735 442.0 0.0 333.0 
158.0000042429968 20038.0 13310.0 1003.674050632912 2.2093725003733193 435.0 0.0 332.0 
160.0000042429968 20264.0 13326.0 1005.4873417721583 2.346640761231209 435.0 0.0 333.0 
162.0000042429968 20626.0 13338.0 1007.520569620251 2.3454943202744123 438.0 0.0 334.0 
164.0000042429968 20927.0 13349.0 1007.6060126582354 2.412827284808878 440.0 0.0 334.0 
166.0000042429968 20940.0 13354.0 1007.6566455696295 2.3727678187090935 437.0 0.0 334.0 
168.0000042429968 20885.0 13346.0 1007.5664556962028 2.3046584984674046 438.0 0.0 334.0 
170.0000042429968 20814.0 13348.0 1007.631329113923 2.3483148088376575 438.0 0.0 334.0 
172.0000042429968 21376.0 13365.0 1011.4952531645596 2.1711374196061963 447.0 0.0 336.0 
174.0000042429968 21640.0 13381.0 1013.3006329113966 2.207220966658163 451.0 0.0 337.0 
176.0000042429968 21645.0 13382.0 1015.0791139240439 2.2808352413958537 451.0 0.0 338.0 
178.0000042429968 21674.0 13388.0 1015.0806962025283 2.418560399973042 448.0 0.0 338.0 
180.0000042429968 21629.0 13387.0 1013.2167721519091 2.538984265516103 449.0 0.0 337.0 
182.0000042429968 21632.0 13391.0 1011.3987341772089 2.640017774110427 448.0 0.0 336.0 
184.0000042429968 21651.0 13396.0 1011.3465189873502 2.736581634781395 451.0 0.0 336.0 
186.0000042429968 21332.0 13378.0 1013.1139240506325 2.6394550395201803 452.0 0.0 337.0 
188.0000042429968 21281.0 13374.0 1014.7911392405152 2.692787140394127 454.0 0.0 338.0 
190.0000042429968 21388.0 13376.0 1016.7958860759561 2.7461453543428584 457.0 0.0 339.0 
192.0000042429968 21273.0 13373.0 1013.2056962025287 2.7471417551460937 455.0 0.0 337.0 
194.0000042429968 21051.0 13366.0 1009.4810126582354 2.676981156561238 458.0 0.0 335.0 
196.0000042429968 21203.0 13374.0 1005.825949367088 2.758534159841923 461.0 0.0 333.0 
198.0000042429968 21250.0 13379.0 1005.811708860762 2.6569979451734342 458.0 0.0 333.0 
200.0000042429968 21389.0 13377.0 1003.9794303797487 2.7140163477337733 461.0 0.0 332.0 
202.0000042429968 20724.0 13351.0 1005.7579113924006 2.4463458239889135 458.0 0.0 333.0 
204.0000042429968 20647.0 13348.0 1009.3971518987466 2.399323590843002 461.0 0.0 335.0 
206.0000042429968 20807.0 13361.0 1009.476265822791 2.39401101395198 461.0 0.0 335.0 
208.0000042429968 20774.0 13361.0 1004.0585443037972 2.409678425759707 460.0 0.0 332.0 
210.0000042429968 20771.0 13358.0 1002.1408227848087 2.526075458304157 456.0 0.0 331.0 
212.0000042429968 20759.0 13355.0 1002.1408227848087 2.568614712354405 452.0 0.0 331.0 
214.0000042429968 20615.0 13341.0 1003.9113924050705 2.576932612922512 448.0 0.0 332.0 
216.0000042429968 20706.0 13344.0 1002.0506329113966 2.536260849634087 453.0 0.0 331.0 
218.0000042429968 20617.0 13342.0 1002.0490506329121 2.6533690741038543 445.0 0.0 331.0 
220.0000042429968 20289.0 13327.0 1002.0743670886034 2.741984285883523 446.0 0.0 331.0 
222.0000042429968 20277.0 13317.0 998.3354430379715 2.6041925757995874 442.0 0.0 329.0 
224.0000042429968 20745.0 13342.0 1002.2642405063235 2.6150553499087565 442.0 0.0 331.0 
226.0000042429968 20979.0 13350.0 1000.375 2.5125992400467743 443.0 0.0 330.0 
228.0000042429968 21033.0 13351.0 1004.0933544303707 2.448824497980043 442.0 0.0 332.0 
230.0000042429968 21040.0 13361.0 1004.0664556962026 2.3801264718120856 445.0 0.0 332.0 
232.0000042429968 20934.0 13357.0 1004.0189873417646 2.319249736986339 445.0 0.0 332.0 
234.0000042429968 20970.0 13360.0 1005.9098101265879 2.2865710258978384 443.0 0.0 333.0 
236.0000042429968 20876.0 13356.0 1005.8813291139228 2.1853278087573846 440.0 0.0 333.0 
238.0000042429968 20924.0 13349.0 1005.6613924050704 2.2031494308817523 440.0 0.0 333.0 
240.0000042429968 21171.0 13366.0 1005.8006329113967 2.223484560731454 442.0 0.0 333.0 
242.0000042429968 21327.0 13376.0 1004.0 2.327907623852547 440.0 0.0 332.0 
244.0000042429968 21442.0 13382.0 1002.262658227842 2.5660704545726856 443.0 0.0 331.0 
246.0000042429968 21454.0 13389.0 1002.382911392401 2.6385983224507203 443.0 0.0 331.0 
248.0000042429968 21686.0 13395.0 1002.3639240506325 2.7271163669503706 441.0 0.0 331.0 
250.0000042429968 21949.0 13411.0 1002.3148734177202 2.8786151225385184 449.0 0.0 331.0 
252.0000042429968 21806.0 13414.0 1002.4098101265881 2.941792424412408 448.0 0.0 331.0 
254.0000042429968 21349.0 13395.0 1002.3465189873501 2.88799434538152 452.0 0.0 331.0 
256.0000042429968 20836.0 13370.0 1002.3892405063235 2.726076474339134 452.0 0.0 331.0 
258.0000042429968 20647.0 13363.0 1004.0712025316471 2.692583806444051 445.0 0.0 332.0 
260.0000042429968 20483.0 13347.0 1003.976265822791 2.6023590741695455 446.0 0.0 332.0 
262.0000042429968 20628.0 13353.0 1002.148734177209 2.586737452173934 444.0 0.0 331.0 
264.0000042429968 20454.0 13346.0 1002.1629746835331 2.6205912786826184 440.0 0.0 331.0 
266.0000042429968 20362.0 13340.0 1002.1107594936765 2.519181510433586 440.0 0.0 331.0 
268.0000042429968 20425.0 13347.0 1002.1170886075992 2.518468679658946 441.0 0.0 331.0 
270.0000042429968 20735.0 13354.0 1002.2468354430413 2.3557816662423465 439.0 0.0 331.0 
272.0000042429968 20869.0 13355.0 1002.0443037974711 2.3091985879224226 440.0 0.0 331.0 
274.0000042429968 20944.0 13360.0 1002.1170886075992 2.391023150701083 440.0 0.0 331.0 
276.0000042429968 20929.0 13357.0 1002.1772151898783 2.3694853974969297 439.0 0.0 331.0 
278.0000042429968 20848.0 13363.0 1003.9905063291185 2.2724366780952825 440.0 0.0 332.0 
280.0000042429968 20586.0 13349.0 1003.8227848101218 2.2760903820430456 429.0 0.0 332.0 
282.0000042429968 20628.0 13352.0 1003.841772151909 2.281645226529783 434.0 0.0 332.0 
284.0000042429968 20761.0 13363.0 1005.8037974683527 2.2808366425343007 443.0 0.0 333.0 
286.0000042429968 20975.0 13368.0 1005.8639240506325 2.372589229001528 442.0 0.0 333.0 
288.0000042429968 21120.0 13378.0 1007.5443037974713 2.437953921115552 444.0 0.0 334.0 
290.0000042429968 21220.0 13382.0 1003.8860759493678 2.5564121615524176 441.0 0.0 332.0 
292.0000042429968 21006.0 13373.0 1002.099683544308 2.5911778277252853 440.0 0.0 331.0 
294.0000042429968 21041.0 13374.0 1002.0395569620287 2.617212558087174 441.0 0.0 331.0 
296.0000042429968 21282.0 13384.0 1002.0601265822798 2.558024045710056 446.0 0.0 331.0 
298.0000042429968 21221.0 13384.0 1000.3243670886031 2.681291490847842 446.0 0.0 330.0 
300.0000042429968 20819.0 13375.0 1000.408227848091 2.654236425580618 447.0 0.0 330.0 
302.0000042429968 20649.0 13370.0 1000.4208860759563 2.5678712745877865 442.0 0.0 330.0 
304.0000042429968 20969.0 13384.0 1000.4414556962028 2.583176484166991 449.0 0.0 330.0 
306.0000042429968 21175.0 13388.0 1000.4303797468388 2.5418598293148267 452.0 0.0 330.0 
308.0000042429968 21290.0 13394.0 1002.2547468354404 2.5461700200764947 449.0 0.0 331.0 
310.0000042429968 21444.0 13408.0 1000.5 2.6446981596797756 450.0 0.0 330.0 
312.0000042429968 21474.0 13413.0 993.2420886076001 2.708996688761601 450.0 0.0 326.0 
314.0000042429968 21528.0 13406.0 996.8575949366943 2.7618331100385998 451.0 0.0 328.0 
316.0000042429968 21376.0 13398.0 996.8433544303707 2.688169962234472 447.0 0.0 328.0 
318.0000042429968 21269.0 13385.0 1000.5268987341872 2.5796815284177597 446.0 0.0 330.0 
320.0000042429968 21259.0 13391.0 1000.386075949368 2.572184206947639 446.0 0.0 330.0 
322.0000042429968 21271.0 13390.0 996.6218354430416 2.707351492209632 445.0 0.0 328.0 
324.0000042429968 21137.0 13381.0 996.7041139240437 2.79718770543042 439.0 0.0 328.0 
326.0000042429968 20812.0 13363.0 996.6424050633057 2.678520941706019 438.0 0.0 328.0 
328.0000042429968 20718.0 13359.0 998.3117088607619 2.8080904545654994 439.0 0.0 329.0 
330.0000042429968 20610.0 13346.0 998.3306962025293 2.751235952886594 438.0 0.0 329.0 
332.0000042429968 20880.0 13367.0 1003.8797468354404 2.695372542102641 442.0 0.0 332.0 
334.0000042429968 20460.0 13346.0 1002.1028481012532 2.661825962163628 440.0 0.0 331.0 
336.0000042429968 20346.0 13346.0 1003.7594936708813 2.4533631722097375 443.0 0.0 332.0 
338.0000042429968 20289.0 13338.0 1005.5348101265882 2.334866268783677 437.0 0.0 333.0 
340.0000042429968 20251.0 13336.0 1003.658227848091 2.1994843025383384 434.0 0.0 332.0 
342.0000042429968 20336.0 13342.0 1005.5300632911318 1.9873489320965396 428.0 0.0 333.0 
344.0000042429968 20226.0 13346.0 1007.1993670886031 2.0673180372789077 432.0 0.0 334.0 
346.0000042429968 20429.0 13360.0 1007.4430379746809 2.147669144653293 441.0 0.0 334.0 
348.0000042429968 20602.0 13372.0 1003.9066455696293 2.1701379303204944 441.0 0.0 332.0 
350.0000042429968 20702.0 13373.0 1003.9841772151913 2.182740205999209 438.0 0.0 332.0 
352.0000042429968 20963.0 13387.0 1003.9477848101216 2.3407329998029076 444.0 0.0 332.0 
354.0000042429968 21093.0 13392.0 1004.037974683533 2.480445389554203 448.0 0.0 332.0 
356.0000042429968 21172.0 13402.0 1002.3607594936766 2.6104284803974154 450.0 0.0 331.0 
358.0000042429968 21521.0 13415.0 1002.4398734177202 2.702359835114656 451.0 0.0 331.0 
360.0000042429968 21725.0 13428.0 1004.1756329113969 2.845489812573084 454.0 0.0 332.0 
362.0000042429968 21563.0 13413.0 1004.1471518987468 2.7595169650026574 453.0 0.0 332.0 
364.0000042429968 21625.0 13412.0 1004.1170886075994 2.8977796255146178 456.0 0.0 332.0 
366.0000042429968 21617.0 13411.0 1004.1297468354404 2.699152557571084 451.0 0.0 332.0 
368.0000042429968 21699.0 13417.0 1009.5664556962021 2.7311416809112035 453.0 0.0 335.0 
370.0000042429968 21600.0 13407.0 1009.6518987341873 2.7659017785687174 455.0 0.0 335.0 
372.0000042429968 21404.0 13392.0 1009.5522151898782 2.7508099993320703 450.0 0.0 335.0 
374.0000042429968 21288.0 13384.0 1009.4651898734115 2.7710908008537043 455.0 0.0 335.0 
376.0000042429968 21027.0 13375.0 1011.2151898734114 2.6425801374980518 457.0 0.0 336.0 
378.0000042429968 20836.0 13364.0 1009.262658227842 2.6154903951378627 454.0 0.0 335.0 
380.0000042429968 20845.0 13374.0 1007.5917721519091 2.6180238877033624 450.0 0.0 334.0 
382.0000042429968 20707.0 13373.0 1011.0522151898782 2.5884005993000145 449.0 0.0 336.0 
384.0000042429968 20681.0 13376.0 1009.2658227848083 2.5964978400629257 449.0 0.0 335.0 
386.0000042429968 20690.0 13375.0 1007.4367088607613 2.6548422770423903 446.0 0.0 334.0 
388.0000042429968 20372.0 13366.0 1007.3465189873502 2.7019189640975867 443.0 0.0 334.0 
390.0000042429968 20111.0 13352.0 1005.4462025316474 2.4922637586891243 441.0 0.0 333.0 
392.0000042429968 20053.0 13353.0 1007.3117088607613 2.450735768613892 441.0 0.0 334.0 
394.0000042429968 20163.0 13367.0 1007.3164556962022 2.40705772160278 443.0 0.0 334.0 
396.0000042429968 20100.0 13361.0 1005.6329113924008 2.278981711691659 446.0 0.0 333.0 
398.0000042429968 20222.0 13373.0 1007.4319620253192 2.1702961915641845 449.0 0.0 334.0 
400.0000042429968 20263.0 13372.0 1003.7816455696295 2.3607694732936726 450.0 0.0 332.0 
402.0000042429968 20329.0 13372.0 1000.1091772151913 2.4057888485939674 454.0 0.0 330.0 
404.0000042429968 20597.0 13384.0 998.4588607594845 2.469730602319881 461.0 0.0 329.0 
406.0000042429968 20714.0 13386.0 998.5094936708813 2.455232891229968 465.0 0.0 329.0 
408.0000042429968 20889.0 13393.0 1000.3306962025289 2.5233849944970492 468.0 0.0 330.0 
410.0000042429968 21214.0 13402.0 1002.3481012658127 2.457038982775649 468.0 0.0 331.0 
412.0000042429968 21419.0 13408.0 1004.1598101265882 2.461603857715005 466.0 0.0 332.0 
414.0000042429968 21579.0 13412.0 1004.0427215189737 2.4988923642285172 469.0 0.0 332.0 
416.0000042429968 21681.0 13417.0 1005.8528481012531 2.5252928359068583 469.0 0.0 333.0 
418.0000042429968 21674.0 13423.0 1002.2389240506322 2.6487746685803986 465.0 0.0 331.0 
420.0000042429968 21625.0 13418.0 1002.2088607594845 2.7797945455674102 467.0 0.0 331.0 
422.0000042429968 21565.0 13411.0 998.5126582278414 2.884649034771068 462.0 0.0 329.0 
424.0000042429968 21280.0 13389.0 1004.0047468354404 2.7987281554189862 462.0 0.0 332.0 
426.0000042429968 21214.0 13380.0 1002.0838607594845 2.6363225293603625 464.0 0.0 331.0 
428.0000042429968 21073.0 13373.0 998.5221518987469 2.4940378657488553 465.0 0.0 329.0 
430.0000042429968 21074.0 13380.0 996.5965189873501 2.662097080402205 458.0 0.0 328.0 
432.0000042429968 21104.0 13385.0 1000.1645569620288 2.717302855806917 457.0 0.0 330.0 
434.0000042429968 20921.0 13377.0 1002.0142405063234 2.756946248332413 458.0 0.0 331.0 
436.0000042429968 20833.0 13373.0 1005.6803797468389 2.7408738738093015 458.0 0.0 333.0 
438.0000042429968 20580.0 13364.0 1001.9287974683522 2.7776560258804097 452.0 0.0 331.0 
440.0000042429968 20070.0 13339.0 1003.8607594936766 2.647704062020844 453.0 0.0 332.0 
442.0000042429968 19834.0 13333.0 1001.917721518974 2.41645319863251 457.0 0.0 331.0 
444.0000042429968 19832.0 13338.0 1001.9683544303706 2.3630310649436406 457.0 0.0 331.0 
446.0000042429968 19942.0 13342.0 1003.7246835443084 2.1528232452249623 455.0 0.0 332.0 
448.0000042429968 20036.0 13344.0 1005.607594936694 2.142869981756754 449.0 0.0 333.0 
450.0000042429968 20248.0 13368.0 1009.2927215189738 2.208914277325103 454.0 0.0 335.0 
452.0000042429968 20538.0 13388.0 1003.9098101265886 2.214833926430927 458.0 0.0 332.0 
454.0000042429968 20736.0 13398.0 1005.7246835443088 2.3040601044231774 459.0 0.0 333.0 
456.0000042429968 20693.0 13401.0 1005.693037974681 2.3698004402136044 460.0 0.0 333.0 
458.0000042429968 20656.0 13397.0 1002.0363924050705 2.4723290800142697 462.0 0.0 331.0 
460.0000042429968 20761.0 13393.0 1003.8987341772089 2.6062845808413417 466.0 0.0 332.0 
462.0000042429968 20817.0 13392.0 1003.8449367088681 2.608138335884083 462.0 0.0 332.0 
464.0000042429968 20784.0 13393.0 1003.8892405063233 2.7270350596985464 463.0 0.0 332.0 
466.0000042429968 20685.0 13389.0 1003.8670886075992 2.6650568212793595 462.0 0.0 332.0 
468.0000042429968 21051.0 13400.0 1003.9493670886031 2.681108678739644 460.0 0.0 332.0 
470.0000042429968 21204.0 13407.0 1005.7025316455621 2.8002317563583015 460.0 0.0 333.0 
472.0000042429968 21322.0 13408.0 1005.7294303797498 2.8789646591341427 464.0 0.0 333.0 
474.0000042429968 21204.0 13400.0 1002.1629746835328 2.7778531450761896 466.0 0.0 331.0 
476.0000042429968 21082.0 13394.0 1000.267405063306 2.686535166876846 461.0 1.0 329.0 
478.0000042429968 21120.0 13396.0 1000.2563291139228 2.73382918902322 463.0 1.0 329.0 
480.0000042429968 20983.0 13382.0 996.5965189873502 2.7378659438245707 459.0 1.0 327.0 
482.0000042429968 20710.0 13365.0 996.625 2.4872004497935247 460.0 0.0 328.0 
484.0000042429968 20706.0 13364.0 994.5696202531611 2.4523083599238724 460.0 0.0 327.0 
486.0000042429968 20859.0 13378.0 992.7626582278415 2.3756823560154823 458.0 0.0 326.0 
488.0000042429968 20888.0 13380.0 990.9335443037971 2.533705036555252 458.0 0.0 325.0 
490.0000042429968 20783.0 13380.0 987.4984177215179 2.5508587147797597 461.0 0.0 323.0 
492.0000042429968 20767.0 13388.0 985.7547468354404 2.4549356559910613 464.0 0.0 322.0 
494.0000042429968 20891.0 13401.0 985.7468354430418 2.5063598639941755 467.0 0.0 322.0 
496.0000042429968 20960.0 13405.0 983.9082278480909 2.585540585475289 461.0 0.0 321.0 
498.0000042429968 20682.0 13397.0 985.8797468354404 2.5060324878623153 459.0 0.0 322.0 
500.0000042429968 20613.0 13394.0 985.6851265822798 2.5451050466700664 460.0 0.0 322.0 
502.0000042429968 20644.0 13404.0 982.1724683544392 2.5796595482163136 460.0 0.0 320.0 
504.0000042429968 20552.0 13399.0 983.9462025316489 2.5680855249356482 459.0 0.0 321.0 
506.0000042429968 20481.0 13396.0 983.917721518974 2.597669266006784 462.0 0.0 321.0 
508.0000042429968 20445.0 13394.0 983.9066455696296 2.5700905117818933 458.0 0.0 321.0 
510.0000042429968 20599.0 13393.0 989.2958860759561 2.604113799983335 459.0 0.0 324.0 
512.0000042429967 20708.0 13399.0 989.3591772151904 2.594119000219197 456.0 0.0 324.0 
514.0000042429967 20586.0 13391.0 987.5047468354404 2.606483575898599 455.0 0.0 323.0 
516.0000042429967 20499.0 13387.0 989.3227848101204 2.436049633069784 457.0 0.0 324.0 
518.0000042429967 20483.0 13389.0 987.5174050633058 2.501203270590571 455.0 0.0 323.0 
520.0000042429967 20682.0 13397.0 983.9018987341872 2.615213300958627 456.0 0.0 321.0 
522.0000042429967 20832.0 13409.0 982.1693037974695 2.5442942669614688 454.0 0.0 320.0 
524.0000042429967 20617.0 13391.0 978.4240506329104 2.5178181613006285 452.0 0.0 318.0 
526.0000042429967 20652.0 13390.0 980.1313291139244 2.473442446074777 449.0 0.0 319.0 
528.0000042429967 20677.0 13388.0 978.3734177215163 2.5253556062387252 445.0 0.0 318.0 
530.0000042429967 20732.0 13385.0 980.2373417721598 2.5807713410602133 441.0 0.0 319.0 
532.0000042429967 20706.0 13382.0 980.2531645569569 2.5433287721354083 442.0 0.0 319.0 
534.0000042429967 20906.0 13384.0 982.0490506329108 2.5508817097243326 440.0 0.0 320.0 
536.0000042429967 20977.0 13387.0 974.7041139240439 2.4830738105128254 442.0 0.0 316.0 
538.0000042429967 20907.0 13385.0 974.7927215189741 2.494236395203423 444.0 0.0 316.0 
540.0000042429967 20707.0 13381.0 974.79746835444 2.4802016006001635 443.0 0.0 316.0 
542.0000042429967 20608.0 13378.0 972.9066455696295 2.4606719400099575 443.0 0.0 315.0 
544.0000042429967 20759.0 13388.0 976.5981012658128 2.494664050520719 441.0 0.0 317.0 
546.0000042429967 20933.0 13394.0 980.3955696202524 2.4845913710354988 446.0 0.0 319.0 
548.0000042429967 21024.0 13398.0 980.3734177215164 2.5736325620645726 453.0 0.0 319.0 
550.0000042429967 20826.0 13386.0 978.5363924050706 2.5600840262633 454.0 0.0 318.0 
552.0000042429967 20629.0 13372.0 976.7183544303705 2.307212267530502 450.0 0.0 317.0 
554.0000042429967 20902.0 13389.0 983.9493670886031 2.4203028174301178 451.0 0.0 321.0 
556.0000042429967 21117.0 13402.0 983.9889240506308 2.4398639467633174 450.0 0.0 321.0 
558.0000042429967 21140.0 13416.0 982.1851265822798 2.5171022070622793 446.0 1.0 319.0 
560.0000042429967 21023.0 13418.0 978.6202531645596 2.5658455181930853 448.0 0.0 318.0 
562.0000042429967 20999.0 13422.0 978.6075949366942 2.5949665055825872 451.0 0.0 318.0 
564.0000042429967 20737.0 13416.0 978.5221518987468 2.592482012126767 450.0 0.0 318.0 
566.0000042429967 20595.0 13404.0 978.375 2.535379474988069 444.0 0.0 318.0 
568.0000042429967 20615.0 13403.0 978.3908227848106 2.666247871494356 447.0 0.0 318.0 
570.0000042429967 20660.0 13405.0 976.5775316455602 2.709934552358489 443.0 0.0 317.0 
572.0000042429967 20638.0 13404.0 978.4509493670896 2.772975400981644 439.0 0.0 318.0 
574.0000042429967 20563.0 13396.0 982.0886075949295 2.7497956312641176 443.0 0.0 320.0 
576.0000042429967 20514.0 13395.0 983.8575949366942 2.6747397436766205 445.0 0.0 321.0 
578.0000042429967 20478.0 13391.0 983.7151898734136 2.712797116275694 442.0 0.0 321.0 
580.0000042429967 20597.0 13392.0 983.712025316467 2.7384950412506006 445.0 0.0 321.0 
582.0000042429967 20567.0 13390.0 985.566455696204 2.6299613102664323 443.0 0.0 322.0 
584.0000042429967 20272.0 13372.0 987.4193037974698 2.634220752138371 439.0 0.0 323.0 
586.0000042429967 19975.0 13359.0 991.011075949369 2.5238295172220684 444.0 0.0 325.0 
588.0000042429967 19926.0 13355.0 989.1344936708814 2.453000832138238 445.0 0.0 324.0 
590.0000042429967 20134.0 13364.0 998.5458860759563 2.4682326120562426 448.0 0.0 329.0 
592.0000042429967 20412.0 13373.0 998.5332278480909 2.2995416428313864 444.0 0.0 329.0 
594.0000042429967 20722.0 13385.0 998.4651898734124 2.253187312795932 443.0 0.0 329.0 
596.0000042429967 20818.0 13391.0 1002.0712025316479 2.3594476739819994 444.0 0.0 331.0 
598.0000042429967 20822.0 13389.0 1002.0917721519094 2.4807302879205384 442.0 0.0 331.0 
600.0000042429967 20863.0 13397.0 1000.3971518987469 2.5130146615860256 450.0 0.0 330.0 
602.0000042429967 21063.0 13408.0 1002.2262658227911 2.530736673794396 462.0 0.0 331.0 
604.0000042429967 21087.0 13421.0 1002.2832278480906 2.587428998834975 466.0 0.0 331.0 
606.0000042429967 20976.0 13414.0 1002.246835443042 2.4703280181376743 460.0 0.0 331.0 
608.0000042429967 20928.0 13411.0 1003.9683544303703 2.5502559035182544 456.0 0.0 332.0 
610.0000042429967 20766.0 13404.0 1003.9430379746802 2.6404351052942605 454.0 0.0 332.0 
612.0000042429967 20725.0 13401.0 1002.1598101265878 2.678737827741805 456.0 0.0 331.0 
614.0000042429967 20824.0 13412.0 1002.1518987341872 2.8175468153913648 457.0 0.0 331.0 
616.0000042429967 20956.0 13413.0 1002.2943037974709 2.7931990359878722 455.0 0.0 331.0 
618.0000042429967 21036.0 13416.0 1002.3037974683521 2.786673276205487 453.0 0.0 331.0 
620.0000042429967 20863.0 13408.0 1002.1914556962028 2.8220419704726174 456.0 0.0 331.0 
622.0000042429967 20549.0 13395.0 1007.5901898734118 2.735841125838494 462.0 0.0 334.0 
624.0000042429967 20434.0 13391.0 1005.7911392405155 2.635026448158728 463.0 0.0 333.0 
626.0000042429967 20538.0 13403.0 1003.9477848101216 2.5057756388100203 465.0 0.0 332.0 
628.0000042429967 20550.0 13406.0 1007.5094936708812 2.6220622108256784 465.0 0.0 334.0 
630.0000042429967 20554.0 13401.0 1009.3908227848079 2.5751503838087544 470.0 0.0 335.0 
632.0000042429967 20319.0 13389.0 1009.3655063291188 2.490014571237087 464.0 0.0 335.0 
634.0000042429967 20225.0 13379.0 1007.4034810126496 2.458742599612727 461.0 0.0 334.0 
636.0000042429967 20275.0 13377.0 1009.2863924050707 2.4217738131095876 459.0 0.0 335.0 
638.0000042429967 20323.0 13390.0 1007.3987341772088 2.550829923347614 456.0 0.0 334.0 
640.0000042429967 20369.0 13390.0 1009.3037974683531 2.674384293029192 453.0 0.0 335.0 
642.0000042429967 20548.0 13402.0 1014.700949367087 2.699007315929425 451.0 0.0 338.0 
644.0000042429967 20738.0 13408.0 1012.9778481012531 2.7201181822590135 456.0 0.0 337.0 
646.0000042429967 20652.0 13403.0 1009.3560126582357 2.6690372344492608 460.0 0.0 335.0 
648.0000042429967 20510.0 13390.0 1009.3560126582357 2.5187401564890903 462.0 0.0 335.0 
650.0000042429967 20741.0 13395.0 1009.433544303798 2.5232911206533233 464.0 0.0 335.0 
652.0000042429967 21012.0 13412.0 1009.4256329113967 2.5668658022871713 459.0 0.0 335.0 
654.0000042429967 20974.0 13406.0 1011.2863924050706 2.57909365770476 459.0 0.0 336.0 
656.0000042429967 20973.0 13399.0 1018.5458860759562 2.4943919878091454 462.0 0.0 340.0 
658.0000042429967 20880.0 13392.0 1022.022151898747 2.5702106073523074 462.0 0.0 342.0 
660.0000042429967 20894.0 13398.0 1022.137658227844 2.5038849504526186 467.0 0.0 342.0 
662.0000042429967 21144.0 13421.0 1018.5363924050707 2.558936182816612 471.0 0.0 340.0 
664.0000042429967 21180.0 13423.0 1014.8924050633062 2.6690466786280256 476.0 0.0 338.0 
#####################################################################
# End of data export. Simulation finished at: 2019-03-10T15:51+0000 #
#####################################################################
