#####################################################################
# Alchemist log file - simulation started at: 2019-03-06T11:58+0000 #
#####################################################################
# seed = 8.0, bandwidth = 2.3713737056616552E7, accessPointCount = 19.39227447486858, baserange = 1000.0
#
# The columns have the following meaning: 
# time neighbor_count[Sum] <value>@neighbor_count[Sum] packet_size[Mean] mean_delay[Mean] crowd[Sum] overcrowded[Sum] risk[Sum] 
0.0 NaN NaN NaN NaN NaN NaN NaN 
2.0005701930654807 6566.0 703.0 4988.482849604222 0.43735067339988054 1497.0 0.0 1497.0 
4.000607977072188 18236.0 739.0 4989.997361477573 0.49357606984129415 1497.0 0.0 1497.0 
6.000198348008885 26253.0 734.0 4990.984168865435 0.5206618049337277 1497.0 0.0 1497.0 
8.000607977072187 33651.0 739.0 4991.817941952507 0.5439184276077303 1497.0 0.0 1497.0 
10.000607977072187 40252.0 743.0 4992.255936675462 0.5710144437973262 1497.0 0.0 1497.0 
12.000607977072187 41988.0 725.0 4992.501319261214 0.5612401160355753 1497.0 0.0 1497.0 
14.000607977072187 40692.0 694.0 4992.46437994723 0.4999965198470979 1497.0 0.0 1497.0 
16.000198348008887 40692.0 694.0 4992.646437994723 0.49997648989444154 1497.0 0.0 1497.0 
18.000607977072185 40692.0 694.0 4992.870712401055 0.4999764178942709 1497.0 0.0 1497.0 
20.000607977072185 40693.0 694.0 4993.02110817942 0.49995567713413086 1497.0 0.0 1497.0 
22.000607977072185 40713.0 694.0 4992.873350923483 0.49991592189503403 1497.0 0.0 1497.0 
24.000607977072185 40740.0 694.0 4992.688654353562 0.5000013639988129 1497.0 0.0 1497.0 
26.000198348008887 40740.0 694.0 4992.7255936675465 0.5003158238854496 1497.0 0.0 1497.0 
28.000607977072185 40736.0 694.0 4992.67018469657 0.5000076215015388 1497.0 0.0 1497.0 
30.000607977072185 40736.0 694.0 4992.730870712401 0.500082753475038 1497.0 0.0 1497.0 
32.000607977072185 40746.0 694.0 4992.778364116095 0.49996999678340764 1497.0 0.0 1497.0 
34.000607977072185 40759.0 694.0 4992.746701846966 0.5000334600441638 1497.0 0.0 1497.0 
36.00019834800889 40758.0 694.0 4992.8891820580475 0.5040396866610701 1497.0 0.0 1497.0 
38.000607977072185 40691.0 693.0 4992.920844327176 0.49998608971031433 1497.0 0.0 1497.0 
40.000607977072185 40692.0 693.0 4992.8891820580475 0.4999924141869782 1497.0 0.0 1497.0 
42.000607977072185 40693.0 693.0 4992.738786279683 0.5000714477291438 1497.0 0.0 1497.0 
44.000607977072185 40695.0 693.0 4992.627968337731 0.5001488253763384 1497.0 0.0 1497.0 
46.00019834800889 40690.0 693.0 4992.738786279683 0.500036679953882 1497.0 0.0 1497.0 
48.000607977072185 40778.0 694.0 4992.862796833773 0.5000167985765082 1497.0 0.0 1497.0 
50.000607977072185 40780.0 694.0 4993.0 0.5000054655551336 1497.0 0.0 1497.0 
52.000607977072185 40784.0 694.0 4992.7994722955145 0.5000395720668298 1497.0 0.0 1497.0 
54.000607977072185 40783.0 694.0 4992.765171503957 0.5002349314242324 1497.0 0.0 1497.0 
56.00019834800889 40777.0 694.0 4992.820580474934 0.5001969000407774 1497.0 0.0 1497.0 
58.000607977072185 40790.0 694.0 4992.804749340369 0.5000131450737949 1497.0 0.0 1497.0 
60.000607977072185 40792.0 694.0 4992.899736147757 0.5000134660462593 1497.0 0.0 1497.0 
62.00010564519641 40792.0 694.0 1253.63060686016 0.4994745695891217 513.0 0.0 281.0 
64.00010564519641 40791.0 694.0 1253.6965699208458 0.4999218120119401 437.0 2.0 279.0 
66.00010564519641 40786.0 694.0 1253.6569920844317 0.4998605063347863 409.0 3.0 278.0 
68.00010564519641 40928.0 695.0 1250.522427440632 0.5018853001632846 386.0 7.0 273.0 
70.00010564519641 40892.0 694.0 1247.4485488126638 0.4997688302051634 380.0 9.0 270.0 
72.00010564519641 40892.0 694.0 1247.5171503957781 0.49988231477359146 375.0 11.0 268.0 
74.00010564519641 40887.0 694.0 1247.5699208443282 0.49992713943168027 376.0 10.0 269.0 
76.00010564519641 40880.0 694.0 1247.5831134564637 0.5000884944475918 376.0 10.0 269.0 
78.00010564519641 40876.0 694.0 1247.522427440632 0.5005431375773528 376.0 7.0 272.0 
80.00010564519641 40858.0 694.0 1247.5039577836403 0.49980322950233247 371.0 8.0 271.0 
82.00010564519641 40859.0 694.0 1247.556728232192 0.4998618226686558 371.0 8.0 271.0 
84.00010564519641 40931.0 694.0 1250.5672823218983 0.4992674679566244 372.0 9.0 271.0 
86.00010564519641 41035.0 695.0 1253.6200527704477 0.49984984682289435 373.0 6.0 275.0 
88.00010564519641 41038.0 695.0 1253.54617414248 0.5039496668199033 374.0 7.0 274.0 
90.00010564519641 40950.0 694.0 1253.5857519788906 0.4997541736056663 373.0 8.0 273.0 
92.00010564519641 40989.0 695.0 1253.5672823218981 0.49959325438118446 373.0 7.0 274.0 
94.00010564519641 41022.0 695.0 1253.501319261214 0.49988049223242975 375.0 6.0 275.0 
96.00010564519641 41018.0 695.0 1253.5620052770455 0.4999326348453161 374.0 6.0 275.0 
98.00010564519641 41018.0 695.0 1253.554089709762 0.5002720675870591 373.0 7.0 274.0 
100.00010564519641 41016.0 695.0 1253.4881266490777 0.4997748105531206 373.0 7.0 274.0 
102.00010564519641 41031.0 695.0 1253.4802110817939 0.49971968614558104 366.0 14.0 267.0 
104.00010564519641 41050.0 695.0 1253.472295514512 0.49987271672470107 373.0 7.0 274.0 
106.00010564519641 41044.0 695.0 1253.62796833773 0.49994263645498793 374.0 7.0 274.0 
108.00010564519641 41046.0 695.0 1253.5329815303444 0.49975202249400813 370.0 9.0 272.0 
110.00010564519641 41049.0 695.0 1253.514511873352 0.4997451821849906 370.0 9.0 272.0 
112.00010564519641 41069.0 695.0 1256.5435356200535 0.4997403698820294 373.0 6.0 276.0 
114.00010564519641 41089.0 695.0 1256.5751978891842 0.5000738284703027 373.0 6.0 276.0 
116.00010564519641 41083.0 695.0 1253.5118733509225 0.5001824878339187 375.0 6.0 275.0 
118.00010564519641 41079.0 695.0 1259.5751978891842 0.4998939900506041 377.0 7.0 276.0 
120.00010564519641 41080.0 695.0 1262.5329815303444 0.49982195148262953 375.0 9.0 275.0 
122.00010564519641 41087.0 695.0 1262.612137203168 0.49985515807142145 377.0 7.0 277.0 
124.00010564519641 41112.0 695.0 1262.6147757255922 0.49961288846197266 375.0 9.0 275.0 
126.00010564519641 41121.0 695.0 1262.6411609498698 0.49992179999510494 376.0 6.0 278.0 
128.0001056451964 41118.0 695.0 1265.659630606862 0.49992184785285165 376.0 6.0 279.0 
130.00010564519638 41113.0 695.0 1262.6068601583122 0.49979987980518636 375.0 7.0 277.0 
132.00010564519638 41115.0 695.0 1262.5514511873362 0.49974882150163785 371.0 9.0 275.0 
134.00010564519638 41121.0 695.0 1259.5989445910295 0.499868308335103 371.0 7.0 276.0 
136.00010564519638 41117.0 695.0 1256.5883905013202 0.49992705859777925 368.0 9.0 273.0 
138.00010564519638 41119.0 695.0 1259.654353562006 0.4996456580921095 366.0 7.0 276.0 
140.00010564519638 41126.0 695.0 1262.6147757255922 0.49989712978658146 366.0 9.0 275.0 
142.00010564519638 41128.0 695.0 1268.68865435356 0.49983024390893754 369.0 7.0 279.0 
144.00010564519638 41132.0 695.0 1268.6411609498696 0.4999236686625399 367.0 9.0 277.0 
146.00010564519638 41141.0 696.0 1268.7282321899738 0.504141453818825 369.0 7.0 279.0 
148.00010564519638 41006.0 695.0 1274.744063324538 0.4997724661457967 367.0 9.0 279.0 
150.00010564519638 41007.0 695.0 1274.738786279682 0.5000234518596905 370.0 7.0 281.0 
152.00010564519638 40993.0 695.0 1271.6121372031682 0.4999527007112317 369.0 9.0 278.0 
154.00010564519638 40983.0 695.0 1271.635883905014 0.501133816026756 370.0 7.0 280.0 
156.00010564519638 40939.0 695.0 1271.6042216358824 0.5041662417477357 368.0 9.0 278.0 
158.00010564519638 40906.0 694.0 1271.6886543535597 0.4997091313164768 372.0 7.0 280.0 
160.00010564519638 40907.0 694.0 1271.6306068601602 0.49991659363868807 371.0 9.0 278.0 
162.00010564519638 40924.0 694.0 1271.69129287599 0.5005747816122409 371.0 7.0 280.0 
164.00010564519638 40891.0 694.0 1274.7994722955139 0.49996123916434154 369.0 9.0 279.0 
166.00010564519638 40887.0 694.0 1274.759894459104 0.4997405575833143 371.0 7.0 281.0 
168.00010564519638 40978.0 695.0 1274.6569920844317 0.4997098585140558 369.0 9.0 279.0 
170.00010564519638 40978.0 695.0 1274.686015831136 0.5002912657709033 372.0 7.0 281.0 
172.00010564519638 40960.0 695.0 1280.7124010554076 0.5006543951543229 375.0 7.0 283.0 
174.00010564519638 40933.0 695.0 1280.7097625329827 0.5001170131441869 373.0 10.0 280.0 
176.00010564519638 40920.0 695.0 1280.7124010554076 0.5000162119949552 373.0 9.0 281.0 
178.00010564519638 40930.0 695.0 1280.6569920844317 0.49978181468207045 376.0 7.0 283.0 
180.00010564519638 40934.0 695.0 1280.6464379947217 0.4999980742520229 374.0 10.0 280.0 
182.00010564519638 40940.0 695.0 1280.6569920844317 0.501791853625831 374.0 10.0 280.0 
184.00010564519638 40873.0 695.0 1280.6886543535595 0.5000576565173427 373.0 10.0 280.0 
186.00010564519638 40862.0 695.0 1280.7467018469665 0.5003929508309146 375.0 9.0 281.0 
188.00010564519638 40844.0 695.0 1283.7387862796813 0.4999320969330487 377.0 7.0 284.0 
190.00010564519638 40845.0 695.0 1277.7862796833758 0.4999898525198854 372.0 10.0 279.0 
192.00010564519638 40866.0 695.0 1277.6912928759905 0.5033081420954646 373.0 10.0 279.0 
194.00010564519638 40783.0 694.0 1280.7915567282319 0.500674685040784 373.0 10.0 280.0 
196.00010564519638 40746.0 694.0 1280.7810026385216 0.5000307323946408 374.0 9.0 281.0 
198.00010564519638 40737.0 694.0 1277.7704485488143 0.49986381004349745 376.0 7.0 282.0 
200.00010564519638 40738.0 694.0 1280.8311345646418 0.5002913413564456 373.0 10.0 280.0 
202.00010564519638 40733.0 694.0 1280.7124010554076 0.50020642359239 376.0 9.0 281.0 
204.00010564519638 40715.0 694.0 1280.7071240105536 0.5001879403166813 378.0 7.0 283.0 
206.00010564519638 40700.0 694.0 1280.6939313984158 0.5000250778080012 376.0 9.0 281.0 
208.00010564519638 40700.0 694.0 1274.635883905014 0.5000318840589486 376.0 7.0 281.0 
210.00010564519638 40685.0 694.0 1271.659630606862 0.5001375424003772 370.0 9.0 278.0 
212.00010564519638 40668.0 694.0 1268.6306068601602 0.5003315785325627 372.0 7.0 279.0 
214.00010564519638 40641.0 694.0 1271.7203166226902 0.5001950240105297 370.0 9.0 278.0 
216.00010564519638 40625.0 694.0 1274.7625329815298 0.5000703841307504 373.0 7.0 281.0 
218.00010564519638 40616.0 694.0 1268.6886543535597 0.49985765168018303 368.0 10.0 276.0 
220.00010564519638 40622.0 695.0 1268.609498680738 0.5001540263575638 369.0 9.0 277.0 
222.00010564519638 40607.0 695.0 1265.5804749340375 0.5004488605236547 366.0 12.0 273.0 
224.00010564519638 40578.0 695.0 1265.527704485488 0.5003568546637457 366.0 12.0 273.0 
226.00010564519638 40706.0 696.0 1265.49604221636 0.5001340564647034 366.0 12.0 273.0 
228.00010564519638 40703.0 696.0 1268.4511873350937 0.5003625459359419 366.0 12.0 274.0 
230.00010564519638 40682.0 696.0 1268.530343007914 0.5002764949818701 366.0 12.0 274.0 
232.00010564519638 40656.0 696.0 1274.612137203168 0.5008879081398616 366.0 12.0 276.0 
234.00010564519638 40609.0 696.0 1274.670184696568 0.5009233377157032 366.0 12.0 276.0 
236.00010564519638 40584.0 696.0 1274.6886543535597 0.5005480882302522 366.0 12.0 276.0 
238.00010564519638 40583.0 696.0 1274.7071240105536 0.5003299406747874 366.0 12.0 276.0 
240.00010564519638 40570.0 696.0 1271.6437994722965 0.5001368246317038 366.0 12.0 275.0 
242.00010564519638 40551.0 696.0 1271.6649076517144 0.5061436580814672 366.0 12.0 275.0 
244.00010564519638 40501.0 695.0 1265.519788918206 0.5002068261450195 366.0 12.0 273.0 
246.00010564519638 40511.0 695.0 1265.5382585751981 0.4998584952486781 366.0 12.0 273.0 
248.00010564519638 40516.0 695.0 1268.564643799472 0.5002175382231192 366.0 12.0 274.0 
250.00010564519638 40501.0 695.0 1265.617414248022 0.5001395469611449 366.0 12.0 273.0 
252.00010564519638 40484.0 695.0 1265.5751978891842 0.5011957681727708 367.0 12.0 273.0 
254.00010564519638 40428.0 695.0 1265.527704485488 0.5010769127822423 367.0 12.0 273.0 
256.0001056451964 40400.0 695.0 1265.4379947229545 0.4999570390784072 368.0 12.0 273.0 
258.0001056451964 40402.0 695.0 1265.4696569920857 0.5006179784701119 368.0 12.0 273.0 
260.0001056451964 40375.0 695.0 1262.4142480211094 0.5005519567934426 368.0 12.0 272.0 
262.0001056451964 40342.0 695.0 1259.4696569920857 0.5006379781190353 367.0 12.0 271.0 
264.0001056451964 40307.0 696.0 1259.4881266490775 0.5012114069435113 366.0 12.0 271.0 
266.0001056451964 40289.0 696.0 1259.5778364116081 0.50051798755337 366.0 12.0 271.0 
268.0001056451964 40272.0 696.0 1262.609498680738 0.5008793879277744 367.0 12.0 272.0 
270.00008877733626 40248.0 696.0 1262.5883905013202 0.503594831639245 367.0 12.0 272.0 
272.0001056451964 40189.0 695.0 1262.485488126648 0.5050926080296647 367.0 12.0 272.0 
274.0001056451964 40164.0 696.0 1262.498680738786 0.501044063760242 368.0 12.0 272.0 
276.0001056451964 40159.0 696.0 1259.406332453824 0.5006087105816753 368.0 12.0 271.0 
278.0001056451964 40144.0 696.0 1256.3957783641172 0.5014497465327892 367.0 12.0 270.0 
280.0001056451964 40107.0 696.0 1259.3799472295523 0.5008172167223597 367.0 12.0 271.0 
282.0001056451964 40107.0 696.0 1259.4036939314 0.5009513120682738 367.0 12.0 271.0 
284.0001056451964 40089.0 697.0 1259.366754617416 0.5017426750936819 369.0 12.0 271.0 
286.0001056451964 40055.0 697.0 1259.3957783641174 0.5005851771662542 368.0 12.0 271.0 
288.0001056451964 40042.0 697.0 1259.3957783641174 0.503416716287042 367.0 12.0 271.0 
290.0001056451964 39939.0 696.0 1262.50395778364 0.5013671785178456 366.0 12.0 272.0 
292.0001056451964 39899.0 696.0 1262.4406332453839 0.5048262486227664 365.0 12.0 272.0 
294.0001056451964 39792.0 695.0 1262.4986807387859 0.5005768036258623 365.0 12.0 272.0 
296.0001056451964 39772.0 695.0 1265.5329815303444 0.500326418142901 365.0 12.0 273.0 
298.0001056451964 39747.0 695.0 1265.4485488126638 0.5002565791508744 364.0 12.0 273.0 
300.0001056451964 39743.0 695.0 1268.4511873350943 0.5022272672199124 364.0 12.0 274.0 
302.0001056451964 39658.0 695.0 1268.4591029023761 0.50621264753839 364.0 12.0 274.0 
304.0001056451964 39572.0 694.0 1268.432717678102 0.5042503117424316 364.0 12.0 274.0 
306.0001056451964 39463.0 693.0 1274.50659630607 0.5004505615193079 364.0 12.0 276.0 
308.0001056451964 39434.0 693.0 1271.3060686015842 0.501058880260362 362.0 12.0 275.0 
310.0001056451964 39410.0 693.0 1268.2189973614782 0.5016317715034668 361.0 12.0 274.0 
312.0001056451964 39345.0 693.0 1268.224274406334 0.5013574389282573 363.0 12.0 274.0 
314.0001056451964 39402.0 693.0 1268.4116094986798 0.5006998731289611 364.0 12.0 274.0 
316.0001056451964 39456.0 694.0 1265.4142480211096 0.5004919685644443 365.0 12.0 273.0 
318.0001056451964 39427.0 694.0 1271.50395778364 0.5010335174643995 365.0 12.0 275.0 
320.0001056451964 39412.0 694.0 1265.3957783641174 0.5016590041132168 363.0 12.0 273.0 
322.0001056451964 39354.0 694.0 1268.4274406332459 0.5017721097718335 364.0 12.0 274.0 
324.0001056451964 39299.0 694.0 1271.4010554089705 0.5006293691223599 364.0 12.0 275.0 
326.0001056451964 39282.0 694.0 1271.472295514512 0.5006050067895779 365.0 12.0 275.0 
328.0001056451964 39249.0 694.0 1274.4749340369385 0.5047386664649572 365.0 12.0 276.0 
330.0000305902197 39167.0 693.0 1277.5725593667541 0.5010624228756965 366.0 12.0 277.0 
332.0001056451964 39130.0 693.0 1277.485488126648 0.5083192150199535 366.0 12.0 277.0 
334.0001056451964 38912.0 691.0 1274.4116094986798 0.5056276590362587 364.0 12.0 276.0 
336.0001056451964 38851.0 690.0 1271.3878627968322 0.5015686081925418 365.0 12.0 275.0 
338.0001056451964 38793.0 690.0 1268.4195250659627 0.5044823309809776 365.0 12.0 274.0 
340.0001056451964 38756.0 689.0 1268.3562005277038 0.5041957873443634 364.0 12.0 274.0 
342.0001056451964 38630.0 688.0 1271.4696569920857 0.5005474447705086 364.0 12.0 275.0 
344.0001056451964 38617.0 688.0 1274.485488126648 0.5013222542879342 369.0 12.0 276.0 
346.0001056451964 38596.0 688.0 1274.5593667546163 0.5006513625574593 368.0 12.0 276.0 
348.0001056451964 38568.0 688.0 1271.480211081794 0.5037132621380466 368.0 12.0 275.0 
350.0001056451964 38515.0 687.0 1268.4406332453837 0.5048716704463645 368.0 12.0 274.0 
352.0001056451964 38435.0 687.0 1268.3588390501304 0.5051757047983562 371.0 12.0 274.0 
354.0001056451964 38269.0 686.0 1265.3614775725603 0.5052642650128689 372.0 12.0 273.0 
356.0001056451964 38308.0 686.0 1265.3746701846958 0.5030973382762003 371.0 12.0 273.0 
358.0001056451964 38286.0 685.0 1265.3957783641172 0.4996788467225963 370.0 12.0 273.0 
360.0001056451964 38282.0 685.0 1265.3588390501304 0.501125006105808 369.0 12.0 273.0 
362.0001056451964 38243.0 685.0 1265.3746701846958 0.5018487058570306 369.0 12.0 273.0 
364.0001056451964 38222.0 685.0 1262.292875989446 0.5059539254910492 369.0 12.0 272.0 
366.0001056451964 38187.0 684.0 1259.292875989446 0.5002281760284046 371.0 12.0 271.0 
368.0001056451964 38169.0 684.0 1256.2506596306075 0.49964792666661534 371.0 12.0 270.0 
370.0001056451964 38167.0 684.0 1253.2955145118726 0.5068275358018135 371.0 12.0 269.0 
372.0001056451964 38003.0 682.0 1256.261213720317 0.5015361714832388 370.0 12.0 270.0 
374.0001056451964 37948.0 681.0 1259.3113456464396 0.5037981885219815 370.0 12.0 271.0 
376.0001056451964 37877.0 681.0 1265.3350923482851 0.5001827037145987 369.0 12.0 273.0 
378.0001056451964 37873.0 681.0 1259.327176781002 0.5004219061948524 369.0 12.0 271.0 
380.0001056451964 37846.0 681.0 1259.316622691293 0.5001043388876694 369.0 12.0 271.0 
382.00008877733626 37832.0 681.0 1256.3218997361469 0.5026511345448642 372.0 12.0 270.0 
384.00008877733626 37778.0 681.0 1259.3350923482851 0.5060503872739442 371.0 12.0 271.0 
386.00008877733626 37715.0 680.0 1259.3905013192618 0.5001078517378225 371.0 12.0 271.0 
388.00008877733626 37774.0 681.0 1250.3139841688646 0.5031484616822041 368.0 12.0 268.0 
390.00008877733626 37614.0 680.0 1244.2321899736155 0.5003446252201351 368.0 12.0 266.0 
392.00008877733626 37598.0 680.0 1241.1820580474937 0.5008622838365371 367.0 12.0 265.0 
394.00008877733626 37568.0 680.0 1238.1715039577841 0.50503066777645 364.0 13.0 263.0 
396.00008877733626 37510.0 679.0 1238.087071240105 0.49996515884079623 362.0 15.0 261.0 
398.00008877733626 37515.0 679.0 1232.105540897097 0.49992489941120943 362.0 14.0 260.0 
400.00008877733626 37510.0 679.0 1225.9973614775724 0.5004242050557052 363.0 12.0 260.0 
402.00008877733626 37501.0 679.0 1226.0448548812665 0.5031226155469969 361.0 13.0 259.0 
404.00008877733626 37424.0 678.0 1225.976253298152 0.5005563885657461 358.0 15.0 257.0 
406.00008877733626 37401.0 678.0 1229.0738786279678 0.5034518843744845 357.0 15.0 258.0 
408.00008877733626 37354.0 678.0 1229.0844327176792 0.5006699325578595 357.0 15.0 258.0 
410.00008877733626 37321.0 678.0 1232.1741424802112 0.5039575855942187 357.0 14.0 260.0 
412.00008877733626 37344.0 677.0 1229.0527704485485 0.49962525604278907 360.0 12.0 261.0 
414.00008877733626 37422.0 679.0 1235.163588390501 0.5027750742794622 360.0 12.0 263.0 
416.00008877733626 37378.0 678.0 1235.0923482849598 0.5015520451052055 361.0 12.0 263.0 
418.00008877733626 37293.0 678.0 1238.129287598944 0.5031763565838041 363.0 12.0 264.0 
420.00008877733626 37190.0 678.0 1228.9841688654358 0.5002610493060899 364.0 12.0 261.0 
422.00008877733626 37169.0 678.0 1228.997361477572 0.5012444953329952 362.0 12.0 261.0 
424.0000719094761 37143.0 678.0 1219.9313984168869 0.5011527908067201 358.0 12.0 258.0 
426.0000719094761 37116.0 678.0 1219.9472295514518 0.5062808295741072 358.0 12.0 258.0 
428.0000719094761 37072.0 677.0 1219.90765171504 0.5005453681402339 356.0 12.0 258.0 
430.0000719094761 37058.0 677.0 1213.8918205804755 0.5000312701053913 356.0 12.0 256.0 
432.0000719094761 37048.0 677.0 1213.8575197889188 0.5005439315959357 356.0 12.0 256.0 
434.0000719094761 37038.0 677.0 1216.9498680738793 0.5016891563582744 355.0 13.0 256.0 
436.0000719094761 36987.0 676.0 1216.8443271767803 0.5037646261775262 355.0 14.0 255.0 
438.0000719094761 36966.0 676.0 1213.802110817943 0.4999424523018427 356.0 13.0 255.0 
440.0000719094761 36966.0 676.0 1213.7915567282319 0.501150269390516 357.0 12.0 256.0 
442.0000719094761 36942.0 676.0 1219.931398416887 0.5042308498787046 356.0 12.0 258.0 
444.0000719094761 36898.0 675.0 1216.8258575197888 0.50039274547905 358.0 12.0 257.0 
446.0000719094761 36890.0 675.0 1216.8496042216357 0.504667853440855 356.0 12.0 257.0 
448.0000719094761 36866.0 674.0 1213.7889182058045 0.5031078173547493 354.0 12.0 256.0 
450.0000719094761 36809.0 673.0 1216.9050131926122 0.5001732895567832 354.0 12.0 257.0 
452.0000719094761 36819.0 674.0 1216.894459102903 0.506126091954933 354.0 12.0 257.0 
454.0000719094761 36763.0 674.0 1223.0290237467018 0.5008154918817445 354.0 12.0 259.0 
456.0000719094761 36759.0 674.0 1222.9947229551447 0.5009593492690796 355.0 12.0 259.0 
458.0000719094761 36742.0 674.0 1222.9947229551447 0.5008495237867233 354.0 12.0 259.0 
460.0000719094761 36738.0 674.0 1222.90765171504 0.5013856840552094 354.0 12.0 259.0 
462.0000719094761 36730.0 674.0 1219.8522427440637 0.5051053605888154 353.0 12.0 258.0 
464.0000719094761 36598.0 673.0 1216.8100263852239 0.5000033435273415 353.0 12.0 257.0 
466.0000719094761 36588.0 673.0 1216.8443271767806 0.4999339965133197 351.0 12.0 257.0 
468.0000719094761 36586.0 673.0 1216.8416886543532 0.5000521259700705 351.0 12.0 257.0 
470.0000719094761 36588.0 673.0 1210.8311345646437 0.5008572380268568 350.0 12.0 255.0 
472.0000719094761 36584.0 674.0 1210.8258575197888 0.503414204038162 350.0 12.0 255.0 
474.0000719094761 36590.0 673.0 1210.915567282321 0.5001427229208857 349.0 12.0 255.0 
476.0000719094761 36585.0 673.0 1207.823218997361 0.5001376596864517 349.0 12.0 254.0 
478.0000719094761 36579.0 673.0 1207.804749340369 0.5000807501006437 347.0 13.0 253.0 
480.0000719094761 36584.0 673.0 1210.8284960422159 0.5002360003676831 346.0 13.0 254.0 
482.0000719094761 36578.0 673.0 1207.8364116094988 0.5001774124269277 347.0 12.0 254.0 
484.0000719094761 36591.0 673.0 1210.839050131927 0.5010218770587982 348.0 12.0 255.0 
486.0000719094761 36586.0 673.0 1207.8100263852239 0.49986636231925036 348.0 12.0 254.0 
488.00008877733626 36657.0 674.0 1201.736147757256 0.5002200806649779 345.0 13.0 251.0 
490.00008877733626 36750.0 675.0 1198.7493403693927 0.5039610861914582 344.0 13.0 250.0 
492.00008877733626 36705.0 674.0 1198.7097625329814 0.5006565623436048 343.0 12.0 251.0 
494.00008877733626 36702.0 674.0 1192.6965699208438 0.501555670920384 342.0 12.0 249.0 
496.00008877733626 36685.0 674.0 1192.7203166226918 0.5003185525403426 342.0 12.0 249.0 
498.00008877733626 36685.0 674.0 1195.7889182058043 0.5001688603432135 340.0 12.0 250.0 
500.0000719094761 36694.0 674.0 1195.6912928759891 0.49997170230078947 343.0 12.0 250.0 
502.0000719094761 36689.0 674.0 1195.6754617414242 0.5056587667059022 343.0 12.0 250.0 
504.0000719094761 36627.0 673.0 1195.641160949868 0.5003097589274095 343.0 12.0 250.0 
506.0000719094761 36621.0 673.0 1195.6649076517158 0.5001757852909346 343.0 12.0 250.0 
508.0000719094761 36616.0 673.0 1192.569920844328 0.4999650797386073 344.0 12.0 249.0 
510.0000719094761 36618.0 673.0 1195.6490765171511 0.500182082541924 344.0 12.0 250.0 
512.0000719094761 36606.0 673.0 1189.5672823219 0.5019772181781695 343.0 12.0 248.0 
514.0000719094761 36592.0 672.0 1192.6464379947238 0.5015863141305793 343.0 12.0 249.0 
516.0000719094761 36578.0 672.0 1192.65963060686 0.5003077981682141 343.0 12.0 249.0 
518.0000719094761 36628.0 672.0 1186.6912928759891 0.4996091491378117 344.0 12.0 247.0 
520.0000719094761 36713.0 673.0 1186.6464379947238 0.5003991480405756 343.0 12.0 247.0 
522.0000719094761 36697.0 673.0 1180.585751978892 0.5005249838541591 342.0 12.0 245.0 
524.0000719094761 36682.0 673.0 1174.4881266490759 0.5042074104409431 341.0 12.0 243.0 
526.0000719094761 36624.0 672.0 1177.4960422163592 0.5004326396819382 340.0 12.0 244.0 
528.0000719094761 36614.0 672.0 1177.493403693932 0.5001615554932417 339.0 12.0 244.0 
530.0000719094761 36604.0 672.0 1180.5118733509241 0.5000373255496054 337.0 12.0 245.0 
532.0000887773363 36600.0 672.0 1183.5197889182052 0.499805818732246 338.0 12.0 246.0 
534.0000887773363 36654.0 673.0 1186.5883905013197 0.4999362178411333 339.0 12.0 247.0 
536.0000887773363 36652.0 673.0 1186.651715039577 0.500468852404998 340.0 12.0 247.0 
538.0000887773363 36706.0 673.0 1186.6543535620046 0.4996233557298821 341.0 12.0 247.0 
540.0000887773363 36779.0 674.0 1186.6174142480206 0.500382629638014 341.0 12.0 247.0 
542.0000887773363 36763.0 674.0 1186.622691292876 0.4998830307622859 341.0 12.0 247.0 
544.0000887773363 36797.0 675.0 1186.6279683377313 0.5010512430849359 342.0 12.0 247.0 
546.0000887773363 36783.0 677.0 1186.6781002638518 0.506064441451973 342.0 12.0 247.0 
548.0000887773363 36791.0 676.0 1186.7255936675467 0.5048910168905837 341.0 12.0 247.0 
550.0000887773363 36758.0 677.0 1183.633245382585 0.5002179530449373 342.0 12.0 246.0 
552.0000887773363 36753.0 677.0 1186.6569920844322 0.5002482535449769 342.0 12.0 247.0 
554.0000887773363 36828.0 678.0 1186.6965699208438 0.5000081736117402 342.0 12.0 247.0 
556.0000887773363 36891.0 678.0 1186.6912928759891 0.5007790490942176 341.0 12.0 247.0 
558.0000887773363 36902.0 678.0 1189.7704485488123 0.5012431442132296 342.0 12.0 248.0 
560.0000887773363 36856.0 678.0 1186.7387862796838 0.5022654382606502 340.0 12.0 247.0 
562.0000887773363 36803.0 678.0 1186.6860158311351 0.5001290246829457 339.0 12.0 247.0 
564.0000887773363 36825.0 678.0 1189.6306068601589 0.5004715206843021 340.0 12.0 248.0 
566.0000887773363 36835.0 678.0 1189.5883905013197 0.500827897804447 340.0 12.0 248.0 
568.0000887773363 36824.0 678.0 1189.569920844328 0.5069573056367268 340.0 12.0 248.0 
570.0000887773363 36878.0 678.0 1189.5620052770441 0.5080706597016134 341.0 12.0 248.0 
572.0000887773363 36908.0 677.0 1186.5989445910282 0.5000502484783617 342.0 12.0 247.0 
574.0000887773363 36919.0 677.0 1189.6279683377313 0.5013442482043181 342.0 12.0 248.0 
576.0000887773363 36899.0 677.0 1189.5989445910282 0.5029210427753813 342.0 12.0 248.0 
578.0000887773363 36840.0 676.0 1189.633245382585 0.5000915277921713 342.0 12.0 248.0 
580.0000887773363 36846.0 676.0 1189.7255936675467 0.5003721242821538 342.0 12.0 248.0 
582.0000887773363 36855.0 676.0 1186.7097625329811 0.500173099046843 340.0 12.0 247.0 
584.0000887773363 36861.0 676.0 1198.934036939313 0.5007288775752478 348.0 9.0 254.0 
586.0000887773363 36854.0 676.0 1195.802110817943 0.5050522867028456 352.0 8.0 254.0 
588.0000887773363 36717.0 675.0 1192.7097625329814 0.5001111013524023 354.0 6.0 255.0 
590.0000887773363 36722.0 675.0 1195.712401055408 0.5001980743391371 353.0 6.0 256.0 
592.0000887773363 36716.0 675.0 1195.6253298153038 0.5004486047238283 353.0 6.0 256.0 
594.0000887773363 36722.0 675.0 1192.5356200527708 0.500740712467684 352.0 6.0 255.0 
596.0000887773363 36690.0 675.0 1192.5092348284961 0.5002435750434598 348.0 7.0 254.0 
598.0000887773363 36683.0 675.0 1192.5356200527708 0.5023475081557633 349.0 6.0 255.0 
600.0000887773363 36636.0 674.0 1198.577836411609 0.49993718069495785 357.0 6.0 257.0 
602.0000887773363 36641.0 674.0 1198.614775725593 0.5002554479816133 357.0 6.0 257.0 
604.0000887773363 36754.0 675.0 1198.65963060686 0.5037998443339289 360.0 6.0 257.0 
606.0000887773363 36683.0 674.0 1198.7414248021112 0.500078731931124 360.0 6.0 257.0 
608.0001056451963 36677.0 674.0 1195.7836411609494 0.49981761884828896 360.0 6.0 256.0 
610.0001225130565 36785.0 676.0 1198.7889182058043 0.5001688912309362 360.0 6.0 257.0 
612.0001225130565 36867.0 676.0 1198.7229551451192 0.4998336459740553 360.0 6.0 257.0 
614.0001225130565 36929.0 677.0 1207.84432717678 0.5008359470144151 361.0 6.0 260.0 
616.0001225130565 36937.0 678.0 1204.7308707124002 0.5000289193069345 359.0 6.0 259.0 
618.0001225130565 36933.0 678.0 1201.6939313984162 0.5001931803394848 358.0 6.0 258.0 
620.0001225130565 36932.0 678.0 1204.6939313984162 0.5003867307641214 356.0 6.0 259.0 
622.0001225130565 36951.0 678.0 1204.6912928759891 0.4997181216543162 354.0 6.0 259.0 
624.0001225130565 36978.0 679.0 1210.6569920844322 0.5036897921183738 354.0 6.0 261.0 
626.0001225130565 36878.0 678.0 1207.646437994724 0.49975218678145233 353.0 6.0 260.0 
628.0001225130565 36877.0 678.0 1210.7282321899731 0.4997994460563351 354.0 6.0 261.0 
630.0001225130565 36878.0 678.0 1216.868073878628 0.500053876076068 357.0 6.0 263.0 
632.0001393809166 36901.0 678.0 1213.8839050131921 0.5049749480688286 357.0 6.0 262.0 
634.0001393809166 36906.0 679.0 1219.9709762532989 0.503143833575594 358.0 6.0 264.0 
636.0001393809166 36860.0 678.0 1219.9947229551447 0.5013727124489827 365.0 4.0 266.0 
638.0001393809166 36838.0 678.0 1220.010554089709 0.5000354374021638 367.0 2.0 268.0 
640.0001393809166 36837.0 678.0 1220.058047493404 0.5002297504307986 364.0 3.0 267.0 
642.0001562487768 36849.0 679.0 1220.1372031662272 0.5037727086381657 364.0 2.0 268.0 
644.0001562487768 36838.0 680.0 1220.060686015832 0.5057121894544201 365.0 3.0 267.0 
646.0001562487768 36794.0 678.0 1223.0211081794203 0.5003374290928578 367.0 1.0 270.0 
648.0001562487768 36782.0 678.0 1222.9841688654358 0.5003711128002744 364.0 3.0 268.0 
650.0001562487768 36766.0 678.0 1223.0554089709758 0.5034362021902697 365.0 2.0 269.0 
652.0001562487768 36697.0 677.0 1219.9815303430082 0.5001396932376765 363.0 4.0 266.0 
654.0001562487768 36702.0 678.0 1219.963060686016 0.5001158279301182 362.0 3.0 267.0 
656.0001562487768 36691.0 678.0 1219.963060686016 0.5002636963406597 362.0 3.0 267.0 
658.0001562487768 36678.0 678.0 1219.968337730871 0.5002142654132236 356.0 8.0 262.0 
660.0001562487768 36670.0 678.0 1220.031662269129 0.501213921840798 359.0 7.0 263.0 
662.0001562487768 36637.0 678.0 1216.9841688654358 0.5002913340392521 360.0 6.0 263.0 
664.0001562487768 36635.0 678.0 1226.0923482849598 0.5009890120369802 356.0 6.0 266.0 
#####################################################################
# End of data export. Simulation finished at: 2019-03-06T12:09+0000 #
#####################################################################
