#####################################################################
# Alchemist log file - simulation started at: 2019-03-08T18:28+0000 #
#####################################################################
# seed = 3.0, bandwidth = 4216.965034285822, accessPointCount = 19.39227447486858, baserange = 562.341325190349
#
# The columns have the following meaning: 
# time neighbor_count[Sum] <value>@neighbor_count[Sum] packet_size[Mean] mean_delay[Mean] crowd[Sum] overcrowded[Sum] risk[Sum] 
0.0 NaN NaN NaN NaN NaN NaN NaN 
2.0000956073805782 1.0 1.0 4987.699208443271 0.5384711378125808 1497.0 0.0 1497.0 
4.00059236981081 6.0 3.0 4987.699208443271 0.7907081727754875 1497.0 0.0 1497.0 
6.000084666035003 23.0 8.0 4987.699208443271 1.06696416440803 1497.0 0.0 1497.0 
8.00059236981081 75.0 20.0 4987.759894459103 1.6341091949467408 1497.0 0.0 1497.0 
10.00033353340315 132.0 34.0 4987.767810026386 1.9830290575972433 1497.0 0.0 1497.0 
12.00059236981081 275.0 53.0 4987.786279683377 2.088059561884394 1497.0 0.0 1497.0 
14.00059236981081 294.0 53.0 4987.778364116095 2.508327932053648 1497.0 0.0 1497.0 
16.000084666035004 326.0 53.0 4987.778364116095 3.529983098129559 1497.0 0.0 1497.0 
18.00059236981081 580.0 75.0 4987.857519788919 3.7656594882286716 1497.0 0.0 1497.0 
20.00033353340315 970.0 110.0 4988.129287598945 3.445313897253375 1497.0 0.0 1497.0 
22.00059236981081 970.0 110.0 4988.139841688654 4.365773015450492 1497.0 0.0 1497.0 
24.00059236981081 1001.0 110.0 4988.139841688654 4.385079250724121 1497.0 0.0 1497.0 
26.000084666035004 1512.0 139.0 4988.327176781003 4.443370425720986 1497.0 0.0 1497.0 
28.00059236981081 1614.0 151.0 4988.4221635883905 5.869470273715861 1497.0 0.0 1497.0 
30.00033353340315 1614.0 151.0 4988.4221635883905 7.611606323459863 1497.0 0.0 1497.0 
32.00059236981081 1614.0 151.0 4988.390501319262 8.244819534021932 1497.0 0.0 1497.0 
34.00059236981081 1614.0 151.0 4988.35092348285 7.6560464786762585 1497.0 0.0 1497.0 
36.00008466603501 1614.0 151.0 4988.316622691293 7.851235165056597 1497.0 0.0 1497.0 
38.00059236981081 1614.0 151.0 4988.2084432717675 5.735619583786686 1497.0 0.0 1497.0 
40.00033353340315 1614.0 151.0 4988.139841688654 7.532412172671045 1497.0 0.0 1497.0 
42.00059236981081 1614.0 151.0 4988.129287598945 8.840296404207972 1497.0 0.0 1497.0 
44.00059236981081 1618.0 151.0 4988.160949868074 10.146462475179554 1497.0 0.0 1497.0 
46.00008466603501 2790.0 188.0 4988.64907651715 8.32445221106606 1497.0 0.0 1497.0 
48.0004101443126 2787.0 188.0 4988.664907651715 9.802364767250065 1497.0 0.0 1497.0 
50.00033353340315 2764.0 187.0 4988.630606860158 7.950419958330227 1497.0 0.0 1497.0 
52.00059236981081 2764.0 187.0 4988.617414248021 6.00351822309719 1497.0 0.0 1497.0 
54.00059236981081 2764.0 187.0 4988.672823218997 6.783796129790861 1497.0 0.0 1497.0 
56.00008466603501 2764.0 187.0 4988.78364116095 5.634983069403403 1497.0 0.0 1497.0 
58.00059236981081 2764.0 187.0 4988.76253298153 7.317105020784163 1497.0 0.0 1497.0 
60.00033353340315 2764.0 187.0 4988.751978891821 9.193083111550985 1497.0 0.0 1497.0 
62.00059236981081 2764.0 187.0 527.6332453825861 10.182376360833329 116.0 0.0 42.0 
64.00059236981082 2764.0 187.0 527.6332453825861 11.335950052994672 111.0 0.0 42.0 
66.00008466603501 2764.0 187.0 527.6332453825861 11.989265362938587 109.0 0.0 42.0 
68.00059236981082 2738.0 186.0 527.6332453825861 12.085338073531156 98.0 0.0 42.0 
70.00033353340315 2738.0 186.0 527.641160949868 11.373924272984118 97.0 0.0 42.0 
72.00041014431261 2738.0 186.0 527.6464379947229 12.105654819694529 93.0 0.0 42.0 
74.00059236981082 2734.0 186.0 527.6912928759893 9.638420809627092 86.0 0.0 42.0 
76.00008466603501 1562.0 149.0 527.6253298153033 2.500969696594153 64.0 0.0 42.0 
78.00059236981082 1562.0 149.0 527.3456464379948 1.628732478048507 60.0 0.0 42.0 
80.00033353340315 1581.0 150.0 527.356200527704 1.82713085365123 55.0 0.0 42.0 
82.00059236981082 1581.0 150.0 527.3456464379948 2.075705146660997 55.0 0.0 42.0 
84.00059236981082 1581.0 150.0 527.34036939314 2.3240326171187338 55.0 0.0 42.0 
86.00008466603501 1587.0 150.0 530.3957783641159 2.011409647823572 55.0 0.0 43.0 
88.00059236981082 1588.0 150.0 530.3667546174139 2.2188497282270436 53.0 0.0 43.0 
90.00033353340315 1588.0 150.0 530.3614775725594 2.4860056470633682 52.0 0.0 43.0 
92.00059236981082 1588.0 150.0 530.3667546174139 2.753161565899693 52.0 0.0 43.0 
94.00059236981082 1588.0 150.0 530.3614775725594 3.0203174847360175 52.0 0.0 43.0 
96.00008466603501 1582.0 149.0 530.3720316622693 2.717427662541658 52.0 0.0 43.0 
98.00059236981082 1582.0 149.0 530.3825857519788 1.4446201483567749 51.0 1.0 42.0 
100.00033353340315 3103.0 202.0 533.5118733509239 1.2227374181210406 53.0 1.0 43.0 
102.00059236981082 7002.0 270.0 624.5039577836409 1.8566776046452496 83.0 1.0 73.0 
104.00059236981082 7002.0 270.0 624.4195250659642 2.3333449772043195 83.0 1.0 73.0 
106.00008466603501 7004.0 270.0 624.4485488126637 3.0144743577154123 84.0 1.0 73.0 
108.00059236981082 7004.0 270.0 624.4670184696557 3.4844248228874632 90.0 1.0 73.0 
110.00033353340315 7006.0 271.0 624.498680738787 3.4101102400470955 91.0 1.0 73.0 
112.00059236981082 7015.0 272.0 624.5039577836409 4.30431752717051 91.0 1.0 73.0 
114.00059236981082 7016.0 272.0 624.498680738787 5.2087850424380555 91.0 1.0 73.0 
116.00008466603501 7016.0 272.0 624.498680738787 5.490559118745282 91.0 1.0 73.0 
118.00059236981082 7018.0 272.0 624.498680738787 5.572160806171484 91.0 1.0 73.0 
120.00033353340315 7018.0 272.0 624.5118733509242 5.844646159593798 91.0 1.0 73.0 
122.00059236981082 7024.0 272.0 624.519788918205 5.994146289325225 92.0 0.0 74.0 
124.00059236981082 7024.0 272.0 624.4511873350917 6.352005910179907 92.0 0.0 74.0 
126.00008466603501 7023.0 272.0 624.4511873350917 6.306612817649464 92.0 0.0 74.0 
128.00059236981082 7023.0 272.0 624.4511873350917 7.325481221110586 92.0 0.0 74.0 
130.00033353340314 6337.0 251.0 624.480211081795 6.713892380732777 91.0 0.0 74.0 
132.00059236981082 4824.0 224.0 624.253298153035 4.158094900348074 89.0 0.0 74.0 
134.00059236981082 4807.0 223.0 624.1846965699198 3.687180332152754 89.0 0.0 74.0 
136.000084666035 4695.0 220.0 624.2058047493398 2.902426821444054 88.0 0.0 74.0 
138.00059236981082 4555.0 217.0 624.160949868073 3.5931773759476187 83.0 0.0 74.0 
140.00033353340314 4526.0 217.0 624.1503957783639 3.004500643171028 81.0 0.0 74.0 
142.00059236981082 4524.0 217.0 624.1345646438002 2.4692547152528834 81.0 0.0 74.0 
144.00059236981082 4524.0 217.0 624.139841688655 3.2208509301632695 81.0 0.0 74.0 
146.000084666035 4522.0 217.0 624.1794195250649 2.688724823933176 80.0 1.0 73.0 
148.00059236981082 4522.0 217.0 624.1477572559359 2.8436716741668215 80.0 1.0 73.0 
150.00033353340314 4522.0 217.0 624.1477572559359 1.781917921295663 80.0 1.0 73.0 
152.00059236981082 4522.0 217.0 624.1503957783639 2.3812958646184805 80.0 1.0 73.0 
154.00059236981082 4581.0 217.0 624.1530343007922 3.0849956547844926 81.0 1.0 73.0 
156.000084666035 5360.0 240.0 624.485488126649 2.6947665864810344 83.0 1.0 73.0 
158.00059236981082 5398.0 241.0 624.4564643799481 2.3763620640297782 83.0 1.0 73.0 
160.00033353340314 5460.0 242.0 624.461741424803 2.943773211928336 84.0 1.0 73.0 
162.00059236981082 5510.0 244.0 624.4511873350917 3.9126790790927624 84.0 1.0 73.0 
164.00059236981082 5509.0 244.0 624.4511873350917 4.085771103209735 83.0 1.0 73.0 
166.000084666035 5508.0 244.0 624.4511873350917 3.4256566706777973 83.0 1.0 73.0 
168.00059236981082 5506.0 244.0 624.461741424803 3.9742250681844187 83.0 1.0 73.0 
170.00033353340314 5500.0 244.0 624.4564643799481 3.7605076855270796 83.0 1.0 73.0 
172.00059236981082 5497.0 244.0 624.4300791556719 3.889576451222707 83.0 1.0 73.0 
174.00059236981082 5497.0 244.0 624.4300791556719 3.5303425641300086 82.0 1.0 73.0 
176.000084666035 5497.0 244.0 624.4300791556719 4.3016557197737075 82.0 1.0 73.0 
178.00059236981082 5497.0 244.0 624.4300791556719 5.174485186993996 82.0 1.0 73.0 
180.00033353340314 5496.0 244.0 621.403693931399 5.135892787425075 81.0 1.0 72.0 
182.00059236981082 5495.0 244.0 621.403693931399 4.7983822708927475 81.0 1.0 72.0 
184.00059236981082 5435.0 244.0 621.4063324538248 5.202531417976105 81.0 1.0 72.0 
186.000084666035 4651.0 221.0 621.350923482849 4.1195855460346325 78.0 1.0 72.0 
188.00059236981082 4613.0 220.0 621.0923482849597 4.187563414266316 78.0 1.0 72.0 
190.00033353340314 4999.0 234.0 575.7150395778359 2.5912136495351503 76.0 1.0 57.0 
192.00059236981082 5802.0 240.0 618.3456464379951 2.8569493174027603 93.0 1.0 71.0 
194.00059236981082 5802.0 240.0 615.3720316622689 2.7918996795432807 93.0 1.0 70.0 
196.000084666035 5798.0 240.0 615.3166226912919 2.532262653588681 93.0 1.0 70.0 
198.00059236981082 5961.0 243.0 618.374670184696 2.645499326288005 98.0 1.0 71.0 
200.00033353340314 5964.0 243.0 618.3957783641159 2.4692647980682194 98.0 1.0 71.0 
202.00059236981082 5964.0 243.0 618.379947229552 3.340284279317764 98.0 1.0 71.0 
204.00059236981082 5964.0 243.0 618.379947229552 3.697575597298657 98.0 1.0 71.0 
206.000084666035 5964.0 243.0 618.379947229552 3.229182937874258 98.0 1.0 71.0 
208.00059236981082 5964.0 243.0 618.379947229552 4.136595470254541 98.0 1.0 71.0 
210.00033353340314 6518.0 257.0 618.501319261213 4.308676529514052 101.0 1.0 71.0 
212.00059236981082 6844.0 267.0 618.651715039577 4.770717060520808 101.0 1.0 71.0 
214.00059236981082 6844.0 267.0 618.651715039577 4.752293030829133 101.0 1.0 71.0 
216.000084666035 6960.0 271.0 618.6543535620049 5.028103085461083 102.0 1.0 71.0 
218.00059236981082 6960.0 271.0 618.6596306068599 5.199778925034028 98.0 5.0 67.0 
220.00033353340314 6519.0 256.0 618.6437994722963 4.649122892444363 97.0 5.0 67.0 
222.00059236981082 5704.0 248.0 618.393139841688 3.1696818981268695 91.0 5.0 67.0 
224.00059236981082 5705.0 248.0 618.3720316622689 4.091989493378404 91.0 5.0 67.0 
226.000084666035 5710.0 248.0 618.3720316622689 4.691352658687745 91.0 5.0 67.0 
228.00059236981082 5529.0 244.0 618.3693931398409 4.555866026886382 84.0 5.0 67.0 
230.00033353340314 5491.0 244.0 618.3218997361482 3.802039460331939 79.0 5.0 67.0 
232.00059236981082 5496.0 245.0 618.3218997361482 4.381934434956924 79.0 5.0 67.0 
234.00059236981082 5496.0 245.0 618.3218997361482 5.284637024274005 79.0 5.0 67.0 
236.000084666035 5496.0 245.0 618.3218997361482 5.255856274902222 79.0 5.0 67.0 
238.00059236981082 5494.0 245.0 618.3218997361482 4.883124490225813 79.0 5.0 67.0 
240.00033353340314 4942.0 231.0 618.3350923482839 4.498077269628271 78.0 5.0 67.0 
242.00059236981082 4616.0 221.0 618.218997361477 3.4327987174334993 74.0 7.0 65.0 
244.00059236981082 4616.0 221.0 618.1160949868081 3.4980878691452086 74.0 7.0 65.0 
246.000084666035 4504.0 218.0 618.1029023746711 1.8300683252718004 73.0 7.0 65.0 
248.00059236981082 4504.0 218.0 618.0554089709758 2.5021495618232397 73.0 7.0 65.0 
250.00033353340314 4504.0 218.0 618.0554089709758 2.72789416691694 73.0 7.0 65.0 
252.00059236981082 4504.0 218.0 618.0554089709758 2.923789997383099 72.0 7.0 65.0 
254.00059236981082 4504.0 218.0 618.0554089709758 2.4028581433991762 72.0 7.0 65.0 
256.00008466603504 4506.0 218.0 618.0554089709758 2.7817760923240797 72.0 7.0 65.0 
258.0005923698108 4507.0 218.0 618.0554089709758 3.6606220468294204 72.0 7.0 65.0 
260.00033353340314 4496.0 218.0 618.0554089709758 3.0476228595882406 72.0 7.0 65.0 
262.0005923698108 4496.0 218.0 618.0554089709758 2.6780751434376704 71.0 7.0 65.0 
264.0005923698108 4555.0 218.0 618.0686015831128 2.99523971857509 72.0 7.0 65.0 
266.00008466603504 5350.0 242.0 618.4142480211078 2.523687307681972 70.0 11.0 61.0 
268.0005923698108 5374.0 242.0 618.3562005277037 2.75118990667319 70.0 11.0 61.0 
270.00033353340314 5422.0 244.0 618.36147757256 2.061424683926396 70.0 11.0 61.0 
272.0005923698108 5502.0 246.0 618.377308707124 3.0152048592993106 71.0 11.0 61.0 
274.0005923698108 5496.0 245.0 618.3720316622689 3.7904334842691547 71.0 11.0 61.0 
276.00008466603504 5494.0 245.0 618.3720316622689 3.6658033062160174 71.0 11.0 61.0 
278.0005923698108 5494.0 245.0 618.3720316622689 3.318373486191079 71.0 11.0 61.0 
280.00033353340314 6116.0 264.0 597.3166226912921 3.475995635574344 75.0 11.0 54.0 
282.0005923698108 6751.0 268.0 612.5699208443281 4.2978917155705325 85.0 11.0 59.0 
284.0005923698108 6748.0 268.0 612.5699208443281 4.68186828183387 85.0 11.0 59.0 
286.00008466603504 6749.0 268.0 612.5699208443281 4.385910961659641 86.0 11.0 59.0 
288.0005923698108 6910.0 271.0 615.612137203167 5.181621986845881 90.0 11.0 60.0 
290.00033353340314 6956.0 271.0 618.641160949868 4.96429942602523 92.0 9.0 63.0 
292.0005923698108 6957.0 271.0 618.622691292876 5.454318411042534 93.0 8.0 64.0 
294.0005923698108 6897.0 271.0 618.620052770448 5.437796387627449 93.0 8.0 64.0 
296.00008466603504 6101.0 247.0 618.5725593667552 3.9127146761550557 90.0 8.0 64.0 
298.0005923698108 6077.0 247.0 618.3562005277037 4.779989661359008 90.0 8.0 64.0 
300.00033353340314 6040.0 246.0 618.3641160949871 4.3896372616970325 90.0 8.0 64.0 
302.0005923698108 5965.0 244.0 618.3218997361482 3.941014775908923 89.0 8.0 64.0 
304.0005923698108 5965.0 244.0 618.3060686015841 4.74163833485064 89.0 8.0 64.0 
306.00008466603504 5965.0 244.0 618.3060686015841 5.051568331299484 89.0 8.0 64.0 
308.0005923698108 5965.0 244.0 618.3060686015841 5.554454311088601 89.0 8.0 64.0 
310.00033353340314 5377.0 226.0 618.3007915567279 3.989569437505035 88.0 8.0 64.0 
312.0005923698108 4777.0 222.0 618.1345646438002 3.401906432330727 86.0 6.0 66.0 
314.0005923698108 4777.0 222.0 618.1029023746711 3.3779051866132592 91.0 1.0 71.0 
316.00008466603504 4761.0 220.0 618.108179419525 2.8605951166228123 90.0 1.0 71.0 
318.0005923698108 4585.0 217.0 618.105540897097 2.1468779950225443 81.0 1.0 71.0 
320.00033353340314 5095.0 231.0 618.1846965699199 2.2061105927700897 84.0 1.0 71.0 
322.0005923698108 5421.0 241.0 618.3350923482839 3.078230983611933 84.0 1.0 71.0 
324.0005923698108 5373.0 240.0 618.343007915568 3.1025102498120702 82.0 1.0 71.0 
326.00008466603504 5475.0 243.0 618.3245382585761 2.414531219842413 83.0 1.0 71.0 
328.0005923698108 5475.0 243.0 618.3298153034312 3.0657279103757262 83.0 1.0 71.0 
330.00033353340314 5475.0 243.0 618.3298153034312 3.729300252153314 83.0 1.0 71.0 
332.0005923698108 5475.0 243.0 618.3298153034312 3.927466185280403 83.0 1.0 71.0 
334.0005923698108 5475.0 243.0 618.3298153034312 3.49097343609697 83.0 1.0 71.0 
336.00008466603504 5475.0 243.0 618.3456464379951 4.100135852472897 83.0 1.0 71.0 
338.0005923698108 5475.0 243.0 618.36147757256 4.209368400760115 83.0 1.0 71.0 
340.00033353340314 5475.0 243.0 618.3139841688647 4.108573383774953 83.0 1.0 71.0 
342.0005923698108 5475.0 243.0 618.3139841688647 3.7478582936868 83.0 1.0 71.0 
344.0005923698108 5475.0 243.0 618.3139841688647 4.329372206395888 83.0 1.0 71.0 
346.00008466603504 5475.0 243.0 618.3139841688647 5.068722207268756 83.0 1.0 71.0 
348.0005923698108 5474.0 243.0 618.3139841688647 5.280486505398921 82.0 1.0 71.0 
350.00033353340314 4919.0 229.0 618.3218997361482 3.6637349554033785 81.0 1.0 71.0 
352.0005923698108 4593.0 219.0 618.1741424802123 3.467101066059166 79.0 1.0 71.0 
354.0005923698108 4593.0 219.0 618.0897097625317 4.249049979133918 79.0 1.0 71.0 
356.00008466603504 4481.0 216.0 618.0976253298161 3.135189150203282 78.0 1.0 71.0 
358.0005923698108 4481.0 216.0 618.0343007915559 2.790080567732963 77.0 1.0 71.0 
360.00033353340314 4481.0 216.0 618.0395778364121 2.5624761649643824 77.0 1.0 71.0 
362.0005923698108 4481.0 216.0 618.0395778364121 2.6919505354742466 76.0 2.0 70.0 
364.0005923698108 4481.0 216.0 618.0501319261208 2.725807280418057 76.0 2.0 70.0 
366.00008466603504 4482.0 216.0 618.0501319261208 1.7535623483978133 76.0 2.0 70.0 
368.0005923698108 4510.0 217.0 618.0527704485479 2.7071301254429274 77.0 2.0 70.0 
370.00033353340314 5266.0 236.0 603.203166226912 2.4921372616780566 83.0 2.0 65.0 
372.0005923698108 5671.0 238.0 615.2612137203159 2.7920939480726883 87.0 2.0 69.0 
374.0005923698108 5731.0 238.0 615.263852242744 2.6704602600542198 88.0 2.0 69.0 
376.00008466603504 6591.0 263.0 615.5989445910278 2.7083484979457695 95.0 2.0 69.0 
378.0005923698108 6754.0 265.0 615.5672823219002 3.4938566773509208 97.0 2.0 69.0 
380.00033353340314 6815.0 266.0 618.5936675461752 3.6256003730201325 97.0 2.0 70.0 
382.0005923698108 6890.0 268.0 618.620052770448 3.7306522814839838 98.0 2.0 70.0 
384.0005923698108 6947.0 269.0 621.6622691292881 4.507513884622023 96.0 4.0 69.0 
386.00008466603504 6952.0 269.0 621.6833773087081 4.297129043774228 97.0 3.0 70.0 
388.0005923698108 6966.0 270.0 621.620052770448 4.799211865289449 97.0 3.0 70.0 
390.00033353340314 6949.0 269.0 621.622691292876 4.420132552580575 97.0 3.0 70.0 
392.0005923698108 6949.0 269.0 621.633245382585 5.264134924639979 97.0 3.0 70.0 
394.0005923698108 6949.0 269.0 621.633245382585 6.182383128547452 97.0 3.0 70.0 
396.00008466603504 6948.0 269.0 621.633245382585 6.4188816878548565 97.0 3.0 70.0 
398.0005923698108 6925.0 268.0 621.633245382585 6.53058536935254 97.0 3.0 70.0 
400.00033353340314 6348.0 253.0 621.633245382585 6.387718405991255 97.0 3.0 70.0 
402.0005923698108 5953.0 251.0 621.6015831134558 6.5811420190388406 95.0 3.0 70.0 
404.0005923698108 5892.0 251.0 621.5936675461752 6.792735869485985 94.0 3.0 70.0 
406.00008466603504 4945.0 222.0 621.5461741424799 3.795507613311995 86.0 3.0 70.0 
408.0005923698108 4686.0 219.0 621.263852242744 3.964560700783022 81.0 2.0 71.0 
410.00033353340314 4649.0 218.0 621.1715039577842 3.2513603660925807 81.0 2.0 71.0 
412.0005923698108 4574.0 216.0 621.139841688655 2.9492549816703906 80.0 2.0 71.0 
414.0005923698108 4517.0 215.0 621.1187335092352 2.3780877373950773 80.0 2.0 71.0 
416.00008466603504 4459.0 214.0 621.108179419525 2.5142307981417007 78.0 2.0 71.0 
418.0005923698108 4459.0 214.0 621.087071240105 3.5375555595047397 78.0 2.0 71.0 
420.00033353340314 4457.0 214.0 621.087071240105 2.7020600381444297 78.0 2.0 71.0 
422.0005923698108 4457.0 214.0 621.0923482849597 2.464638967932213 78.0 2.0 71.0 
424.0005923698108 4457.0 214.0 621.0923482849597 3.2972521972375657 78.0 2.0 71.0 
426.00008466603504 4455.0 214.0 621.0923482849597 3.5440460414023827 78.0 2.0 71.0 
428.0005923698108 4455.0 213.0 621.0923482849597 3.5369188675373247 78.0 2.0 71.0 
430.00033353340314 5011.0 227.0 621.2137203166232 2.5957436778954377 81.0 2.0 71.0 
432.0005923698108 5337.0 237.0 618.348284960423 3.359290809030826 78.0 4.0 68.0 
434.0005923698108 5309.0 236.0 618.3641160949871 3.4173039706350012 79.0 3.0 69.0 
436.00008466603504 5362.0 239.0 618.3192612137199 2.597807979167007 79.0 3.0 69.0 
438.0005923698108 5351.0 238.0 618.3192612137199 2.2836453147122646 79.0 3.0 69.0 
440.00033353340314 5351.0 238.0 618.3192612137199 2.937388014649702 79.0 3.0 69.0 
442.0005923698108 5351.0 238.0 618.3192612137199 3.9058467658988616 79.0 3.0 69.0 
444.0005923698108 5358.0 238.0 618.3192612137199 3.8083722758928413 79.0 3.0 69.0 
446.00008466603504 5369.0 238.0 621.3720316622689 3.3217392615976244 79.0 3.0 70.0 
448.0005923698108 5373.0 239.0 624.385224274407 4.308466164754396 80.0 3.0 71.0 
450.00033353340314 5373.0 239.0 624.379947229552 4.869202388169293 80.0 3.0 71.0 
452.0005923698108 5373.0 239.0 624.385224274407 4.722142750716452 80.0 3.0 71.0 
454.0005923698108 5374.0 239.0 627.4248021108168 4.522673052559295 81.0 3.0 72.0 
456.00008466603504 5375.0 239.0 627.4195250659642 5.159994916560139 82.0 2.0 73.0 
458.0005923698108 5490.0 242.0 627.4511873350917 5.265667569702558 85.0 2.0 73.0 
460.00033353340314 5493.0 241.0 591.3139841688655 3.874050407347014 91.0 2.0 61.0 
462.0005923698108 5474.0 233.0 600.2295514511878 2.6972001166086472 90.0 2.0 64.0 
464.0005923698108 5484.0 234.0 600.1477572559362 3.545339974412433 91.0 2.0 64.0 
466.00008466603504 5542.0 235.0 603.2163588390508 2.730149277594691 95.0 2.0 65.0 
468.0005923698108 5736.0 237.0 621.4142480211078 2.920139167538664 98.0 2.0 71.0 
470.00033353340314 5736.0 237.0 624.4248021108169 2.340276376577515 99.0 2.0 72.0 
472.0005923698108 5736.0 237.0 624.4274406332449 3.293637625682824 99.0 2.0 72.0 
474.0005923698108 5794.0 238.0 630.5092348284959 4.038934733642264 99.0 2.0 74.0 
476.00008466603504 5850.0 239.0 633.538258575197 3.6850261640933275 99.0 2.0 75.0 
478.0005923698108 5850.0 239.0 633.5277044854879 4.016166883449339 99.0 2.0 75.0 
480.00033353340314 5850.0 239.0 633.5435356200519 4.000398070016413 97.0 4.0 73.0 
482.0005923698108 5850.0 239.0 633.5593667546169 3.985272287100585 98.0 3.0 74.0 
484.0005923698108 5910.0 239.0 633.5593667546169 4.058098485475087 99.0 3.0 74.0 
486.00008466603504 6704.0 263.0 633.8733509234829 3.7116978231365994 101.0 3.0 74.0 
488.0005923698108 6613.0 260.0 633.8153034300802 4.570120402868099 101.0 3.0 74.0 
490.00033353340314 6203.0 251.0 633.7704485488118 4.566036833721318 101.0 3.0 74.0 
492.0005923698108 6180.0 253.0 633.7704485488118 4.49528362476057 101.0 3.0 74.0 
494.0005923698108 6170.0 252.0 633.765171503957 4.59693166021706 99.0 3.0 74.0 
496.00008466603504 6008.0 248.0 633.741424802111 4.7230122402969155 95.0 3.0 74.0 
498.0005923698108 5619.0 241.0 633.6517150395771 4.970488951893551 90.0 3.0 74.0 
500.00033353340314 5445.0 241.0 633.5435356200519 4.334859727975175 86.0 3.0 74.0 
502.0005923698108 5445.0 241.0 633.5250659630599 4.143179987242735 85.0 3.0 74.0 
504.0005923698108 5445.0 241.0 633.519788918205 4.966779925618835 86.0 2.0 75.0 
506.00008466603504 5391.0 240.0 633.5092348284959 4.66018443786473 86.0 2.0 75.0 
508.0005923698108 5391.0 240.0 633.519788918205 4.705303684401416 86.0 2.0 75.0 
510.00033353340314 5391.0 240.0 633.519788918205 4.1918790820704155 86.0 2.0 75.0 
512.0005923698109 5342.0 239.0 633.519788918205 4.75488601375983 84.0 2.0 75.0 
514.0005923698109 5296.0 240.0 633.5329815303443 5.629554353959795 84.0 2.0 75.0 
516.000084666035 4500.0 216.0 633.4749340369401 3.4732220133323213 81.0 2.0 75.0 
518.0005923698109 4477.0 216.0 633.253298153035 3.238788667636319 82.0 2.0 75.0 
520.0003335334031 4439.0 215.0 633.255936675461 3.229640208933465 82.0 2.0 75.0 
522.0005923698109 4364.0 213.0 633.2137203166229 3.5377123865355204 81.0 2.0 75.0 
524.0005923698109 4364.0 213.0 630.1767810026389 3.3953578997263554 81.0 2.0 74.0 
526.000084666035 4365.0 213.0 630.1715039577842 2.606151123864574 81.0 2.0 74.0 
528.0005923698109 4386.0 214.0 630.218997361477 3.1103573622268237 80.0 4.0 72.0 
530.0003335334031 4390.0 214.0 630.2031662269118 2.5280151706539713 81.0 3.0 73.0 
532.0005923698109 4398.0 215.0 624.0949868073881 2.5278453979874524 81.0 3.0 71.0 
534.0005923698109 4398.0 215.0 624.1002638522431 2.230115732538807 81.0 3.0 71.0 
536.000084666035 4389.0 214.0 624.0949868073881 2.438766470625428 82.0 3.0 71.0 
538.0005923698109 4392.0 214.0 627.1345646438002 3.2662200407597854 82.0 3.0 72.0 
540.0003335334031 4946.0 228.0 627.2348284960431 2.4096229102543862 85.0 3.0 72.0 
542.0005923698109 5272.0 238.0 627.385224274407 2.227574665155503 85.0 3.0 72.0 
544.0005923698109 5272.0 238.0 627.3905013192609 3.1053064064564286 85.0 3.0 72.0 
546.000084666035 5520.0 244.0 630.501319261213 3.4153350391755026 89.0 3.0 73.0 
548.0005923698109 5771.0 250.0 627.5224274406328 3.3861063829471503 93.0 3.0 72.0 
550.0003335334031 6042.0 254.0 618.4775725593669 3.0843879495585114 94.0 3.0 69.0 
552.0005923698109 6065.0 255.0 618.4828496042213 3.9540304314044294 96.0 2.0 70.0 
554.0005923698109 6108.0 255.0 618.4986807387867 3.998967048584401 99.0 2.0 70.0 
556.000084666035 6405.0 262.0 618.5461741424799 3.760858678125539 101.0 2.0 70.0 
558.0005923698109 6797.0 267.0 621.6015831134558 3.9174207197901825 106.0 2.0 71.0 
560.0003335334031 6797.0 267.0 621.606860158312 4.608501001225308 106.0 2.0 71.0 
562.0005923698109 6798.0 267.0 621.649076517151 5.352522978072468 106.0 2.0 71.0 
564.0005923698109 6873.0 269.0 624.656992084432 5.605418515464947 106.0 2.0 72.0 
566.000084666035 6873.0 269.0 624.649076517151 5.5076547176415325 106.0 2.0 72.0 
568.0005923698109 6873.0 269.0 624.63852242744 6.529976949875013 106.0 2.0 72.0 
570.0003335334031 6393.0 257.0 627.6912928759888 6.196260309567867 105.0 2.0 73.0 
572.0005923698109 6070.0 247.0 627.5567282321912 5.268372431367574 103.0 2.0 73.0 
574.0005923698109 6076.0 247.0 627.461741424803 5.377777850953437 103.0 2.0 73.0 
576.000084666035 5837.0 242.0 627.485488126649 4.725765601706056 100.0 4.0 71.0 
578.0005923698109 5590.0 236.0 627.4406332453832 4.394090013297798 101.0 3.0 72.0 
580.0003335334031 5319.0 232.0 627.377308707124 3.5542457335147373 100.0 3.0 72.0 
582.0005923698109 5296.0 231.0 627.366754617415 3.6486643426777583 98.0 3.0 72.0 
584.0005923698109 5239.0 230.0 627.366754617415 4.295505874167032 95.0 3.0 72.0 
586.000084666035 5001.0 224.0 627.3034300791561 4.001952649647596 91.0 3.0 72.0 
588.0005923698109 4669.0 220.0 627.24802110818 3.3398368985131235 85.0 3.0 72.0 
590.0003335334031 4669.0 220.0 627.211081794196 2.511739165028593 84.0 3.0 72.0 
592.0005923698109 4643.0 218.0 627.24802110818 3.289837994348491 84.0 3.0 72.0 
594.0005923698109 4640.0 217.0 627.2612137203159 3.6810103864576744 83.0 3.0 72.0 
596.000084666035 5431.0 241.0 627.5118733509242 3.0243251838833234 85.0 3.0 72.0 
598.0005923698109 5455.0 241.0 627.4591029023751 2.9262592659222566 85.0 3.0 72.0 
600.0003335334031 5411.0 240.0 627.4696569920837 3.2483341802458248 86.0 2.0 73.0 
602.0005923698109 5453.0 242.0 627.461741424803 3.2790420661077238 85.0 2.0 73.0 
604.0005923698109 5456.0 242.0 627.4696569920837 3.043655774571828 85.0 2.0 73.0 
606.000084666035 5456.0 242.0 627.464379947229 2.5572049060558615 85.0 2.0 73.0 
608.0005923698109 5456.0 242.0 627.464379947229 3.5452623209621854 85.0 2.0 73.0 
610.0003335334031 5456.0 242.0 627.4670184696557 4.012033865690686 85.0 2.0 73.0 
612.0005923698109 5452.0 242.0 627.4775725593672 4.046919229291785 85.0 2.0 73.0 
614.0005923698109 5457.0 242.0 627.4775725593672 3.8380447372344237 85.0 2.0 73.0 
616.000084666035 5474.0 243.0 627.4775725593672 4.583070964645302 85.0 2.0 73.0 
618.0005923698109 5481.0 244.0 627.4775725593672 5.582397619928142 85.0 2.0 73.0 
620.0003335334031 5483.0 244.0 627.5065963060679 5.185839612689704 85.0 2.0 73.0 
622.0005923698109 5489.0 244.0 627.4749340369401 5.03747994989837 85.0 2.0 73.0 
624.0005923698109 5444.0 245.0 627.4934036939321 5.765269033066772 83.0 4.0 71.0 
626.000084666035 4659.0 221.0 627.4775725593672 3.521835488504216 81.0 3.0 72.0 
628.0005923698109 4635.0 221.0 627.1688654353559 3.394764310346651 81.0 3.0 72.0 
630.0003335334031 4599.0 220.0 627.1715039577841 2.446681340080347 81.0 3.0 72.0 
632.0005923698109 4525.0 218.0 630.1715039577842 2.877800693824938 81.0 3.0 73.0 
634.0005923698109 4650.0 220.0 630.1926121372042 3.4733203943744506 85.0 3.0 73.0 
636.000084666035 4851.0 224.0 627.234828496043 2.691509534454866 90.0 3.0 72.0 
638.0005923698109 5193.0 231.0 618.2269129287602 2.8493921649972327 91.0 3.0 69.0 
640.0003335334031 5200.0 231.0 618.2058047493399 2.9979257362041554 92.0 3.0 69.0 
642.0005923698109 5224.0 231.0 615.1794195250652 3.834803011414816 94.0 3.0 68.0 
644.0005923698109 5507.0 237.0 621.2902374670189 3.042898249853273 96.0 3.0 70.0 
646.000084666035 5780.0 241.0 621.3113456464391 3.294405759559422 100.0 3.0 70.0 
648.0005923698109 5782.0 241.0 621.3113456464391 4.088835970311079 99.0 2.0 71.0 
650.0003335334031 6336.0 255.0 621.4274406332449 2.762108276609267 103.0 2.0 71.0 
652.0005923698109 6598.0 265.0 618.5646437994718 3.0913976986071248 102.0 2.0 70.0 
654.0005923698109 6651.0 265.0 618.5699208443281 3.9438390633708287 104.0 2.0 70.0 
656.000084666035 6763.0 268.0 618.5778364116093 4.476206326782876 104.0 2.0 70.0 
658.0005923698109 6817.0 269.0 621.627968337731 4.2270139685383805 103.0 2.0 71.0 
660.0003335334031 6871.0 271.0 624.6622691292881 4.7050806319997935 103.0 2.0 72.0 
662.0005923698109 6859.0 271.0 627.7071240105552 5.37914207014106 103.0 2.0 73.0 
664.0005923698109 6717.0 267.0 627.6912928759888 5.377005710792742 103.0 2.0 73.0 
#####################################################################
# End of data export. Simulation finished at: 2019-03-08T18:36+0000 #
#####################################################################
