#####################################################################
# Alchemist log file - simulation started at: 2019-03-11T08:22+0000 #
#####################################################################
# seed = 4.0, bandwidth = 1333521.4321633242, accessPointCount = 19.39227447486858, baserange = 100.0
#
# The columns have the following meaning: 
# time neighbor_count[Sum] <value>@neighbor_count[Sum] packet_size[Mean] mean_delay[Mean] crowd[Sum] overcrowded[Sum] risk[Sum] 
0.0 NaN NaN NaN NaN NaN NaN NaN 
2.000244265926729 62.0 19.0 4987.823218997361 0.4456778459289152 1497.0 0.0 1497.0 
4.000244265926729 78.0 19.0 4987.915567282322 0.42498550943210195 1497.0 0.0 1497.0 
6.000244265926729 98.0 19.0 4987.817941952507 0.48000588764248 1497.0 0.0 1497.0 
8.00024426592673 137.0 19.0 4987.952506596306 0.47346300762823085 1497.0 0.0 1497.0 
10.00024426592673 154.0 19.0 4987.923482849605 0.4835697985788405 1497.0 0.0 1497.0 
12.00024426592673 154.0 19.0 4987.9472295514515 0.4835675508959304 1496.0 1.0 1496.0 
14.00024426592673 154.0 19.0 4987.905013192612 0.4835775014921589 1496.0 1.0 1496.0 
16.000244265926728 154.0 19.0 4987.920844327176 0.4835840845634578 1496.0 1.0 1496.0 
18.000244265926728 154.0 19.0 4987.883905013193 0.4835906516370139 1496.0 1.0 1496.0 
20.000244265926728 154.0 19.0 4987.90765171504 0.4835892198390036 1496.0 1.0 1496.0 
22.000244265926728 154.0 19.0 4987.873350923483 0.48359818657402925 1496.0 1.0 1496.0 
24.000244265926728 154.0 19.0 4987.90765171504 0.48359166749370286 1496.0 1.0 1496.0 
26.000244265926728 154.0 19.0 4987.873350923483 0.48359818657402925 1496.0 1.0 1496.0 
28.000244265926728 154.0 19.0 4987.90765171504 0.48359166749370286 1496.0 1.0 1496.0 
30.000244265926728 154.0 19.0 4987.873350923483 0.48359818657402925 1496.0 1.0 1496.0 
32.00024426592673 154.0 19.0 4987.90765171504 0.48359166749370286 1496.0 1.0 1496.0 
34.00024426592673 154.0 19.0 4987.873350923483 0.48359818657402887 1496.0 1.0 1496.0 
36.00024426592673 154.0 19.0 4987.90765171504 0.48359166749370214 1496.0 1.0 1496.0 
38.00024426592673 154.0 19.0 4987.873350923483 0.48359818657402887 1496.0 1.0 1496.0 
40.00024426592673 154.0 19.0 4987.90765171504 0.48359166749370214 1496.0 1.0 1496.0 
42.00024426592673 154.0 19.0 4987.873350923483 0.48359818657402887 1496.0 1.0 1496.0 
44.00024426592673 154.0 19.0 4987.90765171504 0.48359166749370214 1496.0 1.0 1496.0 
46.00024426592673 154.0 19.0 4987.873350923483 0.48359818657402887 1496.0 1.0 1496.0 
48.00024426592673 154.0 19.0 4987.90765171504 0.48359166749370214 1496.0 1.0 1496.0 
50.00024426592673 154.0 19.0 4987.873350923483 0.48359818657402887 1496.0 1.0 1496.0 
52.00024426592673 154.0 19.0 4987.90765171504 0.48359166749370214 1496.0 1.0 1496.0 
54.00024426592673 154.0 19.0 4987.873350923483 0.48359818657402887 1496.0 1.0 1496.0 
56.00024426592673 154.0 19.0 4987.90765171504 0.48359166749370214 1496.0 1.0 1496.0 
58.00024426592673 154.0 19.0 4987.873350923483 0.48359818657402887 1496.0 1.0 1496.0 
60.00024426592673 154.0 19.0 4987.90765171504 0.48359166749370214 1496.0 1.0 1496.0 
62.00027060971607 154.0 19.0 430.3799472295512 0.48658361677391143 17.0 1.0 9.0 
64.00027060971607 154.0 19.0 430.3746701846968 0.4867137984086517 7.0 6.0 4.0 
66.00027060971608 154.0 19.0 430.36411609498697 0.48672114137274713 5.0 6.0 4.0 
68.00027060971608 154.0 19.0 430.36411609498697 0.4867228691290057 5.0 6.0 4.0 
70.00027060971608 154.0 19.0 430.36411609498697 0.4867228691290057 5.0 6.0 4.0 
72.00027060971608 154.0 19.0 430.36411609498697 0.4867228691290057 5.0 6.0 4.0 
74.00027060971608 154.0 19.0 430.36411609498697 0.4867228691290057 5.0 6.0 4.0 
76.00027060971608 154.0 19.0 430.36411609498697 0.4867228691290057 5.0 6.0 4.0 
78.00027060971608 154.0 19.0 430.36411609498697 0.4867228691290057 5.0 6.0 4.0 
80.00027060971608 154.0 19.0 430.36411609498697 0.4867228691290057 5.0 6.0 4.0 
82.00027060971608 154.0 19.0 430.36411609498697 0.4867228691290057 5.0 6.0 4.0 
84.00027060971608 154.0 19.0 430.36411609498697 0.4867228691290057 5.0 6.0 4.0 
86.00027060971608 154.0 19.0 430.36411609498697 0.4867228691290057 5.0 6.0 4.0 
88.00027060971608 154.0 19.0 430.36411609498697 0.4867228691290057 5.0 6.0 4.0 
90.00027060971608 154.0 19.0 430.36411609498697 0.4867228691290057 5.0 6.0 4.0 
92.00027060971608 154.0 19.0 430.36411609498697 0.4867228691290057 5.0 6.0 4.0 
94.00027060971608 154.0 19.0 430.36411609498697 0.4867228691290057 5.0 6.0 4.0 
96.00027060971608 154.0 19.0 430.36411609498697 0.4867228691290057 5.0 6.0 4.0 
98.00027060971608 154.0 19.0 430.36411609498697 0.4867228691290057 5.0 6.0 4.0 
100.00027060971608 154.0 19.0 430.36411609498697 0.4867228691290057 5.0 6.0 4.0 
102.00027060971608 154.0 19.0 430.36411609498697 0.4867228691290057 5.0 6.0 4.0 
104.00027060971608 154.0 19.0 430.36411609498697 0.4867228691290057 5.0 6.0 4.0 
106.00027060971608 154.0 19.0 430.36411609498697 0.4867228691290057 5.0 6.0 4.0 
108.00027060971608 154.0 19.0 430.36411609498697 0.4867228691290057 5.0 6.0 4.0 
110.00027060971608 154.0 19.0 430.36411609498697 0.4867228691290057 5.0 6.0 4.0 
112.00027060971608 154.0 19.0 430.36411609498697 0.4867228691290057 5.0 6.0 4.0 
114.00027060971608 154.0 19.0 430.36411609498697 0.4867228691290057 5.0 6.0 4.0 
116.00027060971608 154.0 19.0 430.36411609498697 0.4867228691290057 5.0 6.0 4.0 
118.00027060971608 154.0 19.0 430.36411609498697 0.4867228691290057 5.0 6.0 4.0 
120.00027060971608 154.0 19.0 430.36411609498697 0.4867228691290057 5.0 6.0 4.0 
122.00027060971608 154.0 19.0 430.36411609498697 0.4867228691290057 5.0 6.0 4.0 
124.00027060971608 154.0 19.0 430.36411609498697 0.4867228691290057 5.0 6.0 4.0 
126.00027060971608 154.0 19.0 430.36411609498697 0.4867228691290057 5.0 6.0 4.0 
128.00027060971607 154.0 19.0 430.36411609498697 0.4867228691290057 5.0 6.0 4.0 
130.00027060971607 154.0 19.0 430.36411609498697 0.48672286912901225 5.0 6.0 4.0 
132.00027060971607 154.0 19.0 430.36411609498697 0.48672286912901225 5.0 6.0 4.0 
134.00027060971607 154.0 19.0 430.36411609498697 0.48672286912901225 5.0 6.0 4.0 
136.00027060971607 154.0 19.0 430.36411609498697 0.48672286912901225 5.0 6.0 4.0 
138.00027060971607 154.0 19.0 430.36411609498697 0.48672286912901225 5.0 6.0 4.0 
140.00027060971607 154.0 19.0 430.36411609498697 0.48672286912901225 5.0 6.0 4.0 
142.00027060971607 154.0 19.0 430.36411609498697 0.48672286912901225 5.0 6.0 4.0 
144.00027060971607 154.0 19.0 430.36411609498697 0.48672286912901225 5.0 6.0 4.0 
146.00027060971607 154.0 19.0 430.36411609498697 0.48672286912901225 5.0 6.0 4.0 
148.00027060971607 154.0 19.0 430.36411609498697 0.48672286912901225 5.0 6.0 4.0 
150.00027060971607 154.0 19.0 430.36411609498697 0.48672286912901225 5.0 6.0 4.0 
152.00027060971607 154.0 19.0 430.36411609498697 0.48672286912901225 5.0 6.0 4.0 
154.00027060971607 154.0 19.0 430.36411609498697 0.48672286912901225 5.0 6.0 4.0 
156.00027060971607 154.0 19.0 430.36411609498697 0.48672286912901225 5.0 6.0 4.0 
158.00027060971607 154.0 19.0 430.36411609498697 0.48672286912901225 5.0 6.0 4.0 
160.00027060971607 154.0 19.0 430.36411609498697 0.48672286912901225 5.0 6.0 4.0 
162.00027060971607 154.0 19.0 430.36411609498697 0.48672286912901225 5.0 6.0 4.0 
164.00027060971607 154.0 19.0 430.36411609498697 0.48672286912901225 5.0 6.0 4.0 
166.00027060971607 154.0 19.0 430.36411609498697 0.48672286912901225 5.0 6.0 4.0 
168.00027060971607 154.0 19.0 430.36411609498697 0.48672286912901225 5.0 6.0 4.0 
170.00027060971607 154.0 19.0 430.36411609498697 0.48672286912901225 5.0 6.0 4.0 
172.00027060971607 154.0 19.0 430.36411609498697 0.48672286912901225 5.0 6.0 4.0 
174.00027060971607 154.0 19.0 430.36411609498697 0.48672286912901225 5.0 6.0 4.0 
176.00027060971607 154.0 19.0 430.36411609498697 0.48672286912901225 5.0 6.0 4.0 
178.00027060971607 154.0 19.0 430.36411609498697 0.48672286912901225 5.0 6.0 4.0 
180.00027060971607 154.0 19.0 430.36411609498697 0.48672286912901225 5.0 6.0 4.0 
182.00027060971607 154.0 19.0 430.36411609498697 0.48672286912901225 5.0 6.0 4.0 
184.00027060971607 154.0 19.0 430.36411609498697 0.48672286912901225 5.0 6.0 4.0 
186.00027060971607 154.0 19.0 430.36411609498697 0.48672286912901225 5.0 6.0 4.0 
188.00027060971607 154.0 19.0 430.36411609498697 0.48672286912901225 5.0 6.0 4.0 
190.00027060971607 154.0 19.0 430.36411609498697 0.48672286912901225 5.0 6.0 4.0 
192.00027060971607 154.0 19.0 430.36411609498697 0.48672286912901225 5.0 6.0 4.0 
194.00027060971607 154.0 19.0 430.36411609498697 0.48672286912901225 5.0 6.0 4.0 
196.00027060971607 154.0 19.0 430.36411609498697 0.48672286912901225 5.0 6.0 4.0 
198.00027060971607 154.0 19.0 430.36411609498697 0.48672286912901225 5.0 6.0 4.0 
200.00027060971607 154.0 19.0 430.36411609498697 0.48672286912901225 5.0 6.0 4.0 
202.00027060971607 154.0 19.0 430.36411609498697 0.48672286912901225 5.0 6.0 4.0 
204.00027060971607 176.0 20.0 433.3984168865439 0.4826693986049671 6.0 6.0 5.0 
206.00027060971607 180.0 21.0 433.4274406332452 0.4871944918377164 4.0 8.0 3.0 
208.00027060971607 182.0 22.0 433.411609498681 0.48835462325624956 3.0 9.0 2.0 
210.00027060971607 182.0 22.0 433.41424802110794 0.488359692508641 6.0 6.0 5.0 
212.00027060971607 182.0 22.0 433.3984168865439 0.4883610144000791 6.0 6.0 5.0 
214.00027060971607 182.0 22.0 433.40369393139815 0.48836248107628577 6.0 6.0 5.0 
216.00027060971607 182.0 22.0 433.3984168865439 0.48836363838055236 6.0 6.0 5.0 
218.00027060971607 186.0 22.0 433.3984168865439 0.49452254676654667 6.0 6.0 5.0 
220.00027060971607 186.0 22.0 433.3984168865439 0.49452254676654667 6.0 6.0 5.0 
222.00027060971607 186.0 22.0 433.3984168865439 0.49452254676654667 6.0 6.0 5.0 
224.00027060971607 186.0 22.0 433.40897097625316 0.5455997828703635 5.0 7.0 4.0 
226.00027060971607 169.0 22.0 433.3957783641159 0.5969839036113601 6.0 6.0 5.0 
228.00027060971607 170.0 21.0 433.390501319261 0.4851820203782125 7.0 6.0 5.0 
230.00027060971607 170.0 21.0 433.390501319261 0.4851820203782125 7.0 6.0 5.0 
232.00027060971607 170.0 21.0 433.390501319261 0.4851820203782125 7.0 6.0 5.0 
234.00027060971607 170.0 21.0 433.390501319261 0.4851820203782125 7.0 6.0 5.0 
236.00027060971607 170.0 21.0 433.390501319261 0.4851820203782125 7.0 6.0 5.0 
238.00027060971607 170.0 21.0 433.390501319261 0.5006141191436446 7.0 6.0 5.0 
240.00027060971607 168.0 21.0 433.390501319261 0.48698993173405636 7.0 6.0 5.0 
242.00027060971607 168.0 21.0 433.390501319261 0.48698993173405636 7.0 6.0 5.0 
244.00027060971607 168.0 21.0 433.390501319261 0.48698993173405636 7.0 6.0 5.0 
246.00027060971607 168.0 21.0 433.390501319261 0.48698993173405636 7.0 6.0 5.0 
248.00027060971607 168.0 21.0 433.390501319261 0.48698993173405636 7.0 6.0 5.0 
250.00027060971607 168.0 21.0 433.390501319261 0.48698993173405636 7.0 6.0 5.0 
252.00027060971607 168.0 21.0 433.390501319261 0.48698993173405636 7.0 6.0 5.0 
254.00027060971607 168.0 21.0 433.390501319261 0.48698993173405636 7.0 6.0 5.0 
256.0002706097161 168.0 21.0 433.390501319261 0.48698993173405636 7.0 6.0 5.0 
258.0002706097161 168.0 21.0 433.390501319261 0.4869899317340513 7.0 6.0 5.0 
260.0002706097161 168.0 21.0 433.390501319261 0.4869899317340513 7.0 6.0 5.0 
262.0002706097161 168.0 21.0 433.390501319261 0.4869899317340513 7.0 6.0 5.0 
264.0002706097161 168.0 21.0 433.390501319261 0.4869899317340513 7.0 6.0 5.0 
266.0002706097161 168.0 21.0 433.390501319261 0.4869899317340513 7.0 6.0 5.0 
268.0002706097161 168.0 21.0 433.390501319261 0.4869899317340513 7.0 6.0 5.0 
270.0002706097161 168.0 21.0 433.390501319261 0.4869899317340513 7.0 6.0 5.0 
272.0002706097161 168.0 21.0 433.390501319261 0.4869899317340513 7.0 6.0 5.0 
274.0002706097161 168.0 21.0 433.390501319261 0.4869899317340513 7.0 6.0 5.0 
276.0002706097161 168.0 21.0 433.390501319261 0.4869899317340513 7.0 6.0 5.0 
278.0002706097161 168.0 21.0 433.390501319261 0.4869899317340513 7.0 6.0 5.0 
280.0002706097161 168.0 21.0 433.390501319261 0.4869899317340513 7.0 6.0 5.0 
282.0002706097161 168.0 21.0 433.390501319261 0.4869899317340513 7.0 6.0 5.0 
284.0002706097161 168.0 21.0 430.36411609498697 0.4869899317340513 6.0 6.0 4.0 
286.0002706097161 168.0 21.0 430.36411609498697 0.4869899317340513 6.0 6.0 4.0 
288.0002706097161 168.0 21.0 430.36411609498697 0.4869899317340513 6.0 6.0 4.0 
290.0002706097161 168.0 21.0 430.36411609498697 0.4869899317340513 6.0 6.0 4.0 
292.0002706097161 168.0 21.0 430.36411609498697 0.4869899317340513 6.0 6.0 4.0 
294.0002706097161 168.0 21.0 430.36411609498697 0.4869899317340513 6.0 6.0 4.0 
296.0002706097161 168.0 21.0 430.36411609498697 0.4869899317340513 6.0 6.0 4.0 
298.0002706097161 168.0 21.0 430.36411609498697 0.4869899317340513 6.0 6.0 4.0 
300.0002706097161 168.0 21.0 430.36411609498697 0.4869899317340513 6.0 6.0 4.0 
302.0002706097161 168.0 21.0 430.36411609498697 0.4869899317340513 6.0 6.0 4.0 
304.0002706097161 168.0 21.0 430.36411609498697 0.4869899317340513 6.0 6.0 4.0 
306.0002706097161 168.0 21.0 430.36411609498697 0.4869899317340513 6.0 6.0 4.0 
308.0002706097161 168.0 21.0 430.36411609498697 0.4869899317340513 6.0 6.0 4.0 
310.0002706097161 168.0 21.0 430.36411609498697 0.4869899317340513 6.0 6.0 4.0 
312.0002706097161 168.0 21.0 430.36411609498697 0.4869899317340513 6.0 6.0 4.0 
314.0002706097161 168.0 21.0 430.36411609498697 0.4869899317340513 6.0 6.0 4.0 
316.0002706097161 168.0 21.0 430.36411609498697 0.4869899317340513 6.0 6.0 4.0 
318.0002706097161 168.0 21.0 430.36411609498697 0.4869899317340513 6.0 6.0 4.0 
320.0002706097161 168.0 21.0 430.36411609498697 0.4869899317340513 6.0 6.0 4.0 
322.0002706097161 168.0 21.0 430.36411609498697 0.4869899317340513 6.0 6.0 4.0 
324.0002706097161 168.0 21.0 430.36411609498697 0.4869899317340513 6.0 6.0 4.0 
326.0002706097161 168.0 21.0 430.36411609498697 0.4869899317340513 6.0 6.0 4.0 
328.0002706097161 168.0 21.0 430.36411609498697 0.4869899317340513 6.0 6.0 4.0 
330.0002706097161 168.0 21.0 430.36411609498697 0.4869899317340513 6.0 6.0 4.0 
332.0002706097161 168.0 21.0 430.36411609498697 0.4869899317340513 6.0 6.0 4.0 
334.0002706097161 170.0 21.0 430.36411609498697 0.48299618779311304 6.0 6.0 4.0 
336.0002706097161 172.0 22.0 430.36411609498697 0.48741172593159116 6.0 6.0 4.0 
338.0002706097161 172.0 22.0 430.36411609498697 0.48741172593159116 6.0 6.0 4.0 
340.0002706097161 172.0 22.0 430.36411609498697 0.48741172593159116 6.0 6.0 4.0 
342.0002706097161 177.0 23.0 433.40633245382594 0.4825141944382767 7.0 6.0 5.0 
344.0002706097161 178.0 23.0 433.39050131926103 0.4874278288305122 9.0 6.0 5.0 
346.0002706097161 178.0 23.0 433.39050131926103 0.4874278288305122 8.0 6.0 5.0 
348.0002706097161 178.0 23.0 433.39050131926103 0.4874278288305122 8.0 6.0 5.0 
350.0002706097161 178.0 23.0 433.39050131926103 0.4874243810410438 8.0 6.0 5.0 
352.0002706097161 186.0 24.0 433.39050131926103 0.49598556199941624 10.0 6.0 5.0 
354.0002706097161 185.0 24.0 433.39050131926103 0.5341295130221153 10.0 6.0 5.0 
356.0002706097161 181.0 24.0 433.39050131926103 0.5401934647518135 10.0 6.0 5.0 
358.0002706097161 178.0 24.0 433.395778364116 0.5433098253921912 6.0 6.0 5.0 
360.0002706097161 172.0 24.0 433.39050131926103 0.4717732748075932 7.0 6.0 5.0 
362.0002706097161 176.0 25.0 433.39050131926103 0.5992110380774825 7.0 6.0 5.0 
364.0002706097161 169.0 23.0 433.39050131926103 0.6941021283076664 7.0 6.0 5.0 
366.0002706097161 162.0 22.0 433.39050131926103 0.5967002715609607 6.0 6.0 5.0 
368.0002706097161 160.0 21.0 433.395778364116 0.5610253240447891 6.0 6.0 5.0 
370.0002706097161 158.0 20.0 433.39050131926103 0.5064171808094164 6.0 6.0 5.0 
372.0002706097161 157.0 20.0 433.39050131926103 0.6479788748553258 6.0 6.0 5.0 
374.0002706097161 154.0 19.0 433.39050131926103 0.48672286912900364 6.0 6.0 5.0 
376.0002706097161 154.0 19.0 433.39050131926103 0.48672286912900364 6.0 6.0 5.0 
378.0002706097161 154.0 19.0 433.395778364116 0.4867211893659749 6.0 6.0 5.0 
380.0002706097161 156.0 20.0 433.39050131926103 0.472554316984148 6.0 6.0 5.0 
382.0002706097161 158.0 20.0 433.39050131926103 0.48718738067270223 6.0 6.0 5.0 
384.0002706097161 158.0 20.0 433.39050131926103 0.48718738067270223 6.0 6.0 5.0 
386.0002706097161 164.0 21.0 433.39050131926103 0.48759526486621513 6.0 6.0 5.0 
388.0002706097161 164.0 21.0 433.395778364116 0.48759370953007736 6.0 6.0 5.0 
390.0002706097161 172.0 22.0 445.53034300791546 0.48647878969771774 10.0 6.0 9.0 
392.0002706097161 178.0 22.0 448.59366754617406 0.5114759570039444 13.0 6.0 10.0 
394.0002706097161 194.0 24.0 454.664907651715 0.4872208037931513 16.0 6.0 12.0 
396.0002706097161 208.0 25.0 457.73087071240093 0.4863964500104684 17.0 6.0 13.0 
398.0002706097161 208.0 25.0 457.71767810026404 0.4859328564253521 17.0 6.0 13.0 
400.0002706097161 208.0 25.0 457.69129287598923 0.5135860126296163 17.0 6.0 13.0 
402.0002706097161 205.0 25.0 457.71240105540903 0.5630106767156892 16.0 6.0 13.0 
404.0002706097161 200.0 24.0 454.65699208443266 0.48523382033716106 15.0 6.0 12.0 
406.0002706097161 202.0 24.0 454.6543535620054 0.5132377612731085 15.0 6.0 12.0 
408.0002706097161 198.0 24.0 454.66226912928767 0.48383457275299424 15.0 6.0 12.0 
410.0002706097161 198.0 24.0 454.6332453825861 0.5282793904781121 15.0 6.0 12.0 
412.0002706097161 191.0 24.0 454.66754617414233 0.5122495024416709 15.0 6.0 12.0 
414.0002706097161 196.0 24.0 454.66226912928767 0.5119124033075387 15.0 6.0 12.0 
416.0002706097161 194.0 24.0 454.635883905013 0.672476214369365 15.0 6.0 12.0 
418.0002706097161 170.0 22.0 454.65699208443266 0.4933119032042065 15.0 6.0 12.0 
420.0002706097161 170.0 22.0 454.5963060686016 0.570398539323352 15.0 6.0 12.0 
422.0002706097161 162.0 21.0 454.63060686015837 0.4937906726889185 15.0 6.0 12.0 
424.0002706097161 162.0 21.0 454.60686015831135 0.5308281541077078 15.0 6.0 12.0 
426.0002706097161 164.0 22.0 454.6332453825861 0.48946714978739037 16.0 6.0 12.0 
428.0002706097161 164.0 22.0 454.61741424802096 0.4894114433604138 16.0 6.0 12.0 
430.0002706097161 164.0 22.0 454.6332453825861 0.532524982189576 16.0 6.0 12.0 
432.0002706097161 160.0 21.0 454.62005277044864 0.619466072791 16.0 6.0 12.0 
434.0002706097161 157.0 21.0 454.58839050131894 0.6611306679461493 16.0 6.0 12.0 
436.0002706097161 152.0 19.0 454.58047493403706 0.4886910788177602 16.0 6.0 12.0 
438.0002706097161 152.0 19.0 454.57519788918194 0.4886910788177602 16.0 6.0 12.0 
440.0002706097161 152.0 19.0 454.57519788918194 0.4886910788177602 16.0 6.0 12.0 
442.0002706097161 152.0 19.0 454.57519788918194 0.4886910788177602 16.0 6.0 12.0 
444.0002706097161 152.0 19.0 454.57519788918194 0.4886910788177602 16.0 6.0 12.0 
446.0002706097161 153.0 19.0 454.57519788918194 0.4849251952849636 16.0 6.0 12.0 
448.0002706097161 164.0 21.0 454.57519788918194 0.4876000121703289 18.0 6.0 12.0 
450.0002706097161 168.0 21.0 454.57519788918194 0.4800999541802105 18.0 6.0 12.0 
452.0002706097161 172.0 22.0 454.57519788918194 0.48626658461444006 18.0 6.0 12.0 
454.0002706097161 172.0 22.0 454.57519788918194 0.48626658461444006 18.0 6.0 12.0 
456.0002706097161 172.0 22.0 454.57519788918194 0.5435446691087873 17.0 6.0 12.0 
458.0002706097161 166.0 21.0 457.62005277044875 0.4886053513989631 18.0 6.0 13.0 
460.0002706097161 166.0 21.0 457.641160949868 0.5071210925315205 17.0 6.0 13.0 
462.0002706097161 164.0 21.0 451.57519788918194 0.5230250508193564 16.0 6.0 11.0 
464.0002706097161 162.0 21.0 451.588390501319 0.48178841922972254 14.0 6.0 11.0 
466.0002706097161 162.0 21.0 451.588390501319 0.4817868638935842 13.0 6.0 11.0 
468.0002706097161 162.0 21.0 445.50659630606856 0.4822148775860033 13.0 6.0 9.0 
470.0002706097161 162.0 21.0 445.4960422163589 0.5193172683662822 12.0 6.0 9.0 
472.0002706097161 160.0 21.0 445.4960422163589 0.5315297095564733 12.0 6.0 9.0 
474.0002706097161 158.0 20.0 442.4696569920845 0.4894537987784155 11.0 6.0 8.0 
476.0002706097161 158.0 20.0 439.44327176780996 0.4894537987784155 10.0 6.0 7.0 
478.0002706097161 158.0 20.0 433.395778364116 0.566375260544734 8.0 6.0 5.0 
480.0002706097161 154.0 20.0 433.39050131926103 0.4876660480972721 7.0 6.0 5.0 
482.0002706097161 154.0 20.0 433.39050131926103 0.48766701719132716 7.0 6.0 5.0 
484.0002706097161 154.0 20.0 433.39050131926103 0.48766701719132716 7.0 6.0 5.0 
486.0002706097161 158.0 21.0 433.39050131926103 0.483101721539359 7.0 6.0 5.0 
488.0002706097161 162.0 22.0 433.395778364116 0.6332957821877678 7.0 6.0 5.0 
490.0002706097161 159.0 20.0 436.43271767810006 0.4874610797758201 7.0 6.0 6.0 
492.0002706097161 166.0 21.0 445.5593667546175 0.48809142390083526 10.0 6.0 9.0 
494.0002706097161 166.0 21.0 445.54881266490764 0.4880895352783815 10.0 6.0 9.0 
496.0002706097161 166.0 21.0 445.54881266490764 0.48809042404188785 10.0 6.0 9.0 
498.0002706097161 166.0 21.0 445.532981530343 0.48809242375978196 10.0 6.0 9.0 
500.0002706097161 166.0 21.0 445.5672823218998 0.48808593578617493 10.0 6.0 9.0 
502.0002706097161 166.0 21.0 445.5197889182058 0.4880906462327651 10.0 6.0 9.0 
504.0002706097161 166.0 21.0 445.5646437994723 0.48808942418294204 10.0 6.0 9.0 
506.0002706097161 166.0 21.0 445.54881266490764 0.525123683834019 10.0 6.0 9.0 
508.0002706097161 164.0 21.0 445.5197889182058 0.4912330749168869 10.0 6.0 9.0 
510.0002706097161 164.0 21.0 445.5435356200528 0.49122884588386523 10.0 6.0 9.0 
512.000270609716 164.0 21.0 445.5540897097625 0.5344369523064195 10.0 6.0 9.0 
514.000270609716 162.0 21.0 445.527704485488 0.4928749324093989 10.0 6.0 9.0 
516.000270609716 162.0 21.0 445.53825857519803 0.5609318672342437 10.0 6.0 9.0 
518.000270609716 156.0 20.0 445.5646437994723 0.5014249927264591 10.0 6.0 9.0 
520.000270609716 155.0 20.0 445.5171503957785 0.535212434007272 10.0 6.0 9.0 
522.000270609716 154.0 20.0 445.5065963060685 0.6317898042395267 10.0 6.0 9.0 
524.000270609716 150.0 19.0 445.50131926121367 0.4954783218647531 10.0 6.0 9.0 
526.000270609716 150.0 19.0 442.46965699208454 0.49547856183089883 9.0 6.0 8.0 
528.000270609716 150.0 19.0 442.4749340369393 0.5155516915141948 9.0 6.0 8.0 
530.000270609716 149.0 18.0 442.46965699208454 0.5762984831302058 9.0 6.0 8.0 
532.000270609716 148.0 18.0 442.46965699208454 0.48898664059753166 9.0 6.0 8.0 
534.000270609716 148.0 18.0 442.46965699208454 0.48898664059753166 9.0 6.0 8.0 
536.000270609716 148.0 18.0 442.46965699208454 0.48898664059753166 9.0 6.0 8.0 
538.000270609716 148.0 18.0 442.4749340369393 0.4889848908443782 9.0 6.0 8.0 
540.000270609716 148.0 18.0 442.46965699208454 0.4889855907456396 9.0 6.0 8.0 
542.000270609716 148.0 18.0 442.46965699208454 0.48898664059753166 9.0 6.0 8.0 
544.000270609716 148.0 18.0 442.46965699208454 0.48898664059753166 9.0 6.0 8.0 
546.000270609716 148.0 18.0 442.46965699208454 0.48898664059753166 9.0 6.0 8.0 
548.000270609716 148.0 18.0 442.4749340369393 0.4889848908443782 9.0 6.0 8.0 
550.000270609716 148.0 18.0 442.46965699208454 0.4889855907456396 9.0 6.0 8.0 
552.000270609716 148.0 18.0 442.46965699208454 0.48898664059753166 9.0 6.0 8.0 
554.000270609716 148.0 18.0 442.46965699208454 0.5306533072641983 9.0 6.0 8.0 
556.000270609716 147.0 17.0 442.46965699208454 0.5816896549794736 9.0 6.0 8.0 
558.000270609716 146.0 17.0 442.4749340369393 0.4881671731938634 9.0 6.0 8.0 
560.000270609716 146.0 17.0 436.4168865435356 0.4881679367225122 7.0 6.0 6.0 
562.000270609716 146.0 17.0 436.4168865435356 0.48816908201548537 7.0 6.0 6.0 
564.000270609716 146.0 17.0 433.39050131926103 0.48816908201548537 6.0 6.0 5.0 
566.000270609716 146.0 17.0 433.39050131926103 0.48816908201548537 6.0 6.0 5.0 
568.000270609716 146.0 17.0 433.395778364116 0.4881671731938634 6.0 6.0 5.0 
570.000270609716 146.0 17.0 430.36411609498697 0.4881679367225122 5.0 6.0 4.0 
572.000270609716 148.0 18.0 430.36411609498697 0.4891299953738823 5.0 6.0 4.0 
574.000270609716 148.0 18.0 430.36411609498697 0.4891299953738823 5.0 6.0 4.0 
576.000270609716 148.0 18.0 430.36411609498697 0.4891299953738823 5.0 6.0 4.0 
578.000270609716 148.0 18.0 430.36939313984186 0.4891282456207289 5.0 6.0 4.0 
580.000270609716 148.0 18.0 430.36411609498697 0.48912894552199027 5.0 6.0 4.0 
582.000270609716 148.0 18.0 430.36411609498697 0.4891299953738823 5.0 6.0 4.0 
584.000270609716 148.0 18.0 430.36411609498697 0.4891299953738823 5.0 6.0 4.0 
586.000270609716 148.0 18.0 430.36411609498697 0.4891299953738823 5.0 6.0 4.0 
588.000270609716 148.0 18.0 430.36939313984186 0.4891282456207289 5.0 6.0 4.0 
590.000270609716 148.0 18.0 430.36411609498697 0.48912894552199027 5.0 6.0 4.0 
592.000270609716 152.0 19.0 430.36411609498697 0.4895168023295269 5.0 6.0 4.0 
594.000270609716 152.0 19.0 430.36411609498697 0.4895168023295269 5.0 6.0 4.0 
596.000270609716 152.0 19.0 430.36411609498697 0.4895168023295269 5.0 6.0 4.0 
598.000270609716 152.0 19.0 430.36939313984186 0.48951512256649954 5.0 6.0 4.0 
600.000270609716 152.0 19.0 430.36411609498697 0.4895157944717105 5.0 6.0 4.0 
602.000270609716 152.0 19.0 430.36411609498697 0.5695168023295268 5.0 6.0 4.0 
604.000270609716 150.0 19.0 430.36411609498697 0.4877495021749228 5.0 6.0 4.0 
606.000270609716 150.0 19.0 430.36411609498697 0.4877495021749228 5.0 6.0 4.0 
608.000270609716 150.0 19.0 430.36939313984186 0.48774782241189546 5.0 6.0 4.0 
610.000270609716 150.0 19.0 430.36411609498697 0.4877484943171064 5.0 6.0 4.0 
612.000270609716 150.0 19.0 430.36411609498697 0.5677674996359479 5.0 6.0 4.0 
614.000270609716 148.0 18.0 430.36411609498697 0.4891299953738823 5.0 6.0 4.0 
616.000270609716 148.0 18.0 430.36411609498697 0.4891299953738823 5.0 6.0 4.0 
618.000270609716 150.0 19.0 430.36939313984186 0.4894718626659915 5.0 6.0 4.0 
620.000270609716 150.0 19.0 430.36411609498697 0.48947253457120243 5.0 6.0 4.0 
622.000270609716 150.0 19.0 430.36411609498697 0.48947354242901886 5.0 6.0 4.0 
624.000270609716 150.0 19.0 430.36411609498697 0.48947354242901886 5.0 6.0 4.0 
626.000270609716 150.0 19.0 430.36411609498697 0.48947354242901886 5.0 6.0 4.0 
628.000270609716 150.0 19.0 430.36411609498697 0.48947354242901886 5.0 6.0 4.0 
630.000270609716 150.0 19.0 430.36411609498697 0.48947354242901886 5.0 6.0 4.0 
632.000270609716 150.0 19.0 430.36411609498697 0.6094915398900439 5.0 6.0 4.0 
634.000270609716 150.0 19.0 430.36411609498697 0.48994307590791053 5.0 6.0 4.0 
636.000270609716 150.0 19.0 430.36411609498697 0.48994307590791053 5.0 6.0 4.0 
638.000270609716 150.0 19.0 430.36411609498697 0.48994307590791053 5.0 6.0 4.0 
640.000270609716 150.0 19.0 430.36411609498697 0.48994307590791053 5.0 6.0 4.0 
642.000270609716 150.0 19.0 430.36411609498697 0.48994307590791053 5.0 6.0 4.0 
644.000270609716 150.0 19.0 430.36411609498697 0.48994307590791053 5.0 6.0 4.0 
646.000270609716 150.0 19.0 430.36411609498697 0.48994307590791053 5.0 6.0 4.0 
648.000270609716 150.0 19.0 430.36411609498697 0.48994307590791053 5.0 6.0 4.0 
650.000270609716 150.0 19.0 430.36411609498697 0.48994307590791053 5.0 6.0 4.0 
652.000270609716 150.0 19.0 430.36411609498697 0.48994307590791053 5.0 6.0 4.0 
654.000270609716 150.0 19.0 430.36411609498697 0.48994307590791053 5.0 6.0 4.0 
656.000270609716 150.0 19.0 430.36411609498697 0.48994307590791053 5.0 6.0 4.0 
658.000270609716 150.0 19.0 430.36939313984186 0.6053274605558463 5.0 6.0 4.0 
660.000270609716 148.0 18.0 430.36411609498697 0.489127445733573 5.0 6.0 4.0 
662.000270609716 148.0 18.0 430.36411609498697 0.4891299953738823 5.0 6.0 4.0 
664.000270609716 148.0 18.0 430.36411609498697 0.655796662040549 5.0 6.0 4.0 
#####################################################################
# End of data export. Simulation finished at: 2019-03-11T08:29+0000 #
#####################################################################
