#####################################################################
# Alchemist log file - simulation started at: 2019-03-04T16:37+0000 #
#####################################################################
# seed = 8.0, bandwidth = 1000.0, accessPointCount = 72.92664737217109, baserange = 316.2277660168379
#
# The columns have the following meaning: 
# time neighbor_count[Sum] <value>@neighbor_count[Sum] packet_size[Mean] mean_delay[Mean] crowd[Sum] overcrowded[Sum] risk[Sum] 
0.0 NaN NaN NaN NaN NaN NaN NaN 
2.000927030832833 NaN NaN 4986.898661567878 NaN 1497.0 0.0 1497.0 
4.000927030832833 NaN NaN 4986.898661567878 NaN 1497.0 0.0 1497.0 
6.000198348008885 13.0 5.0 4986.901210962396 0.31481672928945936 1497.0 0.0 1497.0 
8.000927030832834 27.0 11.0 4986.934353091141 1.953451690343972 1497.0 0.0 1497.0 
10.000927030832834 27.0 11.0 4986.929254302103 3.953451690343972 1497.0 0.0 1497.0 
12.000927030832834 62.0 25.0 4986.959847036329 2.121716627383485 1497.0 0.0 1497.0 
14.000927030832834 62.0 25.0 4986.954748247292 4.121716627383485 1497.0 0.0 1497.0 
16.000198348008887 92.0 40.0 4986.954748247292 3.1805746742449528 1497.0 0.0 1497.0 
18.000927030832834 125.0 46.0 4987.026131293817 3.6317571281254035 1497.0 0.0 1497.0 
20.000927030832834 125.0 46.0 4987.015933715743 5.631757128125404 1497.0 0.0 1497.0 
22.000927030832834 157.0 54.0 4987.026131293817 3.636073034211578 1497.0 0.0 1497.0 
24.000927030832834 157.0 54.0 4986.98024219248 5.566445127234834 1497.0 0.0 1497.0 
26.000198348008887 209.0 69.0 4986.982791586998 5.388265181773083 1497.0 0.0 1497.0 
28.000927030832834 265.0 75.0 4987.059273422562 6.082012985457466 1497.0 0.0 1497.0 
30.000927030832834 267.0 75.0 4987.059273422562 7.9148082824912285 1497.0 0.0 1497.0 
32.000927030832834 381.0 93.0 4987.237731038878 4.063128011228378 1497.0 0.0 1497.0 
34.000927030832834 381.0 93.0 4987.230082855322 5.991569569669937 1497.0 0.0 1497.0 
36.00019834800889 428.0 100.0 4987.214786488209 6.7995990753404705 1497.0 0.0 1497.0 
38.000927030832834 468.0 107.0 4987.291268323773 8.152283252889696 1497.0 0.0 1497.0 
40.000927030832834 469.0 107.0 4987.3116634799235 10.05725907742891 1497.0 0.0 1497.0 
42.000927030832834 605.0 123.0 4987.42638623327 8.159470802118133 1497.0 0.0 1497.0 
44.000927030832834 605.0 123.0 4987.444231994901 10.033246083017008 1497.0 0.0 1497.0 
46.00019834800889 658.0 132.0 4987.418738049713 9.13270068007328 1497.0 0.0 1497.0 
48.000927030832834 722.0 141.0 4987.492670490758 8.832517630487844 1497.0 0.0 1497.0 
50.000927030832834 726.0 141.0 4987.515615041428 10.609006144293511 1497.0 0.0 1497.0 
52.000927030832834 877.0 156.0 4987.683875079669 8.595339063027282 1497.0 0.0 1497.0 
54.000927030832834 877.0 156.0 4987.673677501593 10.483438648089521 1497.0 0.0 1497.0 
56.00019834800889 970.0 161.0 4987.696622052263 10.71764217842295 1497.0 0.0 1497.0 
58.000927030832834 1045.0 169.0 4987.727214786488 10.753937796495851 1497.0 0.0 1497.0 
60.000927030832834 1045.0 169.0 4984.790312300828 12.73144452295325 1496.0 0.0 1496.0 
62.000927030832834 1044.0 168.0 470.4244741873802 9.19197968260704 88.0 0.0 24.0 
64.00092703083283 1044.0 168.0 470.3989802421921 10.660926706416562 82.0 0.0 24.0 
66.0001983480089 1075.0 167.0 470.39388145315496 8.93047174789384 79.0 0.0 24.0 
68.00092703083283 1051.0 162.0 470.3989802421921 8.968400792303264 72.0 0.0 24.0 
70.00092703083283 1050.0 162.0 470.3989802421921 10.373735201708351 72.0 0.0 24.0 
72.00092703083283 971.0 154.0 470.3989802421921 9.141394642323975 59.0 0.0 24.0 
74.00092703083283 980.0 154.0 470.3989802421921 10.333496419649071 58.0 0.0 24.0 
76.0001983480089 965.0 150.0 470.4091778202679 9.482058524259996 57.0 0.0 24.0 
78.00092703083283 911.0 144.0 470.3760356915236 9.070552846587658 51.0 0.0 24.0 
80.00092703083283 907.0 144.0 470.36583811344786 10.20561470385097 51.0 0.0 24.0 
82.00092703083283 808.0 133.0 470.36073932441076 8.392916059334045 42.0 0.0 24.0 
84.00092703083283 809.0 133.0 470.27915869980853 9.536510951738629 42.0 0.0 24.0 
86.0001983480089 839.0 133.0 470.28425748884706 7.63070862972735 34.0 0.0 24.0 
88.00092703083283 871.0 135.0 470.2358189929898 5.861535282556837 29.0 0.0 24.0 
90.00092703083283 874.0 135.0 470.23072020395125 4.508551811130518 29.0 0.0 24.0 
92.00092703083283 1525.0 155.0 496.6449968132562 2.077073810836517 36.0 0.0 33.0 
94.00092703083283 1524.0 155.0 496.5659655831741 2.73085673195495 37.0 0.0 33.0 
96.0001983480089 1569.0 157.0 496.60930528999376 3.6048804830657106 37.0 0.0 33.0 
98.00092703083283 1600.0 164.0 496.58891013384346 3.854396811852086 37.0 0.0 33.0 
100.00092703083283 1604.0 164.0 496.58891013384346 4.906065948172973 37.0 0.0 33.0 
102.00092703083283 1676.0 174.0 496.58891013384346 5.084303669619776 37.0 0.0 33.0 
104.00092703083283 1674.0 174.0 496.58891013384346 6.118872979249196 37.0 0.0 33.0 
106.0001983480089 1981.0 198.0 523.04397705545 4.401310845684787 46.0 0.0 42.0 
108.00092703083283 2215.0 209.0 549.2237093690248 5.4385178611454235 55.0 0.0 51.0 
110.00092703083283 2246.0 210.0 549.2237093690248 5.627978846596426 56.0 0.0 51.0 
112.00092703083283 2442.0 219.0 560.9279796048444 6.223532480198798 63.0 0.0 55.0 
114.00092703083283 2449.0 220.0 561.0248565965576 6.519679821644212 65.0 0.0 55.0 
116.0001983480089 2680.0 234.0 581.6392606755887 4.773480911290116 76.0 0.0 62.0 
118.00092703083283 2765.0 236.0 584.5353728489475 5.405272501865404 79.0 0.0 63.0 
120.00092703083283 2764.0 236.0 584.5149776927973 6.1157034313605445 79.0 0.0 63.0 
122.00092703083283 3227.0 250.0 602.3505417463343 4.090492220239391 83.0 0.0 69.0 
124.00092703083283 3217.0 250.0 602.3123008285525 5.000109685638501 82.0 0.0 69.0 
126.0001983480089 3205.0 248.0 602.2893562778836 5.24855201433878 82.0 0.0 69.0 
128.00092703083283 3205.0 248.0 602.2638623326969 6.19458879485589 82.0 0.0 69.0 
130.00092703083283 3198.0 247.0 602.2638623326969 7.0139428379114435 82.0 0.0 69.0 
132.00092703083283 3214.0 248.0 602.2638623326969 7.7164785278998735 82.0 0.0 69.0 
134.00092703083283 3233.0 249.0 602.2638623326969 7.680202738520422 82.0 0.0 69.0 
136.0001983480089 3184.0 246.0 602.2638623326969 6.338466034836675 82.0 0.0 69.0 
138.00092703083283 3114.0 242.0 602.2638623326969 6.815156285342367 82.0 0.0 69.0 
140.00092703083283 3122.0 242.0 590.567240280433 6.125106599086614 77.0 0.0 65.0 
142.00092703083283 3466.0 260.0 616.9917144678147 6.140052404755246 93.0 0.0 74.0 
144.00092703083283 3436.0 258.0 616.8820905035061 7.035508564922081 93.0 0.0 74.0 
146.0001983480089 3390.0 260.0 619.8827278521353 7.001183095069778 95.0 0.0 75.0 
148.00092703083283 3562.0 265.0 643.3065646908857 7.384155722708807 104.0 0.0 83.0 
150.00092703083283 3524.0 263.0 643.2555768005092 7.1605470702756255 104.0 0.0 83.0 
152.00092703083283 3198.0 258.0 655.0286806883358 4.847088239874493 104.0 0.0 87.0 
154.00092703083283 3191.0 259.0 654.7890376035687 5.2250200483039055 104.0 0.0 87.0 
156.0001983480089 3142.0 258.0 654.7202039515608 5.946077101328125 102.0 0.0 87.0 
158.00092703083283 3142.0 258.0 654.7100063734875 6.268478185941014 102.0 0.0 87.0 
160.00092703083283 3043.0 255.0 654.7813894200124 6.792289930691129 101.0 0.0 87.0 
162.00092703083283 3045.0 255.0 654.6998087954104 7.150334329610134 101.0 0.0 87.0 
164.00092703083283 3046.0 255.0 654.6947100063751 5.190939257527895 100.0 0.0 87.0 
166.0001983480089 3044.0 255.0 654.6947100063751 4.828319367812563 100.0 0.0 87.0 
168.00092703083283 3049.0 255.0 654.6947100063751 5.021844812123433 100.0 0.0 87.0 
170.00092703083283 3080.0 255.0 654.6947100063751 5.0537460632957005 100.0 0.0 87.0 
172.00092703083283 4260.0 302.0 730.8706182281699 5.351733269579173 126.0 0.0 113.0 
174.00092703083283 4260.0 302.0 730.7227533460792 6.530435763014138 126.0 0.0 113.0 
176.0001983480089 4449.0 306.0 751.3702995538541 6.733118555213788 133.0 0.0 120.0 
178.00092703083283 4346.0 311.0 759.9898024219235 6.695697684266509 132.0 0.0 123.0 
180.00092703083283 4330.0 308.0 748.1988527724682 7.824187586789609 126.0 0.0 119.0 
182.00092703083283 4160.0 298.0 739.4773741236472 6.387520271296484 129.0 0.0 116.0 
184.00092703083283 4155.0 300.0 739.4493307839374 6.82987929495568 133.0 0.0 116.0 
186.0001983480089 4188.0 304.0 739.7501593371582 5.802770628565565 141.0 0.0 116.0 
188.00092703083283 4243.0 311.0 739.8444869343539 4.5064628643005 142.0 0.0 116.0 
190.00092703083283 4252.0 311.0 751.4850223072034 4.910149523333231 143.0 0.0 120.0 
192.00092703083283 4252.0 311.0 751.4289356277889 5.278893592496834 140.0 0.0 120.0 
194.00092703083283 4286.0 314.0 751.4263862332685 6.226137777941811 140.0 0.0 120.0 
196.0001983480089 4282.0 314.0 751.4799235181628 5.797622284428834 141.0 0.0 120.0 
198.00092703083283 4276.0 313.0 751.4544295729776 6.4636862807405615 141.0 0.0 120.0 
200.00092703083283 4323.0 313.0 748.525175270874 7.190410816118966 140.0 0.0 119.0 
202.00092703083283 4936.0 336.0 807.0847673677508 7.162554473266881 160.0 0.0 139.0 
204.00092703083283 4937.0 336.0 804.0841300191186 7.043955598487318 159.0 0.0 138.0 
206.0001983480089 6425.0 382.0 880.4690885914589 5.543691767841177 185.0 0.0 164.0 
208.00092703083283 7374.0 404.0 921.1319311663465 6.318192288807478 199.0 0.0 178.0 
210.00092703083283 7412.0 405.0 894.8170809432748 7.1313548337643615 190.0 0.0 169.0 
212.00092703083283 7586.0 410.0 871.5003186743161 6.167176419047798 181.0 0.0 161.0 
214.00092703083283 7544.0 410.0 865.5321861057998 6.733601762381806 178.0 0.0 159.0 
216.0001983480089 7256.0 396.0 865.4174633524545 6.200923878960922 179.0 0.0 159.0 
218.00092703083283 7142.0 387.0 856.675589547483 6.57652875118577 173.0 0.0 156.0 
220.00092703083283 7128.0 386.0 850.7304015296355 6.776894526188079 170.0 0.0 154.0 
222.00092703083283 7152.0 386.0 862.5595920968768 7.323867205358167 178.0 0.0 158.0 
224.00092703083283 7106.0 383.0 862.799235181645 7.505330425301191 184.0 0.0 158.0 
226.0001983480089 7083.0 381.0 865.7004461440425 7.260495948802081 184.0 0.0 159.0 
228.00092703083283 7050.0 379.0 865.6571064372224 7.3772098360456315 184.0 0.0 159.0 
230.00092703083283 7040.0 378.0 865.6571064372225 7.896913824640874 182.0 0.0 159.0 
232.00092703083283 6566.0 364.0 865.6851497769267 6.736127597627611 184.0 0.0 159.0 
234.00092703083283 6567.0 364.0 865.6647546207787 7.239709275200317 184.0 0.0 159.0 
236.0001983480089 6054.0 345.0 836.4206500956036 6.517555838107992 177.0 0.0 149.0 
238.00092703083283 5624.0 342.0 842.2995538559576 6.384833558010179 179.0 0.0 151.0 
240.00092703083283 5661.0 345.0 845.2262587635447 7.34985480654403 176.0 0.0 152.0 
242.00092703083283 5605.0 343.0 810.1185468451242 6.4089603225057905 163.0 0.0 140.0 
244.00092703083283 5593.0 340.0 810.082855321862 7.1050950046204635 163.0 0.0 140.0 
246.0001983480089 5938.0 341.0 833.5857233906955 5.842328177154829 167.0 0.0 148.0 
248.00092703083283 6047.0 354.0 842.0879541108998 5.635744986653848 169.0 0.0 151.0 
250.00092703083283 6068.0 354.0 844.9815168897375 6.699670763224219 170.0 0.0 152.0 
252.00092703083283 6984.0 373.0 927.0949649458239 6.06034867642109 207.0 0.0 180.0 
254.00092703083283 6722.0 366.0 935.5258126195024 5.968010421674374 204.0 0.0 183.0 
256.0001983480089 7888.0 391.0 1032.3849585723403 5.332078966736711 240.0 0.0 216.0 
258.0009270308328 8466.0 417.0 1052.7316762268965 6.26699209059941 246.0 0.0 223.0 
260.0009270308328 8498.0 419.0 1035.199490121097 5.398677186910195 243.0 0.0 217.0 
262.0009270308328 8667.0 427.0 1005.9961759082219 4.794882614677528 237.0 0.0 207.0 
264.0009270308328 8673.0 427.0 1005.9859783301475 5.789169875184534 237.0 0.0 207.0 
266.0001983480089 8706.0 427.0 997.2262587635443 6.532034254262442 234.0 0.0 204.0 
268.0009270308328 8743.0 431.0 997.3282345442967 6.998401950409974 235.0 0.0 204.0 
270.0009270308328 8704.0 428.0 997.3256851497763 6.796039414692029 235.0 0.0 204.0 
272.0009270308328 8720.0 427.0 988.6500956022951 7.431451011162106 235.0 0.0 201.0 
274.0009270308328 8740.0 431.0 971.1357552581268 7.996205279853319 228.0 0.0 195.0 
276.0001983480089 8616.0 430.0 959.4238368387506 6.963472365188594 225.0 0.0 191.0 
278.0009270308328 8639.0 428.0 965.2670490758433 6.5485516410119144 228.0 0.0 193.0 
280.0009270308328 8641.0 428.0 953.5780752071391 7.49253425045329 225.0 0.0 189.0 
282.0009270308328 8206.0 424.0 985.7743785850873 7.028096650675872 234.0 0.0 200.0 
284.0009270308328 8164.0 423.0 982.778840025494 7.112434763001666 234.0 0.0 199.0 
286.0001983480089 7269.0 404.0 997.4659018483096 6.968270490645476 237.0 0.0 204.0 
288.0009270308328 6963.0 389.0 1003.1994901210976 7.2550469714774435 245.0 0.0 206.0 
290.0009270308328 6836.0 389.0 1009.0528999362647 7.579480702383859 246.0 0.0 208.0 
292.0009270308328 7183.0 399.0 1035.5003186743156 7.218810656116395 255.0 0.0 217.0 
294.0009270308328 7236.0 400.0 1041.1701720841297 8.112202199246893 258.0 0.0 219.0 
296.0001983480089 7233.0 401.0 965.2364563416184 7.496126658886118 233.0 0.0 193.0 
298.0009270308328 7149.0 394.0 953.5500318674317 7.09696142358273 228.0 0.0 189.0 
300.0009270308328 6770.0 389.0 950.6666666666671 7.201787070492869 227.0 0.0 188.0 
302.0009270308328 6737.0 386.0 953.4964945825376 7.449429057956781 218.0 0.0 189.0 
304.0009270308328 6676.0 381.0 947.6328871892936 7.747947446937548 217.0 0.0 187.0 
306.0001983480089 6363.0 375.0 926.9725940089213 6.739475866429031 203.0 0.0 180.0 
308.0009270308328 6440.0 379.0 929.7998725302733 6.460261693172113 203.0 0.0 181.0 
310.0009270308328 6441.0 379.0 921.0274059910786 6.891705796181447 199.0 0.0 178.0 
312.0009270308328 6234.0 372.0 900.5736137667299 6.611793522848931 197.0 0.0 171.0 
314.0009270308328 6241.0 372.0 897.6341618865504 5.944533653013478 195.0 0.0 170.0 
316.0001983480089 6252.0 373.0 897.6443594646278 6.322547884935865 195.0 0.0 170.0 
318.0009270308328 6203.0 371.0 909.5729764181001 6.818728669369663 201.0 0.0 174.0 
320.0009270308328 6159.0 369.0 909.3588272785217 7.753397378518471 202.0 0.0 174.0 
322.0009270308328 5686.0 354.0 909.3868706182292 7.271101005343536 201.0 0.0 174.0 
324.0009270308328 5650.0 354.0 906.3148502230729 7.466099836656808 207.0 0.0 173.0 
326.0001983480089 5606.0 357.0 906.3581899298906 7.149759967745188 207.0 0.0 173.0 
328.0009270308328 5605.0 358.0 909.1676226896121 6.994447538306192 202.0 0.0 174.0 
330.0009270308328 5483.0 354.0 909.2619502868082 7.010455142515006 198.0 0.0 174.0 
332.0009270308328 5310.0 349.0 909.0783938814516 5.22177480701025 199.0 0.0 174.0 
334.0009270308328 5304.0 348.0 909.0681963033776 5.914590563855533 199.0 0.0 174.0 
336.0001983480089 5270.0 346.0 906.1159974506049 5.766034979199897 202.0 0.0 173.0 
338.0009270308328 5287.0 349.0 906.1007010834926 6.1114117869764915 202.0 0.0 173.0 
340.0009270308328 5285.0 348.0 885.6316124920328 6.48324970880123 195.0 0.0 166.0 
342.0009270308328 5708.0 360.0 918.0573613766725 6.6675278564849565 203.0 0.0 177.0 
344.0009270308328 5697.0 362.0 903.1765455704264 6.944099286933829 198.0 0.0 172.0 
346.0001983480089 5681.0 361.0 792.0917782026771 6.391723431645203 160.0 0.0 134.0 
348.0009270308328 5562.0 358.0 780.4894837476098 6.494685350643332 156.0 0.0 130.0 
350.0009270308328 5605.0 361.0 777.4378585086047 6.163874486959688 155.0 0.0 129.0 
352.0009270308328 5631.0 363.0 777.432759719567 5.838139652608303 155.0 0.0 129.0 
354.0009270308328 5595.0 362.0 777.4582536647541 6.362857116365443 148.0 0.0 129.0 
356.0001983480089 5781.0 366.0 795.2963671128119 6.009994759471722 157.0 0.0 135.0 
358.0009270308328 5749.0 365.0 795.2198852772465 5.961682403111299 157.0 0.0 135.0 
360.0009270308328 5720.0 363.0 742.5825366475455 6.158688165242797 138.0 0.0 117.0 
362.0009270308328 5719.0 363.0 751.3906947100073 6.227907872303196 140.0 0.0 120.0 
364.0009270308328 5703.0 362.0 748.4231994901219 6.847859160163384 137.0 0.0 119.0 
366.0001983480089 5681.0 360.0 748.4181007010849 6.681629583160062 135.0 0.0 119.0 
368.0009270308328 5688.0 361.0 748.4231994901219 6.082898348840686 137.0 0.0 119.0 
370.0009270308328 5696.0 362.0 745.4990439770532 6.358055062546886 135.0 0.0 118.0 
372.0009270308328 5392.0 355.0 745.4990439770534 5.968055490320948 140.0 0.0 118.0 
374.0009270308328 5356.0 350.0 745.4990439770534 6.065704797440681 139.0 0.0 118.0 
376.0001983480089 5375.0 351.0 727.9541108986623 6.9279457962879345 131.0 0.0 112.0 
378.0009270308328 5344.0 348.0 713.3690248565956 7.280167821795144 125.0 0.0 107.0 
380.0009270308328 5325.0 347.0 713.3460803059269 6.77553506493628 124.0 0.0 107.0 
382.0009270308328 5325.0 347.0 666.528999362652 6.576311653375217 109.0 0.0 91.0 
384.0009270308328 5316.0 345.0 660.7571701720854 7.455629930333936 108.0 0.0 89.0 
386.0001983480089 4984.0 333.0 651.7042702358202 5.564608859035399 103.0 0.0 86.0 
388.0009270308328 5457.0 346.0 704.2421924792853 5.098989804392213 121.0 0.0 104.0 
390.0009270308328 5429.0 345.0 669.0962396430854 6.00487041147425 109.0 0.0 92.0 
392.0009270308328 5407.0 344.0 669.1115360101976 6.4405004817459695 109.0 0.0 92.0 
394.0009270308328 5424.0 345.0 669.091140854046 6.687424454751333 107.0 0.0 92.0 
396.0001983480089 5460.0 349.0 669.1268323773098 5.513512622947159 105.0 0.0 92.0 
398.0009270308328 5651.0 354.0 701.2925430210341 5.873533611297106 116.0 0.0 103.0 
400.0009270308328 5763.0 358.0 719.033779477375 6.1714483086714 125.0 0.0 109.0 
402.0009270308328 5937.0 365.0 716.2268961121731 6.027649462851755 130.0 0.0 108.0 
404.0009270308328 5943.0 366.0 719.1026131293818 5.244145398237573 128.0 0.0 109.0 
406.0001983480089 5948.0 366.0 704.4690885914588 5.8291036555549605 131.0 0.0 104.0 
408.0009270308328 5949.0 366.0 695.7119184193753 6.717042761710091 129.0 0.0 101.0 
410.0009270308328 6114.0 367.0 710.388782664117 5.989041410601622 135.0 0.0 106.0 
412.0009270308328 6285.0 372.0 710.342893562779 6.266722882327517 144.0 0.0 106.0 
414.0009270308328 6367.0 377.0 719.2198852772467 6.65523367671186 144.0 0.0 109.0 
416.0001983480089 6368.0 377.0 725.1038878266415 6.843526608602175 145.0 0.0 111.0 
418.0009270308328 6173.0 372.0 763.1357552581273 6.879152290984175 161.0 0.0 124.0 
420.0009270308328 6180.0 374.0 763.0924155513073 7.474742439036143 162.0 0.0 124.0 
422.0009270308328 6855.0 393.0 824.7571701720848 6.813143552821908 182.0 0.0 145.0 
424.0009270308328 7054.0 397.0 830.5340981516898 6.417455460123595 188.0 0.0 147.0 
426.0001983480089 7031.0 392.0 830.5213511790962 6.983968220541554 190.0 0.0 147.0 
428.0009270308328 6902.0 389.0 842.398980242192 5.961589219595844 199.0 0.0 151.0 
430.0009270308328 6828.0 390.0 842.312300828552 6.097603932055823 197.0 0.0 151.0 
432.0009270308328 6669.0 384.0 812.9432759719566 6.588373710729771 189.0 0.0 141.0 
434.0009270308328 6688.0 384.0 812.8489483747604 7.32859064734145 190.0 0.0 141.0 
436.0001983480089 6681.0 386.0 812.8209050350547 7.566939700091427 190.0 0.0 141.0 
438.0009270308328 6784.0 392.0 815.8929254302102 7.264384901909663 196.0 0.0 142.0 
440.0009270308328 6814.0 390.0 830.610579987253 7.34140162478994 200.0 0.0 147.0 
442.0009270308328 6675.0 384.0 830.5927342256218 7.627776912529372 199.0 0.0 147.0 
444.0009270308328 6637.0 382.0 789.5678776290631 6.648783835141693 183.0 0.0 133.0 
446.0001983480089 6605.0 381.0 783.6634799235183 7.24231877070115 179.0 0.0 131.0 
448.0009270308328 6429.0 372.0 789.5500318674317 7.398837348734891 173.0 0.0 133.0 
450.0009270308328 6508.0 376.0 798.302103250479 7.545783496891704 175.0 0.0 136.0 
452.0009270308328 5906.0 360.0 795.3702995538566 5.9929000427821215 173.0 0.0 135.0 
454.0009270308328 5807.0 359.0 801.2950924155506 6.521617777382774 184.0 0.0 137.0 
456.0001983480089 5792.0 359.0 798.1516889738673 7.373366648320949 180.0 0.0 136.0 
458.0009270308328 5708.0 354.0 795.293817718291 6.504861461559486 178.0 0.0 135.0 
460.0009270308328 5719.0 355.0 795.2275334608024 6.234053676477568 174.0 0.0 135.0 
462.0009270308328 6040.0 368.0 859.9005736137657 6.5131007984124 192.0 0.0 157.0 
464.0009270308328 6175.0 369.0 877.1982154238375 6.570475258037884 196.0 0.0 163.0 
466.0001983480089 6255.0 374.0 880.2370936902474 5.898833692188281 198.0 0.0 164.0 
468.0009270308328 6165.0 368.0 880.2676864244752 5.958171190480587 197.0 0.0 164.0 
470.0009270308328 5918.0 367.0 880.1657106437231 6.253491716806666 193.0 0.0 164.0 
472.0009270308328 6062.0 371.0 880.168260038241 6.747402535842992 193.0 0.0 164.0 
474.0009270308328 6059.0 371.0 877.21351179095 7.632722525293813 193.0 0.0 163.0 
476.0001983480089 6094.0 372.0 868.4410452517521 5.295480980323123 189.0 0.0 160.0 
478.0009270308328 6093.0 371.0 862.5927342256227 5.573398919738476 184.0 0.0 158.0 
480.0009270308328 6050.0 369.0 862.5927342256227 5.902127245477954 184.0 0.0 158.0 
482.0009270308328 6055.0 369.0 859.6736775015927 6.350601830094191 182.0 0.0 157.0 
484.0009270308328 5996.0 366.0 862.6105799872527 6.428823033082406 179.0 0.0 158.0 
486.0001983480089 5999.0 367.0 833.3384321223707 7.093460403332949 178.0 0.0 148.0 
488.0009270308328 5956.0 365.0 818.6845124282976 7.693333844543296 173.0 0.0 143.0 
490.0009270308328 5964.0 366.0 777.7131931166341 8.02209985593706 158.0 0.0 129.0 
492.0009270308328 6533.0 379.0 839.4544295729764 6.358962776792547 187.0 0.0 150.0 
494.0009270308328 6494.0 382.0 851.0133843212233 5.200027460908483 192.0 0.0 154.0 
496.0001983480089 6492.0 380.0 851.0261312938184 5.713006063720532 196.0 0.0 154.0 
498.0009270308328 6555.0 383.0 856.859145952836 6.113784534253347 199.0 0.0 156.0 
500.0009270308328 6511.0 381.0 842.2052262587633 5.586853700683208 195.0 0.0 151.0 
502.0009270308328 6392.0 378.0 862.7711918419378 6.1364962506402305 205.0 0.0 158.0 
504.0009270308328 6374.0 378.0 859.742511153602 6.8859224265996986 205.0 0.0 157.0 
506.0001983480089 6269.0 375.0 856.7622689611208 7.168252392628973 201.0 0.0 156.0 
508.0009270308328 6278.0 377.0 856.7775653282348 6.38124569361615 202.0 0.0 156.0 
510.0009270308328 6292.0 378.0 859.6889738687058 6.920055138710499 201.0 0.0 157.0 
512.000121357847 6352.0 381.0 798.2409177820265 6.2052505507167455 180.0 0.0 136.0 
514.0009270308328 6651.0 393.0 836.3008285532184 6.050911763237375 193.0 0.0 149.0 
516.0001983480089 6644.0 392.0 833.4098151688977 6.153705698274569 189.0 0.0 148.0 
518.0009270308328 6652.0 391.0 836.2727852135115 6.9553130737339615 187.0 0.0 149.0 
520.0009270308328 6642.0 392.0 836.247291268324 7.381789013230724 187.0 0.0 149.0 
522.0009270308328 6272.0 381.0 836.2421924792856 7.070900390948768 183.0 0.0 149.0 
524.0009270308328 6212.0 377.0 836.1274697259399 6.424147103748697 181.0 0.0 149.0 
526.0001983480089 6345.0 382.0 851.0873167622688 6.776353250471364 188.0 0.0 154.0 
528.0009270308328 6430.0 385.0 833.5551306564691 6.739050625979494 181.0 0.0 148.0 
530.0009270308328 6395.0 384.0 824.7061822817085 6.492497695944081 176.0 0.0 145.0 
532.0009270308328 6258.0 379.0 824.7393244104524 6.50033543523477 171.0 0.0 145.0 
534.0009270308328 6126.0 373.0 824.667941363926 6.735876179396879 168.0 0.0 145.0 
536.0001983480089 6136.0 375.0 824.5838113448056 6.964701113415949 167.0 0.0 145.0 
538.0009270308328 6084.0 370.0 821.6978967495216 7.728017018921836 166.0 0.0 144.0 
540.0009270308328 6020.0 370.0 818.7533460803062 6.9250481218885644 163.0 0.0 143.0 
542.0009270308328 6069.0 367.0 830.4601657106434 6.63190098986565 166.0 0.0 147.0 
544.0009270308328 5773.0 359.0 815.7654557042705 7.0453739675497244 160.0 0.0 142.0 
546.0001983480089 5818.0 357.0 824.6730401529635 6.784662955571936 167.0 0.0 145.0 
548.0009270308328 6609.0 376.0 894.9904397705549 4.942378449123752 192.0 0.0 169.0 
550.0009270308328 6694.0 377.0 891.811344805608 5.4530312784322765 193.0 0.0 168.0 
552.0009270308328 6871.0 383.0 886.1516889738677 6.16035147813277 192.0 0.0 166.0 
554.0009270308328 6963.0 386.0 883.321861057999 6.379584448331431 201.0 0.0 165.0 
556.0001983480089 7087.0 388.0 889.1497769279787 5.479519232795767 204.0 0.0 167.0 
558.0009270308328 6881.0 382.0 891.854684512428 5.85783303101296 202.0 0.0 168.0 
560.0009270308328 6895.0 384.0 871.3269598470365 6.696979126114436 196.0 0.0 161.0 
562.0009270308328 6921.0 386.0 847.9184193753985 7.100852226827803 190.0 0.0 153.0 
564.0009270308328 6943.0 386.0 853.8024219247924 7.420199145854081 191.0 0.0 155.0 
566.0001983480089 7287.0 391.0 871.5742511153605 6.431969922865266 198.0 0.0 161.0 
568.0009270308328 7292.0 392.0 871.5054174633511 6.88844692190851 200.0 0.0 161.0 
570.0009270308328 7287.0 389.0 868.530274059912 5.9398240223687395 197.0 0.0 160.0 
572.0009270308328 7412.0 394.0 868.530274059912 5.541099854138637 202.0 0.0 160.0 
574.0009270308328 7440.0 395.0 871.408540471638 6.407207683557102 203.0 0.0 161.0 
576.0001983480089 7419.0 394.0 871.428935627789 6.919680345946197 204.0 0.0 161.0 
578.0009270308328 7169.0 392.0 909.6188655194376 6.364231019176053 216.0 0.0 174.0 
580.0009270308328 7220.0 392.0 918.2281708094338 6.514922076619902 221.0 0.0 177.0 
582.0009270308328 7212.0 394.0 886.0497131931155 6.7330138178454595 208.0 0.0 166.0 
584.0009270308328 7343.0 398.0 894.8910133843198 5.673202939101355 225.0 0.0 169.0 
586.0001983480089 7325.0 398.0 877.3256851497779 5.992491141377391 221.0 0.0 163.0 
588.0009270308328 7339.0 399.0 886.0318674314835 6.001478855228221 220.0 0.0 166.0 
590.0009270308328 7387.0 400.0 880.1937539834265 6.6173818564712095 225.0 0.0 164.0 
592.0009270308328 7560.0 407.0 862.8629700446136 6.46462290281342 223.0 0.0 158.0 
594.0009270308328 7562.0 408.0 862.9725940089206 7.4633144127416555 225.0 0.0 158.0 
596.0001983480089 7071.0 396.0 862.9649458253645 7.230590094815417 222.0 0.0 158.0 
598.0009270308328 7072.0 395.0 856.9534735500304 7.071521163784071 218.0 0.0 156.0 
600.0009270308328 6845.0 395.0 862.8145315487551 7.045012499756319 218.0 0.0 158.0 
602.0009270308328 6733.0 390.0 848.1937539834262 6.62352738350821 210.0 0.0 153.0 
604.0009270308328 6726.0 392.0 845.172721478647 6.638997196527253 207.0 0.0 152.0 
606.0001983480089 6737.0 394.0 845.1778202676876 6.461840929987115 206.0 0.0 152.0 
608.0009270308328 6459.0 385.0 848.0815806246025 6.953462029638939 203.0 0.0 153.0 
610.0009270308328 6365.0 384.0 856.9024856596554 7.266732897795821 202.0 0.0 156.0 
612.0009270308328 6367.0 383.0 856.8718929254306 6.73462022106938 201.0 0.0 156.0 
614.0009270308328 6288.0 383.0 830.5315487571714 7.352117503256275 195.0 0.0 147.0 
616.0001983480089 6124.0 376.0 815.9337157425093 7.528886039340364 188.0 0.0 142.0 
618.0009270308328 6085.0 374.0 818.7558954748256 6.911931135884424 185.0 0.0 143.0 
620.0009270308328 6005.0 371.0 821.7131931166335 5.363864421866196 179.0 0.0 144.0 
622.0009270308328 5846.0 363.0 827.4901210962383 5.619095445363788 173.0 0.0 146.0 
624.0009270308328 5872.0 362.0 836.081580624602 6.1459465502424955 176.0 0.0 149.0 
626.0001983480089 5851.0 360.0 838.9802421924803 5.840983552001194 177.0 0.0 150.0 
628.0009270308328 5833.0 359.0 836.0662842574892 6.673155196114525 175.0 0.0 149.0 
630.0009270308328 5829.0 359.0 836.0535372848933 7.33229384054538 174.0 0.0 149.0 
632.0009270308328 5793.0 355.0 839.008285532185 7.320674198682331 177.0 0.0 150.0 
634.0009270308328 6261.0 372.0 903.3804971319299 5.680353256537885 202.0 0.0 172.0 
636.0001983480089 6418.0 374.0 915.2479286169525 5.13240120662555 213.0 0.0 176.0 
638.0009270308328 7050.0 392.0 965.2084130019115 5.466681317474705 228.0 0.0 193.0 
640.0009270308328 7054.0 389.0 967.8495857233889 5.99440300674185 228.0 0.0 194.0 
642.0009270308328 7226.0 394.0 965.004461440407 6.177515407233438 229.0 0.0 193.0 
644.0009270308328 7367.0 401.0 967.9413639260675 5.817377219086103 227.0 0.0 194.0 
646.0001983480089 7412.0 402.0 962.1363926067551 6.018311620971193 224.0 0.0 192.0 
648.0009270308328 7528.0 406.0 959.1892925430204 6.172529304331968 225.0 0.0 191.0 
650.0009270308328 7477.0 405.0 956.2651370299541 6.54292674737856 224.0 0.0 190.0 
652.0009270308328 7461.0 405.0 956.29572976418 6.335044639123008 229.0 0.0 190.0 
654.0009270308328 7558.0 409.0 950.5927342256223 6.718613112198621 226.0 0.0 188.0 
656.0001983480089 7760.0 415.0 930.215423836839 7.152723011928541 229.0 0.0 181.0 
658.0009270308328 7760.0 415.0 909.736137667304 7.805730244339098 224.0 0.0 174.0 
660.0009270308328 7755.0 414.0 889.2466539196939 8.13279406735901 217.0 0.0 167.0 
662.0009270308328 7667.0 414.0 898.0548119821542 7.825888906376117 218.0 0.0 170.0 
664.0009270308328 7299.0 401.0 898.0369662205226 7.226959107280564 220.0 0.0 170.0 
#####################################################################
# End of data export. Simulation finished at: 2019-03-04T16:39+0000 #
#####################################################################
