#####################################################################
# Alchemist log file - simulation started at: 2019-03-07T04:57+0000 #
#####################################################################
# seed = 2.0, bandwidth = 74989.42093324558, accessPointCount = 37.60603093086394, baserange = 562.341325190349
#
# The columns have the following meaning: 
# time neighbor_count[Sum] <value>@neighbor_count[Sum] packet_size[Mean] mean_delay[Mean] crowd[Sum] overcrowded[Sum] risk[Sum] 
0.0 NaN NaN NaN NaN NaN NaN NaN 
10.000330987768463 17300.0 531.0 4990.354628422425 1.6866226006981488 1497.0 0.0 1497.0 
20.00033098776846 19274.0 497.0 4990.691003911343 2.082903088309418 1496.0 1.0 1496.0 
30.00033098776846 15011.0 440.0 4990.172099087354 1.7465495759497358 1496.0 1.0 1496.0 
40.000330987768464 19037.0 492.0 4990.743155149935 1.9146731152707577 1496.0 1.0 1496.0 
50.000330987768464 15891.0 470.0 4990.64406779661 2.1166537325819923 1496.0 1.0 1496.0 
60.00025515138581 19056.0 495.0 4990.920469361147 1.7791037298259733 1496.0 1.0 1496.0 
70.00058297905275 19230.0 502.0 1024.203389830508 1.4439971245485002 301.0 1.0 207.0 
80.00058297905275 18502.0 482.0 1027.0638852672764 1.1971324561534575 294.0 1.0 208.0 
90.00058297905275 19820.0 503.0 1027.3194263363778 1.3674458189387575 293.0 1.0 208.0 
100.00058297905275 16635.0 461.0 1027.0378096479776 1.2409391887084629 290.0 1.0 208.0 
110.00058297905275 19427.0 496.0 1027.0925684485023 1.2715955095503058 291.0 1.0 208.0 
120.00058297905275 17573.0 484.0 1027.3350717079509 1.466216437279159 291.0 1.0 208.0 
130.00058297905275 19403.0 497.0 1033.337679269882 1.208163697183613 293.0 1.0 210.0 
140.00058297905275 19287.0 500.0 1030.146023468058 1.5062689772561528 291.0 1.0 209.0 
150.00058297905275 18587.0 481.0 1033.0299869621886 1.148059573742039 290.0 1.0 210.0 
160.00058297905275 19880.0 503.0 1033.3533246414609 1.450227644467849 288.0 1.0 210.0 
170.00058297905275 16741.0 464.0 1048.0 1.1782178644927719 293.0 1.0 215.0 
180.00058297905275 19607.0 501.0 1045.1160365058693 1.3328810444399277 299.0 1.0 214.0 
190.00058297905275 17804.0 490.0 1051.2881355932216 1.3962492659746024 298.0 1.0 216.0 
200.00058297905275 19743.0 506.0 1063.2933507170783 1.2502320744157513 302.0 1.0 220.0 
210.00058297905275 19714.0 510.0 1063.014341590615 1.4346278478723247 306.0 1.0 220.0 
220.00058297905275 19025.0 491.0 1063.019556714473 1.202743782004644 309.0 1.0 220.0 
230.00058297905275 20361.0 512.0 1066.3024771838316 1.3594477097849464 307.0 1.0 221.0 
240.00058297905275 17219.0 473.0 1068.980443285527 1.2394891887162427 304.0 1.0 222.0 
250.00058297905275 20026.0 509.0 1069.1056062581488 1.2775370142866092 309.0 1.0 222.0 
260.00058297905275 18209.0 498.0 1060.2894393741838 1.4603960097955087 305.0 1.0 219.0 
270.00058297905275 20001.0 511.0 1075.2229465449814 1.2057324054045677 307.0 1.0 224.0 
280.00058297905275 19849.0 514.0 1081.0091264667515 1.5047764315956451 308.0 1.0 226.0 
290.00058297905275 19076.0 493.0 1077.87744458931 1.1352428876190475 305.0 1.0 225.0 
300.00058297905275 20378.0 514.0 1081.280312907432 1.4346459459239715 303.0 1.0 226.0 
310.00058297905275 17131.0 474.0 1080.980443285527 1.1603073377635418 298.0 1.0 226.0 
320.00058297905275 19767.0 508.0 1084.0182529335061 1.3129295988556595 299.0 1.0 227.0 
330.00058297905275 17922.0 494.0 1084.2555410691014 1.3863912845781547 298.0 1.0 227.0 
340.00058297905275 19607.0 505.0 1081.217731421122 1.2468789672913425 303.0 1.0 226.0 
350.00058297905275 19485.0 507.0 1081.0039113428948 1.4203634707090618 304.0 1.0 226.0 
360.00058297905275 18621.0 486.0 1077.8722294654503 1.1796962947587801 304.0 1.0 225.0 
370.00058297905275 19862.0 504.0 1060.2007822685778 1.3308440750548958 301.0 1.0 219.0 
380.00058297905275 16639.0 465.0 1047.92438070404 1.204789752973943 295.0 1.0 215.0 
390.00058297905275 19516.0 502.0 1033.027379400262 1.2245671991617628 296.0 1.0 210.0 
400.00058297905275 17634.0 489.0 1036.2216427640185 1.4165745511159666 297.0 1.0 211.0 
410.00058297905275 19256.0 502.0 1036.2529335071692 1.1671789475589087 298.0 1.0 211.0 
420.00058297905275 19108.0 504.0 1036.073011734029 1.4890025761410721 297.0 2.0 210.0 
430.00058297905275 18463.0 481.0 1032.9022164276407 1.108697723747673 294.0 1.0 210.0 
440.00058297905275 19543.0 502.0 1039.1968709256823 1.3990307684115382 296.0 1.0 212.0 
450.00058297905275 16564.0 464.0 1041.8956975228152 1.1406439693481996 293.0 1.0 213.0 
460.00058297905275 19196.0 500.0 1041.9661016949162 1.326060728572183 296.0 1.0 213.0 
470.00058297905275 17229.0 483.0 1042.1903520208616 1.3495729441001403 293.0 1.0 213.0 
480.00058297905275 19016.0 498.0 1030.2138200782288 1.2273557994322006 291.0 1.0 209.0 
490.00058297905275 18991.0 500.0 1027.019556714473 1.408397959027839 288.0 1.0 208.0 
500.00058297905275 18377.0 481.0 1017.9165580182503 1.1843825167749853 283.0 1.0 205.0 
510.00058297905275 19528.0 500.0 1027.259452411996 1.3490978939956055 287.0 1.0 208.0 
520.0005829790528 16553.0 461.0 1018.0156453715786 1.2514373816129964 283.0 1.0 205.0 
530.0005829790528 19176.0 497.0 1009.0612777053453 1.2435760874908435 279.0 1.0 202.0 
540.0005829790528 17368.0 485.0 1006.2607561929585 1.4318189854433907 279.0 1.0 201.0 
550.0005829790528 19056.0 496.0 1012.2842242503267 1.205549812677889 282.0 1.0 203.0 
560.0005829790528 19146.0 502.0 1015.0586701434135 1.5111934680504613 285.0 1.0 204.0 
570.0005829790528 18449.0 483.0 1023.9374185136917 1.143222828599411 284.0 1.0 207.0 
580.0005829790528 19691.0 503.0 1027.2359843546278 1.4341038348193074 290.0 1.0 208.0 
590.0005829790528 16610.0 459.0 1032.9856584093848 1.219385128492985 287.0 1.0 210.0 
600.0005829790528 19345.0 496.0 1030.023468057368 1.342014658538429 293.0 1.0 209.0 
610.0005829790528 17509.0 483.0 1030.2425032594542 1.391685597571628 292.0 1.0 209.0 
620.0005829790528 19079.0 494.0 1033.1994784876133 1.2592174269219747 295.0 1.0 210.0 
630.0005829790528 19410.0 503.0 1057.0404172099095 1.4433495016435491 300.0 1.0 218.0 
640.0005829790528 18801.0 488.0 1059.9295958279022 1.2452217005827062 301.0 1.0 219.0 
650.0005829790528 20008.0 507.0 1063.3168187744466 1.3955350338502073 300.0 1.0 220.0 
660.0005829790528 17066.0 467.0 1069.0013037809638 1.290346003654034 298.0 1.0 222.0 
#####################################################################
# End of data export. Simulation finished at: 2019-03-07T05:13+0000 #
#####################################################################
