#####################################################################
# Alchemist log file - simulation started at: 2019-03-08T19:16+0000 #
#####################################################################
# seed = 3.0, bandwidth = 4216.965034285822, accessPointCount = 141.4213562373095, baserange = 56.234132519034915
#
# The columns have the following meaning: 
# time neighbor_count[Sum] <value>@neighbor_count[Sum] packet_size[Mean] mean_delay[Mean] crowd[Sum] overcrowded[Sum] risk[Sum] 
0.0 NaN NaN NaN NaN NaN NaN NaN 
2.0000956073805782 9.0 6.0 4985.95115995116 0.36218264717115634 1497.0 0.0 1497.0 
4.00059236981081 44.0 23.0 4986.461538461538 1.0015311810282916 1497.0 0.0 1497.0 
6.000084666035003 66.0 27.0 4986.676434676435 1.3614574362857306 1497.0 0.0 1497.0 
8.00059236981081 102.0 35.0 4986.539682539683 1.5254483765328841 1497.0 0.0 1497.0 
10.00033353340315 158.0 42.0 4986.666666666667 1.4107071672993632 1497.0 0.0 1497.0 
12.00059236981081 163.0 43.0 4986.735042735043 2.083373096625071 1497.0 0.0 1497.0 
14.00059236981081 199.0 44.0 4986.661782661783 1.6975913122669386 1497.0 0.0 1497.0 
16.000084666035004 244.0 54.0 4986.788766788767 2.1240385811611393 1497.0 0.0 1497.0 
18.00059236981081 244.0 54.0 4986.808302808303 2.8002063017107095 1497.0 0.0 1497.0 
20.00033353340315 244.0 54.0 4986.6324786324785 2.474068570993972 1497.0 0.0 1497.0 
22.00059236981081 244.0 54.0 4986.644688644688 2.7429629513880136 1497.0 0.0 1497.0 
24.00059236981081 244.0 54.0 4986.815628815629 3.926873935762035 1497.0 0.0 1497.0 
26.000084666035004 244.0 54.0 4986.625152625153 3.662794506592138 1497.0 0.0 1497.0 
28.00059236981081 244.0 54.0 4986.664224664225 3.2099914203757147 1497.0 0.0 1497.0 
30.00033353340315 246.0 54.0 4986.871794871795 2.0246467231362346 1497.0 0.0 1497.0 
32.00059236981081 246.0 54.0 4986.507936507936 2.072895995621479 1497.0 0.0 1497.0 
34.00059236981081 246.0 54.0 4986.661782661783 2.6716675725474777 1497.0 0.0 1497.0 
36.00008466603501 246.0 54.0 4986.744810744811 3.328248221962668 1497.0 0.0 1497.0 
38.00059236981081 246.0 54.0 4986.576312576312 2.7457196689311285 1497.0 0.0 1497.0 
40.00033353340315 246.0 54.0 4986.681318681319 3.486387358317766 1497.0 0.0 1497.0 
42.00059236981081 246.0 54.0 4986.693528693529 4.047999891751751 1497.0 0.0 1497.0 
44.00059236981081 246.0 54.0 4986.581196581196 3.8492192736437083 1497.0 0.0 1497.0 
46.00008466603501 246.0 54.0 4986.688644688645 1.4278832319018382 1497.0 0.0 1497.0 
48.00059236981081 246.0 54.0 4986.732600732601 2.5111510710868794 1497.0 0.0 1497.0 
50.00033353340315 246.0 54.0 4986.549450549451 2.677609220661617 1497.0 0.0 1497.0 
52.00059236981081 246.0 54.0 4986.547008547009 3.1573981038152223 1497.0 0.0 1497.0 
54.00059236981081 246.0 54.0 4986.781440781441 3.881944819079072 1497.0 0.0 1497.0 
56.00008466603501 246.0 54.0 4986.578754578754 3.127578774587224 1497.0 0.0 1497.0 
58.00059236981081 246.0 54.0 4986.622710622711 3.450548420511201 1497.0 0.0 1497.0 
60.00033353340315 246.0 54.0 4986.776556776556 2.447919649925611 1497.0 0.0 1497.0 
62.00036628093481 246.0 54.0 470.214896214896 1.8173053951971316 50.0 0.0 25.0 
64.00036628093481 246.0 54.0 470.2051282051279 1.6610665053685378 38.0 0.0 25.0 
66.00008466603501 246.0 54.0 470.2051282051279 2.1418284392616322 33.0 0.0 25.0 
68.00036628093481 246.0 54.0 470.2051282051279 2.4393535019182733 31.0 0.0 25.0 
70.00033353340315 246.0 54.0 470.21001221001194 3.1132883390110053 28.0 0.0 25.0 
72.00036628093481 246.0 54.0 470.21001221001194 3.2933321986601283 28.0 0.0 25.0 
74.00036628093481 246.0 54.0 470.214896214896 2.526623559620353 28.0 0.0 25.0 
76.00008466603501 246.0 54.0 470.214896214896 1.1836489482163188 28.0 0.0 25.0 
78.00036628093481 246.0 54.0 470.21001221001194 1.784481742558028 28.0 0.0 25.0 
80.00033353340315 246.0 54.0 470.21001221001194 2.038366454337476 28.0 0.0 25.0 
82.00036628093481 246.0 54.0 470.21001221001194 1.708792519500384 28.0 0.0 25.0 
84.00036628093481 246.0 54.0 470.21001221001194 2.3404967801520136 28.0 0.0 25.0 
86.00008466603501 246.0 54.0 470.214896214896 2.2287799881720627 28.0 0.0 25.0 
88.00036628093481 246.0 54.0 470.21001221001194 2.8280594367936174 28.0 0.0 25.0 
90.00033353340315 246.0 54.0 470.214896214896 1.5457599380467495 28.0 0.0 25.0 
92.00036628093481 246.0 54.0 470.21001221001194 1.0188175821570253 28.0 0.0 25.0 
94.00036628093481 246.0 54.0 470.21001221001194 1.667439136041737 28.0 0.0 25.0 
96.00008466603501 246.0 54.0 470.21001221001194 2.1022449004527646 28.0 0.0 25.0 
98.00036628093481 246.0 54.0 470.21001221001194 2.3067875069690555 28.0 0.0 25.0 
100.00033353340315 246.0 54.0 470.214896214896 2.1727022939364735 28.0 0.0 25.0 
102.00036628093481 246.0 54.0 470.214896214896 2.4571321184978774 28.0 0.0 25.0 
104.00036628093481 248.0 54.0 470.21001221001194 2.5018868184508154 28.0 0.0 25.0 
106.00008466603501 252.0 55.0 470.20268620268587 1.4195586515223522 28.0 0.0 25.0 
108.00036628093481 252.0 55.0 470.1929181929177 1.7995524672304533 28.0 0.0 25.0 
110.00033353340315 252.0 55.0 470.1929181929177 1.5391937783003358 28.0 0.0 25.0 
112.00036628093481 252.0 55.0 470.1929181929177 1.9196514159008307 28.0 0.0 25.0 
114.00036628093481 252.0 55.0 470.1929181929177 2.5598493132415845 28.0 0.0 25.0 
116.00008466603501 252.0 55.0 470.1978021978018 2.4495833886899465 28.0 0.0 25.0 
118.00036628093481 252.0 55.0 470.1929181929177 2.3353285958637247 28.0 0.0 25.0 
120.00033353340315 252.0 55.0 470.1953601953598 1.2644505756921833 28.0 0.0 25.0 
122.00036628093481 252.0 55.0 470.1953601953598 1.2552978236822883 28.0 0.0 25.0 
124.00036628093481 252.0 55.0 470.1953601953598 1.895495721023043 28.0 0.0 25.0 
126.00008466603501 252.0 55.0 470.1953601953598 2.1131518743934823 28.0 0.0 25.0 
128.0003662809348 252.0 55.0 470.1953601953598 1.8040918867620657 28.0 0.0 25.0 
130.00033353340314 252.0 55.0 470.20024420024384 2.3774994315981797 28.0 0.0 25.0 
132.0003662809348 261.0 57.0 475.8315018315018 2.5974253391823834 30.0 0.0 27.0 
134.0003662809348 262.0 57.0 478.6031746031747 2.7345540580208287 31.0 0.0 28.0 
136.000084666035 262.0 57.0 478.6080586080587 1.08860461655923 31.0 0.0 28.0 
138.0003662809348 262.0 57.0 478.6398046398046 1.5141113443677738 32.0 0.0 28.0 
140.00033353340314 262.0 57.0 478.63003663003644 1.8303018205582509 32.0 0.0 28.0 
142.0003662809348 262.0 57.0 478.63003663003644 2.270359250661483 32.0 0.0 28.0 
144.0003662809348 262.0 57.0 478.63003663003644 2.773271870574525 32.0 0.0 28.0 
146.000084666035 277.0 58.0 481.44810744810724 2.229678420560501 33.0 0.0 29.0 
148.0003662809348 277.0 58.0 481.4383394383391 2.9430125544360344 33.0 0.0 29.0 
150.00033353340314 279.0 58.0 481.43345543345555 2.032703952768876 34.0 0.0 29.0 
152.0003662809348 285.0 59.0 484.2442002442002 2.1362873129660707 34.0 0.0 30.0 
154.0003662809348 287.0 59.0 487.0476190476192 2.6974463055077686 34.0 0.0 31.0 
156.000084666035 288.0 59.0 487.01343101343116 2.8023681257128663 34.0 0.0 31.0 
158.0003662809348 288.0 59.0 487.01343101343116 3.1334753653566914 34.0 0.0 31.0 
160.00033353340314 288.0 59.0 487.0207570207572 3.8419054853721772 34.0 0.0 31.0 
162.0003662809348 288.0 59.0 487.0305250305253 4.262733979371403 34.0 0.0 31.0 
164.0003662809348 290.0 59.0 487.0305250305253 4.195601730905791 34.0 0.0 31.0 
166.000084666035 292.0 59.0 487.0427350427352 2.7760021699315036 34.0 0.0 31.0 
168.0003662809348 286.0 58.0 487.05006105006123 3.141649805404969 34.0 0.0 31.0 
170.00033353340314 285.0 57.0 487.0231990231992 3.1600510243177826 34.0 0.0 31.0 
172.0003662809348 282.0 57.0 487.0305250305253 2.9195234455013153 34.0 0.0 31.0 
174.0003662809348 283.0 57.0 487.0207570207572 3.2948295992858476 34.0 0.0 31.0 
176.000084666035 271.0 56.0 487.0231990231992 2.307413760737901 34.0 0.0 31.0 
178.0003662809348 271.0 56.0 487.01343101343116 2.92194474810938 34.0 0.0 31.0 
180.00033353340314 271.0 56.0 487.01831501831515 2.0701532159263016 34.0 0.0 31.0 
182.0003662809348 271.0 56.0 487.01343101343116 2.071104169631628 34.0 0.0 31.0 
184.0003662809348 270.0 56.0 487.01343101343116 2.0919075003522782 34.0 0.0 31.0 
186.000084666035 270.0 56.0 487.01343101343116 1.8918566253014026 34.0 0.0 31.0 
188.0003662809348 270.0 56.0 487.01343101343116 2.176085359530137 34.0 0.0 31.0 
190.00033353340314 270.0 56.0 487.0231990231992 2.737328745773523 34.0 0.0 31.0 
192.0003662809348 270.0 56.0 487.01831501831515 3.068021797282047 34.0 0.0 31.0 
194.0003662809348 270.0 56.0 487.01343101343116 2.838427913503636 34.0 0.0 31.0 
196.000084666035 269.0 56.0 487.01343101343116 1.1386306014089944 34.0 0.0 31.0 
198.0003662809348 269.0 56.0 487.01343101343116 1.7348251476035406 34.0 0.0 31.0 
200.00033353340314 269.0 56.0 484.21733821733795 2.0628573006356934 33.0 0.0 30.0 
202.0003662809348 269.0 56.0 484.212454212454 2.4026415904199836 33.0 0.0 30.0 
204.0003662809348 269.0 56.0 484.212454212454 2.787908175686569 33.0 0.0 30.0 
206.000084666035 269.0 56.0 484.212454212454 2.060842648621042 33.0 0.0 30.0 
208.0003662809348 268.0 56.0 484.212454212454 2.7218514896183095 33.0 0.0 30.0 
210.00033353340314 268.0 56.0 484.21733821733795 1.8731233658901858 33.0 0.0 30.0 
212.0003662809348 268.0 56.0 484.212454212454 1.9265625193293392 33.0 0.0 30.0 
214.0003662809348 268.0 56.0 481.4114774114772 2.273347216114036 32.0 0.0 29.0 
216.000084666035 268.0 56.0 481.4114774114772 2.1672930850599053 32.0 0.0 29.0 
218.0003662809348 268.0 56.0 481.4114774114772 2.408766426533246 32.0 0.0 29.0 
220.00033353340314 267.0 56.0 481.4163614163613 3.010390340657344 32.0 0.0 29.0 
222.0003662809348 267.0 56.0 481.4114774114772 3.3800688103358136 32.0 0.0 29.0 
224.0003662809348 270.0 57.0 481.4114774114772 1.9847510724593012 32.0 0.0 29.0 
226.000084666035 266.0 57.0 481.4114774114772 1.7263312249218434 31.0 0.0 29.0 
228.0003662809348 266.0 57.0 475.8021978021982 2.3942495296061472 31.0 0.0 27.0 
230.00033353340314 266.0 57.0 475.8070818070822 2.682434142822974 31.0 0.0 27.0 
232.0003662809348 266.0 57.0 475.8021978021982 3.0823381834076793 28.0 0.0 27.0 
234.0003662809348 265.0 57.0 475.8021978021982 3.0002454102469143 28.0 0.0 27.0 
236.000084666035 258.0 56.0 475.8021978021982 2.1916141416623978 28.0 0.0 27.0 
238.0003662809348 258.0 56.0 475.8021978021982 1.3169415919898482 28.0 0.0 27.0 
240.00033353340314 258.0 56.0 475.8070818070822 2.0371991122473685 28.0 0.0 27.0 
242.0003662809348 258.0 56.0 475.8021978021982 2.0683540684023245 28.0 0.0 27.0 
244.0003662809348 258.0 56.0 478.6178266178268 2.4612306362788927 29.0 0.0 28.0 
246.000084666035 258.0 56.0 478.60317460317464 2.3585333335815895 29.0 0.0 28.0 
248.0003662809348 258.0 56.0 481.42124542124543 2.4852855241959957 30.0 0.0 29.0 
250.00033353340314 258.0 56.0 481.42124542124543 3.2385300843716647 31.0 0.0 29.0 
252.0003662809348 258.0 56.0 481.4114774114774 2.1216887862314255 31.0 0.0 29.0 
254.0003662809348 258.0 56.0 481.4114774114774 2.1642109690254316 31.0 0.0 29.0 
256.00008466603504 258.0 56.0 481.41636141636144 2.02319805855617 31.0 0.0 29.0 
258.00036628093477 258.0 56.0 481.4114774114774 2.7295666899248134 31.0 0.0 29.0 
260.00033353340314 258.0 56.0 481.41636141636144 3.0309478260341263 31.0 0.0 29.0 
262.00036628093477 256.0 55.0 481.4065934065935 3.2291504861738174 31.0 0.0 29.0 
264.00036628093477 254.0 55.0 481.4065934065935 3.080802294548976 31.0 0.0 29.0 
266.00008466603504 257.0 55.0 484.22710622710605 1.0304468712191834 32.0 0.0 30.0 
268.00036628093477 259.0 56.0 489.82417582417577 1.6260007114241204 34.0 0.0 32.0 
270.00033353340314 259.0 56.0 489.82417582417577 2.3576564886307287 34.0 0.0 32.0 
272.00036628093477 258.0 56.0 489.84615384615375 2.2560702583916927 34.0 0.0 32.0 
274.00036628093477 258.0 56.0 489.84371184371173 2.6736408391418345 34.0 0.0 32.0 
276.00008466603504 258.0 57.0 489.873015873016 2.24682321643512 34.0 0.0 32.0 
278.00036628093477 258.0 57.0 489.8217338217337 2.5174025892483014 34.0 0.0 32.0 
280.00033353340314 258.0 57.0 489.8266178266178 1.6753216057881672 34.0 0.0 32.0 
282.00036628093477 258.0 57.0 489.8192918192917 2.1263474516436167 34.0 0.0 32.0 
284.00036628093477 258.0 57.0 489.81440781440824 2.229762507338602 34.0 0.0 32.0 
286.00008466603504 272.0 58.0 489.8266178266177 2.2245814688763024 35.0 0.0 32.0 
288.00036628093477 272.0 58.0 489.8266178266177 2.854719711977508 35.0 0.0 32.0 
290.00033353340314 272.0 58.0 489.82173382173363 3.1203798406006005 35.0 0.0 32.0 
292.00036628093477 272.0 58.0 489.82173382173363 3.520220394195466 35.0 0.0 32.0 
294.00036628093477 277.0 59.0 489.8266178266177 2.6140322314688373 36.0 0.0 32.0 
296.00008466603504 276.0 59.0 489.83150183150167 2.0716242621754417 36.0 0.0 32.0 
298.00036628093477 280.0 59.0 492.6349206349207 2.7987396341186703 36.0 0.0 33.0 
300.00033353340314 282.0 60.0 492.6300366300366 3.4099991643078953 36.0 0.0 33.0 
302.00036628093477 282.0 60.0 492.6300366300366 3.6760041386185196 36.0 0.0 33.0 
304.00036628093477 275.0 59.0 492.65689865689893 3.8704003219400547 36.0 0.0 33.0 
306.00008466603504 265.0 58.0 492.61782661782655 2.2250683344554583 36.0 0.0 33.0 
308.00036628093477 265.0 58.0 492.6275946275946 2.0319981725172407 36.0 0.0 33.0 
310.00033353340314 261.0 58.0 492.61782661782655 2.1382444556959905 36.0 0.0 33.0 
312.00036628093477 261.0 58.0 492.61782661782655 2.738054247722006 36.0 0.0 33.0 
314.00036628093477 261.0 58.0 492.62271062271066 2.758103830365456 36.0 0.0 33.0 
316.00008466603504 261.0 58.0 492.6275946275946 2.600531915549935 36.0 0.0 33.0 
318.00036628093477 261.0 58.0 492.61782661782655 2.4464695145363153 36.0 0.0 33.0 
320.00033353340314 256.0 57.0 492.61782661782655 1.5652500473601787 36.0 0.0 33.0 
322.00036628093477 256.0 57.0 492.61782661782655 2.25052341596688 36.0 0.0 33.0 
324.00036628093477 256.0 57.0 492.62271062271066 2.4829684685650757 36.0 0.0 33.0 
326.00008466603504 255.0 57.0 492.61782661782655 1.9867735309825105 36.0 0.0 33.0 
328.00036628093477 254.0 57.0 492.6275946275946 2.5342511246174024 36.0 0.0 33.0 
330.00033353340314 254.0 57.0 492.6422466422468 2.1110588847584966 36.0 0.0 33.0 
332.00036628093477 254.0 57.0 492.61782661782655 2.0538048962402535 36.0 0.0 33.0 
334.00036628093477 252.0 57.0 492.62271062271066 2.3821809282385304 36.0 0.0 33.0 
336.00008466603504 252.0 57.0 489.82661782661773 2.269564252441663 35.0 0.0 32.0 
338.00036628093477 252.0 57.0 489.82173382173363 2.6313808309249085 35.0 0.0 32.0 
340.00033353340314 249.0 57.0 487.02075702075723 2.7832021980332646 34.0 0.0 31.0 
342.00036628093477 248.0 57.0 487.04517704517735 2.239737867131133 34.0 0.0 31.0 
344.00036628093477 248.0 57.0 487.02564102564133 1.8245281425926703 34.0 0.0 31.0 
346.00008466603504 248.0 57.0 487.02075702075723 1.8117105021570847 34.0 0.0 31.0 
348.00036628093477 248.0 57.0 487.02075702075723 2.4811934382428174 34.0 0.0 31.0 
350.00033353340314 248.0 57.0 487.02075702075723 2.6247764812161045 34.0 0.0 31.0 
352.00036628093477 248.0 57.0 487.02075702075723 3.402505865652806 34.0 0.0 31.0 
354.00036628093477 248.0 57.0 487.0525030525034 2.842517480054664 34.0 0.0 31.0 
356.00008466603504 248.0 57.0 487.01098901098914 2.1388936379283146 34.0 0.0 31.0 
358.00036628093477 246.0 56.0 487.0061050061051 2.2294099716298024 34.0 0.0 31.0 
360.00033353340314 246.0 56.0 487.0061050061051 2.6640825906774217 34.0 0.0 31.0 
362.00036628093477 246.0 56.0 487.0061050061051 3.011255209725041 34.0 0.0 31.0 
364.00036628093477 246.0 56.0 481.40170940170947 3.363338543058374 34.0 0.0 29.0 
366.00008466603504 246.0 56.0 481.4065934065935 2.4013469509214618 34.0 0.0 29.0 
368.00036628093477 246.0 56.0 481.41147741147734 2.4285077131005526 32.0 0.0 29.0 
370.00033353340314 243.0 55.0 478.6227106227108 2.7055778476703427 31.0 0.0 28.0 
372.00036628093477 242.0 55.0 475.802197802198 3.3172529658636356 30.0 0.0 27.0 
374.00036628093477 240.0 55.0 475.8070818070821 2.9199032002933207 30.0 0.0 27.0 
376.00008466603504 240.0 55.0 475.802197802198 2.9381370761221333 30.0 0.0 27.0 
378.00036628093477 238.0 54.0 475.8339438339438 1.9966568822106654 30.0 0.0 27.0 
380.00033353340314 238.0 54.0 475.794871794872 1.657175342663427 30.0 0.0 27.0 
382.00036628093477 238.0 54.0 475.794871794872 2.3771815269553254 30.0 0.0 27.0 
384.00036628093477 238.0 54.0 475.79975579975604 2.6477442975180963 30.0 0.0 27.0 
386.00008466603504 236.0 54.0 475.794871794872 2.073606975206958 30.0 0.0 27.0 
388.00036628093477 236.0 54.0 475.794871794872 2.7923763011191403 30.0 0.0 27.0 
390.00033353340314 236.0 54.0 475.81196581196616 2.262089561261358 30.0 0.0 27.0 
392.00036628093477 244.0 55.0 478.61538461538464 2.1657966774569664 31.0 0.0 28.0 
394.00036628093477 244.0 55.0 478.61538461538464 2.4966573770070433 31.0 0.0 28.0 
396.00008466603504 243.0 55.0 478.61050061050054 1.6473462553487217 31.0 0.0 28.0 
398.00036628093477 244.0 55.0 478.61050061050054 1.8959636263132924 31.0 0.0 28.0 
400.00033353340314 244.0 55.0 478.61538461538464 2.322417727767394 31.0 0.0 28.0 
402.00036628093477 244.0 55.0 478.61050061050054 2.8347026650523306 31.0 0.0 28.0 
404.00036628093477 244.0 55.0 475.83638583638583 1.3686881357073415 30.0 0.0 27.0 
406.00008466603504 244.0 55.0 475.802197802198 1.1540886611890753 30.0 0.0 27.0 
408.00036628093477 244.0 55.0 475.802197802198 1.8497735318739457 30.0 0.0 27.0 
410.00033353340314 244.0 55.0 475.8070818070821 1.9044327615331753 30.0 0.0 27.0 
412.00036628093477 244.0 55.0 475.802197802198 2.638579170679585 30.0 0.0 27.0 
414.00036628093477 244.0 55.0 475.8070818070821 2.9290442611446754 30.0 0.0 27.0 
416.00008466603504 244.0 55.0 475.802197802198 2.32085821808109 30.0 0.0 27.0 
418.00036628093477 246.0 56.0 475.82173382173374 1.5669226921358979 30.0 0.0 27.0 
420.00033353340314 246.0 56.0 475.8070818070821 1.8539248246092785 30.0 0.0 27.0 
422.00036628093477 246.0 56.0 475.802197802198 2.148398494399404 30.0 0.0 27.0 
424.00036628093477 246.0 56.0 475.8070818070821 2.460503267263671 30.0 0.0 27.0 
426.00008466603504 246.0 56.0 475.802197802198 2.370407919573386 30.0 0.0 27.0 
428.00036628093477 246.0 56.0 475.802197802198 2.664881589363512 30.0 0.0 27.0 
430.00033353340314 246.0 56.0 473.0061050061051 2.971725800005191 30.0 0.0 26.0 
432.00036628093477 246.0 56.0 473.001221001221 2.244373807093701 30.0 0.0 26.0 
434.00036628093477 246.0 56.0 473.0061050061051 2.016961241171912 28.0 0.0 26.0 
436.00008466603504 244.0 55.0 473.001221001221 1.4126539561262752 28.0 0.0 26.0 
438.00036628093477 244.0 55.0 473.001221001221 2.0698772883496077 28.0 0.0 26.0 
440.00033353340314 244.0 55.0 473.0061050061051 2.086074979547299 28.0 0.0 26.0 
442.00036628093477 244.0 55.0 473.001221001221 2.7432983117706318 28.0 0.0 26.0 
444.00036628093477 246.0 56.0 473.0061050061051 2.803939227202842 28.0 0.0 26.0 
446.00008466603504 247.0 56.0 473.001221001221 0.9505639095526539 28.0 0.0 26.0 
448.00036628093477 248.0 57.0 473.001221001221 1.4496797328067919 28.0 0.0 26.0 
450.00033353340314 248.0 57.0 473.0061050061051 1.8356478798860503 28.0 0.0 26.0 
452.00036628093477 248.0 57.0 473.001221001221 2.1105049158541975 28.0 0.0 26.0 
454.00036628093477 248.0 57.0 473.0061050061051 2.3919686131210707 28.0 0.0 26.0 
456.00008466603504 246.0 57.0 473.001221001221 2.242859319010565 28.0 0.0 26.0 
458.00036628093477 246.0 57.0 473.001221001221 2.3922741017586815 28.0 0.0 26.0 
460.00033353340314 246.0 57.0 473.0061050061051 1.4625643053822182 28.0 0.0 26.0 
462.00036628093477 246.0 57.0 473.001221001221 1.999839170434861 28.0 0.0 26.0 
464.00036628093477 246.0 57.0 473.001221001221 1.9074710447334018 28.0 0.0 26.0 
466.00008466603504 246.0 57.0 473.001221001221 1.8387654704722722 28.0 0.0 26.0 
468.00036628093477 247.0 57.0 473.001221001221 2.4774352078365336 28.0 0.0 26.0 
470.00033353340314 248.0 58.0 473.0061050061051 2.506035452559645 28.0 0.0 26.0 
472.00036628093477 249.0 58.0 473.001221001221 2.886371352851146 28.0 0.0 26.0 
474.00036628093477 254.0 60.0 473.001221001221 1.8096567851386984 28.0 0.0 26.0 
476.00008466603504 254.0 60.0 473.001221001221 1.2551007488616213 28.0 0.0 26.0 
478.00036628093477 256.0 61.0 473.001221001221 1.846197453242639 28.0 0.0 26.0 
480.00033353340314 256.0 61.0 473.0061050061051 2.2499368173268306 28.0 0.0 26.0 
482.00036628093477 254.0 60.0 473.001221001221 2.191116226302495 28.0 0.0 26.0 
484.00036628093477 254.0 60.0 473.001221001221 2.445289062697993 28.0 0.0 26.0 
486.00008466603504 254.0 60.0 473.001221001221 2.2546237892740986 28.0 0.0 26.0 
488.00036628093477 254.0 60.0 473.001221001221 1.2913307604638284 28.0 0.0 26.0 
490.00033353340314 254.0 60.0 473.0061050061051 1.5961498876967488 28.0 0.0 26.0 
492.00036628093477 254.0 60.0 473.001221001221 2.264257067872894 28.0 0.0 26.0 
494.00036628093477 254.0 60.0 473.001221001221 2.258718927851996 28.0 0.0 26.0 
496.00008466603504 254.0 60.0 473.001221001221 2.2752114391720935 28.0 0.0 26.0 
498.00036628093477 254.0 60.0 473.001221001221 2.9778013779689285 28.0 0.0 26.0 
500.00033353340314 254.0 60.0 473.0061050061051 2.967486405584991 28.0 0.0 26.0 
502.00036628093477 254.0 60.0 473.001221001221 2.4122393537862146 28.0 0.0 26.0 
504.00036628093477 254.0 60.0 473.001221001221 2.6294383429136112 28.0 0.0 26.0 
506.00008466603504 254.0 60.0 473.001221001221 2.301103268026812 28.0 0.0 26.0 
508.00036628093477 252.0 60.0 473.001221001221 2.9654031426566996 28.0 0.0 26.0 
510.00033353340314 252.0 60.0 473.0061050061051 3.4840850354765234 28.0 0.0 26.0 
512.0003662809348 252.0 60.0 473.001221001221 3.8878243995607153 28.0 0.0 26.0 
514.0003662809348 250.0 59.0 473.0061050061051 3.783162531795809 28.0 0.0 26.0 
516.000084666035 252.0 60.0 473.001221001221 2.5018783879660957 28.0 0.0 26.0 
518.0003662809348 250.0 59.0 473.001221001221 2.1033730379624536 28.0 0.0 26.0 
520.0003335334031 250.0 59.0 473.0061050061051 2.558318673722044 28.0 0.0 26.0 
522.0003662809348 248.0 58.0 473.001221001221 2.5872671489508727 28.0 0.0 26.0 
524.0003662809348 248.0 58.0 473.001221001221 2.5101026467863674 28.0 0.0 26.0 
526.000084666035 248.0 58.0 473.001221001221 2.47956512874885 28.0 0.0 26.0 
528.0003662809348 248.0 58.0 473.001221001221 3.087929383541676 28.0 0.0 26.0 
530.0003335334031 248.0 58.0 473.0061050061051 1.941423508464374 28.0 0.0 26.0 
532.0003662809348 248.0 58.0 473.001221001221 2.56665284262228 28.0 0.0 26.0 
534.0003662809348 248.0 58.0 473.01343101343116 2.9743146211175135 28.0 0.0 26.0 
536.000084666035 246.0 57.0 472.9938949938949 2.1332753750777553 28.0 0.0 26.0 
538.0003662809348 246.0 57.0 472.9938949938949 2.8591939686792758 28.0 0.0 26.0 
540.0003335334031 246.0 57.0 472.998778998779 3.3412101232564058 28.0 0.0 26.0 
542.0003662809348 246.0 57.0 472.9938949938949 3.5546564330441788 28.0 0.0 26.0 
544.0003662809348 246.0 57.0 472.9938949938949 2.1500157051793787 28.0 0.0 26.0 
546.000084666035 246.0 57.0 472.9938949938949 2.687426827901799 28.0 0.0 26.0 
548.0003662809348 246.0 57.0 472.9938949938949 3.0474917629667337 28.0 0.0 26.0 
550.0003335334031 246.0 57.0 472.998778998779 3.5295079175438646 28.0 0.0 26.0 
552.0003662809348 246.0 57.0 472.9938949938949 4.082952643549566 28.0 0.0 26.0 
554.0003662809348 244.0 56.0 472.998778998779 3.707246317952612 28.0 0.0 26.0 
556.000084666035 233.0 54.0 472.98901098901086 2.6486686383326394 28.0 0.0 26.0 
558.0003662809348 233.0 54.0 472.98901098901086 1.953744118408119 28.0 0.0 26.0 
560.0003335334031 233.0 54.0 472.9938949938949 1.88479084945485 28.0 0.0 26.0 
562.0003662809348 233.0 54.0 472.98901098901086 1.8961350607990615 28.0 0.0 26.0 
564.0003662809348 232.0 54.0 472.98901098901086 1.9991670774820536 28.0 0.0 26.0 
566.000084666035 232.0 54.0 472.98901098901086 2.2521242934262817 28.0 0.0 26.0 
568.0003662809348 232.0 54.0 472.98901098901086 2.9433931976822008 28.0 0.0 26.0 
570.0003335334031 232.0 54.0 472.9938949938949 3.007279744036278 28.0 0.0 26.0 
572.0003662809348 234.0 55.0 472.98901098901086 1.3636854882340106 29.0 0.0 26.0 
574.0003662809348 234.0 55.0 472.98901098901086 1.6996577428956416 29.0 0.0 26.0 
576.000084666035 234.0 55.0 472.98901098901086 2.33847448171238 29.0 0.0 26.0 
578.0003662809348 234.0 55.0 472.98901098901086 2.6311373743752733 29.0 0.0 26.0 
580.0003335334031 234.0 55.0 472.9938949938949 2.4332942814628615 29.0 0.0 26.0 
582.0003662809348 234.0 55.0 472.98901098901086 2.9871243725331857 28.0 0.0 26.0 
584.0003662809348 234.0 55.0 472.98901098901086 3.156418966827781 28.0 0.0 26.0 
586.000084666035 232.0 54.0 472.98901098901086 1.5353457467750964 28.0 0.0 26.0 
588.0003662809348 232.0 54.0 472.98901098901086 1.7333949559062607 28.0 0.0 26.0 
590.0003335334031 232.0 54.0 472.9938949938949 1.4950376991279513 28.0 0.0 26.0 
592.0003662809348 232.0 54.0 472.98901098901086 1.9283589431602504 28.0 0.0 26.0 
594.0003662809348 232.0 54.0 470.18803418803367 2.6024077014195353 27.0 0.0 25.0 
596.000084666035 232.0 54.0 470.18803418803367 2.671193301784083 27.0 0.0 25.0 
598.0003662809348 232.0 54.0 470.18803418803367 2.4325370019435724 27.0 0.0 25.0 
600.0003335334031 232.0 54.0 470.1929181929177 1.6497761224721668 27.0 0.0 25.0 
602.0003662809348 232.0 54.0 470.18803418803367 1.5395346095990752 27.0 0.0 25.0 
604.0003662809348 232.0 54.0 470.18803418803367 2.21358336785836 27.0 0.0 25.0 
606.000084666035 232.0 54.0 470.18803418803367 2.462820096042456 27.0 0.0 25.0 
608.0003662809348 232.0 54.0 470.18803418803367 2.1849891550536205 27.0 0.0 25.0 
610.0003335334031 234.0 53.0 470.1929181929177 2.7424056955087277 27.0 0.0 25.0 
612.0003662809348 236.0 54.0 470.18803418803367 2.561920039730585 28.0 0.0 25.0 
614.0003662809348 239.0 54.0 473.0061050061051 1.4389420360220406 28.0 0.0 26.0 
616.000084666035 240.0 54.0 472.99633699633694 1.055282677862468 28.0 0.0 26.0 
618.0003662809348 240.0 54.0 472.99633699633694 1.6625821766093352 28.0 0.0 26.0 
620.0003335334031 240.0 54.0 473.001221001221 1.9414042317471802 28.0 0.0 26.0 
622.0003662809348 240.0 54.0 472.99633699633694 2.351805234253445 28.0 0.0 26.0 
624.0003662809348 240.0 54.0 472.99633699633694 2.811078417210839 28.0 0.0 26.0 
626.000084666035 240.0 54.0 472.99633699633694 2.2965806303508787 28.0 0.0 26.0 
628.0003662809348 240.0 54.0 472.99633699633694 2.6984100693951207 28.0 0.0 26.0 
630.0003335334031 245.0 54.0 473.001221001221 1.6861197810499502 28.0 0.0 26.0 
632.0003662809348 245.0 54.0 472.99633699633694 1.5914128316610643 28.0 0.0 26.0 
634.0003662809348 245.0 54.0 472.99633699633694 1.5532653796978229 28.0 0.0 26.0 
636.000084666035 245.0 54.0 472.99633699633694 1.9994224390127768 28.0 0.0 26.0 
638.0003662809348 245.0 54.0 472.99633699633694 2.2322336336660764 28.0 0.0 26.0 
640.0003335334031 245.0 54.0 473.001221001221 2.909123775687798 28.0 0.0 26.0 
642.0003662809348 248.0 55.0 472.99633699633694 2.905526860086881 28.0 0.0 26.0 
644.0003662809348 250.0 56.0 472.99633699633694 1.046908993034729 28.0 0.0 26.0 
646.000084666035 250.0 56.0 472.99633699633694 1.2483547639005905 28.0 0.0 26.0 
648.0003662809348 250.0 56.0 472.99633699633694 1.8525239421204014 28.0 0.0 26.0 
650.0003335334031 250.0 56.0 473.001221001221 2.1244146393275543 28.0 0.0 26.0 
652.0003662809348 250.0 56.0 472.99633699633694 1.8350033473846168 28.0 0.0 26.0 
654.0003662809348 250.0 56.0 472.99633699633694 2.4956824713548804 28.0 0.0 26.0 
656.000084666035 250.0 56.0 472.99633699633694 2.5571301305873497 28.0 0.0 26.0 
658.0003662809348 250.0 56.0 472.99633699633694 2.993050363659482 28.0 0.0 26.0 
660.0003335334031 250.0 56.0 473.001221001221 1.863268366472421 28.0 0.0 26.0 
662.0003662809348 252.0 56.0 472.99633699633694 1.3250840336122538 28.0 0.0 26.0 
664.0003662809348 252.0 56.0 472.99633699633694 2.0273544776548493 28.0 0.0 26.0 
#####################################################################
# End of data export. Simulation finished at: 2019-03-08T19:22+0000 #
#####################################################################
