#####################################################################
# Alchemist log file - simulation started at: 2019-03-12T13:59+0000 #
#####################################################################
# seed = 5.0, bandwidth = 17782.79410038923, accessPointCount = 37.60603093086394, baserange = 562.341325190349
#
# The columns have the following meaning: 
# time neighbor_count[Sum] <value>@neighbor_count[Sum] packet_size[Mean] mean_delay[Mean] crowd[Sum] overcrowded[Sum] risk[Sum] 
0.0 NaN NaN NaN NaN NaN NaN NaN 
2.000101793669918 54.0 18.0 4987.421121251629 0.3254875382359516 1497.0 0.0 1497.0 
4.000101793669918 370.0 106.0 4987.449804432856 0.9037491088249603 1497.0 0.0 1497.0 
6.000101793669918 698.0 130.0 4987.538461538462 1.4560966846395622 1497.0 0.0 1497.0 
8.000101793669918 2003.0 199.0 4988.057366362451 1.3238416338347734 1497.0 0.0 1497.0 
10.000101793669918 2315.0 215.0 4988.289439374185 2.134663881834958 1497.0 0.0 1497.0 
12.000101793669918 3908.0 251.0 4988.352020860495 1.6509393513527546 1497.0 0.0 1497.0 
14.000096216290835 7957.0 357.0 4989.173402868318 1.6826239541207488 1497.0 0.0 1497.0 
16.00010179366992 11403.0 407.0 4989.7314211212515 2.1599950660990865 1497.0 0.0 1497.0 
18.00010179366992 18055.0 532.0 4990.696219035202 2.6978790152320724 1497.0 0.0 1497.0 
20.00010179366992 22172.0 624.0 4991.775749674055 3.3111981453362342 1497.0 0.0 1497.0 
22.00010179366992 22215.0 624.0 4991.809647979139 4.433578457019936 1497.0 0.0 1497.0 
24.00010179366992 22233.0 624.0 4991.6401564537155 5.643527085146901 1497.0 0.0 1497.0 
26.00010179366992 22233.0 624.0 4991.6401564537155 5.818469888128584 1497.0 0.0 1497.0 
28.00010179366992 22252.0 624.0 4991.650586701434 6.578344649163886 1497.0 0.0 1497.0 
30.00010179366992 22177.0 617.0 4991.5827900912645 6.921246209646325 1496.0 1.0 1496.0 
32.00010179366992 22144.0 616.0 4991.410691003912 7.629001906437764 1496.0 1.0 1496.0 
34.00010179366992 22144.0 616.0 4991.345501955671 7.9447003996142325 1496.0 1.0 1496.0 
36.00010179366992 22144.0 616.0 4991.282920469361 5.382545913208439 1495.0 2.0 1495.0 
38.00010179366992 22146.0 616.0 4991.16036505867 3.0302637273607 1495.0 2.0 1495.0 
40.00010179366992 22146.0 616.0 4991.149934810952 4.2580592001229745 1495.0 2.0 1495.0 
42.00010179366992 22050.0 615.0 4991.10039113429 4.862414744908577 1495.0 2.0 1495.0 
44.00010179366992 22047.0 615.0 4991.144719687092 5.015736558129544 1496.0 1.0 1496.0 
46.00010179366992 22059.0 616.0 4991.056062581486 6.2706991565567405 1496.0 1.0 1496.0 
48.00010179366992 22062.0 616.0 4990.9361147327245 7.349115022964919 1496.0 1.0 1496.0 
50.00010179366992 22062.0 616.0 4991.121251629726 7.2689871331701115 1496.0 1.0 1496.0 
52.00010179366992 22080.0 616.0 4991.173402868318 6.827893394958411 1496.0 1.0 1496.0 
54.00010179366992 22117.0 617.0 4991.285528031291 5.9111829391468005 1496.0 1.0 1496.0 
56.00010179366992 22227.0 617.0 4991.462842242503 3.9873837601031004 1496.0 1.0 1496.0 
58.00010179366992 22227.0 617.0 4991.449804432856 4.225123804282131 1495.0 2.0 1495.0 
60.00010179366992 22217.0 617.0 4988.2685788787485 4.755945126365302 1494.0 2.0 1494.0 
62.00010179366992 22269.0 618.0 1174.2451108213825 4.6899556057033465 473.0 0.0 258.0 
64.00010179366993 22285.0 619.0 1174.2398956975226 5.516129095518254 438.0 0.0 258.0 
66.00010179366993 22297.0 619.0 1174.3181225554113 6.363144860047987 430.0 0.0 258.0 
68.00010179366993 22356.0 620.0 1174.3207301173413 7.115256219348815 416.0 0.0 258.0 
70.00010179366993 22356.0 620.0 1174.4015645371583 5.867470245308794 402.0 0.0 258.0 
72.00010179366993 22372.0 620.0 1174.3389830508486 4.7842595074154195 394.0 1.0 257.0 
74.00010179366993 22446.0 621.0 1177.2907431551498 3.3859652732281953 386.0 1.0 258.0 
76.00010179366993 22446.0 621.0 1176.7770534550198 3.7128596767825486 383.0 1.0 258.0 
78.00010179366993 22322.0 620.0 1179.8305084745762 3.62910796932515 380.0 1.0 259.0 
80.00010179366993 22378.0 621.0 1179.8852672750982 3.402275146892132 374.0 1.0 259.0 
82.00010179366993 22347.0 619.0 1179.9217731421127 3.99761480272812 368.0 1.0 259.0 
84.00010179366993 22352.0 619.0 1179.8591916558016 4.431325994693983 367.0 1.0 259.0 
86.00010179366993 22367.0 619.0 1179.8305084745762 3.5189667914246656 366.0 1.0 259.0 
88.00010179366993 22367.0 619.0 1179.770534550195 3.7660595763539706 365.0 1.0 259.0 
90.00010179366993 22371.0 619.0 1179.9400260756186 3.41712989317091 363.0 1.0 259.0 
92.00010179366993 22417.0 619.0 1180.305084745762 2.8181920772188547 364.0 1.0 259.0 
94.00010179366993 22423.0 619.0 1180.299869621904 3.4460152709286724 364.0 1.0 259.0 
96.00010179366993 22413.0 620.0 1180.25814863103 4.044652591659061 364.0 1.0 259.0 
98.00010179366993 22410.0 620.0 1183.2750977835724 3.8273977486256356 364.0 1.0 260.0 
100.00010179366993 22432.0 621.0 1183.251629726207 3.813983584245987 364.0 1.0 260.0 
102.00010179366993 22491.0 622.0 1183.2907431551498 4.002210355731547 363.0 1.0 260.0 
104.00010179366993 22491.0 622.0 1183.3168187744466 3.5953018939280357 363.0 1.0 260.0 
106.00010179366993 22489.0 622.0 1183.332464146024 3.9450273545222934 363.0 1.0 260.0 
108.00010179366993 22486.0 622.0 1180.2529335071704 3.7294210458213612 363.0 1.0 259.0 
110.00010179366993 22512.0 622.0 1183.1942633637552 2.740010722793697 363.0 1.0 260.0 
112.00010179366993 22514.0 622.0 1182.928292046936 3.2334286348643917 365.0 1.0 260.0 
114.00010179366993 22423.0 622.0 1183.022164276402 3.5114848715170712 365.0 1.0 260.0 
116.00010179366993 22419.0 623.0 1183.0352020860498 4.217297980160822 365.0 1.0 260.0 
118.00010179366993 22422.0 624.0 1183.022164276402 4.801014846818133 365.0 1.0 260.0 
120.00010179366993 22446.0 624.0 1182.9830508474574 4.175466048624307 365.0 1.0 260.0 
122.00010179366993 22425.0 622.0 1186.0260756192968 3.450052547000937 365.0 1.0 261.0 
124.00010179366993 22406.0 622.0 1185.9947848761403 3.875462879612874 365.0 1.0 261.0 
126.00010179366993 22409.0 623.0 1186.041720990874 3.4324206906271257 365.0 1.0 261.0 
128.00010179366993 22407.0 623.0 1189.2672750977842 2.6354748638268015 365.0 1.0 262.0 
130.00010179366993 22400.0 623.0 1189.2646675358528 3.289320711007074 365.0 1.0 262.0 
132.00010179366993 22078.0 622.0 1186.203389830508 3.8483263834309147 365.0 1.0 261.0 
134.00010179366993 22046.0 621.0 1186.203389830508 4.3238200087264005 365.0 1.0 261.0 
136.00010179366993 21967.0 619.0 1183.1108213820082 4.659173584563251 362.0 2.0 259.0 
138.00010179366993 21961.0 619.0 1189.1681877444603 4.278236990456217 362.0 2.0 261.0 
140.00010179366993 21946.0 618.0 1189.165580182529 4.371814571841667 362.0 2.0 261.0 
142.00010179366993 21944.0 618.0 1186.203389830508 4.083207247149948 359.0 2.0 260.0 
144.00010179366993 21948.0 618.0 1189.2411994784875 2.4908548885008868 359.0 2.0 261.0 
146.00010179366993 21984.0 618.0 1189.2464146023456 2.784988219385594 359.0 2.0 261.0 
148.00010179366993 21981.0 618.0 1189.280312907432 2.952408740435598 358.0 3.0 260.0 
150.00010179366993 21834.0 617.0 1189.311603650587 3.6048556002727983 359.0 2.0 261.0 
152.00010179366993 21765.0 616.0 1189.3063885267286 4.244804160535036 358.0 2.0 261.0 
154.00010179366993 21804.0 616.0 1192.3233376792693 3.9418650132609074 359.0 2.0 262.0 
156.00010179366993 21789.0 616.0 1195.2933507170794 3.9362610537442935 358.0 2.0 263.0 
158.00010179366993 21791.0 616.0 1195.2750977835724 4.654519434380866 358.0 2.0 263.0 
160.00010179366993 21774.0 616.0 1195.2516297262066 4.2901759273632445 358.0 2.0 263.0 
162.00010179366993 21772.0 616.0 1195.0482398956974 2.7415668840928165 357.0 3.0 262.0 
164.00010179366993 21763.0 616.0 1198.0338983050847 2.693540440974662 357.0 3.0 263.0 
166.00010179366993 21728.0 616.0 1198.0391134289428 3.350872075983992 357.0 3.0 263.0 
168.00010179366993 21656.0 616.0 1197.9713168187752 3.8429579402775023 357.0 3.0 263.0 
170.00010179366993 21637.0 616.0 1197.9791395045643 4.1391313949034005 356.0 3.0 263.0 
172.00010179366993 21633.0 615.0 1194.988265971316 3.6227336612075742 354.0 4.0 261.0 
174.00010179366993 21635.0 616.0 1198.0052151238597 3.8309205009765717 355.0 3.0 263.0 
176.00010179366993 21603.0 616.0 1192.0365058670145 4.468189023494459 353.0 3.0 261.0 
178.00010179366993 21531.0 615.0 1192.2294654498048 3.7196549370670717 353.0 3.0 261.0 
180.00010179366993 21500.0 615.0 1189.1864406779662 3.3587625813281576 352.0 3.0 260.0 
182.00010179366993 21498.0 615.0 1186.1955671447188 3.5547901094178154 352.0 3.0 259.0 
184.00010179366993 21494.0 615.0 1183.2125162972627 3.522113305193633 351.0 3.0 258.0 
186.00010179366993 21492.0 615.0 1183.1942633637555 3.5119383111097044 351.0 3.0 258.0 
188.00010179366993 21475.0 615.0 1186.2007822685798 2.9868992407228614 351.0 2.0 260.0 
190.00010179366993 21469.0 614.0 1180.2320730117333 3.329058444964293 349.0 2.0 258.0 
192.00010179366993 21468.0 614.0 1180.1590612777043 3.9554702116716087 349.0 2.0 258.0 
194.00010179366993 21473.0 614.0 1177.0691003911343 3.6005701144473954 348.0 2.0 257.0 
196.00010179366993 21473.0 615.0 1177.0378096479794 3.8405774747763255 348.0 2.0 257.0 
198.00010179366993 21473.0 615.0 1177.0925684485012 3.2655246583742965 348.0 2.0 257.0 
200.00010179366993 21462.0 615.0 1177.1056062581488 3.5209743211302986 348.0 2.0 257.0 
202.00010179366993 21458.0 615.0 1177.0821382007819 4.052344808074384 348.0 2.0 257.0 
204.00010179366993 21459.0 615.0 1177.066492829205 4.188868131805396 348.0 2.0 257.0 
206.00010179366993 21456.0 615.0 1174.117340286832 3.121179891910092 348.0 1.0 257.0 
208.00010179366993 21455.0 615.0 1174.127770534551 3.737067082708182 348.0 1.0 257.0 
210.00010179366993 21449.0 615.0 1174.3129074315518 3.217225087843286 348.0 1.0 257.0 
212.00010179366993 21448.0 615.0 1174.31551499348 3.236195270480481 347.0 1.0 257.0 
214.00010179366993 21416.0 616.0 1171.254237288135 3.4249659844025517 347.0 1.0 256.0 
216.00010179366993 21364.0 616.0 1168.208604954368 3.1459123036456083 346.0 1.0 255.0 
218.00010179366993 21360.0 616.0 1168.2216427640153 3.8286652595000334 346.0 1.0 255.0 
220.00010179366993 21360.0 616.0 1165.1890482398958 4.463610262955039 346.0 1.0 254.0 
222.00010179366993 21359.0 616.0 1165.23076923077 4.236985756099852 347.0 1.0 254.0 
224.00010179366993 21362.0 616.0 1168.2346805736631 4.041465576400524 347.0 1.0 255.0 
226.00010179366993 21362.0 616.0 1168.1929595827905 2.5962108296521715 348.0 1.0 255.0 
228.00010179366993 21350.0 615.0 1168.1199478487615 2.743293303665038 348.0 1.0 255.0 
230.00010179366993 21346.0 615.0 1168.1199478487615 3.354204267564953 348.0 1.0 255.0 
232.00010179366993 21371.0 616.0 1171.1681877444603 3.6719953129868395 348.0 1.0 256.0 
234.00010179366993 21403.0 617.0 1171.1968709256853 3.430955334999237 348.0 1.0 256.0 
236.00010179366993 21402.0 616.0 1171.1916558018252 4.066817252978989 348.0 1.0 256.0 
238.00010179366993 21402.0 616.0 1171.1942633637555 4.376044648717267 348.0 1.0 256.0 
240.00010179366993 21400.0 616.0 1171.1473272490211 3.3273750688344452 348.0 1.0 256.0 
242.00010179366993 21459.0 617.0 1168.1851368970008 3.0724658934661977 348.0 1.0 255.0 
244.00010179366993 21513.0 618.0 1168.1668839634935 3.571780843365804 348.0 1.0 255.0 
246.00010179366993 21543.0 617.0 1168.2451108213825 3.7938817182643705 349.0 1.0 255.0 
248.00010179366993 21470.0 617.0 1168.2633637548897 3.7112676328652845 349.0 1.0 255.0 
250.00010179366993 21459.0 617.0 1165.2672750977847 4.113035442426664 349.0 1.0 254.0 
252.00010179366993 21462.0 617.0 1165.254237288135 3.2387085994994336 352.0 1.0 254.0 
254.00010179366993 21473.0 617.0 1165.241199478488 3.5600197919625898 352.0 1.0 254.0 
256.00010179366996 21505.0 617.0 1165.2333767926998 3.254276882034729 353.0 1.0 254.0 
258.00010179366996 21591.0 617.0 1168.232073011733 2.786173865147401 354.0 1.0 255.0 
260.00010179366996 21599.0 618.0 1168.2451108213827 3.4031582653175962 354.0 1.0 255.0 
262.00010179366996 21602.0 618.0 1168.224250325945 4.10111754059118 354.0 1.0 255.0 
264.00010179366996 21368.0 614.0 1168.127770534551 4.332097002106714 354.0 1.0 255.0 
266.00010179366996 21395.0 615.0 1168.156453715776 4.291441509827168 353.0 1.0 255.0 
268.00010179366996 21398.0 615.0 1168.151238591916 3.950314729939083 353.0 1.0 255.0 
270.00010179366996 21397.0 615.0 1171.1707953063883 3.277832683505032 353.0 1.0 256.0 
272.00010179366996 21401.0 615.0 1165.1655801825286 3.617214857331795 352.0 1.0 254.0 
274.00010179366996 21357.0 614.0 1165.2385919165577 2.4248267117107445 349.0 1.0 254.0 
276.00010179366996 21343.0 614.0 1171.2099087353324 3.0210869244358736 348.0 1.0 256.0 
278.00010179366996 21340.0 614.0 1171.1760104302482 3.302573026549709 348.0 1.0 256.0 
280.00010179366996 21128.0 613.0 1171.1368970013036 3.8443274109516734 348.0 1.0 256.0 
282.00010179366996 21110.0 613.0 1171.1707953063883 4.071797877256006 348.0 1.0 256.0 
284.00010179366996 21092.0 613.0 1168.1694915254234 4.732312390949361 348.0 1.0 255.0 
286.00010179366996 21080.0 613.0 1165.152542372881 5.027263197704387 348.0 1.0 254.0 
288.00010179366996 21042.0 612.0 1165.1238591916563 3.404468731164763 348.0 1.0 254.0 
290.00010179366996 21013.0 612.0 1168.1199478487615 2.2677576181003247 348.0 1.0 255.0 
292.00010179366996 20972.0 611.0 1168.117340286832 2.3889423744415637 348.0 1.0 255.0 
294.00010179366996 21017.0 612.0 1168.1694915254234 2.8527967487338555 348.0 1.0 255.0 
296.00010179366996 20945.0 611.0 1168.1616688396357 3.12435916506805 348.0 1.0 255.0 
298.00010179366996 20943.0 611.0 1168.1538461538462 3.7944199193584023 348.0 1.0 255.0 
300.00010179366996 20942.0 611.0 1168.1043024771839 4.425426025418022 348.0 1.0 255.0 
302.00010179366996 20942.0 611.0 1165.129074315516 4.38793299616936 348.0 1.0 254.0 
304.00010179366996 20927.0 610.0 1165.0951760104313 4.182066940790986 346.0 2.0 253.0 
306.00010179366996 20928.0 610.0 1162.1329856584089 3.845730414029179 346.0 2.0 252.0 
308.00010179366996 20955.0 610.0 1159.1629726205988 3.009687270171961 345.0 2.0 251.0 
310.00010179366996 20848.0 611.0 1159.1603650586708 2.818310772986657 345.0 1.0 252.0 
312.00010179366996 20773.0 609.0 1159.0899608865698 2.8662594499058973 345.0 1.0 252.0 
314.00010179366996 20764.0 608.0 1159.0795306388518 3.0991044958497596 345.0 1.0 252.0 
316.00010179366996 20788.0 608.0 1156.117340286832 3.434028288319297 344.0 1.0 251.0 
318.00010179366996 20828.0 608.0 1156.101694915254 3.4823368878300753 345.0 1.0 251.0 
320.00010179366996 20828.0 608.0 1153.0925684485014 4.142146748824635 345.0 1.0 250.0 
322.00010179366996 20824.0 608.0 1147.1290743155162 4.409298671700671 343.0 1.0 248.0 
324.00010179366996 20831.0 609.0 1144.127770534551 3.131572525753162 343.0 1.0 247.0 
326.00010179366996 20824.0 609.0 1144.1251629726212 2.949351089320352 343.0 1.0 247.0 
328.00010179366996 20849.0 609.0 1147.1238591916563 3.4074331657079826 344.0 1.0 248.0 
330.00010179366996 20865.0 610.0 1147.1838331160357 3.6162341960962605 344.0 1.0 248.0 
332.00010179366996 20891.0 610.0 1147.1890482398958 2.779020182827126 345.0 1.0 248.0 
334.00010179366996 20896.0 610.0 1147.1681877444603 3.3853814219853176 345.0 1.0 248.0 
336.00010179366996 20890.0 609.0 1147.1212516297267 3.8443410830212548 345.0 1.0 248.0 
338.00010179366996 20883.0 609.0 1144.1382007822685 3.7198372938128257 345.0 1.0 247.0 
340.00010179366996 20728.0 607.0 1141.1134289439385 4.057334658572403 343.0 1.0 246.0 
342.00010179366996 20721.0 607.0 1141.173402868318 2.747797052913064 343.0 1.0 246.0 
344.00010179366996 20718.0 607.0 1144.2164276401556 3.2483971225285506 343.0 1.0 247.0 
346.00010179366996 20722.0 607.0 1138.203389830508 3.1777205741756824 342.0 1.0 245.0 
348.00010179366996 20724.0 607.0 1135.1238591916563 3.74404995067283 340.0 1.0 244.0 
350.00010179366996 20732.0 607.0 1138.130378096479 3.575201203608229 340.0 1.0 245.0 
352.00010179366996 20722.0 606.0 1135.1447196870918 3.381123722381465 338.0 1.0 244.0 
354.00010179366996 20701.0 606.0 1135.157757496741 3.559011240225385 338.0 1.0 244.0 
356.00010179366996 20696.0 606.0 1135.1499348109528 4.153678964791315 338.0 1.0 244.0 
358.00010179366996 20691.0 606.0 1138.1825293350726 3.666945625887762 338.0 1.0 245.0 
360.00010179366996 20699.0 605.0 1138.156453715776 2.318307155832965 338.0 1.0 245.0 
362.00010179366996 20698.0 605.0 1138.1616688396357 2.55116869999598 339.0 1.0 245.0 
364.00010179366996 20698.0 605.0 1138.146023468058 3.085975466574716 339.0 1.0 245.0 
366.00010179366996 20698.0 605.0 1135.2099087353324 3.3516179915368496 339.0 1.0 244.0 
368.00010179366996 20620.0 604.0 1135.1942633637555 3.9832790713098967 339.0 1.0 244.0 
370.00010179366996 20609.0 604.0 1135.1734028683181 4.50671625484919 339.0 1.0 244.0 
372.00010179366996 20614.0 604.0 1135.1551499348109 4.338292228574637 338.0 1.0 244.0 
374.00010179366996 20627.0 605.0 1135.181225554106 3.5133646590812964 339.0 1.0 244.0 
376.00010179366996 20624.0 605.0 1135.181225554106 2.8112120002700203 339.0 1.0 244.0 
378.00010179366996 20624.0 605.0 1135.2438070404176 2.3565831681854608 337.0 1.0 244.0 
380.00010179366996 20630.0 606.0 1135.2099087353324 2.547174622062358 337.0 1.0 244.0 
382.00010179366996 20583.0 606.0 1135.1890482398958 3.208114449922332 337.0 1.0 244.0 
384.00010179366996 20585.0 607.0 1135.1603650586708 3.7693336572462317 339.0 1.0 244.0 
386.00010179366996 20548.0 606.0 1135.1629726205988 3.3391838924255914 339.0 1.0 244.0 
388.00010179366996 20547.0 606.0 1135.1108213820085 3.968080287003146 339.0 1.0 244.0 
390.00010179366996 20520.0 605.0 1135.1421121251635 4.5176367330746805 339.0 1.0 244.0 
392.00010179366996 20515.0 606.0 1135.1551499348109 4.1125556696167775 339.0 1.0 244.0 
394.00010179366996 20530.0 607.0 1138.1147327249016 3.28406538528824 340.0 1.0 245.0 
396.00010179366996 20521.0 607.0 1138.054758800522 2.475957714643981 340.0 1.0 245.0 
398.00010179366996 20521.0 607.0 1138.0443285528042 2.349142300291757 340.0 1.0 245.0 
400.00010179366996 20523.0 607.0 1135.097783572359 2.657597641252493 340.0 1.0 244.0 
402.00010179366996 20565.0 608.0 1135.1551499348107 3.3030439462664543 340.0 1.0 244.0 
404.00010179366996 20542.0 608.0 1135.1551499348107 3.95178403677312 340.0 1.0 244.0 
406.00010179366996 20507.0 607.0 1138.1408083441981 4.4199231305394715 340.0 1.0 245.0 
408.00010179366996 20225.0 603.0 1144.0677966101694 4.4907270377663595 341.0 1.0 247.0 
410.00010179366996 20217.0 603.0 1144.0782268578869 3.363319421834106 341.0 1.0 247.0 
412.00010179366996 20243.0 604.0 1144.0286831812248 3.3885735922659403 341.0 1.0 247.0 
414.00010179366996 20251.0 603.0 1144.1043024771839 2.6516097001317833 341.0 1.0 247.0 
416.00010179366996 20260.0 604.0 1144.1251629726212 2.5437817990539284 341.0 1.0 247.0 
418.00010179366996 20262.0 604.0 1141.1395045632337 3.1826795729520727 341.0 1.0 246.0 
420.00010179366996 20279.0 605.0 1135.076923076924 3.57662001288615 341.0 1.0 244.0 
422.00010179366996 20298.0 605.0 1132.0078226857895 3.0721002579671897 341.0 1.0 243.0 
424.00010179366996 20303.0 604.0 1134.9830508474581 3.5413108339107318 341.0 1.0 244.0 
426.00010179366996 20317.0 605.0 1129.095176010431 3.582509757217729 341.0 1.0 242.0 
428.00010179366996 20318.0 605.0 1129.1499348109528 3.674754930769729 339.0 1.0 242.0 
430.00010179366996 20323.0 605.0 1132.146023468058 3.978321521122097 342.0 1.0 243.0 
432.00010179366996 20265.0 603.0 1129.1186440677957 3.4713420776311197 340.0 1.0 242.0 
434.00010179366996 20211.0 602.0 1132.101694915254 2.9209858020463355 340.0 1.0 243.0 
436.00010179366996 20208.0 602.0 1135.1108213820085 2.729461098729695 341.0 1.0 244.0 
438.00010179366996 20212.0 602.0 1132.0834419817475 2.9118633679849397 340.0 1.0 243.0 
440.00010179366996 20208.0 602.0 1132.0625814863104 3.4804813908207386 341.0 1.0 243.0 
442.00010179366996 20209.0 602.0 1135.0508474576275 3.964963888379866 341.0 1.0 244.0 
444.00010179366996 20174.0 602.0 1135.0404172099095 3.4715115471070974 339.0 1.0 244.0 
446.00010179366996 20103.0 600.0 1134.990873533248 3.2898693043474108 340.0 1.0 244.0 
448.00010179366996 20107.0 600.0 1137.9582790091258 3.521556373347686 340.0 1.0 245.0 
450.00010179366996 20111.0 600.0 1140.990873533248 2.7829784736413083 340.0 1.0 246.0 
452.00010179366996 20116.0 600.0 1143.9765319426324 3.419617863916749 340.0 1.0 247.0 
454.00010179366996 20126.0 601.0 1140.9465449804438 3.967682141114778 340.0 1.0 246.0 
456.00010179366996 20103.0 601.0 1137.9713168187752 3.88859572227135 338.0 1.0 245.0 
458.00010179366996 20078.0 601.0 1138.0286831812248 3.1233060918305373 339.0 1.0 245.0 
460.00010179366996 20069.0 600.0 1135.0221642764018 3.1716546330414377 338.0 1.0 244.0 
462.00010179366996 20070.0 600.0 1135.043024771838 3.1720627150091665 338.0 1.0 244.0 
464.00010179366996 20082.0 602.0 1135.009126466752 3.339629836937399 339.0 1.0 244.0 
466.00010179366996 20078.0 601.0 1132.0078226857895 3.6549121238611657 337.0 1.0 243.0 
468.00010179366996 20020.0 600.0 1132.033898305085 2.969011164688089 337.0 1.0 243.0 
470.00010179366996 20010.0 600.0 1135.0508474576272 3.1687299935986175 337.0 1.0 244.0 
472.00010179366996 20010.0 600.0 1129.0951760104306 3.721177707691717 336.0 1.0 242.0 
474.00010179366996 19993.0 600.0 1129.1368970013034 4.293870132415034 336.0 1.0 242.0 
476.00010179366996 19967.0 598.0 1129.1577574967412 4.379011252005606 336.0 1.0 242.0 
478.00010179366996 19932.0 597.0 1129.1707953063883 2.9266144108614927 335.0 1.0 242.0 
480.00010179366996 19812.0 595.0 1126.0156453715783 2.859881587731489 335.0 1.0 241.0 
482.00010179366996 19797.0 594.0 1123.0143415906127 3.0746731714003186 334.0 1.0 240.0 
484.00010179366996 19783.0 594.0 1119.9791395045645 3.2065197630626825 334.0 1.0 239.0 
486.00010179366996 19783.0 594.0 1119.989569752282 2.8603351027704544 334.0 1.0 239.0 
488.00010179366996 19788.0 594.0 1119.989569752282 3.222966081155077 333.0 1.0 239.0 
490.00010179366996 19792.0 594.0 1123.0065189048232 3.7252119181056162 333.0 1.0 240.0 
492.00010179366996 19802.0 594.0 1119.9269882659707 3.779214329900613 334.0 1.0 239.0 
494.00010179366996 19821.0 595.0 1116.9152542372874 3.4962793804751975 333.0 1.0 238.0 
496.00010179366996 19816.0 595.0 1104.8996088657107 3.5105378117270902 332.0 1.0 234.0 
498.00010179366996 19811.0 595.0 1105.0169491525412 3.3188848965735587 332.0 1.0 234.0 
500.00010179366996 19810.0 595.0 1105.0430247718389 3.1525064367611475 331.0 1.0 234.0 
502.00010179366996 19853.0 596.0 1105.0482398956983 3.4956178132913043 330.0 1.0 234.0 
504.00010179366996 19941.0 597.0 1102.0 2.968099169178252 329.0 1.0 233.0 
506.00010179366996 19966.0 596.0 1105.009126466752 2.732650370443063 329.0 1.0 234.0 
508.00010179366996 19974.0 596.0 1104.990873533248 3.0767036719550296 329.0 1.0 234.0 
510.00010179366996 19923.0 595.0 1099.0847457627128 3.5592205782202577 327.0 1.0 232.0 
512.00010179367 19924.0 595.0 1102.1355932203385 3.0515473769874797 327.0 1.0 233.0 
514.00010179367 19927.0 596.0 1102.130378096479 3.581096450252455 327.0 1.0 233.0 
516.00010179367 19928.0 596.0 1099.0769230769238 4.094837998410434 327.0 1.0 232.0 
518.00010179367 19931.0 596.0 1099.0612777053448 3.5967355898342057 327.0 1.0 232.0 
520.00010179367 19965.0 597.0 1096.0260756192954 3.217555672152219 326.0 3.0 229.0 
522.00010179367 19969.0 596.0 1095.9713168187752 2.3498670538249193 323.0 6.0 226.0 
524.00010179367 19984.0 597.0 1095.7653194263364 2.9470666003432586 323.0 6.0 226.0 
526.00010179367 19992.0 597.0 1092.8109517601058 3.332058670400074 323.0 6.0 225.0 
528.00010179367 20012.0 598.0 1083.7757496740558 3.138692263284234 321.0 6.0 222.0 
530.00010179367 19998.0 598.0 1083.7653194263362 2.9019812183411893 321.0 6.0 222.0 
532.00010179367 19996.0 599.0 1080.7770534550186 3.2665380808917375 323.0 6.0 221.0 
534.00010179367 19988.0 599.0 1086.7640156453722 3.41855412333459 323.0 6.0 223.0 
536.00010179367 19986.0 598.0 1086.7770534550186 3.9904883192907463 323.0 6.0 223.0 
538.00010179367 19990.0 598.0 1089.8148631029974 4.100618748099341 322.0 6.0 224.0 
540.00010179367 19989.0 598.0 1090.0365058670145 3.6970665905476263 324.0 4.0 226.0 
542.00010179367 19988.0 598.0 1093.1525423728829 2.6293841497606083 325.0 5.0 226.0 
544.00010179367 19988.0 598.0 1093.1264667535843 3.2606447942937273 325.0 5.0 226.0 
546.00010179367 19955.0 596.0 1093.1838331160352 2.548744347490836 325.0 5.0 226.0 
548.00010179367 19949.0 596.0 1093.097783572359 2.4879562763780037 325.0 5.0 226.0 
550.00010179367 19960.0 597.0 1090.0808344198185 3.099124987763897 325.0 5.0 225.0 
552.00010179367 19962.0 597.0 1087.019556714473 3.6283652643037176 325.0 5.0 224.0 
554.00010179367 19939.0 596.0 1087.0638852672757 3.7438815600785214 325.0 5.0 224.0 
556.00010179367 19916.0 596.0 1084.0547588005197 4.103457956966929 326.0 4.0 224.0 
558.00010179367 19939.0 597.0 1084.0808344198185 3.938737701093036 326.0 4.0 224.0 
560.00010179367 19972.0 598.0 1087.0664928292033 3.4438722144618352 329.0 1.0 228.0 
562.00010179367 19971.0 598.0 1087.0039113428948 2.757664097604699 323.0 6.0 223.0 
564.00010179367 19971.0 598.0 1092.9335071707967 2.3974715514406086 322.0 6.0 225.0 
566.00010179367 19975.0 598.0 1092.9100391134302 2.51381768448703 323.0 6.0 225.0 
568.00010179367 19976.0 598.0 1096.031290743156 2.8261223231605626 322.0 6.0 226.0 
570.00010179367 19928.0 597.0 1096.05475880052 3.4037477954027837 323.0 6.0 226.0 
572.00010179367 19922.0 597.0 1102.0730117340293 3.95995075909641 323.0 6.0 228.0 
574.00010179367 19934.0 598.0 1102.0599739243826 4.254660347821717 322.0 6.0 228.0 
576.00010179367 19951.0 598.0 1099.0430247718396 3.823185023473251 323.0 6.0 227.0 
578.00010179367 19956.0 598.0 1095.9869621903533 3.3415064616777683 325.0 6.0 226.0 
580.00010179367 19908.0 597.0 1096.041720990873 2.7346870609598644 325.0 6.0 226.0 
582.00010179367 19934.0 597.0 1099.1290743155168 2.78950456188148 326.0 6.0 227.0 
584.00010179367 19936.0 597.0 1105.178617992178 2.607036305150663 326.0 6.0 229.0 
586.00010179367 19954.0 597.0 1105.1968709256832 3.0103205396052632 328.0 6.0 229.0 
588.00010179367 19960.0 597.0 1105.1342894393738 3.4311530337256357 326.0 7.0 228.0 
590.00010179367 19972.0 598.0 1105.10039113429 3.30923958753153 326.0 8.0 227.0 
592.00010179367 19982.0 599.0 1102.0938722294648 3.821003299587888 326.0 8.0 226.0 
594.00010179367 19981.0 599.0 1102.1277705345492 3.9543823414082677 326.0 8.0 226.0 
596.00010179367 19984.0 599.0 1105.097783572359 3.0959401526953045 330.0 7.0 228.0 
598.00010179367 19969.0 599.0 1105.0039113428948 3.1547387096734045 331.0 6.0 229.0 
600.00010179367 19987.0 599.0 1104.9439374185124 3.637874017966678 331.0 6.0 229.0 
602.00010179367 20007.0 599.0 1098.9543676662336 3.4042333233663915 331.0 6.0 227.0 
604.00010179367 19994.0 599.0 1101.9087353324653 3.2224499856980606 331.0 5.0 229.0 
606.00010179367 19985.0 598.0 1104.9465449804443 3.0867041418268917 330.0 5.0 230.0 
608.00010179367 19992.0 599.0 1101.9191655801817 3.66561207645081 329.0 5.0 229.0 
610.00010179367 19968.0 598.0 1101.9895697522807 4.050416551576247 329.0 5.0 229.0 
612.00010179367 19945.0 597.0 1098.9752281616697 4.231268842113065 329.0 5.0 228.0 
614.00010179367 19915.0 597.0 1099.0325945241198 2.6174035754940776 330.0 6.0 227.0 
616.00010179367 19964.0 598.0 1105.0717079530648 2.776361584794036 329.0 6.0 229.0 
618.00010179367 19967.0 598.0 1105.0899608865698 2.9180624695863155 330.0 6.0 229.0 
620.00010179367 19951.0 598.0 1105.0873533246402 3.5572364018253637 331.0 6.0 229.0 
622.00010179367 19900.0 596.0 1102.0704041720983 4.007634981177751 329.0 6.0 228.0 
624.00010179367 19898.0 596.0 1102.0677966101703 4.06543203976912 328.0 6.0 228.0 
626.00010179367 19886.0 596.0 1105.1082138200788 3.515290565781041 330.0 6.0 229.0 
628.00010179367 19870.0 595.0 1105.0899608865698 3.7151401012424756 331.0 5.0 230.0 
630.00010179367 19863.0 595.0 1108.140808344199 3.181752769611456 333.0 5.0 231.0 
632.00010179367 19861.0 595.0 1108.0964797913953 2.265084169727986 332.0 4.0 232.0 
634.00010179367 19855.0 595.0 1110.980443285527 2.615248767050251 333.0 4.0 233.0 
636.00010179367 19850.0 595.0 1116.9152542372872 3.145533347097822 333.0 4.0 235.0 
638.00010179367 19817.0 594.0 1116.9517601043017 3.611817206024869 333.0 4.0 235.0 
640.00010179367 19790.0 593.0 1116.9830508474588 3.744559140669345 335.0 4.0 235.0 
642.00010179367 19793.0 593.0 1120.0469361147334 4.124164294522817 335.0 4.0 236.0 
644.00010179367 19793.0 593.0 1117.0951760104301 4.105628804902382 334.0 4.0 235.0 
646.00010179367 19796.0 593.0 1117.0378096479794 3.9506210617090467 331.0 5.0 234.0 
648.00010179367 19791.0 594.0 1116.97522816167 2.6929770962243804 332.0 5.0 234.0 
650.00010179367 19767.0 593.0 1113.9817470664939 2.642930098613039 330.0 5.0 233.0 
652.00010179367 19770.0 593.0 1114.0547588005206 2.647181810153662 330.0 5.0 233.0 
654.00010179367 19763.0 593.0 1108.044328552804 2.7845378103497107 328.0 6.0 230.0 
656.00010179367 19753.0 593.0 1108.0208604954355 3.3531508076846643 329.0 5.0 231.0 
658.00010179367 19752.0 593.0 1111.03520208605 3.7867693465095282 328.0 5.0 232.0 
660.00010179367 19742.0 593.0 1107.9608865710559 3.839004999432754 326.0 5.0 231.0 
662.00010179367 19743.0 593.0 1108.0026075619303 4.305890626025452 326.0 5.0 231.0 
664.00010179367 19740.0 593.0 1111.0091264667517 4.1503565301046805 326.0 5.0 232.0 
#####################################################################
# End of data export. Simulation finished at: 2019-03-12T14:15+0000 #
#####################################################################
