#####################################################################
# Alchemist log file - simulation started at: 2019-03-11T10:52+0000 #
#####################################################################
# seed = 4.0, bandwidth = 1333521.4321633242, accessPointCount = 531.8295896944988, baserange = 1000.0
#
# The columns have the following meaning: 
# time neighbor_count[Sum] <value>@neighbor_count[Sum] packet_size[Mean] mean_delay[Mean] crowd[Sum] overcrowded[Sum] risk[Sum] 
0.0 NaN NaN NaN NaN NaN NaN NaN 
2.0000042429967895 14498.0 11246.0 4982.424063116371 0.49040339773334757 1497.0 0.0 1497.0 
4.0000042429967895 18514.0 11653.0 4983.282051282052 0.5616022540297787 1497.0 0.0 1497.0 
6.0000042429967895 22736.0 11640.0 4984.552268244576 0.5756930109630105 1497.0 0.0 1497.0 
8.00000424299679 25227.0 11665.0 4985.927021696252 0.6004326788977428 1497.0 0.0 1497.0 
10.00000424299679 27380.0 11654.0 4987.461538461538 0.6172894304371852 1496.0 1.0 1496.0 
12.00000424299679 26520.0 11533.0 4988.142011834319 0.588182564696797 1495.0 2.0 1495.0 
14.00000424299679 25064.0 11417.0 4987.948717948718 0.5025956195588359 1494.0 3.0 1494.0 
16.000004242996788 25191.0 11419.0 4988.033530571992 0.5038500247495441 1493.0 4.0 1493.0 
18.000004242996788 25150.0 11418.0 4988.0611439842205 0.5036669787516294 1493.0 4.0 1493.0 
20.000004242996788 25164.0 11418.0 4988.157790927022 0.5028833230520565 1492.0 5.0 1492.0 
22.000004242996788 25114.0 11418.0 4987.875739644971 0.5032225925658963 1494.0 3.0 1494.0 
24.000004242996788 25078.0 11417.0 4987.826429980276 0.5024362210485503 1494.0 3.0 1494.0 
26.000004242996788 25080.0 11418.0 4987.674556213018 0.5026581874369065 1493.0 4.0 1493.0 
28.000004242996788 25073.0 11417.0 4987.992110453649 0.503354764651349 1492.0 5.0 1492.0 
30.000004242996788 25088.0 11417.0 4987.828402366864 0.5022930586974578 1491.0 6.0 1491.0 
32.00000424299679 25150.0 11419.0 4987.861932938856 0.5036894858094841 1494.0 3.0 1494.0 
34.00000424299679 25138.0 11418.0 4987.67258382643 0.5033741498808085 1494.0 3.0 1494.0 
36.00000424299679 25135.0 11418.0 4987.96449704142 0.5030068084362345 1493.0 4.0 1493.0 
38.00000424299679 25136.0 11417.0 4987.798816568047 0.5038107395957522 1491.0 6.0 1491.0 
40.00000424299679 25138.0 11418.0 4987.972386587771 0.5027542488327491 1493.0 4.0 1493.0 
42.00000424299679 25248.0 11420.0 4987.658777120316 0.5037749106311137 1494.0 3.0 1494.0 
44.00000424299679 25285.0 11420.0 4987.7692307692305 0.5039435723903514 1493.0 4.0 1493.0 
46.00000424299679 25356.0 11420.0 4987.664694280079 0.5037727273799363 1494.0 3.0 1494.0 
48.00000424299679 25357.0 11419.0 4987.869822485207 0.5040378962675085 1494.0 3.0 1494.0 
50.00000424299679 25350.0 11419.0 4987.954635108481 0.5046111790088967 1492.0 5.0 1492.0 
52.00000424299679 25340.0 11418.0 4987.822485207101 0.5022892503986732 1494.0 3.0 1494.0 
54.00000424299679 25340.0 11418.0 4987.560157790927 0.5021679937579399 1493.0 4.0 1493.0 
56.00000424299679 25346.0 11419.0 4987.820512820513 0.5034345194503123 1493.0 4.0 1493.0 
58.00000424299679 25341.0 11419.0 4987.7731755424065 0.5027384789248872 1494.0 3.0 1494.0 
60.00000424299679 25342.0 11419.0 4985.656804733728 0.5041491030310655 1494.0 3.0 1494.0 
62.00000424299679 25367.0 11420.0 1156.3984220907214 0.4996301500270526 781.0 3.0 330.0 
64.0000042429968 25336.0 11420.0 1156.2149901380617 0.504181156035835 596.0 4.0 329.0 
66.0000042429968 25303.0 11418.0 1158.3767258382609 0.5026662085125787 551.0 4.0 330.0 
68.0000042429968 25294.0 11419.0 1156.163708086787 0.503193670549518 512.0 2.0 331.0 
70.0000042429968 25302.0 11418.0 1153.6923076923047 0.5028051725085373 488.0 5.0 327.0 
72.0000042429968 25321.0 11420.0 1153.7633136094685 0.5026033833834687 481.0 7.0 325.0 
74.0000042429968 25297.0 11418.0 1153.6370808678507 0.5014215581455826 482.0 4.0 328.0 
76.0000042429968 25328.0 11420.0 1153.6351084812627 0.5022861831730365 469.0 11.0 321.0 
78.0000042429968 25365.0 11421.0 1153.5719921104487 0.5035656379777372 473.0 6.0 326.0 
80.0000042429968 25295.0 11418.0 1155.9171597633085 0.5015952397935124 463.0 13.0 320.0 
82.0000042429968 25337.0 11421.0 1158.013806706111 0.5052421048120062 467.0 8.0 326.0 
84.0000042429968 25288.0 11418.0 1158.2071005917126 0.5010421501941872 464.0 10.0 324.0 
86.0000042429968 25288.0 11418.0 1158.0966469428035 0.5010434200689494 461.0 10.0 324.0 
88.0000042429968 25294.0 11419.0 1158.126232741617 0.5021974748605675 459.0 10.0 324.0 
90.0000042429968 25308.0 11421.0 1160.329388560165 0.5030580115297298 456.0 10.0 325.0 
92.0000042429968 25286.0 11420.0 1160.4201183431912 0.5041951019475942 458.0 9.0 326.0 
94.0000042429968 25228.0 11418.0 1160.272189349114 0.5012294034081368 457.0 9.0 326.0 
96.0000042429968 25235.0 11419.0 1160.360946745567 0.5016046359188129 457.0 10.0 325.0 
98.0000042429968 25237.0 11419.0 1160.3116370808739 0.5046706515700258 457.0 9.0 326.0 
100.0000042429968 25222.0 11418.0 1162.5857988165608 0.5008802140187194 456.0 11.0 325.0 
102.0000042429968 25230.0 11419.0 1162.5818540433904 0.5020610313354379 455.0 11.0 325.0 
104.0000042429968 25235.0 11420.0 1160.3333333333353 0.5010627990869557 455.0 13.0 322.0 
106.0000042429968 25263.0 11419.0 1158.009861932932 0.5016657164807478 458.0 9.0 325.0 
108.0000042429968 25264.0 11420.0 1158.0808678500944 0.5019100471435762 454.0 13.0 321.0 
110.0000042429968 25262.0 11420.0 1158.0276134122225 0.5015826892446215 455.0 12.0 322.0 
112.0000042429968 25258.0 11420.0 1158.007889546359 0.5028466634629783 457.0 11.0 323.0 
114.0000042429968 25236.0 11419.0 1158.011834319529 0.5012912317733457 457.0 10.0 324.0 
116.0000042429968 25350.0 11422.0 1158.04733727811 0.5037951801519021 457.0 11.0 323.0 
118.0000042429968 25316.0 11423.0 1164.8126232741604 0.504393113975217 458.0 10.0 327.0 
120.0000042429968 25262.0 11421.0 1167.1775147929072 0.5035649364349872 459.0 11.0 327.0 
122.0000042429968 25252.0 11420.0 1167.1183431952736 0.5024784371060943 459.0 9.0 329.0 
124.0000042429968 25242.0 11419.0 1167.0414201183426 0.5012188389408813 458.0 11.0 327.0 
126.0000042429968 25257.0 11419.0 1162.6173570019716 0.5012231448756806 459.0 9.0 327.0 
128.0000042429968 25293.0 11421.0 1162.637080867851 0.5030891797371507 457.0 11.0 325.0 
130.0000042429968 25281.0 11420.0 1160.3116370808739 0.5016802607536059 457.0 9.0 326.0 
132.0000042429968 25290.0 11421.0 1160.4280078895513 0.5027770411169938 455.0 11.0 324.0 
134.0000042429968 25322.0 11421.0 1157.9940828402382 0.5026854626112358 457.0 9.0 325.0 
136.0000042429968 25334.0 11420.0 1158.1341222879666 0.5023997024398038 457.0 10.0 324.0 
138.0000042429968 25338.0 11421.0 1160.2781065088748 0.5024881835813995 457.0 9.0 326.0 
140.0000042429968 25398.0 11423.0 1158.1499013806754 0.5066399978656333 456.0 10.0 324.0 
142.0000042429968 25318.0 11421.0 1162.5266272189365 0.5039927325008083 456.0 10.0 326.0 
144.0000042429968 25236.0 11419.0 1167.248520710061 0.5017776758284344 456.0 12.0 326.0 
146.0000042429968 25236.0 11419.0 1167.1459566074964 0.5017619752180298 457.0 13.0 325.0 
148.0000042429968 25236.0 11419.0 1167.1499013806754 0.501763961312216 457.0 13.0 325.0 
150.0000042429968 25236.0 11419.0 1167.1459566074964 0.5017635209261014 458.0 10.0 328.0 
152.0000042429968 25248.0 11420.0 1164.962524654836 0.5034387022447485 457.0 10.0 327.0 
154.0000042429968 25238.0 11419.0 1160.3234714003888 0.5019715704680665 455.0 10.0 325.0 
156.0000042429968 25341.0 11421.0 1158.1459566074964 0.50347114217712 453.0 11.0 323.0 
158.0000042429968 25276.0 11422.0 1155.7909270216905 0.504363698660209 454.0 9.0 324.0 
160.0000042429968 25250.0 11420.0 1155.8106508875783 0.5026649306657384 454.0 9.0 324.0 
162.0000042429968 25165.0 11420.0 1158.069033530566 0.503412402801812 453.0 10.0 324.0 
164.0000042429968 25155.0 11419.0 1158.1104536489145 0.5026022660024497 450.0 11.0 323.0 
166.0000042429968 25188.0 11421.0 1158.0138067061112 0.5037647580622977 451.0 9.0 325.0 
168.0000042429968 25037.0 11423.0 1158.1360946745492 0.5052051991422725 450.0 10.0 324.0 
170.0000042429968 24986.0 11419.0 1158.1065088757443 0.501827019426437 453.0 8.0 326.0 
172.0000042429968 24986.0 11419.0 1158.0729783037448 0.5017777463070955 450.0 11.0 323.0 
174.0000042429968 24988.0 11419.0 1153.506903353063 0.5017359747652049 447.0 12.0 320.0 
176.0000042429968 24989.0 11420.0 1155.82445759369 0.5024479203072586 447.0 13.0 320.0 
178.0000042429968 24981.0 11419.0 1153.4240631163714 0.5026967797574312 446.0 14.0 318.0 
180.0000042429968 25110.0 11423.0 1151.2583826430027 0.5048336129935652 446.0 15.0 316.0 
182.0000042429968 25075.0 11421.0 1151.2110453648916 0.5042769925968016 444.0 14.0 317.0 
184.0000042429968 25063.0 11420.0 1151.1518737672575 0.5043118451806752 444.0 14.0 317.0 
186.0000042429968 25061.0 11420.0 1153.414201183439 0.5029535889924753 442.0 14.0 318.0 
188.0000042429968 25149.0 11422.0 1151.1972386587713 0.5044390357523505 443.0 14.0 317.0 
190.0000042429968 25149.0 11421.0 1148.8422090729805 0.5023986117302476 443.0 14.0 316.0 
192.0000042429968 25149.0 11421.0 1151.2071005917126 0.5054138618880336 442.0 14.0 317.0 
194.0000042429968 25107.0 11420.0 1153.4082840236629 0.5039374713260732 442.0 14.0 318.0 
196.0000042429968 25165.0 11421.0 1153.4161735700125 0.5028923257457456 442.0 14.0 318.0 
198.0000042429968 25086.0 11421.0 1153.4181459566096 0.5028026161438651 442.0 14.0 318.0 
200.0000042429968 25078.0 11420.0 1153.5069033530629 0.5021246856204999 443.0 15.0 317.0 
202.0000042429968 25123.0 11420.0 1153.447731755423 0.5025803365041441 443.0 15.0 317.0 
204.0000042429968 25139.0 11420.0 1158.0986193293852 0.504194617928977 439.0 15.0 319.0 
206.0000042429968 25046.0 11420.0 1155.7573964497067 0.5035979573690055 435.0 15.0 318.0 
208.0000042429968 24999.0 11421.0 1153.465483234714 0.5019205936690551 435.0 15.0 317.0 
210.0000042429968 25031.0 11422.0 1153.4497041420118 0.5048563539900067 434.0 15.0 317.0 
212.0000042429968 24906.0 11420.0 1155.7751479289977 0.5029861779472603 438.0 15.0 318.0 
214.0000042429968 24866.0 11419.0 1155.58185404339 0.501373612074467 438.0 15.0 318.0 
216.0000042429968 24910.0 11420.0 1155.7179487179544 0.5021980765854838 439.0 15.0 318.0 
218.0000042429968 24982.0 11421.0 1155.698224852067 0.5045279703570428 438.0 15.0 318.0 
220.0000042429968 24887.0 11421.0 1155.6824457593727 0.5047080457689166 439.0 15.0 318.0 
222.0000042429968 24836.0 11419.0 1151.2051282051302 0.5024996508513097 438.0 15.0 316.0 
224.0000042429968 24812.0 11418.0 1146.6962524654848 0.5012831376319122 437.0 15.0 314.0 
226.0000042429968 24817.0 11418.0 1148.8560157790928 0.501541038829111 436.0 15.0 315.0 
228.0000042429968 24820.0 11418.0 1151.2307692307709 0.5014628826503457 436.0 15.0 316.0 
230.0000042429968 24830.0 11419.0 1151.189349112422 0.501342911804723 437.0 15.0 316.0 
232.0000042429968 24828.0 11418.0 1151.209072978309 0.5011551872385269 434.0 15.0 316.0 
234.0000042429968 24951.0 11421.0 1155.6883629191263 0.5047322378205468 436.0 15.0 318.0 
236.0000042429968 24900.0 11420.0 1151.2110453648913 0.5032410422881703 435.0 15.0 316.0 
238.0000042429968 24777.0 11420.0 1151.0374753451642 0.5026649968228772 435.0 15.0 316.0 
240.0000042429968 24811.0 11423.0 1153.4792899408253 0.5038788639061852 436.0 15.0 317.0 
242.0000042429968 24715.0 11419.0 1151.1617357001899 0.5026870186933666 435.0 15.0 316.0 
244.0000042429968 24685.0 11420.0 1151.1005917159823 0.5010423034858119 434.0 15.0 316.0 
246.0000042429968 24732.0 11421.0 1151.074950690342 0.5025086978219763 434.0 15.0 316.0 
248.0000042429968 24794.0 11423.0 1151.1735700197285 0.5040036639205101 433.0 15.0 316.0 
250.0000042429968 24753.0 11421.0 1153.3688362919158 0.5022144880181152 434.0 15.0 317.0 
252.0000042429968 24764.0 11422.0 1151.2623274161813 0.5030624021952942 434.0 15.0 316.0 
254.0000042429968 24757.0 11420.0 1146.5719921104487 0.5028314559128892 434.0 15.0 314.0 
256.0000042429968 24797.0 11421.0 1146.6055226824492 0.5038388167425087 437.0 15.0 314.0 
258.0000042429968 24780.0 11422.0 1148.8224852070928 0.5013947421375566 434.0 16.0 314.0 
260.0000042429968 24822.0 11423.0 1148.8954635108523 0.5023955146967963 436.0 16.0 314.0 
262.0000042429968 24860.0 11424.0 1148.810650887578 0.5069072445769516 438.0 16.0 314.0 
264.0000042429968 24727.0 11421.0 1155.7100591715953 0.5021578710078219 440.0 14.0 319.0 
266.0000042429968 24777.0 11423.0 1151.1143984220935 0.5052231890884222 440.0 16.0 315.0 
268.0000042429968 24624.0 11419.0 1151.1597633136164 0.5010451302039189 439.0 15.0 316.0 
270.0000042429968 24639.0 11421.0 1148.8579881656747 0.5031426718022928 440.0 15.0 315.0 
272.0000042429968 24624.0 11420.0 1144.3944773175508 0.5029952111139984 439.0 14.0 314.0 
274.0000042429968 24616.0 11420.0 1144.2781065088745 0.5014982343912524 439.0 15.0 313.0 
276.0000042429968 24651.0 11421.0 1144.4201183431912 0.5027758628455216 440.0 14.0 314.0 
278.0000042429968 24634.0 11419.0 1146.5601577909206 0.5013161120869332 440.0 15.0 314.0 
280.0000042429968 24656.0 11421.0 1146.5798816568088 0.502759012194216 442.0 14.0 315.0 
282.0000042429968 24693.0 11420.0 1146.5739644970467 0.5050339069163794 442.0 16.0 313.0 
284.0000042429968 24594.0 11420.0 1144.3412228796794 0.5027557708963272 440.0 16.0 312.0 
286.0000042429968 24665.0 11423.0 1144.3116370808739 0.504040756652741 440.0 16.0 312.0 
288.0000042429968 24689.0 11425.0 1144.3964497041482 0.5084505937678329 442.0 14.0 314.0 
290.0000042429968 24474.0 11421.0 1144.3274161735678 0.5023142274668145 442.0 15.0 313.0 
292.0000042429968 24472.0 11420.0 1144.394477317551 0.5017479055695557 442.0 14.0 314.0 
294.0000042429968 24487.0 11422.0 1146.5779092702116 0.5032904167144675 441.0 15.0 314.0 
296.0000042429968 24477.0 11422.0 1153.4773175542437 0.5038318770869066 440.0 14.0 318.0 
298.0000042429968 24468.0 11423.0 1155.6469428007922 0.5053932921586404 440.0 15.0 318.0 
300.0000042429968 24410.0 11420.0 1155.7396449704156 0.5018225780171393 440.0 14.0 319.0 
302.0000042429968 24462.0 11421.0 1153.360946745567 0.5028175403770994 440.0 15.0 317.0 
304.0000042429968 24387.0 11421.0 1155.7001972386638 0.5021402444991859 440.0 14.0 319.0 
306.0000042429968 24405.0 11422.0 1157.9250493096579 0.5045204072132795 442.0 15.0 319.0 
308.0000042429968 24348.0 11420.0 1160.2642998027547 0.5014342227313503 442.0 14.0 321.0 
310.0000042429968 24362.0 11422.0 1160.126232741617 0.5049398814517818 442.0 15.0 320.0 
312.0000042429968 24332.0 11421.0 1164.8678500986155 0.502414536260601 443.0 14.0 323.0 
314.0000042429968 24305.0 11421.0 1164.7534516765359 0.502690107699109 443.0 15.0 322.0 
316.0000042429968 24354.0 11422.0 1164.7889546351084 0.5023971068427355 443.0 14.0 323.0 
318.0000042429968 24369.0 11422.0 1162.5424063116445 0.5043565722269268 442.0 15.0 321.0 
320.0000042429968 24401.0 11425.0 1155.7120315581794 0.5052828799341131 438.0 14.0 319.0 
322.0000042429968 24370.0 11420.0 1148.893491124256 0.5036096808110563 438.0 15.0 315.0 
324.0000042429968 24444.0 11422.0 1148.930966469434 0.5043031096565523 438.0 14.0 316.0 
326.0000042429968 24397.0 11422.0 1148.9171597633085 0.5022858319017519 435.0 15.0 315.0 
328.0000042429968 24371.0 11420.0 1148.913214990143 0.5024008160471856 434.0 14.0 316.0 
330.0000042429968 24408.0 11421.0 1144.3984220907212 0.5043792443074673 431.0 15.0 313.0 
332.0000042429968 24444.0 11422.0 1146.8106508875783 0.5049223306770493 430.0 14.0 315.0 
334.0000042429968 24399.0 11420.0 1146.5897435897398 0.5022383951277385 431.0 15.0 314.0 
336.0000042429968 24436.0 11421.0 1139.9506903353079 0.5032850252523058 431.0 14.0 312.0 
338.0000042429968 24388.0 11420.0 1139.8145956607436 0.5041959599585285 431.0 15.0 311.0 
340.0000042429968 24453.0 11421.0 1142.1577909270195 0.5048449126149221 431.0 14.0 313.0 
342.0000042429968 24452.0 11420.0 1148.966469428001 0.5048706608107429 436.0 15.0 315.0 
344.0000042429968 24437.0 11421.0 1153.5207100591751 0.5042757584642132 442.0 14.0 318.0 
346.0000042429968 24412.0 11421.0 1153.4773175542439 0.502713310279674 441.0 15.0 317.0 
348.0000042429968 24411.0 11423.0 1153.5404339250467 0.5019818380186081 441.0 14.0 318.0 
350.0000042429968 24481.0 11425.0 1153.4773175542439 0.5081205510438617 443.0 15.0 317.0 
352.0000042429968 24312.0 11421.0 1153.5088757396456 0.5027430632713414 445.0 14.0 318.0 
354.0000042429968 24282.0 11421.0 1148.9171597633085 0.5023907274378466 445.0 15.0 315.0 
356.0000042429968 24273.0 11421.0 1148.938856015778 0.5034966108991864 444.0 14.0 316.0 
358.0000042429968 24307.0 11421.0 1148.8915187376736 0.5033014388146951 443.0 15.0 315.0 
360.0000042429968 24317.0 11422.0 1148.9585798816568 0.5029283984500741 445.0 14.0 316.0 
362.0000042429968 24242.0 11421.0 1148.932938856017 0.5029470333080966 446.0 15.0 315.0 
364.0000042429968 24234.0 11422.0 1148.8895463510858 0.502733296153144 445.0 14.0 316.0 
366.0000042429968 24238.0 11422.0 1137.5897435897396 0.5023501784575767 442.0 15.0 310.0 
368.0000042429968 24248.0 11422.0 1137.6094674556277 0.5027373239876698 442.0 14.0 311.0 
370.0000042429968 24204.0 11421.0 1135.222879684421 0.5016510716061475 443.0 15.0 309.0 
372.0000042429968 24220.0 11422.0 1139.893491124256 0.5041819247254303 447.0 14.0 312.0 
374.0000042429968 24186.0 11423.0 1135.2169625246593 0.5019718510419526 446.0 15.0 309.0 
376.0000042429968 24265.0 11424.0 1137.5226824457561 0.5050010842723534 447.0 14.0 311.0 
378.0000042429968 24146.0 11423.0 1135.2662721893525 0.5025995931501374 448.0 15.0 309.0 
380.0000042429968 24135.0 11424.0 1137.5226824457561 0.5054533835030216 449.0 15.0 310.0 
382.0000042429968 24108.0 11422.0 1137.489151873773 0.5039167682173813 448.0 16.0 309.0 
384.0000042429968 24095.0 11422.0 1137.4911242603544 0.5020174909631746 447.0 15.0 310.0 
386.0000042429968 24266.0 11423.0 1142.0552268244533 0.5073377863967201 446.0 16.0 311.0 
388.0000042429968 24130.0 11421.0 1142.0591715976323 0.5025544137704034 444.0 15.0 312.0 
390.0000042429968 24164.0 11423.0 1137.5128205128246 0.5025045760900513 444.0 15.0 310.0 
392.0000042429968 24168.0 11424.0 1139.8560157790928 0.5076089015175813 446.0 14.0 312.0 
394.0000042429968 24069.0 11421.0 1139.7455621301772 0.5022009890947413 448.0 15.0 311.0 
396.0000042429968 24051.0 11421.0 1142.1341222879666 0.5029900192364503 447.0 15.0 312.0 
398.0000042429968 24030.0 11421.0 1139.719921104537 0.5020299760248828 450.0 15.0 311.0 
400.0000042429968 24053.0 11422.0 1135.2386587771136 0.5037100495525014 447.0 13.0 311.0 
402.0000042429968 24054.0 11424.0 1139.7850098619383 0.5057248973878624 446.0 15.0 311.0 
404.0000042429968 23967.0 11421.0 1139.8086785009814 0.5020494533209292 441.0 20.0 306.0 
406.0000042429968 24027.0 11421.0 1139.7928994082883 0.5043779866375313 441.0 22.0 304.0 
408.0000042429968 24044.0 11425.0 1139.8639053254512 0.5063531856931579 443.0 21.0 305.0 
410.0000042429968 23940.0 11422.0 1135.280078895464 0.502941700402521 442.0 22.0 302.0 
412.0000042429968 23953.0 11425.0 1142.1222879684374 0.5076876469564437 440.0 20.0 307.0 
414.0000042429968 23853.0 11422.0 1144.372781065097 0.504603116991341 450.0 14.0 314.0 
416.0000042429968 23846.0 11421.0 1139.8698224852124 0.5029948764053623 450.0 13.0 313.0 
418.0000042429968 23924.0 11422.0 1139.7278106508859 0.503861504724858 450.0 14.0 312.0 
420.0000042429968 23929.0 11423.0 1139.8856015779054 0.5055076545396125 448.0 13.0 313.0 
422.0000042429968 23962.0 11424.0 1142.0710059171631 0.5068108189709765 446.0 14.0 313.0 
424.0000042429968 23900.0 11421.0 1142.0710059171631 0.5030395917358367 445.0 13.0 314.0 
426.0000042429968 23947.0 11422.0 1139.786982248519 0.5038786506561104 443.0 14.0 312.0 
428.0000042429968 23938.0 11422.0 1146.60552268245 0.5022928451263505 444.0 13.0 316.0 
430.0000042429968 24028.0 11423.0 1142.0473372781114 0.5034750479144258 449.0 14.0 313.0 
432.0000042429968 23964.0 11421.0 1139.8717948717936 0.5022097290117138 449.0 13.0 313.0 
434.0000042429968 23999.0 11422.0 1144.347140039456 0.5028269831827286 451.0 14.0 314.0 
436.0000042429968 24111.0 11426.0 1148.9092702169648 0.5089234834649028 453.0 14.0 316.0 
438.0000042429968 24002.0 11423.0 1151.2426035502929 0.5029448490002215 453.0 15.0 316.0 
440.0000042429968 24100.0 11425.0 1151.1755424063094 0.5082714491767211 457.0 14.0 317.0 
442.0000042429968 24018.0 11422.0 1148.8717948717936 0.5065543903590757 459.0 14.0 316.0 
444.0000042429968 23950.0 11422.0 1148.958579881658 0.5023596134087581 458.0 14.0 316.0 
446.0000042429968 23964.0 11424.0 1144.3550295858056 0.5034522747065552 457.0 16.0 312.0 
448.0000042429968 23953.0 11423.0 1155.704142011835 0.5040867536153113 455.0 15.0 318.0 
450.0000042429968 24036.0 11426.0 1158.0453648915136 0.5064808027648361 457.0 16.0 318.0 
452.0000042429968 24097.0 11428.0 1164.9112426035458 0.5095913673105316 457.0 16.0 321.0 
454.0000042429968 23973.0 11425.0 1164.8145956607427 0.5053400162068847 454.0 18.0 319.0 
456.0000042429968 23975.0 11425.0 1167.149901380676 0.5049675709161482 453.0 15.0 323.0 
458.0000042429968 23954.0 11424.0 1167.090729783035 0.5050090725160982 453.0 16.0 322.0 
460.0000042429968 23889.0 11423.0 1164.8086785009816 0.5031300683594148 452.0 16.0 321.0 
462.0000042429968 23916.0 11424.0 1160.2879684418212 0.504680347180206 449.0 17.0 318.0 
464.0000042429968 23894.0 11423.0 1160.347140039456 0.502665710567511 448.0 16.0 319.0 
466.0000042429968 23893.0 11423.0 1160.2011834319503 0.5036127023086433 449.0 17.0 318.0 
468.0000042429968 23940.0 11425.0 1160.3214990138058 0.5063154561900582 448.0 16.0 319.0 
470.0000042429968 23825.0 11423.0 1160.2189349112407 0.5052227840207082 450.0 16.0 319.0 
472.0000042429968 23814.0 11423.0 1157.980276134128 0.5034812642175202 451.0 14.0 320.0 
474.0000042429968 23820.0 11425.0 1153.404339250499 0.5051695920585959 447.0 16.0 316.0 
476.0000042429968 23798.0 11423.0 1144.463510848132 0.50403600249582 443.0 15.0 313.0 
478.0000042429968 23788.0 11423.0 1144.2524654832407 0.5031876214019866 444.0 16.0 312.0 
480.0000042429968 23782.0 11422.0 1146.6982248520665 0.5022148462974326 443.0 15.0 314.0 
482.0000042429968 23867.0 11426.0 1148.9072978303668 0.5081430487775792 447.0 16.0 314.0 
484.0000042429968 23744.0 11423.0 1148.9368836291958 0.5055016351270141 446.0 14.0 316.0 
486.0000042429968 23763.0 11424.0 1142.0848126232743 0.5057925116338586 445.0 15.0 312.0 
488.0000042429968 23719.0 11422.0 1139.9112426035458 0.5026381681002441 445.0 14.0 312.0 
490.0000042429968 23743.0 11424.0 1128.4477317554226 0.5073888249585758 446.0 15.0 306.0 
492.0000042429968 23715.0 11424.0 1130.8500986193242 0.5044829785040742 442.0 15.0 307.0 
494.0000042429968 23758.0 11424.0 1132.9349112425984 0.5057748240412305 441.0 16.0 307.0 
496.0000042429968 23748.0 11426.0 1132.9743589743591 0.5059963967063064 438.0 15.0 308.0 
498.0000042429968 23709.0 11425.0 1128.414201183439 0.5040012992679468 438.0 16.0 305.0 
500.0000042429968 23746.0 11424.0 1126.2149901380617 0.5049238637418821 441.0 15.0 305.0 
502.0000042429968 23678.0 11424.0 1123.8067061143995 0.504080592244356 442.0 15.0 304.0 
504.0000042429968 23676.0 11423.0 1121.6548323471413 0.5046868472589205 442.0 14.0 304.0 
506.0000042429968 23731.0 11425.0 1121.5739644970463 0.5044970750887885 440.0 15.0 303.0 
508.0000042429968 23702.0 11426.0 1119.3589743589705 0.5068006326911967 438.0 14.0 303.0 
510.0000042429968 23728.0 11425.0 1121.6489151873743 0.5051228548089536 439.0 15.0 303.0 
512.0000042429967 23682.0 11423.0 1121.749506903357 0.5012732343946387 437.0 16.0 302.0 
514.0000042429967 23703.0 11426.0 1121.6015779092786 0.5035618752538416 438.0 16.0 302.0 
516.0000042429967 23786.0 11426.0 1121.7159763313584 0.5061582154195998 439.0 14.0 304.0 
518.0000042429967 23773.0 11425.0 1112.6232741617384 0.5046533484951267 439.0 16.0 298.0 
520.0000042429967 23755.0 11426.0 1112.5167652860046 0.5024383364932293 437.0 15.0 299.0 
522.0000042429967 23782.0 11426.0 1117.1262327416175 0.5058967946352795 438.0 16.0 300.0 
524.0000042429967 23755.0 11425.0 1119.40631163708 0.5031723367122485 441.0 15.0 302.0 
526.0000042429967 23738.0 11424.0 1107.988165680471 0.5058572399172105 440.0 15.0 297.0 
528.0000042429967 23694.0 11423.0 1103.552268244577 0.5017424573029955 437.0 15.0 295.0 
530.0000042429967 23769.0 11427.0 1101.1873767258396 0.5046366440891545 437.0 15.0 294.0 
532.0000042429967 23665.0 11426.0 1112.609467455628 0.5052143132949218 438.0 16.0 298.0 
534.0000042429967 23651.0 11425.0 1114.8303747534515 0.5062075056211719 435.0 16.0 299.0 
536.0000042429967 23674.0 11423.0 1112.5641025640991 0.5034440155312138 439.0 15.0 299.0 
538.0000042429967 23674.0 11422.0 1117.017751479291 0.5039355910491937 438.0 16.0 300.0 
540.0000042429967 23707.0 11426.0 1123.9309664694342 0.5061450771243823 441.0 15.0 304.0 
542.0000042429967 23678.0 11423.0 1128.4871794871754 0.5051621755853101 441.0 16.0 305.0 
544.0000042429967 23654.0 11421.0 1133.015779092709 0.5022192997110405 441.0 19.0 304.0 
546.0000042429967 23665.0 11423.0 1130.6291913215018 0.5035156590346045 443.0 18.0 304.0 
548.0000042429967 23673.0 11423.0 1130.7080867850138 0.5045286021171721 442.0 16.0 306.0 
550.0000042429967 23643.0 11422.0 1126.0828402366924 0.5022088451927208 441.0 16.0 304.0 
552.0000042429967 23675.0 11425.0 1126.2603550295837 0.5061963850823505 436.0 17.0 303.0 
554.0000042429967 23635.0 11423.0 1126.1321499013852 0.5041464749041591 434.0 19.0 301.0 
556.0000042429967 23677.0 11425.0 1128.4654832347132 0.504588126047212 436.0 19.0 302.0 
558.0000042429967 23676.0 11423.0 1128.465483234713 0.5044923555670819 436.0 20.0 301.0 
560.0000042429967 23685.0 11424.0 1121.686390532553 0.5050976412098195 430.0 22.0 296.0 
562.0000042429967 23730.0 11424.0 1121.5956607495007 0.5097477119721721 436.0 20.0 298.0 
564.0000042429967 23634.0 11421.0 1121.6942800789036 0.5037205687515026 437.0 19.0 299.0 
566.0000042429967 23628.0 11422.0 1121.6449704141935 0.5034445135474301 437.0 21.0 297.0 
568.0000042429967 23606.0 11422.0 1135.2564102564045 0.5032759320937531 434.0 24.0 300.0 
570.0000042429967 23632.0 11421.0 1135.2623274161817 0.5048495350382962 436.0 19.0 305.0 
572.0000042429967 23576.0 11423.0 1133.015779092709 0.5048463708125022 432.0 22.0 301.0 
574.0000042429967 23612.0 11424.0 1132.905325443794 0.5071748433755235 431.0 20.0 303.0 
576.0000042429967 23600.0 11424.0 1135.2958579881654 0.5086552066866273 431.0 20.0 304.0 
578.0000042429967 23492.0 11420.0 1135.2149901380617 0.5022828133523256 431.0 20.0 304.0 
580.0000042429967 23582.0 11422.0 1139.7731755424002 0.5032604555211984 433.0 20.0 306.0 
582.0000042429967 23632.0 11422.0 1144.3451676528582 0.504310040504286 443.0 19.0 309.0 
584.0000042429967 23597.0 11422.0 1146.56015779092 0.5037845400099522 442.0 19.0 310.0 
586.0000042429967 23640.0 11423.0 1146.5483234714063 0.5051317846725082 449.0 19.0 310.0 
588.0000042429967 23642.0 11421.0 1146.6351084812623 0.5035626233610261 452.0 19.0 310.0 
590.0000042429967 23609.0 11423.0 1144.3214990138058 0.5053194936299252 451.0 19.0 309.0 
592.0000042429967 23653.0 11424.0 1146.573964497047 0.505491067366686 451.0 19.0 310.0 
594.0000042429967 23619.0 11423.0 1146.5759368836286 0.5018247635845134 451.0 19.0 310.0 
596.0000042429967 23656.0 11421.0 1146.524654832354 0.5027931360139529 453.0 19.0 310.0 
598.0000042429967 23611.0 11420.0 1146.475345167646 0.5012598237447471 451.0 19.0 310.0 
600.0000042429967 23619.0 11421.0 1144.325443786986 0.5022096947540067 454.0 19.0 309.0 
602.0000042429967 23611.0 11420.0 1151.0690335305655 0.5015003501405685 459.0 19.0 312.0 
604.0000042429967 23640.0 11422.0 1146.5483234714063 0.501215035912521 458.0 19.0 310.0 
606.0000042429967 23731.0 11424.0 1144.2583826430027 0.5067054891788847 458.0 19.0 309.0 
608.0000042429967 23633.0 11421.0 1148.7909270216905 0.5021911035019199 455.0 20.0 310.0 
610.0000042429967 23654.0 11421.0 1155.5779092702107 0.5022379599010329 453.0 21.0 312.0 
612.0000042429967 23637.0 11421.0 1153.4457593688412 0.5021632564251834 455.0 19.0 313.0 
614.0000042429967 23660.0 11421.0 1151.1400394477278 0.5026770644495188 456.0 19.0 312.0 
616.0000042429967 23682.0 11422.0 1151.0650887574018 0.5037800117860404 457.0 19.0 312.0 
618.0000042429967 23633.0 11423.0 1148.8106508875787 0.5022637378281256 456.0 19.0 311.0 
620.0000042429967 23684.0 11421.0 1155.6844181459549 0.5032106093553074 455.0 19.0 314.0 
622.0000042429967 23782.0 11423.0 1166.8994082840168 0.5051343532684865 456.0 19.0 319.0 
624.0000042429967 23745.0 11420.0 1162.4260355029526 0.502230236613305 451.0 19.0 317.0 
626.0000042429967 23736.0 11421.0 1162.433925049303 0.5025358678182104 450.0 19.0 317.0 
628.0000042429967 23783.0 11421.0 1162.3648915187382 0.5017816631727482 452.0 19.0 317.0 
630.0000042429967 23796.0 11420.0 1160.0710059171631 0.5013713718600616 452.0 19.0 316.0 
632.0000042429967 23834.0 11421.0 1157.8678500986148 0.5032129850628755 450.0 19.0 315.0 
634.0000042429967 23923.0 11426.0 1155.595660749501 0.5033771012155067 451.0 20.0 313.0 
636.0000042429967 24029.0 11425.0 1162.4970414201155 0.5072891908459161 454.0 20.0 316.0 
638.0000042429967 23869.0 11420.0 1157.9526627218893 0.501429464285818 458.0 19.0 315.0 
640.0000042429967 23893.0 11418.0 1157.8737672583836 0.5010174444502281 455.0 19.0 315.0 
642.0000042429967 23905.0 11420.0 1162.5463510848087 0.5031213405348404 456.0 19.0 317.0 
644.0000042429967 23874.0 11419.0 1153.3629191321486 0.5001108025249121 452.0 19.0 313.0 
646.0000042429967 23916.0 11420.0 1155.7061143984165 0.501393837261103 448.0 19.0 314.0 
648.0000042429967 23888.0 11420.0 1158.01183431953 0.5001828965113141 447.0 19.0 315.0 
650.0000042429967 23888.0 11421.0 1155.6804733727756 0.5000973059781757 445.0 19.0 314.0 
652.0000042429967 23932.0 11422.0 1160.1775147929075 0.5042018124508086 447.0 19.0 316.0 
654.0000042429967 23880.0 11420.0 1157.9684418145982 0.5020437925218939 446.0 19.0 315.0 
656.0000042429967 23875.0 11422.0 1169.311637080874 0.504256865971066 444.0 19.0 320.0 
658.0000042429967 23896.0 11423.0 1178.3412228796778 0.5027210345319789 445.0 19.0 324.0 
660.0000042429967 23900.0 11422.0 1178.40631163708 0.5040687402590301 444.0 19.0 324.0 
662.0000042429967 23838.0 11420.0 1178.3944773175494 0.5038942356805748 444.0 19.0 324.0 
664.0000042429967 23804.0 11422.0 1176.0552268244528 0.5014408709141904 443.0 19.0 323.0 
#####################################################################
# End of data export. Simulation finished at: 2019-03-11T11:14+0000 #
#####################################################################
