#####################################################################
# Alchemist log file - simulation started at: 2019-03-08T02:57+0000 #
#####################################################################
# seed = 7.0, bandwidth = 74989.42093324558, accessPointCount = 141.4213562373095, baserange = 100.0
#
# The columns have the following meaning: 
# time neighbor_count[Sum] <value>@neighbor_count[Sum] packet_size[Mean] mean_delay[Mean] crowd[Sum] overcrowded[Sum] risk[Sum] 
0.0 NaN NaN NaN NaN NaN NaN NaN 
2.0000911767724983 208.0 95.0 4986.253968253968 0.44164060198675076 1497.0 0.0 1497.0 
4.000091176772498 347.0 108.0 4986.998778998779 0.4711314784162296 1497.0 0.0 1497.0 
6.000091176772498 491.0 108.0 4986.778998778998 0.48329251834097947 1497.0 0.0 1497.0 
8.000091176772498 541.0 108.0 4986.989010989011 0.4862599565635657 1497.0 0.0 1497.0 
10.000091176772498 574.0 108.0 4986.8351648351645 0.4919575760808776 1497.0 0.0 1497.0 
12.000091176772498 576.0 108.0 4986.886446886447 0.4918943667464555 1497.0 0.0 1497.0 
14.000091176772498 576.0 108.0 4986.7667887667885 0.4919672565249127 1497.0 0.0 1497.0 
16.0000911767725 576.0 108.0 4986.891330891331 0.4919042377938447 1496.0 1.0 1496.0 
18.0000911767725 576.0 108.0 4986.673992673993 0.49199693948366474 1493.0 4.0 1493.0 
20.0000911767725 576.0 108.0 4986.84249084249 0.49209352450512817 1497.0 0.0 1497.0 
22.0000911767725 576.0 108.0 4986.686202686203 0.4920268138952803 1497.0 0.0 1497.0 
24.0000911767725 576.0 108.0 4986.781440781441 0.49213884061830043 1497.0 0.0 1497.0 
26.0000911767725 576.0 108.0 4986.757020757021 0.4920771048101434 1497.0 0.0 1497.0 
28.0000911767725 576.0 108.0 4986.786324786325 0.49206049070804236 1497.0 0.0 1497.0 
30.0000911767725 576.0 108.0 4986.717948717948 0.4920999169288647 1497.0 0.0 1497.0 
32.0000911767725 576.0 108.0 4986.781440781441 0.49212518424152296 1497.0 0.0 1497.0 
34.0000911767725 576.0 108.0 4986.742368742369 0.49203880889638546 1497.0 0.0 1497.0 
36.0000911767725 576.0 108.0 4986.7692307692305 0.492083710162127 1497.0 0.0 1497.0 
38.0000911767725 576.0 108.0 4986.693528693529 0.4921198446296755 1497.0 0.0 1497.0 
40.0000911767725 576.0 108.0 4986.815628815629 0.49207741966937 1497.0 0.0 1497.0 
42.0000911767725 576.0 108.0 4986.676434676435 0.49212511710781925 1497.0 0.0 1497.0 
44.0000911767725 576.0 108.0 4986.7667887667885 0.49209181084719555 1497.0 0.0 1497.0 
46.0000911767725 576.0 108.0 4986.727716727717 0.49209306242665435 1497.0 0.0 1497.0 
48.0000911767725 576.0 108.0 4986.757020757021 0.49212385792994784 1497.0 0.0 1497.0 
50.0000911767725 576.0 108.0 4986.710622710622 0.4920995704239752 1497.0 0.0 1497.0 
52.0000911767725 578.0 109.0 4986.761904761905 0.49129028986187095 1497.0 0.0 1497.0 
54.0000911767725 578.0 109.0 4986.6984126984125 0.49131958547587096 1497.0 0.0 1497.0 
56.0000911767725 578.0 109.0 4986.796092796093 0.49128910869665693 1497.0 0.0 1497.0 
58.0000911767725 580.0 110.0 4986.688644688645 0.49049339217935944 1497.0 0.0 1497.0 
60.0000911767725 580.0 110.0 4986.803418803419 0.4905608835447834 1497.0 0.0 1497.0 
62.00038832547422 580.0 110.0 481.48962148962136 0.48403511293857004 81.0 1.0 28.0 
64.00038832547422 580.0 110.0 481.48717948717933 0.4950434090393184 50.0 9.0 20.0 
66.00029741811947 580.0 110.0 481.45543345543325 0.49516171163268696 44.0 9.0 20.0 
68.00038832547422 580.0 110.0 481.4285714285717 0.49517553915694296 38.0 9.0 20.0 
70.00038832547422 580.0 110.0 481.44078144078105 0.49521148416707844 36.0 9.0 20.0 
72.00038832547422 584.0 111.0 481.4188034188036 0.49351194769001466 36.0 9.0 20.0 
74.00038832547422 586.0 112.0 481.4456654456651 0.49645594163813034 36.0 9.0 20.0 
76.00029741811947 586.0 112.0 481.4188034188036 0.496433905937309 33.0 9.0 20.0 
78.00038832547422 587.0 113.0 481.44078144078105 0.494840671100141 33.0 9.0 20.0 
80.00038832547422 588.0 113.0 481.4188034188036 0.4964106428890727 33.0 9.0 20.0 
82.00038832547422 588.0 113.0 481.44078144078105 0.5228183634586815 33.0 9.0 20.0 
84.00038832547422 588.0 113.0 481.42368742368757 0.5766142851180164 33.0 9.0 20.0 
86.00029741811947 586.0 112.0 481.44078144078105 0.5883811044821501 33.0 9.0 20.0 
88.00038832547422 577.0 110.0 481.4188034188036 0.5618157666277429 33.0 9.0 20.0 
90.00038832547422 566.0 110.0 481.4529914529912 0.5780710632585226 33.0 9.0 20.0 
92.00038832547422 564.0 109.0 481.41147741147745 0.5587690459877471 33.0 9.0 20.0 
94.00038832547422 562.0 108.0 481.4334554334557 0.49761327426506524 33.0 9.0 20.0 
96.00029741811947 562.0 108.0 481.41147741147745 0.4975842615976285 33.0 9.0 20.0 
98.00038832547422 562.0 108.0 481.4334554334557 0.49761327426506524 33.0 9.0 20.0 
100.00038832547422 562.0 108.0 481.41147741147745 0.4975842615976285 33.0 9.0 20.0 
102.00038832547422 562.0 108.0 481.4334554334557 0.49761327426506524 33.0 9.0 20.0 
104.00038832547422 562.0 108.0 481.41147741147745 0.4975842615976285 33.0 9.0 20.0 
106.00029741811947 562.0 108.0 481.4334554334557 0.49761327426506524 33.0 9.0 20.0 
108.00038832547422 562.0 108.0 481.41147741147745 0.4975842615976285 33.0 9.0 20.0 
110.00038832547422 562.0 108.0 481.4334554334557 0.49761327426506524 33.0 9.0 20.0 
112.00038832547422 568.0 109.0 481.41147741147745 0.4968067173115501 33.0 9.0 20.0 
114.00038832547422 568.0 109.0 481.4334554334557 0.49683553126208657 33.0 9.0 20.0 
116.00029741811947 568.0 109.0 481.41147741147745 0.4968067173115501 33.0 9.0 20.0 
118.00038832547422 568.0 109.0 481.4334554334557 0.49683553126208657 33.0 9.0 20.0 
120.00038832547422 568.0 109.0 481.41147741147745 0.4968067173115501 33.0 9.0 20.0 
122.00038832547422 568.0 109.0 481.4334554334557 0.5168921795796334 33.0 9.0 20.0 
124.00038832547422 568.0 109.0 481.41147741147745 0.5401510368619736 33.0 9.0 20.0 
126.00029741811947 562.0 108.0 481.4334554334557 0.49761327426506524 33.0 9.0 20.0 
128.00038832547423 562.0 108.0 481.41147741147745 0.4975842615976285 33.0 9.0 20.0 
130.00038832547423 562.0 108.0 481.4334554334557 0.4976132742650622 33.0 9.0 20.0 
132.00038832547423 562.0 108.0 481.41147741147745 0.4975842615976254 33.0 9.0 20.0 
134.00038832547423 562.0 108.0 481.4334554334557 0.4976132742650622 33.0 9.0 20.0 
136.0002974181195 562.0 108.0 481.41147741147745 0.4975842615976254 33.0 9.0 20.0 
138.00038832547423 562.0 108.0 481.4334554334557 0.4976132742650622 33.0 9.0 20.0 
140.00038832547423 562.0 108.0 481.41147741147745 0.4975842615976254 33.0 9.0 20.0 
142.00038832547423 562.0 108.0 481.4334554334557 0.4976132742650622 33.0 9.0 20.0 
144.00038832547423 562.0 108.0 481.41147741147745 0.4975842615976254 33.0 9.0 20.0 
146.0002974181195 562.0 108.0 481.4334554334557 0.4976132742650622 33.0 9.0 20.0 
148.00038832547423 562.0 108.0 478.6105006105005 0.4975842615976254 32.0 9.0 19.0 
150.00038832547423 562.0 108.0 478.63247863247864 0.4976132742650622 32.0 9.0 19.0 
152.00038832547423 562.0 108.0 478.6105006105005 0.4975842615976254 32.0 9.0 19.0 
154.00038832547423 562.0 108.0 478.63247863247864 0.4976132742650622 32.0 9.0 19.0 
156.0002974181195 562.0 108.0 478.6105006105005 0.4975842615976254 32.0 9.0 19.0 
158.00038832547423 562.0 108.0 478.63247863247864 0.4976132742650622 32.0 9.0 19.0 
160.00038832547423 562.0 108.0 478.6105006105005 0.4975842615976254 32.0 9.0 19.0 
162.00038832547423 562.0 108.0 478.63247863247864 0.4976132742650622 32.0 9.0 19.0 
164.00038832547423 562.0 108.0 478.6105006105005 0.4975842615976254 32.0 9.0 19.0 
166.0002974181195 562.0 108.0 478.63247863247864 0.4976132742650622 32.0 9.0 19.0 
168.00038832547423 562.0 108.0 478.6105006105005 0.4975842615976254 32.0 9.0 19.0 
170.00038832547423 562.0 108.0 478.63247863247864 0.4976132742650622 32.0 9.0 19.0 
172.00038832547423 562.0 108.0 478.6105006105005 0.4975842615976254 32.0 9.0 19.0 
174.00038832547423 568.0 109.0 478.63247863247864 0.4937400793897445 33.0 9.0 19.0 
176.0002974181195 576.0 109.0 481.42612942612965 0.49581484694179584 33.0 9.0 20.0 
178.00038832547423 576.0 109.0 481.4578754578752 0.4958392295939441 33.0 9.0 20.0 
180.00038832547423 576.0 109.0 481.4456654456651 0.4957890898839965 33.0 9.0 20.0 
182.00038832547423 576.0 109.0 481.4310134310137 0.4958486242654819 33.0 9.0 20.0 
184.00038832547423 586.0 110.0 487.05494505494545 0.5022640791776689 34.0 9.0 22.0 
186.0002974181195 586.0 110.0 487.06471306471286 0.4986131385410959 34.0 9.0 22.0 
188.00038832547423 586.0 110.0 487.02075702075723 0.4986019139797441 34.0 9.0 22.0 
190.00038832547423 586.0 110.0 487.0573870573875 0.4986609707928423 34.0 9.0 22.0 
192.00038832547423 588.0 111.0 487.06471306471286 0.530777429012012 34.0 9.0 22.0 
194.00038832547423 588.0 111.0 487.01343101343116 0.5848620459356464 34.0 9.0 22.0 
196.0002974181195 585.0 110.0 487.0500610500614 0.5296408167837855 34.0 9.0 22.0 
198.00038832547423 584.0 109.0 487.0378510378513 0.49707052836793664 34.0 9.0 22.0 
200.00038832547423 584.0 109.0 487.0305250305254 0.4970797889334379 34.0 9.0 22.0 
202.00038832547423 584.0 109.0 487.0256410256413 0.4970837894977343 34.0 9.0 22.0 
204.00038832547423 584.0 109.0 487.0256410256413 0.4970837894977343 34.0 9.0 22.0 
206.0002974181195 584.0 109.0 487.0256410256413 0.4970837894977343 34.0 9.0 22.0 
208.00038832547423 584.0 109.0 487.0256410256413 0.4970837894977343 34.0 9.0 22.0 
210.00038832547423 584.0 109.0 487.0256410256413 0.4970837894977343 34.0 9.0 22.0 
212.00038832547423 584.0 109.0 487.0256410256413 0.4970837894977343 34.0 9.0 22.0 
214.00038832547423 586.0 110.0 487.0256410256413 0.513985661462673 34.0 9.0 22.0 
216.0002974181195 586.0 110.0 487.0256410256413 0.5401925580143971 34.0 9.0 22.0 
218.00038832547423 576.0 109.0 487.0256410256413 0.4910367497061103 33.0 9.0 22.0 
220.00038832547423 576.0 109.0 487.0256410256413 0.4910367497061103 33.0 9.0 22.0 
222.00038832547423 576.0 109.0 487.0256410256413 0.4910367497061103 33.0 9.0 22.0 
224.00038832547423 576.0 109.0 487.0256410256413 0.4910367497061103 33.0 9.0 22.0 
226.0002974181195 576.0 109.0 487.0256410256413 0.4910367497061103 33.0 9.0 22.0 
228.00038832547423 576.0 109.0 487.0256410256413 0.5003762671997128 33.0 9.0 22.0 
230.00038832547423 576.0 109.0 487.0256410256413 0.5258392301626758 33.0 9.0 22.0 
232.00038832547423 574.0 108.0 487.0256410256413 0.5375787188816619 33.0 9.0 22.0 
234.00038832547423 574.0 109.0 487.0256410256413 0.4909875774790984 33.0 9.0 22.0 
236.0002974181195 575.0 110.0 487.0256410256413 0.4929422320848649 33.0 9.0 22.0 
238.00038832547423 576.0 110.0 487.0256410256413 0.4918457917943009 33.0 9.0 22.0 
240.00038832547423 576.0 110.0 487.0256410256413 0.4918457917943009 33.0 9.0 22.0 
242.00038832547423 576.0 110.0 487.0256410256413 0.4918457917943009 33.0 9.0 22.0 
244.00038832547423 576.0 110.0 487.0256410256413 0.4918457917943009 33.0 9.0 22.0 
246.0002974181195 598.0 111.0 489.83394383394386 0.5030815215662623 33.0 10.0 22.0 
248.00038832547423 600.0 112.0 489.84371184371184 0.5166723844097114 33.0 10.0 22.0 
250.00038832547423 599.0 111.0 489.84126984127 0.5181165789539743 34.0 9.0 23.0 
252.00038832547423 602.0 113.0 489.85347985348 0.4898093621762996 35.0 8.0 24.0 
254.00038832547423 610.0 114.0 489.85347985348 0.5266523605060343 36.0 8.0 24.0 
256.0002974181195 610.0 114.0 489.83882783882797 0.566610310669003 34.0 10.0 22.0 
258.0003883254742 609.0 112.0 492.6691086691087 0.5155775322716949 34.0 10.0 23.0 
260.0003883254742 608.0 112.0 492.64713064713067 0.4971525571926083 38.0 9.0 24.0 
262.0003883254742 614.0 113.0 492.6593406593406 0.5012272017759674 40.0 8.0 25.0 
264.0003883254742 616.0 113.0 492.6593406593406 0.5155106135145755 39.0 9.0 24.0 
266.0002974181195 617.0 114.0 492.6544566544568 0.5069463400782314 37.0 10.0 23.0 
268.0003883254742 622.0 115.0 495.4676434676431 0.4991414603836752 37.0 10.0 24.0 
270.0003883254742 626.0 116.0 495.4725274725272 0.49947329644590455 38.0 10.0 24.0 
272.0003883254742 630.0 116.0 495.4700854700851 0.5227896739709907 37.0 10.0 24.0 
274.0003883254742 630.0 116.0 495.44566544566516 0.5803856183876382 36.0 10.0 24.0 
276.0002974181195 621.0 114.0 495.4407814407811 0.6067102742801 36.0 10.0 24.0 
278.0003883254742 612.0 113.0 489.83882783882785 0.4944987438483347 35.0 10.0 22.0 
280.0003883254742 614.0 113.0 489.8192918192916 0.495139921168757 35.0 10.0 22.0 
282.0003883254742 614.0 113.0 489.8192918192916 0.495143595761148 35.0 10.0 22.0 
284.0003883254742 614.0 113.0 489.8192918192916 0.495143595761148 35.0 10.0 22.0 
286.0002974181195 614.0 113.0 489.82417582417565 0.49512358916808985 35.0 10.0 22.0 
288.0003883254742 614.0 113.0 489.8192918192916 0.49513977892647104 35.0 10.0 22.0 
290.0003883254742 614.0 113.0 489.8192918192916 0.495143595761148 35.0 10.0 22.0 
292.0003883254742 620.0 113.0 492.62759462759465 0.49629977186853164 36.0 10.0 23.0 
294.0003883254742 628.0 115.0 492.6520146520149 0.49446608320413343 36.0 10.0 23.0 
296.0002974181195 628.0 115.0 492.6715506715508 0.5009862515732273 36.0 10.0 23.0 
298.0003883254742 628.0 115.0 492.66666666666686 0.5271676561563595 36.0 10.0 23.0 
300.0003883254742 631.0 116.0 492.65689865689893 0.5463875863733528 36.0 10.0 23.0 
302.0003883254742 635.0 116.0 492.63736263736274 0.4941849269928996 36.0 10.0 23.0 
304.0003883254742 636.0 116.0 495.4310134310137 0.4946532013864699 36.0 10.0 24.0 
306.0002974181195 648.0 118.0 495.45054945054915 0.49349019809140754 36.0 10.0 24.0 
308.0003883254742 648.0 118.0 492.6349206349207 0.5064357007334581 36.0 10.0 23.0 
310.0003883254742 648.0 118.0 495.44078144078117 0.5349335174572867 35.0 10.0 24.0 
312.0003883254742 643.0 117.0 495.4310134310136 0.5773190202247446 35.0 10.0 24.0 
314.0003883254742 637.0 116.0 495.42612942612953 0.5920146542566453 35.0 10.0 24.0 
316.0002974181195 627.0 116.0 495.42612942612953 0.5457730981126122 35.0 10.0 24.0 
318.0003883254742 626.0 115.0 495.42612942612953 0.5577404925164703 35.0 10.0 24.0 
320.0003883254742 626.0 116.0 492.6251526251527 0.5194373724479202 34.0 10.0 23.0 
322.0003883254742 630.0 117.0 492.63736263736274 0.5437712261254772 34.0 10.0 23.0 
324.0003883254742 626.0 116.0 492.61782661782655 0.5257216224631647 34.0 10.0 23.0 
326.0002974181195 622.0 116.0 492.61782661782655 0.5428181452683631 34.0 10.0 23.0 
328.0003883254742 618.0 116.0 492.61782661782655 0.5230538766610504 34.0 10.0 23.0 
330.0003883254742 616.0 115.0 492.61782661782655 0.5045808062596743 34.0 10.0 23.0 
332.0003883254742 616.0 115.0 489.8168498168496 0.5174840320661259 33.0 10.0 22.0 
334.0003883254742 614.0 115.0 489.8168498168496 0.49635866859040334 33.0 10.0 22.0 
336.0002974181195 614.0 115.0 489.8168498168496 0.4963494019851668 33.0 10.0 22.0 
338.0003883254742 614.0 115.0 489.8168498168496 0.4963414618622465 33.0 10.0 22.0 
340.0003883254742 628.0 117.0 489.8168498168496 0.5087277138938644 33.0 10.0 22.0 
342.0003883254742 628.0 117.0 489.8168498168496 0.5278275003815577 33.0 10.0 22.0 
344.0003883254742 626.0 116.0 489.8168498168496 0.4945941289292515 33.0 10.0 22.0 
346.0002974181195 626.0 116.0 489.8168498168496 0.5107045931083675 33.0 10.0 22.0 
348.0003883254742 626.0 116.0 489.8168498168496 0.5363633741676226 33.0 10.0 22.0 
350.0003883254742 618.0 115.0 489.8168498168496 0.49483455999220877 33.0 10.0 22.0 
352.0003883254742 618.0 115.0 489.8168498168496 0.49483455999220877 33.0 10.0 22.0 
354.0003883254742 618.0 115.0 489.8168498168496 0.49483455999220877 33.0 10.0 22.0 
356.0002974181195 618.0 115.0 489.8168498168496 0.5206317449998755 33.0 10.0 22.0 
358.0003883254742 618.0 115.0 489.8168498168496 0.5464589343701198 33.0 10.0 22.0 
360.0003883254742 618.0 115.0 489.8168498168496 0.5289347255691839 33.0 10.0 22.0 
362.0003883254742 620.0 116.0 489.8168498168496 0.5812618854885616 33.0 10.0 22.0 
364.0003883254742 610.0 114.0 489.8168498168496 0.52030119176275 33.0 10.0 22.0 
366.0002974181195 608.0 113.0 489.8168498168496 0.4991633062871151 33.0 10.0 22.0 
368.0003883254742 608.0 113.0 489.8168498168496 0.499172755785876 33.0 10.0 22.0 
370.0003883254742 610.0 113.0 487.01587301587324 0.49839181914728614 32.0 10.0 21.0 
372.0003883254742 610.0 113.0 484.214896214896 0.5115848065533959 31.0 10.0 20.0 
374.0003883254742 610.0 113.0 484.2197802197799 0.5313216486586592 31.0 10.0 20.0 
376.0002974181195 608.0 112.0 484.214896214896 0.4965772864951331 31.0 10.0 20.0 
378.0003883254742 614.0 113.0 484.214896214896 0.5095641023983608 31.0 10.0 20.0 
380.0003883254742 614.0 113.0 484.214896214896 0.5358798918720451 31.0 10.0 20.0 
382.0003883254742 613.0 112.0 484.214896214896 0.5269867128302602 31.0 10.0 20.0 
384.0003883254742 612.0 112.0 484.2197802197799 0.49642941157338744 31.0 10.0 20.0 
386.0002974181195 612.0 112.0 481.41391941391953 0.4972739839456717 31.0 10.0 19.0 
388.0003883254742 616.0 112.0 481.41391941391953 0.496073222626221 31.0 10.0 19.0 
390.0003883254742 620.0 113.0 481.41391941391953 0.5153444038501003 31.0 10.0 19.0 
392.0003883254742 620.0 113.0 481.41391941391953 0.544037361925659 31.0 10.0 19.0 
394.0003883254742 612.0 112.0 481.4188034188036 0.5017356138445002 31.0 10.0 19.0 
396.0002974181195 620.0 113.0 481.41391941391953 0.4965756428840611 31.0 10.0 19.0 
398.0003883254742 644.0 114.0 484.227106227106 0.5137414964993665 31.0 11.0 19.0 
400.0003883254742 644.0 114.0 484.25152625152623 0.5391460103352573 31.0 11.0 19.0 
402.0003883254742 638.0 113.0 484.234432234432 0.5276558936329357 32.0 10.0 20.0 
404.0003883254742 636.0 113.0 484.229548229548 0.4965350884060691 33.0 10.0 20.0 
406.0002974181195 636.0 113.0 484.22466422466397 0.4965389687292581 33.0 10.0 20.0 
408.0003883254742 640.0 114.0 484.21978021977986 0.5260237299704812 33.0 10.0 20.0 
410.0003883254742 640.0 114.0 484.21978021977986 0.5708715306272526 33.0 10.0 20.0 
412.0003883254742 631.0 113.0 484.21978021977986 0.5671836227250907 33.0 10.0 20.0 
414.0003883254742 628.0 112.0 484.22466422466397 0.5423565236622401 33.0 10.0 20.0 
416.0002974181195 604.0 111.0 484.21978021977986 0.49611627823429455 32.0 10.0 20.0 
418.0003883254742 604.0 111.0 484.21489621489616 0.4983814451891692 32.0 10.0 20.0 
420.0003883254742 604.0 111.0 484.21489621489616 0.5006193573045437 32.0 10.0 20.0 
422.0003883254742 604.0 112.0 484.21489621489616 0.4960945422952184 32.0 10.0 20.0 
424.0003883254742 604.0 112.0 484.21978021977986 0.4960945422952184 32.0 10.0 20.0 
426.0002974181195 604.0 112.0 484.227106227106 0.49607733149241967 33.0 9.0 21.0 
428.0003883254742 604.0 112.0 484.2124542124541 0.5008021944484774 34.0 9.0 21.0 
430.0003883254742 604.0 112.0 484.2124542124541 0.5055259041403646 34.0 9.0 21.0 
432.0003883254742 604.0 113.0 484.2124542124541 0.4959438329183435 34.0 9.0 21.0 
434.0003883254742 604.0 113.0 484.2173382173379 0.4959438329183435 34.0 9.0 21.0 
436.0002974181195 604.0 113.0 484.2124542124541 0.49593632308712016 34.0 9.0 21.0 
438.0003883254742 604.0 113.0 484.2124542124541 0.4959438329183435 34.0 9.0 21.0 
440.0003883254742 604.0 113.0 484.2124542124541 0.4959438329183435 34.0 9.0 21.0 
442.0003883254742 614.0 114.0 484.2124542124541 0.5009871119264236 34.0 9.0 21.0 
444.0003883254742 614.0 114.0 484.2173382173379 0.5271309027760969 34.0 9.0 21.0 
446.0002974181195 614.0 114.0 484.2173382173379 0.5569628902016556 34.0 9.0 21.0 
448.0003883254742 612.0 113.0 484.2124542124541 0.5019482740154438 34.0 9.0 21.0 
450.0003883254742 610.0 113.0 484.2124542124541 0.4943158203317435 34.0 9.0 21.0 
452.0003883254742 612.0 113.0 487.0305250305254 0.5146546144483002 34.0 9.0 22.0 
454.0003883254742 612.0 113.0 487.04761904761926 0.5413104293881176 34.0 9.0 22.0 
456.0002974181195 608.0 112.0 487.0573870573874 0.49640938882772284 34.0 9.0 22.0 
458.0003883254742 608.0 112.0 487.0329670329674 0.4964541168427471 34.0 9.0 22.0 
460.0003883254742 608.0 112.0 484.2442002442002 0.49573054484010814 34.0 9.0 21.0 
462.0003883254742 608.0 112.0 484.2368742368741 0.49814240504317603 34.0 9.0 21.0 
464.0003883254742 608.0 112.0 484.2393162393161 0.5248349242453412 34.0 9.0 21.0 
466.0002974181195 614.0 113.0 487.06471306471303 0.5550494459472541 35.0 9.0 22.0 
468.0003883254742 612.0 112.0 487.04273504273533 0.5047003322374748 35.0 9.0 22.0 
470.0003883254742 610.0 112.0 487.0354090354092 0.4999254266868927 38.0 9.0 22.0 
472.0003883254742 610.0 112.0 487.0500610500614 0.5070629906760967 38.0 9.0 22.0 
474.0003883254742 610.0 112.0 487.04273504273533 0.5169048875557347 38.0 9.0 22.0 
476.0002974181195 608.0 112.0 487.0354090354092 0.49949812632197366 38.0 9.0 22.0 
478.0003883254742 610.0 112.0 487.0500610500614 0.49999625473013654 38.0 9.0 22.0 
480.0003883254742 610.0 112.0 487.0378510378513 0.4999942857723172 38.0 9.0 22.0 
482.0003883254742 610.0 112.0 487.0354090354092 0.500030621993892 38.0 9.0 22.0 
484.0003883254742 610.0 112.0 487.05494505494545 0.49999625473013654 38.0 9.0 22.0 
486.0002974181195 610.0 112.0 484.23199023199004 0.49898629784961923 36.0 9.0 21.0 
488.0003883254742 610.0 112.0 484.229548229548 0.4990535241600896 36.0 9.0 21.0 
490.0003883254742 611.0 113.0 484.2442002442002 0.4981617951198208 36.0 9.0 21.0 
492.0003883254742 615.0 113.0 484.23199023199004 0.5038571141625633 36.0 9.0 21.0 
494.0003883254742 616.0 114.0 484.234432234432 0.5114837211279217 36.0 9.0 21.0 
496.0002974181195 620.0 114.0 484.2442002442002 0.506871144390112 36.0 9.0 21.0 
498.0003883254742 621.0 115.0 484.23199023199004 0.5285330164623078 36.0 9.0 21.0 
500.0003883254742 619.0 115.0 484.229548229548 0.5437162062217833 36.0 9.0 21.0 
502.0003883254742 608.0 114.0 484.2442002442002 0.5155688745682802 35.0 9.0 21.0 
504.0003883254742 608.0 114.0 484.2368742368741 0.5363516607918222 35.0 9.0 21.0 
506.0002974181195 602.0 113.0 487.0476190476193 0.5111318330650636 35.0 9.0 22.0 
508.0003883254742 602.0 113.0 489.8852258852253 0.5471680638898322 35.0 9.0 23.0 
510.0003883254742 588.0 113.0 489.87057387057456 0.558805971585352 36.0 8.0 24.0 
512.0003883254742 584.0 113.0 489.8363858363863 0.573196774682406 36.0 8.0 24.0 
514.0003883254742 582.0 112.0 489.86324786324843 0.5816051892494084 42.0 3.0 29.0 
516.0002974181195 578.0 111.0 489.84615384615427 0.5533365136526719 46.0 0.0 32.0 
518.0003883254742 576.0 110.0 489.82661782661825 0.49336970687366394 47.0 0.0 32.0 
520.0003883254742 580.0 111.0 489.85592185592236 0.5222561978885277 47.0 0.0 32.0 
522.0003883254742 580.0 111.0 489.8290598290602 0.5490651296870459 47.0 0.0 32.0 
524.0003883254742 580.0 111.0 489.82661782661825 0.4954311419707894 47.0 0.0 32.0 
526.0002974181195 580.0 111.0 489.85592185592236 0.4954091194759059 47.0 0.0 32.0 
528.0003883254742 580.0 111.0 489.8290598290602 0.5122370730281183 47.0 0.0 32.0 
530.0003883254742 580.0 111.0 489.82173382173414 0.551466951303134 47.0 0.0 32.0 
532.0003883254742 576.0 110.0 489.8510378510383 0.5407452092143048 47.0 0.0 32.0 
534.0003883254742 572.0 109.0 489.83394383394426 0.4934789174660964 47.0 0.0 32.0 
536.0002974181195 572.0 109.0 489.82173382173414 0.4935186176077605 47.0 0.0 32.0 
538.0003883254742 572.0 109.0 489.8510378510383 0.49351219878165276 47.0 0.0 32.0 
540.0003883254742 572.0 109.0 489.8290598290602 0.4934789174660964 47.0 0.0 32.0 
542.0003883254742 573.0 109.0 489.82173382173414 0.4913028614019109 47.0 0.0 32.0 
544.0003883254742 574.0 110.0 489.85592185592236 0.4935276848956079 47.0 0.0 32.0 
546.0002974181195 574.0 110.0 489.8290598290602 0.4934870053953616 47.0 0.0 32.0 
548.0003883254742 574.0 110.0 489.82173382173414 0.4935418624767337 47.0 0.0 32.0 
550.0003883254742 574.0 110.0 487.0305250305254 0.4935276848956079 47.0 0.0 31.0 
552.0003883254742 574.0 110.0 487.0085470085471 0.5014159261558789 47.0 0.0 31.0 
554.0003883254742 574.0 110.0 487.00366300366306 0.5282953898565338 47.0 0.0 31.0 
556.0002974181195 574.0 110.0 487.01831501831526 0.5551454963780221 47.0 0.0 31.0 
558.0003883254742 572.0 109.0 487.00366300366306 0.494711530247043 47.0 0.0 31.0 
560.0003883254742 572.0 109.0 486.998778998779 0.49473932829987016 47.0 0.0 31.0 
562.0003883254742 573.0 109.0 487.01343101343116 0.4928084003456177 47.0 0.0 31.0 
564.0003883254742 574.0 110.0 487.0085470085471 0.4947200297609061 47.0 0.0 31.0 
566.0002974181195 574.0 110.0 486.998778998779 0.49473049796291024 47.0 0.0 31.0 
568.0003883254742 574.0 110.0 487.01343101343116 0.49475065672802143 47.0 0.0 31.0 
570.0003883254742 574.0 110.0 484.2026862026859 0.4947200297609061 46.0 0.0 30.0 
572.0003883254742 575.0 110.0 484.1978021978018 0.4981889756128149 46.0 0.0 30.0 
574.0003883254742 584.0 111.0 484.21733821733784 0.5146222428572977 47.0 0.0 30.0 
576.0002974181195 591.0 111.0 484.2075702075699 0.5304856598648067 47.0 0.0 30.0 
578.0003883254742 590.0 110.0 484.21245421245396 0.502763840957445 47.0 0.0 30.0 
580.0003883254742 590.0 110.0 484.21978021977986 0.4968572378543616 47.0 0.0 30.0 
582.0003883254742 590.0 110.0 484.21978021977986 0.4994856541663788 46.0 0.0 30.0 
584.0003883254742 590.0 110.0 484.2075702075699 0.5221849499406149 46.0 0.0 30.0 
586.0002974181195 590.0 110.0 484.229548229548 0.5479341175349075 46.0 0.0 30.0 
588.0003883254742 580.0 109.0 484.21489621489604 0.5010244729323802 46.0 0.0 30.0 
590.0003883254742 579.0 109.0 484.2026862026859 0.5018750932387763 46.0 0.0 30.0 
592.0003883254742 578.0 109.0 484.2026862026859 0.49553085005847824 46.0 0.0 30.0 
594.0003883254742 579.0 110.0 484.2026862026859 0.4946332861354973 46.0 0.0 30.0 
596.0002974181195 582.0 111.0 484.2075702075699 0.49770950382605184 46.0 0.0 30.0 
598.0003883254742 582.0 111.0 484.2026862026859 0.5015776156310332 46.0 0.0 30.0 
600.0003883254742 580.0 111.0 484.2026862026859 0.495726215794785 46.0 0.0 30.0 
602.0003883254742 580.0 111.0 484.2026862026859 0.495726215794785 46.0 0.0 30.0 
604.0003883254742 580.0 111.0 484.2075702075699 0.4990773294138803 46.0 0.0 30.0 
606.0002974181195 580.0 111.0 484.2026862026859 0.520511965443144 46.0 0.0 30.0 
608.0003883254742 580.0 111.0 484.21245421245396 0.543323124343848 46.0 0.0 30.0 
610.0003883254742 576.0 110.0 484.21733821733784 0.49515633972080586 46.0 0.0 30.0 
612.0003883254742 576.0 110.0 484.2075702075699 0.4951523830015297 46.0 0.0 30.0 
614.0003883254742 576.0 110.0 484.2026862026859 0.4951580899055341 46.0 0.0 30.0 
616.0002974181195 576.0 110.0 484.2075702075699 0.5152962748127298 46.0 0.0 30.0 
618.0003883254742 576.0 110.0 484.2075702075699 0.5421391280118274 46.0 0.0 30.0 
620.0003883254742 574.0 109.0 484.2026862026859 0.49518022580897747 46.0 0.0 30.0 
622.0003883254742 574.0 109.0 484.1978021978018 0.495185039791109 46.0 0.0 30.0 
624.0003883254742 574.0 109.0 484.2026862026859 0.4951888326255156 46.0 0.0 30.0 
626.0002974181195 574.0 109.0 484.2075702075699 0.5047699515041177 46.0 0.0 30.0 
628.0003883254742 574.0 109.0 484.1953601953598 0.533275416338327 46.0 0.0 30.0 
630.0003883254742 564.0 108.0 484.19047619047575 0.5472712085153262 46.0 0.0 30.0 
632.0003883254742 556.0 108.0 484.19047619047575 0.49620452365207374 46.0 0.0 30.0 
634.0003883254742 556.0 108.0 484.1953601953598 0.49620452365207374 46.0 0.0 30.0 
636.0002974181195 556.0 108.0 484.19047619047575 0.49619670519764947 46.0 0.0 30.0 
638.0003883254742 556.0 108.0 484.19047619047575 0.49620452365207374 46.0 0.0 30.0 
640.0003883254742 556.0 108.0 484.19047619047575 0.49620452365207374 46.0 0.0 30.0 
642.0003883254742 558.0 109.0 484.19047619047575 0.4961837316334147 46.0 0.0 30.0 
644.0003883254742 562.0 110.0 484.1953601953598 0.49900899748115785 46.0 0.0 30.0 
646.0002974181195 564.0 111.0 481.3894993894993 0.4989439136350277 46.0 0.0 29.0 
648.0003883254742 564.0 111.0 481.3894993894993 0.4973031264589303 45.0 0.0 29.0 
650.0003883254742 564.0 111.0 481.3894993894993 0.4973108037743721 45.0 0.0 29.0 
652.0003883254742 564.0 111.0 481.3894993894993 0.4973108037743721 45.0 0.0 29.0 
654.0003883254742 564.0 111.0 481.3943833943833 0.4973108037743721 45.0 0.0 29.0 
656.0002974181195 580.0 113.0 484.2026862026859 0.5015467281805172 46.0 0.0 30.0 
658.0003883254742 588.0 114.0 484.2026862026859 0.5203221133516249 47.0 0.0 30.0 
660.0003883254742 590.0 115.0 484.1978021978019 0.518603124801873 47.0 0.0 30.0 
662.0003883254742 590.0 115.0 484.1978021978019 0.5186224507687442 47.0 0.0 30.0 
664.0003883254742 590.0 115.0 484.2026862026859 0.5186224507687442 47.0 0.0 30.0 
#####################################################################
# End of data export. Simulation finished at: 2019-03-08T03:00+0000 #
#####################################################################
