#####################################################################
# Alchemist log file - simulation started at: 2019-03-05T12:11+0000 #
#####################################################################
# seed = 1.0, bandwidth = 316227.76601683797, accessPointCount = 10.0, baserange = 56.234132519034915
#
# The columns have the following meaning: 
# time neighbor_count[Sum] <value>@neighbor_count[Sum] packet_size[Mean] mean_delay[Mean] crowd[Sum] overcrowded[Sum] risk[Sum] 
0.0 NaN NaN NaN NaN NaN NaN NaN 
10.000043463686083 NaN NaN 4987.840743198408 NaN 1497.0 0.0 1497.0 
20.000043463686083 NaN NaN 4987.840743198408 NaN 1497.0 0.0 1497.0 
30.000043463686083 NaN NaN 4987.840743198408 NaN 1497.0 0.0 1497.0 
40.00004346368608 NaN NaN 4987.840743198408 NaN 1497.0 0.0 1497.0 
50.00004346368608 NaN NaN 4987.840743198408 NaN 1497.0 0.0 1497.0 
60.00004346368608 NaN NaN 4987.840743198408 NaN 1497.0 0.0 1497.0 
70.00002670321949 NaN NaN 400.0 NaN 0.0 0.0 0.0 
80.00002670321949 NaN NaN 400.0 NaN 0.0 0.0 0.0 
90.00002670321949 NaN NaN 400.0 NaN 0.0 0.0 0.0 
100.00002670321949 NaN NaN 400.0 NaN 0.0 0.0 0.0 
110.00002670321949 NaN NaN 400.0 NaN 0.0 0.0 0.0 
120.00002670321949 NaN NaN 400.0 NaN 0.0 0.0 0.0 
130.00002670321948 NaN NaN 400.0 NaN 0.0 0.0 0.0 
140.00002670321948 NaN NaN 400.0 NaN 0.0 0.0 0.0 
150.00002670321948 2.0 1.0 400.0 0.49873508893594476 0.0 0.0 0.0 
160.00002670321948 0.0 0.0 400.0 NaN 0.0 0.0 0.0 
170.00002670321948 0.0 0.0 400.0 NaN 0.0 0.0 0.0 
180.00002670321948 0.0 0.0 400.0 NaN 0.0 0.0 0.0 
190.00002670321948 0.0 0.0 400.0 NaN 0.0 0.0 0.0 
200.00002670321948 0.0 0.0 400.0 NaN 0.0 0.0 0.0 
210.00002670321948 0.0 0.0 400.0 NaN 0.0 0.0 0.0 
220.00002670321948 0.0 0.0 400.0 NaN 0.0 0.0 0.0 
230.00002670321948 0.0 0.0 400.0 NaN 0.0 0.0 0.0 
240.00002670321948 0.0 0.0 400.0 NaN 0.0 0.0 0.0 
250.00002670321948 0.0 0.0 400.0 NaN 0.0 0.0 0.0 
260.0000267032195 0.0 0.0 400.0 NaN 0.0 0.0 0.0 
270.0000267032195 0.0 0.0 400.0 NaN 0.0 0.0 0.0 
280.0000267032195 0.0 0.0 400.0 NaN 0.0 0.0 0.0 
290.0000267032195 0.0 0.0 400.0 NaN 0.0 0.0 0.0 
300.0000267032195 0.0 0.0 400.0 NaN 0.0 0.0 0.0 
310.0000267032195 0.0 0.0 400.0 NaN 0.0 0.0 0.0 
320.0000267032195 0.0 0.0 400.0 NaN 0.0 0.0 0.0 
330.0000267032195 0.0 0.0 400.0 NaN 0.0 0.0 0.0 
340.0000267032195 0.0 0.0 400.0 NaN 0.0 0.0 0.0 
350.0000267032195 0.0 0.0 400.0 NaN 0.0 0.0 0.0 
360.0000267032195 0.0 0.0 400.0 NaN 0.0 0.0 0.0 
370.0000267032195 0.0 0.0 400.0 NaN 0.0 0.0 0.0 
380.0000267032195 0.0 0.0 400.0 NaN 0.0 0.0 0.0 
390.0000267032195 0.0 0.0 400.0 NaN 0.0 0.0 0.0 
400.0000267032195 0.0 0.0 400.0 NaN 0.0 0.0 0.0 
410.0000267032195 0.0 0.0 400.0 NaN 0.0 0.0 0.0 
420.0000267032195 0.0 0.0 400.0 NaN 0.0 0.0 0.0 
430.0000267032195 0.0 0.0 400.0 NaN 0.0 0.0 0.0 
440.0000267032195 0.0 0.0 400.0 NaN 0.0 0.0 0.0 
450.0000267032195 0.0 0.0 400.0 NaN 0.0 0.0 0.0 
460.0000267032195 0.0 0.0 400.0 NaN 0.0 0.0 0.0 
470.0000267032195 2.0 1.0 400.0 0.49873508893591634 0.0 0.0 0.0 
480.0000267032195 2.0 1.0 400.0 0.49873508893591634 0.0 0.0 0.0 
490.0000267032195 0.0 0.0 400.0 NaN 0.0 0.0 0.0 
500.0000267032195 0.0 0.0 400.0 NaN 0.0 0.0 0.0 
510.0000267032195 0.0 0.0 400.0 NaN 0.0 0.0 0.0 
520.0000267032194 0.0 0.0 400.0 NaN 0.0 0.0 0.0 
530.0000267032194 0.0 0.0 400.0 NaN 0.0 0.0 0.0 
540.0000267032194 0.0 0.0 400.0 NaN 0.0 0.0 0.0 
550.0000267032194 0.0 0.0 400.0 NaN 0.0 0.0 0.0 
560.0000267032194 0.0 0.0 400.0 NaN 0.0 0.0 0.0 
570.0000267032194 0.0 0.0 400.0 NaN 0.0 0.0 0.0 
580.0000267032194 0.0 0.0 400.0 NaN 0.0 0.0 0.0 
590.0000267032194 0.0 0.0 400.0 NaN 0.0 0.0 0.0 
600.0000267032194 0.0 0.0 400.0 NaN 0.0 0.0 0.0 
610.0000267032194 0.0 0.0 400.0 NaN 0.0 0.0 0.0 
620.0000267032194 0.0 0.0 400.0 NaN 0.0 0.0 0.0 
630.0000267032194 0.0 0.0 400.0 NaN 0.0 0.0 0.0 
640.0000267032194 0.0 0.0 400.0 NaN 0.0 0.0 0.0 
650.0000267032194 0.0 0.0 400.0 NaN 0.0 0.0 0.0 
660.0000267032194 0.0 0.0 400.0 NaN 0.0 0.0 0.0 
#####################################################################
# End of data export. Simulation finished at: 2019-03-05T12:18+0000 #
#####################################################################
