#####################################################################
# Alchemist log file - simulation started at: 2019-03-03T03:35+0000 #
#####################################################################
# seed = 0.0, bandwidth = 4216.965034285822, accessPointCount = 1031.338537721246, baserange = 100.0
#
# The columns have the following meaning: 
# time neighbor_count[Sum] <value>@neighbor_count[Sum] packet_size[Mean] mean_delay[Mean] crowd[Sum] overcrowded[Sum] risk[Sum] 
0.0 NaN NaN NaN NaN NaN NaN NaN 
10.000170975296044 1728.0 826.0 4981.5031645569625 1.5965189074077684 1497.0 0.0 1497.0 
20.000170975296044 2916.0 985.0 4982.112341772152 3.0228827236473124 1497.0 0.0 1497.0 
30.000170975296044 3313.0 1027.0 4982.294303797468 3.353296864156933 1497.0 0.0 1497.0 
40.000170975296044 3260.0 997.0 4982.139240506329 3.1280775200719546 1497.0 0.0 1497.0 
50.000170975296044 3297.0 1000.0 4982.006329113924 2.68683854808863 1496.0 1.0 1496.0 
60.000170975296044 3317.0 1001.0 4980.368670886075 3.1889932548323867 1496.0 1.0 1496.0 
70.00017097529604 3335.0 1003.0 749.4098101265805 1.727722729712496 282.0 2.0 190.0 
80.00017097529604 3334.0 1005.0 752.9857594936759 1.6313838958154492 263.0 3.0 191.0 
90.00017097529604 3325.0 1008.0 756.5759493670947 1.6997546618141683 261.0 4.0 192.0 
100.00017097529604 3328.0 1009.0 752.8924050633008 1.8307640654140924 254.0 4.0 190.0 
110.00017097529604 3314.0 1008.0 758.3544303797419 1.649038006541477 253.0 11.0 186.0 
120.00017097529604 3326.0 1011.0 758.2927215189792 1.997079907859871 253.0 11.0 186.0 
130.00017097529604 3322.0 1007.0 761.9398734177203 1.5854901454697923 255.0 11.0 188.0 
140.00017097529604 3371.0 1009.0 767.4161392405144 1.7486909917935367 252.0 15.0 187.0 
150.00017097529604 3422.0 1012.0 769.2310126582348 1.6998658479618611 251.0 15.0 188.0 
160.00017097529604 3442.0 1012.0 774.6534810126556 1.9326717365006874 253.0 15.0 191.0 
170.00017097529604 3437.0 1013.0 776.4920886076005 1.907157380151887 251.0 16.0 191.0 
180.00017097529604 3419.0 1012.0 774.6598101265805 1.8281783666561704 253.0 15.0 191.0 
190.00017097529604 3373.0 1012.0 772.8417721519025 1.7534560894108457 256.0 15.0 190.0 
200.00017097529604 3371.0 1011.0 774.6582278480967 1.7043263099226418 255.0 15.0 191.0 
210.00017097529604 3379.0 1011.0 769.1993670886038 1.6813967589308154 254.0 15.0 188.0 
220.00017097529604 3391.0 1012.0 772.8037974683459 1.8731845503123414 252.0 15.0 190.0 
230.00017097529604 3377.0 1016.0 774.6708860759554 2.029230682712926 251.0 16.0 190.0 
240.00017097529604 3370.0 1016.0 772.8401898734195 1.7765657592677904 247.0 17.0 188.0 
250.00017097529604 3386.0 1017.0 774.6329113923991 2.002230860041888 252.0 17.0 189.0 
260.00017097529604 3394.0 1015.0 771.0221518987413 1.9088114178327522 248.0 17.0 187.0 
270.00017097529604 3384.0 1010.0 772.8829113923987 1.7937903907220445 249.0 16.0 189.0 
280.00017097529604 3393.0 1015.0 769.2088607594857 2.0159014303978493 249.0 15.0 188.0 
290.00017097529604 3393.0 1014.0 765.5300632911399 1.9489000019202343 245.0 16.0 185.0 
300.00017097529604 3325.0 1008.0 760.098101265818 1.7499008713578303 243.0 16.0 182.0 
310.00017097529604 3289.0 1004.0 758.2594936708817 1.900750664653932 242.0 16.0 181.0 
320.00017097529604 3271.0 1006.0 752.7848101265805 1.5361293820306638 242.0 15.0 179.0 
330.00017097529604 3246.0 1006.0 745.5253164556992 1.7789078161005976 239.0 15.0 175.0 
340.00017097529604 3296.0 1013.0 745.5506329113961 1.8594881705244986 240.0 15.0 175.0 
350.00017097529604 3313.0 1016.0 752.8401898734195 1.7222728435290628 247.0 16.0 178.0 
360.00017097529604 3350.0 1021.0 752.8623417721607 1.5780581540601053 248.0 16.0 178.0 
370.00017097529604 3375.0 1022.0 758.3338607594858 1.8703425909272877 244.0 16.0 181.0 
380.00017097529604 3405.0 1023.0 761.9446202531614 1.9639178438198692 246.0 15.0 184.0 
390.00017097529604 3405.0 1022.0 769.1898734177203 2.078669356568559 244.0 15.0 188.0 
400.00017097529604 3381.0 1019.0 771.0332278480962 2.0825252850839497 247.0 15.0 189.0 
410.00017097529604 3360.0 1019.0 769.2056962025358 1.8521255139750183 251.0 16.0 187.0 
420.00017097529604 3392.0 1026.0 769.1756329113961 2.0930983741337816 252.0 16.0 187.0 
430.00017097529604 3360.0 1022.0 765.5506329113961 1.9628729993500647 253.0 16.0 185.0 
440.00017097529604 3330.0 1021.0 767.3417721519052 2.194164002741795 253.0 15.0 187.0 
450.00017097529604 3321.0 1021.0 767.3623417721612 1.9091557163017105 251.0 15.0 187.0 
460.00017097529604 3301.0 1020.0 756.4620253164624 2.1069158103620125 246.0 15.0 181.0 
470.00017097529604 3266.0 1012.0 752.8354430379785 1.8863465196255593 238.0 16.0 178.0 
480.00017097529604 3273.0 1013.0 758.2563291139261 1.942317923984244 237.0 16.0 181.0 
490.00017097529604 3240.0 1007.0 752.7784810126544 1.7282248588788718 238.0 16.0 178.0 
500.00017097529604 3230.0 1008.0 749.1297468354405 1.9961083202030219 236.0 15.0 177.0 
510.00017097529604 3203.0 1006.0 745.5348101265805 1.6745336503674801 235.0 15.0 175.0 
520.000170975296 3189.0 1006.0 736.4193037974641 1.839718309182022 233.0 15.0 170.0 
530.000170975296 3197.0 1009.0 729.1819620253218 1.5660365996025805 228.0 16.0 165.0 
540.000170975296 3235.0 1012.0 730.9873417721603 1.8210383255627016 233.0 16.0 166.0 
550.000170975296 3227.0 1011.0 727.3481012658187 1.7986418660671957 231.0 16.0 164.0 
560.000170975296 3245.0 1013.0 729.1661392405142 1.9671112733640326 232.0 15.0 166.0 
570.000170975296 3277.0 1017.0 736.4588607594857 1.893488185185959 235.0 15.0 170.0 
580.000170975296 3287.0 1016.0 745.5395569620215 2.116978911581882 241.0 15.0 175.0 
590.000170975296 3292.0 1016.0 747.3924050633011 2.0331418347665817 240.0 16.0 175.0 
600.000170975296 3285.0 1015.0 745.5395569620215 1.8834567191897809 238.0 16.0 174.0 
610.000170975296 3296.0 1015.0 749.1534810126534 2.0309155777796253 238.0 16.0 176.0 
620.000170975296 3292.0 1015.0 749.1550632911399 2.1174362640322473 240.0 15.0 177.0 
630.000170975296 3299.0 1016.0 749.1867088607653 1.883987206606275 240.0 15.0 177.0 
640.000170975296 3339.0 1019.0 750.993670886073 1.7186441971878093 243.0 15.0 178.0 
650.000170975296 3360.0 1024.0 756.4651898734195 1.9719413322346055 243.0 16.0 180.0 
660.000170975296 3379.0 1028.0 758.2468354430443 1.8833515349010843 247.0 16.0 181.0 
#####################################################################
# End of data export. Simulation finished at: 2019-03-03T03:53+0000 #
#####################################################################
