#####################################################################
# Alchemist log file - simulation started at: 2019-03-04T22:09+0000 #
#####################################################################
# seed = 8.0, bandwidth = 4216.965034285822, accessPointCount = 141.4213562373095, baserange = 1000.0
#
# The columns have the following meaning: 
# time neighbor_count[Sum] <value>@neighbor_count[Sum] packet_size[Mean] mean_delay[Mean] crowd[Sum] overcrowded[Sum] risk[Sum] 
0.0 NaN NaN NaN NaN NaN NaN NaN 
2.000927030832833 2.0 1.0 4985.934065934066 0.39104123779048683 1497.0 0.0 1497.0 
4.000865113718323 39.0 15.0 4985.934065934066 0.6564523836861319 1497.0 0.0 1497.0 
6.000198348008885 164.0 61.0 4985.978021978022 1.1949450102774046 1497.0 0.0 1497.0 
8.000865113718323 383.0 118.0 4985.990231990232 1.8163313127127787 1497.0 0.0 1497.0 
10.000865113718323 913.0 234.0 4986.021978021978 2.0860967712381484 1497.0 0.0 1497.0 
12.000865113718323 1604.0 323.0 4986.178266178266 2.791010733806152 1497.0 0.0 1497.0 
14.000865113718323 2232.0 452.0 4986.505494505494 3.481061932434362 1497.0 0.0 1497.0 
16.000198348008887 3407.0 625.0 4986.810744810745 3.656450589312536 1497.0 0.0 1497.0 
18.000865113718323 4028.0 719.0 4987.035409035409 4.414014984882895 1497.0 0.0 1497.0 
20.000865113718323 4706.0 917.0 4987.235653235653 4.67892127226922 1497.0 0.0 1497.0 
22.000865113718323 5720.0 1067.0 4987.492063492064 5.456010026091847 1497.0 0.0 1497.0 
24.000865113718323 6035.0 1116.0 4987.860805860806 6.61148357041147 1497.0 0.0 1497.0 
26.000198348008887 6344.0 1147.0 4987.860805860806 7.723406441166533 1497.0 0.0 1497.0 
28.000865113718323 6526.0 1163.0 4987.934065934066 8.561004338398815 1497.0 0.0 1497.0 
30.000865113718323 6575.0 1169.0 4987.868131868132 9.479997022261877 1497.0 0.0 1497.0 
32.000865113718326 7295.0 1220.0 4988.080586080586 9.400982142388685 1497.0 0.0 1497.0 
34.00086511371832 7474.0 1235.0 4988.14652014652 10.35394171633631 1497.0 0.0 1497.0 
36.00019834800889 8014.0 1265.0 4988.3003663003665 10.353061157582037 1497.0 0.0 1497.0 
38.00086511371832 8419.0 1302.0 4988.578754578754 10.3415562709621 1497.0 0.0 1497.0 
40.00086511371832 8744.0 1340.0 4988.761904761905 10.717398587480142 1497.0 0.0 1497.0 
42.00086511371832 8908.0 1364.0 4988.793650793651 11.256550144486491 1497.0 0.0 1497.0 
44.00086511371832 8975.0 1361.0 4988.8376068376065 11.581822307542874 1497.0 0.0 1497.0 
46.00019834800889 8682.0 1361.0 4988.661782661783 11.434920654892695 1497.0 0.0 1497.0 
48.00086511371832 9653.0 1390.0 4988.957264957265 11.296170006137006 1497.0 0.0 1497.0 
50.00086511371832 9949.0 1390.0 4988.803418803419 10.651336362533911 1497.0 0.0 1497.0 
52.00086511371832 9813.0 1393.0 4988.891330891331 10.425458575839798 1497.0 0.0 1497.0 
54.00086511371832 9746.0 1374.0 4988.7032967032965 9.304201958521778 1497.0 0.0 1497.0 
56.00019834800889 9797.0 1380.0 4988.600732600733 9.356519392618027 1497.0 0.0 1497.0 
58.00086511371832 9815.0 1395.0 4988.544566544567 9.675492236191353 1497.0 0.0 1497.0 
60.00086511371832 9822.0 1391.0 4988.495726495727 10.26832890145368 1497.0 0.0 1497.0 
62.00073812555545 9652.0 1390.0 624.9010989010982 9.689635524919115 379.0 0.0 80.0 
64.00073812555544 9650.0 1390.0 624.9108669108663 10.411193824906151 363.0 0.0 80.0 
66.0001983480089 9307.0 1380.0 624.8986568986561 10.219873546511936 344.0 0.0 80.0 
68.00073812555546 9246.0 1375.0 627.6190476190486 9.826297481081019 329.0 0.0 81.0 
70.00073812555546 9299.0 1391.0 627.5921855921863 8.914799924181109 311.0 0.0 81.0 
72.00073812555546 9773.0 1398.0 647.2161172161179 7.583954838671769 296.0 0.0 88.0 
74.00073812555546 10035.0 1416.0 683.6654456654455 6.9386070222664085 287.0 0.0 101.0 
76.0001983480089 11077.0 1499.0 731.5921855921863 6.224817670134005 291.0 0.0 118.0 
78.00073812555546 11167.0 1519.0 748.5714285714287 5.099535993783396 280.0 0.0 124.0 
80.00073812555546 11042.0 1495.0 748.4542124542126 4.0158046936061575 243.0 0.0 124.0 
82.00073812555546 11225.0 1484.0 751.2991452991444 3.6944812679406858 231.0 0.0 125.0 
84.00073812555546 11260.0 1484.0 751.3015873015866 3.4949411086260356 224.0 0.0 125.0 
86.0001983480089 11386.0 1517.0 751.2967032967024 3.015905007117855 211.0 0.0 125.0 
88.00073812555546 11520.0 1527.0 751.2771672771663 2.6846372401016145 199.0 0.0 125.0 
90.00073812555546 11536.0 1530.0 751.2771672771663 2.8828607821698315 188.0 0.0 125.0 
92.00055692411965 11809.0 1545.0 756.908424908424 2.3653480196711825 184.0 0.0 127.0 
94.00073812555546 13467.0 1599.0 846.7374847374841 2.496124273563204 218.0 0.0 159.0 
96.0001983480089 14421.0 1631.0 863.797313797312 2.7772943375545673 232.0 0.0 165.0 
98.00073812555546 14348.0 1631.0 863.74358974359 2.8314632562891062 232.0 0.0 165.0 
100.00073812555546 14491.0 1636.0 863.6752136752133 2.8576477017490887 232.0 0.0 165.0 
102.00073812555546 14797.0 1639.0 863.6825396825394 3.065471358754359 233.0 0.0 165.0 
104.00073812555546 15578.0 1660.0 863.8339438339424 3.122690278356247 237.0 0.0 165.0 
106.0001983480089 15265.0 1645.0 866.6788766788762 2.9544226318806524 234.0 0.0 166.0 
108.00073812555546 14747.0 1629.0 866.6593406593399 2.953454370962881 231.0 0.0 166.0 
110.00073812555546 14507.0 1622.0 866.2881562881564 2.9192874419073154 230.0 0.0 166.0 
112.00073812555546 14373.0 1616.0 866.2124542124562 2.7628469139240543 225.0 0.0 166.0 
114.00073812555546 14660.0 1635.0 866.1294261294272 2.9115337704087954 226.0 0.0 166.0 
116.0001983480089 15060.0 1673.0 888.6227106227088 2.8909535120374428 238.0 0.0 174.0 
118.00073812555546 15371.0 1704.0 930.544566544563 2.747625654004722 257.0 0.0 189.0 
120.00073812555546 15806.0 1719.0 964.5103785103751 3.022630172609185 281.0 0.0 201.0 
122.00073812555546 15753.0 1723.0 964.4957264957305 2.944034401905786 279.0 0.0 201.0 
124.00092703083283 15264.0 1712.0 964.5323565323529 2.890945012633034 285.0 0.0 201.0 
126.0001983480089 14897.0 1711.0 964.4932844932886 2.971703290609107 283.0 0.0 201.0 
128.00092703083283 15044.0 1716.0 964.4737484737524 3.14063830075116 285.0 0.0 201.0 
130.00092703083283 15618.0 1728.0 986.9572649572644 2.5825757454323353 290.0 0.0 209.0 
132.00092703083283 19273.0 1823.0 1155.894993894993 2.6115651706004646 353.0 0.0 269.0 
134.00092703083283 19316.0 1825.0 1160.9401709401702 2.631819818313775 354.0 0.0 271.0 
136.0001983480089 19783.0 1836.0 1161.0866910866919 2.751516541068643 355.0 0.0 271.0 
138.00092703083283 19731.0 1834.0 1161.1184371184384 3.0050868938250046 357.0 0.0 271.0 
140.00092703083283 19771.0 1836.0 1166.7301587301588 3.3110045463744258 356.0 0.0 273.0 
142.00092703083283 19764.0 1835.0 1166.7277167277168 3.576112607341299 356.0 0.0 273.0 
144.00092703083283 19640.0 1829.0 1166.813186813186 3.7999358051239316 355.0 0.0 273.0 
146.0001983480089 19422.0 1815.0 1163.9609279609274 3.945997541375378 352.0 0.0 272.0 
148.00092703083283 19217.0 1807.0 1166.6910866910864 3.960624491654178 351.0 0.0 273.0 
150.00092703083283 19001.0 1799.0 1166.7155067155068 3.832784223111324 353.0 1.0 272.0 
152.00092703083283 18900.0 1789.0 1163.807081807081 3.7711126241995307 354.0 0.0 272.0 
154.00092703083283 19009.0 1803.0 1163.7631257631244 3.657267218625789 351.0 0.0 272.0 
156.0001983480089 19194.0 1814.0 1166.5787545787546 3.9052579503910554 355.0 0.0 273.0 
158.00092703083283 20138.0 1825.0 1166.991452991453 3.920219061451814 360.0 0.0 273.0 
160.00092703083283 20020.0 1820.0 1166.8937728937717 3.962121956963689 363.0 0.0 273.0 
162.00073812555544 18130.0 1787.0 1167.0354090354094 3.3165340739712974 365.0 0.0 273.0 
164.00073812555544 17763.0 1780.0 1166.83028083028 3.1455689189842757 362.0 0.0 273.0 
166.0001983480089 17227.0 1775.0 1166.5006105006114 2.608091045083906 359.0 0.0 273.0 
168.00073812555544 17188.0 1773.0 1166.3516483516485 2.658024007486091 355.0 0.0 273.0 
170.00073812555544 17258.0 1776.0 1166.3272283272283 2.818808364927001 355.0 0.0 273.0 
172.00073812555544 17274.0 1776.0 1166.3076923076922 2.963361627068562 354.0 0.0 273.0 
174.00073812555544 17254.0 1775.0 1166.3125763125763 3.2654212612972366 354.0 0.0 273.0 
176.0001983480089 17535.0 1779.0 1166.4053724053724 3.3873918084239905 359.0 0.0 273.0 
178.00073812555544 17671.0 1788.0 1172.1636141636152 3.496369008150131 364.0 0.0 275.0 
180.00073812555544 17618.0 1789.0 1169.465201465202 3.494990900865605 365.0 1.0 273.0 
182.00073812555544 17862.0 1788.0 1169.5482295482293 3.564149589947709 368.0 1.0 273.0 
184.00073812555544 17994.0 1797.0 1166.7326007326014 3.411355569129602 371.0 1.0 272.0 
186.0001983480089 19230.0 1844.0 1245.428571428572 3.461174611100637 400.0 1.0 300.0 
188.00073812555544 18620.0 1846.0 1250.937728937728 3.3315292016303135 401.0 1.0 302.0 
190.00073812555544 18848.0 1870.0 1278.901098901098 3.3570039543407124 422.0 1.0 312.0 
192.00073812555544 18427.0 1856.0 1309.9487179487176 2.743480810203699 428.0 1.0 323.0 
194.00073812555544 19067.0 1890.0 1318.092796092797 2.8161927069843293 429.0 2.0 325.0 
196.0001983480089 19034.0 1896.0 1323.621489621489 2.910627974291526 436.0 2.0 327.0 
198.00073812555544 19286.0 1910.0 1334.7570207570188 2.9926786821393176 437.0 5.0 328.0 
200.00073812555544 19301.0 1915.0 1348.8205128205118 3.206860225323611 441.0 7.0 331.0 
202.00073812555544 19294.0 1914.0 1351.4725274725288 3.4944712098559396 439.0 7.0 332.0 
204.00073812555544 21415.0 1956.0 1352.063492063493 3.555157145200158 445.0 7.0 332.0 
206.0001983480089 21787.0 1975.0 1349.40170940171 3.7750606964520492 445.0 8.0 330.0 
208.00073812555544 21910.0 1972.0 1349.5335775335761 4.014885732669859 445.0 8.0 330.0 
210.00073812555544 21708.0 1966.0 1349.5213675213658 4.1826906369728345 443.0 7.0 331.0 
212.00073812555544 21745.0 1968.0 1349.4554334554346 4.332150326074068 442.0 7.0 331.0 
214.00055540679705 21585.0 1952.0 1349.3846153846157 4.476036055597326 441.0 7.0 331.0 
216.0001983480089 21087.0 1944.0 1349.2600732600733 4.402721417052223 439.0 8.0 330.0 
218.00055540679705 20660.0 1930.0 1349.2503052503073 4.138958059208934 435.0 8.0 330.0 
220.00055540679705 20793.0 1935.0 1346.2759462759464 4.157672754758747 434.0 9.0 328.0 
222.00055540679705 21142.0 1944.0 1338.317460317461 4.04996692442846 437.0 11.0 323.0 
224.00073812555544 21701.0 1959.0 1335.4041514041523 3.7958880732414313 441.0 9.0 324.0 
226.0001983480089 21910.0 1964.0 1335.3015873015872 3.8425465364266147 436.0 10.0 323.0 
228.00073812555544 21711.0 1958.0 1332.4835164835185 3.7638681133596927 434.0 10.0 322.0 
230.00073812555544 21703.0 1957.0 1335.2625152625153 3.846537941736998 434.0 10.0 323.0 
232.00073812555544 21878.0 1967.0 1335.2429792429816 4.11484436155405 436.0 10.0 323.0 
234.00073812555544 19752.0 1926.0 1338.0561660561668 3.8789456980949106 434.0 10.0 324.0 
236.0001983480089 19295.0 1911.0 1338.002442002442 3.702358159764515 443.0 3.0 331.0 
238.00073812555544 19309.0 1915.0 1337.7704517704494 3.626782254144984 443.0 3.0 331.0 
240.00073812555544 19468.0 1919.0 1335.0354090354094 3.8300178689006823 445.0 3.0 330.0 
242.00073812555544 19505.0 1919.0 1334.989010989011 3.7956033973205816 443.0 3.0 330.0 
244.00073812555544 19338.0 1915.0 1334.8717948717933 3.9030134847273623 440.0 3.0 330.0 
246.0001983480089 19531.0 1919.0 1334.8840048840036 3.959147960758547 440.0 2.0 331.0 
248.00073812555544 19526.0 1918.0 1337.6849816849813 4.030574205276624 437.0 2.0 332.0 
250.00073812555544 19381.0 1913.0 1337.6825396825393 4.150639684581159 438.0 2.0 332.0 
252.00073812555544 18712.0 1905.0 1340.5641025641014 3.9440847287006395 440.0 2.0 333.0 
254.00073812555544 17944.0 1878.0 1343.1111111111125 3.377077329472691 436.0 3.0 333.0 
256.0001983480089 18042.0 1889.0 1340.3492063492072 3.149200245852957 439.0 2.0 333.0 
258.0007381255555 17979.0 1888.0 1340.2637362637365 3.1520139363246353 437.0 2.0 333.0 
260.0007381255555 18141.0 1886.0 1340.3492063492072 3.27721648549565 435.0 2.0 333.0 
262.0007381255555 18866.0 1904.0 1343.3894993894999 3.1151758479431337 436.0 3.0 333.0 
264.0007381255555 19365.0 1922.0 1346.0805860805872 3.200590900231845 439.0 3.0 334.0 
266.0001983480089 19560.0 1927.0 1340.4688644688663 3.4406692214637746 440.0 3.0 332.0 
268.0007381255555 19741.0 1930.0 1346.1929181929197 3.6626379847344435 448.0 3.0 334.0 
270.0007381255555 20394.0 1939.0 1354.7667887667872 3.740089355507228 448.0 3.0 337.0 
272.0007381255555 21332.0 1963.0 1354.835164835164 3.682257430279403 443.0 7.0 333.0 
274.0007381255555 21602.0 1970.0 1357.533577533576 3.7652738174358227 439.0 9.0 332.0 
276.0001983480089 21281.0 1965.0 1357.5189255189237 3.7679058802738203 438.0 9.0 332.0 
278.0007381255555 21243.0 1962.0 1357.4090354090358 3.901331922770475 435.0 9.0 332.0 
280.0007381255555 21132.0 1954.0 1354.5567765567757 4.119121667419832 432.0 9.0 331.0 
282.0007381255555 20934.0 1948.0 1357.5164835164815 4.170259034039954 432.0 9.0 332.0 
284.0007381255555 21385.0 1958.0 1357.7606837606818 4.166381976010576 443.0 8.0 333.0 
286.0001983480089 21418.0 1957.0 1357.5726495726483 4.093860210722043 442.0 8.0 333.0 
288.0007381255555 22175.0 1970.0 1357.628815628815 4.159398404716488 435.0 8.0 333.0 
290.0007381255555 22207.0 1978.0 1357.934065934065 4.3195457877421015 436.0 9.0 332.0 
292.0007381255555 21843.0 1976.0 1352.456654456656 4.266365147665985 433.0 9.0 330.0 
294.0007381255555 21626.0 1971.0 1349.6459096459087 4.307675481233257 428.0 11.0 327.0 
296.0001983480089 21699.0 1974.0 1346.6495726495725 4.3419069645013755 428.0 13.0 324.0 
298.0007381255555 21449.0 1969.0 1346.6227106227109 4.238389461243309 431.0 8.0 329.0 
300.0007381255555 20638.0 1955.0 1346.4371184371196 4.229685104538884 425.0 11.0 326.0 
302.0007381255555 19722.0 1938.0 1346.327228327229 3.878551298048079 420.0 11.0 326.0 
304.0007381255555 19700.0 1937.0 1346.1562881562893 3.652568055545211 419.0 11.0 326.0 
306.0001983480089 19865.0 1944.0 1340.581196581196 3.7860923774624875 424.0 11.0 324.0 
308.0007381255555 19995.0 1951.0 1343.4358974358984 4.046147596838654 432.0 11.0 325.0 
310.0007381255555 20153.0 1957.0 1343.4652014652027 4.286009917314574 430.0 11.0 325.0 
312.0007381255555 20086.0 1954.0 1343.5018315018297 4.40668989813066 427.0 11.0 325.0 
314.0007381255555 19313.0 1936.0 1343.4993894993877 4.334456691403891 428.0 11.0 325.0 
316.0001983480089 18768.0 1918.0 1340.6862026862023 4.133595850345405 422.0 11.0 324.0 
318.0007381255555 18169.0 1913.0 1340.4884004884022 3.718445051229949 419.0 11.0 324.0 
320.0007381255555 17900.0 1899.0 1340.2930402930408 3.857236568997598 419.0 11.0 324.0 
322.0007381255555 17513.0 1878.0 1337.2942612942616 3.6786016223164744 416.0 11.0 323.0 
324.0007381255555 17830.0 1887.0 1340.2173382173398 3.6708976721346023 422.0 11.0 324.0 
326.0001983480089 17513.0 1881.0 1340.1587301587313 3.373948156524214 423.0 11.0 324.0 
328.0007381255555 17444.0 1880.0 1345.7484737484717 3.4149960420386636 423.0 12.0 325.0 
330.0007381255555 17881.0 1887.0 1345.9536019536013 3.4267291957129515 424.0 11.0 326.0 
332.0007381255555 17928.0 1890.0 1345.995115995116 3.32858802146667 423.0 12.0 325.0 
334.0007381255555 19316.0 1920.0 1343.3260073260076 3.1342104709253724 423.0 15.0 321.0 
336.0001983480089 20089.0 1941.0 1343.3724053724054 3.1369132420182853 423.0 13.0 323.0 
338.0007381255555 20213.0 1943.0 1343.3943833943836 3.2197185158914006 424.0 11.0 325.0 
340.0007381255555 20152.0 1946.0 1340.476190476192 3.257204159886984 423.0 12.0 323.0 
342.0007381255555 20146.0 1944.0 1337.8119658119645 3.353340550706111 420.0 12.0 322.0 
344.0007381255555 20418.0 1952.0 1335.1916971916985 3.6228197525902495 428.0 8.0 325.0 
346.0001983480089 21324.0 1985.0 1335.3455433455438 3.6245961634112476 436.0 6.0 327.0 
348.0007381255555 22003.0 1995.0 1330.0268620268625 3.581105366071536 439.0 6.0 325.0 
350.0007381255555 23077.0 2023.0 1329.9755799755796 3.909869387188674 442.0 6.0 325.0 
352.0007381255555 23348.0 2030.0 1332.8229548229535 4.254639000806921 442.0 6.0 326.0 
354.0007381255555 22821.0 2016.0 1335.594627594627 4.322806873236688 443.0 6.0 327.0 
356.0001983480089 22762.0 2012.0 1338.4273504273513 4.660819769276915 442.0 6.0 328.0 
358.0007381255555 22643.0 2007.0 1338.412698412699 4.826942078846516 439.0 6.0 328.0 
360.0007381255555 22081.0 2000.0 1332.7692307692287 4.981553374441576 440.0 6.0 326.0 
362.0007381255555 21786.0 1987.0 1338.2539682539707 5.026833873366086 438.0 6.0 328.0 
364.0007381255555 20287.0 1955.0 1346.581196581196 4.69283414587998 439.0 5.0 332.0 
366.0001983480089 19375.0 1929.0 1349.0793650793657 4.182140670269672 425.0 6.0 332.0 
368.0007381255555 19169.0 1918.0 1348.9377289377285 4.165148783298467 428.0 3.0 335.0 
370.0007381255555 19218.0 1918.0 1348.852258852258 4.321411398189404 431.0 1.0 337.0 
372.0007381255555 19437.0 1924.0 1337.746031746029 4.442046471857688 433.0 0.0 334.0 
374.0007381255555 19291.0 1921.0 1343.4139194139198 4.19049438699607 433.0 0.0 336.0 
376.0001983480089 18578.0 1895.0 1343.3260073260074 3.88293850416372 429.0 2.0 334.0 
378.0007381255555 18072.0 1885.0 1343.2820512820508 3.5824071430038122 427.0 2.0 334.0 
380.0007381255555 17280.0 1869.0 1342.9914529914531 3.205132464234774 413.0 7.0 329.0 
382.0007381255555 17126.0 1871.0 1342.737484737485 3.0277457675274304 411.0 10.0 326.0 
384.0007381255555 17283.0 1880.0 1342.766788766787 3.0955992265648975 413.0 10.0 326.0 
386.0001983480089 17463.0 1887.0 1340.061050061051 3.195231658591583 420.0 10.0 325.0 
388.0007381255555 17531.0 1888.0 1340.0879120879133 3.2214375183132278 421.0 10.0 325.0 
390.0007381255555 18665.0 1912.0 1329.0500610500612 3.143459775984089 427.0 10.0 321.0 
392.0007381255555 19245.0 1929.0 1326.324786324787 3.2042724277504644 428.0 9.0 321.0 
394.0007381255555 19527.0 1936.0 1323.6117216117204 3.246097666926421 430.0 9.0 320.0 
396.0001983480089 19560.0 1938.0 1323.5848595848581 3.4218601755327236 429.0 9.0 320.0 
398.0007381255555 19904.0 1946.0 1326.7155067155065 3.562004253526351 437.0 10.0 320.0 
400.0007381255555 20603.0 1963.0 1324.1343101343116 3.769084359066045 439.0 11.0 318.0 
402.0007381255555 20751.0 1969.0 1324.1684981684998 3.783126942929305 440.0 11.0 318.0 
404.0007381255555 21108.0 1975.0 1329.672771672771 3.9114559300142386 441.0 11.0 320.0 
406.0001983480089 21052.0 1970.0 1332.4517704517723 3.9219615417369966 439.0 11.0 321.0 
408.0007381255555 20895.0 1968.0 1332.4566544566562 3.952809438472512 444.0 9.0 323.0 
410.0007381255555 21442.0 1977.0 1341.1746031746045 4.009534038852331 449.0 9.0 326.0 
412.0007381255555 21679.0 1980.0 1329.8315018315002 4.179585117575339 453.0 7.0 324.0 
414.0007381255555 22384.0 1990.0 1330.0561660561668 4.185219764695371 449.0 7.0 324.0 
416.0001983480089 22398.0 1992.0 1327.199023199025 4.336899950873901 450.0 7.0 323.0 
418.0007381255555 22584.0 2005.0 1327.2307692307713 4.421385718125215 444.0 7.0 323.0 
420.0007381255555 21595.0 1983.0 1327.1208791208808 4.438695454223743 439.0 7.0 323.0 
422.0007381255555 21210.0 1973.0 1321.2649572649575 4.254121345677595 443.0 7.0 321.0 
424.0007381255555 20865.0 1961.0 1312.810744810743 4.276350091248658 438.0 7.0 318.0 
426.0001983480089 20866.0 1960.0 1312.798534798533 4.471320737414799 436.0 7.0 318.0 
428.0007381255555 20706.0 1968.0 1315.702075702075 4.512916026363952 438.0 7.0 319.0 
430.0007381255555 20070.0 1950.0 1321.2918192918198 4.522523793055213 445.0 7.0 321.0 
432.0007381255555 19897.0 1941.0 1326.8693528693514 4.579904497901286 447.0 8.0 322.0 
434.0007381255555 19707.0 1935.0 1326.5982905982894 4.1805204034967165 444.0 7.0 323.0 
436.0001983480089 19784.0 1939.0 1326.3394383394393 4.155937012109826 439.0 7.0 323.0 
438.0007381255555 19778.0 1937.0 1329.250305250308 4.313447068653435 442.0 9.0 322.0 
440.0007381255555 19108.0 1920.0 1326.327228327229 4.242291459372667 438.0 11.0 319.0 
442.0007381255555 19506.0 1935.0 1326.6178266178258 4.119072750559755 437.0 13.0 317.0 
444.0007381255555 18823.0 1920.0 1332.1196581196598 3.691247710739326 435.0 12.0 320.0 
446.0001983480089 18848.0 1921.0 1331.8021978021957 3.617583331325551 432.0 11.0 321.0 
448.0007381255555 18608.0 1913.0 1331.7557997557972 3.5889774373823453 431.0 9.0 323.0 
450.0007381255555 18607.0 1913.0 1334.4590964590982 3.5972780272511735 429.0 9.0 324.0 
452.0007381255555 18425.0 1908.0 1331.7753357753334 3.456298844970482 424.0 9.0 323.0 
454.0007381255555 18809.0 1919.0 1326.1147741147754 3.5544075772566615 428.0 9.0 321.0 
456.0001983480089 19134.0 1927.0 1331.926739926739 3.5121185182308903 429.0 9.0 323.0 
458.0007381255555 19305.0 1928.0 1332.0122100122103 3.5592852744220167 429.0 9.0 323.0 
460.0007381255555 19375.0 1932.0 1329.196581196583 3.7432564728760775 431.0 9.0 322.0 
462.0007381255555 19663.0 1948.0 1326.539682539681 3.691513782359763 432.0 9.0 321.0 
464.0007381255555 19437.0 1944.0 1326.4981684981708 3.7847218844381434 431.0 9.0 321.0 
466.0001983480089 19345.0 1940.0 1326.4713064713085 3.9690587313492625 431.0 9.0 321.0 
468.0007381255555 19554.0 1942.0 1326.5909645909635 4.078805559029709 429.0 9.0 321.0 
470.0007381255555 19506.0 1944.0 1323.748473748471 4.258926843664126 428.0 9.0 320.0 
472.0007381255555 19497.0 1946.0 1323.665445665445 3.9720584851113663 431.0 9.0 320.0 
474.0007381255555 19939.0 1950.0 1321.081807081808 3.8601412778446997 436.0 8.0 320.0 
476.0001983480089 20487.0 1959.0 1321.0402930402936 3.902581227212442 434.0 11.0 317.0 
478.0007381255555 20993.0 1968.0 1321.0500610500615 3.8757617101536628 439.0 10.0 318.0 
480.0007381255555 21190.0 1977.0 1315.5702075702059 4.037154413163506 440.0 10.0 316.0 
482.0007381255555 21333.0 1981.0 1315.5946275946262 4.166069320214045 441.0 8.0 318.0 
484.0007381255555 21143.0 1971.0 1318.3614163614175 4.306363207125794 442.0 7.0 320.0 
486.0001983480089 21037.0 1965.0 1321.1697191697203 4.286234235577754 441.0 7.0 321.0 
488.0007381255555 21403.0 1973.0 1315.5531135531116 4.043749911233738 437.0 8.0 318.0 
490.0007381255555 21289.0 1966.0 1315.4188034188044 3.9430454248878157 431.0 8.0 318.0 
492.0007381255555 20945.0 1952.0 1309.7948717948698 3.9861382471546714 434.0 8.0 316.0 
494.0007381255555 20999.0 1954.0 1301.3870573870586 3.983437065223801 434.0 8.0 313.0 
496.0001983480089 21087.0 1962.0 1301.3113553113562 4.2451894678037405 440.0 8.0 313.0 
498.0007381255555 20986.0 1966.0 1298.6715506715495 4.3712173281484725 442.0 8.0 312.0 
500.0007381255555 20887.0 1967.0 1298.700854700854 4.557095774187276 442.0 8.0 312.0 
502.0007381255555 20211.0 1945.0 1304.336996336998 4.471166682602744 438.0 8.0 314.0 
504.0007381255555 19580.0 1933.0 1301.3479853479867 4.331918344620036 435.0 8.0 313.0 
506.0001983480089 19152.0 1926.0 1298.612942612941 4.141431853051768 436.0 8.0 312.0 
508.0007381255555 18967.0 1926.0 1298.532356532354 3.7919496898556457 431.0 8.0 312.0 
510.0007381255555 19037.0 1927.0 1301.2429792429814 3.5381537510241987 421.0 11.0 310.0 
512.0007381255555 19150.0 1930.0 1298.2930402930415 3.64204981190186 415.0 13.0 307.0 
514.0007381255554 19158.0 1935.0 1298.2979242979254 3.679943615627075 420.0 8.0 312.0 
516.0001983480089 19041.0 1939.0 1292.7399267399255 3.593556043103963 425.0 7.0 311.0 
518.0007381255554 18387.0 1918.0 1287.1233211233225 3.3110033777666508 424.0 7.0 309.0 
520.0007381255554 18246.0 1914.0 1286.8766788766775 3.4451385619109907 419.0 7.0 309.0 
522.0007381255554 18169.0 1916.0 1286.8156288156272 3.4570509950494337 417.0 7.0 309.0 
524.0007381255554 18048.0 1910.0 1283.9706959706955 3.621275063141565 410.0 8.0 307.0 
526.0001983480089 17870.0 1901.0 1278.3174603174623 3.7170428886064735 402.0 8.0 305.0 
528.0007381255554 17724.0 1896.0 1278.3663003663028 3.662462314878531 402.0 8.0 305.0 
530.0007381255554 18216.0 1905.0 1272.9523809523803 3.7046064081824395 400.0 8.0 303.0 
532.0007381255554 18442.0 1912.0 1267.428571428574 3.781853470955192 404.0 8.0 301.0 
534.0007381255554 18461.0 1916.0 1267.506715506712 3.74338658660392 407.0 8.0 301.0 
536.0001983480089 19253.0 1926.0 1273.6043956043934 3.646174374774034 415.0 8.0 303.0 
538.0007381255554 19786.0 1936.0 1273.6263736263716 3.48867709308595 420.0 8.0 303.0 
540.0005324818527 20644.0 1949.0 1270.923076923076 3.3604986970160384 417.0 8.0 302.0 
542.0007381255554 21031.0 1965.0 1273.7460317460293 3.1841144010862195 417.0 8.0 303.0 
544.0007381255554 21467.0 1973.0 1273.8070818070803 3.168884858446837 416.0 9.0 302.0 
546.0001983480089 21410.0 1972.0 1273.8217338217323 3.248052518775576 415.0 12.0 299.0 
548.0007381255554 21597.0 1980.0 1276.6202686202662 3.3670987870327886 423.0 8.0 304.0 
550.0007381255554 21765.0 1985.0 1279.3675213675235 3.626552805082195 421.0 8.0 305.0 
552.0007381255554 21925.0 1992.0 1279.38705738706 3.935159911535117 423.0 7.0 306.0 
554.0007381255554 21887.0 1991.0 1279.3382173382197 4.1223144270505205 421.0 7.0 306.0 
556.0001983480089 21887.0 1991.0 1279.2991452991475 4.478044906372266 418.0 7.0 306.0 
558.0007381255554 21912.0 1992.0 1282.1489621489634 4.668567243034816 417.0 8.0 306.0 
560.0007381255554 21522.0 1985.0 1279.4407814407846 4.688827514273836 419.0 8.0 305.0 
562.0007381255554 21596.0 1985.0 1276.7228327228308 4.723789428668832 421.0 8.0 304.0 
564.0007381255554 21809.0 1992.0 1276.8888888888875 5.0142215929957095 426.0 8.0 304.0 
566.0001983480089 21081.0 1980.0 1279.6043956043934 4.991863913039353 428.0 7.0 306.0 
568.0007381255554 20158.0 1953.0 1279.4627594627625 4.785206972588291 428.0 7.0 306.0 
570.0007381255554 19389.0 1939.0 1276.312576312578 4.149593386476585 429.0 7.0 305.0 
572.0007381255554 19003.0 1930.0 1273.4212454212477 3.693690071642899 427.0 7.0 304.0 
574.0007381255554 18484.0 1916.0 1275.8485958485942 3.324297229440293 424.0 7.0 305.0 
576.0001983480089 18421.0 1917.0 1275.748473748471 3.5078964816028413 423.0 7.0 305.0 
578.0007381255554 17996.0 1901.0 1278.5225885225861 3.196740789613594 421.0 6.0 307.0 
580.0007381255554 17917.0 1903.0 1278.3418803418822 3.4088510161687995 413.0 9.0 304.0 
582.0007381255554 18003.0 1903.0 1275.5848595848572 3.3158293497335767 408.0 11.0 301.0 
584.0007381255554 18231.0 1913.0 1275.6703296703279 3.484499904844207 415.0 7.0 305.0 
586.0001983480089 18579.0 1925.0 1278.5934065934043 3.631240699177465 419.0 5.0 308.0 
588.0007381255554 18663.0 1926.0 1281.4774114774139 3.6983238587843266 420.0 5.0 309.0 
590.0007381255554 18776.0 1927.0 1292.7789987789965 3.8183822580070146 425.0 5.0 313.0 
592.0007381255554 18555.0 1916.0 1289.8730158730143 3.757235596525116 423.0 5.0 312.0 
594.0007381255554 18336.0 1906.0 1289.7924297924276 3.6586906950613223 423.0 0.0 317.0 
596.0001983480089 18221.0 1904.0 1286.7594627594603 3.5150760707330835 416.0 0.0 316.0 
598.0007381255554 18725.0 1919.0 1286.8058608058589 3.352382356448137 416.0 0.0 316.0 
600.0007381255554 19122.0 1925.0 1287.1452991453004 3.352780576813567 428.0 0.0 316.0 
602.0007381255554 19458.0 1929.0 1289.8046398046379 3.14443351855292 435.0 0.0 317.0 
604.0007381255554 20127.0 1945.0 1289.9560439560435 3.2681594072509244 442.0 0.0 317.0 
606.0001983480089 20664.0 1958.0 1290.0512820512827 3.4387695176480624 443.0 0.0 317.0 
608.0007381255554 21007.0 1963.0 1290.0341880341884 3.614477597549502 444.0 0.0 317.0 
610.0007381255554 21289.0 1971.0 1292.9377289377283 3.8129979761569857 446.0 0.0 318.0 
612.0007381255554 21519.0 1980.0 1290.2271062271084 3.887997379249467 445.0 0.0 317.0 
614.0007381255554 21569.0 1983.0 1304.5543345543322 3.891177833613137 447.0 1.0 321.0 
616.0001983480089 21591.0 1983.0 1304.4297924297946 3.927583521724101 446.0 1.0 321.0 
618.0007381255554 21653.0 1986.0 1298.9426129426122 4.143326652522131 447.0 0.0 320.0 
620.0007381255554 21708.0 1987.0 1296.1098901098912 4.291464716593274 446.0 1.0 318.0 
622.0007381255554 21478.0 1981.0 1293.1501831501844 4.354400651483022 449.0 1.0 317.0 
624.0007381255554 21563.0 1982.0 1293.1868131868146 4.615578975007689 451.0 1.0 317.0 
626.0001983480089 21576.0 1984.0 1293.2893772893788 4.736439416852852 454.0 1.0 317.0 
628.0007381255554 21180.0 1976.0 1293.2625152625164 4.7219510240805365 448.0 7.0 311.0 
630.0007381255554 20576.0 1964.0 1296.0439560439565 4.66592212251234 446.0 7.0 312.0 
632.0007381255554 20057.0 1951.0 1298.793650793649 4.453097325815492 441.0 7.0 313.0 
634.0007381255554 19449.0 1944.0 1298.6568986568968 4.166092622304335 441.0 7.0 313.0 
636.0001983480089 18896.0 1927.0 1301.2893772893785 4.147977137735952 435.0 7.0 314.0 
638.0007381255554 18804.0 1928.0 1309.6507936507917 4.019978517432406 431.0 7.0 317.0 
640.0007381255554 18672.0 1925.0 1312.4004884004905 3.9102820379413203 426.0 7.0 318.0 
642.0007381255554 18282.0 1915.0 1309.470085470088 3.737892624355767 417.0 7.0 317.0 
644.0007381255554 18007.0 1900.0 1309.2673992674002 3.596876680836861 412.0 7.0 317.0 
646.0001983480089 17771.0 1891.0 1309.218559218561 3.660908180284036 416.0 6.0 318.0 
648.0007381255554 17569.0 1889.0 1309.223443223445 3.617263242139476 415.0 7.0 317.0 
650.0007381255554 17370.0 1885.0 1309.1159951159962 3.4644299093757085 413.0 11.0 313.0 
652.0007381255554 17649.0 1895.0 1311.936507936507 3.3340926314918584 417.0 7.0 318.0 
654.0007381255554 17844.0 1903.0 1306.402930402933 3.4179592454639898 418.0 5.0 318.0 
656.0001983480089 17947.0 1906.0 1303.5848595848568 3.534106104747922 416.0 7.0 315.0 
658.0007381255554 17828.0 1900.0 1303.5335775335743 3.3926357972610446 417.0 6.0 316.0 
660.0007381255554 18227.0 1906.0 1300.6886446886426 3.4432537947796393 424.0 6.0 315.0 
662.0007381255554 18587.0 1911.0 1306.5567765567741 3.2206155162831305 426.0 7.0 316.0 
664.0007381255554 19185.0 1922.0 1306.5567765567744 3.1619738486068307 426.0 7.0 316.0 
#####################################################################
# End of data export. Simulation finished at: 2019-03-04T22:14+0000 #
#####################################################################
