#####################################################################
# Alchemist log file - simulation started at: 2019-03-07T09:21+0000 #
#####################################################################
# seed = 7.0, bandwidth = 1000.0, accessPointCount = 10.0, baserange = 56.234132519034915
#
# The columns have the following meaning: 
# time neighbor_count[Sum] <value>@neighbor_count[Sum] packet_size[Mean] mean_delay[Mean] crowd[Sum] overcrowded[Sum] risk[Sum] 
0.0 NaN NaN NaN NaN NaN NaN NaN 
2.0008200817491506 NaN NaN 4987.840743198408 NaN 1497.0 0.0 1497.0 
4.000820081749151 NaN NaN 4987.840743198408 NaN 1497.0 0.0 1497.0 
6.000297418119471 1.0 1.0 4987.843397478434 0.0417322399540625 1497.0 0.0 1497.0 
8.00082008174915 2.0 1.0 4987.883211678832 2.0159999999999996 1497.0 0.0 1497.0 
10.000407819687528 2.0 1.0 4987.872594558726 4.016 1497.0 0.0 1497.0 
12.00082008174915 2.0 1.0 4987.883211678832 1.0220000000000002 1497.0 0.0 1497.0 
14.00082008174915 2.0 1.0 4987.856668878567 3.0220000000000002 1497.0 0.0 1497.0 
16.000297418119473 6.0 3.0 4987.867285998673 1.2206600502041431 1497.0 0.0 1497.0 
18.00082008174915 10.0 4.0 4987.960185799602 2.031179190534128 1497.0 0.0 1497.0 
20.000407819687528 10.0 4.0 4987.933642999336 4.031179190534128 1497.0 0.0 1497.0 
22.00082008174915 10.0 4.0 4987.9150630391505 5.199845857200795 1497.0 0.0 1497.0 
24.00082008174915 10.0 4.0 4987.907100199071 6.200512523867461 1497.0 0.0 1497.0 
26.000297418119473 10.0 4.0 4987.912408759124 7.364512523867462 1497.0 0.0 1497.0 
28.00082008174915 10.0 4.0 4987.933642999336 9.364512523867461 1497.0 0.0 1497.0 
30.000407819687528 10.0 4.0 4987.944260119442 10.371845857200794 1497.0 0.0 1497.0 
32.000820081749154 10.0 4.0 4987.944260119442 1.3801791905341276 1497.0 0.0 1497.0 
34.000820081749154 10.0 4.0 4987.8991373589915 2.5401791905341264 1497.0 0.0 1497.0 
36.00029741811947 10.0 4.0 4987.893828798939 4.540179190534126 1497.0 0.0 1497.0 
38.000820081749154 10.0 4.0 4987.893828798939 5.540845857200793 1497.0 0.0 1497.0 
40.000407819687524 10.0 4.0 4987.893828798939 6.543512523867459 1497.0 0.0 1497.0 
42.000820081749154 10.0 4.0 4987.893828798939 8.54351252386746 1497.0 0.0 1497.0 
44.000820081749154 10.0 4.0 4987.893828798939 9.544845857200793 1497.0 0.0 1497.0 
46.00029741811947 10.0 4.0 4987.9044459190445 5.26651252386746 1497.0 0.0 1497.0 
48.000820081749154 10.0 4.0 4987.9097544790975 2.6565125238674607 1497.0 0.0 1497.0 
50.000407819687524 10.0 4.0 4987.9097544790975 2.8231791905341272 1497.0 0.0 1497.0 
52.000820081749154 10.0 4.0 4987.9097544790975 4.823179190534127 1497.0 0.0 1497.0 
54.000820081749154 10.0 4.0 4987.9097544790975 6.823179190534127 1497.0 0.0 1497.0 
56.00029741811947 10.0 4.0 4987.9097544790975 6.989845857200794 1497.0 0.0 1497.0 
58.000820081749154 10.0 4.0 4987.9097544790975 8.989845857200795 1497.0 0.0 1497.0 
60.000407819687524 10.0 4.0 4987.9097544790975 10.15651252386746 1497.0 0.0 1497.0 
62.00051430310903 10.0 4.0 400.0 3.024401412756349 3.0 0.0 0.0 
64.00051430310903 10.0 4.0 400.0 1.5756236349785708 3.0 0.0 0.0 
66.00029741811947 10.0 4.0 400.0 0.8178458572007905 2.0 0.0 0.0 
68.00051430310904 10.0 4.0 400.0 0.8178458572007905 2.0 0.0 0.0 
70.00051430310904 10.0 4.0 400.0 0.8178458572007905 2.0 0.0 0.0 
72.00051430310904 12.0 5.0 400.0 0.7633843929005915 2.0 0.0 0.0 
74.00051430310904 12.0 5.0 400.0 0.7633843929005915 2.0 0.0 0.0 
76.00029741811947 12.0 5.0 400.0 0.7633843929005915 2.0 0.0 0.0 
78.00051430310904 12.0 5.0 400.0 0.7633843929005915 2.0 0.0 0.0 
80.00051430310904 12.0 5.0 400.0 0.7633843929005915 2.0 0.0 0.0 
82.00051430310904 12.0 5.0 400.0 1.2633843929005915 2.0 0.0 0.0 
84.00051430310904 12.0 5.0 400.0 1.7633843929005915 2.0 0.0 0.0 
86.00029741811947 12.0 5.0 400.0 2.2633843929005915 2.0 0.0 0.0 
88.00051430310904 12.0 5.0 400.0 2.7633843929005915 2.0 0.0 0.0 
90.00051430310904 12.0 5.0 400.0 3.2633843929005915 2.0 0.0 0.0 
92.00051430310904 12.0 5.0 400.0 3.7633843929005915 2.0 0.0 0.0 
94.00051430310904 12.0 5.0 400.0 4.2633843929005915 2.0 0.0 0.0 
96.00029741811947 12.0 5.0 400.0 4.763384392900592 2.0 0.0 0.0 
98.00051430310904 12.0 5.0 400.0 5.263384392900592 2.0 0.0 0.0 
100.00051430310904 12.0 5.0 400.0 5.763384392900592 2.0 0.0 0.0 
102.00051430310904 12.0 5.0 400.0 6.263384392900592 2.0 0.0 0.0 
104.00051430310904 12.0 5.0 400.0 6.763384392900592 2.0 0.0 0.0 
106.00029741811947 12.0 5.0 400.0 7.263384392900592 2.0 0.0 0.0 
108.00051430310904 12.0 5.0 400.0 7.763384392900592 2.0 0.0 0.0 
110.00051430310904 10.0 4.0 400.0 0.8178458572007905 2.0 0.0 0.0 
112.00051430310904 10.0 4.0 400.0 0.8178458572007905 2.0 0.0 0.0 
114.00051430310904 10.0 4.0 400.0 0.8178458572007905 2.0 0.0 0.0 
116.00029741811947 10.0 4.0 400.0 0.8178458572007905 2.0 0.0 0.0 
118.00051430310904 10.0 4.0 400.0 0.8178458572007905 2.0 0.0 0.0 
120.00051430310904 10.0 4.0 400.0 0.8178458572007905 2.0 0.0 0.0 
122.00051430310904 10.0 4.0 400.0 0.8178458572007905 2.0 0.0 0.0 
124.00051430310904 10.0 4.0 400.0 0.8178458572007905 2.0 0.0 0.0 
126.00029741811947 10.0 4.0 400.0 0.8178458572007905 2.0 0.0 0.0 
128.00051430310904 10.0 4.0 400.0 0.8178458572007905 2.0 0.0 0.0 
130.00051430310904 10.0 4.0 400.0 0.8178458572007968 2.0 0.0 0.0 
132.00051430310904 10.0 4.0 400.0 0.817845857200798 2.0 0.0 0.0 
134.00051430310904 10.0 4.0 400.0 0.817845857200798 2.0 0.0 0.0 
136.0002974181195 10.0 4.0 400.0 0.817845857200798 2.0 0.0 0.0 
138.00051430310904 10.0 4.0 400.0 0.817845857200798 2.0 0.0 0.0 
140.00051430310904 10.0 4.0 400.0 0.817845857200798 2.0 0.0 0.0 
142.00051430310904 10.0 4.0 400.0 0.817845857200798 2.0 0.0 0.0 
144.00051430310904 10.0 4.0 400.0 0.817845857200798 2.0 0.0 0.0 
146.0002974181195 10.0 4.0 400.0 0.817845857200798 2.0 0.0 0.0 
148.00051430310904 10.0 4.0 400.0 0.817845857200798 2.0 0.0 0.0 
150.00051430310904 10.0 4.0 400.0 0.817845857200798 2.0 0.0 0.0 
152.00051430310904 10.0 4.0 400.0 0.817845857200798 2.0 0.0 0.0 
154.00051430310904 10.0 4.0 400.0 0.817845857200798 2.0 0.0 0.0 
156.0002974181195 10.0 4.0 400.0 0.817845857200798 2.0 0.0 0.0 
158.00051430310904 10.0 4.0 400.0 0.817845857200798 2.0 0.0 0.0 
160.00051430310904 10.0 4.0 400.0 0.817845857200798 2.0 0.0 0.0 
162.00051430310904 10.0 4.0 400.0 0.817845857200798 2.0 0.0 0.0 
164.00051430310904 10.0 4.0 400.0 0.817845857200798 2.0 0.0 0.0 
166.0002974181195 10.0 4.0 400.0 0.817845857200798 2.0 0.0 0.0 
168.00051430310904 10.0 4.0 400.0 0.817845857200798 1.0 0.0 0.0 
170.00051430310904 10.0 4.0 400.0 0.817845857200798 0.0 0.0 0.0 
172.00051430310904 10.0 4.0 400.0 0.817845857200798 0.0 0.0 0.0 
174.00051430310904 10.0 4.0 400.0 0.817845857200798 0.0 0.0 0.0 
176.0002974181195 10.0 4.0 400.0 0.817845857200798 0.0 0.0 0.0 
178.00051430310904 10.0 4.0 400.0 0.817845857200798 0.0 0.0 0.0 
180.00051430310904 10.0 4.0 400.0 0.817845857200798 0.0 0.0 0.0 
182.00051430310904 10.0 4.0 400.0 0.817845857200798 0.0 0.0 0.0 
184.00051430310904 10.0 4.0 400.0 0.817845857200798 0.0 0.0 0.0 
186.0002974181195 10.0 4.0 400.0 0.817845857200798 0.0 0.0 0.0 
188.00051430310904 10.0 4.0 400.0 0.817845857200798 0.0 0.0 0.0 
190.00051430310904 10.0 4.0 400.0 0.817845857200798 0.0 0.0 0.0 
192.00051430310904 10.0 4.0 400.0 0.817845857200798 0.0 0.0 0.0 
194.00051430310904 10.0 4.0 400.0 0.817845857200798 0.0 0.0 0.0 
196.0002974181195 10.0 4.0 400.0 0.817845857200798 0.0 0.0 0.0 
198.00051430310904 10.0 4.0 400.0 0.817845857200798 0.0 0.0 0.0 
200.00051430310904 10.0 4.0 400.0 0.817845857200798 0.0 0.0 0.0 
202.00051430310904 10.0 4.0 400.0 0.817845857200798 0.0 0.0 0.0 
204.00051430310904 10.0 4.0 400.0 0.817845857200798 0.0 0.0 0.0 
206.0002974181195 10.0 4.0 400.0 0.817845857200798 0.0 0.0 0.0 
208.00051430310904 10.0 4.0 400.0 0.817845857200798 0.0 0.0 0.0 
210.00051430310904 10.0 4.0 400.0 0.817845857200798 0.0 0.0 0.0 
212.00051430310904 10.0 4.0 400.0 0.817845857200798 0.0 0.0 0.0 
214.00051430310904 10.0 4.0 400.0 0.817845857200798 0.0 0.0 0.0 
216.0002974181195 10.0 4.0 400.0 0.817845857200798 0.0 0.0 0.0 
218.00051430310904 10.0 4.0 400.0 0.817845857200798 0.0 0.0 0.0 
220.00051430310904 10.0 4.0 400.0 0.817845857200798 0.0 0.0 0.0 
222.00051430310904 10.0 4.0 400.0 0.817845857200798 0.0 0.0 0.0 
224.00051430310904 10.0 4.0 400.0 0.817845857200798 0.0 0.0 0.0 
226.0002974181195 10.0 4.0 400.0 0.817845857200798 0.0 0.0 0.0 
228.00051430310904 10.0 4.0 400.0 0.817845857200798 0.0 0.0 0.0 
230.00051430310904 10.0 4.0 400.0 0.817845857200798 0.0 0.0 0.0 
232.00051430310904 10.0 4.0 400.0 0.817845857200798 0.0 0.0 0.0 
234.00051430310904 10.0 4.0 400.0 0.817845857200798 0.0 0.0 0.0 
236.0002974181195 10.0 4.0 400.0 0.817845857200798 0.0 0.0 0.0 
238.00051430310904 10.0 4.0 400.0 0.817845857200798 0.0 0.0 0.0 
240.00051430310904 10.0 4.0 400.0 0.817845857200798 0.0 0.0 0.0 
242.00051430310904 10.0 4.0 400.0 0.817845857200798 0.0 0.0 0.0 
244.00051430310904 10.0 4.0 400.0 0.817845857200798 0.0 0.0 0.0 
246.0002974181195 10.0 4.0 400.0 0.817845857200798 0.0 0.0 0.0 
248.00051430310904 10.0 4.0 400.0 0.817845857200798 0.0 0.0 0.0 
250.00051430310904 10.0 4.0 400.0 0.817845857200798 0.0 0.0 0.0 
252.00051430310904 10.0 4.0 400.0 0.817845857200798 0.0 0.0 0.0 
254.00051430310904 10.0 4.0 400.0 0.817845857200798 0.0 0.0 0.0 
256.0002974181195 10.0 4.0 400.0 0.817845857200798 0.0 0.0 0.0 
258.000514303109 10.0 4.0 400.0 0.8178458572008106 0.0 0.0 0.0 
260.000514303109 10.0 4.0 400.0 0.8178458572008083 0.0 0.0 0.0 
262.000514303109 10.0 4.0 400.0 0.8178458572008083 0.0 0.0 0.0 
264.000514303109 10.0 4.0 400.0 0.8178458572008083 0.0 0.0 0.0 
266.0002974181195 10.0 4.0 400.0 0.8178458572008083 0.0 0.0 0.0 
268.000514303109 10.0 4.0 400.0 0.8178458572008083 0.0 0.0 0.0 
270.000514303109 10.0 4.0 400.0 0.8178458572008083 0.0 0.0 0.0 
272.000514303109 10.0 4.0 400.0 0.8178458572008083 0.0 0.0 0.0 
274.000514303109 10.0 4.0 400.0 0.8178458572008083 0.0 0.0 0.0 
276.0002974181195 10.0 4.0 400.0 0.8178458572008083 0.0 0.0 0.0 
278.000514303109 10.0 4.0 400.0 0.8178458572008083 0.0 0.0 0.0 
280.000514303109 10.0 4.0 400.0 0.8178458572008083 0.0 0.0 0.0 
282.000514303109 10.0 4.0 400.0 0.8178458572008083 0.0 0.0 0.0 
284.000514303109 10.0 4.0 400.0 0.8178458572008083 0.0 0.0 0.0 
286.0002974181195 10.0 4.0 400.0 0.8178458572008083 0.0 0.0 0.0 
288.000514303109 10.0 4.0 400.0 0.8178458572008083 0.0 0.0 0.0 
290.000514303109 10.0 4.0 400.0 0.8178458572008083 0.0 0.0 0.0 
292.000514303109 10.0 4.0 400.0 0.8178458572008083 0.0 0.0 0.0 
294.000514303109 10.0 4.0 400.0 0.8178458572008083 0.0 0.0 0.0 
296.0002974181195 10.0 4.0 400.0 0.8178458572008083 0.0 0.0 0.0 
298.000514303109 10.0 4.0 400.0 0.8178458572008083 0.0 0.0 0.0 
300.000514303109 10.0 4.0 400.0 0.8178458572008083 0.0 0.0 0.0 
302.000514303109 10.0 4.0 400.0 0.8178458572008083 0.0 0.0 0.0 
304.000514303109 10.0 4.0 400.0 0.8178458572008083 0.0 0.0 0.0 
306.0002974181195 10.0 4.0 400.0 0.8178458572008083 0.0 0.0 0.0 
308.000514303109 10.0 4.0 400.0 0.8178458572008083 0.0 0.0 0.0 
310.000514303109 10.0 4.0 400.0 0.8178458572008083 0.0 0.0 0.0 
312.000514303109 10.0 4.0 400.0 0.8178458572008083 0.0 0.0 0.0 
314.000514303109 10.0 4.0 400.0 0.8178458572008083 0.0 0.0 0.0 
316.0002974181195 10.0 4.0 400.0 0.8178458572008083 0.0 0.0 0.0 
318.000514303109 10.0 4.0 400.0 0.8178458572008083 0.0 0.0 0.0 
320.000514303109 10.0 4.0 400.0 0.8178458572008083 0.0 0.0 0.0 
322.000514303109 10.0 4.0 400.0 0.8178458572008083 0.0 0.0 0.0 
324.000514303109 11.0 5.0 400.0 0.7121038548656884 0.0 0.0 0.0 
326.0002974181195 12.0 5.0 400.0 0.6383843929006119 0.0 0.0 0.0 
328.000514303109 12.0 5.0 400.0 0.6383843929006119 0.0 0.0 0.0 
330.000514303109 12.0 5.0 400.0 0.6383843929006119 0.0 0.0 0.0 
332.000514303109 12.0 5.0 400.0 0.6383843929006119 0.0 0.0 0.0 
334.000514303109 12.0 5.0 400.0 0.6383843929006119 0.0 0.0 0.0 
336.0002974181195 12.0 5.0 400.0 0.6383843929006119 0.0 0.0 0.0 
338.000514303109 12.0 5.0 400.0 0.6383843929006119 0.0 0.0 0.0 
340.000514303109 12.0 5.0 400.0 0.6383843929006119 0.0 0.0 0.0 
342.000514303109 12.0 5.0 400.0 0.6383843929006119 0.0 0.0 0.0 
344.000514303109 12.0 5.0 400.0 0.7633843929006119 0.0 0.0 0.0 
346.0002974181195 12.0 5.0 400.0 1.2633843929006119 0.0 0.0 0.0 
348.000514303109 12.0 5.0 400.0 1.7633843929006119 0.0 0.0 0.0 
350.000514303109 12.0 5.0 400.0 2.263384392900612 0.0 0.0 0.0 
352.000514303109 12.0 5.0 400.0 2.763384392900612 0.0 0.0 0.0 
354.000514303109 12.0 5.0 400.0 3.263384392900612 0.0 0.0 0.0 
356.0002974181195 12.0 5.0 400.0 3.763384392900612 0.0 0.0 0.0 
358.000514303109 12.0 5.0 400.0 4.263384392900612 0.0 0.0 0.0 
360.000514303109 12.0 5.0 400.0 4.763384392900612 0.0 0.0 0.0 
362.000514303109 12.0 5.0 400.0 5.263384392900612 0.0 0.0 0.0 
364.000514303109 12.0 5.0 400.0 5.763384392900612 0.0 0.0 0.0 
366.0002974181195 12.0 5.0 400.0 6.263384392900612 0.0 0.0 0.0 
368.000514303109 12.0 5.0 400.0 6.763384392900612 0.0 0.0 0.0 
370.000514303109 12.0 5.0 400.0 7.263384392900612 0.0 0.0 0.0 
372.000514303109 12.0 5.0 400.0 7.763384392900612 0.0 0.0 0.0 
374.000514303109 10.0 4.0 400.0 0.8178458572008083 0.0 0.0 0.0 
376.0002974181195 10.0 4.0 400.0 0.8178458572008083 0.0 0.0 0.0 
378.000514303109 10.0 4.0 400.0 0.8178458572008083 0.0 0.0 0.0 
380.000514303109 10.0 4.0 400.0 0.8178458572008083 0.0 0.0 0.0 
382.000514303109 10.0 4.0 400.0 0.8178458572008083 0.0 0.0 0.0 
384.000514303109 10.0 4.0 400.0 0.8178458572008083 0.0 0.0 0.0 
386.0002974181195 10.0 4.0 400.0 0.8178458572008083 0.0 0.0 0.0 
388.000514303109 10.0 4.0 400.0 0.8178458572008083 0.0 0.0 0.0 
390.000514303109 10.0 4.0 400.0 0.8178458572008083 0.0 0.0 0.0 
392.000514303109 10.0 4.0 400.0 0.8178458572008083 0.0 0.0 0.0 
394.000514303109 10.0 4.0 400.0 0.8178458572008083 0.0 0.0 0.0 
396.0002974181195 10.0 4.0 400.0 0.8178458572008083 0.0 0.0 0.0 
398.000514303109 10.0 4.0 400.0 0.8178458572008083 0.0 0.0 0.0 
400.000514303109 10.0 4.0 400.0 0.8178458572008083 0.0 0.0 0.0 
402.000514303109 10.0 4.0 400.0 0.8178458572008083 0.0 0.0 0.0 
404.000514303109 10.0 4.0 400.0 0.8178458572008083 0.0 0.0 0.0 
406.0002974181195 10.0 4.0 400.0 0.8178458572008083 0.0 0.0 0.0 
408.000514303109 10.0 4.0 400.0 0.8178458572008083 0.0 0.0 0.0 
410.000514303109 10.0 4.0 400.0 0.8178458572008083 0.0 0.0 0.0 
412.000514303109 10.0 4.0 400.0 0.8178458572008083 0.0 0.0 0.0 
414.000514303109 10.0 4.0 400.0 0.8178458572008083 0.0 0.0 0.0 
416.0002974181195 10.0 4.0 400.0 0.8178458572008083 0.0 0.0 0.0 
418.000514303109 10.0 4.0 400.0 0.8178458572008083 0.0 0.0 0.0 
420.000514303109 10.0 4.0 400.0 0.8178458572008083 0.0 0.0 0.0 
422.000514303109 10.0 4.0 400.0 0.8178458572008083 0.0 0.0 0.0 
424.000514303109 10.0 4.0 400.0 0.8178458572008083 0.0 0.0 0.0 
426.0002974181195 10.0 4.0 400.0 0.8178458572008083 0.0 0.0 0.0 
428.000514303109 10.0 4.0 400.0 0.8178458572008083 0.0 0.0 0.0 
430.000514303109 10.0 4.0 400.0 0.8178458572008083 0.0 0.0 0.0 
432.000514303109 10.0 4.0 400.0 0.8178458572008083 0.0 0.0 0.0 
434.000514303109 10.0 4.0 400.0 0.8178458572008083 0.0 0.0 0.0 
436.0002974181195 10.0 4.0 400.0 0.8178458572008083 0.0 0.0 0.0 
438.000514303109 10.0 4.0 400.0 0.8178458572008083 0.0 0.0 0.0 
440.000514303109 10.0 4.0 400.0 0.8178458572008083 0.0 0.0 0.0 
442.000514303109 10.0 4.0 400.0 0.8178458572008083 0.0 0.0 0.0 
444.000514303109 10.0 4.0 400.0 0.8178458572008083 0.0 0.0 0.0 
446.0002974181195 10.0 4.0 400.0 0.8178458572008083 0.0 0.0 0.0 
448.000514303109 10.0 4.0 400.0 0.8178458572008083 0.0 0.0 0.0 
450.000514303109 10.0 4.0 400.0 0.8178458572008083 0.0 0.0 0.0 
452.000514303109 10.0 4.0 400.0 0.8178458572008083 0.0 0.0 0.0 
454.000514303109 10.0 4.0 400.0 0.8178458572008083 0.0 0.0 0.0 
456.0002974181195 10.0 4.0 400.0 0.8178458572008083 0.0 0.0 0.0 
458.000514303109 10.0 4.0 400.0 0.8178458572008083 0.0 0.0 0.0 
460.000514303109 10.0 4.0 400.0 0.8178458572008083 0.0 0.0 0.0 
462.000514303109 10.0 4.0 400.0 0.8178458572008083 0.0 0.0 0.0 
464.000514303109 10.0 4.0 400.0 0.8178458572008083 0.0 0.0 0.0 
466.0002974181195 10.0 4.0 400.0 0.8178458572008083 0.0 0.0 0.0 
468.000514303109 10.0 4.0 400.0 0.8178458572008083 0.0 0.0 0.0 
470.000514303109 10.0 4.0 400.0 0.8178458572008083 0.0 0.0 0.0 
472.000514303109 10.0 4.0 400.0 0.8178458572008083 0.0 0.0 0.0 
474.000514303109 10.0 4.0 400.0 0.8178458572008083 0.0 0.0 0.0 
476.0002974181195 10.0 4.0 400.0 0.8178458572008083 0.0 0.0 0.0 
478.000514303109 10.0 4.0 400.0 0.8178458572008083 0.0 0.0 0.0 
480.000514303109 10.0 4.0 400.0 0.8178458572008083 0.0 0.0 0.0 
482.000514303109 10.0 4.0 400.0 0.8178458572008083 0.0 0.0 0.0 
484.000514303109 10.0 4.0 400.0 0.8178458572008083 0.0 0.0 0.0 
486.0002974181195 10.0 4.0 400.0 0.8178458572008083 0.0 0.0 0.0 
488.000514303109 10.0 4.0 400.0 0.8178458572008083 0.0 0.0 0.0 
490.000514303109 10.0 4.0 400.0 0.8178458572008083 0.0 0.0 0.0 
492.000514303109 10.0 4.0 400.0 0.8178458572008083 0.0 0.0 0.0 
494.000514303109 10.0 4.0 400.0 0.8178458572008083 0.0 0.0 0.0 
496.0002974181195 12.0 5.0 400.0 1.07332425862149 0.0 0.0 0.0 
498.000514303109 14.0 5.0 400.0 0.9555219701718707 0.0 0.0 0.0 
500.000514303109 14.0 5.0 400.0 0.9126648273147241 0.0 0.0 0.0 
502.000514303109 14.0 5.0 400.0 0.9126648273147241 0.0 0.0 0.0 
504.000514303109 14.0 5.0 400.0 0.9126648273147241 0.0 0.0 0.0 
506.0002974181195 14.0 5.0 400.0 0.9126648273147241 0.0 0.0 0.0 
508.000514303109 14.0 5.0 400.0 0.9126648273147241 0.0 0.0 0.0 
510.000514303109 14.0 5.0 400.0 0.9126648273147241 0.0 0.0 0.0 
512.0005143031091 14.0 5.0 400.0 0.9126648273147241 0.0 0.0 0.0 
514.0005143031091 14.0 5.0 400.0 0.9126648273147241 0.0 0.0 0.0 
516.0002974181195 14.0 5.0 400.0 0.9126648273147241 0.0 0.0 0.0 
518.0005143031091 14.0 5.0 400.0 0.9126648273147241 0.0 0.0 0.0 
520.0005143031091 14.0 5.0 400.0 0.9126648273147241 0.0 0.0 0.0 
522.0005143031091 14.0 5.0 400.0 0.9126648273147241 0.0 0.0 0.0 
524.0005143031091 14.0 5.0 400.0 0.9126648273147241 0.0 0.0 0.0 
526.0002974181195 14.0 5.0 400.0 0.9126648273147241 0.0 0.0 0.0 
528.0005143031091 14.0 5.0 400.0 0.9126648273147241 0.0 0.0 0.0 
530.0005143031091 14.0 5.0 400.0 0.9126648273147241 0.0 0.0 0.0 
532.0005143031091 14.0 5.0 400.0 0.9126648273147241 0.0 0.0 0.0 
534.0005143031091 14.0 5.0 400.0 0.9126648273147241 0.0 0.0 0.0 
536.0002974181195 14.0 5.0 400.0 0.9126648273147241 0.0 0.0 0.0 
538.0005143031091 14.0 5.0 400.0 0.9126648273147241 0.0 0.0 0.0 
540.0005143031091 14.0 5.0 400.0 0.9126648273147241 0.0 0.0 0.0 
542.0005143031091 14.0 5.0 400.0 0.9126648273147241 0.0 0.0 0.0 
544.0005143031091 14.0 5.0 400.0 0.9126648273147241 0.0 0.0 0.0 
546.0002974181195 14.0 5.0 400.0 0.9126648273147241 0.0 0.0 0.0 
548.0005143031091 14.0 5.0 400.0 0.9126648273147241 0.0 0.0 0.0 
550.0005143031091 14.0 5.0 400.0 0.9126648273147241 0.0 0.0 0.0 
552.0005143031091 14.0 5.0 400.0 0.9126648273147241 0.0 0.0 0.0 
554.0005143031091 14.0 5.0 400.0 0.9126648273147241 0.0 0.0 0.0 
556.0002974181195 14.0 5.0 400.0 0.9126648273147241 0.0 0.0 0.0 
558.0005143031091 14.0 5.0 400.0 0.9126648273147241 0.0 0.0 0.0 
560.0005143031091 14.0 5.0 400.0 0.9126648273147241 0.0 0.0 0.0 
562.0005143031091 14.0 5.0 400.0 0.9126648273147241 0.0 0.0 0.0 
564.0005143031091 16.0 6.0 400.0 0.8431837545781238 0.0 0.0 0.0 
566.0002974181195 16.0 6.0 400.0 0.8431837545781238 0.0 0.0 0.0 
568.0005143031091 16.0 6.0 400.0 0.8431837545781238 0.0 0.0 0.0 
570.0005143031091 16.0 6.0 400.0 0.8431837545781238 0.0 0.0 0.0 
572.0005143031091 16.0 6.0 400.0 0.8431837545781238 0.0 0.0 0.0 
574.0005143031091 16.0 6.0 400.0 1.2876281990225682 0.0 0.0 0.0 
576.0002974181195 19.0 6.0 400.0 1.6715397254765185 0.0 0.0 0.0 
578.0005143031091 20.0 6.0 400.0 2.138662791111878 0.0 0.0 0.0 
580.0005143031091 20.0 6.0 400.0 2.5831072355563225 0.0 0.0 0.0 
582.0005143031091 20.0 6.0 400.0 3.0275516800007667 0.0 0.0 0.0 
584.0005143031091 20.0 6.0 400.0 3.4719961244452113 0.0 0.0 0.0 
586.0002974181195 20.0 6.0 403.06038487060385 4.083107235556322 1.0 0.0 1.0 
588.0005143031091 20.0 6.0 403.0444591904446 4.897922050371138 1.0 0.0 1.0 
590.0005143031091 20.0 6.0 403.0444591904446 5.712736865185952 1.0 0.0 1.0 
592.0005143031091 20.0 6.0 403.0444591904446 6.527551680000768 1.0 0.0 1.0 
594.0005143031091 20.0 6.0 403.0444591904446 7.342366494815582 1.0 0.0 1.0 
596.0002974181195 20.0 6.0 403.0444591904446 8.157181309630397 1.0 0.0 1.0 
598.0005143031091 20.0 6.0 403.0444591904446 8.97199612444521 1.0 0.0 1.0 
600.0005143031091 20.0 6.0 403.0444591904446 9.786810939260025 1.0 0.0 1.0 
602.0005143031091 18.0 5.0 403.0444591904446 4.88780454095336 1.0 0.0 1.0 
604.0005143031091 18.0 5.0 403.0444591904446 5.363995017143837 1.0 0.0 1.0 
606.0002974181195 18.0 5.0 403.0444591904446 5.797328350477168 1.0 0.0 1.0 
608.0005143031091 18.0 5.0 403.0444591904446 6.516375969524781 1.0 0.0 1.0 
610.0005143031091 18.0 5.0 403.0444591904446 7.22589977904859 1.0 0.0 1.0 
612.0005143031091 18.0 5.0 403.0444591904446 7.91637596952478 1.0 0.0 1.0 
614.0005143031091 16.0 5.0 403.0444591904446 5.648470901824522 1.0 0.0 1.0 
616.0002974181195 13.0 4.0 403.0444591904446 2.385966473493657 1.0 0.0 1.0 
618.0005143031091 13.0 4.0 403.0444591904446 2.6716807592079426 1.0 0.0 1.0 
620.0005143031091 13.0 4.0 403.0444591904446 2.957395044922228 1.0 0.0 1.0 
622.0005143031091 13.0 4.0 403.0444591904446 3.243109330636514 1.0 0.0 1.0 
624.0005143031091 13.0 4.0 403.0444591904446 3.5288236163507998 1.0 0.0 1.0 
626.0002974181195 13.0 4.0 403.0444591904446 3.814537902065086 1.0 0.0 1.0 
628.0005143031091 13.0 4.0 403.0444591904446 4.100252187779371 1.0 0.0 1.0 
630.0005143031091 13.0 4.0 403.0444591904446 4.385966473493657 1.0 0.0 1.0 
632.0005143031091 13.0 4.0 403.0444591904446 4.671680759207942 1.0 0.0 1.0 
634.0005143031091 12.0 4.0 403.0444591904446 4.893846969744897 1.0 0.0 1.0 
636.0002974181195 10.0 4.0 403.0444591904446 0.8178458572007704 1.0 0.0 1.0 
638.0005143031091 10.0 4.0 403.0444591904446 0.8178458572007704 1.0 0.0 1.0 
640.0005143031091 10.0 4.0 403.0444591904446 0.8178458572007704 1.0 0.0 1.0 
642.0005143031091 10.0 4.0 403.0444591904446 0.8178458572007704 1.0 0.0 1.0 
644.0005143031091 11.0 5.0 403.0444591904446 0.7121038548656559 1.0 0.0 1.0 
646.0002974181195 12.0 5.0 403.0444591904446 0.6383843929005835 1.0 0.0 1.0 
648.0005143031091 12.0 5.0 403.0444591904446 0.6383843929005835 1.0 0.0 1.0 
650.0005143031091 12.0 5.0 403.0444591904446 0.6383843929005835 1.0 0.0 1.0 
652.0005143031091 12.0 5.0 403.0444591904446 0.6383843929005835 1.0 0.0 1.0 
654.0005143031091 12.0 5.0 403.0444591904446 0.7633843929005835 1.0 0.0 1.0 
656.0002974181195 12.0 5.0 403.0444591904446 1.2633843929005835 1.0 0.0 1.0 
658.0005143031091 12.0 5.0 403.0444591904446 1.7633843929005835 1.0 0.0 1.0 
660.0005143031091 12.0 5.0 403.0444591904446 2.2633843929005835 1.0 0.0 1.0 
662.0005143031091 12.0 5.0 403.0444591904446 2.7633843929005835 1.0 0.0 1.0 
664.0005143031091 12.0 5.0 403.0444591904446 3.2633843929005835 1.0 0.0 1.0 
#####################################################################
# End of data export. Simulation finished at: 2019-03-07T09:23+0000 #
#####################################################################
