#####################################################################
# Alchemist log file - simulation started at: 2019-03-03T09:38+0000 #
#####################################################################
# seed = 9.0, bandwidth = 1.0E8, accessPointCount = 141.4213562373095, baserange = 1000.0
#
# The columns have the following meaning: 
# time neighbor_count[Sum] <value>@neighbor_count[Sum] packet_size[Mean] mean_delay[Mean] crowd[Sum] overcrowded[Sum] risk[Sum] 
0.0 NaN NaN NaN NaN NaN NaN NaN 
10.000337445961424 34070.0 1963.0 4991.753357753358 0.6055906543972911 1495.0 2.0 1495.0 
20.000337445961424 32014.0 1835.0 4992.522588522588 0.4976178052532006 1495.0 2.0 1495.0 
30.000337445961424 32021.0 1836.0 4992.605616605617 0.49744608372843085 1495.0 2.0 1495.0 
40.00033744596142 32236.0 1838.0 4992.554334554335 0.502367383739865 1496.0 1.0 1496.0 
50.00033744596142 32128.0 1836.0 4992.5665445665445 0.4989537683803416 1496.0 1.0 1496.0 
60.00033744596142 32202.0 1839.0 4992.673992673993 0.4982204184265772 1496.0 1.0 1496.0 
70.00033744596142 32272.0 1840.0 1383.997557997558 0.5006780232442225 494.0 14.0 336.0 
80.00033744596142 32353.0 1838.0 1383.6849816849813 0.499881857807745 474.0 15.0 335.0 
90.00033744596142 32475.0 1838.0 1386.5323565323554 0.5004213513733522 472.0 16.0 335.0 
100.00033744596142 32444.0 1838.0 1386.5006105006123 0.49989192114026354 472.0 16.0 335.0 
110.00033744596142 32421.0 1836.0 1389.3260073260076 0.499762901189494 471.0 16.0 336.0 
120.00033744596142 32435.0 1836.0 1397.6923076923072 0.49896862128725095 473.0 16.0 339.0 
130.0003374459614 32163.0 1837.0 1397.8168498168484 0.4987455346155205 475.0 16.0 339.0 
140.0003374459614 32004.0 1838.0 1397.8388278388265 0.49914685123898106 471.0 14.0 341.0 
150.0003374459614 31845.0 1838.0 1386.5787545787541 0.4989870529161818 470.0 14.0 337.0 
160.0003374459614 31403.0 1838.0 1383.8021978021961 0.5019924145655182 464.0 14.0 336.0 
170.0003374459614 31383.0 1837.0 1386.5543345543338 0.49877137971209984 463.0 14.0 337.0 
180.0003374459614 31437.0 1838.0 1383.7069597069594 0.5061660720901233 470.0 14.0 336.0 
190.0003374459614 30907.0 1838.0 1372.466422466424 0.4994944222507728 466.0 14.0 332.0 
200.0003374459614 30668.0 1837.0 1380.862026862026 0.49878518476735517 467.0 14.0 335.0 
210.0003374459614 30520.0 1838.0 1380.901098901098 0.4992541727508884 464.0 16.0 333.0 
220.0003374459614 30520.0 1837.0 1375.230769230771 0.49882556956354224 464.0 15.0 332.0 
230.0003374459614 30516.0 1836.0 1372.3589743589755 0.4984661783134214 464.0 15.0 331.0 
240.0003374459614 30570.0 1838.0 1366.7301587301586 0.49793803207135606 465.0 15.0 329.0 
250.0003374459614 30473.0 1837.0 1363.9902319902317 0.5043350004883614 463.0 15.0 328.0 
260.0003374459614 30059.0 1832.0 1355.5042735042712 0.49974033646330246 457.0 15.0 325.0 
270.0003374459614 29832.0 1829.0 1355.5799755799742 0.4996691143124945 459.0 15.0 325.0 
280.0003374459614 29508.0 1830.0 1372.310134310135 0.5009337221727361 456.0 15.0 331.0 
290.0003374459614 29480.0 1829.0 1369.5262515262498 0.4989744451963841 453.0 15.0 330.0 
300.0003374459614 29186.0 1828.0 1363.997557997558 0.5010818606629901 451.0 16.0 327.0 
310.0003374459614 29153.0 1828.0 1361.1355311355321 0.49787745692412655 443.0 15.0 327.0 
320.0003374459614 29029.0 1825.0 1361.238095238097 0.4977701172661704 442.0 15.0 327.0 
330.0003374459614 29081.0 1829.0 1349.9682539682535 0.5015718866790961 436.0 15.0 323.0 
340.0003374459614 28754.0 1825.0 1347.1599511599522 0.49803124057164133 436.0 15.0 322.0 
350.0003374459614 28674.0 1824.0 1349.8876678876666 0.49793372068406555 439.0 15.0 323.0 
360.0003374459614 28609.0 1826.0 1347.1770451770465 0.5035060169737453 437.0 15.0 322.0 
370.0003374459614 28583.0 1826.0 1327.2820512820526 0.5038348047209519 437.0 14.0 316.0 
380.0003374459614 28440.0 1824.0 1321.785103785102 0.4982240085463712 442.0 14.0 314.0 
390.0003374459614 28422.0 1826.0 1330.2124542124561 0.5038857905901472 442.0 15.0 316.0 
400.0003374459614 28383.0 1829.0 1324.5860805860787 0.49888479836523686 444.0 15.0 314.0 
410.0003374459614 28527.0 1830.0 1327.4847374847398 0.5018347075402696 446.0 16.0 314.0 
420.0003374459614 28444.0 1831.0 1330.2319902319923 0.49844872420823916 449.0 15.0 316.0 
430.0003374459614 28485.0 1830.0 1352.72039072039 0.4985621989225492 455.0 16.0 323.0 
440.0003374459614 28443.0 1828.0 1349.9023199023188 0.4983870701814727 459.0 16.0 322.0 
450.0003374459614 28529.0 1827.0 1349.9023199023186 0.49950224975814556 454.0 15.0 323.0 
460.0003374459614 28376.0 1830.0 1361.0109890109886 0.4989196172834824 456.0 16.0 326.0 
470.0003374459614 28296.0 1832.0 1366.8156288156276 0.5018799145347017 454.0 16.0 328.0 
480.0003374459614 28265.0 1833.0 1366.6495726495723 0.501804669365518 451.0 17.0 327.0 
490.0003374459614 27990.0 1832.0 1355.3943833943842 0.5002087271014616 454.0 16.0 324.0 
500.0003374459614 27963.0 1832.0 1341.4505494505518 0.502828398935698 451.0 16.0 319.0 
510.0003374459614 27994.0 1835.0 1347.0354090354092 0.5020380074883269 449.0 16.0 321.0 
520.0003374459613 28044.0 1833.0 1332.996336996337 0.49989139884571093 445.0 16.0 316.0 
530.0003374459613 27995.0 1836.0 1313.2649572649586 0.5030953981997438 446.0 16.0 309.0 
540.0003374459613 27838.0 1834.0 1318.94017094017 0.49974402751470026 452.0 14.0 313.0 
550.0003374459613 27811.0 1838.0 1315.9609279609274 0.5006400261805668 451.0 14.0 312.0 
560.0003374459613 27800.0 1838.0 1310.5811965811938 0.503333767205805 450.0 14.0 310.0 
570.0003374459613 27640.0 1835.0 1332.9401709401702 0.49893567290831436 452.0 16.0 316.0 
580.0003374459613 27572.0 1835.0 1347.0891330891343 0.5005039191530619 466.0 12.0 325.0 
590.0003374459613 27341.0 1834.0 1352.5421245421226 0.5013752285499957 471.0 10.0 329.0 
600.0003374459613 27260.0 1836.0 1344.2808302808307 0.4989460049050385 471.0 7.0 329.0 
610.0003374459613 27329.0 1836.0 1349.921855921855 0.4995316087641049 465.0 10.0 328.0 
620.0003374459613 27235.0 1836.0 1363.8705738705723 0.5004709414094949 467.0 10.0 333.0 
630.0003374459613 27198.0 1837.0 1372.2954822954828 0.5003722094922672 475.0 10.0 336.0 
640.0003374459613 27211.0 1838.0 1363.8534798534786 0.4999800044036884 479.0 9.0 334.0 
650.0003374459613 27109.0 1837.0 1369.4652014652015 0.4994446078383273 481.0 9.0 336.0 
660.0003374459613 27168.0 1834.0 1386.2783882783888 0.49933924288383263 481.0 9.0 342.0 
#####################################################################
# End of data export. Simulation finished at: 2019-03-03T09:51+0000 #
#####################################################################
