#####################################################################
# Alchemist log file - simulation started at: 2019-03-03T15:27+0000 #
#####################################################################
# seed = 0.0, bandwidth = 316227.76601683797, accessPointCount = 19.39227447486858, baserange = 177.82794100389228
#
# The columns have the following meaning: 
# time neighbor_count[Sum] <value>@neighbor_count[Sum] packet_size[Mean] mean_delay[Mean] crowd[Sum] overcrowded[Sum] risk[Sum] 
0.0 NaN NaN NaN NaN NaN NaN NaN 
10.000405536260626 718.0 53.0 4988.20580474934 0.4984034492568509 1495.0 2.0 1495.0 
20.000405536260626 719.0 53.0 4988.279683377309 0.5011219937111057 1495.0 2.0 1495.0 
30.000405536260626 718.0 53.0 4988.176781002639 0.49973505278232566 1495.0 2.0 1495.0 
40.00040553626063 721.0 53.0 4988.242744063325 0.504680546428556 1495.0 2.0 1495.0 
50.00040553626063 762.0 55.0 4988.2084432717675 0.4940768592204187 1495.0 2.0 1495.0 
60.00040553626063 758.0 55.0 4985.234828496043 0.5139036014140674 1494.0 2.0 1494.0 
70.00012214328426 768.0 56.0 509.33509234828404 0.5486801623776221 35.0 7.0 29.0 
80.00012214328426 737.0 54.0 509.2981530343002 0.5386434723839185 32.0 9.0 27.0 
90.00012214328426 776.0 56.0 512.2664907651723 0.5059851075216895 34.0 9.0 28.0 
100.00012214328426 761.0 55.0 512.2664907651723 0.5054483768130485 33.0 9.0 28.0 
110.00012214328426 756.0 54.0 515.263852242744 0.4998251452999212 34.0 9.0 29.0 
120.00012214328426 748.0 54.0 512.2849604221642 0.5094216930808512 34.0 10.0 27.0 
130.00012214328424 790.0 56.0 518.3562005277038 0.5211256252109628 36.0 10.0 29.0 
140.00012214328424 747.0 53.0 515.3456464379951 0.5598081715421599 34.0 10.0 28.0 
150.00012214328424 679.0 51.0 515.3430079155679 0.502057851116077 34.0 10.0 28.0 
160.00012214328424 634.0 50.0 515.303430079156 0.5633785674307838 34.0 10.0 28.0 
170.00012214328424 594.0 48.0 512.20580474934 0.5295631191282745 33.0 10.0 27.0 
180.00012214328424 658.0 51.0 521.3087071240112 0.4876279116394971 36.0 10.0 30.0 
190.00012214328424 668.0 51.0 518.2691292875992 0.4876588980119958 35.0 10.0 29.0 
200.00012214328424 677.0 52.0 518.303430079156 0.48109619477260185 34.0 10.0 29.0 
210.00012214328424 642.0 52.0 512.2295514511878 0.5096972681616228 32.0 10.0 27.0 
220.00012214328424 708.0 53.0 506.1899736147759 0.5012726003943467 32.0 10.0 25.0 
230.00012214328424 707.0 53.0 506.1820580474934 0.5196725269423748 31.0 10.0 25.0 
240.00012214328424 713.0 54.0 509.25065963060706 0.5569212756063094 31.0 11.0 25.0 
250.00012214328424 698.0 53.0 509.2031662269122 0.49911890967606376 32.0 10.0 26.0 
260.0001221432843 748.0 55.0 512.229551451188 0.5456555945534312 34.0 10.0 27.0 
270.0001221432843 706.0 54.0 509.2216358839042 0.4923819814840775 32.0 10.0 26.0 
280.0001221432843 696.0 53.0 509.2084432717681 0.4987293839204152 32.0 10.0 26.0 
290.0001221432843 700.0 53.0 509.22691292876004 0.5162255375782564 33.0 9.0 27.0 
300.0001221432843 735.0 53.0 509.2058047493401 0.49763555975677326 33.0 9.0 27.0 
310.0001221432843 740.0 54.0 509.26385224274395 0.4876878991960197 32.0 9.0 27.0 
320.0001221432843 718.0 54.0 512.284960422164 0.49673519133459954 33.0 9.0 28.0 
330.0001221432843 663.0 52.0 515.31926121372 0.5383631007681355 34.0 9.0 29.0 
340.0001221432843 707.0 53.0 512.282321899736 0.49121726013129885 34.0 9.0 28.0 
350.0001221432843 740.0 53.0 518.3614775725598 0.49319885068380104 35.0 9.0 30.0 
360.0001221432843 786.0 55.0 524.4195250659639 0.49889814335935134 36.0 9.0 32.0 
370.0001221432843 756.0 54.0 527.424802110817 0.4955802273702579 36.0 9.0 33.0 
380.0001221432843 758.0 54.0 524.4089709762529 0.5497246185937557 35.0 9.0 32.0 
390.0001221432843 722.0 53.0 512.2691292875986 0.4992805545937211 32.0 9.0 28.0 
400.0001221432843 842.0 58.0 524.4538258575201 0.5743393757921414 37.0 9.0 32.0 
410.0001221432843 822.0 57.0 527.4670184696561 0.5542853437731171 36.0 10.0 32.0 
420.0001221432843 808.0 56.0 530.4538258575201 0.5048582645771144 37.0 9.0 34.0 
430.0001221432843 813.0 56.0 530.5039577836408 0.49485789230000565 37.0 9.0 34.0 
440.0001221432843 869.0 57.0 530.517150395779 0.4956926453689183 31.0 14.0 29.0 
450.0001221432843 800.0 55.0 524.403693931399 0.4906098231342085 33.0 13.0 28.0 
460.0001221432843 820.0 57.0 524.398416886544 0.5062418899656087 33.0 13.0 28.0 
470.0001221432843 712.0 54.0 524.3825857519793 0.5618263662980305 34.0 12.0 29.0 
480.0001221432843 682.0 53.0 521.324538258576 0.5069939227663133 35.0 10.0 30.0 
490.0001221432843 684.0 53.0 515.308707124011 0.5939525995760627 33.0 11.0 27.0 
500.0001221432843 612.0 51.0 521.3060686015839 0.49281631227960754 34.0 11.0 29.0 
510.0001221432843 620.0 51.0 518.253298153035 0.4899712308372766 33.0 10.0 29.0 
520.0001221432842 624.0 51.0 518.3667546174148 0.49184162933546927 33.0 10.0 29.0 
530.0001221432842 626.0 51.0 509.26385224274395 0.4925213664479408 30.0 10.0 26.0 
540.0001221432842 642.0 52.0 506.20052770448547 0.5017855071164935 30.0 10.0 25.0 
550.0001221432842 634.0 51.0 503.21372031662276 0.49407041634685167 28.0 10.0 24.0 
560.0001221432842 610.0 50.0 500.13984168865426 0.49682930058160657 27.0 10.0 23.0 
570.0001221432842 606.0 50.0 503.1873350923479 0.48648715029284245 29.0 9.0 25.0 
580.0001221432842 575.0 49.0 503.1688654353559 0.49130047735729426 29.0 9.0 25.0 
590.0001221432842 584.0 49.0 506.179419525065 0.4931449345453835 30.0 9.0 26.0 
600.0001221432842 590.0 50.0 512.2796833773082 0.4892595829463808 32.0 9.0 28.0 
610.0001221432842 590.0 50.0 515.2875989445921 0.4947564918270078 32.0 9.0 29.0 
620.0001221432842 586.0 48.0 509.2559366754613 0.5238738064558686 31.0 9.0 27.0 
630.0001221432842 580.0 49.0 509.24538258575205 0.49225940139873203 30.0 9.0 27.0 
640.0001221432842 544.0 47.0 506.2585751978888 0.479254231865146 28.0 9.0 26.0 
650.0001221432842 568.0 48.0 509.25329815303513 0.48105520961451353 29.0 9.0 27.0 
660.0001221432842 578.0 48.0 506.1978891820591 0.4827702660185811 28.0 9.0 26.0 
#####################################################################
# End of data export. Simulation finished at: 2019-03-03T15:34+0000 #
#####################################################################
