#####################################################################
# Alchemist log file - simulation started at: 2019-03-07T18:12+0000 #
#####################################################################
# seed = 2.0, bandwidth = 1333521.4321633242, accessPointCount = 2000.0, baserange = 31.622776601683796
#
# The columns have the following meaning: 
# time neighbor_count[Sum] <value>@neighbor_count[Sum] packet_size[Mean] mean_delay[Mean] crowd[Sum] overcrowded[Sum] risk[Sum] 
0.0 NaN NaN NaN NaN NaN NaN NaN 
10.000075840029464 742.0 382.0 4977.912496425507 0.5031733384551947 1496.0 1.0 1496.0 
20.000075840029464 742.0 381.0 4978.05318844724 0.5010303503455851 1495.0 2.0 1495.0 
30.000075840029464 746.0 382.0 4977.4343723191305 0.5009280723770534 1497.0 0.0 1497.0 
40.00007584002947 746.0 381.0 4977.967400629112 0.5006090489885278 1496.0 1.0 1496.0 
50.00007584002947 738.0 379.0 4976.955104375179 0.5023875471908473 1495.0 2.0 1495.0 
60.00007584002947 748.0 381.0 4976.581069488133 0.5029426000354773 1497.0 0.0 1497.0 
70.00005402979302 748.0 381.0 457.8530168716024 0.503731897113457 85.0 2.0 42.0 
80.00005402979302 742.0 379.0 457.8358593079799 0.5032907849244853 61.0 2.0 42.0 
90.00005402979302 738.0 378.0 457.8564483843263 0.5027744670029267 52.0 0.0 44.0 
100.00005402979302 740.0 379.0 457.840434658277 0.5027615847952 48.0 2.0 42.0 
110.00005402979302 740.0 380.0 457.8324277952545 0.5029199293804087 45.0 2.0 42.0 
120.00005402979302 734.0 379.0 457.84844152130523 0.502007422007623 47.0 0.0 44.0 
130.000054029793 732.0 376.0 457.83929082070426 0.5028364749388631 45.0 2.0 42.0 
140.000054029793 736.0 377.0 457.8438661710014 0.5027632997906215 45.0 2.0 42.0 
150.000054029793 740.0 379.0 456.5376036602786 0.508565004120958 47.0 0.0 43.0 
160.000054029793 740.0 379.0 457.84729768373165 0.5085971253969684 45.0 2.0 42.0 
170.000054029793 752.0 382.0 459.1661424077796 0.5062149022191398 49.0 2.0 43.0 
180.000054029793 746.0 383.0 460.46325421789993 0.5034372806215142 55.0 0.0 46.0 
190.000054029793 748.0 383.0 463.10437517872646 0.5035499173823906 53.0 2.0 46.0 
200.000054029793 753.0 385.0 465.7454961395514 0.5034431122373446 53.0 2.0 48.0 
210.000054029793 756.0 385.0 465.7409207892471 0.5048574236907295 55.0 0.0 50.0 
220.000054029793 752.0 383.0 465.752359165001 0.5034905851662786 53.0 2.0 48.0 
230.000054029793 756.0 386.0 465.72833857592246 0.5025426865182936 53.0 2.0 48.0 
240.000054029793 761.0 388.0 460.46782956820374 0.5079703948071621 50.0 0.0 46.0 
250.000054029793 759.0 388.0 460.46782956820374 0.5141231767958138 48.0 2.0 44.0 
260.00005402979303 753.0 385.0 465.72033171289485 0.5026509853583603 52.0 2.0 48.0 
270.00005402979303 754.0 386.0 468.3648841864433 0.5027713030761295 57.0 0.0 52.0 
280.00005402979303 752.0 384.0 472.29282241921646 0.5177671378200152 57.0 2.0 53.0 
290.00005402979303 754.0 385.0 473.6105233056926 0.5027132032526761 59.0 2.0 54.0 
300.00005402979303 742.0 381.0 472.30654847011675 0.5028184034886919 61.0 0.0 55.0 
310.00005402979303 745.0 382.0 470.9899914212194 0.508888309810086 57.0 2.0 52.0 
320.00005402979303 742.0 380.0 468.34086359736614 0.5043173908624276 56.0 2.0 50.0 
330.00005402979303 756.0 383.0 470.98541607091784 0.5090009108584311 61.0 0.0 54.0 
340.00005402979303 766.0 385.0 472.2996854446672 0.5048759113615335 57.0 2.0 53.0 
350.00005402979303 770.0 386.0 467.0471832999702 0.5122987432680935 54.0 2.0 49.0 
360.00005402979303 762.0 384.0 464.42550757792515 0.5104226696621635 55.0 0.0 49.0 
370.00005402979303 763.0 385.0 465.7306262510737 0.5113870389294494 54.0 2.0 48.0 
380.00005402979303 756.0 383.0 463.086073777525 0.5119968580638294 51.0 2.0 46.0 
390.00005402979303 746.0 380.0 461.7843866170992 0.5024506567042211 52.0 0.0 47.0 
400.00005402979303 746.0 380.0 461.77981126680226 0.5032548792864032 50.0 2.0 45.0 
410.00005402979303 762.0 385.0 464.4140692021719 0.5021017517994146 52.0 2.0 47.0 
420.00005402979303 741.0 381.0 464.43122676580083 0.5060291423290101 55.0 0.0 49.0 
430.00005402979303 736.0 381.0 461.77981126680226 0.5020925174824804 50.0 2.0 45.0 
440.00005402979303 739.0 385.0 461.7718044037739 0.5067565854617136 50.0 2.0 45.0 
450.00005402979303 740.0 384.0 464.42321990277225 0.5015445295807514 54.0 0.0 49.0 
460.00005402979303 733.0 383.0 464.40377466399934 0.502060617893855 51.0 2.0 47.0 
470.00005402979303 753.0 389.0 464.39576780097 0.5025788398892909 53.0 2.0 47.0 
480.00005402979303 753.0 391.0 460.46439805547305 0.51635621756623 54.0 0.0 46.0 
490.00005402979303 751.0 389.0 463.10208750357356 0.501339022282395 52.0 2.0 46.0 
500.00005402979303 754.0 388.0 464.3991993136952 0.5038967919091726 54.0 2.0 47.0 
510.00005402979303 764.0 390.0 464.4106376894475 0.5065541388809257 57.0 0.0 49.0 
520.000054029793 754.0 386.0 460.47126108092834 0.5148907667097039 53.0 2.0 44.0 
530.000054029793 751.0 386.0 460.46211038032743 0.5104786925883412 51.0 2.0 44.0 
540.000054029793 764.0 393.0 461.77981126680226 0.5048304762003252 56.0 0.0 47.0 
550.000054029793 752.0 389.0 460.4678295682039 0.5017985038964508 54.0 2.0 44.0 
560.000054029793 769.0 392.0 463.1055190162979 0.5016598471563566 54.0 2.0 46.0 
570.000054029793 775.0 395.0 463.11581355447856 0.5086539282125243 55.0 0.0 48.0 
580.000054029793 782.0 396.0 467.0597655132951 0.5015204720701435 55.0 2.0 49.0 
590.000054029793 768.0 392.0 467.06891621389565 0.5007643214216054 57.0 2.0 49.0 
600.000054029793 775.0 394.0 468.3751787246241 0.5005593855017275 58.0 0.0 52.0 
610.000054029793 772.0 389.0 469.7043179868438 0.5059826096396002 57.0 2.0 51.0 
620.000054029793 752.0 387.0 469.6745782098959 0.5121632814863996 57.0 2.0 51.0 
630.000054029793 771.0 392.0 473.62424935659 0.5052113737512844 64.0 0.0 56.0 
640.000054029793 771.0 389.0 477.5807835287372 0.5048068890240879 67.0 2.0 57.0 
650.000054029793 779.0 392.0 478.8847583643121 0.5025072620167477 69.0 2.0 58.0 
660.000054029793 798.0 397.0 485.4812696597092 0.5021907624023549 78.0 0.0 65.0 
#####################################################################
# End of data export. Simulation finished at: 2019-03-07T18:41+0000 #
#####################################################################
