#####################################################################
# Alchemist log file - simulation started at: 2019-03-07T17:08+0000 #
#####################################################################
# seed = 7.0, bandwidth = 4216.965034285822, accessPointCount = 1031.338537721246, baserange = 17.78279410038923
#
# The columns have the following meaning: 
# time neighbor_count[Sum] <value>@neighbor_count[Sum] packet_size[Mean] mean_delay[Mean] crowd[Sum] overcrowded[Sum] risk[Sum] 
0.0 NaN NaN NaN NaN NaN NaN NaN 
2.0002458590828063 31.0 22.0 4978.261075949367 0.24984637263550127 1497.0 0.0 1497.0 
4.000798617819165 105.0 69.0 4979.601265822785 1.0955662600494176 1497.0 0.0 1497.0 
6.000297418119471 115.0 73.0 4979.601265822785 1.227091505545457 1497.0 0.0 1497.0 
8.000798617819164 124.0 74.0 4979.39240506329 1.2431450272494782 1497.0 0.0 1497.0 
10.000798617819164 124.0 74.0 4979.047468354431 1.2608526067585308 1497.0 0.0 1497.0 
12.000798617819164 126.0 74.0 4979.069620253164 1.2563338098005352 1497.0 0.0 1497.0 
14.000798617819164 126.0 74.0 4978.98417721519 1.2899726935226585 1497.0 0.0 1497.0 
16.000297418119473 126.0 74.0 4979.060126582279 1.211587070786991 1497.0 0.0 1497.0 
18.000798617819164 126.0 74.0 4979.004746835443 1.301480592527476 1497.0 0.0 1497.0 
20.000798617819164 126.0 74.0 4979.047468354431 1.334629687848711 1497.0 0.0 1497.0 
22.000798617819164 126.0 74.0 4978.974683544304 1.1309183673725196 1497.0 0.0 1497.0 
24.000798617819164 126.0 74.0 4979.03164556962 1.346434562626013 1497.0 0.0 1497.0 
26.000297418119473 126.0 74.0 4978.954113924051 1.2813362732334592 1497.0 0.0 1497.0 
28.000798617819164 126.0 74.0 4979.018987341772 1.1758206252718675 1497.0 0.0 1497.0 
30.000798617819164 126.0 74.0 4978.98259493671 1.408822776323604 1497.0 0.0 1497.0 
32.000798617819164 126.0 74.0 4979.041139240506 1.2575830287837984 1497.0 0.0 1497.0 
34.000798617819164 126.0 74.0 4978.962025316456 1.313230061377076 1497.0 0.0 1497.0 
36.00029741811947 126.0 74.0 4979.0031645569625 1.4687463819590316 1497.0 0.0 1497.0 
38.000798617819164 126.0 74.0 4978.920886075949 1.413635296457676 1497.0 0.0 1497.0 
40.000798617819164 126.0 74.0 4978.974683544304 1.4703306092030828 1497.0 0.0 1497.0 
42.000798617819164 126.0 74.0 4978.9509493670885 1.5002434636603 1497.0 0.0 1497.0 
44.000798617819164 126.0 74.0 4978.9905063291135 1.5708156288195736 1497.0 0.0 1497.0 
46.00029741811947 126.0 74.0 4978.947784810127 1.5290153382950848 1497.0 0.0 1497.0 
48.000798617819164 126.0 74.0 4978.969936708861 1.6574237960221978 1497.0 0.0 1497.0 
50.000798617819164 126.0 74.0 4978.922468354431 1.727100601389801 1497.0 0.0 1497.0 
52.000798617819164 126.0 74.0 4978.966772151898 1.5617387378628325 1497.0 0.0 1497.0 
54.000798617819164 126.0 74.0 4978.922468354431 1.8136319390393443 1497.0 0.0 1497.0 
56.00029741811947 126.0 74.0 4978.966772151898 1.7867988895859055 1497.0 0.0 1497.0 
58.000798617819164 125.0 74.0 4978.922468354431 1.4503156598696534 1497.0 0.0 1497.0 
60.000798617819164 124.0 73.0 4978.957278481013 1.402138790557504 1497.0 0.0 1497.0 
62.000418815792834 124.0 73.0 405.45411392405055 0.7224206980599248 39.0 0.0 3.0 
64.00041881579283 124.0 73.0 405.45411392405055 0.6702298978274732 39.0 0.0 3.0 
66.00029741811947 124.0 73.0 405.45411392405055 0.5848455855218375 37.0 0.0 3.0 
68.00041881579284 124.0 73.0 405.45411392405055 0.6054805061567583 29.0 0.0 3.0 
70.00041881579284 124.0 73.0 405.45411392405055 0.6578614585377107 18.0 0.0 3.0 
72.00041881579284 124.0 73.0 405.45411392405055 0.579290029966282 17.0 0.0 3.0 
74.00041881579284 124.0 73.0 405.45411392405055 0.6316709823472344 15.0 0.0 3.0 
76.00029741811947 124.0 73.0 405.45411392405055 0.5848455855218375 15.0 0.0 3.0 
78.00041881579284 124.0 73.0 405.45411392405055 0.6054805061567583 15.0 0.0 3.0 
80.00041881579284 124.0 73.0 405.45411392405055 0.6578614585377107 13.0 0.0 3.0 
82.00041881579284 124.0 73.0 405.45411392405055 0.579290029966282 12.0 0.0 3.0 
84.00041881579284 124.0 73.0 405.45411392405055 0.6316709823472344 12.0 0.0 3.0 
86.00029741811947 124.0 73.0 405.45411392405055 0.5848455855218375 12.0 0.0 3.0 
88.00041881579284 124.0 73.0 405.45411392405055 0.6054805061567583 11.0 0.0 3.0 
90.00041881579284 124.0 73.0 405.45411392405055 0.6769090775853298 8.0 0.0 3.0 
92.00041881579284 124.0 73.0 405.45411392405055 0.6364328871091393 7.0 0.0 3.0 
94.00041881579284 124.0 73.0 405.45411392405055 0.7269090775853297 7.0 0.0 3.0 
96.00029741811947 124.0 73.0 405.45411392405055 0.718178918855171 6.0 0.0 3.0 
98.00041881579284 124.0 73.0 405.45411392405055 0.7769090775853296 5.0 0.0 3.0 
100.00041881579284 124.0 73.0 405.45411392405055 0.86738526806152 5.0 0.0 3.0 
102.00041881579284 124.0 73.0 405.45411392405055 0.8269090775853297 5.0 0.0 3.0 
104.00041881579284 124.0 73.0 405.45411392405055 0.9173852680615202 4.0 0.0 3.0 
106.00029741811947 124.0 73.0 405.45411392405055 0.9086551093313615 3.0 0.0 3.0 
108.00041881579284 124.0 73.0 405.45411392405055 0.9673852680615204 3.0 0.0 3.0 
110.00041881579284 124.0 73.0 405.45411392405055 1.0578614585377104 3.0 0.0 3.0 
112.00041881579284 124.0 73.0 405.45411392405055 1.01738526806152 3.0 0.0 3.0 
114.00041881579284 124.0 73.0 405.45411392405055 1.1078614585377105 3.0 0.0 3.0 
116.00029741811947 124.0 73.0 405.45411392405055 1.0991312998075518 3.0 0.0 3.0 
118.00041881579284 126.0 74.0 405.45411392405055 1.1437919929907163 3.0 0.0 3.0 
120.00041881579284 124.0 73.0 405.45411392405055 0.6578614585377107 3.0 0.0 3.0 
122.00041881579284 124.0 73.0 405.45411392405055 0.579290029966282 3.0 0.0 3.0 
124.00041881579284 124.0 73.0 405.45411392405055 0.6316709823472344 3.0 0.0 3.0 
126.00029741811947 128.0 74.0 405.45411392405055 0.5946166668574253 3.0 0.0 3.0 
128.00041881579284 128.0 74.0 405.45411392405055 0.6527927674863561 3.0 0.0 3.0 
130.00041881579284 128.0 74.0 405.45411392405055 0.74241540899579 3.0 0.0 3.0 
132.00041881579284 128.0 74.0 405.45411392405055 0.7023210693731486 3.0 0.0 3.0 
134.00041881579284 128.0 74.0 405.45411392405055 0.7919437108825824 3.0 0.0 3.0 
136.0002974181195 128.0 74.0 405.45411392405055 0.7832959121404443 3.0 0.0 3.0 
138.00041881579284 128.0 74.0 405.45411392405055 0.841472012769375 3.0 0.0 3.0 
140.00041881579284 128.0 74.0 405.45411392405055 0.9310946542788091 3.0 0.0 3.0 
142.00041881579284 128.0 74.0 405.45411392405055 0.8910003146561672 3.0 0.0 3.0 
144.00041881579284 128.0 74.0 405.45411392405055 0.9806229561656014 3.0 0.0 3.0 
146.0002974181195 128.0 74.0 405.45411392405055 0.971975157423463 3.0 0.0 3.0 
148.00041881579284 131.0 75.0 407.2689873417721 1.0264792650670262 4.0 0.0 4.0 
150.00041881579284 131.0 75.0 407.2689873417721 1.1308406357835372 4.0 0.0 4.0 
152.00041881579284 132.0 75.0 407.2689873417721 1.080133846124443 6.0 0.0 4.0 
154.00041881579284 132.0 75.0 407.2689873417721 1.175229206984322 6.0 0.0 4.0 
156.0002974181195 130.0 74.0 407.2689873417721 0.6035250471683432 6.0 0.0 4.0 
158.00041881579284 130.0 74.0 407.2689873417721 0.6559059995492957 6.0 0.0 4.0 
160.00041881579284 130.0 74.0 407.2689873417721 0.7082869519302483 6.0 0.0 4.0 
162.00041881579284 130.0 74.0 407.2689873417721 0.6614615551048514 6.0 0.0 4.0 
164.00041881579284 130.0 74.0 407.2689873417721 0.7138425074858037 6.0 0.0 4.0 
166.0002974181195 130.0 74.0 407.2689873417721 0.6987631424064387 6.0 0.0 4.0 
168.00041881579284 130.0 74.0 407.2689873417721 0.7366261496033246 6.0 0.0 4.0 
170.00041881579284 130.0 74.0 407.2689873417721 0.8142677464635151 6.0 0.0 4.0 
172.00041881579284 130.0 74.0 407.2689873417721 0.7833153655111346 6.0 0.0 4.0 
174.00041881579284 130.0 74.0 407.2689873417721 0.8595058417016108 6.0 0.0 4.0 
176.0002974181195 130.0 74.0 407.2689873417721 0.8364899686857372 6.0 0.0 4.0 
178.00041881579284 130.0 74.0 407.2689873417721 0.9047439369397057 6.0 0.0 4.0 
180.00041881579284 130.0 74.0 407.2689873417721 0.980934413130182 6.0 0.0 4.0 
182.00041881579284 130.0 74.0 407.2689873417721 0.9261725083682772 6.0 0.0 4.0 
184.00041881579284 129.0 74.0 407.2689873417721 0.9708123484511283 6.0 0.0 4.0 
186.0002974181195 128.0 74.0 407.2689873417721 0.85469237110477 6.0 0.0 4.0 
188.00041881579284 128.0 74.0 407.2689873417721 0.8927876092000084 6.0 0.0 4.0 
190.00041881579284 128.0 74.0 407.2689873417721 0.9864384028508018 6.0 0.0 4.0 
192.00041881579284 128.0 74.0 407.2689873417721 0.9253272917396901 6.0 0.0 4.0 
194.00041881579284 128.0 74.0 407.2689873417721 0.9951685615809601 6.0 0.0 4.0 
196.0002974181195 126.0 73.0 407.2689873417721 0.6157990776060085 5.0 0.0 4.0 
198.00041881579284 126.0 73.0 407.2689873417721 0.6270170263239573 5.0 0.0 4.0 
200.00041881579284 126.0 73.0 407.2689873417721 0.670286257093188 5.0 0.0 4.0 
202.00041881579284 126.0 73.0 407.2689873417721 0.6101901032470343 5.0 0.0 4.0 
204.00041881579284 126.0 73.0 407.2689873417721 0.653459334016265 5.0 0.0 4.0 
206.0002974181195 126.0 73.0 407.2689873417721 0.5965683083752393 5.0 0.0 4.0 
208.00041881579284 126.0 73.0 407.2689873417721 0.636632410939342 5.0 0.0 4.0 
210.00041881579284 126.0 73.0 407.2689873417721 0.6799016417085728 5.0 0.0 4.0 
212.00041881579284 126.0 73.0 407.2689873417721 0.590959334016265 5.0 0.0 4.0 
214.00041881579284 126.0 73.0 407.2689873417721 0.6630747186316497 5.0 0.0 4.0 
216.0002974181195 126.0 73.0 407.2689873417721 0.6061836929906241 5.0 0.0 4.0 
218.00041881579284 126.0 73.0 407.2689873417721 0.6174016417085728 5.0 0.0 4.0 
220.00041881579284 126.0 73.0 407.2689873417721 0.6895170263239573 5.0 0.0 4.0 
222.00041881579284 126.0 73.0 407.2689873417721 0.6005747186316497 5.0 0.0 4.0 
224.00041881579284 126.0 73.0 407.2689873417721 0.6438439494008804 5.0 0.0 4.0 
226.0002974181195 126.0 73.0 407.2689873417721 0.6157990776060085 5.0 0.0 4.0 
228.00041881579284 126.0 73.0 407.2689873417721 0.6270170263239573 5.0 0.0 4.0 
230.00041881579284 126.0 73.0 407.2689873417721 0.670286257093188 5.0 0.0 4.0 
232.00041881579284 126.0 73.0 407.2689873417721 0.6101901032470343 5.0 0.0 4.0 
234.00041881579284 126.0 73.0 407.2689873417721 0.653459334016265 5.0 0.0 4.0 
236.0002974181195 127.0 74.0 407.2689873417721 0.5962100186553743 5.0 0.0 4.0 
238.00041881579284 128.0 74.0 407.2689873417721 0.6322647249173455 5.0 0.0 4.0 
240.00041881579284 128.0 74.0 407.2689873417721 0.6747175551060248 5.0 0.0 4.0 
242.00041881579284 128.0 74.0 407.2689873417721 0.5874534041626285 5.0 0.0 4.0 
244.00041881579284 128.0 74.0 407.2689873417721 0.6582081211437605 5.0 0.0 4.0 
246.0002974181195 128.0 74.0 405.45411392405055 0.6040506291215763 5.0 0.0 3.0 
248.00041881579284 133.0 75.0 409.1028481012659 0.6508915953642824 6.0 0.0 5.0 
250.00041881579284 134.0 76.0 409.08386075949363 0.7628981709048274 6.0 0.0 5.0 
252.00041881579284 136.0 76.0 410.91297468354435 0.6983956738480284 6.0 0.0 6.0 
254.00041881579284 136.0 76.0 410.91297468354435 0.8375394047348785 6.0 0.0 6.0 
256.0002974181195 136.0 76.0 410.9256329113925 0.8232309680717894 6.0 0.0 6.0 
258.0004188157928 136.0 76.0 410.91297468354435 0.9361736083922998 6.0 0.0 6.0 
260.0004188157928 136.0 76.0 410.9240506329113 1.0291760086924502 6.0 0.0 6.0 
262.0004188157928 138.0 77.0 410.9113924050632 1.0209360199004016 6.0 0.0 6.0 
264.0004188157928 138.0 77.0 410.9145569620254 1.1246678058664739 6.0 0.0 6.0 
266.0002974181195 138.0 77.0 410.9082278481012 1.170361055772295 6.0 0.0 6.0 
268.0004188157928 138.0 77.0 410.9082278481012 1.2439859022908557 6.0 0.0 6.0 
270.0004188157928 138.0 77.0 410.9082278481012 1.38372808782047 6.0 0.0 6.0 
272.0004188157928 138.0 77.0 410.9082278481012 1.3815783814581928 6.0 0.0 6.0 
274.0004188157928 139.0 78.0 410.9082278481012 1.4278727098815287 6.0 0.0 6.0 
276.0002974181195 138.0 77.0 410.9082278481012 1.0625093123891236 6.0 0.0 6.0 
278.0004188157928 140.0 78.0 410.9082278481012 1.048315318812116 6.0 0.0 6.0 
280.0004188157928 140.0 78.0 410.91772151898743 1.1339009043977009 6.0 0.0 6.0 
282.0004188157928 140.0 78.0 410.9113924050632 1.1316486521454487 6.0 0.0 6.0 
284.0004188157928 140.0 78.0 410.9113924050632 1.2261407008500689 6.0 0.0 6.0 
286.0002974181195 139.0 78.0 410.9113924050632 1.1588039891556592 6.0 0.0 6.0 
288.0004188157928 138.0 77.0 410.9145569620254 0.9776265537804726 6.0 0.0 6.0 
290.0004188157928 139.0 77.0 410.9082278481012 1.1287682031639839 7.0 0.0 6.0 
292.0004188157928 142.0 78.0 410.9082278481012 1.1220883006883495 7.0 0.0 6.0 
294.0004188157928 142.0 78.0 410.9082278481012 1.2842974630500839 7.0 0.0 6.0 
296.0002974181195 144.0 79.0 410.9082278481012 1.3762930313215858 7.0 0.0 6.0 
298.0004188157928 144.0 79.0 410.9082278481012 1.5207605446061596 7.0 0.0 6.0 
300.0004188157928 144.0 79.0 410.9082278481012 1.7333597812172796 7.0 0.0 6.0 
302.0004188157928 142.0 78.0 410.9082278481012 1.4899102973492804 7.0 0.0 6.0 
304.0004188157928 142.0 78.0 410.9082278481012 1.6863388687778516 7.0 0.0 6.0 
306.0002974181195 146.0 80.0 410.9082278481012 1.7004497694760121 7.0 0.0 6.0 
308.0004188157928 146.0 80.0 410.9082278481012 1.8817363191836132 7.0 0.0 6.0 
310.0004188157928 146.0 80.0 410.9082278481012 2.0922626349730873 7.0 0.0 6.0 
312.0004188157928 146.0 80.0 410.9082278481012 2.195332810411683 7.0 0.0 6.0 
314.0004188157928 144.0 79.0 410.9082278481012 1.9014075918159354 7.0 0.0 6.0 
316.0002974181195 144.0 79.0 410.9082278481012 2.013758782292126 7.0 0.0 6.0 
318.0004188157928 142.0 78.0 410.9082278481012 1.800968282923793 7.0 0.0 6.0 
320.0004188157928 144.0 79.0 410.9082278481012 1.9665289336998946 7.0 0.0 6.0 
322.0004188157928 138.0 77.0 410.91297468354435 1.949724179547681 7.0 0.0 6.0 
324.0004188157928 136.0 77.0 410.90189873417734 2.1214522867514165 7.0 0.0 6.0 
326.0002974181195 134.0 77.0 410.8987341772151 1.6872935183090858 7.0 0.0 6.0 
328.0004188157928 130.0 76.0 410.8987341772151 1.4299440868956819 7.0 0.0 6.0 
330.0004188157928 132.0 77.0 410.8987341772151 1.4431716546874953 7.0 0.0 6.0 
332.0004188157928 132.0 77.0 410.8987341772151 1.449928411444252 7.0 0.0 6.0 
334.0004188157928 132.0 77.0 410.8987341772151 1.4392065837879569 7.0 0.0 6.0 
336.0002974181195 132.0 77.0 410.8987341772151 1.4128313884423354 7.0 0.0 6.0 
338.0004188157928 132.0 77.0 410.8987341772151 1.5028018899172615 7.0 0.0 6.0 
340.0004188157928 130.0 76.0 410.8987341772151 1.130687598712643 6.0 0.0 6.0 
342.0004188157928 130.0 76.0 410.8987341772151 1.128435346460391 6.0 0.0 6.0 
344.0004188157928 129.0 75.0 410.8987341772151 0.996422638341959 6.0 0.0 6.0 
346.0002974181195 128.0 75.0 410.8987341772151 0.7617373090540335 6.0 0.0 6.0 
348.0004188157928 128.0 75.0 410.8987341772151 0.855009480307856 6.0 0.0 6.0 
350.0004188157928 128.0 75.0 410.8987341772151 0.9788626913170304 6.0 0.0 6.0 
352.0004188157928 130.0 76.0 410.8987341772151 0.966273184298229 6.0 0.0 6.0 
354.0004188157928 130.0 76.0 410.8987341772151 1.0878948059198505 6.0 0.0 6.0 
356.0002974181195 130.0 76.0 410.8987341772151 1.1156725836976285 6.0 0.0 6.0 
358.0004188157928 130.0 76.0 410.8987341772151 1.2072641752892206 6.0 0.0 6.0 
360.0004188157928 130.0 76.0 410.8987341772151 1.3288857969108412 6.0 0.0 6.0 
362.0004188157928 130.0 76.0 410.8987341772151 1.353660571685617 6.0 0.0 6.0 
364.0004188157928 130.0 76.0 410.8987341772151 1.5113182293432736 6.0 0.0 6.0 
366.0002974181195 130.0 76.0 410.8987341772151 1.5751320431570879 6.0 0.0 6.0 
368.0004188157928 129.0 76.0 410.8987341772151 1.4452218742420642 6.0 0.0 6.0 
370.0004188157928 128.0 75.0 410.8987341772151 1.3091379206748284 6.0 0.0 6.0 
372.0004188157928 128.0 75.0 410.8987341772151 1.3068443426931775 6.0 0.0 6.0 
374.0004188157928 126.0 74.0 410.8987341772151 0.8797733014019552 6.0 0.0 6.0 
376.0002974181195 126.0 74.0 407.2689873417721 0.8712063232088086 4.0 0.0 4.0 
378.0004188157928 126.0 74.0 407.2689873417721 0.928838721962703 4.0 0.0 4.0 
380.0004188157928 126.0 74.0 407.2689873417721 1.017623768691675 4.0 0.0 4.0 
382.0004188157928 126.0 74.0 405.45411392405055 0.9779041425234507 3.0 0.0 3.0 
384.0004188157928 126.0 74.0 405.45411392405055 1.0666891892524224 3.0 0.0 3.0 
386.0002974181195 126.0 74.0 405.45411392405055 1.0581222110592754 3.0 0.0 3.0 
388.0004188157928 126.0 74.0 405.45411392405055 1.11575460981317 3.0 0.0 3.0 
390.0004188157928 125.0 74.0 405.45411392405055 0.9316510575744652 3.0 0.0 3.0 
392.0004188157928 126.0 74.0 405.45411392405055 0.5760349836449455 3.0 0.0 3.0 
394.0004188157928 126.0 74.0 405.45411392405055 0.6274368528038241 3.0 0.0 3.0 
396.0002974181195 126.0 74.0 405.45411392405055 0.5814866970405843 3.0 0.0 3.0 
398.0004188157928 126.0 74.0 405.45411392405055 0.6017359182243848 3.0 0.0 3.0 
400.0004188157928 126.0 74.0 405.45411392405055 0.6531377873832633 3.0 0.0 3.0 
402.0004188157928 126.0 74.0 405.45411392405055 0.6040723668225156 3.0 0.0 3.0 
404.0004188157928 126.0 74.0 405.45411392405055 0.6928574135514877 3.0 0.0 3.0 
406.0002974181195 126.0 74.0 405.45411392405055 0.6842904353583413 3.0 0.0 3.0 
408.0004188157928 128.0 75.0 405.45411392405055 0.7449177371885898 3.0 0.0 3.0 
410.0004188157928 128.0 75.0 405.45411392405055 0.832073700491342 3.0 0.0 3.0 
412.0004188157928 128.0 75.0 405.45411392405055 0.7930828748032689 3.0 0.0 3.0 
414.0004188157928 128.0 75.0 405.45411392405055 0.8802388381060212 3.0 0.0 3.0 
416.0002974181195 128.0 75.0 405.45411392405055 0.8718290521732996 3.0 0.0 3.0 
418.0004188157928 128.0 75.0 405.45411392405055 0.9467525995739112 3.0 0.0 3.0 
420.0004188157928 130.0 76.0 405.45411392405055 1.0586155266405715 3.0 0.0 3.0 
422.0004188157928 132.0 77.0 405.45411392405055 1.062536403191598 3.0 0.0 3.0 
424.0004188157928 132.0 77.0 405.45411392405055 1.217403659828766 3.0 0.0 3.0 
426.0002974181195 132.0 77.0 405.45411392405055 1.2800880256104763 3.0 0.0 3.0 
428.0004188157928 132.0 77.0 405.45411392405055 1.405456757173899 3.0 0.0 3.0 
430.0004188157928 131.0 76.0 405.45411392405055 1.3403972442231338 3.0 0.0 3.0 
432.0004188157928 130.0 76.0 405.45411392405055 1.146453364478409 3.0 0.0 3.0 
434.0004188157928 130.0 76.0 405.45411392405055 1.3401470581721027 3.0 0.0 3.0 
436.0002974181195 130.0 76.0 405.45411392405055 1.4580149260399708 3.0 0.0 3.0 
438.0004188157928 130.0 76.0 405.45411392405055 1.6577146257396704 3.0 0.0 3.0 
440.0004188157928 132.0 77.0 405.45411392405055 1.8398620547860345 3.0 0.0 3.0 
442.0004188157928 132.0 77.0 405.45411392405055 1.9358441976431775 3.0 0.0 3.0 
444.0004188157928 132.0 77.0 405.45411392405055 2.1545941976431773 3.0 0.0 3.0 
446.0002974181195 135.0 77.0 407.2784810126582 2.2620801985005774 4.0 0.0 4.0 
448.0004188157928 137.0 77.0 407.2689873417721 1.876688498469285 4.0 0.0 4.0 
450.0004188157928 138.0 77.0 409.08860759493683 2.0633762390757044 5.0 0.0 5.0 
452.0004188157928 137.0 77.0 409.08860759493683 1.6072780827527176 5.0 0.0 5.0 
454.0004188157928 137.0 77.0 409.08860759493683 1.7349491822096519 6.0 0.0 5.0 
456.0002974181195 137.0 77.0 409.08860759493683 1.7857455622642293 6.0 0.0 5.0 
458.0004188157928 137.0 77.0 409.0917721518988 1.3342304107490772 6.0 0.0 5.0 
460.0004188157928 139.0 78.0 410.9113924050632 1.2023532090291247 6.0 0.0 6.0 
462.0004188157928 143.0 79.0 410.9082278481012 1.0901729410318992 6.0 0.0 6.0 
464.0004188157928 144.0 79.0 410.9082278481012 1.1617163458639168 6.0 0.0 6.0 
466.0002974181195 142.0 78.0 410.9082278481012 0.6194737912663658 6.0 0.0 6.0 
468.0004188157928 142.0 78.0 410.9082278481012 0.6552897072823227 6.0 0.0 6.0 
470.0004188157928 145.0 78.0 410.9145569620254 0.7967792063084268 7.0 0.0 6.0 
472.0004188157928 146.0 79.0 410.9082278481012 0.8514222813191314 7.0 0.0 6.0 
474.0004188157928 146.0 79.0 410.9082278481012 1.0018395764656198 7.0 0.0 6.0 
476.0002974181195 147.0 79.0 410.9082278481012 1.0976861209497377 7.0 0.0 6.0 
478.0004188157928 150.0 81.0 410.9082278481012 1.1992437193846488 7.0 0.0 6.0 
480.0004188157928 152.0 82.0 410.9113924050632 1.3850995826163677 7.0 0.0 6.0 
482.0004188157928 152.0 82.0 410.9082278481012 1.4670084145251998 7.0 0.0 6.0 
484.0004188157928 154.0 83.0 410.9082278481012 1.6788538482044442 7.0 0.0 6.0 
486.0002974181195 154.0 83.0 410.9082278481012 1.8210107109495415 7.0 0.0 6.0 
488.0004188157928 154.0 83.0 410.9082278481012 2.049302027476153 7.0 0.0 6.0 
490.0004188157928 154.0 83.0 410.91613924050637 2.358125556887917 7.0 0.0 6.0 
492.0004188157928 156.0 84.0 410.90348101265823 2.502136539883043 7.0 0.0 6.0 
494.0004188157928 156.0 84.0 410.90348101265823 2.84380320654971 7.0 0.0 6.0 
496.0002974181195 155.0 84.0 410.90348101265823 3.0965617776522087 7.0 0.0 6.0 
498.0004188157928 144.0 81.0 410.90348101265823 2.495509443191638 7.0 0.0 6.0 
500.0004188157928 146.0 82.0 410.90348101265823 2.7530943553806893 7.0 0.0 6.0 
502.0004188157928 144.0 81.0 410.90348101265823 2.6488166455688806 7.0 0.0 6.0 
504.0004188157928 140.0 80.0 410.9113924050632 2.8516623224924538 7.0 0.0 6.0 
506.0002974181195 136.0 79.0 410.8987341772151 2.5231794086033283 7.0 0.0 6.0 
508.0004188157928 136.0 79.0 410.8987341772151 2.765995500557351 7.0 0.0 6.0 
510.0004188157928 136.0 79.0 410.8987341772151 3.037547224695283 6.0 0.0 6.0 
512.0004188157928 134.0 78.0 410.8987341772151 2.7043437540447868 6.0 0.0 6.0 
514.0004188157928 134.0 78.0 410.8987341772151 2.945571824220188 6.0 0.0 6.0 
516.0002974181195 132.0 77.0 410.8987341772151 2.7845128043715017 6.0 0.0 6.0 
518.0004188157928 128.0 75.0 410.8987341772151 1.9467525995738737 6.0 0.0 6.0 
520.0004188157928 126.0 74.0 410.8987341772151 1.5970630210280838 6.0 0.0 6.0 
522.0004188157928 124.0 73.0 410.8987341772151 1.074528125204362 6.0 0.0 6.0 
524.0004188157928 124.0 73.0 410.8987341772151 1.203099553775791 6.0 0.0 6.0 
526.0002974181195 124.0 73.0 410.8987341772151 1.2324646331408695 6.0 0.0 6.0 
528.0004188157928 124.0 73.0 410.8987341772151 1.3292900299662669 6.0 0.0 6.0 
530.0004188157928 124.0 73.0 410.8987341772151 0.8959566966329322 6.0 0.0 6.0 
532.0004188157928 126.0 74.0 410.8987341772151 0.8470630210280832 6.0 0.0 6.0 
534.0004188157928 128.0 75.0 410.8987341772151 0.9270028329259681 6.0 0.0 6.0 
536.0002974181195 128.0 75.0 410.8987341772151 0.9185151786049803 6.0 0.0 6.0 
538.0004188157928 128.0 75.0 410.8987341772151 0.9756139440370794 6.0 0.0 6.0 
540.0004188157928 128.0 75.0 410.8987341772151 1.0787832257254082 6.0 0.0 6.0 
542.0004188157928 130.0 76.0 410.8987341772151 1.0756683219190342 6.0 0.0 6.0 
544.0004188157928 130.0 76.0 410.8987341772151 1.2453930925612358 6.0 0.0 6.0 
546.0002974181195 130.0 76.0 409.08386075949375 1.3195521139679638 5.0 0.0 5.0 
548.0004188157928 128.0 75.0 407.2689873417721 0.9176407194918478 4.0 0.0 4.0 
550.0004188157928 128.0 75.0 407.2689873417721 1.0531547381834363 4.0 0.0 4.0 
552.0004188157928 131.0 77.0 407.2689873417721 1.053865735825334 4.0 0.0 4.0 
554.0004188157928 134.0 78.0 407.2689873417721 1.2016588184315835 4.0 0.0 4.0 
556.0002974181195 134.0 78.0 405.45411392405055 1.2649028660506312 3.0 0.0 3.0 
558.0004188157928 134.0 78.0 405.45411392405055 1.391390961288726 3.0 0.0 3.0 
560.0004188157928 134.0 78.0 405.45411392405055 1.547640961288726 3.0 0.0 3.0 
562.0004188157928 134.0 78.0 405.45411392405055 1.5900516755744407 3.0 0.0 3.0 
564.0004188157928 134.0 78.0 405.45411392405055 1.8100720543453295 3.0 0.0 3.0 
566.0002974181195 134.0 78.0 405.45411392405055 1.9358161019643774 3.0 0.0 3.0 
568.0004188157928 134.0 78.0 405.45411392405055 2.1248041972024727 3.0 0.0 3.0 
570.0004188157928 132.0 77.0 405.45411392405055 2.061758783408448 3.0 0.0 3.0 
572.0004188157928 128.0 75.0 405.45411392405055 1.2991266309625937 3.0 0.0 3.0 
574.0004188157928 128.0 75.0 405.45411392405055 1.451904408740371 3.0 0.0 3.0 
576.0002974181195 130.0 76.0 405.45411392405055 1.488175450734913 3.0 0.0 3.0 
578.0004188157928 130.0 76.0 405.45411392405055 1.6078724204318833 3.0 0.0 3.0 
580.0004188157928 130.0 76.0 405.45411392405055 1.7578724204318825 3.0 0.0 3.0 
582.0004188157928 128.0 75.0 405.45411392405055 1.271348853184816 3.0 0.0 3.0 
584.0004188157928 128.0 75.0 405.45411392405055 1.4241266309625933 3.0 0.0 3.0 
586.0002974181195 128.0 75.0 405.45411392405055 1.5082315692341988 3.0 0.0 3.0 
588.0004188157928 130.0 76.0 405.45411392405055 1.644236056795519 3.0 0.0 3.0 
590.0004188157928 130.0 76.0 405.45411392405055 1.830599693159156 3.0 0.0 3.0 
592.0004188157928 126.0 74.0 405.45411392405055 0.9405209649533167 3.0 0.0 3.0 
594.0004188157928 126.0 74.0 405.45411392405055 1.0666891892523818 3.0 0.0 3.0 
596.0002974181195 126.0 74.0 405.45411392405055 1.0955053886293291 3.0 0.0 3.0 
598.0004188157928 126.0 74.0 405.45411392405055 1.2092125537383633 3.0 0.0 3.0 
600.0004188157928 126.0 74.0 405.45411392405055 1.3727639556075226 3.0 0.0 3.0 
602.0004188157928 126.0 74.0 405.45411392405055 1.4078106845794855 3.0 0.0 3.0 
604.0004188157928 126.0 74.0 405.45411392405055 1.5713620864486433 3.0 0.0 3.0 
606.0002974181195 128.0 75.0 405.45411392405055 1.614948318228305 3.0 0.0 3.0 
608.0004188157928 130.0 76.0 405.45411392405055 1.7207776888026933 3.0 0.0 3.0 
610.0004188157928 128.0 75.0 405.45411392405055 1.355009480307816 3.0 0.0 3.0 
612.0004188157928 128.0 75.0 405.45411392405055 1.3527159023261646 3.0 0.0 3.0 
614.0004188157928 127.0 74.0 405.45411392405055 1.2105478416090343 3.0 0.0 3.0 
616.0002974181195 126.0 74.0 405.45411392405055 0.9366268839564319 3.0 0.0 3.0 
618.0004188157928 127.0 74.0 405.45411392405055 1.0054655533258914 3.0 0.0 3.0 
620.0004188157928 128.0 75.0 405.45411392405055 1.1256516821426779 3.0 0.0 3.0 
622.0004188157928 128.0 75.0 405.45411392405055 1.1233581041610268 3.0 0.0 3.0 
624.0004188157928 128.0 75.0 405.45411392405055 1.2472113151702005 3.0 0.0 3.0 
626.0002974181195 128.0 75.0 405.45411392405055 1.2754987769439008 3.0 0.0 3.0 
628.0004188157928 126.0 74.0 405.45411392405055 0.8073433948598586 3.0 0.0 3.0 
630.0004188157928 126.0 74.0 405.45411392405055 0.8961284415888308 3.0 0.0 3.0 
632.0004188157928 126.0 74.0 405.45411392405055 0.8564088154206063 3.0 0.0 3.0 
634.0004188157928 126.0 74.0 405.45411392405055 0.9451938621495785 3.0 0.0 3.0 
636.0002974181195 126.0 74.0 405.45411392405055 0.936626883956432 3.0 0.0 3.0 
638.0004188157928 126.0 74.0 405.45411392405055 0.9942592827103262 3.0 0.0 3.0 
640.0004188157928 126.0 74.0 405.45411392405055 1.083044329439298 3.0 0.0 3.0 
642.0004188157928 126.0 74.0 405.45411392405055 1.043324703271074 3.0 0.0 3.0 
644.0004188157928 126.0 74.0 405.45411392405055 1.1321097500000454 3.0 0.0 3.0 
646.0002974181195 126.0 74.0 405.45411392405055 1.1235427718068989 3.0 0.0 3.0 
648.0004188157928 124.0 73.0 405.45411392405055 0.6150043156805513 3.0 0.0 3.0 
650.0004188157928 124.0 73.0 405.45411392405055 0.7054805061567417 3.0 0.0 3.0 
652.0004188157928 124.0 73.0 405.45411392405055 0.6650043156805512 3.0 0.0 3.0 
654.0004188157928 124.0 73.0 405.45411392405055 0.7554805061567418 3.0 0.0 3.0 
656.0002974181195 126.0 74.0 405.45411392405055 0.7403652017134413 3.0 0.0 3.0 
658.0004188157928 126.0 74.0 405.45411392405055 0.7979976004673356 3.0 0.0 3.0 
660.0004188157928 126.0 74.0 405.45411392405055 0.8867826471963073 3.0 0.0 3.0 
662.0004188157928 126.0 74.0 405.45411392405055 0.8470630210280833 3.0 0.0 3.0 
664.0004188157928 128.0 75.0 405.45411392405055 0.9261103977390083 3.0 0.0 3.0 
#####################################################################
# End of data export. Simulation finished at: 2019-03-07T17:12+0000 #
#####################################################################
