#####################################################################
# Alchemist log file - simulation started at: 2019-03-08T17:01+0000 #
#####################################################################
# seed = 7.0, bandwidth = 1333521.4321633242, accessPointCount = 531.8295896944988, baserange = 1000.0
#
# The columns have the following meaning: 
# time neighbor_count[Sum] <value>@neighbor_count[Sum] packet_size[Mean] mean_delay[Mean] crowd[Sum] overcrowded[Sum] risk[Sum] 
0.0 NaN NaN NaN NaN NaN NaN NaN 
2.0000179207922786 13548.0 11304.0 4982.207100591716 0.4825370257829867 1497.0 0.0 1497.0 
4.000566666479174 16290.0 11683.0 4982.861932938856 0.5461486172487986 1497.0 0.0 1497.0 
6.000297418119471 19333.0 11731.0 4984.463510848126 0.561329457991396 1497.0 0.0 1497.0 
8.000225694701742 22449.0 11703.0 4985.633136094674 0.5669442457936509 1497.0 0.0 1497.0 
10.000225694701742 26314.0 11686.0 4987.005917159763 0.5764712710484122 1497.0 0.0 1497.0 
12.000225694701742 27684.0 11573.0 4988.0611439842205 0.5741724747709087 1496.0 1.0 1496.0 
14.000225694701742 27004.0 11465.0 4987.680473372781 0.504020821964562 1495.0 2.0 1495.0 
16.000225694701744 27004.0 11465.0 4987.702169625247 0.5040512567151131 1491.0 6.0 1491.0 
18.00022569470174 27004.0 11465.0 4988.128205128205 0.5039934582188702 1488.0 9.0 1488.0 
20.00022569470174 27004.0 11465.0 4987.895463510848 0.5039617825424807 1489.0 8.0 1489.0 
22.00022569470174 27011.0 11466.0 4987.694280078896 0.504084456641992 1492.0 5.0 1492.0 
24.00022569470174 27012.0 11466.0 4987.9033530572 0.5048454803938951 1492.0 5.0 1492.0 
26.00022569470174 26998.0 11467.0 4987.489151873768 0.5054841222005615 1494.0 3.0 1494.0 
28.00022569470174 26991.0 11465.0 4987.7317554240635 0.5039719524627215 1491.0 6.0 1491.0 
30.00022569470174 27000.0 11466.0 4988.011834319526 0.5055849310581314 1491.0 6.0 1491.0 
32.00022569470174 27005.0 11467.0 4987.6863905325445 0.5052468102982033 1494.0 3.0 1494.0 
34.00022569470174 27015.0 11467.0 4987.536489151874 0.5061765177966888 1493.0 4.0 1493.0 
36.00022569470174 27000.0 11465.0 4987.907297830375 0.504706654670477 1492.0 5.0 1492.0 
38.00022569470174 27000.0 11465.0 4987.615384615385 0.504715982742759 1492.0 5.0 1492.0 
40.00022569470174 27036.0 11468.0 4987.901380670612 0.5072212903268488 1490.0 7.0 1490.0 
42.00022569470174 27086.0 11466.0 4987.869822485207 0.5060716547234553 1492.0 5.0 1492.0 
44.00022569470174 27060.0 11465.0 4987.532544378699 0.505021152979118 1492.0 5.0 1492.0 
46.00022569470174 27068.0 11467.0 4987.544378698225 0.5069075809013891 1489.0 8.0 1489.0 
48.00022569470174 27058.0 11465.0 4988.07100591716 0.5047250502797868 1486.0 11.0 1486.0 
50.00022569470174 27069.0 11467.0 4987.674556213018 0.5048015832690004 1485.0 12.0 1485.0 
52.00022569470174 27113.0 11467.0 4987.696252465483 0.5058583658829333 1491.0 6.0 1491.0 
54.00022569470174 27090.0 11468.0 4987.698224852071 0.5064068259771333 1490.0 7.0 1490.0 
56.00022569470174 27080.0 11467.0 4987.550295857988 0.5045831961131658 1488.0 9.0 1488.0 
58.00022569470174 27078.0 11466.0 4987.735700197239 0.5038850031952002 1487.0 10.0 1487.0 
60.00022569470174 27080.0 11466.0 4988.1459566074955 0.5038821529476487 1486.0 11.0 1486.0 
62.000146891505416 27090.0 11467.0 1142.7672583826466 0.49535133129560727 768.0 10.0 317.0 
64.00014689150542 27097.0 11468.0 1142.7751479289982 0.5014906493265945 572.0 14.0 313.0 
66.00014689150541 27089.0 11467.0 1142.5384615384646 0.49977635320283875 524.0 15.0 312.0 
68.00014689150541 27091.0 11467.0 1142.437869822482 0.49980673595556 476.0 17.0 310.0 
70.00014689150541 27127.0 11468.0 1142.3589743589703 0.5032273123768809 458.0 16.0 311.0 
72.00014689150541 27025.0 11467.0 1144.5680473372704 0.5006283120897155 451.0 15.0 313.0 
74.00014689150541 27040.0 11468.0 1146.8165680473408 0.5018977681710863 451.0 12.0 317.0 
76.00014689150541 27045.0 11467.0 1146.7633136094685 0.5008254811344085 447.0 13.0 316.0 
78.00014689150541 27036.0 11466.0 1146.8244575936903 0.49952694514344254 442.0 16.0 313.0 
80.00014689150541 27078.0 11467.0 1146.8362919132126 0.5005061445868471 442.0 15.0 314.0 
82.00014689150541 27235.0 11468.0 1151.3767258382613 0.5025279314636459 441.0 16.0 315.0 
84.00014689150541 27194.0 11467.0 1153.5325443786971 0.5014871958334284 442.0 16.0 316.0 
86.00014689150541 27162.0 11465.0 1153.562130177518 0.49971884865725286 439.0 17.0 315.0 
88.00014689150541 27209.0 11466.0 1153.5207100591751 0.5002930558473331 440.0 16.0 316.0 
90.00014689150541 27233.0 11466.0 1153.5463510848097 0.5024562202232581 439.0 18.0 314.0 
92.00014689150541 27193.0 11466.0 1153.5384615384644 0.5011468134491742 441.0 17.0 315.0 
94.00014689150541 27189.0 11467.0 1153.530571992115 0.5014077855143083 443.0 15.0 317.0 
96.00014689150541 27137.0 11465.0 1155.7534516765356 0.5011421244887058 442.0 17.0 316.0 
98.00014689150541 27120.0 11468.0 1155.7790927021763 0.500504755243281 445.0 17.0 316.0 
100.00014689150541 27158.0 11465.0 1155.7337278106475 0.5018634350976572 447.0 16.0 317.0 
102.00014689150541 27122.0 11466.0 1155.8343195266316 0.5009798346196633 443.0 19.0 314.0 
104.00014689150541 27106.0 11465.0 1155.7731755424008 0.4995897595289761 443.0 19.0 314.0 
106.00014689150541 27108.0 11465.0 1160.360946745567 0.5001674287992637 446.0 16.0 319.0 
108.00014689150541 27105.0 11466.0 1160.337278106514 0.49966746599954726 445.0 17.0 318.0 
110.00014689150541 27108.0 11466.0 1160.349112426029 0.49990258128651954 445.0 17.0 318.0 
112.00014689150541 27151.0 11469.0 1160.313609467447 0.503117343071412 448.0 15.0 320.0 
114.00014689150541 27171.0 11466.0 1158.0433925049315 0.5016569794247274 448.0 15.0 319.0 
116.00014689150541 27168.0 11466.0 1158.0414201183428 0.5002190766004764 450.0 16.0 318.0 
118.00014689150541 27165.0 11465.0 1157.998027613417 0.5000124341553712 452.0 13.0 321.0 
120.00014689150541 27164.0 11465.0 1160.3175542406273 0.49985208364986916 451.0 14.0 321.0 
122.00014689150541 27181.0 11466.0 1162.5818540433902 0.5013576984234899 453.0 14.0 322.0 
124.00014689150541 27151.0 11467.0 1162.5522682445771 0.5018253774407128 457.0 12.0 324.0 
126.00014689150541 27170.0 11466.0 1162.5641025640994 0.5016752250647084 455.0 14.0 322.0 
128.0001468915054 27129.0 11468.0 1162.5246548323535 0.5034094442575374 455.0 14.0 322.0 
130.0001468915054 27180.0 11469.0 1160.2504930966427 0.5034351654969023 455.0 12.0 323.0 
132.0001468915054 27116.0 11465.0 1155.7218934911252 0.4998733347098737 451.0 14.0 319.0 
134.0001468915054 27228.0 11466.0 1153.5384615384644 0.5009615979423692 449.0 12.0 320.0 
136.0001468915054 27166.0 11465.0 1153.4339250493033 0.49961386182560574 445.0 14.0 318.0 
138.0001468915054 27202.0 11467.0 1158.055226824454 0.5012278475213379 448.0 14.0 320.0 
140.0001468915054 27213.0 11467.0 1167.1518737672573 0.5008546586139112 455.0 12.0 326.0 
142.0001468915054 27188.0 11468.0 1164.8362919132132 0.5005848587106181 453.0 14.0 323.0 
144.0001468915054 27199.0 11467.0 1164.78698224852 0.5018824635331086 451.0 14.0 323.0 
146.0001468915054 27223.0 11466.0 1162.5305719921155 0.5004264715826502 454.0 14.0 322.0 
148.0001468915054 27235.0 11467.0 1164.7771203155792 0.5022320069743652 455.0 14.0 323.0 
150.0001468915054 27066.0 11467.0 1164.8500986193246 0.5006527191478466 455.0 14.0 323.0 
152.0001468915054 27077.0 11469.0 1162.650887573971 0.5027415888339883 457.0 12.0 324.0 
154.0001468915054 26956.0 11467.0 1160.3372781065138 0.5028485322369515 456.0 14.0 321.0 
156.0001468915054 26937.0 11466.0 1160.1932938856005 0.5008293762004352 456.0 14.0 321.0 
158.0001468915054 26955.0 11466.0 1167.1360946745497 0.5002208557244123 456.0 14.0 324.0 
160.0001468915054 26964.0 11466.0 1167.0749506903417 0.5009517336342049 457.0 14.0 324.0 
162.0001468915054 26996.0 11466.0 1169.3905325443723 0.5008563132524958 458.0 14.0 325.0 
164.0001468915054 26921.0 11467.0 1171.6568047337228 0.503171179544965 459.0 12.0 328.0 
166.0001468915054 26788.0 11465.0 1171.5739644970467 0.4997863074186507 458.0 14.0 326.0 
168.0001468915054 26790.0 11465.0 1171.5739644970467 0.4996542767630213 458.0 14.0 326.0 
170.0001468915054 26870.0 11466.0 1171.6725838264326 0.5007233997758528 459.0 14.0 326.0 
172.0001468915054 26854.0 11465.0 1171.7021696252455 0.49967437898597816 459.0 14.0 326.0 
174.0001468915054 26856.0 11466.0 1173.9132149901427 0.4999133746658552 459.0 14.0 327.0 
176.0001468915054 26854.0 11465.0 1173.8915187376745 0.4995414810987674 462.0 12.0 329.0 
178.0001468915054 26898.0 11466.0 1176.1952662721894 0.5009465693274939 460.0 15.0 327.0 
180.0001468915054 26840.0 11466.0 1171.6429980276118 0.500430493332053 460.0 15.0 325.0 
182.0001468915054 26741.0 11466.0 1169.4181459566098 0.49935435444523146 459.0 15.0 324.0 
184.0001468915054 26749.0 11466.0 1169.3510848126266 0.5009371940592414 458.0 15.0 324.0 
186.0001468915054 26738.0 11465.0 1171.6666666666647 0.49954717730908593 457.0 15.0 325.0 
188.0001468915054 26840.0 11466.0 1169.3096646942768 0.500618298340823 458.0 13.0 326.0 
190.0001468915054 26778.0 11465.0 1171.6429980276118 0.49975387646970465 457.0 14.0 326.0 
192.0001468915054 26828.0 11466.0 1173.8737672583832 0.500562216140636 457.0 14.0 327.0 
194.0001468915054 26747.0 11466.0 1173.9664694280011 0.5010732782979441 457.0 14.0 327.0 
196.0001468915054 26782.0 11466.0 1173.9013806706148 0.5015085166471581 457.0 14.0 327.0 
198.0001468915054 26695.0 11466.0 1173.8422090729807 0.5016707594947033 458.0 14.0 327.0 
200.0001468915054 26643.0 11464.0 1173.8737672583832 0.49967956251374235 458.0 14.0 327.0 
202.0001468915054 26646.0 11465.0 1176.147928994079 0.4996578816769668 459.0 15.0 327.0 
204.0001468915054 26748.0 11466.0 1173.8461538461595 0.5009829839819903 459.0 15.0 326.0 
206.0001468915054 26691.0 11465.0 1173.8934911242561 0.5009256480284846 456.0 15.0 326.0 
208.0001468915054 26686.0 11466.0 1173.8402366863838 0.5015820018281852 456.0 15.0 326.0 
210.0001468915054 26608.0 11464.0 1171.5443786982275 0.4991908360552388 454.0 15.0 325.0 
212.0001468915054 26648.0 11466.0 1169.3234714003888 0.5037452144880675 456.0 12.0 327.0 
214.0001468915054 26574.0 11466.0 1169.3510848126264 0.5025007220676075 456.0 14.0 325.0 
216.0001468915054 26520.0 11464.0 1169.266272189352 0.4999861393330802 456.0 14.0 325.0 
218.0001468915054 26422.0 11463.0 1169.3313609467382 0.49913118811593 457.0 14.0 325.0 
220.0001468915054 26473.0 11465.0 1169.3017751479329 0.5009015961714643 457.0 14.0 325.0 
222.0001468915054 26384.0 11463.0 1164.8067061143997 0.5002275286383836 458.0 14.0 323.0 
224.0001468915054 26430.0 11464.0 1164.802761341229 0.5005162505223447 458.0 12.0 325.0 
226.0001468915054 26393.0 11465.0 1167.0276134122228 0.5003137573775397 454.0 14.0 324.0 
228.0001468915054 26389.0 11465.0 1167.0078895463585 0.5015378263871091 453.0 14.0 324.0 
230.0001468915054 26296.0 11464.0 1167.067061143983 0.501846215480079 452.0 14.0 324.0 
232.0001468915054 26312.0 11464.0 1167.0887573964544 0.5002337464818133 450.0 14.0 324.0 
234.0001468915054 26309.0 11466.0 1169.3451676528582 0.5019232004614264 451.0 14.0 325.0 
236.0001468915054 26258.0 11464.0 1169.3471400394556 0.49970086505409855 452.0 13.0 326.0 
238.0001468915054 26343.0 11464.0 1169.3254437869862 0.5017206663655236 445.0 20.0 319.0 
240.0001468915054 26366.0 11466.0 1169.284023668642 0.5014198629355926 447.0 20.0 319.0 
242.0001468915054 26365.0 11465.0 1171.6153846153893 0.5005973439988669 447.0 20.0 320.0 
244.0001468915054 26310.0 11464.0 1171.5522682445774 0.5004175023372135 447.0 20.0 320.0 
246.0001468915054 26290.0 11464.0 1171.5147928994058 0.49922267954901883 448.0 19.0 321.0 
248.0001468915054 26293.0 11463.0 1171.5246548323537 0.49948471052237264 454.0 13.0 327.0 
250.0001468915054 26292.0 11463.0 1166.9428007889494 0.4992144258878764 452.0 15.0 323.0 
252.00007898750854 26316.0 11465.0 1169.2149901380621 0.5019428927253459 455.0 15.0 324.0 
254.0001468915054 26242.0 11466.0 1169.2840236686418 0.5018260346460184 455.0 15.0 324.0 
256.00014689150544 26277.0 11466.0 1169.1854043392564 0.5014908295040955 455.0 15.0 324.0 
258.0001468915054 26158.0 11465.0 1169.2544378698228 0.5005640868161829 457.0 15.0 324.0 
260.0001468915054 26270.0 11467.0 1169.2741617356955 0.5018356801529882 460.0 13.0 326.0 
262.0000279947023 26215.0 11467.0 1169.3471400394556 0.5013416813044965 457.0 15.0 324.0 
264.0000279947023 26240.0 11466.0 1167.0394477317604 0.5042073687001474 456.0 15.0 323.0 
266.0001468915054 26116.0 11465.0 1164.7514792899383 0.5003796968131863 455.0 15.0 322.0 
268.0001468915054 26178.0 11467.0 1169.3116370808737 0.5005956086789727 456.0 15.0 324.0 
270.0001468915054 26181.0 11466.0 1176.0966469428042 0.5000226388133635 454.0 15.0 327.0 
272.0001468915054 26286.0 11468.0 1173.8619329388532 0.5026793451282513 452.0 13.0 328.0 
274.0001468915054 26218.0 11465.0 1173.822485207093 0.49985497381522764 450.0 15.0 326.0 
276.0001468915054 26237.0 11467.0 1176.0650887574013 0.5002793303581132 450.0 15.0 327.0 
278.0001468915054 26262.0 11466.0 1176.0473372781103 0.5015792145068106 451.0 15.0 327.0 
280.0001468915054 26302.0 11469.0 1173.7790927021767 0.5048969695636121 451.0 15.0 326.0 
282.0001468915054 26124.0 11466.0 1178.293885601583 0.5012875269947632 450.0 15.0 328.0 
284.0001468915054 26114.0 11466.0 1182.7889546351098 0.501693975152004 455.0 13.0 332.0 
286.0001468915054 26098.0 11467.0 1182.8086785009818 0.5036093964150951 453.0 15.0 330.0 
288.0001468915054 26042.0 11466.0 1182.7613412228864 0.5008978809058947 452.0 15.0 330.0 
290.0001468915054 26048.0 11466.0 1180.5108481262268 0.5009739940528216 452.0 15.0 329.0 
292.0001468915054 26115.0 11467.0 1182.8777120315624 0.502403457806765 451.0 15.0 330.0 
294.0001468915054 26127.0 11466.0 1180.5660749506962 0.5013165549995942 450.0 15.0 329.0 
296.0001468915054 26157.0 11470.0 1171.4970414201157 0.5036790758007129 451.0 13.0 327.0 
298.0001468915054 26135.0 11468.0 1173.8481262327425 0.5030981471297419 448.0 15.0 326.0 
300.0001468915054 26121.0 11468.0 1176.0295857988206 0.5029061033107894 446.0 15.0 327.0 
302.0001468915054 26063.0 11468.0 1180.6469428007922 0.5019932531363129 449.0 15.0 329.0 
304.0001468915054 26037.0 11468.0 1182.9013806706148 0.5023701715697604 452.0 15.0 330.0 
306.0001468915054 26052.0 11467.0 1185.1360946745488 0.5012821397053848 453.0 15.0 331.0 
308.0001468915054 26036.0 11466.0 1185.072978303744 0.5004381359558875 455.0 13.0 333.0 
310.0001468915054 26078.0 11468.0 1187.4102564102602 0.5026047699626329 451.0 15.0 332.0 
312.0001468915054 26026.0 11468.0 1182.7889546351093 0.5024795705007238 450.0 15.0 330.0 
314.0001468915054 26060.0 11469.0 1185.1321499013852 0.5044083270177847 451.0 15.0 331.0 
316.0001468915054 26032.0 11468.0 1185.100591715983 0.501944203104669 451.0 15.0 331.0 
318.0001468915054 26040.0 11468.0 1187.3708086784977 0.5017950758692417 451.0 15.0 332.0 
320.0001468915054 25986.0 11468.0 1187.3944773175504 0.5020575013461664 455.0 13.0 334.0 
322.0001468915054 25971.0 11468.0 1187.382642998029 0.5023134969173837 453.0 15.0 332.0 
324.0001468915054 25945.0 11467.0 1189.6015779092786 0.5022867482323995 451.0 15.0 333.0 
326.0001468915054 25974.0 11468.0 1187.4201183431912 0.5015142956640388 451.0 15.0 332.0 
328.0001468915054 25956.0 11466.0 1187.295857988165 0.5003932834760654 451.0 15.0 332.0 
330.0001468915054 25981.0 11468.0 1187.4516765285935 0.501462592044389 450.0 16.0 331.0 
332.0001468915054 25982.0 11470.0 1189.6232741617396 0.5040064906321859 454.0 14.0 334.0 
334.0001468915054 25960.0 11468.0 1187.4891518737734 0.5020152991844774 452.0 15.0 332.0 
336.0001468915054 25962.0 11467.0 1187.3708086784977 0.5017577923773062 452.0 15.0 332.0 
338.0001468915054 25981.0 11467.0 1182.8895463510846 0.5016659108083862 451.0 15.0 330.0 
340.0001468915054 26000.0 11468.0 1182.932938856017 0.504934542837526 449.0 16.0 329.0 
342.0001468915054 25952.0 11468.0 1176.1084812623249 0.5015886708256195 450.0 16.0 326.0 
344.0001468915054 25967.0 11466.0 1178.305719921097 0.5008112123595352 451.0 14.0 329.0 
346.0001468915054 26129.0 11470.0 1180.5897435897396 0.5043150686294532 449.0 15.0 329.0 
348.0001468915054 26020.0 11466.0 1180.5167652860048 0.5014937555282074 452.0 15.0 329.0 
350.0001468915054 26085.0 11468.0 1182.883629191324 0.5027822073741621 453.0 15.0 330.0 
352.0001468915054 26131.0 11469.0 1182.8165680473408 0.502320629731869 452.0 15.0 330.0 
354.0001468915054 26125.0 11467.0 1182.8796844181434 0.5033460121516936 452.0 15.0 330.0 
356.0001468915054 26010.0 11466.0 1182.7909270216905 0.5010751066782451 452.0 13.0 332.0 
358.0001468915054 26100.0 11469.0 1180.6291913215023 0.5023828382424932 451.0 15.0 329.0 
360.0001468915054 26056.0 11466.0 1166.9723865877777 0.5018293402021156 451.0 15.0 323.0 
362.0001468915054 26058.0 11468.0 1164.7534516765363 0.5032030569503676 450.0 15.0 322.0 
364.0001468915054 26040.0 11466.0 1160.1222879684374 0.5024339056230519 451.0 15.0 320.0 
366.0001468915054 26045.0 11468.0 1151.1301775147876 0.5027699324790375 453.0 15.0 316.0 
368.0001468915054 25996.0 11466.0 1153.301775147934 0.5012679987085681 458.0 13.0 319.0 
370.0001468915054 26041.0 11467.0 1155.670611439835 0.5018575291485197 456.0 15.0 318.0 
372.0001468915054 26056.0 11471.0 1153.3057199210973 0.5056389061697218 455.0 15.0 317.0 
374.0001468915054 26003.0 11468.0 1153.3767258382607 0.5025992025597175 453.0 15.0 317.0 
376.0001468915054 26028.0 11468.0 1148.7278106508859 0.5024984490671548 453.0 15.0 315.0 
378.0001468915054 26145.0 11471.0 1148.8047337278101 0.5063433015371377 456.0 15.0 315.0 
380.0001468915054 26053.0 11466.0 1148.7613412228864 0.5025288178265717 459.0 13.0 317.0 
382.0001468915054 26042.0 11466.0 1144.2820512820451 0.5020174473507579 457.0 15.0 313.0 
384.0001468915054 26040.0 11465.0 1144.252465483241 0.5004769946814076 459.0 16.0 312.0 
386.0001468915054 26107.0 11469.0 1146.5187376725776 0.5041645368044134 455.0 16.0 313.0 
388.0001468915054 26096.0 11465.0 1144.3570019723882 0.5008474763838181 455.0 16.0 312.0 
390.0001468915054 26147.0 11468.0 1148.8067061144 0.5054356571731345 453.0 16.0 314.0 
392.0001468915054 26049.0 11466.0 1151.065088757401 0.5025225422752823 455.0 14.0 317.0 
394.0001468915054 26044.0 11463.0 1148.826429980271 0.5018934608659245 455.0 15.0 315.0 
396.0001468915054 26056.0 11464.0 1148.8007889546327 0.49999055278892146 453.0 15.0 315.0 
398.0001468915054 26068.0 11465.0 1144.3274161735676 0.5007211563489902 454.0 15.0 313.0 
400.0001468915054 26101.0 11467.0 1148.8343195266318 0.5021088440472709 454.0 15.0 315.0 
402.0001468915054 26092.0 11467.0 1153.4339250493038 0.5026151206305074 458.0 14.0 318.0 
404.0001468915054 26056.0 11466.0 1153.372781065096 0.5019301986695777 461.0 12.0 320.0 
406.0001468915054 26037.0 11465.0 1155.714003944776 0.5013626936496577 457.0 16.0 317.0 
408.0001468915054 26078.0 11467.0 1153.3609467455665 0.503338361751655 457.0 16.0 316.0 
410.0001468915054 26051.0 11467.0 1155.6982248520671 0.5013866423774865 459.0 15.0 318.0 
412.0001468915054 26074.0 11469.0 1148.8678500986157 0.5031290749773092 458.0 15.0 315.0 
414.0001468915054 25996.0 11466.0 1148.810650887578 0.5013449882729123 458.0 15.0 315.0 
416.0001468915054 26008.0 11466.0 1148.7376725838187 0.5012586962875101 459.0 13.0 317.0 
418.0001468915054 26039.0 11468.0 1146.5285996055186 0.5030466244257615 459.0 15.0 314.0 
420.0001468915054 26061.0 11467.0 1146.520710059175 0.5029189870812163 456.0 16.0 313.0 
422.0001468915054 26084.0 11468.0 1144.299802761336 0.5032386919769433 455.0 16.0 312.0 
424.0001468915054 26034.0 11466.0 1144.2919132149864 0.5017146683733927 449.0 16.0 312.0 
426.0001468915054 26030.0 11466.0 1142.0039447731804 0.5013736849941053 446.0 16.0 311.0 
428.0001468915054 26038.0 11466.0 1139.7041420118353 0.5011000721838614 448.0 14.0 312.0 
430.0001468915054 26077.0 11467.0 1137.5009861932865 0.501912818456771 447.0 14.0 311.0 
432.0001468915054 26076.0 11467.0 1141.982248520709 0.5026344000165335 448.0 14.0 313.0 
434.0001468915054 26060.0 11466.0 1148.8520710059213 0.5015467725364966 449.0 14.0 316.0 
436.0001468915054 26056.0 11466.0 1148.7771203155792 0.5016869008365868 448.0 15.0 315.0 
438.0001468915054 26097.0 11467.0 1148.8205128205193 0.5037713013665234 449.0 15.0 315.0 
440.0001468915054 26096.0 11467.0 1146.437869822482 0.5028220435680055 449.0 13.0 316.0 
442.0001468915054 26110.0 11467.0 1146.528599605518 0.5021701251256174 446.0 16.0 313.0 
444.0001468915054 26047.0 11466.0 1146.4852071005946 0.5039775475349556 448.0 15.0 314.0 
446.0001468915054 26087.0 11467.0 1153.3195266272244 0.5022850635941609 450.0 14.0 318.0 
448.0001468915054 26092.0 11466.0 1155.5759368836286 0.5006863987571669 452.0 13.0 320.0 
450.0001468915054 26127.0 11468.0 1160.1538461538403 0.5028156001857869 451.0 14.0 321.0 
452.0001468915054 26114.0 11466.0 1160.1360946745494 0.5008321377560022 453.0 12.0 323.0 
454.0001468915054 26131.0 11468.0 1162.449704142012 0.5012128104411411 451.0 14.0 322.0 
456.0001468915054 26122.0 11465.0 1164.6686390532616 0.49966776301869537 451.0 14.0 323.0 
458.0001468915054 26132.0 11466.0 1160.177514792907 0.49994504564110165 449.0 15.0 320.0 
460.0001468915054 26143.0 11466.0 1160.177514792907 0.49925296644614114 449.0 14.0 321.0 
462.0001468915054 26166.0 11469.0 1160.1715976331311 0.5001166952951928 447.0 15.0 320.0 
464.0001468915054 26182.0 11468.0 1153.3570019723882 0.5005348774838967 448.0 13.0 319.0 
466.0001468915054 26184.0 11468.0 1157.8441814595626 0.5014826486815206 448.0 16.0 318.0 
468.0001468915054 26120.0 11466.0 1157.8816568047257 0.49932830395656647 451.0 14.0 320.0 
470.0001468915054 26131.0 11466.0 1155.59368836292 0.5001910417242904 449.0 14.0 319.0 
472.0001468915054 26143.0 11468.0 1155.627218934903 0.5014279000598447 447.0 14.0 319.0 
474.0001468915054 26151.0 11469.0 1155.6232741617396 0.50255555702898 444.0 15.0 318.0 
476.0001468915054 26220.0 11470.0 1155.5424063116454 0.5033385337031188 448.0 14.0 319.0 
478.0001468915054 26097.0 11466.0 1155.6213017751425 0.4995460561009203 449.0 15.0 318.0 
480.0001468915054 26176.0 11468.0 1153.274161735695 0.5009485161742041 451.0 14.0 318.0 
482.0001468915054 26198.0 11468.0 1148.7652859960494 0.5003428747620741 449.0 14.0 316.0 
484.0001468915054 26229.0 11468.0 1144.2209072978228 0.5011785709549272 449.0 14.0 314.0 
486.0001468915054 26324.0 11470.0 1144.1794871794805 0.5020336662993834 446.0 14.0 314.0 
488.0001468915054 26241.0 11468.0 1141.9289940828367 0.501065464574636 447.0 12.0 315.0 
490.0001468915054 26233.0 11469.0 1137.4161735700125 0.5016158358084102 446.0 14.0 311.0 
492.0001468915054 26366.0 11470.0 1132.8500986193237 0.5032648399990292 445.0 14.0 309.0 
494.0001468915054 26313.0 11467.0 1132.901380670615 0.5012120264871742 444.0 14.0 309.0 
496.0001468915054 26315.0 11466.0 1132.8441814595624 0.49950293663798623 444.0 14.0 309.0 
498.0001468915054 26371.0 11468.0 1132.8934911242561 0.5010380907768912 445.0 14.0 309.0 
500.0001468915054 26346.0 11468.0 1135.1794871794805 0.5033721629195994 448.0 12.0 312.0 
502.0001468915054 26238.0 11465.0 1132.927021696256 0.49979437482550065 446.0 14.0 309.0 
504.0001468915054 26289.0 11466.0 1137.4161735700125 0.5004179173986221 446.0 14.0 311.0 
506.0001468915054 26272.0 11467.0 1139.6883629191261 0.5009070646616972 448.0 14.0 312.0 
508.0001468915054 26284.0 11468.0 1139.714003944776 0.5006927474593772 447.0 14.0 312.0 
510.0001468915054 26269.0 11466.0 1139.6785009861942 0.5012251901945787 448.0 14.0 312.0 
512.0001468915054 26267.0 11468.0 1141.980276134127 0.5004748501912065 450.0 13.0 314.0 
514.0001468915054 26268.0 11468.0 1139.7258382643042 0.4997345858030676 447.0 15.0 311.0 
516.0001468915054 26323.0 11468.0 1137.3826429980286 0.5004840942577385 447.0 14.0 311.0 
518.0001468915054 26345.0 11467.0 1135.1913214990184 0.49938933326222645 445.0 15.0 309.0 
520.0001468915054 26470.0 11468.0 1132.8658777120334 0.5009518364914044 446.0 14.0 309.0 
522.0001468915054 26466.0 11470.0 1128.3668639053196 0.5029300726498598 447.0 14.0 307.0 
524.0001468915054 26457.0 11468.0 1130.6114398422108 0.502012352068336 449.0 12.0 310.0 
526.0001468915054 26512.0 11470.0 1121.5877712031586 0.5041678218345409 447.0 14.0 304.0 
528.0001468915054 26428.0 11469.0 1119.299802761336 0.5018620070157349 445.0 14.0 303.0 
530.0001468915054 26350.0 11467.0 1119.339250493097 0.49947806652422083 444.0 14.0 303.0 
532.0001468915054 26404.0 11469.0 1119.349112426029 0.50046211957647 446.0 14.0 303.0 
534.0001468915054 26406.0 11467.0 1119.3885601577892 0.5011686389509957 446.0 14.0 303.0 
536.0001468915054 26390.0 11467.0 1114.8047337278106 0.4995504035135337 445.0 12.0 303.0 
538.0001468915054 26450.0 11467.0 1110.3234714003886 0.5004726653188621 442.0 14.0 299.0 
540.0001468915054 26470.0 11467.0 1112.5207100591754 0.5004776683526897 441.0 15.0 299.0 
542.0001468915054 26495.0 11470.0 1117.1597633136166 0.5011530001922303 442.0 14.0 302.0 
544.0001468915054 26486.0 11467.0 1121.682445759373 0.5028218997021721 444.0 15.0 303.0 
546.0001468915054 26475.0 11467.0 1121.6410256410306 0.49928893017421294 446.0 14.0 304.0 
548.0001468915054 26478.0 11466.0 1117.057199211051 0.4990042699552521 448.0 13.0 303.0 
550.0001468915054 26494.0 11467.0 1112.5147928994058 0.4999364343766356 447.0 14.0 300.0 
552.0001468915054 26442.0 11468.0 1114.7021696252452 0.5011654715991893 445.0 15.0 300.0 
554.0001468915054 26480.0 11466.0 1121.5877712031588 0.5011351670282334 449.0 14.0 304.0 
556.0001468915054 26486.0 11467.0 1117.0 0.5020361368098492 446.0 15.0 301.0 
558.0001468915054 26565.0 11470.0 1112.5305719921155 0.5037529695618075 440.0 14.0 300.0 
560.0001468915054 26351.0 11467.0 1119.3195266272253 0.50058175258773 441.0 13.0 304.0 
562.0001468915054 26372.0 11467.0 1119.3550295858065 0.49996898753710284 439.0 16.0 301.0 
564.0001468915054 26444.0 11467.0 1123.8303747534515 0.5012532876613612 444.0 14.0 305.0 
566.0001468915054 26457.0 11467.0 1126.1558185404378 0.5012648766267597 446.0 14.0 306.0 
568.0001468915054 26491.0 11467.0 1128.3570019723882 0.5020854163049324 449.0 14.0 307.0 
570.0001468915054 26456.0 11468.0 1130.676528599612 0.501598391103385 447.0 18.0 304.0 
572.0001468915054 26410.0 11466.0 1130.619329388561 0.5007605899528814 448.0 17.0 305.0 
574.0001468915054 26429.0 11467.0 1130.7159763313575 0.5007231590227063 446.0 19.0 303.0 
576.0001468915054 26483.0 11468.0 1128.3964497041482 0.5026919006035337 445.0 17.0 304.0 
578.0001468915054 26452.0 11465.0 1130.7278106508859 0.5005014824200692 441.0 18.0 304.0 
580.0001468915054 26481.0 11468.0 1130.686390532553 0.501720318832014 447.0 12.0 310.0 
582.0001468915054 26453.0 11466.0 1130.7120315581788 0.5007050580919513 448.0 12.0 310.0 
584.0001468915054 26468.0 11467.0 1130.668639053262 0.4993924314949419 450.0 11.0 311.0 
586.0001468915054 26543.0 11472.0 1135.1794871794805 0.5069260448204416 447.0 14.0 310.0 
588.0001468915054 26523.0 11470.0 1139.7021696252455 0.5038838947088873 450.0 14.0 312.0 
590.0001468915054 26461.0 11468.0 1139.7376725838183 0.5031711464882109 450.0 17.0 309.0 
592.0001468915054 26380.0 11466.0 1137.4556213017722 0.5008824918063989 453.0 13.0 312.0 
594.0001468915054 26375.0 11464.0 1137.5009861932865 0.4997985871917345 456.0 13.0 312.0 
596.0001468915054 26473.0 11466.0 1137.4319526627303 0.5006578468303674 455.0 11.0 314.0 
598.0001468915054 26485.0 11467.0 1135.2781065088739 0.5017397740468351 453.0 13.0 311.0 
600.0001468915054 26500.0 11468.0 1137.4871794871756 0.5035238112533007 456.0 13.0 312.0 
602.0001468915054 26428.0 11467.0 1142.017751479291 0.503060196778991 455.0 13.0 314.0 
604.0001468915054 26335.0 11467.0 1139.717948717955 0.5026222189888848 457.0 13.0 313.0 
606.0001468915054 26290.0 11467.0 1144.2504930966425 0.5023489799336244 461.0 13.0 315.0 
608.0001468915054 26376.0 11468.0 1148.7988165680497 0.5013641518900103 463.0 11.0 319.0 
610.0001468915054 26357.0 11466.0 1151.0867850098562 0.5024930894663086 461.0 13.0 318.0 
612.0001468915054 26299.0 11466.0 1148.7830374753403 0.49912037146002136 463.0 13.0 317.0 
614.0001468915054 26334.0 11468.0 1157.962524654837 0.5010915775845762 466.0 13.0 321.0 
616.0001468915054 26348.0 11469.0 1160.1656804733682 0.5037207942586055 466.0 13.0 322.0 
618.0001468915054 26216.0 11465.0 1162.4595660749535 0.4997878037739616 469.0 13.0 323.0 
620.0001468915054 26289.0 11468.0 1166.97830374753 0.501991901687394 472.0 11.0 327.0 
622.0001468915054 26328.0 11466.0 1160.2071005917117 0.4992982380047574 469.0 13.0 322.0 
624.0001468915054 26342.0 11466.0 1153.4023668639013 0.4993433770152447 466.0 14.0 318.0 
626.0001468915054 26389.0 11467.0 1155.619329388561 0.500380007183601 461.0 14.0 319.0 
628.0001468915054 26371.0 11466.0 1153.360946745567 0.4991796479165638 461.0 13.0 319.0 
630.0001468915054 26382.0 11468.0 1155.680473372775 0.5011240294688528 464.0 13.0 320.0 
632.0001468915054 26299.0 11467.0 1155.6627218934848 0.5005209219070141 466.0 11.0 322.0 
634.0001468915054 26270.0 11466.0 1155.692307692305 0.49984925469269664 462.0 13.0 320.0 
636.0001468915054 26288.0 11467.0 1153.3530571992078 0.5028520952424139 462.0 14.0 318.0 
638.0001468915054 26260.0 11467.0 1153.4122287968405 0.501079194781491 462.0 14.0 318.0 
640.0001468915054 26241.0 11468.0 1157.9408284023682 0.4996548423343407 466.0 13.0 321.0 
642.0001468915054 26214.0 11466.0 1155.654832347143 0.5014190010352053 464.0 13.0 320.0 
644.0001468915054 26213.0 11465.0 1153.3530571992078 0.49886371850530026 463.0 11.0 321.0 
646.0001468915054 26331.0 11471.0 1148.796844181451 0.5041594432666396 459.0 12.0 318.0 
648.0001468915054 26200.0 11466.0 1151.1084812623246 0.5000833640974811 460.0 12.0 319.0 
650.0001468915054 26284.0 11470.0 1155.7199211045354 0.5043195835990103 458.0 12.0 321.0 
652.0001468915054 26138.0 11466.0 1155.666666666663 0.5001038196228708 456.0 12.0 321.0 
654.0001468915054 26073.0 11468.0 1155.7435897435957 0.4999478506858058 454.0 12.0 321.0 
656.0001468915054 26061.0 11466.0 1155.6410256410313 0.5028492883439344 456.0 10.0 323.0 
658.0001468915054 26024.0 11466.0 1157.9763313609496 0.5005938744760979 454.0 12.0 322.0 
660.0001468915054 26017.0 11473.0 1157.9191321499059 0.5046032656186435 452.0 12.0 322.0 
662.0001468915054 25985.0 11468.0 1158.017751479291 0.5022631488090216 449.0 13.0 321.0 
664.0001468915054 25928.0 11467.0 1155.767258382647 0.49975463947740284 449.0 13.0 320.0 
#####################################################################
# End of data export. Simulation finished at: 2019-03-08T17:09+0000 #
#####################################################################
