#####################################################################
# Alchemist log file - simulation started at: 2019-03-09T14:48+0000 #
#####################################################################
# seed = 3.0, bandwidth = 1333521.4321633242, accessPointCount = 274.2481756762073, baserange = 316.2277660168379
#
# The columns have the following meaning: 
# time neighbor_count[Sum] <value>@neighbor_count[Sum] packet_size[Mean] mean_delay[Mean] crowd[Sum] overcrowded[Sum] risk[Sum] 
0.0 NaN NaN NaN NaN NaN NaN NaN 
2.0005923698108097 3614.0 1145.0 4985.806888763411 0.48481378217536225 1497.0 0.0 1497.0 
4.00059236981081 5944.0 1184.0 4987.26369282891 0.5188627077727178 1497.0 0.0 1497.0 
6.000084666035003 8398.0 1206.0 4988.336533032185 0.5300002220733668 1497.0 0.0 1497.0 
8.000293856217912 10581.0 1184.0 4989.032185206098 0.5382597049240275 1496.0 1.0 1496.0 
10.00033353340315 12098.0 1181.0 4989.27159796725 0.5541320017376252 1493.0 4.0 1493.0 
12.00059236981081 12393.0 1148.0 4989.687182382834 0.5335962016290643 1492.0 5.0 1492.0 
14.00059236981081 12198.0 1127.0 4989.61038961039 0.49865685791604175 1491.0 6.0 1491.0 
16.000084666035004 12198.0 1127.0 4989.712027103332 0.5005041198115658 1489.0 8.0 1489.0 
18.00059236981081 12190.0 1126.0 4989.456804065499 0.4982121748183624 1490.0 7.0 1490.0 
20.00033353340315 12192.0 1126.0 4989.635234330886 0.49815723346299695 1494.0 3.0 1494.0 
22.00059236981081 12198.0 1126.0 4989.389045736872 0.4982150867668833 1490.0 7.0 1490.0 
24.00059236981081 12198.0 1126.0 4989.488424618859 0.49817613041197234 1489.0 8.0 1489.0 
26.000084666035004 12199.0 1126.0 4989.596837944664 0.4983133467570835 1488.0 9.0 1488.0 
28.00059236981081 12207.0 1126.0 4989.508752117447 0.5008658438466123 1486.0 11.0 1486.0 
30.00033353340315 12194.0 1125.0 4989.474872953134 0.49829516702068605 1486.0 11.0 1486.0 
32.00059236981081 12194.0 1125.0 4989.524562394127 0.49846313856709334 1487.0 10.0 1487.0 
34.00059236981081 12191.0 1125.0 4989.391304347826 0.4982299854917903 1485.0 12.0 1485.0 
36.00008466603501 12193.0 1125.0 4989.434217955957 0.49968601438088034 1485.0 12.0 1485.0 
38.00059236981081 12133.0 1126.0 4989.549407114625 0.5010461672229484 1487.0 10.0 1487.0 
40.00033353340315 12132.0 1126.0 4989.445511010728 0.4991537477437348 1484.0 13.0 1484.0 
42.00059236981081 12134.0 1126.0 4989.411631846415 0.4989269359071577 1484.0 13.0 1484.0 
44.00059236981081 12128.0 1126.0 4989.571993224167 0.49969734434271773 1484.0 13.0 1484.0 
46.00008466603501 12203.0 1127.0 4989.413890457368 0.5008204197300762 1486.0 11.0 1486.0 
48.00059236981081 12212.0 1127.0 4989.456804065499 0.5011073117514706 1485.0 12.0 1485.0 
50.00033353340315 12206.0 1126.0 4989.465838509317 0.5000531173407672 1486.0 11.0 1486.0 
52.00059236981081 12202.0 1126.0 4989.413890457368 0.49861886213774537 1486.0 11.0 1486.0 
54.00059236981081 12200.0 1126.0 4989.3777526821 0.4986046045371138 1485.0 12.0 1485.0 
56.00008466603501 12232.0 1126.0 4989.567476002258 0.501379327755604 1486.0 11.0 1486.0 
58.00059236981081 12251.0 1125.0 4989.447769621683 0.5003221128781392 1487.0 10.0 1487.0 
60.00033353340315 12219.0 1124.0 4989.438735177866 0.5029647176120813 1484.0 13.0 1484.0 
62.00059236981081 12178.0 1125.0 1133.4477696216854 0.49756164623085225 551.0 11.0 271.0 
64.00059236981082 12174.0 1125.0 1133.3122529644297 0.49939382290996764 443.0 19.0 263.0 
66.00008466603501 12183.0 1126.0 1130.5590062111842 0.500736808330859 420.0 14.0 267.0 
68.00059236981082 12189.0 1126.0 1127.997741389041 0.5020361690586326 401.0 14.0 266.0 
70.00033353340315 12175.0 1126.0 1122.6787125917529 0.5010664057356484 388.0 18.0 260.0 
72.00059236981082 12170.0 1126.0 1120.1174477696236 0.5035348643363708 384.0 15.0 262.0 
74.00059236981082 12156.0 1125.0 1120.056465273853 0.49976517671135284 376.0 15.0 262.0 
76.00008466603501 12163.0 1127.0 1120.1603613777513 0.5006050409279406 377.0 11.0 266.0 
78.00059236981082 12218.0 1127.0 1125.2874082439341 0.5023922424487083 373.0 15.0 264.0 
80.00033353340315 12196.0 1126.0 1125.3687182382823 0.4996811112178473 377.0 12.0 267.0 
82.00059236981082 12203.0 1126.0 1125.3235460191959 0.4995114639352181 372.0 16.0 263.0 
84.00059236981082 12216.0 1126.0 1125.2670807453428 0.5000236148616571 376.0 11.0 268.0 
86.00008466603501 12211.0 1125.0 1125.2693393562915 0.5017271153444419 374.0 13.0 266.0 
88.00059236981082 12196.0 1125.0 1125.2987012986973 0.4997286051708785 376.0 11.0 268.0 
90.00033353340315 12201.0 1125.0 1127.8260869565238 0.5024973195558271 371.0 16.0 264.0 
92.00059236981082 12197.0 1124.0 1127.9119141727824 0.5003065279018647 375.0 12.0 268.0 
94.00059236981082 12172.0 1124.0 1127.8780350084692 0.503566200640147 370.0 17.0 263.0 
96.00008466603501 12115.0 1123.0 1130.513833992094 0.5014777055394841 372.0 15.0 266.0 
98.00059236981082 12099.0 1124.0 1127.8306041784342 0.5050388801604668 364.0 22.0 258.0 
100.00033353340315 12073.0 1122.0 1127.934500282322 0.4998647114507872 370.0 16.0 264.0 
102.00059236981082 12072.0 1123.0 1127.8102766798431 0.5006863648091634 372.0 14.0 266.0 
104.00059236981082 12068.0 1123.0 1127.93901750424 0.49952356101226814 374.0 12.0 268.0 
106.00008466603501 12094.0 1124.0 1127.8531902879706 0.501123463310089 368.0 18.0 262.0 
108.00059236981082 12102.0 1123.0 1127.9277244494665 0.5017755880082146 372.0 13.0 267.0 
110.00033353340315 12079.0 1121.0 1127.862224731788 0.5022449089935457 367.0 17.0 263.0 
112.00059236981082 12047.0 1122.0 1127.909655561834 0.5050456969004367 371.0 14.0 266.0 
114.00059236981082 12016.0 1120.0 1127.8870694522836 0.500922735831936 370.0 15.0 265.0 
116.00008466603501 12039.0 1120.0 1130.4776962168223 0.5045606641687643 373.0 14.0 267.0 
118.00059236981082 12036.0 1118.0 1133.0841332580414 0.5009355002661238 374.0 15.0 267.0 
120.00033353340315 12009.0 1118.0 1130.4551101072825 0.4992480359152337 374.0 14.0 267.0 
122.00059236981082 12010.0 1120.0 1130.4212309429693 0.5006493251879192 367.0 21.0 260.0 
124.00059236981082 12046.0 1120.0 1130.5409373235414 0.4990255950604202 374.0 15.0 266.0 
126.00008466603501 12071.0 1120.0 1133.0208921513222 0.5006982144933245 372.0 17.0 265.0 
128.00059236981082 12068.0 1121.0 1130.4664031620591 0.5033002897106056 375.0 14.0 267.0 
130.00033353340314 12005.0 1121.0 1130.4912478825547 0.5064276269865834 370.0 18.0 263.0 
132.00059236981082 11874.0 1118.0 1133.0863918690002 0.5039648603247816 377.0 12.0 270.0 
134.00059236981082 11861.0 1117.0 1133.0254093732399 0.4993882773799115 374.0 13.0 269.0 
136.000084666035 11858.0 1117.0 1133.0796160361342 0.49988762197941433 375.0 10.0 272.0 
138.00059236981082 11846.0 1117.0 1132.9666854884283 0.4998374008960732 373.0 11.0 271.0 
140.00033353340314 11865.0 1117.0 1133.0863918690002 0.4997576009485695 374.0 12.0 270.0 
142.00059236981082 11925.0 1119.0 1135.6047430830015 0.5018361851205473 375.0 10.0 273.0 
144.00059236981082 11916.0 1119.0 1138.2382834556781 0.5008956355683017 373.0 13.0 271.0 
146.000084666035 11912.0 1118.0 1130.4415584415608 0.5040428370913892 373.0 11.0 270.0 
148.00059236981082 11823.0 1116.0 1127.9232072275593 0.5051437234593689 368.0 14.0 266.0 
150.00033353340314 11718.0 1115.0 1127.841897233197 0.5037668209627548 372.0 8.0 272.0 
152.00059236981082 11642.0 1113.0 1127.8238283455648 0.5055870968352073 372.0 9.0 271.0 
154.00059236981082 11544.0 1112.0 1125.2828910220246 0.49947825748371044 366.0 15.0 264.0 
156.000084666035 11536.0 1112.0 1125.1835121400325 0.5000434039056522 366.0 14.0 265.0 
158.00059236981082 11519.0 1112.0 1127.7605872388458 0.5045256429787728 369.0 11.0 269.0 
160.00033353340314 11533.0 1112.0 1130.4325239977443 0.49914558779002155 372.0 9.0 272.0 
162.00059236981082 11581.0 1113.0 1132.9666854884292 0.5020015500868118 370.0 12.0 270.0 
164.00059236981082 11572.0 1112.0 1133.04799548278 0.4995313715199437 368.0 14.0 268.0 
166.000084666035 11622.0 1113.0 1133.0028232636898 0.5019380282686768 367.0 15.0 267.0 
168.00059236981082 11604.0 1113.0 1133.0095990965592 0.49922370692796797 364.0 18.0 264.0 
170.00033353340314 11609.0 1113.0 1132.975719932244 0.49918471034788786 368.0 14.0 268.0 
172.00059236981082 11614.0 1114.0 1133.00508187465 0.4991029614388274 367.0 15.0 267.0 
174.00059236981082 11614.0 1114.0 1130.4031620553403 0.4992033335501412 368.0 14.0 267.0 
176.000084666035 11612.0 1114.0 1130.4076792772476 0.5013280728885093 367.0 14.0 267.0 
178.00059236981082 11577.0 1113.0 1130.405420666288 0.5019925218864953 364.0 15.0 266.0 
180.00033353340314 11586.0 1113.0 1133.0457368718207 0.4998038837889473 360.0 16.0 266.0 
182.00059236981082 11597.0 1113.0 1132.9576510446032 0.5001196812233821 361.0 15.0 267.0 
184.00059236981082 11596.0 1113.0 1133.068322981368 0.5002354112165419 363.0 13.0 269.0 
186.000084666035 11644.0 1114.0 1135.6002258610943 0.49981986327716205 363.0 14.0 269.0 
188.00059236981082 11650.0 1115.0 1130.4370412196533 0.49962880007324795 362.0 13.0 268.0 
190.00033353340314 11659.0 1115.0 1130.3918690005635 0.5017108774008242 363.0 12.0 269.0 
192.00059236981082 11657.0 1114.0 1125.2670807453428 0.5002774899203463 359.0 15.0 264.0 
194.00059236981082 11652.0 1114.0 1122.6132128740867 0.49981704825766654 361.0 12.0 266.0 
196.000084666035 11650.0 1115.0 1120.090344438165 0.49946658581192055 360.0 13.0 264.0 
198.00059236981082 11653.0 1115.0 1120.031620553366 0.501989863487857 360.0 13.0 264.0 
200.00033353340314 11656.0 1115.0 1122.6719367588985 0.4995766124958931 353.0 19.0 259.0 
202.00059236981082 11664.0 1115.0 1130.4641445510972 0.49995105192220257 353.0 20.0 261.0 
204.00059236981082 11784.0 1118.0 1130.538678712593 0.505271560762624 357.0 17.0 264.0 
206.000084666035 11680.0 1116.0 1130.4618859401505 0.5010572845682871 356.0 18.0 263.0 
208.00059236981082 11632.0 1115.0 1122.7012987013047 0.5027976872372938 360.0 11.0 267.0 
210.00033353340314 11610.0 1115.0 1114.9023150762243 0.5002743582992331 356.0 15.0 260.0 
212.00059236981082 11612.0 1115.0 1109.7097684923758 0.5036063203308819 354.0 14.0 259.0 
214.00059236981082 11599.0 1115.0 1107.0355731225309 0.5011089785455385 354.0 12.0 260.0 
216.000084666035 11602.0 1115.0 1107.1123658949716 0.5013496518722587 349.0 15.0 257.0 
218.00059236981082 11604.0 1114.0 1104.4291360813115 0.5001943990915306 352.0 12.0 259.0 
220.00033353340314 11605.0 1114.0 1104.4675324675316 0.5029991820896486 351.0 13.0 258.0 
222.00059236981082 11609.0 1115.0 1104.397515527945 0.5016943907139623 352.0 12.0 259.0 
224.00059236981082 11588.0 1114.0 1104.4923771880308 0.4997683267651462 351.0 14.0 257.0 
226.000084666035 11624.0 1118.0 1104.4178430265347 0.5072607594258015 350.0 14.0 257.0 
228.00059236981082 11603.0 1114.0 1109.6781479390233 0.5033262134541449 354.0 11.0 262.0 
230.00033353340314 11541.0 1112.0 1109.6126482213438 0.5030572004263487 355.0 11.0 262.0 
232.00059236981082 11494.0 1111.0 1109.6894409937847 0.5024931515224738 357.0 9.0 264.0 
234.00059236981082 11459.0 1111.0 1112.2326369282848 0.4993544908290668 355.0 11.0 263.0 
236.000084666035 11464.0 1111.0 1112.2823263692817 0.5012490363259393 355.0 12.0 262.0 
238.00059236981082 11462.0 1110.0 1112.2168266516164 0.49949376189618816 357.0 10.0 264.0 
240.00033353340314 11479.0 1112.0 1112.2619988706906 0.5001670341137008 356.0 11.0 263.0 
242.00059236981082 11532.0 1113.0 1112.1874647092106 0.49921345081766066 359.0 9.0 265.0 
244.00059236981082 11532.0 1113.0 1114.877470355726 0.4995593326607944 359.0 9.0 266.0 
246.000084666035 11587.0 1115.0 1117.4048560135561 0.4998891630633728 360.0 8.0 268.0 
248.00059236981082 11597.0 1115.0 1117.4906832298127 0.4989789409071629 359.0 9.0 267.0 
250.00033353340314 11606.0 1116.0 1117.4161490683186 0.499000599150508 358.0 11.0 265.0 
252.00059236981082 11652.0 1117.0 1120.0903444381643 0.5013117146899477 358.0 11.0 266.0 
254.00059236981082 11646.0 1118.0 1120.0 0.5012441902593558 356.0 11.0 266.0 
256.00008466603504 11622.0 1117.0 1120.058723884812 0.5009278201288481 361.0 9.0 268.0 
258.0005923698108 11602.0 1117.0 1119.9819311123697 0.4989076700003436 356.0 14.0 263.0 
260.00033353340314 11617.0 1118.0 1120.058723884812 0.5018109173608221 356.0 14.0 263.0 
262.0005923698108 11592.0 1117.0 1117.4025974025951 0.5015664786532222 355.0 13.0 263.0 
264.0005923698108 11519.0 1117.0 1117.4635798983677 0.5028329122504701 352.0 16.0 260.0 
266.00008466603504 11505.0 1117.0 1130.439299830601 0.5012583062249528 354.0 12.0 269.0 
268.0005923698108 11481.0 1116.0 1133.063805759462 0.5034369550532156 355.0 12.0 270.0 
270.00033353340314 11466.0 1116.0 1130.3692828910257 0.4987415451180833 356.0 10.0 271.0 
272.0005923698108 11464.0 1116.0 1130.4483342744147 0.5006074173423578 355.0 11.0 270.0 
274.0005923698108 11406.0 1116.0 1125.1902879728991 0.5014075490094434 352.0 14.0 265.0 
276.00008466603504 11418.0 1117.0 1125.2941840767894 0.4996830390349953 353.0 13.0 266.0 
278.0005923698108 11424.0 1116.0 1125.1654432524033 0.5000276133321955 352.0 14.0 265.0 
280.00033353340314 11427.0 1118.0 1125.258046301528 0.5030011041030034 355.0 11.0 268.0 
282.0005923698108 11435.0 1118.0 1125.1699604743105 0.5032810969525167 353.0 13.0 266.0 
284.0005923698108 11404.0 1116.0 1125.27159796725 0.49871835715305907 355.0 11.0 268.0 
286.00008466603504 11412.0 1118.0 1125.1722190852586 0.4991701335821165 355.0 11.0 268.0 
288.0005923698108 11409.0 1119.0 1125.2151326933977 0.4994604276572639 353.0 13.0 266.0 
290.00033353340314 11414.0 1120.0 1125.133822699038 0.5002389819066829 355.0 11.0 268.0 
292.0005923698108 11406.0 1119.0 1122.6380575945846 0.49910408755413355 354.0 11.0 267.0 
294.0005923698108 11466.0 1121.0 1125.1225296442726 0.5012713049995959 355.0 11.0 268.0 
296.00008466603504 11393.0 1120.0 1125.2309429700704 0.5013869551258827 356.0 11.0 268.0 
298.0005923698108 11378.0 1120.0 1125.1293054771281 0.5049416478300136 352.0 14.0 265.0 
300.00033353340314 11348.0 1120.0 1125.2038396386238 0.5032947194075515 354.0 13.0 266.0 
302.0005923698108 11326.0 1118.0 1125.133822699038 0.49854937948109024 352.0 14.0 265.0 
304.0005923698108 11330.0 1118.0 1122.6335403726662 0.49858737621654 356.0 11.0 267.0 
306.00008466603504 11338.0 1120.0 1119.9480519480549 0.49857303175169904 353.0 13.0 264.0 
308.0005923698108 11344.0 1121.0 1114.8390739695071 0.4998307711562773 355.0 11.0 264.0 
310.00033353340314 11343.0 1121.0 1114.7690570299292 0.5007837773363588 353.0 12.0 263.0 
312.0005923698108 11330.0 1121.0 1112.2371541501952 0.4987387944493652 356.0 10.0 264.0 
314.0005923698108 11334.0 1121.0 1114.771315640878 0.49948983120518275 358.0 8.0 267.0 
316.00008466603504 11335.0 1122.0 1114.8706945228719 0.5006405465570106 359.0 7.0 268.0 
318.0005923698108 11377.0 1123.0 1114.7193675889353 0.49972207016227327 358.0 8.0 267.0 
320.00033353340314 11382.0 1123.0 1114.8819875776344 0.5073954392577175 360.0 7.0 268.0 
322.0005923698108 11292.0 1120.0 1112.142292490122 0.4990504747791605 355.0 11.0 263.0 
324.0005923698108 11321.0 1122.0 1109.632975719935 0.5020008155364607 359.0 9.0 264.0 
326.00008466603504 11328.0 1122.0 1109.5335968379409 0.5014191061538185 356.0 11.0 262.0 
328.0005923698108 11339.0 1122.0 1104.424618859404 0.49982320660818325 359.0 7.0 264.0 
330.00033353340314 11351.0 1123.0 1101.7346132128748 0.5001235492660294 355.0 10.0 260.0 
332.0005923698108 11344.0 1122.0 1099.2569169960539 0.5002005262102339 357.0 7.0 262.0 
334.0005923698108 11340.0 1122.0 1099.1643139469288 0.4991263703688078 355.0 8.0 261.0 
336.00008466603504 11357.0 1122.0 1091.4443817052504 0.5013530631165585 351.0 9.0 257.0 
338.0005923698108 11350.0 1121.0 1091.3766233766246 0.49895336335169094 350.0 8.0 258.0 
340.00033353340314 11352.0 1121.0 1091.4285714285681 0.5021527849145665 351.0 7.0 259.0 
342.0005923698108 11354.0 1120.0 1086.1501976284628 0.4989362377544648 348.0 8.0 256.0 
344.0005923698108 11372.0 1121.0 1091.4940711462475 0.5008707197849129 355.0 7.0 259.0 
346.00008466603504 11364.0 1120.0 1094.0124223602495 0.49902650655401737 350.0 11.0 256.0 
348.0005923698108 11389.0 1121.0 1094.0621118012466 0.4988318795078003 352.0 9.0 258.0 
350.00033353340314 11409.0 1121.0 1093.9943534726187 0.4986173685710812 349.0 11.0 256.0 
352.0005923698108 11419.0 1122.0 1094.0372670807478 0.4988425824191259 354.0 7.0 260.0 
354.0005923698108 11428.0 1122.0 1093.9853190288038 0.5002453203699195 350.0 10.0 257.0 
356.00008466603504 11443.0 1123.0 1094.0553359683772 0.5001091679522611 353.0 7.0 260.0 
358.0005923698108 11425.0 1123.0 1093.9808018068834 0.5009409337962769 351.0 8.0 259.0 
360.00033353340314 11415.0 1123.0 1094.0191981931166 0.4993648499314368 351.0 9.0 258.0 
362.0005923698108 11426.0 1123.0 1093.9559570863978 0.49913450984788227 352.0 8.0 259.0 
364.0005923698108 11440.0 1123.0 1091.4376058723828 0.5012364665995008 353.0 7.0 259.0 
366.00008466603504 11440.0 1123.0 1083.5595708639135 0.4992481391696018 353.0 8.0 255.0 
368.0005923698108 11484.0 1125.0 1091.4872953133784 0.5004801440046537 356.0 7.0 259.0 
370.00033353340314 11477.0 1123.0 1093.971767363068 0.5023642637737885 351.0 11.0 256.0 
372.0005923698108 11478.0 1124.0 1094.0598531902845 0.49966927494415625 355.0 9.0 258.0 
374.0005923698108 11479.0 1123.0 1093.9966120835654 0.5006826640066293 351.0 12.0 255.0 
376.00008466603504 11472.0 1123.0 1096.6437041219674 0.499014024518663 356.0 8.0 260.0 
378.0005923698108 11470.0 1123.0 1093.9356295878072 0.49932722604693563 352.0 10.0 257.0 
380.00033353340314 11467.0 1123.0 1094.0711462450613 0.5016256825001748 356.0 7.0 260.0 
382.0005923698108 11494.0 1123.0 1093.9604743083053 0.49992582387302426 353.0 8.0 259.0 
384.0005923698108 11502.0 1123.0 1099.2727272727238 0.504306118437626 357.0 9.0 260.0 
386.00008466603504 11489.0 1123.0 1101.8001129305544 0.5017079391501875 356.0 8.0 262.0 
388.0005923698108 11437.0 1121.0 1101.8475437605907 0.5018582983933308 357.0 8.0 262.0 
390.00033353340314 11386.0 1123.0 1101.8023715415006 0.5034757027833794 355.0 10.0 260.0 
392.0005923698108 11360.0 1122.0 1101.881422924904 0.4994428626407923 352.0 14.0 256.0 
394.0005923698108 11360.0 1122.0 1101.8565782044057 0.49946730678470835 350.0 16.0 254.0 
396.00008466603504 11362.0 1123.0 1101.852060982498 0.5005537862309698 355.0 11.0 259.0 
398.0005923698108 11365.0 1122.0 1101.8317334839064 0.5021479885564016 352.0 13.0 257.0 
400.00033353340314 11365.0 1123.0 1107.0513833992131 0.504900613367697 359.0 7.0 265.0 
402.0005923698108 11383.0 1123.0 1107.0107284020316 0.5003845644135662 356.0 10.0 262.0 
404.0005923698108 11375.0 1123.0 1109.635234330882 0.5000729309897517 360.0 7.0 266.0 
406.00008466603504 11373.0 1122.0 1109.6420101637498 0.5035036589090413 359.0 8.0 265.0 
408.0005923698108 11366.0 1120.0 1109.657820440432 0.5046198826527885 357.0 9.0 264.0 
410.00033353340314 11381.0 1123.0 1109.657820440432 0.502965295482357 359.0 8.0 265.0 
412.0005923698108 11370.0 1121.0 1104.435911914179 0.49965587578470555 359.0 7.0 264.0 
414.0005923698108 11353.0 1121.0 1101.8091473743689 0.4994898215716333 359.0 8.0 262.0 
416.00008466603504 11331.0 1122.0 1104.4923771880308 0.5007191647651329 360.0 7.0 264.0 
418.0005923698108 11297.0 1122.0 1104.3636363636315 0.5023423576417368 357.0 11.0 260.0 
420.00033353340314 11227.0 1122.0 1104.4517221908493 0.5067942937151962 358.0 9.0 262.0 
422.0005923698108 11184.0 1119.0 1101.7933370976864 0.5048872235126731 357.0 11.0 259.0 
424.0005923698108 11097.0 1118.0 1101.8023715415006 0.5017731546381273 359.0 6.0 264.0 
426.00008466603504 11148.0 1122.0 1106.9452286843534 0.501161953943743 350.0 13.0 259.0 
428.0005923698108 11138.0 1121.0 1104.4449463579942 0.49932406277614005 353.0 7.0 264.0 
430.00033353340314 11142.0 1122.0 1104.2913608130968 0.49921210119788567 353.0 8.0 263.0 
432.0005923698108 11138.0 1122.0 1101.8701298701274 0.49970977654482057 349.0 12.0 258.0 
434.0005923698108 11134.0 1122.0 1099.1394692264305 0.500139259294664 352.0 9.0 260.0 
436.00008466603504 11136.0 1123.0 1109.6284584980278 0.5038914871107032 359.0 7.0 266.0 
438.0005923698108 11140.0 1122.0 1109.5177865612582 0.504832751727184 357.0 9.0 264.0 
440.00033353340314 11098.0 1121.0 1107.0626764539759 0.5005551986911959 358.0 7.0 265.0 
442.0005923698108 11101.0 1122.0 1106.9384528514984 0.5031467631983418 354.0 12.0 260.0 
444.0005923698108 11068.0 1121.0 1107.0287972896626 0.5016650884158377 357.0 9.0 263.0 
446.00008466603504 11060.0 1120.0 1106.9452286843534 0.5004453636532973 353.0 12.0 260.0 
448.0005923698108 11065.0 1120.0 1106.974590626758 0.5034314397154771 357.0 8.0 264.0 
450.00033353340314 11095.0 1121.0 1106.8977978543157 0.5103403927762018 354.0 12.0 260.0 
452.0005923698108 11073.0 1117.0 1107.0175042349 0.5028194512392608 359.0 7.0 265.0 
454.0005923698108 11072.0 1118.0 1112.1287408243984 0.4990048968226156 358.0 9.0 265.0 
456.00008466603504 11074.0 1118.0 1112.2190852625629 0.5020050476282394 358.0 9.0 265.0 
458.0005923698108 11115.0 1118.0 1112.1242236024912 0.5018050644646836 358.0 9.0 265.0 
460.00033353340314 11100.0 1117.0 1112.1964991530247 0.5005684421514354 360.0 7.0 267.0 
462.0005923698108 11108.0 1117.0 1114.7193675889353 0.49849226105814215 358.0 9.0 266.0 
464.0005923698108 11110.0 1118.0 1114.86843591191 0.5008319582866904 359.0 7.0 268.0 
466.00008466603504 11132.0 1118.0 1114.7532467532485 0.4975576282768887 356.0 12.0 263.0 
468.0005923698108 11180.0 1119.0 1117.450028232633 0.49989676852381265 359.0 9.0 267.0 
470.00033353340314 11176.0 1118.0 1117.3529079616003 0.4980659996766106 354.0 12.0 264.0 
472.0005923698108 11172.0 1118.0 1109.68266516093 0.49817850470930963 359.0 7.0 266.0 
474.0005923698108 11210.0 1119.0 1112.1806888763426 0.49891332965735047 355.0 11.0 263.0 
476.00008466603504 11207.0 1119.0 1109.6916996047466 0.5001053240170709 355.0 9.0 264.0 
478.0005923698108 11220.0 1119.0 1109.5223037831786 0.4982457219528226 353.0 12.0 261.0 
480.00033353340314 11227.0 1120.0 1109.6668548842486 0.5033997221812418 352.0 12.0 261.0 
482.0005923698108 11242.0 1119.0 1104.3704121964997 0.5012355251048277 352.0 10.0 261.0 
484.0005923698108 11224.0 1118.0 1099.2840203274995 0.4988788263031281 355.0 8.0 261.0 
486.00008466603504 11227.0 1119.0 1099.1710897797832 0.5013739365498664 350.0 13.0 256.0 
488.0005923698108 11232.0 1117.0 1099.279503105592 0.49786353686504836 351.0 11.0 258.0 
490.00033353340314 11235.0 1119.0 1096.6007905138376 0.5014138496016891 349.0 15.0 253.0 
492.0005923698108 11236.0 1120.0 1091.527950310561 0.5013258091216674 350.0 13.0 253.0 
494.0005923698108 11161.0 1119.0 1093.9988706945257 0.5001776161150308 345.0 14.0 253.0 
496.00008466603504 11163.0 1122.0 1094.0846979107828 0.4982452976972925 350.0 11.0 256.0 
498.0005923698108 11179.0 1121.0 1093.9943534726183 0.5026644636502967 349.0 13.0 254.0 
500.00033353340314 11120.0 1119.0 1094.0643704121933 0.5008583302788487 353.0 8.0 259.0 
502.0005923698108 11101.0 1119.0 1091.3246753246804 0.5028359291579317 353.0 9.0 257.0 
504.0005923698108 11057.0 1118.0 1088.8582721626228 0.5009071285200186 356.0 9.0 256.0 
506.00008466603504 11032.0 1118.0 1091.3404856013508 0.4978819628244203 355.0 8.0 258.0 
508.0005923698108 11037.0 1118.0 1091.417278373805 0.49816364310561095 357.0 7.0 259.0 
510.00033353340314 11046.0 1120.0 1091.308865047998 0.5034257943714575 356.0 8.0 258.0 
512.0005923698109 11025.0 1118.0 1088.8447204968988 0.4972425209952103 354.0 8.0 257.0 
514.0005923698109 11032.0 1119.0 1088.767927724445 0.50138879253299 350.0 13.0 252.0 
516.000084666035 10986.0 1119.0 1088.8898927159755 0.497540156824691 352.0 9.0 256.0 
518.0003157075902 10995.0 1118.0 1086.156973461318 0.49922629010614517 348.0 11.0 253.0 
520.0003335334031 10966.0 1118.0 1086.2134387351816 0.5055755208428347 351.0 9.0 255.0 
522.0005923698109 10909.0 1116.0 1083.5844155844122 0.5008287723483588 346.0 13.0 250.0 
524.0005923698109 10882.0 1115.0 1075.8667419536937 0.49706057987627783 342.0 13.0 247.0 
526.000084666035 10919.0 1117.0 1073.212874082438 0.4977639252616413 337.0 16.0 243.0 
528.0005923698109 10949.0 1119.0 1075.839638622249 0.5004375522195944 342.0 12.0 248.0 
530.0003335334031 10951.0 1119.0 1078.4325239977445 0.4987018594091275 341.0 13.0 248.0 
532.0005923698109 10948.0 1118.0 1078.4144551101017 0.4992444024237498 349.0 8.0 253.0 
534.0005923698109 10935.0 1118.0 1075.850931677024 0.4976173554683568 348.0 9.0 251.0 
536.000084666035 10933.0 1118.0 1075.8780350084692 0.4989531099313085 348.0 9.0 251.0 
538.0005923698109 10935.0 1118.0 1075.8712591756014 0.5008113280322778 344.0 13.0 247.0 
540.0003335334031 10948.0 1121.0 1075.8306041784342 0.49776108582381173 345.0 11.0 249.0 
542.0005923698109 10960.0 1122.0 1078.4302653867842 0.5000226998309916 343.0 13.0 248.0 
544.0005923698109 10962.0 1121.0 1081.0231507622811 0.49808112713084546 348.0 9.0 253.0 
546.000084666035 10998.0 1124.0 1086.2247317899446 0.5058257933664122 346.0 12.0 252.0 
548.0005923698109 10957.0 1120.0 1086.1998870694458 0.49853124521459086 349.0 9.0 255.0 
550.0003335334031 10957.0 1121.0 1081.0208921513208 0.5057885055756911 348.0 10.0 252.0 
552.0003157075902 10970.0 1120.0 1086.1682665160936 0.49963722772661856 349.0 11.0 253.0 
554.0003157075902 11009.0 1121.0 1083.577639751557 0.5050537538050273 353.0 10.0 253.0 
556.000084666035 10991.0 1121.0 1083.5234330886535 0.5017629192549167 354.0 9.0 254.0 
558.0003157075902 11026.0 1123.0 1081.0299265951492 0.5041095676593256 354.0 10.0 252.0 
560.0003157075902 11017.0 1121.0 1078.3760587238805 0.5044572031684034 354.0 9.0 252.0 
562.0005923698109 10992.0 1121.0 1075.7673630717152 0.5021386063438382 352.0 13.0 247.0 
564.0005923698109 10958.0 1121.0 1078.3692828910257 0.5028149644206468 355.0 11.0 250.0 
566.000084666035 10891.0 1119.0 1081.0231507622811 0.5060495927555803 352.0 15.0 247.0 
568.0005923698109 10831.0 1120.0 1080.930547713156 0.5008100720634328 359.0 10.0 252.0 
570.0003335334031 10834.0 1119.0 1080.9079616036188 0.5006616240688675 357.0 12.0 250.0 
572.0005923698109 10849.0 1120.0 1080.9147374364723 0.500636924101083 359.0 9.0 253.0 
574.0005923698109 10899.0 1120.0 1083.5098814229302 0.5022897282860685 357.0 11.0 252.0 
576.000084666035 10897.0 1119.0 1083.5143986448377 0.49799030467792016 356.0 12.0 251.0 
578.0005923698109 10899.0 1119.0 1083.505364201023 0.4978009089184123 360.0 9.0 254.0 
580.0003335334031 10917.0 1120.0 1078.3286278938442 0.5020848693384752 358.0 8.0 253.0 
582.0005923698109 10885.0 1120.0 1078.2924901185706 0.5001352773614944 355.0 9.0 252.0 
584.0005923698109 10905.0 1120.0 1075.735742518347 0.502090475789436 356.0 9.0 251.0 
586.000084666035 10880.0 1120.0 1078.3354037267127 0.49942708731937385 348.0 12.0 249.0 
588.0005923698109 10865.0 1118.0 1075.6883116883123 0.5017271275637658 350.0 10.0 250.0 
590.0003335334031 10831.0 1119.0 1075.7244494635859 0.5052487261406777 349.0 12.0 248.0 
592.0005923698109 10806.0 1117.0 1075.704121964995 0.5005662050374138 355.0 8.0 252.0 
594.0005923698109 10827.0 1117.0 1073.0818746470934 0.5014622682821367 354.0 11.0 248.0 
596.000084666035 10822.0 1116.0 1073.0954263128149 0.501096892353012 357.0 8.0 251.0 
598.0005923698109 10811.0 1115.0 1073.1067193675915 0.5053283615546329 356.0 9.0 250.0 
600.0003335334031 10768.0 1116.0 1075.7696216826616 0.5058642964182372 360.0 10.0 250.0 
602.0005923698109 10753.0 1116.0 1075.7063805759426 0.5029203875169828 361.0 9.0 251.0 
604.0005923698109 10728.0 1115.0 1073.0976849237757 0.5006682341436127 360.0 8.0 251.0 
606.000084666035 10702.0 1114.0 1073.1473743647587 0.49802242192135837 359.0 9.0 250.0 
608.0005923698109 10708.0 1114.0 1075.6815358554438 0.49987794422319626 363.0 7.0 253.0 
610.0003335334031 10727.0 1114.0 1078.3896103896168 0.49878768287279607 360.0 9.0 252.0 
612.0005923698109 10805.0 1116.0 1078.2970073404917 0.5006646079264939 361.0 7.0 254.0 
614.0005923698109 10799.0 1117.0 1080.9824957650999 0.502465392626028 356.0 10.0 252.0 
616.000084666035 10778.0 1117.0 1080.9057029926576 0.4975359993243838 361.0 6.0 256.0 
618.0005923698109 10811.0 1118.0 1080.903444381711 0.5018648455633209 358.0 10.0 252.0 
620.0003335334031 10801.0 1116.0 1075.6973461321263 0.5132775042218806 360.0 7.0 253.0 
622.0005923698109 10749.0 1114.0 1075.7402597402554 0.5087669406332449 355.0 8.0 252.0 
624.0005923698109 10667.0 1112.0 1070.5138339920939 0.5014840101541631 349.0 11.0 247.0 
626.000084666035 10670.0 1114.0 1073.1270468661817 0.49913667940965256 346.0 11.0 248.0 
628.0005923698109 10677.0 1114.0 1075.6950875211799 0.49989283259691386 352.0 9.0 251.0 
630.0003335334031 10696.0 1115.0 1075.6792772444974 0.49927882960425096 349.0 11.0 249.0 
632.0005923698109 10700.0 1113.0 1080.9079616036188 0.5006057848037211 352.0 10.0 252.0 
634.0005923698109 10710.0 1115.0 1083.4669678147884 0.5016078134081515 349.0 13.0 250.0 
636.000084666035 10701.0 1113.0 1083.4511575381189 0.500214299259802 353.0 12.0 251.0 
638.0005923698109 10716.0 1114.0 1083.4443817052504 0.5013065775024264 350.0 14.0 249.0 
640.0003335334031 10718.0 1115.0 1083.412761151898 0.4982638965771426 355.0 9.0 254.0 
642.0005923698109 10734.0 1116.0 1080.8424618859385 0.5000227095320168 351.0 13.0 249.0 
644.0005923698109 10724.0 1115.0 1078.267645398086 0.4990726215484263 352.0 10.0 251.0 
646.000084666035 10726.0 1116.0 1078.2608695652184 0.502096468792722 349.0 10.0 251.0 
648.0005923698109 10723.0 1115.0 1078.2224731789977 0.5042233556694595 345.0 12.0 249.0 
650.0003335334031 10707.0 1115.0 1078.2811970638093 0.5021804823208446 343.0 11.0 250.0 
652.0005923698109 10680.0 1114.0 1078.2789384528471 0.5034276282615724 344.0 9.0 252.0 
654.0005923698109 10652.0 1114.0 1080.939582156971 0.5041401108539203 341.0 11.0 251.0 
656.000084666035 10726.0 1115.0 1083.5505364200974 0.5018001841408443 344.0 10.0 253.0 
658.0005923698109 10719.0 1115.0 1083.4985883681552 0.5033744626542642 340.0 13.0 250.0 
660.0003335334031 10727.0 1114.0 1083.534726143429 0.5046188598434959 340.0 12.0 251.0 
662.0005923698109 10733.0 1113.0 1081.0592885375552 0.5019728656485357 338.0 14.0 248.0 
664.0005923698109 10728.0 1112.0 1080.912478825526 0.5036903541027977 345.0 9.0 253.0 
#####################################################################
# End of data export. Simulation finished at: 2019-03-09T15:05+0000 #
#####################################################################
