#####################################################################
# Alchemist log file - simulation started at: 2019-03-07T09:54+0000 #
#####################################################################
# seed = 7.0, bandwidth = 1000.0, accessPointCount = 19.39227447486858, baserange = 1000.0
#
# The columns have the following meaning: 
# time neighbor_count[Sum] <value>@neighbor_count[Sum] packet_size[Mean] mean_delay[Mean] crowd[Sum] overcrowded[Sum] risk[Sum] 
0.0 NaN NaN NaN NaN NaN NaN NaN 
2.0008200817491506 NaN NaN 4987.699208443271 NaN 1497.0 0.0 1497.0 
4.000820081749151 NaN NaN 4987.699208443271 NaN 1497.0 0.0 1497.0 
6.000297418119471 NaN NaN 4987.699208443271 NaN 1497.0 0.0 1497.0 
8.00082008174915 NaN NaN 4987.699208443271 NaN 1497.0 0.0 1497.0 
10.000407819687528 NaN NaN 4987.699208443271 NaN 1497.0 0.0 1497.0 
12.00082008174915 NaN NaN 4987.699208443271 NaN 1497.0 0.0 1497.0 
14.00082008174915 NaN NaN 4987.699208443271 NaN 1497.0 0.0 1497.0 
16.000297418119473 NaN NaN 4987.699208443271 NaN 1497.0 0.0 1497.0 
18.00082008174915 NaN NaN 4987.699208443271 NaN 1497.0 0.0 1497.0 
20.000407819687528 NaN NaN 4987.699208443271 NaN 1497.0 0.0 1497.0 
22.00082008174915 NaN NaN 4987.699208443271 NaN 1497.0 0.0 1497.0 
24.00082008174915 NaN NaN 4987.699208443271 NaN 1497.0 0.0 1497.0 
26.000297418119473 34.0 3.0 4987.699208443271 0.4600505130752068 1497.0 0.0 1497.0 
28.00082008174915 39.0 3.0 4987.699208443271 2.3898539650483044 1497.0 0.0 1497.0 
30.000407819687528 39.0 3.0 4987.699208443271 4.389853965048305 1497.0 0.0 1497.0 
32.000820081749154 39.0 3.0 4987.699208443271 6.389853965048305 1497.0 0.0 1497.0 
34.000820081749154 39.0 3.0 4987.699208443271 8.389853965048305 1497.0 0.0 1497.0 
36.00029741811947 43.0 3.0 4987.699208443271 9.841089847380387 1497.0 0.0 1497.0 
38.000820081749154 72.0 4.0 4987.699208443271 7.835724990749223 1497.0 0.0 1497.0 
40.000407819687524 72.0 4.0 4987.699208443271 9.835724990749222 1497.0 0.0 1497.0 
42.000820081749154 184.0 13.0 4987.720316622691 6.421008612270672 1497.0 0.0 1497.0 
44.000820081749154 184.0 13.0 4987.730870712401 8.421008612270672 1497.0 0.0 1497.0 
46.00029741811947 216.0 19.0 4987.730870712401 9.125685417434662 1497.0 0.0 1497.0 
48.000820081749154 242.0 22.0 4987.730870712401 10.803967091297501 1497.0 0.0 1497.0 
50.000407819687524 242.0 22.0 4987.730870712401 12.803967091297501 1497.0 0.0 1497.0 
52.000820081749154 242.0 22.0 4987.730870712401 14.8039670912975 1497.0 0.0 1497.0 
54.000820081749154 242.0 22.0 4987.730870712401 16.8039670912975 1497.0 0.0 1497.0 
56.00029741811947 244.0 20.0 4987.730870712401 10.109396041853024 1497.0 0.0 1497.0 
58.000820081749154 251.0 20.0 4987.730870712401 10.736953215163151 1497.0 0.0 1497.0 
60.000407819687524 251.0 20.0 4987.730870712401 12.736953215163151 1497.0 0.0 1497.0 
62.000820081749154 290.0 21.0 400.0 13.564901365182282 5.0 0.0 0.0 
64.00082008174915 290.0 21.0 400.0 15.564901365182282 5.0 0.0 0.0 
66.00029741811947 544.0 49.0 400.0 9.947981321547866 5.0 0.0 0.0 
68.00082008174915 688.0 60.0 400.0 10.69762741738263 5.0 0.0 0.0 
70.00082008174915 688.0 60.0 400.0 12.691057342907342 5.0 0.0 0.0 
72.00082008174915 716.0 65.0 400.0 7.933346238704028 0.0 0.0 0.0 
74.00082008174915 716.0 65.0 400.0 9.678079625844196 0.0 0.0 0.0 
76.00029741811947 1013.0 64.0 400.0 8.015012399726416 0.0 0.0 0.0 
78.00082008174915 1216.0 65.0 400.0 7.180802446892967 0.0 0.0 0.0 
80.00082008174915 1220.0 65.0 400.0 8.99936866220105 0.0 0.0 0.0 
82.00082008174915 2063.0 85.0 400.0 4.10086115386191 0.0 0.0 0.0 
84.00082008174915 2063.0 85.0 400.0 5.169293269092055 0.0 0.0 0.0 
86.00029741811947 2037.0 84.0 400.0 6.5058135720376375 0.0 0.0 0.0 
88.00082008174915 2151.0 86.0 400.0 7.237495896286188 0.0 0.0 0.0 
90.00082008174915 2162.0 86.0 400.0 7.858274554051676 0.0 0.0 0.0 
92.00082008174915 2553.0 112.0 400.0 6.219584351707566 0.0 0.0 0.0 
94.00082008174915 2553.0 112.0 400.0 7.971144717040935 0.0 0.0 0.0 
96.00029741811947 2551.0 112.0 400.0 8.757209631454218 0.0 0.0 0.0 
98.00082008174915 2548.0 111.0 400.0 10.26734736166786 0.0 0.0 0.0 
100.00082008174915 2548.0 111.0 400.0 11.69072467517788 0.0 0.0 0.0 
102.00082008174915 2548.0 111.0 400.0 12.543202969601406 0.0 0.0 0.0 
104.00082008174915 2552.0 111.0 400.0 10.946608588976176 0.0 0.0 0.0 
106.00029741811947 2595.0 118.0 400.0 9.027069765735726 0.0 0.0 0.0 
108.00082008174915 2628.0 120.0 400.0 9.192667808170336 0.0 0.0 0.0 
110.00082008174915 2628.0 120.0 400.0 11.16883142233395 0.0 0.0 0.0 
112.00082008174915 2625.0 120.0 400.0 10.046040878886027 0.0 0.0 0.0 
114.00082008174915 2666.0 121.0 400.0 11.268255279987615 0.0 0.0 0.0 
116.00029741811947 2668.0 121.0 400.0 12.436113652508604 0.0 0.0 0.0 
118.00082008174915 2664.0 121.0 403.04221635883897 13.417224615202455 1.0 0.0 1.0 
120.00082008174915 2664.0 121.0 403.02638522427446 14.915852735492702 1.0 0.0 1.0 
122.00082008174915 2565.0 120.0 403.02638522427446 10.865510542028353 1.0 0.0 1.0 
124.00082008174915 2565.0 120.0 403.02638522427446 11.742453955774884 1.0 0.0 1.0 
126.00029741811947 2563.0 120.0 403.02638522427446 8.273098996916833 1.0 0.0 1.0 
128.00082008174917 2563.0 120.0 403.02638522427446 9.84957726272094 1.0 0.0 1.0 
130.00082008174917 2564.0 120.0 403.02638522427446 8.42038133707629 1.0 0.0 1.0 
132.00082008174917 2564.0 120.0 403.02638522427446 8.876925022883029 1.0 0.0 1.0 
134.00082008174917 2564.0 120.0 403.02638522427446 10.74751441060725 1.0 0.0 1.0 
136.0002974181195 2595.0 121.0 406.0686015831135 6.305505792932127 2.0 0.0 2.0 
138.00082008174917 2644.0 121.0 406.05277044854887 6.602445462207461 2.0 0.0 2.0 
140.00082008174917 2644.0 121.0 406.05277044854887 7.967114959822957 2.0 0.0 2.0 
142.00082008174917 2638.0 121.0 406.05277044854887 8.410629398657056 2.0 0.0 2.0 
144.00082008174917 2637.0 121.0 406.05277044854887 9.912817510618439 2.0 0.0 2.0 
146.0002974181195 2630.0 121.0 406.05277044854887 10.519318532167715 2.0 0.0 2.0 
148.00082008174917 2630.0 121.0 406.05277044854887 6.737858622799986 2.0 0.0 2.0 
150.00082008174917 2631.0 121.0 406.05277044854887 7.9373583700631904 2.0 0.0 2.0 
152.00082008174917 2631.0 121.0 406.05277044854887 9.603539154159508 2.0 0.0 2.0 
154.00082008174917 2631.0 121.0 406.05277044854887 10.821879748935428 2.0 0.0 2.0 
156.0002974181195 2631.0 121.0 406.05277044854887 11.949545526729432 2.0 0.0 2.0 
158.00082008174917 2631.0 121.0 406.05277044854887 13.629803340365992 2.0 0.0 2.0 
160.00082008174917 2630.0 121.0 406.05277044854887 15.311867846581398 2.0 0.0 2.0 
162.00082008174917 2628.0 120.0 406.05277044854887 16.35130329508104 2.0 0.0 2.0 
164.00082008174917 2686.0 121.0 409.1108179419523 14.282032515077947 9.0 0.0 3.0 
166.0002974181195 2985.0 137.0 433.43799472295495 11.953397468707 17.0 0.0 11.0 
168.00082008174917 3187.0 150.0 454.49604221635894 8.107971578016697 24.0 0.0 18.0 
170.00082008174917 3183.0 150.0 454.490765171504 4.927236971604804 24.0 0.0 18.0 
172.00082008174917 3182.0 150.0 454.490765171504 5.0782733172132914 24.0 0.0 18.0 
174.00082008174917 3210.0 151.0 454.490765171504 5.741698995846718 24.0 0.0 18.0 
176.0002974181195 3206.0 151.0 454.49604221635894 7.514618735533296 24.0 0.0 18.0 
178.00082008174917 3204.0 151.0 454.49868073878633 8.709807024231846 24.0 0.0 18.0 
180.00082008174917 3204.0 151.0 454.688654353562 8.948131397233704 25.0 0.0 18.0 
182.00082008174917 3254.0 152.0 454.688654353562 8.851185371534402 25.0 0.0 18.0 
184.00082008174917 3305.0 152.0 454.688654353562 8.369553660266916 25.0 0.0 18.0 
186.0002974181195 3305.0 152.0 454.693931398417 9.726440228949187 25.0 0.0 18.0 
188.00082008174917 3308.0 152.0 454.693931398417 10.126729794221493 25.0 0.0 18.0 
190.00082008174917 3308.0 152.0 454.688654353562 11.525642939364143 25.0 0.0 18.0 
192.00082008174917 3309.0 152.0 454.688654353562 7.996949054030398 25.0 0.0 18.0 
194.00082008174917 3229.0 151.0 454.68337730870695 8.184217309973523 24.0 0.0 18.0 
196.0002974181195 3127.0 146.0 454.67282321899745 8.449687481486995 24.0 0.0 18.0 
198.00082008174917 2991.0 142.0 454.67282321899745 9.43611334764291 22.0 0.0 18.0 
200.00082008174917 2961.0 142.0 454.67282321899745 10.514538777444248 22.0 0.0 18.0 
202.00082008174917 2957.0 142.0 454.67282321899745 11.839747782527036 22.0 0.0 18.0 
204.00082008174917 2955.0 142.0 454.67282321899745 13.14144375778842 22.0 0.0 18.0 
206.0002974181195 3178.0 144.0 454.67282321899745 9.288817965574719 22.0 0.0 18.0 
208.00082008174917 3170.0 144.0 454.67282321899745 10.57197850689276 22.0 0.0 18.0 
210.00082008174917 3050.0 138.0 454.51187335092345 10.069816282991255 20.0 0.0 18.0 
212.00082008174917 3099.0 138.0 454.4749340369393 9.95666085922102 20.0 0.0 18.0 
214.00082008174917 3049.0 138.0 454.4749340369393 8.479224498543593 20.0 0.0 18.0 
216.0002974181195 3791.0 145.0 466.6437994722957 6.89218905671261 24.0 0.0 22.0 
218.00082008174917 3807.0 145.0 466.58047493403706 7.376636464765926 24.0 0.0 22.0 
220.00082008174917 3857.0 148.0 466.58047493403706 6.5452368191188395 22.0 0.0 22.0 
222.00082008174917 4285.0 153.0 466.58047493403706 7.416728032637217 22.0 0.0 22.0 
224.00082008174917 4285.0 153.0 466.58047493403706 8.767404759950306 22.0 0.0 22.0 
226.0002974181195 4279.0 153.0 463.5540897097627 9.7267267296621 21.0 0.0 21.0 
228.00082008174917 4329.0 154.0 463.5540897097627 9.7386213503232 21.0 0.0 21.0 
230.00082008174917 4377.0 155.0 463.5540897097627 11.540003255228662 21.0 0.0 21.0 
232.00082008174917 5001.0 162.0 478.6860158311347 9.578043644090863 26.0 0.0 26.0 
234.00082008174917 5003.0 162.0 478.6860158311347 10.733061187898247 26.0 0.0 26.0 
236.0002974181195 6306.0 192.0 481.7229551451186 5.570657288411075 28.0 0.0 27.0 
238.00082008174917 6803.0 198.0 487.8126649076519 6.431172226675906 31.0 0.0 29.0 
240.00082008174917 6790.0 198.0 487.7968337730873 8.116478688519964 31.0 0.0 29.0 
242.00082008174917 9121.0 230.0 524.358839050132 8.516765159314845 44.0 0.0 41.0 
244.00082008174917 9121.0 230.0 524.2480211081795 9.284548731586474 44.0 0.0 41.0 
246.0002974181195 8413.0 223.0 524.2480211081795 9.282379871219623 44.0 0.0 41.0 
248.00082008174917 8469.0 224.0 524.2480211081795 11.035886997460816 44.0 0.0 41.0 
250.00082008174917 8564.0 224.0 524.2480211081795 10.820782838558598 44.0 0.0 41.0 
252.00082008174917 10139.0 275.0 539.435356200528 10.049261365619108 50.0 0.0 46.0 
254.00082008174917 10140.0 275.0 539.4036939313988 11.413251413724321 50.0 0.0 46.0 
256.0002974181195 10167.0 275.0 512.1662269129284 12.733885180780662 41.0 0.0 37.0 
258.00082008174917 10160.0 274.0 512.208443271768 10.784915488604005 43.0 0.0 37.0 
260.00082008174917 10120.0 274.0 512.1978891820586 12.49067990026541 43.0 0.0 37.0 
262.00082008174917 10104.0 275.0 512.2137203166229 11.494940374341276 43.0 0.0 37.0 
264.00082008174917 10096.0 275.0 512.2137203166229 10.074984717221318 43.0 0.0 37.0 
266.0002974181195 9892.0 272.0 512.2163588390506 10.824973864349543 44.0 0.0 37.0 
268.00082008174917 9896.0 273.0 497.073878627968 11.499922907381482 39.0 0.0 32.0 
270.00082008174917 9919.0 273.0 497.073878627968 11.502720676497772 39.0 0.0 32.0 
272.00082008174917 8126.0 255.0 497.0897097625322 10.378420565984094 43.0 0.0 32.0 
274.00082008174917 8172.0 256.0 497.1002638522431 10.943425642262586 43.0 0.0 32.0 
276.0002974181195 8383.0 255.0 497.0897097625322 10.790593123129522 43.0 0.0 32.0 
278.00082008174917 8681.0 259.0 494.09498680738807 11.601290027169298 43.0 0.0 31.0 
280.00082008174917 8653.0 258.0 494.10026385224313 10.010633431974078 43.0 0.0 31.0 
282.00082008174917 8843.0 259.0 494.09234828495994 10.573179610439965 43.0 0.0 31.0 
284.00082008174917 8835.0 259.0 494.0870712401052 10.902201642971756 43.0 0.0 31.0 
286.0002974181195 8774.0 258.0 494.0870712401052 11.697619423748666 43.0 0.0 31.0 
288.00082008174917 9785.0 268.0 494.0606860158318 12.18660484855924 40.0 0.0 31.0 
290.00082008174917 9783.0 268.0 494.04485488126676 11.778520403430885 40.0 0.0 31.0 
292.00082008174917 9320.0 264.0 494.023746701847 10.681760060284818 40.0 0.0 31.0 
294.00082008174917 9341.0 264.0 494.023746701847 10.142184754518786 40.0 0.0 31.0 
296.0002974181195 9151.0 261.0 484.9419525065959 10.281617271673705 36.0 0.0 28.0 
298.00082008174917 9068.0 262.0 484.91292875989456 10.293785403700882 36.0 0.0 28.0 
300.00082008174917 9047.0 262.0 481.87598944591065 10.02100062092945 35.0 0.0 27.0 
302.00082008174917 8945.0 260.0 481.92084432717627 9.343940705807572 30.0 0.0 27.0 
304.00082008174917 8873.0 257.0 481.83113456464406 10.51644364729704 30.0 0.0 27.0 
306.0002974181195 8636.0 257.0 481.82849604221593 11.73323847768049 29.0 0.0 27.0 
308.00082008174917 8560.0 255.0 481.7598944591029 11.915079564030698 28.0 0.0 27.0 
310.00082008174917 8541.0 255.0 481.7598944591029 12.979765672142792 28.0 0.0 27.0 
312.00082008174917 8069.0 250.0 475.70712401055454 13.949124463296593 25.0 0.0 25.0 
314.00082008174917 8115.0 250.0 475.65963060685993 14.239978613605722 25.0 0.0 25.0 
316.0002974181195 8076.0 249.0 475.65963060685993 12.76872767616535 25.0 0.0 25.0 
318.00082008174917 6963.0 238.0 475.65963060685993 12.111482162927995 25.0 0.0 25.0 
320.00082008174917 7017.0 239.0 469.6068601583117 9.922614176415726 23.0 0.0 23.0 
322.00082008174917 7024.0 238.0 466.5804749340363 9.380937685041806 22.0 0.0 22.0 
324.00082008174917 7044.0 238.0 466.5804749340363 8.032112219261576 22.0 0.0 22.0 
326.0002974181195 7126.0 239.0 463.55408970976254 9.006802650213627 22.0 0.0 21.0 
328.00082008174917 7500.0 250.0 490.82321899736115 9.326937145599187 34.0 0.0 30.0 
330.00082008174917 7459.0 249.0 481.7124010554083 9.778273130110437 31.0 0.0 27.0 
332.00082008174917 7476.0 249.0 469.6068601583115 10.785212633152662 27.0 0.0 23.0 
334.00082008174917 8608.0 260.0 469.6068601583115 10.588761366411278 27.0 0.0 23.0 
336.0002974181195 10546.0 304.0 521.3245382585759 8.48615819597112 44.0 0.0 40.0 
338.00082008174917 10625.0 302.0 533.1978891820589 9.487346682600878 48.0 0.0 44.0 
340.00082008174917 11189.0 327.0 551.5593667546168 9.582002554854974 54.0 0.0 50.0 
342.00082008174917 19011.0 467.0 769.9498680738795 6.642537333556634 129.0 0.0 122.0 
344.00082008174917 19072.0 468.0 769.69129287599 8.008570604450352 129.0 0.0 122.0 
346.0002974181195 19074.0 468.0 772.77308707124 8.568356924389757 132.0 0.0 123.0 
348.00082008174917 19074.0 468.0 772.736147757256 8.852047537167754 132.0 0.0 123.0 
350.00082008174917 19010.0 467.0 757.6042216358835 10.376053472594167 127.0 0.0 118.0 
352.00082008174917 18921.0 467.0 754.5857519788916 11.483696701166565 130.0 0.0 117.0 
354.00082008174917 19135.0 469.0 754.6147757255927 12.166606475186523 131.0 0.0 117.0 
356.0002974181195 19102.0 469.0 751.5831134564639 12.589300881289667 130.0 0.0 116.0 
358.00082008174917 18749.0 461.0 751.5831134564639 13.420473104708693 130.0 0.0 116.0 
360.00082008174917 18791.0 461.0 748.5567282321912 14.84316777521707 129.0 0.0 115.0 
362.00082008174917 18754.0 461.0 748.6569920844322 14.050052428240937 141.0 0.0 115.0 
364.00082008174917 17656.0 450.0 748.6833773087073 11.506785973474447 147.0 0.0 115.0 
366.0002974181195 17078.0 440.0 745.6517150395769 11.93716576027489 147.0 0.0 114.0 
368.00082008174917 17036.0 439.0 745.6781002638522 11.334489887336323 148.0 0.0 114.0 
370.00082008174917 16847.0 429.0 745.936675461741 10.453403072243145 152.0 0.0 114.0 
372.00082008174917 13425.0 369.0 745.7730870712398 9.074772953610223 152.0 0.0 114.0 
374.00082008174917 13624.0 372.0 745.6543535620049 9.173809901153996 152.0 0.0 114.0 
376.0002974181195 13541.0 370.0 745.6437994722961 10.001214460765292 152.0 0.0 114.0 
378.00082008174917 13552.0 370.0 745.6332453825848 10.064393668611578 152.0 0.0 114.0 
380.00082008174917 14672.0 381.0 745.6332453825848 9.9175269608435 152.0 0.0 114.0 
382.00082008174917 14645.0 379.0 745.6253298153038 11.094208273798005 150.0 0.0 114.0 
384.00082008174917 14397.0 377.0 745.6068601583119 10.964614359767767 150.0 0.0 114.0 
386.0002974181195 14410.0 377.0 748.6464379947232 11.253508746833878 150.0 0.0 115.0 
388.00082008174917 14167.0 372.0 748.633245382585 10.264342691127796 148.0 0.0 115.0 
390.00082008174917 14228.0 373.0 748.6279683377312 10.494103382824585 145.0 0.0 115.0 
392.00082008174917 13904.0 367.0 751.6622691292879 11.01140605204076 136.0 0.0 116.0 
394.00082008174917 13774.0 366.0 751.4960422163595 10.946468866309537 133.0 0.0 116.0 
396.0002974181195 13715.0 365.0 751.4749340369395 11.618775646264792 133.0 0.0 116.0 
398.00082008174917 13462.0 358.0 751.4327176781002 9.932556576384282 131.0 0.0 116.0 
400.00082008174917 13321.0 358.0 751.1503957783642 9.706714174706129 127.0 0.0 116.0 
402.00082008174917 13304.0 358.0 751.0606860158318 10.417760552944397 127.0 0.0 116.0 
404.00082008174917 13057.0 355.0 751.1767810026392 10.574634577199067 129.0 0.0 116.0 
406.0002974181195 13098.0 355.0 754.2216358839041 11.81924586232798 134.0 0.0 117.0 
408.00082008174917 13087.0 355.0 754.189973614776 11.93467070514208 134.0 0.0 117.0 
410.00082008174917 12006.0 346.0 754.189973614776 10.739459575421735 132.0 0.0 117.0 
412.00082008174917 12058.0 347.0 754.189973614776 11.160635745390907 132.0 0.0 117.0 
414.00082008174917 12060.0 346.0 754.189973614776 9.267439203260137 131.0 0.0 117.0 
416.0002974181195 12094.0 346.0 739.063324538259 10.202184707810764 126.0 0.0 112.0 
418.00082008174917 12095.0 346.0 733.0052770448555 11.091889635173393 124.0 0.0 110.0 
420.00082008174917 12295.0 349.0 733.0052770448555 9.645020230096906 124.0 0.0 110.0 
422.00082008174917 12291.0 349.0 733.0052770448555 9.934360326055694 124.0 0.0 110.0 
424.00082008174917 12312.0 349.0 733.0052770448555 11.01689597283214 123.0 0.0 110.0 
426.0002974181195 13430.0 360.0 693.6675461741431 8.315578544900479 109.0 0.0 97.0 
428.00082008174917 13426.0 360.0 672.4775725593674 8.614885931373088 102.0 0.0 90.0 
430.00082008174917 13207.0 358.0 542.3034300791558 8.943647702062131 67.0 0.0 47.0 
432.00082008174917 13230.0 358.0 451.4643799472296 8.835205851504664 44.0 0.0 17.0 
434.00082008174917 13110.0 355.0 454.5039577836411 9.944964080240988 28.0 0.0 18.0 
436.0002974181195 13115.0 355.0 454.4960422163589 10.459840924770814 27.0 0.0 18.0 
438.00082008174917 13110.0 355.0 454.4749340369393 11.37055418245064 27.0 0.0 18.0 
440.00082008174917 13066.0 354.0 454.4749340369393 10.659784166144052 27.0 0.0 18.0 
442.00082008174917 13014.0 353.0 454.4749340369393 9.827604602404463 26.0 0.0 18.0 
444.00082008174917 12931.0 353.0 454.4749340369393 9.79360932696164 26.0 0.0 18.0 
446.0002974181195 13158.0 355.0 451.44854881266497 11.014023790562588 25.0 0.0 17.0 
448.00082008174917 13141.0 355.0 454.5039577836411 12.490173862118668 26.0 0.0 18.0 
450.00082008174917 12881.0 352.0 451.45118733509236 12.568158964762304 25.0 0.0 17.0 
452.00082008174917 12929.0 352.0 439.3456464379947 12.111222496478552 19.0 0.0 13.0 
454.00082008174917 12949.0 353.0 439.3456464379947 10.192806745458338 19.0 0.0 13.0 
456.0002974181195 11824.0 342.0 439.3456464379947 9.205216201974878 19.0 0.0 13.0 
458.00082008174917 11870.0 343.0 433.29287598944603 10.239817761165758 17.0 0.0 11.0 
460.00082008174917 11876.0 342.0 433.29287598944603 9.3801902441368 17.0 0.0 11.0 
462.00082008174917 11930.0 343.0 433.29287598944603 10.11068083696538 17.0 0.0 11.0 
464.00082008174917 11942.0 343.0 433.29287598944603 9.108335408407244 16.0 0.0 11.0 
466.0002974181195 12145.0 346.0 433.29287598944603 8.70898173514271 16.0 0.0 11.0 
468.00082008174917 12145.0 346.0 433.29287598944603 9.61186290800955 15.0 0.0 11.0 
470.00082008174917 12164.0 346.0 433.29287598944603 10.866668114959054 15.0 0.0 11.0 
472.00082008174917 13266.0 357.0 430.2664907651718 10.596928406891273 14.0 0.0 10.0 
474.00082008174917 13269.0 357.0 430.2664907651718 10.707207792592904 14.0 0.0 10.0 
476.0002974181195 13042.0 355.0 430.2664907651718 10.432300960864024 14.0 0.0 10.0 
478.00082008174917 13053.0 355.0 430.269129287599 9.528173506268175 14.0 0.0 10.0 
480.00082008174917 12937.0 353.0 430.26385224274395 10.262848537171655 14.0 0.0 10.0 
482.00082008174917 13147.0 361.0 457.61213720316596 8.75626044769611 23.0 0.0 19.0 
484.00082008174917 13142.0 361.0 457.51715039577823 9.816932180088358 23.0 0.0 19.0 
486.0002974181195 13134.0 361.0 457.51715039577823 9.578489106455837 23.0 0.0 19.0 
488.00082008174917 13202.0 365.0 475.7704485488126 10.898339903509171 33.0 0.0 25.0 
490.00082008174917 13141.0 365.0 478.70184696569913 11.262127810945982 34.0 0.0 26.0 
492.00082008174917 13639.0 373.0 478.70184696569913 9.820435302806159 39.0 0.0 26.0 
494.00082008174917 13679.0 375.0 475.730870712401 9.84251015090055 43.0 0.0 25.0 
496.0002974181195 13673.0 380.0 469.6675461741425 10.386117424075385 41.0 0.0 23.0 
498.00082008174917 13877.0 380.0 469.6675461741425 10.328673989957771 40.0 0.0 23.0 
500.00082008174917 14064.0 387.0 478.8812664907651 11.121701620355054 43.0 0.0 26.0 
502.00082008174917 14192.0 405.0 530.4564643799474 10.583757939630056 60.0 0.0 43.0 
504.00082008174917 14277.0 407.0 533.4036939313979 11.511260159590949 61.0 0.0 44.0 
506.0002974181195 14761.0 417.0 566.8891820580482 11.80033478138218 77.0 0.0 55.0 
508.00082008174917 14937.0 420.0 569.833773087072 10.572912665953377 78.0 0.0 56.0 
510.00082008174917 15269.0 422.0 581.9920844327163 9.098775683707808 88.0 0.0 60.0 
512.0008200817492 16268.0 445.0 624.5540897097615 8.859042948811569 100.0 0.0 74.0 
514.0008200817492 16305.0 447.0 621.5197889182064 10.033385824763895 99.0 0.0 73.0 
516.0002974181195 16375.0 448.0 621.5065963060703 9.597163593379005 99.0 0.0 73.0 
518.0008200817492 17416.0 455.0 621.5329815303445 9.536904934471435 98.0 0.0 73.0 
520.0008200817492 17492.0 457.0 627.6226912928788 8.937076083673393 101.0 0.0 75.0 
522.0008200817492 17258.0 455.0 633.7467018469666 8.782299054298887 101.0 0.0 77.0 
524.0008200817492 17246.0 453.0 633.6807387862801 9.656635963149384 99.0 0.0 77.0 
526.0002974181195 17162.0 451.0 636.6912928759908 10.897800617461572 98.0 0.0 78.0 
528.0008200817492 17203.0 452.0 639.7387862796812 11.640178795660477 98.0 0.0 79.0 
530.0008200817492 17119.0 448.0 639.7071240105532 11.110368896824765 95.0 0.0 79.0 
532.0008200817492 16815.0 441.0 651.82321899736 11.686839315659077 100.0 0.0 83.0 
534.0008200817492 16773.0 440.0 651.7625329815295 12.751075610110027 100.0 0.0 83.0 
536.0002974181195 16468.0 435.0 648.7440633245377 13.156053358148979 99.0 0.0 82.0 
538.0008200817492 16685.0 437.0 648.7124010554074 11.716242512106405 99.0 0.0 82.0 
540.0008200817492 16405.0 433.0 648.7387862796818 11.963780701343268 99.0 0.0 82.0 
542.0008200817492 15543.0 413.0 648.6174142480226 10.786562614260525 99.0 0.0 82.0 
544.0008200817492 15530.0 411.0 648.5514511873365 11.079148336810656 98.0 0.0 82.0 
546.0002974181195 15394.0 408.0 648.5382585751983 10.58312944988579 97.0 0.0 82.0 
548.0008200817492 14240.0 397.0 648.5329815303445 9.880980793005225 97.0 0.0 82.0 
550.0008200817492 14052.0 393.0 651.5646437994718 10.5742905461749 98.0 0.0 83.0 
552.0008200817492 13964.0 388.0 654.4538258575201 9.709442797912638 99.0 0.0 84.0 
554.0008200817492 14001.0 389.0 654.3773087071213 10.602022153507054 99.0 0.0 84.0 
556.0002974181195 13983.0 388.0 654.3667546174162 11.006351913964284 99.0 0.0 84.0 
558.0008200817492 14167.0 390.0 657.4010554089698 9.888179448562209 100.0 0.0 85.0 
560.0008200817492 14019.0 387.0 657.3878627968318 11.36751646971303 99.0 0.0 85.0 
562.0008200817492 13940.0 384.0 657.3799472295523 11.838533733307479 98.0 0.0 85.0 
564.0008200817492 15016.0 394.0 657.3799472295523 11.046598623889171 98.0 0.0 85.0 
566.0002974181195 14966.0 393.0 660.4168865435362 9.055318674629111 96.0 0.0 86.0 
568.0008200817492 14742.0 391.0 660.3852242744083 8.65168460218538 95.0 0.0 86.0 
570.0008200817492 14755.0 390.0 657.3377308707119 8.888392129780721 93.0 0.0 85.0 
572.0008200817492 14631.0 388.0 630.0949868073856 8.3734578447897 81.0 0.0 76.0 
574.0008200817492 14703.0 389.0 630.0844327176801 8.107236976175079 81.0 0.0 76.0 
576.0002974181195 14701.0 389.0 633.0949868073856 9.15847939625822 82.0 0.0 77.0 
578.0008200817492 14704.0 389.0 617.973614775727 10.463758888882952 77.0 0.0 72.0 
580.0008200817492 14652.0 388.0 617.9445910290242 10.981839197154954 76.0 0.0 72.0 
582.0008200817492 14720.0 390.0 620.981530343008 11.354484365886412 77.0 0.0 73.0 
584.0008200817492 15003.0 393.0 624.0131926121359 10.814390599374216 82.0 0.0 74.0 
586.0002974181195 15712.0 406.0 624.010554089711 11.603997780152863 82.0 0.0 74.0 
588.0008200817492 15872.0 404.0 614.9445910290242 11.303983737154592 77.0 0.0 71.0 
590.0008200817492 15879.0 403.0 596.7810026385212 12.269504895294874 71.0 0.0 65.0 
592.0008200817492 15839.0 403.0 590.686015831136 12.869759787542147 69.0 0.0 63.0 
594.0008200817492 14696.0 391.0 593.7124010554076 9.066413630870967 70.0 0.0 64.0 
596.0002974181195 16065.0 411.0 599.8918205804739 7.710761590374891 71.0 0.0 66.0 
598.0008200817492 16596.0 414.0 608.8284960422158 7.188799898294773 74.0 0.0 69.0 
600.0008200817492 16660.0 415.0 554.3535620052768 8.156443037702788 56.0 0.0 51.0 
602.0008200817492 17276.0 423.0 554.5039577836408 8.24346981369423 60.0 0.0 51.0 
604.0008200817492 17443.0 426.0 551.4353562005281 9.122920096695555 59.0 0.0 50.0 
606.0002974181195 18412.0 439.0 581.8364116094984 8.943082462828798 69.0 0.0 60.0 
608.0008200817492 18652.0 442.0 587.7598944591026 10.299065325722733 70.0 0.0 62.0 
610.0008200817492 19842.0 454.0 557.5118733509237 11.021149754960309 60.0 0.0 52.0 
612.0008200817492 20793.0 468.0 572.6860158311347 10.581158269306776 66.0 0.0 57.0 
614.0008200817492 20550.0 466.0 575.7203166226913 11.412835663151826 68.0 0.0 58.0 
616.0002974181195 20558.0 467.0 593.9656992084432 12.051213838721445 77.0 0.0 64.0 
618.0008200817492 20940.0 480.0 624.3403693931401 10.607419403233683 91.0 0.0 74.0 
620.0008200817492 21173.0 483.0 639.4538258575201 10.370283070473063 96.0 0.0 79.0 
622.0008200817492 21560.0 493.0 648.7018469656994 9.157334025092801 101.0 0.0 82.0 
624.0008200817492 21687.0 498.0 663.8970976253302 9.154608192228894 106.0 0.0 87.0 
626.0002974181195 20876.0 487.0 673.0501319261214 9.405140720237307 111.0 0.0 90.0 
628.0008200817492 20513.0 489.0 676.0923482849598 9.652547538271646 114.0 0.0 91.0 
630.0008200817492 20768.0 491.0 679.1503957783639 10.046021789080427 118.0 0.0 92.0 
632.0008200817492 21128.0 498.0 679.1081794195255 10.498455103589613 118.0 0.0 92.0 
634.0008200817492 21080.0 498.0 679.1398416886539 11.271959983009861 121.0 0.0 92.0 
636.0002974181195 20752.0 496.0 685.2427440633245 11.714910642814305 124.0 0.0 94.0 
638.0008200817492 20633.0 496.0 685.2401055408976 12.81323642164491 131.0 0.0 94.0 
640.0008200817492 19862.0 490.0 685.2005277044863 11.278609044574683 132.0 0.0 94.0 
642.0008200817492 20791.0 501.0 685.2216358839044 10.661759373627431 136.0 0.0 94.0 
644.0008200817492 20816.0 500.0 688.2717678100258 11.283346198483969 137.0 0.0 95.0 
646.0002974181195 20840.0 497.0 688.2612137203164 11.398813728438107 138.0 0.0 95.0 
648.0008200817492 20399.0 488.0 685.1873350923479 11.038223771029559 142.0 0.0 94.0 
650.0008200817492 20968.0 499.0 709.4195250659636 8.427025907929048 149.0 0.0 102.0 
652.0008200817492 21812.0 502.0 730.6306068601583 8.705695061566114 154.0 0.0 109.0 
654.0008200817492 21691.0 499.0 730.6094986807386 9.037881961538002 153.0 0.0 109.0 
656.0002974181195 22762.0 507.0 730.6147757255937 9.68804724612578 154.0 0.0 109.0 
658.0008200817492 23444.0 518.0 767.1029023746709 10.49853070986367 168.0 0.0 121.0 
660.0008200817492 23125.0 516.0 767.0791556728241 11.053865082919364 166.0 0.0 121.0 
662.0008200817492 22843.0 518.0 770.0211081794204 9.88635869836263 167.0 0.0 122.0 
664.0008200817492 22682.0 515.0 776.0448548812666 10.638973921562755 168.0 0.0 124.0 
#####################################################################
# End of data export. Simulation finished at: 2019-03-07T09:57+0000 #
#####################################################################
