#####################################################################
# Alchemist log file - simulation started at: 2019-03-07T19:41+0000 #
#####################################################################
# seed = 7.0, bandwidth = 17782.79410038923, accessPointCount = 19.39227447486858, baserange = 177.82794100389228
#
# The columns have the following meaning: 
# time neighbor_count[Sum] <value>@neighbor_count[Sum] packet_size[Mean] mean_delay[Mean] crowd[Sum] overcrowded[Sum] risk[Sum] 
0.0 NaN NaN NaN NaN NaN NaN NaN 
2.000345121390214 23.0 10.0 4987.707124010554 0.45578662358358174 1497.0 0.0 1497.0 
4.000345121390214 60.0 19.0 4987.77308707124 0.715569703148577 1497.0 0.0 1497.0 
6.000297418119471 68.0 19.0 4987.7915567282325 0.723044421341556 1497.0 0.0 1497.0 
8.000345121390215 301.0 31.0 4987.8891820580475 0.56703096372148 1497.0 0.0 1497.0 
10.000345121390215 1070.0 74.0 4988.248021108179 1.0956049274761273 1497.0 0.0 1497.0 
12.000345121390215 1125.0 74.0 4988.343007915567 2.3759829541081805 1497.0 0.0 1497.0 
14.000345121390215 1125.0 74.0 4988.3641160949865 3.659868310038764 1497.0 0.0 1497.0 
16.000297418119473 1170.0 74.0 4988.385224274406 3.6739093600364625 1497.0 0.0 1497.0 
18.000345121390215 1210.0 74.0 4988.3562005277045 1.6017899830322153 1496.0 1.0 1496.0 
20.000345121390215 1210.0 74.0 4988.248021108179 2.306855117531005 1496.0 1.0 1496.0 
22.000345121390215 1210.0 74.0 4988.218997361478 3.555501031924162 1496.0 1.0 1496.0 
24.000345121390215 1210.0 74.0 4988.253298153034 3.736958475964037 1496.0 1.0 1496.0 
26.000297418119473 1210.0 74.0 4988.240105540897 1.5929480161222416 1496.0 1.0 1496.0 
28.000345121390215 1210.0 74.0 4988.182058047493 2.3171011792069205 1496.0 1.0 1496.0 
30.000345121390215 1210.0 74.0 4988.21635883905 3.5481096489299864 1496.0 1.0 1496.0 
32.00034512139021 1210.0 74.0 4988.218997361478 3.722018424631313 1496.0 1.0 1496.0 
34.00034512139021 1210.0 74.0 4988.187335092348 1.5611536526900325 1496.0 1.0 1496.0 
36.00029741811947 1210.0 74.0 4988.23746701847 2.323230331479381 1496.0 1.0 1496.0 
38.00034512139021 1210.0 74.0 4988.234828496043 3.5056141611375464 1496.0 1.0 1496.0 
40.00034512139021 1210.0 74.0 4988.197889182058 3.7462208410462354 1496.0 1.0 1496.0 
42.00034512139021 1210.0 74.0 4988.23746701847 1.5776123892076768 1496.0 1.0 1496.0 
44.00034512139021 1210.0 74.0 4988.218997361478 2.290215441399064 1496.0 1.0 1496.0 
46.00029741811947 1210.0 74.0 4988.187335092348 3.521089657190643 1496.0 1.0 1496.0 
48.00034512139021 1212.0 74.0 4988.221635883905 3.749151333521469 1496.0 1.0 1496.0 
50.00034512139021 1212.0 74.0 4988.213720316623 1.6022342652614059 1496.0 1.0 1496.0 
52.00034512139021 1212.0 74.0 4988.176781002639 2.250374895302736 1496.0 1.0 1496.0 
54.00034512139021 1212.0 74.0 4988.211081794195 3.5361507707812088 1496.0 1.0 1496.0 
56.00029741811947 1212.0 74.0 4988.2084432717675 3.7639673965240377 1496.0 1.0 1496.0 
58.00034512139021 1212.0 74.0 4988.176781002639 1.5810167133641888 1496.0 1.0 1496.0 
60.00034512139021 1215.0 75.0 4988.21635883905 2.2932247779500297 1496.0 1.0 1496.0 
62.000820081749154 1220.0 75.0 500.2348284960421 3.53499912831256 61.0 1.0 32.0 
64.00060112242052 1220.0 75.0 500.2189973614776 3.735419133334608 60.0 1.0 32.0 
66.00029741811947 1220.0 75.0 500.21635883905 1.376670910313035 60.0 0.0 33.0 
68.00082008174915 1220.0 75.0 500.174142480211 1.6337957514945491 60.0 0.0 33.0 
70.00082008174915 1220.0 75.0 500.15831134564644 2.379682521357737 59.0 0.0 33.0 
72.00082008174915 1226.0 75.0 500.1899736147757 2.3748892085292717 59.0 1.0 32.0 
74.00082008174915 1261.0 76.0 500.1899736147757 1.0779123211488877 60.0 1.0 32.0 
76.00029741811947 1261.0 76.0 500.174142480211 1.6392272491961846 60.0 1.0 32.0 
78.00082008174915 1259.0 76.0 500.174142480211 2.2456868977016735 60.0 1.0 32.0 
80.00082008174915 1259.0 76.0 500.179419525066 2.61481701314855 50.0 11.0 22.0 
82.00082008174915 1263.0 76.0 500.15831134564644 0.9766492969960708 46.0 14.0 19.0 
84.00082008174915 1266.0 76.0 500.14248021108193 1.5911681345170339 46.0 14.0 19.0 
86.00029741811947 1266.0 76.0 500.137203166227 2.375847675938946 45.0 14.0 19.0 
88.00082008174915 1266.0 76.0 500.1451187335091 2.8184824353462044 45.0 13.0 20.0 
90.00082008174915 1268.0 76.0 500.15831134564644 1.2311633611598143 49.0 9.0 24.0 
92.00082008174915 1268.0 76.0 500.14248021108193 1.8462711776847658 49.0 9.0 24.0 
94.00082008174915 1268.0 76.0 500.1477572559367 2.6315849685781365 49.0 9.0 24.0 
96.00029741811947 1294.0 77.0 500.160949868074 2.9877191462451855 50.0 9.0 24.0 
98.00082008174915 1310.0 77.0 500.160949868074 1.4461876810458123 50.0 10.0 23.0 
100.00082008174915 1310.0 77.0 500.155672823219 2.0556491060729836 50.0 10.0 23.0 
102.00082008174915 1307.0 77.0 500.155672823219 2.8322500344334283 50.0 10.0 23.0 
104.00082008174915 1296.0 76.0 500.160949868074 2.763769488863286 49.0 11.0 22.0 
106.00029741811947 1296.0 76.0 503.17678100263856 0.8774284608027244 49.0 11.0 23.0 
108.00082008174915 1296.0 76.0 503.150395778364 1.4535984880632769 49.0 11.0 23.0 
110.00082008174915 1296.0 76.0 503.150395778364 2.2007397730083134 49.0 11.0 23.0 
112.00082008174915 1296.0 76.0 503.150395778364 2.7579506704082943 53.0 7.0 27.0 
114.00082008174915 1298.0 76.0 503.155672823219 0.8774665901713097 55.0 6.0 28.0 
116.00029741811947 1299.0 76.0 503.16358839050133 1.4390714134486398 55.0 5.0 29.0 
118.00082008174915 1302.0 77.0 503.15831134564644 2.1955983645742836 54.0 5.0 29.0 
120.00082008174915 1302.0 77.0 503.15831134564644 2.7760574800290367 53.0 5.0 29.0 
122.00082008174915 1302.0 77.0 503.15831134564644 0.9503708674618778 53.0 5.0 29.0 
124.00082008174915 1302.0 77.0 503.16358839050133 1.5462838558071794 53.0 5.0 29.0 
126.00029741811947 1303.0 77.0 503.16358839050133 2.3095462829751825 53.0 5.0 29.0 
128.00082008174917 1303.0 77.0 503.15831134564644 2.886121055230702 53.0 5.0 29.0 
130.00082008174917 1304.0 77.0 503.15831134564644 1.057378461104967 53.0 5.0 29.0 
132.00082008174917 1304.0 77.0 503.15831134564644 1.6529316293603145 53.0 5.0 29.0 
134.00082008174917 1304.0 77.0 503.16358839050133 2.4174908684302086 53.0 5.0 29.0 
136.0002974181195 1305.0 77.0 503.16358839050133 2.9609119604977883 53.0 5.0 29.0 
138.00082008174917 1306.0 78.0 503.15831134564644 1.1556006697525565 53.0 5.0 29.0 
140.00082008174917 1304.0 77.0 503.15831134564644 1.448809129619506 53.0 5.0 29.0 
142.00082008174917 1304.0 77.0 503.15831134564644 2.1865484453177526 53.0 5.0 29.0 
144.00082008174917 1304.0 77.0 503.16358839050133 2.7366779598929543 53.0 5.0 29.0 
146.0002974181195 1304.0 77.0 503.16358839050133 0.880075884735807 53.0 5.0 29.0 
148.00082008174917 1304.0 77.0 503.15831134564644 1.448809129619506 53.0 5.0 29.0 
150.00082008174917 1304.0 77.0 503.15831134564644 2.1865484453177526 53.0 5.0 29.0 
152.00082008174917 1304.0 77.0 503.15831134564644 2.7366325250387087 53.0 5.0 29.0 
154.00082008174917 1304.0 77.0 503.15831134564644 0.8801132633513142 53.0 5.0 29.0 
156.0002974181195 1306.0 78.0 503.15831134564644 1.4270186394430442 53.0 5.0 29.0 
158.00082008174917 1306.0 78.0 503.15303430079155 2.148179543552566 53.0 5.0 29.0 
160.00082008174917 1306.0 78.0 503.15303430079155 2.685991010972363 53.0 5.0 29.0 
162.00082008174917 1306.0 78.0 503.15303430079155 0.8710501746814417 53.0 5.0 29.0 
164.00082008174917 1306.0 78.0 503.15831134564644 1.4270028972082038 52.0 5.0 29.0 
166.0002974181195 1306.0 78.0 503.15831134564644 2.1481638013177253 52.0 5.0 29.0 
168.00082008174917 1306.0 78.0 503.15303430079155 2.6859308548912377 52.0 5.0 29.0 
170.00082008174917 1306.0 78.0 503.15303430079155 0.8713681537651531 52.0 5.0 29.0 
172.00082008174917 1306.0 78.0 503.15303430079155 1.4273208762919152 52.0 5.0 29.0 
174.00082008174917 1306.0 78.0 503.15831134564644 2.1507399870548847 52.0 5.0 29.0 
176.0002974181195 1306.0 78.0 503.15831134564644 2.6907652472818446 52.0 5.0 29.0 
178.00082008174917 1306.0 78.0 503.15303430079155 0.8865453140283791 52.0 5.0 29.0 
180.00082008174917 1306.0 78.0 503.15303430079155 1.444756243208589 52.0 5.0 29.0 
182.00082008174917 1306.0 78.0 503.15303430079155 2.1681753539715585 52.0 5.0 29.0 
184.00082008174917 1306.0 78.0 503.15831134564644 2.7091369437865334 52.0 5.0 29.0 
186.0002974181195 1306.0 78.0 503.15303430079155 0.9547053186262123 52.0 5.0 29.0 
188.00082008174917 1306.0 78.0 503.15303430079155 1.5587963976191563 52.0 5.0 29.0 
190.00082008174917 1306.0 78.0 503.15303430079155 2.32809565819486 52.0 5.0 29.0 
192.00082008174917 1305.0 78.0 503.15303430079155 2.905711636430876 52.0 5.0 29.0 
194.00082008174917 1303.0 78.0 503.15303430079155 1.1261896100425028 52.0 5.0 29.0 
196.0002974181195 1302.0 78.0 503.16358839050133 1.718801832322291 52.0 5.0 29.0 
198.00082008174917 1302.0 78.0 503.15831134564644 2.4874580539245286 52.0 5.0 29.0 
200.00082008174917 1301.0 78.0 503.15831134564644 3.0638400568692834 52.0 5.0 29.0 
202.00082008174917 1301.0 78.0 503.15831134564644 1.2945489839574247 52.0 5.0 29.0 
204.00082008174917 1300.0 78.0 503.15831134564644 1.8864948745557173 52.0 5.0 29.0 
206.0002974181195 1299.0 78.0 503.16358839050133 2.428112765611053 52.0 5.0 29.0 
208.00082008174917 1297.0 77.0 503.15831134564644 2.7392620023370875 52.0 5.0 29.0 
210.00082008174917 1298.0 77.0 503.15831134564644 0.881247352277692 52.0 5.0 29.0 
212.00082008174917 1298.0 77.0 503.15831134564644 1.4502207874009314 52.0 5.0 29.0 
214.00082008174917 1299.0 77.0 503.15831134564644 2.18750797451894 52.0 5.0 29.0 
216.0002974181195 1299.0 77.0 503.16358839050133 2.7380333806367974 52.0 5.0 29.0 
218.00082008174917 1300.0 77.0 503.15831134564644 0.8810944043468422 52.0 5.0 29.0 
220.00082008174917 1300.0 77.0 503.15831134564644 1.449700057992855 52.0 5.0 29.0 
222.00082008174917 1300.0 77.0 503.15831134564644 2.188133817256447 52.0 5.0 29.0 
224.00082008174917 1305.0 78.0 506.18469656992096 2.725793258296604 53.0 5.0 30.0 
226.0002974181195 1306.0 78.0 506.1899736147757 0.913409305328806 53.0 5.0 30.0 
228.00082008174917 1306.0 78.0 506.18469656992096 1.4972318812886145 53.0 5.0 30.0 
230.00082008174917 1306.0 78.0 506.1899736147757 2.2276432719597974 53.0 5.0 30.0 
232.00082008174917 1306.0 78.0 506.2005277044856 2.7268975949286283 55.0 5.0 30.0 
234.00082008174917 1308.0 78.0 506.1952506596306 0.9159779487362683 55.0 5.0 30.0 
236.0002974181195 1308.0 78.0 506.2005277044856 1.4998005246960766 55.0 5.0 30.0 
238.00082008174917 1308.0 78.0 506.1952506596306 2.2303156035061513 55.0 5.0 30.0 
240.00082008174917 1308.0 78.0 506.2005277044856 2.729845212251645 55.0 5.0 30.0 
242.00082008174917 1308.0 78.0 506.1952506596306 0.9160917965486821 55.0 5.0 30.0 
244.00082008174917 1308.0 78.0 506.1952506596306 1.5188537664478845 55.0 5.0 30.0 
246.0002974181195 1308.0 78.0 506.2005277044856 2.2682112058253314 55.0 5.0 30.0 
248.00082008174917 1308.0 78.0 506.2005277044856 2.7864258427556283 55.0 5.0 30.0 
250.00082008174917 1308.0 78.0 506.1952506596306 0.9918493723062579 55.0 5.0 30.0 
252.00082008174917 1308.0 78.0 506.1952506596306 1.5946113422054602 55.0 5.0 30.0 
254.00082008174917 1308.0 78.0 506.2005277044856 2.3784857068292635 55.0 5.0 30.0 
256.0002974181195 1309.0 78.0 506.2005277044856 2.9294662411358474 55.0 5.0 30.0 
258.00082008174917 1310.0 78.0 506.1952506596306 1.1700635011037155 55.0 5.0 30.0 
260.00082008174917 1310.0 78.0 506.1952506596306 1.8078836792185315 55.0 5.0 30.0 
262.00082008174917 1310.0 78.0 506.1952506596306 2.5915806778715993 55.0 5.0 30.0 
264.00082008174917 1309.0 78.0 506.1952506596306 3.1071777021864473 55.0 5.0 30.0 
266.0002974181195 1308.0 78.0 506.2005277044856 1.2074778117718463 55.0 5.0 30.0 
268.00082008174917 1308.0 78.0 506.1952506596306 1.8393013111692098 55.0 5.0 30.0 
270.00082008174917 1308.0 78.0 506.1952506596306 2.630968585769486 55.0 5.0 30.0 
272.00082008174917 1308.0 78.0 506.1952506596306 3.1904705202274894 55.0 5.0 30.0 
274.00082008174917 1305.0 78.0 506.1952506596306 1.1083190490222568 55.0 5.0 30.0 
276.0002974181195 1304.0 77.0 506.2005277044856 1.6352048858696056 55.0 5.0 30.0 
278.00082008174917 1304.0 77.0 506.1952506596306 2.372207979653129 55.0 5.0 30.0 
280.00082008174917 1304.0 77.0 506.1952506596306 2.7329002135678566 55.0 5.0 30.0 
282.00082008174917 1304.0 77.0 506.1952506596306 1.2057709504064098 55.0 5.0 30.0 
284.00082008174917 1304.0 77.0 506.1952506596306 1.8158043983790615 55.0 5.0 30.0 
286.0002974181195 1304.0 77.0 506.1952506596306 2.5512766004135243 55.0 5.0 30.0 
288.00082008174917 1300.0 77.0 506.1899736147757 2.8839046420450667 55.0 5.0 30.0 
290.00082008174917 1290.0 76.0 506.1899736147757 1.2312289121002262 55.0 5.0 30.0 
292.00082008174917 1288.0 76.0 506.1899736147757 1.5760520038752779 55.0 5.0 30.0 
294.00082008174917 1288.0 76.0 506.1899736147757 2.2942378474661185 55.0 5.0 30.0 
296.0002974181195 1288.0 76.0 506.1952506596306 2.618408050435756 56.0 5.0 30.0 
298.00082008174917 1288.0 76.0 506.1899736147757 1.0370871540576336 56.0 5.0 30.0 
300.00082008174917 1288.0 76.0 506.1899736147757 1.6752848166113865 56.0 5.0 30.0 
302.00082008174917 1288.0 76.0 503.18469656992096 2.4399822881092037 56.0 5.0 29.0 
304.00082008174917 1288.0 76.0 503.15303430079155 2.787267968298252 56.0 5.0 29.0 
306.0002974181195 1290.0 76.0 503.15303430079155 1.181043375105845 56.0 5.0 29.0 
308.00082008174917 1290.0 76.0 503.15303430079155 1.7986682257394655 56.0 5.0 29.0 
310.00082008174917 1290.0 76.0 503.15303430079155 2.5855236934372403 56.0 5.0 29.0 
312.00082008174917 1290.0 76.0 503.15303430079155 2.97469805294545 56.0 5.0 29.0 
314.00082008174917 1290.0 76.0 503.15303430079155 1.3673772033910576 56.0 5.0 29.0 
316.0002974181195 1292.0 77.0 503.15831134564644 1.950740787955763 56.0 5.0 29.0 
318.00082008174917 1289.0 77.0 503.15303430079155 2.359258681153237 55.0 5.0 29.0 
320.00082008174917 1288.0 76.0 503.15303430079155 2.573138921085318 54.0 5.0 29.0 
322.00082008174917 1294.0 76.0 503.15303430079155 0.9302795786570937 55.0 5.0 29.0 
324.00082008174917 1298.0 77.0 506.192612137203 1.488613242284 55.0 5.0 30.0 
326.0002974181195 1298.0 77.0 506.192612137203 2.2098410515306246 55.0 5.0 30.0 
328.00082008174917 1298.0 77.0 506.18733509234835 2.544645881698224 55.0 5.0 30.0 
330.00082008174917 1298.0 77.0 506.18733509234835 0.9282123249961325 55.0 5.0 30.0 
332.00082008174917 1298.0 77.0 509.232189973615 1.4924063078123222 55.0 5.0 31.0 
334.00082008174917 1298.0 77.0 509.22163588390504 2.2160352606309086 55.0 5.0 31.0 
336.0002974181195 1298.0 77.0 509.2374670184698 2.549577224793947 55.0 5.0 31.0 
338.00082008174917 1298.0 77.0 509.22691292876004 0.9331283315102596 55.0 5.0 31.0 
340.00082008174917 1300.0 78.0 506.19525065963074 1.4757296680991356 55.0 5.0 30.0 
342.00082008174917 1302.0 78.0 506.2058047493403 2.1890535057891105 55.0 5.0 30.0 
344.00082008174917 1302.0 78.0 509.240105540897 2.5200166188272934 55.0 5.0 31.0 
346.0002974181195 1302.0 78.0 509.250659630607 0.9203346902904677 55.0 5.0 31.0 
348.00082008174917 1302.0 78.0 509.2427440633247 1.4566795999417403 55.0 5.0 31.0 
350.00082008174917 1304.0 78.0 509.22691292876 2.1609579380873902 55.0 5.0 31.0 
352.00082008174917 1304.0 78.0 509.23482849604204 2.4712135859444695 54.0 5.0 31.0 
354.00082008174917 1304.0 78.0 509.21372031662276 0.8946099999113629 55.0 5.0 31.0 
356.0002974181195 1313.0 78.0 509.2242744063323 1.4432244047296625 55.0 5.0 31.0 
358.00082008174917 1331.0 79.0 506.1820580474933 2.110029792467748 55.0 5.0 30.0 
360.00082008174917 1331.0 79.0 506.1820580474933 2.4191338565692493 55.0 5.0 30.0 
362.00082008174917 1348.0 79.0 506.1820580474933 0.8869406386341393 55.0 5.0 30.0 
364.00082008174917 1348.0 79.0 506.18733509234823 1.4358401640967706 55.0 5.0 30.0 
366.0002974181195 1348.0 79.0 506.192612137203 2.1510479515782466 56.0 5.0 30.0 
368.00082008174917 1348.0 79.0 506.18733509234823 2.6837952742098024 56.0 5.0 30.0 
370.00082008174917 1348.0 79.0 506.18733509234823 0.9632887134225544 56.0 5.0 30.0 
372.00082008174917 1348.0 79.0 506.18733509234823 1.5856064260253533 56.0 5.0 30.0 
374.00082008174917 1348.0 79.0 506.18733509234823 2.3549621950451027 56.0 5.0 30.0 
376.0002974181195 1349.0 79.0 506.192612137203 2.9413584931060743 56.0 5.0 30.0 
378.00082008174917 1350.0 79.0 506.18733509234823 1.3277278651632078 56.0 5.0 30.0 
380.00082008174917 1350.0 79.0 506.18733509234823 1.970022704412258 56.0 5.0 30.0 
382.00082008174917 1350.0 79.0 506.18733509234823 2.7339712345664613 56.0 5.0 30.0 
384.00082008174917 1350.0 79.0 506.18733509234823 3.3254549925590986 56.0 5.0 30.0 
386.0002974181195 1350.0 79.0 509.2374670184698 1.507165609279942 56.0 5.0 31.0 
388.00082008174917 1352.0 78.0 509.22163588390504 1.9296707122471717 56.0 5.0 31.0 
390.00082008174917 1352.0 78.0 509.22163588390504 2.7379310679250275 56.0 5.0 31.0 
392.00082008174917 1351.0 78.0 509.2189973614777 3.3313323902788192 56.0 5.0 31.0 
394.00082008174917 1343.0 77.0 509.21372031662276 1.1637866201294087 56.0 5.0 31.0 
396.0002974181195 1343.0 77.0 509.2242744063323 1.8283232843994388 56.0 5.0 31.0 
398.00082008174917 1342.0 77.0 509.2084432717679 2.6090469651283184 56.0 5.0 31.0 
400.00082008174917 1342.0 77.0 509.2084432717679 3.2176266226282695 56.0 5.0 31.0 
402.00082008174917 1342.0 77.0 512.2506596306071 1.4792610638731842 56.0 5.0 32.0 
404.00082008174917 1342.0 77.0 509.20052770448564 2.164790914070894 56.0 5.0 31.0 
406.0002974181195 1337.0 76.0 509.211081794195 2.8207100784385295 56.0 5.0 31.0 
408.00082008174917 1338.0 76.0 509.20052770448564 3.191631627568258 56.0 5.0 31.0 
410.00082008174917 1340.0 76.0 512.2453825857519 1.3411226838790375 56.0 5.0 32.0 
412.00082008174917 1338.0 76.0 509.2137203166227 1.5065692166633653 55.0 5.0 31.0 
414.00082008174917 1338.0 76.0 509.2137203166227 2.263971194197142 55.0 5.0 31.0 
416.0002974181195 1337.0 76.0 509.2295514511873 2.8292722766105056 55.0 5.0 31.0 
418.00082008174917 1341.0 77.0 518.3535620052769 0.9087021591633814 56.0 5.0 34.0 
420.00082008174917 1341.0 77.0 518.3324538258577 1.5942177639178678 56.0 5.0 34.0 
422.00082008174917 1341.0 77.0 518.3324538258577 2.4061657655114996 56.0 5.0 34.0 
424.00082008174917 1339.0 77.0 515.298153034301 3.0164117703324824 56.0 5.0 33.0 
426.0002974181195 1339.0 77.0 515.3245382585751 0.9091699497595277 56.0 5.0 33.0 
428.00082008174917 1338.0 77.0 515.3034300791556 1.5866664822091696 56.0 5.0 33.0 
430.00082008174917 1338.0 77.0 515.3034300791556 2.399956780797272 56.0 5.0 33.0 
432.00082008174917 1336.0 77.0 515.3034300791556 3.0135671178200862 56.0 5.0 33.0 
434.00082008174917 1334.0 77.0 515.3192612137203 0.9195586418369688 56.0 5.0 33.0 
436.0002974181195 1334.0 77.0 515.306068601583 1.6069891628604884 56.0 5.0 33.0 
438.00082008174917 1336.0 77.0 515.300791556728 2.419231865824919 56.0 5.0 33.0 
440.00082008174917 1336.0 77.0 515.300791556728 3.051143425215396 56.0 5.0 33.0 
442.00082008174917 1336.0 77.0 515.311345646438 1.0264374408713028 56.0 5.0 33.0 
444.00082008174917 1336.0 77.0 515.2955145118734 1.7150641341436264 56.0 5.0 33.0 
446.0002974181195 1336.0 77.0 515.300791556728 2.529739809715192 56.0 5.0 33.0 
448.00082008174917 1323.0 77.0 515.2955145118734 3.0554978079917126 56.0 5.0 33.0 
450.00082008174917 1323.0 77.0 515.300791556728 1.0108774085959105 56.0 5.0 33.0 
452.00082008174917 1323.0 77.0 515.2955145118734 1.6996690280576188 56.0 5.0 33.0 
454.00082008174917 1322.0 77.0 515.2955145118734 2.5088810759620914 56.0 5.0 33.0 
456.0002974181195 1308.0 77.0 515.300791556728 3.0221442718286564 56.0 5.0 33.0 
458.00082008174917 1307.0 77.0 515.2955145118734 1.0468396574333927 56.0 5.0 33.0 
460.00082008174917 1307.0 77.0 515.2955145118734 1.779778980341242 56.0 5.0 33.0 
462.00082008174917 1307.0 77.0 515.2955145118734 2.6397027449228587 56.0 5.0 33.0 
464.00082008174917 1304.0 77.0 515.2955145118734 3.1385429510805465 56.0 5.0 33.0 
466.0002974181195 1306.0 77.0 518.3509234828497 1.4357853532310958 56.0 5.0 34.0 
468.00082008174917 1306.0 77.0 518.32981530343 2.2106073235627224 56.0 5.0 34.0 
470.00082008174917 1306.0 77.0 518.32981530343 3.111043763075547 56.0 5.0 34.0 
472.00082008174917 1284.0 76.0 518.335092348285 3.5297498806445353 56.0 5.0 34.0 
474.00082008174917 1281.0 76.0 521.3746701846967 1.4213349878179211 56.0 5.0 35.0 
476.0002974181195 1282.0 76.0 521.3746701846967 2.3256718818750497 56.0 5.0 35.0 
478.00082008174917 1281.0 76.0 521.364116094987 3.2215107672305465 56.0 5.0 35.0 
480.00082008174917 1276.0 75.0 518.3377308707123 3.265390059076037 55.0 5.0 34.0 
482.00082008174917 1283.0 75.0 518.348284960422 1.2125453002020385 55.0 5.0 34.0 
484.00082008174917 1283.0 75.0 518.3377308707123 2.084488478704302 55.0 5.0 34.0 
486.0002974181195 1283.0 75.0 518.348284960422 2.9598769629774524 54.0 5.0 34.0 
488.00082008174917 1254.0 74.0 515.311345646438 3.0533235464851534 54.0 5.0 33.0 
490.00082008174917 1256.0 74.0 515.321899736148 0.8607067658271357 54.0 5.0 33.0 
492.00082008174917 1256.0 74.0 512.2717678100263 1.6931116105477073 54.0 5.0 32.0 
494.00082008174917 1256.0 74.0 509.24538258575205 2.5315136339978253 54.0 5.0 31.0 
496.0002974181195 1258.0 74.0 509.255936675462 2.9964611087155197 53.0 5.0 31.0 
498.00082008174917 1262.0 74.0 509.25857519788906 0.850572999742973 53.0 5.0 31.0 
500.00082008174917 1262.0 74.0 509.2374670184697 1.6346680732118186 53.0 5.0 31.0 
502.00082008174917 1262.0 74.0 509.2374670184697 2.4270557157082324 53.0 5.0 31.0 
504.00082008174917 1262.0 74.0 509.2374670184697 2.8500315934987634 53.0 5.0 31.0 
506.0002974181195 1264.0 74.0 509.2532981530343 0.8461281809834026 53.0 5.0 31.0 
508.00082008174917 1264.0 74.0 506.2058047493403 1.635950511255061 53.0 5.0 30.0 
510.00082008174917 1264.0 74.0 506.2058047493403 2.4293927510289817 53.0 5.0 30.0 
512.0008200817492 1265.0 74.0 506.2058047493403 2.8210267587000306 53.0 5.0 30.0 
514.0008200817492 1266.0 75.0 509.2664907651718 0.8388675000986346 53.0 5.0 31.0 
516.0002974181195 1266.0 75.0 509.240105540897 1.6135080581120782 53.0 5.0 31.0 
518.0008200817492 1266.0 75.0 509.2348284960419 2.394198789575434 53.0 5.0 31.0 
520.0008200817492 1266.0 75.0 509.2348284960419 2.8139699808089067 52.0 5.0 31.0 
522.0008200817492 1266.0 75.0 509.24538258575205 0.8394826175864786 52.0 5.0 31.0 
524.0008200817492 1266.0 75.0 509.2348284960419 1.616636655857969 52.0 5.0 31.0 
526.0002974181195 1266.0 75.0 509.240105540897 2.397327387321325 52.0 5.0 31.0 
528.0008200817492 1266.0 75.0 509.2348284960419 2.817188008985402 51.0 5.0 31.0 
530.0008200817492 1266.0 75.0 509.24538258575205 0.8405047569984171 50.0 5.0 31.0 
532.0008200817492 1266.0 75.0 509.2348284960419 1.6176587952699075 50.0 5.0 31.0 
534.0008200817492 1266.0 75.0 509.2348284960419 2.3983495267332633 50.0 5.0 31.0 
536.0002974181195 1266.0 75.0 509.2348284960419 2.8181207179667345 50.0 5.0 31.0 
538.0008200817492 1266.0 75.0 509.2295514511872 0.8405047569984171 49.0 5.0 31.0 
540.0008200817492 1266.0 75.0 509.2295514511872 1.6176587952699075 49.0 5.0 31.0 
542.0008200817492 1266.0 75.0 509.2295514511872 2.4098437796068266 48.0 5.0 31.0 
544.0008200817492 1266.0 75.0 509.2295514511872 2.8756710708557276 48.0 5.0 31.0 
546.0002974181195 1266.0 75.0 509.24538258575205 0.9504397542022499 48.0 5.0 31.0 
548.0008200817492 1266.0 75.0 509.2295514511872 1.7745703042178682 48.0 5.0 31.0 
550.0008200817492 1266.0 75.0 509.2295514511872 2.6022375474253523 48.0 5.0 31.0 
552.0008200817492 1266.0 75.0 509.2295514511872 3.0689061618817735 48.0 5.0 31.0 
554.0008200817492 1266.0 75.0 509.240105540897 1.1430756937522624 48.0 5.0 31.0 
556.0002974181195 1266.0 75.0 509.2348284960419 1.9616881694716952 48.0 5.0 31.0 
558.0008200817492 1266.0 75.0 509.2295514511872 2.7893137668354346 48.0 5.0 31.0 
560.0008200817492 1265.0 75.0 509.2295514511872 3.2442621499305546 48.0 5.0 31.0 
562.0008200817492 1267.0 75.0 509.2348284960419 1.3050365595684965 48.0 5.0 31.0 
564.0008200817492 1274.0 75.0 509.2348284960419 1.6426845020788516 49.0 5.0 31.0 
566.0002974181195 1274.0 75.0 509.2480211081793 2.427860011246044 49.0 5.0 31.0 
568.0008200817492 1274.0 75.0 509.22691292876004 2.8553680372571386 49.0 5.0 31.0 
570.0008200817492 1274.0 75.0 509.2374670184698 0.8697721706407516 48.0 6.0 30.0 
572.0008200817492 1274.0 75.0 509.2374670184698 1.6613523743782426 47.0 6.0 30.0 
574.0008200817492 1274.0 75.0 509.2374670184698 2.5010103070843543 47.0 6.0 30.0 
576.0002974181195 1275.0 75.0 509.2427440633248 3.0293278156383643 48.0 5.0 31.0 
578.0008200817492 1278.0 75.0 506.20844327176803 1.1663451224924821 48.0 5.0 30.0 
580.0008200817492 1278.0 75.0 506.18469656992096 1.9848788969061824 48.0 5.0 30.0 
582.0008200817492 1278.0 75.0 506.179419525066 2.8090226607955535 48.0 5.0 30.0 
584.0008200817492 1276.0 75.0 506.179419525066 2.9943449881665796 49.0 4.0 31.0 
586.0002974181195 1280.0 75.0 506.18997361477585 1.5590247261614054 54.0 1.0 34.0 
588.0008200817492 1278.0 75.0 506.179419525066 2.374127309287699 54.0 1.0 34.0 
590.0008200817492 1278.0 75.0 506.179419525066 3.1985085337279786 54.0 1.0 34.0 
592.0008200817492 1242.0 74.0 506.174142480211 3.117612518632944 55.0 1.0 34.0 
594.0008200817492 1233.0 73.0 506.174142480211 1.1590544390183812 56.0 1.0 34.0 
596.0002974181195 1232.0 73.0 506.179419525066 1.8842272149473869 55.0 1.0 34.0 
598.0008200817492 1226.0 73.0 506.174142480211 2.412413912603891 55.0 1.0 34.0 
600.0008200817492 1226.0 73.0 506.174142480211 2.49723601006932 54.0 2.0 33.0 
602.0008200817492 1226.0 73.0 506.174142480211 0.8867051119991698 51.0 5.0 30.0 
604.0008200817492 1226.0 73.0 506.174142480211 1.6478414748760093 51.0 5.0 30.0 
606.0002974181195 1227.0 73.0 506.179419525066 2.4119448033553654 51.0 5.0 30.0 
608.0008200817492 1227.0 73.0 506.179419525066 2.497070055643618 50.0 5.0 30.0 
610.0008200817492 1228.0 73.0 506.179419525066 0.8977068735283485 49.0 5.0 30.0 
612.0008200817492 1228.0 73.0 506.179419525066 1.6597934938771846 49.0 5.0 30.0 
614.0008200817492 1228.0 73.0 506.179419525066 2.425543117889024 49.0 5.0 30.0 
616.0002974181195 1228.0 73.0 506.179419525066 2.5131714226803292 49.0 5.0 30.0 
618.0008200817492 1228.0 73.0 506.179419525066 0.9344446038184993 48.0 5.0 30.0 
620.0008200817492 1228.0 73.0 506.179419525066 1.6993547894909005 48.0 5.0 30.0 
622.0008200817492 1228.0 73.0 506.179419525066 2.4679279788263053 48.0 5.0 30.0 
624.0008200817492 1227.0 73.0 503.1530343007918 2.5349210725153895 47.0 5.0 29.0 
626.0002974181195 1227.0 73.0 503.1530343007918 0.9725162414231268 47.0 5.0 29.0 
628.0008200817492 1226.0 73.0 503.1530343007918 1.730518413861944 47.0 5.0 29.0 
630.0008200817492 1226.0 73.0 503.1530343007918 2.5013659954717413 47.0 5.0 29.0 
632.0008200817492 1224.0 73.0 503.1530343007918 2.561221881839979 47.0 5.0 29.0 
634.0008200817492 1223.0 73.0 512.2664907651717 0.9775268928382383 48.0 5.0 32.0 
636.0002974181195 1224.0 74.0 512.2401055408969 1.7600990752674703 48.0 5.0 32.0 
638.0008200817492 1222.0 74.0 512.2401055408969 2.555482760723245 48.0 5.0 32.0 
640.0008200817492 1219.0 74.0 512.2401055408969 2.671892443676691 48.0 5.0 32.0 
642.0008200817492 1218.0 74.0 512.2744063324541 0.9537841440177437 48.0 5.0 32.0 
644.0008200817492 1232.0 75.0 512.2744063324541 1.7423677460858125 48.0 5.0 32.0 
646.0002974181195 1243.0 75.0 512.2744063324541 2.5123188894962007 48.0 5.0 32.0 
648.0008200817492 1239.0 75.0 512.2744063324541 2.6361285976616324 48.0 5.0 32.0 
650.0008200817492 1254.0 75.0 512.2664907651717 0.9469532724112548 49.0 5.0 32.0 
652.0008200817492 1254.0 75.0 506.19525065963074 1.7486105943681483 49.0 5.0 30.0 
654.0008200817492 1254.0 75.0 506.19525065963074 2.5538046095169076 49.0 5.0 30.0 
656.0002974181195 1249.0 75.0 506.19525065963074 2.9893821154560243 49.0 5.0 30.0 
658.0008200817492 1247.0 75.0 506.208443271768 0.8580999469913402 48.0 5.0 30.0 
660.0008200817492 1246.0 75.0 506.1820580474933 1.6082135532908781 48.0 5.0 30.0 
662.0008200817492 1246.0 75.0 506.1820580474933 2.3717393890539857 48.0 5.0 30.0 
664.0008200817492 1246.0 75.0 506.1820580474933 2.825757341396166 47.0 5.0 30.0 
#####################################################################
# End of data export. Simulation finished at: 2019-03-07T19:43+0000 #
#####################################################################
