#####################################################################
# Alchemist log file - simulation started at: 2019-03-09T07:49+0000 #
#####################################################################
# seed = 3.0, bandwidth = 316227.76601683797, accessPointCount = 10.0, baserange = 316.2277660168379
#
# The columns have the following meaning: 
# time neighbor_count[Sum] <value>@neighbor_count[Sum] packet_size[Mean] mean_delay[Mean] crowd[Sum] overcrowded[Sum] risk[Sum] 
0.0 NaN NaN NaN NaN NaN NaN NaN 
2.0004081062052084 46.0 24.0 4987.872594558726 0.4747401858929252 1497.0 0.0 1497.0 
4.000408106205208 62.0 24.0 4987.877903118779 0.531151032843949 1497.0 0.0 1497.0 
6.000084666035003 70.0 24.0 4987.888520238886 0.5016652837758618 1497.0 0.0 1497.0 
8.000408106205208 85.0 24.0 4987.86197743862 0.5138103346092194 1497.0 0.0 1497.0 
10.00033353340315 90.0 24.0 4987.885865958859 0.5103625816362211 1497.0 0.0 1497.0 
12.000408106205208 90.0 24.0 4987.86197743862 0.5103369671871736 1497.0 0.0 1497.0 
14.000408106205208 90.0 24.0 4987.885865958859 0.510362581636221 1497.0 0.0 1497.0 
16.000084666035004 90.0 24.0 4987.86197743862 0.5103369671871736 1497.0 0.0 1497.0 
18.00040810620521 90.0 24.0 4987.885865958859 0.5103625816362208 1497.0 0.0 1497.0 
20.00033353340315 90.0 24.0 4987.86197743862 0.5103369671871735 1497.0 0.0 1497.0 
22.00040810620521 90.0 24.0 4987.885865958859 0.5103625816362208 1497.0 0.0 1497.0 
24.00040810620521 90.0 24.0 4987.86197743862 0.5103369671871735 1497.0 0.0 1497.0 
26.000084666035004 90.0 24.0 4987.885865958859 0.5103625816362208 1497.0 0.0 1497.0 
28.00040810620521 90.0 24.0 4987.86197743862 0.5103369671871735 1497.0 0.0 1497.0 
30.00033353340315 90.0 24.0 4987.885865958859 0.5103625816362208 1497.0 0.0 1497.0 
32.00040810620521 90.0 24.0 4987.86197743862 0.5103369671871735 1497.0 0.0 1497.0 
34.00040810620521 90.0 24.0 4987.885865958859 0.5103625816362222 1497.0 0.0 1497.0 
36.00008466603501 90.0 24.0 4987.86197743862 0.5103369671871748 1497.0 0.0 1497.0 
38.00040810620521 90.0 24.0 4987.885865958859 0.5103625816362222 1497.0 0.0 1497.0 
40.00033353340315 90.0 24.0 4987.86197743862 0.5103369671871748 1497.0 0.0 1497.0 
42.00040810620521 90.0 24.0 4987.885865958859 0.5103625816362222 1497.0 0.0 1497.0 
44.00040810620521 90.0 24.0 4987.86197743862 0.5103369671871748 1497.0 0.0 1497.0 
46.00008466603501 90.0 24.0 4987.885865958859 0.5103625816362222 1497.0 0.0 1497.0 
48.00040810620521 90.0 24.0 4987.86197743862 0.5103369671871748 1497.0 0.0 1497.0 
50.00033353340315 90.0 24.0 4987.885865958859 0.5103625816362222 1497.0 0.0 1497.0 
52.00040810620521 90.0 24.0 4987.86197743862 0.5103369671871748 1497.0 0.0 1497.0 
54.00040810620521 90.0 24.0 4987.885865958859 0.5103625816362222 1497.0 0.0 1497.0 
56.00008466603501 90.0 24.0 4987.86197743862 0.5103369671871748 1497.0 0.0 1497.0 
58.00040810620521 90.0 24.0 4987.885865958859 0.5103625816362222 1497.0 0.0 1497.0 
60.00033353340315 90.0 24.0 4987.86197743862 0.5103369671871748 1497.0 0.0 1497.0 
62.00027805237796 90.0 24.0 400.0 0.48544981381418956 5.0 0.0 0.0 
64.00027805237795 90.0 24.0 400.0 0.49232239185303334 0.0 0.0 0.0 
66.00008466603501 90.0 24.0 400.0 0.49232239185303034 0.0 0.0 0.0 
68.00027805237796 90.0 24.0 400.0 0.49232239185303034 0.0 0.0 0.0 
70.00027805237796 90.0 24.0 400.0 0.49232239185303034 0.0 0.0 0.0 
72.00027805237796 90.0 24.0 400.0 0.49232239185303034 0.0 0.0 0.0 
74.00027805237796 90.0 24.0 400.0 0.49232239185303034 0.0 0.0 0.0 
76.00008466603501 90.0 24.0 400.0 0.49232239185303034 0.0 0.0 0.0 
78.00027805237796 90.0 24.0 400.0 0.49232239185303034 0.0 0.0 0.0 
80.00027805237796 90.0 24.0 400.0 0.49232239185303034 0.0 0.0 0.0 
82.00027805237796 90.0 24.0 400.0 0.49232239185303034 0.0 0.0 0.0 
84.00027805237796 90.0 24.0 400.0 0.49232239185303034 0.0 0.0 0.0 
86.00008466603501 90.0 24.0 400.0 0.49232239185303034 0.0 0.0 0.0 
88.00027805237796 90.0 24.0 400.0 0.49232239185303034 0.0 0.0 0.0 
90.00027805237796 90.0 24.0 400.0 0.49232239185303034 0.0 0.0 0.0 
92.00027805237796 90.0 24.0 400.0 0.49232239185303034 0.0 0.0 0.0 
94.00027805237796 90.0 24.0 400.0 0.49232239185303034 0.0 0.0 0.0 
96.00008466603501 90.0 24.0 400.0 0.49232239185303034 0.0 0.0 0.0 
98.00027805237796 90.0 24.0 400.0 0.49232239185303034 0.0 0.0 0.0 
100.00027805237796 90.0 24.0 400.0 0.49232239185303034 0.0 0.0 0.0 
102.00027805237796 90.0 24.0 400.0 0.49232239185303034 0.0 0.0 0.0 
104.00027805237796 90.0 24.0 400.0 0.49232239185303034 0.0 0.0 0.0 
106.00008466603501 90.0 24.0 400.0 0.49232239185303034 0.0 0.0 0.0 
108.00027805237796 90.0 24.0 400.0 0.49232239185303034 0.0 0.0 0.0 
110.00027805237796 90.0 24.0 400.0 0.49232239185303034 0.0 0.0 0.0 
112.00027805237796 90.0 24.0 400.0 0.49232239185303034 0.0 0.0 0.0 
114.00027805237796 90.0 24.0 400.0 0.49232239185303034 0.0 0.0 0.0 
116.00008466603501 90.0 24.0 400.0 0.49232239185303034 0.0 0.0 0.0 
118.00027805237796 90.0 24.0 400.0 0.49232239185303034 0.0 0.0 0.0 
120.00027805237796 90.0 24.0 400.0 0.49232239185303034 0.0 0.0 0.0 
122.00027805237796 96.0 25.0 400.0 0.49381633311193174 0.0 0.0 0.0 
124.00027805237796 96.0 25.0 400.0 0.49381633311193174 0.0 0.0 0.0 
126.00008466603501 96.0 25.0 400.0 0.49381633311193174 0.0 0.0 0.0 
128.00027805237795 96.0 25.0 400.0 0.49381633311193174 0.0 0.0 0.0 
130.00027805237795 96.0 25.0 400.0 0.4938163331119287 0.0 0.0 0.0 
132.00027805237795 98.0 25.0 400.0 0.4920823499648435 0.0 0.0 0.0 
134.00027805237795 98.0 25.0 400.0 0.4920823499648435 0.0 0.0 0.0 
136.000084666035 98.0 25.0 400.0 0.4920823499648435 0.0 0.0 0.0 
138.00027805237795 98.0 25.0 400.0 0.4920823499648435 0.0 0.0 0.0 
140.00027805237795 98.0 25.0 400.0 0.4920823499648435 0.0 0.0 0.0 
142.00027805237795 98.0 25.0 400.0 0.5173348752173688 0.0 0.0 0.0 
144.00027805237795 96.0 25.0 400.0 0.49342039127389514 0.0 0.0 0.0 
146.000084666035 96.0 25.0 400.0 0.49342039127389514 0.0 0.0 0.0 
148.00027805237795 96.0 25.0 400.0 0.49342039127389514 0.0 0.0 0.0 
150.00027805237795 96.0 25.0 400.0 0.49342039127389514 0.0 0.0 0.0 
152.00027805237795 96.0 25.0 400.0 0.5743498524366102 0.0 0.0 0.0 
154.00027805237795 90.0 24.0 400.0 0.4923223918530313 0.0 0.0 0.0 
156.000084666035 90.0 24.0 400.0 0.4923223918530313 0.0 0.0 0.0 
158.00027805237795 90.0 24.0 400.0 0.4923223918530313 0.0 0.0 0.0 
160.00027805237795 90.0 24.0 400.0 0.4923223918530313 0.0 0.0 0.0 
162.00027805237795 90.0 24.0 400.0 0.4923223918530313 0.0 0.0 0.0 
164.00027805237795 90.0 24.0 400.0 0.4923223918530313 0.0 0.0 0.0 
166.000084666035 90.0 24.0 400.0 0.4923223918530313 0.0 0.0 0.0 
168.00027805237795 90.0 24.0 400.0 0.4923223918530313 0.0 0.0 0.0 
170.00027805237795 90.0 24.0 400.0 0.4923223918530313 0.0 0.0 0.0 
172.00027805237795 90.0 24.0 400.0 0.4923223918530313 0.0 0.0 0.0 
174.00027805237795 90.0 24.0 400.0 0.4923223918530313 0.0 0.0 0.0 
176.000084666035 90.0 24.0 400.0 0.4923223918530313 0.0 0.0 0.0 
178.00027805237795 90.0 24.0 400.0 0.4923223918530313 0.0 0.0 0.0 
180.00027805237795 90.0 24.0 400.0 0.4923223918530313 0.0 0.0 0.0 
182.00027805237795 90.0 24.0 400.0 0.4923223918530313 0.0 0.0 0.0 
184.00027805237795 90.0 24.0 400.0 0.4923223918530313 0.0 0.0 0.0 
186.000084666035 90.0 24.0 400.0 0.4923223918530313 0.0 0.0 0.0 
188.00027805237795 90.0 24.0 400.0 0.4923223918530313 0.0 0.0 0.0 
190.00027805237795 90.0 24.0 400.0 0.4923223918530313 0.0 0.0 0.0 
192.00027805237795 90.0 24.0 400.0 0.4923223918530313 0.0 0.0 0.0 
194.00027805237795 90.0 24.0 400.0 0.4923223918530313 0.0 0.0 0.0 
196.000084666035 90.0 24.0 400.0 0.4923223918530313 0.0 0.0 0.0 
198.00027805237795 90.0 24.0 400.0 0.4923223918530313 0.0 0.0 0.0 
200.00027805237795 90.0 24.0 400.0 0.4923223918530313 0.0 0.0 0.0 
202.00027805237795 90.0 24.0 400.0 0.4923223918530313 0.0 0.0 0.0 
204.00027805237795 90.0 24.0 400.0 0.4923223918530313 0.0 0.0 0.0 
206.000084666035 90.0 24.0 400.0 0.4923223918530313 0.0 0.0 0.0 
208.00027805237795 90.0 24.0 400.0 0.4923223918530313 0.0 0.0 0.0 
210.00027805237795 90.0 24.0 400.0 0.4923223918530313 0.0 0.0 0.0 
212.00027805237795 90.0 24.0 400.0 0.4923223918530313 0.0 0.0 0.0 
214.00027805237795 90.0 24.0 400.0 0.4923223918530313 0.0 0.0 0.0 
216.000084666035 90.0 24.0 400.0 0.4923223918530313 0.0 0.0 0.0 
218.00027805237795 90.0 24.0 400.0 0.4923223918530313 0.0 0.0 0.0 
220.00027805237795 90.0 24.0 400.0 0.4923223918530313 0.0 0.0 0.0 
222.00027805237795 90.0 24.0 400.0 0.4923223918530313 0.0 0.0 0.0 
224.00027805237795 90.0 24.0 400.0 0.4923223918530313 0.0 0.0 0.0 
226.000084666035 90.0 24.0 400.0 0.4923223918530313 0.0 0.0 0.0 
228.00027805237795 90.0 24.0 400.0 0.4923223918530313 0.0 0.0 0.0 
230.00027805237795 90.0 24.0 400.0 0.4923223918530313 0.0 0.0 0.0 
232.00027805237795 90.0 24.0 400.0 0.4923223918530313 0.0 0.0 0.0 
234.00027805237795 90.0 24.0 400.0 0.4923223918530313 0.0 0.0 0.0 
236.000084666035 90.0 24.0 400.0 0.4923223918530313 0.0 0.0 0.0 
238.00027805237795 90.0 24.0 400.0 0.4923223918530313 0.0 0.0 0.0 
240.00027805237795 90.0 24.0 400.0 0.4923223918530313 0.0 0.0 0.0 
242.00027805237795 90.0 24.0 400.0 0.4923223918530313 0.0 0.0 0.0 
244.00027805237795 90.0 24.0 400.0 0.4923223918530313 0.0 0.0 0.0 
246.000084666035 90.0 24.0 400.0 0.4923223918530313 0.0 0.0 0.0 
248.00027805237795 90.0 24.0 400.0 0.4923223918530313 0.0 0.0 0.0 
250.00027805237795 90.0 24.0 400.0 0.4923223918530313 0.0 0.0 0.0 
252.00027805237795 90.0 24.0 400.0 0.4923223918530313 0.0 0.0 0.0 
254.00027805237795 90.0 24.0 400.0 0.4923223918530313 0.0 0.0 0.0 
256.00008466603504 90.0 24.0 400.0 0.4923223918530313 0.0 0.0 0.0 
258.00027805237795 90.0 24.0 400.0 0.4923223918530406 0.0 0.0 0.0 
260.00027805237795 90.0 24.0 400.0 0.4923223918530406 0.0 0.0 0.0 
262.00027805237795 90.0 24.0 400.0 0.4923223918530406 0.0 0.0 0.0 
264.00027805237795 90.0 24.0 400.0 0.4923223918530406 0.0 0.0 0.0 
266.00008466603504 90.0 24.0 400.0 0.4923223918530406 0.0 0.0 0.0 
268.00027805237795 90.0 24.0 400.0 0.4923223918530406 0.0 0.0 0.0 
270.00027805237795 90.0 24.0 400.0 0.4923223918530406 0.0 0.0 0.0 
272.00027805237795 90.0 24.0 400.0 0.4923223918530406 0.0 0.0 0.0 
274.00027805237795 90.0 24.0 400.0 0.4923223918530406 0.0 0.0 0.0 
276.00008466603504 90.0 24.0 400.0 0.4923223918530406 0.0 0.0 0.0 
278.00027805237795 90.0 24.0 400.0 0.4923223918530406 0.0 0.0 0.0 
280.00027805237795 90.0 24.0 400.0 0.4923223918530406 0.0 0.0 0.0 
282.00027805237795 90.0 24.0 400.0 0.4923223918530406 0.0 0.0 0.0 
284.00027805237795 90.0 24.0 400.0 0.4923223918530406 0.0 0.0 0.0 
286.00008466603504 90.0 24.0 400.0 0.4923223918530406 0.0 0.0 0.0 
288.00027805237795 90.0 24.0 400.0 0.4923223918530406 0.0 0.0 0.0 
290.00027805237795 98.0 25.0 400.0 0.4920363018953132 0.0 0.0 0.0 
292.00027805237795 98.0 25.0 400.0 0.4920363018953132 0.0 0.0 0.0 
294.00027805237795 98.0 25.0 400.0 0.4920363018953132 0.0 0.0 0.0 
296.00008466603504 98.0 25.0 400.0 0.4920363018953132 0.0 0.0 0.0 
298.00027805237795 98.0 25.0 400.0 0.4920363018953132 0.0 0.0 0.0 
300.00027805237795 98.0 25.0 400.0 0.4920363018953132 0.0 0.0 0.0 
302.00027805237795 98.0 25.0 400.0 0.4920363018953132 0.0 0.0 0.0 
304.00027805237795 98.0 25.0 400.0 0.4920363018953132 0.0 0.0 0.0 
306.00008466603504 98.0 25.0 400.0 0.4920363018953132 0.0 0.0 0.0 
308.00027805237795 98.0 25.0 400.0 0.4920363018953132 0.0 0.0 0.0 
310.00027805237795 98.0 25.0 400.0 0.5147635746225859 0.0 0.0 0.0 
312.00027805237795 96.0 25.0 400.0 0.49328425344956145 0.0 0.0 0.0 
314.00027805237795 96.0 25.0 400.0 0.49328425344956145 0.0 0.0 0.0 
316.00008466603504 96.0 25.0 400.0 0.49328425344956145 0.0 0.0 0.0 
318.00027805237795 96.0 25.0 400.0 0.49328425344956145 0.0 0.0 0.0 
320.00027805237795 96.0 25.0 400.0 0.5185367787020867 0.0 0.0 0.0 
322.00027805237795 94.0 25.0 400.0 0.48950752828457633 0.0 0.0 0.0 
324.00027805237795 94.0 25.0 400.0 0.48950752828457633 0.0 0.0 0.0 
326.00008466603504 94.0 25.0 400.0 0.48950752828457633 0.0 0.0 0.0 
328.00027805237795 94.0 25.0 400.0 0.48950752828457633 0.0 0.0 0.0 
330.00027805237795 94.0 25.0 400.0 0.5699849629918969 0.0 0.0 0.0 
332.00027805237795 90.0 24.0 400.0 0.4923223918530406 0.0 0.0 0.0 
334.00027805237795 90.0 24.0 400.0 0.4923223918530406 0.0 0.0 0.0 
336.00008466603504 90.0 24.0 400.0 0.4923223918530406 0.0 0.0 0.0 
338.00027805237795 90.0 24.0 400.0 0.4923223918530406 0.0 0.0 0.0 
340.00027805237795 90.0 24.0 400.0 0.4923223918530406 0.0 0.0 0.0 
342.00027805237795 90.0 24.0 400.0 0.4923223918530406 0.0 0.0 0.0 
344.00027805237795 90.0 24.0 400.0 0.4923223918530406 0.0 0.0 0.0 
346.00008466603504 90.0 24.0 400.0 0.4923223918530406 0.0 0.0 0.0 
348.00027805237795 90.0 24.0 400.0 0.4923223918530406 0.0 0.0 0.0 
350.00027805237795 90.0 24.0 400.0 0.4923223918530406 0.0 0.0 0.0 
352.00027805237795 90.0 24.0 400.0 0.4923223918530406 0.0 0.0 0.0 
354.00027805237795 90.0 24.0 400.0 0.4923223918530406 0.0 0.0 0.0 
356.00008466603504 90.0 24.0 400.0 0.4923223918530406 0.0 0.0 0.0 
358.00027805237795 90.0 24.0 400.0 0.4923223918530406 0.0 0.0 0.0 
360.00027805237795 90.0 24.0 400.0 0.4923223918530406 0.0 0.0 0.0 
362.00027805237795 90.0 24.0 400.0 0.4923223918530406 0.0 0.0 0.0 
364.00027805237795 90.0 24.0 400.0 0.4923223918530406 0.0 0.0 0.0 
366.00008466603504 90.0 24.0 400.0 0.4923223918530406 0.0 0.0 0.0 
368.00027805237795 90.0 24.0 400.0 0.4923223918530406 0.0 0.0 0.0 
370.00027805237795 90.0 24.0 400.0 0.4923223918530406 0.0 0.0 0.0 
372.00027805237795 90.0 24.0 400.0 0.4923223918530406 0.0 0.0 0.0 
374.00027805237795 90.0 24.0 400.0 0.4923223918530406 0.0 0.0 0.0 
376.00008466603504 90.0 24.0 400.0 0.4923223918530406 0.0 0.0 0.0 
378.00027805237795 90.0 24.0 400.0 0.4923223918530406 0.0 0.0 0.0 
380.00027805237795 90.0 24.0 400.0 0.4923223918530406 0.0 0.0 0.0 
382.00027805237795 90.0 24.0 400.0 0.4923223918530406 0.0 0.0 0.0 
384.00027805237795 90.0 24.0 400.0 0.4923223918530406 0.0 0.0 0.0 
386.00008466603504 90.0 24.0 400.0 0.4923223918530406 0.0 0.0 0.0 
388.00027805237795 90.0 24.0 400.0 0.4923223918530406 0.0 0.0 0.0 
390.00027805237795 90.0 24.0 400.0 0.4923223918530406 0.0 0.0 0.0 
392.00027805237795 90.0 24.0 400.0 0.4923223918530406 0.0 0.0 0.0 
394.00027805237795 90.0 24.0 400.0 0.4923223918530406 0.0 0.0 0.0 
396.00008466603504 93.0 25.0 400.0 0.4844191388294174 0.0 0.0 0.0 
398.00027805237795 96.0 25.0 400.0 0.4948315774196986 0.0 0.0 0.0 
400.00027805237795 96.0 25.0 400.0 0.4948315774196986 0.0 0.0 0.0 
402.00027805237795 96.0 25.0 400.0 0.4948315774196986 0.0 0.0 0.0 
404.00027805237795 96.0 25.0 400.0 0.4948315774196986 0.0 0.0 0.0 
406.00008466603504 96.0 25.0 400.0 0.5161031111211934 0.0 0.0 0.0 
408.00027805237795 93.0 24.0 400.0 0.5632068077888553 0.0 0.0 0.0 
410.00027805237795 95.0 25.0 400.0 0.48775015609824723 0.0 0.0 0.0 
412.00027805237795 96.0 25.0 400.0 0.49340343409055265 0.0 0.0 0.0 
414.00027805237795 96.0 25.0 400.0 0.49340343409055265 0.0 0.0 0.0 
416.00008466603504 96.0 25.0 400.0 0.49340343409055265 0.0 0.0 0.0 
418.00027805237795 96.0 25.0 400.0 0.49340343409055265 0.0 0.0 0.0 
420.00027805237795 96.0 25.0 400.0 0.49340343409055265 0.0 0.0 0.0 
422.00027805237795 96.0 25.0 400.0 0.49340343409055265 0.0 0.0 0.0 
424.00027805237795 96.0 25.0 400.0 0.49340343409055265 0.0 0.0 0.0 
426.00008466603504 101.0 26.0 400.0 0.4824258986987178 0.0 0.0 0.0 
428.00027805237795 104.0 26.0 400.0 0.4924534327933475 0.0 0.0 0.0 
430.00027805237795 104.0 26.0 400.0 0.4924534327933475 0.0 0.0 0.0 
432.00027805237795 104.0 26.0 400.0 0.4924534327933475 0.0 0.0 0.0 
434.00027805237795 104.0 26.0 400.0 0.4924534327933475 0.0 0.0 0.0 
436.00008466603504 104.0 26.0 400.0 0.4924534327933475 0.0 0.0 0.0 
438.00027805237795 104.0 26.0 400.0 0.4924534327933475 0.0 0.0 0.0 
440.00027805237795 104.0 26.0 400.0 0.4924534327933475 0.0 0.0 0.0 
442.00027805237795 104.0 26.0 400.0 0.4924534327933475 0.0 0.0 0.0 
444.00027805237795 104.0 26.0 400.0 0.4924534327933475 0.0 0.0 0.0 
446.00008466603504 104.0 26.0 400.0 0.4924534327933475 0.0 0.0 0.0 
448.00027805237795 104.0 26.0 400.0 0.4924534327933475 0.0 0.0 0.0 
450.00027805237795 104.0 26.0 400.0 0.4924534327933475 0.0 0.0 0.0 
452.00027805237795 104.0 26.0 400.0 0.4924534327933475 0.0 0.0 0.0 
454.00027805237795 104.0 26.0 400.0 0.4924534327933475 0.0 0.0 0.0 
456.00008466603504 104.0 26.0 400.0 0.4924534327933475 0.0 0.0 0.0 
458.00027805237795 104.0 26.0 400.0 0.4924534327933475 0.0 0.0 0.0 
460.00027805237795 104.0 26.0 400.0 0.4924534327933475 0.0 0.0 0.0 
462.00027805237795 104.0 26.0 400.0 0.4924534327933475 0.0 0.0 0.0 
464.00027805237795 104.0 26.0 400.0 0.4924534327933475 0.0 0.0 0.0 
466.00008466603504 104.0 26.0 400.0 0.4924534327933475 0.0 0.0 0.0 
468.00027805237795 104.0 26.0 400.0 0.4924534327933475 0.0 0.0 0.0 
470.00027805237795 104.0 26.0 400.0 0.4924534327933475 0.0 0.0 0.0 
472.00027805237795 104.0 26.0 400.0 0.4924534327933475 0.0 0.0 0.0 
474.00027805237795 104.0 26.0 400.0 0.4924534327933475 0.0 0.0 0.0 
476.00008466603504 104.0 26.0 400.0 0.4924534327933475 0.0 0.0 0.0 
478.00027805237795 104.0 26.0 400.0 0.4924534327933475 0.0 0.0 0.0 
480.00027805237795 104.0 26.0 400.0 0.4924534327933475 0.0 0.0 0.0 
482.00027805237795 104.0 26.0 400.0 0.4924534327933475 0.0 0.0 0.0 
484.00027805237795 104.0 26.0 400.0 0.4924534327933475 0.0 0.0 0.0 
486.00008466603504 104.0 26.0 400.0 0.4924534327933475 0.0 0.0 0.0 
488.00027805237795 104.0 26.0 400.0 0.4924534327933475 0.0 0.0 0.0 
490.00027805237795 104.0 26.0 400.0 0.4924534327933475 0.0 0.0 0.0 
492.00027805237795 104.0 26.0 400.0 0.4924534327933475 0.0 0.0 0.0 
494.00027805237795 104.0 26.0 400.0 0.4924534327933475 0.0 0.0 0.0 
496.00008466603504 104.0 26.0 400.0 0.4924534327933475 0.0 0.0 0.0 
498.00027805237795 104.0 26.0 400.0 0.4924534327933475 0.0 0.0 0.0 
500.00027805237795 104.0 26.0 400.0 0.4924534327933475 0.0 0.0 0.0 
502.00027805237795 104.0 26.0 400.0 0.4924534327933475 0.0 0.0 0.0 
504.00027805237795 104.0 26.0 400.0 0.4924534327933475 0.0 0.0 0.0 
506.00008466603504 104.0 26.0 400.0 0.4924534327933475 0.0 0.0 0.0 
508.00027805237795 104.0 26.0 400.0 0.4924534327933475 0.0 0.0 0.0 
510.00027805237795 104.0 26.0 400.0 0.4924534327933475 0.0 0.0 0.0 
512.0002780523779 104.0 26.0 400.0 0.4924534327933475 0.0 0.0 0.0 
514.0002780523779 104.0 26.0 400.0 0.49245343279334336 0.0 0.0 0.0 
516.000084666035 104.0 26.0 400.0 0.49245343279334336 0.0 0.0 0.0 
518.0002780523779 104.0 26.0 400.0 0.49245343279334336 0.0 0.0 0.0 
520.0002780523779 104.0 26.0 400.0 0.499806373969814 0.0 0.0 0.0 
522.0002780523779 103.0 26.0 400.0 0.5064332107451861 0.0 0.0 0.0 
524.0002780523779 102.0 26.0 400.0 0.49125211720556033 0.0 0.0 0.0 
526.000084666035 102.0 26.0 400.0 0.49125211720556033 0.0 0.0 0.0 
528.0002780523779 102.0 26.0 400.0 0.49125211720556033 0.0 0.0 0.0 
530.0002780523779 102.0 26.0 400.0 0.49125211720556033 0.0 0.0 0.0 
532.0002780523779 102.0 26.0 400.0 0.49125211720556033 0.0 0.0 0.0 
534.0002780523779 102.0 26.0 400.0 0.49125211720556033 0.0 0.0 0.0 
536.000084666035 102.0 26.0 400.0 0.49125211720556033 0.0 0.0 0.0 
538.0002780523779 102.0 26.0 400.0 0.49125211720556033 0.0 0.0 0.0 
540.0002780523779 102.0 26.0 400.0 0.5266907075378732 0.0 0.0 0.0 
542.0002780523779 97.0 25.0 400.0 0.5760954664866258 0.0 0.0 0.0 
544.0002780523779 94.0 25.0 400.0 0.4952826968691096 0.0 0.0 0.0 
546.000084666035 94.0 25.0 400.0 0.4952826968691096 0.0 0.0 0.0 
548.0002780523779 94.0 25.0 400.0 0.4952826968691096 0.0 0.0 0.0 
550.0002780523779 94.0 25.0 400.0 0.4952826968691096 0.0 0.0 0.0 
552.0002780523779 94.0 25.0 400.0 0.4952826968691096 0.0 0.0 0.0 
554.0002780523779 94.0 25.0 400.0 0.4952826968691096 0.0 0.0 0.0 
556.000084666035 94.0 25.0 400.0 0.4952826968691096 0.0 0.0 0.0 
558.0002780523779 94.0 25.0 400.0 0.4952826968691096 0.0 0.0 0.0 
560.0002780523779 94.0 25.0 400.0 0.4952826968691096 0.0 0.0 0.0 
562.0002780523779 94.0 25.0 400.0 0.4952826968691096 0.0 0.0 0.0 
564.0002780523779 94.0 25.0 400.0 0.4952826968691096 0.0 0.0 0.0 
566.000084666035 94.0 25.0 400.0 0.4952826968691096 0.0 0.0 0.0 
568.0002780523779 94.0 25.0 400.0 0.4952826968691096 0.0 0.0 0.0 
570.0002780523779 94.0 25.0 400.0 0.4952826968691096 0.0 0.0 0.0 
572.0002780523779 94.0 25.0 400.0 0.4952826968691096 0.0 0.0 0.0 
574.0002780523779 94.0 25.0 400.0 0.4952826968691096 0.0 0.0 0.0 
576.000084666035 94.0 25.0 400.0 0.4952826968691096 0.0 0.0 0.0 
578.0002780523779 94.0 25.0 400.0 0.4952826968691096 0.0 0.0 0.0 
580.0002780523779 94.0 25.0 400.0 0.4952826968691096 0.0 0.0 0.0 
582.0002780523779 94.0 25.0 400.0 0.4952826968691096 0.0 0.0 0.0 
584.0002780523779 94.0 25.0 400.0 0.4952826968691096 0.0 0.0 0.0 
586.000084666035 94.0 25.0 400.0 0.4952826968691096 0.0 0.0 0.0 
588.0002780523779 94.0 25.0 400.0 0.4952826968691096 0.0 0.0 0.0 
590.0002780523779 94.0 25.0 400.0 0.4952826968691096 0.0 0.0 0.0 
592.0002780523779 94.0 25.0 400.0 0.4952826968691096 0.0 0.0 0.0 
594.0002780523779 94.0 25.0 400.0 0.4952826968691096 0.0 0.0 0.0 
596.000084666035 94.0 25.0 400.0 0.4952826968691096 0.0 0.0 0.0 
598.0002780523779 94.0 25.0 400.0 0.4952826968691096 0.0 0.0 0.0 
600.0002780523779 94.0 25.0 400.0 0.4952826968691096 0.0 0.0 0.0 
602.0002780523779 94.0 25.0 400.0 0.4952826968691096 0.0 0.0 0.0 
604.0002780523779 94.0 25.0 400.0 0.4952826968691096 0.0 0.0 0.0 
606.000084666035 94.0 25.0 400.0 0.4952826968691096 0.0 0.0 0.0 
608.0002780523779 94.0 25.0 400.0 0.4952826968691096 0.0 0.0 0.0 
610.0002780523779 94.0 25.0 400.0 0.4952826968691096 0.0 0.0 0.0 
612.0002780523779 94.0 25.0 400.0 0.4952826968691096 0.0 0.0 0.0 
614.0002780523779 94.0 25.0 400.0 0.4952826968691096 0.0 0.0 0.0 
616.000084666035 94.0 25.0 400.0 0.4952826968691096 0.0 0.0 0.0 
618.0002780523779 94.0 25.0 400.0 0.4952826968691096 0.0 0.0 0.0 
620.0002780523779 94.0 25.0 400.0 0.4952826968691096 0.0 0.0 0.0 
622.0002780523779 94.0 25.0 400.0 0.4952826968691096 0.0 0.0 0.0 
624.0002780523779 94.0 25.0 400.0 0.4952826968691096 0.0 0.0 0.0 
626.000084666035 94.0 25.0 400.0 0.4952826968691096 0.0 0.0 0.0 
628.0002780523779 94.0 25.0 400.0 0.4952826968691096 0.0 0.0 0.0 
630.0002780523779 94.0 25.0 400.0 0.4952826968691096 0.0 0.0 0.0 
632.0002780523779 94.0 25.0 400.0 0.4952826968691096 0.0 0.0 0.0 
634.0002780523779 94.0 25.0 400.0 0.4952826968691096 0.0 0.0 0.0 
636.000084666035 94.0 25.0 400.0 0.4952826968691096 0.0 0.0 0.0 
638.0002780523779 94.0 25.0 400.0 0.4952826968691096 0.0 0.0 0.0 
640.0002780523779 94.0 25.0 400.0 0.4952826968691096 0.0 0.0 0.0 
642.0002780523779 94.0 25.0 400.0 0.4952826968691096 0.0 0.0 0.0 
644.0002780523779 94.0 25.0 400.0 0.4952826968691096 0.0 0.0 0.0 
646.000084666035 94.0 25.0 400.0 0.4952826968691096 0.0 0.0 0.0 
648.0002780523779 94.0 25.0 400.0 0.4952826968691096 0.0 0.0 0.0 
650.0002780523779 94.0 25.0 400.0 0.4952826968691096 0.0 0.0 0.0 
652.0002780523779 94.0 25.0 400.0 0.4952826968691096 0.0 0.0 0.0 
654.0002780523779 94.0 25.0 400.0 0.4952826968691096 0.0 0.0 0.0 
656.000084666035 94.0 25.0 400.0 0.5292507660337664 0.0 0.0 0.0 
658.0002780523779 90.0 24.0 400.0 0.5857030277685124 0.0 0.0 0.0 
660.0002780523779 88.0 24.0 400.0 0.49427903149220703 0.0 0.0 0.0 
662.0002780523779 88.0 24.0 400.0 0.49427903149220703 0.0 0.0 0.0 
664.0002780523779 88.0 24.0 400.0 0.49427903149220703 0.0 0.0 0.0 
#####################################################################
# End of data export. Simulation finished at: 2019-03-09T07:56+0000 #
#####################################################################
