#####################################################################
# Alchemist log file - simulation started at: 2019-03-06T12:57+0000 #
#####################################################################
# seed = 1.0, bandwidth = 1.0E8, accessPointCount = 1031.338537721246, baserange = 316.2277660168379
#
# The columns have the following meaning: 
# time neighbor_count[Sum] <value>@neighbor_count[Sum] packet_size[Mean] mean_delay[Mean] crowd[Sum] overcrowded[Sum] risk[Sum] 
0.0 NaN NaN NaN NaN NaN NaN NaN 
10.000417374280275 13203.0 4760.0 4984.099683544304 0.5670144808818735 1497.0 0.0 1497.0 
20.000417374280275 13030.0 4611.0 4984.411392405063 0.49818047054813985 1494.0 3.0 1494.0 
30.000417374280275 13048.0 4610.0 4984.012658227848 0.49827859188478874 1492.0 5.0 1492.0 
40.000417374280275 13050.0 4611.0 4984.367088607594 0.499968876085808 1493.0 4.0 1493.0 
50.000417374280275 13079.0 4613.0 4983.821202531645 0.49972599120603706 1490.0 7.0 1490.0 
60.000417374280275 13098.0 4612.0 4984.300632911392 0.4995183368359541 1490.0 7.0 1490.0 
70.00041737428027 13068.0 4611.0 978.8259493670888 0.49971860341234453 454.0 14.0 304.0 
80.00041737428027 13068.0 4612.0 976.9984177215182 0.49893159230113804 426.0 16.0 301.0 
90.00041737428027 13053.0 4613.0 980.6123417721576 0.49952906860097895 422.0 15.0 304.0 
100.00041737428027 12974.0 4613.0 980.5806962025297 0.500552425748121 424.0 14.0 305.0 
110.00041737428027 12985.0 4614.0 980.5870253164658 0.5002695078961436 420.0 14.0 305.0 
120.00041737428027 13002.0 4614.0 976.9588607594849 0.5028553247753498 415.0 16.0 301.0 
130.0004173742803 12942.0 4613.0 978.7025316455621 0.4997625938235202 418.0 14.0 304.0 
140.0004173742803 12999.0 4615.0 980.5411392405151 0.5021334843429635 416.0 17.0 302.0 
150.0004173742803 12919.0 4612.0 989.6898734177202 0.5006312084656979 421.0 15.0 309.0 
160.0004173742803 13014.0 4614.0 995.196202531647 0.49889510890148037 418.0 18.0 309.0 
170.0004173742803 13036.0 4614.0 998.8132911392402 0.49975767090844947 423.0 14.0 315.0 
180.0004173742803 12996.0 4613.0 993.343354430372 0.5015748067816924 407.0 26.0 300.0 
190.0004173742803 13005.0 4615.0 993.35126582279 0.49918661155087257 405.0 22.0 304.0 
200.0004173742803 12978.0 4613.0 991.5363924050694 0.4989302965985245 406.0 23.0 302.0 
210.0004173742803 12989.0 4612.0 991.5806962025285 0.5015438882064487 404.0 25.0 300.0 
220.0004173742803 12908.0 4610.0 989.6566455696284 0.5023388630376727 412.0 22.0 302.0 
230.0004173742803 12886.0 4610.0 993.332278481025 0.5016151371123685 408.0 23.0 303.0 
240.0004173742803 12911.0 4610.0 995.1487341772099 0.501169317900143 409.0 25.0 302.0 
250.0004173742803 12832.0 4613.0 996.9193037974717 0.5027765499109993 415.0 23.0 305.0 
260.0004173742803 12628.0 4610.0 993.2610759493673 0.5002730613329738 416.0 23.0 303.0 
270.0004173742803 12561.0 4609.0 996.9351265822798 0.5001277576610831 413.0 23.0 305.0 
280.0004173742803 12577.0 4612.0 991.403481012651 0.4996087441235823 410.0 26.0 299.0 
290.0004173742803 12553.0 4612.0 989.5205696202504 0.5010966460931371 409.0 23.0 301.0 
300.0004173742803 12502.0 4612.0 985.9066455696286 0.5021911029176073 418.0 14.0 308.0 
310.0004173742803 12511.0 4611.0 984.0601265822798 0.49893164899532805 417.0 14.0 307.0 
320.0004173742803 12533.0 4612.0 971.3417721519082 0.4985722201356865 411.0 16.0 298.0 
330.0004173742803 12505.0 4615.0 967.7832278480914 0.4979552626369035 412.0 14.0 298.0 
340.0004173742803 12479.0 4614.0 969.6028481012535 0.5000486278387951 410.0 14.0 299.0 
350.0004173742803 12423.0 4613.0 973.2974683544389 0.5015332911079293 395.0 23.0 292.0 
360.0004173742803 12334.0 4613.0 973.1772151898793 0.4987570857911166 398.0 25.0 290.0 
370.0004173742803 12360.0 4616.0 969.5933544303706 0.5004855705936648 400.0 23.0 290.0 
380.0004173742803 12332.0 4614.0 969.5348101265869 0.5010790929686922 407.0 23.0 290.0 
390.0004173742803 12317.0 4613.0 964.1471518987464 0.4997217221326808 413.0 14.0 296.0 
400.0004173742803 12386.0 4614.0 973.1851265822798 0.5033518324675208 410.0 21.0 294.0 
410.0004173742803 12313.0 4608.0 976.8813291139231 0.49938604708456363 413.0 23.0 294.0 
420.0004173742803 12342.0 4606.0 971.3623417721595 0.4985695569333541 406.0 23.0 291.0 
430.0004173742803 12443.0 4614.0 967.710443037974 0.5019754222714156 414.0 15.0 297.0 
440.0004173742803 12416.0 4614.0 975.0553797468388 0.5002325772979195 418.0 17.0 299.0 
450.0004173742803 12421.0 4612.0 986.003164556959 0.500167899765552 425.0 15.0 307.0 
460.0004173742803 12410.0 4614.0 984.1234177215182 0.5025448423227225 424.0 15.0 306.0 
470.0004173742803 12364.0 4615.0 973.2389240506317 0.4994993050403721 403.0 24.0 291.0 
480.0004173742803 12340.0 4615.0 973.1503164556926 0.501069517075111 402.0 25.0 290.0 
490.0004173742803 12242.0 4614.0 962.2800632911338 0.5008741008148342 405.0 23.0 286.0 
500.0004173742803 12337.0 4616.0 958.5632911392361 0.49954328649982704 403.0 23.0 284.0 
510.0004173742803 12368.0 4619.0 954.9778481012545 0.5004688279615419 406.0 23.0 282.0 
520.0004173742802 12459.0 4622.0 942.2136075949306 0.49953067786633715 395.0 26.0 272.0 
530.0004173742802 12462.0 4621.0 944.1186708860731 0.501675207181741 398.0 24.0 275.0 
540.0004173742802 12429.0 4621.0 953.1392405063235 0.5004086658199309 401.0 23.0 281.0 
550.0004173742802 12349.0 4613.0 956.8101265822798 0.5000496553747551 399.0 23.0 283.0 
560.0004173742802 12345.0 4619.0 962.243670886075 0.5006740342311274 398.0 25.0 284.0 
570.0004173742802 12273.0 4617.0 969.5996835443063 0.49932173951925657 400.0 22.0 291.0 
580.0004173742802 12349.0 4619.0 971.3481012658141 0.5006221113072055 418.0 15.0 299.0 
590.0004173742802 12445.0 4622.0 976.8037974683517 0.502258246150032 419.0 15.0 302.0 
600.0004173742802 12500.0 4619.0 971.3322784810247 0.5011217786137694 418.0 16.0 298.0 
610.0004173742802 12627.0 4621.0 982.3180379746811 0.5029952523054438 424.0 15.0 305.0 
620.0004173742802 12731.0 4620.0 989.5348101265877 0.5012675807802819 429.0 14.0 310.0 
630.0004173742802 12691.0 4620.0 976.8639240506317 0.5027726927426713 428.0 14.0 303.0 
640.0004173742802 12675.0 4619.0 982.3670886075985 0.5008179100892267 420.0 17.0 303.0 
650.0004173742802 12719.0 4619.0 984.2151898734123 0.5023484907763586 421.0 14.0 307.0 
660.0004173742802 12748.0 4619.0 991.4430379746827 0.5026787541495934 423.0 14.0 311.0 
#####################################################################
# End of data export. Simulation finished at: 2019-03-06T13:20+0000 #
#####################################################################
