#####################################################################
# Alchemist log file - simulation started at: 2019-03-04T17:58+0000 #
#####################################################################
# seed = 6.0, bandwidth = 4216.965034285822, accessPointCount = 141.4213562373095, baserange = 316.2277660168379
#
# The columns have the following meaning: 
# time neighbor_count[Sum] <value>@neighbor_count[Sum] packet_size[Mean] mean_delay[Mean] crowd[Sum] overcrowded[Sum] risk[Sum] 
0.0 NaN NaN NaN NaN NaN NaN NaN 
2.0013042135964882 11.0 5.0 4985.934065934066 0.2763439199248443 1497.0 0.0 1497.0 
4.000780476949327 139.0 66.0 4985.943833943834 0.7005318852569067 1497.0 0.0 1497.0 
6.000780476949327 384.0 151.0 4986.10989010989 1.2715224014981994 1497.0 0.0 1497.0 
8.000780476949327 679.0 205.0 4986.293040293041 1.7204301403095623 1497.0 0.0 1497.0 
10.000780476949327 951.0 248.0 4986.542124542125 2.198169726770411 1497.0 0.0 1497.0 
12.000780476949327 1196.0 289.0 4986.803418803419 2.7727900279610944 1497.0 0.0 1497.0 
14.000780476949327 1641.0 319.0 4986.954822954823 2.8133089156255444 1497.0 0.0 1497.0 
16.00035079184418 2109.0 362.0 4987.2283272283275 3.1867816440170245 1497.0 0.0 1497.0 
18.000780476949327 2749.0 426.0 4987.5677655677655 3.5395200546976886 1497.0 0.0 1497.0 
20.000780476949327 2841.0 430.0 4987.814407814408 4.406622156350286 1497.0 0.0 1497.0 
22.000780476949327 3052.0 448.0 4987.8363858363855 4.482164399069688 1497.0 0.0 1497.0 
24.000780476949327 3078.0 448.0 4987.785103785104 5.22145120513472 1497.0 0.0 1497.0 
26.000780476949327 3081.0 448.0 4987.709401709401 5.167948924032079 1497.0 0.0 1497.0 
28.000780476949327 3208.0 455.0 4987.68253968254 5.827159329570899 1497.0 0.0 1497.0 
30.000780476949327 3507.0 471.0 4987.885225885226 6.496596202191485 1497.0 0.0 1497.0 
32.00078047694933 3820.0 480.0 4988.08547008547 6.5369338709463625 1497.0 0.0 1497.0 
34.00078047694933 4259.0 497.0 4988.1636141636145 6.366320645328283 1497.0 0.0 1497.0 
36.00078047694933 4787.0 516.0 4988.178266178266 5.83641962249092 1497.0 0.0 1497.0 
38.00078047694933 4807.0 519.0 4988.148962148962 6.377767640969607 1497.0 0.0 1497.0 
40.00078047694933 5176.0 520.0 4988.14652014652 6.252230265728358 1497.0 0.0 1497.0 
42.00078047694933 6510.0 585.0 4988.612942612943 5.142325949253759 1497.0 0.0 1497.0 
44.00078047694933 6351.0 584.0 4988.622710622711 5.755935868563407 1497.0 0.0 1497.0 
46.00078047694933 6260.0 577.0 4988.666666666667 6.201729206484828 1497.0 0.0 1497.0 
48.00078047694933 6253.0 577.0 4988.6984126984125 7.614416040064483 1497.0 0.0 1497.0 
50.00078047694933 6285.0 577.0 4988.630036630037 7.90852275765622 1497.0 0.0 1497.0 
52.00078047694933 6257.0 577.0 4988.732600732601 8.169488021387416 1497.0 0.0 1497.0 
54.00078047694933 6257.0 577.0 4988.854700854701 8.343012419693785 1497.0 0.0 1497.0 
56.00078047694933 6264.0 579.0 4988.854700854701 7.318293487957874 1497.0 0.0 1497.0 
58.00078047694933 6255.0 578.0 4988.776556776556 7.9392411054730205 1497.0 0.0 1497.0 
60.00078047694933 6273.0 579.0 4988.778998778998 8.669607883191345 1497.0 0.0 1497.0 
62.00044361850858 6582.0 588.0 762.551892551893 7.6168381294799135 385.0 0.0 129.0 
64.00044361850857 6304.0 588.0 762.5396825396828 8.450081858179152 348.0 0.0 129.0 
66.00044361850857 5788.0 568.0 762.5030525030527 7.297386023198095 323.0 0.0 129.0 
68.00044361850857 5744.0 562.0 762.4542124542121 7.078403330816283 304.0 1.0 128.0 
70.00044361850857 5451.0 561.0 762.5299145299148 6.457624952053992 275.0 1.0 128.0 
72.00044361850857 4192.0 504.0 762.3858363858355 4.083013334043454 235.0 1.0 128.0 
74.00044361850857 4207.0 504.0 762.0805860805867 3.899936455649658 218.0 1.0 128.0 
76.00044361850857 5094.0 529.0 765.0280830280834 3.7917415421738854 224.0 1.0 129.0 
78.00044361850857 5835.0 563.0 765.28205128205 4.149400967139885 224.0 0.0 130.0 
80.00044361850857 5802.0 563.0 765.2722832722819 4.560597951105249 214.0 0.0 130.0 
82.00044361850857 5888.0 568.0 790.5250305250307 4.1824443335024135 217.0 0.0 139.0 
84.00044361850857 7047.0 612.0 829.997557997558 3.228750109163533 222.0 0.0 153.0 
86.00044361850857 7916.0 657.0 886.2735042735052 3.212773192938575 237.0 0.0 173.0 
88.00044361850857 7993.0 659.0 894.6495726495709 3.564368297743286 243.0 0.0 176.0 
90.00044361850857 7963.0 657.0 894.6349206349187 3.0219373097333513 243.0 0.0 176.0 
92.00044361850857 7734.0 653.0 894.656898656897 2.975211610812963 245.0 0.0 176.0 
94.00044361850857 7737.0 653.0 894.6007326007311 3.462716787368799 245.0 0.0 176.0 
96.00044361850857 7777.0 655.0 897.4529914529934 3.6094802427474173 246.0 0.0 177.0 
98.00044361850857 7795.0 655.0 900.2686202686212 4.048797474086348 245.0 0.0 178.0 
100.00044361850857 7792.0 654.0 900.2637362637372 4.4538674997973695 244.0 0.0 178.0 
102.00044361850857 7820.0 655.0 900.2051282051297 4.88831222395391 244.0 0.0 178.0 
104.00044361850857 7825.0 655.0 900.1904761904774 5.190893595677796 244.0 0.0 178.0 
106.00044361850857 7302.0 642.0 897.4822954822977 4.8698692700131305 240.0 0.0 177.0 
108.00044361850857 6917.0 623.0 897.1623931623942 4.449132924372541 233.0 0.0 177.0 
110.00044361850857 7064.0 624.0 897.0329670329675 4.131477203733867 237.0 0.0 177.0 
112.00044361850857 7778.0 650.0 900.1001221001234 4.219724015506526 247.0 0.0 178.0 
114.00044361850857 7608.0 651.0 900.3052503052518 3.776824682759868 253.0 0.0 178.0 
116.00044361850857 7462.0 645.0 905.9169719169709 2.9635724616547456 250.0 1.0 179.0 
118.00044361850857 7620.0 651.0 905.8070818070804 3.309124713003881 252.0 1.0 179.0 
120.00044361850857 7627.0 650.0 905.8119658119646 3.098244235889037 252.0 1.0 179.0 
122.00044361850857 7636.0 650.0 905.8852258852245 3.186449017148683 252.0 1.0 179.0 
124.00044361850857 7625.0 649.0 900.234432234434 3.3861635527639877 251.0 1.0 177.0 
126.00044361850857 7633.0 649.0 900.2100122100138 3.6016446151088117 251.0 1.0 177.0 
128.00044361850857 7639.0 650.0 900.2100122100138 3.9712701562699277 252.0 1.0 177.0 
130.00044361850857 7572.0 648.0 897.4114774114794 4.234140987731239 252.0 1.0 176.0 
132.00044361850857 8198.0 663.0 905.9682539682535 4.349414165333201 259.0 1.0 179.0 
134.00044361850857 8226.0 663.0 905.9877899877898 4.704095937340193 259.0 1.0 179.0 
136.00044361850857 8255.0 665.0 906.0170940170942 4.607535483575358 257.0 1.0 179.0 
138.00044361850857 8263.0 666.0 905.9755799755796 4.968970465862051 255.0 1.0 179.0 
140.00044361850857 8141.0 666.0 905.9633699633695 5.3461891358255595 254.0 1.0 179.0 
142.00044361850857 7415.0 641.0 905.8681318681312 4.693013850260453 246.0 1.0 179.0 
144.00004784801197 7053.0 626.0 908.6105006104997 3.937787620531085 239.0 1.0 180.0 
146.00004784801197 7466.0 637.0 905.7411477411474 3.440581996402441 245.0 3.0 177.0 
148.00004784801197 7633.0 642.0 905.7680097680079 2.8110007317145493 243.0 8.0 172.0 
150.00004784801197 8040.0 660.0 903.1477411477421 2.8750936239374885 246.0 8.0 171.0 
152.00004784801197 8067.0 660.0 903.1062271062284 3.3313740630829796 246.0 8.0 171.0 
154.00004784801197 8070.0 660.0 903.1013431013442 3.803887307884659 246.0 8.0 171.0 
156.00004784801197 8083.0 660.0 903.1184371184386 4.04209908602374 247.0 8.0 171.0 
158.00004784801197 8089.0 660.0 900.3052503052508 4.2923306767528375 248.0 8.0 170.0 
160.00004784801197 8122.0 661.0 900.3174603174609 4.31342542449683 248.0 8.0 170.0 
162.00004784801197 7800.0 654.0 908.8253968253956 3.5237028423416286 249.0 8.0 173.0 
164.00004784801197 7757.0 651.0 908.7496947496926 3.838996675396361 249.0 8.0 173.0 
166.00004784801197 7746.0 650.0 908.7448107448112 4.291250842205573 248.0 8.0 173.0 
168.00004784801197 7745.0 650.0 908.737484737485 4.828818098620005 247.0 8.0 173.0 
170.00004784801197 7837.0 651.0 911.5311355311345 5.252088901678388 246.0 8.0 174.0 
172.00004784801197 7854.0 652.0 911.5457875457868 5.338702209575814 244.0 8.0 174.0 
174.00004784801197 7782.0 650.0 908.6544566544561 5.164778550920045 243.0 8.0 173.0 
176.00004784801197 7242.0 630.0 908.6788766788765 4.548068349063688 238.0 8.0 173.0 
178.00004784801197 7108.0 630.0 908.3711843711843 3.323510948732397 238.0 6.0 175.0 
180.00004784801197 6798.0 616.0 908.349206349207 2.898959664000386 241.0 2.0 179.0 
182.00004784801197 7137.0 625.0 908.222222222224 3.0251952367846857 248.0 2.0 179.0 
184.00004784801197 7515.0 630.0 911.1843711843725 3.1613897232009864 250.0 2.0 180.0 
186.00004784801197 8240.0 663.0 917.0402930402936 2.8025225195329915 253.0 2.0 182.0 
188.00004784801197 8245.0 663.0 916.9890109890109 3.3227119798432163 252.0 2.0 182.0 
190.00004784801197 8202.0 662.0 916.9743589743587 3.622522158193878 252.0 2.0 182.0 
192.00004784801197 7890.0 655.0 916.925518925518 3.821805335632644 251.0 2.0 182.0 
194.00004784801197 7853.0 654.0 919.7045177045177 4.295800490660964 251.0 2.0 183.0 
196.00004784801197 7814.0 653.0 919.738705738706 4.650168862838057 251.0 2.0 183.0 
198.00004784801197 7814.0 653.0 919.6800976800973 5.004528314417232 251.0 2.0 183.0 
200.00004784801197 7742.0 652.0 919.7045177045177 5.0899063228896555 251.0 2.0 183.0 
202.00004784801197 7739.0 652.0 919.726495726496 5.153855890708581 251.0 2.0 183.0 
204.00004784801197 7745.0 652.0 919.7142857142858 5.326929806724329 251.0 2.0 183.0 
206.00044361850857 7736.0 652.0 916.9157509157499 4.471973679658483 250.0 2.0 182.0 
208.00044361850857 7748.0 653.0 916.92796092796 4.261742361972289 251.0 2.0 182.0 
210.00044361850857 7810.0 654.0 916.9768009768006 4.300481597370504 245.0 7.0 177.0 
212.00044361850857 7492.0 645.0 916.9010989010976 4.148554127501191 238.0 7.0 177.0 
214.00044361850857 7155.0 641.0 916.7936507936492 4.000538748281463 237.0 7.0 177.0 
216.00044361850857 6631.0 612.0 916.6886446886442 2.875626976440901 236.0 7.0 177.0 
218.00044361850857 6971.0 629.0 916.7057387057384 3.1590080715937106 241.0 7.0 177.0 
220.00044361850857 7105.0 630.0 916.7350427350427 3.5246378691575933 242.0 7.0 177.0 
222.00044361850857 7496.0 646.0 902.8327228327217 3.8651383933000902 243.0 7.0 172.0 
224.00044361850857 7499.0 648.0 902.8107448107436 4.044361213722189 243.0 7.0 172.0 
226.00044361850857 7491.0 646.0 905.6019536019527 4.430923836908648 243.0 7.0 173.0 
228.00044361850857 7496.0 646.0 905.5995115995107 4.822135070565907 243.0 7.0 173.0 
230.00044361850857 7463.0 645.0 902.8156288156276 4.942209130968402 242.0 7.0 172.0 
232.00044361850857 7434.0 644.0 900.0097680097681 4.588114573004285 241.0 8.0 170.0 
234.00044361850857 7447.0 645.0 899.997557997558 4.586593101790774 241.0 7.0 171.0 
236.00044361850857 7444.0 646.0 900.1269841269856 3.624205777852788 241.0 7.0 171.0 
238.00044361850857 7757.0 651.0 905.8021978021965 3.5135503916311794 245.0 5.0 175.0 
240.00044361850857 7847.0 657.0 908.6227106227097 3.389904653770707 243.0 7.0 174.0 
242.00044361850857 7949.0 661.0 911.4065934065943 3.647916903222173 243.0 7.0 175.0 
244.00044361850857 7911.0 662.0 908.568986568985 4.075045680047315 242.0 7.0 174.0 
246.00044361850857 7670.0 656.0 911.3772893772898 4.27840859766816 242.0 7.0 175.0 
248.00044361850857 7354.0 640.0 908.4542124542139 4.165771062649929 233.0 7.0 174.0 
250.00044361850857 7356.0 640.0 905.6263736263729 4.443274856011182 236.0 7.0 173.0 
252.00044361850857 7218.0 638.0 900.1489621489632 4.077895940174929 233.0 7.0 171.0 
254.00044361850857 7180.0 636.0 900.0097680097681 4.283112786487294 232.0 7.0 171.0 
256.00004784801195 7283.0 636.0 900.0366300366305 4.3660463477278775 233.0 7.0 171.0 
258.00004784801195 7658.0 652.0 900.1733821733834 4.510862437188046 237.0 7.0 171.0 
260.00004784801195 7747.0 654.0 900.1709401709414 4.388354765816777 239.0 7.0 171.0 
262.00004784801195 7838.0 660.0 900.2100122100138 4.360325458402659 243.0 7.0 171.0 
264.00004784801195 7868.0 660.0 897.4407814407824 3.7326487752908344 244.0 7.0 170.0 
266.00004784801195 7919.0 663.0 897.3797313797319 4.002378597529119 244.0 7.0 170.0 
268.00004784801195 7476.0 652.0 900.1807081807094 3.8804813928416553 242.0 7.0 171.0 
270.00004784801195 7354.0 645.0 900.1050061050073 3.5537610787877227 240.0 7.0 171.0 
272.00004784801195 7388.0 647.0 900.0610500610509 3.65520718342486 238.0 8.0 170.0 
274.00004784801195 7363.0 644.0 894.4468864468873 3.937575353671127 237.0 8.0 168.0 
276.00004784801195 7389.0 645.0 894.4224664224671 4.322930185820591 236.0 8.0 168.0 
278.00004784801195 7377.0 647.0 905.6703296703295 4.5243037845561425 235.0 8.0 172.0 
280.00004784801195 7266.0 648.0 911.291819291819 4.562868463458191 235.0 8.0 174.0 
282.00004784801195 6990.0 633.0 908.3467643467648 4.527413830281892 226.0 8.0 173.0 
284.00004784801195 7211.0 633.0 908.3223443223445 4.690300744142697 232.0 8.0 173.0 
286.00004784801195 7791.0 665.0 919.8510378510368 4.646634576579465 236.0 8.0 177.0 
288.00004784801195 7410.0 648.0 916.9621489621485 3.893209128668045 235.0 8.0 176.0 
290.00004784801195 7419.0 649.0 922.4786324786336 3.577464748073446 235.0 8.0 178.0 
292.00044361850854 7464.0 646.0 922.4786324786336 3.410481679009391 233.0 8.0 178.0 
294.00044361850854 7787.0 663.0 919.7948717948702 3.0381375480040083 236.0 8.0 177.0 
296.00044361850854 7758.0 661.0 919.7680097680079 3.355591712099247 236.0 8.0 177.0 
298.00044361850854 7716.0 658.0 916.930402930402 3.641158406329704 235.0 8.0 176.0 
300.00044361850854 7572.0 650.0 916.8815628815613 3.828212029302332 235.0 8.0 176.0 
302.00044361850854 7636.0 655.0 916.9230769230759 3.784411888614403 237.0 7.0 177.0 
304.00044361850854 7750.0 659.0 911.2942612942613 4.081417601776277 237.0 7.0 175.0 
306.00044361850854 7749.0 658.0 911.2478632478653 4.375802172014292 237.0 7.0 175.0 
308.00044361850854 7802.0 662.0 911.269841269841 4.680306379842342 238.0 7.0 175.0 
310.00044361850854 7778.0 661.0 908.4200244200248 4.958062755995391 238.0 7.0 174.0 
312.00044361850854 7856.0 663.0 908.422466422467 5.301727034225207 238.0 7.0 174.0 
314.00044361850854 7656.0 666.0 908.4884004884018 5.161427305630087 238.0 7.0 174.0 
316.00044361850854 6966.0 634.0 908.3345543345548 4.494184707405029 229.0 7.0 174.0 
318.00044361850854 7013.0 631.0 908.3125763125765 4.42283190139818 232.0 7.0 174.0 
320.00044361850854 7245.0 644.0 908.3931623931626 4.258745238805796 236.0 7.0 174.0 
322.00044361850854 7142.0 643.0 908.4053724053728 3.865108354709651 235.0 7.0 174.0 
324.00044361850854 6798.0 626.0 905.5482295482287 3.395198550629306 232.0 7.0 173.0 
326.00044361850854 6805.0 627.0 905.4090354090357 3.2755341234807727 232.0 7.0 173.0 
328.00044361850854 7211.0 642.0 902.7838827838812 3.208870117575062 234.0 7.0 172.0 
330.00044361850854 7365.0 645.0 902.7789987789971 3.443516196953116 234.0 7.0 172.0 
332.00044361850854 7618.0 654.0 905.6800976800972 3.354458257864551 235.0 7.0 173.0 
334.00044361850854 7667.0 658.0 905.7240537240536 3.5591702148862345 241.0 2.0 178.0 
336.00044361850854 7672.0 660.0 905.7680097680079 3.971927100330699 241.0 2.0 178.0 
338.00044361850854 7661.0 659.0 905.7289377289376 4.345462805710648 241.0 2.0 178.0 
340.00044361850854 7652.0 659.0 905.7118437118435 4.516517251002048 242.0 2.0 178.0 
342.00044361850854 7575.0 657.0 905.7338217338216 4.48004565300718 242.0 2.0 178.0 
344.00044361850854 7539.0 654.0 905.7289377289376 4.761209003585419 243.0 2.0 178.0 
346.00044361850854 7565.0 654.0 908.5470085470075 4.733059315103567 243.0 2.0 179.0 
348.00044361850854 7526.0 658.0 911.3699633699641 4.239164569224279 241.0 2.0 180.0 
350.00044361850854 7281.0 645.0 911.2210012210029 3.897138132989097 232.0 2.0 180.0 
352.00044361850854 7487.0 648.0 911.1819291819304 3.3783952632817633 238.0 2.0 180.0 
354.00044361850854 7773.0 665.0 908.5225885225874 3.667896829129637 240.0 2.0 179.0 
356.00044361850854 7741.0 663.0 908.5274725274716 3.997309885918393 240.0 2.0 179.0 
358.00044361850854 7364.0 648.0 911.421245421246 3.9037269191762776 237.0 2.0 180.0 
360.00044361850854 7205.0 647.0 914.0439560439567 3.892368252506052 236.0 2.0 181.0 
362.00044361850854 7029.0 634.0 913.9902319902319 3.7445238444681648 239.0 1.0 182.0 
364.00044361850854 7372.0 648.0 914.0415140415146 3.622040622341718 239.0 6.0 177.0 
366.00044361850854 7437.0 650.0 908.4444444444454 3.9906605500847268 242.0 2.0 179.0 
368.00044361850854 7430.0 650.0 911.3137973137977 3.8269809978280374 242.0 2.0 180.0 
370.00044361850854 7511.0 651.0 911.2600732600731 4.189818209956677 244.0 2.0 180.0 
372.00044361850854 7856.0 662.0 914.1660561660573 4.394808293664662 244.0 2.0 181.0 
374.00044361850854 7918.0 667.0 908.5299145299133 4.49135131894019 245.0 2.0 179.0 
376.00044361850854 7953.0 666.0 894.512820512818 4.245422000970152 245.0 2.0 174.0 
378.00044361850854 7885.0 663.0 894.5103785103759 4.062133168744714 244.0 2.0 174.0 
380.00044361850854 7834.0 661.0 894.5079365079339 3.665668134823315 247.0 2.0 174.0 
382.00044361850854 7629.0 658.0 894.5250305250281 3.4568664169025896 246.0 2.0 174.0 
384.00044361850854 7388.0 643.0 897.2136752136769 3.348266853187956 238.0 2.0 175.0 
386.00044361850854 7567.0 646.0 897.1721611721626 3.6349414889946794 244.0 2.0 175.0 
388.00044361850854 7866.0 661.0 897.333333333335 4.036277413165374 248.0 2.0 175.0 
390.00044361850854 7895.0 661.0 897.3284493284508 4.536450497820442 250.0 2.0 175.0 
392.00044361850854 7760.0 660.0 897.3504273504291 4.787738815915483 247.0 2.0 175.0 
394.00044361850854 7488.0 646.0 900.112332112333 4.227844776046261 246.0 1.0 177.0 
396.00044361850854 7586.0 650.0 897.2771672771685 3.9059474932713143 246.0 1.0 176.0 
398.00044361850854 7660.0 650.0 900.0732600732606 4.09916576423288 248.0 1.0 177.0 
400.00044361850854 8011.0 666.0 900.1660561660575 3.9933753246843633 253.0 1.0 177.0 
402.00004784801195 7677.0 657.0 905.7631257631239 3.948087019920062 255.0 1.0 179.0 
404.00004784801195 7603.0 652.0 905.7557997557977 3.98433436512704 253.0 1.0 179.0 
406.00004784801195 7579.0 652.0 905.6800976800965 3.879569134750868 253.0 1.0 179.0 
408.00004784801195 7546.0 650.0 905.6654456654444 4.172862625675434 252.0 1.0 179.0 
410.00004784801195 7515.0 648.0 905.619047619046 3.77026175814213 252.0 1.0 179.0 
412.00004784801195 7528.0 646.0 905.6288156288141 4.171576382145531 253.0 1.0 179.0 
414.00004784801195 7482.0 645.0 905.6605616605603 4.284299165925565 255.0 1.0 179.0 
416.00004784801195 7421.0 645.0 905.6581196581183 4.302730169287971 256.0 1.0 179.0 
418.00004784801195 7488.0 642.0 905.5628815628796 3.984733004432358 251.0 1.0 179.0 
420.00004784801195 7743.0 648.0 905.5042735042709 4.0142520010867315 253.0 1.0 179.0 
422.00004784801195 8018.0 664.0 908.4493284493307 4.077169682000668 259.0 1.0 180.0 
424.00004784801195 7854.0 656.0 905.665445665444 3.9810686064238694 258.0 0.0 180.0 
426.00004784801195 7920.0 660.0 908.5567765567744 3.977118161610497 258.0 1.0 180.0 
428.00004784801195 7887.0 663.0 908.5885225885204 4.179987055846095 255.0 1.0 180.0 
430.00004784801195 7510.0 647.0 908.4517704517729 3.796679318348265 253.0 1.0 180.0 
432.00004784801195 7501.0 646.0 908.3785103785121 3.7986002833910617 252.0 1.0 180.0 
434.00004784801195 7625.0 647.0 908.4200244200266 3.801668681203921 254.0 1.0 180.0 
436.00004784801195 7917.0 662.0 914.134310134311 3.7310852612707 259.0 1.0 182.0 
438.00004784801195 7939.0 662.0 916.9499389499383 3.42573220817654 259.0 1.0 183.0 
440.00004784801195 7990.0 664.0 916.9523809523804 3.75760477027419 259.0 1.0 183.0 
442.00004784801195 8016.0 665.0 916.9572649572644 4.246327955563353 262.0 1.0 183.0 
444.00004784801195 8050.0 666.0 919.7899877899862 4.632855007997678 262.0 1.0 184.0 
446.00004784801195 8050.0 667.0 928.2930402930407 4.478724834653917 262.0 1.0 187.0 
448.00004784801195 7728.0 658.0 933.8217338217326 4.4587304918096216 262.0 1.0 189.0 
450.00004784801195 7450.0 653.0 930.9548229548224 4.380705581671624 264.0 1.0 188.0 
452.00004784801195 7211.0 639.0 930.8473748473738 4.1331227321797765 253.0 1.0 188.0 
454.00004784801195 7255.0 638.0 930.8156288156275 4.134872973192952 256.0 1.0 188.0 
456.00004784801195 7526.0 652.0 936.6617826617821 3.7478147276227727 264.0 1.0 190.0 
458.00004784801195 7552.0 654.0 939.3675213675224 3.9388333514323164 267.0 1.0 191.0 
460.00004784801195 7572.0 655.0 933.7191697191694 4.342679698394696 267.0 1.0 189.0 
462.00004784801195 7601.0 656.0 933.7338217338215 4.62541409739025 268.0 1.0 189.0 
464.00004784801195 7472.0 655.0 930.9450549450543 4.37756709397285 266.0 1.0 188.0 
466.00004784801195 7189.0 640.0 928.1831501831515 4.15665737384208 260.0 2.0 186.0 
468.00004784801195 7401.0 644.0 931.0134310134313 3.3825280659655417 262.0 1.0 188.0 
470.00004784801195 7959.0 666.0 931.0476190476196 3.213124340037537 265.0 1.0 188.0 
472.00004784801195 8015.0 668.0 928.2808302808306 3.057230413172231 266.0 1.0 187.0 
474.00004784801195 7957.0 665.0 931.0671550671558 3.4939291602342437 266.0 1.0 188.0 
476.00004784801195 7960.0 665.0 933.858363858363 3.8039178252403767 266.0 1.0 189.0 
478.00004784801195 7945.0 666.0 933.8559218559209 4.275913163344079 266.0 1.0 189.0 
480.00004784801195 7922.0 665.0 933.858363858363 4.524388382980003 267.0 1.0 189.0 
482.00004784801195 7883.0 663.0 933.7924297924283 4.915288481207423 267.0 1.0 189.0 
484.00004784801195 7759.0 663.0 936.608058608058 4.990464479254415 269.0 1.0 190.0 
486.00004784801195 7290.0 639.0 936.5445665445653 4.584741815769848 261.0 1.0 190.0 
488.00004784801195 7497.0 644.0 936.5103785103771 4.562975997940955 267.0 1.0 190.0 
490.00004784801195 7944.0 665.0 933.8192918192906 4.518802819239709 271.0 1.0 189.0 
492.00004784801195 8010.0 668.0 933.8095238095227 4.642123121507076 267.0 1.0 189.0 
494.00004784801195 8066.0 671.0 933.7802197802183 4.623212485532718 265.0 1.0 189.0 
496.00004784801195 8078.0 672.0 936.6275946275942 3.725651293429015 264.0 1.0 190.0 
498.00004784801195 7864.0 667.0 936.6007326007319 3.94510742553068 264.0 1.0 190.0 
500.00004784801195 7247.0 644.0 936.6251526251523 3.5617984078575633 260.0 1.0 190.0 
502.00004784801195 7165.0 642.0 930.8034188034175 3.7229407405099333 259.0 1.0 188.0 
504.00004784801195 7331.0 645.0 928.0073260073261 3.848744752883458 258.0 1.0 187.0 
506.00004784801195 7499.0 656.0 919.768009768008 3.9757989318787232 262.0 1.0 184.0 
508.00004784801195 7497.0 656.0 922.5518925518916 4.150331379584429 261.0 1.0 185.0 
510.00004784801195 7496.0 656.0 922.5421245421232 4.366721128555344 261.0 1.0 185.0 
512.000047848012 7491.0 657.0 922.5518925518916 4.7517467722535685 261.0 1.0 185.0 
514.000047848012 7461.0 655.0 922.5665445665437 5.220172720803379 261.0 1.0 185.0 
516.000047848012 7526.0 656.0 919.78266178266 5.515382137510273 261.0 1.0 184.0 
518.000047848012 7597.0 658.0 917.0818070818079 5.091497913211759 258.0 2.0 182.0 
520.000047848012 7528.0 651.0 925.4139194139202 3.7891002881754545 249.0 4.0 183.0 
522.000047848012 7614.0 649.0 925.3186813186818 3.4678997458679266 251.0 4.0 183.0 
524.000047848012 7846.0 662.0 922.673992673992 3.5026025088173487 254.0 5.0 181.0 
526.000047848012 7915.0 664.0 917.0500610500617 3.094636708965719 258.0 4.0 180.0 
528.000047848012 7891.0 663.0 911.3748473748481 3.429233142102106 259.0 4.0 178.0 
530.000047848012 7857.0 662.0 911.3601953601965 3.928156828418985 259.0 4.0 178.0 
532.000047848012 7855.0 661.0 911.3650793650805 4.356901248536121 260.0 4.0 178.0 
534.000047848012 7693.0 658.0 914.2197802197819 4.615637724494242 258.0 4.0 179.0 
536.000047848012 7421.0 644.0 908.559218559217 4.368218961594876 253.0 4.0 177.0 
538.000047848012 7481.0 646.0 900.0439560439567 4.52734886726649 254.0 4.0 174.0 
540.000047848012 7919.0 662.0 897.3186813186824 4.68481148338444 263.0 4.0 173.0 
542.000047848012 7959.0 663.0 897.3211233211243 4.869057793192433 263.0 4.0 173.0 
544.000047848012 8016.0 663.0 897.3382173382186 4.639047729519712 259.0 4.0 173.0 
546.000047848012 7968.0 662.0 897.3797313797323 4.7307377494290055 255.0 4.0 173.0 
548.000047848012 7713.0 654.0 903.0305250305255 4.642583144107678 248.0 7.0 172.0 
550.000047848012 7560.0 649.0 902.9572649572644 4.088660747011702 246.0 6.0 173.0 
552.000047848012 7483.0 652.0 902.9670329670325 3.9058569569380084 248.0 5.0 174.0 
554.000047848012 7197.0 636.0 902.8253968253956 3.1211807573834673 240.0 5.0 174.0 
556.000047848012 7083.0 633.0 897.1892551892564 3.295286982095763 236.0 5.0 172.0 
558.000047848012 7474.0 645.0 897.2844932844945 3.5511300979851663 242.0 5.0 172.0 
560.000047848012 7539.0 650.0 897.3675213675233 3.9122029473805435 242.0 5.0 172.0 
562.000047848012 7521.0 650.0 897.355311355313 4.297744269032756 241.0 5.0 172.0 
564.000047848012 7605.0 654.0 897.3699633699653 4.347187694588454 240.0 5.0 172.0 
566.000047848012 7816.0 658.0 900.2124542124558 4.167715290458608 248.0 5.0 173.0 
568.000047848012 7934.0 664.0 900.1953601953616 3.9179641898982256 247.0 5.0 173.0 
570.000047848012 7595.0 650.0 903.0427350427356 3.7644608016486405 242.0 5.0 174.0 
572.000047848012 7524.0 647.0 902.8888888888878 3.9867059703465215 238.0 5.0 174.0 
574.000047848012 7679.0 652.0 902.908424908424 4.261187957359944 240.0 5.0 174.0 
576.000047848012 7959.0 663.0 902.9841269841268 4.527130782284192 245.0 5.0 174.0 
578.000047848012 7856.0 661.0 902.9792429792427 4.604267340328296 244.0 5.0 174.0 
580.000047848012 7847.0 658.0 902.9474969474962 4.08522122395017 249.0 5.0 174.0 
582.000047848012 7865.0 659.0 905.8241758241745 4.256301881098697 248.0 6.0 174.0 
584.000047848012 7917.0 661.0 905.7387057387053 3.9015479661331134 248.0 5.0 175.0 
586.000047848012 8006.0 665.0 905.7435897435893 4.3202427094367675 248.0 5.0 175.0 
588.000047848012 7650.0 654.0 905.8021978021965 4.159019807988456 241.0 5.0 175.0 
590.000047848012 7642.0 650.0 908.3980463980477 4.247427991951026 241.0 5.0 176.0 
592.000047848012 7782.0 651.0 911.2258852258869 3.901396871983907 244.0 5.0 177.0 
594.000047848012 8017.0 663.0 911.3870573870585 3.9093156787479875 248.0 5.0 177.0 
596.000047848012 7833.0 661.0 914.1929181929195 3.9197564659271547 241.0 5.0 178.0 
598.000047848012 7630.0 653.0 911.3553113553128 4.238910107067876 240.0 5.0 177.0 
600.000047848012 7578.0 650.0 911.3186813186824 4.483019147698804 237.0 5.0 177.0 
602.000047848012 7632.0 653.0 911.3308913308924 4.975562682288525 236.0 5.0 177.0 
604.000047848012 7428.0 651.0 908.498168498171 5.108716429191833 235.0 5.0 176.0 
606.000047848012 7185.0 640.0 908.4615384615408 4.753633429757111 228.0 5.0 176.0 
608.000047848012 7208.0 641.0 911.1746031746044 4.819569497074129 230.0 5.0 177.0 
610.000047848012 7420.0 647.0 908.5689865689848 4.698730491701078 234.0 7.0 174.0 
612.000047848012 7554.0 652.0 908.5616605616588 3.706005994342567 237.0 6.0 175.0 
614.000047848012 7801.0 657.0 908.588522588521 3.5312526061787692 241.0 2.0 179.0 
616.000047848012 7914.0 661.0 905.7777777777761 3.695867984509989 240.0 2.0 178.0 
618.000047848012 7983.0 663.0 908.5738705738695 3.48878741190764 242.0 2.0 179.0 
620.000047848012 7975.0 665.0 908.5543345543333 3.8256413013509483 242.0 2.0 179.0 
622.000047848012 7922.0 667.0 911.3577533577543 4.055782052951297 242.0 2.0 180.0 
624.000047848012 7582.0 652.0 908.4224664224674 3.8516202041782424 233.0 2.0 179.0 
626.000047848012 7512.0 650.0 908.315018315019 3.957472208940933 233.0 2.0 179.0 
628.000047848012 7938.0 662.0 908.466422466424 4.4113290463146635 240.0 2.0 179.0 
630.000047848012 7914.0 663.0 908.512820512819 4.512251463595176 239.0 2.0 179.0 
632.000047848012 7914.0 662.0 905.7069597069593 4.7282298649675445 238.0 2.0 178.0 
634.000047848012 7956.0 663.0 908.5177045177029 5.1814041786534855 239.0 2.0 179.0 
636.000047848012 7934.0 662.0 908.5177045177029 5.25684966189745 239.0 2.0 179.0 
638.000047848012 7970.0 663.0 911.387057387058 5.247439019708164 240.0 2.0 180.0 
640.000047848012 7604.0 652.0 911.394383394384 4.62998089158341 231.0 3.0 179.0 
642.000047848012 7490.0 648.0 916.847374847374 3.5042103599254317 234.0 1.0 183.0 
644.000047848012 7549.0 652.0 916.9108669108659 3.325133234381844 239.0 3.0 181.0 
646.000047848012 7665.0 657.0 916.9450549450543 3.3309982840594445 243.0 3.0 181.0 
648.000047848012 7590.0 654.0 916.9352869352861 3.330971846514818 243.0 3.0 181.0 
650.000047848012 7653.0 657.0 914.1196581196594 3.5696433336194495 243.0 4.0 179.0 
652.000047848012 7589.0 656.0 914.087912087913 3.895661126700265 243.0 4.0 179.0 
654.000047848012 7600.0 657.0 914.083028083029 4.300216629497744 243.0 4.0 179.0 
656.000047848012 7630.0 658.0 911.2551892551894 4.641130195348515 243.0 4.0 178.0 
658.000047848012 7195.0 645.0 908.4957264957286 4.511109258158964 236.0 4.0 177.0 
660.000047848012 7122.0 640.0 911.0744810744818 4.51680658886367 237.0 4.0 178.0 
662.000047848012 7282.0 642.0 911.0525030525038 4.7027996039446505 239.0 4.0 178.0 
664.0004436185086 7789.0 661.0 911.2796092796102 4.736915205340725 248.0 4.0 178.0 
#####################################################################
# End of data export. Simulation finished at: 2019-03-04T18:02+0000 #
#####################################################################
