#####################################################################
# Alchemist log file - simulation started at: 2019-03-06T19:49+0000 #
#####################################################################
# seed = 2.0, bandwidth = 4216.965034285822, accessPointCount = 72.92664737217109, baserange = 10.0
#
# The columns have the following meaning: 
# time neighbor_count[Sum] <value>@neighbor_count[Sum] packet_size[Mean] mean_delay[Mean] crowd[Sum] overcrowded[Sum] risk[Sum] 
0.0 NaN NaN NaN NaN NaN NaN NaN 
10.000384951543825 2.0 1.0 4986.934353091141 0.8100446744989815 1497.0 0.0 1497.0 
20.000384951543825 2.0 1.0 4986.921606118547 0.81573597139257 1497.0 0.0 1497.0 
30.000384951543825 2.0 1.0 4986.921606118547 0.81573597139257 1497.0 0.0 1497.0 
40.00038495154382 2.0 1.0 4986.921606118547 0.81573597139257 1497.0 0.0 1497.0 
50.00038495154382 2.0 1.0 4986.921606118547 0.81573597139257 1497.0 0.0 1497.0 
60.00038495154382 2.0 1.0 4986.921606118547 0.81573597139257 1497.0 0.0 1497.0 
70.00021346050522 2.0 1.0 400.0 0.40514505177353044 0.0 0.0 0.0 
80.00021346050522 2.0 1.0 400.0 0.40514505177353044 0.0 0.0 0.0 
90.00021346050522 2.0 1.0 400.0 0.40514505177353044 0.0 0.0 0.0 
100.00021346050522 4.0 2.0 400.0 0.40514505177353044 0.0 0.0 0.0 
110.00021346050522 4.0 2.0 400.0 2.6551450517735304 0.0 0.0 0.0 
120.00021346050522 4.0 2.0 400.0 7.65514505177353 0.0 0.0 0.0 
130.00021346050522 4.0 2.0 400.0 12.655145051773534 0.0 0.0 0.0 
140.00021346050522 2.0 1.0 400.0 0.40514505177353044 0.0 0.0 0.0 
150.00021346050522 2.0 1.0 400.0 0.40514505177353044 0.0 0.0 0.0 
160.00021346050522 2.0 1.0 400.0 0.40514505177353044 0.0 0.0 0.0 
170.00021346050522 2.0 1.0 400.0 0.40514505177353044 0.0 0.0 0.0 
180.00021346050522 2.0 1.0 400.0 0.40514505177353044 0.0 0.0 0.0 
190.00021346050522 2.0 1.0 400.0 0.40514505177353044 0.0 0.0 0.0 
200.00021346050522 2.0 1.0 400.0 0.40514505177353044 0.0 0.0 0.0 
210.00021346050522 2.0 1.0 400.0 0.40514505177353044 0.0 0.0 0.0 
220.00021346050522 2.0 1.0 400.0 0.40514505177353044 0.0 0.0 0.0 
230.00021346050522 2.0 1.0 400.0 0.40514505177353044 0.0 0.0 0.0 
240.00021346050522 2.0 1.0 400.0 0.40514505177353044 0.0 0.0 0.0 
250.00021346050522 2.0 1.0 400.0 0.40514505177353044 0.0 0.0 0.0 
260.0002134605052 2.0 1.0 400.0 0.40514505177355886 0.0 0.0 0.0 
270.0002134605052 2.0 1.0 400.0 0.40514505177355886 0.0 0.0 0.0 
280.0002134605052 2.0 1.0 400.0 0.40514505177355886 0.0 0.0 0.0 
290.0002134605052 2.0 1.0 400.0 0.40514505177355886 0.0 0.0 0.0 
300.0002134605052 2.0 1.0 400.0 0.40514505177355886 0.0 0.0 0.0 
310.0002134605052 2.0 1.0 400.0 0.40514505177355886 0.0 0.0 0.0 
320.0002134605052 2.0 1.0 400.0 0.40514505177355886 0.0 0.0 0.0 
330.0002134605052 2.0 1.0 400.0 0.40514505177355886 0.0 0.0 0.0 
340.0002134605052 2.0 1.0 400.0 0.40514505177355886 0.0 0.0 0.0 
350.0002134605052 2.0 1.0 400.0 0.40514505177355886 0.0 0.0 0.0 
360.0002134605052 2.0 1.0 400.0 0.40514505177355886 0.0 0.0 0.0 
370.0002134605052 2.0 1.0 400.0 0.40514505177355886 0.0 0.0 0.0 
380.0002134605052 2.0 1.0 400.0 0.40514505177355886 0.0 0.0 0.0 
390.0002134605052 2.0 1.0 400.0 0.40514505177355886 0.0 0.0 0.0 
400.0002134605052 2.0 1.0 400.0 0.40514505177355886 0.0 0.0 0.0 
410.0002134605052 2.0 1.0 400.0 0.40514505177355886 0.0 0.0 0.0 
420.0002134605052 2.0 1.0 400.0 0.40514505177355886 0.0 0.0 0.0 
430.0002134605052 2.0 1.0 400.0 0.40514505177355886 0.0 0.0 0.0 
440.0002134605052 2.0 1.0 400.0 0.40514505177355886 0.0 0.0 0.0 
450.0002134605052 2.0 1.0 400.0 0.40514505177355886 0.0 0.0 0.0 
460.0002134605052 2.0 1.0 400.0 0.40514505177355886 0.0 0.0 0.0 
470.0002134605052 2.0 1.0 400.0 0.40514505177355886 0.0 0.0 0.0 
480.0002134605052 4.0 2.0 400.0 0.40514505177355886 0.0 0.0 0.0 
490.0002134605052 4.0 2.0 400.0 0.40514505177355886 0.0 0.0 0.0 
500.0002134605052 4.0 2.0 400.0 2.655145051773559 0.0 0.0 0.0 
510.0002134605052 4.0 2.0 400.0 7.655145051773559 0.0 0.0 0.0 
520.0002134605053 4.0 2.0 400.0 12.655145051773502 0.0 0.0 0.0 
530.0002134605053 2.0 1.0 400.0 0.405145051773502 0.0 0.0 0.0 
540.0002134605053 2.0 1.0 400.0 0.405145051773502 0.0 0.0 0.0 
550.0002134605053 2.0 1.0 400.0 0.405145051773502 0.0 0.0 0.0 
560.0002134605053 2.0 1.0 400.0 0.405145051773502 0.0 0.0 0.0 
570.0002134605053 2.0 1.0 400.0 0.405145051773502 0.0 0.0 0.0 
580.0002134605053 2.0 1.0 400.0 0.405145051773502 0.0 0.0 0.0 
590.0002134605053 4.0 2.0 400.0 0.405145051773502 0.0 0.0 0.0 
600.0002134605053 4.0 2.0 400.0 2.405145051773502 0.0 0.0 0.0 
610.0002134605053 4.0 2.0 400.0 7.405145051773502 0.0 0.0 0.0 
620.0002134605053 4.0 2.0 400.0 12.405145051773502 0.0 0.0 0.0 
630.0002134605053 2.0 1.0 400.0 0.405145051773502 0.0 0.0 0.0 
640.0002134605053 2.0 1.0 400.0 0.405145051773502 0.0 0.0 0.0 
650.0002134605053 2.0 1.0 400.0 0.405145051773502 0.0 0.0 0.0 
660.0002134605053 2.0 1.0 400.0 0.405145051773502 0.0 0.0 0.0 
#####################################################################
# End of data export. Simulation finished at: 2019-03-06T19:56+0000 #
#####################################################################
