#####################################################################
# Alchemist log file - simulation started at: 2019-03-04T02:37+0000 #
#####################################################################
# seed = 0.0, bandwidth = 5623413.251903491, accessPointCount = 19.39227447486858, baserange = 1000.0
#
# The columns have the following meaning: 
# time neighbor_count[Sum] <value>@neighbor_count[Sum] packet_size[Mean] mean_delay[Mean] crowd[Sum] overcrowded[Sum] risk[Sum] 
0.0 NaN NaN NaN NaN NaN NaN NaN 
10.0001743494478 38715.0 642.0 4991.693931398417 0.4990623695905296 1497.0 0.0 1497.0 
20.000174349447796 39078.0 639.0 4991.678100263853 0.49798045275328795 1494.0 3.0 1494.0 
30.000174349447796 39156.0 640.0 4991.833773087072 0.4980662653903462 1494.0 3.0 1494.0 
40.000174349447796 39206.0 640.0 4991.609498680738 0.4985999799964684 1496.0 1.0 1496.0 
50.000174349447796 39230.0 640.0 4991.775725593668 0.4982584599800653 1494.0 3.0 1494.0 
60.000174349447796 39249.0 639.0 4991.704485488127 0.4985975125708502 1496.0 1.0 1496.0 
70.00040553626063 39327.0 638.0 1095.5408970976237 0.501842493305794 319.0 4.0 225.0 
80.00040553626063 39404.0 638.0 1104.8258575197901 0.4988793074701413 311.0 4.0 228.0 
90.00040553626063 39366.0 638.0 1104.7018469656978 0.49847730833925596 316.0 2.0 230.0 
100.00040553626063 39270.0 638.0 1107.8311345646418 0.4988945827898741 315.0 2.0 231.0 
110.00040553626063 39350.0 639.0 1107.696569920846 0.49877562321508395 315.0 3.0 230.0 
120.00040553626063 39356.0 639.0 1104.72295514512 0.4988995625834623 315.0 3.0 229.0 
130.00040553626064 39314.0 639.0 1101.6675461741443 0.49954075305693124 314.0 2.0 229.0 
140.00040553626064 39246.0 639.0 1101.72295514512 0.49863787642024315 311.0 4.0 227.0 
150.00040553626064 39183.0 639.0 1101.6992084432723 0.49956644132991307 312.0 2.0 229.0 
160.00040553626064 39110.0 639.0 1107.862796833775 0.49933667304994533 308.0 6.0 227.0 
170.00040553626064 39042.0 640.0 1113.8496042216327 0.4994033366430285 312.0 3.0 232.0 
180.00040553626064 39108.0 641.0 1107.8126649076485 0.4998538831501358 310.0 4.0 229.0 
190.00040553626064 38966.0 639.0 1113.854881266489 0.5031122134909487 306.0 4.0 231.0 
200.00040553626064 38841.0 638.0 1113.8839050131917 0.49909179938861103 307.0 4.0 231.0 
210.00040553626064 38751.0 638.0 1107.7783641160966 0.4997098326069031 306.0 4.0 229.0 
220.00040553626064 38660.0 639.0 1107.8100263852239 0.5010878886526855 306.0 4.0 229.0 
230.00040553626064 38595.0 639.0 1110.8733509234808 0.500126304579405 301.0 8.0 226.0 
240.00040553626064 38498.0 638.0 1110.8126649076487 0.49956817295376454 303.0 5.0 229.0 
250.00040553626064 38422.0 638.0 1104.6385224274397 0.5002640507623688 306.0 4.0 228.0 
260.00040553626064 37949.0 635.0 1104.7968337730883 0.5037425446275144 304.0 4.0 228.0 
270.00040553626064 37725.0 634.0 1101.6569920844317 0.49973004645011726 302.0 4.0 227.0 
280.00040553626064 37391.0 632.0 1107.762532981529 0.5042340540166396 303.0 4.0 229.0 
290.00040553626064 37143.0 631.0 1101.5725593667532 0.49996400795859164 300.0 4.0 227.0 
300.00040553626064 36875.0 630.0 1095.591029023745 0.5025975514121547 297.0 4.0 225.0 
310.00040553626064 36377.0 626.0 1092.5224274406319 0.5027583100454777 291.0 6.0 222.0 
320.00040553626064 36040.0 624.0 1092.6437994722962 0.505624398299143 289.0 6.0 222.0 
330.00040553626064 35786.0 623.0 1086.4432717678076 0.4998819344258755 289.0 5.0 221.0 
340.00040553626064 35570.0 622.0 1074.2691292876002 0.5018169651159861 288.0 4.0 218.0 
350.00040553626064 35354.0 622.0 1074.3166226912929 0.5046265076956724 288.0 8.0 214.0 
360.00040553626064 35385.0 622.0 1083.4327176781012 0.5003938860969612 287.0 10.0 215.0 
370.00040553626064 35269.0 621.0 1074.2875989445924 0.505567490767478 294.0 3.0 219.0 
380.00040553626064 35090.0 620.0 1077.2612137203173 0.5088066472786695 290.0 9.0 214.0 
390.00040553626064 34807.0 618.0 1071.2875989445924 0.5040614883551601 288.0 9.0 212.0 
400.00040553626064 34590.0 616.0 1068.237467018469 0.4989904316620553 296.0 2.0 218.0 
410.00040553626064 34387.0 614.0 1074.2691292876004 0.49969235968375847 296.0 3.0 219.0 
420.00040553626064 34375.0 615.0 1068.2480211081797 0.49924497215050667 294.0 4.0 216.0 
430.00040553626064 34373.0 616.0 1053.0844327176792 0.49853989577511043 292.0 3.0 212.0 
440.00040553626064 34314.0 615.0 1056.0448548812674 0.503287294829068 288.0 8.0 208.0 
450.00040553626064 34269.0 615.0 1046.9340369393121 0.4995202604985759 293.0 4.0 209.0 
460.00040553626064 34232.0 615.0 1050.0606860158323 0.49881024985097483 287.0 7.0 207.0 
470.00040553626064 34175.0 614.0 1050.0079155672831 0.4990609592426979 292.0 2.0 212.0 
480.00040553626064 34021.0 613.0 1040.8733509234833 0.49953638890216073 289.0 2.0 209.0 
490.00040553626064 33984.0 613.0 1019.6253298153041 0.4997112926375537 288.0 2.0 202.0 
500.00040553626064 34050.0 614.0 1016.620052770448 0.5040158364181249 279.0 6.0 197.0 
510.00040553626064 33912.0 613.0 1016.5646437994719 0.4985141646177668 285.0 4.0 199.0 
520.000351787878 34024.0 615.0 1001.364116094987 0.5086699376273182 284.0 5.0 193.0 
530.000351787878 33959.0 613.0 995.3641160949867 0.49820100586790494 285.0 5.0 191.0 
540.000351787878 33971.0 612.0 1007.4775725593671 0.5071769750866897 286.0 3.0 197.0 
550.000351787878 34038.0 613.0 1004.4406332453829 0.4984497112585022 285.0 5.0 194.0 
560.000351787878 34156.0 613.0 1001.3614775725599 0.498914556945383 285.0 3.0 195.0 
570.0004055362606 33972.0 612.0 1016.6358839050133 0.4991733479916825 287.0 2.0 201.0 
580.0004055362606 33938.0 612.0 1019.6332453825848 0.4998527387396105 289.0 3.0 201.0 
590.0004055362606 33740.0 610.0 1022.6253298153041 0.49897394526053646 287.0 3.0 202.0 
600.0004055362606 33681.0 610.0 1028.6781002638525 0.4987394638669984 293.0 2.0 205.0 
610.0004055362606 33609.0 610.0 1034.7493403693925 0.4990029318980278 294.0 2.0 207.0 
620.0004055362606 33701.0 611.0 1031.7124010554076 0.4989985587556714 295.0 2.0 206.0 
630.0004055362606 33562.0 610.0 1034.7810026385228 0.5014336963059144 292.0 3.0 206.0 
640.0004055362606 33344.0 609.0 1034.8416886543532 0.49902275567062493 292.0 2.0 207.0 
650.0004055362606 33284.0 609.0 1034.788918205804 0.4992001410424643 286.0 3.0 206.0 
660.0004055362606 33405.0 611.0 1037.8073878627958 0.5034584421957287 287.0 3.0 207.0 
#####################################################################
# End of data export. Simulation finished at: 2019-03-04T03:05+0000 #
#####################################################################
