#####################################################################
# Alchemist log file - simulation started at: 2019-03-08T16:10+0000 #
#####################################################################
# seed = 3.0, bandwidth = 1000.0, accessPointCount = 531.8295896944988, baserange = 177.82794100389228
#
# The columns have the following meaning: 
# time neighbor_count[Sum] <value>@neighbor_count[Sum] packet_size[Mean] mean_delay[Mean] crowd[Sum] overcrowded[Sum] risk[Sum] 
0.0 NaN NaN NaN NaN NaN NaN NaN 
2.0005923698108097 NaN NaN 4981.715976331361 NaN 1497.0 0.0 1497.0 
4.00059236981081 NaN NaN 4981.715976331361 NaN 1497.0 0.0 1497.0 
6.000084666035003 108.0 74.0 4981.74358974359 0.3526673179143367 1497.0 0.0 1497.0 
8.00059236981081 204.0 136.0 4982.151873767259 2.0303810720195616 1497.0 0.0 1497.0 
10.000180848920783 206.0 137.0 4982.065088757397 3.9903479370749286 1497.0 0.0 1497.0 
12.00059236981081 471.0 289.0 4982.406311637081 1.2634960363939387 1497.0 0.0 1497.0 
14.00059236981081 471.0 289.0 4982.222879684418 3.263496036393939 1497.0 0.0 1497.0 
16.000084666035004 625.0 355.0 4982.287968441815 3.2081898513073095 1497.0 0.0 1497.0 
18.00059236981081 749.0 417.0 4982.913214990138 3.9672394724017725 1497.0 0.0 1497.0 
20.00018084892078 749.0 417.0 4982.767258382643 5.951177696339997 1497.0 0.0 1497.0 
22.00059236981081 1076.0 520.0 4983.191321499014 2.8509724877261453 1497.0 0.0 1497.0 
24.00059236981081 1076.0 520.0 4982.927021696252 4.743299285111766 1497.0 0.0 1497.0 
26.000084666035004 1149.0 541.0 4982.919132149901 5.437712487293359 1497.0 0.0 1497.0 
28.00059236981081 1238.0 562.0 4983.22090729783 6.430887354109245 1497.0 0.0 1497.0 
30.00018084892078 1238.0 562.0 4983.299802761341 8.33198502852785 1497.0 0.0 1497.0 
32.00059236981081 1558.0 632.0 4983.6863905325445 4.426426329850923 1497.0 0.0 1497.0 
34.00059236981081 1558.0 632.0 4983.613412228797 6.29169299651759 1497.0 0.0 1497.0 
36.00008466603501 1659.0 656.0 4983.5187376725835 7.024055454961245 1497.0 0.0 1497.0 
38.00059236981081 1751.0 671.0 4983.723865877712 7.962475951851481 1497.0 0.0 1497.0 
40.00018084892078 1751.0 671.0 4983.830374753452 9.86334125797393 1497.0 0.0 1497.0 
42.00059236981081 1984.0 705.0 4984.080867850099 6.671585738124971 1497.0 0.0 1497.0 
44.00059236981081 1984.0 705.0 4984.041420118343 8.451603709883635 1497.0 0.0 1497.0 
46.00008466603501 2081.0 715.0 4983.968441814595 8.159872007942644 1497.0 0.0 1497.0 
48.00059236981081 2172.0 723.0 4984.07100591716 8.500980038037977 1497.0 0.0 1497.0 
50.00018084892078 2172.0 723.0 4984.140039447731 10.385105194483533 1497.0 0.0 1497.0 
52.00059236981081 2254.0 736.0 4984.355029585799 7.347509557370997 1497.0 0.0 1497.0 
54.00059236981081 2254.0 736.0 4984.171597633136 9.1306814000211 1497.0 0.0 1497.0 
56.00008466603501 2307.0 738.0 4984.1893491124265 9.283674569880933 1497.0 0.0 1497.0 
58.00059236981081 2311.0 740.0 4983.974358974359 9.845543093874253 1497.0 0.0 1497.0 
60.00018084892078 2313.0 741.0 4983.974358974359 11.745330291566534 1497.0 0.0 1497.0 
62.00000250614989 2441.0 758.0 570.3293885601568 5.867402391254235 341.0 0.0 75.0 
64.0000025061499 2441.0 758.0 570.1558185404363 6.564645663237875 311.0 0.0 75.0 
66.0000025061499 2528.0 764.0 595.1518737672577 6.572404115542037 294.0 0.0 86.0 
68.0000025061499 2625.0 764.0 615.3471400394492 6.138646813380587 271.0 0.0 95.0 
70.0000025061499 2633.0 766.0 615.3293885601588 6.813679409680208 257.0 0.0 95.0 
72.0000025061499 2767.0 794.0 656.3964497041449 4.8752038650957195 237.0 0.0 113.0 
74.0000025061499 2767.0 794.0 656.2721893491139 5.479001024376594 231.0 0.0 113.0 
76.0000025061499 2845.0 809.0 660.9526627218967 4.884492916444721 224.0 0.0 115.0 
78.0000025061499 2875.0 809.0 669.9151873767257 4.225409349875483 212.0 0.0 119.0 
80.0000025061499 2875.0 809.0 669.8875739644999 4.689403532630267 205.0 0.0 119.0 
82.0000025061499 3006.0 818.0 697.1242603550318 3.069095419698733 200.0 0.0 131.0 
84.0000025061499 3006.0 818.0 697.0374753451711 3.515005501645773 186.0 0.0 131.0 
86.0000025061499 2934.0 814.0 697.0631163708073 3.415333171273285 176.0 0.0 131.0 
88.0000025061499 2880.0 805.0 697.0650887573939 3.561327088728886 176.0 0.0 131.0 
90.0000025061499 2888.0 806.0 697.0453648915167 3.9226150575478784 175.0 0.0 131.0 
92.0000025061499 3203.0 838.0 724.376725838268 3.4066914365309393 190.0 0.0 143.0 
94.0000025061499 3194.0 835.0 724.165680473369 3.6734820488536197 185.0 0.0 143.0 
96.0000025061499 3177.0 835.0 726.4102564102598 3.518304652515867 186.0 0.0 144.0 
98.0000025061499 3146.0 841.0 726.5009861932896 3.5823703766735258 189.0 0.0 144.0 
100.0000025061499 3151.0 841.0 726.4792899408304 3.9415376234817243 186.0 0.0 144.0 
102.0000025061499 2923.0 815.0 726.4812623274199 3.0628999033540136 175.0 0.0 144.0 
104.0000025061499 2922.0 813.0 726.2859960552244 3.1287889847513344 175.0 0.0 144.0 
106.0000025061499 3157.0 836.0 746.7593688362888 2.768486116872245 184.0 0.0 153.0 
108.0000025061499 3325.0 835.0 757.9901380670653 2.513367452639942 188.0 0.0 158.0 
110.0000025061499 3353.0 838.0 757.9072978303699 2.751329286658167 188.0 0.0 158.0 
112.0000025061499 3741.0 866.0 792.0887573964538 2.347816509796037 206.0 0.0 173.0 
114.0000025061499 3747.0 868.0 791.8915187376682 2.669388138986616 204.0 0.0 173.0 
116.0000025061499 4113.0 894.0 821.5877712031522 2.6044028950820715 220.0 0.0 186.0 
118.0000025061499 4240.0 895.0 835.0946745562076 2.8514094956488925 224.0 0.0 192.0 
120.0000025061499 4271.0 898.0 839.5857988165623 3.05313700953137 229.0 0.0 194.0 
122.0000025061499 4317.0 900.0 839.7317554240661 2.863881770081382 229.0 0.0 194.0 
124.0000025061499 4343.0 899.0 842.0 3.1658938221268946 231.0 0.0 195.0 
126.0000025061499 4668.0 924.0 866.9901380670672 3.1352918256314783 245.0 0.0 206.0 
128.00000250614988 4820.0 923.0 873.8757396449661 3.1905617254471825 251.0 0.0 209.0 
130.0000025061499 4833.0 923.0 873.7416173569975 3.63958332539323 249.0 0.0 209.0 
132.0000025061499 5111.0 945.0 873.8836291913238 3.658393989006272 251.0 0.0 209.0 
134.0000025061499 5136.0 946.0 873.891518737667 4.096756507565675 251.0 0.0 209.0 
136.0000025061499 5048.0 935.0 874.047337278103 4.0271348016825 259.0 0.0 209.0 
138.0000025061499 5066.0 944.0 874.0177514792912 4.0475289187594585 263.0 0.0 209.0 
140.0000025061499 5048.0 942.0 871.7199211045435 4.363795906506001 261.0 0.0 208.0 
142.0000025061499 4751.0 912.0 871.7554240631101 4.058343131480561 261.0 0.0 208.0 
144.0000025061499 4745.0 911.0 871.6331360946796 4.211766235946015 261.0 0.0 208.0 
146.0000025061499 4427.0 889.0 876.0355029585816 3.8020822599302995 261.0 0.0 210.0 
148.0000025061499 4308.0 888.0 875.952662721897 3.9085178825365015 265.0 0.0 210.0 
150.0000025061499 4224.0 883.0 880.536489151869 3.874491314243855 267.0 0.0 212.0 
152.0000025061499 4245.0 890.0 887.4970414201224 3.6700089778818343 273.0 0.0 215.0 
154.0000025061499 4280.0 896.0 889.7100591715956 3.8691132265701946 272.0 0.0 216.0 
156.0000025061499 4177.0 892.0 889.6568047337232 3.493956688018467 273.0 0.0 216.0 
158.0000025061499 4126.0 898.0 889.5404339250472 3.507438062874589 271.0 0.0 216.0 
160.0000025061499 4162.0 902.0 889.5069033530558 3.7008257850215447 272.0 0.0 216.0 
162.0000025061499 4262.0 909.0 925.8599605522679 3.2914258841522037 280.0 0.0 232.0 
164.0000025061499 4257.0 907.0 925.66272189349 3.5570326562651218 282.0 0.0 232.0 
166.0000025061499 4285.0 915.0 939.284023668638 3.343700903687623 283.0 0.0 238.0 
168.0000025061499 4328.0 913.0 941.644970414199 3.1185350539265384 288.0 0.0 239.0 
170.0000025061499 4336.0 913.0 941.412228796845 3.444925710370596 295.0 0.0 239.0 
172.0000025061499 4358.0 914.0 939.2011834319505 3.218761523458603 295.0 0.0 238.0 
174.0000025061499 4386.0 915.0 936.8994082840214 3.4178788368593 297.0 0.0 237.0 
176.0000025061499 4397.0 918.0 936.8639053254464 3.543119258722745 297.0 0.0 237.0 
178.0000025061499 4428.0 920.0 934.6153846153891 4.001576957431139 296.0 0.0 236.0 
180.0000025061499 4399.0 918.0 934.6193293885566 4.1036754257491594 295.0 0.0 236.0 
182.0000025061499 4258.0 899.0 934.7751479289939 3.742591097362164 297.0 0.0 236.0 
184.0000025061499 4202.0 892.0 932.3017751479288 3.7670184401065994 295.0 0.0 235.0 
186.0000025061499 4132.0 882.0 929.9960552268203 3.275513776051319 291.0 0.0 234.0 
188.0000025061499 4104.0 880.0 930.0118343195255 3.2019185478121726 297.0 0.0 234.0 
190.0000025061499 4101.0 880.0 927.7061143984173 3.4146056040741866 295.0 0.0 233.0 
192.0000025061499 4059.0 884.0 927.8382642998095 3.2306094650990933 297.0 0.0 233.0 
194.0000025061499 4101.0 890.0 927.9171597633127 3.291520953688468 295.0 0.0 233.0 
196.0000025061499 4059.0 883.0 912.1282051282016 3.1307855228007915 289.0 0.0 226.0 
198.0000025061499 3987.0 884.0 912.1459566074923 2.9163810851958654 285.0 0.0 226.0 
200.0000025061499 3948.0 878.0 912.0236686390563 3.0086019956137497 279.0 0.0 226.0 
202.0000025061499 4077.0 892.0 893.9428007889496 2.912493939553271 278.0 0.0 218.0 
204.0000025061499 4105.0 897.0 882.6035502958525 2.99869355584042 266.0 0.0 213.0 
206.0000025061499 4124.0 898.0 850.9309664694266 3.0099700182484703 249.0 0.0 199.0 
208.0000025061499 4150.0 898.0 837.4023668639021 3.1143551559515337 242.0 0.0 193.0 
210.0000025061499 4157.0 900.0 837.3688362919089 3.4169684578540402 242.0 0.0 193.0 
212.0000025061499 4358.0 909.0 873.7652859960572 3.4946759635541027 253.0 0.0 209.0 
214.0000025061499 4376.0 911.0 869.1065088757438 3.702571128243747 253.0 0.0 207.0 
216.0000025061499 4422.0 920.0 855.5818540433969 3.242127667178868 252.0 0.0 201.0 
218.0000025061499 4476.0 916.0 875.9546351084847 3.539654737061912 260.0 0.0 210.0 
220.0000025061499 4551.0 920.0 869.1676528599585 3.9145705265439847 258.0 0.0 207.0 
222.0000025061499 4445.0 906.0 869.2761341222908 3.849569977651641 253.0 0.0 207.0 
224.0000025061499 4401.0 902.0 853.3629191321546 3.9297456677026794 246.0 0.0 200.0 
226.0000025061499 4474.0 908.0 862.3964497041463 3.620419137665418 250.0 0.0 204.0 
228.0000025061499 4396.0 898.0 860.1163708086762 3.318787193434566 252.0 0.0 203.0 
230.0000025061499 4380.0 898.0 859.9921104536434 3.744688860816327 250.0 0.0 203.0 
232.0000025061499 4293.0 897.0 860.1775147929051 3.5398118133165015 253.0 0.0 203.0 
234.0000025061499 4261.0 891.0 862.2682445759339 3.4726956726885465 255.0 0.0 204.0 
236.0000025061499 4362.0 905.0 866.7475345167672 3.316722848118335 258.0 0.0 206.0 
238.0000025061499 4573.0 914.0 896.2800788954575 3.2653998293269755 269.0 0.0 219.0 
240.0000025061499 4570.0 913.0 900.7534516765342 3.479227500063274 273.0 0.0 221.0 
242.0000025061499 4415.0 909.0 900.8619329388533 3.212785307587641 275.0 0.0 221.0 
244.0000025061499 4475.0 911.0 905.5660749506951 3.3709977697243305 274.0 0.0 223.0 
246.0000025061499 4501.0 912.0 912.3214990138059 3.269486809316111 272.0 0.0 226.0 
248.0000025061499 4781.0 931.0 935.1005917159782 3.3434899557734554 286.0 0.0 236.0 
250.0000025061499 4805.0 933.0 932.9013806706148 3.510986212594015 286.0 0.0 235.0 
252.0000025061499 4944.0 946.0 928.3826429980243 3.6956650561876083 293.0 0.0 233.0 
254.0000025061499 5056.0 950.0 926.157790927023 4.09816886835808 295.0 0.0 232.0 
256.0000025061499 4982.0 944.0 923.8796844181442 3.933789893126546 295.0 0.0 231.0 
258.0000025061499 5007.0 945.0 932.8520710059208 3.9096030588274995 298.0 0.0 235.0 
260.0000025061499 5056.0 949.0 941.8856015779105 4.1835651579059405 301.0 0.0 239.0 
262.0000025061499 5028.0 941.0 941.9861932938891 4.31255679895875 302.0 0.0 239.0 
264.0000025061499 5053.0 945.0 941.9664694280051 4.329860317179423 301.0 0.0 239.0 
266.0000025061499 4910.0 925.0 948.6942800788979 4.215361599841268 299.0 0.0 242.0 
268.0000025061499 4756.0 922.0 946.3984220907223 3.9556971461757673 302.0 0.0 241.0 
270.0000025061499 4762.0 926.0 946.3155818540414 4.1640828810253945 300.0 0.0 241.0 
272.0000025061499 4741.0 929.0 951.0098619329327 4.087880702857173 304.0 0.0 243.0 
274.0000025061499 4612.0 922.0 951.0571992110506 4.094094552412684 302.0 0.0 243.0 
276.0000025061499 4607.0 926.0 953.2406311637116 3.891435889681946 302.0 0.0 244.0 
278.0000025061499 4337.0 919.0 953.2366863905318 3.5995918041234596 300.0 0.0 244.0 
280.0000025061499 4268.0 917.0 953.1222879684423 3.704555716750124 299.0 0.0 244.0 
282.0000025061499 4214.0 910.0 953.1104536489114 3.4547299990759397 303.0 0.0 244.0 
284.0000025061499 4077.0 902.0 952.9428007889495 3.4406053204916027 299.0 0.0 244.0 
286.0000025061499 4069.0 902.0 959.6785009861941 3.4815372554594135 293.0 0.0 247.0 
288.0000025061499 4023.0 900.0 959.6153846153883 3.675815991302361 294.0 0.0 247.0 
290.0000025061499 3971.0 898.0 954.9960552268202 3.8827215124929766 288.0 0.0 245.0 
292.0000025061499 3937.0 894.0 955.0216962524692 3.6896855337880554 292.0 0.0 245.0 
294.0000025061499 3918.0 892.0 957.3412228796831 3.8080148982647852 289.0 0.0 246.0 
296.0000025061499 3934.0 895.0 952.729783037473 3.7726250070526004 286.0 0.0 244.0 
298.0000025061499 3853.0 889.0 952.7100591715956 3.7726065734571512 280.0 0.0 244.0 
300.0000025061499 3828.0 887.0 952.6193293885569 3.8098353198188386 280.0 0.0 244.0 
302.0000025061499 3729.0 871.0 934.6272189349083 3.658803432108879 274.0 0.0 236.0 
304.0000025061499 3719.0 872.0 932.1676528599617 3.4820810789434224 274.0 0.0 235.0 
306.0000025061499 3621.0 859.0 923.0966469427997 3.074428175930612 267.0 0.0 231.0 
308.0000025061499 3583.0 853.0 907.250493096643 2.6953204931615833 265.0 0.0 224.0 
310.0000025061499 3556.0 851.0 900.3609467455661 2.858666023550265 261.0 0.0 221.0 
312.0000025061499 3564.0 859.0 900.4852071005888 2.5847801296276356 264.0 0.0 221.0 
314.0000025061499 3606.0 861.0 893.6883629191268 2.782439004186795 260.0 0.0 218.0 
316.0000025061499 3696.0 872.0 889.1834319526595 2.718769350904778 262.0 0.0 216.0 
318.0000025061499 3958.0 891.0 923.3372781065098 2.65883501689337 278.0 0.0 231.0 
320.0000025061499 4015.0 897.0 923.2090729783089 2.9386887793070744 278.0 0.0 231.0 
322.0000025061499 4039.0 900.0 925.534516765282 3.2095499686583846 277.0 0.0 232.0 
324.0000025061499 4031.0 896.0 927.818540433926 3.2669895767228274 282.0 0.0 233.0 
326.0000025061499 4071.0 896.0 898.4102564102601 2.921081288499221 274.0 0.0 220.0 
328.0000025061499 4188.0 906.0 894.0828402366859 3.0635025323748817 273.0 0.0 218.0 
330.0000025061499 4339.0 918.0 896.3668639053213 3.330754605128609 278.0 0.0 219.0 
332.0000025061499 4377.0 922.0 885.0670611439833 3.4579072802129507 281.0 0.0 214.0 
334.0000025061499 4474.0 928.0 894.1834319526596 3.660070204746144 279.0 0.0 218.0 
336.0000025061499 4515.0 935.0 864.7830374753487 3.3980601160328203 265.0 0.0 205.0 
338.0000025061499 4551.0 939.0 860.3589743589775 3.4705923497994644 264.0 0.0 203.0 
340.0000025061499 4599.0 944.0 864.9270216962493 3.850659446714901 264.0 0.0 205.0 
342.0000025061499 4526.0 931.0 858.1834319526596 3.962357955355118 265.0 0.0 202.0 
344.0000025061499 4539.0 936.0 858.0216962524686 4.097845006009122 260.0 0.0 202.0 
346.0000025061499 4518.0 932.0 858.1203155818558 3.89825780404224 260.0 0.0 202.0 
348.0000025061499 4261.0 913.0 860.3076923076951 3.329867816860801 262.0 0.0 203.0 
350.0000025061499 4262.0 915.0 860.1696252465485 3.513753574513019 264.0 0.0 203.0 
352.0000025061499 4319.0 923.0 855.8007889546395 3.6056586751485837 269.0 0.0 201.0 
354.0000025061499 4260.0 920.0 858.1025641025652 3.817625929030954 266.0 0.0 202.0 
356.0000025061499 4237.0 923.0 858.013806706111 3.588527206883374 263.0 0.0 202.0 
358.0000025061499 4415.0 931.0 889.8264299802717 3.6520210032828953 273.0 0.0 216.0 
360.0000025061499 4300.0 926.0 891.9211045364931 3.670700216729148 271.0 0.0 217.0 
362.0000025061499 4358.0 933.0 887.3589743589766 3.748784620712315 275.0 0.0 215.0 
364.0000025061499 4249.0 925.0 885.0729783037513 3.7208600840674606 274.0 0.0 214.0 
366.0000025061499 4184.0 918.0 878.1420118343246 3.6053451683094795 272.0 0.0 211.0 
368.0000025061499 4164.0 919.0 878.1420118343246 3.5842310023539934 276.0 0.0 211.0 
370.0000025061499 4143.0 917.0 875.8284023668613 3.5909454491414756 276.0 0.0 210.0 
372.0000025061499 4194.0 924.0 878.1518737672574 3.586740180907127 278.0 0.0 211.0 
374.0000025061499 4209.0 924.0 880.433925049304 3.609436665425751 278.0 0.0 212.0 
376.0000025061499 4156.0 912.0 880.3747534516789 3.3942824842839365 273.0 0.0 212.0 
378.0000025061499 4408.0 923.0 909.8224852070932 3.436144736724487 279.0 0.0 225.0 
380.0000025061499 4401.0 922.0 909.6331360946803 3.60240161770739 275.0 0.0 225.0 
382.0000025061499 4384.0 918.0 909.8343195266312 3.329686007302042 278.0 0.0 225.0 
384.0000025061499 4376.0 917.0 909.7416173569974 3.6642581388292426 276.0 0.0 225.0 
386.0000025061499 4355.0 913.0 909.7455621301772 3.7988712343251985 276.0 0.0 225.0 
388.0000025061499 4138.0 902.0 909.8658777120334 3.4830348769932677 275.0 0.0 225.0 
390.0000025061499 4115.0 899.0 912.0276134122228 3.4342007247199966 275.0 0.0 226.0 
392.0000025061499 4113.0 904.0 912.0473372781058 3.0631413765896394 277.0 0.0 226.0 
394.0000025061499 4125.0 903.0 912.0571992110506 3.4269891785831677 280.0 0.0 226.0 
396.0000025061499 4229.0 912.0 912.0098619329325 3.3302937083332647 281.0 0.0 226.0 
398.0000025061499 4203.0 911.0 916.5798816568085 3.4225713456817983 283.0 0.0 228.0 
400.0000025061499 4287.0 921.0 916.6804733727805 3.421859511514449 284.0 0.0 228.0 
402.0000025061499 4271.0 919.0 914.280078895459 3.4457024349421173 281.0 0.0 227.0 
404.0000025061499 4216.0 914.0 914.2307692307667 3.4863041090089544 278.0 0.0 227.0 
406.0000025061499 4256.0 921.0 911.9506903353076 3.240116280943928 272.0 0.0 226.0 
408.0000025061499 4055.0 914.0 894.0650887573958 3.1916500744048824 266.0 0.0 218.0 
410.0000025061499 4128.0 922.0 893.9980276134118 3.30684478921863 266.0 0.0 218.0 
412.0000025061499 4081.0 916.0 882.7140039447759 3.2641521692941873 258.0 0.0 213.0 
414.0000025061499 4144.0 921.0 869.0394477317601 3.5904260734521283 256.0 0.0 207.0 
416.0000025061499 4205.0 926.0 869.0986193293853 3.4990850784643546 254.0 0.0 207.0 
418.0000025061499 4248.0 931.0 871.3629191321551 3.567537992188844 251.0 0.0 208.0 
420.0000025061499 4267.0 932.0 862.2721893491139 3.9879810239721274 252.0 0.0 204.0 
422.0000025061499 4199.0 918.0 862.3570019723882 3.871879426038703 252.0 0.0 204.0 
424.0000025061499 4392.0 930.0 891.8027613412287 4.0656678541931 264.0 0.0 217.0 
426.0000025061499 4369.0 926.0 894.0118343195244 3.7876431156283923 262.0 0.0 218.0 
428.0000025061499 4419.0 927.0 896.3826429980234 3.859493509621729 269.0 0.0 219.0 
430.0000025061499 4276.0 917.0 896.3057199211033 3.6187486607025954 272.0 0.0 219.0 
432.0000025061499 4366.0 928.0 896.272189349114 3.3333165926533708 281.0 0.0 219.0 
434.0000025061499 4423.0 931.0 889.5621301775176 3.6354888486466765 280.0 0.0 216.0 
436.0000025061499 4455.0 935.0 896.4063116370802 3.2242459508026675 281.0 0.0 219.0 
438.0000025061499 4403.0 933.0 894.1104536489098 3.3031764667321424 282.0 0.0 218.0 
440.0000025061499 4366.0 933.0 896.3885601577894 3.3390796039793704 296.0 0.0 219.0 
442.0000025061499 4469.0 942.0 896.4023668639016 3.6888862415348735 301.0 0.0 219.0 
444.0000025061499 4438.0 940.0 898.6627218934913 3.85257206522333 298.0 0.0 220.0 
446.0000025061499 4406.0 934.0 891.9092702169586 3.5852289377310167 293.0 0.0 217.0 
448.0000025061499 4329.0 929.0 873.8067061143931 3.7796043590737094 289.0 0.0 209.0 
450.0000025061499 4323.0 931.0 869.2228796844208 4.152535146144633 289.0 0.0 207.0 
452.0000025061499 4285.0 928.0 869.1755424063164 4.225898608847447 290.0 0.0 207.0 
454.0000025061499 4060.0 917.0 869.1479289940793 4.333516561491767 290.0 0.0 207.0 
456.0000025061499 4044.0 913.0 873.7238658777081 4.197095648864161 289.0 0.0 209.0 
458.0000025061499 3959.0 906.0 873.8264299802718 3.9467405695562308 284.0 0.0 209.0 
460.0000025061499 3927.0 904.0 873.7199211045429 4.071067902063609 282.0 0.0 209.0 
462.0000025061499 3861.0 894.0 873.7179487179537 3.7673073891490665 277.0 0.0 209.0 
464.0000025061499 3800.0 889.0 873.5522682445705 3.889500133318417 273.0 0.0 209.0 
466.0000025061499 3803.0 888.0 866.7475345167671 3.4735770397072647 264.0 0.0 206.0 
468.0000025061499 3791.0 888.0 846.3471400394545 3.2764792671231358 256.0 0.0 197.0 
470.0000025061499 3771.0 885.0 848.5956607495094 3.1286331873595437 252.0 0.0 198.0 
472.0000025061499 3765.0 892.0 848.6883629191271 2.828832025447226 249.0 0.0 198.0 
474.0000025061499 3767.0 889.0 848.6035502958529 2.9806396567988016 252.0 0.0 198.0 
476.0000025061499 3770.0 894.0 846.2800788954569 2.8867056426467266 249.0 0.0 197.0 
478.0000025061499 3864.0 901.0 859.9408284023602 3.1259776111755873 249.0 0.0 203.0 
480.0000025061499 4075.0 913.0 882.5424063116366 2.9000148238697463 256.0 0.0 213.0 
482.0000025061499 4094.0 915.0 882.5680473372706 3.0036615480298643 259.0 0.0 213.0 
484.0000025061499 4120.0 919.0 882.5621301775176 3.504292157804966 257.0 0.0 213.0 
486.0000025061499 4073.0 915.0 880.3076923076949 3.432696638131116 254.0 0.0 212.0 
488.0000025061499 4196.0 926.0 869.1992110453604 3.503054693662962 255.0 0.0 207.0 
490.0000025061499 4232.0 930.0 869.185404339249 3.6384446751155277 255.0 0.0 207.0 
492.0000025061499 4244.0 930.0 869.1873767258396 3.636723830444556 258.0 0.0 207.0 
494.0000025061499 4269.0 929.0 866.8619329388536 3.8910527578400855 257.0 0.0 206.0 
496.0000025061499 4241.0 930.0 866.952662721897 3.6373333086119004 259.0 0.0 206.0 
498.0000025061499 4213.0 925.0 869.1183431952658 3.526574435620809 257.0 0.0 207.0 
500.0000025061499 4148.0 917.0 869.1380670611466 3.6431702866757463 257.0 0.0 207.0 
502.0000025061499 4138.0 913.0 866.8934911242563 3.178088960713537 259.0 0.0 206.0 
504.0000025061499 4181.0 917.0 866.7948717948698 3.4871987222081375 257.0 0.0 206.0 
506.0000025061499 4173.0 916.0 864.540433925047 3.5887308360420334 253.0 0.0 205.0 
508.0000025061499 4271.0 922.0 882.7554240631098 3.536891320794491 267.0 0.0 213.0 
510.0000025061499 4183.0 912.0 887.2465483234646 3.3710308722276414 271.0 0.0 215.0 
512.0000025061499 4277.0 923.0 887.3234714003944 3.158602416378702 272.0 0.0 215.0 
514.0000025061498 4286.0 924.0 855.6252465483215 3.418068790628329 255.0 0.0 201.0 
516.0000025061498 4356.0 932.0 853.3944773175576 3.168489697168216 254.0 0.0 200.0 
518.0000025061498 4287.0 924.0 846.7238658777081 3.3656103674529416 250.0 0.0 197.0 
520.0000025061498 4239.0 919.0 844.4122287968482 3.7070681865125454 249.0 0.0 196.0 
522.0000025061498 4274.0 924.0 844.3806706114464 3.5232854445676036 252.0 0.0 196.0 
524.0000025061498 4248.0 922.0 835.3510848126194 3.582248463424741 248.0 0.0 192.0 
526.0000025061498 4270.0 923.0 835.3175542406276 3.206631289869219 241.0 0.0 192.0 
528.0000025061498 4325.0 927.0 835.3037475345153 3.493071475917771 243.0 0.0 192.0 
530.0000025061498 4674.0 949.0 873.8974358974347 3.6372191432644194 261.0 0.0 209.0 
532.0000025061498 4698.0 947.0 867.0611439842164 3.697595354443329 259.0 0.0 206.0 
534.0000025061498 4737.0 949.0 869.2702169625238 3.8907720007734383 263.0 0.0 207.0 
536.0000025061498 4785.0 953.0 864.7258382642971 3.722826062067157 266.0 0.0 205.0 
538.0000025061498 4649.0 940.0 871.5621301775177 3.763611161133424 266.0 0.0 208.0 
540.0000025061498 4530.0 941.0 871.540433925047 3.9861504122805287 265.0 0.0 208.0 
542.0000025061498 4442.0 932.0 869.3885601577894 3.7384000623141245 263.0 0.0 207.0 
544.0000025061498 4416.0 929.0 869.2287968441735 4.009471224859089 262.0 0.0 207.0 
546.0000025061498 4330.0 917.0 871.528599605525 3.6853263334142956 258.0 0.0 208.0 
548.0000025061498 4354.0 921.0 875.94477317554 3.8203369511445207 266.0 0.0 210.0 
550.0000025061498 4388.0 924.0 880.4911242603545 4.066593552128975 268.0 0.0 212.0 
552.0000025061498 4349.0 927.0 880.5976331360984 3.921439227236675 269.0 0.0 212.0 
554.0000025061498 4339.0 925.0 878.1854043392503 4.187039806638692 269.0 0.0 211.0 
556.0000025061498 4286.0 920.0 878.2366863905316 3.8421968912060147 266.0 0.0 211.0 
558.0000025061498 4279.0 918.0 878.1380670611463 3.796301009354431 268.0 0.0 211.0 
560.0000025061498 3945.0 897.0 878.0986193293853 3.6572650615897153 263.0 0.0 211.0 
562.0000025061498 3911.0 899.0 878.1479289940789 3.5041944455744516 266.0 0.0 211.0 
564.0000025061498 3865.0 896.0 880.3964497041476 3.425356354341875 265.0 0.0 212.0 
566.0000025061498 3838.0 891.0 880.3589743589766 3.4909634695703478 265.0 0.0 212.0 
568.0000025061498 3866.0 897.0 841.9072978303682 3.280019811979498 249.0 0.0 195.0 
570.0000025061498 3867.0 899.0 841.8875739645022 3.3530179031430993 249.0 0.0 195.0 
572.0000025061498 3877.0 901.0 844.1893491124291 3.1570710216358626 246.0 0.0 196.0 
574.0000025061498 3947.0 908.0 844.1203155818558 3.4482829152404255 250.0 0.0 196.0 
576.0000025061498 3987.0 912.0 844.1203155818558 3.428103547620933 255.0 0.0 196.0 
578.0000025061498 3944.0 907.0 846.4753451676538 3.3924203857630495 252.0 0.0 197.0 
580.0000025061498 3917.0 904.0 844.2051282051301 3.5065765508727402 248.0 0.0 196.0 
582.0000025061498 3908.0 899.0 844.1913214990175 3.197279847031635 245.0 0.0 196.0 
584.0000025061498 3895.0 898.0 844.0611439842156 3.403239454466555 246.0 0.0 196.0 
586.0000025061498 3863.0 894.0 844.0927021696318 3.4117268995117214 244.0 0.0 196.0 
588.0000025061498 3916.0 897.0 846.5049309664658 3.492892234793549 245.0 0.0 197.0 
590.0000025061498 3986.0 904.0 846.431952662729 3.543894983351663 245.0 0.0 197.0 
592.0000025061498 4002.0 907.0 841.9763313609412 3.225153917281468 243.0 0.0 195.0 
594.0000025061498 4188.0 921.0 860.128205128199 3.488017210437514 250.0 0.0 203.0 
596.0000025061498 4345.0 930.0 875.9723865877772 3.468992783396204 255.0 0.0 210.0 
598.0000025061498 4363.0 930.0 846.6114398422108 3.5947960894475144 241.0 0.0 197.0 
600.0000025061498 4356.0 928.0 848.8836291913235 3.5102045352278703 241.0 0.0 198.0 
602.0000025061498 4376.0 926.0 853.489151873765 3.2899887482476173 243.0 0.0 200.0 
604.0000025061498 4317.0 924.0 851.0473372781029 3.2953918148106274 243.0 0.0 199.0 
606.0000025061498 4342.0 926.0 853.3234714003963 3.537113800675258 245.0 0.0 200.0 
608.0000025061498 4366.0 925.0 848.8481262327426 3.6053860335970627 249.0 0.0 198.0 
610.0000025061498 4373.0 929.0 848.844181459563 3.8621729277083494 248.0 0.0 198.0 
612.0000025061498 4336.0 924.0 848.8658777120335 3.591983868194497 246.0 0.0 198.0 
614.0000025061498 4367.0 927.0 848.7712031558265 3.9270879658911695 245.0 0.0 198.0 
616.0000025061498 4332.0 923.0 848.7889546351017 3.997778466692488 244.0 0.0 198.0 
618.0000025061498 4296.0 921.0 846.5285996055258 4.06839726881092 243.0 0.0 197.0 
620.0000025061498 4276.0 918.0 808.035502958582 4.336024029959156 231.0 0.0 180.0 
622.0000025061498 4300.0 920.0 812.708086785006 4.003195772173774 233.0 0.0 182.0 
624.0000025061498 4142.0 904.0 814.8994082840251 3.914295500543543 234.0 0.0 183.0 
626.0000025061498 3978.0 896.0 814.8205128205185 3.646731036830578 232.0 0.0 183.0 
628.0000025061498 3901.0 893.0 812.5779092702193 3.377055041296198 233.0 0.0 182.0 
630.0000025061498 3872.0 888.0 814.6982248520742 3.537301750864056 233.0 0.0 183.0 
632.0000025061498 3847.0 889.0 817.0710059171628 3.277044486367295 238.0 0.0 184.0 
634.0000025061498 3855.0 886.0 819.2051282051307 3.01130239272047 240.0 0.0 185.0 
636.0000025061498 4050.0 901.0 846.3451676528658 2.646853016004163 258.0 0.0 197.0 
638.0000025061498 4059.0 902.0 846.4497041420049 2.8402535280232217 254.0 0.0 197.0 
640.0000025061498 4390.0 915.0 873.601577909278 3.033362492774137 270.0 0.0 209.0 
642.0000025061498 4546.0 928.0 873.7140039447763 3.096974725811956 270.0 0.0 209.0 
644.0000025061498 4603.0 932.0 873.7751479289917 3.201030027099352 269.0 0.0 209.0 
646.0000025061498 4657.0 936.0 876.0493096646921 3.361620598353021 268.0 0.0 210.0 
648.0000025061498 4718.0 940.0 876.0848126232743 3.613490416275199 269.0 0.0 210.0 
650.0000025061498 4742.0 940.0 878.3057199211039 3.882285411460257 265.0 0.0 211.0 
652.0000025061498 4753.0 941.0 873.8520710059211 3.747399249435012 263.0 0.0 209.0 
654.0000025061498 4716.0 939.0 873.8698224852121 3.690112740845278 261.0 0.0 209.0 
656.0000025061498 4714.0 938.0 876.0887573964541 3.6752322577200913 263.0 0.0 210.0 
658.0000025061498 4778.0 941.0 880.6449704142013 4.01683895518674 262.0 0.0 212.0 
660.0000025061498 4806.0 945.0 882.913214990136 4.214022597703968 262.0 0.0 213.0 
662.0000025061498 4774.0 935.0 889.6785009861941 4.0415037570276 264.0 0.0 216.0 
664.0000025061498 4815.0 938.0 889.6114398422108 4.172038533829262 261.0 0.0 216.0 
#####################################################################
# End of data export. Simulation finished at: 2019-03-08T16:21+0000 #
#####################################################################
