#####################################################################
# Alchemist log file - simulation started at: 2019-03-10T18:12+0000 #
#####################################################################
# seed = 4.0, bandwidth = 17782.79410038923, accessPointCount = 72.92664737217109, baserange = 1000.0
#
# The columns have the following meaning: 
# time neighbor_count[Sum] <value>@neighbor_count[Sum] packet_size[Mean] mean_delay[Mean] crowd[Sum] overcrowded[Sum] risk[Sum] 
0.0 NaN NaN NaN NaN NaN NaN NaN 
2.0000042429967895 76.0 33.0 4986.903760356915 0.29729504406619106 1497.0 0.0 1497.0 
4.0000042429967895 676.0 196.0 4987.0312300828555 0.7679550864546245 1497.0 0.0 1497.0 
6.0000042429967895 2138.0 377.0 4987.38304652645 1.3151132722035586 1497.0 0.0 1497.0 
8.00000424299679 4029.0 481.0 4987.742511153601 1.761553964607294 1497.0 0.0 1497.0 
10.00000424299679 7254.0 644.0 4988.571064372211 1.883258964084053 1497.0 0.0 1497.0 
12.00000424299679 8835.0 679.0 4988.950924155513 2.7614770088211555 1497.0 0.0 1497.0 
14.00000424299679 11367.0 772.0 4989.575525812619 2.974398456766587 1497.0 0.0 1497.0 
16.000004242996788 11622.0 777.0 4989.644359464627 3.7148671503566106 1497.0 0.0 1497.0 
18.000004242996788 12381.0 788.0 4989.356277884002 4.004003787073509 1497.0 0.0 1497.0 
20.000004242996788 18699.0 910.0 4990.342893562779 3.8959776152193055 1497.0 0.0 1497.0 
22.000004242996788 18881.0 911.0 4990.427023581899 4.26293339031842 1497.0 0.0 1497.0 
24.000004242996788 18881.0 911.0 4990.353091140854 5.164643308624085 1497.0 0.0 1497.0 
26.000004242996788 18881.0 911.0 4990.388782664118 5.505146685399353 1497.0 0.0 1497.0 
28.000004242996788 18727.0 883.0 4990.164435946463 5.592784026945582 1497.0 0.0 1497.0 
30.000004242996788 18669.0 878.0 4990.174633524538 6.5052475366687315 1497.0 0.0 1497.0 
32.00000424299679 19088.0 866.0 4990.291905672403 5.896875333394009 1496.0 1.0 1496.0 
34.00000424299679 25730.0 964.0 4990.926704907584 4.6653043525983495 1494.0 3.0 1494.0 
36.00000424299679 40606.0 1080.0 4991.987253027406 3.632263265247779 1493.0 4.0 1493.0 
38.00000424299679 44627.0 1215.0 4993.111536010198 3.9568534201141086 1493.0 4.0 1493.0 
40.00000424299679 44694.0 1215.0 4993.111536010198 4.154196012559454 1494.0 3.0 1494.0 
42.00000424299679 44631.0 1212.0 4993.397068196304 4.253428115336369 1495.0 2.0 1495.0 
44.00000424299679 44382.0 1209.0 4993.323135755258 5.000693314006011 1495.0 2.0 1495.0 
46.00000424299679 44382.0 1209.0 4993.208413001912 5.283567758344359 1496.0 1.0 1496.0 
48.00000424299679 44519.0 1213.0 4993.1497769279795 6.386764130584526 1496.0 1.0 1496.0 
50.00000424299679 44700.0 1216.0 4992.775015933716 6.223852276333222 1495.0 2.0 1495.0 
52.00000424299679 44823.0 1218.0 4992.7316762268965 7.096050282630244 1495.0 2.0 1495.0 
54.00000424299679 44790.0 1218.0 4992.601657106437 7.0304045376193836 1495.0 2.0 1495.0 
56.00000424299679 38496.0 1147.0 4992.397705544933 6.808749633558745 1495.0 2.0 1495.0 
58.00000424299679 28242.0 1127.0 4991.813894200128 6.820902553093282 1495.0 2.0 1495.0 
60.00000424299679 23812.0 1024.0 4988.165710643722 5.62149095568802 1495.0 2.0 1495.0 
62.00000424299679 29297.0 1076.0 1367.4238368387512 4.692887225773799 672.0 0.0 330.0 
64.0000042429968 29864.0 1083.0 1367.6150414276597 4.247260095548474 607.0 0.0 330.0 
66.0000042429968 31032.0 1096.0 1367.68132568515 4.142590524383933 571.0 0.0 330.0 
68.0000042429968 31169.0 1097.0 1367.660930528999 4.287058499656895 542.0 1.0 329.0 
70.0000042429968 32329.0 1094.0 1367.7629063097513 2.8617918002554203 506.0 1.0 329.0 
72.0000042429968 44639.0 1212.0 1371.4875717017196 2.521498606643048 504.0 1.0 330.0 
74.0000042429968 44541.0 1212.0 1371.497769279795 2.6689221115502466 493.0 2.0 329.0 
76.0000042429968 44714.0 1216.0 1371.5258126195035 3.1512970742389608 490.0 2.0 329.0 
78.0000042429968 44948.0 1220.0 1377.4047163798607 3.5130702381364385 488.0 1.0 332.0 
80.0000042429968 44948.0 1220.0 1383.2402804333965 3.8054931177660185 486.0 1.0 334.0 
82.0000042429968 44831.0 1221.0 1383.0516252390048 3.456845647339936 482.0 2.0 333.0 
84.0000042429968 40249.0 1167.0 1382.9139579349908 3.0105221058727354 466.0 2.0 333.0 
86.0000042429968 39811.0 1163.0 1382.4882090503493 2.9821250107860506 453.0 5.0 330.0 
88.0000042429968 39732.0 1170.0 1382.5646908859137 2.7431559934742507 454.0 4.0 331.0 
90.0000042429968 43861.0 1208.0 1382.8808158062463 2.9592829151017837 461.0 4.0 331.0 
92.0000042429968 44222.0 1213.0 1382.8910133843217 3.3818778110574903 462.0 4.0 331.0 
94.0000042429968 35380.0 1147.0 1383.0261312938171 2.2426572543588787 449.0 5.0 330.0 
96.0000042429968 35398.0 1139.0 1382.2409177820268 2.3570430269561036 448.0 5.0 330.0 
98.0000042429968 35472.0 1140.0 1382.2128744423194 2.395462551256137 448.0 5.0 330.0 
100.0000042429968 35474.0 1139.0 1385.1905672402813 2.595683010393132 447.0 6.0 330.0 
102.0000042429968 35454.0 1139.0 1385.1217335882732 2.5272094259946125 446.0 7.0 329.0 
104.0000042429968 35259.0 1137.0 1385.0223072020387 2.248434633103656 443.0 8.0 328.0 
106.0000042429968 43476.0 1172.0 1388.484384958571 2.31933491695691 456.0 9.0 328.0 
108.0000042429968 45041.0 1221.0 1388.7342256214135 2.694018393746062 455.0 9.0 328.0 
110.0000042429968 44817.0 1220.0 1388.7469725940098 2.8323777394198033 455.0 9.0 328.0 
112.0000042429968 41074.0 1176.0 1391.5869980879556 2.6247884651879 448.0 10.0 328.0 
114.0000042429968 40602.0 1172.0 1391.1383046526441 2.8100085474313743 444.0 10.0 328.0 
116.0000042429968 40276.0 1172.0 1391.1688973868695 2.689440436198247 445.0 10.0 328.0 
118.0000042429968 43832.0 1207.0 1394.5646908859137 2.6265334578276707 454.0 10.0 329.0 
120.0000042429968 44159.0 1211.0 1391.5818992989155 3.159209819509264 455.0 10.0 328.0 
122.0000042429968 45133.0 1221.0 1391.7399617590806 3.324177229384744 455.0 10.0 328.0 
124.0000042429968 45185.0 1221.0 1391.7985978330153 3.1891184814466613 454.0 11.0 327.0 
126.0000042429968 45188.0 1221.0 1391.8266411727207 3.271033488875034 454.0 11.0 327.0 
128.0000042429968 40887.0 1221.0 1391.8342893562767 3.304992932375787 453.0 11.0 327.0 
130.0000042429968 35293.0 1136.0 1391.3626513702984 2.4459942059078927 445.0 11.0 327.0 
132.0000042429968 35293.0 1136.0 1391.110261312939 2.6995424033344864 442.0 11.0 327.0 
134.0000042429968 35267.0 1135.0 1388.1886551943924 2.6596905179076322 442.0 11.0 326.0 
136.0000042429968 35144.0 1134.0 1388.0994263862328 2.883886904167899 442.0 11.0 326.0 
138.0000042429968 34812.0 1132.0 1388.038240917781 2.782043387731428 441.0 11.0 326.0 
140.0000042429968 31107.0 1086.0 1384.950924155515 2.2031928881259053 435.0 10.0 326.0 
142.0000042429968 40359.0 1167.0 1388.6016571064365 2.357715148267307 444.0 10.0 327.0 
144.0000042429968 39849.0 1167.0 1388.5940089228798 2.181845693579666 446.0 10.0 327.0 
146.0000042429968 43440.0 1202.0 1388.889738687061 1.7619335193102532 454.0 9.0 328.0 
148.0000042429968 43940.0 1209.0 1391.821542383685 2.1875691503395274 454.0 10.0 328.0 
150.0000042429968 44975.0 1219.0 1391.9082217973237 2.5766851950032215 452.0 12.0 326.0 
152.0000042429968 45125.0 1221.0 1383.1688973868697 2.7175673033840564 452.0 12.0 323.0 
154.0000042429968 45126.0 1222.0 1377.3562778840032 2.7126475266212284 449.0 13.0 320.0 
156.0000042429968 45129.0 1222.0 1377.3741236456326 3.0606226549842805 447.0 12.0 321.0 
158.0000042429968 45130.0 1222.0 1377.346080305927 3.5016195450637304 446.0 12.0 321.0 
160.0000042429968 45127.0 1222.0 1377.3741236456326 4.070928779399471 446.0 12.0 321.0 
162.0000042429968 45126.0 1222.0 1377.3435309114072 4.372897404291481 446.0 12.0 321.0 
164.0000042429968 36232.0 1172.0 1377.3333333333344 3.653522862142251 437.0 12.0 321.0 
166.0000042429968 35164.0 1138.0 1376.553218610579 3.0248580716812192 433.0 12.0 321.0 
168.0000042429968 31362.0 1091.0 1379.2249840662842 2.123163786485121 426.0 12.0 322.0 
170.0000042429968 30834.0 1088.0 1378.715105162523 1.8426841866339052 423.0 12.0 322.0 
172.0000042429968 30147.0 1086.0 1378.7202039515637 1.6010013720465472 424.0 12.0 322.0 
174.0000042429968 33510.0 1118.0 1375.9847036328877 1.6765209249425645 431.0 12.0 321.0 
176.0000042429968 40100.0 1135.0 1382.128744423199 1.8255898444719096 451.0 11.0 324.0 
178.0000042429968 44247.0 1215.0 1388.6016571064363 2.026006557242632 455.0 11.0 326.0 
180.0000042429968 44438.0 1218.0 1388.5634161886549 2.497824828551947 456.0 11.0 326.0 
182.0000042429968 44450.0 1219.0 1388.5481198215425 2.816486844302348 457.0 11.0 326.0 
184.0000042429968 44585.0 1220.0 1388.6118546845137 3.1514448949865304 457.0 11.0 326.0 
186.0000042429968 44867.0 1223.0 1397.5398342893561 3.0448997018095434 459.0 10.0 330.0 
188.0000042429968 44868.0 1223.0 1385.8559592096888 2.8407046087352286 459.0 8.0 328.0 
190.0000042429968 44777.0 1223.0 1385.7284894837464 3.211462049523085 456.0 10.0 326.0 
192.0000042429968 44723.0 1222.0 1385.6673040152964 3.6870723132350975 456.0 10.0 326.0 
194.0000042429968 44614.0 1222.0 1385.6494582536645 3.995329060868393 456.0 10.0 326.0 
196.0000042429968 40836.0 1177.0 1385.5653282345438 3.840282866012969 450.0 10.0 326.0 
198.0000042429968 38438.0 1174.0 1382.2613129381757 3.887687596931475 446.0 10.0 325.0 
200.0000042429968 30544.0 1091.0 1382.0854047163805 2.3013250280757025 441.0 10.0 325.0 
202.0000042429968 33707.0 1120.0 1384.9024856596561 1.9605062400545012 446.0 10.0 326.0 
204.0000042429968 34054.0 1125.0 1384.8540471637998 2.2266127518348946 443.0 10.0 326.0 
206.0000042429968 34798.0 1133.0 1384.9560229445522 2.437587185821503 442.0 10.0 326.0 
208.0000042429968 34536.0 1130.0 1384.915232632249 2.1090863226046284 440.0 10.0 326.0 
210.0000042429968 35247.0 1131.0 1385.0019120458892 1.8495051952200943 442.0 10.0 326.0 
212.0000042429968 43113.0 1212.0 1385.8253664754634 2.1118428732367343 451.0 10.0 326.0 
214.0000042429968 43579.0 1217.0 1385.8483110261327 2.5025826520532766 448.0 13.0 323.0 
216.0000042429968 43588.0 1218.0 1385.8202676864232 2.8453993959950705 450.0 12.0 324.0 
218.0000042429968 43679.0 1219.0 1385.7998725302732 3.0409147676165507 448.0 13.0 323.0 
220.0000042429968 43883.0 1222.0 1385.8891013384327 3.163830239677414 448.0 14.0 322.0 
222.0000042429968 43770.0 1222.0 1383.0439770554478 3.5575175934182695 446.0 15.0 320.0 
224.0000042429968 40079.0 1178.0 1377.080943275973 3.4283711540517734 440.0 15.0 318.0 
226.0000042429968 39616.0 1175.0 1379.6685787125546 3.4950108781710125 433.0 15.0 319.0 
228.0000042429968 39088.0 1174.0 1382.6156787762916 3.454691089890695 436.0 15.0 320.0 
230.0000042429968 42677.0 1209.0 1382.9216061185487 3.0246806684655594 449.0 11.0 324.0 
232.0000042429968 42987.0 1213.0 1383.0006373486308 3.2711376856452334 449.0 13.0 322.0 
234.0000042429968 35493.0 1148.0 1382.9241555130643 2.28959350014999 448.0 12.0 323.0 
236.0000042429968 35068.0 1143.0 1382.2791586998098 2.021327869635549 443.0 10.0 325.0 
238.0000042429968 34981.0 1139.0 1382.1108986615668 2.2970888710378876 442.0 10.0 325.0 
240.0000042429968 34914.0 1138.0 1379.1739961759101 2.5451370060272387 437.0 10.0 324.0 
242.0000042429968 34787.0 1135.0 1376.2702358189915 2.4435983515170543 438.0 10.0 323.0 
244.0000042429968 35264.0 1134.0 1373.2492033142116 2.6755804069875833 434.0 11.0 321.0 
246.0000042429968 42671.0 1211.0 1377.0885914595292 2.784899232680241 451.0 10.0 323.0 
248.0000042429968 43086.0 1216.0 1374.179732313577 3.148088659304953 450.0 11.0 321.0 
250.0000042429968 42877.0 1215.0 1374.2026768642456 2.996426058601165 446.0 15.0 317.0 
252.0000042429968 39196.0 1171.0 1374.1185468451233 2.529901349830695 438.0 15.0 317.0 
254.0000042429968 38935.0 1170.0 1373.8151688973858 2.38929852808466 436.0 15.0 317.0 
256.0000042429968 38405.0 1169.0 1376.632249840661 2.3380244010476297 440.0 15.0 318.0 
258.0000042429968 42046.0 1206.0 1376.9891650732961 2.5347190594694595 447.0 17.0 316.0 
260.0000042429968 42444.0 1212.0 1374.0624601657123 2.8199026553631596 453.0 14.0 318.0 
262.0000042429968 43394.0 1221.0 1371.2326322498402 3.111841654011613 452.0 14.0 317.0 
264.0000042429968 43488.0 1223.0 1371.2530274059898 3.5206121157515957 453.0 13.0 318.0 
266.0000042429968 43506.0 1223.0 1374.2434671765448 3.6639583114362884 456.0 11.0 321.0 
268.0000042429968 35744.0 1154.0 1382.9700446144054 2.842747454727221 451.0 11.0 324.0 
270.0000042429968 35574.0 1150.0 1382.2281708094315 2.798611078611114 449.0 11.0 324.0 
272.0000042429968 35531.0 1148.0 1379.2198852772478 2.4386315659669764 446.0 9.0 325.0 
274.0000042429968 35450.0 1148.0 1373.348629700447 2.624740538737239 442.0 11.0 321.0 
276.0000042429968 35268.0 1145.0 1373.4557042702354 2.53977859011025 436.0 12.0 320.0 
278.0000042429968 41834.0 1173.0 1376.5404716379865 2.575385620581827 451.0 12.0 321.0 
280.0000042429968 38894.0 1173.0 1385.557680050988 2.33265679567304 448.0 12.0 324.0 
282.0000042429968 38556.0 1172.0 1385.1242829827909 2.4568575446922964 444.0 12.0 324.0 
284.0000042429968 37948.0 1171.0 1385.134480560866 2.3984698926988135 443.0 12.0 324.0 
286.0000042429968 41593.0 1207.0 1385.4684512428287 2.577542332818215 451.0 12.0 324.0 
288.0000042429968 41952.0 1213.0 1379.6354365838126 2.76189096587976 451.0 12.0 322.0 
290.0000042429968 42591.0 1220.0 1379.7450605481213 2.9353977850633757 450.0 12.0 322.0 
292.0000042429968 42511.0 1217.0 1376.808158062462 2.6883687049770995 447.0 13.0 320.0 
294.0000042429968 42604.0 1217.0 1365.075844486936 2.915789893663364 446.0 13.0 316.0 
296.0000042429968 42585.0 1217.0 1362.1669853409805 3.278644144045529 445.0 13.0 315.0 
298.0000042429968 42577.0 1217.0 1371.0465264499694 3.3526909569321464 447.0 13.0 318.0 
300.0000042429968 39247.0 1218.0 1370.990439770555 3.5317026854000293 446.0 13.0 318.0 
302.0000042429968 35509.0 1152.0 1370.6845124282977 3.0057649470622163 438.0 13.0 318.0 
304.0000042429968 34984.0 1144.0 1370.5111536010183 2.9803064587572723 434.0 13.0 318.0 
306.0000042429968 34885.0 1145.0 1364.6628425748872 2.960358524177381 430.0 15.0 314.0 
308.0000042429968 31041.0 1099.0 1364.606755895473 2.367417118330893 428.0 13.0 316.0 
310.0000042429968 35333.0 1110.0 1367.3320586360728 2.3558336633278443 431.0 13.0 317.0 
312.0000042429968 36862.0 1164.0 1370.5901848311014 2.2483178025984025 436.0 13.0 318.0 
314.0000042429968 40853.0 1205.0 1373.8457616316114 1.7589918998873835 446.0 11.0 321.0 
316.0000042429968 41233.0 1211.0 1370.8961121733587 2.0610312976780527 446.0 12.0 319.0 
318.0000042429968 42102.0 1220.0 1368.0586360739344 2.384320890258044 445.0 11.0 319.0 
320.0000042429968 42215.0 1221.0 1365.0630975143395 2.545113171677426 446.0 11.0 318.0 
322.0000042429968 42132.0 1220.0 1362.1465901848326 2.5468151014478497 448.0 9.0 319.0 
324.0000042429968 41959.0 1218.0 1362.1159974506065 2.9968358509546946 448.0 9.0 319.0 
326.0000042429968 42082.0 1218.0 1356.2090503505408 3.334576094117459 448.0 9.0 317.0 
328.0000042429968 42047.0 1218.0 1359.2275334608041 3.7810489868186847 449.0 9.0 318.0 
330.0000042429968 42062.0 1218.0 1362.1797323135772 4.0603017155345436 449.0 9.0 319.0 
332.0000042429968 40554.0 1221.0 1362.1848311026142 4.248964915108715 449.0 9.0 319.0 
334.0000042429968 35549.0 1158.0 1361.9706819630321 3.063429587467334 441.0 9.0 319.0 
336.0000042429968 31196.0 1106.0 1364.5404716379865 2.105965193838674 433.0 10.0 319.0 
338.0000042429968 30679.0 1101.0 1364.0637348629707 1.8360233438349856 426.0 10.0 319.0 
340.0000042429968 30513.0 1103.0 1361.157425111535 1.7584079989414705 427.0 10.0 318.0 
342.0000042429968 40036.0 1200.0 1365.12683237731 1.7021445462794582 449.0 10.0 319.0 
344.0000042429968 40973.0 1213.0 1370.9955385595908 2.005095865500555 452.0 10.0 321.0 
346.0000042429968 41920.0 1225.0 1374.0573613766721 2.289198764414789 453.0 10.0 322.0 
348.0000042429968 41921.0 1225.0 1371.1383046526441 2.7295431138564443 456.0 10.0 321.0 
350.0000042429968 41973.0 1225.0 1371.1255576800518 3.031379423039856 455.0 10.0 321.0 
352.0000042429968 41914.0 1224.0 1371.2045889101348 3.0204108965222365 457.0 10.0 321.0 
354.0000042429968 41801.0 1223.0 1368.3135755258133 3.1424820517158505 457.0 10.0 320.0 
356.0000042429968 41784.0 1221.0 1365.353728489483 3.0470551664530268 459.0 8.0 321.0 
358.0000042429968 41751.0 1219.0 1365.3919694072647 3.3549324872752235 456.0 10.0 319.0 
360.0000042429968 41773.0 1220.0 1359.5003186743158 3.7286801223209878 454.0 10.0 317.0 
362.0000042429968 41768.0 1222.0 1359.5360101975775 3.833492762887374 453.0 10.0 317.0 
364.0000042429968 32357.0 1126.0 1359.3269598470365 2.6908769241025596 441.0 10.0 317.0 
366.0000042429968 31319.0 1112.0 1352.4894837476086 2.6386167431059704 435.0 10.0 315.0 
368.0000042429968 30431.0 1107.0 1355.3702995538547 1.9319471445671952 430.0 10.0 316.0 
370.0000042429968 34505.0 1142.0 1355.6150414276597 1.7800565980241196 443.0 10.0 316.0 
372.0000042429968 40053.0 1206.0 1356.1759082217989 2.0529697621093304 456.0 10.0 316.0 
374.0000042429968 41380.0 1220.0 1353.3843212237082 2.33861711672061 459.0 10.0 315.0 
376.0000042429968 41730.0 1226.0 1356.3467176545576 2.2942385029323176 458.0 10.0 316.0 
378.0000042429968 41779.0 1226.0 1356.3645634161871 2.252605088303832 457.0 10.0 316.0 
380.0000042429968 41826.0 1227.0 1356.4741873804958 2.6339472145359353 455.0 10.0 316.0 
382.0000042429968 41822.0 1227.0 1347.6660293180378 2.952712009142725 455.0 10.0 313.0 
384.0000042429968 41674.0 1225.0 1347.6915232632239 3.2303679898477684 456.0 10.0 313.0 
386.0000042429968 41585.0 1224.0 1350.6054811982142 3.236496692261359 456.0 10.0 314.0 
388.0000042429968 41566.0 1225.0 1350.5927342256232 3.5492344576309214 455.0 10.0 314.0 
390.0000042429968 41471.0 1224.0 1341.784576163161 4.014357385100516 453.0 10.0 311.0 
392.0000042429968 37780.0 1182.0 1338.8170809432747 3.6832688017478534 450.0 10.0 310.0 
394.0000042429968 31992.0 1128.0 1335.3881453154863 2.897099838249659 436.0 10.0 309.0 
396.0000042429968 31074.0 1120.0 1340.8514977692782 2.5466787055467264 434.0 10.0 311.0 
398.0000042429968 34334.0 1150.0 1341.1829190567253 1.7385656335927677 438.0 8.0 313.0 
400.0000042429968 35959.0 1152.0 1344.0535372848938 1.7473657621374703 442.0 10.0 312.0 
402.0000042429968 40724.0 1218.0 1347.4620777565333 1.6971743489705469 454.0 10.0 313.0 
404.0000042429968 41250.0 1225.0 1347.5156150414289 2.090909146372228 456.0 10.0 313.0 
406.0000042429968 41424.0 1228.0 1350.5876354365826 2.3870032123480884 457.0 10.0 314.0 
408.0000042429968 41591.0 1229.0 1350.6080305927355 2.6448423622947677 457.0 10.0 314.0 
410.0000042429968 41642.0 1229.0 1356.430847673678 2.89848371768194 457.0 10.0 316.0 
412.0000042429968 41572.0 1230.0 1359.3830465264512 3.3269393986729763 457.0 10.0 317.0 
414.0000042429968 41538.0 1229.0 1356.4512428298267 3.5866099797233626 455.0 10.0 316.0 
416.0000042429968 41618.0 1230.0 1356.3951561504157 3.748431558022741 455.0 10.0 316.0 
418.0000042429968 41518.0 1230.0 1350.5315487571713 3.363560749924522 454.0 10.0 314.0 
420.0000042429968 37743.0 1185.0 1344.599107711917 2.9625177870115276 447.0 10.0 312.0 
422.0000042429968 37050.0 1182.0 1341.282345442956 3.1380328509561517 442.0 10.0 311.0 
424.0000042429968 31420.0 1127.0 1332.2931803696638 2.157620399553478 438.0 10.0 308.0 
426.0000042429968 34617.0 1157.0 1329.366475462076 2.173613283449557 442.0 10.0 307.0 
428.0000042429968 34734.0 1158.0 1346.9827915869987 2.340516819866587 440.0 9.0 314.0 
430.0000042429968 39181.0 1177.0 1347.217335882728 2.140912476189657 448.0 9.0 314.0 
432.0000042429968 40730.0 1219.0 1347.5028680688354 2.271991209277152 449.0 9.0 314.0 
434.0000042429968 40969.0 1222.0 1356.3314212874457 2.2693966638909737 456.0 9.0 317.0 
436.0000042429968 41002.0 1225.0 1359.2351816443602 2.7139480445249973 456.0 9.0 318.0 
438.0000042429968 41097.0 1226.0 1359.2224346717644 3.1063463174711416 458.0 9.0 318.0 
440.0000042429968 41117.0 1227.0 1359.2428298279167 2.9009409378512503 460.0 7.0 320.0 
442.0000042429968 41255.0 1229.0 1359.2887189292553 2.978831907337232 460.0 9.0 318.0 
444.0000042429968 41254.0 1229.0 1359.2606755895456 3.407990899016707 462.0 9.0 318.0 
446.0000042429968 41183.0 1230.0 1359.263224984065 3.607199734481195 462.0 9.0 318.0 
448.0000042429968 37411.0 1185.0 1365.0936902485653 3.2070995036212717 460.0 9.0 320.0 
450.0000042429968 36835.0 1181.0 1370.5978330146577 3.135656598719049 456.0 9.0 322.0 
452.0000042429968 35086.0 1183.0 1367.5844486934343 2.7862686200665387 458.0 9.0 321.0 
454.0000042429968 35105.0 1165.0 1361.7922243467171 2.505533405813281 460.0 9.0 319.0 
456.0000042429968 35148.0 1166.0 1361.6724028043327 2.6669431843603193 456.0 9.0 319.0 
458.0000042429968 35630.0 1169.0 1364.7061822817097 2.621331431694713 455.0 9.0 320.0 
460.0000042429968 40103.0 1215.0 1374.1261950286796 2.2536221186227055 462.0 9.0 323.0 
462.0000042429968 40491.0 1222.0 1374.0828553218619 2.177216410494828 459.0 9.0 323.0 
464.0000042429968 40799.0 1227.0 1371.1179094964957 2.329132333496455 461.0 9.0 322.0 
466.0000042429968 40827.0 1229.0 1377.0197578075215 2.378676890310102 464.0 9.0 324.0 
468.0000042429968 40820.0 1229.0 1377.0019120458892 2.8614484338632287 463.0 9.0 324.0 
470.0000042429968 40826.0 1230.0 1374.0548119821565 3.2949237527479047 463.0 9.0 323.0 
472.0000042429968 40802.0 1228.0 1374.0191204588903 3.636792930417568 462.0 9.0 323.0 
474.0000042429968 40573.0 1226.0 1371.1306564690879 3.7275109161957634 461.0 9.0 322.0 
476.0000042429968 36829.0 1182.0 1371.064372211602 3.3856291746007945 456.0 9.0 322.0 
478.0000042429968 36326.0 1179.0 1367.7399617590804 3.3672206976851897 450.0 9.0 321.0 
480.0000042429968 36178.0 1181.0 1367.6252390057375 3.241159163164783 452.0 9.0 321.0 
482.0000042429968 35633.0 1190.0 1364.9611217335864 1.9229540380482728 458.0 7.0 322.0 
484.0000042429968 35536.0 1174.0 1361.8483110261327 2.0001175106784204 454.0 9.0 319.0 
486.0000042429968 35940.0 1180.0 1358.9521988527736 2.18472365250767 452.0 9.0 318.0 
488.0000042429968 39035.0 1199.0 1359.1663479923545 2.2184628931493497 457.0 9.0 318.0 
490.0000042429968 40077.0 1220.0 1359.245379222433 2.3100802202908945 457.0 9.0 318.0 
492.0000042429968 40277.0 1222.0 1344.632249840661 2.6619116554010414 454.0 9.0 313.0 
494.0000042429968 40576.0 1227.0 1344.6730401529635 2.8756113266294934 454.0 9.0 313.0 
496.0000042429968 40784.0 1231.0 1344.6781389420003 3.006632569436798 454.0 9.0 313.0 
498.0000042429968 40755.0 1230.0 1350.5366475462085 3.1557405935089777 454.0 9.0 315.0 
500.0000042429968 40706.0 1230.0 1347.5818992989152 3.5440589197092356 455.0 9.0 314.0 
502.0000042429968 40536.0 1230.0 1347.5844486934343 3.5112694343657536 455.0 9.0 314.0 
504.0000042429968 36562.0 1179.0 1347.5105162523919 2.959939901939303 451.0 9.0 314.0 
506.0000042429968 35953.0 1172.0 1347.1000637348634 2.7993504712942263 449.0 9.0 314.0 
508.0000042429968 36161.0 1177.0 1338.2689611217324 2.680423590414633 453.0 9.0 311.0 
510.0000042429968 37423.0 1208.0 1341.483747609941 2.6369629117645363 456.0 9.0 312.0 
512.0000042429967 35691.0 1173.0 1335.4646271510505 2.3430850106337515 454.0 9.0 310.0 
514.0000042429967 35910.0 1173.0 1329.6902485659648 2.1445549981588683 450.0 9.0 308.0 
516.0000042429967 36873.0 1175.0 1317.9553855959193 2.374253898542634 452.0 9.0 304.0 
518.0000042429967 39547.0 1210.0 1312.277884002551 2.326818800245842 455.0 9.0 302.0 
520.0000042429967 39975.0 1218.0 1309.3511790949647 2.6829800016157512 453.0 10.0 300.0 
522.0000042429967 40330.0 1222.0 1303.5105162523912 2.834532395835427 456.0 10.0 298.0 
524.0000042429967 40619.0 1227.0 1306.4652644996804 2.655158240921795 457.0 8.0 301.0 
526.0000042429967 40677.0 1228.0 1303.5411089866157 2.8617709080451097 452.0 10.0 298.0 
528.0000042429967 40759.0 1228.0 1303.5258126195035 3.0602319420641497 450.0 10.0 298.0 
530.0000042429967 40462.0 1221.0 1309.3180369662205 3.0921879787319044 454.0 10.0 300.0 
532.0000042429967 36338.0 1181.0 1314.9929891650734 2.652413105609505 443.0 10.0 302.0 
534.0000042429967 36028.0 1178.0 1311.696622052265 2.9982290488735224 436.0 10.0 301.0 
536.0000042429967 36269.0 1184.0 1311.7272147864894 2.905230977750266 440.0 9.0 302.0 
538.0000042429967 39547.0 1219.0 1312.0815806246019 2.965418392047138 447.0 9.0 302.0 
540.0000042429967 36517.0 1192.0 1314.9929891650734 2.6418172021893684 442.0 9.0 303.0 
542.0000042429967 36476.0 1184.0 1317.881453154876 2.615165025107121 438.0 9.0 304.0 
544.0000042429967 36390.0 1180.0 1320.7214786488223 2.2541527544234157 436.0 10.0 304.0 
546.0000042429967 39287.0 1209.0 1332.7648183556412 1.7881722977185452 446.0 10.0 308.0 
548.0000042429967 40323.0 1223.0 1326.9598470363303 2.1080485908864754 445.0 10.0 306.0 
550.0000042429967 40429.0 1225.0 1327.0159337157415 2.3796785752317193 442.0 10.0 306.0 
552.0000042429967 40530.0 1227.0 1324.0637348629712 2.78583542116714 448.0 10.0 305.0 
554.0000042429967 40682.0 1230.0 1327.0133843212232 2.993256154387802 448.0 10.0 306.0 
556.0000042429967 40731.0 1231.0 1326.9725940089206 3.3988391878189437 448.0 10.0 306.0 
558.0000042429967 40520.0 1223.0 1326.9725940089206 3.672644880436432 448.0 10.0 306.0 
560.0000042429967 36390.0 1184.0 1326.8476736774999 3.0717664644808003 443.0 10.0 306.0 
562.0000042429967 36016.0 1177.0 1329.4353091140854 2.8824022694321787 442.0 10.0 307.0 
564.0000042429967 36086.0 1181.0 1326.5289993626523 2.889150344343477 446.0 10.0 306.0 
566.0000042429967 39483.0 1215.0 1329.8355640535385 2.6231046124140978 453.0 8.0 309.0 
568.0000042429967 37662.0 1216.0 1335.7578075207146 2.5049490994818937 449.0 9.0 310.0 
570.0000042429967 36322.0 1184.0 1335.6124920331433 2.248214179980576 447.0 9.0 310.0 
572.0000042429967 36126.0 1180.0 1335.4518801784575 2.3932761864607976 441.0 9.0 310.0 
574.0000042429967 37755.0 1182.0 1329.6010197578069 2.472236015403253 449.0 9.0 308.0 
576.0000042429967 40053.0 1225.0 1327.0133843212232 2.452718248573425 454.0 9.0 307.0 
578.0000042429967 40485.0 1232.0 1332.922880815805 2.4661884884019805 454.0 9.0 309.0 
580.0000042429967 40550.0 1231.0 1335.8393881453164 2.8571997800044397 454.0 9.0 310.0 
582.0000042429967 40529.0 1232.0 1335.8189929891637 3.3246740213205803 454.0 9.0 310.0 
584.0000042429967 40523.0 1231.0 1335.8062460165734 3.630832778033618 453.0 9.0 310.0 
586.0000042429967 40342.0 1225.0 1341.5627788400254 3.3645409462932365 454.0 10.0 311.0 
588.0000042429967 36348.0 1187.0 1341.4633524537915 2.920575606866589 448.0 10.0 311.0 
590.0000042429967 35707.0 1176.0 1341.1217335882723 2.968529051312234 443.0 10.0 311.0 
592.0000042429967 35838.0 1181.0 1338.1873804971324 2.6478963369837407 450.0 10.0 310.0 
594.0000042429967 39251.0 1212.0 1341.3894200127481 2.513321412436999 459.0 8.0 313.0 
596.0000042429967 39502.0 1225.0 1338.5060548119836 2.7568408323685865 465.0 4.0 316.0 
598.0000042429967 36694.0 1190.0 1332.644996813257 2.4605489948490686 457.0 4.0 314.0 
600.0000042429967 36111.0 1175.0 1332.4996813256835 2.656079677691998 457.0 4.0 314.0 
602.0000042429967 38722.0 1200.0 1341.5041427660944 2.608348941792897 466.0 5.0 316.0 
604.0000042429967 39901.0 1220.0 1338.6666666666665 2.890331460908386 467.0 5.0 315.0 
606.0000042429967 40104.0 1224.0 1344.5226258763523 3.097102196372072 469.0 5.0 317.0 
608.0000042429967 40331.0 1227.0 1350.4601657106439 2.6766936657080427 468.0 3.0 321.0 
610.0000042429967 40273.0 1229.0 1356.3416188655185 2.65307171444586 469.0 3.0 323.0 
612.0000042429967 40223.0 1227.0 1356.2957297641794 3.0160418989516193 469.0 2.0 324.0 
614.0000042429967 40114.0 1219.0 1356.2727852135108 3.422726738970029 468.0 2.0 324.0 
616.0000042429967 36041.0 1182.0 1356.1453154875705 3.0393094914310512 463.0 2.0 324.0 
618.0000042429967 35560.0 1176.0 1355.7374123645648 3.1598421676714588 462.0 2.0 324.0 
620.0000042429967 35659.0 1179.0 1352.8234544295744 3.009294205477965 465.0 2.0 323.0 
622.0000042429967 39160.0 1216.0 1359.17399617591 3.139107031701702 472.0 2.0 325.0 
624.0000042429967 38026.0 1221.0 1365.0528999362634 3.0354312857480426 470.0 2.0 327.0 
626.0000042429967 36465.0 1185.0 1367.8113448056076 2.5193541603147005 466.0 2.0 328.0 
628.0000042429967 36518.0 1180.0 1361.7386870618243 2.2733478618889427 463.0 3.0 325.0 
630.0000042429967 39665.0 1216.0 1362.327597195667 2.125420164184828 472.0 3.0 325.0 
632.0000042429967 39816.0 1223.0 1362.2944550669229 2.4891141474029963 470.0 3.0 325.0 
634.0000042429967 40246.0 1227.0 1365.2364563416184 2.670119473278624 468.0 3.0 326.0 
636.0000042429967 40368.0 1229.0 1368.203951561505 2.9488898792977847 468.0 3.0 327.0 
638.0000042429967 40280.0 1227.0 1371.1051625238997 3.292218974287837 467.0 4.0 327.0 
640.0000042429967 40332.0 1226.0 1371.0133843212232 3.5053823416922656 466.0 4.0 327.0 
642.0000042429967 40159.0 1219.0 1374.0752071383058 3.387534430261004 462.0 8.0 324.0 
644.0000042429967 35898.0 1180.0 1373.940089228807 3.0931495619023326 458.0 8.0 324.0 
646.0000042429967 35431.0 1170.0 1373.590822179734 3.4140966998585407 456.0 7.0 325.0 
648.0000042429967 35713.0 1177.0 1370.7584448693449 3.3888603553622887 463.0 4.0 327.0 
650.0000042429967 39073.0 1211.0 1368.2141491395807 2.695875579848928 462.0 3.0 327.0 
652.0000042429967 36628.0 1191.0 1374.0165710643707 2.3045814306854613 457.0 7.0 325.0 
654.0000042429967 36441.0 1180.0 1376.5812619502888 2.4966120561721517 454.0 9.0 324.0 
656.0000042429967 38337.0 1194.0 1376.5251752708741 2.4689103974649966 456.0 7.0 326.0 
658.0000042429967 39240.0 1214.0 1382.5646908859128 2.17133816702241 458.0 3.0 332.0 
660.0000042429967 39471.0 1217.0 1376.6169534735486 2.5074607768080828 460.0 2.0 331.0 
662.0000042429967 39875.0 1223.0 1376.678138942 2.8503946877003976 459.0 2.0 331.0 
664.0000042429967 39792.0 1222.0 1376.708731676225 3.287997514430098 458.0 2.0 331.0 
#####################################################################
# End of data export. Simulation finished at: 2019-03-10T18:33+0000 #
#####################################################################
