#####################################################################
# Alchemist log file - simulation started at: 2019-03-07T05:53+0000 #
#####################################################################
# seed = 2.0, bandwidth = 74989.42093324558, accessPointCount = 274.2481756762073, baserange = 17.78279410038923
#
# The columns have the following meaning: 
# time neighbor_count[Sum] <value>@neighbor_count[Sum] packet_size[Mean] mean_delay[Mean] crowd[Sum] overcrowded[Sum] risk[Sum] 
0.0 NaN NaN NaN NaN NaN NaN NaN 
10.00031849080864 10.0 6.0 4984.433653303218 0.4134329850289643 1497.0 0.0 1497.0 
20.00031849080864 10.0 6.0 4984.4449463579895 0.413486325886251 1497.0 0.0 1497.0 
30.00031849080864 10.0 6.0 4984.435911914173 0.41354559350545844 1497.0 0.0 1497.0 
40.00031849080864 10.0 6.0 4984.408808582722 0.4136404216961896 1497.0 0.0 1497.0 
50.00031849080864 10.0 6.0 4984.38170525127 0.41369376255347606 1497.0 0.0 1497.0 
60.00031849080864 10.0 6.0 4984.395256916996 0.4135930076008244 1497.0 0.0 1497.0 
70.00058297905275 10.0 6.0 400.0 0.4919448001928228 1.0 0.0 0.0 
80.00058297905275 12.0 7.0 400.0 0.49243954820710073 1.0 0.0 0.0 
90.00058297905275 12.0 7.0 400.0 0.49243954820710073 0.0 0.0 0.0 
100.00058297905275 14.0 8.0 400.0 0.4927820660631393 0.0 0.0 0.0 
110.00058297905275 12.0 7.0 400.0 1.310621366388919 0.0 0.0 0.0 
120.00058297905275 10.0 6.0 400.0 0.4919448001928228 0.0 0.0 0.0 
130.00058297905275 10.0 6.0 400.0 0.49194480019281644 0.0 0.0 0.0 
140.00058297905275 12.0 7.0 400.0 0.49243954820709296 0.0 0.0 0.0 
150.00058297905275 12.0 7.0 400.0 0.7651668209343657 0.0 0.0 0.0 
160.00058297905275 10.0 6.0 400.0 0.49194480019281644 0.0 0.0 0.0 
170.00058297905275 10.0 6.0 400.0 0.49194480019281644 0.0 0.0 0.0 
180.00058297905275 12.0 7.0 400.0 0.49243954820709296 0.0 0.0 0.0 
190.00058297905275 12.0 7.0 400.0 0.49243954820709296 0.0 0.0 0.0 
200.00058297905275 12.0 7.0 400.0 0.49243954820709296 0.0 0.0 0.0 
210.00058297905275 10.0 6.0 400.0 0.49194480019281644 0.0 0.0 0.0 
220.00058297905275 10.0 6.0 400.0 0.49194480019281644 0.0 0.0 0.0 
230.00058297905275 10.0 6.0 400.0 0.49194480019281644 0.0 0.0 0.0 
240.00058297905275 10.0 6.0 400.0 0.49194480019281644 0.0 0.0 0.0 
250.00058297905275 10.0 6.0 400.0 0.49194480019281644 0.0 0.0 0.0 
260.00058297905275 10.0 6.0 400.0 0.4919448001928275 0.0 0.0 0.0 
270.00058297905275 10.0 6.0 400.0 0.4919448001928275 0.0 0.0 0.0 
280.00058297905275 10.0 6.0 400.0 0.4919448001928275 0.0 0.0 0.0 
290.00058297905275 10.0 6.0 400.0 0.4919448001928275 0.0 0.0 0.0 
300.00058297905275 10.0 6.0 400.0 0.4919448001928275 0.0 0.0 0.0 
310.00058297905275 10.0 6.0 400.0 0.4919448001928275 0.0 0.0 0.0 
320.00058297905275 10.0 6.0 400.0 0.4919448001928275 0.0 0.0 0.0 
330.00058297905275 10.0 6.0 400.0 0.4919448001928275 0.0 0.0 0.0 
340.00058297905275 10.0 6.0 400.0 0.4919448001928275 0.0 0.0 0.0 
350.00058297905275 10.0 6.0 400.0 0.4919448001928275 0.0 0.0 0.0 
360.00058297905275 12.0 7.0 400.0 0.49243954820710717 0.0 0.0 0.0 
370.00058297905275 10.0 6.0 400.0 0.4919448001928275 0.0 0.0 0.0 
380.00058297905275 10.0 6.0 400.0 0.4919448001928275 0.0 0.0 0.0 
390.00058297905275 10.0 6.0 400.0 0.4919448001928275 0.0 0.0 0.0 
400.00058297905275 10.0 6.0 400.0 0.4919448001928275 0.0 0.0 0.0 
410.00058297905275 10.0 6.0 400.0 0.4919448001928275 0.0 0.0 0.0 
420.00058297905275 12.0 7.0 400.0 0.49243954820710717 0.0 0.0 0.0 
430.00058297905275 12.0 7.0 400.0 0.49243954820710717 0.0 0.0 0.0 
440.00058297905275 12.0 7.0 400.0 1.0378940936616528 0.0 0.0 0.0 
450.00058297905275 12.0 7.0 400.0 0.49243954820710717 0.0 0.0 0.0 
460.00058297905275 16.0 9.0 400.0 0.49303324582424274 0.0 0.0 0.0 
470.00058297905275 18.0 10.0 400.0 0.8173016386231335 0.0 0.0 0.0 
480.00058297905275 16.0 9.0 400.0 0.5062495992448147 0.0 0.0 0.0 
490.00058297905275 20.0 10.0 402.5906267645398 0.7560817602156121 2.0 0.0 1.0 
500.00058297905275 18.0 9.0 402.5906267645398 0.4565675132977961 2.0 0.0 1.0 
510.00058297905275 16.0 8.0 402.5906267645398 1.1224910989185823 2.0 0.0 1.0 
520.0005829790528 12.0 7.0 402.5906267645398 0.4924395482070839 2.0 0.0 1.0 
530.0005829790528 12.0 7.0 402.5906267645398 0.4924395482070839 1.0 0.0 1.0 
540.0005829790528 12.0 7.0 402.5906267645398 0.4924395482070839 1.0 0.0 1.0 
550.0005829790528 12.0 7.0 402.5906267645398 0.4924395482070839 1.0 0.0 1.0 
560.0005829790528 12.0 7.0 400.0 0.4924395482070839 0.0 0.0 0.0 
570.0005829790528 12.0 7.0 400.0 0.4924395482070839 0.0 0.0 0.0 
580.0005829790528 16.0 9.0 400.0 0.49303324582421054 0.0 0.0 0.0 
590.0005829790528 14.0 8.0 400.0 0.49278206606311853 0.0 0.0 0.0 
600.0005829790528 14.0 8.0 400.0 1.108166681447734 0.0 0.0 0.0 
610.0005829790528 12.0 7.0 400.0 0.4924395482070839 0.0 0.0 0.0 
620.0005829790528 16.0 9.0 400.0 0.9596999124908773 0.0 0.0 0.0 
630.0005829790528 12.0 7.0 400.0 0.4924395482070839 0.0 0.0 0.0 
640.0005829790528 12.0 7.0 400.0 0.4924395482070839 0.0 0.0 0.0 
650.0005829790528 12.0 7.0 400.0 0.4924395482070839 0.0 0.0 0.0 
660.0005829790528 12.0 7.0 400.0 0.4924395482070839 0.0 0.0 0.0 
#####################################################################
# End of data export. Simulation finished at: 2019-03-07T06:00+0000 #
#####################################################################
