#####################################################################
# Alchemist log file - simulation started at: 2019-03-12T07:25+0000 #
#####################################################################
# seed = 5.0, bandwidth = 1000.0, accessPointCount = 531.8295896944988, baserange = 1000.0
#
# The columns have the following meaning: 
# time neighbor_count[Sum] <value>@neighbor_count[Sum] packet_size[Mean] mean_delay[Mean] crowd[Sum] overcrowded[Sum] risk[Sum] 
0.0 NaN NaN NaN NaN NaN NaN NaN 
2.000101793669918 NaN NaN 4981.715976331361 NaN 1497.0 0.0 1497.0 
4.000101793669918 NaN NaN 4981.715976331361 NaN 1497.0 0.0 1497.0 
6.000101793669918 8.0 5.0 4981.715976331361 0.31787037737577706 1497.0 0.0 1497.0 
8.000101793669918 18.0 13.0 4981.715976331361 1.9795612610922069 1497.0 0.0 1497.0 
10.000101793669918 18.0 13.0 4981.715976331361 3.979561261092207 1497.0 0.0 1497.0 
12.000101793669918 134.0 55.0 4981.7297830374755 1.1924372618721848 1497.0 0.0 1497.0 
14.000101793669918 134.0 55.0 4981.733727810651 3.192437261872185 1497.0 0.0 1497.0 
16.00010179366992 252.0 106.0 4981.735700197239 2.7342696608164383 1497.0 0.0 1497.0 
18.00010179366992 325.0 139.0 4981.751479289941 4.079404849202555 1497.0 0.0 1497.0 
20.00010179366992 325.0 139.0 4981.751479289941 6.079404849202555 1497.0 0.0 1497.0 
22.00010179366992 538.0 237.0 4981.802761341223 4.742287840186509 1497.0 0.0 1497.0 
24.00010179366992 538.0 237.0 4981.786982248521 6.742287840186509 1497.0 0.0 1497.0 
26.00010179366992 701.0 310.0 4981.80473372781 5.9465824662157605 1497.0 0.0 1497.0 
28.00010179366992 857.0 356.0 4981.844181459566 6.564930631282969 1497.0 0.0 1497.0 
30.00010179366992 861.0 358.0 4981.84023668639 8.48149686324813 1497.0 0.0 1497.0 
32.00010179366992 1200.0 542.0 4981.891518737672 6.438087936593076 1497.0 0.0 1497.0 
34.00010179366992 1200.0 542.0 4981.899408284024 8.438087936593076 1497.0 0.0 1497.0 
36.00010179366992 1497.0 681.0 4981.901380670612 7.859677699741423 1497.0 0.0 1497.0 
38.00010179366992 1642.0 729.0 4981.917159763314 9.019204360226668 1497.0 0.0 1497.0 
40.00010179366992 1647.0 731.0 4981.917159763314 10.98114355560355 1497.0 0.0 1497.0 
42.00010179366992 2126.0 894.0 4982.009861932938 8.303566105353774 1497.0 0.0 1497.0 
44.00010179366992 2126.0 894.0 4982.025641025641 10.303566105353774 1497.0 0.0 1497.0 
46.00010179366992 2252.0 974.0 4982.039447731755 10.662824374725766 1497.0 0.0 1497.0 
48.00010179366992 2321.0 1010.0 4982.067061143984 11.793429022939065 1497.0 0.0 1497.0 
50.00010179366992 2330.0 1016.0 4982.055226824457 13.693210414668023 1497.0 0.0 1497.0 
52.00010179366992 2548.0 1114.0 4982.118343195266 12.499038011762494 1497.0 0.0 1497.0 
54.00010179366992 2548.0 1114.0 4982.130177514793 14.499038011762494 1497.0 0.0 1497.0 
56.00010179366992 2795.0 1211.0 4982.203155818541 12.838387498900692 1497.0 0.0 1497.0 
58.00010179366992 2894.0 1275.0 4982.254437869822 12.459188751722378 1497.0 0.0 1497.0 
60.00010179366992 2899.0 1281.0 4979.988165680474 14.396070341792601 1496.0 0.0 1496.0 
62.00010179366992 2928.0 1293.0 404.5463510848126 12.303733967188156 105.0 0.0 2.0 
64.00010179366993 2928.0 1293.0 404.5463510848126 14.033672528512755 101.0 0.0 2.0 
66.00010179366993 2842.0 1282.0 404.5463510848126 12.928018412227948 93.0 0.0 2.0 
68.00010179366993 2783.0 1274.0 406.80867850098616 13.038308652932278 92.0 0.0 3.0 
70.00010179366993 2790.0 1281.0 406.80867850098616 14.311751487342802 91.0 0.0 3.0 
72.00010179366993 2584.0 1293.0 406.80867850098616 10.777036367045202 68.0 0.0 3.0 
74.00010179366993 2584.0 1293.0 406.80867850098616 11.892787476135117 66.0 0.0 3.0 
76.00010179366993 2663.0 1359.0 406.8067061143985 9.964635266681164 49.0 0.0 3.0 
78.00010179366993 2684.0 1367.0 406.79881656804736 9.575734737824444 48.0 0.0 3.0 
80.00010179366993 2686.0 1369.0 406.8067061143985 10.1485458413471 48.0 0.0 3.0 
82.00010179366993 2751.0 1417.0 406.8067061143985 6.989143450315087 36.0 0.0 3.0 
84.00010179366993 2757.0 1418.0 406.78698224852064 7.426043580762133 35.0 0.0 3.0 
86.00010179366993 2840.0 1516.0 406.78698224852064 4.365715673603153 19.0 0.0 3.0 
88.00010179366993 2886.0 1499.0 406.78698224852064 2.6123588723561815 12.0 0.0 3.0 
90.00010179366993 2922.0 1528.0 406.78698224852064 2.6339404447672936 9.0 0.0 3.0 
92.00010179366993 3432.0 1770.0 406.78698224852064 2.1610204432519478 8.0 0.0 3.0 
94.00010179366993 3432.0 1770.0 406.78698224852064 2.6277015259165593 7.0 0.0 3.0 
96.00010179366993 3630.0 1880.0 406.78698224852064 2.5579472574096247 7.0 0.0 3.0 
98.00010179366993 3711.0 1909.0 406.78698224852064 2.7346416154841227 6.0 0.0 3.0 
100.00010179366993 3746.0 1941.0 406.78698224852064 2.4507817057457104 6.0 0.0 3.0 
102.00010179366993 4118.0 2192.0 406.78698224852064 2.438812839608693 6.0 0.0 3.0 
104.00010179366993 4119.0 2193.0 406.78698224852064 2.5912836606351295 6.0 0.0 3.0 
106.00010179366993 4341.0 2327.0 406.78698224852064 2.5265119269957212 6.0 0.0 3.0 
108.00010179366993 4409.0 2352.0 406.78698224852064 2.703406860612325 5.0 0.0 3.0 
110.00010179366993 4460.0 2389.0 406.78698224852064 2.7040827615570526 5.0 0.0 3.0 
112.00010179366993 4785.0 2570.0 415.859960552268 2.6803066587017423 9.0 0.0 7.0 
114.00010179366993 4794.0 2571.0 415.83629191321535 2.881502022809505 9.0 0.0 7.0 
116.00010179366993 5323.0 2976.0 415.83629191321535 2.233543310767237 9.0 0.0 7.0 
118.00010179366993 5419.0 3013.0 415.83629191321535 2.6181094715250133 9.0 0.0 7.0 
120.00010179366993 5460.0 3043.0 413.5739644970412 3.3015268074274178 8.0 0.0 6.0 
122.00010179366993 5735.0 3164.0 413.60946745562154 3.107220731386331 9.0 0.0 6.0 
124.00010179366993 5735.0 3164.0 413.5976331360949 3.1295640711766093 9.0 0.0 6.0 
126.00010179366993 6020.0 3404.0 413.5976331360949 2.7958545827851284 7.0 0.0 6.0 
128.00010179366993 6045.0 3421.0 413.5976331360949 3.0503291194344335 7.0 0.0 6.0 
130.00010179366993 6105.0 3475.0 413.5976331360949 3.478494659929933 7.0 0.0 6.0 
132.00010179366993 6561.0 3758.0 413.5976331360949 3.443086477284313 7.0 0.0 6.0 
134.00010179366993 6563.0 3758.0 413.5976331360949 3.5684167262619644 7.0 0.0 6.0 
136.00010179366993 6786.0 3938.0 413.5976331360949 3.3964971861540305 7.0 0.0 6.0 
138.00010179366993 6827.0 3953.0 413.5976331360949 3.238952468808325 10.0 0.0 6.0 
140.00010179366993 6890.0 4019.0 413.5976331360949 3.3722072906496616 10.0 0.0 6.0 
142.00010179366993 7055.0 4178.0 411.3353057199207 3.204539920067547 9.0 0.0 5.0 
144.00010179366993 7047.0 4177.0 411.3353057199207 3.501849623561295 9.0 0.0 5.0 
146.00010179366993 7295.0 4392.0 411.3353057199207 3.2775120240133764 9.0 0.0 5.0 
148.00010179366993 7338.0 4399.0 411.3353057199207 3.550233418068067 9.0 0.0 5.0 
150.00010179366993 7370.0 4428.0 411.3353057199207 3.706881556578972 9.0 0.0 5.0 
152.00010179366993 7513.0 4549.0 411.339250493097 3.4140385393590247 8.0 0.0 5.0 
154.00010179366993 7514.0 4549.0 411.3116370808681 3.5229736104185143 8.0 0.0 5.0 
156.00010179366993 7914.0 4733.0 411.3116370808681 3.1130045339984305 8.0 0.0 5.0 
158.00010179366993 7997.0 4737.0 411.3116370808681 3.2719941645717134 8.0 0.0 5.0 
160.00010179366993 8050.0 4784.0 411.3116370808681 3.5588640287076254 8.0 0.0 5.0 
162.00010179366993 8093.0 4804.0 411.3116370808681 3.893199077243224 8.0 0.0 5.0 
164.00010179366993 8090.0 4803.0 411.3116370808681 3.7980832904705606 8.0 0.0 5.0 
166.00010179366993 8189.0 4879.0 411.3116370808681 3.3860022564295664 8.0 0.0 5.0 
168.00010179366993 8200.0 4879.0 411.3116370808681 3.688863512836756 8.0 0.0 5.0 
170.00010179366993 8319.0 4986.0 411.3116370808681 3.761529966852673 8.0 0.0 5.0 
172.00010179366993 8722.0 5181.0 413.58579881656806 3.2964368995338043 9.0 0.0 6.0 
174.00010179366993 8722.0 5181.0 413.5739644970412 3.649836217679816 8.0 0.0 6.0 
176.00010179366993 8923.0 5357.0 418.1262327416173 3.353834897329426 11.0 0.0 8.0 
178.00010179366993 8954.0 5360.0 418.11045364891544 3.5186905898558245 12.0 0.0 8.0 
180.00010179366993 9057.0 5441.0 418.11439842209074 3.9853015400549285 12.0 0.0 8.0 
182.00010179366993 9449.0 5540.0 433.9625246548326 3.6499857926204555 19.0 0.0 15.0 
184.00010179366993 9465.0 5541.0 433.9506903353056 4.199871450700443 19.0 0.0 15.0 
186.00010179366993 9627.0 5650.0 436.2406311637076 3.802378565882769 22.0 0.0 16.0 
188.00010179366993 9664.0 5654.0 452.0808678500991 3.951417781984946 29.0 0.0 23.0 
190.00010179366993 9795.0 5756.0 452.0729783037485 3.8162821998083385 30.0 0.0 23.0 
192.00010179366993 9892.0 5811.0 452.0729783037485 3.6124620021769496 28.0 0.0 23.0 
194.00010179366993 9900.0 5815.0 452.0729783037485 4.325464013906406 28.0 0.0 23.0 
196.00010179366993 10207.0 6035.0 452.0769230769237 4.092694284904567 28.0 0.0 23.0 
198.00010179366993 10261.0 6045.0 452.0769230769237 4.533539255396159 28.0 0.0 23.0 
200.00010179366993 10406.0 6179.0 449.8106508875738 4.554190255898229 27.0 0.0 22.0 
202.00010179366993 10674.0 6324.0 452.10848126232776 4.60891044296488 30.0 0.0 23.0 
204.00010179366993 10670.0 6323.0 452.07297830374824 4.753123586994383 31.0 0.0 23.0 
206.00010179366993 11012.0 6475.0 472.5660749506896 3.9746317507381126 40.0 0.0 32.0 
208.00010179366993 11053.0 6478.0 472.4930966469436 4.290052351432353 40.0 0.0 32.0 
210.00010179366993 11061.0 6498.0 470.21301775147947 4.513054023218461 38.0 0.0 31.0 
212.00010179366993 11044.0 6557.0 470.2741617356999 4.263571686132046 40.0 0.0 31.0 
214.00010179366993 11057.0 6559.0 470.24260355029594 4.312948047065292 40.0 0.0 31.0 
216.00010179366993 11153.0 6647.0 470.2721893491134 4.314156151861983 40.0 0.0 31.0 
218.00010179366993 11187.0 6647.0 474.74161735700216 4.287745905807756 42.0 0.0 33.0 
220.00010179366993 11486.0 6942.0 474.7514792899414 4.348273648901464 39.0 0.0 33.0 
222.00010179366993 11615.0 6994.0 490.6232741617362 4.47379508202836 49.0 0.0 40.0 
224.00010179366993 11620.0 6994.0 490.60355029585924 4.696176524000256 49.0 0.0 40.0 
226.00010179366993 11778.0 7129.0 490.60355029585924 4.495469907804889 49.0 0.0 40.0 
228.00010179366993 11811.0 7133.0 492.8579881656821 4.563268514358029 50.0 0.0 41.0 
230.00010179366993 11850.0 7170.0 492.8678500986184 4.723806695135064 51.0 0.0 41.0 
232.00010179366993 12025.0 7247.0 511.0552268244578 4.749561280995251 61.0 0.0 49.0 
234.00010179366993 12031.0 7254.0 510.97633136094834 4.964434035060554 61.0 0.0 49.0 
236.00010179366993 12397.0 7626.0 531.4990138067049 4.356444747054538 73.0 0.0 58.0 
238.00010179366993 12431.0 7627.0 536.0 4.351943699767265 77.0 0.0 60.0 
240.00010179366993 12668.0 7814.0 536.0059171597629 4.431656953407377 76.0 0.0 60.0 
242.00010179366993 12722.0 7825.0 535.9329388560167 4.233663650412295 73.0 0.0 60.0 
244.00010179366993 12752.0 7865.0 535.9013806706123 4.371043577641651 73.0 0.0 60.0 
246.00010179366993 13077.0 8075.0 547.2899408284043 4.351519083944775 76.0 0.0 65.0 
248.00010179366993 13091.0 8077.0 549.5285996055244 4.678713580887917 77.0 0.0 66.0 
250.00010179366993 13296.0 8278.0 549.5443786982271 5.075586445698886 77.0 0.0 66.0 
252.00010179366993 13352.0 8327.0 549.5542406311657 5.104270153735427 76.0 0.0 66.0 
254.00010179366993 13364.0 8341.0 549.5345167652868 5.087497047807429 76.0 0.0 66.0 
256.00010179366996 13501.0 8430.0 549.5345167652868 4.785549258420663 76.0 0.0 66.0 
258.00010179366996 13541.0 8431.0 554.0670611439833 4.823113909183688 77.0 0.0 68.0 
260.00010179366996 13586.0 8470.0 554.0532544378709 4.932908087719077 77.0 0.0 68.0 
262.00010179366996 13590.0 8483.0 554.1163708086776 4.472361075508559 73.0 0.0 68.0 
264.00010179366996 13639.0 8513.0 554.041420118342 4.9144956957157495 74.0 0.0 68.0 
266.00010179366996 13821.0 8698.0 554.063116370811 4.75471594251259 74.0 0.0 68.0 
268.00010179366996 13844.0 8700.0 554.0315581854034 4.758854049273009 76.0 0.0 68.0 
270.00010179366996 13904.0 8778.0 551.7692307692286 4.974959103516044 75.0 0.0 67.0 
272.00010179366996 13990.0 8789.0 549.5069033530556 4.838960058495617 74.0 0.0 66.0 
274.00010179366996 13980.0 8818.0 549.5285996055246 5.126847119059786 74.0 0.0 66.0 
276.00010179366996 13991.0 8939.0 547.2662721893513 4.7990464113781375 72.0 0.0 65.0 
278.00010179366996 13982.0 8938.0 547.1420118343173 4.9802742760002685 72.0 0.0 65.0 
280.00010179366996 14167.0 9094.0 547.1045364891535 5.213273345953207 70.0 0.0 65.0 
282.00010179366996 14278.0 9123.0 547.1637080867864 5.016409195377262 70.0 0.0 65.0 
284.00010179366996 14306.0 9157.0 547.1163708086775 5.1672398139554625 70.0 0.0 65.0 
286.00010179366996 14394.0 9238.0 547.1203155818557 4.612383019400865 70.0 0.0 65.0 
288.00010179366996 14404.0 9240.0 547.1203155818557 4.910077948514619 70.0 0.0 65.0 
290.00010179366996 14653.0 9467.0 547.1262327416163 5.077172915691953 74.0 0.0 65.0 
292.00010179366996 14725.0 9476.0 563.0571992110429 4.655135648527083 82.0 0.0 72.0 
294.00010179366996 14794.0 9545.0 563.0098619329403 5.115702785087071 82.0 0.0 72.0 
296.00010179366996 14979.0 9710.0 553.9783037475371 5.135415426518845 80.0 0.0 68.0 
298.00010179366996 14984.0 9709.0 553.9625246548298 5.135385317225388 80.0 0.0 68.0 
300.00010179366996 15216.0 9911.0 553.968441814597 5.2896406800633775 79.0 0.0 68.0 
302.00010179366996 15267.0 9950.0 553.9901380670597 4.992119283060679 77.0 0.0 68.0 
304.00010179366996 15279.0 9960.0 553.9822485207089 5.302195107781969 77.0 0.0 68.0 
306.00010179366996 15455.0 10131.0 553.9901380670597 5.436769124511871 77.0 0.0 68.0 
308.00010179366996 15450.0 10130.0 553.9822485207089 5.307672744948887 77.0 0.0 68.0 
310.00010179366996 15523.0 10189.0 547.1952662721899 5.41423022746089 74.0 0.0 65.0 
312.00010179366996 15502.0 10190.0 542.6962524654846 5.46446332470845 72.0 0.0 63.0 
314.00010179366996 15515.0 10189.0 544.9270216962541 5.794624466518383 73.0 0.0 64.0 
316.00010179366996 15504.0 10188.0 544.9211045364879 5.337809450233051 73.0 0.0 64.0 
318.00010179366996 15480.0 10186.0 542.6074950690323 5.378182288932262 70.0 0.0 63.0 
320.00010179366996 15599.0 10306.0 542.6291913215014 5.367496343610003 69.0 0.0 63.0 
322.00010179366996 15584.0 10311.0 540.3648915187384 5.490330812779618 73.0 0.0 62.0 
324.00010179366996 15534.0 10273.0 538.0670611439832 5.9954737804302605 72.0 0.0 61.0 
326.00010179366996 15525.0 10267.0 538.0710059171606 5.491649650458986 72.0 0.0 61.0 
328.00010179366996 15616.0 10313.0 544.8954635108463 5.985420750092809 77.0 0.0 64.0 
330.00010179366996 15609.0 10315.0 529.0611439842227 5.913835301302806 67.0 0.0 57.0 
332.00010179366996 15584.0 10315.0 529.0315581854032 5.250306492151195 69.0 0.0 57.0 
334.00010179366996 15599.0 10315.0 510.8895463510844 4.809303733363596 61.0 0.0 49.0 
336.00010179366996 15585.0 10315.0 490.538461538462 4.975128977689863 53.0 0.0 40.0 
338.00010179366996 15586.0 10315.0 486.0098619329396 5.587802010421902 51.0 0.0 38.0 
340.00010179366996 15628.0 10337.0 488.2840236686393 5.33143388715552 52.0 0.0 39.0 
342.00010179366996 15699.0 10389.0 499.63313609467576 5.575503880156394 57.0 0.0 44.0 
344.00010179366996 15705.0 10389.0 501.89546351084897 5.925780371130228 57.0 0.0 45.0 
346.00010179366996 15719.0 10392.0 504.1893491124252 5.8402110972656 60.0 0.0 46.0 
348.00010179366996 15727.0 10394.0 504.1932938856006 5.697584395532591 60.0 0.0 46.0 
350.00010179366996 15734.0 10379.0 506.4477317554231 5.4975717706189435 61.0 0.0 47.0 
352.00010179366996 15774.0 10424.0 506.4595660749521 5.702585259333587 61.0 0.0 47.0 
354.00010179366996 15809.0 10426.0 506.43589743589666 5.8855571154226345 61.0 0.0 47.0 
356.00010179366996 15795.0 10411.0 506.4536489151878 5.876964679816015 58.0 0.0 47.0 
358.00010179366996 15778.0 10388.0 510.99605522682486 5.555791980746508 60.0 0.0 49.0 
360.00010179366996 15897.0 10485.0 506.4694280078885 5.55881578550961 57.0 0.0 47.0 
362.00010179366996 16061.0 10523.0 506.4654832347135 5.633141721237014 53.0 0.0 47.0 
364.00010179366996 16058.0 10522.0 506.4536489151878 5.728313528335057 53.0 0.0 47.0 
366.00010179366996 16108.0 10531.0 506.4516765285986 5.522115053570848 51.0 0.0 47.0 
368.00010179366996 16112.0 10532.0 506.44773175542326 5.841790245832956 51.0 0.0 47.0 
370.00010179366996 16067.0 10481.0 506.44773175542326 6.301017415931389 51.0 0.0 47.0 
372.00010179366996 16222.0 10542.0 513.2485207100583 6.027773937216565 61.0 0.0 50.0 
374.00010179366996 16229.0 10543.0 520.0729783037488 6.338990681611118 65.0 0.0 53.0 
376.00010179366996 16182.0 10537.0 520.0512820512828 5.951616012345808 65.0 0.0 53.0 
378.00010179366996 16163.0 10535.0 520.0571992110436 6.206282040470052 65.0 0.0 53.0 
380.00010179366996 16113.0 10515.0 520.0138067061149 5.971595306898043 64.0 0.0 53.0 
382.00010179366996 16128.0 10530.0 508.6824457593692 5.4149570330078785 60.0 0.0 48.0 
384.00010179366996 16091.0 10531.0 506.4201183431961 5.701962231669101 58.0 0.0 47.0 
386.00010179366996 16060.0 10530.0 504.199211045365 5.239754328087381 55.0 0.0 46.0 
388.00010179366996 16000.0 10507.0 504.16370808678397 5.358224503943011 55.0 0.0 46.0 
390.00010179366996 15947.0 10479.0 504.15581854043273 5.806195512107617 55.0 0.0 46.0 
392.00010179366996 15999.0 10522.0 506.43392504931074 6.074104906602073 56.0 0.0 47.0 
394.00010179366996 16000.0 10523.0 506.3708086784994 6.217941166324226 57.0 0.0 47.0 
396.00010179366996 16003.0 10522.0 508.6449704142023 5.507099817071444 60.0 0.0 48.0 
398.00010179366996 16032.0 10525.0 508.63313609467576 5.52032703436302 63.0 0.0 48.0 
400.00010179366996 16026.0 10502.0 513.1814595660741 5.886613904904774 65.0 0.0 50.0 
402.00010179366996 16046.0 10526.0 515.443786982248 5.408839090596409 68.0 0.0 51.0 
404.00010179366996 16049.0 10526.0 517.7041420118352 5.723779388572768 65.0 0.0 52.0 
406.00010179366996 16165.0 10534.0 540.380670611439 5.281003280469762 73.0 0.0 62.0 
408.00010179366996 16242.0 10537.0 554.0532544378709 5.79257923461304 79.0 0.0 68.0 
410.00010179366996 16267.0 10539.0 551.743589743589 5.650435524439599 78.0 0.0 67.0 
412.00010179366996 16265.0 10496.0 556.2583826430008 5.311300883462334 81.0 0.0 69.0 
414.00010179366996 16311.0 10539.0 554.0118343195284 5.3988487433470755 79.0 0.0 68.0 
416.00010179366996 16327.0 10541.0 549.4595660749527 5.39443274000503 79.0 0.0 66.0 
418.00010179366996 16331.0 10542.0 551.7297830374767 5.906795301811542 80.0 0.0 67.0 
420.00010179366996 16326.0 10526.0 547.2051282051299 6.163969965945678 78.0 0.0 65.0 
422.00010179366996 16315.0 10500.0 551.7534516765274 6.272128632401802 80.0 0.0 67.0 
424.00010179366996 16385.0 10541.0 558.5641025641007 6.399929130849039 86.0 0.0 70.0 
426.00010179366996 16381.0 10541.0 554.0315581854039 6.009524650006889 83.0 0.0 68.0 
428.00010179366996 16345.0 10538.0 554.076923076924 5.800827837329759 88.0 0.0 68.0 
430.00010179366996 16357.0 10538.0 556.319526627218 5.578015140743665 88.0 0.0 69.0 
432.00010179366996 16375.0 10475.0 567.7633136094684 5.469830764723557 94.0 0.0 74.0 
434.00010179366996 16431.0 10547.0 560.9013806706125 5.472449242925584 94.0 0.0 71.0 
436.00010179366996 16554.0 10554.0 579.1341222879668 5.449878899331901 105.0 0.0 79.0 
438.00010179366996 16584.0 10564.0 585.79684418146 5.681532766480153 110.0 0.0 82.0 
440.00010179366996 16538.0 10562.0 585.7948717948697 5.664065642182543 109.0 0.0 82.0 
442.00010179366996 16924.0 10571.0 624.422090729781 5.64250753245581 127.0 0.0 99.0 
444.00010179366996 16930.0 10587.0 624.3412228796863 5.563221294255954 128.0 0.0 99.0 
446.00010179366996 17041.0 10597.0 637.9309664694264 5.258885160725941 130.0 0.0 105.0 
448.00010179366996 17088.0 10612.0 653.8007889546398 5.850768659287208 137.0 0.0 112.0 
450.00010179366996 17136.0 10622.0 656.0098619329397 6.102279653247593 138.0 0.0 113.0 
452.00010179366996 17200.0 10615.0 660.5641025640999 5.79717514909738 140.0 0.0 115.0 
454.00010179366996 17137.0 10588.0 662.8639053254429 5.721080727474056 149.0 0.0 116.0 
456.00010179366996 17204.0 10634.0 662.867850098623 5.836201051922648 149.0 0.0 116.0 
458.00010179366996 17175.0 10634.0 662.8422090729796 6.000470993174991 147.0 0.0 116.0 
460.00010179366996 17188.0 10665.0 660.5838264299804 6.042011165801784 146.0 0.0 115.0 
462.00010179366996 17244.0 10649.0 658.3372781065067 5.507732455546308 143.0 0.0 114.0 
464.00010179366996 17265.0 10672.0 651.5345167652864 5.540989204648037 138.0 0.0 111.0 
466.00010179366996 17286.0 10678.0 665.2149901380673 5.426691643660361 144.0 0.0 117.0 
468.00010179366996 17253.0 10676.0 667.3846153846149 5.785573535464867 149.0 0.0 118.0 
470.00010179366996 17239.0 10675.0 665.1025641025653 6.041008879290363 148.0 0.0 117.0 
472.00010179366996 17220.0 10693.0 669.7061143984206 5.718154196912209 154.0 0.0 119.0 
474.00010179366996 17246.0 10730.0 669.6134122287997 6.133802537664485 153.0 0.0 119.0 
476.00010179366996 17592.0 10815.0 692.3195266272166 5.749224480104524 167.0 0.0 129.0 
478.00010179366996 17655.0 10821.0 717.1597633136147 5.460898852409029 178.0 0.0 140.0 
480.00010179366996 17567.0 10819.0 721.7337278106538 5.549061442941192 178.0 0.0 142.0 
482.00010179366996 17617.0 10822.0 733.0986193293851 5.381018754009509 188.0 0.0 147.0 
484.00010179366996 17440.0 10798.0 733.1045364891551 5.571825796569437 183.0 0.0 147.0 
486.00010179366996 17498.0 10777.0 732.8481262327426 5.616905593813177 185.0 0.0 147.0 
488.00010179366996 17563.0 10820.0 732.8481262327426 5.7295151844579335 184.0 0.0 147.0 
490.00010179366996 17561.0 10820.0 732.8441814595626 6.069485459284918 185.0 0.0 147.0 
492.00010179366996 17547.0 10822.0 735.1104536489091 5.888453792757774 186.0 0.0 148.0 
494.00010179366996 17520.0 10780.0 726.0571992110495 6.054994962182502 180.0 0.0 144.0 
496.00010179366996 17699.0 10833.0 719.3668639053212 5.761080511350194 182.0 0.0 141.0 
498.00010179366996 17681.0 10833.0 698.9940828402334 5.787616076887937 170.0 0.0 132.0 
500.00010179366996 17729.0 10888.0 692.1952662721841 5.477227422828527 167.0 0.0 129.0 
502.00010179366996 17720.0 10890.0 692.1834319526597 5.050225748664308 168.0 0.0 129.0 
504.00010179366996 17702.0 10873.0 694.3786982248552 5.571136209699288 168.0 0.0 130.0 
506.00010179366996 17732.0 10890.0 712.6015779092761 5.421792515507808 173.0 0.0 138.0 
508.00010179366996 17715.0 10891.0 723.7652859960579 5.649906543950777 178.0 0.0 143.0 
510.00010179366996 17718.0 10891.0 732.8441814595627 5.766120188521465 182.0 0.0 147.0 
512.00010179367 17699.0 10890.0 746.6311637080912 5.941394653843359 188.0 0.0 153.0 
514.00010179367 17776.0 10896.0 755.583826429986 6.0299273739718755 192.0 0.0 157.0 
516.00010179367 17901.0 10888.0 757.8382642998088 5.764220266154731 193.0 0.0 158.0 
518.00010179367 17899.0 10867.0 762.4161735700139 5.914109602375722 196.0 0.0 160.0 
520.00010179367 17951.0 10906.0 757.8836291913237 5.922595749167736 192.0 0.0 158.0 
522.00010179367 18080.0 10918.0 766.9467455621277 5.8906412644069 193.0 0.0 162.0 
524.00010179367 18029.0 10894.0 764.6469428007921 5.828684946562978 192.0 0.0 161.0 
526.00010179367 18112.0 10925.0 787.4102564102603 5.396396183991155 200.0 0.0 171.0 
528.00010179367 18121.0 10928.0 787.3096646942832 5.5533507212839694 196.0 0.0 171.0 
530.00010179367 18049.0 10925.0 757.8777120315542 5.744803162584255 179.0 0.0 158.0 
532.00010179367 18026.0 10925.0 748.7988165680493 5.617949997627204 174.0 0.0 154.0 
534.00010179367 18038.0 10926.0 739.7357001972438 5.872537998702917 170.0 0.0 150.0 
536.00010179367 17945.0 10878.0 728.4240631163713 5.540697388008226 165.0 0.0 145.0 
538.00010179367 17975.0 10925.0 717.1163708086764 5.766822882441326 165.0 0.0 140.0 
540.00010179367 17950.0 10926.0 701.2978303747484 5.92138349456312 158.0 0.0 133.0 
542.00010179367 17906.0 10921.0 692.282051282047 5.883287612982984 154.0 0.0 129.0 
544.00010179367 17872.0 10919.0 689.9704142011856 6.261566628993556 152.0 0.0 128.0 
546.00010179367 17762.0 10914.0 692.2702169625231 6.365077300150394 151.0 0.0 129.0 
548.00010179367 17674.0 10887.0 692.228796844175 6.376008253798819 150.0 0.0 129.0 
550.00010179367 17636.0 10862.0 699.0059171597677 5.837603878706434 154.0 0.0 132.0 
552.00010179367 17601.0 10900.0 719.4319526627283 5.779535343288342 162.0 0.0 141.0 
554.00010179367 17613.0 10903.0 719.3136094674489 5.780886415250917 158.0 0.0 141.0 
556.00010179367 17418.0 10845.0 710.3234714003964 5.351137952267204 152.0 0.0 137.0 
558.00010179367 17494.0 10890.0 710.2347140039424 5.511901347285864 152.0 0.0 137.0 
560.00010179367 17406.0 10889.0 703.4773175542433 5.658510149598407 149.0 0.0 134.0 
562.00010179367 17413.0 10887.0 714.7001972386626 5.7392027885381784 154.0 0.0 139.0 
564.00010179367 17408.0 10887.0 714.6587771203135 5.916625529870131 153.0 0.0 139.0 
566.00010179367 17472.0 10876.0 705.6489151873798 5.633322759829343 147.0 0.0 135.0 
568.00010179367 17578.0 10898.0 721.4674556212963 5.692455896229117 153.0 0.0 142.0 
570.00010179367 17683.0 10904.0 703.4161735700143 5.886148497367576 149.0 0.0 134.0 
572.00010179367 17676.0 10901.0 707.9664694280085 5.91529383576048 153.0 0.0 136.0 
574.00010179367 17675.0 10902.0 712.4950690335342 6.0068509384451785 153.0 0.0 138.0 
576.00010179367 17688.0 10901.0 712.475345167654 6.254260911692301 157.0 0.0 138.0 
578.00010179367 17718.0 10903.0 717.013806706111 6.187098587850943 159.0 0.0 140.0 
580.00010179367 17713.0 10883.0 714.7771203155794 6.120723904394109 158.0 0.0 139.0 
582.00010179367 17645.0 10855.0 714.781065088759 6.161358677672534 158.0 0.0 139.0 
584.00010179367 17678.0 10895.0 707.9783037475315 5.704692461126998 155.0 0.0 136.0 
586.00010179367 17653.0 10870.0 685.3431952662766 5.434186940034983 145.0 0.0 126.0 
588.00010179367 17644.0 10892.0 683.0927021696298 5.461100015098369 143.0 0.0 125.0 
590.00010179367 17682.0 10894.0 678.5049309664661 5.773646120479799 140.0 0.0 123.0 
592.00010179367 18356.0 10923.0 707.927021696252 5.556492089788168 155.0 0.0 136.0 
594.00010179367 18339.0 10921.0 710.1834319526597 5.89129352659587 160.0 0.0 137.0 
596.00010179367 18698.0 10938.0 728.4418145956618 5.651512219149519 175.0 0.0 145.0 
598.00010179367 18700.0 10892.0 735.1459566074939 5.387546972150147 182.0 0.0 148.0 
600.00010179367 18673.0 10935.0 730.6232741617322 5.826990587629835 178.0 0.0 146.0 
602.00010179367 18731.0 10936.0 735.1873767258393 5.471313314748626 183.0 0.0 148.0 
604.00010179367 18720.0 10935.0 732.8560157790907 5.751945068017855 178.0 0.0 147.0 
606.00010179367 19313.0 10966.0 748.8540433925052 5.226504209921561 193.0 0.0 154.0 
608.00010179367 19391.0 10973.0 753.3747534516784 5.410977957528481 197.0 0.0 156.0 
610.00010179367 19414.0 10973.0 748.8007889546388 5.849966287662036 201.0 0.0 154.0 
612.00010179367 19741.0 10970.0 760.1282051282036 5.754031643354111 199.0 0.0 159.0 
614.00010179367 19785.0 10997.0 753.3826429980264 5.9827027635597485 196.0 0.0 156.0 
616.00010179367 20679.0 11086.0 767.1558185404357 5.673580852818587 205.0 0.0 162.0 
618.00010179367 20636.0 11024.0 769.2504930966447 5.842034120862193 213.0 0.0 163.0 
620.00010179367 20807.0 11104.0 751.1696252465485 5.839461897766912 209.0 0.0 155.0 
622.00010179367 20726.0 11107.0 767.0138067061124 5.5347234976565405 220.0 0.0 162.0 
624.00010179367 20766.0 11107.0 771.5305719921116 5.845369410890059 222.0 0.0 164.0 
626.00010179367 20576.0 11103.0 773.8185404339258 5.477768784031854 224.0 0.0 165.0 
628.00010179367 20549.0 11079.0 767.0493096646928 5.758304302917742 220.0 0.0 162.0 
630.00010179367 20770.0 11107.0 776.0788954635095 6.0086557785988886 218.0 0.0 166.0 
632.00010179367 20724.0 11110.0 792.0493096646928 6.051751151133262 225.0 0.0 173.0 
634.00010179367 20779.0 11110.0 805.6311637080896 6.231761967705369 230.0 0.0 179.0 
636.00010179367 20409.0 11098.0 805.6094674556206 6.087575666079108 226.0 0.0 179.0 
638.00010179367 20409.0 11097.0 803.2859960552248 6.22493817796382 222.0 0.0 178.0 
640.00010179367 20307.0 11094.0 805.506903353056 6.416098231383598 224.0 0.0 179.0 
642.00010179367 20059.0 11085.0 798.6942800788948 6.512891475827545 217.0 0.0 176.0 
644.00010179367 20016.0 11065.0 798.7179487179508 6.339659865606607 215.0 0.0 176.0 
646.00010179367 19610.0 11022.0 794.1479289940817 5.638856441818093 207.0 0.0 174.0 
648.00010179367 19615.0 11063.0 796.3826429980248 5.777630413675589 205.0 0.0 175.0 
650.00010179367 19580.0 11062.0 798.5996055226842 5.813872226689565 207.0 0.0 176.0 
652.00010179367 19525.0 11055.0 789.5424063116371 5.855117292184295 203.0 0.0 172.0 
654.00010179367 19529.0 11058.0 794.078895463509 5.829704686485186 203.0 0.0 174.0 
656.00010179367 19517.0 11058.0 800.8757396449689 5.753037314089347 205.0 0.0 177.0 
658.00010179367 19526.0 11060.0 814.4260355029602 6.07854580487036 210.0 0.0 183.0 
660.00010179367 19339.0 11050.0 807.7159763313639 6.037438445834191 207.0 0.0 180.0 
662.00010179367 19447.0 11052.0 818.89151873767 5.9612556080155406 212.0 0.0 185.0 
664.00010179367 19418.0 11047.0 814.3017751479271 6.198374633552156 210.0 0.0 183.0 
#####################################################################
# End of data export. Simulation finished at: 2019-03-12T07:35+0000 #
#####################################################################
