#####################################################################
# Alchemist log file - simulation started at: 2019-03-13T01:47+0000 #
#####################################################################
# seed = 5.0, bandwidth = 316227.76601683797, accessPointCount = 1031.338537721246, baserange = 17.78279410038923
#
# The columns have the following meaning: 
# time neighbor_count[Sum] <value>@neighbor_count[Sum] packet_size[Mean] mean_delay[Mean] crowd[Sum] overcrowded[Sum] risk[Sum] 
0.0 NaN NaN NaN NaN NaN NaN NaN 
2.000101793669918 133.0 82.0 4979.180379746836 0.4976696399615582 1497.0 0.0 1497.0 
4.000101793669918 134.0 82.0 4979.992088607594 0.4987193354955082 1497.0 0.0 1497.0 
6.000101793669918 139.0 82.0 4979.416139240506 0.49846247938371857 1497.0 0.0 1497.0 
8.000101793669918 144.0 83.0 4979.216772151898 0.5034560848343794 1497.0 0.0 1497.0 
10.000101793669918 144.0 82.0 4979.667721518987 0.490759923473958 1497.0 0.0 1497.0 
12.000101793669918 144.0 82.0 4979.376582278481 0.4907694380462163 1497.0 0.0 1497.0 
14.000101793669918 144.0 82.0 4979.3844936708865 0.49077810194729116 1497.0 0.0 1497.0 
16.00010179366992 144.0 82.0 4979.534810126583 0.490775531440889 1497.0 0.0 1497.0 
18.00010179366992 144.0 82.0 4979.261075949367 0.49078579497364444 1497.0 0.0 1497.0 
20.00010179366992 144.0 82.0 4979.416139240506 0.4907838902099076 1497.0 0.0 1497.0 
22.00010179366992 144.0 82.0 4979.262658227848 0.4907901038081171 1497.0 0.0 1497.0 
24.00010179366992 144.0 82.0 4979.346518987341 0.4907872744017896 1497.0 0.0 1497.0 
26.00010179366992 144.0 82.0 4979.422468354431 0.4907815601105791 1497.0 0.0 1497.0 
28.00010179366992 144.0 82.0 4979.18670886076 0.4907887723227865 1497.0 0.0 1497.0 
30.00010179366992 144.0 82.0 4979.349683544304 0.49078561004512633 1497.0 0.0 1497.0 
32.00010179366992 144.0 82.0 4979.368670886076 0.4907847223882393 1497.0 0.0 1497.0 
34.00010179366992 144.0 82.0 4979.212025316456 0.49079382087133194 1497.0 0.0 1497.0 
36.00010179366992 146.0 83.0 4979.329113924051 0.4906756852363377 1497.0 0.0 1497.0 
38.00010179366992 146.0 83.0 4979.386075949367 0.4906715415621624 1497.0 0.0 1497.0 
40.00010179366992 146.0 83.0 4979.330696202532 0.49067753898531086 1497.0 0.0 1497.0 
42.00010179366992 146.0 83.0 4979.3655063291135 0.49067492192793677 1497.0 0.0 1497.0 
44.00010179366992 146.0 83.0 4979.284810126583 0.49067252295867747 1497.0 0.0 1497.0 
46.00010179366992 146.0 83.0 4979.458860759494 0.49066968781318904 1497.0 0.0 1497.0 
48.00010179366992 146.0 83.0 4979.207278481013 0.49067797516154 1497.0 0.0 1497.0 
50.00010179366992 146.0 83.0 4979.226265822785 0.49068179170354376 1497.0 0.0 1497.0 
52.00010179366992 146.0 83.0 4979.488924050633 0.4906656531830708 1497.0 0.0 1497.0 
54.00010179366992 146.0 83.0 4979.243670886076 0.49067535810416574 1497.0 0.0 1497.0 
56.00010179366992 146.0 83.0 4979.270569620253 0.5165468048586066 1497.0 0.0 1497.0 
58.00010179366992 144.0 82.0 4979.5 0.49077795400447566 1497.0 0.0 1497.0 
60.00010179366992 144.0 82.0 4977.412974683544 0.4907878291873442 1496.0 0.0 1496.0 
62.00010179366992 146.0 83.0 407.2848101265822 0.4977419646126876 44.0 0.0 4.0 
64.00010179366993 148.0 84.0 407.3037974683544 0.4997291284683019 45.0 0.0 4.0 
66.00010179366993 148.0 84.0 407.2816455696203 0.49972801184483306 42.0 0.0 4.0 
68.00010179366993 150.0 85.0 407.2848101265822 0.4997157409886307 28.0 0.0 4.0 
70.00010179366993 150.0 85.0 407.28955696202536 0.49970905628502116 18.0 0.0 4.0 
72.00010179366993 150.0 85.0 407.2832278481013 0.5247140983610683 14.0 0.0 4.0 
74.00010179366993 148.0 84.0 407.2768987341773 0.49973344310137946 10.0 0.0 4.0 
76.00010179366993 148.0 84.0 407.2737341772151 0.49973419347234976 8.0 0.0 4.0 
78.00010179366993 148.0 84.0 407.2737341772151 0.5251579222859091 8.0 0.0 4.0 
80.00010179366993 146.0 83.0 407.2737341772151 0.49975141941263285 8.0 0.0 4.0 
82.00010179366993 146.0 83.0 407.2737341772151 0.49975141941263285 8.0 0.0 4.0 
84.00010179366993 146.0 83.0 407.2737341772151 0.49975141941263285 8.0 0.0 4.0 
86.00010179366993 146.0 83.0 407.2737341772151 0.49975141941263285 8.0 0.0 4.0 
88.00010179366993 146.0 83.0 407.2737341772151 0.49975141941263285 5.0 0.0 4.0 
90.00010179366993 146.0 83.0 407.2737341772151 0.49975141941263285 5.0 0.0 4.0 
92.00010179366993 146.0 83.0 407.2737341772151 0.49975141941263285 5.0 0.0 4.0 
94.00010179366993 146.0 83.0 407.2737341772151 0.49975141941263285 5.0 0.0 4.0 
96.00010179366993 146.0 83.0 407.2737341772151 0.49975141941263285 5.0 0.0 4.0 
98.00010179366993 146.0 83.0 407.2737341772151 0.49975141941263285 5.0 0.0 4.0 
100.00010179366993 146.0 83.0 407.2737341772151 0.49975141941263285 5.0 0.0 4.0 
102.00010179366993 146.0 83.0 407.2737341772151 0.49975141941263285 5.0 0.0 4.0 
104.00010179366993 146.0 83.0 407.2737341772151 0.49975141941263285 5.0 0.0 4.0 
106.00010179366993 146.0 83.0 407.2737341772151 0.49975141941263285 5.0 0.0 4.0 
108.00010179366993 146.0 83.0 407.2737341772151 0.49975141941263285 5.0 0.0 4.0 
110.00010179366993 146.0 83.0 407.2737341772151 0.49975141941263285 5.0 0.0 4.0 
112.00010179366993 146.0 83.0 407.2737341772151 0.49975141941263285 5.0 0.0 4.0 
114.00010179366993 146.0 83.0 407.2737341772151 0.52561348837815 5.0 0.0 4.0 
116.00010179366993 144.0 82.0 407.2737341772151 0.4997692497718732 5.0 0.0 4.0 
118.00010179366993 144.0 82.0 407.2737341772151 0.4997692497718732 5.0 0.0 4.0 
120.00010179366993 144.0 82.0 407.2737341772151 0.4997692497718732 5.0 0.0 4.0 
122.00010179366993 144.0 82.0 407.2737341772151 0.4997692497718732 5.0 0.0 4.0 
124.00010179366993 144.0 82.0 407.2737341772151 0.4997692497718732 5.0 0.0 4.0 
126.00010179366993 144.0 82.0 407.2737341772151 0.4997692497718732 5.0 0.0 4.0 
128.00010179366993 145.0 82.0 407.2737341772151 0.4996294889409403 6.0 0.0 4.0 
130.00010179366993 146.0 83.0 407.2737341772151 0.4993610088586191 6.0 0.0 4.0 
132.00010179366993 146.0 83.0 407.2737341772151 0.4993610088586191 6.0 0.0 4.0 
134.00010179366993 146.0 83.0 407.2737341772151 0.4993610088586191 6.0 0.0 4.0 
136.00010179366993 146.0 83.0 407.2737341772151 0.4993610088586191 6.0 0.0 4.0 
138.00010179366993 147.0 83.0 407.2737341772151 0.49977017924298206 6.0 0.0 4.0 
140.00010179366993 149.0 84.0 409.1123417721519 0.4964845742176435 6.0 0.0 5.0 
142.00010179366993 150.0 84.0 409.11867088607585 0.4995954777217304 6.0 0.0 5.0 
144.00010179366993 151.0 84.0 409.1234177215188 0.49731082140052324 6.0 0.0 5.0 
146.00010179366993 152.0 85.0 409.1265822784812 0.4995775628169622 6.0 0.0 5.0 
148.00010179366993 152.0 85.0 409.1123417721519 0.49958096425847903 6.0 0.0 5.0 
150.00010179366993 152.0 85.0 409.1060126582279 0.49958500347028045 6.0 0.0 5.0 
152.00010179366993 152.0 85.0 409.1060126582279 0.4995846845851382 6.0 0.0 5.0 
154.00010179366993 152.0 85.0 409.09968354430373 0.5079909158959559 6.0 0.0 5.0 
156.00010179366993 151.0 85.0 409.09335443037975 0.5188202779088842 6.0 0.0 5.0 
158.00010179366993 151.0 84.0 410.9193037974681 0.49851744620177985 6.0 0.0 6.0 
160.00010179366993 152.0 84.0 410.9287974683545 0.4987169748768071 6.0 0.0 6.0 
162.00010179366993 152.0 84.0 410.9319620253163 0.49871552617524695 6.0 0.0 6.0 
164.00010179366993 152.0 84.0 410.9303797468356 0.4987146720899986 6.0 0.0 6.0 
166.00010179366993 152.0 84.0 410.91613924050637 0.4987181749206373 6.0 0.0 6.0 
168.00010179366993 154.0 84.0 410.9208860759493 0.5242147789550998 6.0 0.0 6.0 
170.00010179366993 152.0 83.0 410.9145569620255 0.49857101347253197 6.0 0.0 6.0 
172.00010179366993 152.0 83.0 410.90822784810115 0.49857589712916167 6.0 0.0 6.0 
174.00010179366993 152.0 83.0 410.90822784810115 0.49857589712916167 6.0 0.0 6.0 
176.00010179366993 152.0 83.0 410.90822784810115 0.49857589712916167 6.0 0.0 6.0 
178.00010179366993 153.0 83.0 410.91139240506317 0.49513990579034173 6.0 0.0 6.0 
180.00010179366993 154.0 84.0 410.90822784810115 0.50712471876236 6.0 0.0 6.0 
182.00010179366993 153.0 83.0 410.90822784810115 0.5189419854580936 6.0 0.0 6.0 
184.00010179366993 152.0 83.0 410.90822784810115 0.4985758971291616 6.0 0.0 6.0 
186.00010179366993 152.0 83.0 410.90822784810115 0.4985758971291616 6.0 0.0 6.0 
188.00010179366993 152.0 83.0 410.90822784810115 0.5072715493030747 6.0 0.0 6.0 
190.00010179366993 154.0 85.0 410.90822784810115 0.5159837189967568 6.0 0.0 6.0 
192.00010179366993 154.0 84.0 410.90822784810115 0.49857861835662803 6.0 0.0 6.0 
194.00010179366993 154.0 84.0 410.90822784810115 0.49857861835662803 6.0 0.0 6.0 
196.00010179366993 154.0 84.0 410.90822784810115 0.49857861835662803 6.0 0.0 6.0 
198.00010179366993 156.0 84.0 410.91139240506317 0.49851615947584044 6.0 0.0 6.0 
200.00010179366993 158.0 84.0 410.90822784810115 0.49837876090444944 6.0 0.0 6.0 
202.00010179366993 158.0 84.0 410.90822784810115 0.49838025285083254 6.0 0.0 6.0 
204.00010179366993 158.0 84.0 410.90822784810115 0.49838025285083254 6.0 0.0 6.0 
206.00010179366993 158.0 84.0 410.90822784810115 0.49838025285083254 6.0 0.0 6.0 
208.00010179366993 160.0 85.0 410.91139240506317 0.5008871530792525 6.0 0.0 6.0 
210.00010179366993 160.0 85.0 410.90822784810115 0.5008859310465297 6.0 0.0 6.0 
212.00010179366993 160.0 85.0 410.90822784810115 0.5008874103492993 6.0 0.0 6.0 
214.00010179366993 160.0 85.0 410.90822784810115 0.5008874103492993 6.0 0.0 6.0 
216.00010179366993 160.0 85.0 410.90822784810115 0.5008874103492993 6.0 0.0 6.0 
218.00010179366993 160.0 85.0 410.91139240506317 0.5277393906492761 6.0 0.0 6.0 
220.00010179366993 159.0 85.0 410.90822784810115 0.5374947168121305 6.0 0.0 6.0 
222.00010179366993 156.0 84.0 410.90822784810115 0.49940935459473923 6.0 0.0 6.0 
224.00010179366993 157.0 85.0 410.9240506329113 0.49602081537173526 6.0 0.0 6.0 
226.00010179366993 158.0 85.0 410.9287974683545 0.49939033726686616 6.0 0.0 6.0 
228.00010179366993 158.0 85.0 410.9382911392406 0.4993885833985841 6.0 0.0 6.0 
230.00010179366993 158.0 85.0 410.93512658227826 0.49938754170711946 6.0 0.0 6.0 
232.00010179366993 158.0 85.0 410.9287974683545 0.49938883850669785 6.0 0.0 6.0 
234.00010179366993 158.0 85.0 410.9319620253163 0.507791158159771 6.0 0.0 6.0 
236.00010179366993 157.0 84.0 410.9224683544302 0.5197265386398721 6.0 0.0 6.0 
238.00010179366993 156.0 84.0 410.9224683544302 0.49940528958140534 6.0 0.0 6.0 
240.00010179366993 156.0 84.0 410.9256329113925 0.4994037111453768 6.0 0.0 6.0 
242.00010179366993 156.0 84.0 410.9224683544302 0.49940503011246906 6.0 0.0 6.0 
244.00010179366993 157.0 85.0 410.91297468354435 0.49565391957800414 6.0 0.0 6.0 
246.00010179366993 158.0 85.0 410.91297468354435 0.499396555527139 6.0 0.0 6.0 
248.00010179366993 158.0 85.0 410.91613924050637 0.508188687257116 6.0 0.0 6.0 
250.00010179366993 152.0 85.0 410.9208860759492 0.5137596135322435 6.0 0.0 6.0 
252.00010179366993 148.0 84.0 410.90822784810115 0.49945561824967033 6.0 0.0 6.0 
254.00010179366993 148.0 84.0 410.90822784810115 0.49945561824967033 6.0 0.0 6.0 
256.00010179366996 148.0 84.0 410.90822784810115 0.49945561824967033 6.0 0.0 6.0 
258.00010179366996 152.0 86.0 410.90822784810115 0.4994319943377264 6.0 0.0 6.0 
260.00010179366996 152.0 86.0 410.90822784810115 0.5158254369606772 6.0 0.0 6.0 
262.00010179366996 150.0 85.0 410.90822784810115 0.49944360942775656 6.0 0.0 6.0 
264.00010179366996 151.0 86.0 410.90822784810115 0.5059621826364707 6.0 0.0 6.0 
266.00010179366996 151.0 85.0 410.90822784810115 0.5196205050535927 6.0 0.0 6.0 
268.00010179366996 150.0 85.0 410.90822784810115 0.5244436094277566 6.0 0.0 6.0 
270.00010179366996 148.0 84.0 410.90822784810115 0.5248793470632115 6.0 0.0 6.0 
272.00010179366996 146.0 83.0 410.90822784810115 0.49946804116885446 6.0 0.0 6.0 
274.00010179366996 146.0 83.0 410.90822784810115 0.49946804116885446 6.0 0.0 6.0 
276.00010179366996 146.0 83.0 410.90822784810115 0.49946804116885446 6.0 0.0 6.0 
278.00010179366996 146.0 83.0 410.90822784810115 0.5167094204791993 6.0 0.0 6.0 
280.00010179366996 144.0 82.0 409.1012658227849 0.4997666977583158 6.0 0.0 5.0 
282.00010179366996 148.0 84.0 409.0965189873419 0.4997291642002455 6.0 0.0 5.0 
284.00010179366996 150.0 85.0 409.11075949367074 0.5080419240608034 6.0 0.0 5.0 
286.00010179366996 149.0 84.0 409.11867088607585 0.5182952880831883 6.0 0.0 5.0 
288.00010179366996 148.0 84.0 409.11075949367074 0.4997239205364417 6.0 0.0 5.0 
290.00010179366996 148.0 84.0 409.1044303797468 0.49972826196848386 6.0 0.0 5.0 
292.00010179366996 148.0 84.0 409.09810126582266 0.525154206163003 6.0 0.0 5.0 
294.00010179366996 146.0 83.0 409.09810126582266 0.5342320153261808 6.0 0.0 5.0 
296.00010179366996 144.0 82.0 409.0917721518987 0.4997684730720905 6.0 0.0 5.0 
298.00010179366996 144.0 82.0 409.08860759493683 0.4997692497718664 6.0 0.0 5.0 
300.00010179366996 144.0 82.0 409.08860759493683 0.4997692497718664 6.0 0.0 5.0 
302.00010179366996 144.0 82.0 409.08860759493683 0.5260850392455506 6.0 0.0 5.0 
304.00010179366996 142.0 81.0 409.08860759493683 0.4997877169296512 6.0 0.0 5.0 
306.00010179366996 142.0 81.0 409.08860759493683 0.4997877169296512 6.0 0.0 5.0 
308.00010179366996 142.0 81.0 409.08860759493683 0.4997877169296512 6.0 0.0 5.0 
310.00010179366996 144.0 82.0 407.2737341772151 0.4997692497718664 5.0 0.0 4.0 
312.00010179366996 144.0 82.0 407.2737341772151 0.4997692497718664 5.0 0.0 4.0 
314.00010179366996 144.0 82.0 407.2737341772151 0.4997692497718664 5.0 0.0 4.0 
316.00010179366996 145.0 82.0 407.2737341772151 0.49809953067319473 5.0 0.0 4.0 
318.00010179366996 146.0 83.0 407.2737341772151 0.4997514194126259 5.0 0.0 4.0 
320.00010179366996 146.0 83.0 407.2737341772151 0.4997514194126259 5.0 0.0 4.0 
322.00010179366996 146.0 83.0 407.2737341772151 0.4997514194126259 5.0 0.0 4.0 
324.00010179366996 150.0 84.0 407.2737341772151 0.49971029921032856 5.0 0.0 4.0 
326.00010179366996 150.0 84.0 407.2737341772151 0.5082573077573371 5.0 0.0 4.0 
328.00010179366996 149.0 84.0 407.2737341772151 0.518606495294688 5.0 0.0 4.0 
330.00010179366996 148.0 83.0 407.2737341772151 0.49972725938901397 5.0 0.0 4.0 
332.00010179366996 148.0 83.0 407.2737341772151 0.49972725938901397 5.0 0.0 4.0 
334.00010179366996 148.0 83.0 407.2737341772151 0.5258252151373968 5.0 0.0 4.0 
336.00010179366996 144.0 82.0 407.2737341772151 0.4997692497718664 5.0 0.0 4.0 
338.00010179366996 144.0 82.0 407.2737341772151 0.4997692497718664 5.0 0.0 4.0 
340.00010179366996 144.0 82.0 407.2737341772151 0.4997692497718664 5.0 0.0 4.0 
342.00010179366996 144.0 82.0 407.2737341772151 0.4997692497718664 5.0 0.0 4.0 
344.00010179366996 147.0 83.0 407.2737341772151 0.4984806311252953 5.0 0.0 4.0 
346.00010179366996 148.0 84.0 407.2737341772151 0.49973419347234266 5.0 0.0 4.0 
348.00010179366996 148.0 84.0 407.2737341772151 0.49973419347234266 5.0 0.0 4.0 
350.00010179366996 148.0 84.0 407.2737341772151 0.49973419347234266 5.0 0.0 4.0 
352.00010179366996 148.0 84.0 407.2737341772151 0.49973419347234266 5.0 0.0 4.0 
354.00010179366996 150.0 85.0 407.2737341772151 0.5330508750634022 5.0 0.0 4.0 
356.00010179366996 147.0 84.0 407.2737341772151 0.5180988516234315 5.0 0.0 4.0 
358.00010179366996 148.0 84.0 407.2737341772151 0.4984346709355898 5.0 0.0 4.0 
360.00010179366996 152.0 85.0 407.2737341772151 0.4996939091216829 5.0 0.0 4.0 
362.00010179366996 154.0 86.0 407.2737341772151 0.4996780608541496 5.0 0.0 4.0 
364.00010179366996 154.0 86.0 407.2737341772151 0.4996780608541496 5.0 0.0 4.0 
366.00010179366996 154.0 86.0 407.2737341772151 0.4996780608541496 5.0 0.0 4.0 
368.00010179366996 154.0 86.0 407.2737341772151 0.5079477505692902 5.0 0.0 4.0 
370.00010179366996 152.0 85.0 407.2737341772151 0.5174745507621512 5.0 0.0 4.0 
372.00010179366996 150.0 85.0 407.2737341772151 0.5247175417300689 5.0 0.0 4.0 
374.00010179366996 148.0 84.0 407.2737341772151 0.5166833460147155 5.0 0.0 4.0 
376.00010179366996 146.0 83.0 407.2737341772151 0.4997514194126259 5.0 0.0 4.0 
378.00010179366996 148.0 84.0 407.2737341772151 0.4997341934723426 5.0 0.0 4.0 
380.00010179366996 148.0 84.0 407.2737341772151 0.525157922285902 5.0 0.0 4.0 
382.00010179366996 146.0 83.0 407.2737341772151 0.4997514194126259 5.0 0.0 4.0 
384.00010179366996 147.0 83.0 407.2737341772151 0.4988500897866106 5.0 0.0 4.0 
386.00010179366996 148.0 84.0 407.2737341772151 0.4997341934723426 5.0 0.0 4.0 
388.00010179366996 148.0 84.0 407.2737341772151 0.4997341934723426 5.0 0.0 4.0 
390.00010179366996 152.0 85.0 407.2737341772151 0.4996939091216829 5.0 0.0 4.0 
392.00010179366996 152.0 85.0 407.2737341772151 0.4996939091216829 5.0 0.0 4.0 
394.00010179366996 152.0 85.0 407.2737341772151 0.5080972704662208 5.0 0.0 4.0 
396.00010179366996 151.0 85.0 407.2737341772151 0.517536265528063 5.0 0.0 4.0 
398.00010179366996 150.0 84.0 407.2737341772151 0.49971029921032856 5.0 0.0 4.0 
400.00010179366996 150.0 84.0 407.2737341772151 0.49971029921032856 5.0 0.0 4.0 
402.00010179366996 150.0 84.0 407.2737341772151 0.49971029921032856 5.0 0.0 4.0 
404.00010179366996 150.0 84.0 407.2737341772151 0.49971029921032856 5.0 0.0 4.0 
406.00010179366996 150.0 84.0 407.2737341772151 0.49971029921032856 5.0 0.0 4.0 
408.00010179366996 150.0 84.0 407.2737341772151 0.49971029921032856 5.0 0.0 4.0 
410.00010179366996 151.0 85.0 407.2737341772151 0.4962178303152393 5.0 0.0 4.0 
412.00010179366996 154.0 86.0 407.2737341772151 0.4996780608541496 5.0 0.0 4.0 
414.00010179366996 154.0 86.0 407.2737341772151 0.4996780608541496 5.0 0.0 4.0 
416.00010179366996 154.0 86.0 407.2737341772151 0.4996780608541496 5.0 0.0 4.0 
418.00010179366996 154.0 86.0 407.2737341772151 0.4996780608541496 5.0 0.0 4.0 
420.00010179366996 154.0 86.0 407.2737341772151 0.507942523664067 5.0 0.0 4.0 
422.00010179366996 154.0 85.0 407.2737341772151 0.5492036395640744 5.0 0.0 4.0 
424.00010179366996 152.0 85.0 407.2737341772151 0.49944231571074854 5.0 0.0 4.0 
426.00010179366996 152.0 85.0 407.2737341772151 0.49944231571074854 5.0 0.0 4.0 
428.00010179366996 152.0 85.0 407.2737341772151 0.49944231571074854 5.0 0.0 4.0 
430.00010179366996 154.0 86.0 407.2737341772151 0.49943052859783477 5.0 0.0 4.0 
432.00010179366996 157.0 87.0 407.2737341772151 0.5062416045891196 5.0 0.0 4.0 
434.00010179366996 158.0 88.0 407.2737341772151 0.5089939272643993 5.0 0.0 4.0 
436.00010179366996 158.0 88.0 407.2737341772151 0.4996478857527661 5.0 0.0 4.0 
438.00010179366996 158.0 88.0 407.2737341772151 0.4996478857527661 5.0 0.0 4.0 
440.00010179366996 158.0 88.0 407.2737341772151 0.5316478857527661 5.0 0.0 4.0 
442.00010179366996 156.0 87.0 407.2737341772151 0.5077928092782433 5.0 0.0 4.0 
444.00010179366996 159.0 88.0 409.08860759493683 0.5168867224309509 6.0 0.0 5.0 
446.00010179366996 158.0 87.0 409.08860759493683 0.4993266521238374 8.0 0.0 5.0 
448.00010179366996 158.0 87.0 409.08860759493683 0.4993266521238374 8.0 0.0 5.0 
450.00010179366996 158.0 87.0 409.08860759493683 0.4993266521238374 8.0 0.0 5.0 
452.00010179366996 158.0 87.0 409.08860759493683 0.5321135373697392 8.0 0.0 5.0 
454.00010179366996 158.0 86.0 412.7484177215188 0.5069954121896938 8.0 0.0 7.0 
456.00010179366996 157.0 86.0 412.7373417721519 0.5172829660171834 8.0 0.0 7.0 
458.00010179366996 156.0 85.0 412.731012658228 0.4985386381250935 8.0 0.0 7.0 
460.00010179366996 156.0 85.0 412.727848101266 0.4985399244753281 8.0 0.0 7.0 
462.00010179366996 156.0 85.0 412.727848101266 0.4985399244753281 8.0 0.0 7.0 
464.00010179366996 157.0 85.0 412.731012658228 0.49710881202308993 8.0 0.0 7.0 
466.00010179366996 158.0 86.0 412.727848101266 0.4985431772163378 8.0 0.0 7.0 
468.00010179366996 158.0 86.0 412.727848101266 0.4985431772163378 8.0 0.0 7.0 
470.00010179366996 159.0 87.0 412.727848101266 0.5149660331488335 8.0 0.0 7.0 
472.00010179366996 156.0 86.0 412.727848101266 0.5018062134034196 8.0 0.0 7.0 
474.00010179366996 156.0 86.0 412.73417721518985 0.5101384926441996 8.0 0.0 7.0 
476.00010179366996 155.0 86.0 412.731012658228 0.5200697956300935 8.0 0.0 7.0 
478.00010179366996 154.0 85.0 412.727848101266 0.5018580519687902 8.0 0.0 7.0 
480.00010179366996 154.0 85.0 412.727848101266 0.5061009142887334 8.0 0.0 7.0 
482.00010179366996 153.0 84.0 412.727848101266 0.5190768011929415 8.0 0.0 7.0 
484.00010179366996 153.0 85.0 412.731012658228 0.5054251740514333 8.0 0.0 7.0 
486.00010179366996 152.0 85.0 412.731012658228 0.4980798500157555 8.0 0.0 7.0 
488.00010179366996 152.0 85.0 412.727848101266 0.4980798500157555 8.0 0.0 7.0 
490.00010179366996 152.0 85.0 412.727848101266 0.4980798500157555 8.0 0.0 7.0 
492.00010179366996 152.0 85.0 412.727848101266 0.4980798500157555 8.0 0.0 7.0 
494.00010179366996 153.0 86.0 412.731012658228 0.5041864329658436 8.0 0.0 7.0 
496.00010179366996 153.0 85.0 412.727848101266 0.5163460160631661 8.0 0.0 7.0 
498.00010179366996 153.0 86.0 412.727848101266 0.49619814559003506 8.0 0.0 7.0 
500.00010179366996 154.0 86.0 412.727848101266 0.49809068041113 8.0 0.0 7.0 
502.00010179366996 154.0 86.0 412.727848101266 0.49809068041113 8.0 0.0 7.0 
504.00010179366996 154.0 86.0 412.731012658228 0.49809026225871217 8.0 0.0 7.0 
506.00010179366996 154.0 86.0 412.727848101266 0.49809068041113 8.0 0.0 7.0 
508.00010179366996 158.0 86.0 414.5474683544302 0.505068175364725 9.0 0.0 8.0 
510.00010179366996 161.0 86.0 414.5569620253163 0.5151688934055291 9.0 0.0 8.0 
512.00010179367 160.0 86.0 414.5632911392406 0.4967497546013229 9.0 0.0 8.0 
514.00010179367 160.0 86.0 414.5601265822783 0.4967512514127822 9.0 0.0 8.0 
516.00010179367 160.0 86.0 414.5506329113925 0.4967544347722931 9.0 0.0 8.0 
518.00010179367 160.0 86.0 414.5506329113925 0.4967548985730165 9.0 0.0 8.0 
520.00010179367 160.0 86.0 414.5474683544302 0.49675515155522937 9.0 0.0 8.0 
522.00010179367 160.0 86.0 414.5474683544302 0.4967559315837187 9.0 0.0 8.0 
524.00010179367 160.0 86.0 414.5506329113925 0.4967555099466974 9.0 0.0 8.0 
526.00010179367 160.0 86.0 414.5474683544302 0.4967559315837187 9.0 0.0 8.0 
528.00010179367 160.0 86.0 414.5506329113925 0.49675567860150605 9.0 0.0 8.0 
530.00010179367 160.0 86.0 414.5474683544302 0.49675515155522937 9.0 0.0 8.0 
532.00010179367 160.0 86.0 414.5474683544302 0.4967559315837187 9.0 0.0 8.0 
534.00010179367 162.0 86.0 414.5506329113925 0.5157823812703897 9.0 0.0 8.0 
536.00010179367 160.0 86.0 414.5458860759493 0.4978722900780651 9.0 0.0 8.0 
538.00010179367 162.0 87.0 414.5458860759493 0.497886185486674 9.0 0.0 8.0 
540.00010179367 162.0 87.0 414.5427215189875 0.49788566708050025 9.0 0.0 8.0 
542.00010179367 164.0 88.0 414.5427215189875 0.497900122299288 9.0 0.0 8.0 
544.00010179367 168.0 90.0 412.727848101266 0.5018324650066843 9.0 0.0 7.0 
546.00010179367 167.0 90.0 410.91139240506317 0.505427152432792 8.0 0.0 6.0 
548.00010179367 166.0 90.0 410.91139240506317 0.4977813880854074 8.0 0.0 6.0 
550.00010179367 166.0 90.0 410.9082278481012 0.49778089397952296 8.0 0.0 6.0 
552.00010179367 166.0 90.0 410.9082278481012 0.5212191252562317 8.0 0.0 6.0 
554.00010179367 164.0 89.0 410.9082278481012 0.5295175421464904 8.0 0.0 6.0 
556.00010179367 161.0 88.0 410.9082278481012 0.509618234188539 8.0 0.0 6.0 
558.00010179367 160.0 87.0 410.9145569620254 0.5079796521440418 8.0 0.0 6.0 
560.00010179367 155.0 87.0 410.90664556962014 0.5094667295446887 8.0 0.0 6.0 
562.00010179367 152.0 86.0 410.90348101265823 0.49946359119405315 8.0 0.0 6.0 
564.00010179367 152.0 86.0 410.90348101265823 0.5076603125055287 8.0 0.0 6.0 
566.00010179367 154.0 86.0 410.90348101265823 0.5174568164600298 8.0 0.0 6.0 
568.00010179367 154.0 86.0 410.90348101265823 0.49943825044252976 8.0 0.0 6.0 
570.00010179367 154.0 86.0 410.90348101265823 0.49943825044252976 8.0 0.0 6.0 
572.00010179367 154.0 86.0 410.90348101265823 0.49943825044252976 8.0 0.0 6.0 
574.00010179367 154.0 86.0 410.90348101265823 0.49943825044252976 8.0 0.0 6.0 
576.00010179367 154.0 86.0 410.90348101265823 0.5118453984678533 8.0 0.0 6.0 
578.00010179367 151.0 85.0 410.90348101265823 0.5142118887500389 8.0 0.0 6.0 
580.00010179367 152.0 86.0 410.90348101265823 0.49946359119405315 8.0 0.0 6.0 
582.00010179367 152.0 86.0 410.90348101265823 0.49946359119405315 8.0 0.0 6.0 
584.00010179367 153.0 87.0 410.90348101265823 0.49728031322067895 8.0 0.0 6.0 
586.00010179367 154.0 87.0 410.90348101265823 0.4994518411576326 8.0 0.0 6.0 
588.00010179367 154.0 87.0 410.90348101265823 0.4994518411576326 8.0 0.0 6.0 
590.00010179367 154.0 87.0 410.90348101265823 0.5317099056737616 8.0 0.0 6.0 
592.00010179367 153.0 86.0 410.90348101265823 0.49745003752845934 8.0 0.0 6.0 
594.00010179367 154.0 87.0 410.90348101265823 0.49821966863174677 8.0 0.0 6.0 
596.00010179367 154.0 87.0 409.08860759493683 0.49845557968710996 8.0 0.0 5.0 
598.00010179367 154.0 87.0 409.08860759493683 0.49845557968710996 8.0 0.0 5.0 
600.00010179367 154.0 87.0 409.08860759493683 0.49845557968710996 8.0 0.0 5.0 
602.00010179367 154.0 87.0 409.08860759493683 0.5065959448177119 8.0 0.0 5.0 
604.00010179367 153.0 87.0 409.08860759493683 0.5059556805404964 8.0 0.0 5.0 
606.00010179367 152.0 86.0 409.08860759493683 0.4997014359465916 8.0 0.0 5.0 
608.00010179367 152.0 86.0 409.08860759493683 0.4997014359465916 8.0 0.0 5.0 
610.00010179367 152.0 86.0 409.08860759493683 0.4997014359465916 6.0 0.0 5.0 
612.00010179367 152.0 86.0 409.08860759493683 0.4997014359465916 6.0 0.0 5.0 
614.00010179367 152.0 86.0 409.08860759493683 0.4997014359465916 6.0 0.0 5.0 
616.00010179367 152.0 86.0 409.08860759493683 0.4997014359465916 6.0 0.0 5.0 
618.00010179367 152.0 86.0 409.08860759493683 0.4997014359465916 6.0 0.0 5.0 
620.00010179367 152.0 86.0 407.2737341772151 0.4997014359465916 5.0 0.0 4.0 
622.00010179367 153.0 86.0 407.2737341772151 0.4962213834591041 5.0 0.0 4.0 
624.00010179367 154.0 87.0 407.2737341772151 0.4996858497044848 5.0 0.0 4.0 
626.00010179367 154.0 87.0 407.2737341772151 0.4996858497044848 5.0 0.0 4.0 
628.00010179367 154.0 87.0 407.2737341772151 0.4996858497044848 5.0 0.0 4.0 
630.00010179367 154.0 87.0 407.2737341772151 0.4996858497044848 5.0 0.0 4.0 
632.00010179367 154.0 87.0 407.2737341772151 0.4996858497044848 5.0 0.0 4.0 
634.00010179367 154.0 87.0 407.2737341772151 0.4996858497044848 5.0 0.0 4.0 
636.00010179367 154.0 87.0 407.2737341772151 0.4996858497044848 5.0 0.0 4.0 
638.00010179367 154.0 87.0 407.2737341772151 0.4996858497044848 5.0 0.0 4.0 
640.00010179367 154.0 87.0 407.2737341772151 0.4996858497044848 5.0 0.0 4.0 
642.00010179367 155.0 88.0 407.2737341772151 0.5052233364231035 5.0 0.0 4.0 
644.00010179367 155.0 88.0 407.2737341772151 0.5190948844899396 5.0 0.0 4.0 
646.00010179367 154.0 87.0 407.2737341772151 0.4996858497044849 5.0 0.0 4.0 
648.00010179367 158.0 88.0 407.2737341772151 0.4996478857527974 5.0 0.0 4.0 
650.00010179367 158.0 88.0 407.2737341772151 0.5036478857527974 5.0 0.0 4.0 
652.00010179367 157.0 88.0 407.2737341772151 0.5185654976766356 5.0 0.0 4.0 
654.00010179367 157.0 88.0 407.2737341772151 0.5202971367070969 5.0 0.0 4.0 
656.00010179367 156.0 88.0 407.2737341772151 0.5020096662497765 5.0 0.0 4.0 
658.00010179367 160.0 89.0 407.2737341772151 0.5145786406541022 5.0 0.0 4.0 
660.00010179367 159.0 89.0 407.2737341772151 0.498573708850223 5.0 0.0 4.0 
662.00010179367 160.0 89.0 407.2737341772151 0.4990952285776832 5.0 0.0 4.0 
664.00010179367 160.0 89.0 407.2737341772151 0.5189515568840023 5.0 0.0 4.0 
#####################################################################
# End of data export. Simulation finished at: 2019-03-13T01:57+0000 #
#####################################################################
