#####################################################################
# Alchemist log file - simulation started at: 2019-03-07T14:30+0000 #
#####################################################################
# seed = 2.0, bandwidth = 1333521.4321633242, accessPointCount = 10.0, baserange = 1000.0
#
# The columns have the following meaning: 
# time neighbor_count[Sum] <value>@neighbor_count[Sum] packet_size[Mean] mean_delay[Mean] crowd[Sum] overcrowded[Sum] risk[Sum] 
0.0 NaN NaN NaN NaN NaN NaN NaN 
10.000582979052751 35071.0 466.0 4991.341738553418 0.5090404602729055 1497.0 0.0 1497.0 
20.00058297905275 34968.0 463.0 4991.315195753152 0.4993713306229205 1497.0 0.0 1497.0 
30.00058297905275 34965.0 463.0 4991.458526874585 0.49937381804427144 1497.0 0.0 1497.0 
40.00058297905275 34962.0 463.0 4991.381552753815 0.4992361511378876 1497.0 0.0 1497.0 
50.00058297905275 34962.0 463.0 4991.309887193099 0.4994855800221381 1497.0 0.0 1497.0 
60.00058297905275 34956.0 463.0 4988.4538818845385 0.49931224133631147 1496.0 0.0 1496.0 
70.00023765982864 34963.0 463.0 1056.8759124087592 0.49842440960127055 308.0 2.0 213.0 
80.00023765982864 35026.0 463.0 1062.978102189782 0.4995408281032573 307.0 2.0 215.0 
90.00023765982864 35026.0 463.0 1062.980756469809 0.4993495556123478 307.0 2.0 215.0 
100.00023765982864 35022.0 463.0 1062.9701393497012 0.5044271868527938 306.0 3.0 214.0 
110.00023765982864 35079.0 464.0 1072.1141340411414 0.49808028400588766 307.0 2.0 218.0 
120.00023765982864 35513.0 468.0 1084.4193762441937 0.49783262987567845 312.0 2.0 222.0 
130.00023765982866 35614.0 468.0 1087.458526874584 0.4992641109465196 313.0 2.0 223.0 
140.00023765982866 35617.0 468.0 1090.510948905109 0.49924663835258043 307.0 2.0 224.0 
150.00023765982866 35748.0 469.0 1096.6635700066365 0.4988049979043879 307.0 2.0 226.0 
160.00023765982866 35962.0 471.0 1102.7179827471803 0.4989885668895333 312.0 2.0 228.0 
170.00023765982866 35880.0 470.0 1105.7757133377565 0.4991727298477056 315.0 2.0 229.0 
180.00023765982866 36097.0 472.0 1111.9124087591235 0.4985513409818883 316.0 2.0 231.0 
190.00023765982866 36307.0 473.0 1121.0537491705368 0.49821178926603943 316.0 2.0 234.0 
200.00023765982866 36247.0 472.0 1121.0696748506973 0.49785715119706486 318.0 2.0 234.0 
210.00023765982866 36262.0 472.0 1114.9727936297281 0.49769253655802487 316.0 2.0 232.0 
220.00023765982866 36309.0 473.0 1121.0112806901116 0.4971145702090108 317.0 2.0 234.0 
230.00023765982866 36422.0 473.0 1124.0637027206362 0.4979360381630724 317.0 2.0 235.0 
240.00023765982866 36425.0 474.0 1124.0875912408767 0.4982164638938454 318.0 2.0 235.0 
250.00023765982866 36404.0 474.0 1121.0272063702719 0.4986527995846215 320.0 2.0 234.0 
260.00023765982866 36362.0 474.0 1114.8852023888508 0.4986411960068553 318.0 2.0 232.0 
270.00023765982866 36682.0 477.0 1118.0039814200388 0.49882065373052 321.0 2.0 233.0 
280.00023765982866 36758.0 478.0 1111.8460517584604 0.49807705268556074 320.0 2.0 231.0 
290.00023765982866 36694.0 478.0 1108.8095554080967 0.49839329525375 316.0 2.0 230.0 
300.00023765982866 36745.0 479.0 1105.8128732581276 0.498501120899134 314.0 2.0 229.0 
310.00023765982866 36764.0 480.0 1124.1167883211683 0.49883691926448354 314.0 2.0 235.0 
320.00023765982866 36604.0 480.0 1121.045786330459 0.49868950123357714 314.0 2.0 234.0 
330.00023765982866 36540.0 480.0 1114.9250165892493 0.49969661702602397 316.0 2.0 232.0 
340.00023765982866 36301.0 479.0 1114.9064366290647 0.49859313462902805 315.0 2.0 232.0 
350.00023765982866 36137.0 479.0 1114.895819508958 0.4988465175967712 314.0 2.0 232.0 
360.00023765982866 36201.0 480.0 1111.8858659588586 0.5009012477156858 316.0 2.0 231.0 
370.00023765982866 36203.0 480.0 1108.7803583278046 0.4985900336806808 318.0 2.0 230.0 
380.0005376175124 36007.0 478.0 1108.7670869276717 0.49911324525271444 321.0 2.0 230.0 
390.0005376175124 36069.0 479.0 1111.9044459190434 0.49929365359517014 321.0 2.0 231.0 
400.0005376175124 36088.0 480.0 1124.09289980093 0.49832376622517705 322.0 2.0 235.0 
410.0005376175124 36017.0 478.0 1145.4439283344389 0.4985963530234949 325.0 2.0 242.0 
420.0005376175124 35870.0 476.0 1139.3019243530186 0.4990485433649203 325.0 2.0 240.0 
430.0005376175124 35771.0 475.0 1133.1280690112803 0.4984798652572841 321.0 2.0 238.0 
440.0005376175124 35682.0 474.0 1130.0729927007305 0.49853050037707647 322.0 2.0 237.0 
450.0005376175124 35752.0 475.0 1124.0424684804252 0.499689412178866 319.0 4.0 233.0 
460.0005376175124 35610.0 474.0 1127.0710019907094 0.5031554041968912 318.0 3.0 235.0 
470.0005376175124 35491.0 471.0 1099.591240875913 0.5000190837500701 311.0 2.0 227.0 
480.0005376175124 35489.0 471.0 1093.5500995355005 0.4996308881029551 307.0 3.0 224.0 
490.0005376175124 35505.0 471.0 1087.4452554744535 0.500303974141557 306.0 2.0 223.0 
500.0005376175124 35574.0 472.0 1090.4790975447913 0.5015621095216134 304.0 2.0 224.0 
510.0005376175124 35497.0 469.0 1090.5348374253474 0.5099643437874273 305.0 2.0 224.0 
520.0005376175124 35562.0 469.0 1087.394824153949 0.5000741041392021 305.0 2.0 223.0 
530.0005376175124 35536.0 468.0 1090.4790975447913 0.49871829026953735 306.0 2.0 224.0 
540.0005376175124 35514.0 468.0 1090.5162574651629 0.49921888278530924 307.0 1.0 225.0 
550.0005376175124 35554.0 469.0 1090.4445919044465 0.4989167313499475 308.0 1.0 225.0 
560.0005376175124 35683.0 469.0 1081.3085600530862 0.49891048633579443 302.0 2.0 221.0 
570.0005376175124 35752.0 470.0 1084.4459190444588 0.49819829499451374 305.0 2.0 222.0 
580.0005376175124 35876.0 472.0 1090.4897146648977 0.49849320518781287 308.0 2.0 224.0 
590.0005376175124 35818.0 471.0 1090.4578633045778 0.5013868991105764 310.0 3.0 223.0 
600.0005376175124 35972.0 470.0 1093.5633709356339 0.4987403593297615 314.0 3.0 224.0 
610.0005376175124 35994.0 470.0 1087.3788984737887 0.49957587923385793 317.0 2.0 223.0 
620.0005376175124 36068.0 470.0 1090.4445919044467 0.4996924174163661 315.0 2.0 224.0 
630.0005376175124 36152.0 471.0 1099.6947577969477 0.5006444223536467 312.0 2.0 227.0 
640.0005376175124 36205.0 472.0 1102.7392169873917 0.5008971096751477 312.0 2.0 228.0 
650.0005376175124 36122.0 471.0 1105.7518248175184 0.5036455008902393 313.0 2.0 229.0 
660.0005376175124 36106.0 470.0 1111.9044459190432 0.49935890961111995 313.0 2.0 231.0 
#####################################################################
# End of data export. Simulation finished at: 2019-03-07T14:57+0000 #
#####################################################################
