#####################################################################
# Alchemist log file - simulation started at: 2019-03-03T16:22+0000 #
#####################################################################
# seed = 0.0, bandwidth = 316227.76601683797, accessPointCount = 72.92664737217109, baserange = 1000.0
#
# The columns have the following meaning: 
# time neighbor_count[Sum] <value>@neighbor_count[Sum] packet_size[Mean] mean_delay[Mean] crowd[Sum] overcrowded[Sum] risk[Sum] 
0.0 NaN NaN NaN NaN NaN NaN NaN 
10.000026481933507 45573.0 1357.0 4992.884639898024 0.6765292809686265 1497.0 0.0 1497.0 
20.00002648193351 45190.0 1293.0 4993.575525812619 0.6248154275447645 1497.0 0.0 1497.0 
30.00002648193351 45218.0 1293.0 4993.555130656469 0.6247993192377627 1497.0 0.0 1497.0 
40.00002648193351 45175.0 1292.0 4993.483747609943 0.6252871481357488 1497.0 0.0 1497.0 
50.00002648193351 45176.0 1292.0 4993.562778840025 0.6253308447010418 1497.0 0.0 1497.0 
60.00002648193351 45174.0 1293.0 4993.560229445507 0.6276610475201796 1497.0 0.0 1497.0 
70.0000264819335 45269.0 1293.0 1468.3135755258133 0.5747700828394643 516.0 6.0 358.0 
80.0000264819335 45275.0 1292.0 1477.1089866156788 0.5752387598057727 504.0 6.0 361.0 
90.0000264819335 45291.0 1292.0 1477.012109623964 0.575026355664112 509.0 5.0 362.0 
100.0000264819335 45306.0 1293.0 1479.9260675589542 0.5750408880771992 507.0 5.0 363.0 
110.0000264819335 45321.0 1293.0 1479.9566602931814 0.5742266511076105 507.0 6.0 362.0 
120.0000264819335 45314.0 1293.0 1479.93881453155 0.5754588485948265 509.0 6.0 362.0 
130.0000264819335 45417.0 1294.0 1477.0579987253038 0.5764057534724969 507.0 6.0 361.0 
140.0000264819335 45405.0 1295.0 1471.2836201402174 0.577086184664799 505.0 6.0 359.0 
150.0000264819335 45258.0 1293.0 1471.1867431485032 0.574757170713143 504.0 6.0 359.0 
160.0000264819335 45084.0 1293.0 1471.2632249840651 0.5751186878196739 505.0 9.0 356.0 
170.0000264819335 44992.0 1294.0 1474.1695347355012 0.5750796300850826 504.0 8.0 358.0 
180.0000264819335 45080.0 1296.0 1468.2319949012099 0.5764870822788396 502.0 10.0 354.0 
190.00028331366755 44987.0 1296.0 1465.3001912045897 0.5739196330078871 500.0 8.0 355.0 
200.00028331366755 44912.0 1296.0 1468.2549394518792 0.574284192572278 501.0 9.0 355.0 
210.00028331366755 44845.0 1295.0 1465.3894200127486 0.5758843991314379 498.0 8.0 355.0 
220.00028331366755 44820.0 1296.0 1459.4620777565333 0.5750206324600313 498.0 8.0 353.0 
230.00028331366755 44687.0 1296.0 1465.3741236456324 0.5755639674066109 498.0 7.0 356.0 
240.00028331366755 44626.0 1294.0 1459.4518801784575 0.5724526140736168 497.0 8.0 353.0 
250.00028331366755 44532.0 1295.0 1456.4741873804956 0.5719342288104439 499.0 7.0 353.0 
260.0002833136676 44032.0 1292.0 1456.425748884641 0.5765125596822154 497.0 7.0 353.0 
270.0002833136676 43827.0 1292.0 1456.494582536649 0.5746019422117764 495.0 6.0 354.0 
280.0002833136676 43588.0 1291.0 1462.243467176544 0.5764243681000769 496.0 7.0 355.0 
290.0002833136676 43478.0 1292.0 1462.2868068833664 0.5767057373301109 495.0 6.0 356.0 
300.0002833136676 43180.0 1291.0 1453.432759719567 0.5807958635548293 491.0 7.0 352.0 
310.0002833136676 42812.0 1288.0 1447.6303377947722 0.5814048147500981 488.0 4.0 353.0 
320.0002833136676 42478.0 1285.0 1447.5818992989161 0.5814314701662912 488.0 5.0 352.0 
330.0002833136676 42245.0 1283.0 1450.5876354365832 0.5799136827408762 488.0 4.0 354.0 
340.0002833136676 42082.0 1283.0 1435.8852772466537 0.5805423134692562 486.0 5.0 348.0 
350.0002833136676 41754.0 1282.0 1435.9515615041416 0.5822039721416835 483.0 4.0 349.0 
360.0002833136676 41773.0 1282.0 1432.9126832377317 0.5800920889945956 485.0 5.0 347.0 
370.0002833136676 41631.0 1281.0 1438.8731676226903 0.5794395719836795 487.0 4.0 350.0 
380.0002833136676 41596.0 1282.0 1438.842574888465 0.582367435533612 489.0 5.0 349.0 
390.0002833136676 41448.0 1281.0 1432.9101338432115 0.5817336744902242 488.0 4.0 348.0 
400.0002833136676 41345.0 1280.0 1432.9254302103268 0.5782834314312117 491.0 5.0 347.0 
410.0002833136676 41041.0 1276.0 1441.7233906947108 0.5789208047984861 494.0 4.0 351.0 
420.0002833136676 41036.0 1276.0 1429.9579349904413 0.5791001270081626 488.0 5.0 346.0 
430.0002833136676 40964.0 1275.0 1421.2262587635444 0.574525254709717 486.0 5.0 343.0 
440.0002833136676 40932.0 1277.0 1424.1580624601675 0.5786488880113428 494.0 3.0 346.0 
450.0002833136676 40932.0 1277.0 1432.9662205226255 0.5781680906725665 501.0 2.0 350.0 
460.0002833136676 40917.0 1276.0 1435.8342893562765 0.5766629875340378 499.0 2.0 351.0 
470.0002833136676 40885.0 1275.0 1435.8776290630974 0.5768214914864086 497.0 2.0 351.0 
480.00003436392404 40830.0 1276.0 1427.0567240280423 0.5784983229141032 493.0 3.0 347.0 
490.00003436392404 40792.0 1276.0 1409.4608030592738 0.574447045394633 490.0 3.0 341.0 
500.00003436392404 41116.0 1282.0 1397.728489483746 0.5764394370386233 484.0 3.0 337.0 
510.00003436392404 41018.0 1281.0 1400.650095602295 0.573559977837878 487.0 5.0 336.0 
520.0002833136675 41053.0 1281.0 1374.2842574888448 0.5765494145042959 478.0 10.0 322.0 
530.0002833136675 40995.0 1279.0 1368.5532186105804 0.5734648651397521 481.0 4.0 326.0 
540.0002833136675 41045.0 1281.0 1386.1261950286819 0.5733639633232087 481.0 4.0 332.0 
550.0002833136675 40952.0 1282.0 1388.8999362651366 0.5725587352420536 483.0 5.0 332.0 
560.0002833136675 41054.0 1283.0 1389.0070108349273 0.5738729512700788 479.0 7.0 330.0 
570.0002833136675 40925.0 1283.0 1397.8049713193125 0.5744823944004848 486.0 5.0 335.0 
580.0002833136675 41202.0 1284.0 1403.569152326322 0.5747638763532938 489.0 7.0 335.0 
590.0002833136675 41103.0 1282.0 1403.5385595920975 0.574747383010793 499.0 3.0 339.0 
600.0002833136675 40977.0 1281.0 1409.432759719567 0.5746387496326987 500.0 6.0 338.0 
610.0002833136675 41139.0 1286.0 1424.0535372848938 0.5734118603795436 505.0 4.0 345.0 
620.0002833136675 41110.0 1288.0 1427.1255576800502 0.5711642225804127 502.0 7.0 343.0 
630.0002833136675 41132.0 1288.0 1432.9840662842585 0.5711617970786192 498.0 8.0 344.0 
640.0002833136675 41081.0 1286.0 1438.8935627788399 0.5722612857351707 508.0 6.0 348.0 
650.0002833136675 41109.0 1286.0 1453.5678776290636 0.5727262967354938 496.0 6.0 353.0 
660.0002833136675 41329.0 1291.0 1465.1931166348004 0.5792362066650154 490.0 9.0 354.0 
#####################################################################
# End of data export. Simulation finished at: 2019-03-03T16:52+0000 #
#####################################################################
