#####################################################################
# Alchemist log file - simulation started at: 2019-03-06T05:35+0000 #
#####################################################################
# seed = 8.0, bandwidth = 5623413.251903491, accessPointCount = 37.60603093086394, baserange = 1000.0
#
# The columns have the following meaning: 
# time neighbor_count[Sum] <value>@neighbor_count[Sum] packet_size[Mean] mean_delay[Mean] crowd[Sum] overcrowded[Sum] risk[Sum] 
0.0 NaN NaN NaN NaN NaN NaN NaN 
2.000180361031555 7964.0 970.0 4988.411994784876 0.44343924561034637 1497.0 0.0 1497.0 
4.000927030832833 20182.0 1025.0 4990.104302477183 0.5026149328411894 1497.0 0.0 1497.0 
6.000016871893306 28871.0 1026.0 4991.2307692307695 0.5230698458721363 1497.0 0.0 1497.0 
8.000270786694994 36450.0 1033.0 4992.315514993481 0.557454770678694 1497.0 0.0 1497.0 
10.000927030832834 41856.0 1035.0 4992.897001303781 0.5649685023528688 1496.0 1.0 1496.0 
12.000927030832834 42880.0 997.0 4993.173402868318 0.5576136348512184 1495.0 2.0 1495.0 
14.000927030832834 41380.0 957.0 4993.155149934811 0.49868564727093656 1494.0 3.0 1494.0 
16.000198348008887 41380.0 957.0 4993.254237288135 0.49868361375030545 1494.0 3.0 1494.0 
18.000927030832834 41380.0 957.0 4993.259452411995 0.4986839388079541 1495.0 2.0 1495.0 
20.000927030832834 41381.0 957.0 4993.275097783572 0.498737981852347 1496.0 1.0 1496.0 
22.000927030832834 41396.0 957.0 4993.220338983051 0.4989081375010598 1494.0 3.0 1494.0 
24.000927030832834 41426.0 957.0 4993.191655801826 0.49873688530696164 1493.0 4.0 1493.0 
26.000198348008887 41426.0 957.0 4993.3611473272495 0.49896850717202096 1494.0 3.0 1494.0 
28.000927030832834 41422.0 957.0 4993.35853976532 0.49874517890202447 1494.0 3.0 1494.0 
30.000927030832834 41422.0 957.0 4993.376792698827 0.49884371836990454 1494.0 3.0 1494.0 
32.000927030832834 41430.0 957.0 4993.316818774446 0.4987590259493506 1495.0 2.0 1495.0 
34.000927030832834 41447.0 957.0 4993.298565840939 0.4987636986117853 1494.0 3.0 1494.0 
36.00019834800889 41446.0 957.0 4993.434159061278 0.5018499456991087 1495.0 2.0 1495.0 
38.000927030832834 41377.0 956.0 4993.395045632334 0.49867849314486107 1496.0 1.0 1496.0 
40.000927030832834 41378.0 956.0 4993.389830508475 0.49878301459053026 1495.0 2.0 1495.0 
42.000927030832834 41381.0 956.0 4993.272490221642 0.4988798056988275 1495.0 2.0 1495.0 
44.000927030832834 41405.0 956.0 4993.209908735333 0.4993174564544153 1496.0 1.0 1496.0 
46.00019834800889 41376.0 956.0 4993.3246414602345 0.5012465291309757 1496.0 1.0 1496.0 
48.000927030832834 41410.0 957.0 4993.329856584094 0.49853063464404995 1496.0 1.0 1496.0 
50.000927030832834 41413.0 957.0 4993.384615384615 0.4985786435074916 1496.0 1.0 1496.0 
52.000927030832834 41416.0 957.0 4993.235984354628 0.4985862827243543 1495.0 2.0 1495.0 
54.000927030832834 41415.0 957.0 4993.28813559322 0.4986688422627793 1495.0 2.0 1495.0 
56.00001687189331 41510.0 958.0 4993.4185136897 0.49847856119154066 1496.0 1.0 1496.0 
58.00001687189331 41526.0 958.0 4993.426336375489 0.4985980744480703 1496.0 1.0 1496.0 
60.00001687189331 41526.0 958.0 4993.408083441982 0.49953075947629727 1496.0 1.0 1496.0 
62.00001687189331 41518.0 958.0 1327.6531942633642 0.4976537124360973 613.0 3.0 306.0 
64.00001687189331 41517.0 958.0 1327.8279009126472 0.4989505002406414 502.0 9.0 300.0 
66.00001687189331 41524.0 958.0 1327.5906127770534 0.4988407574863424 469.0 11.0 298.0 
68.00001687189331 41526.0 958.0 1327.5723598435472 0.49887111185455413 440.0 12.0 297.0 
70.00001687189331 41526.0 958.0 1324.45893089961 0.4990531285464061 429.0 13.0 295.0 
72.00001687189331 41526.0 958.0 1324.550195567144 0.49885271768625483 421.0 18.0 290.0 
74.00001687189331 41521.0 958.0 1324.5084745762704 0.49881422580431733 422.0 16.0 292.0 
76.00001687189331 41521.0 958.0 1327.7157757496732 0.49911068468842945 417.0 20.0 289.0 
78.00001687189331 41578.0 959.0 1327.5202086049549 0.5013337409518925 416.0 17.0 292.0 
80.00001687189331 41554.0 959.0 1327.554106910039 0.4995420416234251 411.0 17.0 292.0 
82.00001687189331 41553.0 959.0 1327.4106910039109 0.49896220635671795 415.0 14.0 295.0 
84.00061215783141 41692.0 960.0 1330.503259452413 0.49852448580577846 415.0 17.0 293.0 
86.0001983480089 41800.0 961.0 1333.468057366362 0.4988652739273738 410.0 20.0 291.0 
88.00061215783141 41800.0 961.0 1333.4550195567153 0.5019687436884529 412.0 20.0 291.0 
90.00061215783141 41728.0 960.0 1333.4002607561924 0.5027916897460488 414.0 18.0 293.0 
92.00061215783141 41722.0 960.0 1333.4419817470662 0.4987220998893257 418.0 14.0 297.0 
94.00061215783141 41764.0 960.0 1333.4028683181214 0.49892067214418956 416.0 16.0 295.0 
96.0001983480089 41764.0 960.0 1336.4380704041735 0.4990375040693142 417.0 15.0 297.0 
98.00061215783141 41864.0 961.0 1336.4563233376778 0.5007360495928435 414.0 18.0 294.0 
100.00061215783141 41805.0 960.0 1336.3807040417214 0.4995748514145277 412.0 18.0 294.0 
102.00061215783141 41813.0 960.0 1336.4041720990872 0.49885235672531936 414.0 16.0 296.0 
104.00061215783141 41832.0 960.0 1336.417209908736 0.49887124117376036 412.0 17.0 295.0 
106.0001983480089 41832.0 960.0 1336.4511082138206 0.4988833605319328 413.0 18.0 294.0 
108.00061215783141 41838.0 960.0 1336.3807040417214 0.49903795650546773 413.0 17.0 295.0 
110.00061215783141 41840.0 960.0 1336.3389830508477 0.49886863673737947 414.0 17.0 295.0 
112.00061215783141 41862.0 960.0 1336.3102998696215 0.4988204162126458 414.0 17.0 295.0 
114.00061215783141 41893.0 960.0 1336.3181225554108 0.49886262590781905 413.0 17.0 295.0 
116.0001983480089 41928.0 961.0 1333.408083441982 0.4989607429051257 413.0 19.0 292.0 
118.00061215783141 41935.0 961.0 1339.42112125163 0.49902903013199645 418.0 17.0 296.0 
120.00061215783141 41939.0 961.0 1342.378096479791 0.4995560226774419 418.0 17.0 297.0 
122.00061215783141 41941.0 961.0 1342.3546284224235 0.4988631984797999 419.0 16.0 298.0 
124.00061215783141 41967.0 961.0 1342.3833116036503 0.49865582365897954 419.0 16.0 298.0 
126.0001983480089 41978.0 961.0 1342.4458930899614 0.49899630250243465 412.0 21.0 293.0 
128.00061215783143 41974.0 961.0 1345.4028683181211 0.49890786696258177 412.0 21.0 294.0 
130.00061215783143 41971.0 961.0 1342.3702737940014 0.49967687652561854 415.0 18.0 296.0 
132.00061215783143 41963.0 961.0 1342.302477183833 0.49887200125819586 414.0 17.0 297.0 
134.00061215783143 41973.0 961.0 1339.29595827901 0.4986990068155892 414.0 15.0 298.0 
136.0001983480089 41977.0 961.0 1333.3507170795308 0.49865046380412353 413.0 15.0 296.0 
138.00061215783143 41984.0 961.0 1336.3754889178622 0.49875110229833747 409.0 15.0 297.0 
140.00061215783143 41990.0 961.0 1339.3168187744468 0.4996134338639176 411.0 15.0 298.0 
142.00061215783143 41979.0 961.0 1345.423728813558 0.4988591248448266 409.0 17.0 298.0 
144.00061215783143 41989.0 961.0 1345.3689700130392 0.4987782131359264 408.0 19.0 296.0 
146.0001983480089 42000.0 962.0 1345.4263363754906 0.5018032393810421 408.0 19.0 296.0 
148.00061215783143 41878.0 961.0 1351.363754889178 0.4988305533423241 410.0 17.0 300.0 
150.00061215783143 41895.0 962.0 1351.384615384615 0.501097546411921 413.0 15.0 302.0 
152.00061215783143 41859.0 961.0 1348.4015645371592 0.4989719895771206 409.0 19.0 297.0 
154.00061215783143 41852.0 961.0 1348.3650586701447 0.4987261018754996 411.0 17.0 299.0 
156.0001983480089 41852.0 961.0 1351.405475880054 0.4987422260245156 412.0 16.0 301.0 
158.00061215783143 41854.0 961.0 1351.4654498044315 0.4987422523628307 411.0 17.0 300.0 
160.00061215783143 41855.0 961.0 1351.3741851368964 0.49888274671103716 416.0 15.0 302.0 
162.00061215783143 41872.0 961.0 1351.3950456323328 0.49947437501428643 414.0 15.0 302.0 
164.00061215783143 41840.0 961.0 1354.3311603650577 0.49897978103629514 413.0 16.0 302.0 
166.0001983480089 41834.0 961.0 1354.4119947848756 0.498760765764365 413.0 16.0 302.0 
168.00061215783143 41926.0 962.0 1354.359843546285 0.4987147371140808 414.0 15.0 303.0 
170.00061215783143 41927.0 962.0 1354.438070404174 0.49907029580635015 413.0 17.0 301.0 
172.00061215783143 41912.0 962.0 1357.3402868318121 0.4993764754800662 415.0 18.0 301.0 
174.00061215783143 41887.0 962.0 1360.3181225554108 0.49898341611443786 419.0 15.0 305.0 
176.0001983480089 41874.0 962.0 1357.4237288135573 0.498948766085459 415.0 18.0 301.0 
178.00061215783143 41884.0 962.0 1357.4054758800544 0.498791187810517 418.0 16.0 303.0 
180.00061215783143 41887.0 962.0 1357.3689700130399 0.5020215235146295 418.0 16.0 303.0 
182.00061215783143 41878.0 961.0 1357.3637548891775 0.5003905887187597 418.0 15.0 304.0 
184.00061215783143 41811.0 961.0 1357.3637548891775 0.49898530269260577 417.0 14.0 305.0 
186.0001983480089 41800.0 961.0 1357.3741851368964 0.4993559036109401 421.0 12.0 307.0 
188.00061215783143 41778.0 961.0 1360.3650586701451 0.4988944584899284 421.0 12.0 308.0 
190.00061215783143 41815.0 962.0 1354.352020860496 0.4990089041766825 419.0 12.0 306.0 
192.00061215783143 41835.0 962.0 1354.3441981747071 0.501495358368541 417.0 14.0 304.0 
194.00061215783143 41754.0 961.0 1357.4028683181211 0.4995190419005392 419.0 13.0 306.0 
196.0001983480089 41716.0 961.0 1357.3950456323325 0.49912015067006854 416.0 16.0 303.0 
198.00061215783143 41705.0 961.0 1354.4119947848756 0.4989113467935478 416.0 16.0 302.0 
200.00061215783143 41714.0 961.0 1360.4641460234668 0.4991670529107886 414.0 18.0 302.0 
202.00061215783143 41710.0 961.0 1360.3728813559323 0.49914823328154556 419.0 16.0 304.0 
204.00061215783143 41693.0 961.0 1360.352020860496 0.5003196007299994 419.0 16.0 304.0 
206.0001983480089 41666.0 961.0 1360.3728813559323 0.49897983444876615 418.0 17.0 303.0 
208.00061215783143 41667.0 961.0 1354.4302477183842 0.4990119945569771 413.0 19.0 299.0 
210.00061215783143 41667.0 961.0 1351.3950456323328 0.49908318725128 412.0 17.0 300.0 
212.00061215783143 41651.0 961.0 1348.362451108213 0.49933063246555237 413.0 16.0 300.0 
214.00061215783143 41623.0 961.0 1351.3663624511066 0.5013987787619613 415.0 14.0 303.0 
216.0001983480089 41592.0 960.0 1354.4485006518898 0.49913205219697043 413.0 16.0 302.0 
218.00061215783143 41583.0 960.0 1348.3389830508472 0.49891744438051333 415.0 14.0 302.0 
220.00061215783143 41592.0 961.0 1348.3650586701447 0.49907108530877986 414.0 14.0 302.0 
222.00061215783143 41577.0 961.0 1345.3194263363762 0.4995106587033538 415.0 13.0 302.0 
224.00061215783143 41626.0 962.0 1345.3220338983037 0.4992521794390437 412.0 15.0 300.0 
226.0001983480089 41752.0 963.0 1348.3311603650575 0.49892552357677783 416.0 13.0 303.0 
228.00092703083283 41753.0 963.0 1351.288135593222 0.49925013507206106 416.0 13.0 304.0 
230.00092703083283 41728.0 963.0 1351.2750977835728 0.4990589280825123 415.0 13.0 304.0 
232.00092703083283 41703.0 963.0 1357.3272490221625 0.4996913265405202 412.0 15.0 304.0 
234.00092703083283 41689.0 963.0 1357.228161668838 0.4995887829440605 415.0 13.0 306.0 
236.0001983480089 41663.0 963.0 1357.2750977835728 0.4989171457864132 415.0 13.0 306.0 
238.00092703083283 41666.0 963.0 1357.228161668838 0.4989700415748735 415.0 13.0 306.0 
240.00092703083283 41652.0 963.0 1354.2711864406779 0.4990095645383926 412.0 15.0 303.0 
242.00092703083283 41633.0 963.0 1354.245110821382 0.49944594260191294 415.0 13.0 305.0 
244.00092703083283 41606.0 963.0 1348.2346805736636 0.4993514678231063 415.0 13.0 303.0 
246.0001983480089 41607.0 963.0 1348.2842242503268 0.49885108827520225 415.0 13.0 303.0 
248.00092703083283 41615.0 963.0 1351.3168187744468 0.4991655189791068 412.0 15.0 302.0 
250.00092703083283 41599.0 963.0 1348.2842242503268 0.4991035269904168 415.0 13.0 303.0 
252.00092703083283 41580.0 963.0 1348.294654498043 0.49989433433830466 415.0 13.0 303.0 
254.00092703083283 41527.0 963.0 1348.252933507169 0.4997167519491524 415.0 13.0 303.0 
256.0001983480089 41501.0 963.0 1348.3024771838327 0.49894979356661323 412.0 16.0 300.0 
258.0009270308328 41502.0 963.0 1348.265971316818 0.49937684882252575 415.0 14.0 302.0 
260.0009270308328 41476.0 963.0 1345.217731421122 0.49929619212644716 415.0 14.0 301.0 
262.0009270308328 41511.0 964.0 1342.2607561929588 0.5024118485354563 415.0 14.0 300.0 
264.0009270308328 41374.0 964.0 1342.3207301173413 0.4997642240261567 410.0 17.0 297.0 
266.0001983480089 41395.0 965.0 1342.3468057366358 0.5018188708455629 409.0 19.0 295.0 
268.0008661781395 41267.0 964.0 1345.3481095176016 0.49957034718647914 409.0 20.0 295.0 
270.0008661781395 41240.0 964.0 1342.2894393741835 0.5014914260050305 410.0 19.0 295.0 
272.0008661781395 41204.0 964.0 1342.2711864406779 0.5023950104431947 408.0 20.0 294.0 
274.0008661781395 41199.0 965.0 1342.305084745762 0.4996653326013254 411.0 19.0 295.0 
276.0001983480089 41191.0 965.0 1342.3415906127766 0.49936119035981436 411.0 19.0 295.0 
278.0008661781395 41175.0 965.0 1336.3337679269869 0.4999621686243071 410.0 19.0 293.0 
280.0008661781395 41137.0 965.0 1339.2907431551514 0.4994236658257802 408.0 21.0 292.0 
282.0008661781395 41122.0 966.0 1339.259452411996 0.5005047996946388 411.0 18.0 295.0 
284.0008661781395 41074.0 966.0 1339.2881355932218 0.5019313582859549 413.0 18.0 295.0 
286.0001983480089 41031.0 965.0 1339.2750977835726 0.4993864704026418 414.0 15.0 298.0 
288.00061215783137 41017.0 965.0 1339.3663624511066 0.5014539427967408 413.0 16.0 297.0 
290.00061215783137 40913.0 964.0 1342.2711864406776 0.49993122198556306 415.0 13.0 301.0 
292.0008661781395 40870.0 964.0 1342.2477183833125 0.5022717447032431 411.0 16.0 298.0 
294.0008661781395 40785.0 963.0 1342.2320730117328 0.5002218498688089 411.0 15.0 299.0 
296.0001983480089 40753.0 964.0 1345.2855280312888 0.5014825562258757 411.0 16.0 299.0 
298.0008661781395 40710.0 963.0 1345.2777053455018 0.49911398237251875 413.0 13.0 302.0 
300.0008661781395 40698.0 963.0 1348.2685788787473 0.5003537774501983 410.0 16.0 300.0 
302.0008661781395 40614.0 963.0 1348.2868318122564 0.503331554034752 410.0 15.0 301.0 
304.0008661781395 40526.0 962.0 1339.3350717079522 0.5015642716338045 410.0 16.0 297.0 
306.0001983480089 40420.0 961.0 1345.3689700130399 0.4991410196530308 412.0 13.0 302.0 
308.0008661781395 40391.0 961.0 1342.2868318122564 0.4992295828957362 407.0 16.0 298.0 
310.0008661781395 40366.0 961.0 1339.2046936114725 0.4999148698652523 406.0 15.0 298.0 
312.0008661781395 40308.0 961.0 1339.2620599739232 0.5006013778929433 408.0 16.0 297.0 
314.0008661781395 40349.0 961.0 1339.209908735333 0.5017538944733345 412.0 13.0 300.0 
316.0001983480089 40382.0 962.0 1336.305084745762 0.4995138663877027 409.0 16.0 296.0 
318.0008661781395 40347.0 962.0 1342.3572359843563 0.4995319997376 410.0 15.0 299.0 
320.0008661781395 40326.0 962.0 1336.346805736636 0.5000324541779924 408.0 16.0 296.0 
322.0008661781395 40278.0 962.0 1336.3259452411983 0.5004922938452604 411.0 13.0 299.0 
324.0008661781395 40228.0 962.0 1339.2777053455018 0.49912525081123343 408.0 16.0 297.0 
326.0001983480089 40205.0 962.0 1339.3350717079525 0.4989988382968895 409.0 15.0 298.0 
328.0008661781395 40176.0 962.0 1342.3129074315518 0.5022008115168406 409.0 16.0 298.0 
330.0008661781395 40083.0 961.0 1345.319426336376 0.4994975565477738 413.0 13.0 302.0 
332.0008661781395 40045.0 961.0 1345.2881355932218 0.5043516585674231 410.0 16.0 299.0 
334.0008661781395 39836.0 959.0 1342.2477183833125 0.5023608768422737 408.0 15.0 299.0 
336.0001983480089 39779.0 958.0 1339.2490221642768 0.4999494737662722 409.0 16.0 297.0 
338.0008661781395 39725.0 958.0 1336.2216427640165 0.5020381354889121 412.0 13.0 299.0 
340.0008661781395 39687.0 957.0 1336.1877444589297 0.501824720789999 408.0 16.0 296.0 
342.0008661781395 39598.0 957.0 1348.2633637548909 0.5025718820649809 412.0 15.0 301.0 
344.0008661781395 39524.0 956.0 1351.3037809647976 0.499517885226839 416.0 16.0 301.0 
346.0001983480089 39506.0 956.0 1351.3898305084758 0.4993855127602308 417.0 13.0 304.0 
348.0008661781395 39478.0 956.0 1348.3259452411985 0.5015818833820636 414.0 16.0 300.0 
350.0008661781395 39425.0 955.0 1345.311603650587 0.5024983909732615 414.0 15.0 300.0 
352.0008661781395 39309.0 954.0 1345.2203389830497 0.49938638032179306 414.0 16.0 299.0 
354.0008661781395 39285.0 954.0 1342.216427640155 0.502492364267774 418.0 13.0 301.0 
356.0001983480089 39317.0 954.0 1342.2842242503268 0.5065396828689132 414.0 16.0 298.0 
358.0008661781395 39222.0 951.0 1342.2268578878757 0.49865724188066307 413.0 15.0 299.0 
360.0008661781395 39218.0 951.0 1342.281616688397 0.49971839108768173 412.0 16.0 298.0 
362.0008661781395 39179.0 951.0 1342.1720990873532 0.5003309434714777 416.0 13.0 301.0 
364.0008661781395 39167.0 951.0 1339.1942633637561 0.5017174395631866 414.0 16.0 297.0 
366.0001983480089 39134.0 950.0 1336.2425032594522 0.4990858188474949 416.0 15.0 297.0 
368.0008661781395 39115.0 950.0 1333.2594524119954 0.4984835023636322 416.0 16.0 295.0 
370.0008661781395 39114.0 950.0 1330.2007822685798 0.5037837792245206 419.0 13.0 297.0 
372.0008661781395 38953.0 948.0 1333.1707953063883 0.5000877411837088 416.0 16.0 295.0 
374.0008661781395 38894.0 947.0 1336.2242503259445 0.5016715808921585 417.0 15.0 297.0 
376.0001983480089 38863.0 948.0 1345.2203389830497 0.5005195649118191 417.0 16.0 299.0 
378.0008661781395 38822.0 947.0 1339.2359843546278 0.49909865586628843 424.0 13.0 300.0 
380.0008661781395 38843.0 948.0 1339.2229465449811 0.5019354368173142 421.0 16.0 297.0 
382.0008661781395 38825.0 948.0 1336.2529335071697 0.5015649241612397 424.0 15.0 297.0 
384.0008661781395 38759.0 949.0 1342.3389830508481 0.5050439251822192 422.0 17.0 297.0 
386.0001983480089 38684.0 947.0 1342.299869621905 0.4991105937089792 425.0 13.0 301.0 
388.0008661781395 38674.0 947.0 1333.3559322033898 0.4991466675953434 421.0 14.0 297.0 
390.0008661781395 38655.0 947.0 1327.3350717079534 0.499334670747752 423.0 10.0 299.0 
392.0008661781395 38638.0 947.0 1324.2868318122553 0.49960041836845154 422.0 11.0 297.0 
394.0008661781395 38611.0 947.0 1321.353324641461 0.5026217304939907 424.0 8.0 299.0 
396.0001983480089 38553.0 946.0 1321.298565840939 0.4990089745980257 421.0 11.0 296.0 
398.0008661781395 38626.0 947.0 1315.3767926988262 0.5015570354658397 421.0 10.0 295.0 
400.0008661781395 38508.0 946.0 1312.3233376792693 0.4990497572930553 419.0 12.0 292.0 
402.0008661781395 38512.0 946.0 1312.354628422424 0.5017528658115679 419.0 13.0 291.0 
404.0008661781395 38435.0 945.0 1312.3233376792693 0.5015269992155886 418.0 15.0 289.0 
406.0001983480089 38410.0 944.0 1315.382007822686 0.5019182969805611 418.0 14.0 291.0 
408.0007064582738 38342.0 943.0 1315.3637548891788 0.49983422224691665 418.0 15.0 290.0 
410.0007064582738 38310.0 943.0 1312.3728813559317 0.5022730262784894 420.0 12.0 292.0 
412.0008661781395 38332.0 942.0 1309.264667535853 0.4988021608972734 418.0 15.0 288.0 
414.0007064582738 38414.0 944.0 1315.3689700130387 0.5013399183460195 418.0 14.0 291.0 
416.0001983480089 38366.0 943.0 1315.3637548891788 0.5003344441504879 419.0 15.0 290.0 
418.0007064582738 38299.0 943.0 1318.3415906127766 0.5017752697852331 423.0 12.0 294.0 
420.0007064582738 38206.0 943.0 1306.3102998696222 0.499473955634429 421.0 15.0 287.0 
422.0007064582738 38188.0 943.0 1306.3207301173409 0.5003206108066462 418.0 14.0 288.0 
424.0007064582738 38164.0 943.0 1303.3455019556714 0.5003110521543912 412.0 15.0 286.0 
426.0001983480089 38135.0 943.0 1303.3898305084756 0.5040111099561344 414.0 12.0 289.0 
428.0007064582738 38090.0 942.0 1303.2881355932216 0.49999134743278123 409.0 15.0 286.0 
430.0007064582738 38074.0 942.0 1297.3794002607565 0.4996955492301297 409.0 14.0 285.0 
432.0007064582738 38060.0 942.0 1297.3116036505867 0.5000439151225121 409.0 15.0 284.0 
434.0002928122292 38069.0 943.0 1300.4119947848765 0.5015577139693831 412.0 12.0 288.0 
436.0001983480089 38012.0 942.0 1300.292046936115 0.5040705486950441 409.0 16.0 284.0 
438.0008661781395 37980.0 941.0 1294.320730117341 0.4997924755371376 409.0 15.0 283.0 
440.0008661781395 37977.0 941.0 1294.2633637548897 0.5007140334248374 405.0 15.0 283.0 
442.0008661781395 37964.0 942.0 1300.3259452411992 0.5023497319535707 407.0 12.0 288.0 
444.0008661781395 37928.0 941.0 1297.2777053455022 0.4998094402999051 406.0 15.0 284.0 
446.0001983480089 37913.0 941.0 1300.3441981747062 0.4995396333042645 405.0 14.0 286.0 
448.0008661781395 37908.0 941.0 1297.3298565840935 0.5019001815513282 407.0 15.0 284.0 
450.0008661781395 37891.0 941.0 1303.314211212517 0.5019084829623022 410.0 13.0 288.0 
452.0008661781395 37834.0 940.0 1303.275097783572 0.5004239749108487 407.0 16.0 285.0 
454.0008661781395 37814.0 941.0 1309.3116036505864 0.5000150590595555 408.0 14.0 289.0 
456.0001983480089 37809.0 941.0 1309.3194263363748 0.5002115453990911 409.0 15.0 288.0 
458.0008661781395 37805.0 942.0 1309.3168187744466 0.5031580982375703 410.0 13.0 290.0 
460.0008661781395 37756.0 941.0 1309.3220338983044 0.4997015810428991 406.0 16.0 287.0 
462.0008661781395 37793.0 942.0 1306.331160365059 0.5062436600886456 407.0 15.0 287.0 
464.0008661781395 37616.0 940.0 1303.3428943937422 0.49926924573303033 406.0 16.0 285.0 
466.0001983480089 37603.0 940.0 1303.3298565840935 0.49911748292473496 407.0 13.0 288.0 
468.0008661781395 37619.0 941.0 1303.2672750977847 0.49899251817858015 404.0 16.0 285.0 
470.0008661781395 37622.0 941.0 1297.2881355932213 0.4993639928903854 403.0 15.0 284.0 
472.0008661781395 37625.0 942.0 1297.280312907432 0.5018349267361845 402.0 16.0 283.0 
474.0008661781395 37628.0 941.0 1297.3037809647972 0.49962076436266567 405.0 12.0 287.0 
476.0001983480089 37618.0 941.0 1294.25814863103 0.49903822897906347 406.0 11.0 287.0 
478.0008661781395 37617.0 941.0 1294.271186440677 0.4991648249334696 405.0 10.0 288.0 
480.0008661781395 37620.0 941.0 1297.3011734028676 0.49924222639308496 404.0 11.0 288.0 
482.0008661781395 37618.0 941.0 1294.3102998696224 0.49915283429681734 406.0 9.0 289.0 
484.0007822433514 37631.0 941.0 1297.3220338983042 0.49972989641994264 405.0 11.0 288.0 
486.0001983480089 37626.0 941.0 1294.3233376792693 0.4988726382154877 407.0 9.0 289.0 
488.0007822433514 37786.0 943.0 1288.2946544980446 0.5012638697302612 405.0 10.0 286.0 
490.0007822433514 37712.0 942.0 1285.2777053455025 0.49935765504551466 407.0 7.0 288.0 
492.0007822433514 37701.0 942.0 1279.2881355932216 0.4993004408974725 402.0 10.0 283.0 
494.0008661781395 37694.0 942.0 1270.3911342894382 0.5001213430031342 398.0 11.0 279.0 
496.0001983480089 37675.0 942.0 1270.4224250325954 0.4991600858246977 395.0 15.0 275.0 
498.0007822433514 37681.0 942.0 1273.3637548891788 0.49948559422703487 397.0 10.0 281.0 
500.0008661781395 37723.0 943.0 1273.3428943937422 0.5014021640726923 395.0 15.0 276.0 
502.0007822433514 37687.0 942.0 1273.3455019556714 0.5030113552705572 403.0 9.0 282.0 
504.0008661781395 37630.0 941.0 1273.3767926988262 0.4991298285412088 403.0 11.0 280.0 
506.0001983480089 37627.0 941.0 1273.3611473272492 0.49906676040975656 404.0 10.0 281.0 
508.0008661781395 37624.0 941.0 1270.3233376792693 0.49879756631058575 400.0 15.0 275.0 
510.0008661781395 37624.0 941.0 1273.3924380704036 0.4990625487190053 398.0 14.0 277.0 
512.0007822433514 37631.0 942.0 1267.387222946544 0.502325085820008 394.0 18.0 271.0 
514.0008661781395 37608.0 940.0 1267.3950456323334 0.4997713058667457 402.0 10.0 279.0 
516.0001983480089 37600.0 940.0 1267.3689700130387 0.4990572043181538 397.0 13.0 276.0 
518.0008661781395 37648.0 940.0 1261.355932203389 0.4990886574939009 396.0 14.0 273.0 
520.0008661781395 37773.0 942.0 1258.393741851369 0.49918637723257475 399.0 13.0 273.0 
522.0007822433513 37758.0 942.0 1252.3702737940016 0.4992702219857927 400.0 7.0 277.0 
524.0008661781395 37745.0 942.0 1246.365058670144 0.501936353021298 392.0 12.0 270.0 
526.0001983480089 37686.0 941.0 1249.4237288135585 0.49922547760346386 388.0 14.0 269.0 
528.0008661781395 37676.0 941.0 1249.4393741851359 0.49940418932509145 389.0 12.0 271.0 
530.0007822433513 37666.0 941.0 1255.413298565841 0.4993660626555917 394.0 7.0 278.0 
532.0008661781395 37660.0 941.0 1258.4067796610161 0.49886795522141286 392.0 12.0 274.0 
534.0008661781395 37717.0 942.0 1261.4915254237296 0.4986433115916024 393.0 11.0 276.0 
536.0001983480089 37724.0 943.0 1261.4002607561933 0.4993248864512369 396.0 10.0 277.0 
538.0008661781395 37778.0 943.0 1261.4445893089974 0.49879878693146973 398.0 9.0 278.0 
540.0008661781395 37851.0 944.0 1261.4185136897008 0.4992938175653435 394.0 12.0 275.0 
542.0007822433513 37835.0 944.0 1261.434159061278 0.4989345120004243 397.0 11.0 276.0 
544.0008661781395 37867.0 945.0 1261.4263363754903 0.5001641068062378 398.0 12.0 275.0 
546.0001983480089 37839.0 946.0 1261.4602346805732 0.5008414716883728 401.0 9.0 278.0 
548.0008661781395 37848.0 945.0 1264.432855280313 0.5031743100174255 396.0 13.0 275.0 
550.0007822433513 37824.0 946.0 1261.434159061278 0.5019541660406497 398.0 11.0 276.0 
552.0008661781395 37775.0 945.0 1264.4067796610161 0.4993791955226088 399.0 12.0 276.0 
554.0008661781395 37851.0 946.0 1264.4380704041725 0.49927262619287227 402.0 9.0 279.0 
556.0001983480089 37913.0 946.0 1264.401564537158 0.4997355275458968 397.0 11.0 277.0 
558.0008661781395 37924.0 946.0 1267.4471968709254 0.5031650136217162 400.0 10.0 279.0 
560.0007822433513 37871.0 945.0 1264.4380704041728 0.5011812930250007 399.0 10.0 278.0 
562.0008661781395 37812.0 945.0 1264.4224250325954 0.49965652806908756 398.0 9.0 279.0 
564.0008661781395 37830.0 945.0 1267.3820078226863 0.4993748734476251 396.0 12.0 277.0 
566.0001983480089 37894.0 946.0 1267.413298565841 0.4996497632319667 398.0 9.0 280.0 
568.0008661781395 37884.0 946.0 1267.3872229465442 0.5004540074845532 397.0 11.0 278.0 
570.0008661781395 37896.0 947.0 1267.436766623208 0.5051440629667384 400.0 9.0 280.0 
572.0007822433513 37924.0 946.0 1264.4250325945234 0.4992377685186454 399.0 10.0 278.0 
574.0008661781395 37933.0 946.0 1270.4406779661026 0.49998795188271644 399.0 10.0 280.0 
576.0001983480089 37914.0 946.0 1270.4250325945234 0.5011859100493298 399.0 11.0 279.0 
578.0008661781395 37854.0 945.0 1270.375488917863 0.5028044219844744 402.0 8.0 282.0 
580.0007822433513 37820.0 944.0 1270.4093872229462 0.49922192598642295 397.0 13.0 277.0 
582.0008661781395 37877.0 945.0 1267.4106910039109 0.501617366795162 397.0 11.0 278.0 
584.0007822433513 37845.0 944.0 1279.4784876140802 0.4993259844363352 402.0 8.0 285.0 
586.0001983480089 37834.0 944.0 1276.4067796610161 0.5025976654642276 408.0 6.0 286.0 
588.0007822433513 37696.0 943.0 1273.3715775749683 0.499069781124016 402.0 12.0 279.0 
590.0008661781395 37804.0 944.0 1276.4146023468059 0.501481661809049 402.0 10.0 282.0 
592.0007822433513 37772.0 944.0 1276.383311603651 0.5012410449405814 405.0 7.0 285.0 
594.0008661781395 37759.0 943.0 1273.4132985658407 0.49962693359942306 404.0 7.0 284.0 
596.0001983480089 37728.0 943.0 1273.3168187744468 0.4992669539812601 398.0 10.0 281.0 
598.0008661781395 37720.0 943.0 1276.461538461538 0.5008845779879768 401.0 6.0 286.0 
600.0007822433513 37674.0 942.0 1276.378096479791 0.49910773938757724 402.0 9.0 283.0 
602.0008661781395 37684.0 942.0 1276.3441981747064 0.4992998607469156 400.0 10.0 282.0 
604.0007822433513 37685.0 942.0 1276.276401564537 0.5000155881706008 409.0 5.0 287.0 
606.0001983480089 37649.0 942.0 1276.2998696219042 0.49924730102750514 403.0 11.0 281.0 
608.0007822433513 37641.0 942.0 1273.2933507170792 0.4990002703730486 408.0 5.0 286.0 
610.0008661781395 37750.0 944.0 1273.2881355932218 0.49929928324967404 406.0 7.0 284.0 
612.0007822433513 37887.0 945.0 1276.2711864406772 0.49988212003942 404.0 7.0 285.0 
614.0008661781395 37999.0 947.0 1288.292046936115 0.5034471456253299 397.0 12.0 284.0 
616.0001983480089 37943.0 946.0 1285.2881355932218 0.4991062652504456 394.0 14.0 281.0 
618.0008661781395 37939.0 946.0 1282.3129074315518 0.49916996308070816 395.0 12.0 282.0 
620.0007822433513 37940.0 946.0 1285.3089960886568 0.4993056725168972 394.0 11.0 284.0 
622.0008661781395 37945.0 946.0 1288.3129074315518 0.4989089709364677 392.0 11.0 285.0 
624.0007822433513 37981.0 947.0 1291.3089960886568 0.5016744951991907 396.0 7.0 290.0 
626.0001983480089 37882.0 946.0 1288.276401564537 0.498955790164172 397.0 5.0 291.0 
628.0007822433513 37879.0 946.0 1291.2881355932218 0.4989289047847921 394.0 9.0 288.0 
630.0008661781395 37880.0 946.0 1297.3455019556714 0.4990950879434279 398.0 6.0 293.0 
632.0007822433513 37904.0 946.0 1294.3885267275089 0.49946922177160225 398.0 8.0 290.0 
634.0008661781395 37926.0 948.0 1300.3415906127766 0.501347585638524 399.0 8.0 292.0 
636.0001983480089 37880.0 947.0 1300.3807040417205 0.4999815231253638 404.0 9.0 291.0 
638.0008661781395 37856.0 947.0 1300.3389830508486 0.4989691135253153 397.0 15.0 285.0 
640.0007822433513 37856.0 947.0 1300.357235984356 0.49916285562165297 400.0 10.0 290.0 
642.0008661781395 37844.0 947.0 1300.3363754889194 0.49990183847580205 403.0 9.0 291.0 
644.0007822433513 37856.0 948.0 1300.346805736637 0.5022547640136948 400.0 13.0 287.0 
646.0001983480089 37816.0 947.0 1303.3011734028673 0.4994015412850147 399.0 13.0 288.0 
648.0007822433513 37803.0 947.0 1303.3872229465435 0.4993358937564648 398.0 13.0 288.0 
650.0008661781395 37788.0 947.0 1303.3898305084758 0.5014086426620333 400.0 12.0 289.0 
652.0007822433513 37699.0 946.0 1303.436766623208 0.4992892215367412 402.0 11.0 290.0 
654.0008661781395 37702.0 946.0 1303.4002607561933 0.4992447130948307 400.0 11.0 290.0 
656.0001983480089 37688.0 946.0 1303.3455019556714 0.4992590104151683 400.0 11.0 290.0 
658.0008661781395 37676.0 946.0 1303.3402868318112 0.49924973455450544 402.0 9.0 292.0 
660.0007822433513 37667.0 946.0 1303.2750977835717 0.4999957593005473 398.0 14.0 287.0 
662.0008661781395 37633.0 946.0 1300.4067796610161 0.4994861480041536 400.0 11.0 289.0 
664.0007822433513 37629.0 946.0 1306.3129074315518 0.5010480613291156 396.0 11.0 291.0 
#####################################################################
# End of data export. Simulation finished at: 2019-03-06T05:45+0000 #
#####################################################################
