#####################################################################
# Alchemist log file - simulation started at: 2019-03-12T18:34+0000 #
#####################################################################
# seed = 5.0, bandwidth = 74989.42093324558, accessPointCount = 37.60603093086394, baserange = 17.78279410038923
#
# The columns have the following meaning: 
# time neighbor_count[Sum] <value>@neighbor_count[Sum] packet_size[Mean] mean_delay[Mean] crowd[Sum] overcrowded[Sum] risk[Sum] 
0.0 NaN NaN NaN NaN NaN NaN NaN 
2.000101793669918 8.0 4.0 4987.48109517601 0.6100036232795433 1497.0 0.0 1497.0 
4.000101793669918 8.0 4.0 4987.590612777053 0.6094244939718609 1497.0 0.0 1497.0 
6.000101793669918 8.0 4.0 4987.543676662321 0.6094016336044523 1497.0 0.0 1497.0 
8.000101793669918 8.0 4.0 4987.5462842242505 0.6094321140943303 1497.0 0.0 1497.0 
10.000101793669918 8.0 4.0 4987.561929595828 0.6094549744617386 1497.0 0.0 1497.0 
12.000101793669918 8.0 4.0 4987.5827900912645 0.6095387958089032 1497.0 0.0 1497.0 
14.000101793669918 8.0 4.0 4987.561929595828 0.6094930750740861 1497.0 0.0 1497.0 
16.00010179366992 8.0 4.0 4987.551499348109 0.6094625945842082 1497.0 0.0 1497.0 
18.00010179366992 8.0 4.0 4987.551499348109 0.6095235555639648 1497.0 0.0 1497.0 
20.00010179366992 8.0 4.0 4987.569752281616 0.6095159354414952 1497.0 0.0 1497.0 
22.00010179366992 8.0 4.0 4987.525423728814 0.6095311756864338 1497.0 0.0 1497.0 
24.00010179366992 8.0 4.0 4987.54889178618 0.6095387958089038 1497.0 0.0 1497.0 
26.00010179366992 8.0 4.0 4987.572359843546 0.6094930750740863 1497.0 0.0 1497.0 
28.00010179366992 8.0 4.0 4987.554106910039 0.609401633604452 1497.0 0.0 1497.0 
30.00010179366992 8.0 4.0 4987.5462842242505 0.6095768964212512 1497.0 0.0 1497.0 
32.00010179366992 8.0 4.0 4987.567144719687 0.6095006951965561 1497.0 0.0 1497.0 
34.00010179366992 8.0 4.0 4987.559322033899 0.6094244939718614 1497.0 0.0 1497.0 
36.00010179366992 8.0 4.0 4987.509778357236 0.6096454775234764 1497.0 0.0 1497.0 
38.00010179366992 8.0 4.0 4987.5645371577575 0.6095311756864332 1497.0 0.0 1497.0 
40.00010179366992 8.0 4.0 4987.561929595828 0.6094168738493921 1497.0 0.0 1497.0 
42.00010179366992 8.0 4.0 4987.525423728814 0.6095616561763124 1497.0 0.0 1497.0 
44.00010179366992 8.0 4.0 4987.561929595828 0.6095006951965551 1497.0 0.0 1497.0 
46.00010179366992 8.0 4.0 4987.5645371577575 0.6094092537269228 1497.0 0.0 1497.0 
48.00010179366992 8.0 4.0 4987.535853976532 0.6095997567886587 1497.0 0.0 1497.0 
50.00010179366992 8.0 4.0 4987.525423728814 0.6095692762987807 1497.0 0.0 1497.0 
52.00010179366992 8.0 4.0 4987.567144719687 0.6094244939718614 1497.0 0.0 1497.0 
54.00010179366992 8.0 4.0 4987.538461538462 0.6095768964212509 1497.0 0.0 1497.0 
56.00010179366992 8.0 4.0 4987.554106910039 0.6094397342168 1497.0 0.0 1497.0 
58.00010179366992 8.0 4.0 4987.5645371577575 0.6094625945842088 1497.0 0.0 1497.0 
60.00010179366992 8.0 4.0 4984.542372881356 0.6095845165437203 1496.0 0.0 1496.0 
62.00010179366992 8.0 4.0 400.0 0.5457023229605237 4.0 0.0 0.0 
64.00010179366993 8.0 4.0 400.0 0.5544730839229237 4.0 0.0 0.0 
66.00010179366993 8.0 4.0 400.0 0.5544730839229247 4.0 0.0 0.0 
68.00010179366993 8.0 4.0 400.0 0.5544730839229247 0.0 0.0 0.0 
70.00010179366993 8.0 4.0 400.0 0.5544730839229247 0.0 0.0 0.0 
72.00010179366993 8.0 4.0 400.0 0.5544730839229247 0.0 0.0 0.0 
74.00010179366993 8.0 4.0 400.0 0.5544730839229247 0.0 0.0 0.0 
76.00010179366993 8.0 4.0 400.0 0.5544730839229247 0.0 0.0 0.0 
78.00010179366993 8.0 4.0 400.0 0.5544730839229247 0.0 0.0 0.0 
80.00010179366993 8.0 4.0 400.0 0.5544730839229247 0.0 0.0 0.0 
82.00010179366993 8.0 4.0 400.0 0.5544730839229247 0.0 0.0 0.0 
84.00010179366993 8.0 4.0 400.0 0.5544730839229247 0.0 0.0 0.0 
86.00010179366993 8.0 4.0 400.0 0.5544730839229247 0.0 0.0 0.0 
88.00010179366993 8.0 4.0 400.0 0.5544730839229247 0.0 0.0 0.0 
90.00010179366993 8.0 4.0 400.0 0.5544730839229247 0.0 0.0 0.0 
92.00010179366993 8.0 4.0 400.0 0.5544730839229247 0.0 0.0 0.0 
94.00010179366993 8.0 4.0 400.0 0.5544730839229247 0.0 0.0 0.0 
96.00010179366993 8.0 4.0 400.0 0.5544730839229247 0.0 0.0 0.0 
98.00010179366993 8.0 4.0 400.0 0.5544730839229247 0.0 0.0 0.0 
100.00010179366993 8.0 4.0 400.0 0.5544730839229247 0.0 0.0 0.0 
102.00010179366993 8.0 4.0 400.0 0.5544730839229247 0.0 0.0 0.0 
104.00010179366993 8.0 4.0 400.0 0.5544730839229247 0.0 0.0 0.0 
106.00010179366993 8.0 4.0 400.0 0.5544730839229247 0.0 0.0 0.0 
108.00010179366993 8.0 4.0 400.0 0.5544730839229247 0.0 0.0 0.0 
110.00010179366993 8.0 4.0 400.0 0.5544730839229247 0.0 0.0 0.0 
112.00010179366993 8.0 4.0 400.0 0.5544730839229247 0.0 0.0 0.0 
114.00010179366993 8.0 4.0 400.0 0.5544730839229247 0.0 0.0 0.0 
116.00010179366993 8.0 4.0 400.0 0.5544730839229247 0.0 0.0 0.0 
118.00010179366993 8.0 4.0 400.0 0.5544730839229247 0.0 0.0 0.0 
120.00010179366993 8.0 4.0 400.0 0.5544730839229247 0.0 0.0 0.0 
122.00010179366993 8.0 4.0 400.0 0.5544730839229247 0.0 0.0 0.0 
124.00010179366993 8.0 4.0 400.0 0.5544730839229247 0.0 0.0 0.0 
126.00010179366993 8.0 4.0 400.0 0.5544730839229247 0.0 0.0 0.0 
128.00010179366993 8.0 4.0 400.0 0.5544730839229247 0.0 0.0 0.0 
130.00010179366993 8.0 4.0 400.0 0.5544730839229207 0.0 0.0 0.0 
132.00010179366993 8.0 4.0 400.0 0.5544730839229207 0.0 0.0 0.0 
134.00010179366993 8.0 4.0 400.0 0.5544730839229207 0.0 0.0 0.0 
136.00010179366993 8.0 4.0 400.0 0.5544730839229207 0.0 0.0 0.0 
138.00010179366993 8.0 4.0 400.0 0.5544730839229207 0.0 0.0 0.0 
140.00010179366993 8.0 4.0 400.0 0.5544730839229207 0.0 0.0 0.0 
142.00010179366993 8.0 4.0 400.0 0.5544730839229207 0.0 0.0 0.0 
144.00010179366993 8.0 4.0 400.0 0.5544730839229207 0.0 0.0 0.0 
146.00010179366993 8.0 4.0 400.0 0.5544730839229207 0.0 0.0 0.0 
148.00010179366993 8.0 4.0 400.0 0.5544730839229207 0.0 0.0 0.0 
150.00010179366993 8.0 4.0 400.0 0.5544730839229207 0.0 0.0 0.0 
152.00010179366993 8.0 4.0 400.0 0.5544730839229207 0.0 0.0 0.0 
154.00010179366993 8.0 4.0 400.0 0.5544730839229207 0.0 0.0 0.0 
156.00010179366993 8.0 4.0 400.0 0.5544730839229207 0.0 0.0 0.0 
158.00010179366993 8.0 4.0 400.0 0.5544730839229207 0.0 0.0 0.0 
160.00010179366993 8.0 4.0 400.0 0.5544730839229207 0.0 0.0 0.0 
162.00010179366993 8.0 4.0 400.0 0.5544730839229207 0.0 0.0 0.0 
164.00010179366993 8.0 4.0 400.0 0.5544730839229207 0.0 0.0 0.0 
166.00010179366993 8.0 4.0 400.0 0.5544730839229207 0.0 0.0 0.0 
168.00010179366993 8.0 4.0 400.0 0.5544730839229207 0.0 0.0 0.0 
170.00010179366993 8.0 4.0 400.0 0.5544730839229207 0.0 0.0 0.0 
172.00010179366993 8.0 4.0 400.0 0.5544730839229207 0.0 0.0 0.0 
174.00010179366993 8.0 4.0 400.0 0.5544730839229207 0.0 0.0 0.0 
176.00010179366993 8.0 4.0 400.0 0.5544730839229207 0.0 0.0 0.0 
178.00010179366993 8.0 4.0 400.0 0.5544730839229207 0.0 0.0 0.0 
180.00010179366993 8.0 4.0 400.0 0.5544730839229207 0.0 0.0 0.0 
182.00010179366993 8.0 4.0 400.0 0.5544730839229207 0.0 0.0 0.0 
184.00010179366993 8.0 4.0 400.0 0.5544730839229207 0.0 0.0 0.0 
186.00010179366993 8.0 4.0 400.0 0.5544730839229207 0.0 0.0 0.0 
188.00010179366993 8.0 4.0 400.0 0.5544730839229207 0.0 0.0 0.0 
190.00010179366993 8.0 4.0 400.0 0.5544730839229207 0.0 0.0 0.0 
192.00010179366993 8.0 4.0 400.0 0.5544730839229207 0.0 0.0 0.0 
194.00010179366993 8.0 4.0 400.0 0.5544730839229207 0.0 0.0 0.0 
196.00010179366993 8.0 4.0 400.0 0.5544730839229207 0.0 0.0 0.0 
198.00010179366993 8.0 4.0 400.0 0.5544730839229207 0.0 0.0 0.0 
200.00010179366993 8.0 4.0 400.0 0.5544730839229207 0.0 0.0 0.0 
202.00010179366993 8.0 4.0 400.0 0.5544730839229207 0.0 0.0 0.0 
204.00010179366993 8.0 4.0 400.0 0.5544730839229207 0.0 0.0 0.0 
206.00010179366993 8.0 4.0 400.0 0.5544730839229207 0.0 0.0 0.0 
208.00010179366993 8.0 4.0 400.0 0.5544730839229207 0.0 0.0 0.0 
210.00010179366993 8.0 4.0 400.0 0.5544730839229207 0.0 0.0 0.0 
212.00010179366993 8.0 4.0 400.0 0.5544730839229207 0.0 0.0 0.0 
214.00010179366993 8.0 4.0 400.0 0.5544730839229207 0.0 0.0 0.0 
216.00010179366993 8.0 4.0 400.0 0.5544730839229207 0.0 0.0 0.0 
218.00010179366993 8.0 4.0 400.0 0.5544730839229207 0.0 0.0 0.0 
220.00010179366993 8.0 4.0 400.0 0.5544730839229207 0.0 0.0 0.0 
222.00010179366993 8.0 4.0 400.0 0.5544730839229207 0.0 0.0 0.0 
224.00010179366993 8.0 4.0 400.0 0.5544730839229207 0.0 0.0 0.0 
226.00010179366993 8.0 4.0 400.0 0.5544730839229207 0.0 0.0 0.0 
228.00010179366993 8.0 4.0 400.0 0.5544730839229207 0.0 0.0 0.0 
230.00010179366993 8.0 4.0 400.0 0.5544730839229207 0.0 0.0 0.0 
232.00010179366993 8.0 4.0 400.0 0.5544730839229207 0.0 0.0 0.0 
234.00010179366993 8.0 4.0 400.0 0.5544730839229207 0.0 0.0 0.0 
236.00010179366993 8.0 4.0 400.0 0.5544730839229207 0.0 0.0 0.0 
238.00010179366993 8.0 4.0 400.0 0.5544730839229207 0.0 0.0 0.0 
240.00010179366993 8.0 4.0 400.0 0.5544730839229207 0.0 0.0 0.0 
242.00010179366993 8.0 4.0 400.0 0.5544730839229207 0.0 0.0 0.0 
244.00010179366993 8.0 4.0 400.0 0.5544730839229207 0.0 0.0 0.0 
246.00010179366993 8.0 4.0 400.0 0.5544730839229207 0.0 0.0 0.0 
248.00010179366993 8.0 4.0 400.0 0.5544730839229207 0.0 0.0 0.0 
250.00010179366993 8.0 4.0 400.0 0.5544730839229207 0.0 0.0 0.0 
252.00010179366993 8.0 4.0 400.0 0.5544730839229207 0.0 0.0 0.0 
254.00010179366993 8.0 4.0 400.0 0.5544730839229207 0.0 0.0 0.0 
256.00010179366996 8.0 4.0 400.0 0.5544730839229207 0.0 0.0 0.0 
258.00010179366996 8.0 4.0 400.0 0.5544730839229268 0.0 0.0 0.0 
260.00010179366996 8.0 4.0 400.0 0.5544730839229268 0.0 0.0 0.0 
262.00010179366996 8.0 4.0 400.0 0.5544730839229268 0.0 0.0 0.0 
264.00010179366996 8.0 4.0 400.0 0.5544730839229268 0.0 0.0 0.0 
266.00010179366996 8.0 4.0 400.0 0.5544730839229268 0.0 0.0 0.0 
268.00010179366996 8.0 4.0 400.0 0.5544730839229268 0.0 0.0 0.0 
270.00010179366996 8.0 4.0 400.0 0.5544730839229268 0.0 0.0 0.0 
272.00010179366996 8.0 4.0 400.0 0.5544730839229268 0.0 0.0 0.0 
274.00010179366996 8.0 4.0 400.0 0.5544730839229268 0.0 0.0 0.0 
276.00010179366996 8.0 4.0 400.0 0.5544730839229268 0.0 0.0 0.0 
278.00010179366996 8.0 4.0 400.0 0.5544730839229268 0.0 0.0 0.0 
280.00010179366996 8.0 4.0 400.0 0.5544730839229268 0.0 0.0 0.0 
282.00010179366996 8.0 4.0 400.0 0.5544730839229268 0.0 0.0 0.0 
284.00010179366996 8.0 4.0 400.0 0.5544730839229268 0.0 0.0 0.0 
286.00010179366996 8.0 4.0 400.0 0.5544730839229268 0.0 0.0 0.0 
288.00010179366996 8.0 4.0 400.0 0.5544730839229268 0.0 0.0 0.0 
290.00010179366996 8.0 4.0 400.0 0.5544730839229268 0.0 0.0 0.0 
292.00010179366996 8.0 4.0 400.0 0.5544730839229268 0.0 0.0 0.0 
294.00010179366996 8.0 4.0 400.0 0.5544730839229268 0.0 0.0 0.0 
296.00010179366996 8.0 4.0 400.0 0.5544730839229268 0.0 0.0 0.0 
298.00010179366996 8.0 4.0 400.0 0.5544730839229268 0.0 0.0 0.0 
300.00010179366996 8.0 4.0 400.0 0.5544730839229268 0.0 0.0 0.0 
302.00010179366996 8.0 4.0 400.0 0.5544730839229268 0.0 0.0 0.0 
304.00010179366996 8.0 4.0 400.0 0.5544730839229268 0.0 0.0 0.0 
306.00010179366996 8.0 4.0 400.0 0.5544730839229268 0.0 0.0 0.0 
308.00010179366996 8.0 4.0 400.0 0.5544730839229268 0.0 0.0 0.0 
310.00010179366996 8.0 4.0 400.0 0.5544730839229268 0.0 0.0 0.0 
312.00010179366996 8.0 4.0 400.0 0.5544730839229268 0.0 0.0 0.0 
314.00010179366996 8.0 4.0 400.0 0.5544730839229268 0.0 0.0 0.0 
316.00010179366996 8.0 4.0 400.0 0.5544730839229268 0.0 0.0 0.0 
318.00010179366996 8.0 4.0 400.0 0.5544730839229268 0.0 0.0 0.0 
320.00010179366996 8.0 4.0 400.0 0.5544730839229268 0.0 0.0 0.0 
322.00010179366996 8.0 4.0 400.0 0.5544730839229268 0.0 0.0 0.0 
324.00010179366996 8.0 4.0 400.0 0.5544730839229268 0.0 0.0 0.0 
326.00010179366996 8.0 4.0 400.0 0.5544730839229268 0.0 0.0 0.0 
328.00010179366996 8.0 4.0 400.0 0.5544730839229268 0.0 0.0 0.0 
330.00010179366996 8.0 4.0 400.0 0.5544730839229268 0.0 0.0 0.0 
332.00010179366996 8.0 4.0 400.0 0.5544730839229268 0.0 0.0 0.0 
334.00010179366996 8.0 4.0 400.0 0.5544730839229268 0.0 0.0 0.0 
336.00010179366996 8.0 4.0 400.0 0.5544730839229268 0.0 0.0 0.0 
338.00010179366996 8.0 4.0 400.0 0.5544730839229268 0.0 0.0 0.0 
340.00010179366996 8.0 4.0 400.0 0.5544730839229268 0.0 0.0 0.0 
342.00010179366996 8.0 4.0 400.0 0.5544730839229268 0.0 0.0 0.0 
344.00010179366996 8.0 4.0 400.0 0.5544730839229268 0.0 0.0 0.0 
346.00010179366996 8.0 4.0 400.0 0.5544730839229268 0.0 0.0 0.0 
348.00010179366996 8.0 4.0 400.0 0.5544730839229268 0.0 0.0 0.0 
350.00010179366996 8.0 4.0 400.0 0.5544730839229268 0.0 0.0 0.0 
352.00010179366996 8.0 4.0 400.0 0.5544730839229268 0.0 0.0 0.0 
354.00010179366996 8.0 4.0 400.0 0.5544730839229268 0.0 0.0 0.0 
356.00010179366996 8.0 4.0 400.0 0.5544730839229268 0.0 0.0 0.0 
358.00010179366996 8.0 4.0 400.0 0.5544730839229268 0.0 0.0 0.0 
360.00010179366996 8.0 4.0 400.0 0.5544730839229268 0.0 0.0 0.0 
362.00010179366996 8.0 4.0 400.0 0.5544730839229268 0.0 0.0 0.0 
364.00010179366996 8.0 4.0 400.0 0.5544730839229268 0.0 0.0 0.0 
366.00010179366996 8.0 4.0 400.0 0.5544730839229268 0.0 0.0 0.0 
368.00010179366996 8.0 4.0 400.0 0.5544730839229268 0.0 0.0 0.0 
370.00010179366996 8.0 4.0 400.0 0.5544730839229268 0.0 0.0 0.0 
372.00010179366996 8.0 4.0 400.0 0.5544730839229268 0.0 0.0 0.0 
374.00010179366996 8.0 4.0 400.0 0.5544730839229268 0.0 0.0 0.0 
376.00010179366996 8.0 4.0 400.0 0.5544730839229268 0.0 0.0 0.0 
378.00010179366996 8.0 4.0 400.0 0.5544730839229268 0.0 0.0 0.0 
380.00010179366996 8.0 4.0 400.0 0.5544730839229268 0.0 0.0 0.0 
382.00010179366996 8.0 4.0 400.0 0.5544730839229268 0.0 0.0 0.0 
384.00010179366996 8.0 4.0 400.0 0.5544730839229268 0.0 0.0 0.0 
386.00010179366996 8.0 4.0 400.0 0.5544730839229268 0.0 0.0 0.0 
388.00010179366996 8.0 4.0 400.0 0.5544730839229268 0.0 0.0 0.0 
390.00010179366996 8.0 4.0 400.0 0.5544730839229268 0.0 0.0 0.0 
392.00010179366996 8.0 4.0 400.0 0.5544730839229268 0.0 0.0 0.0 
394.00010179366996 8.0 4.0 400.0 0.5544730839229268 0.0 0.0 0.0 
396.00010179366996 8.0 4.0 400.0 0.5544730839229268 0.0 0.0 0.0 
398.00010179366996 8.0 4.0 400.0 0.5544730839229268 0.0 0.0 0.0 
400.00010179366996 8.0 4.0 400.0 0.5544730839229268 0.0 0.0 0.0 
402.00010179366996 8.0 4.0 400.0 0.5544730839229268 0.0 0.0 0.0 
404.00010179366996 8.0 4.0 400.0 0.5544730839229268 0.0 0.0 0.0 
406.00010179366996 8.0 4.0 400.0 0.5544730839229268 0.0 0.0 0.0 
408.00010179366996 8.0 4.0 400.0 0.5544730839229268 0.0 0.0 0.0 
410.00010179366996 8.0 4.0 400.0 0.5544730839229268 0.0 0.0 0.0 
412.00010179366996 8.0 4.0 400.0 0.5544730839229268 0.0 0.0 0.0 
414.00010179366996 8.0 4.0 400.0 0.5544730839229268 0.0 0.0 0.0 
416.00010179366996 8.0 4.0 400.0 0.5544730839229268 0.0 0.0 0.0 
418.00010179366996 8.0 4.0 400.0 0.5544730839229268 0.0 0.0 0.0 
420.00010179366996 8.0 4.0 400.0 0.5544730839229268 0.0 0.0 0.0 
422.00010179366996 8.0 4.0 400.0 0.5544730839229268 0.0 0.0 0.0 
424.00010179366996 8.0 4.0 400.0 0.5544730839229268 0.0 0.0 0.0 
426.00010179366996 8.0 4.0 400.0 0.5544730839229268 0.0 0.0 0.0 
428.00010179366996 8.0 4.0 400.0 0.5544730839229268 0.0 0.0 0.0 
430.00010179366996 8.0 4.0 400.0 0.5544730839229268 0.0 0.0 0.0 
432.00010179366996 8.0 4.0 400.0 0.5544730839229268 0.0 0.0 0.0 
434.00010179366996 8.0 4.0 400.0 0.5544730839229268 0.0 0.0 0.0 
436.00010179366996 8.0 4.0 400.0 0.5544730839229268 0.0 0.0 0.0 
438.00010179366996 8.0 4.0 400.0 0.5544730839229268 0.0 0.0 0.0 
440.00010179366996 8.0 4.0 400.0 0.5544730839229268 0.0 0.0 0.0 
442.00010179366996 8.0 4.0 400.0 0.5544730839229268 0.0 0.0 0.0 
444.00010179366996 8.0 4.0 400.0 0.5544730839229268 0.0 0.0 0.0 
446.00010179366996 8.0 4.0 400.0 0.5544730839229268 0.0 0.0 0.0 
448.00010179366996 8.0 4.0 400.0 0.5544730839229268 0.0 0.0 0.0 
450.00010179366996 8.0 4.0 400.0 0.5544730839229268 0.0 0.0 0.0 
452.00010179366996 8.0 4.0 400.0 0.5544730839229268 0.0 0.0 0.0 
454.00010179366996 8.0 4.0 400.0 0.5544730839229268 0.0 0.0 0.0 
456.00010179366996 8.0 4.0 400.0 0.5544730839229268 0.0 0.0 0.0 
458.00010179366996 8.0 4.0 400.0 0.5544730839229268 0.0 0.0 0.0 
460.00010179366996 8.0 4.0 400.0 0.5544730839229268 0.0 0.0 0.0 
462.00010179366996 8.0 4.0 400.0 0.5544730839229268 0.0 0.0 0.0 
464.00010179366996 8.0 4.0 400.0 0.5544730839229268 0.0 0.0 0.0 
466.00010179366996 8.0 4.0 400.0 0.5544730839229268 0.0 0.0 0.0 
468.00010179366996 8.0 4.0 400.0 0.5544730839229268 0.0 0.0 0.0 
470.00010179366996 8.0 4.0 400.0 0.5544730839229268 0.0 0.0 0.0 
472.00010179366996 8.0 4.0 400.0 0.5544730839229268 0.0 0.0 0.0 
474.00010179366996 8.0 4.0 400.0 0.5544730839229268 0.0 0.0 0.0 
476.00010179366996 8.0 4.0 400.0 0.5544730839229268 0.0 0.0 0.0 
478.00010179366996 8.0 4.0 400.0 0.5544730839229268 0.0 0.0 0.0 
480.00010179366996 8.0 4.0 400.0 0.5544730839229268 0.0 0.0 0.0 
482.00010179366996 8.0 4.0 400.0 0.5544730839229268 0.0 0.0 0.0 
484.00010179366996 8.0 4.0 400.0 0.5544730839229268 0.0 0.0 0.0 
486.00010179366996 8.0 4.0 400.0 0.5544730839229268 0.0 0.0 0.0 
488.00010179366996 8.0 4.0 400.0 0.5544730839229268 0.0 0.0 0.0 
490.00010179366996 8.0 4.0 400.0 0.5544730839229268 0.0 0.0 0.0 
492.00010179366996 8.0 4.0 400.0 0.5544730839229268 0.0 0.0 0.0 
494.00010179366996 8.0 4.0 400.0 0.5544730839229268 0.0 0.0 0.0 
496.00010179366996 8.0 4.0 400.0 0.5544730839229268 0.0 0.0 0.0 
498.00010179366996 8.0 4.0 400.0 0.5544730839229268 0.0 0.0 0.0 
500.00010179366996 8.0 4.0 400.0 0.5544730839229268 0.0 0.0 0.0 
502.00010179366996 8.0 4.0 400.0 0.5544730839229268 0.0 0.0 0.0 
504.00010179366996 8.0 4.0 400.0 0.5544730839229268 0.0 0.0 0.0 
506.00010179366996 8.0 4.0 400.0 0.5544730839229268 0.0 0.0 0.0 
508.00010179366996 8.0 4.0 400.0 0.5544730839229268 0.0 0.0 0.0 
510.00010179366996 8.0 4.0 400.0 0.5544730839229268 0.0 0.0 0.0 
512.00010179367 8.0 4.0 400.0 0.5544730839229268 0.0 0.0 0.0 
514.00010179367 8.0 4.0 400.0 0.5544730839229227 0.0 0.0 0.0 
516.00010179367 8.0 4.0 400.0 0.5544730839229227 0.0 0.0 0.0 
518.00010179367 8.0 4.0 400.0 0.5544730839229227 0.0 0.0 0.0 
520.00010179367 8.0 4.0 400.0 0.5544730839229227 0.0 0.0 0.0 
522.00010179367 8.0 4.0 400.0 0.5544730839229227 0.0 0.0 0.0 
524.00010179367 8.0 4.0 400.0 0.5544730839229227 0.0 0.0 0.0 
526.00010179367 8.0 4.0 400.0 0.5544730839229227 0.0 0.0 0.0 
528.00010179367 8.0 4.0 400.0 0.5544730839229227 0.0 0.0 0.0 
530.00010179367 8.0 4.0 400.0 0.5544730839229227 0.0 0.0 0.0 
532.00010179367 8.0 4.0 400.0 0.5544730839229227 0.0 0.0 0.0 
534.00010179367 8.0 4.0 400.0 0.5544730839229227 0.0 0.0 0.0 
536.00010179367 8.0 4.0 400.0 0.5544730839229227 0.0 0.0 0.0 
538.00010179367 8.0 4.0 400.0 0.5544730839229227 0.0 0.0 0.0 
540.00010179367 8.0 4.0 400.0 0.5544730839229227 0.0 0.0 0.0 
542.00010179367 8.0 4.0 400.0 0.5544730839229227 0.0 0.0 0.0 
544.00010179367 8.0 4.0 400.0 0.5544730839229227 0.0 0.0 0.0 
546.00010179367 8.0 4.0 400.0 0.5544730839229227 0.0 0.0 0.0 
548.00010179367 8.0 4.0 400.0 0.5544730839229227 0.0 0.0 0.0 
550.00010179367 8.0 4.0 400.0 0.5544730839229227 0.0 0.0 0.0 
552.00010179367 8.0 4.0 400.0 0.5544730839229227 0.0 0.0 0.0 
554.00010179367 8.0 4.0 400.0 0.5544730839229227 0.0 0.0 0.0 
556.00010179367 8.0 4.0 400.0 0.5544730839229227 0.0 0.0 0.0 
558.00010179367 8.0 4.0 400.0 0.5544730839229227 0.0 0.0 0.0 
560.00010179367 8.0 4.0 400.0 0.5544730839229227 0.0 0.0 0.0 
562.00010179367 8.0 4.0 400.0 0.5544730839229227 0.0 0.0 0.0 
564.00010179367 8.0 4.0 400.0 0.5544730839229227 0.0 0.0 0.0 
566.00010179367 8.0 4.0 400.0 0.5544730839229227 0.0 0.0 0.0 
568.00010179367 8.0 4.0 400.0 0.5544730839229227 0.0 0.0 0.0 
570.00010179367 8.0 4.0 400.0 0.5544730839229227 0.0 0.0 0.0 
572.00010179367 8.0 4.0 400.0 0.5544730839229227 0.0 0.0 0.0 
574.00010179367 8.0 4.0 400.0 0.5544730839229227 0.0 0.0 0.0 
576.00010179367 8.0 4.0 400.0 0.5544730839229227 0.0 0.0 0.0 
578.00010179367 8.0 4.0 400.0 0.5544730839229227 0.0 0.0 0.0 
580.00010179367 8.0 4.0 400.0 0.5544730839229227 0.0 0.0 0.0 
582.00010179367 8.0 4.0 400.0 0.5544730839229227 0.0 0.0 0.0 
584.00010179367 8.0 4.0 400.0 0.5544730839229227 0.0 0.0 0.0 
586.00010179367 8.0 4.0 400.0 0.5544730839229227 0.0 0.0 0.0 
588.00010179367 8.0 4.0 400.0 0.5544730839229227 0.0 0.0 0.0 
590.00010179367 8.0 4.0 400.0 0.5544730839229227 0.0 0.0 0.0 
592.00010179367 8.0 4.0 400.0 0.5544730839229227 0.0 0.0 0.0 
594.00010179367 8.0 4.0 400.0 0.5544730839229227 0.0 0.0 0.0 
596.00010179367 8.0 4.0 400.0 0.5544730839229227 0.0 0.0 0.0 
598.00010179367 8.0 4.0 400.0 0.5544730839229227 0.0 0.0 0.0 
600.00010179367 8.0 4.0 400.0 0.5544730839229227 0.0 0.0 0.0 
602.00010179367 8.0 4.0 400.0 0.5544730839229227 0.0 0.0 0.0 
604.00010179367 8.0 4.0 400.0 0.5544730839229227 0.0 0.0 0.0 
606.00010179367 8.0 4.0 400.0 0.5544730839229227 0.0 0.0 0.0 
608.00010179367 8.0 4.0 400.0 0.5544730839229227 0.0 0.0 0.0 
610.00010179367 8.0 4.0 400.0 0.5544730839229227 0.0 0.0 0.0 
612.00010179367 8.0 4.0 400.0 0.5544730839229227 0.0 0.0 0.0 
614.00010179367 8.0 4.0 400.0 0.5544730839229227 0.0 0.0 0.0 
616.00010179367 8.0 4.0 400.0 0.5544730839229227 0.0 0.0 0.0 
618.00010179367 8.0 4.0 400.0 0.5544730839229227 0.0 0.0 0.0 
620.00010179367 8.0 4.0 400.0 0.5544730839229227 0.0 0.0 0.0 
622.00010179367 8.0 4.0 400.0 0.5544730839229227 0.0 0.0 0.0 
624.00010179367 8.0 4.0 400.0 0.5544730839229227 0.0 0.0 0.0 
626.00010179367 8.0 4.0 400.0 0.5544730839229227 0.0 0.0 0.0 
628.00010179367 8.0 4.0 400.0 0.5544730839229227 0.0 0.0 0.0 
630.00010179367 8.0 4.0 400.0 0.5544730839229227 0.0 0.0 0.0 
632.00010179367 8.0 4.0 400.0 0.5544730839229227 0.0 0.0 0.0 
634.00010179367 8.0 4.0 400.0 0.5544730839229227 0.0 0.0 0.0 
636.00010179367 8.0 4.0 400.0 0.5544730839229227 0.0 0.0 0.0 
638.00010179367 8.0 4.0 400.0 0.5544730839229227 0.0 0.0 0.0 
640.00010179367 8.0 4.0 400.0 0.5544730839229227 0.0 0.0 0.0 
642.00010179367 8.0 4.0 400.0 0.5544730839229227 0.0 0.0 0.0 
644.00010179367 8.0 4.0 400.0 0.5544730839229227 0.0 0.0 0.0 
646.00010179367 8.0 4.0 400.0 0.5544730839229227 0.0 0.0 0.0 
648.00010179367 8.0 4.0 400.0 0.5544730839229227 0.0 0.0 0.0 
650.00010179367 8.0 4.0 400.0 0.5544730839229227 0.0 0.0 0.0 
652.00010179367 8.0 4.0 400.0 0.5544730839229227 0.0 0.0 0.0 
654.00010179367 8.0 4.0 400.0 0.5544730839229227 0.0 0.0 0.0 
656.00010179367 8.0 4.0 400.0 0.5544730839229227 0.0 0.0 0.0 
658.00010179367 8.0 4.0 400.0 0.5544730839229227 0.0 0.0 0.0 
660.00010179367 8.0 4.0 400.0 0.5544730839229227 0.0 0.0 0.0 
662.00010179367 8.0 4.0 400.0 0.5544730839229227 0.0 0.0 0.0 
664.00010179367 8.0 4.0 400.0 0.5544730839229227 0.0 0.0 0.0 
#####################################################################
# End of data export. Simulation finished at: 2019-03-12T18:40+0000 #
#####################################################################
