#####################################################################
# Alchemist log file - simulation started at: 2019-03-10T14:58+0000 #
#####################################################################
# seed = 4.0, bandwidth = 4216.965034285822, accessPointCount = 531.8295896944988, baserange = 562.341325190349
#
# The columns have the following meaning: 
# time neighbor_count[Sum] <value>@neighbor_count[Sum] packet_size[Mean] mean_delay[Mean] crowd[Sum] overcrowded[Sum] risk[Sum] 
0.0 NaN NaN NaN NaN NaN NaN NaN 
2.0000042429967895 19.0 12.0 4981.717948717948 0.24043684396427328 1497.0 0.0 1497.0 
4.0000042429967895 231.0 145.0 4981.755424063116 0.8306637666112456 1497.0 0.0 1497.0 
6.0000042429967895 745.0 418.0 4981.8106508875735 1.2505070956831723 1497.0 0.0 1497.0 
8.00000424299679 1407.0 738.0 4981.972386587771 1.7207019873286815 1497.0 0.0 1497.0 
10.00000424299679 2112.0 1065.0 4982.153846153846 2.1420503307614487 1497.0 0.0 1497.0 
12.00000424299679 2821.0 1380.0 4982.573964497042 2.7600666635444537 1497.0 0.0 1497.0 
14.00000424299679 3340.0 1659.0 4982.901380670612 3.3421355481217896 1497.0 0.0 1497.0 
16.000004242996788 3813.0 1955.0 4982.934911242603 3.7290681844696265 1497.0 0.0 1497.0 
18.000004242996788 4582.0 2327.0 4983.2702169625245 3.968949705417276 1497.0 0.0 1497.0 
20.000004242996788 5127.0 2650.0 4983.406311637081 4.1967601588981065 1497.0 0.0 1497.0 
22.000004242996788 5545.0 2918.0 4983.652859960553 4.431309181767448 1497.0 0.0 1497.0 
24.000004242996788 6046.0 3167.0 4983.899408284024 4.980431264475385 1497.0 0.0 1497.0 
26.000004242996788 6350.0 3385.0 4984.03550295858 5.4156050291136335 1497.0 0.0 1497.0 
28.000004242996788 6583.0 3521.0 4984.082840236686 6.029835856865933 1497.0 0.0 1497.0 
30.000004242996788 6907.0 3705.0 4984.171597633136 6.442369332386245 1497.0 0.0 1497.0 
32.00000424299679 7680.0 3899.0 4984.284023668639 6.541861206492454 1497.0 0.0 1497.0 
34.00000424299679 8380.0 4089.0 4984.558185404339 6.600617845309198 1497.0 0.0 1497.0 
36.00000424299679 8603.0 4198.0 4984.77909270217 6.982493479563693 1497.0 0.0 1497.0 
38.00000424299679 8667.0 4222.0 4984.717948717948 7.03627703118626 1497.0 0.0 1497.0 
40.00000424299679 8699.0 4221.0 4984.777120315582 7.20059418742648 1497.0 0.0 1497.0 
42.00000424299679 8701.0 4222.0 4984.777120315582 7.559457426223641 1497.0 0.0 1497.0 
44.00000424299679 8687.0 4217.0 4984.717948717948 7.948530046582958 1497.0 0.0 1497.0 
46.00000424299679 8666.0 4208.0 4984.785009861933 8.24867788716441 1497.0 0.0 1497.0 
48.00000424299679 8626.0 4204.0 4984.710059171598 7.889707532625956 1497.0 0.0 1497.0 
50.00000424299679 8681.0 4234.0 4984.822485207101 7.878641701095535 1497.0 0.0 1497.0 
52.00000424299679 8707.0 4238.0 4984.950690335306 8.042489227551194 1497.0 0.0 1497.0 
54.00000424299679 8698.0 4226.0 4984.883629191321 8.204141367807244 1497.0 0.0 1497.0 
56.00000424299679 8691.0 4162.0 4984.871794871795 7.359790533297979 1497.0 0.0 1497.0 
58.00000424299679 9250.0 4225.0 4985.191321499014 7.506449572035658 1497.0 0.0 1497.0 
60.00000424299679 9197.0 4162.0 4982.923076923076 7.6618519057529095 1497.0 0.0 1497.0 
62.00000424299679 8784.0 4087.0 620.3195266272171 6.503781750347851 552.0 0.0 97.0 
64.0000042429968 8754.0 4054.0 624.7357001972372 6.0554018632484725 495.0 0.0 99.0 
66.0000042429968 9179.0 4093.0 633.8481262327424 5.1712621675409185 425.0 0.0 103.0 
68.0000042429968 9673.0 4205.0 647.5049309664663 4.930325423407736 385.0 0.0 109.0 
70.0000042429968 9734.0 4247.0 647.4694280078919 4.897628382019239 352.0 0.0 109.0 
72.0000042429968 9825.0 4296.0 647.4536489151837 4.9264105460236625 335.0 0.0 109.0 
74.0000042429968 9927.0 4346.0 647.497041420116 4.674590742363163 315.0 0.0 109.0 
76.0000042429968 10143.0 4389.0 658.7869822485214 4.43491885135403 293.0 0.0 114.0 
78.0000042429968 10193.0 4426.0 672.392504930969 3.532442422451457 270.0 0.0 120.0 
80.0000042429968 10175.0 4426.0 672.3984220907263 3.2266630343006732 264.0 0.0 120.0 
82.0000042429968 10912.0 4471.0 717.6568047337233 2.8377782577531816 275.0 0.0 140.0 
84.0000042429968 11546.0 4502.0 776.7396449704096 2.223437706824605 286.0 0.0 166.0 
86.0000042429968 11759.0 4514.0 803.8796844181436 1.9948004888975954 301.0 0.0 178.0 
88.0000042429968 12053.0 4525.0 824.4142011834382 1.8574147715908882 306.0 0.0 187.0 
90.0000042429968 12697.0 4568.0 869.7869822485274 1.7800841699466627 314.0 0.0 207.0 
92.0000042429968 12916.0 4613.0 885.6390532544337 1.9303061564002573 324.0 0.0 214.0 
94.0000042429968 12975.0 4633.0 885.5838264299873 2.113038566373316 320.0 0.0 214.0 
96.0000042429968 12960.0 4651.0 899.2583826430034 2.2091982850846743 322.0 0.0 220.0 
98.0000042429968 13101.0 4675.0 912.7751479289979 2.235602144284877 329.0 0.0 226.0 
100.0000042429968 13312.0 4691.0 940.0138067061106 2.3075693775911694 343.0 0.0 238.0 
102.0000042429968 13410.0 4696.0 946.7988165680498 2.4950428519839565 354.0 0.0 241.0 
104.0000042429968 13798.0 4733.0 976.4398422090833 2.6891464465601556 366.0 0.0 254.0 
106.0000042429968 13821.0 4731.0 976.3668639053194 2.8541413212183167 366.0 0.0 254.0 
108.0000042429968 13816.0 4732.0 976.3155818540494 3.020116054733075 364.0 0.0 254.0 
110.0000042429968 13789.0 4729.0 978.5857988165609 3.098094075444974 365.0 0.0 255.0 
112.0000042429968 13743.0 4721.0 983.1005917159862 2.8473189169182946 366.0 1.0 256.0 
114.0000042429968 16305.0 4783.0 1114.4773175542437 2.8460525726574506 420.0 1.0 314.0 
116.0000042429968 16621.0 4787.0 1128.343195266277 2.7667719721218984 431.0 1.0 320.0 
118.0000042429968 16357.0 4777.0 1130.5700197238668 2.5783472243311 430.0 1.0 321.0 
120.0000042429968 16135.0 4764.0 1141.982248520709 2.472857603623178 425.0 1.0 326.0 
122.0000042429968 16080.0 4761.0 1141.725838264304 2.4870885984683 424.0 1.0 326.0 
124.0000042429968 16167.0 4767.0 1141.802761341229 2.617795751214154 429.0 1.0 326.0 
126.0000042429968 16338.0 4775.0 1141.7554240631093 2.790068782097654 431.0 1.0 326.0 
128.0000042429968 16468.0 4778.0 1141.8816568047266 2.9753175291671594 436.0 1.0 326.0 
130.0000042429968 16701.0 4785.0 1141.988165680471 2.9800573640017065 437.0 1.0 326.0 
132.0000042429968 16831.0 4792.0 1141.9861932938888 3.0778654842776687 438.0 1.0 326.0 
134.0000042429968 16678.0 4779.0 1144.3510848126261 3.088022692050938 438.0 1.0 327.0 
136.0000042429968 16897.0 4792.0 1144.246548323464 3.1589046834925614 443.0 2.0 326.0 
138.0000042429968 17058.0 4799.0 1146.5384615384646 2.997023228178135 447.0 1.0 328.0 
140.0000042429968 17359.0 4812.0 1146.6331360946804 3.1409633196262026 450.0 1.0 328.0 
142.0000042429968 17329.0 4814.0 1148.8441814595626 3.4132292571409866 450.0 1.0 329.0 
144.0000042429968 15409.0 4777.0 1151.0749506903423 3.2426717330442343 452.0 1.0 330.0 
146.0000042429968 14869.0 4764.0 1155.4970414201161 2.8952653376587945 452.0 1.0 332.0 
148.0000042429968 14808.0 4758.0 1155.3786982248575 2.991700463215606 453.0 1.0 332.0 
150.0000042429968 14686.0 4755.0 1155.3136094674471 2.942092724268526 454.0 1.0 332.0 
152.0000042429968 14837.0 4762.0 1153.1538461538403 3.019494328943293 454.0 1.0 331.0 
154.0000042429968 14746.0 4758.0 1146.2682445759335 3.104199891906271 452.0 1.0 328.0 
156.0000042429968 14647.0 4750.0 1146.280078895463 3.0806501817121497 451.0 1.0 328.0 
158.0000042429968 14422.0 4740.0 1143.9506903353076 3.1242619695621077 448.0 1.0 327.0 
160.0000042429968 14243.0 4735.0 1143.9861932938888 2.992939321710457 449.0 0.0 328.0 
162.0000042429968 14122.0 4734.0 1143.810650887578 2.999334189258457 450.0 0.0 328.0 
164.0000042429968 14136.0 4735.0 1143.8599605522716 2.9868947821353373 451.0 0.0 328.0 
166.0000042429968 14082.0 4735.0 1143.8698224852121 2.7037750258335946 448.0 0.0 328.0 
168.0000042429968 13998.0 4730.0 1143.893491124256 2.5969323124704036 444.0 1.0 327.0 
170.0000042429968 13797.0 4720.0 1143.7317554240665 2.5368583854534634 442.0 1.0 327.0 
172.0000042429968 13718.0 4719.0 1145.8422090729805 2.593402762157547 440.0 1.0 328.0 
174.0000042429968 13704.0 4717.0 1143.5641025640998 2.456811389230978 436.0 1.0 327.0 
176.0000042429968 13931.0 4728.0 1141.4181459566096 2.4856938104031165 445.0 1.0 326.0 
178.0000042429968 14368.0 4736.0 1141.5266272189363 2.5476808852383215 444.0 1.0 326.0 
180.0000042429968 16295.0 4788.0 1146.4970414201161 2.5201772166679466 460.0 1.0 328.0 
182.0000042429968 16238.0 4783.0 1146.5364891518682 2.5047205353581163 457.0 1.0 328.0 
184.0000042429968 16358.0 4790.0 1146.4812623274224 2.662818691794801 458.0 1.0 328.0 
186.0000042429968 16421.0 4798.0 1148.7514792899387 2.8231632649757654 459.0 1.0 329.0 
188.0000042429968 16544.0 4805.0 1148.7435897435944 3.106232180303466 461.0 1.0 329.0 
190.0000042429968 16400.0 4794.0 1146.4970414201164 3.1843282623419378 462.0 0.0 329.0 
192.0000042429968 16595.0 4802.0 1144.2228796844208 3.0354412332668397 461.0 0.0 328.0 
194.0000042429968 16655.0 4802.0 1144.2366863905315 3.0229261942814296 458.0 1.0 327.0 
196.0000042429968 16482.0 4792.0 1144.2071005917126 3.0636122058761237 457.0 1.0 327.0 
198.0000042429968 16618.0 4801.0 1142.04733727811 3.107023574379859 454.0 1.0 326.0 
200.0000042429968 16721.0 4805.0 1142.015779092708 3.2976156941800165 453.0 1.0 326.0 
202.0000042429968 16834.0 4811.0 1137.4319526627303 3.503016548647759 454.0 1.0 324.0 
204.0000042429968 16929.0 4816.0 1139.7751479289975 3.491840468173101 455.0 1.0 325.0 
206.0000042429968 16775.0 4809.0 1139.832347140034 3.5589062725031417 454.0 1.0 325.0 
208.0000042429968 16472.0 4810.0 1137.461538461535 3.6017013221313614 454.0 1.0 324.0 
210.0000042429968 14413.0 4749.0 1134.9191321499056 3.0467661477509664 448.0 1.0 323.0 
212.0000042429968 14241.0 4743.0 1132.3885601577892 2.9499588626850417 444.0 1.0 322.0 
214.0000042429968 14095.0 4739.0 1132.2859960552241 2.898431238923967 439.0 1.0 322.0 
216.0000042429968 13978.0 4728.0 1130.0374753451636 2.980116771842912 437.0 1.0 321.0 
218.0000042429968 13880.0 4727.0 1130.00394477318 2.9097642198477316 435.0 1.0 321.0 
220.0000042429968 13876.0 4731.0 1132.2031558185479 2.7334321778121304 434.0 1.0 322.0 
222.0000042429968 13872.0 4731.0 1127.7593688362883 2.693337128151778 434.0 2.0 319.0 
224.0000042429968 14069.0 4738.0 1127.875739644965 2.7033738374189262 439.0 3.0 318.0 
226.0000042429968 14300.0 4746.0 1127.930966469434 2.7890163891268602 438.0 3.0 318.0 
228.0000042429968 14087.0 4733.0 1127.8875739645034 2.639092366455536 437.0 3.0 318.0 
230.0000042429968 13979.0 4730.0 1125.4970414201161 2.6075032529244 433.0 3.0 317.0 
232.0000042429968 13911.0 4729.0 1125.4615384615354 2.3697627754514894 430.0 4.0 316.0 
234.0000042429968 14127.0 4738.0 1125.7179487179549 2.4323983346321616 434.0 4.0 316.0 
236.0000042429968 14992.0 4744.0 1132.6429980276118 2.5333353939923566 439.0 4.0 319.0 
238.0000042429968 16062.0 4781.0 1137.3767258382609 2.4959111006144146 436.0 4.0 321.0 
240.0000042429968 16193.0 4785.0 1139.5798816568088 2.574558306678746 435.0 4.0 322.0 
242.0000042429968 16351.0 4794.0 1135.0729783037452 2.7237939774026736 434.0 4.0 320.0 
244.0000042429968 16496.0 4798.0 1135.1637080867865 2.924235711053068 436.0 4.0 320.0 
246.0000042429968 16750.0 4811.0 1132.9546351084866 2.884133657957219 437.0 4.0 319.0 
248.0000042429968 16937.0 4819.0 1132.9861932938888 2.9611088427511265 438.0 4.0 319.0 
250.0000042429968 16952.0 4818.0 1132.9704142011803 3.1170767672486335 440.0 4.0 319.0 
252.0000042429968 16796.0 4812.0 1130.6844181459555 3.1725380215637355 438.0 4.0 318.0 
254.0000042429968 16556.0 4811.0 1126.132149901384 3.2650798838804325 433.0 4.0 316.0 
256.0000042429968 16274.0 4797.0 1128.3057199210982 3.3008744242431756 431.0 4.0 317.0 
258.0000042429968 16192.0 4796.0 1128.1676528599653 3.2989111201203363 432.0 4.0 317.0 
260.0000042429968 16123.0 4794.0 1128.1696252465485 3.4422062252939947 431.0 3.0 318.0 
262.0000042429968 16093.0 4794.0 1128.1735700197285 3.378412462361766 429.0 3.0 318.0 
264.0000042429968 15961.0 4789.0 1128.285996055224 3.4362757621838194 432.0 3.0 318.0 
266.0000042429968 15239.0 4787.0 1128.2228796844208 3.490820939451863 436.0 3.0 318.0 
268.0000042429968 14070.0 4746.0 1127.8994082840181 3.0931534254022464 430.0 3.0 318.0 
270.0000042429968 13999.0 4743.0 1136.909270216964 2.9522140143595137 435.0 3.0 322.0 
272.0000042429968 14093.0 4747.0 1132.4497041420111 2.754653761790277 436.0 3.0 320.0 
274.0000042429968 14111.0 4749.0 1130.2031558185472 2.600417075292044 436.0 3.0 319.0 
276.0000042429968 14020.0 4740.0 1130.1972386587709 2.5551036903621296 436.0 3.0 319.0 
278.0000042429968 13880.0 4733.0 1132.433925049303 2.5050964232783115 436.0 3.0 320.0 
280.0000042429968 13827.0 4732.0 1132.3372781065138 2.497005373817193 434.0 3.0 320.0 
282.0000042429968 13915.0 4732.0 1132.3550295858047 2.4755058160843704 437.0 3.0 320.0 
284.0000042429968 14017.0 4735.0 1132.5345167652854 2.470697488139991 435.0 4.0 319.0 
286.0000042429968 14412.0 4752.0 1132.463510848132 2.5331185700779466 437.0 3.0 320.0 
288.0000042429968 14678.0 4768.0 1132.5502958579889 2.575373002702786 437.0 3.0 320.0 
290.0000042429968 14812.0 4775.0 1130.2741617356962 2.6682216310499935 438.0 3.0 319.0 
292.0000042429968 14945.0 4782.0 1130.4082840236633 2.7835903994790616 439.0 3.0 319.0 
294.0000042429968 15766.0 4800.0 1132.956607495069 2.927282874495091 444.0 3.0 320.0 
296.0000042429968 16225.0 4810.0 1132.9723865877775 3.0292167333069613 440.0 3.0 320.0 
298.0000042429968 16245.0 4812.0 1132.8284023668682 3.063657207703875 438.0 3.0 320.0 
300.0000042429968 16130.0 4808.0 1135.145956607496 2.977032030543615 438.0 3.0 321.0 
302.0000042429968 15980.0 4798.0 1135.1775147929075 2.8573594022459186 436.0 3.0 321.0 
304.0000042429968 15932.0 4799.0 1137.3550295858047 2.960086942979086 437.0 3.0 322.0 
306.0000042429968 15838.0 4797.0 1141.7455621301772 2.947687215609058 440.0 3.0 324.0 
308.0000042429968 15971.0 4803.0 1144.0749506903423 3.0878535602004855 441.0 3.0 325.0 
310.0000042429968 16004.0 4805.0 1139.5305719921157 3.2494856946310176 438.0 3.0 323.0 
312.0000042429968 16033.0 4806.0 1141.806706114399 3.4430598982177942 440.0 3.0 324.0 
314.0000042429968 15786.0 4793.0 1141.8244575936894 3.599967133511444 434.0 6.0 321.0 
316.0000042429968 15519.0 4784.0 1141.8402366863834 3.4134874690654327 433.0 3.0 324.0 
318.0000042429968 15452.0 4776.0 1141.7455621301772 3.102409495205346 433.0 3.0 324.0 
320.0000042429968 15496.0 4773.0 1139.4950690335345 3.1451798390389216 431.0 3.0 323.0 
322.0000042429968 15494.0 4775.0 1134.9349112425994 3.1370589482420916 433.0 3.0 321.0 
324.0000042429968 14728.0 4761.0 1132.3688362919156 3.1204858330196688 429.0 3.0 320.0 
326.0000042429968 14184.0 4750.0 1125.4990138067135 2.8763178716644693 425.0 3.0 317.0 
328.0000042429968 14195.0 4751.0 1125.485207100593 2.5479726848660724 423.0 3.0 317.0 
330.0000042429968 14264.0 4754.0 1123.2090729783092 2.6201949177421744 419.0 3.0 316.0 
332.0000042429968 14331.0 4759.0 1125.5956607495023 2.5146070272064796 423.0 3.0 317.0 
334.0000042429968 14521.0 4765.0 1127.932938856017 2.559625083709121 424.0 3.0 318.0 
336.0000042429968 14628.0 4775.0 1123.4240631163714 2.6888728153060533 429.0 3.0 316.0 
338.0000042429968 14562.0 4771.0 1125.7869822485209 2.7652214523364917 431.0 3.0 317.0 
340.0000042429968 14798.0 4783.0 1127.9684418145982 2.7992055737668875 428.0 3.0 318.0 
342.0000042429968 14708.0 4779.0 1130.2110453648918 2.8352441164830333 425.0 3.0 319.0 
344.0000042429968 14752.0 4780.0 1130.2426035502938 3.044011426758698 425.0 3.0 319.0 
346.0000042429968 15364.0 4794.0 1137.3195266272235 2.936515727115759 429.0 3.0 322.0 
348.0000042429968 16126.0 4809.0 1139.7061143984165 3.0142006747071277 433.0 3.0 323.0 
350.0000042429968 16246.0 4813.0 1135.2662721893519 3.1615541065783948 435.0 7.0 317.0 
352.0000042429968 16263.0 4813.0 1132.909270216964 3.2282310039271 437.0 7.0 316.0 
354.0000042429968 16180.0 4813.0 1132.779092702176 3.0039776401574945 437.0 7.0 316.0 
356.0000042429968 16054.0 4810.0 1130.5581854043376 3.049317794015147 435.0 6.0 316.0 
358.0000042429968 15907.0 4804.0 1123.7455621301772 3.1332591420230127 434.0 6.0 313.0 
360.0000042429968 15790.0 4799.0 1123.704142011834 3.1502218062447978 432.0 6.0 313.0 
362.0000042429968 15646.0 4793.0 1125.964497041418 3.2157555362205263 434.0 6.0 314.0 
364.0000042429968 15441.0 4787.0 1126.0611439842219 3.088925443530937 433.0 6.0 314.0 
366.0000042429968 15443.0 4787.0 1121.256410256406 3.0631242793110487 432.0 6.0 312.0 
368.0000042429968 15606.0 4791.0 1121.3530571992076 3.138492396184406 436.0 6.0 312.0 
370.0000042429968 15528.0 4783.0 1123.61932938856 3.071913130511364 435.0 6.0 313.0 
372.0000042429968 15800.0 4795.0 1123.5226824457561 3.2715968819276533 437.0 6.0 313.0 
374.0000042429968 15838.0 4799.0 1125.804733727811 3.3250286894268686 438.0 6.0 314.0 
376.0000042429968 15041.0 4774.0 1121.289940828405 3.258190272764917 440.0 4.0 314.0 
378.0000042429968 14265.0 4756.0 1121.2071005917128 3.0111639017726506 435.0 6.0 312.0 
380.0000042429968 14189.0 4759.0 1121.1420118343253 2.7801267021150395 436.0 8.0 310.0 
382.0000042429968 14421.0 4771.0 1118.9368836291956 2.4720577419318586 438.0 6.0 311.0 
384.0000042429968 14611.0 4778.0 1114.329388560165 2.38801349629452 432.0 6.0 309.0 
386.0000042429968 14898.0 4787.0 1118.9743589743591 2.4500588287849276 434.0 6.0 311.0 
388.0000042429968 14929.0 4786.0 1118.9211045364866 2.5913787181838357 431.0 6.0 311.0 
390.0000042429968 14943.0 4790.0 1116.694280078903 2.8152277972513313 429.0 6.0 310.0 
392.0000042429968 14991.0 4791.0 1114.437869822482 3.0182180382405503 429.0 6.0 309.0 
394.0000042429968 14955.0 4789.0 1116.79881656805 3.144627213793276 434.0 6.0 310.0 
396.0000042429968 14859.0 4782.0 1116.700197238664 3.2186752528094704 439.0 6.0 310.0 
398.0000042429968 14850.0 4782.0 1119.0118343195295 3.30213239421694 443.0 6.0 311.0 
400.0000042429968 15347.0 4794.0 1123.7357001972453 3.2456773772530885 444.0 7.0 312.0 
402.0000042429968 15487.0 4798.0 1128.1775147929075 3.157812328498798 440.0 6.0 315.0 
404.0000042429968 15496.0 4800.0 1132.7317554240665 3.043556960637325 442.0 6.0 317.0 
406.0000042429968 15580.0 4803.0 1134.982248520709 3.118313431317603 442.0 6.0 318.0 
408.0000042429968 15712.0 4809.0 1137.2327416173528 2.934512121806579 449.0 5.0 320.0 
410.0000042429968 15582.0 4800.0 1137.2287968441728 2.965323978278417 445.0 4.0 321.0 
412.0000042429968 15330.0 4789.0 1139.5483234714063 2.88454570702629 449.0 0.0 326.0 
414.0000042429968 15077.0 4778.0 1141.652859960544 2.7802072320183533 447.0 0.0 327.0 
416.0000042429968 15004.0 4771.0 1141.4694280078845 2.6231694950475766 446.0 0.0 327.0 
418.0000042429968 15222.0 4778.0 1137.0315581854018 2.760962190277723 444.0 0.0 325.0 
420.0000042429968 15561.0 4792.0 1137.1775147929075 2.864203397894247 445.0 0.0 325.0 
422.0000042429968 15670.0 4798.0 1137.0591715976327 3.0748498575204612 451.0 0.0 325.0 
424.0000042429968 15696.0 4803.0 1139.3826429980286 3.145390033571796 450.0 0.0 326.0 
426.0000042429968 15582.0 4794.0 1141.6153846153898 3.228817352594108 446.0 0.0 327.0 
428.0000042429968 15345.0 4789.0 1137.1282051282062 3.270800698656577 445.0 0.0 325.0 
430.0000042429968 14759.0 4777.0 1132.7613412228861 3.2261423970842915 449.0 0.0 323.0 
432.0000042429968 14679.0 4775.0 1135.0335305719996 2.8700435073872645 450.0 0.0 324.0 
434.0000042429968 14873.0 4786.0 1132.6587771203215 2.8956273158531634 453.0 0.0 323.0 
436.0000042429968 14971.0 4790.0 1134.9191321499056 2.754783071747676 455.0 0.0 324.0 
438.0000042429968 14940.0 4795.0 1134.9053254437938 2.793591335281308 456.0 0.0 324.0 
440.0000042429968 14942.0 4795.0 1132.609467455629 2.9418448574187543 456.0 0.0 323.0 
442.0000042429968 14878.0 4791.0 1132.5601577909194 2.95541151101389 452.0 1.0 322.0 
444.0000042429968 14836.0 4788.0 1132.5266272189365 3.185893851609536 451.0 1.0 322.0 
446.0000042429968 14629.0 4781.0 1128.0927021696332 3.159602607706308 449.0 1.0 320.0 
448.0000042429968 14519.0 4779.0 1134.9763313609485 3.0553881549103052 450.0 1.0 323.0 
450.0000042429968 15213.0 4790.0 1141.8954635108532 2.902897073747165 460.0 1.0 326.0 
452.0000042429968 15501.0 4803.0 1148.5976331360987 2.9318475950159932 458.0 1.0 329.0 
454.0000042429968 15453.0 4798.0 1148.5641025640991 2.9631310453199533 453.0 1.0 329.0 
456.0000042429968 15569.0 4806.0 1150.8836291913237 3.1723674114854923 453.0 1.0 330.0 
458.0000042429968 15538.0 4809.0 1153.203155818548 3.465294753579239 449.0 5.0 327.0 
460.0000042429968 15430.0 4804.0 1153.2268244575998 3.625941637212066 448.0 5.0 327.0 
462.0000042429968 15152.0 4789.0 1153.1913214990186 3.148317808500378 447.0 5.0 327.0 
464.0000042429968 14814.0 4775.0 1150.7751479289977 2.9216515813989674 442.0 4.0 327.0 
466.0000042429968 14826.0 4775.0 1152.9842209072913 2.8993885780055364 447.0 4.0 328.0 
468.0000042429968 14860.0 4772.0 1150.7357001972455 2.735471182303036 445.0 4.0 327.0 
470.0000042429968 15015.0 4780.0 1148.3786982248578 2.7520517106559867 441.0 4.0 326.0 
472.0000042429968 15077.0 4780.0 1146.2011834319503 2.6747101791496797 442.0 3.0 326.0 
474.0000042429968 15221.0 4790.0 1139.3944773175506 2.892360936301202 431.0 13.0 313.0 
476.0000042429968 15429.0 4803.0 1137.2583826430027 3.080072314465419 437.0 13.0 312.0 
478.0000042429968 15379.0 4797.0 1137.3195266272241 3.210558098648902 441.0 13.0 312.0 
480.0000042429968 14868.0 4797.0 1137.457593688355 3.109206563581182 444.0 13.0 312.0 
482.0000042429968 14710.0 4785.0 1137.2583826430027 2.939780988327814 442.0 13.0 312.0 
484.0000042429968 14656.0 4783.0 1135.0019723865823 2.9644305263600135 445.0 10.0 314.0 
486.0000042429968 14628.0 4782.0 1132.7278106508859 3.1119531151241353 444.0 10.0 313.0 
488.0000042429968 14669.0 4783.0 1130.4516765285937 3.146373289021882 444.0 10.0 312.0 
490.0000042429968 14873.0 4791.0 1125.8007889546316 2.770526895280894 443.0 10.0 310.0 
492.0000042429968 15435.0 4808.0 1128.1873767258396 2.7587934224977126 442.0 10.0 311.0 
494.0000042429968 15803.0 4831.0 1128.23471400395 2.8399681850652603 444.0 10.0 311.0 
496.0000042429968 15707.0 4827.0 1128.2761341222927 2.8330778897201268 442.0 10.0 311.0 
498.0000042429968 15523.0 4822.0 1125.9566074950683 2.8807655876702687 445.0 10.0 310.0 
500.0000042429968 15438.0 4816.0 1128.1913214990184 3.0200725025246955 444.0 10.0 311.0 
502.0000042429968 15281.0 4811.0 1128.1499013806751 3.1248600943667335 442.0 10.0 311.0 
504.0000042429968 15248.0 4808.0 1125.8737672583832 3.237998327155792 440.0 9.0 311.0 
506.0000042429968 15137.0 4803.0 1125.990138067068 3.2908939820857066 444.0 9.0 311.0 
508.0000042429968 15060.0 4803.0 1123.648915187374 3.3986487802031604 442.0 9.0 310.0 
510.0000042429968 14811.0 4792.0 1123.5581854043378 3.340009160917647 438.0 9.0 310.0 
512.0000042429967 14636.0 4786.0 1121.1203155818562 3.1408075333491094 428.0 10.0 308.0 
514.0000042429967 14698.0 4784.0 1123.2682445759335 3.0402249567816737 434.0 10.0 309.0 
516.0000042429967 14789.0 4789.0 1123.4181459566096 2.9509463352763783 435.0 10.0 309.0 
518.0000042429967 14944.0 4794.0 1118.8994082840172 2.978847200855122 436.0 10.0 307.0 
520.0000042429967 14855.0 4791.0 1118.9625246548358 2.8545416908888464 434.0 11.0 306.0 
522.0000042429967 14500.0 4788.0 1114.463510848132 2.6437476504614903 436.0 11.0 304.0 
524.0000042429967 14262.0 4774.0 1118.9013806706148 2.6243363706766374 437.0 11.0 306.0 
526.0000042429967 14280.0 4775.0 1116.670611439835 2.6522839535076583 433.0 11.0 305.0 
528.0000042429967 14693.0 4792.0 1114.5779092702105 2.6868139557972044 438.0 11.0 304.0 
530.0000042429967 15359.0 4815.0 1110.1775147929075 2.6248998765284264 438.0 11.0 302.0 
532.0000042429967 15802.0 4838.0 1112.5443786982275 2.7416509949081935 441.0 11.0 303.0 
534.0000042429967 15928.0 4842.0 1119.329388560165 2.9081089296463016 441.0 11.0 306.0 
536.0000042429967 15934.0 4841.0 1121.652859960544 3.0390999742869695 444.0 9.0 309.0 
538.0000042429967 15987.0 4842.0 1121.546351084809 3.2122783683395397 439.0 11.0 307.0 
540.0000042429967 15840.0 4833.0 1112.471400394482 3.376701765897145 437.0 11.0 303.0 
542.0000042429967 15772.0 4829.0 1119.3037475345152 3.4706871956402674 438.0 11.0 306.0 
544.0000042429967 15684.0 4829.0 1123.8500986193237 3.267526010784203 444.0 10.0 309.0 
546.0000042429967 15628.0 4827.0 1121.5739644970477 3.4013596735328733 445.0 10.0 308.0 
548.0000042429967 15469.0 4823.0 1119.2090729783095 3.499284767935934 445.0 10.0 307.0 
550.0000042429967 15084.0 4806.0 1121.355029585806 3.235847260711417 440.0 10.0 308.0 
552.0000042429967 15095.0 4799.0 1123.5226824457563 3.1397080483672566 435.0 9.0 310.0 
554.0000042429967 15152.0 4805.0 1121.3708086784982 3.2559483069423085 434.0 9.0 309.0 
556.0000042429967 15104.0 4804.0 1121.4003944773203 3.3021279306289464 433.0 9.0 309.0 
558.0000042429967 14643.0 4784.0 1121.37672583826 3.19617234507595 427.0 9.0 309.0 
560.0000042429967 13957.0 4765.0 1118.9881656804698 3.0265771542109405 425.0 9.0 308.0 
562.0000042429967 13761.0 4749.0 1118.7810650887593 2.849988643133239 430.0 9.0 308.0 
564.0000042429967 13814.0 4755.0 1116.5049309664655 2.7087928443473266 429.0 9.0 307.0 
566.0000042429967 14273.0 4770.0 1114.2564102564045 2.7126531641164635 425.0 14.0 301.0 
568.0000042429967 14578.0 4785.0 1114.3885601577892 2.642644477769442 430.0 9.0 306.0 
570.0000042429967 15001.0 4802.0 1116.7948717948696 2.5160575667786507 441.0 4.0 312.0 
572.0000042429967 15365.0 4819.0 1119.1439842209063 2.573456500214691 443.0 3.0 314.0 
574.0000042429967 15534.0 4828.0 1116.8619329388532 2.678236103266739 443.0 3.0 313.0 
576.0000042429967 15551.0 4824.0 1121.4536489151915 2.738560476338892 445.0 3.0 315.0 
578.0000042429967 15656.0 4831.0 1121.4792899408242 2.881884761627502 447.0 3.0 315.0 
580.0000042429967 15654.0 4827.0 1123.741617356997 2.9656366937611365 447.0 3.0 316.0 
582.0000042429967 15567.0 4827.0 1128.2879684418217 3.027953467115279 442.0 3.0 318.0 
584.0000042429967 15752.0 4831.0 1130.506903353064 3.1230518928039555 444.0 3.0 319.0 
586.0000042429967 15910.0 4837.0 1135.0631163708042 3.2989567010195873 448.0 3.0 321.0 
588.0000042429967 16022.0 4844.0 1137.3214990138058 3.4547231997281487 452.0 3.0 322.0 
590.0000042429967 15880.0 4834.0 1135.1301775147876 3.579578927871187 449.0 3.0 321.0 
592.0000042429967 15795.0 4834.0 1132.8560157790937 3.657608391730578 451.0 0.0 323.0 
594.0000042429967 15561.0 4830.0 1132.8382642998106 3.65985220500149 452.0 0.0 323.0 
596.0000042429967 15059.0 4816.0 1134.9546351084866 3.5203448532816632 450.0 0.0 324.0 
598.0000042429967 14626.0 4795.0 1134.8185404339213 3.218267709647508 448.0 0.0 324.0 
600.0000042429967 14359.0 4775.0 1137.023668639051 3.141305893042295 443.0 0.0 325.0 
602.0000042429967 14452.0 4786.0 1137.0611439842232 3.0982133844257405 451.0 1.0 324.0 
604.0000042429967 14435.0 4782.0 1139.2800788954637 2.8607032068585054 456.0 0.0 326.0 
606.0000042429967 14446.0 4784.0 1139.2149901380617 2.8228868438869905 455.0 0.0 326.0 
608.0000042429967 14510.0 4784.0 1146.1282051282067 2.918816136264491 459.0 0.0 329.0 
610.0000042429967 14727.0 4791.0 1146.319526627225 2.8631198348998503 460.0 0.0 329.0 
612.0000042429967 14903.0 4801.0 1146.2623274161817 2.8631049443576715 461.0 0.0 329.0 
614.0000042429967 14958.0 4797.0 1146.3688362919172 2.8720588480025415 460.0 0.0 329.0 
616.0000042429967 15176.0 4798.0 1148.5325443786965 2.8299667759618687 463.0 0.0 330.0 
618.0000042429967 15333.0 4810.0 1148.6331360946806 2.865266610198866 462.0 0.0 330.0 
620.0000042429967 15435.0 4815.0 1146.3570019723882 2.9956586805242043 456.0 5.0 324.0 
622.0000042429967 15405.0 4812.0 1148.6370808678519 3.106296559496016 457.0 5.0 325.0 
624.0000042429967 15455.0 4810.0 1148.6173570019707 3.010359321360834 455.0 4.0 326.0 
626.0000042429967 15674.0 4818.0 1146.4694280078843 3.0320312148572004 459.0 3.0 326.0 
628.0000042429967 15940.0 4834.0 1153.313609467447 3.2223024796062494 462.0 3.0 329.0 
630.0000042429967 15968.0 4843.0 1151.0374753451629 3.3463145573905573 466.0 3.0 328.0 
632.0000042429967 15572.0 4822.0 1151.0315581854018 3.297457333248596 463.0 4.0 327.0 
634.0000042429967 15298.0 4812.0 1153.1992110453687 3.222535338717832 466.0 4.0 328.0 
636.0000042429967 15632.0 4822.0 1157.7850098619383 3.1807629291400805 466.0 4.0 330.0 
638.0000042429967 15413.0 4818.0 1160.1104536489152 3.2907344360355206 465.0 4.0 331.0 
640.0000042429967 15182.0 4810.0 1160.1222879684376 3.314573686812999 464.0 4.0 331.0 
642.0000042429967 15011.0 4799.0 1162.2228796844208 3.3459549242634243 463.0 4.0 332.0 
644.0000042429967 14708.0 4791.0 1159.8737672583836 3.3040934466497953 462.0 5.0 330.0 
646.0000042429967 14416.0 4782.0 1157.566074950697 3.1861925389930335 467.0 0.0 334.0 
648.0000042429967 14322.0 4772.0 1157.597633136099 3.1130913873386157 467.0 0.0 334.0 
650.0000042429967 14752.0 4782.0 1155.382642998029 3.013632684813323 464.0 1.0 332.0 
652.0000042429967 15062.0 4792.0 1153.1222879684374 2.8249068351910847 464.0 1.0 331.0 
654.0000042429967 15277.0 4799.0 1153.163708086788 2.934020801142049 465.0 1.0 331.0 
656.0000042429967 15262.0 4795.0 1155.57790927021 2.9152699479633815 468.0 1.0 332.0 
658.0000042429967 15235.0 4790.0 1157.8382642998104 2.8363494747463798 465.0 1.0 333.0 
660.0000042429967 15220.0 4787.0 1157.7514792899378 2.7420565665998553 466.0 1.0 333.0 
662.0000042429967 15411.0 4803.0 1159.9940828402396 2.807468768948186 467.0 1.0 334.0 
664.0000042429967 15491.0 4805.0 1162.3806706114392 2.8934978770998008 463.0 1.0 335.0 
#####################################################################
# End of data export. Simulation finished at: 2019-03-10T15:13+0000 #
#####################################################################
