#####################################################################
# Alchemist log file - simulation started at: 2019-03-06T07:59+0000 #
#####################################################################
# seed = 8.0, bandwidth = 5623413.251903491, accessPointCount = 531.8295896944988, baserange = 177.82794100389228
#
# The columns have the following meaning: 
# time neighbor_count[Sum] <value>@neighbor_count[Sum] packet_size[Mean] mean_delay[Mean] crowd[Sum] overcrowded[Sum] risk[Sum] 
0.0 NaN NaN NaN NaN NaN NaN NaN 
2.000153713723574 2730.0 1084.0 4983.956607495069 0.4957851116123728 1497.0 0.0 1497.0 
4.000203505547056 4313.0 1120.0 4985.826429980276 0.5203153618956551 1496.0 1.0 1496.0 
6.000198348008885 5226.0 1119.0 4985.577909270217 0.5246514716991397 1497.0 0.0 1497.0 
8.000189279311774 6124.0 1113.0 4986.710059171598 0.5378338291108212 1497.0 0.0 1497.0 
10.000189279311776 6885.0 1112.0 4986.483234714004 0.5410710597679607 1493.0 4.0 1493.0 
12.000175053076495 6919.0 1096.0 4987.029585798817 0.5307546319481206 1492.0 5.0 1492.0 
14.000175053076495 6760.0 1078.0 4986.508875739645 0.4992907164773524 1490.0 7.0 1490.0 
16.000175053076497 6760.0 1078.0 4986.74358974359 0.4994832530881824 1484.0 13.0 1484.0 
18.000175053076497 6760.0 1078.0 4986.181459566074 0.4992332218348363 1488.0 9.0 1488.0 
20.000175053076497 6760.0 1078.0 4986.597633136094 0.5028253945606843 1489.0 8.0 1489.0 
22.000175053076497 6760.0 1078.0 4986.18540433925 0.49952921216164103 1483.0 14.0 1483.0 
24.000175053076497 6763.0 1078.0 4986.495069033531 0.5007911130678371 1487.0 10.0 1487.0 
26.000175053076497 6769.0 1079.0 4985.952662721893 0.5014476896733141 1490.0 7.0 1490.0 
28.000175053076497 6784.0 1079.0 4986.621301775148 0.4994395481251533 1486.0 11.0 1486.0 
30.000175053076497 6784.0 1079.0 4985.917159763314 0.4992787763351503 1488.0 9.0 1488.0 
32.0001750530765 6797.0 1079.0 4986.599605522682 0.49952851143841176 1492.0 5.0 1492.0 
34.00017505307649 6809.0 1080.0 4986.074950690336 0.5014113132485485 1487.0 10.0 1487.0 
36.00017505307649 6791.0 1079.0 4986.3530571992105 0.5029607472864118 1487.0 10.0 1487.0 
38.00017505307649 6772.0 1077.0 4986.07100591716 0.49922681163734745 1490.0 7.0 1490.0 
40.00017505307649 6773.0 1077.0 4986.552268244576 0.49921203427863764 1486.0 11.0 1486.0 
42.00017505307649 6783.0 1077.0 4985.956607495069 0.4992316524863217 1486.0 11.0 1486.0 
44.00017505307649 6794.0 1077.0 4986.491124260355 0.5001761488973772 1491.0 6.0 1491.0 
46.00017505307649 6792.0 1078.0 4986.067061143984 0.4992437405020367 1484.0 13.0 1484.0 
48.00017505307649 6792.0 1078.0 4986.372781065089 0.499243815119075 1486.0 11.0 1486.0 
50.00017505307649 6794.0 1078.0 4986.003944773175 0.4992921803040253 1489.0 8.0 1489.0 
52.00017505307649 6793.0 1078.0 4986.5187376725835 0.503533454945905 1484.0 13.0 1484.0 
54.00017505307649 6770.0 1078.0 4985.92899408284 0.5037218115263141 1487.0 10.0 1487.0 
56.00017505307649 6759.0 1078.0 4986.4773175542405 0.502452685362227 1492.0 5.0 1492.0 
58.00017505307649 6766.0 1079.0 4986.086785009862 0.5012398748838377 1487.0 10.0 1487.0 
60.00017505307649 6788.0 1079.0 4986.357001972387 0.4999232579183075 1488.0 9.0 1488.0 
62.00018927931177 6821.0 1080.0 940.4852071005886 0.5028008307633056 512.0 3.0 235.0 
64.00016793995886 6807.0 1080.0 940.364891518733 0.5003005522090604 415.0 13.0 225.0 
66.00019639242942 6805.0 1081.0 940.3629191321535 0.505293311974463 374.0 19.0 219.0 
68.00092703083283 6814.0 1079.0 938.013806706111 0.5016434344390593 349.0 18.0 219.0 
70.00092703083283 6816.0 1079.0 933.4299802761376 0.49971968610197864 341.0 17.0 218.0 
72.00092703083283 6839.0 1081.0 931.1282051282006 0.49986374937979594 335.0 19.0 215.0 
74.00092703083283 6888.0 1083.0 933.3491124260298 0.5030949888540974 328.0 18.0 217.0 
76.0001983480089 6900.0 1086.0 933.3096646942815 0.5011016184037069 322.0 19.0 216.0 
78.00019639242942 6905.0 1086.0 933.3550295857995 0.5038029590857486 320.0 19.0 216.0 
80.00019639242942 6898.0 1086.0 931.1203155818561 0.5032176141407441 313.0 22.0 212.0 
82.00015371372358 6902.0 1086.0 931.0670611439832 0.5063978755818658 315.0 21.0 213.0 
84.00015371372358 6828.0 1085.0 933.3116370808732 0.5007252247396516 312.0 21.0 214.0 
86.00015371372358 6831.0 1085.0 933.3234714003939 0.5009605230216985 312.0 19.0 216.0 
88.00015371372358 6838.0 1086.0 933.3136094674479 0.5019950339006581 307.0 22.0 213.0 
90.00015371372358 6832.0 1086.0 933.276134122292 0.5018669702976476 306.0 22.0 213.0 
92.00015371372358 6829.0 1085.0 935.5976331360979 0.5012871638120773 308.0 20.0 216.0 
94.00015371372358 6855.0 1086.0 937.8007889546371 0.5051169610277908 308.0 19.0 218.0 
96.00015371372358 6802.0 1084.0 935.5522682445725 0.5021320887136401 306.0 20.0 216.0 
98.00015371372358 6798.0 1085.0 935.4950690335344 0.5042794479188801 305.0 21.0 215.0 
100.00015371372358 6763.0 1083.0 935.542406311635 0.5032676904899416 306.0 20.0 216.0 
102.00015371372358 6760.0 1082.0 935.5226824457565 0.5043797016189324 307.0 19.0 217.0 
104.00015371372358 6757.0 1081.0 937.8244575936859 0.5018735511869267 305.0 21.0 216.0 
106.00015371372358 6738.0 1082.0 940.0433925049275 0.5038921322638025 304.0 23.0 215.0 
108.00015371372358 6763.0 1082.0 940.0848126232743 0.5029460149572277 306.0 21.0 217.0 
110.00015371372358 6767.0 1082.0 940.0788954635088 0.5007925622755905 307.0 20.0 218.0 
112.00015371372358 6792.0 1082.0 940.1222879684428 0.5052890328053057 306.0 21.0 217.0 
114.00015371372358 6788.0 1083.0 940.0335305719946 0.5053435925372785 303.0 23.0 215.0 
116.00015371372358 6694.0 1081.0 940.063116370805 0.5027551340511507 303.0 23.0 215.0 
118.00015371372358 6682.0 1080.0 942.353057199208 0.5017858724577393 306.0 20.0 219.0 
120.00015371372358 6696.0 1081.0 944.6449704141996 0.49983334923932127 306.0 21.0 219.0 
122.00015371372358 6763.0 1083.0 949.1143984220888 0.5030445291621195 308.0 19.0 223.0 
124.00015371372358 6758.0 1082.0 949.1854043392518 0.5001417010168113 308.0 19.0 223.0 
126.00015371372358 6756.0 1082.0 949.1380670611466 0.5015798660009262 307.0 20.0 222.0 
128.00092703083283 6755.0 1083.0 955.9546351084858 0.5088128083083763 309.0 21.0 224.0 
130.00092703083283 6724.0 1080.0 955.9191321499056 0.5036722085967019 309.0 22.0 223.0 
132.0005601003648 6758.0 1080.0 955.9467455621277 0.5004280449320271 308.0 22.0 223.0 
134.00059282070595 6796.0 1082.0 955.9901380670672 0.5042145894550155 304.0 25.0 220.0 
136.0001983480089 6781.0 1082.0 951.4319526627293 0.5042897043605162 301.0 24.0 219.0 
138.0005601003648 6791.0 1082.0 953.6370808678472 0.5006237426943407 303.0 24.0 220.0 
140.00092703083283 6793.0 1082.0 958.2110453648949 0.5016557414033387 306.0 23.0 223.0 
142.00092703083283 6845.0 1085.0 962.7672583826466 0.5017644249378024 303.0 27.0 221.0 
144.00092703083283 6869.0 1086.0 962.7731755424011 0.502232992151522 305.0 26.0 222.0 
146.0001983480089 6864.0 1085.0 962.7672583826466 0.5004849145966686 304.0 27.0 221.0 
148.00092703083283 6868.0 1086.0 962.7041420118309 0.5017123850137122 305.0 26.0 222.0 
150.00092703083283 6835.0 1085.0 962.7278106508862 0.5035661772358264 306.0 27.0 221.0 
152.0005601003648 6844.0 1088.0 953.660749506903 0.5035660098589992 307.0 26.0 218.0 
154.00092703083283 6855.0 1089.0 955.9487179487206 0.5035476805953606 306.0 27.0 218.0 
156.0001983480089 6830.0 1088.0 955.9763313609445 0.5026235725665458 307.0 26.0 219.0 
158.00092703083283 6831.0 1087.0 955.8836291913237 0.5019536652646702 307.0 28.0 217.0 
160.0005601003648 6827.0 1088.0 955.8994082840218 0.5036885349548688 307.0 27.0 218.0 
162.00052738002364 6799.0 1089.0 960.475345167651 0.5057191662403562 309.0 27.0 220.0 
164.0005601003648 6765.0 1087.0 962.7140039447759 0.5011045889494545 310.0 26.0 222.0 
166.0001983480089 6820.0 1089.0 964.9980276134129 0.5004959913530564 308.0 28.0 221.0 
168.00092703083283 6841.0 1089.0 965.0690335305703 0.5001843788977856 309.0 27.0 222.0 
170.00092703083283 6869.0 1090.0 965.0098619329328 0.5026898485186303 309.0 28.0 221.0 
172.00092703083283 6887.0 1090.0 967.3057199211021 0.5055580836739342 311.0 26.0 224.0 
174.00092703083283 6876.0 1088.0 967.2998027613368 0.5016935811393624 310.0 27.0 223.0 
176.0001983480089 6871.0 1089.0 971.8658777120334 0.5021163127882803 315.0 23.0 229.0 
178.00092703083283 6893.0 1089.0 971.8619329388534 0.4999251588651973 315.0 24.0 228.0 
180.00092703083283 6922.0 1092.0 971.8658777120334 0.5027377923632305 315.0 24.0 228.0 
182.00092703083283 6899.0 1094.0 971.8303747534515 0.5044784051969328 315.0 28.0 224.0 
184.00092703083283 6866.0 1092.0 971.8619329388534 0.5027458704416717 318.0 25.0 227.0 
186.0001983480089 6832.0 1091.0 971.8106508875745 0.5008783048018576 318.0 25.0 227.0 
188.00092703083283 6830.0 1091.0 974.1124260354975 0.5001661489760971 319.0 25.0 228.0 
190.00092703083283 6829.0 1092.0 971.8224852070935 0.5031149927387358 318.0 26.0 226.0 
192.00092703083283 6823.0 1095.0 971.8362919132167 0.5076229846808454 321.0 24.0 228.0 
194.00092703083283 6825.0 1093.0 974.0670611439832 0.5040784197269399 318.0 27.0 226.0 
196.0001983480089 6794.0 1093.0 974.1045364891515 0.5006729496173945 319.0 26.0 227.0 
198.00092703083283 6797.0 1093.0 967.2583826430026 0.5003917408419662 320.0 25.0 225.0 
200.0005601003648 6830.0 1094.0 967.2426035502973 0.5015492740931923 323.0 23.0 227.0 
202.00052738002364 6844.0 1094.0 969.4378698224823 0.5008201315853164 324.0 24.0 227.0 
204.00092703083283 6857.0 1096.0 969.4299802761363 0.502469998379749 326.0 23.0 228.0 
206.0001983480089 6856.0 1097.0 969.4358974358968 0.5043330199541008 323.0 24.0 227.0 
208.00092703083283 6822.0 1096.0 969.4398422090751 0.5096203824365511 324.0 23.0 228.0 
210.00092703083283 6803.0 1094.0 962.660749506903 0.5075118513578335 320.0 24.0 224.0 
212.00092703083283 6776.0 1091.0 962.627218934908 0.5077046427445104 318.0 24.0 224.0 
214.00092703083283 6729.0 1090.0 964.9191321499056 0.5065568408515551 314.0 26.0 223.0 
216.0001983480089 6668.0 1088.0 964.8698224852116 0.502130114097703 317.0 23.0 226.0 
218.0000551228931 6678.0 1088.0 964.8264299802717 0.5031249078161217 313.0 24.0 225.0 
220.0000551228931 6650.0 1088.0 967.2228796844208 0.5056163832176328 313.0 23.0 227.0 
222.0000551228931 6629.0 1087.0 964.8422090729777 0.5024662486587417 311.0 25.0 224.0 
224.0000551228931 6619.0 1088.0 964.8816568047305 0.5023928958225228 315.0 20.0 229.0 
226.0000551228931 6638.0 1090.0 964.8402366863843 0.503538692617417 313.0 22.0 227.0 
228.00092703083283 6657.0 1088.0 964.9250493096586 0.5076161696122196 314.0 23.0 226.0 
230.00092703083283 6606.0 1087.0 962.642998027612 0.5005625513938607 313.0 24.0 224.0 
232.00092703083283 6612.0 1088.0 962.6331360946798 0.5080771417362383 313.0 23.0 225.0 
234.00092703083283 6588.0 1087.0 962.6114398422106 0.5009726388494633 311.0 24.0 224.0 
236.0001983480089 6590.0 1088.0 962.6370808678479 0.5053749533846189 312.0 23.0 225.0 
238.00092703083283 6532.0 1086.0 962.5877712031551 0.5007765023411512 311.0 24.0 224.0 
240.00092703083283 6526.0 1086.0 960.3767258382643 0.5058730814508765 311.0 23.0 224.0 
242.00092703083283 6503.0 1088.0 958.0216962524693 0.5096271224157658 308.0 24.0 222.0 
244.00092703083283 6453.0 1087.0 955.7810650887591 0.5039765262946215 309.0 23.0 222.0 
246.0001983480089 6440.0 1086.0 955.7869822485235 0.4991213054027229 305.0 27.0 218.0 
248.00092703083283 6461.0 1088.0 960.276134122292 0.5060285978098108 305.0 26.0 221.0 
250.00092703083283 6452.0 1087.0 960.376725838265 0.5073737085949076 306.0 27.0 220.0 
252.00092703083283 6430.0 1087.0 962.5621301775178 0.501889392815137 307.0 26.0 222.0 
254.00092703083283 6435.0 1085.0 960.276134122292 0.5017571026544653 307.0 27.0 220.0 
256.0001983480089 6450.0 1086.0 960.3057199211019 0.5003732292381712 308.0 26.0 221.0 
258.0009176163013 6458.0 1087.0 962.5542406311595 0.5027377745520556 308.0 27.0 221.0 
260.0009176163013 6468.0 1088.0 962.5207100591716 0.5076214601408814 309.0 26.0 222.0 
262.000026342661 6441.0 1086.0 964.8974358974347 0.5019238500200286 312.0 27.0 222.0 
264.0000341670904 6441.0 1087.0 964.7712031558264 0.5052600067423653 313.0 26.0 223.0 
266.0001983480089 6442.0 1088.0 969.3727810650925 0.501830372960505 312.0 27.0 224.0 
268.0008664018543 6470.0 1088.0 969.3688362919131 0.5031932325717051 312.0 26.0 225.0 
270.0008664018543 6473.0 1087.0 978.4299802761353 0.5002780128963408 312.0 27.0 228.0 
272.0008749375955 6478.0 1088.0 978.4299802761349 0.5010244880290824 312.0 26.0 229.0 
274.0009090805601 6471.0 1088.0 976.2248520710048 0.5040181064173369 310.0 27.0 227.0 
276.0001983480089 6445.0 1087.0 971.6311637080871 0.5034282294526286 310.0 26.0 226.0 
278.0008834733366 6508.0 1088.0 973.9349112426027 0.5055307249745119 311.0 27.0 226.0 
280.0008664018543 6506.0 1086.0 967.153846153844 0.5014035411210567 311.0 26.0 224.0 
282.0009270308328 6504.0 1088.0 971.6568047337231 0.5049263809332392 314.0 27.0 225.0 
284.0009270308328 6485.0 1087.0 971.6548323471385 0.5088443436245249 316.0 26.0 226.0 
286.0001983480089 6469.0 1085.0 971.6489151873767 0.5020203242927765 314.0 27.0 225.0 
288.0009270308328 6476.0 1085.0 969.384615384611 0.5016168978394876 315.0 26.0 225.0 
290.0009270308328 6471.0 1085.0 969.3747534516788 0.5027336241128981 315.0 27.0 224.0 
292.0009270308328 6469.0 1086.0 969.378698224857 0.5032037705138042 314.0 26.0 225.0 
294.0009270308328 6466.0 1085.0 969.4299802761359 0.5045208749714051 314.0 27.0 224.0 
296.0001983480089 6485.0 1085.0 967.1222879684422 0.5002903188543675 315.0 26.0 224.0 
298.0009270308328 6495.0 1088.0 964.8875739645025 0.5040473398907043 314.0 27.0 222.0 
300.0009270308328 6480.0 1089.0 964.8224852070935 0.5037857225433613 315.0 26.0 223.0 
302.0009270308328 6454.0 1089.0 962.5877712031548 0.5125076142510068 316.0 27.0 221.0 
304.0009270308328 6429.0 1087.0 962.5463510848135 0.5089612507142628 316.0 26.0 222.0 
306.0001983480089 6407.0 1085.0 967.1104536489114 0.502183604670203 316.0 27.0 223.0 
308.0009270308328 6405.0 1086.0 964.8658777120334 0.5052799015598944 314.0 26.0 223.0 
310.0009270308328 6410.0 1086.0 955.8777120315575 0.5043965714538697 310.0 27.0 218.0 
312.0009270308328 6403.0 1084.0 955.7850098619373 0.4996426926722605 310.0 26.0 219.0 
314.0009270308328 6440.0 1086.0 958.017751479291 0.500920960322807 307.0 27.0 219.0 
316.0001983480089 6442.0 1085.0 953.5759368836287 0.5049433161468352 304.0 26.0 218.0 
318.0009270308328 6436.0 1084.0 955.7712031558264 0.501325020670041 303.0 27.0 218.0 
320.0009270308328 6444.0 1084.0 955.8422090729773 0.5017199869494865 305.0 26.0 219.0 
322.0009270308328 6470.0 1085.0 953.6035502958524 0.5017548264825443 304.0 27.0 217.0 
324.0009270308328 6471.0 1085.0 960.3668639053202 0.5030070146333687 304.0 26.0 221.0 
326.0001983480089 6496.0 1084.0 960.3550295858009 0.50386801147453 307.0 27.0 220.0 
328.0009270308328 6491.0 1084.0 960.3688362919121 0.5056534700731357 310.0 26.0 221.0 
330.0009270308328 6458.0 1082.0 960.2879684418177 0.5084761270259922 309.0 27.0 220.0 
332.0009270308328 6434.0 1081.0 955.7771203155793 0.49945611669923395 309.0 26.0 219.0 
334.0009270308328 6442.0 1081.0 960.2958579881691 0.5001137433305636 309.0 27.0 220.0 
336.0001983480089 6444.0 1083.0 960.327416173571 0.49936280294297897 310.0 26.0 221.0 
338.0009270308328 6470.0 1085.0 962.6055226824456 0.5055790356899662 311.0 27.0 221.0 
340.0009270308328 6441.0 1083.0 964.9033530571999 0.5024907304610059 312.0 26.0 223.0 
342.0009270308328 6421.0 1083.0 955.7909270216912 0.5002799181796602 310.0 27.0 218.0 
344.0009270308328 6418.0 1083.0 960.339250493097 0.5010072104075366 315.0 26.0 221.0 
346.0001983480089 6414.0 1084.0 960.353057199208 0.4992529345320221 310.0 27.0 220.0 
348.0009270308328 6424.0 1085.0 958.0631163708047 0.504626949254823 307.0 26.0 220.0 
350.0009270308328 6412.0 1084.0 955.7672583826469 0.5057261847975981 306.0 27.0 218.0 
352.0009270308328 6394.0 1084.0 955.8067061143953 0.5055617742386351 307.0 26.0 219.0 
354.0009270308328 6373.0 1086.0 955.7534516765357 0.5149479841469526 306.0 27.0 218.0 
356.0001983480089 6311.0 1079.0 958.0473372781059 0.503251157434624 306.0 26.0 220.0 
358.0009270308328 6333.0 1080.0 960.285996055224 0.5014971704677444 305.0 27.0 220.0 
360.0009270308328 6344.0 1082.0 960.3648915187333 0.5034132284021143 306.0 26.0 221.0 
362.0009270308328 6347.0 1082.0 951.234714003945 0.5039247396427508 306.0 27.0 216.0 
364.0009270308328 6375.0 1083.0 955.7810650887592 0.5002787344104873 305.0 29.0 216.0 
366.0001983480089 6391.0 1083.0 955.7633136094684 0.5001650180436202 308.0 28.0 217.0 
368.0009270308328 6397.0 1086.0 944.3629191321537 0.5017341406052475 309.0 26.0 214.0 
370.0009270308328 6390.0 1086.0 944.3984220907217 0.5027356870247557 307.0 27.0 213.0 
372.0005110198531 6399.0 1087.0 948.9368836291953 0.5058913348561328 308.0 27.0 215.0 
374.0005110198531 6409.0 1089.0 948.9428007889493 0.5081460940056358 307.0 28.0 214.0 
376.0001983480089 6367.0 1085.0 953.493096646942 0.5040308836372873 309.0 26.0 218.0 
378.0009270308328 6362.0 1087.0 953.4674556212982 0.5029963564105425 308.0 27.0 217.0 
380.0009270308328 6362.0 1088.0 953.506903353058 0.5085342566736272 308.0 26.0 218.0 
382.0009270308328 6327.0 1085.0 955.8047337278152 0.5067218478609973 309.0 27.0 218.0 
384.0009270308328 6324.0 1085.0 960.3214990138059 0.5036695356544951 313.0 26.0 221.0 
386.0001983480089 6315.0 1084.0 964.8717948717981 0.5058411213207652 312.0 27.0 222.0 
388.0009270308328 6311.0 1084.0 960.337278106509 0.5087366783871137 310.0 26.0 221.0 
390.0009270308328 6327.0 1085.0 967.1203155818561 0.5040770124757935 309.0 30.0 220.0 
392.0009270308328 6331.0 1085.0 967.1065088757435 0.5045567335006227 309.0 30.0 220.0 
394.0009270308328 6362.0 1086.0 967.1400394477322 0.5049967254039258 311.0 31.0 219.0 
396.0001983480089 6307.0 1086.0 967.1321499013799 0.5045767054371287 313.0 29.0 221.0 
398.0009270308328 6274.0 1085.0 964.8481262327425 0.5029192496653984 310.0 31.0 218.0 
400.0009270308328 6265.0 1085.0 964.8402366863843 0.5082234845295098 315.0 26.0 223.0 
402.0009270308328 6250.0 1083.0 964.8244575936858 0.5057819307557713 313.0 28.0 221.0 
404.0009270308328 6231.0 1082.0 964.7909270216913 0.505328884068206 312.0 27.0 222.0 
406.0001983480089 6241.0 1083.0 969.3333333333318 0.5016667951115105 313.0 27.0 224.0 
408.0009270308328 6283.0 1086.0 973.8737672583794 0.507578275425844 315.0 26.0 227.0 
410.0009270308328 6296.0 1086.0 971.6232741617349 0.5053621493667189 315.0 27.0 225.0 
412.0009270308328 6308.0 1088.0 971.6193293885563 0.508713251962497 315.0 26.0 226.0 
414.0009270308328 6299.0 1087.0 971.6094674556234 0.5081163037397378 315.0 27.0 225.0 
416.0001983480089 6285.0 1086.0 971.5542406311595 0.5110083559877641 317.0 26.0 226.0 
418.0005110198531 6327.0 1086.0 978.4240631163713 0.5047451585473804 320.0 27.0 228.0 
420.00054374019425 6317.0 1086.0 971.619329388556 0.5097035394272493 321.0 26.0 226.0 
422.0009270308328 6292.0 1082.0 971.6114398422108 0.5050845233333752 321.0 27.0 225.0 
424.0009270308328 6288.0 1082.0 964.7869822485249 0.514275405616917 318.0 26.0 223.0 
426.0001983480089 6217.0 1079.0 964.8264299802715 0.5047882255279282 317.0 27.0 222.0 
428.0005110198531 6225.0 1080.0 962.5049309664655 0.5021361094007947 319.0 26.0 222.0 
430.0005110198531 6242.0 1080.0 962.5483234714056 0.5027998325727085 318.0 27.0 221.0 
432.0005110198531 6243.0 1081.0 967.0650887573959 0.5028151870911627 317.0 26.0 224.0 
434.0005110198531 6265.0 1083.0 969.378698224857 0.5036689304778094 319.0 27.0 224.0 
436.0001983480089 6273.0 1084.0 967.0848126232743 0.5026132417863818 322.0 26.0 224.0 
438.0005110198531 6284.0 1085.0 967.0710059171631 0.5094662423069207 317.0 27.0 223.0 
440.0009270308328 6290.0 1085.0 964.7928994082828 0.5048354608070682 317.0 26.0 223.0 
442.0009270308328 6280.0 1082.0 962.5798816568088 0.5004730416952824 316.0 27.0 221.0 
444.0009270308328 6333.0 1086.0 964.775147928993 0.505312030806673 323.0 26.0 223.0 
446.0001983480089 6325.0 1086.0 967.11045364891 0.503084784485589 319.0 27.0 223.0 
448.0009270308328 6336.0 1087.0 967.1124260354975 0.5009484491677382 319.0 26.0 224.0 
450.0009270308328 6369.0 1089.0 969.4063116370802 0.5051093030676199 319.0 27.0 224.0 
452.0009270308328 6388.0 1088.0 971.6666666666689 0.5027567896781499 320.0 26.0 226.0 
454.0009270308328 6400.0 1090.0 969.3806706114444 0.5086631557008021 320.0 27.0 224.0 
456.0001983480089 6394.0 1087.0 967.0295857988158 0.5028617492242202 321.0 26.0 224.0 
458.0001106052107 6435.0 1088.0 967.1025641025652 0.503676288018777 320.0 27.0 223.0 
460.0001106052107 6440.0 1087.0 964.8205128205187 0.5002022153368167 320.0 26.0 223.0 
462.0001106052107 6447.0 1089.0 960.3017751479284 0.5077287475029378 318.0 27.0 220.0 
464.0009270308328 6511.0 1088.0 967.0670611439832 0.5071289582413895 323.0 26.0 224.0 
466.0001983480089 6529.0 1089.0 967.1183431952688 0.5048012546088722 322.0 27.0 223.0 
468.0009270308328 6536.0 1088.0 967.0335305719946 0.5033293077790467 320.0 26.0 224.0 
470.0009270308328 6569.0 1087.0 967.0867850098615 0.5015378469750402 319.0 27.0 223.0 
472.0009270308328 6563.0 1089.0 964.7712031558264 0.5007012265394029 319.0 26.0 223.0 
474.0009270308328 6584.0 1090.0 967.0828402366873 0.5033299527807331 319.0 27.0 223.0 
476.0001983480089 6579.0 1091.0 964.8323471400382 0.5008377792308063 320.0 26.0 223.0 
478.0009270308328 6604.0 1093.0 964.8599605522683 0.5048889693305632 320.0 27.0 222.0 
480.0009270308328 6629.0 1093.0 964.8224852070935 0.503484627602377 321.0 26.0 223.0 
482.0009270308328 6597.0 1093.0 960.3175542406277 0.5007201620871787 318.0 27.0 220.0 
484.0009270308328 6621.0 1095.0 949.0078895463582 0.5081642575831601 318.0 26.0 216.0 
486.0001983480089 6612.0 1093.0 949.0 0.5053174650625963 317.0 27.0 215.0 
488.0009270308328 6647.0 1091.0 948.9585798816533 0.5070854584352724 315.0 26.0 216.0 
490.0009270308328 6641.0 1092.0 951.3293885601643 0.5044472723217183 311.0 27.0 216.0 
492.0009270308328 6619.0 1090.0 951.2702169625262 0.5018747377540786 313.0 26.0 217.0 
494.0009270308328 6617.0 1092.0 951.2859960552241 0.5029281337853265 311.0 27.0 216.0 
496.0001983480089 6601.0 1091.0 951.2741617357005 0.5016236079215012 312.0 26.0 217.0 
498.0009270308328 6609.0 1091.0 951.3116370808733 0.5036494365985502 311.0 27.0 216.0 
500.0009270308328 6610.0 1092.0 951.2485207100573 0.5050102260023942 310.0 26.0 217.0 
502.0009270308328 6595.0 1091.0 951.2603550295883 0.5054309994894457 310.0 27.0 216.0 
504.0009270308328 6574.0 1091.0 951.2485207100572 0.5045398238894389 311.0 26.0 217.0 
506.0001983480089 6569.0 1090.0 951.2386587771192 0.5040364367983483 309.0 28.0 215.0 
508.0009270308328 6627.0 1090.0 951.2958579881696 0.5017650106336268 312.0 27.0 216.0 
510.0009270308328 6639.0 1092.0 955.8500986193295 0.5036808551079014 321.0 19.0 226.0 
512.0009270308328 6612.0 1091.0 951.2149901380627 0.507241674929765 322.0 18.0 225.0 
514.0009270308328 6582.0 1088.0 946.773175542401 0.5056591139039424 319.0 19.0 222.0 
516.0001983480089 6578.0 1087.0 946.6745562130141 0.5011895321146611 319.0 18.0 223.0 
518.0009270308328 6586.0 1088.0 939.938856015783 0.5012070883064693 311.0 24.0 214.0 
520.0009270308328 6612.0 1090.0 942.2130177514742 0.5091634626960146 313.0 21.0 218.0 
522.0009270308328 6598.0 1090.0 939.9467455621277 0.5081505625042294 313.0 20.0 218.0 
524.0009270308328 6586.0 1088.0 933.1775147929067 0.503265891544308 307.0 21.0 214.0 
526.0001983480089 6579.0 1087.0 933.1794871794813 0.5036531743124467 307.0 21.0 214.0 
528.0009270308328 6589.0 1087.0 935.435897435895 0.5073222882787624 308.0 19.0 217.0 
530.0009270308328 6605.0 1088.0 942.2741617357018 0.5059055292624356 307.0 20.0 219.0 
532.0009270308328 6593.0 1087.0 942.2741617357018 0.5037547198312261 309.0 19.0 220.0 
534.0009270308328 6588.0 1086.0 942.2248520710077 0.504965338104004 307.0 20.0 219.0 
536.0001983480089 6576.0 1086.0 942.1715976331373 0.5015056906248179 308.0 19.0 220.0 
538.0009270308328 6630.0 1088.0 942.2268244575989 0.5017367071752653 309.0 20.0 219.0 
540.0009270308328 6631.0 1089.0 942.1932938856058 0.5107016540302607 310.0 19.0 220.0 
542.0009270308328 6604.0 1086.0 942.2248520710077 0.5011548664792824 310.0 20.0 219.0 
544.0009270308328 6605.0 1087.0 942.1735700197285 0.5036282196548852 311.0 19.0 220.0 
546.0001983480089 6589.0 1085.0 942.1656804733685 0.5025311770854856 310.0 20.0 219.0 
548.0009270308328 6601.0 1087.0 942.2189349112409 0.5054896549783418 313.0 18.0 221.0 
550.0009270308328 6600.0 1086.0 944.4536489151847 0.5081058515097769 309.0 21.0 219.0 
552.0009270308328 6619.0 1085.0 946.7297830374748 0.5077274935719425 316.0 18.0 223.0 
554.0009270308328 6654.0 1084.0 948.9980276134113 0.504727649046892 308.0 24.0 218.0 
556.0001983480089 6649.0 1084.0 949.0 0.5017816628896387 311.0 21.0 221.0 
558.0009270308328 6647.0 1085.0 946.7100591715954 0.5008901015008327 307.0 24.0 217.0 
560.0009270308328 6660.0 1088.0 944.4457593688405 0.5041897145589325 310.0 21.0 219.0 
562.0009270308328 6647.0 1086.0 944.4398422090737 0.4995160572642213 308.0 21.0 219.0 
564.0009270308328 6683.0 1087.0 944.4280078895496 0.5069088401384184 311.0 18.0 222.0 
566.0001983480089 6653.0 1086.0 944.4733727810636 0.5008044237329446 308.0 21.0 219.0 
568.0009270308328 6660.0 1086.0 944.5325443787026 0.5043886795205451 310.0 18.0 222.0 
570.0009270308328 6641.0 1087.0 942.2366863905318 0.5123194814388311 306.0 21.0 218.0 
572.0009270308328 6633.0 1084.0 933.1380670611466 0.5058172771982858 308.0 18.0 217.0 
574.0009270308328 6677.0 1090.0 937.6824457593722 0.5112392462242243 307.0 21.0 216.0 
576.0001983480089 6639.0 1087.0 937.7001972386632 0.5054334018398084 313.0 18.0 219.0 
578.0009270308328 6601.0 1086.0 935.4023668639021 0.5004700245360019 309.0 21.0 215.0 
580.0009270308328 6662.0 1089.0 937.7120315581843 0.5041981780033193 313.0 18.0 219.0 
582.0009270308328 6650.0 1088.0 937.6370808678455 0.5063572234617411 310.0 21.0 216.0 
584.0009270308328 6686.0 1090.0 942.2485207100561 0.5160709295331354 314.0 18.0 221.0 
586.0001983480089 6628.0 1087.0 946.7790927021712 0.5053640909343845 310.0 21.0 220.0 
588.0009270308328 6604.0 1086.0 942.3057199211036 0.5058877577549407 310.0 18.0 221.0 
590.0009270308328 6560.0 1085.0 944.5542406311596 0.5030124809154026 307.0 21.0 219.0 
592.0009270308328 6558.0 1084.0 949.1597633136157 0.5029631041965199 311.0 18.0 224.0 
594.0009270308328 6627.0 1087.0 949.0828402366869 0.513044435419191 309.0 21.0 221.0 
596.0001537137236 6647.0 1086.0 955.986193293889 0.5072632029905053 315.0 18.0 227.0 
598.0001537137236 6627.0 1085.0 953.5917159763321 0.5022963728962163 312.0 21.0 223.0 
600.0001537137236 6612.0 1085.0 949.1222879684436 0.5089324545011062 318.0 18.0 224.0 
602.0001537137236 6614.0 1084.0 949.0532544378723 0.5065453229456394 315.0 21.0 221.0 
604.0001537137236 6622.0 1085.0 951.4063116370802 0.5078170908972943 317.0 18.0 225.0 
606.0001537137236 6595.0 1082.0 953.546351084815 0.5082986838489483 313.0 21.0 223.0 
608.0001537137236 6537.0 1082.0 951.3510848126213 0.5026287629539546 315.0 18.0 225.0 
610.0001537137236 6528.0 1082.0 953.5502958579933 0.5005942041427596 314.0 21.0 223.0 
612.0001537137236 6551.0 1085.0 955.8619329388534 0.500692100652824 317.0 18.0 227.0 
614.0001537137236 6571.0 1085.0 964.8717948717987 0.5099522513379876 315.0 21.0 228.0 
616.0001537137236 6563.0 1085.0 962.6804733727809 0.5066387919928607 319.0 18.0 230.0 
618.0001537137236 6602.0 1085.0 960.3550295858 0.5053381244799886 317.0 21.0 226.0 
620.0001537137236 6625.0 1085.0 960.3451676528625 0.5052800105821528 320.0 18.0 229.0 
622.0001537137236 6614.0 1085.0 960.3057199211025 0.5027889968454378 316.0 21.0 226.0 
624.0001537137236 6707.0 1090.0 962.621301775143 0.5190312718349528 321.0 18.0 230.0 
626.0001537137236 6620.0 1087.0 967.1262327416194 0.5026385101116443 323.0 21.0 229.0 
628.0001537137236 6625.0 1088.0 967.2051282051303 0.5056448018457477 326.0 18.0 232.0 
630.0001537137236 6603.0 1087.0 967.1676528599628 0.5046835842868321 322.0 21.0 229.0 
632.0001537137236 6574.0 1088.0 964.9013806706148 0.5036098045925479 324.0 18.0 231.0 
634.0001537137236 6622.0 1091.0 969.402366863902 0.502411004362719 323.0 21.0 230.0 
636.0001537137236 6623.0 1092.0 969.4654832347165 0.5045411295713116 326.0 18.0 233.0 
638.0009270308328 6650.0 1093.0 971.668639053261 0.5089636103268015 324.0 21.0 231.0 
640.0009270308328 6624.0 1091.0 971.6982248520699 0.5041693502637187 328.0 18.0 234.0 
642.0009270308328 6610.0 1093.0 976.2564102564077 0.5105835365805887 326.0 21.0 233.0 
644.0009270308328 6665.0 1090.0 974.0118343195272 0.5075026155290789 333.0 18.0 235.0 
646.0001983480089 6644.0 1089.0 971.7159763313607 0.5052382645371336 329.0 21.0 231.0 
648.0009270308328 6655.0 1090.0 976.3116370808733 0.507406353981796 333.0 18.0 236.0 
650.0009270308328 6663.0 1089.0 983.0690335305685 0.5093585954439863 326.0 21.0 236.0 
652.0009270308328 6600.0 1087.0 983.126232741619 0.5065117658236684 328.0 18.0 239.0 
654.0009270308328 6606.0 1087.0 983.1065088757434 0.5074152089645881 325.0 21.0 236.0 
656.0001983480089 6582.0 1086.0 978.577909270214 0.5062073978276206 325.0 18.0 237.0 
658.0009270308328 6563.0 1087.0 978.540433925047 0.5080091809267457 322.0 21.0 234.0 
660.0009270308328 6566.0 1088.0 983.094674556207 0.5157910745079536 325.0 18.0 239.0 
662.0009270308328 6527.0 1087.0 978.5305719921147 0.5073545760212081 322.0 21.0 234.0 
664.0009270308328 6539.0 1088.0 980.8323471400367 0.5128062293643526 324.0 18.0 238.0 
#####################################################################
# End of data export. Simulation finished at: 2019-03-06T08:04+0000 #
#####################################################################
