#####################################################################
# Alchemist log file - simulation started at: 2019-03-13T22:20+0000 #
#####################################################################
# seed = 5.0, bandwidth = 1.0E8, accessPointCount = 531.8295896944988, baserange = 177.82794100389228
#
# The columns have the following meaning: 
# time neighbor_count[Sum] <value>@neighbor_count[Sum] packet_size[Mean] mean_delay[Mean] crowd[Sum] overcrowded[Sum] risk[Sum] 
0.0 NaN NaN NaN NaN NaN NaN NaN 
2.00003728238344 2157.0 1020.0 4983.426035502958 0.49921038086267083 1497.0 0.0 1497.0 
4.00003744238344 3284.0 1049.0 4985.542406311637 0.5243323875590138 1497.0 0.0 1497.0 
6.00003728238344 4165.0 1049.0 4985.408284023669 0.5360794387632732 1497.0 0.0 1497.0 
8.000037442383439 4722.0 1047.0 4986.420118343195 0.5338261055643881 1497.0 0.0 1497.0 
10.00003728238344 5159.0 1048.0 4986.244575936884 0.5394261630069958 1496.0 1.0 1496.0 
12.000037442383439 5218.0 1025.0 4986.786982248521 0.5316169297589592 1495.0 2.0 1495.0 
14.00003728238344 5110.0 1010.0 4986.147928994083 0.5009385882937245 1491.0 6.0 1491.0 
16.00003744238344 5110.0 1010.0 4986.542406311637 0.5009385216967523 1494.0 3.0 1494.0 
18.00003728238344 5110.0 1010.0 4985.857988165681 0.5009386472329805 1493.0 4.0 1493.0 
20.00003744238344 5110.0 1010.0 4986.301775147929 0.5009385751448768 1492.0 5.0 1492.0 
22.00003728238344 5110.0 1010.0 4985.871794871795 0.5009386402118999 1492.0 5.0 1492.0 
24.00003744238344 5110.0 1010.0 4986.0631163708085 0.5009386071489755 1492.0 5.0 1492.0 
26.00003728238344 5110.0 1010.0 4985.765285996055 0.5009386435149096 1492.0 5.0 1492.0 
28.00003744238344 5110.0 1010.0 4986.3116370808675 0.5009385922945689 1492.0 5.0 1492.0 
30.00003728238344 5110.0 1010.0 4985.767258382643 0.501966427863329 1492.0 5.0 1492.0 
32.00003744238344 5110.0 1010.0 4986.094674556213 0.5028157578494611 1492.0 5.0 1492.0 
34.00003744238344 5110.0 1010.0 4985.794871794872 0.5008659710441888 1492.0 5.0 1492.0 
36.00003744238344 5110.0 1010.0 4986.1459566074955 0.5008659168057492 1492.0 5.0 1492.0 
38.00003696238343 5110.0 1010.0 4985.8126232741615 0.5008659118456322 1492.0 5.0 1492.0 
40.00003744238344 5112.0 1011.0 4986.191321499014 0.500938911431087 1492.0 5.0 1492.0 
42.00003696238343 5110.0 1011.0 4985.7317554240635 0.5012357428057843 1492.0 5.0 1492.0 
44.00003744238344 5108.0 1010.0 4986.080867850099 0.5032594107808537 1492.0 5.0 1492.0 
46.00003696238343 5106.0 1010.0 4985.881656804734 0.5012690062729799 1492.0 5.0 1492.0 
48.00003744238344 5107.0 1010.0 4986.120315581854 0.5027321219894592 1492.0 5.0 1492.0 
50.00003696238343 5110.0 1011.0 4985.6883629191325 0.5009104396260735 1492.0 5.0 1492.0 
52.00003744238344 5109.0 1010.0 4986.25641025641 0.5022456531218293 1492.0 5.0 1492.0 
54.00003696238343 5106.0 1011.0 4985.692307692308 0.5005805710661347 1492.0 5.0 1492.0 
56.00003744238344 5106.0 1011.0 4986.047337278106 0.5005805038258844 1492.0 5.0 1492.0 
58.00003696238343 5107.0 1012.0 4985.905325443787 0.5001055471650366 1492.0 5.0 1492.0 
60.00003744238344 5114.0 1013.0 4986.0631163708085 0.5036489637279786 1492.0 5.0 1492.0 
62.00010179366992 5122.0 1013.0 836.025641025636 0.5021949498163016 463.0 5.0 187.0 
64.00010179366993 5118.0 1012.0 833.6508875739707 0.5003596410532926 361.0 5.0 186.0 
66.00010179366993 5118.0 1012.0 831.2840236686353 0.5003604334831758 328.0 5.0 185.0 
68.00010179366993 5120.0 1013.0 826.7218934911181 0.5044539675004596 308.0 5.0 183.0 
70.00010179366993 5119.0 1011.0 822.0828402366836 0.5028063082707664 291.0 5.0 181.0 
72.00010179366993 5127.0 1011.0 819.7495069033578 0.49996721780887393 289.0 5.0 180.0 
74.00010179366993 5131.0 1012.0 819.7258382642965 0.5003849427084377 283.0 5.0 180.0 
76.00010179366993 5130.0 1012.0 819.7514792899458 0.500285647545125 279.0 5.0 180.0 
78.00010179366993 5134.0 1013.0 819.7337278106547 0.5024387644110867 277.0 5.0 180.0 
80.00010179366993 5136.0 1013.0 819.6804733727838 0.5055234321125934 275.0 5.0 180.0 
82.00010179366993 5146.0 1013.0 819.7455621301772 0.5025705239810208 274.0 5.0 180.0 
84.00010179366993 5136.0 1013.0 819.6863905325528 0.5026825841056296 272.0 5.0 180.0 
86.00010179366993 5130.0 1012.0 819.6883629191265 0.5005702105547649 272.0 5.0 180.0 
88.00010179366993 5130.0 1012.0 821.994082840232 0.5043384172517088 272.0 5.0 181.0 
90.00010179366993 5131.0 1013.0 821.9447731755398 0.5018544782172072 273.0 5.0 181.0 
92.00010179366993 5144.0 1013.0 821.9566074950753 0.504034378515464 273.0 5.0 181.0 
94.00010179366993 5127.0 1013.0 821.9901380670675 0.5020924024143963 273.0 5.0 181.0 
96.00010179366993 5126.0 1012.0 821.9349112426061 0.5009531923409947 273.0 5.0 181.0 
98.00010179366993 5126.0 1012.0 821.9901380670675 0.5009531964424401 273.0 5.0 181.0 
100.00010179366993 5126.0 1012.0 821.9704142011859 0.5024948354309071 273.0 5.0 181.0 
102.00010179366993 5128.0 1011.0 821.9408284023601 0.5005648411439422 273.0 5.0 181.0 
104.00010179366993 5128.0 1011.0 821.9605522682396 0.5028796383849491 273.0 5.0 181.0 
106.00010179366993 5123.0 1012.0 821.9783037475307 0.5017753985973707 273.0 5.0 181.0 
108.00010179366993 5118.0 1013.0 821.9684418145983 0.5027782007075595 273.0 5.0 181.0 
110.00010179366993 5118.0 1013.0 821.9644970414178 0.5009647989879653 273.0 5.0 181.0 
112.00010179366993 5118.0 1013.0 821.9684418145983 0.5042273298095783 273.0 5.0 181.0 
114.00010179366993 5109.0 1013.0 821.9625246548286 0.5010811647966816 273.0 5.0 181.0 
116.00010179366993 5114.0 1013.0 821.9566074950753 0.5004197567792347 273.0 5.0 181.0 
118.00010179366993 5121.0 1013.0 821.9822485207088 0.50032777735675 275.0 5.0 181.0 
120.00010179366993 5124.0 1014.0 821.9487179487179 0.500356799861602 275.0 5.0 181.0 
122.00010179366993 5126.0 1015.0 821.9546351084862 0.5005360298739726 275.0 5.0 181.0 
124.00010179366993 5129.0 1016.0 821.9921104536413 0.5018182768420613 275.0 5.0 181.0 
126.00010179366993 5134.0 1015.0 821.9487179487179 0.5001165482254496 275.0 5.0 181.0 
128.00010179366993 5144.0 1015.0 824.2524654832332 0.5002832175831322 276.0 5.0 182.0 
130.00010179366993 5152.0 1017.0 824.2583826430034 0.5023465440548414 276.0 5.0 182.0 
132.00010179366993 5150.0 1017.0 821.9723865877774 0.5024806690965763 276.0 5.0 181.0 
134.00010179366993 5141.0 1016.0 821.9783037475306 0.5001788768431357 276.0 5.0 181.0 
136.00010179366993 5145.0 1016.0 824.2426035502992 0.5010463173329235 276.0 5.0 182.0 
138.00010179366993 5146.0 1016.0 824.2859960552237 0.49973285215017077 276.0 5.0 182.0 
140.00010179366993 5148.0 1016.0 824.1794871794808 0.50388940720047 276.0 5.0 182.0 
142.00010179366993 5142.0 1015.0 824.2642998027551 0.5007146327649319 276.0 5.0 182.0 
144.00010179366993 5174.0 1016.0 826.4733727810633 0.5019658830530458 277.0 5.0 183.0 
146.00010179366993 5167.0 1015.0 826.512820512824 0.5032239464548138 277.0 5.0 183.0 
148.00010179366993 5145.0 1014.0 826.512820512824 0.5051182645861474 277.0 5.0 183.0 
150.00010179366993 5124.0 1013.0 826.4674556212962 0.5019875665466498 277.0 5.0 183.0 
152.00010179366993 5124.0 1013.0 826.4635108481318 0.49960702459164724 277.0 5.0 183.0 
154.00010179366993 5126.0 1013.0 826.5364891518682 0.5008827660725416 277.0 5.0 183.0 
156.00010179366993 5124.0 1013.0 826.4280078895497 0.49992146472321575 277.0 5.0 183.0 
158.00010179366993 5123.0 1012.0 824.2544378698228 0.5029388768821362 277.0 5.0 182.0 
160.00010179366993 5124.0 1013.0 824.2268244575993 0.5026144473058899 277.0 5.0 182.0 
162.00010179366993 5120.0 1012.0 821.9605522682394 0.5033207786379277 277.0 5.0 181.0 
164.00010179366993 5107.0 1011.0 821.9467455621274 0.5035097991503856 277.0 5.0 181.0 
166.00010179366993 5088.0 1010.0 821.9763313609424 0.49937981851227087 277.0 5.0 181.0 
168.00010179366993 5092.0 1011.0 821.9428007889492 0.5010745390331035 277.0 5.0 181.0 
170.00010179366993 5086.0 1010.0 819.7080867850065 0.5013728160955229 277.0 5.0 180.0 
172.00010179366993 5084.0 1010.0 819.6745562130135 0.49974211550117736 277.0 5.0 180.0 
174.00010179366993 5084.0 1010.0 819.6903353057176 0.49974211271958463 277.0 5.0 180.0 
176.00010179366993 5085.0 1011.0 819.6587771203143 0.49966536887231205 277.0 5.0 180.0 
178.00010179366993 5096.0 1012.0 819.7140039447763 0.5000290195915036 277.0 5.0 180.0 
180.00010179366993 5095.0 1012.0 819.6607495069029 0.5001790607544123 277.0 5.0 180.0 
182.00010179366993 5094.0 1012.0 819.7120315581845 0.49994033412301814 277.0 5.0 180.0 
184.00010179366993 5094.0 1012.0 819.7041420118281 0.5033047379085447 277.0 5.0 180.0 
186.00010179366993 5094.0 1012.0 819.6804733727827 0.5002156089491937 277.0 5.0 180.0 
188.00010179366993 5102.0 1012.0 821.9487179487181 0.5017791783059813 278.0 5.0 181.0 
190.00010179366993 5108.0 1013.0 824.2662721893454 0.5003916881388489 283.0 5.0 182.0 
192.00010179366993 5104.0 1012.0 824.2051282051308 0.5024734235281426 283.0 5.0 182.0 
194.00010179366993 5096.0 1012.0 824.2386587771219 0.4997070446855542 282.0 5.0 182.0 
196.00010179366993 5096.0 1012.0 821.9585798816499 0.4997071944620821 282.0 5.0 181.0 
198.00010179366993 5114.0 1014.0 821.9842209072995 0.49957135796031027 282.0 5.0 181.0 
200.00010179366993 5130.0 1015.0 826.4654832347213 0.49963796588069664 281.0 5.0 183.0 
202.00010179366993 5140.0 1016.0 826.5404339250465 0.49960091438533305 281.0 5.0 183.0 
204.00010179366993 5142.0 1017.0 826.4714003944738 0.5006231801315215 281.0 5.0 183.0 
206.00010179366993 5141.0 1017.0 824.2347140039423 0.5029432106092968 280.0 5.0 182.0 
208.00010179366993 5136.0 1015.0 824.2583826430033 0.5003215992178894 280.0 5.0 182.0 
210.00010179366993 5134.0 1015.0 826.4911242603545 0.5003060477820773 282.0 5.0 183.0 
212.00010179366993 5132.0 1015.0 826.4911242603545 0.4998275835482477 282.0 5.0 183.0 
214.00010179366993 5132.0 1015.0 828.8007889546403 0.5028971272094895 282.0 5.0 184.0 
216.00010179366993 5130.0 1014.0 828.7278106508861 0.4998261665391454 283.0 5.0 184.0 
218.00010179366993 5130.0 1014.0 828.7869822485274 0.5040997907507366 282.0 6.0 183.0 
220.00010179366993 5119.0 1013.0 828.7712031558269 0.5085874190118557 284.0 6.0 183.0 
222.00010179366993 5104.0 1013.0 828.7435897435874 0.5010325582125297 285.0 6.0 183.0 
224.00010179366993 5106.0 1013.0 826.4871794871763 0.5004311974424419 285.0 6.0 182.0 
226.00010179366993 5106.0 1013.0 826.5049309664652 0.5004311979410606 284.0 6.0 182.0 
228.00010179366993 5106.0 1013.0 826.475345167654 0.5042626890598356 284.0 6.0 182.0 
230.00010179366993 5094.0 1011.0 826.4635108481316 0.5045801388578482 281.0 6.0 182.0 
232.00010179366993 5090.0 1013.0 828.7672583826464 0.5001868321701127 281.0 6.0 183.0 
234.00010179366993 5100.0 1014.0 828.7495069033577 0.500512812964889 281.0 6.0 183.0 
236.00010179366993 5102.0 1014.0 828.7357001972446 0.5027554410614348 281.0 6.0 183.0 
238.00010179366993 5098.0 1013.0 828.7790927021687 0.5007722715098181 281.0 6.0 183.0 
240.00010179366993 5110.0 1014.0 828.7357001972446 0.5027518189307648 280.0 6.0 183.0 
242.00010179366993 5111.0 1013.0 828.7672583826464 0.5007320287075392 280.0 6.0 183.0 
244.00010179366993 5117.0 1014.0 828.759368836288 0.5014473090785795 280.0 6.0 183.0 
246.00010179366993 5122.0 1015.0 828.7337278106548 0.500506918704817 280.0 6.0 183.0 
248.00010179366993 5122.0 1015.0 828.7672583826464 0.5005069191637325 280.0 6.0 183.0 
250.00010179366993 5126.0 1015.0 826.4990138067128 0.5012048461183608 280.0 6.0 182.0 
252.00010179366993 5134.0 1018.0 826.479289940832 0.5072552320021928 279.0 6.0 182.0 
254.00010179366993 5134.0 1017.0 828.7534516765356 0.5038343907698133 283.0 6.0 183.0 
256.00010179366996 5113.0 1015.0 826.4950690335348 0.5007882648611182 283.0 6.0 182.0 
258.00010179366996 5113.0 1015.0 826.497041420123 0.49970492041623277 283.0 6.0 182.0 
260.00010179366996 5114.0 1016.0 826.4773175542438 0.5058036951101625 283.0 6.0 182.0 
262.00010179366996 5126.0 1016.0 826.4674556212956 0.5020290318590701 283.0 6.0 182.0 
264.00010179366996 5121.0 1015.0 835.5739644970389 0.5006786117833231 283.0 6.0 186.0 
266.00010179366996 5120.0 1015.0 835.5029585798769 0.5003406608608476 283.0 6.0 186.0 
268.00010179366996 5119.0 1015.0 831.0591715976403 0.5004926083215961 282.0 6.0 184.0 
270.00010179366996 5118.0 1015.0 831.0019723865908 0.5062109160183051 281.0 6.0 184.0 
272.00010179366996 5110.0 1013.0 831.0138067061107 0.5035854730133551 281.0 6.0 184.0 
274.00010179366996 5108.0 1012.0 830.9901380670674 0.5032510430322232 281.0 6.0 184.0 
276.00010179366996 5104.0 1011.0 828.7495069033577 0.5004687476239498 280.0 6.0 183.0 
278.00010179366996 5108.0 1012.0 828.7455621301772 0.5004682410249184 280.0 6.0 183.0 
280.00010179366996 5110.0 1013.0 828.7573964496996 0.5004389563289516 280.0 6.0 183.0 
282.00010179366996 5118.0 1013.0 830.980276134119 0.500677187687568 280.0 6.0 184.0 
284.00010179366996 5134.0 1015.0 831.023668639059 0.5068879563355329 280.0 6.0 184.0 
286.00010179366996 5124.0 1013.0 831.0118343195223 0.5006006008079787 280.0 6.0 184.0 
288.00010179366996 5132.0 1014.0 828.7692307692362 0.504276039107164 279.0 6.0 183.0 
290.00010179366996 5134.0 1014.0 828.7120315581857 0.5093679546629454 280.0 5.0 184.0 
292.00010179366996 5117.0 1012.0 828.7672583826464 0.5038107046404283 279.0 5.0 184.0 
294.00010179366996 5116.0 1012.0 828.7948717948692 0.501401332736865 279.0 5.0 184.0 
296.00010179366996 5136.0 1012.0 831.0374753451721 0.5029074545491701 280.0 5.0 185.0 
298.00010179366996 5154.0 1014.0 830.9960552268195 0.504186171945381 280.0 5.0 185.0 
300.00010179366996 5148.0 1013.0 831.0276134122229 0.5006494973316287 280.0 5.0 185.0 
302.00010179366996 5148.0 1013.0 828.7396449704086 0.5015395613967306 280.0 5.0 184.0 
304.00010179366996 5152.0 1015.0 828.7850098619375 0.5034118010025179 280.0 5.0 184.0 
306.00010179366996 5150.0 1014.0 828.7199211045443 0.5015826398159164 280.0 5.0 184.0 
308.00010179366996 5148.0 1014.0 828.7652859960582 0.5031361032504437 280.0 5.0 184.0 
310.00010179366996 5150.0 1015.0 828.7495069033578 0.5066316505460224 280.0 5.0 184.0 
312.00010179366996 5148.0 1013.0 828.7790927021687 0.5004683961968648 280.0 5.0 184.0 
314.00010179366996 5150.0 1014.0 828.7297830374769 0.5075740513839818 281.0 5.0 184.0 
316.00010179366996 5152.0 1014.0 828.7396449704086 0.5024598203112137 281.0 5.0 184.0 
318.00010179366996 5151.0 1013.0 831.0473372781023 0.5040326531279699 281.0 5.0 185.0 
320.00010179366996 5140.0 1012.0 831.0433925049241 0.5014319092631356 281.0 5.0 185.0 
322.00010179366996 5135.0 1012.0 831.0039447731806 0.5047162509693015 281.0 5.0 185.0 
324.00010179366996 5129.0 1012.0 831.0532544378726 0.5039221979840295 282.0 5.0 185.0 
326.00010179366996 5118.0 1011.0 830.9881656804777 0.5003988343563607 282.0 5.0 185.0 
328.00010179366996 5122.0 1012.0 831.0650887573934 0.5001857920549161 282.0 5.0 185.0 
330.00010179366996 5128.0 1012.0 831.0 0.5004154626931865 282.0 5.0 185.0 
332.00010179366996 5142.0 1014.0 831.0216962524694 0.5014280807831739 282.0 5.0 185.0 
334.00010179366996 5147.0 1016.0 833.3116370808737 0.504231639331935 282.0 5.0 186.0 
336.00010179366996 5136.0 1014.0 833.3313609467383 0.5015407255816691 281.0 5.0 186.0 
338.00010179366996 5131.0 1013.0 833.2682445759334 0.5037450811939922 281.0 5.0 186.0 
340.00010179366996 5128.0 1014.0 833.2998027613364 0.5004488463181755 281.0 5.0 186.0 
342.00010179366996 5133.0 1014.0 833.2544378698228 0.5004765887945257 281.0 5.0 186.0 
344.00010179366996 5144.0 1015.0 833.3471400394559 0.505698845494569 282.0 5.0 186.0 
346.00010179366996 5132.0 1013.0 830.9861932938894 0.5004675293680094 279.0 5.0 185.0 
348.00010179366996 5139.0 1015.0 831.0295857988135 0.502268637044402 278.0 5.0 185.0 
350.00010179366996 5136.0 1015.0 833.248520710054 0.5046241716361918 278.0 5.0 186.0 
352.00010179366996 5142.0 1015.0 833.3017751479251 0.5030899816798912 277.0 5.0 186.0 
354.00010179366996 5140.0 1016.0 833.2406311637121 0.5031896521980095 278.0 5.0 186.0 
356.00010179366996 5134.0 1015.0 833.2702169625233 0.5008062173411427 278.0 5.0 186.0 
358.00010179366996 5134.0 1015.0 833.2820512820455 0.5016591571358439 278.0 5.0 186.0 
360.00010179366996 5131.0 1014.0 833.2800788954556 0.5037012176354155 278.0 5.0 186.0 
362.00010179366996 5129.0 1015.0 830.9664694280083 0.5033402496234648 277.0 5.0 185.0 
364.00010179366996 5122.0 1014.0 826.5266272189367 0.5005737826510342 277.0 5.0 183.0 
366.00010179366996 5122.0 1014.0 826.4516765285939 0.5005737854536852 277.0 5.0 183.0 
368.00010179366996 5124.0 1015.0 826.5088757396455 0.5037543026433198 277.0 5.0 183.0 
370.00010179366996 5122.0 1014.0 826.4122287968481 0.5036475702508869 277.0 5.0 183.0 
372.00010179366996 5120.0 1014.0 828.7573964497 0.502406483647238 278.0 5.0 184.0 
374.00010179366996 5117.0 1013.0 826.4674556212962 0.5082712567926562 278.0 5.0 183.0 
376.00010179366996 5112.0 1012.0 826.4674556212962 0.5005662003364756 278.0 5.0 183.0 
378.00010179366996 5123.0 1015.0 826.4536489151833 0.5026827296476247 278.0 5.0 183.0 
380.00010179366996 5130.0 1015.0 828.7554240631096 0.5024439871243213 279.0 5.0 184.0 
382.00010179366996 5130.0 1015.0 828.7199211045436 0.5023495341293142 281.0 5.0 184.0 
384.00010179366996 5129.0 1016.0 828.8185404339284 0.5039446949744989 282.0 5.0 184.0 
386.00010179366996 5118.0 1014.0 828.6883629191263 0.5002568652206111 281.0 5.0 184.0 
388.00010179366996 5119.0 1015.0 828.7771203155789 0.5065839718181422 281.0 5.0 184.0 
390.00010179366996 5110.0 1013.0 828.7238658777078 0.5002572696149149 281.0 5.0 184.0 
392.00010179366996 5119.0 1015.0 828.7534516765361 0.5037078270769668 281.0 5.0 184.0 
394.00010179366996 5118.0 1014.0 830.9901380670677 0.5023825736123225 282.0 5.0 185.0 
396.00010179366996 5092.0 1014.0 831.0276134122226 0.5004045552479665 282.0 5.0 185.0 
398.00010179366996 5105.0 1017.0 830.9861932938894 0.5045300951934051 282.0 5.0 185.0 
400.00010179366996 5104.0 1015.0 831.0394477317606 0.5023237844686749 282.0 5.0 185.0 
402.00010179366996 5125.0 1018.0 828.7238658777078 0.5116970573133134 282.0 5.0 184.0 
404.00010179366996 5120.0 1014.0 828.8007889546395 0.5054899431527488 282.0 5.0 184.0 
406.00010179366996 5104.0 1014.0 828.7554240631096 0.5030985309766948 280.0 5.0 184.0 
408.00010179366996 5102.0 1014.0 828.7968441814592 0.5051067824237 280.0 5.0 184.0 
410.00010179366996 5102.0 1013.0 828.7140039447763 0.503716546683075 280.0 5.0 184.0 
412.00010179366996 5107.0 1015.0 826.5207100591684 0.5037590068592314 278.0 6.0 182.0 
414.00010179366996 5137.0 1016.0 826.4714003944741 0.5028914775373575 278.0 6.0 182.0 
416.00010179366996 5115.0 1017.0 826.495069033535 0.5008014113735975 278.0 6.0 182.0 
418.00010179366996 5121.0 1018.0 826.4990138067132 0.5008895330673425 278.0 6.0 182.0 
420.00010179366996 5133.0 1020.0 826.4635108481318 0.502206315385344 279.0 6.0 182.0 
422.00010179366996 5142.0 1021.0 824.193293885607 0.5055566254889069 279.0 6.0 181.0 
424.00010179366996 5145.0 1021.0 824.2662721893458 0.5136557653193987 280.0 6.0 181.0 
426.00010179366996 5123.0 1018.0 824.2130177514732 0.5029368490404755 281.0 5.0 182.0 
428.00010179366996 5126.0 1017.0 824.2544378698228 0.5041558100759035 281.0 5.0 182.0 
430.00010179366996 5130.0 1017.0 828.7435897435877 0.5019098775868978 281.0 5.0 184.0 
432.00010179366996 5128.0 1016.0 833.3293885601646 0.5010777262963175 281.0 5.0 186.0 
434.00010179366996 5134.0 1017.0 833.3057199211056 0.5029650119635208 282.0 5.0 186.0 
436.00010179366996 5118.0 1016.0 833.272189349114 0.5035320433765506 282.0 5.0 186.0 
438.00010179366996 5124.0 1016.0 833.3076923076952 0.5023707084753875 282.0 5.0 186.0 
440.00010179366996 5147.0 1018.0 831.0414201183503 0.5098725710931998 285.0 2.0 188.0 
442.00010179366996 5136.0 1017.0 828.7672583826466 0.5056088698207544 280.0 5.0 184.0 
444.00010179366996 5130.0 1015.0 826.524654832346 0.5019498811811962 276.0 5.0 183.0 
446.00010179366996 5122.0 1015.0 826.4911242603545 0.505001638534645 276.0 5.0 183.0 
448.00010179366996 5114.0 1014.0 826.5325443787046 0.5008923204220828 276.0 5.0 183.0 
450.00010179366996 5114.0 1014.0 826.499013806713 0.5033563882671143 277.0 5.0 183.0 
452.00010179366996 5121.0 1014.0 826.5049309664652 0.5038374790331798 277.0 5.0 183.0 
454.00010179366996 5133.0 1015.0 826.5207100591679 0.502072741789772 277.0 5.0 183.0 
456.00010179366996 5144.0 1015.0 828.7652859960581 0.5007974302635623 279.0 5.0 184.0 
458.00010179366996 5145.0 1015.0 828.7652859960581 0.503846587810883 280.0 6.0 183.0 
460.00010179366996 5150.0 1016.0 828.7731755424008 0.5017424787890079 280.0 6.0 183.0 
462.00010179366996 5151.0 1015.0 828.7731755424008 0.5042318260849658 280.0 6.0 183.0 
464.00010179366996 5153.0 1017.0 828.7751479289906 0.5031644548125094 280.0 6.0 183.0 
466.00010179366996 5154.0 1016.0 828.7554240631097 0.5008784193073275 280.0 6.0 183.0 
468.00010179366996 5156.0 1017.0 828.8106508875707 0.5023301599849223 280.0 6.0 183.0 
470.00010179366996 5154.0 1016.0 828.7633136094684 0.5022844461316438 280.0 6.0 183.0 
472.00010179366996 5149.0 1016.0 828.7988165680497 0.5086566272553176 280.0 6.0 183.0 
474.00010179366996 5146.0 1016.0 831.0157790927005 0.5008780563463269 281.0 6.0 184.0 
476.00010179366996 5147.0 1016.0 828.773175542401 0.5043517879233193 283.0 6.0 183.0 
478.00010179366996 5146.0 1017.0 828.7751479289906 0.5027796918154923 282.0 6.0 183.0 
480.00010179366996 5151.0 1015.0 831.0138067061107 0.5024197615682193 286.0 6.0 184.0 
482.00010179366996 5150.0 1016.0 830.9881656804777 0.5014148734954473 286.0 6.0 184.0 
484.00010179366996 5156.0 1017.0 828.777120315579 0.5034569414745097 285.0 6.0 183.0 
486.00010179366996 5151.0 1016.0 828.7258382642963 0.5057845563713234 284.0 6.0 183.0 
488.00010179366996 5162.0 1019.0 828.7652859960582 0.5008156110637637 283.0 6.0 183.0 
490.00010179366996 5172.0 1019.0 828.7554240631099 0.5012152415069537 283.0 6.0 183.0 
492.00010179366996 5175.0 1020.0 828.7435897435873 0.5042813766044867 283.0 6.0 183.0 
494.00010179366996 5177.0 1021.0 828.7514792899459 0.5040237599353239 283.0 6.0 183.0 
496.00010179366996 5169.0 1019.0 828.7376725838187 0.5063873843227912 283.0 6.0 183.0 
498.00010179366996 5174.0 1019.0 828.7416173569967 0.5046305173124744 283.0 6.0 183.0 
500.00010179366996 5168.0 1018.0 828.7376725838187 0.5024987629323512 283.0 6.0 183.0 
502.00010179366996 5175.0 1021.0 828.7218934911183 0.5032848676613488 283.0 6.0 183.0 
504.00010179366996 5178.0 1019.0 833.3076923076952 0.5032512808859163 284.0 6.0 185.0 
506.00010179366996 5171.0 1020.0 835.5443786982278 0.5018705186823025 285.0 6.0 186.0 
508.00010179366996 5181.0 1021.0 835.562130177518 0.5009757425704131 287.0 6.0 186.0 
510.00010179366996 5179.0 1020.0 835.5660749506961 0.5037204456705118 287.0 6.0 186.0 
512.00010179367 5174.0 1020.0 835.5641025641063 0.5006096112849161 287.0 6.0 186.0 
514.00010179367 5179.0 1021.0 835.5739644970389 0.5051125521351041 287.0 6.0 186.0 
516.00010179367 5168.0 1020.0 835.5857988165614 0.5065343641892768 286.0 6.0 186.0 
518.00010179367 5172.0 1020.0 835.57001972386 0.5024637773236489 287.0 6.0 186.0 
520.00010179367 5174.0 1020.0 835.5759368836286 0.5004764721003697 287.0 6.0 186.0 
522.00010179367 5189.0 1022.0 835.5443786982278 0.5027810131431223 288.0 6.0 186.0 
524.00010179367 5211.0 1024.0 835.5581854043376 0.5027759101851287 288.0 6.0 186.0 
526.00010179367 5215.0 1024.0 835.5542406311595 0.5013022512395021 288.0 6.0 186.0 
528.00010179367 5261.0 1027.0 842.3865877711993 0.5066041852320473 292.0 6.0 189.0 
530.00010179367 5251.0 1025.0 840.0236686390589 0.5010304961725922 290.0 6.0 188.0 
532.00010179367 5257.0 1026.0 837.8560157790852 0.50366866646978 292.0 6.0 187.0 
534.00010179367 5253.0 1026.0 837.8678500986235 0.5032633114036988 292.0 6.0 187.0 
536.00010179367 5248.0 1026.0 837.822485207093 0.5056821520221714 292.0 6.0 187.0 
538.00010179367 5248.0 1024.0 840.1932938856075 0.5042938890531077 293.0 6.0 188.0 
540.00010179367 5244.0 1026.0 840.1183431952658 0.507546214508066 293.0 6.0 188.0 
542.00010179367 5234.0 1026.0 837.8954635108449 0.5061143896031874 291.0 6.0 187.0 
544.00010179367 5242.0 1026.0 840.1439842209147 0.5076173344208578 290.0 6.0 188.0 
546.00010179367 5231.0 1025.0 840.1518737672574 0.5047882671256017 290.0 6.0 188.0 
548.00010179367 5223.0 1024.0 840.1439842209147 0.5051325872110768 290.0 6.0 188.0 
550.00010179367 5210.0 1025.0 840.1341222879663 0.506011891883613 290.0 6.0 188.0 
552.00010179367 5213.0 1024.0 840.1222879684462 0.503354667905138 290.0 6.0 188.0 
554.00010179367 5211.0 1023.0 840.1617357001901 0.5075035793744244 291.0 6.0 188.0 
556.00010179367 5192.0 1024.0 840.1203155818565 0.5034892949295066 291.0 6.0 188.0 
558.00010179367 5186.0 1023.0 837.9033530572034 0.5026697966543113 291.0 6.0 187.0 
560.00010179367 5191.0 1025.0 837.8698224852118 0.5071773052150401 290.0 6.0 187.0 
562.00010179367 5178.0 1023.0 840.1479289940792 0.5035947081075216 286.0 6.0 188.0 
564.00010179367 5177.0 1022.0 840.1715976331391 0.5020233236888101 287.0 6.0 188.0 
566.00010179367 5180.0 1023.0 833.3293885601646 0.5018912577965671 285.0 6.0 185.0 
568.00010179367 5183.0 1023.0 833.370808678498 0.504221672697897 283.0 6.0 185.0 
570.00010179367 5203.0 1026.0 835.5838264299873 0.5040889746851869 286.0 6.0 186.0 
572.00010179367 5205.0 1025.0 837.832347140042 0.504329142683716 286.0 6.0 187.0 
574.00010179367 5215.0 1026.0 840.1262327416243 0.5058604394537827 287.0 6.0 188.0 
576.00010179367 5214.0 1024.0 840.1242603550346 0.5015921813982581 287.0 6.0 188.0 
578.00010179367 5221.0 1024.0 840.1794871794808 0.5059557518222151 286.0 6.0 188.0 
580.00010179367 5218.0 1024.0 842.4220907297815 0.5075009611413044 289.0 5.0 190.0 
582.00010179367 5187.0 1021.0 842.4063116370802 0.508120529176744 291.0 5.0 190.0 
584.00010179367 5191.0 1021.0 844.6942800788961 0.5060682045885249 292.0 5.0 191.0 
586.00010179367 5196.0 1021.0 842.4220907297815 0.5005708331386323 295.0 5.0 190.0 
588.00010179367 5200.0 1022.0 842.4220907297815 0.5019615961261236 295.0 5.0 190.0 
590.00010179367 5206.0 1024.0 842.3668639053197 0.5058989346268077 294.0 5.0 190.0 
592.00010179367 5202.0 1022.0 842.4299802761378 0.5005093919374554 294.0 5.0 190.0 
594.00010179367 5206.0 1023.0 846.9270216962504 0.5028550747789583 296.0 5.0 192.0 
596.00010179367 5207.0 1022.0 846.9309664694287 0.5003667239508939 296.0 5.0 192.0 
598.00010179367 5211.0 1023.0 846.9368836291952 0.5065575080246957 296.0 5.0 192.0 
600.00010179367 5206.0 1022.0 849.2504930966422 0.5133507269884248 295.0 5.0 193.0 
602.00010179367 5181.0 1018.0 846.9329388560169 0.5039776355853604 295.0 5.0 192.0 
604.00010179367 5199.0 1020.0 846.9368836291952 0.5042917508988205 296.0 5.0 192.0 
606.00010179367 5207.0 1020.0 849.2268244575992 0.5044687068483602 296.0 5.0 193.0 
608.00010179367 5201.0 1020.0 849.2011834319503 0.505143777916052 294.0 5.0 193.0 
610.00010179367 5197.0 1019.0 849.2426035503 0.5013466037103838 290.0 5.0 193.0 
612.00010179367 5197.0 1019.0 849.165680473368 0.5020550687070554 291.0 5.0 193.0 
614.00010179367 5199.0 1020.0 849.2327416173534 0.5086059561562765 291.0 5.0 193.0 
616.00010179367 5183.0 1018.0 849.1696252465485 0.5069165568663234 290.0 5.0 193.0 
618.00010179367 5173.0 1018.0 849.165680473368 0.5014977754934054 290.0 5.0 193.0 
620.00010179367 5188.0 1020.0 849.1696252465485 0.5069419219736007 291.0 5.0 193.0 
622.00010179367 5183.0 1020.0 849.2051282051307 0.5012272728381097 291.0 5.0 193.0 
624.00010179367 5187.0 1021.0 849.1518737672574 0.5032391484551724 292.0 5.0 193.0 
626.00010179367 5181.0 1019.0 849.16173570019 0.5029128563632677 292.0 5.0 193.0 
628.00010179367 5217.0 1021.0 851.4733727810634 0.5007473351191262 295.0 5.0 194.0 
630.00010179367 5234.0 1023.0 853.7258382642979 0.5036581343078702 295.0 5.0 195.0 
632.00010179367 5238.0 1022.0 853.7179487179544 0.5007518561233623 294.0 5.0 195.0 
634.00010179367 5266.0 1028.0 855.9664694280073 0.5079758377328437 298.0 5.0 196.0 
636.00010179367 5238.0 1026.0 855.9763313609423 0.503094251898583 297.0 5.0 196.0 
638.00010179367 5279.0 1029.0 856.0019723865905 0.5006992763379857 299.0 5.0 196.0 
640.00010179367 5297.0 1031.0 858.2366863905316 0.501722811156455 301.0 5.0 197.0 
642.00010179367 5310.0 1031.0 860.5522682445699 0.5041498316120337 302.0 5.0 198.0 
644.00010179367 5306.0 1030.0 860.502958579877 0.5011206600526166 305.0 5.0 198.0 
646.00010179367 5304.0 1030.0 860.4654832347212 0.5011363469783203 306.0 5.0 198.0 
648.00010179367 5311.0 1031.0 865.0335305719917 0.5013933817883925 304.0 5.0 200.0 
650.00010179367 5324.0 1033.0 869.5660749506962 0.5044624495325867 306.0 5.0 202.0 
652.00010179367 5312.0 1032.0 874.1183431952686 0.5052114147647209 312.0 5.0 204.0 
654.00010179367 5325.0 1032.0 876.4181459566053 0.5057246652666748 313.0 5.0 205.0 
656.00010179367 5306.0 1031.0 876.327416173572 0.5062465923927554 312.0 5.0 205.0 
658.00010179367 5299.0 1031.0 878.6725838264285 0.5038136026508429 313.0 5.0 206.0 
660.00010179367 5320.0 1031.0 887.7554240631096 0.5026634476252948 313.0 5.0 210.0 
662.00010179367 5325.0 1032.0 885.4773175542438 0.5044391408595201 312.0 5.0 209.0 
664.00010179367 5331.0 1031.0 883.2031558185427 0.5096811729856655 312.0 5.0 208.0 
#####################################################################
# End of data export. Simulation finished at: 2019-03-13T22:34+0000 #
#####################################################################
