#####################################################################
# Alchemist log file - simulation started at: 2019-03-05T04:56+0000 #
#####################################################################
# seed = 6.0, bandwidth = 74989.42093324558, accessPointCount = 10.0, baserange = 56.234132519034915
#
# The columns have the following meaning: 
# time neighbor_count[Sum] <value>@neighbor_count[Sum] packet_size[Mean] mean_delay[Mean] crowd[Sum] overcrowded[Sum] risk[Sum] 
0.0 NaN NaN NaN NaN NaN NaN NaN 
2.000240379682765 13.0 5.0 4987.933642999336 0.4806526704227041 1497.0 0.0 1497.0 
4.000240379682765 14.0 6.0 4988.053085600531 0.5069992756842707 1497.0 0.0 1497.0 
6.000240379682765 14.0 6.0 4987.973457199734 0.5071592982561304 1497.0 0.0 1497.0 
8.000240379682765 14.0 6.0 4988.013271400133 0.5072446436277888 1497.0 0.0 1497.0 
10.000240379682767 14.0 6.0 4987.970802919708 0.5072819822278896 1497.0 0.0 1497.0 
12.000240379682767 14.0 6.0 4988.015925680159 0.507116625570301 1497.0 0.0 1497.0 
14.000240379682767 14.0 6.0 4987.949568679495 0.5074046661996485 1497.0 0.0 1497.0 
16.000240379682765 14.0 6.0 4988.034505640345 0.5071432959989445 1497.0 0.0 1497.0 
18.000240379682765 14.0 6.0 4987.949568679495 0.5072659799707034 1497.0 0.0 1497.0 
20.000240379682765 14.0 6.0 4988.00796284008 0.5071806345990449 1497.0 0.0 1497.0 
22.000240379682765 14.0 6.0 4987.944260119442 0.5073406571709047 1497.0 0.0 1497.0 
24.000240379682765 14.0 6.0 4988.00796284008 0.5072019709419596 1497.0 0.0 1497.0 
26.000240379682765 14.0 6.0 4987.944260119442 0.5073406571709047 1497.0 0.0 1497.0 
28.000240379682765 14.0 6.0 4988.00796284008 0.5072019709419596 1497.0 0.0 1497.0 
30.000240379682765 14.0 6.0 4987.944260119442 0.5073406571709047 1497.0 0.0 1497.0 
32.000240379682765 14.0 6.0 4988.00796284008 0.5072019709419596 1497.0 0.0 1497.0 
34.000240379682765 14.0 6.0 4987.944260119442 0.5073406571709043 1497.0 0.0 1497.0 
36.000240379682765 14.0 6.0 4988.00796284008 0.5072019709419593 1497.0 0.0 1497.0 
38.000240379682765 14.0 6.0 4987.944260119442 0.5073406571709043 1497.0 0.0 1497.0 
40.000240379682765 14.0 6.0 4988.00796284008 0.5072019709419593 1497.0 0.0 1497.0 
42.000240379682765 14.0 6.0 4987.944260119442 0.5073406571709043 1497.0 0.0 1497.0 
44.000240379682765 14.0 6.0 4988.00796284008 0.5072019709419593 1497.0 0.0 1497.0 
46.000240379682765 14.0 6.0 4987.944260119442 0.5073406571709043 1497.0 0.0 1497.0 
48.000240379682765 14.0 6.0 4988.00796284008 0.5072019709419593 1497.0 0.0 1497.0 
50.000240379682765 14.0 6.0 4987.944260119442 0.5073406571709043 1497.0 0.0 1497.0 
52.000240379682765 14.0 6.0 4988.00796284008 0.5072019709419593 1497.0 0.0 1497.0 
54.000240379682765 14.0 6.0 4987.944260119442 0.5073406571709043 1497.0 0.0 1497.0 
56.000240379682765 14.0 6.0 4988.00796284008 0.5072019709419593 1497.0 0.0 1497.0 
58.000240379682765 14.0 6.0 4987.944260119442 0.5073406571709043 1497.0 0.0 1497.0 
60.000240379682765 14.0 6.0 4988.00796284008 0.5072019709419593 1497.0 0.0 1497.0 
62.00090620709167 14.0 6.0 400.0 0.49307541708754954 5.0 0.0 0.0 
64.00090620709166 14.0 6.0 400.0 0.4553704846920958 2.0 0.0 0.0 
66.00090620709166 14.0 6.0 400.0 0.45537048469209507 2.0 0.0 0.0 
68.00090620709166 14.0 6.0 400.0 0.45537048469209507 2.0 0.0 0.0 
70.00090620709166 14.0 6.0 400.0 0.45537048469209507 2.0 0.0 0.0 
72.00090620709166 14.0 6.0 400.0 0.45537048469209507 2.0 0.0 0.0 
74.00090620709166 14.0 6.0 400.0 0.45537048469209507 2.0 0.0 0.0 
76.00090620709166 14.0 6.0 400.0 0.45537048469209507 1.0 0.0 0.0 
78.00090620709166 14.0 6.0 400.0 0.45537048469209507 1.0 0.0 0.0 
80.00090620709166 14.0 6.0 400.0 0.45537048469209507 1.0 0.0 0.0 
82.00090620709166 14.0 6.0 400.0 0.45537048469209507 1.0 0.0 0.0 
84.00090620709166 14.0 6.0 400.0 0.45537048469209507 1.0 0.0 0.0 
86.00090620709166 14.0 6.0 400.0 0.45537048469209507 0.0 0.0 0.0 
88.00090620709166 14.0 6.0 400.0 0.45537048469209507 0.0 0.0 0.0 
90.00090620709166 14.0 6.0 400.0 0.45537048469209507 0.0 0.0 0.0 
92.00090620709166 14.0 6.0 400.0 0.45537048469209507 0.0 0.0 0.0 
94.00090620709166 14.0 6.0 400.0 0.45537048469209507 0.0 0.0 0.0 
96.00090620709166 14.0 6.0 400.0 0.45537048469209507 0.0 0.0 0.0 
98.00090620709166 14.0 6.0 400.0 0.45537048469209507 0.0 0.0 0.0 
100.00090620709166 14.0 6.0 400.0 0.45537048469209507 0.0 0.0 0.0 
102.00090620709166 14.0 6.0 400.0 0.45537048469209507 0.0 0.0 0.0 
104.00090620709166 14.0 6.0 400.0 0.45537048469209507 0.0 0.0 0.0 
106.00090620709166 14.0 6.0 400.0 0.45537048469209507 0.0 0.0 0.0 
108.00090620709166 14.0 6.0 400.0 0.45537048469209507 0.0 0.0 0.0 
110.00090620709166 14.0 6.0 400.0 0.45537048469209507 0.0 0.0 0.0 
112.00090620709166 14.0 6.0 400.0 0.45537048469209507 0.0 0.0 0.0 
114.00090620709166 14.0 6.0 400.0 0.45537048469209507 0.0 0.0 0.0 
116.00090620709166 14.0 6.0 400.0 0.45537048469209507 0.0 0.0 0.0 
118.00090620709166 14.0 6.0 400.0 0.45537048469209507 0.0 0.0 0.0 
120.00090620709166 14.0 6.0 400.0 0.45537048469209507 0.0 0.0 0.0 
122.00090620709166 14.0 6.0 400.0 0.45537048469209507 0.0 0.0 0.0 
124.00090620709166 14.0 6.0 400.0 0.45537048469209507 0.0 0.0 0.0 
126.00090620709166 14.0 6.0 400.0 0.45537048469209507 0.0 0.0 0.0 
128.00090620709167 14.0 6.0 400.0 0.45537048469209507 0.0 0.0 0.0 
130.00090620709167 14.0 6.0 400.0 0.4553704846920965 0.0 0.0 0.0 
132.00090620709167 14.0 6.0 400.0 0.4553704846920965 0.0 0.0 0.0 
134.00090620709167 14.0 6.0 400.0 0.4553704846920965 0.0 0.0 0.0 
136.00090620709167 14.0 6.0 400.0 0.4553704846920965 0.0 0.0 0.0 
138.00090620709167 14.0 6.0 400.0 0.4553704846920965 0.0 0.0 0.0 
140.00090620709167 14.0 6.0 400.0 0.4553704846920965 0.0 0.0 0.0 
142.00090620709167 14.0 6.0 400.0 0.4553704846920965 0.0 0.0 0.0 
144.00090620709167 14.0 6.0 400.0 0.4553704846920965 0.0 0.0 0.0 
146.00090620709167 14.0 6.0 400.0 0.4553704846920965 0.0 0.0 0.0 
148.00090620709167 14.0 6.0 400.0 0.4553704846920965 0.0 0.0 0.0 
150.00090620709167 14.0 6.0 400.0 0.4553704846920965 0.0 0.0 0.0 
152.00090620709167 14.0 6.0 400.0 0.4553704846920965 0.0 0.0 0.0 
154.00090620709167 14.0 6.0 400.0 0.4553704846920965 0.0 0.0 0.0 
156.00090620709167 14.0 6.0 400.0 0.4553704846920965 0.0 0.0 0.0 
158.00090620709167 14.0 6.0 400.0 0.4553704846920965 0.0 0.0 0.0 
160.00090620709167 14.0 6.0 400.0 0.4553704846920965 0.0 0.0 0.0 
162.00090620709167 14.0 6.0 400.0 0.4553704846920965 0.0 0.0 0.0 
164.00090620709167 14.0 6.0 400.0 0.4553704846920965 0.0 0.0 0.0 
166.00090620709167 14.0 6.0 400.0 0.4553704846920965 0.0 0.0 0.0 
168.00090620709167 14.0 6.0 400.0 0.4553704846920965 0.0 0.0 0.0 
170.00090620709167 14.0 6.0 400.0 0.4553704846920965 0.0 0.0 0.0 
172.00090620709167 14.0 6.0 400.0 0.4553704846920965 0.0 0.0 0.0 
174.00090620709167 14.0 6.0 400.0 0.4553704846920965 0.0 0.0 0.0 
176.00090620709167 14.0 6.0 400.0 0.4553704846920965 0.0 0.0 0.0 
178.00090620709167 14.0 6.0 400.0 0.4553704846920965 0.0 0.0 0.0 
180.00090620709167 14.0 6.0 400.0 0.4553704846920965 0.0 0.0 0.0 
182.00090620709167 14.0 6.0 400.0 0.4553704846920965 0.0 0.0 0.0 
184.00090620709167 14.0 6.0 400.0 0.4553704846920965 0.0 0.0 0.0 
186.00090620709167 14.0 6.0 400.0 0.4553704846920965 0.0 0.0 0.0 
188.00090620709167 14.0 6.0 400.0 0.4553704846920965 0.0 0.0 0.0 
190.00090620709167 14.0 6.0 400.0 0.4553704846920965 0.0 0.0 0.0 
192.00090620709167 14.0 6.0 400.0 0.4553704846920965 0.0 0.0 0.0 
194.00090620709167 14.0 6.0 400.0 0.4553704846920965 0.0 0.0 0.0 
196.00090620709167 14.0 6.0 400.0 0.4553704846920965 0.0 0.0 0.0 
198.00090620709167 14.0 6.0 400.0 0.4553704846920965 0.0 0.0 0.0 
200.00090620709167 14.0 6.0 400.0 0.4553704846920965 0.0 0.0 0.0 
202.00090620709167 14.0 6.0 400.0 0.4553704846920965 0.0 0.0 0.0 
204.00090620709167 14.0 6.0 400.0 0.4553704846920965 0.0 0.0 0.0 
206.00090620709167 14.0 6.0 400.0 0.4553704846920965 0.0 0.0 0.0 
208.00090620709167 14.0 6.0 400.0 0.4553704846920965 0.0 0.0 0.0 
210.00090620709167 14.0 6.0 400.0 0.4553704846920965 0.0 0.0 0.0 
212.00090620709167 14.0 6.0 400.0 0.4553704846920965 0.0 0.0 0.0 
214.00090620709167 14.0 6.0 400.0 0.4553704846920965 0.0 0.0 0.0 
216.00090620709167 14.0 6.0 400.0 0.4553704846920965 0.0 0.0 0.0 
218.00090620709167 14.0 6.0 400.0 0.4553704846920965 0.0 0.0 0.0 
220.00090620709167 14.0 6.0 400.0 0.4553704846920965 0.0 0.0 0.0 
222.00090620709167 14.0 6.0 400.0 0.4553704846920965 0.0 0.0 0.0 
224.00090620709167 14.0 6.0 400.0 0.4553704846920965 0.0 0.0 0.0 
226.00090620709167 14.0 6.0 400.0 0.4553704846920965 0.0 0.0 0.0 
228.00090620709167 14.0 6.0 400.0 0.4553704846920965 0.0 0.0 0.0 
230.00090620709167 14.0 6.0 400.0 0.4553704846920965 0.0 0.0 0.0 
232.00090620709167 14.0 6.0 400.0 0.4553704846920965 0.0 0.0 0.0 
234.00090620709167 14.0 6.0 400.0 0.4553704846920965 0.0 0.0 0.0 
236.00090620709167 14.0 6.0 400.0 0.4553704846920965 0.0 0.0 0.0 
238.00090620709167 14.0 6.0 400.0 0.4553704846920965 0.0 0.0 0.0 
240.00090620709167 14.0 6.0 400.0 0.4553704846920965 0.0 0.0 0.0 
242.00090620709167 14.0 6.0 400.0 0.4553704846920965 0.0 0.0 0.0 
244.00090620709167 14.0 6.0 400.0 0.4553704846920965 0.0 0.0 0.0 
246.00090620709167 14.0 6.0 400.0 0.4553704846920965 0.0 0.0 0.0 
248.00090620709167 14.0 6.0 400.0 0.4553704846920965 0.0 0.0 0.0 
250.00090620709167 14.0 6.0 400.0 0.4553704846920965 0.0 0.0 0.0 
252.00090620709167 14.0 6.0 400.0 0.4553704846920965 0.0 0.0 0.0 
254.00090620709167 14.0 6.0 400.0 0.4553704846920965 0.0 0.0 0.0 
256.00090620709165 14.0 6.0 400.0 0.4553704846920965 0.0 0.0 0.0 
258.00090620709165 14.0 6.0 400.0 0.45537048469209085 0.0 0.0 0.0 
260.00090620709165 14.0 6.0 400.0 0.45537048469209085 0.0 0.0 0.0 
262.00090620709165 14.0 6.0 400.0 0.45537048469209085 0.0 0.0 0.0 
264.00090620709165 14.0 6.0 400.0 0.45537048469209085 0.0 0.0 0.0 
266.00090620709165 14.0 6.0 400.0 0.45537048469209085 0.0 0.0 0.0 
268.00090620709165 14.0 6.0 400.0 0.45537048469209085 0.0 0.0 0.0 
270.00090620709165 14.0 6.0 400.0 0.45537048469209085 0.0 0.0 0.0 
272.00090620709165 14.0 6.0 400.0 0.45537048469209085 0.0 0.0 0.0 
274.00090620709165 14.0 6.0 400.0 0.45537048469209085 0.0 0.0 0.0 
276.00090620709165 14.0 6.0 400.0 0.45537048469209085 0.0 0.0 0.0 
278.00090620709165 14.0 6.0 400.0 0.45537048469209085 0.0 0.0 0.0 
280.00090620709165 14.0 6.0 400.0 0.45537048469209085 0.0 0.0 0.0 
282.00090620709165 14.0 6.0 400.0 0.45537048469209085 0.0 0.0 0.0 
284.00090620709165 14.0 6.0 400.0 0.45537048469209085 0.0 0.0 0.0 
286.00090620709165 14.0 6.0 400.0 0.45537048469209085 0.0 0.0 0.0 
288.00090620709165 14.0 6.0 400.0 0.45537048469209085 0.0 0.0 0.0 
290.00090620709165 14.0 6.0 400.0 0.45537048469209085 0.0 0.0 0.0 
292.00090620709165 14.0 6.0 400.0 0.45537048469209085 0.0 0.0 0.0 
294.00090620709165 14.0 6.0 400.0 0.45537048469209085 0.0 0.0 0.0 
296.00090620709165 14.0 6.0 400.0 0.45537048469209085 0.0 0.0 0.0 
298.00090620709165 14.0 6.0 400.0 0.45537048469209085 0.0 0.0 0.0 
300.00090620709165 14.0 6.0 400.0 0.45537048469209085 0.0 0.0 0.0 
302.00090620709165 14.0 6.0 400.0 0.45537048469209085 0.0 0.0 0.0 
304.00090620709165 14.0 6.0 400.0 0.45537048469209085 0.0 0.0 0.0 
306.00090620709165 14.0 6.0 400.0 0.45537048469209085 0.0 0.0 0.0 
308.00090620709165 14.0 6.0 400.0 0.45537048469209085 0.0 0.0 0.0 
310.00090620709165 14.0 6.0 400.0 0.45537048469209085 0.0 0.0 0.0 
312.00090620709165 14.0 6.0 400.0 0.45537048469209085 0.0 0.0 0.0 
314.00090620709165 14.0 6.0 400.0 0.45537048469209085 0.0 0.0 0.0 
316.00090620709165 14.0 6.0 400.0 0.45537048469209085 0.0 0.0 0.0 
318.00090620709165 14.0 6.0 400.0 0.45537048469209085 0.0 0.0 0.0 
320.00090620709165 14.0 6.0 400.0 0.45537048469209085 0.0 0.0 0.0 
322.00090620709165 14.0 6.0 400.0 0.45537048469209085 0.0 0.0 0.0 
324.00090620709165 14.0 6.0 400.0 0.45537048469209085 0.0 0.0 0.0 
326.00090620709165 14.0 6.0 400.0 0.45537048469209085 0.0 0.0 0.0 
328.00090620709165 14.0 6.0 400.0 0.45537048469209085 0.0 0.0 0.0 
330.00090620709165 14.0 6.0 400.0 0.45537048469209085 0.0 0.0 0.0 
332.00090620709165 14.0 6.0 400.0 0.45537048469209085 0.0 0.0 0.0 
334.00090620709165 14.0 6.0 400.0 0.45537048469209085 0.0 0.0 0.0 
336.00090620709165 14.0 6.0 400.0 0.45537048469209085 0.0 0.0 0.0 
338.00090620709165 14.0 6.0 400.0 0.45537048469209085 0.0 0.0 0.0 
340.00090620709165 14.0 6.0 400.0 0.45537048469209085 0.0 0.0 0.0 
342.00090620709165 14.0 6.0 400.0 0.45537048469209085 0.0 0.0 0.0 
344.00090620709165 14.0 6.0 400.0 0.45537048469209085 0.0 0.0 0.0 
346.00090620709165 14.0 6.0 400.0 0.45537048469209085 0.0 0.0 0.0 
348.00090620709165 14.0 6.0 400.0 0.45537048469209085 0.0 0.0 0.0 
350.00090620709165 14.0 6.0 400.0 0.45537048469209085 0.0 0.0 0.0 
352.00090620709165 14.0 6.0 400.0 0.45537048469209085 0.0 0.0 0.0 
354.00090620709165 14.0 6.0 400.0 0.45537048469209085 0.0 0.0 0.0 
356.00090620709165 14.0 6.0 400.0 0.45537048469209085 0.0 0.0 0.0 
358.00090620709165 14.0 6.0 400.0 0.45537048469209085 0.0 0.0 0.0 
360.00090620709165 14.0 6.0 400.0 0.45537048469209085 0.0 0.0 0.0 
362.00090620709165 14.0 6.0 400.0 0.45537048469209085 0.0 0.0 0.0 
364.00090620709165 14.0 6.0 400.0 0.45537048469209085 0.0 0.0 0.0 
366.00090620709165 14.0 6.0 400.0 0.45537048469209085 0.0 0.0 0.0 
368.00090620709165 14.0 6.0 400.0 0.45537048469209085 0.0 0.0 0.0 
370.00090620709165 14.0 6.0 400.0 0.45537048469209085 0.0 0.0 0.0 
372.00090620709165 14.0 6.0 400.0 0.45537048469209085 0.0 0.0 0.0 
374.00090620709165 14.0 6.0 400.0 0.45537048469209085 0.0 0.0 0.0 
376.00090620709165 14.0 6.0 400.0 0.45537048469209085 0.0 0.0 0.0 
378.00090620709165 14.0 6.0 400.0 0.45537048469209085 0.0 0.0 0.0 
380.00090620709165 14.0 6.0 400.0 0.45537048469209085 0.0 0.0 0.0 
382.00090620709165 14.0 6.0 400.0 0.45537048469209085 0.0 0.0 0.0 
384.00090620709165 14.0 6.0 400.0 0.45537048469209085 0.0 0.0 0.0 
386.00090620709165 14.0 6.0 400.0 0.45537048469209085 0.0 0.0 0.0 
388.00090620709165 14.0 6.0 400.0 0.45537048469209085 0.0 0.0 0.0 
390.00090620709165 14.0 6.0 400.0 0.45537048469209085 0.0 0.0 0.0 
392.00090620709165 14.0 6.0 400.0 0.45537048469209085 0.0 0.0 0.0 
394.00090620709165 14.0 6.0 400.0 0.45537048469209085 0.0 0.0 0.0 
396.00090620709165 14.0 6.0 400.0 0.45537048469209085 0.0 0.0 0.0 
398.00090620709165 14.0 6.0 400.0 0.45537048469209085 0.0 0.0 0.0 
400.00090620709165 14.0 6.0 400.0 0.45537048469209085 0.0 0.0 0.0 
402.00090620709165 14.0 6.0 400.0 0.45537048469209085 0.0 0.0 0.0 
404.00090620709165 14.0 6.0 400.0 0.45537048469209085 0.0 0.0 0.0 
406.00090620709165 14.0 6.0 400.0 0.45537048469209085 0.0 0.0 0.0 
408.00090620709165 14.0 6.0 400.0 0.45537048469209085 0.0 0.0 0.0 
410.00090620709165 14.0 6.0 400.0 0.45537048469209085 0.0 0.0 0.0 
412.00090620709165 14.0 6.0 400.0 0.45537048469209085 0.0 0.0 0.0 
414.00090620709165 14.0 6.0 400.0 0.45537048469209085 0.0 0.0 0.0 
416.00090620709165 14.0 6.0 400.0 0.45537048469209085 0.0 0.0 0.0 
418.00090620709165 14.0 6.0 400.0 0.45537048469209085 0.0 0.0 0.0 
420.00090620709165 14.0 6.0 400.0 0.45537048469209085 0.0 0.0 0.0 
422.00090620709165 14.0 6.0 400.0 0.45537048469209085 0.0 0.0 0.0 
424.00090620709165 14.0 6.0 400.0 0.45537048469209085 0.0 0.0 0.0 
426.00090620709165 14.0 6.0 400.0 0.45537048469209085 0.0 0.0 0.0 
428.00090620709165 14.0 6.0 400.0 0.45537048469209085 0.0 0.0 0.0 
430.00090620709165 14.0 6.0 400.0 0.45537048469209085 0.0 0.0 0.0 
432.00090620709165 14.0 6.0 400.0 0.45537048469209085 0.0 0.0 0.0 
434.00090620709165 14.0 6.0 400.0 0.45537048469209085 0.0 0.0 0.0 
436.00090620709165 14.0 6.0 400.0 0.45537048469209085 0.0 0.0 0.0 
438.00090620709165 14.0 6.0 400.0 0.45537048469209085 0.0 0.0 0.0 
440.00090620709165 14.0 6.0 400.0 0.45537048469209085 0.0 0.0 0.0 
442.00090620709165 14.0 6.0 400.0 0.45537048469209085 0.0 0.0 0.0 
444.00090620709165 14.0 6.0 400.0 0.45537048469209085 0.0 0.0 0.0 
446.00090620709165 14.0 6.0 400.0 0.45537048469209085 0.0 0.0 0.0 
448.00090620709165 14.0 6.0 400.0 0.45537048469209085 0.0 0.0 0.0 
450.00090620709165 14.0 6.0 400.0 0.45537048469209085 0.0 0.0 0.0 
452.00090620709165 14.0 6.0 400.0 0.45537048469209085 0.0 0.0 0.0 
454.00090620709165 14.0 6.0 400.0 0.45537048469209085 0.0 0.0 0.0 
456.00090620709165 14.0 6.0 400.0 0.45537048469209085 0.0 0.0 0.0 
458.00090620709165 14.0 6.0 400.0 0.45537048469209085 0.0 0.0 0.0 
460.00090620709165 14.0 6.0 400.0 0.45537048469209085 0.0 0.0 0.0 
462.00090620709165 14.0 6.0 400.0 0.45537048469209085 0.0 0.0 0.0 
464.00090620709165 14.0 6.0 400.0 0.45537048469209085 0.0 0.0 0.0 
466.00090620709165 14.0 6.0 400.0 0.45537048469209085 0.0 0.0 0.0 
468.00090620709165 14.0 6.0 400.0 0.45537048469209085 0.0 0.0 0.0 
470.00090620709165 14.0 6.0 400.0 0.45537048469209085 0.0 0.0 0.0 
472.00090620709165 14.0 6.0 400.0 0.45537048469209085 0.0 0.0 0.0 
474.00090620709165 14.0 6.0 400.0 0.45537048469209085 0.0 0.0 0.0 
476.00090620709165 14.0 6.0 400.0 0.45537048469209085 0.0 0.0 0.0 
478.00090620709165 14.0 6.0 400.0 0.45537048469209085 0.0 0.0 0.0 
480.00090620709165 14.0 6.0 400.0 0.45537048469209085 0.0 0.0 0.0 
482.00090620709165 14.0 6.0 400.0 0.45537048469209085 0.0 0.0 0.0 
484.00090620709165 14.0 6.0 400.0 0.45537048469209085 0.0 0.0 0.0 
486.00090620709165 14.0 6.0 400.0 0.45537048469209085 0.0 0.0 0.0 
488.00090620709165 14.0 6.0 400.0 0.45537048469209085 0.0 0.0 0.0 
490.00090620709165 14.0 6.0 400.0 0.45537048469209085 0.0 0.0 0.0 
492.00090620709165 14.0 6.0 400.0 0.45537048469209085 0.0 0.0 0.0 
494.00090620709165 14.0 6.0 400.0 0.45537048469209085 0.0 0.0 0.0 
496.00090620709165 14.0 6.0 400.0 0.45537048469209085 0.0 0.0 0.0 
498.00090620709165 14.0 6.0 400.0 0.45537048469209085 0.0 0.0 0.0 
500.00090620709165 14.0 6.0 400.0 0.45537048469209085 0.0 0.0 0.0 
502.00090620709165 14.0 6.0 400.0 0.45537048469209085 0.0 0.0 0.0 
504.00090620709165 14.0 6.0 400.0 0.45537048469209085 0.0 0.0 0.0 
506.00090620709165 14.0 6.0 400.0 0.45537048469209085 0.0 0.0 0.0 
508.00090620709165 14.0 6.0 400.0 0.45537048469209085 0.0 0.0 0.0 
510.00090620709165 14.0 6.0 400.0 0.45537048469209085 0.0 0.0 0.0 
512.0009062070917 14.0 6.0 400.0 0.45537048469209085 0.0 0.0 0.0 
514.0009062070917 14.0 6.0 400.0 0.45537048469210506 0.0 0.0 0.0 
516.0009062070917 14.0 6.0 400.0 0.45537048469210506 0.0 0.0 0.0 
518.0009062070917 14.0 6.0 400.0 0.45537048469210506 0.0 0.0 0.0 
520.0009062070917 14.0 6.0 400.0 0.45537048469210506 0.0 0.0 0.0 
522.0009062070917 14.0 6.0 400.0 0.45537048469210506 0.0 0.0 0.0 
524.0009062070917 14.0 6.0 400.0 0.45537048469210506 0.0 0.0 0.0 
526.0009062070917 14.0 6.0 400.0 0.45537048469210506 0.0 0.0 0.0 
528.0009062070917 14.0 6.0 400.0 0.45537048469210506 0.0 0.0 0.0 
530.0009062070917 14.0 6.0 400.0 0.45537048469210506 0.0 0.0 0.0 
532.0009062070917 14.0 6.0 400.0 0.45537048469210506 0.0 0.0 0.0 
534.0009062070917 14.0 6.0 400.0 0.45537048469210506 0.0 0.0 0.0 
536.0009062070917 14.0 6.0 400.0 0.45537048469210506 0.0 0.0 0.0 
538.0009062070917 14.0 6.0 400.0 0.45537048469210506 0.0 0.0 0.0 
540.0009062070917 14.0 6.0 400.0 0.45537048469210506 0.0 0.0 0.0 
542.0009062070917 14.0 6.0 400.0 0.45537048469210506 0.0 0.0 0.0 
544.0009062070917 14.0 6.0 400.0 0.45537048469210506 0.0 0.0 0.0 
546.0009062070917 14.0 6.0 400.0 0.45537048469210506 0.0 0.0 0.0 
548.0009062070917 14.0 6.0 400.0 0.45537048469210506 0.0 0.0 0.0 
550.0009062070917 14.0 6.0 400.0 0.45537048469210506 0.0 0.0 0.0 
552.0009062070917 14.0 6.0 400.0 0.45537048469210506 0.0 0.0 0.0 
554.0009062070917 14.0 6.0 400.0 0.45537048469210506 0.0 0.0 0.0 
556.0009062070917 14.0 6.0 400.0 0.45537048469210506 0.0 0.0 0.0 
558.0009062070917 14.0 6.0 400.0 0.45537048469210506 0.0 0.0 0.0 
560.0009062070917 14.0 6.0 400.0 0.45537048469210506 0.0 0.0 0.0 
562.0009062070917 14.0 6.0 400.0 0.45537048469210506 0.0 0.0 0.0 
564.0009062070917 14.0 6.0 400.0 0.45537048469210506 0.0 0.0 0.0 
566.0009062070917 14.0 6.0 400.0 0.45537048469210506 0.0 0.0 0.0 
568.0009062070917 14.0 6.0 400.0 0.45537048469210506 0.0 0.0 0.0 
570.0009062070917 14.0 6.0 400.0 0.45537048469210506 0.0 0.0 0.0 
572.0009062070917 14.0 6.0 400.0 0.45537048469210506 0.0 0.0 0.0 
574.0009062070917 14.0 6.0 400.0 0.45537048469210506 0.0 0.0 0.0 
576.0009062070917 14.0 6.0 400.0 0.45537048469210506 0.0 0.0 0.0 
578.0009062070917 14.0 6.0 400.0 0.45537048469210506 0.0 0.0 0.0 
580.0009062070917 14.0 6.0 400.0 0.45537048469210506 0.0 0.0 0.0 
582.0009062070917 14.0 6.0 400.0 0.45537048469210506 0.0 0.0 0.0 
584.0009062070917 14.0 6.0 400.0 0.45537048469210506 0.0 0.0 0.0 
586.0009062070917 14.0 6.0 400.0 0.45537048469210506 0.0 0.0 0.0 
588.0009062070917 14.0 6.0 400.0 0.45537048469210506 0.0 0.0 0.0 
590.0009062070917 14.0 6.0 400.0 0.45537048469210506 0.0 0.0 0.0 
592.0009062070917 14.0 6.0 400.0 0.45537048469210506 0.0 0.0 0.0 
594.0009062070917 14.0 6.0 400.0 0.45537048469210506 0.0 0.0 0.0 
596.0009062070917 14.0 6.0 400.0 0.45537048469210506 0.0 0.0 0.0 
598.0009062070917 14.0 6.0 400.0 0.45537048469210506 0.0 0.0 0.0 
600.0009062070917 14.0 6.0 400.0 0.45537048469210506 0.0 0.0 0.0 
602.0009062070917 14.0 6.0 400.0 0.45537048469210506 0.0 0.0 0.0 
604.0009062070917 14.0 6.0 400.0 0.45537048469210506 0.0 0.0 0.0 
606.0009062070917 14.0 6.0 400.0 0.45537048469210506 0.0 0.0 0.0 
608.0009062070917 14.0 6.0 400.0 0.45537048469210506 0.0 0.0 0.0 
610.0009062070917 14.0 6.0 400.0 0.45537048469210506 0.0 0.0 0.0 
612.0009062070917 14.0 6.0 400.0 0.45537048469210506 0.0 0.0 0.0 
614.0009062070917 14.0 6.0 400.0 0.45537048469210506 0.0 0.0 0.0 
616.0009062070917 14.0 6.0 400.0 0.45537048469210506 0.0 0.0 0.0 
618.0009062070917 14.0 6.0 400.0 0.45537048469210506 0.0 0.0 0.0 
620.0009062070917 14.0 6.0 400.0 0.45537048469210506 0.0 0.0 0.0 
622.0009062070917 14.0 6.0 400.0 0.45537048469210506 0.0 0.0 0.0 
624.0009062070917 14.0 6.0 400.0 0.45537048469210506 0.0 0.0 0.0 
626.0009062070917 14.0 6.0 400.0 0.45537048469210506 0.0 0.0 0.0 
628.0009062070917 14.0 6.0 400.0 0.45537048469210506 0.0 0.0 0.0 
630.0009062070917 14.0 6.0 400.0 0.45537048469210506 0.0 0.0 0.0 
632.0009062070917 14.0 6.0 400.0 0.45537048469210506 0.0 0.0 0.0 
634.0009062070917 14.0 6.0 400.0 0.45537048469210506 0.0 0.0 0.0 
636.0009062070917 14.0 6.0 400.0 0.45537048469210506 0.0 0.0 0.0 
638.0009062070917 14.0 6.0 400.0 0.45537048469210506 0.0 0.0 0.0 
640.0009062070917 14.0 6.0 400.0 0.45537048469210506 0.0 0.0 0.0 
642.0009062070917 14.0 6.0 400.0 0.45537048469210506 0.0 0.0 0.0 
644.0009062070917 14.0 6.0 400.0 0.45537048469210506 0.0 0.0 0.0 
646.0009062070917 14.0 6.0 400.0 0.45537048469210506 0.0 0.0 0.0 
648.0009062070917 14.0 6.0 400.0 0.45537048469210506 0.0 0.0 0.0 
650.0009062070917 14.0 6.0 400.0 0.45537048469210506 0.0 0.0 0.0 
652.0009062070917 14.0 6.0 400.0 0.45537048469210506 0.0 0.0 0.0 
654.0009062070917 14.0 6.0 400.0 0.45537048469210506 0.0 0.0 0.0 
656.0009062070917 14.0 6.0 400.0 0.45537048469210506 0.0 0.0 0.0 
658.0009062070917 14.0 6.0 400.0 0.45537048469210506 0.0 0.0 0.0 
660.0009062070917 14.0 6.0 400.0 0.45537048469210506 0.0 0.0 0.0 
662.0009062070917 14.0 6.0 400.0 0.45537048469210506 0.0 0.0 0.0 
664.0009062070917 14.0 6.0 400.0 0.45537048469210506 0.0 0.0 0.0 
#####################################################################
# End of data export. Simulation finished at: 2019-03-05T04:58+0000 #
#####################################################################
