#####################################################################
# Alchemist log file - simulation started at: 2019-03-04T15:01+0000 #
#####################################################################
# seed = 6.0, bandwidth = 1000.0, accessPointCount = 2000.0, baserange = 56.234132519034915
#
# The columns have the following meaning: 
# time neighbor_count[Sum] <value>@neighbor_count[Sum] packet_size[Mean] mean_delay[Mean] crowd[Sum] overcrowded[Sum] risk[Sum] 
0.0 NaN NaN NaN NaN NaN NaN NaN 
2.000066164899353 NaN NaN 4974.273949099228 NaN 1497.0 0.0 1497.0 
4.000066164899353 NaN NaN 4974.273949099228 NaN 1497.0 0.0 1497.0 
6.000066164899353 270.0 215.0 4974.532456391193 0.3376149766754259 1497.0 0.0 1497.0 
8.000066164899353 506.0 404.0 4978.5747783814695 2.026402712824642 1497.0 0.0 1497.0 
10.000066164899353 506.0 404.0 4978.013154132113 4.016297449666747 1497.0 0.0 1497.0 
12.000066164899353 867.0 634.0 4979.058621675722 1.0948246206292311 1497.0 0.0 1497.0 
14.000066164899353 867.0 634.0 4976.969974263655 3.0948246206292316 1497.0 0.0 1497.0 
16.00006616489935 985.0 699.0 4977.198741778668 3.071786286986549 1497.0 0.0 1497.0 
18.00006616489935 1092.0 762.0 4979.949671146697 3.36621257004407 1497.0 0.0 1497.0 
20.00006616489935 1093.0 762.0 4979.317128967687 5.3596922268992735 1497.0 0.0 1497.0 
22.00006616489935 1290.0 824.0 4979.573348584501 2.953950375773396 1497.0 0.0 1497.0 
24.00006616489935 1290.0 824.0 4977.266228195596 3.736897257990486 1497.0 0.0 1497.0 
26.00006616489935 1362.0 840.0 4977.255933657421 4.4876553166412165 1497.0 0.0 1497.0 
28.00006616489935 1418.0 859.0 4978.342579353732 4.955187939943679 1497.0 0.0 1497.0 
30.00006616489935 1418.0 859.0 4979.352587932513 6.149502321214582 1497.0 0.0 1497.0 
32.00006616489935 1612.0 899.0 4979.74263654561 3.304456575060309 1497.0 0.0 1497.0 
34.00006616489935 1612.0 899.0 4978.814984272233 3.6801987877348528 1497.0 0.0 1497.0 
36.00006616489935 1654.0 903.0 4977.827852444952 4.973553127085794 1497.0 0.0 1497.0 
38.00006616489935 1680.0 909.0 4978.121818701744 5.4333903131496 1497.0 0.0 1497.0 
40.00006616489935 1680.0 909.0 4978.979696883043 6.466130738681514 1497.0 0.0 1497.0 
42.00006616489935 1735.0 918.0 4979.3342865313125 5.093500376454321 1497.0 0.0 1497.0 
44.00006616489935 1736.0 919.0 4979.143265656277 4.857061288709131 1497.0 0.0 1497.0 
46.00006616489935 1761.0 926.0 4977.873605947955 5.096659707196754 1497.0 0.0 1497.0 
48.00006616489935 1781.0 927.0 4977.791249642551 5.45079471912573 1497.0 0.0 1497.0 
50.00006616489935 1786.0 928.0 4978.480983700314 6.244869465596683 1497.0 0.0 1497.0 
52.00006616489935 1798.0 930.0 4979.215327423506 5.292052921141774 1497.0 0.0 1497.0 
54.00006616489935 1798.0 930.0 4979.118101229626 5.539271671141775 1497.0 0.0 1497.0 
56.00006616489935 1850.0 936.0 4978.716614240779 5.502747001126401 1497.0 0.0 1497.0 
58.00006616489935 1885.0 939.0 4977.882756648556 6.31461840670477 1497.0 0.0 1497.0 
60.00006616489935 1884.0 939.0 4976.814412353446 7.3116874841343105 1497.0 0.0 1497.0 
62.00006616489935 1848.0 936.0 560.5147269087804 4.87441630221947 363.0 0.0 122.0 
64.00006616489935 1849.0 936.0 560.4277952530767 3.7906687082855517 330.0 0.0 122.0 
66.00006616489935 1839.0 936.0 560.4518158421533 3.261710529256238 283.0 0.0 122.0 
68.00006616489935 1833.0 933.0 561.7329139262189 3.0000546515105087 251.0 0.0 123.0 
70.00006616489935 1835.0 934.0 561.703174149273 3.2556224204279567 227.0 0.0 123.0 
72.00006616489935 1843.0 933.0 561.7878181298308 2.6621070251619914 215.0 0.0 123.0 
74.00006616489935 1842.0 932.0 561.6928796110898 2.7359953783117383 203.0 0.0 123.0 
76.00006616489935 1823.0 926.0 561.720331712894 2.5487590902695714 198.0 0.0 123.0 
78.00006616489935 1815.0 927.0 563.0231627109005 2.1283486259267197 185.0 0.0 124.0 
80.00006616489935 1811.0 926.0 562.991135258793 2.324286028819386 176.0 0.0 124.0 
82.00006616489935 1893.0 939.0 564.4335144409444 2.025355759677723 174.0 0.0 125.0 
84.00006616489935 1895.0 939.0 564.3477266228144 2.0606782307857188 170.0 0.0 125.0 
86.00006616489935 1940.0 946.0 578.8893337146108 2.171078715928053 182.0 0.0 136.0 
88.00006616489935 1970.0 948.0 584.0194452387825 2.1982536011782567 184.0 0.0 140.0 
90.00006616489935 1976.0 949.0 584.0011438375709 2.4663254791952824 182.0 0.0 140.0 
92.00006616489935 1979.0 949.0 584.0686302545104 2.1367528266108384 181.0 0.0 140.0 
94.00006616489935 1982.0 949.0 584.0663425793475 2.3008453576440755 180.0 0.0 140.0 
96.00006616489935 1967.0 947.0 584.0651987417764 2.449840039215472 180.0 0.0 140.0 
98.00006616489935 1958.0 946.0 584.0571918787591 2.459240466372493 176.0 0.0 140.0 
100.00006616489935 1956.0 946.0 584.0434658278609 2.6889598504196606 175.0 0.0 140.0 
102.00006616489935 1923.0 941.0 582.7829568201254 2.4302057506061794 175.0 0.0 139.0 
104.00006616489935 1932.0 943.0 582.7383471547101 2.223443413962735 175.0 0.0 139.0 
106.00006616489935 1935.0 940.0 584.0651987417762 2.2755093837797844 175.0 0.0 140.0 
108.00006616489935 1924.0 940.0 584.0331712896809 2.2311466282805497 175.0 0.0 140.0 
110.00006616489935 1925.0 940.0 586.6571346868666 2.4489131382062745 175.0 0.0 142.0 
112.00006616489935 2001.0 946.0 586.8252788104137 2.2629690879287416 176.0 0.0 142.0 
114.00006616489935 1999.0 946.0 586.6617100371803 2.4515616280491255 176.0 0.0 142.0 
116.00006616489935 1968.0 950.0 586.6674292250467 2.636235695542963 175.0 0.0 142.0 
118.00006616489935 1930.0 945.0 590.6479839862644 2.5979349758790526 179.0 0.0 145.0 
120.00006616489935 1925.0 946.0 589.3245639119215 2.7722537421187434 178.0 0.0 144.0 
122.00006616489935 1911.0 944.0 589.4869888475762 2.258348662917504 180.0 0.0 144.0 
124.00006616489935 1939.0 950.0 589.307406348303 2.089030868526249 180.0 0.0 144.0 
126.00006616489935 1938.0 949.0 589.2959679725494 2.201131726311137 178.0 0.0 144.0 
128.00006616489935 1940.0 948.0 589.2868172719392 2.246312106601649 178.0 0.0 144.0 
130.00006616489935 1945.0 951.0 587.9805547612169 2.363203048906697 177.0 0.0 143.0 
132.00006616489935 1938.0 951.0 587.9885616242461 2.4376328642821155 176.0 0.0 143.0 
134.00006616489935 1930.0 950.0 587.9919931369689 2.4095012274065666 177.0 0.0 143.0 
136.00006616489935 1946.0 952.0 588.0011438375709 2.528492202512463 177.0 0.0 143.0 
138.00006616489935 1955.0 953.0 589.3142693737409 2.800841408944327 178.0 0.0 144.0 
140.00006616489935 1931.0 950.0 589.3199885616277 2.84839123613573 176.0 0.0 144.0 
142.00006616489935 1799.0 934.0 589.3462968258481 2.5756294238748008 175.0 0.0 144.0 
144.00006616489935 1796.0 933.0 589.2708035458992 2.580775649573238 175.0 0.0 144.0 
146.00006616489935 1775.0 927.0 589.2891049470908 2.525294847404424 174.0 0.0 144.0 
148.00006616489935 1752.0 926.0 589.2319130683517 2.5212183174820946 174.0 0.0 144.0 
150.00006616489935 1756.0 927.0 589.2056048041233 2.554867330467335 174.0 0.0 144.0 
152.00006616489935 1783.0 927.0 589.3428653131335 2.158469821627284 173.0 0.0 144.0 
154.00006616489935 1782.0 926.0 589.2479267943916 1.9144052341886026 172.0 0.0 144.0 
156.00006616489935 1788.0 927.0 589.2467829568207 1.8440092170437654 173.0 0.0 144.0 
158.00006616489935 1810.0 932.0 589.2330569059251 1.9113434321194274 173.0 0.0 144.0 
160.00006616489935 1815.0 933.0 589.2399199313622 1.9148622070280525 173.0 0.0 144.0 
162.00006616489935 1982.0 953.0 589.3806119531083 1.8577451149824404 174.0 0.0 144.0 
164.00006616489935 1987.0 952.0 589.3485845009926 1.9078882940662634 175.0 0.0 144.0 
166.00006616489935 2051.0 964.0 588.0423219902701 1.8532976178724208 174.0 0.0 143.0 
168.00006616489935 2102.0 966.0 588.075493279949 2.0625853644852765 175.0 0.0 143.0 
170.00006616489935 2110.0 967.0 588.0571918787597 2.293847856099257 176.0 0.0 143.0 
172.00006616489935 2115.0 967.0 588.0571918787597 2.4899137801805495 176.0 0.0 143.0 
174.00006616489935 2114.0 967.0 589.3703174149273 2.7240275577641424 176.0 0.0 144.0 
176.00006616489935 2113.0 967.0 589.3748927652208 2.808600726351748 177.0 0.0 144.0 
178.00006616489935 2114.0 968.0 588.0606233914824 2.9615168713522517 177.0 0.0 143.0 
180.00006616489935 2105.0 965.0 586.7440663425772 3.039238455839398 175.0 0.0 142.0 
182.00006616489935 2008.0 950.0 586.794395195877 2.615550212794132 175.0 0.0 142.0 
184.00006616489935 2009.0 952.0 586.7120388904818 2.4303032258405413 174.0 0.0 142.0 
186.00006616489935 2033.0 959.0 582.7715184443714 2.35566752636941 173.0 0.0 139.0 
188.00006616489935 2028.0 955.0 584.1384043465757 2.3356038303706677 174.0 0.0 140.0 
190.00006616489935 2035.0 955.0 588.0217329139348 2.4489283102600123 175.0 0.0 143.0 
192.00006616489935 1945.0 950.0 588.1292536459738 2.338401983674038 174.0 0.0 143.0 
194.00006616489935 1941.0 951.0 588.0194452387832 2.511759450658787 173.0 0.0 143.0 
196.00006616489935 1894.0 943.0 588.0377466399741 2.445387792215094 173.0 0.0 143.0 
198.00006616489935 1850.0 942.0 587.9553903345674 2.2933420811238867 173.0 0.0 143.0 
200.00006616489935 1853.0 941.0 587.9279382327658 2.48321124492046 173.0 0.0 143.0 
202.00006616489935 1894.0 948.0 587.9771232484942 2.3196463075961455 173.0 0.0 143.0 
204.00006616489935 1894.0 949.0 590.5930797826688 2.514836189135836 175.0 0.0 145.0 
206.00006616489935 1893.0 948.0 590.5885044323755 2.3501681409142283 175.0 0.0 145.0 
208.00006616489935 1894.0 947.0 587.9599656848815 2.4349083963043343 177.0 0.0 143.0 
210.00006616489935 1891.0 946.0 587.9714040606274 2.516870717350814 177.0 0.0 143.0 
212.00006616489935 1887.0 945.0 587.9691163854636 2.6487359401903445 177.0 0.0 143.0 
214.00006616489935 1889.0 946.0 589.2891049470908 2.72092366623432 177.0 0.0 144.0 
216.00006616489935 1858.0 936.0 589.2948241349784 2.586054244329403 176.0 0.0 144.0 
218.00006616489935 1843.0 937.0 589.2673720331766 2.6801983327317522 176.0 0.0 144.0 
220.00006616489935 1837.0 935.0 586.6331140977954 2.8021453147599087 176.0 0.0 142.0 
222.00006616489935 1887.0 941.0 586.774949957114 2.4380209543235556 177.0 0.0 142.0 
224.00006616489935 1870.0 940.0 586.6777237632303 2.4081550040673725 177.0 0.0 142.0 
226.00006616489935 1888.0 941.0 586.6399771232536 2.3609599319453345 177.0 0.0 142.0 
228.00006616489935 1905.0 943.0 586.6468401486935 2.320138498747383 177.0 0.0 142.0 
230.00006616489935 1901.0 943.0 586.6445524735417 2.4070695783703098 177.0 0.0 142.0 
232.00006616489935 1857.0 934.0 586.6571346868666 2.1163511060497804 177.0 0.0 142.0 
234.00006616489935 1873.0 936.0 587.9897054618191 2.256702447709475 178.0 0.0 143.0 
236.00006616489935 1885.0 939.0 586.6502716614285 2.1691008163103054 177.0 0.0 142.0 
238.00006616489935 1898.0 943.0 587.9553903345674 2.3198723505551566 177.0 0.0 143.0 
240.00006616489935 1898.0 943.0 587.9416642836693 2.495641638481401 177.0 0.0 143.0 
242.00006616489935 1986.0 953.0 588.0137260508957 2.4885291937187417 176.0 0.0 143.0 
244.00006616489935 2087.0 962.0 588.0526165284512 2.376458430989645 175.0 0.0 143.0 
246.00006616489935 2096.0 965.0 589.3531598513066 2.442819134496275 176.0 0.0 144.0 
248.00006616489935 2114.0 967.0 589.3497283385714 2.4723712853880655 176.0 0.0 144.0 
250.00006616489935 2116.0 967.0 589.3474406634215 2.560882512367061 176.0 0.0 144.0 
252.00006616489935 1993.0 950.0 589.388618816119 2.0811844076039288 176.0 0.0 144.0 
254.00006616489935 1995.0 951.0 589.2833857592245 2.279529699992647 176.0 0.0 144.0 
256.00006616489935 1974.0 950.0 589.327995424657 2.2801082471029246 174.0 0.0 144.0 
258.00006616489935 1960.0 948.0 590.5896482699542 2.2210532072357068 175.0 0.0 145.0 
260.00006616489935 1962.0 949.0 590.5667715184485 2.4046782053106663 175.0 0.0 145.0 
262.00006616489935 2043.0 961.0 590.6605661996097 2.406342515100216 176.0 0.0 145.0 
264.00006616489935 2023.0 959.0 590.6296825850727 2.4910994556388677 176.0 0.0 145.0 
266.00006616489935 2007.0 956.0 591.9233628824777 2.5051569645313054 179.0 0.0 146.0 
268.00006616489935 2005.0 958.0 593.2239062053147 2.5240211489734294 180.0 0.0 147.0 
270.00006616489935 2004.0 959.0 593.218187017448 2.6982743099148503 181.0 0.0 147.0 
272.00006616489935 1928.0 953.0 594.5541893051237 2.6021136918979364 181.0 0.0 148.0 
274.00006616489935 1821.0 943.0 594.5324563911887 2.4408713089188088 180.0 0.0 148.0 
276.00006616489935 1888.0 957.0 595.8181298255624 2.558633917046728 180.0 1.0 148.0 
278.00006616489935 1894.0 955.0 594.5301687160453 2.5082016085935934 182.0 0.0 148.0 
280.00006616489935 1889.0 955.0 594.4901344009189 2.5496293739717952 182.0 0.0 148.0 
282.00006616489935 1940.0 964.0 593.234200743496 2.4457756979300607 183.0 0.0 147.0 
284.00006616489935 1940.0 965.0 593.2067486416946 2.462399838836815 181.0 0.0 147.0 
286.00006616489935 1941.0 964.0 593.2067486416946 2.43637794814322 180.0 0.0 147.0 
288.00006616489935 1946.0 964.0 593.2078924792731 2.413573895986694 182.0 0.0 147.0 
290.00006616489935 1961.0 968.0 594.5255933657495 2.60591945386575 182.0 0.0 148.0 
292.00006616489935 1879.0 956.0 591.9588218473025 2.4292245195756834 182.0 0.0 146.0 
294.00006616489935 1878.0 955.0 590.5438947669403 2.477917673766086 183.0 0.0 145.0 
296.00006616489935 1927.0 962.0 594.51072347726 2.6535707942423903 183.0 0.0 148.0 
298.00006616489935 1963.0 965.0 594.5621961681527 2.8139731342253516 184.0 0.0 148.0 
300.00006616489935 1962.0 965.0 594.5416070917967 2.995791602663864 182.0 0.0 148.0 
302.00006616489935 1955.0 961.0 597.1861595653384 2.845787597911164 182.0 0.0 150.0 
304.00006616489935 1955.0 961.0 598.4935659136414 2.7360766648329857 182.0 0.0 151.0 
306.00006616489935 1903.0 951.0 597.2193308550269 2.4501548323004734 181.0 0.0 150.0 
308.00006616489935 1882.0 952.0 597.1449814126413 2.251061396307283 180.0 0.0 150.0 
310.00006616489935 1889.0 953.0 599.7689448098337 2.305478967279674 182.0 0.0 152.0 
312.00006616489935 1855.0 947.0 599.7815270231584 2.1117630952195685 179.0 0.0 152.0 
314.00006616489935 1855.0 949.0 598.4260794967216 2.053213971519978 178.0 0.0 151.0 
316.00006616489935 1851.0 948.0 597.1209608235699 2.1366561855807915 177.0 0.0 150.0 
318.00006616489935 1849.0 947.0 597.1049470975229 2.3477026459603945 177.0 0.0 150.0 
320.00006616489935 1845.0 945.0 595.7998284243712 2.5833889031366533 176.0 0.0 149.0 
322.00006616489935 1898.0 951.0 595.8696025164353 2.5260418514009517 177.0 0.0 149.0 
324.00006616489935 2002.0 962.0 593.2639405204411 2.7423398008367914 176.0 0.0 147.0 
326.00006616489935 1983.0 956.0 591.9782670860651 2.7766832780655823 175.0 0.0 146.0 
328.00006616489935 1964.0 953.0 590.631970260217 2.5431118075674766 174.0 0.0 145.0 
330.00006616489935 1967.0 953.0 590.5793537317732 2.6062835692016786 174.0 0.0 145.0 
332.00006616489935 2119.0 973.0 592.0709179296558 2.6113683994705865 175.0 0.0 146.0 
334.00006616489935 2124.0 974.0 591.9828424363795 2.5202857733446864 176.0 0.0 146.0 
336.00006616489935 2098.0 969.0 593.3028309980073 2.528912166486538 178.0 0.0 147.0 
338.00006616489935 2113.0 973.0 593.2788104089287 2.6314942324663275 179.0 0.0 147.0 
340.00006616489935 2110.0 971.0 593.2742350586143 2.7875001491575557 179.0 0.0 147.0 
342.00006616489935 2085.0 964.0 593.2696597083265 2.7545869883383687 180.0 0.0 147.0 
344.00006616489935 2094.0 966.0 591.95767800973 2.859884904762649 179.0 0.0 146.0 
346.00006616489935 2101.0 969.0 590.6502716614287 2.9573853589917687 178.0 0.0 145.0 
348.00006616489935 2110.0 971.0 591.9691163854633 3.090997958595009 179.0 0.0 146.0 
350.00006616489935 2108.0 969.0 591.9531026594157 3.134232063767083 179.0 0.0 146.0 
352.00006616489935 2054.0 961.0 591.9828424363795 3.0038540942850878 177.0 0.0 146.0 
354.00006616489935 1941.0 951.0 591.9485273091278 3.012920865795089 176.0 0.0 146.0 
356.00006616489935 1924.0 949.0 595.8730340291711 3.0602029363538583 179.0 0.0 149.0 
358.00006616489935 1900.0 945.0 595.8924792679404 2.9214911080336257 179.0 0.0 149.0 
360.00006616489935 1903.0 946.0 595.8055476122298 2.9971131157998814 180.0 0.0 149.0 
362.00006616489935 1788.0 935.0 595.9267943951928 2.4395938663356453 181.0 0.0 149.0 
364.00006616489935 1780.0 934.0 595.7655132971115 2.2582410217492184 181.0 0.0 149.0 
366.00006616489935 1816.0 941.0 597.0855018587392 2.1968797016437764 179.0 0.0 150.0 
368.00006616489935 1863.0 947.0 598.4375178724545 2.232130840353463 181.0 0.0 151.0 
370.00006616489935 1860.0 947.0 599.7414927080322 2.302239984215901 182.0 0.0 152.0 
372.00006616489935 1864.0 946.0 598.4398055476172 2.2581155498225773 181.0 0.0 151.0 
374.00006616489935 1856.0 943.0 597.1186731484185 2.339193168800707 180.0 0.0 150.0 
376.00006616489935 1845.0 941.0 598.4512439233711 2.2527189032051465 180.0 0.0 151.0 
378.00006616489935 1850.0 941.0 598.4340863597317 2.2512480651772493 180.0 0.0 151.0 
380.00006616489935 1851.0 941.0 598.4363740348812 2.538782011250345 181.0 0.0 151.0 
382.00006616489935 1848.0 941.0 598.4386617100463 2.635353766369372 181.0 0.0 151.0 
384.00006616489935 1851.0 943.0 598.4409493851906 2.552612859758854 181.0 0.0 151.0 
386.00006616489935 1907.0 953.0 598.4523877609445 2.6997997091649206 181.0 0.0 151.0 
388.00006616489935 1933.0 953.0 598.4809837003166 2.7753814531703513 182.0 0.0 151.0 
390.00006616489935 1931.0 953.0 598.4718329997065 2.905031236640585 182.0 0.0 151.0 
392.00006616489935 1888.0 944.0 598.4969974263634 2.6142730375140384 181.0 0.0 151.0 
394.00006616489935 1880.0 942.0 597.1461252502198 2.6390648838025377 180.0 0.0 150.0 
396.00006616489935 1830.0 934.0 594.5381755790743 2.579852190663105 178.0 0.0 148.0 
398.00006616489935 1788.0 927.0 594.5061481269661 2.3176234290366464 179.0 0.0 148.0 
400.00006616489935 1772.0 925.0 593.1381183871831 2.461844126327977 179.0 0.0 147.0 
402.00006616489935 1889.0 941.0 593.3051186731516 2.302121243287536 179.0 0.0 147.0 
404.00006616489935 1919.0 942.0 593.2833857592245 2.302112842125064 179.0 0.0 147.0 
406.00006616489935 2031.0 955.0 594.5999428081277 2.405336691738294 181.0 0.0 148.0 
408.00006616489935 2021.0 951.0 597.2239062053147 2.399602005748344 181.0 0.0 150.0 
410.00006616489935 2034.0 952.0 597.2021732913876 2.483202770965826 181.0 0.0 150.0 
412.00006616489935 2034.0 952.0 597.2056048041235 2.4708483978450295 181.0 0.0 150.0 
414.00006616489935 2054.0 958.0 595.9039176436871 2.5926886565808567 181.0 0.0 149.0 
416.00006616489935 2001.0 949.0 595.9450957964048 2.5991185226866236 181.0 0.0 149.0 
418.00006616489935 1971.0 948.0 593.2525021446876 2.554189234076232 181.0 0.0 147.0 
420.00006616489935 1970.0 947.0 593.2387760937895 2.7398102127048203 181.0 0.0 147.0 
422.00006616489935 1967.0 947.0 593.2399199313621 2.7957164081445054 179.0 0.0 147.0 
424.00006616489935 1964.0 945.0 591.924506720051 2.8065434971876213 179.0 0.0 146.0 
426.00006616489935 1964.0 945.0 589.2948241349783 2.9207775568672023 176.0 0.0 144.0 
428.00006616489935 1972.0 947.0 589.2833857592245 2.898058627215718 175.0 0.0 144.0 
430.00006616489935 1975.0 947.0 589.2730912210411 3.0329187094619297 175.0 0.0 144.0 
432.00006616489935 1850.0 927.0 589.337146125246 2.454736894429608 173.0 0.0 144.0 
434.00006616489935 1809.0 923.0 587.931369745489 2.3754895340977127 172.0 0.0 143.0 
436.00006616489935 1746.0 919.0 586.6079496711379 2.0844516829087105 170.0 0.0 142.0 
438.00006616489935 1770.0 926.0 586.6525593365784 2.0673996089473667 169.0 0.0 142.0 
440.00006616489935 1759.0 925.0 586.5839290820668 2.0619147413792156 168.0 0.0 142.0 
442.00006616489935 1889.0 943.0 585.382899628252 2.09799642360251 170.0 0.0 141.0 
444.00006616489935 1884.0 944.0 586.6376894481037 2.272564022004655 170.0 0.0 142.0 
446.00006616489935 1892.0 947.0 586.6331140977954 2.271799440949193 172.0 0.0 142.0 
448.00006616489935 1901.0 947.0 585.3245639119215 2.3541102418713375 172.0 0.0 141.0 
450.00006616489935 1904.0 947.0 585.3268515870659 2.479655860281696 174.0 0.0 141.0 
452.00006616489935 1903.0 946.0 586.6388332856749 2.3900681810958724 174.0 0.0 142.0 
454.00006616489935 1903.0 947.0 585.3325707749533 2.3365638895121092 173.0 0.0 141.0 
456.00006616489935 1908.0 947.0 585.3405776379816 2.4426704813583497 173.0 0.0 141.0 
458.00006616489935 1906.0 946.0 586.6479839862645 2.583996034831162 174.0 0.0 142.0 
460.00006616489935 1908.0 948.0 582.7040320274506 2.6618866456166104 174.0 0.0 139.0 
462.00006616489935 1911.0 950.0 582.7017443523068 2.7029961689138133 174.0 0.0 139.0 
464.00006616489935 1906.0 948.0 582.7040320274506 2.6937785924777304 175.0 0.0 139.0 
466.00006616489935 1868.0 941.0 584.0491850157287 2.6998809914443767 176.0 0.0 140.0 
468.00006616489935 1829.0 936.0 584.0125822133247 2.4357973208481436 176.0 0.0 140.0 
470.00006616489935 1829.0 936.0 583.9782670860652 2.5217048767352095 176.0 0.0 140.0 
472.00006616489935 1781.0 931.0 585.3897626537101 2.0957741245860446 175.0 0.0 141.0 
474.00006616489935 1782.0 933.0 583.9359450958021 2.1375560627443777 175.0 0.0 140.0 
476.00006616489935 1787.0 933.0 583.9382327709467 2.171742846295923 175.0 0.0 140.0 
478.00006616489935 1798.0 937.0 583.9382327709467 2.2582148898073338 176.0 0.0 140.0 
480.00006616489935 1797.0 937.0 582.63540177294 2.3825178848702264 175.0 0.0 139.0 
482.00006616489935 1847.0 945.0 584.0366028024039 2.4093518202241855 176.0 0.0 140.0 
484.00006616489935 1840.0 943.0 581.4149270803595 2.4856078316777674 176.0 0.0 138.0 
486.00006616489935 1910.0 947.0 581.3863311409749 2.3398675007407377 176.0 0.0 138.0 
488.00006616489935 1935.0 948.0 581.3851873033965 2.3063082083883146 177.0 0.0 138.0 
490.00006616489935 1977.0 955.0 582.709751215318 2.377622437619672 178.0 0.0 139.0 
492.00006616489935 1978.0 955.0 582.7074635401735 2.412425185672623 179.0 0.0 139.0 
494.00006616489935 1978.0 956.0 582.6948813268489 2.4137032621619876 176.0 0.0 139.0 
496.00006616489935 2027.0 963.0 582.709751215318 2.3907192447103687 174.0 0.0 139.0 
498.00006616489935 2061.0 965.0 582.7326279668238 2.6800470923261104 174.0 0.0 139.0 
500.00006616489935 2065.0 966.0 582.7406348298546 2.863132118124584 174.0 0.0 139.0 
502.00006616489935 1990.0 953.0 582.784100657716 2.659063033782097 174.0 0.0 139.0 
504.00006616489935 1986.0 952.0 582.7086073777471 2.7813518031342386 174.0 0.0 139.0 
506.00006616489935 2023.0 959.0 581.4149270803596 2.856144541799196 171.0 0.0 138.0 
508.00006616489935 2051.0 963.0 581.4320846439806 2.9643130083285825 170.0 0.0 138.0 
510.00006616489935 2053.0 964.0 581.4343723191243 3.0788593954231978 170.0 0.0 138.0 
512.0000661648994 2009.0 957.0 581.4732627966783 2.8814892932077667 169.0 0.0 138.0 
514.0000661648994 2000.0 956.0 581.4069202173312 2.8137018550227784 169.0 0.0 138.0 
516.0000661648994 1914.0 948.0 585.3611667143251 2.71324569523943 172.0 0.0 141.0 
518.0000661648994 1889.0 945.0 585.3291392622298 2.7190819527523593 173.0 0.0 141.0 
520.0000661648994 1860.0 942.0 583.9977123248564 2.6593373619577143 173.0 0.0 140.0 
522.0000661648994 1901.0 949.0 582.7372033171318 2.607426382528324 175.0 0.0 139.0 
524.0000661648994 1906.0 951.0 584.0251644266494 2.544633525104298 175.0 0.0 140.0 
526.0000661648994 1855.0 940.0 584.0423219902704 2.5337088489130193 175.0 0.0 140.0 
528.0000661648994 1827.0 940.0 583.9862739491042 2.569432096479347 174.0 0.0 140.0 
530.0000661648994 1833.0 941.0 587.931369745489 2.655576416637746 177.0 0.0 143.0 
532.0000661648994 1830.0 940.0 587.9233628824776 2.600142500470547 175.0 0.0 143.0 
534.0000661648994 1828.0 940.0 587.9222190448994 2.769618864646415 175.0 0.0 143.0 
536.0000661648994 1795.0 933.0 587.9508149842713 2.634966554889166 174.0 0.0 143.0 
538.0000661648994 1764.0 929.0 591.8581641407019 2.2732081400413415 177.0 0.0 146.0 
540.0000661648994 1773.0 930.0 591.836431226775 2.268782265684484 178.0 0.0 146.0 
542.0000661648994 1836.0 940.0 593.2170431798756 2.2227882683723323 179.0 0.0 147.0 
544.0000661648994 1849.0 941.0 593.1953102659485 2.299868412666972 179.0 0.0 147.0 
546.0000661648994 1852.0 943.0 593.1861595653384 2.376851775495032 180.0 0.0 147.0 
548.0000661648994 1866.0 947.0 594.5038604518218 2.5065394043437528 180.0 0.0 148.0 
550.0000661648994 1867.0 946.0 594.4958535887849 2.6321947122993645 181.0 0.0 148.0 
552.0000661648994 1908.0 948.0 595.8981984558283 2.4598579485555536 181.0 0.0 149.0 
554.0000661648994 1895.0 944.0 595.8204175007065 2.436619848655023 181.0 0.0 149.0 
556.0000661648994 1892.0 943.0 595.815842150411 2.369550274580864 181.0 0.0 149.0 
558.0000661648994 1913.0 946.0 595.8913354303623 2.4319948945695113 181.0 0.0 149.0 
560.0000661648994 1928.0 949.0 595.847869602521 2.569177661751807 181.0 0.0 149.0 
562.0000661648994 2051.0 963.0 594.5953674578132 2.5210057274027524 182.0 0.0 148.0 
564.0000661648994 2063.0 964.0 594.5759222190508 2.592495531734051 181.0 0.0 148.0 
566.0000661648994 2074.0 967.0 594.5793537317732 2.6305490253165043 180.0 0.0 148.0 
568.0000661648994 2076.0 968.0 595.885616242496 2.812582758628279 181.0 0.0 149.0 
570.0000661648994 2065.0 967.0 595.8821847297598 2.9575043494399282 181.0 0.0 149.0 
572.0000661648994 1993.0 954.0 595.9062053188383 2.6979441224489893 181.0 0.0 149.0 
574.0000661648994 1969.0 951.0 594.5267372033222 2.6931820628404846 181.0 0.0 148.0 
576.0000661648994 2003.0 956.0 594.5393194166469 2.746643375273997 182.0 0.0 148.0 
578.0000661648994 2030.0 963.0 593.2605090077163 2.6915840878795403 183.0 0.0 147.0 
580.0000661648994 2045.0 965.0 593.2582213325744 2.861476213935242 183.0 0.0 147.0 
582.0000661648994 1965.0 954.0 594.6022304832788 2.5422598630703335 183.0 0.0 148.0 
584.0000661648994 1980.0 957.0 594.5404632542256 2.705477377865467 183.0 0.0 148.0 
586.0000661648994 1977.0 955.0 594.5438947669403 2.73066768425137 181.0 0.0 148.0 
588.0000661648994 1972.0 956.0 594.5644838432972 2.755187174739019 179.0 0.0 148.0 
590.0000661648994 1955.0 954.0 594.5530454675504 2.8922920226779816 180.0 0.0 148.0 
592.0000661648994 1840.0 941.0 595.8981984558283 2.5710420704251082 181.0 0.0 149.0 
594.0000661648994 1825.0 940.0 595.8272805261647 2.4039976367877838 180.0 0.0 149.0 
596.0000661648994 1813.0 937.0 595.7895338861906 2.317399125965883 179.0 0.0 149.0 
598.0000661648994 1823.0 939.0 595.7803831855805 2.4227618535653037 179.0 0.0 149.0 
600.0000661648994 1827.0 937.0 594.4535315985153 2.4634375972815645 178.0 0.0 148.0 
602.0000661648994 1874.0 947.0 595.8410065770605 2.437128687140517 178.0 0.0 149.0 
604.0000661648994 1874.0 947.0 597.1266800114362 2.5979836171984365 178.0 0.0 150.0 
606.0000661648994 1893.0 954.0 597.1724335144427 2.4750147679863455 179.0 0.0 150.0 
608.0000661648994 1880.0 944.0 598.4798398627435 2.3350971043513886 181.0 0.0 151.0 
610.0000661648994 1866.0 943.0 598.4272233342928 2.409575273069588 181.0 0.0 151.0 
612.0000661648994 1916.0 949.0 599.8055476122297 2.393639877637629 182.0 0.0 152.0 
614.0000661648994 1926.0 954.0 599.7769516728652 2.4053302343867955 183.0 0.0 152.0 
616.0000661648994 1944.0 956.0 598.4695453245622 2.4366726394845952 182.0 0.0 151.0 
618.0000661648994 1938.0 956.0 597.1484129253635 2.3667907877939305 178.0 0.0 150.0 
620.0000661648994 1945.0 956.0 597.139262224761 2.5499740240967217 178.0 0.0 150.0 
622.0000661648994 1953.0 958.0 598.4832713754602 2.6883894287275 179.0 0.0 151.0 
624.0000661648994 1952.0 957.0 598.4752645124286 2.7801484585472913 179.0 0.0 151.0 
626.0000661648994 1942.0 956.0 599.7826708607314 2.9605797225804844 179.0 0.0 152.0 
628.0000661648994 1947.0 957.0 597.1529882756589 3.0135637210157724 180.0 0.0 150.0 
630.0000661648994 1953.0 958.0 597.1701458392984 2.9951374571032097 181.0 0.0 150.0 
632.0000661648994 1974.0 954.0 597.2582213325744 2.7816473139776283 181.0 0.0 150.0 
634.0000661648994 2000.0 955.0 598.4935659136414 2.862576510769172 181.0 0.0 151.0 
636.0000661648994 1959.0 943.0 595.9096368315744 2.6789820759634866 180.0 0.0 149.0 
638.0000661648994 1946.0 947.0 598.4821275378869 2.5215736945878464 181.0 0.0 151.0 
640.0000661648994 1932.0 943.0 598.448956248206 2.6248859251292473 181.0 0.0 151.0 
642.0000661648994 1879.0 937.0 598.488990563346 2.393083344583289 179.0 0.0 151.0 
644.0000661648994 1863.0 932.0 598.4432370603417 2.3048054519243157 180.0 0.0 151.0 
646.0000661648994 1930.0 942.0 599.7735201601431 2.165573061243819 180.0 0.0 152.0 
648.0000661648994 1979.0 949.0 606.4054904203655 2.319271107091836 182.0 0.0 157.0 
650.0000661648994 2004.0 956.0 606.3814698312885 2.435672854169709 182.0 0.0 157.0 
652.0000661648994 2009.0 956.0 606.4272233342929 2.4452098351098517 183.0 0.0 157.0 
654.0000661648994 2004.0 956.0 605.1118101229596 2.5461976632681775 183.0 0.0 156.0 
656.0000661648994 2008.0 954.0 605.0900772090325 2.430605488745983 183.0 0.0 156.0 
658.0000661648994 2017.0 956.0 605.0980840720646 2.544535764662963 183.0 0.0 156.0 
660.0000661648994 2018.0 955.0 607.735773520167 2.6750599346229835 184.0 0.0 158.0 
662.0000661648994 2030.0 958.0 607.8295682013089 2.654799194240615 184.0 0.0 158.0 
664.0000661648994 2007.0 957.0 606.412353445804 2.677084522493662 185.0 0.0 157.0 
#####################################################################
# End of data export. Simulation finished at: 2019-03-04T15:07+0000 #
#####################################################################
