#####################################################################
# Alchemist log file - simulation started at: 2019-03-06T00:57+0000 #
#####################################################################
# seed = 1.0, bandwidth = 5623413.251903491, accessPointCount = 274.2481756762073, baserange = 31.622776601683796
#
# The columns have the following meaning: 
# time neighbor_count[Sum] <value>@neighbor_count[Sum] packet_size[Mean] mean_delay[Mean] crowd[Sum] overcrowded[Sum] risk[Sum] 
0.0 NaN NaN NaN NaN NaN NaN NaN 
10.000097218150408 99.0 33.0 4984.937323546019 0.5067856492988758 1497.0 0.0 1497.0 
20.000097218150408 104.0 33.0 4985.038961038961 0.5107055486686779 1497.0 0.0 1497.0 
30.000097218150408 106.0 34.0 4984.867306606437 0.5059443217429267 1497.0 0.0 1497.0 
40.00009721815041 108.0 34.0 4985.000564652739 0.510421072364568 1497.0 0.0 1497.0 
50.00009721815041 114.0 35.0 4984.75211744777 0.5101131580669211 1497.0 0.0 1497.0 
60.00009721815041 114.0 35.0 4984.955392433653 0.5101120422837615 1497.0 0.0 1497.0 
70.00041737428027 108.0 34.0 438.920383963862 0.5113995907637771 21.0 0.0 15.0 
80.00041737428027 110.0 35.0 438.920383963862 0.5109584091506933 20.0 0.0 15.0 
90.00041737428027 110.0 35.0 438.920383963862 0.5109584091506933 18.0 0.0 15.0 
100.00041737428027 110.0 35.0 438.920383963862 0.5109584091506933 18.0 0.0 15.0 
110.00041737428027 108.0 35.0 438.9136081309995 0.5110679575181488 18.0 0.0 15.0 
120.00041737428027 108.0 35.0 438.9136081309995 0.5110679575181488 18.0 0.0 15.0 
130.0004173742803 108.0 35.0 431.1417278373804 0.5110993373101962 15.0 0.0 12.0 
140.0004173742803 106.0 34.0 431.1417278373804 0.5112429326820647 15.0 0.0 12.0 
150.0004173742803 106.0 34.0 431.1417278373804 0.5112429326820647 15.0 0.0 12.0 
160.0004173742803 106.0 34.0 431.1417278373804 0.5112429326820647 15.0 0.0 12.0 
170.0004173742803 104.0 33.0 431.1417278373804 0.5117047312069005 15.0 0.0 12.0 
180.0004173742803 104.0 33.0 431.1417278373804 0.5117047312069005 15.0 0.0 12.0 
190.0004173742803 106.0 34.0 431.1417278373804 0.5112429326820647 15.0 0.0 12.0 
200.0004173742803 104.0 33.0 431.1417278373804 0.5117047312069005 15.0 0.0 12.0 
210.0004173742803 104.0 33.0 431.1417278373804 0.5117047312069005 15.0 0.0 12.0 
220.0004173742803 106.0 34.0 431.1417278373804 0.5112429326820647 15.0 0.0 12.0 
230.0004173742803 106.0 34.0 431.1417278373804 0.5112429326820647 15.0 0.0 12.0 
240.0004173742803 104.0 33.0 431.1417278373804 0.5117047312069005 15.0 0.0 12.0 
250.0004173742803 106.0 34.0 431.1417278373804 0.5112429326820647 15.0 0.0 12.0 
260.0004173742803 108.0 35.0 431.1417278373804 0.5108159868760794 15.0 0.0 12.0 
270.0004173742803 106.0 34.0 431.1417278373804 0.5112429326820596 15.0 0.0 12.0 
280.0004173742803 108.0 35.0 431.1417278373804 0.5108159868760794 15.0 0.0 12.0 
290.0004173742803 110.0 35.0 431.1417278373804 0.511021250809219 15.0 0.0 12.0 
300.0004173742803 112.0 36.0 431.1417278373804 0.5106104218467882 15.0 0.0 12.0 
310.0004173742803 110.0 35.0 431.1417278373804 0.511021250809219 15.0 0.0 12.0 
320.0004173742803 112.0 36.0 431.1417278373804 0.5106104218467882 15.0 0.0 12.0 
330.0004173742803 118.0 38.0 433.73235460191995 0.5100158639207274 17.0 0.0 13.0 
340.0004173742803 112.0 36.0 433.73235460191995 0.5106104218467882 16.0 0.0 13.0 
350.0004173742803 112.0 36.0 433.73235460191995 0.5106104218467882 16.0 0.0 13.0 
360.0004173742803 112.0 36.0 433.73235460191995 0.5661659774023438 16.0 0.0 13.0 
370.0004173742803 112.0 36.0 433.73235460191995 0.5106104218467882 16.0 0.0 13.0 
380.0004173742803 112.0 36.0 433.73235460191995 0.5489873634742536 16.0 0.0 13.0 
390.0004173742803 110.0 36.0 431.1417278373804 0.5116665727679723 15.0 0.0 12.0 
400.0004173742803 111.0 37.0 431.1417278373804 0.5533072908155242 15.0 0.0 12.0 
410.0004173742803 114.0 37.0 431.1417278373804 0.5114492800866338 15.0 0.0 12.0 
420.0004173742803 112.0 36.0 431.1417278373804 0.5118840125871261 15.0 0.0 12.0 
430.0004173742803 110.0 36.0 431.1417278373804 0.5107965976159274 15.0 0.0 12.0 
440.0004173742803 112.0 36.0 431.1417278373804 0.5118840125871261 15.0 0.0 12.0 
450.0004173742803 114.0 37.0 431.1417278373804 0.5114492800866338 15.0 0.0 12.0 
460.0004173742803 114.0 37.0 431.1417278373804 0.5114492800866338 15.0 0.0 12.0 
470.0004173742803 116.0 37.0 431.1417278373804 0.5104123319094712 15.0 0.0 12.0 
480.0004173742803 114.0 36.0 431.1417278373804 0.5108079342900705 15.0 0.0 12.0 
490.0004173742803 114.0 36.0 431.1417278373804 0.5108079342900705 15.0 0.0 12.0 
500.0004173742803 114.0 36.0 431.1417278373804 0.5108079342900705 15.0 0.0 12.0 
510.0004173742803 114.0 36.0 431.1417278373804 0.5108079342900705 15.0 0.0 12.0 
520.0004173742802 120.0 37.0 438.92715979672477 0.5104636676919453 18.0 0.0 15.0 
530.0004173742802 116.0 37.0 438.920383963862 0.5102175928957322 18.0 0.0 15.0 
540.0004173742802 118.0 37.0 438.920383963862 0.5105420041930614 18.0 0.0 15.0 
550.0004173742802 119.0 38.0 438.920383963862 0.504881289073266 18.0 0.0 15.0 
560.0004173742802 120.0 38.0 438.920383963862 0.5101629636441537 18.0 0.0 15.0 
570.0004173742802 125.0 40.0 438.920383963862 0.51625294322353 19.0 0.0 15.0 
580.0004173742802 128.0 40.0 441.5516657255787 0.5491353512704812 19.0 0.0 16.0 
590.0004173742802 126.0 39.0 438.9497459062676 0.509696826628267 19.0 0.0 15.0 
600.0004173742802 124.0 39.0 438.9203839638619 0.5092897702762521 19.0 0.0 15.0 
610.0004173742802 123.0 39.0 438.92490118577086 0.5111142571309688 18.0 0.0 15.0 
620.0004173742802 119.0 38.0 438.9203839638619 0.6012912952245769 18.0 0.0 15.0 
630.0004173742802 120.0 38.0 438.9136081309995 0.5048752894598082 20.0 0.0 15.0 
640.0004173742802 122.0 38.0 436.32298136645943 0.5394994800985174 19.0 0.0 14.0 
650.0004173742802 130.0 39.0 444.17843026538674 0.5149725594907822 20.0 0.0 17.0 
660.0004173742802 124.0 39.0 446.71710897797857 0.5222315588457539 21.0 0.0 18.0 
#####################################################################
# End of data export. Simulation finished at: 2019-03-06T01:04+0000 #
#####################################################################
