#####################################################################
# Alchemist log file - simulation started at: 2019-03-12T10:01+0000 #
#####################################################################
# seed = 5.0, bandwidth = 4216.965034285822, accessPointCount = 72.92664737217109, baserange = 100.0
#
# The columns have the following meaning: 
# time neighbor_count[Sum] <value>@neighbor_count[Sum] packet_size[Mean] mean_delay[Mean] crowd[Sum] overcrowded[Sum] risk[Sum] 
0.0 NaN NaN NaN NaN NaN NaN NaN 
2.000006022706755 10.0 6.0 4986.911408540472 0.25072065976795666 1497.0 0.0 1497.0 
4.000054491034843 53.0 26.0 4987.166347992352 0.9881356953735494 1497.0 0.0 1497.0 
6.000054491034843 88.0 39.0 4987.217335882728 1.2792662714299632 1497.0 0.0 1497.0 
8.000054491034842 92.0 39.0 4987.202039515615 1.7749231230567157 1497.0 0.0 1497.0 
10.000054491034842 181.0 53.0 4987.3422562141495 1.3025895553314681 1497.0 0.0 1497.0 
12.000054491034842 190.0 54.0 4987.370299553856 1.961399287199438 1497.0 0.0 1497.0 
14.000054491034842 269.0 64.0 4987.459528362014 2.1564137123507052 1497.0 0.0 1497.0 
16.00005449103484 269.0 64.0 4987.507966857871 2.7904245178548135 1497.0 0.0 1497.0 
18.00005449103484 270.0 64.0 4987.477374123646 2.951222884747273 1497.0 0.0 1497.0 
20.00005449103484 270.0 64.0 4987.403441682601 2.7916308001530488 1497.0 0.0 1497.0 
22.00005449103484 270.0 64.0 4987.474824729127 2.925744203080899 1497.0 0.0 1497.0 
24.00005449103484 522.0 83.0 4987.676226896112 3.391990212279654 1497.0 0.0 1497.0 
26.00005449103484 586.0 83.0 4987.671128107075 2.843590008116454 1497.0 0.0 1497.0 
28.00005449103484 586.0 83.0 4987.673677501593 2.619897076575024 1497.0 0.0 1497.0 
30.00005449103484 586.0 83.0 4987.609942638624 3.5330909623804954 1497.0 0.0 1497.0 
32.000054491034845 586.0 83.0 4987.536010197578 4.520716409094162 1497.0 0.0 1497.0 
34.000054491034845 586.0 83.0 4987.581899298916 5.22573990978744 1497.0 0.0 1497.0 
36.000054491034845 586.0 83.0 4987.59719566603 5.986034336110285 1497.0 0.0 1497.0 
38.000054491034845 582.0 82.0 4987.671128107075 4.183792574123028 1496.0 1.0 1496.0 
40.000054491034845 582.0 82.0 4987.691523263225 5.272660337478938 1496.0 1.0 1496.0 
42.000054491034845 582.0 82.0 4987.727214786488 5.950511894708467 1496.0 1.0 1496.0 
44.000054491034845 583.0 83.0 4987.6481835564055 7.072840315153906 1496.0 1.0 1496.0 
46.000054491034845 584.0 83.0 4987.7603569152325 5.360617934963686 1496.0 1.0 1496.0 
48.000054491034845 583.0 82.0 4987.673677501593 2.9843935139490942 1496.0 1.0 1496.0 
50.000054491034845 582.0 82.0 4987.487571701721 2.3459530978779624 1497.0 0.0 1497.0 
52.000054491034845 582.0 82.0 4987.548757170172 3.1683510062615063 1497.0 0.0 1497.0 
54.000054491034845 582.0 82.0 4987.538559592097 3.7435820294626825 1497.0 0.0 1497.0 
56.000054491034845 582.0 82.0 4987.569152326322 3.6644191072901484 1497.0 0.0 1497.0 
58.000054491034845 582.0 82.0 4987.57425111536 4.270065831830305 1497.0 0.0 1497.0 
60.000054491034845 582.0 82.0 4987.576800509879 5.500746002623542 1497.0 0.0 1497.0 
62.00010179366992 582.0 82.0 493.93499043977016 4.47053853684226 71.0 0.0 32.0 
64.00010179366993 582.0 82.0 493.9502868068833 3.9935538230153873 52.0 0.0 32.0 
66.00010179366993 582.0 82.0 493.8789037603573 4.484939682522896 52.0 0.0 32.0 
68.00010179366993 582.0 82.0 493.86870618228147 5.175563478828556 49.0 0.0 32.0 
70.00010179366993 582.0 82.0 493.8789037603573 2.6463328791212546 48.0 0.0 32.0 
72.00010179366993 582.0 82.0 493.86615678776286 2.128088007166766 47.0 1.0 31.0 
74.00010179366993 582.0 82.0 493.88910133843217 1.2669326676781423 46.0 1.0 31.0 
76.00010179366993 582.0 82.0 493.87380497131903 1.8247042414365937 45.0 1.0 31.0 
78.00010179366993 582.0 82.0 493.87380497131903 2.43599263476691 44.0 1.0 31.0 
80.00010179366993 582.0 82.0 493.87380497131903 3.047281028097227 44.0 1.0 31.0 
82.00010179366993 582.0 82.0 493.8789037603573 2.934045539319769 44.0 1.0 31.0 
84.00010179366993 582.0 82.0 493.84831102613157 3.478501219473646 44.0 1.0 31.0 
86.00010179366993 582.0 82.0 493.85340981516913 3.2070041718901034 44.0 1.0 31.0 
88.00010179366993 582.0 82.0 493.84831102613157 3.8182925652204216 44.0 1.0 31.0 
90.00010179366993 582.0 82.0 493.84831102613157 4.344435498829488 44.0 1.0 31.0 
92.00010179366993 582.0 82.0 493.8610579987253 3.59915059835343 40.0 5.0 27.0 
94.00010179366993 586.0 83.0 493.83046526449965 1.581622191844234 38.0 7.0 25.0 
96.00010179366993 586.0 83.0 493.8151688973867 2.117656448265487 38.0 7.0 25.0 
98.00010179366993 586.0 83.0 493.8151688973867 1.9406604016564377 38.0 7.0 25.0 
100.00010179366993 586.0 83.0 493.80752071383034 1.9353086014535643 38.0 7.0 25.0 
102.00010179366993 586.0 83.0 493.80242192479295 2.515697905892889 38.0 7.0 25.0 
104.00010179366993 586.0 83.0 493.80242192479295 3.1870775703068244 38.0 7.0 25.0 
106.00010179366993 586.0 83.0 493.8151688973867 3.8119637697922295 38.0 7.0 25.0 
108.00010179366993 586.0 83.0 493.79477374123684 4.385163228239937 38.0 7.0 25.0 
110.00010179366993 586.0 83.0 493.79477374123684 3.782885823341924 38.0 7.0 25.0 
112.00010179366993 586.0 83.0 493.79477374123684 4.450738261581359 38.0 7.0 25.0 
114.00010179366993 586.0 83.0 493.79477374123684 5.171621002851096 38.0 7.0 25.0 
116.00010179366993 586.0 83.0 493.8126195028686 3.1385953978180297 38.0 7.0 25.0 
118.00010179366993 586.0 83.0 493.83301465901843 2.7145790419761653 39.0 6.0 26.0 
120.00010179366993 590.0 84.0 493.8228170809434 3.3542677242376238 38.0 6.0 26.0 
122.00010179366993 589.0 84.0 493.8228170809434 3.1505092608694096 38.0 6.0 26.0 
124.00010179366993 587.0 83.0 493.8228170809434 3.284342563235125 38.0 6.0 26.0 
126.00010179366993 588.0 84.0 493.8228170809434 3.7803293755959566 38.0 6.0 26.0 
128.00010179366993 589.0 84.0 493.8228170809434 4.02326258102869 38.0 6.0 26.0 
130.00010179366993 588.0 86.0 493.8228170809434 4.400002985501882 38.0 6.0 26.0 
132.00010179366993 585.0 85.0 493.8228170809434 4.620770481479575 38.0 6.0 26.0 
134.00010179366993 583.0 84.0 493.8228170809434 4.19447477593714 38.0 6.0 26.0 
136.00010179366993 580.0 84.0 493.8228170809434 4.18569039817283 38.0 6.0 26.0 
138.00010179366993 585.0 83.0 496.77246653919707 3.697433392335349 39.0 6.0 27.0 
140.00010179366993 594.0 83.0 496.7954110898664 1.7374540777459258 36.0 9.0 24.0 
142.00010179366993 594.0 83.0 496.7393244104521 2.2831963082417657 36.0 9.0 24.0 
144.00010179366993 594.0 83.0 496.7393244104521 2.9192413871738414 36.0 9.0 24.0 
146.00010179366993 594.0 83.0 496.7393244104521 2.332602483421935 36.0 9.0 24.0 
148.00010179366993 594.0 83.0 496.7393244104521 2.947375078902109 36.0 9.0 24.0 
150.00010179366993 594.0 83.0 496.7444231994902 3.5845684675356813 36.0 9.0 24.0 
152.00010179366993 594.0 83.0 496.7393244104521 4.2584923343465455 36.0 9.0 24.0 
154.00010179366993 594.0 83.0 496.7393244104521 4.583368582109789 36.0 9.0 24.0 
156.00010179366993 594.0 83.0 496.7393244104521 5.117958871766494 36.0 9.0 24.0 
158.00010179366993 593.0 83.0 496.7444231994902 4.798364284038015 36.0 9.0 24.0 
160.00010179366993 590.0 82.0 496.7495219885277 5.375480210552075 36.0 9.0 24.0 
162.00010179366993 601.0 83.0 496.7393244104521 5.589845686043805 36.0 9.0 24.0 
164.00010179366993 606.0 82.0 496.77246653919707 2.081442101517462 35.0 10.0 23.0 
166.00010179366993 606.0 82.0 493.8279158699811 2.627661511208664 34.0 10.0 22.0 
168.00010179366993 604.0 81.0 493.8228170809436 2.988810785449728 34.0 10.0 22.0 
170.00010179366993 602.0 81.0 493.8279158699811 2.5562810020110414 34.0 10.0 22.0 
172.00010179366993 602.0 81.0 493.8177182919054 2.6618553772578797 34.0 10.0 22.0 
174.00010179366993 602.0 81.0 493.8177182919054 3.230313597631554 34.0 10.0 22.0 
176.00010179366993 602.0 81.0 493.8177182919054 3.8364665220550727 34.0 10.0 22.0 
178.00010179366993 600.0 80.0 493.8177182919054 3.994126895266624 34.0 10.0 22.0 
180.00010179366993 600.0 80.0 493.8228170809436 4.483254161107733 34.0 10.0 22.0 
182.00010179366993 600.0 80.0 493.8177182919054 3.68639503239102 34.0 10.0 22.0 
184.00010179366993 600.0 80.0 493.8177182919054 4.321554044263874 34.0 10.0 22.0 
186.00010179366993 600.0 80.0 493.8177182919054 4.407437792236475 34.0 10.0 22.0 
188.00010179366993 602.0 80.0 493.83046526449976 1.6052683662405047 35.0 9.0 23.0 
190.00010179366993 602.0 80.0 490.89356277884 1.7087563062933635 35.0 9.0 22.0 
192.00010179366993 602.0 80.0 490.87316762268995 2.20875040315557 35.0 9.0 22.0 
194.00010179366993 602.0 80.0 490.87316762268995 1.9602563831998174 35.0 9.0 22.0 
196.00010179366993 602.0 80.0 490.87316762268995 2.472903723737472 35.0 9.0 22.0 
198.00010179366993 602.0 80.0 490.87316762268995 3.0563283815710824 35.0 9.0 22.0 
200.00010179366993 602.0 80.0 490.87316762268995 3.284328064742171 35.0 9.0 22.0 
202.00010179366993 602.0 80.0 490.87316762268995 3.8763404846449045 35.0 9.0 22.0 
204.00010179366993 602.0 80.0 490.87316762268995 4.42241601346412 35.0 9.0 22.0 
206.00010179366993 602.0 80.0 490.87316762268995 4.106274740343867 35.0 9.0 22.0 
208.00010179366993 602.0 80.0 490.87316762268995 4.332618226006238 34.0 10.0 21.0 
210.00010179366993 602.0 80.0 490.87316762268995 4.512742179307115 33.0 11.0 20.0 
212.00010179366993 602.0 80.0 490.90630975143443 1.673496757530106 34.0 10.0 21.0 
214.00010179366993 602.0 80.0 490.8808158062463 2.2740806060042686 34.0 10.0 21.0 
216.00010179366993 602.0 80.0 490.8808158062463 2.8089501687641456 34.0 10.0 21.0 
218.00010179366993 602.0 80.0 490.8859145952837 2.1740238131566754 34.0 10.0 21.0 
220.00010179366993 602.0 80.0 490.8808158062463 2.77714734417052 34.0 10.0 21.0 
222.00010179366993 602.0 80.0 490.8808158062463 3.3221756370891278 34.0 10.0 21.0 
224.00010179366993 602.0 80.0 490.8808158062463 3.969743612547416 34.0 10.0 21.0 
226.00010179366993 602.0 80.0 490.8808158062463 4.140531542654233 34.0 10.0 21.0 
228.00010179366993 598.0 79.0 490.8859145952837 4.187232929364008 34.0 10.0 21.0 
230.00010179366993 598.0 79.0 490.8859145952837 3.888783930227345 34.0 10.0 21.0 
232.00010179366993 598.0 79.0 490.8859145952837 4.451232366988118 34.0 10.0 21.0 
234.00010179366993 598.0 79.0 490.8859145952837 4.57115803880277 34.0 10.0 21.0 
236.00010179366993 598.0 79.0 490.90630975143443 1.2784170978190668 34.0 9.0 22.0 
238.00010179366993 599.0 79.0 490.8808158062463 1.848029314659163 34.0 9.0 22.0 
240.00010179366993 599.0 79.0 490.8808158062463 2.4079861291860554 34.0 9.0 22.0 
242.00010179366993 599.0 79.0 490.8808158062463 2.0999101129362088 34.0 9.0 22.0 
244.00010179366993 599.0 79.0 490.8808158062463 2.247458318349382 34.0 9.0 22.0 
246.00010179366993 599.0 79.0 490.8808158062463 2.7616274028834344 34.0 9.0 22.0 
248.00010179366993 599.0 79.0 490.8808158062463 3.379322128443128 34.0 9.0 22.0 
250.00010179366993 599.0 79.0 487.95666029318005 3.9970168540028204 34.0 9.0 21.0 
252.00010179366993 599.0 79.0 487.95666029318005 4.4561033367491625 34.0 9.0 21.0 
254.00010179366993 599.0 79.0 487.95666029318005 3.7146803068340657 34.0 9.0 21.0 
256.00010179366996 599.0 79.0 487.95666029318005 4.253208365727093 34.0 9.0 21.0 
258.00010179366996 600.0 79.0 487.95666029318005 4.335178322800436 32.0 11.0 19.0 
260.00010179366996 600.0 79.0 487.98215423836797 1.562201015072451 34.0 10.0 20.0 
262.00010179366996 600.0 79.0 487.95666029318005 1.6756656758251556 34.0 10.0 20.0 
264.00010179366996 600.0 79.0 487.95666029318005 2.212802497750022 34.0 10.0 20.0 
266.00010179366996 600.0 79.0 487.95666029318005 1.8819906017261714 34.0 10.0 20.0 
268.00010179366996 600.0 79.0 487.96175908221824 2.4768197313433458 33.0 11.0 19.0 
270.00010179366996 600.0 79.0 490.8961121733586 3.0716488609605195 33.0 11.0 20.0 
272.00010179366996 602.0 80.0 490.8808158062463 3.1647367581294588 33.0 11.0 20.0 
274.00010179366996 602.0 80.0 490.8808158062463 3.770984206055742 33.0 11.0 20.0 
276.00010179366996 602.0 80.0 490.8808158062463 4.26559643385624 33.0 11.0 20.0 
278.00010179366996 603.0 80.0 490.8859145952837 3.92607827892205 33.0 11.0 20.0 
280.00010179366996 603.0 80.0 490.8808158062463 4.114330266499348 33.0 11.0 20.0 
282.00010179366996 603.0 80.0 490.8808158062463 4.15918003340443 33.0 11.0 20.0 
284.00010179366996 606.0 81.0 490.9114085404718 1.4640828679620428 33.0 11.0 20.0 
286.00010179366996 606.0 81.0 490.8859145952837 1.921852982976452 33.0 11.0 20.0 
288.00010179366996 606.0 81.0 490.8859145952837 2.4674021259880528 33.0 11.0 20.0 
290.00010179366996 606.0 81.0 490.8859145952837 1.8105035609444686 33.0 11.0 20.0 
292.00010179366996 606.0 81.0 490.8859145952837 2.357610336354823 33.0 11.0 20.0 
294.00010179366996 606.0 81.0 490.8859145952837 2.898881744995767 33.0 11.0 20.0 
296.00010179366996 606.0 81.0 490.8859145952837 3.4740259035836916 33.0 11.0 20.0 
298.00010179366996 606.0 81.0 490.8859145952837 3.6903360612815406 33.0 11.0 20.0 
300.00010179366996 606.0 81.0 490.8859145952837 4.263922587470711 33.0 11.0 20.0 
302.00010179366996 606.0 81.0 490.8859145952837 3.9041757803265495 33.0 11.0 20.0 
304.00010179366996 606.0 81.0 490.8859145952837 4.533837072870861 33.0 11.0 20.0 
306.00010179366996 606.0 81.0 490.8859145952837 4.63452006440557 31.0 12.0 19.0 
308.00010179366996 606.0 81.0 490.90630975143443 1.5386703077535633 33.0 11.0 20.0 
310.00010179366996 606.0 81.0 490.8808158062463 2.07861197412965 33.0 11.0 20.0 
312.00010179366996 606.0 81.0 490.8808158062463 2.5976813663624347 33.0 11.0 20.0 
314.00010179366996 606.0 81.0 490.8808158062463 2.3821713193428824 33.0 11.0 20.0 
316.00010179366996 606.0 81.0 490.8808158062463 2.5439643430843453 33.0 11.0 20.0 
318.00010179366996 606.0 81.0 490.8859145952837 3.083906009460432 33.0 11.0 20.0 
320.00010179366996 606.0 81.0 490.8808158062463 3.713567302004743 33.0 11.0 20.0 
322.00010179366996 604.0 80.0 490.8808158062463 3.9011042059880094 33.0 11.0 20.0 
324.00010179366996 604.0 80.0 490.8808158062463 4.451800039028022 33.0 11.0 20.0 
326.00010179366996 604.0 80.0 490.8808158062463 3.643106833433712 33.0 11.0 20.0 
328.00010179366996 604.0 80.0 490.8859145952837 4.25040644005863 33.0 11.0 20.0 
330.00010179366996 604.0 80.0 490.8808158062463 4.351828599293349 33.0 11.0 20.0 
332.00010179366996 604.0 80.0 490.9114085404718 1.5928654964530529 33.0 11.0 20.0 
334.00010179366996 604.0 80.0 490.8859145952837 1.6923483914876742 33.0 11.0 20.0 
336.00010179366996 604.0 80.0 490.8859145952837 2.1880127779868053 33.0 11.0 20.0 
338.00010179366996 604.0 80.0 490.8859145952837 1.9421677305236733 33.0 11.0 20.0 
340.00010179366996 604.0 80.0 490.8859145952837 2.5494673371485908 33.0 11.0 20.0 
342.00010179366996 604.0 80.0 490.8859145952837 3.011169459496779 33.0 11.0 20.0 
344.00010179366996 606.0 81.0 490.8859145952837 3.149439256332181 33.0 11.0 20.0 
346.00010179366996 606.0 81.0 490.8859145952837 3.691480228266513 33.0 11.0 20.0 
348.00010179366996 606.0 81.0 490.8859145952837 4.231977990324303 33.0 11.0 20.0 
350.00010179366996 606.0 81.0 490.8859145952837 3.901796740036414 33.0 11.0 20.0 
352.00010179366996 607.0 81.0 490.8859145952837 3.997893372954203 33.0 11.0 20.0 
354.00010179366996 613.0 82.0 490.8859145952837 4.112272246193694 31.0 12.0 19.0 
356.00010179366996 614.0 82.0 490.90630975143443 1.420223259282945 33.0 11.0 20.0 
358.00010179366996 614.0 82.0 490.8859145952837 1.9190365138620984 33.0 11.0 20.0 
360.00010179366996 614.0 82.0 490.8808158062463 2.4508772913770316 33.0 11.0 20.0 
362.00010179366996 615.0 82.0 490.8808158062463 1.7646812083120087 34.0 11.0 20.0 
364.00010179366996 618.0 82.0 490.8808158062463 2.40656092662071 34.0 11.0 20.0 
366.00010179366996 618.0 82.0 490.8808158062463 2.922262732854229 34.0 11.0 20.0 
368.00010179366996 618.0 82.0 490.8859145952837 3.5795547531550262 34.0 11.0 20.0 
370.00010179366996 618.0 82.0 490.8808158062463 3.831080063101956 34.0 11.0 20.0 
372.00010179366996 622.0 82.0 493.8202676864247 4.352414776197749 34.0 11.0 21.0 
374.00010179366996 625.0 82.0 493.8049713193117 4.085889663450388 34.0 11.0 21.0 
376.00010179366996 625.0 82.0 493.8049713193117 4.700367078430543 34.0 11.0 21.0 
378.00010179366996 625.0 82.0 493.8100701083491 5.368361312982565 34.0 11.0 21.0 
380.00010179366996 631.0 82.0 493.83811344805594 3.278827623868548 35.0 9.0 23.0 
382.00010179366996 634.0 82.0 493.8151688973868 2.4065419480253514 33.0 11.0 21.0 
384.00010179366996 634.0 82.0 493.8049713193117 3.0334445165531645 33.0 11.0 21.0 
386.00010179366996 634.0 82.0 493.8049713193117 2.828534697835996 33.0 11.0 21.0 
388.00010179366996 635.0 83.0 493.8100701083491 3.079351090570979 33.0 11.0 21.0 
390.00010179366996 636.0 83.0 493.8049713193117 3.6412431149287015 33.0 11.0 21.0 
392.00010179366996 633.0 81.0 493.8075207138304 3.5072046360180735 32.0 12.0 20.0 
394.00010179366996 632.0 81.0 493.8151688973868 3.8821386182777724 33.0 11.0 21.0 
396.00010179366996 632.0 81.0 493.8100701083491 4.391475502728223 33.0 11.0 21.0 
398.00010179366996 638.0 81.0 493.8151688973868 3.4304320986740073 33.0 11.0 21.0 
400.00010179366996 638.0 81.0 493.8100701083491 4.0884898438248625 33.0 11.0 21.0 
402.00010179366996 638.0 81.0 493.8100701083491 4.692030455019331 33.0 11.0 21.0 
404.00010179366996 638.0 81.0 493.8049713193117 5.139103183110404 32.0 12.0 20.0 
406.00010179366996 644.0 81.0 493.83046526449954 1.9892952841720823 34.0 11.0 21.0 
408.00010179366996 644.0 81.0 493.8151688973868 2.59421551263402 34.0 11.0 21.0 
410.00010179366996 626.0 81.0 493.8100701083491 2.348307647015516 34.0 11.0 21.0 
412.00010179366996 610.0 80.0 493.8151688973868 2.5269052145778126 34.0 11.0 21.0 
414.00010179366996 610.0 80.0 493.8049713193117 3.0836773242823368 34.0 11.0 21.0 
416.00010179366996 610.0 80.0 493.8049713193117 3.2587333513273817 34.0 11.0 21.0 
418.00010179366996 610.0 80.0 493.8100701083491 3.9060714987677545 34.0 11.0 21.0 
420.00010179366996 610.0 80.0 493.8049713193117 4.496805872623222 34.0 11.0 21.0 
422.00010179366996 610.0 80.0 493.8151688973868 3.9312113215402014 34.0 11.0 21.0 
424.00010179366996 610.0 80.0 493.80242192479295 4.159667598654934 35.0 10.0 22.0 
426.00010179366996 610.0 80.0 493.7973231357553 4.7555508923156635 35.0 10.0 22.0 
428.00010179366996 605.0 79.0 493.80242192479295 4.406615051327282 35.0 10.0 22.0 
430.00010179366996 605.0 79.0 493.82281708094337 1.9617471684510133 34.0 10.0 22.0 
432.00010179366996 604.0 79.0 493.7973231357553 2.466596802872132 34.0 10.0 22.0 
434.00010179366996 604.0 79.0 493.7973231357553 1.7930116841988972 34.0 10.0 22.0 
436.00010179366996 589.0 79.0 493.7973231357553 2.279932804991243 34.0 10.0 22.0 
438.00010179366996 589.0 79.0 493.80242192479295 2.808866001336323 34.0 10.0 22.0 
440.00010179366996 588.0 79.0 493.7973231357553 3.4146228783655457 34.0 10.0 22.0 
442.00010179366996 587.0 79.0 493.7973231357553 3.5240682383415867 34.0 10.0 22.0 
444.00010179366996 587.0 79.0 493.7973231357553 4.0885783577635895 34.0 10.0 22.0 
446.00010179366996 587.0 79.0 493.7973231357553 3.692832066929182 34.0 10.0 22.0 
448.00010179366996 587.0 79.0 493.80242192479295 4.315034494043493 34.0 10.0 22.0 
450.00010179366996 587.0 79.0 493.7973231357553 4.937236921157804 34.0 10.0 22.0 
452.00010179366996 568.0 78.0 490.8884639898024 1.857942207599803 34.0 10.0 21.0 
454.00010179366996 568.0 78.0 490.87826641172677 1.745170960942796 34.0 10.0 21.0 
456.00010179366996 568.0 78.0 490.87316762269 2.2358147018976373 34.0 10.0 21.0 
458.00010179366996 570.0 79.0 490.87826641172677 1.9336715211176423 35.0 9.0 22.0 
460.00010179366996 569.0 79.0 490.87316762269 2.0684267789274884 35.0 9.0 22.0 
462.00010179366996 569.0 79.0 490.87316762269 2.513625151573893 35.0 9.0 22.0 
464.00010179366996 573.0 80.0 490.87316762269 3.0776451281467803 35.0 9.0 22.0 
466.00010179366996 573.0 80.0 490.87316762269 3.6092095538814255 35.0 9.0 22.0 
468.00010179366996 572.0 80.0 490.87826641172677 4.130464166191806 35.0 9.0 22.0 
470.00010179366996 572.0 80.0 490.87316762269 3.3558779953091236 35.0 9.0 22.0 
472.00010179366996 572.0 80.0 490.87316762269 3.887221743563905 35.0 9.0 22.0 
474.00010179366996 572.0 80.0 490.88336520076484 3.592731544873425 35.0 9.0 22.0 
476.00010179366996 572.0 80.0 490.89866156787815 1.6256330601628453 34.0 10.0 21.0 
478.00010179366996 572.0 80.0 490.87826641172677 1.741927392424816 34.0 10.0 21.0 
480.00010179366996 572.0 80.0 490.87826641172677 2.309434662692178 34.0 10.0 21.0 
482.00010179366996 572.0 80.0 487.95411089866127 2.0253696059155133 33.0 10.0 20.0 
484.00010179366996 572.0 80.0 487.95411089866127 2.6494806497677805 33.0 10.0 20.0 
486.00010179366996 572.0 80.0 487.95411089866127 3.127994209343318 33.0 10.0 20.0 
488.00010179366996 572.0 80.0 487.95411089866127 3.3348545793411373 33.0 10.0 20.0 
490.00010179366996 572.0 80.0 487.95411089866127 3.9589656231934045 33.0 10.0 20.0 
492.00010179366996 572.0 80.0 487.95411089866127 4.471441446919887 33.0 10.0 20.0 
494.00010179366996 572.0 80.0 487.95411089866127 4.1518417989482534 33.0 10.0 20.0 
496.00010179366996 572.0 80.0 487.95411089866127 4.303670722405192 33.0 10.0 20.0 
498.00010179366996 572.0 80.0 487.97450605481185 2.12276950535839 34.0 9.0 21.0 
500.00010179366996 572.0 80.0 487.9592096876995 2.12933435847721 34.0 9.0 21.0 
502.00010179366996 572.0 80.0 487.95411089866127 2.6078479180527467 34.0 9.0 21.0 
504.00010179366996 570.0 79.0 487.95411089866127 2.661320767869081 34.0 9.0 21.0 
506.00010179366996 570.0 79.0 487.95411089866127 1.9272874270335252 34.0 9.0 21.0 
508.00010179366996 570.0 79.0 487.95411089866127 2.582631375575258 34.0 9.0 21.0 
510.00010179366996 570.0 79.0 487.95411089866127 3.1841291702708387 34.0 9.0 21.0 
512.00010179367 570.0 79.0 487.95411089866127 3.8218449136843677 34.0 9.0 21.0 
514.00010179367 570.0 79.0 487.95411089866127 4.0903756754129175 34.0 9.0 21.0 
516.00010179367 570.0 79.0 487.95411089866127 4.670399111134137 34.0 9.0 21.0 
518.00010179367 570.0 79.0 487.95411089866127 4.402345623778437 34.0 9.0 21.0 
520.00010179367 570.0 79.0 487.9643084767362 4.197788571294598 34.0 9.0 21.0 
522.00010179367 571.0 79.0 487.9770554493307 2.2348307979227413 33.0 10.0 20.0 
524.00010179367 574.0 80.0 487.9668578712558 2.498409564738598 33.0 10.0 20.0 
526.00010179367 574.0 80.0 487.9668578712558 3.03862325345295 33.0 10.0 20.0 
528.00010179367 574.0 80.0 487.9668578712558 3.669736413066773 33.0 10.0 20.0 
530.00010179367 574.0 80.0 487.9668578712558 3.4967225885536117 33.0 10.0 20.0 
532.00010179367 573.0 80.0 487.9668578712558 3.4248961270622162 33.0 10.0 20.0 
534.00010179367 576.0 81.0 487.9668578712558 3.946604380665377 33.0 10.0 20.0 
536.00010179367 575.0 81.0 487.9668578712558 4.322203959169142 33.0 10.0 20.0 
538.00010179367 572.0 79.0 487.9668578712558 4.220386913038872 33.0 10.0 20.0 
540.00010179367 573.0 80.0 487.9668578712558 4.738685739484117 33.0 10.0 20.0 
542.00010179367 574.0 80.0 487.9668578712558 3.87870254928202 33.0 10.0 20.0 
544.00010179367 574.0 80.0 487.97195666029313 1.6999991594817117 29.0 14.0 16.0 
546.00010179367 574.0 80.0 487.946462715105 1.6299069582916115 28.0 15.0 15.0 
548.00010179367 574.0 80.0 487.946462715105 2.2387978956832115 28.0 15.0 15.0 
550.00010179367 572.0 80.0 487.946462715105 2.304441724406522 28.0 15.0 15.0 
552.00010179367 571.0 80.0 487.946462715105 2.7909204760011885 28.0 15.0 15.0 
554.00010179367 571.0 80.0 487.946462715105 2.598061267326916 28.0 15.0 15.0 
556.00010179367 570.0 80.0 487.946462715105 3.1968595793991694 28.0 15.0 15.0 
558.00010179367 570.0 80.0 487.9515615041434 3.7706423709683397 28.0 15.0 15.0 
560.00010179367 570.0 80.0 487.94136392606765 4.024153053693971 28.0 15.0 15.0 
562.00010179367 569.0 80.0 487.94136392606765 4.608895828763207 28.0 15.0 15.0 
564.00010179367 568.0 80.0 487.94136392606765 5.107618530943003 28.0 15.0 15.0 
566.00010179367 570.0 80.0 487.94136392606765 3.9170750460273047 29.0 15.0 15.0 
568.00010179367 575.0 81.0 487.9566602931801 1.63004888345014 29.0 14.0 16.0 
570.00010179367 575.0 81.0 487.93626513703015 2.31685377688443 29.0 14.0 16.0 
572.00010179367 575.0 81.0 487.93626513703015 2.9516690577571167 29.0 14.0 16.0 
574.00010179367 574.0 81.0 487.93626513703015 3.5680549939443558 29.0 14.0 16.0 
576.00010179367 575.0 81.0 490.8782664117268 4.100427791093002 29.0 14.0 17.0 
578.00010179367 576.0 81.0 490.8782664117268 3.5322713743466547 29.0 14.0 17.0 
580.00010179367 576.0 81.0 490.8655194391331 4.240544534908207 30.0 13.0 18.0 
582.00010179367 570.0 79.0 490.86042065009565 4.008959212814469 30.0 13.0 18.0 
584.00010179367 570.0 79.0 490.86042065009565 4.562080117306235 30.0 13.0 18.0 
586.00010179367 571.0 79.0 493.80242192479295 4.671793204038824 30.0 13.0 19.0 
588.00010179367 571.0 79.0 493.7922243467173 5.293870152486635 30.0 13.0 19.0 
590.00010179367 569.0 78.0 493.7922243467173 2.0668436595841326 37.0 7.0 25.0 
592.00010179367 569.0 78.0 493.7922243467173 1.9695712707636654 37.0 7.0 25.0 
594.00010179367 570.0 78.0 493.7922243467173 2.4085116418503496 37.0 7.0 25.0 
596.00010179367 554.0 77.0 493.80242192479295 2.4099389143313914 37.0 7.0 25.0 
598.00010179367 540.0 77.0 493.78712555768055 2.7070931932538507 37.0 7.0 25.0 
600.00010179367 540.0 77.0 493.78712555768055 3.286473307025131 37.0 7.0 25.0 
602.00010179367 540.0 77.0 493.78712555768055 2.834664685391772 37.0 7.0 25.0 
604.00010179367 540.0 77.0 493.78712555768055 2.8721991285075315 37.0 7.0 25.0 
606.00010179367 540.0 77.0 493.7922243467173 3.4532763651904754 37.0 7.0 25.0 
608.00010179367 540.0 77.0 493.78712555768055 4.092109377450978 37.0 7.0 25.0 
610.00010179367 540.0 77.0 493.78712555768055 4.6759918946619745 37.0 7.0 25.0 
612.00010179367 540.0 77.0 493.78712555768055 2.205273731666142 38.0 7.0 25.0 
614.00010179367 540.0 77.0 493.78712555768055 1.0692813699275678 38.0 7.0 25.0 
616.00010179367 540.0 77.0 493.79732313575556 1.6503586066105123 38.0 7.0 25.0 
618.00010179367 540.0 77.0 493.78712555768055 2.2891916188710137 38.0 7.0 25.0 
620.00010179367 540.0 77.0 493.78712555768055 2.790542311470978 38.0 7.0 25.0 
622.00010179367 540.0 77.0 493.78712555768055 2.7701343996390717 38.0 7.0 25.0 
624.00010179367 540.0 77.0 493.78712555768055 3.3495614713055146 38.0 7.0 25.0 
626.00010179367 540.0 77.0 493.79732313575556 3.0352591700346627 38.0 7.0 25.0 
628.00010179367 540.0 77.0 490.86806883365176 3.6191416872456608 37.0 7.0 24.0 
630.00010179367 540.0 77.0 490.86806883365176 4.024594218600928 37.0 7.0 24.0 
632.00010179367 543.0 77.0 490.86806883365176 4.1171810115335505 37.0 7.0 24.0 
634.00010179367 552.0 78.0 490.86806883365176 1.996056471542975 37.0 7.0 24.0 
636.00010179367 552.0 78.0 490.86806883365176 2.0895015555025287 37.0 7.0 24.0 
638.00010179367 552.0 78.0 490.86806883365176 1.7033672638614994 37.0 7.0 24.0 
640.00010179367 552.0 78.0 490.86806883365176 1.7442338757061944 37.0 7.0 24.0 
642.00010179367 552.0 78.0 490.86806883365176 2.323645802552559 37.0 7.0 24.0 
644.00010179367 552.0 78.0 490.86806883365176 2.960247271882584 37.0 7.0 24.0 
646.00010179367 552.0 78.0 490.86806883365176 3.4852474340230675 37.0 7.0 24.0 
648.00010179367 552.0 78.0 490.86806883365176 3.831932936966537 37.0 7.0 24.0 
650.00010179367 552.0 78.0 490.86806883365176 3.1357146117120624 37.0 7.0 24.0 
652.00010179367 552.0 78.0 490.86806883365176 3.7151265385584265 37.0 7.0 24.0 
654.00010179367 552.0 78.0 490.86806883365176 4.351728007888451 37.0 7.0 24.0 
656.00010179367 552.0 78.0 490.86806883365176 4.079193663223689 37.0 7.0 24.0 
658.00010179367 552.0 78.0 490.86806883365176 1.432893792284969 37.0 7.0 24.0 
660.00010179367 552.0 78.0 490.86806883365176 2.0106717322032295 37.0 7.0 24.0 
662.00010179367 554.0 78.0 490.86806883365176 1.6972881169162417 37.0 7.0 24.0 
664.00010179367 554.0 78.0 490.86806883365176 2.2771435545002348 37.0 7.0 24.0 
#####################################################################
# End of data export. Simulation finished at: 2019-03-12T10:08+0000 #
#####################################################################
