#####################################################################
# Alchemist log file - simulation started at: 2019-03-10T18:54+0000 #
#####################################################################
# seed = 4.0, bandwidth = 17782.79410038923, accessPointCount = 274.2481756762073, baserange = 177.82794100389228
#
# The columns have the following meaning: 
# time neighbor_count[Sum] <value>@neighbor_count[Sum] packet_size[Mean] mean_delay[Mean] crowd[Sum] overcrowded[Sum] risk[Sum] 
0.0 NaN NaN NaN NaN NaN NaN NaN 
2.0000042429967895 277.0 155.0 4984.4449463579895 0.4324824294795277 1497.0 0.0 1497.0 
4.0000042429967895 991.0 340.0 4985.583286278938 0.653548204232211 1497.0 0.0 1497.0 
6.0000042429967895 1736.0 439.0 4986.319593450028 1.0370948707419385 1497.0 0.0 1497.0 
8.00000424299679 2550.0 488.0 4986.931677018633 1.165013183795812 1497.0 0.0 1497.0 
10.00000424299679 3168.0 528.0 4987.116883116883 1.3909613821320912 1497.0 0.0 1497.0 
12.00000424299679 3344.0 535.0 4987.078486730661 1.6798869948131672 1497.0 0.0 1497.0 
14.00000424299679 3466.0 535.0 4987.14172783738 1.7172620791025985 1494.0 3.0 1494.0 
16.000004242996788 3486.0 536.0 4987.092038396387 1.7529932729727076 1495.0 2.0 1495.0 
18.000004242996788 3486.0 536.0 4987.085262563523 1.9714777410697504 1494.0 3.0 1494.0 
20.000004242996788 3486.0 536.0 4986.979107848673 2.054601414078668 1494.0 3.0 1494.0 
22.000004242996788 3486.0 536.0 4986.990400903444 2.0642648542037296 1493.0 4.0 1493.0 
24.000004242996788 3485.0 535.0 4987.022021456804 2.231040191103088 1493.0 4.0 1493.0 
26.000004242996788 3470.0 529.0 4986.902315076228 2.248171480791705 1495.0 2.0 1495.0 
28.000004242996788 3430.0 519.0 4987.046866177301 1.9341449637732449 1495.0 2.0 1495.0 
30.000004242996788 3380.0 510.0 4987.008469791079 1.6933617097881244 1494.0 3.0 1494.0 
32.00000424299679 3335.0 501.0 4986.825522303783 1.4875798290217512 1494.0 3.0 1494.0 
34.00000424299679 3332.0 500.0 4987.028797289667 1.280087023569121 1497.0 0.0 1497.0 
36.00000424299679 3332.0 500.0 4986.992659514399 1.4199595002811458 1496.0 1.0 1496.0 
38.00000424299679 3334.0 501.0 4986.98814229249 1.4624306929047293 1495.0 2.0 1495.0 
40.00000424299679 3334.0 501.0 4986.9542631281765 1.3230863011552374 1493.0 4.0 1493.0 
42.00000424299679 3334.0 501.0 4986.71259175607 1.476917438034351 1493.0 4.0 1493.0 
44.00000424299679 3334.0 501.0 4986.893280632411 1.4728820126385695 1496.0 1.0 1496.0 
46.00000424299679 3334.0 501.0 4986.893280632411 1.387133836506722 1497.0 0.0 1497.0 
48.00000424299679 3314.0 499.0 4986.891022021457 1.406287915259183 1496.0 1.0 1496.0 
50.00000424299679 3316.0 500.0 4986.906832298137 1.367354883683472 1493.0 4.0 1493.0 
52.00000424299679 3310.0 499.0 4986.784867306606 1.2739103646578795 1493.0 4.0 1493.0 
54.00000424299679 3310.0 499.0 4986.88198757764 1.327564082780272 1495.0 2.0 1495.0 
56.00000424299679 3310.0 499.0 4986.809712027103 1.365866757095007 1493.0 4.0 1493.0 
58.00000424299679 3310.0 499.0 4986.857142857143 1.281169014195664 1491.0 6.0 1491.0 
60.00000424299679 3314.0 501.0 4984.313946922643 1.3467434510550604 1492.0 5.0 1492.0 
62.00000424299679 3315.0 501.0 704.3116883116876 1.221506111791697 304.0 2.0 115.0 
64.0000042429968 3316.0 501.0 704.1626199887052 0.9610589860212227 252.0 0.0 117.0 
66.0000042429968 3317.0 500.0 704.1716544325276 0.9844378521229215 230.0 1.0 116.0 
68.0000042429968 3322.0 502.0 704.0519480519494 0.9948817304413069 203.0 4.0 113.0 
70.0000042429968 3324.0 502.0 704.1197063805765 0.8912316525734205 191.0 4.0 113.0 
72.0000042429968 3326.0 503.0 704.0858272162637 1.0448493613871275 187.0 2.0 115.0 
74.0000042429968 3326.0 503.0 704.0 1.001392685628511 184.0 3.0 114.0 
76.0000042429968 3328.0 504.0 704.0 0.980232605610148 186.0 2.0 115.0 
78.0000042429968 3354.0 505.0 706.6086956521734 1.0996384600085978 183.0 4.0 114.0 
80.0000042429968 3352.0 504.0 706.5364201016389 1.01034733680792 180.0 4.0 114.0 
82.0000042429968 3354.0 505.0 706.5702992659518 0.9886970136874943 180.0 4.0 114.0 
84.0000042429968 3352.0 504.0 706.4709203839662 1.053286020524832 179.0 5.0 113.0 
86.0000042429968 3352.0 504.0 703.9028797289682 1.0556813574516637 179.0 4.0 113.0 
88.0000042429968 3354.0 505.0 701.2919254658408 1.054476762673471 178.0 2.0 114.0 
90.0000042429968 3347.0 504.0 701.3664596273292 1.0428741977591813 174.0 4.0 112.0 
92.0000042429968 3346.0 503.0 701.3009599096562 1.0721427755809139 166.0 10.0 106.0 
94.0000042429968 3346.0 503.0 701.3054771315628 0.9864954710565804 167.0 9.0 107.0 
96.0000042429968 3346.0 503.0 701.267080745343 1.1364948934665824 165.0 11.0 105.0 
98.0000042429968 3358.0 503.0 701.3122529644257 1.1068088299601697 166.0 11.0 105.0 
100.0000042429968 3355.0 502.0 701.298701298702 1.0162106200224397 166.0 11.0 105.0 
102.0000042429968 3354.0 501.0 701.3032185206102 1.1429459353648477 170.0 7.0 109.0 
104.0000042429968 3352.0 500.0 701.2557876905663 1.1044442912013157 171.0 6.0 110.0 
106.0000042429968 3367.0 501.0 701.337097684923 1.0441026788696128 172.0 6.0 110.0 
108.0000042429968 3355.0 501.0 703.9096555618293 1.153138857035937 169.0 7.0 110.0 
110.0000042429968 3348.0 501.0 703.8848108413317 1.0404937227469353 170.0 6.0 111.0 
112.0000042429968 3347.0 501.0 703.9119141727821 1.045796361150406 170.0 6.0 111.0 
114.0000042429968 3345.0 500.0 703.9028797289681 1.015469441406645 169.0 7.0 110.0 
116.0000042429968 3346.0 500.0 703.8780350084689 1.0520226868899436 169.0 7.0 110.0 
118.0000042429968 3371.0 502.0 703.8780350084689 1.000295860690547 172.0 5.0 112.0 
120.0000042429968 3378.0 501.0 709.0479954827803 0.9755700477620017 172.0 5.0 114.0 
122.0000042429968 3384.0 501.0 709.038961038965 1.0148665534392804 170.0 7.0 112.0 
124.0000042429968 3384.0 501.0 711.6273291925457 0.9391823429113284 170.0 7.0 113.0 
126.0000042429968 3385.0 501.0 711.6544325239993 1.0473021667798978 173.0 6.0 114.0 
128.0000042429968 3394.0 502.0 711.6182947487305 1.035339079188517 175.0 4.0 116.0 
130.0000042429968 3391.0 500.0 711.695087521174 0.8823393507366388 173.0 6.0 114.0 
132.0000042429968 3393.0 501.0 714.2428006775821 1.008947274858547 172.0 8.0 113.0 
134.0000042429968 3414.0 502.0 716.8695652173918 0.9863861435253869 173.0 8.0 114.0 
136.0000042429968 3417.0 502.0 719.4466403162047 0.9260204775032599 170.0 12.0 111.0 
138.0000042429968 3422.0 503.0 719.4488989271573 1.0647938294342063 170.0 12.0 111.0 
140.0000042429968 3422.0 503.0 719.4421230942978 1.0726695736476342 171.0 11.0 112.0 
142.0000042429968 3446.0 503.0 722.0282326369262 1.0403896958586474 174.0 9.0 115.0 
144.0000042429968 3442.0 503.0 724.5917560700168 1.1479023466015055 177.0 6.0 119.0 
146.0000042429968 3444.0 503.0 724.639186900059 1.2290311439216073 177.0 6.0 119.0 
148.0000042429968 3462.0 503.0 727.2388481084096 1.1177340791392512 175.0 8.0 118.0 
150.0000042429968 3454.0 503.0 729.8226990400929 1.185688790948871 176.0 7.0 120.0 
152.0000042429968 3447.0 502.0 727.2140033879182 1.2408080418166756 175.0 7.0 119.0 
154.0000042429968 3447.0 502.0 724.6753246753264 1.1519099411730553 172.0 7.0 118.0 
156.0000042429968 3442.0 500.0 724.6098249576534 1.1047425163179478 169.0 7.0 118.0 
158.0000042429968 3442.0 501.0 721.9536984754375 1.1688934686720551 169.0 7.0 117.0 
160.0000042429968 3425.0 499.0 721.9469226425764 1.048640982661848 169.0 7.0 117.0 
162.0000042429968 3421.0 499.0 721.996612083566 1.0376218518754834 169.0 7.0 117.0 
164.0000042429968 3423.0 498.0 721.9695087521212 0.9632516519199427 171.0 7.0 117.0 
166.0000042429968 3440.0 499.0 721.9672501411599 1.0290218494169774 171.0 7.0 117.0 
168.0000042429968 3443.0 499.0 719.3788819875774 1.065855741893475 170.0 7.0 116.0 
170.0000042429968 3451.0 499.0 716.819875776395 0.9945089064852408 169.0 7.0 115.0 
172.0000042429968 3449.0 499.0 716.7927724449489 1.098241890230517 169.0 7.0 115.0 
174.0000042429968 3450.0 499.0 716.7882552230349 1.1611933997653392 168.0 7.0 115.0 
176.0000042429968 3451.0 499.0 716.7927724449488 1.0811328946264238 166.0 7.0 115.0 
178.0000042429968 3446.0 499.0 716.819875776395 1.1326768673633072 166.0 7.0 115.0 
180.0000042429968 3441.0 498.0 716.8153585544877 1.155513943933934 166.0 7.0 115.0 
182.0000042429968 3439.0 497.0 714.2156973461289 1.0420291769467582 166.0 7.0 114.0 
184.0000042429968 3439.0 497.0 716.7634105025428 0.9566106906508531 165.0 8.0 114.0 
186.0000042429968 3443.0 498.0 719.3811405985314 1.1107338394989463 166.0 8.0 115.0 
188.0000042429968 3457.0 498.0 719.3856578204384 1.0656672946806063 166.0 7.0 116.0 
190.0000042429968 3456.0 498.0 716.785996612082 0.8611331831875139 169.0 6.0 116.0 
192.0000042429968 3458.0 497.0 716.7588932806287 1.0133662050687284 169.0 6.0 116.0 
194.0000042429968 3458.0 497.0 716.7972896668556 1.0145206435260112 170.0 5.0 117.0 
196.0000042429968 3458.0 497.0 716.7747035573125 0.9353684768019643 169.0 6.0 116.0 
198.0000042429968 3462.0 497.0 716.7747035573125 0.9953477777844074 169.0 6.0 116.0 
200.0000042429968 3468.0 498.0 716.7747035573125 1.0012245884490687 170.0 5.0 117.0 
202.0000042429968 3468.0 498.0 716.8018068887641 1.0163350632866939 170.0 5.0 117.0 
204.0000042429968 3468.0 498.0 716.7837380011279 0.9729317053379967 170.0 5.0 117.0 
206.0000042429968 3467.0 498.0 716.765669113497 1.0022530743832505 168.0 7.0 115.0 
208.0000042429968 3457.0 497.0 714.1660079051393 0.9777111999085801 167.0 7.0 114.0 
210.0000042429968 3457.0 497.0 714.2111801242218 0.947710319625748 167.0 7.0 114.0 
212.0000042429968 3459.0 497.0 714.1840767927702 0.9387452246343311 167.0 7.0 114.0 
214.0000042429968 3460.0 498.0 711.5889328063247 0.9226127504923117 167.0 7.0 113.0 
216.0000042429968 3461.0 498.0 708.9802371541527 1.030787199138682 167.0 7.0 112.0 
218.0000042429968 3462.0 499.0 711.6408808582701 0.9408262434702424 166.0 7.0 113.0 
220.0000042429968 3462.0 499.0 708.987012987014 0.9168744816600827 164.0 7.0 112.0 
222.0000042429968 3462.0 499.0 706.3918690005631 1.095340121139468 164.0 7.0 111.0 
224.0000042429968 3462.0 499.0 706.3873517786562 0.9746436875645267 163.0 7.0 111.0 
226.0000042429968 3462.0 499.0 706.4031620553399 0.9491832601193483 162.0 7.0 111.0 
228.0000042429968 3462.0 499.0 708.971202710332 1.1229412584948117 163.0 7.0 112.0 
230.0000042429968 3462.0 499.0 708.9757199322393 1.077540907712144 163.0 7.0 112.0 
232.0000042429968 3460.0 498.0 708.9666854884235 0.939959727090877 163.0 7.0 112.0 
234.0000042429968 3460.0 498.0 708.9983060417821 1.0322018035149612 164.0 7.0 112.0 
236.0000042429968 3458.0 498.0 708.9847543760615 1.0985254778157365 166.0 4.0 115.0 
238.0000042429968 3450.0 497.0 708.9802371541527 0.9888729918167082 166.0 4.0 115.0 
240.0000042429968 3450.0 497.0 708.9802371541527 0.9820477420157937 166.0 4.0 115.0 
242.0000042429968 3449.0 497.0 709.0073404855976 1.065932670087597 166.0 4.0 115.0 
244.0000042429968 3457.0 498.0 708.9892715979684 1.0086256474956574 166.0 4.0 115.0 
246.0000042429968 3458.0 498.0 708.9802371541527 1.0062080023165658 167.0 3.0 116.0 
248.0000042429968 3462.0 499.0 708.9621682665163 1.0623948238827086 168.0 3.0 116.0 
250.0000042429968 3460.0 498.0 709.0028232636906 0.980587235887017 168.0 3.0 116.0 
252.0000042429968 3450.0 498.0 706.3918690005631 0.9859107795371893 168.0 3.0 115.0 
254.0000042429968 3441.0 498.0 706.3896103896104 0.9247300543756561 166.0 3.0 115.0 
256.0000042429968 3430.0 497.0 708.9847543760615 0.9061972128413095 165.0 3.0 116.0 
258.0000042429968 3430.0 497.0 709.0118577075117 1.0198509030582348 165.0 3.0 116.0 
260.0000042429968 3430.0 497.0 708.9983060417821 0.8637052204980684 164.0 4.0 115.0 
262.0000042429968 3434.0 499.0 708.9983060417821 0.9247494781796941 165.0 4.0 115.0 
264.0000042429968 3435.0 499.0 708.9892715979684 0.9966620800950599 165.0 4.0 115.0 
266.0000042429968 3436.0 499.0 709.0254093732353 0.9362850466290316 164.0 5.0 114.0 
268.0000042429968 3437.0 499.0 706.4009034443786 0.9199946398714139 163.0 5.0 113.0 
270.0000042429968 3439.0 500.0 706.3963862224715 1.0051153692649433 162.0 5.0 113.0 
272.0000042429968 3438.0 500.0 706.380575945795 1.0511795684602623 160.0 7.0 111.0 
274.0000042429968 3438.0 500.0 706.4076792772469 0.9232133164923099 160.0 7.0 111.0 
276.0000042429968 3438.0 500.0 706.4031620553399 1.0682196460640916 160.0 7.0 111.0 
278.0000042429968 3438.0 500.0 706.3850931677022 1.1532883100472526 160.0 7.0 111.0 
280.0000042429968 3434.0 500.0 706.3715415019726 1.0126643366166896 160.0 7.0 111.0 
282.0000042429968 3416.0 499.0 706.3941276115174 1.0868110748497397 160.0 7.0 111.0 
284.0000042429968 3416.0 499.0 706.3828345567492 1.087196284491272 160.0 7.0 111.0 
286.0000042429968 3416.0 499.0 703.7831733483912 1.0952494794126684 160.0 7.0 110.0 
288.0000042429968 3415.0 499.0 708.9689440993761 1.0764950904169954 161.0 7.0 112.0 
290.0000042429968 3416.0 499.0 708.987012987014 1.0427114974200222 161.0 7.0 112.0 
292.0000042429968 3412.0 498.0 708.9734613212848 1.0312482845940476 161.0 7.0 112.0 
294.0000042429968 3412.0 498.0 708.9644268774691 0.9727538295697689 161.0 7.0 112.0 
296.0000042429968 3413.0 498.0 711.5934500282332 0.9279396083844467 161.0 7.0 113.0 
298.0000042429968 3414.0 498.0 706.407679277247 0.9693063307335902 161.0 7.0 111.0 
300.0000042429968 3414.0 498.0 706.385093167702 1.0063829546419116 161.0 7.0 111.0 
302.0000042429968 3417.0 498.0 706.380575945795 0.9671609016699094 161.0 7.0 111.0 
304.0000042429968 3417.0 498.0 706.3715415019726 0.9391812068729485 161.0 7.0 111.0 
306.0000042429968 3435.0 500.0 709.014116318466 1.093071953435175 162.0 7.0 112.0 
308.0000042429968 3441.0 502.0 711.5866741953721 1.0512707487067017 162.0 7.0 113.0 
310.0000042429968 3442.0 502.0 711.5686053077355 0.9868576003597964 162.0 7.0 113.0 
312.0000042429968 3442.0 501.0 711.5798983625036 1.1253418127469754 162.0 7.0 113.0 
314.0000042429968 3439.0 501.0 711.5708639186884 1.077464803076609 162.0 7.0 113.0 
316.0000042429968 3437.0 501.0 711.5708639186884 1.0053990452230948 162.0 7.0 113.0 
318.0000042429968 3438.0 500.0 714.1727837380002 1.0976212372022922 162.0 7.0 114.0 
320.0000042429968 3439.0 501.0 714.1682665160935 1.1204445246706358 162.0 7.0 114.0 
322.0000042429968 3438.0 501.0 714.1727837380002 1.0713873547333124 162.0 7.0 114.0 
324.0000042429968 3442.0 501.0 714.1727837380002 1.133398158125984 162.0 7.0 114.0 
326.0000042429968 3435.0 501.0 714.2044042913607 1.1306727535839403 162.0 7.0 114.0 
328.0000042429968 3441.0 502.0 714.1931112365912 1.078226758269636 162.0 7.0 114.0 
330.0000042429968 3454.0 503.0 714.2156973461286 1.0590906427484583 162.0 7.0 114.0 
332.0000042429968 3459.0 502.0 714.2089215132678 1.1001135064381249 162.0 7.0 114.0 
334.0000042429968 3461.0 503.0 714.2044042913607 1.0878172255811815 162.0 7.0 114.0 
336.0000042429968 3463.0 504.0 711.600225861094 1.1430889177256094 162.0 7.0 113.0 
338.0000042429968 3463.0 504.0 711.6047430830012 1.1571637245098332 162.0 7.0 113.0 
340.0000042429968 3448.0 503.0 711.6024844720489 1.0688626309049176 162.0 7.0 113.0 
342.0000042429968 3450.0 503.0 714.2021456804064 1.1538853702477978 163.0 7.0 114.0 
344.0000042429968 3453.0 503.0 716.7747035573125 1.0326818205855044 166.0 7.0 115.0 
346.0000042429968 3452.0 502.0 716.7543760587215 1.0651510162117175 169.0 7.0 115.0 
348.0000042429968 3449.0 501.0 716.7634105025425 1.2064578846510614 169.0 7.0 115.0 
350.0000042429968 3476.0 503.0 719.3675889328092 1.0527533330958525 169.0 7.0 116.0 
352.0000042429968 3496.0 504.0 719.3653303218545 1.0688581725040043 171.0 7.0 116.0 
354.0000042429968 3498.0 504.0 719.3743647656701 1.1104006152643948 171.0 7.0 116.0 
356.0000042429968 3498.0 504.0 721.9717673630737 1.1094555994925372 170.0 7.0 117.0 
358.0000042429968 3498.0 504.0 721.955957086392 1.0679307466075179 168.0 7.0 117.0 
360.0000042429968 3497.0 504.0 724.5623941276112 1.1637592894720237 169.0 7.0 118.0 
362.0000042429968 3489.0 502.0 724.553359683795 1.128895538904134 170.0 7.0 118.0 
364.0000042429968 3490.0 502.0 724.5465838509342 1.0121136170904426 171.0 7.0 118.0 
366.0000042429968 3489.0 502.0 724.5601355166564 1.1141239990382739 171.0 7.0 118.0 
368.0000042429968 3490.0 503.0 729.7617165443256 1.1996136396621255 171.0 7.0 120.0 
370.0000042429968 3499.0 503.0 729.7481648785971 1.0878701556234172 171.0 7.0 120.0 
372.0000042429968 3500.0 504.0 729.7820440429099 1.167239953633504 170.0 7.0 120.0 
374.0000042429968 3496.0 504.0 729.7662337662329 1.1663904319761416 169.0 7.0 120.0 
376.0000042429968 3503.0 504.0 729.7775268210028 1.1587496528812127 169.0 7.0 120.0 
378.0000042429968 3493.0 503.0 729.8068887634087 1.1558505554586513 169.0 7.0 120.0 
380.0000042429968 3485.0 503.0 732.3749294184065 1.1005994610627754 170.0 7.0 121.0 
382.0000042429968 3491.0 505.0 732.3410502540937 1.1837723288079376 174.0 7.0 121.0 
384.0000042429968 3504.0 507.0 740.1558441558439 1.2593206623963262 175.0 7.0 124.0 
386.0000042429968 3504.0 508.0 734.9813664596259 1.1802998845993438 175.0 7.0 122.0 
388.0000042429968 3502.0 509.0 734.9813664596259 1.2676353471021573 175.0 7.0 122.0 
390.0000042429968 3496.0 510.0 734.970073404858 1.2969485449936509 175.0 7.0 122.0 
392.0000042429968 3482.0 508.0 740.160361377751 1.2751989097092373 176.0 7.0 124.0 
394.0000042429968 3477.0 508.0 740.1716544325275 1.1712413156456734 179.0 7.0 124.0 
396.0000042429968 3482.0 509.0 742.8142292490145 1.222039736672638 180.0 7.0 125.0 
398.0000042429968 3484.0 509.0 742.7916431394688 1.3063403331986818 180.0 7.0 125.0 
400.0000042429968 3479.0 507.0 742.7419536984723 1.0307851223464468 180.0 7.0 125.0 
402.0000042429968 3477.0 508.0 742.7351778656105 1.1726826200808995 179.0 7.0 125.0 
404.0000042429968 3468.0 506.0 740.167137210613 1.168415379114392 176.0 7.0 124.0 
406.0000042429968 3473.0 507.0 740.1761716544347 1.0765761271797452 177.0 7.0 124.0 
408.0000042429968 3497.0 509.0 740.1468097120287 1.1633161916560744 177.0 7.0 124.0 
410.0000042429968 3496.0 509.0 740.1309994353448 1.217135138370464 177.0 7.0 124.0 
412.0000042429968 3490.0 509.0 740.1693958215662 1.1901726696629795 177.0 7.0 124.0 
414.0000042429968 3470.0 506.0 737.5742518351237 1.0698917563247594 176.0 7.0 123.0 
416.0000042429968 3474.0 507.0 737.5900621117995 1.1422286395023142 177.0 7.0 123.0 
418.0000042429968 3475.0 507.0 740.2055335968404 1.168830188282819 177.0 7.0 124.0 
420.0000042429968 3476.0 507.0 737.59683794466 1.157883870211467 176.0 7.0 123.0 
422.0000042429968 3473.0 506.0 737.6036137775286 1.1615929072293572 176.0 7.0 123.0 
424.0000042429968 3466.0 505.0 737.6239412761128 1.086814860929255 176.0 7.0 123.0 
426.0000042429968 3473.0 505.0 737.6103896103904 1.098229056247601 175.0 7.0 123.0 
428.0000042429968 3476.0 504.0 737.6103896103904 1.1991538738236711 175.0 7.0 123.0 
430.0000042429968 3479.0 505.0 734.9791078486722 1.1577754272501057 174.0 7.0 122.0 
432.0000042429968 3486.0 505.0 737.5742518351238 1.056919478174269 174.0 7.0 123.0 
434.0000042429968 3489.0 505.0 737.5697346132154 1.2090897153195685 175.0 7.0 123.0 
436.0000042429968 3492.0 505.0 737.578769057031 1.2076205825205828 175.0 7.0 123.0 
438.0000042429968 3499.0 508.0 737.571993224169 1.203258914857873 175.0 7.0 123.0 
440.0000042429968 3497.0 507.0 737.5742518351238 1.2904788598646897 176.0 7.0 123.0 
442.0000042429968 3527.0 511.0 737.571993224169 1.2166106469272908 177.0 7.0 123.0 
444.0000042429968 3517.0 510.0 737.5448898927178 1.191584660337075 177.0 7.0 123.0 
446.0000042429968 3497.0 507.0 734.9520045172198 1.275595777804242 177.0 7.0 122.0 
448.0000042429968 3470.0 506.0 737.5335968379411 1.1102677926652462 179.0 7.0 123.0 
450.0000042429968 3473.0 507.0 745.3438735177841 1.130799532541869 184.0 7.0 126.0 
452.0000042429968 3467.0 505.0 747.9209486165973 1.0857975925279137 184.0 7.0 127.0 
454.0000042429968 3472.0 507.0 747.9299830604193 1.0716836165336165 184.0 7.0 127.0 
456.0000042429968 3472.0 507.0 747.9480519480497 1.063947193471685 185.0 7.0 127.0 
458.0000042429968 3471.0 507.0 750.5477131564072 1.1877277757961924 185.0 7.0 128.0 
460.0000042429968 3472.0 507.0 750.5499717673606 1.192639093806807 185.0 7.0 128.0 
462.0000042429968 3483.0 507.0 750.5319028797314 1.0928611988248123 185.0 7.0 128.0 
464.0000042429968 3457.0 505.0 747.9548277809181 1.117749998193395 184.0 7.0 127.0 
466.0000042429968 3458.0 505.0 747.9299830604193 1.104274008387723 184.0 7.0 127.0 
468.0000042429968 3458.0 505.0 745.3280632411082 1.1149785847758764 184.0 7.0 126.0 
470.0000042429968 3457.0 504.0 745.339356295876 1.189809378652037 184.0 7.0 126.0 
472.0000042429968 3463.0 505.0 745.3235460192001 1.133276274490369 184.0 7.0 126.0 
474.0000042429968 3465.0 506.0 745.3099943534698 1.120919971286142 183.0 7.0 126.0 
476.0000042429968 3476.0 507.0 745.3122529644249 1.1611367434357212 182.0 7.0 126.0 
478.0000042429968 3478.0 507.0 745.2987012987026 1.1006846932859244 183.0 7.0 126.0 
480.0000042429968 3469.0 507.0 745.2851496329724 1.0780882300004395 182.0 7.0 126.0 
482.0000042429968 3468.0 506.0 745.2851496329724 1.1451068854654056 181.0 7.0 126.0 
484.0000042429968 3459.0 505.0 742.6990400903438 1.0741090567096696 178.0 7.0 125.0 
486.0000042429968 3471.0 507.0 742.7035573122511 1.0266159647872923 178.0 7.0 125.0 
488.0000042429968 3468.0 507.0 742.7171089779807 1.155595214024153 177.0 7.0 125.0 
490.0000042429968 3460.0 507.0 745.3009599096562 1.0887010613166272 179.0 7.0 126.0 
492.0000042429968 3469.0 511.0 747.9051383399217 1.0344883954775665 179.0 7.0 127.0 
494.0000042429968 3474.0 511.0 750.5183512140011 1.1354304742801202 179.0 7.0 128.0 
496.0000042429968 3481.0 512.0 750.5228684359092 1.0786221783404433 180.0 7.0 128.0 
498.0000042429968 3482.0 512.0 750.5160926030477 1.0551434599386063 180.0 7.0 128.0 
500.0000042429968 3479.0 513.0 747.9390175042346 1.157841620856179 180.0 7.0 127.0 
502.0000042429968 3477.0 513.0 742.7487295313407 1.040594484343754 179.0 7.0 125.0 
504.0000042429968 3471.0 512.0 742.7351778656106 0.9963146454732048 180.0 7.0 125.0 
506.0000042429968 3511.0 514.0 745.3800112930587 1.1111857663233948 179.0 7.0 126.0 
508.0000042429968 3507.0 513.0 745.3325804630153 1.084585782521482 179.0 7.0 126.0 
510.0000042429968 3517.0 514.0 742.7148503670276 1.0597526825452028 180.0 7.0 125.0 
512.0000042429967 3518.0 514.0 742.723884810843 1.1606871201231157 181.0 7.0 125.0 
514.0000042429967 3518.0 514.0 742.7351778656106 1.1780067772686402 183.0 7.0 125.0 
516.0000042429967 3538.0 514.0 745.3551665725597 1.1472252960743186 184.0 7.0 126.0 
518.0000042429967 3538.0 513.0 742.7487295313407 1.2765212011991212 183.0 7.0 125.0 
520.0000042429967 3560.0 514.0 740.130999435345 1.2406837893309237 183.0 7.0 124.0 
522.0000042429967 3571.0 515.0 737.5448898927178 1.20396018925736 182.0 7.0 123.0 
524.0000042429967 3563.0 513.0 734.9249011857686 1.2701437195704564 181.0 7.0 122.0 
526.0000042429967 3565.0 513.0 734.9836250705794 1.1155520146704905 181.0 7.0 122.0 
528.0000042429967 3543.0 512.0 732.3387916431402 1.0771631656888325 180.0 7.0 121.0 
530.0000042429967 3546.0 512.0 729.7504234895507 1.2434974151110139 179.0 7.0 120.0 
532.0000042429967 3546.0 512.0 732.3297571993248 1.1963909682831806 178.0 7.0 121.0 
534.0000042429967 3538.0 512.0 732.3387916431401 1.1781393420471662 178.0 7.0 121.0 
536.0000042429967 3545.0 512.0 732.3410502540937 1.3409556853997444 178.0 7.0 121.0 
538.0000042429967 3552.0 513.0 732.3365330321867 1.334972020316779 180.0 7.0 121.0 
540.0000042429967 3560.0 514.0 732.304912478827 1.3864564848375138 181.0 7.0 121.0 
542.0000042429967 3538.0 512.0 732.3320158102784 1.3936206642674613 181.0 7.0 121.0 
544.0000042429967 3522.0 512.0 734.9339356295903 1.2988398104493497 181.0 7.0 122.0 
546.0000042429967 3522.0 512.0 732.3139469226413 1.2535686485305086 182.0 7.0 121.0 
548.0000042429967 3506.0 511.0 737.5110107284037 1.3260678753397366 181.0 7.0 123.0 
550.0000042429967 3497.0 510.0 732.320722755503 1.3087159070776992 180.0 7.0 121.0 
552.0000042429967 3489.0 510.0 732.3297571993247 1.2049921247328745 180.0 7.0 121.0 
554.0000042429967 3446.0 507.0 732.3433088650476 1.274216267116758 180.0 7.0 121.0 
556.0000042429967 3442.0 507.0 734.9271597967223 1.2260089683650486 180.0 7.0 122.0 
558.0000042429967 3424.0 506.0 734.9113495200462 1.1626299283211003 179.0 7.0 122.0 
560.0000042429967 3439.0 506.0 732.3116883116876 1.205527409813535 179.0 7.0 121.0 
562.0000042429967 3446.0 509.0 729.7210615471524 1.1959378558708078 179.0 7.0 120.0 
564.0000042429967 3446.0 511.0 727.1349520045167 1.170167256184751 179.0 7.0 119.0 
566.0000042429967 3439.0 513.0 729.7323546019202 1.2684158444479503 179.0 7.0 120.0 
568.0000042429967 3436.0 513.0 734.9361942405426 1.2602861417677411 178.0 7.0 122.0 
570.0000042429967 3435.0 513.0 734.9136081309999 1.2132418150245656 177.0 7.0 122.0 
572.0000042429967 3440.0 513.0 729.73235460192 1.1576656177548037 177.0 7.0 120.0 
574.0000042429967 3453.0 515.0 727.1462450592849 1.0991843964227057 177.0 7.0 119.0 
576.0000042429967 3454.0 514.0 727.1552795031073 0.9902741977353211 177.0 7.0 119.0 
578.0000042429967 3448.0 514.0 724.5556182947497 1.1292410632977847 177.0 7.0 118.0 
580.0000042429967 3468.0 515.0 724.5601355166564 1.100452407389997 177.0 7.0 118.0 
582.0000042429967 3481.0 516.0 732.3681535855458 1.0497069606116478 180.0 7.0 121.0 
584.0000042429967 3499.0 516.0 729.7843026538715 1.0881891933087553 178.0 7.0 120.0 
586.0000042429967 3517.0 517.0 727.1823828345599 1.1099069266166786 174.0 7.0 119.0 
588.0000042429967 3528.0 517.0 727.1891586674201 1.0971626876286733 174.0 7.0 119.0 
590.0000042429967 3538.0 518.0 729.748164878597 1.255180475194201 174.0 7.0 120.0 
592.0000042429967 3546.0 519.0 727.1575381140616 1.2338716979953364 174.0 7.0 119.0 
594.0000042429967 3545.0 519.0 729.7933370976867 1.215918904897613 176.0 7.0 120.0 
596.0000042429967 3548.0 517.0 732.3704121965 1.2550422323576522 180.0 7.0 121.0 
598.0000042429967 3560.0 518.0 737.5765104460767 1.2111321089176843 180.0 7.0 123.0 
600.0000042429967 3576.0 519.0 737.574251835124 1.1221471236934244 183.0 7.0 123.0 
602.0000042429967 3588.0 520.0 745.3935629587811 1.2216018797209454 184.0 7.0 126.0 
604.0000042429967 3583.0 517.0 742.7871259175622 1.1168472522419384 186.0 7.0 125.0 
606.0000042429967 3577.0 517.0 742.7826086956536 1.1177242034133648 186.0 7.0 125.0 
608.0000042429967 3587.0 519.0 745.3822699040119 1.1974836832819882 187.0 7.0 126.0 
610.0000042429967 3591.0 517.0 745.3664596273286 1.166740999206787 187.0 7.0 126.0 
612.0000042429967 3613.0 518.0 745.3845285149658 1.0913728131153089 186.0 7.0 126.0 
614.0000042429967 3633.0 519.0 745.3935629587811 1.213798818005404 185.0 7.0 126.0 
616.0000042429967 3625.0 519.0 745.4025974025949 1.243548927224337 186.0 7.0 126.0 
618.0000042429967 3623.0 519.0 745.3980801806878 1.1730598716671459 187.0 7.0 126.0 
620.0000042429967 3616.0 518.0 745.3822699040119 1.227439535139678 186.0 7.0 126.0 
622.0000042429967 3651.0 519.0 745.3913043478271 1.220614173099847 185.0 8.0 125.0 
624.0000042429967 3662.0 519.0 748.0135516657224 1.1306804620135378 185.0 7.0 127.0 
626.0000042429967 3655.0 518.0 748.0067758328605 1.2342226566035421 184.0 7.0 127.0 
628.0000042429967 3657.0 518.0 748.0 1.2804490021637487 185.0 7.0 127.0 
630.0000042429967 3684.0 519.0 748.0090344438153 1.27040903415685 185.0 7.0 127.0 
632.0000042429967 3706.0 519.0 747.9796725014091 1.300435832815934 185.0 7.0 127.0 
634.0000042429967 3722.0 519.0 750.6041784302654 1.2016095341801063 185.0 7.0 128.0 
636.0000042429967 3733.0 520.0 750.5928853754966 1.1696301767349337 186.0 7.0 128.0 
638.0000042429967 3749.0 520.0 750.5838509316749 1.2993971239282938 186.0 7.0 128.0 
640.0000042429967 3774.0 523.0 750.5838509316749 1.330148568623045 185.0 7.0 128.0 
642.0000042429967 3784.0 524.0 747.9977413890465 1.3008917709993308 186.0 7.0 127.0 
644.0000042429967 3782.0 522.0 745.4206662902334 1.3854913021557744 184.0 8.0 125.0 
646.0000042429967 3754.0 520.0 745.4297007340473 1.2791238421400979 183.0 8.0 125.0 
648.0000042429967 3725.0 518.0 745.4048560135496 1.27134986562645 179.0 8.0 125.0 
650.0000042429967 3715.0 516.0 742.809712027106 1.3211414243585244 176.0 8.0 124.0 
652.0000042429967 3709.0 515.0 742.8255223037818 1.1885313596594882 175.0 8.0 124.0 
654.0000042429967 3687.0 514.0 740.2348955392465 1.0978825722265786 175.0 7.0 124.0 
656.0000042429967 3691.0 514.0 740.2484472049688 1.3065990578651734 176.0 7.0 124.0 
658.0000042429967 3700.0 513.0 745.4387351778629 1.1723013445373924 176.0 7.0 126.0 
660.0000042429967 3699.0 515.0 745.4025974025951 1.1674038360816372 175.0 7.0 126.0 
662.0000042429967 3698.0 515.0 745.3709768492357 1.3950305180114055 175.0 7.0 126.0 
664.0000042429967 3718.0 517.0 745.4048560135496 1.2928292782219142 175.0 7.0 126.0 
#####################################################################
# End of data export. Simulation finished at: 2019-03-10T19:04+0000 #
#####################################################################
