#####################################################################
# Alchemist log file - simulation started at: 2019-03-03T21:52+0000 #
#####################################################################
# seed = 0.0, bandwidth = 1333521.4321633242, accessPointCount = 72.92664737217109, baserange = 1000.0
#
# The columns have the following meaning: 
# time neighbor_count[Sum] <value>@neighbor_count[Sum] packet_size[Mean] mean_delay[Mean] crowd[Sum] overcrowded[Sum] risk[Sum] 
0.0 NaN NaN NaN NaN NaN NaN NaN 
10.000405536260626 46972.0 1370.0 4993.093690248566 0.5819604188809779 1496.0 1.0 1496.0 
20.000405536260626 45190.0 1293.0 4993.700446144041 0.4999294717011487 1495.0 2.0 1495.0 
30.000405536260626 45218.0 1293.0 4993.664754620778 0.4999919671812904 1495.0 2.0 1495.0 
40.00040553626063 45176.0 1292.0 4993.68005098789 0.5002344782201724 1496.0 1.0 1496.0 
50.00040553626063 45177.0 1292.0 4993.601019757807 0.49965284268211757 1495.0 2.0 1495.0 
60.00040553626063 45172.0 1293.0 4990.801784576163 0.5020214142410516 1494.0 2.0 1494.0 
70.00038722994573 45272.0 1293.0 1468.4741873804967 0.49964238590464993 515.0 8.0 356.0 
80.00038722994573 45276.0 1292.0 1477.12683237731 0.4993472955578517 506.0 5.0 362.0 
90.00038722994573 45292.0 1292.0 1477.2058636073937 0.4993660960954902 507.0 5.0 362.0 
100.00038722994573 45306.0 1293.0 1480.0280433397063 0.4995025859536774 509.0 4.0 364.0 
110.00038722994573 45321.0 1293.0 1480.0586360739335 0.4995221939449316 506.0 7.0 361.0 
120.00038722994573 45313.0 1293.0 1480.068833652006 0.49980034371792365 508.0 6.0 362.0 
130.00038722994574 45418.0 1294.0 1477.139579349904 0.5017573287746544 506.0 6.0 361.0 
140.00038722994574 45420.0 1295.0 1471.207138304653 0.5033060935283784 506.0 5.0 360.0 
150.00038722994574 45261.0 1293.0 1471.1586998087946 0.5011056063271117 506.0 5.0 360.0 
160.00038722994574 45092.0 1293.0 1471.2428298279158 0.5003094228459827 508.0 6.0 359.0 
170.00038722994574 45004.0 1294.0 1477.0452517527076 0.5001615610399893 508.0 6.0 361.0 
180.00038722994574 45090.0 1296.0 1468.209050350541 0.5020540754452864 509.0 6.0 358.0 
190.00038722994574 45000.0 1296.0 1468.2855321861073 0.5006089590691689 505.0 6.0 358.0 
200.00038722994574 44911.0 1296.0 1468.2243467176538 0.5009026310941774 506.0 6.0 358.0 
210.00038722994574 44847.0 1295.0 1459.5028680688351 0.5023296785670474 503.0 6.0 355.0 
220.00038722994574 44842.0 1296.0 1459.4518801784575 0.50298051917981 503.0 6.0 355.0 
230.00038722994574 44701.0 1296.0 1465.3511790949638 0.5031516080925548 499.0 8.0 355.0 
240.00038722994574 44628.0 1294.0 1462.3250478011475 0.5007989375628848 499.0 7.0 355.0 
250.00038722994574 44552.0 1295.0 1456.5277246653934 0.5013983273617106 502.0 6.0 354.0 
260.0003872299458 44038.0 1292.0 1456.4920331421276 0.5026250331612109 499.0 6.0 354.0 
270.0003872299458 43835.0 1292.0 1456.545570427023 0.5008093381763609 497.0 6.0 354.0 
280.0003872299458 43623.0 1291.0 1462.2638623326977 0.502308490148581 497.0 7.0 355.0 
290.0003872299458 43480.0 1292.0 1459.3906947100077 0.5014286770110316 495.0 7.0 354.0 
300.0003872299458 43188.0 1291.0 1453.4684512428285 0.5050293180835855 492.0 7.0 352.0 
310.0003872299458 42819.0 1288.0 1447.660930528999 0.5034312584893088 486.0 7.0 350.0 
320.0003872299458 42496.0 1285.0 1450.585086042067 0.5034636661404145 486.0 7.0 351.0 
330.0003872299458 42263.0 1283.0 1447.6991714467808 0.5005301613341675 482.0 7.0 350.0 
340.0003872299458 42096.0 1283.0 1435.928616953472 0.5022534315822839 481.0 7.0 346.0 
350.0003872299458 41769.0 1282.0 1435.9694072657753 0.503123053700117 478.0 7.0 346.0 
360.0003872299458 41780.0 1282.0 1438.8476736775 0.5007804997170278 479.0 8.0 346.0 
370.0003872299458 41701.0 1282.0 1435.936265137029 0.5024639630218678 483.0 6.0 347.0 
380.0003872299458 41620.0 1282.0 1438.7660930528991 0.5042387155530252 485.0 6.0 348.0 
390.0003872299458 41475.0 1281.0 1432.9432759719573 0.503660231548761 483.0 7.0 345.0 
400.0003872299458 41365.0 1280.0 1432.9432759719573 0.5014766270771792 487.0 6.0 346.0 
410.0003872299458 41050.0 1276.0 1441.7590822179743 0.501153368495032 492.0 6.0 349.0 
420.0003872299458 41045.0 1276.0 1432.9611217335864 0.5031638068800561 486.0 6.0 346.0 
430.0003872299458 40974.0 1275.0 1421.175270873169 0.49991552516564197 486.0 7.0 341.0 
440.0003872299458 40955.0 1277.0 1427.0082855321855 0.5028360705438456 491.0 7.0 343.0 
450.0003872299458 40947.0 1277.0 1432.925430210327 0.5014601441635347 496.0 7.0 345.0 
460.0003872299458 40918.0 1276.0 1435.796048438495 0.49957011660309547 493.0 7.0 346.0 
470.0003872299458 40905.0 1275.0 1435.8164435946458 0.499963403361941 493.0 7.0 346.0 
480.0002205126237 40842.0 1276.0 1427.0363288718916 0.5022930320940482 491.0 5.0 345.0 
490.0002205126237 40806.0 1276.0 1409.4404079031233 0.49950935432480964 487.0 6.0 338.0 
500.0002205126237 41141.0 1282.0 1397.6800509878908 0.5031902609860197 480.0 8.0 332.0 
510.0002205126237 41019.0 1281.0 1400.6832377310375 0.49992660436813263 483.0 7.0 334.0 
520.0003872299458 41066.0 1281.0 1368.3849585723406 0.5051906025388132 479.0 7.0 323.0 
530.0003872299458 40999.0 1279.0 1365.5296367112808 0.5002916377079004 477.0 7.0 322.0 
540.0003872299458 41047.0 1281.0 1383.1434034416832 0.500674069763816 475.0 7.0 328.0 
550.0003872299458 40954.0 1282.0 1383.1026131293809 0.4994549729163478 477.0 7.0 328.0 
560.0003872299458 41059.0 1283.0 1383.0669216061167 0.5011577098920665 477.0 7.0 328.0 
570.0003872299458 40924.0 1283.0 1391.9133205863598 0.500187966193222 480.0 7.0 331.0 
580.0004055362606 41205.0 1284.0 1403.6099426386247 0.4998939109324671 490.0 6.0 336.0 
590.0004055362606 41156.0 1282.0 1409.4913957934994 0.5026420904785668 498.0 6.0 338.0 
600.0004055362606 41019.0 1281.0 1412.3773103887843 0.5002488882629998 502.0 6.0 339.0 
610.0002200447927 41140.0 1286.0 1427.0694710006387 0.5010259709795544 504.0 6.0 344.0 
620.0002200447927 41113.0 1287.0 1430.0650095602282 0.4998496170656621 504.0 6.0 345.0 
630.0004055362606 41128.0 1288.0 1438.970044614404 0.5002970283425875 500.0 6.0 348.0 
640.0004055362606 41094.0 1286.0 1436.0050987890377 0.4999454850239439 505.0 7.0 346.0 
650.0004055362606 41116.0 1286.0 1450.653919694073 0.5000386116318336 495.0 7.0 351.0 
660.0004055362606 41353.0 1291.0 1468.2472912683227 0.5078933351575146 498.0 5.0 359.0 
#####################################################################
# End of data export. Simulation finished at: 2019-03-03T22:25+0000 #
#####################################################################
