#####################################################################
# Alchemist log file - simulation started at: 2019-03-06T03:24+0000 #
#####################################################################
# seed = 6.0, bandwidth = 5623413.251903491, accessPointCount = 10.0, baserange = 100.0
#
# The columns have the following meaning: 
# time neighbor_count[Sum] <value>@neighbor_count[Sum] packet_size[Mean] mean_delay[Mean] crowd[Sum] overcrowded[Sum] risk[Sum] 
0.0 NaN NaN NaN NaN NaN NaN NaN 
2.0002343446952833 35.0 14.0 4987.944260119442 0.47311143974087355 1497.0 0.0 1497.0 
4.000234344695283 47.0 14.0 4988.071665560717 0.47257942481515436 1497.0 0.0 1497.0 
6.000234344695284 58.0 14.0 4988.026542800266 0.4884800427759386 1497.0 0.0 1497.0 
8.000234344695283 61.0 14.0 4988.066357000664 0.4786913038975904 1497.0 0.0 1497.0 
10.000234344695283 64.0 14.0 4988.015925680159 0.4893020527625076 1497.0 0.0 1497.0 
12.000234344695283 64.0 14.0 4988.0796284007965 0.48929877988159365 1497.0 0.0 1497.0 
14.000234344695283 64.0 14.0 4987.968148639681 0.4893067900424028 1497.0 0.0 1497.0 
16.000234344695283 64.0 14.0 4988.058394160584 0.4893026322557823 1497.0 0.0 1497.0 
18.000234344695283 64.0 14.0 4987.968148639681 0.48930679004240274 1497.0 0.0 1497.0 
20.000234344695283 64.0 14.0 4988.0849369608495 0.4892971331384061 1497.0 0.0 1497.0 
22.000234344695283 64.0 14.0 4987.968148639681 0.4893062921241679 1497.0 0.0 1497.0 
24.000234344695283 64.0 14.0 4988.0849369608495 0.4892971331384061 1497.0 0.0 1497.0 
26.000234344695283 64.0 14.0 4987.968148639681 0.4893062921241679 1497.0 0.0 1497.0 
28.000234344695283 64.0 14.0 4988.0849369608495 0.4892971331384061 1497.0 0.0 1497.0 
30.000234344695283 64.0 14.0 4987.968148639681 0.4893062921241679 1497.0 0.0 1497.0 
32.000234344695286 64.0 14.0 4988.0849369608495 0.4892971331384061 1497.0 0.0 1497.0 
34.000234344695286 64.0 14.0 4987.968148639681 0.48930629212416793 1497.0 0.0 1497.0 
36.000234344695286 64.0 14.0 4988.0849369608495 0.48929713313840606 1497.0 0.0 1497.0 
38.000234344695286 64.0 14.0 4987.968148639681 0.48930629212416793 1497.0 0.0 1497.0 
40.000234344695286 64.0 14.0 4988.0849369608495 0.48929713313840606 1497.0 0.0 1497.0 
42.000234344695286 64.0 14.0 4987.968148639681 0.48930629212416793 1497.0 0.0 1497.0 
44.000234344695286 64.0 14.0 4988.0849369608495 0.48929713313840606 1497.0 0.0 1497.0 
46.000234344695286 64.0 14.0 4987.968148639681 0.48930629212416793 1497.0 0.0 1497.0 
48.000234344695286 64.0 14.0 4988.0849369608495 0.48929713313840606 1497.0 0.0 1497.0 
50.000234344695286 64.0 14.0 4987.968148639681 0.48930629212416793 1497.0 0.0 1497.0 
52.000234344695286 64.0 14.0 4988.0849369608495 0.48929713313840606 1497.0 0.0 1497.0 
54.000234344695286 64.0 14.0 4987.968148639681 0.48930629212416793 1497.0 0.0 1497.0 
56.000234344695286 64.0 14.0 4988.0849369608495 0.48929713313840606 1497.0 0.0 1497.0 
58.000234344695286 64.0 14.0 4987.968148639681 0.48930629212416793 1497.0 0.0 1497.0 
60.000234344695286 64.0 14.0 4988.0849369608495 0.48929713313840606 1497.0 0.0 1497.0 
62.001304213596484 64.0 14.0 400.0 0.4939338290337367 13.0 0.0 0.0 
64.00130421359648 64.0 14.0 400.0 0.4940251140434521 9.0 0.0 0.0 
66.00130421359648 64.0 14.0 400.0 0.4940251140434546 6.0 0.0 0.0 
68.00130421359648 64.0 14.0 400.0 0.4940251140434546 3.0 0.0 0.0 
70.00130421359648 64.0 14.0 400.0 0.4940251140434546 2.0 0.0 0.0 
72.00130421359648 64.0 14.0 400.0 0.4940251140434546 2.0 0.0 0.0 
74.00130421359648 64.0 14.0 400.0 0.4940251140434546 2.0 0.0 0.0 
76.00130421359648 64.0 14.0 400.0 0.4940251140434546 1.0 0.0 0.0 
78.00130421359648 64.0 14.0 400.0 0.4940251140434546 1.0 0.0 0.0 
80.00130421359648 64.0 14.0 400.0 0.4940251140434546 1.0 0.0 0.0 
82.00130421359648 64.0 14.0 400.0 0.4940251140434546 1.0 0.0 0.0 
84.00130421359648 64.0 14.0 400.0 0.4940251140434546 1.0 0.0 0.0 
86.00130421359648 64.0 14.0 400.0 0.4940251140434546 0.0 0.0 0.0 
88.00130421359648 64.0 14.0 400.0 0.4940251140434546 0.0 0.0 0.0 
90.00130421359648 64.0 14.0 400.0 0.4940251140434546 0.0 0.0 0.0 
92.00130421359648 64.0 14.0 400.0 0.4940251140434546 0.0 0.0 0.0 
94.00130421359648 64.0 14.0 400.0 0.4940251140434546 0.0 0.0 0.0 
96.00130421359648 64.0 14.0 400.0 0.4940251140434546 0.0 0.0 0.0 
98.00130421359648 64.0 14.0 400.0 0.4940251140434546 0.0 0.0 0.0 
100.00130421359648 64.0 14.0 400.0 0.4940251140434546 0.0 0.0 0.0 
102.00130421359648 64.0 14.0 400.0 0.4940251140434546 0.0 0.0 0.0 
104.00130421359648 64.0 14.0 400.0 0.4940251140434546 0.0 0.0 0.0 
106.00130421359648 64.0 14.0 400.0 0.4940251140434546 0.0 0.0 0.0 
108.00130421359648 64.0 14.0 400.0 0.4940251140434546 0.0 0.0 0.0 
110.00130421359648 64.0 14.0 400.0 0.4940251140434546 0.0 0.0 0.0 
112.00130421359648 64.0 14.0 400.0 0.4940251140434546 0.0 0.0 0.0 
114.00130421359648 64.0 14.0 400.0 0.4940251140434546 0.0 0.0 0.0 
116.00130421359648 64.0 14.0 400.0 0.4940251140434546 0.0 0.0 0.0 
118.00130421359648 64.0 14.0 400.0 0.4940251140434546 0.0 0.0 0.0 
120.00130421359648 64.0 14.0 400.0 0.4940251140434546 0.0 0.0 0.0 
122.00130421359648 64.0 14.0 400.0 0.4940251140434546 0.0 0.0 0.0 
124.00130421359648 64.0 14.0 400.0 0.4940251140434546 0.0 0.0 0.0 
126.00130421359648 64.0 14.0 400.0 0.4940251140434546 0.0 0.0 0.0 
128.00130421359648 64.0 14.0 400.0 0.4940251140434546 0.0 0.0 0.0 
130.00130421359648 64.0 14.0 400.0 0.49402511404345056 0.0 0.0 0.0 
132.00130421359648 64.0 14.0 400.0 0.49402511404345056 0.0 0.0 0.0 
134.00130421359648 64.0 14.0 400.0 0.49402511404345056 0.0 0.0 0.0 
136.00130421359648 64.0 14.0 400.0 0.49402511404345056 0.0 0.0 0.0 
138.00130421359648 64.0 14.0 400.0 0.49402511404345056 0.0 0.0 0.0 
140.00130421359648 64.0 14.0 400.0 0.49402511404345056 0.0 0.0 0.0 
142.00130421359648 64.0 14.0 400.0 0.49402511404345056 0.0 0.0 0.0 
144.00130421359648 64.0 14.0 400.0 0.49402511404345056 0.0 0.0 0.0 
146.00130421359648 64.0 14.0 400.0 0.49402511404345056 0.0 0.0 0.0 
148.00130421359648 64.0 14.0 400.0 0.49402511404345056 0.0 0.0 0.0 
150.00130421359648 64.0 14.0 400.0 0.49402511404345056 0.0 0.0 0.0 
152.00130421359648 64.0 14.0 400.0 0.49402511404345056 0.0 0.0 0.0 
154.00130421359648 64.0 14.0 400.0 0.49402511404345056 0.0 0.0 0.0 
156.00130421359648 64.0 14.0 400.0 0.49402511404345056 0.0 0.0 0.0 
158.00130421359648 64.0 14.0 400.0 0.49402511404345056 0.0 0.0 0.0 
160.00130421359648 64.0 14.0 400.0 0.49402511404345056 0.0 0.0 0.0 
162.00130421359648 64.0 14.0 400.0 0.49402511404345056 0.0 0.0 0.0 
164.00130421359648 64.0 14.0 400.0 0.49402511404345056 0.0 0.0 0.0 
166.00130421359648 64.0 14.0 400.0 0.49402511404345056 0.0 0.0 0.0 
168.00130421359648 64.0 14.0 400.0 0.49402511404345056 0.0 0.0 0.0 
170.00130421359648 64.0 14.0 400.0 0.49402511404345056 0.0 0.0 0.0 
172.00130421359648 64.0 14.0 400.0 0.49402511404345056 0.0 0.0 0.0 
174.00130421359648 64.0 14.0 400.0 0.49402511404345056 0.0 0.0 0.0 
176.00130421359648 64.0 14.0 400.0 0.49402511404345056 0.0 0.0 0.0 
178.00130421359648 64.0 14.0 400.0 0.49402511404345056 0.0 0.0 0.0 
180.00130421359648 64.0 14.0 400.0 0.49402511404345056 0.0 0.0 0.0 
182.00130421359648 64.0 14.0 400.0 0.49402511404345056 0.0 0.0 0.0 
184.00130421359648 64.0 14.0 400.0 0.49402511404345056 0.0 0.0 0.0 
186.00130421359648 64.0 14.0 400.0 0.49402511404345056 0.0 0.0 0.0 
188.00130421359648 64.0 14.0 400.0 0.49402511404345056 0.0 0.0 0.0 
190.00130421359648 64.0 14.0 400.0 0.49402511404345056 0.0 0.0 0.0 
192.00130421359648 64.0 14.0 400.0 0.49402511404345056 0.0 0.0 0.0 
194.00130421359648 64.0 14.0 400.0 0.49402511404345056 0.0 0.0 0.0 
196.00130421359648 64.0 14.0 400.0 0.49402511404345056 0.0 0.0 0.0 
198.00130421359648 64.0 14.0 400.0 0.49402511404345056 0.0 0.0 0.0 
200.00130421359648 64.0 14.0 400.0 0.49402511404345056 0.0 0.0 0.0 
202.00130421359648 64.0 14.0 400.0 0.49402511404345056 0.0 0.0 0.0 
204.00130421359648 64.0 14.0 400.0 0.49402511404345056 0.0 0.0 0.0 
206.00130421359648 64.0 14.0 400.0 0.49402511404345056 0.0 0.0 0.0 
208.00130421359648 64.0 14.0 400.0 0.49402511404345056 0.0 0.0 0.0 
210.00130421359648 64.0 14.0 400.0 0.49402511404345056 0.0 0.0 0.0 
212.00130421359648 64.0 14.0 400.0 0.49402511404345056 0.0 0.0 0.0 
214.00130421359648 64.0 14.0 400.0 0.49402511404345056 0.0 0.0 0.0 
216.00130421359648 64.0 14.0 400.0 0.49402511404345056 0.0 0.0 0.0 
218.00130421359648 64.0 14.0 400.0 0.49402511404345056 0.0 0.0 0.0 
220.00130421359648 64.0 14.0 400.0 0.49402511404345056 0.0 0.0 0.0 
222.00130421359648 64.0 14.0 400.0 0.49402511404345056 0.0 0.0 0.0 
224.00130421359648 64.0 14.0 400.0 0.49402511404345056 0.0 0.0 0.0 
226.00130421359648 64.0 14.0 400.0 0.49402511404345056 0.0 0.0 0.0 
228.00130421359648 64.0 14.0 400.0 0.49402511404345056 0.0 0.0 0.0 
230.00130421359648 64.0 14.0 400.0 0.49402511404345056 0.0 0.0 0.0 
232.00130421359648 64.0 14.0 400.0 0.49402511404345056 0.0 0.0 0.0 
234.00130421359648 64.0 14.0 400.0 0.49402511404345056 0.0 0.0 0.0 
236.00130421359648 64.0 14.0 400.0 0.49402511404345056 0.0 0.0 0.0 
238.00130421359648 64.0 14.0 400.0 0.49402511404345056 0.0 0.0 0.0 
240.00130421359648 64.0 14.0 400.0 0.49402511404345056 0.0 0.0 0.0 
242.00130421359648 64.0 14.0 400.0 0.49402511404345056 0.0 0.0 0.0 
244.00130421359648 64.0 14.0 400.0 0.49402511404345056 0.0 0.0 0.0 
246.00130421359648 64.0 14.0 400.0 0.49402511404345056 0.0 0.0 0.0 
248.00130421359648 64.0 14.0 400.0 0.49402511404345056 0.0 0.0 0.0 
250.00130421359648 64.0 14.0 400.0 0.49402511404345056 0.0 0.0 0.0 
252.00130421359648 64.0 14.0 400.0 0.49402511404345056 0.0 0.0 0.0 
254.00130421359648 64.0 14.0 400.0 0.49402511404345056 0.0 0.0 0.0 
256.0013042135965 64.0 14.0 400.0 0.49402511404345056 0.0 0.0 0.0 
258.0013042135965 64.0 14.0 400.0 0.4940251140434567 0.0 0.0 0.0 
260.0013042135965 64.0 14.0 400.0 0.4940251140434567 0.0 0.0 0.0 
262.0013042135965 64.0 14.0 400.0 0.4940251140434567 0.0 0.0 0.0 
264.0013042135965 64.0 14.0 400.0 0.4940251140434567 0.0 0.0 0.0 
266.0013042135965 64.0 14.0 400.0 0.4940251140434567 0.0 0.0 0.0 
268.0013042135965 64.0 14.0 400.0 0.4940251140434567 0.0 0.0 0.0 
270.0013042135965 64.0 14.0 400.0 0.4940251140434567 0.0 0.0 0.0 
272.0013042135965 64.0 14.0 400.0 0.4940251140434567 0.0 0.0 0.0 
274.0013042135965 64.0 14.0 400.0 0.4940251140434567 0.0 0.0 0.0 
276.0013042135965 64.0 14.0 400.0 0.4940251140434567 0.0 0.0 0.0 
278.0013042135965 64.0 14.0 400.0 0.4940251140434567 0.0 0.0 0.0 
280.0013042135965 64.0 14.0 400.0 0.4940251140434567 0.0 0.0 0.0 
282.0013042135965 64.0 14.0 400.0 0.4940251140434567 0.0 0.0 0.0 
284.0013042135965 64.0 14.0 400.0 0.4940251140434567 0.0 0.0 0.0 
286.0013042135965 64.0 14.0 400.0 0.4940251140434567 0.0 0.0 0.0 
288.0013042135965 64.0 14.0 400.0 0.4940251140434567 0.0 0.0 0.0 
290.0013042135965 64.0 14.0 400.0 0.4940251140434567 0.0 0.0 0.0 
292.0013042135965 64.0 14.0 400.0 0.4940251140434567 0.0 0.0 0.0 
294.0013042135965 64.0 14.0 400.0 0.4940251140434567 0.0 0.0 0.0 
296.0013042135965 64.0 14.0 400.0 0.4940251140434567 0.0 0.0 0.0 
298.0013042135965 64.0 14.0 400.0 0.4940251140434567 0.0 0.0 0.0 
300.0013042135965 64.0 14.0 400.0 0.4940251140434567 0.0 0.0 0.0 
302.0013042135965 64.0 14.0 400.0 0.4940251140434567 0.0 0.0 0.0 
304.0013042135965 64.0 14.0 400.0 0.4940251140434567 0.0 0.0 0.0 
306.0013042135965 64.0 14.0 400.0 0.4940251140434567 0.0 0.0 0.0 
308.0013042135965 64.0 14.0 400.0 0.4940251140434567 0.0 0.0 0.0 
310.0013042135965 64.0 14.0 400.0 0.4940251140434567 0.0 0.0 0.0 
312.0013042135965 64.0 14.0 400.0 0.4940251140434567 0.0 0.0 0.0 
314.0013042135965 64.0 14.0 400.0 0.4940251140434567 0.0 0.0 0.0 
316.0013042135965 64.0 14.0 400.0 0.4940251140434567 0.0 0.0 0.0 
318.0013042135965 64.0 14.0 400.0 0.4940251140434567 0.0 0.0 0.0 
320.0013042135965 64.0 14.0 400.0 0.4940251140434567 0.0 0.0 0.0 
322.0013042135965 64.0 14.0 400.0 0.4940251140434567 0.0 0.0 0.0 
324.0013042135965 64.0 14.0 400.0 0.4940251140434567 0.0 0.0 0.0 
326.0013042135965 64.0 14.0 400.0 0.4940251140434567 0.0 0.0 0.0 
328.0013042135965 64.0 14.0 400.0 0.4940251140434567 0.0 0.0 0.0 
330.0013042135965 64.0 14.0 400.0 0.4940251140434567 0.0 0.0 0.0 
332.0013042135965 64.0 14.0 400.0 0.4940251140434567 0.0 0.0 0.0 
334.0013042135965 64.0 14.0 400.0 0.4940251140434567 0.0 0.0 0.0 
336.0013042135965 64.0 14.0 400.0 0.4940251140434567 0.0 0.0 0.0 
338.0013042135965 64.0 14.0 400.0 0.4940251140434567 0.0 0.0 0.0 
340.0013042135965 64.0 14.0 400.0 0.4940251140434567 0.0 0.0 0.0 
342.0013042135965 64.0 14.0 400.0 0.4940251140434567 0.0 0.0 0.0 
344.0013042135965 64.0 14.0 400.0 0.4940251140434567 0.0 0.0 0.0 
346.0013042135965 64.0 14.0 400.0 0.4940251140434567 0.0 0.0 0.0 
348.0013042135965 64.0 14.0 400.0 0.4940251140434567 0.0 0.0 0.0 
350.0013042135965 64.0 14.0 400.0 0.4940251140434567 0.0 0.0 0.0 
352.0013042135965 64.0 14.0 400.0 0.4940251140434567 0.0 0.0 0.0 
354.0013042135965 64.0 14.0 400.0 0.4940251140434567 0.0 0.0 0.0 
356.0013042135965 64.0 14.0 400.0 0.4940251140434567 0.0 0.0 0.0 
358.0013042135965 64.0 14.0 400.0 0.4940251140434567 0.0 0.0 0.0 
360.0013042135965 64.0 14.0 400.0 0.4940251140434567 0.0 0.0 0.0 
362.0013042135965 64.0 14.0 400.0 0.4940251140434567 0.0 0.0 0.0 
364.0013042135965 64.0 14.0 400.0 0.4940251140434567 0.0 0.0 0.0 
366.0013042135965 64.0 14.0 400.0 0.4940251140434567 0.0 0.0 0.0 
368.0013042135965 64.0 14.0 400.0 0.4940251140434567 0.0 0.0 0.0 
370.0013042135965 64.0 14.0 400.0 0.4940251140434567 0.0 0.0 0.0 
372.0013042135965 64.0 14.0 400.0 0.4940251140434567 0.0 0.0 0.0 
374.0013042135965 64.0 14.0 400.0 0.4940251140434567 0.0 0.0 0.0 
376.0013042135965 64.0 14.0 400.0 0.4940251140434567 0.0 0.0 0.0 
378.0013042135965 64.0 14.0 400.0 0.4940251140434567 0.0 0.0 0.0 
380.0013042135965 64.0 14.0 400.0 0.4940251140434567 0.0 0.0 0.0 
382.0013042135965 64.0 14.0 400.0 0.4940251140434567 0.0 0.0 0.0 
384.0013042135965 64.0 14.0 400.0 0.4940251140434567 0.0 0.0 0.0 
386.0013042135965 64.0 14.0 400.0 0.4940251140434567 0.0 0.0 0.0 
388.0013042135965 64.0 14.0 400.0 0.4940251140434567 0.0 0.0 0.0 
390.0013042135965 64.0 14.0 400.0 0.4940251140434567 0.0 0.0 0.0 
392.0013042135965 64.0 14.0 400.0 0.4940251140434567 0.0 0.0 0.0 
394.0013042135965 64.0 14.0 400.0 0.4940251140434567 0.0 0.0 0.0 
396.0013042135965 64.0 14.0 400.0 0.4940251140434567 0.0 0.0 0.0 
398.0013042135965 64.0 14.0 400.0 0.4940251140434567 0.0 0.0 0.0 
400.0013042135965 64.0 14.0 400.0 0.4940251140434567 0.0 0.0 0.0 
402.0013042135965 64.0 14.0 400.0 0.4940251140434567 0.0 0.0 0.0 
404.0013042135965 64.0 14.0 400.0 0.4940251140434567 0.0 0.0 0.0 
406.0013042135965 64.0 14.0 400.0 0.4940251140434567 0.0 0.0 0.0 
408.0013042135965 64.0 14.0 400.0 0.4940251140434567 0.0 0.0 0.0 
410.0013042135965 64.0 14.0 400.0 0.4940251140434567 0.0 0.0 0.0 
412.0013042135965 64.0 14.0 400.0 0.4940251140434567 0.0 0.0 0.0 
414.0013042135965 64.0 14.0 400.0 0.4940251140434567 0.0 0.0 0.0 
416.0013042135965 64.0 14.0 400.0 0.4940251140434567 0.0 0.0 0.0 
418.0013042135965 64.0 14.0 400.0 0.4940251140434567 0.0 0.0 0.0 
420.0013042135965 64.0 14.0 400.0 0.4940251140434567 0.0 0.0 0.0 
422.0013042135965 64.0 14.0 400.0 0.4940251140434567 0.0 0.0 0.0 
424.0013042135965 64.0 14.0 400.0 0.4940251140434567 0.0 0.0 0.0 
426.0013042135965 64.0 14.0 400.0 0.4940251140434567 0.0 0.0 0.0 
428.0013042135965 64.0 14.0 400.0 0.4940251140434567 0.0 0.0 0.0 
430.0013042135965 64.0 14.0 400.0 0.4940251140434567 0.0 0.0 0.0 
432.0013042135965 64.0 14.0 400.0 0.4940251140434567 0.0 0.0 0.0 
434.0013042135965 64.0 14.0 400.0 0.4940251140434567 0.0 0.0 0.0 
436.0013042135965 64.0 14.0 400.0 0.4940251140434567 0.0 0.0 0.0 
438.0013042135965 64.0 14.0 400.0 0.4940251140434567 0.0 0.0 0.0 
440.0013042135965 64.0 14.0 400.0 0.4940251140434567 0.0 0.0 0.0 
442.0013042135965 64.0 14.0 400.0 0.4940251140434567 0.0 0.0 0.0 
444.0013042135965 64.0 14.0 400.0 0.4940251140434567 0.0 0.0 0.0 
446.0013042135965 64.0 14.0 400.0 0.4940251140434567 0.0 0.0 0.0 
448.0013042135965 64.0 14.0 400.0 0.4940251140434567 0.0 0.0 0.0 
450.0013042135965 64.0 14.0 400.0 0.4940251140434567 0.0 0.0 0.0 
452.0013042135965 64.0 14.0 400.0 0.4940251140434567 0.0 0.0 0.0 
454.0013042135965 64.0 14.0 400.0 0.4940251140434567 0.0 0.0 0.0 
456.0013042135965 64.0 14.0 400.0 0.4940251140434567 0.0 0.0 0.0 
458.0013042135965 64.0 14.0 400.0 0.4940251140434567 0.0 0.0 0.0 
460.0013042135965 64.0 14.0 400.0 0.4940251140434567 0.0 0.0 0.0 
462.0013042135965 64.0 14.0 400.0 0.4940251140434567 0.0 0.0 0.0 
464.0013042135965 64.0 14.0 400.0 0.4940251140434567 0.0 0.0 0.0 
466.0013042135965 64.0 14.0 400.0 0.4940251140434567 0.0 0.0 0.0 
468.0013042135965 64.0 14.0 400.0 0.4940251140434567 0.0 0.0 0.0 
470.0013042135965 64.0 14.0 400.0 0.4940251140434567 0.0 0.0 0.0 
472.0013042135965 74.0 15.0 406.1181154611811 0.48941372338901395 2.0 0.0 2.0 
474.0013042135965 74.0 15.0 406.1234240212342 0.48912117191343973 6.0 0.0 2.0 
476.0013042135965 74.0 15.0 406.1021897810219 0.4891221573209007 6.0 0.0 2.0 
478.0013042135965 74.0 15.0 406.1234240212342 0.48912117191343973 6.0 0.0 2.0 
480.0013042135965 74.0 15.0 406.1021897810219 0.4891221573209007 6.0 0.0 2.0 
482.0013042135965 76.0 15.0 406.1234240212342 0.4909903010910519 6.0 0.0 2.0 
484.0013042135965 76.0 15.0 406.12607830126086 0.4909899053236043 6.0 0.0 2.0 
486.0013042135965 76.0 15.0 406.1154611811547 0.49098987189729854 6.0 0.0 2.0 
488.0013042135965 76.0 15.0 406.12873258128735 0.49099064471346293 6.0 0.0 2.0 
490.0013042135965 76.0 15.0 406.1234240212342 0.49098957997423825 6.0 0.0 2.0 
492.0013042135965 78.0 15.0 406.12607830126086 0.49254304250066616 6.0 0.0 2.0 
494.0013042135965 78.0 15.0 406.1021897810219 0.492546060673136 6.0 0.0 2.0 
496.0013042135965 78.0 15.0 406.12607830126086 0.4925431494648413 6.0 0.0 2.0 
498.0013042135965 78.0 15.0 406.12873258128735 0.4925425669557708 6.0 0.0 2.0 
500.0013042135965 78.0 15.0 406.1154611811547 0.49254352963334547 6.0 0.0 2.0 
502.0013042135965 78.0 15.0 406.12873258128735 0.4925441816691294 7.0 0.0 2.0 
504.0013042135965 78.0 15.0 406.12076974120765 0.4925432394930204 7.0 0.0 2.0 
506.0013042135965 78.0 15.0 406.1021897810219 0.4925449228417246 7.0 0.0 2.0 
508.0013042135965 78.0 15.0 406.1234240212342 0.4925437038958153 7.0 0.0 2.0 
510.0013042135965 78.0 15.0 406.12607830126086 0.4925431494648413 7.0 0.0 2.0 
512.0013042135965 78.0 15.0 406.1021897810219 0.492546060673136 7.0 0.0 2.0 
514.0013042135965 78.0 15.0 406.12607830126086 0.4925431494648433 7.0 0.0 2.0 
516.0013042135965 78.0 15.0 406.1021897810219 0.4925449228417303 7.0 0.0 2.0 
518.0013042135965 78.0 15.0 406.1234240212342 0.49254370389581725 7.0 0.0 2.0 
520.0013042135965 78.0 15.0 406.1154611811547 0.4925441067942108 7.0 0.0 2.0 
522.0013042135965 78.0 15.0 406.1154611811547 0.49254533509948784 7.0 0.0 2.0 
524.0013042135965 78.0 15.0 406.12873258128735 0.49254256695577237 7.0 0.0 2.0 
526.0013042135965 78.0 15.0 406.1021897810219 0.4925449228417303 7.0 0.0 2.0 
528.0013042135965 78.0 15.0 406.1234240212342 0.49254370389581725 7.0 0.0 2.0 
530.0013042135965 78.0 15.0 406.1154611811547 0.4925441067942108 7.0 0.0 2.0 
532.0013042135965 78.0 15.0 406.1154611811547 0.49254533509948784 7.0 0.0 2.0 
534.0013042135965 78.0 15.0 406.12873258128735 0.49254256695577237 7.0 0.0 2.0 
536.0013042135965 78.0 15.0 406.1021897810219 0.4925449228417303 7.0 0.0 2.0 
538.0013042135965 78.0 15.0 406.1234240212342 0.49254370389581725 7.0 0.0 2.0 
540.0013042135965 78.0 15.0 406.1154611811547 0.4925441067942108 7.0 0.0 2.0 
542.0013042135965 78.0 15.0 406.1154611811547 0.49254533509948784 7.0 0.0 2.0 
544.0013042135965 78.0 15.0 406.12873258128735 0.49254256695577237 7.0 0.0 2.0 
546.0013042135965 78.0 15.0 406.1021897810219 0.4925449228417303 7.0 0.0 2.0 
548.0013042135965 78.0 15.0 406.1234240212342 0.49254370389581725 7.0 0.0 2.0 
550.0013042135965 78.0 15.0 406.1154611811547 0.4925441067942108 7.0 0.0 2.0 
552.0013042135965 78.0 15.0 406.1154611811547 0.49254533509948784 7.0 0.0 2.0 
554.0013042135965 78.0 15.0 406.12873258128735 0.49254256695577237 7.0 0.0 2.0 
556.0013042135965 78.0 15.0 406.1021897810219 0.4925449228417303 7.0 0.0 2.0 
558.0013042135965 78.0 15.0 406.1234240212342 0.49254370389581725 7.0 0.0 2.0 
560.0013042135965 78.0 15.0 406.1154611811547 0.4925441067942108 7.0 0.0 2.0 
562.0013042135965 78.0 15.0 406.1154611811547 0.49254533509948784 7.0 0.0 2.0 
564.0013042135965 78.0 15.0 406.12873258128735 0.49254256695577237 7.0 0.0 2.0 
566.0013042135965 78.0 15.0 406.1021897810219 0.4925449228417303 7.0 0.0 2.0 
568.0013042135965 78.0 15.0 406.1234240212342 0.49254370389581725 7.0 0.0 2.0 
570.0013042135965 78.0 15.0 406.1154611811547 0.4925441067942108 7.0 0.0 2.0 
572.0013042135965 78.0 15.0 406.1154611811547 0.49254533509948784 7.0 0.0 2.0 
574.0013042135965 78.0 15.0 406.12873258128735 0.49254256695577237 7.0 0.0 2.0 
576.0013042135965 78.0 15.0 406.1021897810219 0.4925449228417303 7.0 0.0 2.0 
578.0013042135965 78.0 15.0 406.1234240212342 0.49254370389581725 7.0 0.0 2.0 
580.0013042135965 78.0 15.0 403.0497677504976 0.49277883967633584 7.0 0.0 1.0 
582.0013042135965 78.0 15.0 406.0889183808892 0.4925468927652824 7.0 0.0 2.0 
584.0013042135965 78.0 15.0 406.0889183808892 0.49254809343814515 7.0 0.0 2.0 
586.0013042135965 78.0 15.0 406.0889183808892 0.49254809343814515 7.0 0.0 2.0 
588.0013042135965 78.0 15.0 406.0889183808892 0.49254809343814515 7.0 0.0 2.0 
590.0013042135965 78.0 15.0 406.0889183808892 0.49254809343814515 7.0 0.0 2.0 
592.0013042135965 78.0 15.0 406.0889183808892 0.5427360633629572 7.0 0.0 2.0 
594.0013042135965 74.0 15.0 406.0889183808892 0.4929269991627159 7.0 0.0 2.0 
596.0013042135965 74.0 15.0 406.0889183808892 0.4929269991627159 7.0 0.0 2.0 
598.0013042135965 74.0 15.0 406.0889183808892 0.4929269991627159 7.0 0.0 2.0 
600.0013042135965 74.0 15.0 406.0889183808892 0.4929269991627159 7.0 0.0 2.0 
602.0013042135965 74.0 15.0 406.0889183808892 0.6243233731578294 7.0 0.0 2.0 
604.0013042135965 64.0 14.0 406.0889183808892 0.4936835474974148 7.0 0.0 2.0 
606.0013042135965 64.0 14.0 406.0889183808892 0.4936835474974148 6.0 0.0 2.0 
608.0013042135965 64.0 14.0 406.0889183808892 0.4936835474974148 6.0 0.0 2.0 
610.0013042135965 64.0 14.0 406.0889183808892 0.4936835474974148 6.0 0.0 2.0 
612.0013042135965 64.0 14.0 406.0889183808892 0.4936835474974148 6.0 0.0 2.0 
614.0013042135965 64.0 14.0 406.0889183808892 0.4936835474974148 6.0 0.0 2.0 
616.0013042135965 64.0 14.0 406.0889183808892 0.4936835474974148 6.0 0.0 2.0 
618.0013042135965 64.0 14.0 406.0889183808892 0.4936835474974148 6.0 0.0 2.0 
620.0013042135965 64.0 14.0 406.0889183808892 0.4936835474974148 6.0 0.0 2.0 
622.0013042135965 64.0 14.0 406.0889183808892 0.4936835474974148 6.0 0.0 2.0 
624.0013042135965 64.0 14.0 406.0889183808892 0.4936835474974148 6.0 0.0 2.0 
626.0013042135965 64.0 14.0 406.0889183808892 0.4936835474974148 6.0 0.0 2.0 
628.0013042135965 64.0 14.0 406.0889183808892 0.4936835474974148 6.0 0.0 2.0 
630.0013042135965 64.0 14.0 406.0889183808892 0.4936835474974148 6.0 0.0 2.0 
632.0013042135965 64.0 14.0 406.0889183808892 0.4936835474974148 6.0 0.0 2.0 
634.0013042135965 64.0 14.0 406.0889183808892 0.4936835474974148 6.0 0.0 2.0 
636.0013042135965 64.0 14.0 406.0889183808892 0.4936835474974148 6.0 0.0 2.0 
638.0013042135965 64.0 14.0 406.0889183808892 0.4936835474974148 6.0 0.0 2.0 
640.0013042135965 64.0 14.0 406.0889183808892 0.4936835474974148 6.0 0.0 2.0 
642.0013042135965 64.0 14.0 403.0444591904446 0.49402511404342936 4.0 0.0 1.0 
644.0013042135965 64.0 14.0 403.0444591904446 0.49402511404342936 4.0 0.0 1.0 
646.0013042135965 64.0 14.0 403.0444591904446 0.49402511404342936 3.0 0.0 1.0 
648.0013042135965 64.0 14.0 403.0444591904446 0.49402511404342936 2.0 0.0 1.0 
650.0013042135965 64.0 14.0 400.0 0.49402511404342936 0.0 0.0 0.0 
652.0013042135965 64.0 14.0 400.0 0.49402511404342936 0.0 0.0 0.0 
654.0013042135965 64.0 14.0 400.0 0.49402511404342936 0.0 0.0 0.0 
656.0013042135965 64.0 14.0 400.0 0.49402511404342936 0.0 0.0 0.0 
658.0013042135965 64.0 14.0 400.0 0.49402511404342936 0.0 0.0 0.0 
660.0013042135965 64.0 14.0 400.0 0.49402511404342936 0.0 0.0 0.0 
662.0013042135965 64.0 14.0 400.0 0.49402511404342936 0.0 0.0 0.0 
664.0013042135965 64.0 14.0 400.0 0.49402511404342936 0.0 0.0 0.0 
#####################################################################
# End of data export. Simulation finished at: 2019-03-06T03:27+0000 #
#####################################################################
