#####################################################################
# Alchemist log file - simulation started at: 2019-03-02T21:38+0000 #
#####################################################################
# seed = 0.0, bandwidth = 1000.0, accessPointCount = 37.60603093086394, baserange = 56.234132519034915
#
# The columns have the following meaning: 
# time neighbor_count[Sum] <value>@neighbor_count[Sum] packet_size[Mean] mean_delay[Mean] crowd[Sum] overcrowded[Sum] risk[Sum] 
0.0 NaN NaN NaN NaN NaN NaN NaN 
10.000405536260626 6.0 3.0 4987.48370273794 4.015999999999999 1497.0 0.0 1497.0 
20.000405536260626 24.0 8.0 4987.595827900913 5.169846153846153 1497.0 0.0 1497.0 
30.000405536260626 24.0 8.0 4987.5462842242505 7.869538461538461 1497.0 0.0 1497.0 
40.00040553626063 24.0 8.0 4987.5645371577575 5.940307692307692 1497.0 0.0 1497.0 
50.00040553626063 24.0 8.0 4987.559322033899 4.844307692307693 1497.0 0.0 1497.0 
60.00040553626063 24.0 8.0 4984.542372881356 7.537230769230769 1496.0 0.0 1496.0 
70.00040553626063 198.0 21.0 447.88005215123866 3.2071025785205842 18.0 0.0 16.0 
80.00040553626063 202.0 23.0 447.986962190352 5.942520863749449 18.0 0.0 16.0 
90.00040553626063 202.0 23.0 447.986962190352 11.017503945184142 18.0 0.0 16.0 
100.00040553626063 78.0 13.0 447.986962190352 12.028704945489109 16.0 0.0 16.0 
110.00040553626063 41.0 10.0 447.88005215123866 4.633794600477469 16.0 0.0 16.0 
120.00040553626063 39.0 9.0 447.88005215123866 3.3981132624163357 16.0 0.0 16.0 
130.00040553626064 37.0 8.0 447.87483702737944 3.1902758210637465 16.0 0.0 16.0 
140.00040553626064 198.0 21.0 447.9739243807041 5.072488972373646 16.0 0.0 16.0 
150.00040553626064 198.0 21.0 447.9687092568448 9.714136214020886 16.0 0.0 16.0 
160.00040553626064 198.0 21.0 447.9739243807041 14.036737612622284 16.0 0.0 16.0 
170.00040553626064 37.0 8.0 447.86962190352017 2.615198897986823 16.0 0.0 16.0 
180.00040553626064 37.0 8.0 447.86962190352017 2.307506590294515 16.0 0.0 16.0 
190.00040553626064 37.0 8.0 447.86962190352017 5.448532231320156 16.0 0.0 16.0 
200.00040553626064 161.0 18.0 447.99478487614095 2.523759754843409 16.0 0.0 16.0 
210.00040553626064 198.0 21.0 447.9739243807041 6.710136317620992 16.0 0.0 16.0 
220.00040553626064 198.0 21.0 447.9739243807041 12.216145123629797 16.0 0.0 16.0 
230.00040553626064 74.0 11.0 447.9687092568448 12.242834073215894 16.0 0.0 16.0 
240.00040553626064 37.0 8.0 447.86962190352017 1.3459681287560539 16.0 0.0 16.0 
250.00040553626064 37.0 8.0 447.86962190352017 3.922891205679131 16.0 0.0 16.0 
260.00040553626064 37.0 8.0 447.86962190352017 2.345045051832982 16.0 0.0 16.0 
270.00040553626064 198.0 21.0 447.99739243807056 3.9142264324444476 16.0 0.0 16.0 
280.00040553626064 198.0 21.0 447.99739243807056 9.420235238453254 16.0 0.0 16.0 
290.00040553626064 198.0 21.0 447.99739243807056 13.50632692454494 16.0 0.0 16.0 
300.00040553626064 37.0 8.0 447.88005215123866 1.563916846704777 16.0 0.0 16.0 
310.00040553626064 37.0 8.0 447.86962190352017 3.730583513371444 16.0 0.0 16.0 
320.00040553626064 37.0 8.0 447.86962190352017 2.07673735952529 16.0 0.0 16.0 
330.00040553626064 161.0 18.0 447.9843546284223 2.1862508509900676 16.0 0.0 16.0 
340.00040553626064 200.0 22.0 447.9634941329856 6.366376587411357 16.0 0.0 16.0 
350.00040553626064 201.0 22.0 447.9634941329856 10.341901079127638 16.0 0.0 16.0 
360.00040553626064 80.0 12.0 451.01173402868307 11.741970951553435 17.0 0.0 17.0 
370.00040553626064 43.0 9.0 450.857887874837 3.7980433832465783 17.0 0.0 17.0 
380.00040553626064 43.0 9.0 456.85788787483693 2.3495495560860844 19.0 0.0 19.0 
390.00040553626064 43.0 9.0 456.8604954367665 3.7297964696663306 19.0 0.0 19.0 
400.00040553626064 203.0 22.0 456.93611473272483 5.816919358094589 19.0 0.0 19.0 
410.00040553626064 200.0 22.0 456.93611473272483 7.968816989551003 19.0 0.0 19.0 
420.00040553626064 200.0 22.0 456.93611473272483 13.326488559360504 19.0 0.0 19.0 
430.00040553626064 40.0 9.0 457.06388526727517 4.149052206360442 19.0 0.0 19.0 
440.00040553626064 39.0 9.0 453.8565840938724 2.5713513576544385 18.0 0.0 18.0 
450.00040553626064 39.0 9.0 453.8565840938724 2.868970405273486 18.0 0.0 18.0 
460.00040553626064 115.0 15.0 453.9661016949152 4.591978206505378 18.0 0.0 18.0 
470.00040553626064 200.0 22.0 447.9478487614081 9.008939744956518 18.0 0.0 16.0 
480.00040553626064 196.0 20.0 447.9478487614081 11.974389125128578 18.0 0.0 16.0 
490.00040553626064 120.0 14.0 447.9634941329856 14.78920502776986 18.0 0.0 16.0 
500.00040553626064 35.0 7.0 447.8670143415906 2.4502988061523956 18.0 0.0 16.0 
510.00040553626064 37.0 8.0 447.8670143415906 1.8079681287560596 16.0 0.0 16.0 
520.0004055362606 39.0 9.0 447.8670143415906 3.339417955051397 16.0 0.0 16.0 
530.0004055362606 174.0 20.0 447.955671447197 4.439377829200782 16.0 0.0 16.0 
540.0004055362606 200.0 22.0 447.955671447197 9.750734684666964 16.0 0.0 16.0 
550.0004055362606 198.0 21.0 447.955671447197 13.774979830753054 16.0 0.0 16.0 
560.0004055362606 63.0 10.0 447.9530638852672 11.96135798393105 16.0 0.0 16.0 
570.0004055362606 37.0 8.0 447.8670143415906 1.8785713914555047 16.0 0.0 16.0 
580.0004055362606 37.0 8.0 447.8670143415906 3.958571391455505 16.0 0.0 16.0 
590.0004055362606 114.0 14.0 447.9713168187744 2.188824679675228 16.0 0.0 16.0 
600.0004055362606 202.0 21.0 450.93872229465444 6.220030784203319 17.0 0.0 17.0 
610.0004055362606 202.0 21.0 453.9295958279008 11.899347621212463 18.0 0.0 18.0 
620.0004055362606 127.0 15.0 453.9661016949152 14.27045807333143 19.0 0.0 18.0 
630.0004055362606 41.0 8.0 456.87353324641447 2.5122868539062497 19.0 0.0 19.0 
640.0004055362606 41.0 8.0 456.8631029986963 4.517406853906256 19.0 0.0 19.0 
650.0004055362606 41.0 8.0 456.8631029986963 3.397406853906256 19.0 0.0 19.0 
660.0004055362606 174.0 19.0 456.9569752281616 4.826610933187204 19.0 0.0 19.0 
#####################################################################
# End of data export. Simulation finished at: 2019-03-02T21:44+0000 #
#####################################################################
