#####################################################################
# Alchemist log file - simulation started at: 2019-03-04T22:31+0000 #
#####################################################################
# seed = 6.0, bandwidth = 17782.79410038923, accessPointCount = 19.39227447486858, baserange = 177.82794100389228
#
# The columns have the following meaning: 
# time neighbor_count[Sum] <value>@neighbor_count[Sum] packet_size[Mean] mean_delay[Mean] crowd[Sum] overcrowded[Sum] risk[Sum] 
0.0 NaN NaN NaN NaN NaN NaN NaN 
2.00009307325982 26.0 7.0 4987.7414248021105 0.31916500831165656 1497.0 0.0 1497.0 
4.00009307325982 60.0 24.0 4987.87598944591 0.6522266070280778 1497.0 0.0 1497.0 
6.00009307325982 342.0 53.0 4988.129287598945 0.7847104215239007 1497.0 0.0 1497.0 
8.000093073259821 376.0 53.0 4988.232189973614 1.6493919435049256 1497.0 0.0 1497.0 
10.000093073259821 861.0 80.0 4988.580474934037 1.3989122841893757 1497.0 0.0 1497.0 
12.000093073259821 881.0 80.0 4988.469656992084 2.11423627982833 1497.0 0.0 1497.0 
14.000093073259821 886.0 80.0 4988.480211081795 2.7543324840479637 1497.0 0.0 1497.0 
16.00009307325982 887.0 80.0 4988.506596306069 3.0761580970785927 1497.0 0.0 1497.0 
18.000093073259823 892.0 80.0 4988.382585751979 1.3690202273501757 1497.0 0.0 1497.0 
20.000093073259823 892.0 80.0 4988.292875989446 2.34197652319086 1497.0 0.0 1497.0 
22.000093073259823 892.0 80.0 4988.303430079156 2.40056509082572 1497.0 0.0 1497.0 
24.000093073259823 892.0 80.0 4988.34036939314 3.605880637401701 1497.0 0.0 1497.0 
26.000093073259823 892.0 80.0 4988.411609498681 1.0346409155850917 1497.0 0.0 1497.0 
28.000093073259823 892.0 80.0 4988.4221635883905 2.2806211842349513 1497.0 0.0 1497.0 
30.000093073259823 892.0 80.0 4988.379947229551 2.620581219557395 1497.0 0.0 1497.0 
32.00009307325982 892.0 80.0 4988.453825857519 3.2284111371782576 1497.0 0.0 1497.0 
34.00009307325982 892.0 80.0 4988.3641160949865 1.5398192043772199 1497.0 0.0 1497.0 
36.00009307325982 892.0 80.0 4988.416886543536 1.958191273094055 1497.0 0.0 1497.0 
38.00009307325982 892.0 80.0 4988.327176781003 2.571253889352829 1497.0 0.0 1497.0 
40.00009307325982 892.0 80.0 4988.321899736147 3.482823104845464 1497.0 0.0 1497.0 
42.00009307325982 892.0 80.0 4988.358839050132 1.1923318993824819 1497.0 0.0 1497.0 
44.00009307325982 892.0 80.0 4988.361477572559 2.4548777301431532 1497.0 0.0 1497.0 
46.00009307325982 892.0 80.0 4988.3482849604225 2.241894843731392 1497.0 0.0 1497.0 
48.00009307325982 892.0 80.0 4988.353562005277 3.4089809142132426 1497.0 0.0 1497.0 
50.00009307325982 892.0 80.0 4988.32981530343 1.4208046395982414 1497.0 0.0 1497.0 
52.00009307325982 892.0 80.0 4988.343007915567 2.112847487916999 1497.0 0.0 1497.0 
54.00009307325982 892.0 80.0 4988.23746701847 2.7426538418175777 1497.0 0.0 1497.0 
56.00009307325982 892.0 80.0 4988.377308707124 3.083809540978559 1497.0 0.0 1497.0 
58.00009307325982 892.0 80.0 4988.327176781003 1.4347562644384937 1497.0 0.0 1497.0 
60.00009307325982 892.0 80.0 4988.335092348285 2.4018241971598417 1497.0 0.0 1497.0 
62.000361899098664 892.0 80.0 469.8891820580479 2.3133888618159806 69.0 0.0 23.0 
64.00036189909866 892.0 80.0 469.831134564644 3.1534213598905114 64.0 0.0 23.0 
66.00036189909866 892.0 80.0 469.86279683377313 0.9163180844187583 61.0 0.0 23.0 
68.00036189909866 892.0 80.0 469.78627968337724 1.4019304847570586 55.0 0.0 23.0 
70.00036189909866 892.0 80.0 469.7810026385221 1.6053233224516272 51.0 0.0 23.0 
72.00036189909866 892.0 80.0 469.7810026385221 1.8197648792285526 50.0 0.0 23.0 
74.00036189909866 892.0 80.0 469.78627968337724 1.3142993426009404 47.0 0.0 23.0 
76.00036189909866 876.0 79.0 469.744063324538 1.2242742091192311 46.0 0.0 23.0 
78.00036189909866 874.0 79.0 469.744063324538 1.473739681447779 46.0 0.0 23.0 
80.00036189909866 870.0 79.0 469.744063324538 1.5543369043666422 46.0 0.0 23.0 
82.00036189909866 888.0 80.0 469.791556728232 0.7475922646067561 46.0 0.0 23.0 
84.00036189909866 888.0 80.0 469.7810026385221 1.2095687646786597 46.0 0.0 23.0 
86.00036189909866 888.0 80.0 469.7810026385221 1.1369353017437023 45.0 0.0 23.0 
88.00036189909866 887.0 80.0 469.7810026385221 1.5008409982765225 45.0 0.0 23.0 
90.00036189909866 887.0 80.0 469.79419525065987 0.9085185711208694 45.0 0.0 23.0 
92.00036189909866 887.0 80.0 469.7678100263851 1.0924386695634365 45.0 0.0 23.0 
94.00036189909866 887.0 80.0 469.7678100263851 1.4028763559997521 45.0 0.0 23.0 
96.00036189909866 888.0 81.0 466.74142480211094 1.5168710551916047 44.0 0.0 22.0 
98.00036189909866 890.0 81.0 466.7651715039581 0.9761753366584125 44.0 0.0 22.0 
100.00036189909866 890.0 81.0 466.75461741424795 1.338359244784957 44.0 0.0 22.0 
102.00036189909866 890.0 81.0 466.75461741424795 1.4174987593617887 44.0 0.0 22.0 
104.00036189909866 890.0 81.0 466.75461741424795 1.8645208641616364 44.0 0.0 22.0 
106.00036189909866 890.0 81.0 466.74670184696583 0.9998519471496381 44.0 0.0 22.0 
108.00036189909866 887.0 81.0 466.73614775725605 1.4689114041533589 44.0 0.0 22.0 
110.00036189909866 884.0 81.0 466.73614775725605 1.6388738454930991 44.0 0.0 22.0 
112.00036189909866 872.0 80.0 466.73614775725605 1.6603513053645347 44.0 0.0 22.0 
114.00036189909866 870.0 80.0 466.75989445910295 0.8770986230632098 44.0 0.0 22.0 
116.00036189909866 870.0 80.0 466.749340369393 0.9679850142840938 44.0 0.0 22.0 
118.00036189909866 870.0 80.0 466.749340369393 1.2400654205699606 44.0 0.0 22.0 
120.00036189909866 870.0 80.0 466.749340369393 1.5337453742618263 44.0 0.0 22.0 
122.00036189909866 870.0 80.0 466.74670184696583 0.729391358304121 44.0 0.0 22.0 
124.00036189909866 870.0 80.0 466.73614775725605 1.1846048799811677 44.0 0.0 22.0 
126.00036189909866 870.0 80.0 466.73614775725605 1.0977344998968932 44.0 0.0 22.0 
128.00036189909866 870.0 80.0 466.73614775725605 1.5117594610305407 44.0 0.0 22.0 
130.00036189909866 870.0 80.0 466.75989445910295 0.8253179664438439 44.0 0.0 22.0 
132.00036189909866 870.0 80.0 466.749340369393 1.0365493651065096 44.0 0.0 22.0 
134.00036189909866 870.0 80.0 466.749340369393 1.3140061154783977 44.0 0.0 22.0 
136.00036189909866 870.0 80.0 463.7229551451188 1.3690802902419037 44.0 0.0 21.0 
138.00036189909866 870.0 80.0 463.730870712401 0.7982561819964046 44.0 0.0 21.0 
140.00036189909866 870.0 80.0 463.70976253298187 1.1080998587717945 44.0 0.0 21.0 
142.00036189909866 870.0 80.0 463.71767810026404 1.1618509047399326 44.0 0.0 21.0 
144.00036189909866 870.0 80.0 463.70712401055397 1.560746640378275 44.0 0.0 21.0 
146.00036189909866 870.0 80.0 463.71503957783614 0.6565773524819536 44.0 0.0 21.0 
148.00036189909866 870.0 80.0 463.6965699208441 1.0859041231469193 44.0 0.0 21.0 
150.00036189909866 870.0 80.0 463.7044854881268 1.2580956892294561 44.0 0.0 21.0 
152.00036189909866 870.0 80.0 463.7229551451188 1.4131481681997118 44.0 0.0 21.0 
154.00036189909866 870.0 80.0 463.70976253298187 0.8734412967732602 44.0 0.0 21.0 
156.00036189909866 870.0 80.0 463.688654353562 0.9437853469145233 44.0 0.0 21.0 
158.00036189909866 870.0 80.0 463.699208443272 1.236408094280011 44.0 0.0 21.0 
160.00036189909866 870.0 80.0 463.688654353562 1.5095936081225985 44.0 0.0 21.0 
162.00036189909866 870.0 80.0 463.71767810026404 0.7254400215862091 44.0 0.0 21.0 
164.00036189909866 870.0 80.0 463.70712401055397 1.160159103413977 44.0 0.0 21.0 
166.00036189909866 870.0 80.0 463.70712401055397 1.0937831631789812 44.0 0.0 21.0 
168.00036189909866 870.0 80.0 463.70712401055397 1.48731368446335 44.0 0.0 21.0 
170.00036189909866 870.0 80.0 463.699208443272 0.8217148798415014 44.0 0.0 21.0 
172.00036189909866 870.0 80.0 463.688654353562 1.0124518386548884 44.0 0.0 21.0 
174.00036189909866 870.0 80.0 463.688654353562 1.3104030288760553 44.0 0.0 21.0 
176.00036189909866 870.0 80.0 463.688654353562 1.3449827637902827 44.0 0.0 21.0 
178.00036189909866 870.0 80.0 463.71767810026404 0.7993807164946459 44.0 0.0 21.0 
180.00036189909866 870.0 80.0 463.70712401055397 1.108378446794611 44.0 0.0 21.0 
182.00036189909866 870.0 80.0 463.70712401055397 1.1623475140013966 44.0 0.0 21.0 
184.00036189909866 870.0 80.0 463.70712401055397 1.561254379371787 44.0 0.0 21.0 
186.00036189909866 870.0 80.0 463.7044854881268 0.6570497958215786 44.0 0.0 21.0 
188.00036189909866 870.0 80.0 463.693931398417 1.0863925335633253 44.0 0.0 21.0 
190.00036189909866 870.0 80.0 463.693931398417 1.258622372256689 44.0 0.0 21.0 
192.00036189909866 870.0 80.0 463.693931398417 1.4135471146126983 44.0 0.0 21.0 
194.00036189909866 870.0 80.0 463.71767810026404 0.8732053280312261 44.0 0.0 21.0 
196.00036189909866 870.0 80.0 463.70712401055397 0.9435972794028316 44.0 0.0 21.0 
198.00036189909866 870.0 80.0 463.70712401055397 1.2361721255379767 44.0 0.0 21.0 
200.00036189909866 870.0 80.0 463.70712401055397 1.5093576393805639 44.0 0.0 21.0 
202.00036189909866 870.0 80.0 463.7044854881268 0.725614146643994 44.0 0.0 21.0 
204.00036189909866 870.0 80.0 463.693931398417 1.1603332284717622 44.0 0.0 21.0 
206.00036189909866 870.0 80.0 463.693931398417 1.093957288236766 44.0 0.0 21.0 
208.00036189909866 870.0 80.0 463.693931398417 1.487487809521135 44.0 0.0 21.0 
210.00036189909866 870.0 80.0 463.71767810026404 0.8214246714118598 44.0 0.0 21.0 
212.00036189909866 870.0 80.0 463.70712401055397 1.0121616302252467 44.0 0.0 21.0 
214.00036189909866 870.0 80.0 463.70712401055397 1.3101128204464136 44.0 0.0 21.0 
216.00036189909866 870.0 80.0 463.70712401055397 1.3446925553606413 44.0 0.0 21.0 
218.00036189909866 870.0 80.0 463.7044854881268 0.7995548415524308 44.0 0.0 21.0 
220.00036189909866 870.0 80.0 463.693931398417 1.1085525718523959 44.0 0.0 21.0 
222.00036189909866 870.0 80.0 463.693931398417 1.1625216390591815 44.0 0.0 21.0 
224.00036189909866 870.0 80.0 463.693931398417 1.561428504429572 44.0 0.0 21.0 
226.00036189909866 870.0 80.0 463.71767810026404 0.6567595873919371 44.0 0.0 21.0 
228.00036189909866 870.0 80.0 463.70712401055397 1.0861023251336837 44.0 0.0 21.0 
230.00036189909866 870.0 80.0 463.70712401055397 1.2583321638270473 44.0 0.0 21.0 
232.00036189909866 870.0 80.0 463.70712401055397 1.4132569061830567 44.0 0.0 21.0 
234.00036189909866 870.0 80.0 463.7044854881268 0.8734955364608677 44.0 0.0 21.0 
236.00036189909866 870.0 80.0 463.693931398417 0.943887487832473 44.0 0.0 21.0 
238.00036189909866 870.0 80.0 463.693931398417 1.2364623339676184 44.0 0.0 21.0 
240.00036189909866 870.0 80.0 463.693931398417 1.5207028700280498 44.0 0.0 21.0 
242.00036189909866 870.0 80.0 463.71767810026404 0.7798129807844906 44.0 0.0 21.0 
244.00036189909866 870.0 80.0 463.70712401055397 1.2575428153004307 44.0 0.0 21.0 
246.00036189909866 870.0 80.0 463.70712401055397 1.234177627753607 44.0 0.0 21.0 
248.00036189909866 870.0 80.0 463.70712401055397 1.6707189017261477 44.0 0.0 21.0 
250.00036189909866 870.0 80.0 463.7044854881268 1.0482469331643276 44.0 0.0 21.0 
252.00036189909866 870.0 80.0 463.693931398417 1.2819946446658868 44.0 0.0 21.0 
254.00036189909866 871.0 80.0 463.693931398417 1.6211152929180523 44.0 0.0 21.0 
256.00036189909866 871.0 80.0 463.693931398417 1.6979942055678903 44.0 0.0 21.0 
258.0003618990986 872.0 80.0 463.71767810026404 1.197700943009062 44.0 0.0 21.0 
260.0003618990986 872.0 80.0 463.70712401055397 1.549602980682026 44.0 0.0 21.0 
262.0003618990986 866.0 80.0 463.70712401055397 1.290768024557807 44.0 0.0 21.0 
264.0003618990986 864.0 79.0 463.70712401055397 1.5750711054658137 44.0 0.0 21.0 
266.0003618990986 864.0 79.0 463.7044854881268 0.6614764354315468 44.0 0.0 21.0 
268.0003618990986 864.0 79.0 463.693931398417 1.0953783397323211 44.0 0.0 21.0 
270.0003618990986 864.0 79.0 463.693931398417 1.2693726395602738 44.0 0.0 21.0 
272.0003618990986 864.0 79.0 463.693931398417 1.42587374417764 44.0 0.0 21.0 
274.0003618990986 864.0 79.0 463.71767810026404 0.8799834122249872 44.0 0.0 21.0 
276.0003618990986 864.0 79.0 463.70712401055397 0.9510328911733363 44.0 0.0 21.0 
278.0003618990986 880.0 80.0 463.70712401055397 1.2287639688981298 44.0 0.0 21.0 
280.0003618990986 881.0 80.0 466.74934036939305 1.5009074738566932 45.0 0.0 22.0 
282.0003618990986 884.0 80.0 466.74934036939305 0.7474106198207763 45.0 0.0 22.0 
284.0003618990986 884.0 80.0 466.72823218997394 1.2010952237924346 45.0 0.0 22.0 
286.0003618990986 884.0 80.0 466.72823218997394 1.1222056006523335 45.0 0.0 22.0 
288.0003618990986 885.0 80.0 466.72823218997394 1.4957407891555892 45.0 0.0 22.0 
290.0003618990986 886.0 80.0 466.75197889182084 0.8851412942338307 45.0 0.0 22.0 
292.0003618990986 886.0 80.0 466.7414248021109 1.01310929724954 45.0 0.0 22.0 
294.0003618990986 886.0 80.0 466.7414248021109 1.3304387390595844 45.0 0.0 22.0 
296.0003618990986 886.0 80.0 466.7414248021109 1.371708649241052 45.0 0.0 22.0 
298.0003618990986 887.0 80.0 466.73087071240104 0.8099698941380834 45.0 0.0 22.0 
300.0003618990986 890.0 80.0 466.7203166226912 1.164901672535305 45.0 0.0 22.0 
302.0003618990986 892.0 80.0 466.7150395778361 1.1693643350461471 45.0 0.0 22.0 
304.0003618990986 892.0 80.0 466.7150395778361 1.5929753686216546 45.0 0.0 22.0 
306.0003618990986 892.0 80.0 466.7387862796832 0.6856545239759901 45.0 0.0 22.0 
308.0003618990986 893.0 80.0 466.72823218997394 1.108303375751521 45.0 0.0 22.0 
310.0003618990986 895.0 80.0 469.7836411609501 1.3420063814741254 45.0 0.0 23.0 
312.0003618990986 909.0 80.0 469.76253298153 1.4697344018362954 46.0 0.0 23.0 
314.0003618990986 924.0 81.0 469.75989445910284 1.0095587200860088 46.0 0.0 23.0 
316.0003618990986 924.0 81.0 469.74934036939317 1.05564254585685 46.0 0.0 23.0 
318.0003618990986 924.0 81.0 469.7651715039581 1.3775156963860198 46.0 0.0 23.0 
320.0003618990986 924.0 81.0 469.78627968337724 1.7008072200036701 46.0 0.0 23.0 
322.0003618990986 924.0 81.0 469.7889182058049 0.8263313359137147 46.0 0.0 23.0 
324.0003618990986 924.0 81.0 469.7783641160952 1.3226151468658898 46.0 0.0 23.0 
326.0003618990986 924.0 81.0 469.781002638522 1.2348875662762442 46.0 0.0 23.0 
328.0003618990986 921.0 81.0 469.775725593668 1.613635893705226 46.0 0.0 23.0 
330.0003618990986 918.0 81.0 469.77044854881274 0.881110817186151 46.0 0.0 23.0 
332.0003618990986 918.0 81.0 469.7651715039581 1.054734132693372 46.0 0.0 23.0 
334.0003618990986 918.0 81.0 469.7651715039581 1.4049617834936423 46.0 0.0 23.0 
336.0003618990986 918.0 81.0 469.7678100263851 1.4650716452013215 46.0 0.0 23.0 
338.0003618990986 918.0 81.0 469.77044854881274 0.892375811471773 46.0 0.0 23.0 
340.0003618990986 918.0 81.0 472.81266490765194 1.2330097694296747 46.0 0.0 24.0 
342.0003618990986 918.0 81.0 472.82321899736115 1.2908483532746797 46.0 0.0 24.0 
344.0003618990986 918.0 81.0 472.82321899736115 1.7900949815513743 46.0 0.0 24.0 
346.0003618990986 918.0 81.0 472.8179419525068 0.8197560607669713 46.0 0.0 24.0 
348.0003618990986 914.0 81.0 472.79155672823197 1.2128112226437693 46.0 0.0 24.0 
350.0003618990986 912.0 81.0 472.78627968337713 1.436746481978559 46.0 0.0 24.0 
352.0003618990986 912.0 81.0 472.78627968337713 1.621459260986527 46.0 0.0 24.0 
354.0003618990986 912.0 81.0 472.8100263852241 1.0861670331113684 46.0 0.0 24.0 
356.0003618990986 912.0 81.0 472.799472295514 1.2001700376878863 46.0 0.0 24.0 
358.0003618990986 909.0 81.0 472.799472295514 1.5231026279136994 46.0 0.0 24.0 
360.0003618990986 908.0 81.0 472.799472295514 1.806403336610975 46.0 0.0 24.0 
362.0003618990986 908.0 81.0 472.79683377308703 1.053269229168095 46.0 0.0 24.0 
364.0003618990986 908.0 81.0 472.78627968337713 1.5407974045029322 46.0 0.0 24.0 
366.0003618990986 908.0 81.0 472.78627968337713 1.490605306612177 46.0 0.0 24.0 
368.0003618990986 896.0 80.0 472.77572559366797 1.8073208222834898 46.0 0.0 24.0 
370.0003618990986 892.0 80.0 472.799472295514 0.8104569338364673 46.0 0.0 24.0 
372.0003618990986 892.0 80.0 472.78891820580503 1.044840961003572 46.0 0.0 24.0 
374.0003618990986 892.0 80.0 472.78891820580503 1.370884284668683 46.0 0.0 24.0 
376.0003618990986 892.0 80.0 472.78891820580503 1.4047609631988545 46.0 0.0 24.0 
378.0003618990986 892.0 80.0 472.78627968337713 0.8472680900605553 46.0 0.0 24.0 
380.0003618990986 892.0 80.0 469.75461741424795 1.1009666277785277 46.0 0.0 23.0 
382.0003618990986 892.0 80.0 469.749340369393 1.167495066254811 46.0 0.0 23.0 
384.0003618990986 892.0 80.0 469.749340369393 1.622306157397367 46.0 0.0 23.0 
386.0003618990986 892.0 80.0 469.77308707123996 0.6418215336980024 46.0 0.0 23.0 
388.0003618990986 892.0 80.0 469.7625329815301 1.0912562807545367 46.0 0.0 23.0 
390.0003618990986 892.0 80.0 469.7625329815301 1.255667583795411 46.0 0.0 23.0 
392.0003618990986 892.0 80.0 469.7625329815301 1.460536138970466 46.0 0.0 23.0 
394.0003618990986 892.0 80.0 469.759894459103 0.8788908352281234 46.0 0.0 23.0 
396.0003618990986 892.0 80.0 469.749340369393 0.9460643874938178 46.0 0.0 23.0 
398.0003618990986 894.0 81.0 469.749340369393 1.2958665913210834 46.0 0.0 23.0 
400.0003618990986 894.0 81.0 469.749340369393 1.636337657098811 46.0 0.0 23.0 
402.0003618990986 894.0 81.0 472.7994722955142 0.8581985522772585 46.0 0.0 24.0 
404.0003618990986 894.0 81.0 472.78891820580503 1.365513585601133 46.0 0.0 24.0 
406.0003618990986 894.0 81.0 469.7625329815303 1.3434833188350266 45.0 0.0 23.0 
408.0003618990986 894.0 81.0 469.7625329815303 1.8454792032227307 45.0 0.0 23.0 
410.0003618990986 894.0 81.0 472.81002638522426 1.114216227750712 45.0 0.0 24.0 
412.0003618990986 894.0 81.0 472.78891820580515 1.3975323058349212 45.0 0.0 24.0 
414.0003618990986 894.0 81.0 472.78891820580515 1.792832203881674 45.0 0.0 24.0 
416.0003618990986 894.0 81.0 472.78891820580515 1.929412629911082 45.0 0.0 24.0 
418.0003618990986 891.0 80.0 472.81266490765177 1.0301860503052538 45.0 0.0 24.0 
420.0003618990986 890.0 80.0 472.80211081794204 1.1383811167815474 45.0 0.0 24.0 
422.0003618990986 890.0 80.0 472.80211081794204 1.244964960012749 45.0 0.0 24.0 
424.0003618990986 890.0 80.0 472.80211081794204 1.738272533516068 45.0 0.0 24.0 
426.0003618990986 890.0 80.0 469.7651715039581 0.6473731819913302 45.0 0.0 23.0 
428.0003618990986 890.0 80.0 469.75461741424795 1.1312210488338037 45.0 0.0 23.0 
430.0003618990986 890.0 80.0 469.75461741424795 1.3340709318794322 45.0 0.0 23.0 
432.0003618990986 890.0 80.0 469.75461741424795 1.5657630842399193 45.0 0.0 23.0 
434.0003618990986 890.0 80.0 469.778364116095 0.8586489089138831 45.0 0.0 23.0 
436.0003618990986 890.0 80.0 469.76781002638495 0.9699562246104928 45.0 0.0 23.0 
438.0003618990986 890.0 80.0 469.76781002638495 1.3075426972314206 45.0 0.0 23.0 
440.0003618990986 890.0 80.0 469.76781002638495 1.661552054017168 45.0 0.0 23.0 
442.0003618990986 890.0 80.0 469.7651715039581 0.711079282517268 45.0 0.0 23.0 
444.0003618990986 890.0 80.0 469.75461741424795 1.1867137286700402 45.0 0.0 23.0 
446.0003618990986 890.0 80.0 469.75461741424795 1.165349414920827 45.0 0.0 23.0 
448.0003618990986 892.0 80.0 469.75461741424795 1.6364168100845706 45.0 0.0 23.0 
450.0003618990986 892.0 80.0 469.778364116095 0.8035812832307313 45.0 0.0 23.0 
452.0003618990986 892.0 80.0 469.76781002638495 1.0352336063691225 45.0 0.0 23.0 
454.0003618990986 892.0 80.0 469.76781002638495 1.378196423076072 45.0 0.0 23.0 
456.0003618990986 892.0 80.0 469.76781002638495 1.4936000009334598 45.0 0.0 23.0 
458.0003618990986 892.0 80.0 469.7651715039581 0.7817330083619194 45.0 0.0 23.0 
460.0003618990986 892.0 80.0 469.75461741424795 1.1316461029868885 45.0 0.0 23.0 
462.0003618990986 893.0 80.0 469.75461741424795 1.2279931095567094 45.0 0.0 23.0 
464.0003618990986 893.0 80.0 469.75461741424795 1.7066997523300653 45.0 0.0 23.0 
466.0003618990986 894.0 80.0 469.778364116095 0.6385087486423607 45.0 0.0 23.0 
468.0003618990986 894.0 80.0 469.76781002638495 1.130311614189359 45.0 0.0 23.0 
470.0003618990986 894.0 80.0 469.76781002638495 1.3690978428487524 45.0 0.0 23.0 
472.0003618990986 895.0 80.0 472.807387862797 1.6326144636925433 45.0 0.0 24.0 
474.0003618990986 896.0 80.0 472.8047493403692 0.9681769382333344 45.0 0.0 24.0 
476.0003618990986 896.0 80.0 472.78891820580503 1.1201807632800298 45.0 0.0 24.0 
478.0003618990986 896.0 80.0 472.78891820580503 1.4984637452510434 45.0 0.0 24.0 
480.0003618990986 896.0 80.0 472.79419525065987 1.8158999691185254 45.0 0.0 24.0 
482.0003618990986 900.0 80.0 472.82321899736115 0.9038079046988319 45.0 0.0 24.0 
484.0003618990986 900.0 80.0 472.807387862797 1.4220188469301238 45.0 0.0 24.0 
486.0003618990986 900.0 80.0 472.807387862797 1.443358412670728 45.0 0.0 24.0 
488.0003618990986 903.0 80.0 472.8126649076518 1.7922579278230042 45.0 0.0 24.0 
490.0003618990986 902.0 80.0 472.81794195250677 0.9016599844785771 45.0 0.0 24.0 
492.0003618990986 902.0 80.0 472.8126649076518 1.1884034461847501 45.0 0.0 24.0 
494.0003618990986 902.0 80.0 472.807387862797 1.5864509516665042 45.0 0.0 24.0 
496.0003618990986 904.0 80.0 472.807387862797 1.6610623197774075 45.0 0.0 24.0 
498.0003618990986 906.0 80.0 472.82321899736115 1.0106235970899173 45.0 0.0 24.0 
500.0003618990986 906.0 80.0 472.807387862797 1.4177317027026304 45.0 0.0 24.0 
502.0003618990986 906.0 80.0 472.8126649076518 1.5739138571759193 45.0 0.0 24.0 
504.0003618990986 908.0 80.0 472.807387862797 2.0059675233632617 45.0 0.0 24.0 
506.0003618990986 910.0 80.0 472.807387862797 1.0004892203151772 45.0 0.0 24.0 
508.0003618990986 909.0 80.0 472.79683377308703 1.2999656324759399 45.0 0.0 24.0 
510.0003618990986 908.0 79.0 472.79683377308703 1.4264537065601048 45.0 0.0 24.0 
512.0003618990986 908.0 79.0 472.79683377308703 1.582189712924562 45.0 0.0 24.0 
514.0003618990986 910.0 80.0 472.7915567282319 0.8966341262745772 45.0 0.0 24.0 
516.0003618990986 910.0 80.0 472.78627968337724 1.0559607102526452 45.0 0.0 24.0 
518.0003618990986 910.0 80.0 472.78627968337724 1.3862270994968866 45.0 0.0 24.0 
520.0003618990986 914.0 80.0 475.81266490765194 1.672623897331618 45.0 0.0 25.0 
522.0003618990986 918.0 81.0 475.8179419525068 0.7678709070271096 45.0 0.0 25.0 
524.0003618990986 922.0 81.0 475.81266490765194 1.3123962944266405 45.0 0.0 25.0 
526.0003618990986 922.0 81.0 475.81266490765194 1.3253266609586918 45.0 0.0 25.0 
528.0003618990986 922.0 81.0 475.81266490765194 1.6457251030112423 45.0 0.0 25.0 
530.0003618990986 922.0 81.0 475.82585751978894 0.8593121865393344 45.0 0.0 25.0 
532.0003618990986 922.0 81.0 475.82585751978894 1.162915005766679 45.0 0.0 25.0 
534.0003618990986 922.0 81.0 475.820580474934 1.5362966822181252 45.0 0.0 25.0 
536.0003618990986 922.0 81.0 475.82585751978894 1.5053599113051042 45.0 0.0 25.0 
538.0003618990986 922.0 81.0 475.82849604221605 0.8377217479422367 45.0 0.0 25.0 
540.0003618990986 922.0 81.0 475.8179419525068 1.2583144829861561 45.0 0.0 25.0 
542.0003618990986 922.0 81.0 475.82321899736115 1.390309590923374 45.0 0.0 25.0 
544.0003618990986 922.0 81.0 475.81266490765194 1.7200715287170951 45.0 0.0 25.0 
546.0003618990986 922.0 81.0 475.8179419525068 0.7021505155431988 45.0 0.0 25.0 
548.0003618990986 922.0 81.0 475.81266490765194 1.2429341939991105 45.0 0.0 25.0 
550.0003618990986 922.0 81.0 475.81266490765194 1.493051800937887 45.0 0.0 25.0 
552.0003618990986 924.0 81.0 475.8179419525068 1.5771338987515018 45.0 0.0 25.0 
554.0003618990986 926.0 81.0 475.8179419525068 0.9093162172330105 45.0 0.0 25.0 
556.0003618990986 926.0 81.0 475.81266490765194 1.0943284026553912 45.0 0.0 25.0 
558.0003618990986 926.0 81.0 475.81266490765194 1.4626872059988578 45.0 0.0 25.0 
560.0003618990986 926.0 81.0 475.81266490765194 1.6693144338759032 45.0 0.0 25.0 
562.0003618990986 926.0 81.0 475.8179419525068 0.7638087702771081 45.0 0.0 25.0 
564.0003618990986 926.0 81.0 475.81266490765194 1.3101973349990874 45.0 0.0 25.0 
566.0003618990986 942.0 82.0 475.81266490765194 1.3157429795421145 46.0 0.0 25.0 
568.0003618990986 942.0 82.0 475.81266490765194 1.6485790224877863 46.0 0.0 25.0 
570.0003618990986 942.0 82.0 475.8179419525068 0.9496838837296232 46.0 0.0 25.0 
572.0003618990986 942.0 82.0 475.8179419525068 1.1498024417864032 46.0 0.0 25.0 
574.0003618990986 942.0 82.0 475.81266490765194 1.5210884604233794 46.0 0.0 25.0 
576.0003618990986 956.0 82.0 475.81266490765194 1.557050973243712 46.0 0.0 25.0 
578.0003618990986 956.0 82.0 475.8179419525068 0.8758394336942776 46.0 0.0 25.0 
580.0003618990986 956.0 82.0 472.77308707123996 1.3919210856517255 46.0 0.0 24.0 
582.0003618990986 955.0 82.0 475.81266490765194 1.4486826006758338 46.0 0.0 25.0 
584.0003618990986 954.0 82.0 475.80738786279693 1.7921090106045845 46.0 0.0 25.0 
586.0003618990986 954.0 82.0 475.81266490765194 0.88096652738012 45.0 0.0 25.0 
588.0003618990986 954.0 82.0 475.80738786279693 1.4216880552652829 45.0 0.0 25.0 
590.0003618990986 954.0 82.0 475.80738786279693 1.7261782231589422 45.0 0.0 25.0 
592.0003618990986 956.0 82.0 475.8179419525068 1.913461673475816 45.0 0.0 25.0 
594.0003618990986 953.0 82.0 475.8179419525068 1.2897194043214528 45.0 0.0 25.0 
596.0003618990986 953.0 82.0 475.81266490765194 1.5471987391568638 45.0 0.0 25.0 
598.0003618990986 944.0 82.0 475.81266490765194 1.779673774192975 45.0 0.0 25.0 
600.0003618990986 943.0 82.0 475.81266490765194 2.027241048119225 45.0 0.0 25.0 
602.0003618990986 942.0 82.0 475.8179419525068 1.1738346717106982 45.0 0.0 25.0 
604.0003618990986 936.0 82.0 475.81266490765194 1.7035114380696341 45.0 0.0 25.0 
606.0003618990986 933.0 82.0 475.81266490765194 1.7176427542712793 45.0 0.0 25.0 
608.0003618990986 919.0 81.0 475.81266490765194 1.6699620440086296 45.0 0.0 25.0 
610.0003618990986 919.0 81.0 475.8179419525068 0.8799441900182772 45.0 0.0 25.0 
612.0003618990986 920.0 81.0 478.8522427440633 1.192635496932994 45.0 0.0 26.0 
614.0003618990986 917.0 81.0 478.841688654354 1.5555393980873933 45.0 0.0 26.0 
616.0003618990986 918.0 81.0 478.841688654354 1.5236787424731906 45.0 0.0 26.0 
618.0003618990986 918.0 81.0 478.84696569920794 0.8675293459787684 45.0 0.0 26.0 
620.0003618990986 918.0 81.0 478.841688654354 1.2640950525156858 45.0 0.0 26.0 
622.0003618990986 920.0 81.0 478.8522427440633 1.4179843038667939 45.0 0.0 26.0 
624.0003618990986 922.0 81.0 481.88126649076526 1.768268767007704 45.0 0.0 27.0 
626.0003618990986 922.0 81.0 481.8865435356199 0.7856814280117536 45.0 0.0 27.0 
628.0003618990986 922.0 81.0 481.8759894459101 1.2783368109717814 45.0 0.0 27.0 
630.0003618990986 921.0 81.0 478.84960422163607 1.5606465204125515 45.0 0.0 26.0 
632.0003618990986 923.0 81.0 478.860158311346 1.7178329640991796 45.0 0.0 26.0 
634.0003618990986 922.0 81.0 478.85488126649074 1.141431379462213 45.0 0.0 26.0 
636.0003618990986 922.0 81.0 478.84960422163607 1.2713942566533898 45.0 0.0 26.0 
638.0003618990986 921.0 81.0 478.84960422163607 1.6693060928894763 45.0 0.0 26.0 
640.0003618990986 921.0 81.0 478.84960422163607 1.8816445422000005 45.0 0.0 26.0 
642.0003618990986 920.0 81.0 478.84696569920794 1.189341447689119 45.0 0.0 26.0 
644.0003618990986 918.0 81.0 475.8153034300793 1.7038126960744409 45.0 0.0 25.0 
646.0003618990986 899.0 80.0 475.8153034300793 1.6176950448211715 45.0 0.0 25.0 
648.0003618990986 888.0 80.0 475.828496042216 1.9383311291942424 45.0 0.0 25.0 
650.0003618990986 887.0 80.0 475.80738786279665 1.3175403275345778 44.0 0.0 25.0 
652.0003618990986 887.0 80.0 475.80738786279665 1.57579329692912 44.0 0.0 25.0 
654.0003618990986 882.0 80.0 475.80738786279665 1.7643053829579516 43.0 0.0 25.0 
656.0003618990986 882.0 80.0 475.80738786279665 1.7270814247433823 43.0 0.0 25.0 
658.0003618990986 882.0 80.0 475.80738786279665 1.2802430435771637 43.0 0.0 25.0 
660.0003618990986 880.0 81.0 475.80738786279665 1.6032205502774515 43.0 0.0 25.0 
662.0003618990986 867.0 80.0 475.80738786279665 1.4996414870946428 43.0 0.0 25.0 
664.0003618990986 860.0 80.0 475.80738786279665 1.563042762091545 43.0 0.0 25.0 
#####################################################################
# End of data export. Simulation finished at: 2019-03-04T22:33+0000 #
#####################################################################
