#####################################################################
# Alchemist log file - simulation started at: 2019-03-12T16:35+0000 #
#####################################################################
# seed = 5.0, bandwidth = 17782.79410038923, accessPointCount = 2000.0, baserange = 17.78279410038923
#
# The columns have the following meaning: 
# time neighbor_count[Sum] <value>@neighbor_count[Sum] packet_size[Mean] mean_delay[Mean] crowd[Sum] overcrowded[Sum] risk[Sum] 
0.0 NaN NaN NaN NaN NaN NaN NaN 
2.000054147568701 247.0 173.0 4975.007148984843 0.4838243608559101 1497.0 0.0 1497.0 
4.000054147568701 295.0 195.0 4977.136974549614 0.5436333168808976 1497.0 0.0 1497.0 
6.000054147568701 305.0 195.0 4976.510151558478 0.5445121195275741 1497.0 0.0 1497.0 
8.0000541475687 313.0 196.0 4976.263082642265 0.5524494447978979 1497.0 0.0 1497.0 
10.0000541475687 317.0 197.0 4976.142979696882 0.5725501755506704 1497.0 0.0 1497.0 
12.0000541475687 319.0 197.0 4976.0949385187305 0.5929838412027815 1497.0 0.0 1497.0 
14.0000541475687 319.0 197.0 4976.285959393766 0.6119521862706716 1497.0 0.0 1497.0 
16.0000541475687 319.0 197.0 4976.196740062911 0.6312144298912328 1497.0 0.0 1497.0 
18.0000541475687 319.0 197.0 4975.970260223048 0.6506209229326595 1497.0 0.0 1497.0 
20.0000541475687 319.0 197.0 4976.061767229054 0.6698607963221775 1497.0 0.0 1497.0 
22.0000541475687 319.0 197.0 4976.064054904204 0.6889573459555638 1497.0 0.0 1497.0 
24.0000541475687 318.0 197.0 4976.0949385187305 0.6628057812154698 1497.0 0.0 1497.0 
26.0000541475687 318.0 197.0 4976.0926508435805 0.6778108632395495 1497.0 0.0 1497.0 
28.0000541475687 318.0 197.0 4975.950814984271 0.6929614289041384 1497.0 0.0 1497.0 
30.0000541475687 316.0 196.0 4976.034315127252 0.6311811394068111 1497.0 0.0 1497.0 
32.000054147568704 314.0 195.0 4976.073205604805 0.5403774410782963 1497.0 0.0 1497.0 
34.000054147568704 314.0 195.0 4975.933657420646 0.5404774128694421 1497.0 0.0 1497.0 
36.000054147568704 316.0 196.0 4976.057191878754 0.541879790630597 1497.0 0.0 1497.0 
38.000054147568704 316.0 196.0 4975.9107806691445 0.5420020520506863 1497.0 0.0 1497.0 
40.000054147568704 316.0 196.0 4975.991993136975 0.5420000628160665 1497.0 0.0 1497.0 
42.000054147568704 316.0 196.0 4976.040034315127 0.5419146787454661 1497.0 0.0 1497.0 
44.000054147568704 316.0 196.0 4975.891335430369 0.5419683880801985 1497.0 0.0 1497.0 
46.000054147568704 316.0 196.0 4976.041178152702 0.5418912669841727 1497.0 0.0 1497.0 
48.000054147568704 316.0 196.0 4975.986273949099 0.5419605841597677 1497.0 0.0 1497.0 
50.000054147568704 316.0 196.0 4975.820417500714 0.5420500997176546 1497.0 0.0 1497.0 
52.000054147568704 316.0 196.0 4976.132685158707 0.5419197283410394 1497.0 0.0 1497.0 
54.000054147568704 316.0 196.0 4976.042321990278 0.5419211055034686 1497.0 0.0 1497.0 
56.000054147568704 316.0 196.0 4975.841006577066 0.5543023425431269 1497.0 0.0 1497.0 
58.000054147568704 316.0 196.0 4976.020589076352 0.5704755490716051 1497.0 0.0 1497.0 
60.000054147568704 316.0 196.0 4975.9062053188445 0.5868824141588775 1497.0 0.0 1497.0 
62.00006609123823 318.0 197.0 411.84100657706625 0.5675478379132287 82.0 0.0 9.0 
64.00006609123822 320.0 198.0 411.8444380897912 0.5839894076429836 84.0 0.0 9.0 
66.00006609123824 324.0 199.0 411.84901344009137 0.5633879636487139 79.0 0.0 9.0 
68.00006609123824 326.0 200.0 411.83757506434125 0.5693543811056987 57.0 0.0 9.0 
70.00006609123824 326.0 200.0 411.8444380897912 0.576069634062862 43.0 0.0 9.0 
72.00006609123824 326.0 200.0 411.8444380897912 0.5947248289664946 37.0 0.0 9.0 
74.00006609123824 326.0 200.0 411.84215041464097 0.6173738006261288 32.0 0.0 9.0 
76.00006609123824 326.0 200.0 411.8444380897912 0.6494682739687604 28.0 0.0 9.0 
78.00006609123824 324.0 199.0 411.84215041464097 0.6224098125376075 28.0 0.0 9.0 
80.00006609123824 324.0 199.0 411.83986273949074 0.6704146111835823 28.0 0.0 9.0 
82.00006609123824 324.0 199.0 411.83986273949074 0.7184143112682092 26.0 0.0 9.0 
84.00006609123824 326.0 200.0 411.835287389191 0.7641353750661699 25.0 0.0 9.0 
86.00006609123824 326.0 200.0 411.835287389191 0.811758885711608 23.0 0.0 9.0 
88.00006609123824 326.0 200.0 411.8329997140408 0.8593849254053344 19.0 0.0 9.0 
90.00006609123824 326.0 200.0 411.8329997140408 0.9070079897481328 19.0 0.0 9.0 
92.00006609123824 326.0 200.0 411.8329997140408 0.95462703736718 19.0 0.0 9.0 
94.00006609123824 324.0 199.0 411.8329997140408 0.8184440028901788 19.0 0.0 9.0 
96.00006609123824 324.0 199.0 411.8329997140408 0.8504440028901793 18.0 0.0 9.0 
98.00006609123824 320.0 198.0 411.8329997140408 0.6975039424962556 17.0 0.0 9.0 
100.00006609123824 318.0 197.0 411.8329997140408 0.5251962307189587 16.0 0.0 9.0 
102.00006609123824 318.0 197.0 411.8329997140408 0.5251962307189587 14.0 0.0 9.0 
104.00006609123824 318.0 197.0 411.8329997140408 0.537341979706813 14.0 0.0 9.0 
106.00006609123824 318.0 197.0 411.8329997140408 0.5535363116906187 14.0 0.0 9.0 
108.00006609123824 318.0 197.0 411.8329997140408 0.5697306436744244 14.0 0.0 9.0 
110.00006609123824 318.0 197.0 411.8329997140408 0.5859249756582301 14.0 0.0 9.0 
112.00006609123824 318.0 197.0 411.8329997140408 0.6021193076420358 14.0 0.0 9.0 
114.00006609123824 318.0 197.0 411.8329997140408 0.6304593886136954 14.0 0.0 9.0 
116.00006609123824 318.0 197.0 411.8329997140408 0.6628480525813071 14.0 0.0 9.0 
118.00006609123824 318.0 197.0 411.8329997140408 0.6952367165489184 14.0 0.0 9.0 
120.00006609123824 318.0 197.0 411.8329997140408 0.7276253805165294 14.0 0.0 9.0 
122.00006609123824 318.0 197.0 411.8329997140408 0.7600140444841411 14.0 0.0 9.0 
124.00006609123824 318.0 197.0 411.8329997140408 0.7924027084517519 14.0 0.0 9.0 
126.00006609123824 316.0 196.0 411.8329997140408 0.6357896175248899 14.0 0.0 9.0 
128.00006609123824 317.0 196.0 411.8329997140408 0.6508533820402822 15.0 0.0 9.0 
130.00006609123824 318.0 197.0 411.8329997140408 0.6722255990837946 15.0 0.0 9.0 
132.00006609123824 318.0 197.0 411.8329997140408 0.6843933188814477 15.0 0.0 9.0 
134.00006609123824 318.0 197.0 411.8329997140408 0.700653481483074 15.0 0.0 9.0 
136.00006609123824 316.0 196.0 411.8329997140408 0.5262530481592269 15.0 0.0 9.0 
138.00006609123824 317.0 196.0 411.8329997140408 0.5264458948567751 15.0 0.0 9.0 
140.00006609123824 319.0 197.0 413.15070060051465 0.5307789533798709 15.0 0.0 10.0 
142.00006609123824 320.0 197.0 413.1484129253644 0.5299579328848921 15.0 0.0 10.0 
144.00006609123824 321.0 197.0 413.1484129253644 0.5286791519513556 15.0 0.0 10.0 
146.00006609123824 322.0 198.0 413.1484129253644 0.5295548902714916 15.0 0.0 10.0 
148.00006609123824 322.0 198.0 413.1484129253644 0.5295548902714916 15.0 0.0 10.0 
150.00006609123824 322.0 198.0 413.1484129253644 0.5295548902714916 15.0 0.0 10.0 
152.00006609123824 322.0 198.0 413.1484129253644 0.5295548902714916 15.0 0.0 10.0 
154.00006609123824 322.0 198.0 413.1484129253644 0.5335871483360078 15.0 0.0 10.0 
156.00006609123824 324.0 199.0 413.1484129253644 0.5475604428150587 15.0 0.0 10.0 
158.00006609123824 324.0 199.0 413.1484129253644 0.5636246998431711 15.0 0.0 10.0 
160.00006609123824 326.0 199.0 414.4661138118385 0.582639835590567 15.0 0.0 11.0 
162.00006609123824 326.0 199.0 414.4661138118385 0.5971369344902736 15.0 0.0 11.0 
164.00006609123824 326.0 199.0 414.4661138118385 0.6132163679589696 15.0 0.0 11.0 
166.00006609123824 328.0 199.0 414.4638261366882 0.6288597352179947 15.0 0.0 11.0 
168.00006609123824 328.0 199.0 414.4661138118385 0.6569797732374832 15.0 0.0 11.0 
170.00006609123824 332.0 200.0 414.4638261366882 0.6875709935364093 15.0 0.0 11.0 
172.00006609123824 332.0 200.0 414.4638261366882 0.7194435034965686 15.0 0.0 11.0 
174.00006609123824 332.0 200.0 414.4638261366882 0.751316013456728 15.0 0.0 11.0 
176.00006609123824 330.0 199.0 414.4638261366882 0.6049209103761201 15.0 0.0 11.0 
178.00006609123824 331.0 199.0 414.4661138118385 0.6188164368056077 15.0 0.0 11.0 
180.00006609123824 332.0 200.0 414.4638261366882 0.65171441983123 15.0 0.0 11.0 
182.00006609123824 333.0 201.0 414.4638261366882 0.6990807281035462 15.0 0.0 11.0 
184.00006609123824 334.0 201.0 414.4638261366882 0.7464199699326267 15.0 0.0 11.0 
186.00006609123824 334.0 201.0 414.4638261366882 0.7940390175516744 15.0 0.0 11.0 
188.00006609123824 334.0 201.0 414.4638261366882 0.8456263191389756 15.0 0.0 11.0 
190.00006609123824 334.0 201.0 414.4638261366882 0.6789596524723093 15.0 0.0 11.0 
192.00006609123824 336.0 201.0 415.7826708607375 0.6710288517443873 16.0 0.0 12.0 
194.00006609123824 338.0 201.0 418.4134972833861 0.7083465657688647 18.0 0.0 14.0 
196.00006609123824 338.0 201.0 418.41921647126094 0.73392648025392 18.0 0.0 14.0 
198.00006609123824 339.0 201.0 418.4180726336865 0.7660172189135299 18.0 0.0 14.0 
200.00006609123824 342.0 201.0 418.41578495853594 0.7983081911829425 18.0 0.0 14.0 
202.00006609123824 340.0 200.0 418.41120960823554 0.6448782049209478 18.0 0.0 14.0 
204.00006609123824 340.0 200.0 418.4089219330856 0.6608818039054292 18.0 0.0 14.0 
206.00006609123824 340.0 200.0 418.4089219330856 0.6768818039054294 18.0 0.0 14.0 
208.00006609123824 342.0 201.0 418.41120960823554 0.6929526313363882 18.0 0.0 14.0 
210.00006609123824 340.0 200.0 418.41120960823554 0.5300244890419629 18.0 0.0 14.0 
212.00006609123824 340.0 200.0 418.4134972833861 0.532701865213315 18.0 0.0 14.0 
214.00006609123824 340.0 200.0 418.4089219330856 0.5434095631796061 18.0 0.0 14.0 
216.00006609123824 340.0 200.0 418.4089219330856 0.5541208745841316 18.0 0.0 14.0 
218.00006609123824 342.0 201.0 418.41120960823554 0.5730368555344347 18.0 0.0 14.0 
220.00006609123824 344.0 202.0 418.41120960823554 0.6106384652550002 18.0 0.0 14.0 
222.00006609123824 344.0 202.0 418.4134972833861 0.6493692798753776 18.0 0.0 14.0 
224.00006609123824 345.0 203.0 418.4089219330856 0.6917625298729392 18.0 0.0 14.0 
226.00006609123824 346.0 203.0 418.4089219330856 0.735796506427914 18.0 0.0 14.0 
228.00006609123824 346.0 203.0 418.41120960823554 0.7869776087901191 18.0 0.0 14.0 
230.00006609123824 346.0 203.0 418.4180726336865 0.8420957190263388 18.0 0.0 14.0 
232.00006609123824 346.0 203.0 418.4180726336865 0.8971890331096378 18.0 0.0 14.0 
234.00006609123824 342.0 203.0 418.41921647126094 0.8690902567567731 18.0 0.0 14.0 
236.00006609123824 342.0 203.0 418.4032027452107 0.9347070546570361 18.0 0.0 14.0 
238.00006609123824 341.0 203.0 418.4054904203613 0.9794042171457555 18.0 0.0 14.0 
240.00006609123824 337.0 201.0 418.4100657706601 0.8683065361953164 18.0 0.0 14.0 
242.00006609123824 336.0 201.0 418.4100657706601 0.8252999584404113 18.0 0.0 14.0 
244.00006609123824 335.0 201.0 418.4054904203613 0.7282630065723172 18.0 0.0 14.0 
246.00006609123824 336.0 201.0 418.40777809550946 0.7567919225070849 18.0 0.0 14.0 
248.00006609123824 336.0 201.0 418.4054904203613 0.7870322367882312 18.0 0.0 14.0 
250.00006609123824 334.0 200.0 418.4054904203613 0.6417958680259026 18.0 0.0 14.0 
252.00006609123824 334.0 200.0 418.4032027452107 0.673120420898732 18.0 0.0 14.0 
254.00006609123824 334.0 200.0 418.4032027452107 0.7012570533011729 18.0 0.0 14.0 
256.00006609123824 334.0 200.0 418.4032027452107 0.5972294958011473 18.0 0.0 14.0 
258.0000660912382 338.0 202.0 418.4054904203613 0.6111684790878277 18.0 0.0 14.0 
260.0000660912382 338.0 202.0 418.4032027452107 0.6348286098067821 18.0 0.0 14.0 
262.0000660912382 338.0 202.0 418.4032027452107 0.6663318777806378 18.0 0.0 14.0 
264.0000660912382 339.0 203.0 418.4032027452107 0.7000582984106829 18.0 0.0 14.0 
266.0000660912382 340.0 203.0 418.4032027452107 0.7468338840261262 18.0 0.0 14.0 
268.0000660912382 340.0 203.0 418.4054904203613 0.8053293444671111 18.0 0.0 14.0 
270.0000660912382 330.0 202.0 418.4089219330856 0.7030787635185743 18.0 0.0 14.0 
272.0000660912382 332.0 203.0 418.3997712324846 0.7633456440106192 18.0 0.0 14.0 
274.0000660912382 332.0 203.0 418.3997712324846 0.8253611478865881 18.0 0.0 14.0 
276.0000660912382 332.0 203.0 418.3997712324846 0.9010297279370059 18.0 0.0 14.0 
278.0000660912382 334.0 204.0 418.3997712324846 0.9731426734377381 18.0 0.0 14.0 
280.0000660912382 334.0 204.0 418.3997712324846 1.073528773823838 18.0 0.0 14.0 
282.0000660912382 336.0 205.0 418.3997712324846 0.9923331996718735 18.0 0.0 14.0 
284.0000660912382 338.0 206.0 418.3997712324846 1.0785443384145563 18.0 0.0 14.0 
286.0000660912382 336.0 205.0 418.3997712324846 1.0100907845024192 18.0 0.0 14.0 
288.0000660912382 336.0 205.0 418.3997712324846 1.1062446306562652 18.0 0.0 14.0 
290.0000660912382 334.0 204.0 418.3997712324846 1.07739506315831 18.0 0.0 14.0 
292.0000660912382 332.0 203.0 418.3997712324846 1.0003513955798344 18.0 0.0 14.0 
294.0000660912382 332.0 203.0 414.4603946239636 1.1016922720221438 17.0 0.0 11.0 
296.0000660912382 332.0 203.0 414.4603946239636 1.202859587197241 17.0 0.0 11.0 
298.0000660912382 328.0 201.0 414.4603946239636 0.9923032471724068 17.0 0.0 11.0 
300.0000660912382 326.0 200.0 413.1449814126397 0.8869922038070582 17.0 0.0 10.0 
302.0000660912382 326.0 200.0 413.1449814126397 0.9584207752356294 17.0 0.0 10.0 
304.0000660912382 326.0 200.0 413.1449814126397 1.0338176006324553 17.0 0.0 10.0 
306.0000660912382 324.0 199.0 413.1449814126397 0.9342680906615748 17.0 0.0 10.0 
308.0000660912382 323.0 199.0 413.1449814126397 0.9078667336815476 17.0 0.0 10.0 
310.0000660912382 324.0 199.0 413.1449814126397 0.8622680906615748 17.0 0.0 10.0 
312.0000660912382 324.0 199.0 413.1449814126397 0.9182680906615754 17.0 0.0 10.0 
314.0000660912382 321.0 198.0 413.1449814126397 0.703946985612558 17.0 0.0 10.0 
316.0000660912382 321.0 197.0 413.1449814126397 0.6907565903473044 17.0 0.0 10.0 
318.0000660912382 322.0 198.0 413.1449814126397 0.7227956798740369 17.0 0.0 10.0 
320.0000660912382 322.0 198.0 413.1449814126397 0.7549241939302621 17.0 0.0 10.0 
322.0000660912382 322.0 198.0 413.1449814126397 0.787052707986487 17.0 0.0 10.0 
324.0000660912382 324.0 198.0 413.1449814126397 0.630770713639596 17.0 0.0 10.0 
326.0000660912382 324.0 198.0 413.1449814126397 0.650932003962177 17.0 0.0 10.0 
328.0000660912382 324.0 198.0 411.8329997140408 0.6831900684783061 16.0 0.0 9.0 
330.0000660912382 324.0 198.0 411.8329997140408 0.7154481329944347 16.0 0.0 9.0 
332.0000660912382 324.0 198.0 411.8329997140408 0.7477061975105642 16.0 0.0 9.0 
334.0000660912382 322.0 197.0 411.8329997140408 0.6036529184619621 14.0 0.0 9.0 
336.0000660912382 322.0 197.0 411.8329997140408 0.6361732436652143 14.0 0.0 9.0 
338.0000660912382 322.0 197.0 411.8329997140408 0.668693568868466 14.0 0.0 9.0 
340.0000660912382 322.0 197.0 411.8329997140408 0.7012138940717185 14.0 0.0 9.0 
342.0000660912382 322.0 197.0 411.8329997140408 0.7337342192749702 14.0 0.0 9.0 
344.0000660912382 325.0 198.0 411.8329997140408 0.7621826147930881 14.0 0.0 9.0 
346.0000660912382 326.0 199.0 411.8329997140408 0.793634573318449 14.0 0.0 9.0 
348.0000660912382 324.0 198.0 411.8329997140408 0.6469904461114014 14.0 0.0 9.0 
350.0000660912382 324.0 198.0 411.8329997140408 0.6631194783694659 14.0 0.0 9.0 
352.0000660912382 324.0 198.0 411.8329997140408 0.67924851062753 14.0 0.0 9.0 
354.0000660912382 326.0 199.0 411.8329997140408 0.709634573318449 14.0 0.0 9.0 
356.0000660912382 322.0 198.0 411.8329997140408 0.5701852381069686 14.0 0.0 9.0 
358.0000660912382 324.0 199.0 411.8329997140408 0.6015724431822635 14.0 0.0 9.0 
360.0000660912382 328.0 200.0 411.8329997140408 0.6323061998832916 14.0 0.0 9.0 
362.0000660912382 330.0 201.0 411.8329997140408 0.6625833663959617 14.0 0.0 9.0 
364.0000660912382 330.0 201.0 411.8329997140408 0.6940794293880876 14.0 0.0 9.0 
366.0000660912382 330.0 201.0 411.8329997140408 0.7255754923802138 14.0 0.0 9.0 
368.0000660912382 331.0 202.0 411.8329997140408 0.7582877045416992 14.0 0.0 9.0 
370.0000660912382 332.0 202.0 411.8329997140408 0.8031595375557071 14.0 0.0 9.0 
372.0000660912382 334.0 203.0 411.8329997140408 0.8563969965137108 14.0 0.0 9.0 
374.0000660912382 334.0 203.0 411.8329997140408 0.9238418732971089 14.0 0.0 9.0 
376.0000660912382 330.0 201.0 411.8329997140408 0.6436785351095675 14.0 0.0 9.0 
378.0000660912382 332.0 202.0 411.8329997140408 0.6907412369021122 14.0 0.0 9.0 
380.0000660912382 332.0 202.0 411.8329997140408 0.757407903568779 14.0 0.0 9.0 
382.0000660912382 332.0 202.0 411.8329997140408 0.8397608447452498 14.0 0.0 9.0 
384.0000660912382 333.0 202.0 411.8329997140408 0.9238753223486873 14.0 0.0 9.0 
386.0000660912382 334.0 203.0 411.8329997140408 1.0081479692763553 14.0 0.0 9.0 
388.0000660912382 334.0 203.0 411.8329997140408 1.0937510821168224 14.0 0.0 9.0 
390.0000660912382 334.0 203.0 411.8329997140408 1.0628147304362177 14.0 0.0 9.0 
392.0000660912382 336.0 204.0 411.8329997140408 1.1364664976175314 14.0 0.0 9.0 
394.0000660912382 334.0 203.0 411.8329997140408 1.0404272769998275 14.0 0.0 9.0 
396.0000660912382 332.0 202.0 411.8329997140408 0.9428815588038075 14.0 0.0 9.0 
398.0000660912382 332.0 202.0 411.8329997140408 1.0056266568430232 14.0 0.0 9.0 
400.0000660912382 332.0 202.0 411.8329997140408 0.8510399357165238 14.0 0.0 9.0 
402.0000660912382 330.0 201.0 411.8329997140408 0.7846384398438642 14.0 0.0 9.0 
404.0000660912382 328.0 200.0 411.8329997140408 0.6595956676753499 14.0 0.0 9.0 
406.0000660912382 328.0 200.0 411.8329997140408 0.7034203688705687 14.0 0.0 9.0 
408.0000660912382 328.0 200.0 411.8329997140408 0.747245070065788 14.0 0.0 9.0 
410.0000660912382 329.0 201.0 411.8329997140408 0.8000094807982198 14.0 0.0 9.0 
412.0000660912382 332.0 202.0 411.8329997140408 0.8356763415628611 14.0 0.0 9.0 
414.0000660912382 332.0 202.0 411.8329997140408 0.8910123099423074 14.0 0.0 9.0 
416.0000660912382 330.0 201.0 411.8329997140408 0.782843009459867 14.0 0.0 9.0 
418.0000660912382 330.0 201.0 411.8329997140408 0.850572093125206 14.0 0.0 9.0 
420.0000660912382 330.0 201.0 411.8329997140408 0.9263589204280247 14.0 0.0 9.0 
422.0000660912382 328.0 199.0 411.8329997140408 0.7986374364303137 14.0 0.0 9.0 
424.0000660912382 328.0 200.0 411.8329997140408 0.8369026987631626 14.0 0.0 9.0 
426.0000660912382 328.0 200.0 411.8329997140408 0.9129026987631631 14.0 0.0 9.0 
428.0000660912382 328.0 200.0 411.8329997140408 0.9889026987631631 14.0 0.0 9.0 
430.0000660912382 330.0 201.0 411.8329997140408 1.0602408229554585 14.0 0.0 9.0 
432.0000660912382 332.0 201.0 411.8329997140408 0.9493663474038287 14.0 0.0 9.0 
434.0000660912382 337.0 204.0 411.8329997140408 1.0062264007378898 14.0 0.0 9.0 
436.0000660912382 338.0 205.0 411.8329997140408 1.070712154807118 14.0 0.0 9.0 
438.0000660912382 336.0 205.0 411.8329997140408 0.9161610901616202 14.0 0.0 9.0 
440.0000660912382 334.0 204.0 411.8329997140408 0.8425656164886295 14.0 0.0 9.0 
442.0000660912382 331.0 203.0 411.8329997140408 0.6402881501918868 14.0 0.0 9.0 
444.0000660912382 334.0 203.0 413.1449814126397 0.665580327197362 15.0 0.0 10.0 
446.0000660912382 334.0 203.0 413.1449814126397 0.7294017108611812 17.0 0.0 10.0 
448.0000660912382 335.0 203.0 413.1449814126397 0.7930308836754777 17.0 0.0 10.0 
450.0000660912382 336.0 204.0 413.1449814126397 0.8592319793583224 17.0 0.0 10.0 
452.0000660912382 336.0 204.0 413.1449814126397 0.9406273281955313 17.0 0.0 10.0 
454.0000660912382 335.0 203.0 414.4638261366882 0.9646797112704504 17.0 0.0 11.0 
456.0000660912382 338.0 204.0 415.7849585358877 1.054656835354303 17.0 0.0 12.0 
458.0000660912382 338.0 204.0 415.7803831855874 1.1536662494814687 17.0 0.0 12.0 
460.0000660912382 338.0 204.0 415.7780955104372 1.261362017735777 17.0 0.0 12.0 
462.0000660912382 336.0 203.0 415.77580783528697 1.189927756909372 17.0 0.0 12.0 
464.0000660912382 332.0 201.0 415.7780955104372 0.853699805524787 17.0 0.0 12.0 
466.0000660912382 332.0 201.0 415.77580783528697 0.8153184489038907 17.0 0.0 12.0 
468.0000660912382 332.0 201.0 415.77580783528697 0.8665030935736556 17.0 0.0 12.0 
470.0000660912382 333.0 201.0 415.77580783528697 0.9347143999775743 17.0 0.0 12.0 
472.0000660912382 333.0 202.0 415.77580783528697 0.9275556114702272 17.0 0.0 12.0 
474.0000660912382 334.0 202.0 415.7780955104372 0.908392589597484 17.0 0.0 12.0 
476.0000660912382 332.0 201.0 415.7780955104372 0.828789517921711 17.0 0.0 12.0 
478.0000660912382 332.0 201.0 415.7780955104372 0.9078409013209212 17.0 0.0 12.0 
480.0000660912382 330.0 200.0 415.77580783528697 0.8116736452565282 17.0 0.0 12.0 
482.0000660912382 330.0 200.0 415.77580783528697 0.8913567124798755 17.0 0.0 12.0 
484.0000660912382 333.0 202.0 415.7780955104372 0.9791471477808595 17.0 0.0 12.0 
486.0000660912382 334.0 202.0 415.77580783528697 1.0701435014298453 17.0 0.0 12.0 
488.0000660912382 334.0 202.0 415.77580783528697 1.1623736717043665 17.0 0.0 12.0 
490.0000660912382 332.0 201.0 415.77580783528697 1.0815094007193358 17.0 0.0 12.0 
492.0000660912382 330.0 201.0 415.77580783528697 0.9734709784400564 17.0 0.0 12.0 
494.0000660912382 331.0 202.0 415.7780955104372 1.0350107176235297 17.0 0.0 12.0 
496.0000660912382 331.0 202.0 415.77580783528697 0.846912804672896 17.0 0.0 12.0 
498.0000660912382 331.0 202.0 415.77580783528697 0.804607640884901 17.0 0.0 12.0 
500.0000660912382 334.0 203.0 415.77580783528697 0.8459298644070203 17.0 0.0 12.0 
502.0000660912382 334.0 203.0 415.77580783528697 0.7261381977403535 17.0 0.0 12.0 
504.0000660912382 333.0 202.0 415.7780955104372 0.7326136742336933 17.0 0.0 12.0 
506.0000660912382 330.0 202.0 415.7780955104372 0.6803309855787179 17.0 0.0 12.0 
508.0000660912382 333.0 202.0 415.77580783528697 0.7253899075105517 18.0 0.0 12.0 
510.0000660912382 338.0 203.0 417.09350872176117 0.7931145265148863 18.0 0.0 13.0 
512.0000660912382 338.0 203.0 417.09808407206157 0.8457001345476179 18.0 0.0 13.0 
514.0000660912382 338.0 203.0 417.10723477266225 0.9040618672011763 18.0 0.0 13.0 
516.0000660912382 336.0 202.0 417.10265942236197 0.7897340551691031 18.0 0.0 13.0 
518.0000660912382 337.0 203.0 417.09808407206157 0.831236416753928 18.0 0.0 13.0 
520.0000660912382 338.0 203.0 417.09808407206157 0.8504614775263377 18.0 0.0 13.0 
522.0000660912382 338.0 203.0 417.09350872176117 0.9051607515478343 18.0 0.0 13.0 
524.0000660912382 336.0 202.0 417.09350872176117 0.7825573178642437 18.0 0.0 13.0 
526.0000660912382 334.0 201.0 417.0912210466108 0.6854883746752389 18.0 0.0 13.0 
528.0000660912382 334.0 201.0 417.09350872176117 0.7171211973001997 18.0 0.0 13.0 
530.0000660912382 332.0 200.0 417.0912210466108 0.6273619598331871 18.0 0.0 13.0 
532.0000660912382 332.0 200.0 417.0912210466108 0.6591079915792186 18.0 0.0 13.0 
534.0000660912382 333.0 200.0 417.09350872176117 0.697843755490842 18.0 0.0 13.0 
536.0000660912382 336.0 201.0 417.0912210466108 0.7461605669207054 18.0 0.0 13.0 
538.0000660912382 338.0 202.0 417.09350872176117 0.7884979194441438 18.0 0.0 13.0 
540.0000660912382 338.0 202.0 417.0912210466108 0.8447070697709412 18.0 0.0 13.0 
542.0000660912382 338.0 202.0 417.0912210466108 0.7283672004898953 18.0 0.0 13.0 
544.0000660912382 343.0 204.0 417.0912210466108 0.7686605697100372 18.0 0.0 13.0 
546.0000660912382 344.0 205.0 417.0912210466108 0.819024294534653 18.0 0.0 13.0 
548.0000660912382 345.0 206.0 417.09350872176117 0.8671195515071 18.0 0.0 13.0 
550.0000660912382 344.0 205.0 417.0912210466108 0.7487816380851001 18.0 0.0 13.0 
552.0000660912382 346.0 206.0 417.0912210466108 0.7936135116636096 18.0 0.0 13.0 
554.0000660912382 346.0 206.0 417.0912210466108 0.8595624856553857 18.0 0.0 13.0 
556.0000660912382 342.0 205.0 417.0900772090362 0.799156667812368 18.0 0.0 13.0 
558.0000660912382 342.0 205.0 417.09350872176117 0.8822534959435029 18.0 0.0 13.0 
560.0000660912382 344.0 206.0 417.0843580211609 0.9799133203222616 18.0 0.0 13.0 
562.0000660912382 342.0 205.0 417.0843580211609 0.9201620809299439 18.0 0.0 13.0 
564.0000660912382 342.0 205.0 414.46039462396357 1.02944961273656 17.0 0.0 11.0 
566.0000660912382 343.0 206.0 414.45925078638794 1.0776546385317345 17.0 0.0 11.0 
568.0000660912382 344.0 206.0 414.4569631112377 1.193139222019592 17.0 0.0 11.0 
570.0000660912382 344.0 206.0 414.4569631112377 1.3235574729701614 17.0 0.0 11.0 
572.0000660912382 344.0 206.0 414.4569631112377 1.4539757239207323 17.0 0.0 11.0 
574.0000660912382 341.0 205.0 414.4569631112377 1.3315117748088423 17.0 0.0 11.0 
576.0000660912382 341.0 204.0 414.4569631112377 1.0739096672314308 17.0 0.0 11.0 
578.0000660912382 342.0 204.0 414.4569631112377 1.1620145920068894 17.0 0.0 11.0 
580.0000660912382 334.0 203.0 414.4569631112377 0.9189856104559693 17.0 0.0 11.0 
582.0000660912382 334.0 203.0 414.4569631112377 0.9786483860720524 17.0 0.0 11.0 
584.0000660912382 332.0 202.0 414.4569631112377 0.7799645327837881 17.0 0.0 11.0 
586.0000660912382 332.0 202.0 414.4569631112377 0.7342128987968598 17.0 0.0 11.0 
588.0000660912382 332.0 202.0 414.4569631112377 0.7734285850713697 17.0 0.0 11.0 
590.0000660912382 331.0 201.0 414.4569631112377 0.7430269589350292 17.0 0.0 11.0 
592.0000660912382 331.0 201.0 414.4569631112377 0.6946305433927801 17.0 0.0 11.0 
594.0000660912382 336.0 203.0 417.0820703460105 0.734334019176251 19.0 0.0 13.0 
596.0000660912382 338.0 203.0 418.41235344581025 0.7726683248573222 20.0 0.0 14.0 
598.0000660912382 334.0 202.0 418.41464112096077 0.6926461508103675 20.0 0.0 14.0 
600.0000660912382 336.0 203.0 418.4112096082356 0.7220941890852839 20.0 0.0 14.0 
602.0000660912382 336.0 203.0 418.40434658278514 0.7572134216316995 20.0 0.0 14.0 
604.0000660912382 336.0 203.0 418.40434658278514 0.7988486636102659 20.0 0.0 14.0 
606.0000660912382 336.0 203.0 418.4020589076352 0.8403532031692803 20.0 0.0 14.0 
608.0000660912382 335.0 202.0 418.3997712324847 0.7935442791823883 20.0 0.0 14.0 
610.0000660912382 335.0 202.0 418.3997712324847 0.6590678310644671 20.0 0.0 14.0 
612.0000660912382 335.0 202.0 418.3997712324847 0.5984365751785325 20.0 0.0 14.0 
614.0000660912382 336.0 203.0 417.0877895338867 0.6347099801253245 20.0 0.0 13.0 
616.0000660912382 336.0 203.0 417.0900772090363 0.6772160853234452 20.0 0.0 13.0 
618.0000660912382 336.0 203.0 417.0877895338867 0.7187229588542373 20.0 0.0 13.0 
620.0000660912382 336.0 203.0 417.0877895338867 0.7602274984132519 20.0 0.0 13.0 
622.0000660912382 337.0 203.0 417.0877895338867 0.7606056781716488 20.0 0.0 13.0 
624.0000660912382 336.0 203.0 417.0923648841866 0.6384110027356905 20.0 0.0 13.0 
626.0000660912382 336.0 203.0 417.0900772090363 0.6524548255688911 20.0 0.0 13.0 
628.0000660912382 336.0 203.0 415.77580783528697 0.6679604452319152 19.0 0.0 12.0 
630.0000660912382 336.0 203.0 415.77580783528697 0.6950974592597463 17.0 0.0 12.0 
632.0000660912382 338.0 203.0 415.77580783528697 0.5478216232801534 17.0 0.0 12.0 
634.0000660912382 340.0 204.0 415.7803831855874 0.5781666790617151 17.0 0.0 12.0 
636.0000660912382 344.0 205.0 415.7780955104372 0.6130443236343405 17.0 0.0 12.0 
638.0000660912382 344.0 205.0 415.77580783528697 0.643815284684572 17.0 0.0 12.0 
640.0000660912382 346.0 206.0 415.77580783528697 0.6730852531723435 17.0 0.0 12.0 
642.0000660912382 349.0 208.0 415.77580783528697 0.703881825531832 17.0 0.0 12.0 
644.0000660912382 350.0 208.0 415.7803831855874 0.74946857240302 17.0 0.0 12.0 
646.0000660912382 350.0 208.0 415.7780955104372 0.7999318637424164 17.0 0.0 12.0 
648.0000660912382 354.0 209.0 415.77580783528697 0.8573649842835972 17.0 0.0 12.0 
650.0000660912382 354.0 209.0 415.77580783528697 0.9181470003958044 17.0 0.0 12.0 
652.0000660912382 352.0 208.0 415.77580783528697 0.8141619548407797 17.0 0.0 12.0 
654.0000660912382 352.0 208.0 415.7803831855874 0.7182023588811841 17.0 0.0 12.0 
656.0000660912382 352.0 208.0 415.7780955104372 0.7946270331271291 17.0 0.0 12.0 
658.0000660912382 358.0 210.0 418.4066342579356 0.8675937307295135 19.0 0.0 14.0 
660.0000660912382 359.0 211.0 418.39977123248474 0.9574915310756806 20.0 0.0 14.0 
662.0000660912382 360.0 211.0 418.39977123248474 1.0544467937794597 20.0 0.0 14.0 
664.0000660912382 360.0 211.0 418.40434658278514 0.9724705404973388 20.0 0.0 14.0 
#####################################################################
# End of data export. Simulation finished at: 2019-03-12T16:58+0000 #
#####################################################################
