#####################################################################
# Alchemist log file - simulation started at: 2019-03-07T11:14+0000 #
#####################################################################
# seed = 2.0, bandwidth = 316227.76601683797, accessPointCount = 274.2481756762073, baserange = 100.0
#
# The columns have the following meaning: 
# time neighbor_count[Sum] <value>@neighbor_count[Sum] packet_size[Mean] mean_delay[Mean] crowd[Sum] overcrowded[Sum] risk[Sum] 
0.0 NaN NaN NaN NaN NaN NaN NaN 
10.000582979052751 557.0 163.0 4985.456804065499 0.5083603264816638 1497.0 0.0 1497.0 
20.00058297905275 560.0 163.0 4985.571993224167 0.5106877436297979 1497.0 0.0 1497.0 
30.00058297905275 560.0 163.0 4985.158667419537 0.5107158297781128 1497.0 0.0 1497.0 
40.00058297905275 558.0 163.0 4985.538114059853 0.5117981254985622 1497.0 0.0 1497.0 
50.00058297905275 557.0 162.0 4985.226425748165 0.5092572507314306 1497.0 0.0 1497.0 
60.00058297905275 562.0 164.0 4982.947487295313 0.5104457504892305 1496.0 0.0 1496.0 
70.00004305935364 560.0 163.0 449.33709768492304 0.5033425824177704 45.0 0.0 19.0 
80.00004305935364 576.0 164.0 449.37775268210083 0.5071842104107973 34.0 0.0 19.0 
90.00004305935364 576.0 163.0 454.57933370976883 0.49898897015002314 33.0 0.0 21.0 
100.00004305935364 592.0 166.0 454.572557876906 0.5048951862934348 34.0 0.0 21.0 
110.00004305935364 574.0 164.0 454.56804065499676 0.5015828121367033 33.0 0.0 21.0 
120.00004305935364 581.0 167.0 454.58836815358575 0.5032318738758118 33.0 0.0 21.0 
130.00004305935363 588.0 169.0 454.56352343308913 0.5056950468743363 33.0 0.0 21.0 
140.00004305935363 584.0 168.0 454.56352343308913 0.5133027459811385 33.0 0.0 21.0 
150.00004305935363 582.0 167.0 454.572557876906 0.502297721615722 33.0 0.0 21.0 
160.00004305935363 582.0 167.0 454.55448898927233 0.515941007217783 33.0 0.0 21.0 
170.00004305935363 584.0 167.0 457.1835121400343 0.5000812059228523 33.0 0.0 22.0 
180.00004305935363 588.0 168.0 457.1631846414454 0.500141622239109 33.0 0.0 22.0 
190.00004305935363 592.0 168.0 457.17447769621765 0.5001185228840324 33.0 0.0 22.0 
200.00004305935363 592.0 168.0 457.13833992094885 0.5001230103066169 32.0 0.0 22.0 
210.00004305935363 592.0 168.0 459.765104460757 0.49992060263314414 35.0 0.0 23.0 
220.00004305935363 590.0 167.0 459.76284584980186 0.500964742340315 36.0 0.0 23.0 
230.00004305935363 588.0 166.0 459.7357425183514 0.5002121936927936 36.0 0.0 23.0 
240.00004305935363 586.0 166.0 459.75155279503116 0.5006298313571056 36.0 0.0 23.0 
250.00004305935363 584.0 166.0 459.767363071711 0.5011108337735988 36.0 0.0 23.0 
260.0000430593537 588.0 166.0 459.740259740259 0.4995991948524187 36.0 0.0 23.0 
270.0000430593537 586.0 165.0 462.3308865047999 0.5004797644825251 35.0 0.0 24.0 
280.0000430593537 584.0 164.0 462.34669678147964 0.5004925101529152 35.0 0.0 24.0 
290.0000430593537 588.0 166.0 462.3241106719371 0.5006163445061224 35.0 0.0 24.0 
300.0000430593537 580.0 166.0 459.74703557312233 0.5117732449260439 34.0 0.0 23.0 
310.0000430593537 582.0 166.0 454.5544889892724 0.5044937437928906 32.0 0.0 21.0 
320.0000430593537 582.0 166.0 451.96837944664054 0.5052044436619199 32.0 0.0 20.0 
330.0000430593537 582.0 166.0 451.93224167137186 0.5048600506264074 30.0 0.0 20.0 
340.0000430593537 584.0 166.0 449.37775268210083 0.5056569290865226 29.0 0.0 19.0 
350.0000430593537 586.0 166.0 449.3754940711456 0.5052949761923619 29.0 0.0 19.0 
360.0000430593537 585.0 166.0 449.3483907396953 0.5098822228119348 29.0 0.0 19.0 
370.0000430593537 574.0 165.0 449.364201016375 0.5053613532434406 29.0 0.0 19.0 
380.0000430593537 574.0 165.0 449.38001129305474 0.5053596064614947 29.0 0.0 19.0 
390.0000430593537 574.0 165.0 451.95031055900677 0.5064014134143678 34.0 0.0 20.0 
400.0000430593537 582.0 165.0 451.9457933370977 0.5101771919755773 34.0 0.0 20.0 
410.0000430593537 572.0 163.0 454.565782044043 0.5050713862491691 34.0 0.0 21.0 
420.0000430593537 594.0 168.0 457.13156408808595 0.5020744234631559 35.0 0.0 22.0 
430.0000430593537 602.0 168.0 462.39412761151925 0.50228884151277 35.0 0.0 24.0 
440.0000430593537 620.0 170.0 464.9553924336528 0.5028925801906117 38.0 0.0 25.0 
450.0000430593537 617.0 171.0 467.57312252964437 0.51357162423379 41.0 0.0 26.0 
460.0000430593537 608.0 170.0 467.4963297571993 0.5136655154501828 40.0 0.0 26.0 
470.0000430593537 619.0 172.0 467.57312252964437 0.5019412028921024 40.0 0.0 26.0 
480.0000430593537 614.0 173.0 467.5302089215127 0.5030143710206598 40.0 0.0 26.0 
490.0000430593537 618.0 172.0 470.1434217955948 0.5082169418353788 45.0 0.0 27.0 
500.0000430593537 618.0 172.0 470.15471485036716 0.5055271976406315 46.0 0.0 27.0 
510.0000430593537 616.0 171.0 467.57763975155353 0.5077318578247545 47.0 0.0 26.0 
520.0000430593536 614.0 171.0 464.93280632411023 0.5042975758787168 47.0 0.0 25.0 
530.0000430593536 616.0 172.0 464.9553924336529 0.5139455114441274 44.0 0.0 25.0 
540.0000430593536 611.0 171.0 467.5505364201016 0.5064223515849507 46.0 0.0 26.0 
550.0000430593536 620.0 173.0 467.5279503105587 0.523367214403651 47.0 0.0 26.0 
560.0000430593536 614.0 171.0 467.54827780914763 0.5061217590558764 47.0 0.0 26.0 
570.0000430593536 622.0 173.0 467.54827780914763 0.5059974412844325 47.0 0.0 26.0 
580.0000430593536 638.0 175.0 467.53246753246793 0.5050280406173208 48.0 0.0 26.0 
590.0000430593536 630.0 174.0 467.50762281196995 0.5063111009945592 46.0 0.0 26.0 
600.0000430593536 608.0 170.0 470.143421795595 0.5056456251157901 47.0 0.0 27.0 
610.0000430593536 602.0 170.0 467.53924336533083 0.5058080637478496 46.0 0.0 26.0 
620.0000430593536 592.0 169.0 467.5256916996051 0.5260661813757002 44.0 0.0 26.0 
630.0000430593536 582.0 167.0 467.5415019762848 0.5058008241878849 42.0 0.0 26.0 
640.0000430593536 582.0 167.0 467.5505364201016 0.5058009059142814 42.0 0.0 26.0 
650.0000430593536 584.0 167.0 457.1383399209489 0.5052021058834888 39.0 0.0 22.0 
660.0000430593536 590.0 170.0 457.12704686617684 0.5056437453911728 35.0 0.0 22.0 
#####################################################################
# End of data export. Simulation finished at: 2019-03-07T11:21+0000 #
#####################################################################
