#####################################################################
# Alchemist log file - simulation started at: 2019-03-10T19:54+0000 #
#####################################################################
# seed = 4.0, bandwidth = 17782.79410038923, accessPointCount = 1031.338537721246, baserange = 177.82794100389228
#
# The columns have the following meaning: 
# time neighbor_count[Sum] <value>@neighbor_count[Sum] packet_size[Mean] mean_delay[Mean] crowd[Sum] overcrowded[Sum] risk[Sum] 
0.0 NaN NaN NaN NaN NaN NaN NaN 
2.0000042429967895 1127.0 830.0 4978.606012658228 0.40569797492156473 1497.0 0.0 1497.0 
4.0000042429967895 3079.0 1892.0 4981.588607594937 0.727596664568138 1497.0 0.0 1497.0 
6.0000042429967895 4407.0 2124.0 4982.080696202532 0.9382368683438291 1497.0 0.0 1497.0 
8.00000424299679 6211.0 2272.0 4982.916139240506 1.0546678716400835 1497.0 0.0 1497.0 
10.00000424299679 7681.0 2403.0 4983.73417721519 1.2894659793267191 1497.0 0.0 1497.0 
12.00000424299679 8286.0 2447.0 4983.849683544304 1.5572977712294174 1496.0 1.0 1496.0 
14.00000424299679 8447.0 2451.0 4983.903481012659 1.742346102931909 1496.0 1.0 1496.0 
16.000004242996788 8520.0 2455.0 4983.553797468355 1.9329110669270073 1494.0 3.0 1494.0 
18.000004242996788 8617.0 2457.0 4983.76740506329 2.036554577525666 1494.0 3.0 1494.0 
20.000004242996788 8629.0 2458.0 4983.533227848102 2.1648424696977253 1491.0 6.0 1491.0 
22.000004242996788 8629.0 2458.0 4983.332278481013 2.412717199512248 1491.0 6.0 1491.0 
24.000004242996788 8622.0 2454.0 4983.675632911392 2.617378190340215 1490.0 7.0 1490.0 
26.000004242996788 8587.0 2418.0 4983.139240506329 2.3888702171106777 1492.0 5.0 1492.0 
28.000004242996788 8352.0 2353.0 4983.522151898735 2.0435237407665063 1491.0 6.0 1491.0 
30.000004242996788 8023.0 2295.0 4983.362341772152 1.6583132358942059 1492.0 5.0 1492.0 
32.00000424299679 7843.0 2253.0 4983.153481012659 1.2783013442196707 1491.0 6.0 1491.0 
34.00000424299679 7824.0 2249.0 4983.226265822785 1.1417407345423942 1487.0 10.0 1487.0 
36.00000424299679 7828.0 2250.0 4983.166139240506 1.153408484251048 1483.0 14.0 1483.0 
38.00000424299679 7830.0 2250.0 4983.181962025317 1.1947334487687433 1484.0 13.0 1484.0 
40.00000424299679 7831.0 2250.0 4983.256329113924 1.2618862672602287 1487.0 10.0 1487.0 
42.00000424299679 7840.0 2250.0 4983.0094936708865 1.1834789754888193 1488.0 9.0 1488.0 
44.00000424299679 7840.0 2250.0 4983.229430379747 1.1827431256753724 1490.0 7.0 1490.0 
46.00000424299679 7839.0 2250.0 4982.927215189873 1.2402079262034822 1490.0 7.0 1490.0 
48.00000424299679 7829.0 2249.0 4983.31329113924 1.2934250663736688 1490.0 7.0 1490.0 
50.00000424299679 7869.0 2250.0 4983.1740506329115 1.122999891728178 1494.0 3.0 1494.0 
52.00000424299679 7882.0 2252.0 4982.9509493670885 1.1664136174302142 1494.0 3.0 1494.0 
54.00000424299679 7937.0 2254.0 4983.10759493671 1.2708851396386909 1494.0 3.0 1494.0 
56.00000424299679 7945.0 2256.0 4983.001582278481 1.244940708370391 1494.0 3.0 1494.0 
58.00000424299679 7962.0 2257.0 4983.101265822785 1.1869354460620531 1494.0 3.0 1494.0 
60.00000424299679 7964.0 2258.0 4981.454113924051 1.2051710277408547 1494.0 3.0 1494.0 
62.00000424299679 7966.0 2259.0 946.325949367093 1.0646192552070133 660.0 2.0 298.0 
64.0000042429968 7968.0 2260.0 946.0411392405153 1.117396030462574 525.0 2.0 298.0 
66.0000042429968 7968.0 2260.0 946.0553797468389 0.9215627306388464 475.0 6.0 294.0 
68.0000042429968 7979.0 2260.0 945.9873417721628 0.9269376204971089 448.0 5.0 295.0 
70.0000042429968 8008.0 2260.0 945.9731012658134 0.9843783910853262 431.0 10.0 290.0 
72.0000042429968 8013.0 2262.0 945.9905063291186 0.9821469928234281 423.0 10.0 290.0 
74.0000042429968 8036.0 2262.0 947.7167721519085 0.9594211412056832 425.0 7.0 294.0 
76.0000042429968 8040.0 2263.0 947.7167721519085 0.9108706907817005 426.0 3.0 298.0 
78.0000042429968 8052.0 2264.0 947.6740506329071 0.9828034260042805 424.0 4.0 297.0 
80.0000042429968 8036.0 2262.0 947.6724683544425 1.0251018136269812 422.0 5.0 296.0 
82.0000042429968 8058.0 2265.0 945.8718354430459 0.9985976457882153 418.0 8.0 292.0 
84.0000042429968 8054.0 2263.0 944.056962025324 0.9267520430209994 416.0 9.0 290.0 
86.0000042429968 8051.0 2263.0 940.4050632911376 0.9466982522613874 415.0 9.0 288.0 
88.0000042429968 8035.0 2263.0 936.8053797468389 1.0269410640722803 414.0 9.0 286.0 
90.0000042429968 8032.0 2263.0 933.1993670886035 0.997740531946107 413.0 8.0 285.0 
92.0000042429968 8035.0 2263.0 931.3829113923967 0.8436868760787977 414.0 6.0 286.0 
94.0000042429968 8032.0 2262.0 931.3227848101175 0.9623023755198978 413.0 6.0 286.0 
96.0000042429968 8030.0 2262.0 931.2784810126517 0.967518364959243 412.0 6.0 286.0 
98.0000042429968 8016.0 2260.0 931.2674050633036 0.9943267416759862 409.0 9.0 283.0 
100.0000042429968 8013.0 2261.0 931.2674050633036 1.0235221729769606 407.0 8.0 284.0 
102.0000042429968 8027.0 2263.0 931.2927215189761 0.9427365621236663 407.0 8.0 284.0 
104.0000042429968 8000.0 2260.0 931.2547468354404 1.0054774738141234 404.0 8.0 284.0 
106.0000042429968 7966.0 2260.0 931.276898734185 1.0033175984642597 404.0 8.0 284.0 
108.0000042429968 7959.0 2262.0 931.2484177215139 1.0217152524160278 402.0 8.0 284.0 
110.0000042429968 7978.0 2263.0 931.2927215189761 0.9517497094113566 401.0 9.0 283.0 
112.0000042429968 7936.0 2262.0 933.0474683544425 0.9408690679170432 400.0 9.0 284.0 
114.0000042429968 7922.0 2259.0 933.0522151898829 0.9836310084150736 398.0 9.0 284.0 
116.0000042429968 7923.0 2261.0 933.034810126582 0.9676085199116065 397.0 10.0 283.0 
118.0000042429968 7919.0 2260.0 933.0664556962066 1.0315412503190649 398.0 10.0 283.0 
120.0000042429968 7967.0 2259.0 933.090189873418 0.9479033450063354 399.0 11.0 282.0 
122.0000042429968 8007.0 2262.0 938.5348101265826 0.9343100650829905 402.0 12.0 284.0 
124.0000042429968 7992.0 2262.0 942.1155063291186 1.0333959964530064 402.0 12.0 286.0 
126.0000042429968 8017.0 2261.0 943.973101265815 1.0249962117415727 402.0 12.0 287.0 
128.0000042429968 8064.0 2263.0 945.8022151898817 0.9920520187108385 402.0 13.0 287.0 
130.0000042429968 8055.0 2261.0 947.5965189873485 1.0147027766466257 403.0 13.0 288.0 
132.0000042429968 8020.0 2260.0 947.587025316465 0.9530474643830096 402.0 13.0 288.0 
134.0000042429968 7993.0 2257.0 947.6155063291186 0.9660159967350778 401.0 14.0 287.0 
136.0000042429968 8014.0 2257.0 945.7863924050689 0.952269619167238 402.0 14.0 286.0 
138.0000042429968 8020.0 2257.0 945.783227848092 0.933668811726367 402.0 14.0 286.0 
140.0000042429968 8027.0 2258.0 943.9493670886035 0.9466122204150353 400.0 14.0 285.0 
142.0000042429968 7927.0 2255.0 945.8022151898823 0.953878661797565 403.0 14.0 286.0 
144.0000042429968 7924.0 2255.0 945.7721518987455 0.9710363805119611 403.0 14.0 286.0 
146.0000042429968 7925.0 2255.0 943.9699367088629 0.9167282338713083 403.0 14.0 285.0 
148.0000042429968 7911.0 2254.0 943.9683544303712 0.966815620397061 401.0 15.0 284.0 
150.0000042429968 7888.0 2252.0 943.992088607603 1.0070568778710087 397.0 19.0 280.0 
152.0000042429968 7873.0 2251.0 943.9572784810251 0.9111687279715321 395.0 20.0 279.0 
154.0000042429968 7870.0 2251.0 938.458860759485 0.9959437960390178 392.0 19.0 277.0 
156.0000042429968 7873.0 2250.0 936.6708860759559 0.9779444499693419 396.0 15.0 280.0 
158.0000042429968 7865.0 2250.0 934.8465189873493 0.9609679047416642 398.0 14.0 280.0 
160.0000042429968 7821.0 2249.0 933.0490506329068 0.9566092359530148 398.0 14.0 279.0 
162.0000042429968 7808.0 2249.0 931.1993670886036 0.9087328519307856 397.0 14.0 278.0 
164.0000042429968 7804.0 2247.0 931.1740506329065 0.9081980458342728 396.0 14.0 278.0 
166.0000042429968 7807.0 2250.0 931.2025316455571 0.9512853690608087 396.0 14.0 278.0 
168.0000042429968 7813.0 2251.0 929.375 0.9209236337184294 394.0 15.0 276.0 
170.0000042429968 7811.0 2252.0 927.590189873418 0.9181956346662681 393.0 15.0 275.0 
172.0000042429968 7811.0 2252.0 922.1075949366955 0.9464471556137626 385.0 21.0 266.0 
174.0000042429968 7795.0 2253.0 922.1376582278365 0.988831913867514 385.0 21.0 266.0 
176.0000042429968 7806.0 2252.0 925.7737341772098 0.952279666209596 383.0 22.0 267.0 
178.0000042429968 7822.0 2252.0 927.5854430379771 0.9726600387093463 385.0 22.0 268.0 
180.0000042429968 7798.0 2250.0 929.4272151898832 0.9598196473446503 385.0 22.0 269.0 
182.0000042429968 7768.0 2250.0 927.6044303797431 0.9346604097200609 384.0 21.0 269.0 
184.0000042429968 7776.0 2250.0 929.3908227848143 1.0094174597174272 383.0 21.0 270.0 
186.0000042429968 7792.0 2251.0 931.2056962025346 0.977564160555966 383.0 21.0 271.0 
188.0000042429968 7826.0 2253.0 929.395569620257 0.9450244623003412 394.0 14.0 277.0 
190.0000042429968 7797.0 2252.0 927.6107594936764 1.0244268048637657 394.0 14.0 276.0 
192.0000042429968 7796.0 2251.0 923.9351265822798 0.9498949300394742 393.0 14.0 274.0 
194.0000042429968 7800.0 2250.0 922.1155063291186 0.9688696481645079 392.0 14.0 273.0 
196.0000042429968 7795.0 2252.0 922.1044303797426 1.0091003039739157 392.0 14.0 273.0 
198.0000042429968 7799.0 2254.0 923.9620253164658 1.0184566980975138 391.0 15.0 273.0 
200.0000042429968 7764.0 2253.0 923.9699367088613 0.9641077783525276 391.0 15.0 273.0 
202.0000042429968 7776.0 2255.0 929.4319620253247 0.956270317672294 383.0 22.0 269.0 
204.0000042429968 7781.0 2254.0 929.4129746835339 0.9546803963492444 383.0 22.0 269.0 
206.0000042429968 7778.0 2254.0 929.454113924044 0.915263581302954 383.0 22.0 269.0 
208.0000042429968 7697.0 2248.0 925.7848101265816 0.8745027395575466 382.0 22.0 267.0 
210.0000042429968 7690.0 2248.0 923.9873417721639 0.8936004612027533 381.0 22.0 266.0 
212.0000042429968 7693.0 2248.0 922.1281645569529 0.8543316869558673 375.0 22.0 265.0 
214.0000042429968 7686.0 2249.0 923.9778481012543 0.9056770879739954 374.0 22.0 266.0 
216.0000042429968 7686.0 2250.0 922.1060126582354 0.9443936154515309 374.0 22.0 265.0 
218.0000042429968 7691.0 2253.0 922.1155063291186 0.928706798833544 374.0 22.0 265.0 
220.0000042429968 7703.0 2252.0 925.7674050633048 0.9385391187619497 374.0 23.0 266.0 
222.0000042429968 7706.0 2254.0 923.9667721519085 0.9110113595085254 372.0 23.0 265.0 
224.0000042429968 7690.0 2251.0 923.931962025325 0.9746399524874587 371.0 23.0 265.0 
226.0000042429968 7686.0 2251.0 923.927215189884 0.9963571613663903 370.0 23.0 265.0 
228.0000042429968 7721.0 2252.0 923.9493670886035 0.9128580248569725 363.0 31.0 257.0 
230.0000042429968 7726.0 2254.0 922.1550632911388 0.9508385347641103 364.0 29.0 258.0 
232.0000042429968 7700.0 2254.0 922.117088607605 0.9768739390787243 365.0 28.0 259.0 
234.0000042429968 7681.0 2252.0 922.1234177215123 0.9693978435991251 365.0 28.0 259.0 
236.0000042429968 7686.0 2253.0 922.109177215185 0.9064721882750143 367.0 27.0 260.0 
238.0000042429968 7693.0 2252.0 920.3101265822798 0.9350470591999334 365.0 28.0 258.0 
240.0000042429968 7698.0 2252.0 920.2927215189751 1.0344558860740456 366.0 27.0 259.0 
242.0000042429968 7718.0 2253.0 918.4825949366952 0.9684809445957451 372.0 24.0 261.0 
244.0000042429968 7700.0 2253.0 916.6787974683458 0.977851778578858 373.0 22.0 262.0 
246.0000042429968 7697.0 2253.0 914.8607594936763 0.9893464809653768 371.0 22.0 261.0 
248.0000042429968 7680.0 2252.0 914.8259493670946 0.9566540083160979 371.0 22.0 261.0 
250.0000042429968 7673.0 2250.0 914.833860759485 0.9412929588042712 371.0 22.0 261.0 
252.0000042429968 7684.0 2251.0 914.8243670886035 0.8473904445825515 368.0 22.0 261.0 
254.0000042429968 7692.0 2252.0 914.8575949366955 0.8822193637439142 369.0 22.0 261.0 
256.0000042429968 7705.0 2253.0 914.8180379746748 0.9451631285113742 370.0 22.0 261.0 
258.0000042429968 7730.0 2253.0 914.8132911392323 0.9272277637693812 371.0 22.0 261.0 
260.0000042429968 7744.0 2254.0 916.6471518987454 0.869119786352886 371.0 22.0 262.0 
262.0000042429968 7748.0 2253.0 918.4683544303713 0.883419344599473 373.0 21.0 264.0 
264.0000042429968 7762.0 2255.0 918.4493670886035 1.008076025710174 377.0 21.0 264.0 
266.0000042429968 7758.0 2257.0 920.2689873417647 0.961019455109633 377.0 21.0 265.0 
268.0000042429968 7743.0 2256.0 927.5569620253245 0.9278872672004588 381.0 19.0 271.0 
270.0000042429968 7736.0 2255.0 927.5727848101164 0.9711345724640851 380.0 20.0 270.0 
272.0000042429968 7754.0 2257.0 927.563291139233 0.9759794186172257 381.0 20.0 270.0 
274.0000042429968 7714.0 2254.0 929.3734177215132 1.0015181366421582 381.0 20.0 271.0 
276.0000042429968 7709.0 2254.0 929.3591772151855 0.9458308479543827 380.0 20.0 271.0 
278.0000042429968 7713.0 2255.0 929.3686708860721 0.9558049641074683 381.0 20.0 271.0 
280.0000042429968 7697.0 2254.0 931.1629746835345 1.050060884521361 388.0 15.0 277.0 
282.0000042429968 7692.0 2253.0 927.5205696202571 1.0303751476300713 389.0 14.0 276.0 
284.0000042429968 7700.0 2253.0 927.5047468354404 0.9739706456545645 387.0 14.0 276.0 
286.0000042429968 7698.0 2253.0 931.1946202531611 0.9914574179523655 386.0 14.0 278.0 
288.0000042429968 7712.0 2256.0 922.0664556962085 1.0502162108077777 381.0 14.0 273.0 
290.0000042429968 7716.0 2259.0 920.2547468354404 1.0193771931778097 379.0 14.0 272.0 
292.0000042429968 7716.0 2259.0 916.618670886071 0.9114719014226268 378.0 14.0 270.0 
294.0000042429968 7715.0 2259.0 918.4462025316541 0.9854062617721383 379.0 14.0 271.0 
296.0000042429968 7712.0 2260.0 916.6155063291186 1.0005206479670639 379.0 14.0 270.0 
298.0000042429968 7656.0 2257.0 913.0110759493746 0.9253618884537407 379.0 14.0 268.0 
300.0000042429968 7643.0 2256.0 912.9778481012544 0.9475962466000981 378.0 14.0 268.0 
302.0000042429968 7649.0 2256.0 911.1977848101152 0.9444753449595699 377.0 14.0 267.0 
304.0000042429968 7653.0 2258.0 909.3734177215115 0.9848826532419956 375.0 14.0 266.0 
306.0000042429968 7664.0 2260.0 913.0221518987458 0.9564913371159528 380.0 14.0 268.0 
308.0000042429968 7665.0 2260.0 916.6281645569525 0.9365297107900353 383.0 14.0 270.0 
310.0000042429968 7648.0 2258.0 916.6518987341863 0.9977845831537161 383.0 14.0 270.0 
312.0000042429968 7654.0 2258.0 916.6392405063236 0.9852691638217029 383.0 14.0 270.0 
314.0000042429968 7641.0 2259.0 918.4699367088609 0.9952423896560864 382.0 14.0 271.0 
316.0000042429968 7659.0 2261.0 920.2658227848153 0.9835202111521931 387.0 14.0 272.0 
318.0000042429968 7675.0 2261.0 920.2911392405153 0.9810797731138197 388.0 14.0 272.0 
320.0000042429968 7691.0 2265.0 920.3022151898844 1.012556426677972 387.0 14.0 272.0 
322.0000042429968 7675.0 2265.0 918.4905063291186 0.9846257560592165 386.0 14.0 271.0 
324.0000042429968 7663.0 2264.0 918.4651898734187 1.0332109662597615 386.0 14.0 271.0 
326.0000042429968 7664.0 2265.0 920.3085443037915 0.9905693501786865 386.0 14.0 272.0 
328.0000042429968 7675.0 2267.0 922.1439873417645 0.9939033605905665 387.0 14.0 273.0 
330.0000042429968 7658.0 2265.0 922.155063291139 1.0148798285792242 387.0 14.0 273.0 
332.0000042429968 7652.0 2263.0 920.2705696202576 0.9710209168215843 388.0 14.0 272.0 
334.0000042429968 7648.0 2261.0 923.9493670886033 0.9953362449601391 388.0 14.0 274.0 
336.0000042429968 7657.0 2262.0 920.319620253161 0.9927971969975565 386.0 14.0 272.0 
338.0000042429968 7675.0 2263.0 916.6598101265811 0.9818849614213089 383.0 14.0 270.0 
340.0000042429968 7683.0 2263.0 916.6787974683456 0.9764645332419266 382.0 14.0 270.0 
342.0000042429968 7695.0 2261.0 920.3401898734187 0.9264033960935644 381.0 14.0 272.0 
344.0000042429968 7702.0 2260.0 916.6503164556988 0.9555332472560161 384.0 14.0 270.0 
346.0000042429968 7712.0 2260.0 916.707278481025 0.9453261895472561 388.0 14.0 270.0 
348.0000042429968 7710.0 2259.0 911.2325949366952 0.9779336635398946 388.0 14.0 267.0 
350.0000042429968 7703.0 2261.0 914.849683544301 0.9473546713420925 388.0 14.0 269.0 
352.0000042429968 7719.0 2262.0 918.4636075949304 0.9212681773240055 389.0 14.0 271.0 
354.0000042429968 7718.0 2261.0 920.2911392405152 0.9726266169628364 389.0 14.0 272.0 
356.0000042429968 7729.0 2264.0 920.2294303797424 0.9664131838691842 390.0 14.0 272.0 
358.0000042429968 7733.0 2263.0 920.3465189873493 0.9829078891512333 386.0 15.0 271.0 
360.0000042429968 7717.0 2261.0 923.9841772151849 1.0025692422819836 385.0 14.0 274.0 
362.0000042429968 7707.0 2261.0 923.8417721519083 0.917272496957894 385.0 14.0 274.0 
364.0000042429968 7712.0 2262.0 923.9003164556983 0.9887801082398431 386.0 14.0 274.0 
366.0000042429968 7724.0 2265.0 925.7610759493741 0.9974714822277931 388.0 14.0 275.0 
368.0000042429968 7726.0 2264.0 927.4810126582354 0.9651434876567506 389.0 14.0 276.0 
370.0000042429968 7730.0 2264.0 929.3655063291186 0.9920804638873626 389.0 14.0 277.0 
372.0000042429968 7736.0 2267.0 925.6962025316537 0.9956674752908342 389.0 14.0 275.0 
374.0000042429968 7735.0 2267.0 920.2547468354404 1.0017384681448405 388.0 14.0 272.0 
376.0000042429968 7739.0 2267.0 920.2056962025355 1.0114959140347877 390.0 14.0 272.0 
378.0000042429968 7730.0 2266.0 920.2072784810248 1.0210444510555379 389.0 14.0 272.0 
380.0000042429968 7722.0 2266.0 922.056962025325 1.0283653970010724 387.0 15.0 272.0 
382.0000042429968 7746.0 2268.0 922.0348101265814 1.0195295477604969 390.0 15.0 272.0 
384.0000042429968 7743.0 2267.0 922.0490506329056 1.052337824919177 390.0 16.0 271.0 
386.0000042429968 7722.0 2267.0 918.4240506329054 0.9952262655582853 388.0 15.0 270.0 
388.0000042429968 7719.0 2268.0 920.2088607594849 1.0522579541586239 391.0 15.0 271.0 
390.0000042429968 7746.0 2269.0 916.6281645569525 1.0676774373622642 391.0 15.0 269.0 
392.0000042429968 7828.0 2269.0 920.2310126582353 0.9782919319342951 394.0 15.0 271.0 
394.0000042429968 7812.0 2265.0 920.2246835443013 1.0115243939729284 395.0 15.0 271.0 
396.0000042429968 7834.0 2265.0 923.8686708860718 1.0271452794681721 397.0 15.0 273.0 
398.0000042429968 7882.0 2268.0 922.0822784810241 1.0277600691187883 396.0 15.0 272.0 
400.0000042429968 7961.0 2270.0 927.5474683544426 1.005966158846162 399.0 14.0 276.0 
402.0000042429968 7967.0 2270.0 929.3196202531611 0.9618439385548235 398.0 14.0 277.0 
404.0000042429968 7971.0 2271.0 925.6930379746757 0.9937873341332176 398.0 15.0 274.0 
406.0000042429968 7994.0 2273.0 923.916139240515 1.0032216080927672 401.0 15.0 273.0 
408.0000042429968 8016.0 2275.0 923.9034810126511 1.066163400838781 400.0 15.0 273.0 
410.0000042429968 8038.0 2276.0 922.069620253161 0.9904412610464453 401.0 14.0 273.0 
412.0000042429968 8005.0 2275.0 923.8655063291186 0.9608959673054964 400.0 14.0 274.0 
414.0000042429968 7981.0 2272.0 923.9098101265814 1.0808318075543681 399.0 14.0 274.0 
416.0000042429968 8000.0 2274.0 922.1123417721636 1.0499423542877058 399.0 14.0 273.0 
418.0000042429968 7999.0 2273.0 923.9240506329057 1.038200093611592 397.0 14.0 274.0 
420.0000042429968 7968.0 2269.0 922.1408227848151 1.008164599462915 393.0 14.0 273.0 
422.0000042429968 7965.0 2270.0 922.0870253164658 0.991350125379499 393.0 14.0 273.0 
424.0000042429968 7949.0 2267.0 922.1170886076046 1.0689724702176286 393.0 14.0 273.0 
426.0000042429968 7936.0 2266.0 922.1598101265813 0.9828460165900965 389.0 14.0 273.0 
428.0000042429968 7956.0 2264.0 918.5063291139284 0.8966380695079459 389.0 14.0 271.0 
430.0000042429968 7978.0 2264.0 916.6693037974642 0.9469144934898808 389.0 14.0 270.0 
432.0000042429968 7993.0 2268.0 925.7927215189757 0.9601949551509785 389.0 14.0 275.0 
434.0000042429968 8001.0 2269.0 927.628164556954 1.0106456677574591 391.0 14.0 276.0 
436.0000042429968 8011.0 2269.0 929.4398734177202 0.9945094486148179 390.0 14.0 277.0 
438.0000042429968 8020.0 2270.0 929.4098101265819 1.0049258820322442 389.0 14.0 277.0 
440.0000042429968 8035.0 2272.0 931.2594936708814 1.005909600439189 390.0 14.0 278.0 
442.0000042429968 8039.0 2274.0 929.3971518987443 1.0120159476910564 390.0 14.0 277.0 
444.0000042429968 8032.0 2274.0 925.7784810126519 1.096783529754601 390.0 14.0 275.0 
446.0000042429968 8028.0 2273.0 927.5933544303728 1.071042417088947 388.0 15.0 275.0 
448.0000042429968 7991.0 2273.0 927.5648734177202 1.0740923067163801 387.0 17.0 273.0 
450.0000042429968 7959.0 2273.0 931.2231012658154 1.0788588746618424 389.0 15.0 277.0 
452.0000042429968 7967.0 2276.0 936.6645569620233 1.0207205667746915 392.0 15.0 280.0 
454.0000042429968 7971.0 2276.0 936.6677215189762 1.1557974442820043 392.0 15.0 280.0 
456.0000042429968 7978.0 2277.0 934.8670886076028 1.1470476996350394 392.0 15.0 279.0 
458.0000042429968 7967.0 2275.0 934.8765822784858 1.057964286821948 395.0 15.0 279.0 
460.0000042429968 7958.0 2274.0 934.7911392405148 1.0999006784035021 395.0 15.0 279.0 
462.0000042429968 7954.0 2270.0 934.8575949366964 1.0421112515492958 397.0 14.0 280.0 
464.0000042429968 7931.0 2269.0 933.0284810126512 1.1163326739546588 396.0 14.0 279.0 
466.0000042429968 7969.0 2273.0 934.8844936708815 1.0346708303341783 398.0 14.0 280.0 
468.0000042429968 7930.0 2273.0 934.8037974683474 1.0355740451753637 399.0 14.0 280.0 
470.0000042429968 7892.0 2273.0 932.9683544303714 1.046638817948505 399.0 14.0 279.0 
472.0000042429968 7896.0 2274.0 932.9936708860723 1.0668104587524283 398.0 14.0 279.0 
474.0000042429968 7893.0 2273.0 931.1914556962073 1.096118566665396 396.0 15.0 277.0 
476.0000042429968 7889.0 2272.0 934.8196202531612 1.0282500784319333 398.0 14.0 280.0 
478.0000042429968 7896.0 2276.0 936.6693037974659 1.0948596490720117 400.0 14.0 281.0 
480.0000042429968 7842.0 2277.0 936.6582278480927 1.167250705547846 399.0 14.0 281.0 
482.0000042429968 7826.0 2279.0 934.786392405069 1.0951212638849601 399.0 14.0 280.0 
484.0000042429968 7797.0 2273.0 932.9762658227899 1.0725082610039236 398.0 14.0 279.0 
486.0000042429968 7796.0 2273.0 931.197784810117 1.089931066279162 397.0 14.0 278.0 
488.0000042429968 7765.0 2269.0 929.3512658227901 1.0698460613000185 397.0 14.0 277.0 
490.0000042429968 7759.0 2268.0 925.7405063291185 1.0331536239797188 396.0 14.0 275.0 
492.0000042429968 7757.0 2270.0 922.0775316455565 0.994731301557479 396.0 14.0 273.0 
494.0000042429968 7766.0 2270.0 925.7310126582352 1.0686257788498421 396.0 14.0 275.0 
496.0000042429968 7766.0 2272.0 925.7120253164657 1.0804633786701572 393.0 14.0 275.0 
498.0000042429968 7744.0 2273.0 925.6977848101164 1.0633801140512513 392.0 15.0 274.0 
500.0000042429968 7707.0 2267.0 922.0696202531611 0.9965384566702981 392.0 15.0 272.0 
502.0000042429968 7684.0 2265.0 923.9145569620223 0.9537826531053056 392.0 15.0 273.0 
504.0000042429968 7655.0 2264.0 923.9003164556984 1.038951229526519 394.0 15.0 273.0 
506.0000042429968 7653.0 2267.0 923.9256329113964 0.9270496227865994 391.0 15.0 273.0 
508.0000042429968 7660.0 2268.0 922.109177215185 0.949721933496517 390.0 15.0 272.0 
510.0000042429968 7665.0 2269.0 920.2816455696284 1.0216347154892464 389.0 15.0 271.0 
512.0000042429967 7661.0 2270.0 920.2610759493742 1.0214633820460364 389.0 16.0 270.0 
514.0000042429967 7659.0 2270.0 916.6518987341856 1.0435625996471136 385.0 18.0 266.0 
516.0000042429967 7670.0 2272.0 916.6566455696282 1.0373764901036182 386.0 17.0 267.0 
518.0000042429967 7623.0 2267.0 909.4177215189753 1.0052586768837872 384.0 17.0 263.0 
520.0000042429967 7602.0 2265.0 907.5332278480919 0.9798794542364748 385.0 16.0 263.0 
522.0000042429967 7629.0 2267.0 907.5395569620213 0.9541828163125625 381.0 16.0 263.0 
524.0000042429967 7620.0 2265.0 905.7136075949304 0.9412509763596234 379.0 17.0 261.0 
526.0000042429967 7626.0 2266.0 903.9287974683452 0.9358187670078794 377.0 17.0 260.0 
528.0000042429967 7603.0 2263.0 900.2705696202584 0.9767251825358102 373.0 18.0 257.0 
530.0000042429967 7600.0 2265.0 898.4351265822798 0.9684921861941815 371.0 17.0 257.0 
532.0000042429967 7595.0 2264.0 900.2325949366954 0.9477385288348168 372.0 17.0 258.0 
534.0000042429967 7584.0 2261.0 900.2753164556995 1.0150941463753842 373.0 16.0 259.0 
536.0000042429967 7565.0 2262.0 898.4462025316548 0.9817059068093582 372.0 18.0 256.0 
538.0000042429967 7575.0 2266.0 900.2753164556995 0.9668285770045986 374.0 18.0 257.0 
540.0000042429967 7557.0 2267.0 896.6012658227903 1.0115634342909265 372.0 18.0 255.0 
542.0000042429967 7568.0 2268.0 900.2800632911399 0.98437157303398 377.0 16.0 259.0 
544.0000042429967 7574.0 2268.0 898.4208860759559 1.03883966123009 378.0 16.0 258.0 
546.0000042429967 7569.0 2269.0 900.2484177215111 0.9993488524397012 377.0 16.0 259.0 
548.0000042429967 7555.0 2266.0 900.2136075949302 0.9539516876428594 376.0 16.0 259.0 
550.0000042429967 7547.0 2266.0 894.7579113923942 0.9786499155819941 376.0 15.0 257.0 
552.0000042429967 7538.0 2268.0 896.5743670886035 0.9765496781302917 374.0 15.0 258.0 
554.0000042429967 7559.0 2270.0 903.8860759493753 0.9966555283566749 375.0 15.0 262.0 
556.0000042429967 7554.0 2269.0 905.6756329113966 0.977179689772353 375.0 15.0 263.0 
558.0000042429967 7492.0 2267.0 907.5284810126506 0.9783981127737795 380.0 14.0 265.0 
560.0000042429967 7504.0 2270.0 905.6487341772097 1.0299558210190791 378.0 14.0 264.0 
562.0000042429967 7518.0 2274.0 903.8718354430483 0.9842081067900225 378.0 14.0 263.0 
564.0000042429967 7515.0 2274.0 903.928797468345 1.067538135206135 378.0 14.0 263.0 
566.0000042429967 7533.0 2277.0 911.2136075949302 1.060935221475576 379.0 14.0 267.0 
568.0000042429967 7542.0 2279.0 911.142405063305 1.0891827507803695 380.0 14.0 267.0 
570.0000042429967 7551.0 2279.0 912.9430379746739 1.097737406663954 378.0 14.0 268.0 
572.0000042429967 7558.0 2280.0 911.1329113923941 1.0516068245709544 378.0 14.0 267.0 
574.0000042429967 7549.0 2282.0 912.9984177215114 1.0759770048093635 376.0 14.0 268.0 
576.0000042429967 7536.0 2282.0 916.6234177215116 1.076609525841869 379.0 14.0 270.0 
578.0000042429967 7525.0 2279.0 918.4446202531609 1.0194753428635814 378.0 14.0 271.0 
580.0000042429967 7527.0 2277.0 918.4462025316543 1.034086029577193 378.0 14.0 271.0 
582.0000042429967 7523.0 2275.0 922.1234177215118 1.0136998522505996 382.0 13.0 274.0 
584.0000042429967 7514.0 2274.0 922.0886075949301 1.1020927578320718 383.0 13.0 274.0 
586.0000042429967 7507.0 2276.0 922.0996835443015 1.0585617777623646 382.0 13.0 274.0 
588.0000042429967 7501.0 2275.0 920.280063291139 1.0545773632374187 381.0 13.0 273.0 
590.0000042429967 7501.0 2277.0 918.4873417721644 1.0965479437529198 383.0 13.0 272.0 
592.0000042429967 7494.0 2275.0 918.4731012658137 1.0701074271578985 383.0 13.0 272.0 
594.0000042429967 7487.0 2274.0 918.4778481012542 1.065317406481877 383.0 13.0 272.0 
596.0000042429967 7470.0 2274.0 918.4762658227903 0.9907968088239232 388.0 13.0 272.0 
598.0000042429967 7487.0 2275.0 914.829113924044 1.0321823244617991 387.0 13.0 270.0 
600.0000042429967 7487.0 2276.0 916.5981012658137 1.0220131221695308 387.0 13.0 271.0 
602.0000042429967 7453.0 2276.0 914.7848101265809 0.963987734951584 387.0 13.0 270.0 
604.0000042429967 7454.0 2277.0 916.6186708860708 1.0138938708174625 388.0 13.0 271.0 
606.0000042429967 7463.0 2278.0 918.4604430379783 1.015880454637344 388.0 13.0 272.0 
608.0000042429967 7455.0 2281.0 920.2325949366949 1.049978493422236 387.0 13.0 273.0 
610.0000042429967 7484.0 2282.0 923.8449367088613 1.04393612529901 392.0 13.0 275.0 
612.0000042429967 7489.0 2284.0 929.3465189873497 1.0292786898274375 394.0 13.0 278.0 
614.0000042429967 7486.0 2282.0 931.2104430379773 1.084895401990519 395.0 13.0 279.0 
616.0000042429967 7457.0 2280.0 929.3892405063236 1.0516560063557692 391.0 14.0 277.0 
618.0000042429967 7471.0 2281.0 929.3670886076046 1.0680282236070928 394.0 13.0 278.0 
620.0000042429967 7504.0 2286.0 931.1756329113965 1.0580919890808556 392.0 13.0 279.0 
622.0000042429967 7544.0 2286.0 933.0047468354404 1.0005892805141579 394.0 13.0 280.0 
624.0000042429967 7567.0 2287.0 931.2215189873498 1.1143780335680975 397.0 13.0 279.0 
626.0000042429967 7551.0 2285.0 933.0316455696292 1.041618816906532 397.0 13.0 280.0 
628.0000042429967 7535.0 2283.0 931.1503164556979 1.0074534357332394 396.0 14.0 278.0 
630.0000042429967 7540.0 2281.0 927.5553797468391 1.0624206941725554 391.0 14.0 276.0 
632.0000042429967 7557.0 2281.0 927.5870253164663 1.0545856385347365 392.0 13.0 277.0 
634.0000042429967 7569.0 2282.0 931.2389240506266 1.0669055086449237 392.0 14.0 278.0 
636.0000042429967 7597.0 2286.0 931.2325949366947 1.0830451990136147 390.0 17.0 275.0 
638.0000042429967 7616.0 2284.0 934.8370253164665 1.0961836014580235 391.0 17.0 277.0 
640.0000042429967 7631.0 2287.0 936.6503164556972 1.1463826437196525 387.0 18.0 277.0 
642.0000042429967 7624.0 2282.0 936.6867088607668 1.1041026010651893 386.0 21.0 274.0 
644.0000042429967 7603.0 2278.0 934.8607594936764 1.1128840803036453 385.0 21.0 273.0 
646.0000042429967 7603.0 2277.0 923.9825949366948 1.088427480118655 382.0 22.0 266.0 
648.0000042429967 7594.0 2275.0 923.9446202531611 1.1412094364238612 378.0 23.0 265.0 
650.0000042429967 7588.0 2274.0 920.3180379746746 1.1393832563000206 373.0 24.0 262.0 
652.0000042429967 7580.0 2275.0 922.0996835443016 1.0435021944518785 374.0 25.0 262.0 
654.0000042429967 7547.0 2271.0 923.9572784810254 1.1343108388402217 376.0 23.0 265.0 
656.0000042429967 7555.0 2271.0 929.4145569620231 1.141067846401647 376.0 24.0 267.0 
658.0000042429967 7553.0 2269.0 929.3829113923955 1.1172902353221656 380.0 23.0 268.0 
660.0000042429967 7526.0 2267.0 929.3876582278365 1.0638174392370372 383.0 19.0 272.0 
662.0000042429967 7516.0 2268.0 929.4145569620231 1.0082912040010976 381.0 18.0 273.0 
664.0000042429967 7514.0 2269.0 927.6123417721636 1.047587399572701 382.0 16.0 274.0 
#####################################################################
# End of data export. Simulation finished at: 2019-03-10T20:14+0000 #
#####################################################################
