#####################################################################
# Alchemist log file - simulation started at: 2019-03-11T10:24+0000 #
#####################################################################
# seed = 4.0, bandwidth = 1333521.4321633242, accessPointCount = 274.2481756762073, baserange = 1000.0
#
# The columns have the following meaning: 
# time neighbor_count[Sum] <value>@neighbor_count[Sum] packet_size[Mean] mean_delay[Mean] crowd[Sum] overcrowded[Sum] risk[Sum] 
0.0 NaN NaN NaN NaN NaN NaN NaN 
2.0000042429967895 7954.0 3924.0 4984.799548277809 0.48639375123265355 1497.0 0.0 1497.0 
4.0000042429967895 13159.0 4195.0 4985.940146809712 0.5556421600887227 1497.0 0.0 1497.0 
6.0000042429967895 18613.0 4177.0 4987.211744776962 0.570584548855258 1497.0 0.0 1497.0 
8.00000424299679 22423.0 4195.0 4988.6459627329195 0.5947218351607328 1497.0 0.0 1497.0 
10.00000424299679 25563.0 4185.0 4990.301524562394 0.6194630584375029 1496.0 1.0 1496.0 
12.00000424299679 24803.0 4086.0 4991.0491247882555 0.5954224011892091 1496.0 1.0 1496.0 
14.00000424299679 23016.0 3984.0 4990.863918690005 0.4998629602141113 1495.0 2.0 1495.0 
16.000004242996788 23125.0 3984.0 4990.929418407679 0.5007304505860318 1494.0 3.0 1494.0 
18.000004242996788 23057.0 3984.0 4990.893280632411 0.49980637215662316 1495.0 2.0 1495.0 
20.000004242996788 23103.0 3986.0 4990.884246188594 0.5003650550050305 1494.0 3.0 1494.0 
22.000004242996788 23173.0 3987.0 4990.963297571993 0.5030563067938911 1495.0 2.0 1495.0 
24.000004242996788 23064.0 3984.0 4990.940711462451 0.5002508109119531 1494.0 3.0 1494.0 
26.000004242996788 23072.0 3986.0 4990.72840203275 0.5007215110855937 1494.0 3.0 1494.0 
28.000004242996788 23068.0 3985.0 4990.922642574817 0.503202673423433 1495.0 2.0 1495.0 
30.000004242996788 23056.0 3984.0 4990.9542631281765 0.5005222619635804 1494.0 3.0 1494.0 
32.00000424299679 23077.0 3985.0 4990.958780350084 0.5006297042583095 1495.0 2.0 1495.0 
34.00000424299679 23074.0 3985.0 4990.900056465274 0.5013913869937557 1494.0 3.0 1494.0 
36.00000424299679 23070.0 3984.0 4990.981366459628 0.5005133458599211 1494.0 3.0 1494.0 
38.00000424299679 23070.0 3984.0 4990.823263692829 0.5005118484124471 1495.0 2.0 1495.0 
40.00000424299679 23074.0 3985.0 4990.895539243365 0.5004069416916985 1494.0 3.0 1494.0 
42.00000424299679 23074.0 3985.0 4990.872953133823 0.5004088777206548 1495.0 2.0 1495.0 
44.00000424299679 23077.0 3985.0 4990.927159796725 0.5004638044052919 1494.0 3.0 1494.0 
46.00000424299679 23243.0 3988.0 4990.787125917561 0.5040897131479251 1494.0 3.0 1494.0 
48.00000424299679 23094.0 3986.0 4991.010728402032 0.5021476338540621 1495.0 2.0 1495.0 
50.00000424299679 23054.0 3985.0 4990.854884246189 0.5009920672793031 1494.0 3.0 1494.0 
52.00000424299679 23050.0 3985.0 4990.95652173913 0.4999960583003757 1495.0 2.0 1495.0 
54.00000424299679 23050.0 3985.0 4990.875211744777 0.49999642733925664 1494.0 3.0 1494.0 
56.00000424299679 23053.0 3986.0 4990.771315640881 0.5008651753151151 1494.0 3.0 1494.0 
58.00000424299679 23055.0 3986.0 4990.823263692829 0.5030178378889767 1495.0 2.0 1495.0 
60.00000424299679 23053.0 3987.0 4988.4291360813095 0.5047122226195998 1494.0 3.0 1494.0 
62.00000424299679 23074.0 3987.0 1284.3500846979084 0.4984128809916985 767.0 3.0 337.0 
64.0000042429968 23056.0 3985.0 1284.2416713721036 0.5010528018168934 596.0 6.0 334.0 
66.0000042429968 23086.0 3985.0 1286.710333145117 0.5007870007989984 558.0 6.0 335.0 
68.0000042429968 23086.0 3985.0 1286.7351778656152 0.5018092492294172 513.0 9.0 332.0 
70.0000042429968 23072.0 3984.0 1286.5815923207206 0.4996351136903193 490.0 13.0 328.0 
72.0000042429968 23106.0 3984.0 1291.8757763975111 0.5009814087517954 490.0 12.0 331.0 
74.0000042429968 23109.0 3986.0 1294.3783173348413 0.5024423491662986 485.0 13.0 331.0 
76.0000042429968 23042.0 3985.0 1294.4099378881967 0.5000121214565126 482.0 12.0 332.0 
78.0000042429968 23115.0 3987.0 1296.9011857707503 0.5029609754296794 479.0 13.0 332.0 
80.0000042429968 23012.0 3985.0 1299.6499153020916 0.5005041326922275 475.0 14.0 332.0 
82.0000042429968 23055.0 3988.0 1299.4330886504779 0.5035193402951389 478.0 12.0 334.0 
84.0000042429968 23018.0 3985.0 1299.6589497459063 0.4997632304416933 476.0 13.0 333.0 
86.0000042429968 23051.0 3987.0 1299.5189158667429 0.5006405026678775 474.0 13.0 333.0 
88.0000042429968 23052.0 3987.0 1299.6363636363658 0.5018349335417369 472.0 13.0 333.0 
90.0000042429968 23036.0 3986.0 1299.6182947487277 0.5006022518197029 471.0 12.0 334.0 
92.0000042429968 22998.0 3985.0 1299.5708639186887 0.5021819122667898 469.0 14.0 332.0 
94.0000042429968 22959.0 3984.0 1299.5866741953723 0.5021436698781042 471.0 12.0 334.0 
96.0000042429968 22954.0 3984.0 1299.6092603049094 0.5000234901101274 470.0 13.0 333.0 
98.0000042429968 22980.0 3985.0 1299.5595708639162 0.5018717951243111 471.0 13.0 333.0 
100.0000042429968 22968.0 3984.0 1302.2834556747587 0.5000503725238176 471.0 13.0 334.0 
102.0000042429968 22992.0 3986.0 1302.15019762846 0.5030039183671785 473.0 11.0 336.0 
104.0000042429968 22962.0 3985.0 1302.2156973461285 0.5001108958425232 470.0 14.0 333.0 
106.0000042429968 22964.0 3986.0 1299.588932806322 0.5016053618802502 471.0 13.0 333.0 
108.0000042429968 22958.0 3986.0 1299.575381140596 0.5016932272945034 471.0 13.0 333.0 
110.0000042429968 22958.0 3986.0 1299.6002258610943 0.500584282530509 468.0 16.0 330.0 
112.0000042429968 22958.0 3985.0 1299.559570863916 0.5003890346205112 466.0 18.0 328.0 
114.0000042429968 22987.0 3985.0 1299.4872953133786 0.5005723540299314 469.0 15.0 331.0 
116.0000042429968 23090.0 3988.0 1299.5482778091484 0.503109538595578 467.0 17.0 329.0 
118.0000042429968 23057.0 3988.0 1304.6211180124262 0.5035659973583008 470.0 15.0 333.0 
120.0000042429968 22932.0 3985.0 1310.0395256916972 0.5009365037754314 467.0 16.0 334.0 
122.0000042429968 22929.0 3984.0 1309.867871259178 0.5010352776685008 467.0 16.0 334.0 
124.0000042429968 22928.0 3984.0 1309.9559570863953 0.5001784680486271 467.0 16.0 334.0 
126.0000042429968 22950.0 3984.0 1309.9311123658972 0.5008223145485825 468.0 15.0 335.0 
128.0000042429968 22988.0 3985.0 1309.913043478259 0.5025984215676081 466.0 17.0 333.0 
130.0000042429968 22986.0 3985.0 1307.387916431397 0.5024188383557244 467.0 15.0 334.0 
132.0000042429968 22973.0 3985.0 1304.7543760587214 0.5031230729974352 464.0 16.0 332.0 
134.0000042429968 23008.0 3986.0 1302.1569734613206 0.50247080879107 466.0 16.0 331.0 
136.0000042429968 23041.0 3986.0 1302.170525127051 0.5021452036269707 466.0 15.0 332.0 
138.0000042429968 23042.0 3986.0 1304.7272727272732 0.5024242599164488 464.0 16.0 332.0 
140.0000042429968 23079.0 3985.0 1302.1389045736873 0.5021170628225889 461.0 18.0 329.0 
142.0000042429968 23142.0 3986.0 1307.2840203274995 0.5024724745083842 462.0 17.0 332.0 
144.0000042429968 23066.0 3984.0 1310.0079051383423 0.5004963949568094 464.0 17.0 333.0 
146.0000042429968 23066.0 3984.0 1309.9378881987534 0.500459768095929 463.0 18.0 332.0 
148.0000042429968 23168.0 3985.0 1312.564652738564 0.501125252008732 464.0 18.0 333.0 
150.0000042429968 23248.0 3985.0 1312.50818746471 0.5016509602521744 463.0 18.0 333.0 
152.0000042429968 23158.0 3985.0 1310.0169395821565 0.5025767796272382 460.0 21.0 329.0 
154.0000042429968 23140.0 3984.0 1304.7159796725007 0.500731018838496 462.0 16.0 332.0 
156.0000042429968 23242.0 3986.0 1307.4601919819343 0.5021377244265932 458.0 18.0 331.0 
158.0000042429968 23180.0 3984.0 1309.8588368153548 0.5018066007785372 460.0 18.0 332.0 
160.0000042429968 23176.0 3984.0 1310.0395256916972 0.5005578309857586 462.0 17.0 333.0 
162.0000042429968 23226.0 3987.0 1309.852060982498 0.504442916931326 461.0 17.0 333.0 
164.0000042429968 23192.0 3984.0 1310.0191981931143 0.500229903549713 458.0 19.0 331.0 
166.0000042429968 23195.0 3984.0 1309.9424054206645 0.5007811706258698 458.0 17.0 333.0 
168.0000042429968 23210.0 3987.0 1309.9424054206645 0.5042589890791574 460.0 16.0 334.0 
170.0000042429968 23262.0 3985.0 1310.0033879164343 0.5012757292351129 460.0 16.0 334.0 
172.0000042429968 23204.0 3986.0 1309.9130434782585 0.5013859483225904 460.0 16.0 334.0 
174.0000042429968 23194.0 3984.0 1304.720496894408 0.5008703225922292 459.0 15.0 333.0 
176.0000042429968 23192.0 3984.0 1307.367588932809 0.5004653610336728 459.0 16.0 333.0 
178.0000042429968 23192.0 3984.0 1304.6527385657814 0.5005140411831949 459.0 16.0 332.0 
180.0000042429968 23192.0 3984.0 1304.7724449463544 0.5004866671925162 456.0 19.0 329.0 
182.0000042429968 23207.0 3985.0 1299.575381140596 0.5017859718381982 455.0 18.0 328.0 
184.0000042429968 23197.0 3984.0 1299.582156973465 0.5019002311611936 455.0 18.0 328.0 
186.0000042429968 23191.0 3984.0 1302.1072840203235 0.5006821932233315 457.0 16.0 331.0 
188.0000042429968 23189.0 3985.0 1299.5369847543752 0.501660576329877 459.0 15.0 331.0 
190.0000042429968 23190.0 3986.0 1296.86278938453 0.5026679939505891 459.0 15.0 330.0 
192.0000042429968 23184.0 3984.0 1299.5934500282294 0.5006425192733833 458.0 15.0 331.0 
194.0000042429968 23182.0 3984.0 1302.0621118012464 0.5009796985259315 457.0 16.0 331.0 
196.0000042429968 23347.0 3987.0 1302.1411631846454 0.5026307916139315 459.0 15.0 332.0 
198.0000042429968 23184.0 3986.0 1302.0304912478787 0.501923034427308 458.0 15.0 332.0 
200.0000042429968 23170.0 3984.0 1302.1411631846454 0.5008981156262325 458.0 17.0 330.0 
202.0000042429968 23190.0 3984.0 1302.1230942970037 0.5000251720664062 458.0 16.0 331.0 
204.0000042429968 23245.0 3984.0 1304.7543760587214 0.5009250591210612 456.0 16.0 332.0 
206.0000042429968 23270.0 3984.0 1299.534726143426 0.5000042745273129 454.0 17.0 329.0 
208.0000042429968 23241.0 3986.0 1296.8785996612103 0.5011558482756472 455.0 16.0 329.0 
210.0000042429968 23203.0 3985.0 1296.8447204968966 0.500866663590744 455.0 16.0 329.0 
212.0000042429968 23196.0 3984.0 1296.9463579898402 0.49977436891711824 457.0 17.0 328.0 
214.0000042429968 23196.0 3984.0 1299.3811405985314 0.4997010885611773 458.0 16.0 330.0 
216.0000042429968 23196.0 3984.0 1296.9282891021983 0.49971678646302997 457.0 16.0 329.0 
218.0000042429968 23338.0 3986.0 1296.781479390178 0.5018332882986851 453.0 17.0 328.0 
220.0000042429968 23240.0 3985.0 1296.8898927159773 0.5032530595833334 455.0 16.0 329.0 
222.0000042429968 23218.0 3983.0 1294.238283455678 0.4997087874077679 454.0 16.0 328.0 
224.0000042429968 23218.0 3983.0 1294.3083003952536 0.4997242438195835 453.0 17.0 327.0 
226.0000042429968 23223.0 3983.0 1296.7588932806289 0.5002448772554138 454.0 15.0 330.0 
228.0000042429968 23224.0 3983.0 1302.0598531902847 0.5002956451905913 453.0 16.0 331.0 
230.0000042429968 23220.0 3983.0 1301.9920948616577 0.4995845046831321 454.0 17.0 330.0 
232.0000042429968 23220.0 3983.0 1302.1163184641466 0.4996367389659397 453.0 16.0 331.0 
234.0000042429968 23342.0 3985.0 1304.612083568603 0.502160866611699 455.0 15.0 333.0 
236.0000042429968 23282.0 3985.0 1299.5189158667429 0.5035329762311378 451.0 18.0 328.0 
238.0000042429968 23118.0 3984.0 1299.3382269904037 0.49975463939789855 452.0 17.0 329.0 
240.0000042429968 23158.0 3984.0 1296.8650479954797 0.5015875275444639 451.0 18.0 327.0 
242.0000042429968 23134.0 3984.0 1291.6250705815933 0.5035971780595592 450.0 19.0 324.0 
244.0000042429968 23028.0 3982.0 1291.7289666854908 0.49914316779193063 451.0 18.0 325.0 
246.0000042429968 23120.0 3982.0 1294.2495765104452 0.5000673398551104 452.0 18.0 326.0 
248.0000042429968 23162.0 3984.0 1294.3241106719374 0.5012579953896099 450.0 19.0 325.0 
250.0000042429968 23150.0 3982.0 1294.179559570866 0.4992357625880237 452.0 18.0 326.0 
252.0000042429968 23235.0 3985.0 1291.7425183512164 0.5032627245225381 453.0 17.0 326.0 
254.0000042429968 23105.0 3983.0 1289.0570299265942 0.5039148846557818 449.0 18.0 324.0 
256.0000042429968 23037.0 3984.0 1291.7651044607533 0.5020601952136617 451.0 18.0 325.0 
258.0000042429968 22938.0 3983.0 1291.6024844720528 0.5007354026316079 451.0 17.0 326.0 
260.0000042429968 22960.0 3984.0 1291.67476002259 0.5015108226143142 452.0 18.0 325.0 
262.0000042429968 22880.0 3986.0 1291.5911914172798 0.5050329501153416 454.0 17.0 326.0 
264.0000042429968 22748.0 3984.0 1291.7063805759449 0.5005378937229142 454.0 17.0 326.0 
266.0000042429968 22658.0 3983.0 1291.5911914172798 0.4988426691629623 451.0 18.0 325.0 
268.0000042429968 22658.0 3983.0 1291.6589497459063 0.4988593335798638 451.0 17.0 326.0 
270.0000042429968 22672.0 3984.0 1288.9960474308332 0.5005626819472486 451.0 17.0 325.0 
272.0000042429968 22655.0 3984.0 1286.446075663468 0.4996040013680313 449.0 18.0 323.0 
274.0000042429968 22691.0 3984.0 1283.7989836250695 0.5008935309345257 448.0 17.0 323.0 
276.0000042429968 22849.0 3987.0 1286.40316205534 0.5021722069342641 450.0 17.0 324.0 
278.0000042429968 22675.0 3983.0 1288.9079616036163 0.4999047990530911 448.0 18.0 324.0 
280.0000042429968 22670.0 3984.0 1289.0163749294156 0.49976511086908704 451.0 17.0 325.0 
282.0000042429968 22580.0 3983.0 1288.9079616036163 0.4984248524005225 453.0 17.0 325.0 
284.0000042429968 22585.0 3983.0 1286.3557312252922 0.4987749751058421 452.0 18.0 323.0 
286.0000042429968 22694.0 3987.0 1288.9057029926578 0.5029435706741986 452.0 17.0 325.0 
288.0000042429968 22678.0 3987.0 1288.9350649350636 0.5019861993398488 452.0 17.0 325.0 
290.0000042429968 22584.0 3985.0 1286.3195934500297 0.49967397402787334 447.0 18.0 323.0 
292.0000042429968 22570.0 3984.0 1286.3783173348415 0.49827261953997254 449.0 17.0 324.0 
294.0000042429968 22574.0 3985.0 1294.1614906832276 0.49849830339746276 449.0 17.0 327.0 
296.0000042429968 22627.0 3985.0 1302.0440429136047 0.49878434860829607 448.0 18.0 329.0 
298.0000042429968 22690.0 3986.0 1307.0175042348974 0.4999402245688125 449.0 17.0 332.0 
300.0000042429968 22638.0 3986.0 1307.2027103331473 0.4995143323700753 449.0 17.0 332.0 
302.0000042429968 22684.0 3986.0 1304.4743083003973 0.5029943385774487 448.0 18.0 330.0 
304.0000042429968 22490.0 3985.0 1304.5759457933405 0.5007228465739565 449.0 17.0 331.0 
306.0000042429968 22479.0 3986.0 1301.9559570863953 0.5001402624405706 451.0 17.0 330.0 
308.0000042429968 22388.0 3985.0 1301.9695087521213 0.498052329399324 449.0 18.0 329.0 
310.0000042429968 22396.0 3985.0 1301.8949745906257 0.4987175028220181 450.0 17.0 330.0 
312.0000042429968 22477.0 3986.0 1309.7255787690597 0.5001236511604187 450.0 17.0 333.0 
314.0000042429968 22396.0 3985.0 1309.6871823828358 0.49833853200724293 449.0 18.0 332.0 
316.0000042429968 22396.0 3985.0 1309.7300959909674 0.49839975885117266 450.0 17.0 333.0 
318.0000042429968 22396.0 3985.0 1309.709768492376 0.49839121591290875 449.0 17.0 333.0 
320.0000042429968 22440.0 3989.0 1309.7707509881454 0.5009674083642515 446.0 18.0 332.0 
322.0000042429968 22430.0 3986.0 1304.5194805194785 0.5028420259784268 447.0 17.0 331.0 
324.0000042429968 22507.0 3987.0 1302.0033879164346 0.5018660943210681 447.0 17.0 330.0 
326.0000042429968 22459.0 3987.0 1301.852060982498 0.49974270841781393 447.0 18.0 329.0 
328.0000042429968 22462.0 3987.0 1301.8565782044057 0.5012688480909234 447.0 17.0 330.0 
330.0000042429968 22454.0 3988.0 1296.7024280067787 0.501606315365451 445.0 17.0 328.0 
332.0000042429968 22472.0 3987.0 1296.7611518915903 0.5000284959612352 441.0 18.0 327.0 
334.0000042429968 22499.0 3988.0 1301.9514398644794 0.5000210003572172 445.0 17.0 330.0 
336.0000042429968 22510.0 3989.0 1294.2044042913647 0.5019190192953383 444.0 17.0 327.0 
338.0000042429968 22335.0 3987.0 1294.0688876341026 0.5007005839588399 443.0 18.0 326.0 
340.0000042429968 22310.0 3986.0 1296.767927724447 0.4994725744035526 445.0 17.0 328.0 
342.0000042429968 22300.0 3986.0 1299.2749858836844 0.4985645673323377 446.0 17.0 329.0 
344.0000042429968 22300.0 3986.0 1302.010163749291 0.49852688430207415 452.0 18.0 329.0 
346.0000042429968 22358.0 3989.0 1304.5601355166566 0.5003148822475166 453.0 17.0 331.0 
348.0000042429968 22371.0 3990.0 1301.9649915302107 0.5021023605103564 452.0 17.0 330.0 
350.0000042429968 22275.0 3989.0 1299.2885375494063 0.5009252973670328 451.0 18.0 328.0 
352.0000042429968 22220.0 3987.0 1299.2749858836844 0.49816094746594825 454.0 17.0 329.0 
354.0000042429968 22220.0 3987.0 1299.2456239412788 0.49814406905482467 454.0 17.0 329.0 
356.0000042429968 22220.0 3987.0 1299.3066064370394 0.4981596058835904 451.0 18.0 328.0 
358.0000042429968 22285.0 3989.0 1299.2230378317295 0.49991515592847346 450.0 17.0 329.0 
360.0000042429968 22241.0 3988.0 1299.3359683794454 0.500822514933784 452.0 17.0 329.0 
362.0000042429968 22195.0 3990.0 1299.279503105592 0.5037623783717369 453.0 18.0 328.0 
364.0000042429968 22134.0 3989.0 1299.3721061547171 0.5005992566720897 453.0 17.0 329.0 
366.0000042429968 22186.0 3989.0 1283.7063805759446 0.5004378829319936 453.0 17.0 323.0 
368.0000042429968 22201.0 3990.0 1281.122529644272 0.5035018242710876 452.0 18.0 321.0 
370.0000042429968 22046.0 3988.0 1278.52060982496 0.4994613040232481 454.0 17.0 321.0 
372.0000042429968 22042.0 3988.0 1281.111236589499 0.5007712385021018 454.0 17.0 322.0 
374.0000042429968 22017.0 3987.0 1278.4844720496883 0.4984408979320701 452.0 18.0 320.0 
376.0000042429968 22109.0 3990.0 1278.5047995482796 0.5013303201502772 452.0 17.0 321.0 
378.0000042429968 22009.0 3988.0 1278.4822134387396 0.4999526398656712 453.0 17.0 321.0 
380.0000042429968 22055.0 3989.0 1278.556747600222 0.501325765996638 452.0 19.0 319.0 
382.0000042429968 21992.0 3989.0 1278.4867306606468 0.5002634669554462 453.0 18.0 320.0 
384.0000042429968 21964.0 3988.0 1281.1654432524033 0.499732465457746 455.0 18.0 321.0 
386.0000042429968 22106.0 3990.0 1283.7470355731239 0.504045969502348 453.0 19.0 321.0 
388.0000042429968 21958.0 3989.0 1283.7673630717152 0.5001471380314475 455.0 18.0 322.0 
390.0000042429968 21969.0 3990.0 1281.1767363071667 0.4988511004930634 456.0 17.0 322.0 
392.0000042429968 21961.0 3990.0 1283.8147939017501 0.5031323645806259 455.0 18.0 322.0 
394.0000042429968 21865.0 3988.0 1283.769621682664 0.4989231302630074 457.0 17.0 323.0 
396.0000042429968 21848.0 3989.0 1286.4009034443782 0.5002396003786639 458.0 17.0 324.0 
398.0000042429968 21824.0 3988.0 1281.122529644272 0.49857794749252415 458.0 18.0 321.0 
400.0000042429968 21851.0 3989.0 1276.0090344438145 0.500265305669913 457.0 16.0 321.0 
402.0000042429968 21864.0 3993.0 1281.260304912477 0.5048534726863003 458.0 17.0 322.0 
404.0000042429968 21803.0 3989.0 1276.0383963862205 0.49958487912711885 451.0 23.0 314.0 
406.0000042429968 21904.0 3990.0 1278.5883681535865 0.5010715820633432 457.0 18.0 320.0 
408.0000042429968 21873.0 3990.0 1278.5409373235418 0.5002220696721538 452.0 24.0 314.0 
410.0000042429968 21870.0 3989.0 1281.185770750991 0.4996919920784255 453.0 24.0 315.0 
412.0000042429968 21912.0 3991.0 1289.0389610389652 0.5031027312022668 452.0 23.0 319.0 
414.0000042429968 21832.0 3990.0 1291.6273291925431 0.5007159289515525 460.0 16.0 327.0 
416.0000042429968 21832.0 3989.0 1286.4144551101035 0.5002271277942298 461.0 17.0 324.0 
418.0000042429968 21881.0 3989.0 1286.2405420666266 0.5005575715103805 461.0 16.0 325.0 
420.0000042429968 21889.0 3992.0 1278.6199887069408 0.5050327374558672 460.0 16.0 322.0 
422.0000042429968 21915.0 3991.0 1281.1451157538122 0.5043183441277793 459.0 17.0 322.0 
424.0000042429968 21842.0 3988.0 1281.1518915866777 0.5008978302360472 463.0 16.0 323.0 
426.0000042429968 21908.0 3991.0 1278.5206098249603 0.5016258441424566 463.0 16.0 322.0 
428.0000042429968 21909.0 3990.0 1283.6499153020918 0.5005602554356042 461.0 17.0 323.0 
430.0000042429968 22084.0 3991.0 1283.6725014116282 0.5028534972143135 467.0 16.0 324.0 
432.0000042429968 22003.0 3991.0 1288.9802371541534 0.5033596498552096 468.0 16.0 326.0 
434.0000042429968 21945.0 3988.0 1294.1276115189141 0.500439200798797 467.0 18.0 326.0 
436.0000042429968 22029.0 3990.0 1296.799548277811 0.5063470647954307 468.0 16.0 329.0 
438.0000042429968 21994.0 3988.0 1299.3020892151285 0.5008326397692264 467.0 17.0 329.0 
440.0000042429968 22040.0 3989.0 1299.354037267084 0.5015697698583357 469.0 18.0 328.0 
442.0000042429968 22015.0 3987.0 1301.8814229249037 0.5022515807516907 473.0 16.0 331.0 
444.0000042429968 21970.0 3990.0 1299.3359683794451 0.5018114488426362 472.0 17.0 329.0 
446.0000042429968 21950.0 3990.0 1294.1230942970035 0.5008099251583941 471.0 18.0 326.0 
448.0000042429968 21944.0 3990.0 1309.7639751552806 0.5005767379798075 469.0 19.0 331.0 
450.0000042429968 21976.0 3992.0 1314.9858836815336 0.5029654590697478 470.0 19.0 333.0 
452.0000042429968 22055.0 3994.0 1317.5674760022578 0.5073336510693102 468.0 20.0 333.0 
454.0000042429968 21857.0 3991.0 1317.470355731222 0.5030429391965043 469.0 19.0 334.0 
456.0000042429968 21834.0 3989.0 1317.5787690570307 0.49985128674903107 466.0 19.0 334.0 
458.0000042429968 21824.0 3992.0 1317.4929418407714 0.5040906522149733 464.0 20.0 333.0 
460.0000042429968 21734.0 3991.0 1314.990400903441 0.5008279196233886 465.0 19.0 333.0 
462.0000042429968 21761.0 3992.0 1309.7459062676476 0.5023026572311383 462.0 19.0 331.0 
464.0000042429968 21727.0 3992.0 1309.7955957086353 0.4996087963740244 460.0 20.0 330.0 
466.0000042429968 21745.0 3992.0 1307.11462450593 0.5010291397973635 462.0 19.0 330.0 
468.0000042429968 21731.0 3992.0 1307.180124223601 0.5012484101107608 461.0 19.0 330.0 
470.0000042429968 21726.0 3990.0 1307.11462450593 0.4987691761369207 461.0 20.0 329.0 
472.0000042429968 21736.0 3991.0 1304.5059288537523 0.5012633958676237 462.0 19.0 329.0 
474.0000042429968 21671.0 3992.0 1296.7114624505937 0.5009040647457071 459.0 19.0 326.0 
476.0000042429968 21660.0 3991.0 1288.9621682665206 0.5000838178147325 456.0 20.0 322.0 
478.0000042429968 21726.0 3992.0 1288.856013551664 0.5009498165591304 458.0 19.0 323.0 
480.0000042429968 21645.0 3990.0 1291.5979672501455 0.49921062716007375 457.0 19.0 324.0 
482.0000042429968 21677.0 3991.0 1294.0937323546007 0.5017250281521373 456.0 20.0 324.0 
484.0000042429968 21600.0 3989.0 1294.1705251270514 0.5013028385513898 456.0 19.0 325.0 
486.0000042429968 21608.0 3989.0 1286.2699040090326 0.49958472436377427 454.0 19.0 322.0 
488.0000042429968 21587.0 3989.0 1281.163184641444 0.4993270958233321 453.0 20.0 319.0 
490.0000042429968 21598.0 3989.0 1268.1400338791623 0.5029251302890188 455.0 19.0 315.0 
492.0000042429968 21612.0 3991.0 1268.2100508187484 0.5016990436802164 449.0 21.0 313.0 
494.0000042429968 21710.0 3992.0 1270.699040090344 0.5042036974274438 446.0 22.0 313.0 
496.0000042429968 21651.0 3991.0 1270.7645398080217 0.5024744232164702 445.0 20.0 315.0 
498.0000042429968 21625.0 3991.0 1268.056465273853 0.501612378070988 445.0 20.0 314.0 
500.0000042429968 21626.0 3990.0 1265.5652173913059 0.5010108302226312 448.0 20.0 313.0 
502.0000042429968 21597.0 3990.0 1262.8842461885938 0.5018855199334953 451.0 19.0 313.0 
504.0000042429968 21606.0 3990.0 1262.9768492377189 0.5006447216182394 452.0 19.0 313.0 
506.0000042429968 21668.0 3992.0 1265.443252399778 0.5012138524177759 452.0 20.0 313.0 
508.0000042429968 21650.0 3993.0 1260.3500846979082 0.502910536614929 451.0 19.0 312.0 
510.0000042429968 21608.0 3993.0 1262.9836250705841 0.5036380269624711 448.0 21.0 311.0 
512.0000042429967 21580.0 3992.0 1262.9904009034408 0.5002250407689599 448.0 22.0 310.0 
514.0000042429967 21581.0 3992.0 1255.1710897797832 0.4998402645043969 447.0 21.0 308.0 
516.0000042429967 21671.0 3993.0 1255.229813664595 0.503029383749702 449.0 18.0 311.0 
518.0000042429967 21649.0 3992.0 1247.326933935627 0.5013471953446774 450.0 17.0 309.0 
520.0000042429967 21700.0 3993.0 1247.3856578204388 0.5010760788222561 453.0 16.0 310.0 
522.0000042429967 21686.0 3992.0 1249.8972332015837 0.5016890454998408 451.0 17.0 310.0 
524.0000042429967 21688.0 3993.0 1252.5578769056988 0.501560964530819 450.0 18.0 310.0 
526.0000042429967 21713.0 3994.0 1239.4872953133784 0.5028453236871373 448.0 18.0 305.0 
528.0000042429967 21775.0 3994.0 1234.3421795595689 0.5010354060611543 446.0 18.0 303.0 
530.0000042429967 21745.0 3994.0 1234.3195934500297 0.5018315344416392 444.0 19.0 302.0 
532.0000042429967 21772.0 3995.0 1242.2224731789977 0.5052335214632224 447.0 18.0 306.0 
534.0000042429967 21758.0 3993.0 1242.116318464148 0.5036700289057091 443.0 19.0 305.0 
536.0000042429967 21758.0 3990.0 1239.602484472054 0.5006544608496166 446.0 18.0 305.0 
538.0000042429967 21786.0 3991.0 1244.6369282891 0.5037482832249698 444.0 20.0 305.0 
540.0000042429967 21726.0 3990.0 1247.3924336533057 0.5009689683220678 446.0 21.0 305.0 
542.0000042429967 21721.0 3990.0 1249.8972332015853 0.4996154540828851 449.0 18.0 309.0 
544.0000042429967 21740.0 3991.0 1252.5804630152481 0.5012703436316001 456.0 15.0 313.0 
546.0000042429967 21769.0 3994.0 1249.847543760591 0.5022184676959405 455.0 16.0 311.0 
548.0000042429967 21720.0 3990.0 1244.7069452286862 0.5006115282618062 454.0 17.0 308.0 
550.0000042429967 21710.0 3991.0 1239.5076228119694 0.49961511669283365 453.0 17.0 306.0 
552.0000042429967 21735.0 3992.0 1239.577639751556 0.5033182790457233 447.0 17.0 306.0 
554.0000042429967 21714.0 3990.0 1242.1163184641484 0.4995909597456934 447.0 17.0 307.0 
556.0000042429967 21792.0 3993.0 1244.7363071710922 0.5026149747449977 447.0 18.0 307.0 
558.0000042429967 21737.0 3990.0 1244.7227555053678 0.50030523011489 447.0 18.0 307.0 
560.0000042429967 21767.0 3992.0 1237.0999435347221 0.5018260186525205 440.0 19.0 303.0 
562.0000042429967 21783.0 3992.0 1244.7521174477738 0.5051964750461306 447.0 16.0 309.0 
564.0000042429967 21760.0 3989.0 1244.8176171654402 0.5001429891876846 448.0 16.0 309.0 
566.0000042429967 21762.0 3991.0 1247.3178994918126 0.5022668325919653 447.0 19.0 307.0 
568.0000042429967 21861.0 3993.0 1262.9971767363102 0.5033404878282911 445.0 22.0 310.0 
570.0000042429967 21903.0 3991.0 1262.983625070586 0.5052598536693614 446.0 20.0 312.0 
572.0000042429967 21806.0 3992.0 1260.4178430265347 0.5013900594109548 443.0 22.0 309.0 
574.0000042429967 21859.0 3992.0 1260.2845849802418 0.5025909281537558 446.0 16.0 315.0 
576.0000042429967 21816.0 3992.0 1263.0220214568062 0.5072231097214923 444.0 17.0 315.0 
578.0000042429967 21722.0 3989.0 1260.3749294184067 0.4996509006063425 444.0 18.0 313.0 
580.0000042429967 21832.0 3992.0 1265.6871823828365 0.5033752502952127 441.0 22.0 311.0 
582.0000042429967 21844.0 3994.0 1270.8435911914144 0.5061050510931748 447.0 22.0 313.0 
584.0000042429967 21719.0 3992.0 1273.3574251835084 0.5006766618170551 449.0 20.0 316.0 
586.0000042429967 21746.0 3993.0 1273.3619424054164 0.5025651231427337 460.0 18.0 318.0 
588.0000042429967 21732.0 3990.0 1273.3822699040074 0.5002787058075961 463.0 17.0 319.0 
590.0000042429967 21724.0 3990.0 1273.2354601919783 0.49956205631783324 462.0 18.0 318.0 
592.0000042429967 21724.0 3990.0 1273.2490118577102 0.49913762528015354 463.0 17.0 319.0 
594.0000042429967 21787.0 3992.0 1275.8486730660632 0.5004683348936534 464.0 17.0 320.0 
596.0000042429967 21837.0 3992.0 1278.4551101072825 0.5030664206187534 468.0 18.0 320.0 
598.0000042429967 21764.0 3992.0 1281.007340485597 0.5013157105848376 469.0 17.0 322.0 
600.0000042429967 21757.0 3993.0 1281.0683229813676 0.5040871078926618 468.0 17.0 322.0 
602.0000042429967 21653.0 3994.0 1283.5844155844143 0.5051556619986245 471.0 17.0 323.0 
604.0000042429967 21599.0 3991.0 1281.066064370409 0.5019090946620365 470.0 18.0 321.0 
606.0000042429967 21750.0 3995.0 1281.081874647093 0.5051850921230024 469.0 18.0 321.0 
608.0000042429967 21659.0 3993.0 1286.2676453980837 0.5010290533424875 468.0 18.0 323.0 
610.0000042429967 21703.0 3991.0 1291.4985883681552 0.5033254373201722 467.0 18.0 325.0 
612.0000042429967 21780.0 3994.0 1288.8740824393028 0.5025473169260328 467.0 17.0 325.0 
614.0000042429967 21795.0 3992.0 1288.8221343873508 0.5031694072393741 468.0 17.0 325.0 
616.0000042429967 21852.0 3993.0 1288.7588932806284 0.504264382586899 468.0 18.0 324.0 
618.0000042429967 21755.0 3991.0 1288.8063241106765 0.5001904625217735 467.0 19.0 323.0 
620.0000042429967 21795.0 3993.0 1291.4308300395287 0.5043085750143377 465.0 21.0 322.0 
622.0000042429967 21821.0 3992.0 1304.4426877470332 0.5030227995145592 471.0 17.0 331.0 
624.0000042429967 21789.0 3990.0 1301.8159232072264 0.5011523187693079 469.0 17.0 330.0 
626.0000042429967 21748.0 3990.0 1301.761716544322 0.5014303764246861 470.0 17.0 330.0 
628.0000042429967 21845.0 3990.0 1301.7007340485616 0.5004367965146256 472.0 17.0 330.0 
630.0000042429967 21898.0 3990.0 1296.5511010728424 0.5013452299253803 470.0 17.0 328.0 
632.0000042429967 21949.0 3992.0 1299.1462450592846 0.5014815421640223 469.0 17.0 329.0 
634.0000042429967 22010.0 3993.0 1296.5443252399764 0.5036013790540594 469.0 17.0 328.0 
636.0000042429967 22040.0 3992.0 1299.2411067193716 0.5055565952197725 470.0 18.0 328.0 
638.0000042429967 21959.0 3989.0 1296.5714285714298 0.5030732379186729 472.0 19.0 326.0 
640.0000042429967 21981.0 3987.0 1296.6007905138358 0.5025711798182926 469.0 19.0 326.0 
642.0000042429967 22036.0 3990.0 1307.0717108978022 0.5047093991260547 471.0 19.0 330.0 
644.0000042429967 21987.0 3988.0 1296.673066064373 0.4994072796411656 469.0 20.0 325.0 
646.0000042429967 22125.0 3990.0 1296.673066064373 0.501176761795703 465.0 19.0 326.0 
648.0000042429967 22088.0 3988.0 1301.8859401468112 0.49950939376235837 461.0 19.0 328.0 
650.0000042429967 22089.0 3989.0 1299.3111236589466 0.4994151475054315 462.0 17.0 329.0 
652.0000042429967 22170.0 3990.0 1301.9378881987534 0.5028121756180756 462.0 18.0 329.0 
654.0000042429967 22144.0 3989.0 1301.9175607001657 0.4999963815110987 460.0 18.0 329.0 
656.0000042429967 22248.0 3991.0 1307.0762281197096 0.5039726364124941 458.0 18.0 331.0 
658.0000042429967 22243.0 3991.0 1314.8164878599675 0.502387882675533 458.0 18.0 334.0 
660.0000042429967 22218.0 3989.0 1314.9339356295907 0.5031544686366409 457.0 18.0 334.0 
662.0000042429967 22161.0 3989.0 1314.7758328627879 0.501724953775213 456.0 18.0 334.0 
664.0000042429967 22145.0 3988.0 1312.259740259742 0.5003413824134754 455.0 18.0 333.0 
#####################################################################
# End of data export. Simulation finished at: 2019-03-11T10:46+0000 #
#####################################################################
