#####################################################################
# Alchemist log file - simulation started at: 2019-03-09T10:07+0000 #
#####################################################################
# seed = 3.0, bandwidth = 316227.76601683797, accessPointCount = 531.8295896944988, baserange = 17.78279410038923
#
# The columns have the following meaning: 
# time neighbor_count[Sum] <value>@neighbor_count[Sum] packet_size[Mean] mean_delay[Mean] crowd[Sum] overcrowded[Sum] risk[Sum] 
0.0 NaN NaN NaN NaN NaN NaN NaN 
2.0004081062052084 62.0 34.0 4982.307692307692 0.4786274785934213 1497.0 0.0 1497.0 
4.000408106205208 65.0 34.0 4982.741617357002 0.47184848040243593 1497.0 0.0 1497.0 
6.000084666035003 79.0 34.0 4982.463510848126 0.4792152355206235 1497.0 0.0 1497.0 
8.000408106205208 82.0 34.0 4982.248520710059 0.48111190926367003 1497.0 0.0 1497.0 
10.00033353340315 82.0 34.0 4982.4812623274165 0.48109053662844986 1497.0 0.0 1497.0 
12.000408106205208 82.0 34.0 4982.41617357002 0.48109533456696885 1497.0 0.0 1497.0 
14.000408106205208 82.0 34.0 4982.382642998027 0.48109468030262525 1497.0 0.0 1497.0 
16.000084666035004 82.0 34.0 4982.4358974358975 0.4810986058886862 1497.0 0.0 1497.0 
18.00040810620521 82.0 34.0 4982.408284023669 0.48109642500753963 1497.0 0.0 1497.0 
20.00033353340315 82.0 34.0 4982.34516765286 0.4811079836776079 1497.0 0.0 1497.0 
22.00040810620521 82.0 34.0 4982.358974358975 0.48110078676982954 1497.0 0.0 1497.0 
24.00040810620521 82.0 34.0 4982.441814595661 0.4810986058886846 1497.0 0.0 1497.0 
26.000084666035004 82.0 34.0 4982.347140039447 0.4811034038272035 1497.0 0.0 1497.0 
28.00040810620521 82.0 34.0 4982.357001972387 0.48109707927188317 1497.0 0.0 1497.0 
30.00033353340315 82.0 34.0 4982.4358974358975 0.48109598883131066 1497.0 0.0 1497.0 
32.00040810620521 82.0 34.0 4982.333333333333 0.48110623897269195 1497.0 0.0 1497.0 
34.00040810620521 82.0 34.0 4982.372781065089 0.4811029676509755 1497.0 0.0 1497.0 
36.00008466603501 82.0 34.0 4982.4358974358975 0.4810942441263955 1497.0 0.0 1497.0 
38.00040810620521 82.0 34.0 4982.262327416173 0.481112345439899 1497.0 0.0 1497.0 
40.00033353340315 82.0 34.0 4982.402366863906 0.48110623897269295 1497.0 0.0 1497.0 
42.00040810620521 82.0 34.0 4982.422090729783 0.48109511647885367 1497.0 0.0 1497.0 
44.00040810620521 82.0 34.0 4982.224852071006 0.48110951029441035 1497.0 0.0 1497.0 
46.00008466603501 82.0 34.0 4982.426035502958 0.48109882397680015 1497.0 0.0 1497.0 
48.00040810620521 82.0 34.0 4982.410256410257 0.48109511647885367 1497.0 0.0 1497.0 
50.00033353340315 82.0 34.0 4982.262327416173 0.48111539867350195 1497.0 0.0 1497.0 
52.00040810620521 82.0 34.0 4982.406311637081 0.4810990420649148 1497.0 0.0 1497.0 
54.00040810620521 82.0 34.0 4982.408284023669 0.4810946803026245 1497.0 0.0 1497.0 
56.00008466603501 82.0 34.0 4982.303747534517 0.4811171433784178 1497.0 0.0 1497.0 
58.00040810620521 82.0 34.0 4982.408284023669 0.4810953345669683 1497.0 0.0 1497.0 
60.00033353340315 82.0 34.0 4982.351084812623 0.4810972973599985 1497.0 0.0 1497.0 
62.00027805237796 82.0 34.0 411.33530571992105 0.4941398389592181 28.0 0.0 5.0 
64.00027805237795 82.0 34.0 411.33530571992105 0.4953931913532172 28.0 0.0 5.0 
66.00008466603501 82.0 34.0 411.33530571992105 0.4953931913532178 27.0 0.0 5.0 
68.00027805237796 82.0 34.0 411.33530571992105 0.4953931913532178 15.0 0.0 5.0 
70.00027805237796 82.0 34.0 411.33530571992105 0.4953931913532178 8.0 0.0 5.0 
72.00027805237796 82.0 34.0 411.33530571992105 0.4953931913532178 8.0 0.0 5.0 
74.00027805237796 82.0 34.0 411.33530571992105 0.4953931913532178 7.0 0.0 5.0 
76.00008466603501 82.0 34.0 411.33530571992105 0.4953931913532178 7.0 0.0 5.0 
78.00027805237796 82.0 34.0 411.33530571992105 0.4953931913532178 6.0 0.0 5.0 
80.00027805237796 82.0 34.0 411.33530571992105 0.4953931913532178 6.0 0.0 5.0 
82.00027805237796 82.0 34.0 411.33530571992105 0.4953931913532178 6.0 0.0 5.0 
84.00027805237796 82.0 34.0 411.33530571992105 0.4953931913532178 6.0 0.0 5.0 
86.00008466603501 82.0 34.0 411.33530571992105 0.4953931913532178 6.0 0.0 5.0 
88.00027805237796 82.0 34.0 411.33530571992105 0.4953931913532178 6.0 0.0 5.0 
90.00027805237796 82.0 34.0 411.33530571992105 0.4953931913532178 6.0 0.0 5.0 
92.00027805237796 82.0 34.0 411.33530571992105 0.4953931913532178 5.0 0.0 5.0 
94.00027805237796 82.0 34.0 411.33530571992105 0.4953931913532178 5.0 0.0 5.0 
96.00008466603501 82.0 34.0 411.33530571992105 0.4953931913532178 5.0 0.0 5.0 
98.00027805237796 82.0 34.0 411.33530571992105 0.4953931913532178 5.0 0.0 5.0 
100.00027805237796 82.0 34.0 411.33530571992105 0.4953931913532178 5.0 0.0 5.0 
102.00027805237796 82.0 34.0 411.33530571992105 0.4953931913532178 5.0 0.0 5.0 
104.00027805237796 82.0 34.0 411.33530571992105 0.4953931913532178 5.0 0.0 5.0 
106.00008466603501 82.0 34.0 411.33530571992105 0.4953931913532178 5.0 0.0 5.0 
108.00027805237796 82.0 34.0 411.33530571992105 0.4953931913532178 5.0 0.0 5.0 
110.00027805237796 82.0 34.0 411.33530571992105 0.4953931913532178 5.0 0.0 5.0 
112.00027805237796 82.0 34.0 411.33530571992105 0.4953931913532178 5.0 0.0 5.0 
114.00027805237796 82.0 34.0 411.33530571992105 0.4953931913532178 5.0 0.0 5.0 
116.00008466603501 82.0 34.0 411.33530571992105 0.4953931913532178 5.0 0.0 5.0 
118.00027805237796 82.0 34.0 411.33530571992105 0.4953931913532178 5.0 0.0 5.0 
120.00027805237796 82.0 34.0 411.33530571992105 0.4953931913532178 5.0 0.0 5.0 
122.00027805237796 82.0 34.0 411.33530571992105 0.4953931913532178 5.0 0.0 5.0 
124.00027805237796 82.0 34.0 411.33530571992105 0.4953931913532178 5.0 0.0 5.0 
126.00008466603501 82.0 34.0 411.33530571992105 0.4953931913532178 5.0 0.0 5.0 
128.00027805237795 82.0 34.0 411.33530571992105 0.4953931913532178 5.0 0.0 5.0 
130.00027805237795 82.0 34.0 411.33530571992105 0.4953931913532303 5.0 0.0 5.0 
132.00027805237795 82.0 34.0 411.33530571992105 0.4953931913532303 5.0 0.0 5.0 
134.00027805237795 82.0 34.0 411.33530571992105 0.4953931913532303 5.0 0.0 5.0 
136.000084666035 82.0 34.0 411.33530571992105 0.4953931913532303 5.0 0.0 5.0 
138.00027805237795 82.0 34.0 411.33530571992105 0.4953931913532303 5.0 0.0 5.0 
140.00027805237795 82.0 34.0 411.33530571992105 0.4953931913532303 5.0 0.0 5.0 
142.00027805237795 82.0 34.0 411.33530571992105 0.4953931913532303 5.0 0.0 5.0 
144.00027805237795 82.0 34.0 411.33530571992105 0.4953931913532303 5.0 0.0 5.0 
146.000084666035 82.0 34.0 411.33530571992105 0.4953931913532303 5.0 0.0 5.0 
148.00027805237795 82.0 34.0 411.33530571992105 0.4953931913532303 5.0 0.0 5.0 
150.00027805237795 82.0 34.0 411.33530571992105 0.4953931913532303 5.0 0.0 5.0 
152.00027805237795 82.0 34.0 411.33530571992105 0.4953931913532303 5.0 0.0 5.0 
154.00027805237795 82.0 34.0 411.33530571992105 0.4953931913532303 5.0 0.0 5.0 
156.000084666035 82.0 34.0 411.33530571992105 0.4953931913532303 5.0 0.0 5.0 
158.00027805237795 82.0 34.0 411.33530571992105 0.4953931913532303 5.0 0.0 5.0 
160.00027805237795 83.0 35.0 411.33530571992105 0.49707312221149197 5.0 0.0 5.0 
162.00027805237795 86.0 35.0 411.33530571992105 0.49986250548376127 6.0 0.0 5.0 
164.00027805237795 86.0 35.0 411.33530571992105 0.49986250548376127 6.0 0.0 5.0 
166.000084666035 86.0 35.0 411.33530571992105 0.49986250548376127 6.0 0.0 5.0 
168.00027805237795 86.0 35.0 411.33530571992105 0.49986250548376127 6.0 0.0 5.0 
170.00027805237795 86.0 35.0 411.33530571992105 0.49986250548376127 6.0 0.0 5.0 
172.00027805237795 90.0 35.0 413.6074950690335 0.5175760149035674 6.0 0.0 6.0 
174.00027805237795 88.0 35.0 413.6074950690335 0.5047624287702658 6.0 0.0 6.0 
176.000084666035 88.0 35.0 413.6074950690335 0.5047624287702658 6.0 0.0 6.0 
178.00027805237795 88.0 35.0 413.6074950690335 0.5047624287702658 6.0 0.0 6.0 
180.00027805237795 89.0 35.0 413.6114398422092 0.5014217702508238 6.0 0.0 6.0 
182.00027805237795 90.0 35.0 413.6074950690335 0.5019032951896938 6.0 0.0 6.0 
184.00027805237795 90.0 35.0 413.6074950690335 0.5019062537952337 6.0 0.0 6.0 
186.000084666035 90.0 35.0 413.6074950690335 0.5019062537952337 6.0 0.0 6.0 
188.00027805237795 90.0 35.0 413.6074950690335 0.5019062537952337 6.0 0.0 6.0 
190.00027805237795 90.0 35.0 413.6114398422092 0.5019062537952337 6.0 0.0 6.0 
192.00027805237795 90.0 35.0 413.6074950690335 0.5019032951896938 6.0 0.0 6.0 
194.00027805237795 90.0 35.0 413.6074950690335 0.5019062537952337 6.0 0.0 6.0 
196.000084666035 90.0 35.0 413.6074950690335 0.5019062537952337 6.0 0.0 6.0 
198.00027805237795 90.0 35.0 413.6074950690335 0.5019062537952337 6.0 0.0 6.0 
200.00027805237795 90.0 35.0 413.6114398422092 0.5019062537952337 6.0 0.0 6.0 
202.00027805237795 90.0 35.0 413.6074950690335 0.5019032951896938 6.0 0.0 6.0 
204.00027805237795 90.0 35.0 413.6074950690335 0.5527537114223523 6.0 0.0 6.0 
206.000084666035 88.0 34.0 413.6074950690335 0.5020175227376649 6.0 0.0 6.0 
208.00027805237795 88.0 34.0 413.6074950690335 0.5020175227376649 6.0 0.0 6.0 
210.00027805237795 88.0 34.0 413.6114398422092 0.5020175227376649 6.0 0.0 6.0 
212.00027805237795 88.0 34.0 413.6074950690335 0.5020144603214042 6.0 0.0 6.0 
214.00027805237795 88.0 34.0 413.6074950690335 0.5020175227376649 6.0 0.0 6.0 
216.000084666035 88.0 34.0 413.6074950690335 0.5020175227376649 6.0 0.0 6.0 
218.00027805237795 88.0 34.0 413.6074950690335 0.5020175227376649 6.0 0.0 6.0 
220.00027805237795 88.0 34.0 413.6114398422092 0.5036182814017696 6.0 0.0 6.0 
222.00027805237795 89.0 35.0 413.6074950690335 0.5601264183693393 6.0 0.0 6.0 
224.00027805237795 82.0 34.0 413.60157790927 0.4953914466483143 6.0 0.0 6.0 
226.000084666035 82.0 34.0 413.59763313609477 0.49539319135323034 6.0 0.0 6.0 
228.00027805237795 82.0 34.0 413.59763313609477 0.49539319135323034 6.0 0.0 6.0 
230.00027805237795 82.0 34.0 413.59763313609477 0.49539319135323034 6.0 0.0 6.0 
232.00027805237795 82.0 34.0 413.59763313609477 0.5643587085946097 6.0 0.0 6.0 
234.00027805237795 80.0 33.0 413.59763313609477 0.4952738378681334 6.0 0.0 6.0 
236.000084666035 80.0 33.0 413.59763313609477 0.4952738378681334 6.0 0.0 6.0 
238.00027805237795 80.0 33.0 413.59763313609477 0.4952738378681334 6.0 0.0 6.0 
240.00027805237795 80.0 33.0 413.59763313609477 0.4952738378681334 6.0 0.0 6.0 
242.00027805237795 80.0 33.0 413.59763313609477 0.4952738378681334 6.0 0.0 6.0 
244.00027805237795 80.0 33.0 413.59763313609477 0.4952738378681334 6.0 0.0 6.0 
246.000084666035 80.0 33.0 413.59763313609477 0.4952738378681334 6.0 0.0 6.0 
248.00027805237795 80.0 33.0 413.59763313609477 0.4952738378681334 6.0 0.0 6.0 
250.00027805237795 80.0 33.0 413.59763313609477 0.4952738378681334 6.0 0.0 6.0 
252.00027805237795 80.0 33.0 413.59763313609477 0.4952738378681334 6.0 0.0 6.0 
254.00027805237795 80.0 33.0 413.59763313609477 0.4952738378681334 6.0 0.0 6.0 
256.00008466603504 80.0 33.0 413.59763313609477 0.4952738378681334 6.0 0.0 6.0 
258.00027805237795 80.0 33.0 413.59763313609477 0.4952738378681059 6.0 0.0 6.0 
260.00027805237795 80.0 33.0 413.59763313609477 0.4952738378681059 6.0 0.0 6.0 
262.00027805237795 80.0 33.0 413.59763313609477 0.4952738378681059 6.0 0.0 6.0 
264.00027805237795 80.0 33.0 413.59763313609477 0.4952738378681059 6.0 0.0 6.0 
266.00008466603504 82.0 34.0 413.59763313609477 0.4953931913532029 6.0 0.0 6.0 
268.00027805237795 86.0 36.0 413.59763313609477 0.4956087976488618 6.0 0.0 6.0 
270.00027805237795 86.0 36.0 413.59763313609477 0.4956087976488618 6.0 0.0 6.0 
272.00027805237795 86.0 36.0 413.59763313609477 0.4956087976488618 6.0 0.0 6.0 
274.00027805237795 88.0 36.0 413.59763313609477 0.4910566460937192 6.0 0.0 6.0 
276.00008466603504 91.0 38.0 413.59763313609477 0.5211227115707333 6.0 0.0 6.0 
278.00027805237795 90.0 37.0 413.59763313609477 0.5273442192059249 6.0 0.0 6.0 
280.00027805237795 88.0 36.0 413.59763313609477 0.4954953382311711 6.0 0.0 6.0 
282.00027805237795 88.0 36.0 413.59763313609477 0.4954953382311711 6.0 0.0 6.0 
284.00027805237795 88.0 36.0 411.33530571992105 0.4954953382311711 5.0 0.0 5.0 
286.00008466603504 88.0 36.0 411.33530571992105 0.4954953382311711 5.0 0.0 5.0 
288.00027805237795 88.0 36.0 411.33530571992105 0.5446756661000235 5.0 0.0 5.0 
290.00027805237795 86.0 35.0 411.33530571992105 0.4953855161733831 5.0 0.0 5.0 
292.00027805237795 86.0 35.0 411.33530571992105 0.4953855161733831 5.0 0.0 5.0 
294.00027805237795 90.0 36.0 411.33530571992105 0.49537809683289064 5.0 0.0 5.0 
296.00008466603504 90.0 36.0 411.33530571992105 0.49537809683289064 5.0 0.0 5.0 
298.00027805237795 90.0 36.0 411.33530571992105 0.49537809683289064 5.0 0.0 5.0 
300.00027805237795 90.0 36.0 411.33530571992105 0.49537809683289064 5.0 0.0 5.0 
302.00027805237795 90.0 36.0 411.33530571992105 0.49537809683289064 5.0 0.0 5.0 
304.00027805237795 90.0 36.0 411.33530571992105 0.5620763862761581 5.0 0.0 5.0 
306.00008466603504 84.0 35.0 411.33530571992105 0.5520503828371505 5.0 0.0 5.0 
308.00027805237795 81.0 33.0 411.33530571992105 0.5369059187356509 5.0 0.0 5.0 
310.00027805237795 80.0 33.0 411.33530571992105 0.4952738378681059 5.0 0.0 5.0 
312.00027805237795 82.0 34.0 411.33530571992105 0.4953931913532028 5.0 0.0 5.0 
314.00027805237795 82.0 34.0 411.33530571992105 0.4953931913532028 5.0 0.0 5.0 
316.00008466603504 82.0 34.0 411.33530571992105 0.4953931913532028 5.0 0.0 5.0 
318.00027805237795 82.0 34.0 411.33530571992105 0.4953931913532028 5.0 0.0 5.0 
320.00027805237795 82.0 34.0 411.33530571992105 0.4953931913532028 5.0 0.0 5.0 
322.00027805237795 82.0 34.0 411.33530571992105 0.5298759499738925 5.0 0.0 5.0 
324.00027805237795 80.0 33.0 411.33530571992105 0.4952738378681059 5.0 0.0 5.0 
326.00008466603504 80.0 33.0 411.33530571992105 0.4952738378681059 5.0 0.0 5.0 
328.00027805237795 80.0 33.0 411.33530571992105 0.4952738378681059 5.0 0.0 5.0 
330.00027805237795 82.0 34.0 411.33530571992105 0.4953931913532028 5.0 0.0 5.0 
332.00027805237795 82.0 34.0 411.33530571992105 0.4953931913532028 5.0 0.0 5.0 
334.00027805237795 82.0 34.0 411.33530571992105 0.4953931913532028 5.0 0.0 5.0 
336.00008466603504 82.0 34.0 411.33530571992105 0.4953931913532028 5.0 0.0 5.0 
338.00027805237795 82.0 34.0 411.33530571992105 0.4953931913532028 5.0 0.0 5.0 
340.00027805237795 82.0 34.0 411.33530571992105 0.5471173292842374 5.0 0.0 5.0 
342.00027805237795 80.0 33.0 411.33530571992105 0.4952738378681059 5.0 0.0 5.0 
344.00027805237795 80.0 33.0 411.33530571992105 0.4952738378681059 5.0 0.0 5.0 
346.00008466603504 80.0 33.0 411.33530571992105 0.4952738378681059 5.0 0.0 5.0 
348.00027805237795 80.0 33.0 411.33530571992105 0.4952738378681059 5.0 0.0 5.0 
350.00027805237795 80.0 33.0 411.33530571992105 0.4952738378681059 5.0 0.0 5.0 
352.00027805237795 80.0 33.0 411.33530571992105 0.4952738378681059 5.0 0.0 5.0 
354.00027805237795 80.0 33.0 411.33530571992105 0.4952738378681059 5.0 0.0 5.0 
356.00008466603504 80.0 33.0 411.33530571992105 0.4952738378681059 5.0 0.0 5.0 
358.00027805237795 82.0 34.0 411.33530571992105 0.4953931913532029 5.0 0.0 5.0 
360.00027805237795 82.0 34.0 411.33530571992105 0.4953931913532029 5.0 0.0 5.0 
362.00027805237795 82.0 34.0 411.33530571992105 0.4953931913532029 5.0 0.0 5.0 
364.00027805237795 82.0 34.0 411.33530571992105 0.4953931913532029 5.0 0.0 5.0 
366.00008466603504 85.0 36.0 411.33530571992105 0.49196832596314477 5.0 0.0 5.0 
368.00027805237795 86.0 36.0 411.33530571992105 0.5330005906037274 5.0 0.0 5.0 
370.00027805237795 86.0 36.0 411.33530571992105 0.5002137053578258 5.0 0.0 5.0 
372.00027805237795 86.0 36.0 411.33530571992105 0.5002137053578258 5.0 0.0 5.0 
374.00027805237795 86.0 36.0 411.33530571992105 0.5002137053578258 5.0 0.0 5.0 
376.00008466603504 86.0 36.0 411.33530571992105 0.5494251375971052 5.0 0.0 5.0 
378.00027805237795 83.0 34.0 411.33530571992105 0.537758331652957 5.0 0.0 5.0 
380.00027805237795 82.0 34.0 411.33530571992105 0.5471173292842374 5.0 0.0 5.0 
382.00027805237795 80.0 33.0 411.33530571992105 0.4952738378681059 5.0 0.0 5.0 
384.00027805237795 80.0 33.0 411.33530571992105 0.4952738378681059 5.0 0.0 5.0 
386.00008466603504 80.0 33.0 411.33530571992105 0.4952738378681059 5.0 0.0 5.0 
388.00027805237795 80.0 33.0 411.33530571992105 0.4952738378681059 5.0 0.0 5.0 
390.00027805237795 80.0 33.0 411.33530571992105 0.4952738378681059 5.0 0.0 5.0 
392.00027805237795 80.0 33.0 411.33530571992105 0.4952738378681059 5.0 0.0 5.0 
394.00027805237795 80.0 33.0 411.33530571992105 0.4952738378681059 5.0 0.0 5.0 
396.00008466603504 81.0 34.0 411.33530571992105 0.4888269084940019 5.0 0.0 5.0 
398.00027805237795 82.0 34.0 411.33530571992105 0.4953931913532029 5.0 0.0 5.0 
400.00027805237795 82.0 34.0 411.33530571992105 0.4953931913532029 5.0 0.0 5.0 
402.00027805237795 82.0 34.0 411.33530571992105 0.4953931913532029 5.0 0.0 5.0 
404.00027805237795 84.0 35.0 411.33530571992105 0.49550458793929336 5.0 0.0 5.0 
406.00008466603504 84.0 35.0 411.33530571992105 0.51217125460596 5.0 0.0 5.0 
408.00027805237795 83.0 34.0 411.33530571992105 0.5356351934375156 5.0 0.0 5.0 
410.00027805237795 82.0 34.0 411.33530571992105 0.4953931913532029 5.0 0.0 5.0 
412.00027805237795 82.0 34.0 411.33530571992105 0.4953931913532029 5.0 0.0 5.0 
414.00027805237795 82.0 34.0 411.33530571992105 0.5471173292842374 5.0 0.0 5.0 
416.00008466603504 80.0 33.0 411.33530571992105 0.4952738378681059 5.0 0.0 5.0 
418.00027805237795 82.0 34.0 411.33530571992105 0.4953931913532029 5.0 0.0 5.0 
420.00027805237795 82.0 34.0 411.33530571992105 0.4953931913532029 5.0 0.0 5.0 
422.00027805237795 82.0 34.0 411.33530571992105 0.4953931913532029 5.0 0.0 5.0 
424.00027805237795 84.0 35.0 411.33530571992105 0.4955045879392933 5.0 0.0 5.0 
426.00008466603504 86.0 36.0 411.33530571992105 0.4956087976488618 5.0 0.0 5.0 
428.00027805237795 86.0 36.0 411.33530571992105 0.5601249266811199 5.0 0.0 5.0 
430.00027805237795 84.0 35.0 411.33530571992105 0.4955045879392933 5.0 0.0 5.0 
432.00027805237795 84.0 35.0 411.33530571992105 0.4955045879392933 5.0 0.0 5.0 
434.00027805237795 84.0 35.0 411.33530571992105 0.4955045879392933 5.0 0.0 5.0 
436.00008466603504 84.0 35.0 411.33530571992105 0.5288379212726266 5.0 0.0 5.0 
438.00027805237795 82.0 34.0 411.33530571992105 0.4953931913532028 5.0 0.0 5.0 
440.00027805237795 82.0 34.0 411.33530571992105 0.4953931913532028 5.0 0.0 5.0 
442.00027805237795 82.0 34.0 411.33530571992105 0.4953931913532028 5.0 0.0 5.0 
444.00027805237795 82.0 34.0 411.33530571992105 0.4953931913532028 5.0 0.0 5.0 
446.00008466603504 84.0 35.0 411.33530571992105 0.5002638279483991 5.0 0.0 5.0 
448.00027805237795 84.0 35.0 411.33530571992105 0.5002638279483991 5.0 0.0 5.0 
450.00027805237795 84.0 35.0 411.33530571992105 0.5002638279483991 5.0 0.0 5.0 
452.00027805237795 84.0 35.0 411.33530571992105 0.5002638279483991 5.0 0.0 5.0 
454.00027805237795 84.0 35.0 411.33530571992105 0.5002638279483991 5.0 0.0 5.0 
456.00008466603504 85.0 35.0 411.33530571992105 0.49310360096224715 5.0 0.0 5.0 
458.00027805237795 88.0 36.0 411.33530571992105 0.5001751034116563 5.0 0.0 5.0 
460.00027805237795 88.0 36.0 411.33530571992105 0.5001751034116563 5.0 0.0 5.0 
462.00027805237795 88.0 36.0 411.33530571992105 0.5001751034116563 5.0 0.0 5.0 
464.00027805237795 88.0 36.0 411.33530571992105 0.5001751034116563 5.0 0.0 5.0 
466.00008466603504 88.0 36.0 411.33530571992105 0.5335400595215903 5.0 0.0 5.0 
468.00027805237795 86.0 35.0 411.33530571992105 0.5292838212581288 5.0 0.0 5.0 
470.00027805237795 84.0 35.0 411.33530571992105 0.4912349786078809 5.0 0.0 5.0 
472.00027805237795 84.0 35.0 411.33530571992105 0.4912349786078809 5.0 0.0 5.0 
474.00027805237795 84.0 35.0 411.33530571992105 0.4912349786078809 5.0 0.0 5.0 
476.00008466603504 84.0 35.0 411.33530571992105 0.5081841311502538 5.0 0.0 5.0 
478.00027805237795 83.0 35.0 411.33530571992105 0.5157605326841678 5.0 0.0 5.0 
480.00027805237795 82.0 34.0 411.33530571992105 0.4953931913532028 5.0 0.0 5.0 
482.00027805237795 83.0 34.0 411.33530571992105 0.49307838360184225 5.0 0.0 5.0 
484.00027805237795 84.0 35.0 411.33530571992105 0.4955045879392933 5.0 0.0 5.0 
486.00008466603504 84.0 35.0 411.33530571992105 0.4955045879392933 5.0 0.0 5.0 
488.00027805237795 86.0 36.0 411.33530571992105 0.4956087976488618 5.0 0.0 5.0 
490.00027805237795 86.0 36.0 411.33530571992105 0.4956087976488618 5.0 0.0 5.0 
492.00027805237795 86.0 36.0 411.33530571992105 0.5117378299069263 5.0 0.0 5.0 
494.00027805237795 85.0 36.0 411.33530571992105 0.5306381298394509 5.0 0.0 5.0 
496.00008466603504 84.0 35.0 411.33530571992105 0.4955045879392933 5.0 0.0 5.0 
498.00027805237795 86.0 36.0 411.33530571992105 0.5439958944230554 5.0 0.0 5.0 
500.00027805237795 86.0 36.0 411.33530571992105 0.4956087976488618 5.0 0.0 5.0 
502.00027805237795 86.0 36.0 411.33530571992105 0.4956087976488618 5.0 0.0 5.0 
504.00027805237795 86.0 36.0 411.33530571992105 0.4956087976488618 5.0 0.0 5.0 
506.00008466603504 86.0 36.0 411.33530571992105 0.4956087976488618 5.0 0.0 5.0 
508.00027805237795 86.0 36.0 411.33530571992105 0.4956087976488618 5.0 0.0 5.0 
510.00027805237795 86.0 36.0 411.33530571992105 0.4956087976488618 5.0 0.0 5.0 
512.0002780523779 86.0 36.0 411.33530571992105 0.4956087976488618 5.0 0.0 5.0 
514.0002780523779 86.0 36.0 411.33530571992105 0.49560879764891586 5.0 0.0 5.0 
516.000084666035 88.0 37.0 411.33530571992105 0.49570649425163643 5.0 0.0 5.0 
518.0002780523779 88.0 37.0 411.33530571992105 0.49570649425163643 5.0 0.0 5.0 
520.0002780523779 88.0 37.0 411.33530571992105 0.49570649425163643 5.0 0.0 5.0 
522.0002780523779 88.0 37.0 411.33530571992105 0.49570649425163643 5.0 0.0 5.0 
524.0002780523779 88.0 37.0 411.33530571992105 0.49570649425163643 5.0 0.0 5.0 
526.000084666035 88.0 37.0 411.33530571992105 0.5269564942516365 5.0 0.0 5.0 
528.0002780523779 86.0 36.0 411.33530571992105 0.49560879764891586 5.0 0.0 5.0 
530.0002780523779 86.0 36.0 411.33530571992105 0.49560879764891586 5.0 0.0 5.0 
532.0002780523779 86.0 36.0 411.33530571992105 0.49560879764891586 5.0 0.0 5.0 
534.0002780523779 86.0 36.0 411.33530571992105 0.49560879764891586 5.0 0.0 5.0 
536.000084666035 86.0 36.0 411.33530571992105 0.49560879764891586 5.0 0.0 5.0 
538.0002780523779 86.0 36.0 411.33530571992105 0.49560879764891586 5.0 0.0 5.0 
540.0002780523779 86.0 36.0 411.33530571992105 0.49560879764891586 5.0 0.0 5.0 
542.0002780523779 86.0 36.0 411.33530571992105 0.49560879764891586 5.0 0.0 5.0 
544.0002780523779 86.0 36.0 411.33530571992105 0.49560879764891586 5.0 0.0 5.0 
546.000084666035 86.0 36.0 411.33530571992105 0.49560879764891586 5.0 0.0 5.0 
548.0002780523779 86.0 36.0 411.33530571992105 0.49560879764891586 5.0 0.0 5.0 
550.0002780523779 86.0 36.0 411.33530571992105 0.49560879764891586 5.0 0.0 5.0 
552.0002780523779 86.0 36.0 411.33530571992105 0.49560879764891586 5.0 0.0 5.0 
554.0002780523779 86.0 36.0 411.33530571992105 0.49560879764891586 5.0 0.0 5.0 
556.000084666035 86.0 36.0 411.33530571992105 0.49560879764891586 5.0 0.0 5.0 
558.0002780523779 86.0 36.0 411.33530571992105 0.49560879764891586 5.0 0.0 5.0 
560.0002780523779 86.0 36.0 411.33530571992105 0.49560879764891586 5.0 0.0 5.0 
562.0002780523779 86.0 36.0 411.33530571992105 0.49560879764891586 5.0 0.0 5.0 
564.0002780523779 86.0 36.0 411.33530571992105 0.49560879764891586 5.0 0.0 5.0 
566.000084666035 86.0 36.0 411.33530571992105 0.49560879764891586 5.0 0.0 5.0 
568.0002780523779 86.0 36.0 411.33530571992105 0.5278668621650449 5.0 0.0 5.0 
570.0002780523779 84.0 35.0 411.33530571992105 0.4955045879393473 5.0 0.0 5.0 
572.0002780523779 84.0 35.0 411.33530571992105 0.4955045879393473 5.0 0.0 5.0 
574.0002780523779 84.0 35.0 411.33530571992105 0.4955045879393473 5.0 0.0 5.0 
576.000084666035 84.0 35.0 411.33530571992105 0.4955045879393473 5.0 0.0 5.0 
578.0002780523779 86.0 36.0 411.33530571992105 0.4926757537948674 5.0 0.0 5.0 
580.0002780523779 86.0 36.0 411.33530571992105 0.4926757537948674 5.0 0.0 5.0 
582.0002780523779 86.0 36.0 411.33530571992105 0.4926757537948674 5.0 0.0 5.0 
584.0002780523779 86.0 36.0 411.33530571992105 0.5418871860341495 5.0 0.0 5.0 
586.000084666035 84.0 35.0 411.33530571992105 0.4955045879393473 5.0 0.0 5.0 
588.0002780523779 84.0 35.0 411.33530571992105 0.4955045879393473 5.0 0.0 5.0 
590.0002780523779 84.0 35.0 411.33530571992105 0.4955045879393473 5.0 0.0 5.0 
592.0002780523779 84.0 35.0 411.33530571992105 0.4955045879393473 5.0 0.0 5.0 
594.0002780523779 84.0 35.0 411.33530571992105 0.4955045879393473 5.0 0.0 5.0 
596.000084666035 84.0 35.0 411.33530571992105 0.4955045879393473 5.0 0.0 5.0 
598.0002780523779 86.0 36.0 411.33530571992105 0.49458280759176904 5.0 0.0 5.0 
600.0002780523779 86.0 36.0 411.33530571992105 0.49458280759176904 5.0 0.0 5.0 
602.0002780523779 88.0 37.0 411.33530571992105 0.4947146260471406 5.0 0.0 5.0 
604.0002780523779 88.0 37.0 411.33530571992105 0.4947146260471406 5.0 0.0 5.0 
606.000084666035 88.0 37.0 411.33530571992105 0.4947146260471406 5.0 0.0 5.0 
608.0002780523779 88.0 37.0 411.33530571992105 0.4947146260471406 5.0 0.0 5.0 
610.0002780523779 88.0 37.0 411.33530571992105 0.4947146260471406 5.0 0.0 5.0 
612.0002780523779 88.0 37.0 411.33530571992105 0.5423336736661882 5.0 0.0 5.0 
614.0002780523779 86.0 36.0 411.33530571992105 0.49458280759176904 5.0 0.0 5.0 
616.000084666035 86.0 36.0 411.33530571992105 0.49458280759176904 5.0 0.0 5.0 
618.0002780523779 94.0 37.0 418.1301775147927 0.4935696386028895 8.0 0.0 8.0 
620.0002780523779 94.0 37.0 418.16568047337284 0.49332604121410084 8.0 0.0 8.0 
622.0002780523779 94.0 37.0 418.1459566074949 0.4933317537156799 8.0 0.0 8.0 
624.0002780523779 94.0 37.0 418.1341222879684 0.4933358340739507 8.0 0.0 8.0 
626.000084666035 94.0 37.0 418.1341222879684 0.4933358340739507 8.0 0.0 8.0 
628.0002780523779 94.0 37.0 418.1459566074949 0.4933313456798528 8.0 0.0 8.0 
630.0002780523779 94.0 37.0 418.1341222879684 0.4933358340739507 8.0 0.0 8.0 
632.0002780523779 94.0 37.0 418.1341222879684 0.4933358340739507 8.0 0.0 8.0 
634.0002780523779 94.0 37.0 418.1341222879684 0.4933358340739507 8.0 0.0 8.0 
636.000084666035 100.0 38.0 420.4102564102564 0.49261282808512485 9.0 0.0 9.0 
638.0002780523779 100.0 38.0 420.4102564102564 0.51037271786613 9.0 0.0 9.0 
640.0002780523779 98.0 38.0 420.40236686390523 0.4916857337556167 9.0 0.0 9.0 
642.0002780523779 98.0 38.0 420.40236686390523 0.4916857337556167 9.0 0.0 9.0 
644.0002780523779 100.0 39.0 420.40236686390523 0.49190263699193537 9.0 0.0 9.0 
646.000084666035 102.0 39.0 420.40236686390523 0.49175064255879947 9.0 0.0 9.0 
648.0002780523779 102.0 39.0 420.4063116370808 0.4917512912311402 9.0 0.0 9.0 
650.0002780523779 102.0 39.0 420.40236686390523 0.49175245884135355 9.0 0.0 9.0 
652.0002780523779 102.0 39.0 420.40236686390523 0.49175245884135355 9.0 0.0 9.0 
654.0002780523779 104.0 40.0 420.40236686390523 0.536737014963581 9.0 0.0 9.0 
656.000084666035 102.0 39.0 420.40236686390523 0.49175064255879947 9.0 0.0 9.0 
658.0002780523779 102.0 39.0 420.4063116370808 0.5097003983832625 9.0 0.0 9.0 
660.0002780523779 100.0 39.0 420.4063116370808 0.4920778546325577 9.0 0.0 9.0 
662.0002780523779 100.0 39.0 420.40236686390523 0.4920786330393666 9.0 0.0 9.0 
664.0002780523779 100.0 39.0 420.40236686390523 0.4920786330393666 9.0 0.0 9.0 
#####################################################################
# End of data export. Simulation finished at: 2019-03-09T10:14+0000 #
#####################################################################
