#####################################################################
# Alchemist log file - simulation started at: 2019-03-04T10:10+0000 #
#####################################################################
# seed = 0.0, bandwidth = 2.3713737056616552E7, accessPointCount = 531.8295896944988, baserange = 31.622776601683796
#
# The columns have the following meaning: 
# time neighbor_count[Sum] <value>@neighbor_count[Sum] packet_size[Mean] mean_delay[Mean] crowd[Sum] overcrowded[Sum] risk[Sum] 
0.0 NaN NaN NaN NaN NaN NaN NaN 
10.000405536260626 198.0 70.0 4982.944773175543 0.4981620208018108 1496.0 1.0 1496.0 
20.000405536260626 198.0 70.0 4983.260355029586 0.49816235666325226 1496.0 1.0 1496.0 
30.000405536260626 198.0 70.0 4982.717948717948 0.4981627694392528 1497.0 0.0 1497.0 
40.00040553626063 200.0 71.0 4983.216962524655 0.4981930819406382 1497.0 0.0 1497.0 
50.00040553626063 204.0 72.0 4982.723865877712 0.4982024273577437 1497.0 0.0 1497.0 
60.00040553626063 202.0 71.0 4980.915187376726 0.4981718498109571 1496.0 0.0 1496.0 
70.00040553626063 202.0 71.0 420.41025641025647 0.49841912871365546 14.0 6.0 3.0 
80.00040553626063 200.0 71.0 420.4023668639052 0.4994522212928118 4.0 6.0 3.0 
90.00040553626063 202.0 72.0 420.4023668639052 0.5016288527672994 4.0 6.0 3.0 
100.00040553626063 202.0 72.0 420.4023668639052 0.5016288527672994 4.0 6.0 3.0 
110.00040553626063 202.0 72.0 420.4023668639052 0.5016288527672994 4.0 6.0 3.0 
120.00040553626063 202.0 72.0 420.4023668639052 0.5016288527672994 4.0 6.0 3.0 
130.00040553626064 204.0 73.0 420.4023668639052 0.5310782710220252 4.0 6.0 3.0 
140.00040553626064 202.0 72.0 420.4023668639052 0.5016288527673096 4.0 6.0 3.0 
150.00040553626064 201.0 71.0 420.4023668639052 0.5179613962216776 4.0 6.0 3.0 
160.00040553626064 200.0 71.0 420.4023668639052 0.5078683860644433 4.0 6.0 3.0 
170.00040553626064 198.0 70.0 420.4023668639052 0.49840464094760806 4.0 6.0 3.0 
180.00040553626064 198.0 70.0 420.4023668639052 0.49840464094760806 4.0 6.0 3.0 
190.00040553626064 198.0 70.0 420.4023668639052 0.49840464094760806 4.0 6.0 3.0 
200.00040553626064 196.0 69.0 420.4023668639052 0.4989599293018165 4.0 6.0 3.0 
210.00040553626064 196.0 69.0 420.4023668639052 0.4989599293018165 4.0 6.0 3.0 
220.00040553626064 194.0 68.0 420.4023668639052 0.4989396678594787 4.0 6.0 3.0 
230.00040553626064 192.0 67.0 420.4023668639052 0.4989185877730061 4.0 6.0 3.0 
240.00040553626064 192.0 67.0 420.4023668639052 0.4989185877730061 4.0 6.0 3.0 
250.00040553626064 196.0 69.0 420.4023668639052 0.4952814607974974 4.0 6.0 3.0 
260.00040553626064 198.0 69.0 420.4023668639052 0.5087534060421104 4.0 6.0 3.0 
270.00040553626064 198.0 69.0 420.4023668639052 0.49894940178789426 4.0 6.0 3.0 
280.00040553626064 196.0 69.0 420.4023668639052 0.4997981419785898 4.0 6.0 3.0 
290.00040553626064 198.0 70.0 420.4023668639052 0.5001328892971065 4.0 6.0 3.0 
300.00040553626064 200.0 70.0 420.4023668639052 0.4989692812177395 4.0 6.0 3.0 
310.00040553626064 196.0 68.0 420.4023668639052 0.4989287271808552 4.0 6.0 3.0 
320.00040553626064 198.0 69.0 420.4023668639052 0.49894940178789426 4.0 6.0 3.0 
330.00040553626064 198.0 69.0 420.4023668639052 0.49894940178789426 4.0 6.0 3.0 
340.00040553626064 199.0 70.0 420.4023668639052 0.4993667454756482 4.0 6.0 3.0 
350.00040553626064 208.0 73.0 420.4023668639052 0.4990153238877417 4.0 6.0 3.0 
360.00040553626064 206.0 72.0 420.4023668639052 0.4989972340138706 4.0 6.0 3.0 
370.00040553626064 210.0 73.0 420.4023668639052 0.5360429311855899 4.0 6.0 3.0 
380.00040553626064 206.0 71.0 420.4023668639052 0.5374300087244656 4.0 6.0 3.0 
390.00040553626064 204.0 71.0 420.4023668639052 0.49897845500194726 4.0 6.0 3.0 
400.00040553626064 212.0 73.0 427.22682445759386 0.5276688623702249 7.0 6.0 6.0 
410.00040553626064 215.0 73.0 429.48126232741635 0.497013013865633 8.0 6.0 7.0 
420.00040553626064 219.0 75.0 429.4773175542406 0.5253228714319043 8.0 6.0 7.0 
430.00040553626064 220.0 75.0 429.463510848126 0.5079920495310648 8.0 6.0 7.0 
440.00040553626064 202.0 71.0 429.45167652859976 0.4989865852506496 8.0 6.0 7.0 
450.00040553626064 194.0 68.0 429.45167652859976 0.4989377522717814 8.0 6.0 7.0 
460.00040553626064 194.0 68.0 429.45167652859976 0.4989377522717814 8.0 6.0 7.0 
470.00040553626064 196.0 69.0 429.45167652859976 0.49895805090999623 8.0 6.0 7.0 
480.00040553626064 196.0 69.0 429.45167652859976 0.4989599293017995 8.0 6.0 7.0 
490.00040553626064 195.0 68.0 427.18934911242593 0.5213238013641079 7.0 6.0 6.0 
500.00040553626064 192.0 67.0 420.4023668639052 0.4989185877729896 4.0 6.0 3.0 
510.00040553626064 192.0 67.0 420.4023668639052 0.4989185877729896 4.0 6.0 3.0 
520.0004055362606 192.0 67.0 420.4023668639052 0.4989185877729794 4.0 6.0 3.0 
530.0004055362606 192.0 67.0 420.4023668639052 0.4989185877729794 4.0 6.0 3.0 
540.0004055362606 192.0 67.0 420.4023668639052 0.4989185877729794 4.0 6.0 3.0 
550.0004055362606 192.0 67.0 420.4023668639052 0.4989185877729794 4.0 6.0 3.0 
560.0004055362606 192.0 67.0 420.4023668639052 0.4989185877729794 4.0 6.0 3.0 
570.0004055362606 192.0 67.0 420.4023668639052 0.4989185877729794 4.0 6.0 3.0 
580.0004055362606 194.0 68.0 420.4023668639052 0.49834150129988963 4.0 6.0 3.0 
590.0004055362606 200.0 71.0 420.4023668639052 0.4984344238002645 4.0 6.0 3.0 
600.0004055362606 204.0 72.0 420.4023668639052 0.49844842477932166 4.0 6.0 3.0 
610.0004055362606 202.0 71.0 420.4023668639052 0.4984191922581689 4.0 6.0 3.0 
620.0004055362606 202.0 71.0 420.4023668639052 0.4984191922581689 4.0 6.0 3.0 
630.0004055362606 200.0 71.0 420.4023668639052 0.4984344238002645 4.0 6.0 3.0 
640.0004055362606 198.0 70.0 420.4023668639052 0.49840464094758025 4.0 6.0 3.0 
650.0004055362606 198.0 70.0 420.4023668639052 0.49840464094758025 4.0 6.0 3.0 
660.0004055362606 201.0 71.0 420.4023668639052 0.49387496944337644 4.0 6.0 3.0 
#####################################################################
# End of data export. Simulation finished at: 2019-03-04T10:18+0000 #
#####################################################################
