#####################################################################
# Alchemist log file - simulation started at: 2019-03-09T22:50+0000 #
#####################################################################
# seed = 3.0, bandwidth = 2.3713737056616552E7, accessPointCount = 10.0, baserange = 1000.0
#
# The columns have the following meaning: 
# time neighbor_count[Sum] <value>@neighbor_count[Sum] packet_size[Mean] mean_delay[Mean] crowd[Sum] overcrowded[Sum] risk[Sum] 
0.0 NaN NaN NaN NaN NaN NaN NaN 
2.0005923698108097 2838.0 311.0 4988.241539482416 0.43386076805885554 1497.0 0.0 1497.0 
4.00059236981081 5753.0 313.0 4988.737889847379 0.4739968792203485 1497.0 0.0 1497.0 
6.000084666035003 8428.0 312.0 4989.165228931653 0.4897888729140089 1497.0 0.0 1497.0 
8.00059236981081 10450.0 312.0 4989.454545454545 0.5066148795904725 1497.0 0.0 1497.0 
10.00033353340315 11430.0 314.0 4989.486396814864 0.5048150419688 1496.0 1.0 1496.0 
12.00059236981081 11535.0 309.0 4989.5368281353685 0.5007640160204841 1496.0 1.0 1496.0 
14.00059236981081 11526.0 309.0 4989.560716655607 0.4987433302116756 1496.0 1.0 1496.0 
16.000084666035004 11526.0 309.0 4989.539482415395 0.4986891941993257 1496.0 1.0 1496.0 
18.00059236981081 11526.0 309.0 4989.589913735899 0.49868972900185465 1496.0 1.0 1496.0 
20.00033353340315 11528.0 309.0 4989.5447909754475 0.4986995763749071 1496.0 1.0 1496.0 
22.00059236981081 11528.0 309.0 4989.446582614466 0.49875395939946626 1496.0 1.0 1496.0 
24.00059236981081 11528.0 309.0 4989.489051094891 0.49875339951809883 1496.0 1.0 1496.0 
26.000084666035004 11528.0 309.0 4989.502322495023 0.4986992093507085 1496.0 1.0 1496.0 
28.00059236981081 11528.0 309.0 4989.475779694758 0.4998023469504033 1496.0 1.0 1496.0 
30.00033353340315 11520.0 309.0 4989.502322495023 0.4986912669884127 1496.0 1.0 1496.0 
32.00059236981081 11520.0 309.0 4989.510285335103 0.4987449517631954 1496.0 1.0 1496.0 
34.00059236981081 11520.0 309.0 4989.473125414731 0.49874482895330324 1496.0 1.0 1496.0 
36.00008466603501 11520.0 309.0 4989.555408095554 0.49869066971147463 1496.0 1.0 1496.0 
38.00059236981081 11520.0 309.0 4989.611147976111 0.5060539728091551 1496.0 1.0 1496.0 
40.00033353340315 11458.0 308.0 4989.5474452554745 0.4986698036366152 1496.0 1.0 1496.0 
42.00059236981081 11458.0 308.0 4989.539482415395 0.4987236349668564 1496.0 1.0 1496.0 
44.00059236981081 11458.0 308.0 4989.491705374917 0.49872315094142744 1496.0 1.0 1496.0 
46.00008466603501 11458.0 308.0 4989.481088254811 0.4986688384724574 1496.0 1.0 1496.0 
48.00059236981081 11459.0 308.0 4989.483742534838 0.4986139707582468 1496.0 1.0 1496.0 
50.00033353340315 11482.0 309.0 4989.49701393497 0.5009391895782687 1496.0 1.0 1496.0 
52.00059236981081 11475.0 308.0 4989.449236894492 0.5031266786900673 1496.0 1.0 1496.0 
54.00059236981081 11464.0 308.0 4989.475779694758 0.4988588671600803 1496.0 1.0 1496.0 
56.00008466603501 11462.0 308.0 4989.589913735899 0.4985865536945045 1496.0 1.0 1496.0 
58.00059236981081 11462.0 308.0 4989.5447909754475 0.49858673318219415 1496.0 1.0 1496.0 
60.00033353340315 11462.0 308.0 4989.581950895819 0.49858693401953746 1496.0 1.0 1496.0 
62.00021075938363 11462.0 308.0 650.5719973457192 0.49830615879161605 180.0 0.0 82.0 
64.00021075938362 11462.0 308.0 653.6721964167215 0.5056062135735228 143.0 0.0 83.0 
66.00008466603501 11426.0 307.0 653.5792966157934 0.5013869692489054 129.0 0.0 83.0 
68.00021075938363 11418.0 307.0 650.5879230258789 0.5007796822126337 125.0 0.0 82.0 
70.00021075938363 11414.0 307.0 650.556071665561 0.4988907860768757 124.0 0.0 82.0 
72.00021075938363 11444.0 308.0 650.5666887856671 0.4989604360976081 124.0 0.0 82.0 
74.00021075938363 11444.0 308.0 650.5162574651628 0.4989609704679911 118.0 4.0 78.0 
76.00008466603501 11444.0 308.0 650.5348374253479 0.49979259823321803 118.0 5.0 77.0 
78.00021075938363 11441.0 308.0 650.5109489051092 0.5007095709555816 117.0 6.0 76.0 
80.00021075938363 11438.0 308.0 650.5109489051092 0.4990144220671591 120.0 1.0 81.0 
82.00021075938363 11446.0 308.0 650.4950232249495 0.4989498205789896 121.0 0.0 82.0 
84.00021075938363 11446.0 308.0 650.5268745852691 0.4989495724003603 121.0 0.0 82.0 
86.00008466603501 11446.0 308.0 650.4764432647644 0.5019346698729621 118.0 0.0 82.0 
88.00021075938363 11432.0 307.0 650.5136031851359 0.507811863388171 118.0 0.0 82.0 
90.00021075938363 11421.0 307.0 650.4976775049763 0.49889487443024555 118.0 0.0 82.0 
92.00021075938363 11426.0 307.0 650.4950232249495 0.49934798927687096 118.0 0.0 82.0 
94.00021075938363 11424.0 307.0 650.5056403450558 0.4996405680473511 118.0 0.0 82.0 
96.00008466603501 11440.0 307.0 650.5162574651628 0.49782691749710245 118.0 0.0 82.0 
98.00021075938363 11456.0 308.0 650.4764432647644 0.49879661468223035 118.0 0.0 82.0 
100.00021075938363 11456.0 308.0 650.5136031851359 0.4987962428242207 118.0 0.0 82.0 
102.00021075938363 11476.0 309.0 650.4950232249495 0.5062533903877984 118.0 0.0 82.0 
104.00021075938363 11436.0 308.0 650.4737889847376 0.498844570036379 118.0 0.0 82.0 
106.00008466603501 11512.0 309.0 650.4817518248179 0.498242229579191 118.0 0.0 82.0 
108.00021075938363 11562.0 309.0 650.4844061048447 0.49889416567206424 118.0 0.0 82.0 
110.00021075938363 11562.0 309.0 650.4631718646314 0.4995019559373757 118.0 0.0 82.0 
112.00021075938363 11568.0 309.0 647.4372926343736 0.49875932380225435 118.0 0.0 81.0 
114.00021075938363 11568.0 309.0 647.445255474453 0.4987591217491853 118.0 0.0 81.0 
116.00008466603501 11595.0 309.0 656.5998672859979 0.49846423299872344 119.0 0.0 84.0 
118.00021075938363 11610.0 309.0 656.610484406105 0.49886293967610756 119.0 0.0 84.0 
120.00021075938363 11610.0 309.0 656.610484406105 0.4988628124518115 119.0 0.0 84.0 
122.00021075938363 11616.0 309.0 656.5972130059721 0.49882318391682423 119.0 0.0 84.0 
124.00021075938363 11616.0 309.0 653.5766423357668 0.4988228590228933 118.0 0.0 83.0 
126.00008466603501 11665.0 309.0 650.5162574651629 0.4988650611152659 117.0 0.0 82.0 
128.00021075938363 11666.0 309.0 650.5136031851359 0.49887600814558997 117.0 0.0 82.0 
130.00021075938363 11667.0 309.0 650.4764432647644 0.49889035408086185 117.0 0.0 82.0 
132.00021075938363 11674.0 309.0 650.4711347047108 0.4991682737859723 117.0 0.0 82.0 
134.00021075938363 11672.0 309.0 647.4266755142665 0.4989762230399107 117.0 0.0 81.0 
136.000084666035 11694.0 309.0 647.4399469144 0.4989498407791076 117.0 0.0 81.0 
138.00021075938363 11694.0 309.0 647.4372926343736 0.4989501756686468 117.0 0.0 81.0 
140.00021075938363 11696.0 309.0 647.4372926343736 0.49907481157081507 118.0 0.0 81.0 
142.00021075938363 11694.0 309.0 647.4266755142665 0.49981343650861 119.0 0.0 81.0 
144.00021075938363 11692.0 309.0 647.4532183145315 0.4990376818010722 119.0 0.0 81.0 
146.000084666035 11708.0 309.0 647.4399469144 0.5010481781626601 119.0 0.0 81.0 
148.00021075938363 11704.0 308.0 647.4691439946918 0.5055653372701882 119.0 0.0 81.0 
150.00021075938363 11704.0 308.0 647.4532183145315 0.4994258292253539 119.0 0.0 81.0 
152.00021075938363 11704.0 308.0 647.447909754478 0.5000709508399489 119.0 0.0 81.0 
154.00021075938363 11702.0 308.0 644.3662906436621 0.4994241114532115 119.0 0.0 80.0 
156.000084666035 11706.0 308.0 644.3981420039823 0.49941495834685196 119.0 0.0 80.0 
158.00021075938363 11706.0 308.0 644.4140676841402 0.4994151383177574 119.0 0.0 80.0 
160.00021075938363 11706.0 308.0 644.3928334439291 0.49952864047689727 119.0 0.0 80.0 
162.00021075938363 11704.0 308.0 644.3928334439291 0.5001242201620252 120.0 0.0 80.0 
164.00021075938363 11702.0 308.0 644.374253483742 0.49948012375502004 119.0 1.0 79.0 
166.000084666035 11702.0 308.0 644.3822163238224 0.4994799742871837 119.0 1.0 79.0 
168.00021075938363 11702.0 308.0 644.4114134041135 0.4994800968799752 120.0 0.0 80.0 
170.00021075938363 11704.0 308.0 644.3901791639026 0.4995954374002135 120.0 0.0 80.0 
172.00021075938363 11702.0 308.0 644.3795620437954 0.5001122754203162 120.0 0.0 80.0 
174.00021075938363 11700.0 308.0 644.3848706038491 0.4996323414875033 120.0 0.0 80.0 
176.000084666035 11698.0 308.0 644.3848706038491 0.4994623326638723 120.0 0.0 80.0 
178.00021075938363 11698.0 308.0 644.3822163238224 0.4994625197186217 120.0 0.0 80.0 
180.00021075938363 11698.0 308.0 644.3981420039823 0.5003040783858298 120.0 0.0 80.0 
182.00021075938363 11688.0 308.0 641.3483742534845 0.5007341412075558 121.0 0.0 79.0 
184.00021075938363 11684.0 308.0 641.3483742534845 0.49949170213548266 121.0 0.0 79.0 
186.000084666035 11684.0 308.0 638.319840743198 0.49948234281952 121.0 0.0 78.0 
188.00021075938363 11684.0 308.0 638.3039150630402 0.4994825896148385 121.0 0.0 78.0 
190.00021075938363 11684.0 308.0 638.2773722627732 0.4998488858068572 121.0 0.0 78.0 
192.00021075938363 11678.0 308.0 638.3012607830135 0.5080784817487821 121.0 0.0 78.0 
194.00021075938363 11650.0 307.0 638.2694094226932 0.4994728689770309 121.0 0.0 78.0 
196.000084666035 11650.0 307.0 638.2879893828803 0.4995602468423379 121.0 0.0 78.0 
198.00021075938363 11649.0 307.0 638.2959522229601 0.4995920062067319 121.0 0.0 78.0 
200.00021075938363 11652.0 307.0 638.3012607830135 0.5000057640849316 121.0 0.0 78.0 
202.00021075938363 11644.0 307.0 638.3065693430648 0.49972479279568854 121.0 0.0 78.0 
204.00021075938363 11642.0 307.0 638.2932979429336 0.4996531743771405 121.0 0.0 78.0 
206.000084666035 11650.0 308.0 638.2853351028532 0.5092664274547133 121.0 0.0 78.0 
208.00021075938363 11624.0 307.0 638.2879893828803 0.4997570324518675 121.0 0.0 78.0 
210.00021075938363 11623.0 307.0 635.2514930325157 0.5001689525323496 121.0 0.0 77.0 
212.00021075938363 11615.0 307.0 635.2461844724625 0.49951494169943805 119.0 0.0 77.0 
214.00021075938363 11614.0 307.0 635.2276045122754 0.49939535900878756 116.0 1.0 76.0 
216.000084666035 11614.0 307.0 635.2276045122754 0.4993953571547405 115.0 1.0 76.0 
218.00021075938363 11614.0 307.0 635.1984074319838 0.49974590337410946 115.0 1.0 76.0 
220.00021075938363 11613.0 307.0 635.1904445919037 0.5003085969914212 115.0 1.0 76.0 
222.00021075938363 11606.0 307.0 635.1984074319838 0.49945114242270694 115.0 1.0 76.0 
224.00021075938363 11642.0 308.0 638.2508294625086 0.5002910006292107 118.0 0.0 78.0 
226.000084666035 11634.0 308.0 638.2694094226931 0.49936892485261236 119.0 0.0 78.0 
228.00021075938363 11634.0 308.0 638.237558062375 0.4993691365126508 119.0 0.0 78.0 
230.00021075938363 11673.0 309.0 638.2508294625086 0.5027281231606366 119.0 0.0 78.0 
232.00021075938363 11621.0 308.0 638.2322495023216 0.500216089178051 119.0 0.0 78.0 
234.00021075938363 11618.0 308.0 638.2667551426663 0.4997186117123628 119.0 0.0 78.0 
236.000084666035 11618.0 308.0 638.2455209024549 0.49975619344083505 119.0 0.0 78.0 
238.00021075938363 11615.0 308.0 638.2720637027198 0.5002337633337764 119.0 0.0 78.0 
240.00021075938363 11612.0 308.0 638.237558062375 0.49956444578422693 119.0 0.0 78.0 
242.00021075938363 11612.0 308.0 638.2508294625086 0.49956432340667856 119.0 0.0 78.0 
244.00021075938363 11612.0 308.0 638.2508294625086 0.4999058053900415 119.0 0.0 78.0 
246.000084666035 11608.0 308.0 638.2932979429336 0.4997739703576865 119.0 0.0 78.0 
248.00021075938363 11611.0 308.0 638.2879893828803 0.49969813117299755 119.0 0.0 78.0 
250.00021075938363 11614.0 308.0 638.3012607830135 0.4995792962861399 119.0 0.0 78.0 
252.00021075938363 11614.0 308.0 635.1984074319839 0.4995799957575314 119.0 0.0 77.0 
254.00021075938363 11614.0 308.0 635.2143331121441 0.5087119091424218 119.0 0.0 77.0 
256.00008466603504 11533.0 308.0 635.1798274717993 0.5017056058087546 118.0 0.0 77.0 
258.0002107593836 11524.0 307.0 635.1798274717993 0.5030456687855872 118.0 0.0 77.0 
260.0002107593836 11506.0 307.0 635.1824817518238 0.4997502158983494 118.0 0.0 77.0 
262.0002107593836 11506.0 307.0 635.209024552091 0.49975008470696847 118.0 0.0 77.0 
264.0002107593836 11506.0 307.0 635.1904445919035 0.49975024088037956 118.0 0.0 77.0 
266.00008466603504 11515.0 307.0 635.209024552091 0.49852604845029164 118.0 0.0 77.0 
268.0002107593836 11537.0 308.0 635.1930988719305 0.4995853161213576 118.0 0.0 77.0 
270.0002107593836 11544.0 308.0 635.2116788321176 0.49973878980669706 118.0 0.0 77.0 
272.0002107593836 11544.0 308.0 635.1877903118772 0.4997389069618349 118.0 0.0 77.0 
274.0002107593836 11544.0 308.0 635.216987392171 0.4998259410982444 118.0 0.0 77.0 
276.00008466603504 11545.0 308.0 635.1745189117458 0.5000959031045584 118.0 0.0 77.0 
278.0002107593836 11544.0 308.0 635.2143331121441 0.49975233170430305 118.0 0.0 77.0 
280.0002107593836 11546.0 308.0 635.1957531519571 0.4996868261919268 118.0 0.0 77.0 
282.0002107593836 11546.0 308.0 629.0988719309881 0.4997137927602716 117.0 0.0 75.0 
284.0002107593836 11546.0 308.0 629.0962176509615 0.49972976303916933 117.0 0.0 75.0 
286.00008466603504 11546.0 308.0 629.120106171202 0.5005363115145544 117.0 0.0 75.0 
288.0002107593836 11544.0 308.0 629.077637690777 0.50095621164151 117.0 0.0 75.0 
290.0002107593836 11546.0 308.0 629.1174518911753 0.4996305777409156 117.0 0.0 75.0 
292.0002107593836 11546.0 308.0 629.0988719309881 0.4998539248784267 117.0 0.0 75.0 
294.0002107593836 11544.0 308.0 629.0988719309881 0.49961734049096584 117.0 0.0 75.0 
296.00008466603504 11552.0 308.0 629.0962176509615 0.49993589699884716 117.0 0.0 75.0 
298.0002107593836 11552.0 308.0 629.120106171202 0.5002019283297662 117.0 0.0 75.0 
300.0002107593836 11550.0 308.0 629.077637690777 0.5020522026117741 117.0 0.0 75.0 
302.0002107593836 11540.0 308.0 629.1174518911753 0.4997182349604928 117.0 0.0 75.0 
304.0002107593836 11540.0 308.0 629.0988719309881 0.4997180566173792 117.0 0.0 75.0 
306.00008466603504 11542.0 308.0 629.0988719309881 0.5000018418889384 117.0 0.0 75.0 
308.0002107593836 11540.0 308.0 629.0962176509615 0.5022788960864953 117.0 0.0 75.0 
310.0002107593836 11534.0 308.0 629.120106171202 0.5018829918748148 117.0 0.0 75.0 
312.0002107593836 11526.0 308.0 629.077637690777 0.49965240113362164 117.0 0.0 75.0 
314.0002107593836 11526.0 308.0 632.1804910418044 0.49963868081762497 117.0 0.0 76.0 
316.00008466603504 11533.0 308.0 632.1778367617777 0.49960665867739396 117.0 0.0 76.0 
318.0002107593836 11534.0 308.0 632.167219641673 0.49963453563924426 117.0 0.0 76.0 
320.0002107593836 11534.0 308.0 632.1725282017242 0.4996340728599777 117.0 0.0 76.0 
322.0002107593836 11534.0 308.0 632.1804910418044 0.49963396925209835 117.0 0.0 76.0 
324.0002107593836 11534.0 308.0 635.2276045122755 0.4996317166331336 117.0 0.0 77.0 
326.00008466603504 11536.0 308.0 635.240875912409 0.49962361987940296 117.0 0.0 77.0 
328.0002107593836 11536.0 308.0 635.2488387524888 0.4996233934194364 117.0 0.0 77.0 
330.0002107593836 11536.0 308.0 635.209024552091 0.5017214164982019 117.0 0.0 77.0 
332.0002107593836 11528.0 308.0 635.2435301924357 0.4996289152120597 117.0 0.0 77.0 
334.0002107593836 11528.0 308.0 635.2302587923019 0.4996287022847643 117.0 0.0 77.0 
336.00008466603504 11530.0 308.0 635.2249502322488 0.49962752872111565 117.0 0.0 77.0 
338.0002107593836 11530.0 308.0 635.2276045122755 0.4996272302974095 117.0 0.0 77.0 
340.0002107593836 11530.0 308.0 635.240875912409 0.5008993527883112 117.0 0.0 77.0 
342.0002107593836 11524.0 308.0 635.2037159920376 0.4995893125220704 117.0 0.0 77.0 
344.0002107593836 11524.0 308.0 635.2382216323822 0.49958895309514045 117.0 0.0 77.0 
346.00008466603504 11524.0 308.0 635.2302587923019 0.49958866472978775 117.0 0.0 77.0 
348.0002107593836 11524.0 308.0 635.2249502322488 0.4995892561828479 117.0 0.0 77.0 
350.0002107593836 11524.0 308.0 635.2329130723288 0.5001290367788597 117.0 0.0 77.0 
352.0002107593836 11522.0 308.0 635.2514930325157 0.4996202136535629 117.0 0.0 77.0 
354.0002107593836 11522.0 308.0 635.2143331121439 0.4996207921378691 117.0 0.0 77.0 
356.00008466603504 11523.0 308.0 635.2488387524888 0.49959688119021234 116.0 0.0 77.0 
358.0002107593836 11534.0 309.0 635.2355673523554 0.4987765902451824 116.0 0.0 77.0 
360.0002107593836 11549.0 309.0 635.2302587923019 0.5051622661709556 116.0 0.0 77.0 
362.0002107593836 11532.0 309.0 635.2329130723288 0.4997683864503428 116.0 0.0 77.0 
364.0002107593836 11532.0 309.0 635.2488387524888 0.4997681181683591 116.0 0.0 77.0 
366.00008466603504 11535.0 309.0 635.2010617120109 0.5009214277536601 117.0 0.0 77.0 
368.0002107593836 11519.0 309.0 635.2514930325157 0.5021168925067826 117.0 0.0 77.0 
370.0002107593836 11511.0 309.0 638.2853351028532 0.506936520323843 117.0 0.0 78.0 
372.0002107593836 11496.0 308.0 638.3145321831445 0.49990811628588877 117.0 0.0 78.0 
374.0002107593836 11493.0 308.0 638.2800265427998 0.4996692359457576 117.0 0.0 78.0 
376.00008466603504 11492.0 308.0 638.3065693430648 0.4999907191754295 117.0 0.0 78.0 
378.0002107593836 11486.0 308.0 638.2349037823484 0.501114123200529 117.0 0.0 78.0 
380.0002107593836 11482.0 308.0 638.2986065029868 0.4993228009262512 117.0 0.0 78.0 
382.0002107593836 11482.0 308.0 635.214333112144 0.49952003336904277 117.0 0.0 77.0 
384.0002107593836 11481.0 308.0 635.214333112144 0.4996194508004848 117.0 0.0 77.0 
386.00008466603504 11503.0 309.0 635.2063702720643 0.5009042018094478 118.0 0.0 77.0 
388.0002107593836 11506.0 309.0 635.2382216323822 0.5029094883677012 118.0 0.0 77.0 
390.0002107593836 11492.0 308.0 635.1877903118773 0.49993498261242275 118.0 0.0 77.0 
392.0002107593836 11490.0 308.0 635.2461844724626 0.4996701149254136 118.0 0.0 77.0 
394.0002107593836 11489.0 308.0 635.214333112144 0.4997307681759342 118.0 0.0 77.0 
396.00008466603504 11493.0 308.0 635.2169873921708 0.500109171654467 119.0 0.0 77.0 
398.0002107593836 11493.0 308.0 635.2169873921708 0.4999423127679225 119.0 0.0 77.0 
400.0002107593836 11491.0 308.0 635.2568015925691 0.4998031510581456 119.0 0.0 77.0 
402.0002107593836 11490.0 308.0 635.214333112144 0.49956968853938 119.0 0.0 77.0 
404.0002107593836 11490.0 308.0 638.3171864631713 0.4996481475453344 119.0 0.0 78.0 
406.00008466603504 11527.0 309.0 638.3092236230915 0.49985163793481047 119.0 0.0 78.0 
408.0002107593836 11529.0 309.0 638.2986065029868 0.5006445219143438 119.0 0.0 78.0 
410.0002107593836 11524.0 309.0 638.3065693430648 0.4999979141011823 119.0 0.0 78.0 
412.0002107593836 11522.0 309.0 641.3802256138031 0.4993871685077398 120.0 0.0 79.0 
414.0002107593836 11522.0 309.0 641.3271400132709 0.4993652248896043 124.0 0.0 79.0 
416.00008466603504 11523.0 309.0 641.3696084936959 0.49935037912535324 124.0 0.0 79.0 
418.0002107593836 11524.0 309.0 641.3722627737227 0.5031409445936202 124.0 0.0 79.0 
420.0002107593836 11515.0 308.0 641.3483742534845 0.5075462434084911 124.0 0.0 79.0 
422.0002107593836 11508.0 308.0 641.3483742534845 0.4993764232634398 124.0 0.0 79.0 
424.0002107593836 11508.0 308.0 638.319840743198 0.49959079431786974 123.0 0.0 78.0 
426.00008466603504 11507.0 308.0 641.3616456536156 0.49979424595188143 119.0 0.0 79.0 
428.0002107593836 11507.0 308.0 641.3934970139339 0.4992623839529526 119.0 0.0 79.0 
430.0002107593836 11508.0 308.0 641.3934970139339 0.4993299717700587 119.0 0.0 79.0 
432.0002107593836 11508.0 308.0 638.3304578633051 0.5062650378350737 119.0 0.0 78.0 
434.0002107593836 11444.0 307.0 638.319840743198 0.49938413815309074 119.0 0.0 78.0 
436.00008466603504 11444.0 307.0 638.319840743198 0.4993840004055665 119.0 0.0 78.0 
438.0002107593836 11444.0 307.0 638.2826808228265 0.4993845219699292 119.0 0.0 78.0 
440.0002107593836 11444.0 307.0 638.3118779031179 0.4996490157539856 119.0 0.0 78.0 
442.0002107593836 11442.0 307.0 638.3039150630404 0.4994117390793365 119.0 0.0 78.0 
444.0002107593836 11442.0 307.0 638.2932979429337 0.5024195486294168 119.0 0.0 78.0 
446.00008466603504 11424.0 307.0 638.3012607830137 0.5160654974856191 120.0 0.0 78.0 
448.0002107593836 11371.0 306.0 638.3145321831444 0.5046849048956298 120.0 0.0 78.0 
450.0002107593836 11358.0 306.0 638.2826808228265 0.4997867614027566 120.0 0.0 78.0 
452.0002107593836 11395.0 306.0 638.3118779031179 0.49864200361372063 120.0 0.0 78.0 
454.0002107593836 11454.0 307.0 638.3039150630404 0.49973992647758975 120.0 0.0 78.0 
456.00008466603504 11535.0 309.0 638.2932979429337 0.5036673229950546 120.0 0.0 78.0 
458.0002107593836 11514.0 308.0 638.3012607830137 0.5000269350172829 120.0 0.0 78.0 
460.0002107593836 11513.0 308.0 638.3145321831444 0.5104481720636005 120.0 0.0 78.0 
462.0002107593836 11406.0 307.0 638.2826808228265 0.4997567704708636 120.0 0.0 78.0 
464.0002107593836 11410.0 307.0 638.3118779031179 0.49980933481827455 120.0 0.0 78.0 
466.00008466603504 11425.0 307.0 638.3039150630404 0.49967275513756576 120.0 0.0 78.0 
468.0002107593836 11430.0 307.0 638.2932979429337 0.4997528987883916 120.0 0.0 78.0 
470.0002107593836 11432.0 307.0 638.3012607830137 0.5001121529552898 120.0 0.0 78.0 
472.0002107593836 11435.0 307.0 638.3145321831444 0.500013766945201 120.0 0.0 78.0 
474.0002107593836 11438.0 307.0 635.2382216323822 0.4998191250890189 119.0 0.0 77.0 
476.00008466603504 11469.0 307.0 635.2674187126734 0.49980413617751307 118.0 0.0 77.0 
478.0002107593836 11471.0 307.0 635.2594558725935 0.5000455722915692 118.0 0.0 77.0 
480.0002107593836 11583.0 308.0 635.2488387524891 0.5001432886886983 118.0 0.0 77.0 
482.0002107593836 11583.0 308.0 635.2568015925692 0.4997752699706357 118.0 0.0 77.0 
484.0002107593836 11584.0 308.0 635.2700729927002 0.4997790667395272 118.0 0.0 77.0 
486.00008466603504 11632.0 308.0 635.2382216323822 0.49994496901790464 118.0 0.0 77.0 
488.0002107593836 11632.0 308.0 635.2674187126734 0.49977042611937833 118.0 0.0 77.0 
490.0002107593836 11632.0 308.0 635.2594558725935 0.49977007615484315 118.0 0.0 77.0 
492.0002107593836 11634.0 308.0 635.2488387524891 0.4997722250552921 118.0 0.0 77.0 
494.0002107593836 11634.0 308.0 635.2568015925692 0.49977174274632896 118.0 0.0 77.0 
496.00008466603504 11647.0 308.0 632.2282680822826 0.5001710127917952 117.0 0.0 76.0 
498.0002107593836 11649.0 308.0 632.201725282018 0.5006504162869327 115.0 0.0 76.0 
500.0002107593836 11652.0 308.0 632.2256138022558 0.4998041986467575 115.0 0.0 76.0 
502.0002107593836 11652.0 308.0 632.1964167219647 0.49980404008931995 115.0 0.0 76.0 
504.0002107593836 11652.0 308.0 632.2123424021224 0.49980807884909767 115.0 0.0 76.0 
506.00008466603504 11652.0 308.0 632.1990710019913 0.5111625548485291 115.0 0.0 76.0 
508.0002107593836 11594.0 307.0 632.1964167219647 0.5000958935399384 115.0 0.0 76.0 
510.0002107593836 11592.0 307.0 632.1645653616464 0.49974924782791746 115.0 0.0 76.0 
512.0002107593835 11592.0 307.0 632.193762441938 0.4997490741723114 115.0 0.0 76.0 
514.0002107593835 11592.0 307.0 632.1964167219647 0.49974864166992755 115.0 0.0 76.0 
516.000084666035 11596.0 307.0 632.1751824817509 0.5030320753954782 116.0 0.0 76.0 
518.0002107593835 11539.0 306.0 632.1884538818842 0.5073711548327853 116.0 0.0 76.0 
520.0002107593835 11504.0 306.0 632.2043795620447 0.4995165884499344 116.0 0.0 76.0 
522.0002107593835 11504.0 306.0 629.1227604512287 0.49953667203588137 116.0 0.0 75.0 
524.0002107593835 11504.0 306.0 629.1625746516247 0.49954125018438933 112.0 0.0 75.0 
526.000084666035 11549.0 307.0 629.1360318513597 0.5001626046207075 113.0 0.0 75.0 
528.0002107593835 11546.0 307.0 629.1174518911752 0.5016633494267678 113.0 0.0 75.0 
530.0002107593835 11542.0 307.0 632.2362309223629 0.4995339397734788 116.0 0.0 76.0 
532.0002107593835 11542.0 307.0 632.2256138022558 0.49953427610831025 117.0 0.0 76.0 
534.0002107593835 11542.0 307.0 632.1884538818842 0.49953439571827274 117.0 0.0 76.0 
536.000084666035 11551.0 307.0 638.3357664233585 0.49983472321654215 119.0 0.0 78.0 
538.0002107593835 11548.0 307.0 641.3616456536156 0.4996062454431918 120.0 0.0 79.0 
540.0002107593835 11549.0 307.0 641.3510285335112 0.5004664944231715 120.0 0.0 79.0 
542.0002107593835 11548.0 307.0 644.3954877239553 0.499475179609417 120.0 0.0 80.0 
544.0002107593835 11548.0 307.0 644.3954877239553 0.49947515033301354 120.0 0.0 80.0 
546.000084666035 11569.0 308.0 644.3556735235571 0.49867102993464024 119.0 0.0 80.0 
548.0002107593835 11610.0 308.0 644.4193762441938 0.49947688986995364 119.0 0.0 80.0 
550.0002107593835 11612.0 308.0 647.4691439946918 0.499623704045124 119.0 0.0 81.0 
552.0002107593835 11611.0 308.0 647.4850696748515 0.49973153881844073 119.0 0.0 81.0 
554.0002107593835 11610.0 308.0 647.5116124751165 0.4994655681694595 119.0 0.0 81.0 
556.000084666035 11618.0 308.0 650.6144658261442 0.4994349518006535 119.0 0.0 82.0 
558.0002107593835 11621.0 308.0 650.5215660252161 0.49947576368814306 119.0 0.0 82.0 
560.0002107593835 11622.0 308.0 650.569343065694 0.4995297760720943 119.0 0.0 82.0 
562.0002107593835 11643.0 309.0 650.5428002654272 0.4993550736198655 119.0 0.0 82.0 
564.0002107593835 11738.0 311.0 650.5348374253476 0.5089546864776981 119.0 0.0 82.0 
566.000084666035 11700.0 310.0 653.6058394160589 0.4998896150893724 119.0 0.0 83.0 
568.0002107593835 11701.0 310.0 653.5792966157935 0.49986422468166014 120.0 0.0 83.0 
570.0002107593835 11702.0 310.0 653.5315195753157 0.5000794130906974 120.0 0.0 83.0 
572.0002107593835 11712.0 310.0 653.5580623755803 0.500089147312846 120.0 0.0 83.0 
574.0002107593835 11750.0 310.0 653.5766423357668 0.5000106010469834 120.0 0.0 83.0 
576.000084666035 11749.0 310.0 653.5394824153954 0.5003901274847682 120.0 0.0 83.0 
578.0002107593835 11746.0 310.0 653.571333775714 0.4997654876630093 120.0 0.0 83.0 
580.0002107593835 11746.0 310.0 653.5792966157935 0.5002028665115815 120.0 0.0 83.0 
582.0002107593835 11749.0 310.0 653.5633709356339 0.4996807255416122 120.0 0.0 83.0 
584.0002107593835 11772.0 310.0 653.616456536165 0.4996453625446548 120.0 0.0 83.0 
586.000084666035 11774.0 310.0 653.5925680159253 0.49988468993132823 120.0 0.0 83.0 
588.0002107593835 11786.0 311.0 653.5607166556069 0.4996600413463125 120.0 0.0 83.0 
590.0002107593835 11796.0 311.0 653.5766423357668 0.49978970020422736 120.0 0.0 83.0 
592.0002107593835 11800.0 311.0 653.5554080955536 0.4997166904927795 120.0 0.0 83.0 
594.0002107593835 11830.0 311.0 653.5500995355005 0.4995163436756787 120.0 0.0 83.0 
596.000084666035 11861.0 312.0 653.5447909754473 0.5004343414429508 120.0 0.0 83.0 
598.0002107593835 11895.0 312.0 650.4897146648977 0.50266975705376 120.0 0.0 82.0 
600.0002107593835 11879.0 312.0 650.5136031851359 0.49990333488583216 119.0 0.0 82.0 
602.0002107593835 11887.0 312.0 650.5321831453226 0.4993727343563587 117.0 0.0 82.0 
604.0002107593835 11904.0 312.0 650.540145985401 0.49977932923768376 116.0 0.0 82.0 
606.000084666035 11904.0 312.0 650.4764432647644 0.5001415986473878 116.0 0.0 82.0 
608.0002107593835 11924.0 312.0 650.5189117451896 0.4992755268188505 116.0 0.0 82.0 
610.0002107593835 11930.0 312.0 650.5162574651628 0.4994194664687623 116.0 0.0 82.0 
612.0002107593835 11935.0 312.0 650.4897146648977 0.49949246045076373 116.0 0.0 82.0 
614.0002107593835 11953.0 312.0 650.5428002654272 0.4996881578944352 116.0 0.0 82.0 
616.000084666035 11954.0 312.0 650.5136031851359 0.49950707390548676 116.0 0.0 82.0 
618.0002107593835 11965.0 312.0 650.4923689449245 0.5009800817239278 116.0 0.0 82.0 
620.0002107593835 11964.0 311.0 650.5189117451896 0.5076932941321715 116.0 0.0 82.0 
622.0002107593835 12060.0 312.0 653.5792966157937 0.49983776845614797 116.0 0.0 83.0 
624.0002107593835 12061.0 312.0 653.5633709356339 0.49981685041886575 116.0 0.0 83.0 
626.000084666035 12059.0 312.0 653.5686794956873 0.50025454462935 116.0 0.0 83.0 
628.0002107593835 12064.0 312.0 653.5660252156607 0.499389028384696 116.0 0.0 83.0 
630.0002107593835 12068.0 312.0 653.5500995355004 0.5003349188878815 116.0 0.0 83.0 
632.0002107593835 12066.0 312.0 659.6947577969474 0.49958295599123764 118.0 0.0 85.0 
634.0002107593835 12065.0 312.0 659.6814863968144 0.5000946864081462 120.0 0.0 85.0 
636.000084666035 12062.0 312.0 659.676177836761 0.5079811905169586 120.0 0.0 85.0 
638.0002107593835 11999.0 311.0 659.6841406768411 0.499424981417946 120.0 0.0 85.0 
640.0002107593835 12002.0 311.0 659.6735235567356 0.4994527756730954 120.0 0.0 85.0 
642.0002107593835 12004.0 311.0 659.6867949568673 0.49945086936030053 120.0 0.0 85.0 
644.0002107593835 12006.0 311.0 659.6841406768411 0.4997102875061357 121.0 0.0 85.0 
646.000084666035 12004.0 311.0 659.6629064366296 0.4994711696070451 121.0 0.0 85.0 
648.0002107593835 12009.0 311.0 659.6416721964163 0.499421499942131 121.0 0.0 85.0 
650.0002107593835 12012.0 311.0 659.6788321167879 0.49950090825812943 120.0 0.0 85.0 
652.0002107593835 12045.0 312.0 659.6629064366296 0.49904492752031077 120.0 0.0 85.0 
654.0002107593835 12054.0 312.0 659.7053749170539 0.5008117706479315 120.0 0.0 85.0 
656.000084666035 12046.0 312.0 659.6575978765761 0.5005509183489643 120.0 0.0 85.0 
658.0002107593835 12057.0 312.0 659.6921035169207 0.5004376473692841 119.0 0.0 85.0 
660.0002107593835 12060.0 312.0 659.6416721964163 0.4996956697232079 118.0 0.0 85.0 
662.0002107593835 12068.0 312.0 659.6735235567356 0.4999911168076779 119.0 0.0 85.0 
664.0002107593835 12068.0 312.0 659.6496350364957 0.4998521630260655 121.0 0.0 85.0 
#####################################################################
# End of data export. Simulation finished at: 2019-03-09T23:03+0000 #
#####################################################################
