#####################################################################
# Alchemist log file - simulation started at: 2019-03-08T02:43+0000 #
#####################################################################
# seed = 2.0, bandwidth = 2.3713737056616552E7, accessPointCount = 72.92664737217109, baserange = 1000.0
#
# The columns have the following meaning: 
# time neighbor_count[Sum] <value>@neighbor_count[Sum] packet_size[Mean] mean_delay[Mean] crowd[Sum] overcrowded[Sum] risk[Sum] 
0.0 NaN NaN NaN NaN NaN NaN NaN 
10.000582979052751 37195.0 1333.0 4992.242192479286 0.5695568041083978 1496.0 1.0 1496.0 
20.00058297905275 37164.0 1246.0 4992.922880815806 0.501038938093804 1496.0 1.0 1496.0 
30.00058297905275 37164.0 1246.0 4992.7316762268965 0.5010200014062668 1495.0 2.0 1495.0 
40.00058297905275 37163.0 1246.0 4992.78776290631 0.502156125751804 1496.0 1.0 1496.0 
50.00058297905275 37080.0 1247.0 4992.948374760994 0.5007698598016148 1497.0 0.0 1497.0 
60.00058297905275 37086.0 1248.0 4990.031867431485 0.5012711760374927 1496.0 0.0 1496.0 
70.00045353582574 37078.0 1249.0 1383.1612492033132 0.5018278771011816 482.0 2.0 333.0 
80.0004366679656 37280.0 1247.0 1391.8368387507978 0.5020305711799002 474.0 1.0 337.0 
90.0004366679656 37179.0 1246.0 1394.773741236457 0.5028099156227557 472.0 1.0 338.0 
100.0004366679656 37150.0 1245.0 1394.7049075844475 0.5032141643271894 472.0 1.0 338.0 
110.00040293224534 36921.0 1244.0 1400.662842574888 0.5011818754499668 471.0 1.0 340.0 
120.00036919652506 36827.0 1242.0 1406.4907584448706 0.5007175132462508 473.0 1.0 342.0 
130.00036919652507 36882.0 1242.0 1403.683875079668 0.500730908442148 471.0 2.0 340.0 
140.00058297905275 36872.0 1242.0 1409.4684512428291 0.5007685231976285 466.0 1.0 343.0 
150.00058297905275 36921.0 1242.0 1409.5245379222417 0.5007489861503757 466.0 1.0 343.0 
160.00058297905275 36926.0 1242.0 1406.567240280433 0.5007720253374621 468.0 1.0 342.0 
170.00058297905275 36998.0 1243.0 1412.3467176545578 0.501293952978922 470.0 0.0 345.0 
180.00058297905275 37052.0 1243.0 1406.5876354365826 0.5018500713272609 469.0 0.0 343.0 
190.00058297905275 36999.0 1242.0 1406.5188017845744 0.5010162476694073 467.0 1.0 342.0 
200.00058297905275 37030.0 1242.0 1406.5621414913965 0.5009785616767192 469.0 1.0 342.0 
210.00058297905275 37053.0 1243.0 1394.7762906309745 0.5013026952512731 463.0 1.0 338.0 
220.00058297905275 37135.0 1244.0 1400.644996813258 0.5042638694015115 457.0 6.0 335.0 
230.00058297905275 37195.0 1242.0 1397.7947737412373 0.5013663375456185 457.0 4.0 336.0 
240.00058297905275 37282.0 1243.0 1397.6494582536639 0.5014530700032178 461.0 2.0 338.0 
250.00058297905275 37288.0 1243.0 1394.7227533460791 0.5015341056577449 464.0 0.0 339.0 
260.00058297905275 37322.0 1244.0 1388.8922880815803 0.5016409541189181 463.0 0.0 337.0 
270.00058297905275 37411.0 1246.0 1403.4952198852752 0.5030937577017749 461.0 2.0 340.0 
280.00018365006355 37321.0 1247.0 1403.5411089866166 0.5021216958185388 465.0 0.0 342.0 
290.00018365006355 37205.0 1245.0 1403.4442319949012 0.5036180201536294 460.0 2.0 340.0 
300.00018365006355 37123.0 1245.0 1400.517527087318 0.5013037542080453 457.0 1.0 340.0 
310.0001499143433 37045.0 1246.0 1403.5360101975775 0.5011914102302009 456.0 0.0 342.0 
320.00013304648314 36918.0 1247.0 1394.610579987251 0.5010935525501431 449.0 6.0 333.0 
330.00013304648314 36756.0 1246.0 1391.719566602933 0.5017435510931528 453.0 4.0 334.0 
340.00013304648314 36511.0 1245.0 1391.694072657743 0.5015948360421026 452.0 6.0 332.0 
350.00013304648314 36348.0 1245.0 1394.697259400891 0.5014424599546743 461.0 4.0 335.0 
360.000116178623 36083.0 1243.0 1391.7629063097513 0.5037359454528337 454.0 6.0 332.0 
370.000116178623 35793.0 1241.0 1368.132568514977 0.5020122473104995 459.0 4.0 326.0 
380.00008244290274 35640.0 1239.0 1371.0414276609295 0.506301974707648 457.0 6.0 325.0 
390.0000487071825 35627.0 1239.0 1371.1434034416823 0.5069792678061459 459.0 6.0 325.0 
400.00003183932233 35416.0 1239.0 1374.1159974506056 0.5043477399342498 461.0 5.0 327.0 
410.0000149714622 35045.0 1236.0 1394.5289993626523 0.5031772815987249 465.0 4.0 335.0 
420.00058297905275 34899.0 1233.0 1379.87253027406 0.5021038520209314 469.0 3.0 331.0 
430.00058297905275 34842.0 1232.0 1379.8215423836855 0.5024559897235991 465.0 3.0 331.0 
440.00058297905275 34851.0 1232.0 1388.5608667941356 0.5016915610869654 471.0 4.0 333.0 
450.00058297905275 34850.0 1235.0 1391.6507329509247 0.5020448560277713 468.0 4.0 334.0 
460.00058297905275 34739.0 1235.0 1403.2963671128118 0.5038584139127003 464.0 6.0 336.0 
470.00058297905275 34586.0 1231.0 1379.9209687699163 0.5027311448657816 460.0 4.0 330.0 
480.00058297905275 34485.0 1230.0 1365.3205863607388 0.5022723926153843 452.0 5.0 324.0 
490.00058297905275 34486.0 1231.0 1347.7144678138934 0.5053635609556129 451.0 4.0 319.0 
500.00058297905275 34529.0 1231.0 1341.7412364563415 0.5049832958612593 442.0 6.0 315.0 
510.00058297905275 34432.0 1228.0 1344.711281070745 0.5062962654900687 445.0 4.0 318.0 
520.0005829790528 34451.0 1227.0 1327.0133843212232 0.5036151320466077 444.0 4.0 312.0 
530.0005829790528 34424.0 1228.0 1306.6590184831116 0.5023433677198651 440.0 4.0 305.0 
540.0005829790528 34496.0 1229.0 1306.5901848311012 0.501997228081156 440.0 3.0 306.0 
550.0005829790528 34380.0 1229.0 1306.5876354365846 0.5018574256952215 443.0 3.0 306.0 
560.0005829790528 34318.0 1228.0 1294.8961121733587 0.501741007413616 435.0 3.0 302.0 
570.0005829790528 34495.0 1230.0 1306.6488209050337 0.5037463551133194 440.0 2.0 307.0 
580.0005829790528 34473.0 1230.0 1312.6985340981535 0.5026605687836251 441.0 4.0 307.0 
590.0005829790528 34512.0 1230.0 1321.2721478648823 0.5075707388940719 445.0 3.0 311.0 
600.0005829790528 34375.0 1226.0 1321.292543021034 0.5018801483269894 450.0 4.0 310.0 
610.0005829790528 34450.0 1227.0 1318.2791586998098 0.50230374975437 451.0 3.0 310.0 
620.0005829790528 34467.0 1227.0 1321.3103887826633 0.502311323890981 447.0 4.0 310.0 
630.0005829790528 34508.0 1229.0 1321.3766730401514 0.5039212953829009 445.0 3.0 311.0 
640.0005829790528 34640.0 1228.0 1327.202039515616 0.5023788206767533 446.0 3.0 313.0 
650.0005829790528 34674.0 1229.0 1330.1516889738673 0.5031987964946723 443.0 3.0 314.0 
660.0005829790528 34654.0 1227.0 1339.0516252390048 0.5026467259117201 441.0 3.0 317.0 
#####################################################################
# End of data export. Simulation finished at: 2019-03-08T03:12+0000 #
#####################################################################
