#####################################################################
# Alchemist log file - simulation started at: 2019-03-05T22:02+0000 #
#####################################################################
# seed = 8.0, bandwidth = 1333521.4321633242, accessPointCount = 19.39227447486858, baserange = 1000.0
#
# The columns have the following meaning: 
# time neighbor_count[Sum] <value>@neighbor_count[Sum] packet_size[Mean] mean_delay[Mean] crowd[Sum] overcrowded[Sum] risk[Sum] 
0.0 NaN NaN NaN NaN NaN NaN NaN 
2.000927030832833 6292.0 616.0 4988.4142480211085 0.4047464420540411 1497.0 0.0 1497.0 
4.000927030832833 18573.0 743.0 4989.941952506596 0.49530010972261024 1497.0 0.0 1497.0 
6.000198348008885 26213.0 733.0 4990.97889182058 0.5173330946257623 1497.0 0.0 1497.0 
8.00016951281429 33667.0 736.0 4991.891820580475 0.5433501474995308 1497.0 0.0 1497.0 
10.000927030832834 40411.0 746.0 4992.540897097625 0.5761294799906806 1497.0 0.0 1497.0 
12.000927030832834 41887.0 724.0 4992.699208443271 0.5576433218919413 1497.0 0.0 1497.0 
14.000927030832834 40692.0 694.0 4992.691292875989 0.5007613116436014 1496.0 1.0 1496.0 
16.000198348008887 40692.0 694.0 4992.902374670185 0.5008243189478624 1496.0 1.0 1496.0 
18.000927030832834 40692.0 694.0 4992.8891820580475 0.500800379060038 1497.0 0.0 1497.0 
20.000927030832834 40692.0 694.0 4992.862796833773 0.5007702144551395 1497.0 0.0 1497.0 
22.000927030832834 40721.0 694.0 4992.8891820580475 0.5007967050787833 1497.0 0.0 1497.0 
24.000927030832834 40739.0 694.0 4992.730870712401 0.5007419354833407 1497.0 0.0 1497.0 
26.000198348008887 40740.0 694.0 4992.7994722955145 0.5010963670981987 1497.0 0.0 1497.0 
28.000927030832834 40736.0 694.0 4992.968337730871 0.5008761397400753 1497.0 0.0 1497.0 
30.000927030832834 40735.0 694.0 4992.786279683377 0.5008070097357736 1497.0 0.0 1497.0 
32.000927030832834 40751.0 694.0 4992.775725593668 0.5007851036105246 1497.0 0.0 1497.0 
34.000927030832834 40760.0 694.0 4992.85488126649 0.5008655176445747 1497.0 0.0 1497.0 
36.00019834800889 40758.0 694.0 4992.802110817942 0.5046722239507775 1497.0 0.0 1497.0 
38.000927030832834 40692.0 693.0 4992.910290237467 0.5008009299599888 1497.0 0.0 1497.0 
40.000927030832834 40692.0 693.0 4992.936675461741 0.5008064749937108 1497.0 0.0 1497.0 
42.000927030832834 40695.0 693.0 4992.751978891821 0.5009523734937997 1497.0 0.0 1497.0 
44.000927030832834 40694.0 693.0 4992.717678100264 0.5008229159285865 1497.0 0.0 1497.0 
46.00019834800889 40692.0 693.0 4992.902374670185 0.5010745557495493 1497.0 0.0 1497.0 
48.000927030832834 40778.0 694.0 4992.844327176781 0.5013091029917055 1497.0 0.0 1497.0 
50.000927030832834 40782.0 694.0 4992.820580474934 0.5012573506136389 1497.0 0.0 1497.0 
52.000927030832834 40784.0 694.0 4992.860158311346 0.5013035661171557 1497.0 0.0 1497.0 
54.000927030832834 40783.0 694.0 4992.68073878628 0.5014349584102399 1497.0 0.0 1497.0 
56.00019834800889 40780.0 694.0 4992.802110817942 0.5011547722580961 1497.0 0.0 1497.0 
58.000927030832834 40790.0 694.0 4992.960422163588 0.5011753969385935 1497.0 0.0 1497.0 
60.000927030832834 40792.0 694.0 4992.820580474934 0.501097763791456 1497.0 0.0 1497.0 
62.00031572518472 40792.0 694.0 1253.5804749340375 0.4923078626234504 514.0 0.0 281.0 
64.00031572518472 40791.0 694.0 1253.593667546176 0.4979334694815944 437.0 4.0 277.0 
66.0001983480089 40787.0 694.0 1250.5118733509223 0.497737822985832 400.0 12.0 268.0 
68.00061568286846 40928.0 695.0 1250.564643799472 0.4999011531981267 384.0 10.0 270.0 
70.00061568286846 40892.0 694.0 1253.5382585751981 0.49814447792157274 381.0 6.0 275.0 
72.00061568286846 40892.0 694.0 1247.5092348284961 0.49775552451509214 371.0 14.0 265.0 
74.00061568286846 40886.0 694.0 1247.459102902376 0.497746417566987 378.0 7.0 272.0 
76.0001983480089 40880.0 694.0 1247.4406332453839 0.49799672481548907 379.0 7.0 272.0 
78.00061568286846 40876.0 694.0 1247.4327176781017 0.4983989623067026 377.0 7.0 272.0 
80.00061568286846 40858.0 694.0 1247.3218997361464 0.4976794531610782 368.0 11.0 268.0 
82.00061568286846 40858.0 694.0 1247.4036939313999 0.49775652930240655 369.0 10.0 269.0 
84.00061568286846 40924.0 694.0 1250.3852242744078 0.4973135843556107 370.0 10.0 270.0 
86.0001983480089 41034.0 695.0 1253.472295514512 0.4976217552741994 366.0 13.0 268.0 
88.00061568286846 41038.0 695.0 1253.4248021108158 0.501634368465394 368.0 11.0 270.0 
90.00061568286846 40950.0 694.0 1253.4670184696556 0.49741716493342364 371.0 9.0 272.0 
92.00061568286846 40991.0 695.0 1253.382585751978 0.4974264312297145 369.0 12.0 269.0 
94.00061568286846 41022.0 695.0 1253.482849604222 0.4976610413113757 371.0 10.0 271.0 
96.0001983480089 41018.0 695.0 1253.3746701846958 0.4977353461229942 373.0 8.0 273.0 
98.00061568286846 41018.0 695.0 1253.4617414248019 0.49805493560651254 370.0 11.0 270.0 
100.00061568286846 41016.0 695.0 1253.416886543536 0.49756202728646903 372.0 9.0 272.0 
102.00061568286846 41030.0 695.0 1253.485488126648 0.4974546825148564 373.0 8.0 273.0 
104.00061568286846 41050.0 695.0 1253.350923482848 0.49761228577087 369.0 11.0 270.0 
106.0001983480089 41044.0 695.0 1253.4881266490777 0.4976567857107652 372.0 9.0 272.0 
108.00061568286846 41047.0 695.0 1253.4116094986798 0.4974636269847583 372.0 8.0 273.0 
110.00061568286846 41049.0 695.0 1253.4670184696556 0.49745077690045175 369.0 11.0 270.0 
112.00061568286846 41068.0 695.0 1256.4036939313999 0.49752532892228296 371.0 9.0 273.0 
114.00061568286846 41089.0 695.0 1256.514511873352 0.497966456804876 372.0 8.0 274.0 
116.0001983480089 41080.0 695.0 1256.4406332453839 0.497873136328463 370.0 11.0 271.0 
118.00061568286846 41079.0 695.0 1259.591029023746 0.4986012161578284 374.0 9.0 274.0 
120.00061568286846 41080.0 695.0 1262.485488126648 0.4980969761754486 376.0 8.0 276.0 
122.00061568286846 41087.0 695.0 1262.583113456464 0.4979196328875869 373.0 11.0 273.0 
124.00061568286846 41112.0 695.0 1262.5118733509223 0.49766064925205084 375.0 9.0 275.0 
126.0001983480089 41120.0 695.0 1262.591029023746 0.4979146897910938 375.0 8.0 276.0 
128.00061568286844 41118.0 695.0 1265.511873350922 0.4981605641859333 371.0 11.0 274.0 
130.00061568286844 41113.0 695.0 1265.635883905014 0.49786313669954146 372.0 10.0 275.0 
132.00061568286844 41115.0 695.0 1262.5435356200537 0.4978113673825385 372.0 8.0 276.0 
134.00061568286844 41121.0 695.0 1259.5540897097621 0.49763073145087666 370.0 8.0 275.0 
136.0001983480089 41117.0 695.0 1256.4749340369383 0.4977461058296838 368.0 9.0 273.0 
138.00061568286844 41119.0 695.0 1259.6094986807382 0.4981727960958089 362.0 12.0 271.0 
140.00061568286844 41126.0 695.0 1262.5751978891842 0.49801451062475466 363.0 12.0 272.0 
142.00061568286844 41126.0 695.0 1265.6094986807382 0.49817656892400436 367.0 9.0 276.0 
144.00061568286844 41134.0 695.0 1268.6385224274397 0.498156458025907 364.0 12.0 274.0 
146.0001983480089 41142.0 696.0 1268.633245382584 0.5022168611947848 364.0 12.0 274.0 
148.00061568286844 41006.0 695.0 1271.6992084432723 0.49815453471327314 364.0 12.0 275.0 
150.00061568286844 41007.0 695.0 1274.728232189974 0.498025531480197 366.0 11.0 277.0 
152.00061568286844 40992.0 695.0 1271.6121372031682 0.4978829397986696 368.0 9.0 278.0 
154.00031572518472 40983.0 695.0 1271.686015831136 0.4989072759807401 365.0 12.0 275.0 
156.0001983480089 40941.0 695.0 1271.6385224274397 0.5021357939424117 365.0 12.0 275.0 
158.00031572518472 40906.0 694.0 1271.6807387862802 0.4976747862074743 366.0 12.0 275.0 
160.00031572518472 40907.0 694.0 1271.6437994722962 0.497911140084781 368.0 12.0 275.0 
162.00031572518472 40920.0 694.0 1271.6649076517142 0.49856858658936537 366.0 12.0 275.0 
164.00031572518472 40894.0 694.0 1274.6622691292882 0.4980783722354696 366.0 12.0 276.0 
166.0001983480089 40887.0 694.0 1274.6992084432723 0.49785453508961425 366.0 12.0 276.0 
168.00031572518472 40978.0 695.0 1274.6622691292882 0.4979343140252259 366.0 12.0 276.0 
170.00031572518472 40978.0 695.0 1274.683377308706 0.49850639155537113 367.0 12.0 276.0 
172.00031572518472 40958.0 695.0 1274.6517150395757 0.49875286995820567 369.0 12.0 276.0 
174.00031572518472 40935.0 695.0 1280.759894459104 0.49822996688713944 371.0 12.0 278.0 
176.0001983480089 40919.0 695.0 1280.7493403693918 0.49803280111136733 371.0 12.0 278.0 
178.00031572518472 40930.0 695.0 1280.7651715039585 0.4978376106150742 371.0 12.0 278.0 
180.00031572518472 40933.0 695.0 1280.741424802112 0.49813170314384003 372.0 12.0 278.0 
182.00031572518472 40937.0 695.0 1280.7757255936656 0.4997640456416699 372.0 12.0 278.0 
184.00031572518472 40873.0 695.0 1280.7625329815294 0.4980702338888838 371.0 12.0 278.0 
186.0001983480089 40863.0 695.0 1280.7915567282319 0.4984679401600816 372.0 12.0 278.0 
188.00031572518472 40843.0 695.0 1283.8047493403678 0.4978650524123969 372.0 12.0 279.0 
190.00031572518472 40845.0 695.0 1277.7651715039583 0.4978754057463082 370.0 12.0 277.0 
192.00031572518472 40861.0 695.0 1277.7044854881283 0.5007813663077696 370.0 12.0 277.0 
194.00031572518472 40786.0 694.0 1280.7704485488146 0.49871254176590046 371.0 12.0 278.0 
196.0001983480089 40747.0 694.0 1280.7308707123998 0.4977536931247382 371.0 12.0 278.0 
198.00031572518472 40736.0 694.0 1277.736147757256 0.49718877749518187 371.0 12.0 277.0 
200.00031572518472 40738.0 694.0 1280.759894459104 0.49809700003443236 371.0 12.0 278.0 
202.00031572518472 40730.0 694.0 1280.746701846966 0.4977013778493013 373.0 12.0 278.0 
204.00031572518472 40716.0 694.0 1280.715039577838 0.4977206145181569 373.0 12.0 278.0 
206.0001983480089 40700.0 694.0 1280.741424802112 0.49765334509486625 373.0 12.0 278.0 
208.00031572518472 40699.0 694.0 1274.6649076517142 0.4974258454158888 371.0 12.0 276.0 
210.00031572518472 40686.0 694.0 1271.672823218998 0.4978752288843595 367.0 12.0 275.0 
212.00031572518472 40665.0 694.0 1268.6174142480222 0.49790416057129383 367.0 12.0 274.0 
214.00031572518472 40646.0 694.0 1271.6622691292882 0.4980213981204811 367.0 12.0 275.0 
216.0001983480089 40625.0 694.0 1274.6754617414238 0.4983929742948705 368.0 12.0 276.0 
218.00031572518472 40615.0 694.0 1268.6596306068618 0.49751120499467055 367.0 12.0 274.0 
220.00031572518472 40622.0 695.0 1268.609498680738 0.49808505563341626 366.0 12.0 274.0 
222.00031572518472 40602.0 695.0 1265.5725593667541 0.49816137328442955 366.0 12.0 273.0 
224.00031572518472 40583.0 695.0 1265.527704485488 0.49844138223036905 366.0 12.0 273.0 
226.0001983480089 40695.0 696.0 1265.5699208443284 0.49825929303154803 366.0 12.0 273.0 
228.00031572518472 40701.0 696.0 1268.554089709762 0.4984774077341388 366.0 12.0 274.0 
230.00031572518472 40682.0 696.0 1268.63060686016 0.4982109985704819 366.0 12.0 274.0 
232.00031572518472 40651.0 696.0 1271.6569920844317 0.49897728721320245 366.0 12.0 275.0 
234.00031572518472 40614.0 696.0 1274.704485488128 0.49892346983340863 366.0 12.0 276.0 
236.0001983480089 40586.0 696.0 1274.6622691292882 0.49861800661477496 366.0 12.0 276.0 
238.00031572518472 40584.0 696.0 1274.6569920844317 0.49820170236541156 366.0 12.0 276.0 
240.00031572518472 40570.0 696.0 1271.6253298153044 0.4980414198779619 366.0 12.0 275.0 
242.00031572518472 40549.0 696.0 1271.6437994722965 0.5042846036269166 366.0 12.0 275.0 
244.00031572518472 40504.0 695.0 1268.5699208443284 0.4981436782072621 366.0 12.0 274.0 
246.0001983480089 40511.0 695.0 1265.5461741424797 0.49770667705036625 366.0 12.0 273.0 
248.00031572518472 40517.0 695.0 1268.5751978891842 0.49824738719803957 366.0 12.0 274.0 
250.00031572518472 40502.0 695.0 1265.5751978891842 0.49804860357922265 366.0 12.0 273.0 
252.00031572518472 40485.0 695.0 1265.5488126649063 0.49915236501208177 367.0 12.0 273.0 
254.00031572518472 40431.0 695.0 1265.5435356200537 0.49885881645228997 367.0 12.0 273.0 
256.0001983480089 40399.0 695.0 1265.522427440632 0.4978228107324071 368.0 12.0 273.0 
258.0003157251847 40399.0 695.0 1265.5620052770455 0.4983157311506317 368.0 12.0 273.0 
260.0003157251847 40373.0 695.0 1262.501319261214 0.4981731918672471 368.0 12.0 272.0 
262.0003157251847 40342.0 695.0 1259.519788918206 0.4984170793343437 366.0 13.0 270.0 
264.0003157251847 40309.0 696.0 1259.5382585751981 0.4988439719459684 364.0 14.0 269.0 
266.0001983480089 40288.0 696.0 1259.540897097624 0.49822418462088186 368.0 10.0 273.0 
268.0003157251847 40274.0 696.0 1262.5092348284961 0.4987159380139637 370.0 9.0 275.0 
270.0003157251847 40247.0 696.0 1262.485488126648 0.5012714595323564 367.0 12.0 272.0 
272.0003157251847 40190.0 695.0 1262.50395778364 0.5026796724639421 367.0 12.0 272.0 
274.0003157251847 40172.0 696.0 1262.514511873352 0.49864715573909907 368.0 12.0 272.0 
276.0001983480089 40159.0 696.0 1262.445910290238 0.4981750051863607 367.0 13.0 271.0 
278.0003157251847 40143.0 696.0 1256.382585751978 0.49883462481529023 366.0 13.0 269.0 
280.0003157251847 40107.0 696.0 1259.4327176781019 0.49841139350439373 367.0 12.0 271.0 
282.0003157251847 40108.0 696.0 1259.4221635883919 0.49835937086911863 367.0 12.0 271.0 
284.0003157251847 40093.0 697.0 1259.3746701846958 0.49871855128812315 369.0 12.0 271.0 
286.0001983480089 40056.0 697.0 1259.4327176781019 0.4979563663837599 368.0 12.0 271.0 
288.0003157251847 40041.0 697.0 1259.4116094986798 0.5003564809901145 367.0 12.0 271.0 
290.0003157251847 39939.0 696.0 1262.437994722954 0.4988754941059612 366.0 12.0 272.0 
292.0003157251847 39899.0 696.0 1262.3984168865443 0.5021480017657205 365.0 12.0 272.0 
294.0003157251847 39794.0 695.0 1262.4221635883919 0.4979872380282603 365.0 12.0 272.0 
296.0001983480089 39772.0 695.0 1262.3825857519778 0.49769810946981774 365.0 12.0 272.0 
298.0003157251847 39751.0 695.0 1265.4802110817936 0.49783474130685174 364.0 12.0 273.0 
300.0003157251847 39739.0 695.0 1268.5356200527692 0.49984609028197324 364.0 12.0 274.0 
302.0003157251847 39652.0 695.0 1268.5540897097615 0.5037742239083457 364.0 12.0 274.0 
304.0003157251847 39574.0 694.0 1271.5778364116081 0.5013540464711281 364.0 12.0 275.0 
306.0001983480089 39461.0 693.0 1274.6200527704477 0.4985078209256617 364.0 12.0 276.0 
308.0003157251847 39432.0 693.0 1271.5699208443284 0.4985524380124445 362.0 12.0 275.0 
310.0003157251847 39405.0 693.0 1268.543535620054 0.4989573858123951 361.0 12.0 274.0 
312.0003157251847 39345.0 693.0 1268.49604221636 0.4987485170342028 363.0 12.0 274.0 
314.0003157251847 39406.0 693.0 1268.5883905013202 0.49838657287833865 364.0 12.0 274.0 
316.0001983480089 39457.0 694.0 1268.5250659630622 0.49792143525298216 364.0 12.0 274.0 
318.0003157251847 39428.0 694.0 1271.5699208443284 0.49851304000724306 365.0 12.0 275.0 
320.0003157251847 39409.0 694.0 1265.4538258575203 0.49900389767549946 362.0 12.0 273.0 
322.0003157251847 39357.0 694.0 1268.5540897097621 0.4996933949727637 363.0 12.0 274.0 
324.0003157251847 39301.0 694.0 1271.53562005277 0.4983462857387804 363.0 12.0 275.0 
326.0001983480089 39278.0 694.0 1271.572559366754 0.4981312701863797 364.0 12.0 275.0 
328.0003157251847 39252.0 694.0 1274.6754617414238 0.5024975917120397 363.0 13.0 275.0 
330.0003157251847 39165.0 693.0 1277.7387862796822 0.498951825117285 365.0 12.0 277.0 
332.0003157251847 39130.0 693.0 1277.609498680738 0.5057707627373852 365.0 12.0 277.0 
334.0003157251847 38921.0 691.0 1271.5620052770453 0.5033866673875248 363.0 12.0 275.0 
336.0001983480089 38852.0 690.0 1268.5382585751981 0.4991853954993741 364.0 12.0 274.0 
338.0003157251847 38787.0 689.0 1265.4934036939305 0.5015109021633042 363.0 13.0 272.0 
340.0003157251847 38749.0 689.0 1265.472295514512 0.5015234343110463 364.0 12.0 273.0 
342.0003157251847 38630.0 688.0 1268.564643799472 0.498661844411589 364.0 12.0 274.0 
344.0003157251847 38619.0 688.0 1271.5382585751981 0.49935462468688957 367.0 12.0 275.0 
346.0001983480089 38596.0 688.0 1271.5540897097621 0.4985572105954486 368.0 12.0 275.0 
348.0003157251847 38568.0 688.0 1268.4749340369385 0.5018118558223392 368.0 12.0 274.0 
350.000015767501 38509.0 687.0 1265.472295514512 0.5029478071700467 368.0 12.0 273.0 
352.000015767501 38434.0 687.0 1265.4300791556716 0.5030658710282949 371.0 12.0 273.0 
354.000015767501 38273.0 686.0 1262.395778364117 0.5032866685657688 371.0 13.0 271.0 
356.000015767501 38306.0 686.0 1262.4274406332459 0.5013784788895139 371.0 12.0 272.0 
358.000015767501 38286.0 685.0 1262.4221635883914 0.49812537970629395 370.0 12.0 272.0 
360.000015767501 38276.0 685.0 1262.3614775725603 0.49926921793571993 369.0 12.0 272.0 
362.000015767501 38246.0 685.0 1262.3350923482851 0.500431832030295 369.0 12.0 272.0 
364.000015767501 38219.0 685.0 1259.324538258576 0.5041567075120784 369.0 12.0 271.0 
366.000015767501 38186.0 684.0 1256.298153034301 0.498702016837034 371.0 12.0 270.0 
368.000015767501 38170.0 684.0 1253.2137203166233 0.4981591429050604 371.0 12.0 269.0 
370.000015767501 38153.0 684.0 1250.2189973614777 0.5049620050057181 371.0 12.0 268.0 
372.000015767501 38006.0 682.0 1253.203166226912 0.49969536765918665 370.0 12.0 269.0 
374.000015767501 37952.0 681.0 1256.242744063325 0.5025358683649567 370.0 12.0 270.0 
376.000015767501 37877.0 681.0 1262.2928759894462 0.498787365206758 369.0 12.0 272.0 
378.000015767501 37874.0 681.0 1259.3430079155683 0.4988007054808757 369.0 12.0 271.0 
380.000015767501 37845.0 681.0 1259.3139841688646 0.4983625050070012 369.0 12.0 271.0 
382.000015767501 37837.0 681.0 1256.3139841688646 0.5015013089579845 372.0 12.0 270.0 
384.000015767501 37775.0 681.0 1259.3799472295523 0.5045892509678986 371.0 12.0 271.0 
386.000015767501 37716.0 680.0 1259.37203166227 0.4987392584311713 371.0 12.0 271.0 
388.00032413383485 37774.0 681.0 1256.324538258576 0.5013382634924756 369.0 12.0 270.0 
390.0009270308328 37615.0 680.0 1244.1635883905017 0.49883671082889686 368.0 12.0 266.0 
392.0009270308328 37596.0 680.0 1241.1424802110807 0.4991058060237684 367.0 12.0 265.0 
394.0009270308328 37567.0 680.0 1235.097625329816 0.5032437131270632 365.0 12.0 263.0 
396.0001983480089 37509.0 679.0 1238.1081794195256 0.4983376852803238 365.0 12.0 264.0 
398.0009270308328 37516.0 679.0 1232.1952506596313 0.4982952114304503 364.0 12.0 262.0 
400.0009270308328 37511.0 679.0 1226.0448548812665 0.4983220666245034 363.0 12.0 260.0 
402.0009270308328 37502.0 679.0 1226.0659630606872 0.5013578289325334 362.0 12.0 260.0 
404.0009270308328 37426.0 678.0 1226.0 0.4987472811950367 361.0 12.0 260.0 
406.0001983480089 37402.0 678.0 1229.1345646438003 0.5017297582802046 360.0 12.0 261.0 
408.0009270308328 37354.0 678.0 1229.0949868073876 0.4983710225673885 360.0 12.0 261.0 
410.0009270308328 37326.0 678.0 1232.139841688655 0.5022717685743424 359.0 12.0 262.0 
412.0009270308328 37343.0 677.0 1229.068601583113 0.497637814402929 360.0 12.0 261.0 
414.0009270308328 37422.0 679.0 1235.1873350923483 0.5002308059967058 360.0 12.0 263.0 
416.0001983480089 37381.0 678.0 1235.108179419525 0.499683081413529 361.0 12.0 263.0 
418.0009270308328 37291.0 678.0 1238.139841688655 0.5015351273606352 363.0 12.0 264.0 
420.0009270308328 37189.0 678.0 1229.0237467018478 0.49798398051577675 364.0 12.0 261.0 
422.0009270308328 37175.0 678.0 1229.0 0.4993939455624137 363.0 12.0 261.0 
424.0009270308328 37142.0 678.0 1219.868073878628 0.4990760461855794 359.0 12.0 258.0 
426.0001983480089 37117.0 678.0 1219.9498680738793 0.504409654503463 358.0 12.0 258.0 
428.0009270308328 37072.0 677.0 1219.9102902374677 0.4985226408975889 356.0 12.0 258.0 
430.0009270308328 37058.0 677.0 1213.8337730870717 0.49780474573465405 356.0 12.0 256.0 
432.0009270308328 37052.0 677.0 1213.7730870712398 0.4986552783384626 356.0 12.0 256.0 
434.0009270308328 37039.0 677.0 1216.8812664907646 0.5001465349257556 356.0 12.0 257.0 
436.0001983480089 36983.0 676.0 1216.823218997361 0.5017976614097074 357.0 12.0 257.0 
438.0009270308328 36966.0 676.0 1213.823218997361 0.497988611566092 357.0 12.0 256.0 
440.0009270308328 36966.0 676.0 1213.8100263852239 0.4989133958080805 357.0 12.0 256.0 
442.0009270308328 36950.0 676.0 1216.878627968337 0.5030003477143294 356.0 12.0 257.0 
444.0009270308328 36899.0 675.0 1216.8153034300797 0.49823321252053565 357.0 12.0 257.0 
446.0001983480089 36885.0 675.0 1216.8258575197888 0.5024343191733758 356.0 12.0 257.0 
448.0009270308328 36867.0 674.0 1213.817941952507 0.5008615279087429 354.0 12.0 256.0 
450.0009270308328 36810.0 673.0 1216.8839050131921 0.49821239141116613 354.0 12.0 257.0 
452.0009270308328 36823.0 674.0 1216.839050131927 0.5038246810324817 354.0 12.0 257.0 
454.0009270308328 36765.0 674.0 1222.9947229551447 0.4986256495856857 354.0 12.0 259.0 
456.0001983480089 36758.0 674.0 1222.9340369393128 0.49821569647353875 355.0 12.0 259.0 
458.0009270308328 36743.0 674.0 1222.9419525065966 0.49816996579060124 354.0 12.0 259.0 
460.0009270308328 36738.0 674.0 1222.8891820580482 0.4987561071326469 354.0 12.0 259.0 
462.0009270308328 36727.0 674.0 1219.9050131926124 0.5018484100884494 353.0 12.0 258.0 
464.0009270308328 36597.0 673.0 1219.8891820580482 0.4972328668657454 353.0 12.0 258.0 
466.0001983480089 36586.0 673.0 1216.8443271767806 0.4972081910954414 351.0 12.0 257.0 
468.0009270308328 36587.0 673.0 1216.8575197889188 0.4974155027320474 351.0 12.0 257.0 
470.0009270308328 36588.0 673.0 1210.7968337730879 0.49804643329113335 350.0 12.0 255.0 
472.0009270308328 36584.0 674.0 1210.754617414248 0.5007953968380583 350.0 12.0 255.0 
474.0009270308328 36588.0 673.0 1210.7889182058047 0.49744030242051956 349.0 12.0 255.0 
476.0001983480089 36582.0 673.0 1210.7915567282319 0.4974069985564693 349.0 12.0 255.0 
478.0009270308328 36578.0 673.0 1207.7836411609496 0.4973268174008102 348.0 12.0 254.0 
480.0009270308328 36584.0 673.0 1210.7810026385223 0.4975540729420879 347.0 12.0 255.0 
482.0009270308328 36578.0 673.0 1210.8680738786275 0.4973700649445931 347.0 12.0 255.0 
484.0009270308328 36589.0 673.0 1210.852242744064 0.49825342650553267 348.0 12.0 255.0 
486.0001983480089 36586.0 673.0 1207.8205804749352 0.49695224447936776 348.0 12.0 254.0 
488.000015767501 36657.0 674.0 1201.6992084432723 0.4973008221042332 346.0 12.0 252.0 
490.000015767501 36750.0 675.0 1198.7203166226918 0.5012575735670772 345.0 12.0 251.0 
492.000015767501 36706.0 674.0 1198.6860158311351 0.4979848655389826 343.0 12.0 251.0 
494.000015767501 36705.0 674.0 1195.6728232189969 0.4990542462689799 342.0 12.0 250.0 
496.000015767501 36685.0 674.0 1192.641160949868 0.4977504470597153 342.0 12.0 249.0 
498.000015767501 36685.0 674.0 1195.696569920844 0.4975550165842464 341.0 12.0 250.0 
500.000015767501 36694.0 674.0 1195.6306068601589 0.49725108486867226 343.0 12.0 250.0 
502.000015767501 36688.0 674.0 1195.6306068601589 0.5029817823670093 343.0 12.0 250.0 
504.000015767501 36630.0 673.0 1195.667546174143 0.4978353756386199 343.0 12.0 250.0 
506.000015767501 36621.0 673.0 1195.7071240105547 0.4975317048703683 343.0 12.0 250.0 
508.000015767501 36616.0 673.0 1192.6358839050129 0.4973938795490863 344.0 12.0 249.0 
510.000015767501 36618.0 673.0 1195.7282321899731 0.49763880427262736 344.0 12.0 250.0 
512.0000157675009 36607.0 673.0 1189.620052770448 0.4994221645858214 343.0 12.0 248.0 
514.0000157675009 36594.0 672.0 1192.662269129288 0.4994078730636003 343.0 12.0 249.0 
516.0000157675009 36578.0 672.0 1192.6279683377313 0.4978074876334926 343.0 12.0 249.0 
518.0000157675009 36623.0 672.0 1186.6306068601589 0.49686345921417224 344.0 12.0 247.0 
520.0000157675009 36712.0 673.0 1186.596306068601 0.4977908259647691 343.0 12.0 247.0 
522.0000157675009 36697.0 673.0 1180.532981530344 0.4976774391271693 342.0 12.0 245.0 
524.0000157675009 36684.0 673.0 1177.5250659630601 0.5016503762141783 341.0 12.0 244.0 
526.0000157675009 36624.0 672.0 1177.5435356200521 0.4979966456445038 341.0 12.0 244.0 
528.0000157675009 36612.0 672.0 1180.5356200527708 0.49760462578346915 340.0 12.0 245.0 
530.0000157675009 36603.0 672.0 1183.5620052770441 0.4975508991106803 338.0 12.0 246.0 
532.0000157675009 36600.0 672.0 1186.6253298153038 0.49747911802643713 341.0 12.0 247.0 
534.0000157675009 36655.0 673.0 1189.6939313984162 0.4974649104000547 342.0 12.0 248.0 
536.0000157675009 36652.0 673.0 1189.6437994722962 0.49788488836612105 343.0 12.0 248.0 
538.0000157675009 36713.0 673.0 1186.68073878628 0.4967081120181438 344.0 12.0 247.0 
540.0000157675009 36778.0 674.0 1186.625329815304 0.4974121919260631 344.0 12.0 247.0 
542.0000157675009 36763.0 674.0 1186.6306068601589 0.49702703701173817 341.0 12.0 247.0 
544.0000157675009 36796.0 675.0 1186.5804749340361 0.49817999305186733 342.0 12.0 247.0 
546.0000157675009 36783.0 677.0 1186.6306068601589 0.5000148156749673 342.0 12.0 247.0 
548.0000157675009 36789.0 676.0 1186.6042216358842 0.5022436648253509 341.0 12.0 247.0 
550.0000157675009 36756.0 677.0 1183.5593667546168 0.4974574255071301 341.0 12.0 246.0 
552.0000157675009 36752.0 677.0 1186.620052770448 0.49800896925001253 342.0 12.0 247.0 
554.0000157675009 36828.0 678.0 1186.6147757255933 0.49773077599864707 342.0 12.0 247.0 
556.0000157675009 36893.0 678.0 1186.5883905013197 0.4985136676822392 341.0 12.0 247.0 
558.0000157675009 36903.0 678.0 1189.6147757255933 0.49905273659512045 342.0 12.0 248.0 
560.0000157675009 36851.0 678.0 1186.572559366755 0.4995081182002941 340.0 12.0 247.0 
562.0000157675009 36803.0 678.0 1186.6094986807393 0.4977923102531819 339.0 12.0 247.0 
564.0000157675009 36825.0 678.0 1189.622691292876 0.49852617156294443 340.0 12.0 248.0 
566.0000157675009 36837.0 678.0 1189.6860158311351 0.49871425151808 339.0 12.0 248.0 
568.0003157251847 36824.0 678.0 1189.622691292876 0.5048048102027106 340.0 12.0 248.0 
570.0003157251847 36875.0 678.0 1189.6147757255933 0.5059977009583951 341.0 12.0 248.0 
572.0003157251847 36907.0 677.0 1186.5435356200524 0.49795945542377584 342.0 12.0 247.0 
574.0003157251847 36916.0 677.0 1189.6781002638518 0.49968756870544173 342.0 12.0 248.0 
576.0001983480089 36899.0 677.0 1189.620052770448 0.5011176575845574 342.0 12.0 248.0 
578.0003157251847 36840.0 676.0 1189.651715039577 0.4981930680688527 342.0 12.0 248.0 
580.0003157251847 36846.0 676.0 1189.651715039577 0.4983793650158956 342.0 12.0 248.0 
582.0003157251847 36853.0 676.0 1186.649076517151 0.49826873614025363 340.0 12.0 247.0 
584.0003157251847 36860.0 676.0 1198.757255936676 0.49929165338080767 346.0 9.0 254.0 
586.0001983480089 36853.0 676.0 1195.6939313984162 0.5028433380974847 353.0 7.0 255.0 
588.0003157251847 36717.0 675.0 1192.6675461741427 0.49805602187160775 354.0 6.0 255.0 
590.0003157251847 36722.0 675.0 1195.7414248021112 0.4983590645703739 353.0 6.0 256.0 
592.0003157251847 36715.0 675.0 1195.6939313984162 0.49837297419043036 353.0 6.0 256.0 
594.0003157251847 36722.0 675.0 1192.717678100264 0.49882958768271285 353.0 6.0 255.0 
596.0001983480089 36687.0 675.0 1192.651715039577 0.4980631857755285 349.0 6.0 255.0 
598.0003157251847 36683.0 675.0 1192.6833773087078 0.5002554721377548 349.0 6.0 255.0 
600.0003157251847 36636.0 674.0 1198.662269129288 0.497877790176872 355.0 6.0 257.0 
602.0006156828683 36689.0 675.0 1198.7282321899731 0.4990184493208497 357.0 6.0 257.0 
604.0006156828683 36742.0 674.0 1198.6728232189967 0.5007783925400353 359.0 6.0 257.0 
606.0001983480089 36682.0 674.0 1198.7071240105547 0.4979085737687294 360.0 6.0 257.0 
608.0006156828683 36677.0 674.0 1195.6860158311351 0.4977308257284177 360.0 6.0 256.0 
610.0006156828683 36782.0 676.0 1201.7757255936683 0.4979267094486413 360.0 6.0 258.0 
612.0006156828683 36863.0 676.0 1201.6992084432723 0.4977387550186001 360.0 6.0 258.0 
614.0006156828683 36930.0 677.0 1210.8100263852239 0.499127360868645 361.0 6.0 261.0 
616.0001983480089 36934.0 678.0 1207.8021108179428 0.49750335561956427 359.0 6.0 260.0 
618.0006156828683 36934.0 678.0 1207.8575197889188 0.4980241033833161 358.0 6.0 260.0 
620.0006156828683 36932.0 678.0 1204.749340369393 0.4980666694217715 357.0 6.0 259.0 
622.0006156828683 36954.0 678.0 1204.804749340369 0.49743737613839734 354.0 6.0 259.0 
624.0006156828683 36977.0 679.0 1210.7836411609494 0.5020730339868221 354.0 6.0 261.0 
626.0001983480089 36878.0 678.0 1207.781002638523 0.49743258998214085 353.0 6.0 260.0 
628.0006156828683 36878.0 678.0 1207.75197889182 0.4976385473298642 354.0 6.0 260.0 
630.0006156828683 36878.0 678.0 1216.9525065963066 0.4976716173184911 357.0 6.0 263.0 
632.0006156828683 36905.0 678.0 1213.870712401056 0.5024759567340941 357.0 6.0 262.0 
634.0006156828683 36901.0 679.0 1216.9182058047488 0.5006021896685924 357.0 6.0 263.0 
636.0001983480089 36864.0 678.0 1219.997361477572 0.49954124165855324 364.0 5.0 265.0 
638.0006156828683 36839.0 678.0 1220.0131926121367 0.4975724074507501 366.0 3.0 267.0 
640.0006156828683 36840.0 678.0 1219.9815303430082 0.49781886064666897 364.0 3.0 267.0 
642.0006156828683 36849.0 679.0 1219.992084432717 0.5008665351388485 365.0 2.0 268.0 
644.0006156828683 36843.0 680.0 1219.9788918205797 0.5029464034142845 362.0 6.0 264.0 
646.0001983480089 36791.0 678.0 1223.0211081794203 0.49750617729056446 366.0 2.0 269.0 
648.0006156828683 36782.0 678.0 1223.0343007915562 0.49764345893264866 361.0 6.0 265.0 
650.0006156828683 36768.0 678.0 1223.052770448548 0.5007248271851755 365.0 3.0 268.0 
652.0006156828683 36696.0 677.0 1219.989445910291 0.4974991721126492 364.0 4.0 266.0 
654.0006156828683 36701.0 678.0 1219.984168865436 0.49746429736469067 364.0 2.0 268.0 
656.0001983480089 36690.0 678.0 1219.9261213720322 0.4975752559599253 362.0 4.0 266.0 
658.0006156828683 36678.0 678.0 1219.9788918205797 0.49773014550830474 363.0 2.0 268.0 
660.0006156828683 36668.0 678.0 1219.9208443271762 0.4982875363924502 362.0 4.0 266.0 
662.0006156828683 36638.0 678.0 1216.9208443271762 0.4976476534646595 363.0 3.0 266.0 
664.0006156828683 36638.0 678.0 1222.9868073878633 0.49910850195930473 358.0 4.0 267.0 
#####################################################################
# End of data export. Simulation finished at: 2019-03-05T22:12+0000 #
#####################################################################
