#####################################################################
# Alchemist log file - simulation started at: 2019-03-11T20:50+0000 #
#####################################################################
# seed = 4.0, bandwidth = 2.3713737056616552E7, accessPointCount = 274.2481756762073, baserange = 56.234132519034915
#
# The columns have the following meaning: 
# time neighbor_count[Sum] <value>@neighbor_count[Sum] packet_size[Mean] mean_delay[Mean] crowd[Sum] overcrowded[Sum] risk[Sum] 
0.0 NaN NaN NaN NaN NaN NaN NaN 
2.0000042429967895 151.0 72.0 4985.28740824393 0.48392579805424113 1497.0 0.0 1497.0 
4.0000042429967895 177.0 72.0 4986.143421795596 0.4816868743218258 1497.0 0.0 1497.0 
6.0000042429967895 196.0 72.0 4985.316770186336 0.49114555633761725 1497.0 0.0 1497.0 
8.00000424299679 206.0 73.0 4986.02371541502 0.49640206926793223 1497.0 0.0 1497.0 
10.00000424299679 214.0 74.0 4985.418407679277 0.5175491806490655 1497.0 0.0 1497.0 
12.00000424299679 212.0 72.0 4985.813664596273 0.49233322752938 1497.0 0.0 1497.0 
14.00000424299679 212.0 72.0 4985.39356295878 0.4923338982655164 1497.0 0.0 1497.0 
16.000004242996788 212.0 72.0 4985.827216261999 0.49233340787757 1497.0 0.0 1497.0 
18.000004242996788 212.0 72.0 4985.296442687747 0.492334034057095 1497.0 0.0 1497.0 
20.000004242996788 212.0 72.0 4985.824957651044 0.49233349062556303 1497.0 0.0 1497.0 
22.000004242996788 212.0 72.0 4985.314511575381 0.49233394361778193 1497.0 0.0 1497.0 
24.000004242996788 212.0 72.0 4985.77978543196 0.49233349672557536 1497.0 0.0 1497.0 
26.000004242996788 212.0 72.0 4985.264822134387 0.49233408471371887 1497.0 0.0 1497.0 
28.000004242996788 212.0 72.0 4985.795595708639 0.4923334675516034 1497.0 0.0 1497.0 
30.000004242996788 212.0 72.0 4985.316770186336 0.49233403909623547 1497.0 0.0 1497.0 
32.00000424299679 212.0 72.0 4985.736871823829 0.4923335203299709 1497.0 0.0 1497.0 
34.00000424299679 212.0 72.0 4985.273856578205 0.49233401814401884 1497.0 0.0 1497.0 
36.00000424299679 212.0 72.0 4985.820440429136 0.4923334200775951 1497.0 0.0 1497.0 
38.00000424299679 212.0 72.0 4985.221908526256 0.4923341539355973 1497.0 0.0 1497.0 
40.00000424299679 212.0 72.0 4985.768492377188 0.5300693144864643 1497.0 0.0 1497.0 
42.00000424299679 210.0 71.0 4985.219649915302 0.49219064397277035 1497.0 0.0 1497.0 
44.00000424299679 210.0 71.0 4985.777526821005 0.49219016037338364 1497.0 0.0 1497.0 
46.00000424299679 210.0 71.0 4985.215132693394 0.49219067532968996 1497.0 0.0 1497.0 
48.00000424299679 210.0 71.0 4985.754940711462 0.492190150641926 1497.0 0.0 1497.0 
50.00000424299679 210.0 71.0 4985.273856578205 0.49219069100814955 1497.0 0.0 1497.0 
52.00000424299679 210.0 71.0 4985.702992659514 0.4921901698345231 1497.0 0.0 1497.0 
54.00000424299679 210.0 71.0 4985.314511575381 0.4921905647695169 1497.0 0.0 1497.0 
56.00000424299679 210.0 71.0 4985.671372106155 0.4921902017320793 1497.0 0.0 1497.0 
58.00000424299679 210.0 71.0 4985.2625635234335 0.49219068370955643 1497.0 0.0 1497.0 
60.00000424299679 210.0 71.0 4983.200451722191 0.49219005359766643 1497.0 0.0 1497.0 
62.00000424299679 210.0 71.0 438.9858836815354 0.49246292434937167 54.0 1.0 14.0 
64.0000042429968 210.0 71.0 438.98136645962774 0.4924770033359025 38.0 0.0 15.0 
66.0000042429968 210.0 71.0 438.97910784867287 0.49247696062561475 31.0 0.0 15.0 
68.0000042429968 210.0 71.0 438.9497459062682 0.49247700549844775 22.0 0.0 15.0 
70.0000042429968 210.0 71.0 438.98136645962774 0.4924769665726168 19.0 0.0 15.0 
72.0000042429968 210.0 71.0 438.97910784867287 0.49247697684471103 18.0 0.0 15.0 
74.0000042429968 210.0 71.0 438.9497459062682 0.49247703523345765 18.0 0.0 15.0 
76.0000042429968 210.0 71.0 438.97007340485567 0.4924769865761688 18.0 0.0 15.0 
78.0000042429968 210.0 71.0 438.98362507058187 0.49247697684471103 17.0 0.0 15.0 
80.0000042429968 210.0 71.0 438.9565217391301 0.4924770460461885 17.0 0.0 15.0 
82.0000042429968 210.0 71.0 438.97684923771874 0.49247698873871487 17.0 0.0 15.0 
84.0000042429968 210.0 71.0 438.9858836815354 0.49247696495070703 17.0 0.0 15.0 
86.0000042429968 210.0 71.0 438.9678147939021 0.49247703307091145 17.0 0.0 15.0 
88.0000042429968 210.0 71.0 438.97910784867287 0.4924769746821649 17.0 0.0 15.0 
90.0000042429968 210.0 71.0 438.97233201580985 0.49247695089415683 17.0 0.0 15.0 
92.0000042429968 210.0 71.0 438.98136645962774 0.49247700333590166 17.0 0.0 15.0 
94.0000042429968 210.0 71.0 438.97910784867287 0.49247696062561475 17.0 0.0 15.0 
96.0000042429968 210.0 71.0 438.9497459062682 0.49247700549844775 17.0 0.0 15.0 
98.0000042429968 212.0 72.0 438.98136645962774 0.49261859233803645 17.0 0.0 15.0 
100.0000042429968 214.0 73.0 438.97910784867287 0.4927549825963832 17.0 0.0 15.0 
102.0000042429968 214.0 73.0 438.9497459062682 0.49275503882258365 17.0 0.0 15.0 
104.0000042429968 214.0 73.0 438.97007340485567 0.4927549919674166 17.0 0.0 15.0 
106.0000042429968 214.0 73.0 438.98362507058187 0.4927549825963832 17.0 0.0 15.0 
108.0000042429968 214.0 73.0 438.9565217391301 0.5205328270126208 17.0 0.0 15.0 
110.0000042429968 214.0 73.0 438.97684923771874 0.5201933110245799 17.0 0.0 15.0 
112.0000042429968 212.0 72.0 438.9858836815354 0.4926185907467288 17.0 0.0 15.0 
114.0000042429968 212.0 72.0 438.9678147939021 0.49261865758164636 17.0 0.0 15.0 
116.0000042429968 212.0 72.0 438.97910784867287 0.49261860029457427 17.0 0.0 15.0 
118.0000042429968 212.0 72.0 438.97233201580985 0.49261857695539657 17.0 0.0 15.0 
120.0000042429968 212.0 72.0 438.98136645962774 0.49261862840767445 17.0 0.0 15.0 
122.0000042429968 212.0 72.0 438.97910784867287 0.492618586503242 17.0 0.0 15.0 
124.0000042429968 212.0 72.0 438.9497459062682 0.4926186305294178 17.0 0.0 15.0 
126.0000042429968 212.0 72.0 438.98136645962774 0.49261859233803645 17.0 0.0 15.0 
128.0000042429968 212.0 72.0 438.97910784867287 0.4926186024163176 17.0 0.0 15.0 
130.0000042429968 212.0 72.0 438.9497459062682 0.5303545087599991 17.0 0.0 15.0 
132.0000042429968 212.0 72.0 438.97007340485567 0.4926186119641688 17.0 0.0 15.0 
134.0000042429968 212.0 72.0 438.98362507058187 0.4926186024163234 17.0 0.0 15.0 
136.0000042429968 212.0 72.0 438.9565217391301 0.4926186703121127 17.0 0.0 15.0 
138.0000042429968 212.0 72.0 438.97684923771874 0.49261861408591195 17.0 0.0 15.0 
140.0000042429968 212.0 72.0 438.9858836815354 0.49261859074673464 17.0 0.0 15.0 
142.0000042429968 212.0 72.0 438.9678147939021 0.530354506638256 17.0 0.0 15.0 
144.0000042429968 210.0 71.0 438.97910784867287 0.4924769746821706 17.0 0.0 15.0 
146.0000042429968 213.0 71.0 438.97233201580985 0.48793932475199286 18.0 0.0 15.0 
148.0000042429968 218.0 72.0 441.58328627893786 0.4923558153371498 18.0 0.0 16.0 
150.0000042429968 218.0 72.0 441.57651044607553 0.492355792311182 18.0 0.0 16.0 
152.0000042429968 218.0 72.0 441.54714850367054 0.4923558367566547 18.0 0.0 16.0 
154.0000042429968 218.0 72.0 441.57876905703006 0.4923557982015459 18.0 0.0 16.0 
156.0000042429968 222.0 73.0 441.5878035008474 0.49793950118199365 18.0 0.0 16.0 
158.0000042429968 219.0 73.0 441.54037267080747 0.5183866876478743 18.0 0.0 16.0 
160.0000042429968 214.0 72.0 441.5607001693957 0.4933480356537506 18.0 0.0 16.0 
162.0000042429968 226.0 73.0 444.17617165443244 0.4927886803176434 19.0 0.0 17.0 
164.0000042429968 226.0 73.0 444.144551101073 0.49278874821343277 19.0 0.0 17.0 
166.0000042429968 226.0 73.0 444.16487859966134 0.4927886919872321 19.0 0.0 17.0 
168.0000042429968 226.0 73.0 444.1739130434781 0.49278866864805476 19.0 0.0 17.0 
170.0000042429968 226.0 73.0 444.15584415584385 0.49278873548297236 19.0 0.0 17.0 
172.0000042429968 228.0 73.0 444.17617165443244 0.49313618639041584 19.0 0.0 17.0 
174.0000042429968 228.0 73.0 444.16487859966134 0.4931362044252345 19.0 0.0 17.0 
176.0000042429968 228.0 73.0 444.1739130434781 0.49313625587751225 19.0 0.0 17.0 
178.0000042429968 228.0 73.0 444.1716544325237 0.4931362139730799 19.0 0.0 17.0 
180.0000042429968 228.0 73.0 444.14229249011845 0.4931362579992557 19.0 0.0 17.0 
182.0000042429968 228.0 73.0 444.17843026538674 0.49313617115932906 19.0 0.0 17.0 
184.0000042429968 228.0 73.0 444.1716544325237 0.4931362298861554 19.0 0.0 17.0 
186.0000042429968 228.0 73.0 444.14229249011845 0.49313628717322777 19.0 0.0 17.0 
188.0000042429968 228.0 73.0 444.162619988707 0.4931362394340009 19.0 0.0 17.0 
190.0000042429968 228.0 73.0 444.17617165443244 0.4931362298861554 19.0 0.0 17.0 
192.0000042429968 228.0 73.0 444.15358554489023 0.49313624913339954 19.0 0.0 17.0 
194.0000042429968 228.0 73.0 444.17843026538674 0.4931362288252837 17.0 2.0 15.0 
196.0000042429968 228.0 73.0 444.1874647092035 0.49313617365995527 17.0 2.0 15.0 
198.0000042429968 228.0 73.0 444.16939582157 0.49313624049487276 17.0 2.0 15.0 
200.0000042429968 228.0 73.0 444.18068887634104 0.4931361832078007 17.0 2.0 15.0 
202.0000042429968 228.0 73.0 444.1739130434781 0.493136137590317 17.0 2.0 15.0 
204.0000042429968 228.0 73.0 444.17843026538674 0.4931362376911404 17.0 2.0 15.0 
206.0000042429968 228.0 73.0 444.17617165443244 0.493136195786708 17.0 2.0 15.0 
208.0000042429968 228.0 73.0 444.1468097120273 0.4931362398128837 17.0 2.0 15.0 
210.0000042429968 228.0 73.0 444.17843026538674 0.49313620162150246 17.0 2.0 15.0 
212.0000042429968 228.0 73.0 444.18068887634104 0.4931361894214777 17.0 2.0 15.0 
214.0000042429968 228.0 73.0 444.1468097120273 0.4931362689868558 17.0 2.0 15.0 
216.0000042429968 228.0 73.0 441.57651044607553 0.493136221247629 16.0 2.0 14.0 
218.0000042429968 228.0 73.0 441.5900621118009 0.49313621169978356 16.0 2.0 14.0 
220.0000042429968 228.0 73.0 441.56295878035024 0.4931362795955729 16.0 2.0 14.0 
222.0000042429968 230.0 73.0 441.5878035008474 0.5028146850726135 16.0 2.0 14.0 
224.0000042429968 229.0 73.0 441.59232072275523 0.515908888176912 16.0 2.0 14.0 
226.0000042429968 230.0 72.0 441.5742518351212 0.4945918183026503 16.0 2.0 14.0 
228.0000042429968 232.0 73.0 441.58554488989313 0.49362556905185373 16.0 2.0 14.0 
230.0000042429968 232.0 73.0 441.5787690570301 0.493625545490398 16.0 2.0 14.0 
232.0000042429968 232.0 73.0 441.59232072275523 0.49362557172929156 16.0 2.0 14.0 
234.0000042429968 232.0 73.0 441.58554488989313 0.49362555512917533 16.0 2.0 14.0 
236.0000042429968 232.0 73.0 441.5561829474879 0.493625599574648 16.0 2.0 14.0 
238.0000042429968 232.0 73.0 441.5878035008474 0.49362556101953925 16.0 2.0 14.0 
240.0000042429968 232.0 73.0 441.58554488989313 0.493625571193804 16.0 2.0 14.0 
242.0000042429968 232.0 73.0 441.5607001693957 0.49362560332306143 16.0 2.0 14.0 
244.0000042429968 232.0 73.0 441.57651044607553 0.4936255808325814 16.0 2.0 14.0 
246.0000042429968 233.0 73.0 441.5900621118009 0.48940278390913844 17.0 2.0 14.0 
248.0000042429968 234.0 74.0 441.56295878035024 0.4897593129124515 17.0 2.0 14.0 
250.0000042429968 234.0 74.0 441.58328627893786 0.48975925668625087 17.0 2.0 14.0 
252.0000042429968 234.0 74.0 441.59683794466406 0.5179424017382402 17.0 2.0 14.0 
254.0000042429968 218.0 73.0 441.58554488989313 0.48974516804966395 17.0 2.0 14.0 
256.0000042429968 220.0 73.0 441.56973461321235 0.4894587134640588 19.0 0.0 16.0 
258.0000042429968 222.0 73.0 441.56295878035024 0.4937119969488662 19.0 0.0 16.0 
260.0000042429968 222.0 73.0 441.5719932241676 0.49371204889116554 19.0 0.0 16.0 
262.0000042429968 222.0 73.0 441.56973461321235 0.49371200658764314 19.0 0.0 16.0 
264.0000042429968 222.0 73.0 441.5403726708075 0.4937120510331162 19.0 0.0 16.0 
266.0000042429968 222.0 73.0 444.17843026538674 0.49370830476170247 19.0 0.0 17.0 
268.0000042429968 224.0 73.0 444.16713721061564 0.4934630784784581 19.0 0.0 17.0 
270.0000042429968 224.0 73.0 444.13777526821053 0.4934631427369734 19.0 0.0 17.0 
272.0000042429968 224.0 73.0 444.1581027667983 0.49346309454308707 19.0 0.0 17.0 
274.0000042429968 224.0 73.0 444.1716544325237 0.4934630849043097 19.0 0.0 17.0 
276.0000042429968 227.0 73.0 444.15358554489023 0.49225388557101973 19.0 0.0 17.0 
278.0000042429968 232.0 73.0 444.16487859966134 0.4936255861874536 18.0 1.0 16.0 
280.0000042429968 232.0 73.0 444.18294748729545 0.49362555941307235 16.0 3.0 14.0 
282.0000042429968 232.0 73.0 444.16487859966134 0.4936256268845132 16.0 3.0 14.0 
284.0000042429968 232.0 73.0 444.17617165443244 0.4936255690518493 16.0 3.0 14.0 
286.0000042429968 232.0 73.0 444.17843026538674 0.4936255133611366 16.0 3.0 14.0 
288.0000042429968 232.0 73.0 444.17843026538674 0.49362554923880747 16.0 3.0 14.0 
290.0000042429968 232.0 73.0 444.17617165443244 0.493625555129171 16.0 3.0 14.0 
292.0000042429968 232.0 73.0 444.1468097120273 0.4936255995746441 16.0 3.0 14.0 
294.0000042429968 238.0 74.0 446.7826086956523 0.4921907449776972 17.0 3.0 15.0 
296.0000042429968 238.0 74.0 446.7713156408812 0.49218896165235876 20.0 3.0 15.0 
298.0000042429968 238.0 74.0 446.7374364765666 0.49218902530466163 21.0 3.0 15.0 
300.0000042429968 238.0 74.0 446.75776397515585 0.49218898711328013 21.0 3.0 15.0 
302.0000042429968 238.0 74.0 446.7713156408812 0.49218897756543456 21.0 3.0 15.0 
304.0000042429968 240.0 74.0 446.7442123094297 0.49356401968207014 21.0 3.0 15.0 
306.0000042429968 240.0 74.0 446.77357425183556 0.49356393162971807 22.0 2.0 16.0 
308.0000042429968 240.0 74.0 446.77357425183556 0.49356393056884657 22.0 2.0 16.0 
310.0000042429968 240.0 74.0 446.7555053642008 0.49356400695160985 22.0 2.0 16.0 
312.0000042429968 240.0 74.0 444.1761716544325 0.4935639496645371 21.0 2.0 15.0 
314.0000042429968 240.0 74.0 444.16939582157005 0.4935639263253597 21.0 2.0 15.0 
316.0000042429968 240.0 74.0 444.18294748729556 0.4935639618645616 21.0 2.0 15.0 
318.0000042429968 240.0 74.0 444.1761716544325 0.49356392632535934 21.0 2.0 15.0 
320.0000042429968 240.0 74.0 444.1468097120273 0.49356397989938094 21.0 2.0 15.0 
322.0000042429968 240.0 74.0 444.17843026538674 0.49356394170799905 21.0 2.0 15.0 
324.0000042429968 240.0 74.0 446.77809147374353 0.5253270190575755 21.0 2.0 16.0 
326.0000042429968 232.0 73.0 446.75098814229284 0.500763114023611 21.0 2.0 16.0 
328.0000042429968 226.0 73.0 446.7577639751559 0.5220328388817348 21.0 2.0 16.0 
330.0000042429968 216.0 72.0 446.7600225861094 0.49358680639322866 23.0 0.0 18.0 
332.0000042429968 216.0 72.0 446.72840203274995 0.493586908032899 23.0 0.0 18.0 
334.0000042429968 217.0 72.0 446.7487295313385 0.4907504922948425 23.0 0.0 18.0 
336.0000042429968 218.0 73.0 446.7577639751559 0.4937075119412369 23.0 0.0 18.0 
338.0000042429968 218.0 73.0 446.7396950875209 0.4937075787761548 23.0 0.0 18.0 
340.0000042429968 218.0 73.0 446.75098814229284 0.493707521489082 23.0 0.0 18.0 
342.0000042429968 218.0 73.0 446.7442123094297 0.4937074981499046 23.0 0.0 18.0 
344.0000042429968 221.0 73.0 446.75324675324634 0.4927174596217564 23.0 0.0 18.0 
346.0000042429968 222.0 74.0 446.75098814229284 0.49376568546281324 23.0 0.0 18.0 
348.0000042429968 222.0 74.0 446.7216261998868 0.49376572907752986 23.0 0.0 18.0 
350.0000042429968 222.0 74.0 446.75324675324634 0.49376569124307673 23.0 0.0 18.0 
352.0000042429968 222.0 74.0 446.75098814229284 0.4937657012271686 23.0 0.0 18.0 
354.0000042429968 230.0 75.0 449.34613212874086 0.5029508900130593 23.0 0.0 19.0 
356.0000042429968 229.0 75.0 449.38452851496334 0.5151674400219863 23.0 0.0 19.0 
358.0000042429968 228.0 74.0 449.3732354601917 0.5143352879061786 23.0 0.0 19.0 
360.0000042429968 226.0 73.0 449.370976849238 0.49452934697864476 23.0 0.0 19.0 
362.0000042429968 226.0 73.0 449.3529079616039 0.49452938888055065 23.0 0.0 19.0 
364.0000042429968 226.0 73.0 449.4003387916432 0.5088151448004278 23.0 0.0 19.0 
366.0000042429968 223.0 73.0 449.34387351778645 0.5051712893017274 23.0 0.0 19.0 
368.0000042429968 222.0 72.0 449.3935629587809 0.49447732518939275 23.0 0.0 19.0 
370.0000042429968 222.0 72.0 449.3483907396953 0.4944773977698485 23.0 0.0 19.0 
372.0000042429968 222.0 72.0 449.39582156973444 0.49447735384312946 23.0 0.0 19.0 
374.0000042429968 222.0 72.0 449.35516657255823 0.49447740750130603 23.0 0.0 19.0 
376.0000042429968 222.0 72.0 449.364201016375 0.4944773560056759 23.0 0.0 19.0 
378.0000042429968 222.0 72.0 449.35742518351185 0.49447741344830776 23.0 0.0 19.0 
380.0000042429968 222.0 72.0 449.3935629587809 0.4944773273519388 23.0 0.0 19.0 
382.0000042429968 222.0 72.0 449.32580463015233 0.4944774821091494 23.0 0.0 19.0 
384.0000042429968 222.0 72.0 449.38452851496334 0.4944773370833968 23.0 0.0 19.0 
386.0000042429968 222.0 72.0 449.35742518351185 0.4944774237204023 23.0 0.0 19.0 
388.0000042429968 222.0 72.0 446.7600225861094 0.4944774746753976 22.0 0.0 18.0 
390.0000042429968 227.0 74.0 446.7713156408813 0.5005191761785638 22.0 0.0 18.0 
392.0000042429968 230.0 75.0 446.77809147374353 0.494024124918995 22.0 0.0 18.0 
394.0000042429968 230.0 75.0 446.7600225861094 0.4940241703424764 22.0 0.0 18.0 
396.0000042429968 237.0 76.0 454.5431959345001 0.49194675055155285 25.0 0.0 21.0 
398.0000042429968 238.0 77.0 454.5612648221341 0.4941686786779064 25.0 0.0 21.0 
400.0000042429968 238.0 77.0 454.5702992659518 0.49416872173400567 25.0 0.0 21.0 
402.0000042429968 246.0 78.0 457.1564088085824 0.5123719199178225 26.0 0.0 22.0 
404.0000042429968 252.0 79.0 457.1541501976288 0.4944595108755377 27.0 0.0 22.0 
406.0000042429968 252.0 79.0 457.1473743647656 0.5151085020620669 27.0 0.0 22.0 
408.0000042429968 247.0 79.0 457.1789949181251 0.5136857446106448 27.0 0.0 22.0 
410.0000042429968 246.0 78.0 457.1044607566344 0.5287770181150574 27.0 0.0 22.0 
412.0000042429968 233.0 76.0 457.1112365894973 0.537565916974995 27.0 0.0 22.0 
414.0000042429968 229.0 75.0 459.73800112930513 0.5264261605861682 27.0 0.0 23.0 
416.0000042429968 226.0 74.0 459.70186335403747 0.5220002168099332 27.0 0.0 23.0 
418.0000042429968 222.0 73.0 459.72670807453466 0.49391087142970186 27.0 0.0 23.0 
420.0000042429968 222.0 73.0 459.71767363071723 0.4939108576383699 27.0 0.0 23.0 
422.0000042429968 222.0 73.0 459.6996047430825 0.493910927655903 27.0 0.0 23.0 
424.0000042429968 222.0 73.0 459.7154150197629 0.5222127478786553 27.0 0.0 23.0 
426.0000042429968 222.0 73.0 459.7041219649918 0.4939126690768088 27.0 0.0 23.0 
428.0000042429968 222.0 73.0 459.7131564088086 0.4939127237117016 27.0 0.0 23.0 
430.0000042429968 222.0 73.0 459.71089779785433 0.4939126786246539 27.0 0.0 23.0 
432.0000042429968 222.0 73.0 459.6815358554491 0.4939127258334452 27.0 0.0 23.0 
434.0000042429968 222.0 73.0 459.71767363071723 0.4939126783594357 27.0 0.0 23.0 
436.0000042429968 224.0 74.0 459.71089779785433 0.4940251100488798 27.0 0.0 23.0 
438.0000042429968 224.0 74.0 459.6815358554491 0.4940251693987585 27.0 0.0 23.0 
440.0000042429968 224.0 74.0 459.70186335403747 0.49402511941991345 27.0 0.0 23.0 
442.0000042429968 224.0 74.0 457.12478825522277 0.49402511317255765 27.0 0.0 22.0 
444.0000042429968 225.0 74.0 457.1022021456801 0.4921959885771546 27.0 0.0 22.0 
446.0000042429968 226.0 75.0 457.1180124223598 0.521414530815682 27.0 0.0 22.0 
448.0000042429968 226.0 75.0 457.127046866177 0.4913314031694404 27.0 0.0 22.0 
450.0000042429968 234.0 76.0 464.91022021456774 0.4920003879414734 28.0 0.0 25.0 
452.0000042429968 234.0 76.0 464.92828910220265 0.49200025836563815 28.0 0.0 25.0 
454.0000042429968 234.0 76.0 464.91699604743076 0.4920003082536125 28.0 0.0 25.0 
456.0000042429968 234.0 76.0 464.9215132693397 0.5056368975103837 28.0 0.0 25.0 
458.0000042429968 237.0 77.0 464.91022021456774 0.5194104267563545 28.0 0.0 25.0 
460.0000042429968 236.0 76.0 464.88085827216275 0.5301920967566787 28.0 0.0 25.0 
462.0000042429968 228.0 75.0 464.9305477131563 0.4940744866997985 28.0 0.0 25.0 
464.0000042429968 228.0 75.0 462.31055900621095 0.4940745415074482 27.0 0.0 24.0 
466.0000042429968 228.0 75.0 462.30378317334805 0.5024843476867609 27.0 0.0 24.0 
468.0000042429968 226.0 75.0 459.72444946357945 0.49302699345701073 26.0 0.0 23.0 
470.0000042429968 226.0 75.0 457.1428571428568 0.4930270042895815 25.0 0.0 22.0 
472.0000042429968 226.0 75.0 454.5409373235465 0.4930270231176213 24.0 0.0 21.0 
474.0000042429968 228.0 75.0 451.95256916996084 0.4940745387993054 23.0 0.0 20.0 
476.0000042429968 228.0 75.0 451.9570863918685 0.5024843110623549 23.0 0.0 20.0 
478.0000042429968 226.0 75.0 451.9345002823269 0.5434857843655004 23.0 0.0 20.0 
480.0000042429968 220.0 73.0 451.9457933370977 0.49283061597371103 23.0 0.0 20.0 
482.0000042429968 224.0 74.0 451.9390175042346 0.49289696902034896 23.0 0.0 20.0 
484.0000042429968 226.0 74.0 451.95256916996084 0.4939641301192146 23.0 0.0 20.0 
486.0000042429968 226.0 74.0 451.9503105590066 0.5025310618075127 23.0 0.0 20.0 
488.0000042429968 224.0 74.0 451.91643139469176 0.49289702209367836 23.0 0.0 20.0 
490.0000042429968 224.0 74.0 451.9480519480517 0.49289698110635416 23.0 0.0 20.0 
492.0000042429968 227.0 76.0 451.9457933370977 0.48920855692920207 23.0 0.0 20.0 
494.0000042429968 228.0 76.0 451.91643139469176 0.5219852376580592 23.0 0.0 20.0 
496.0000042429968 226.0 77.0 451.95256916996084 0.4916031777405367 23.0 0.0 20.0 
498.0000042429968 230.0 78.0 451.9435347261436 0.49058201852974104 23.0 0.0 20.0 
500.0000042429968 233.0 78.0 457.10446075663424 0.49282034677323944 26.0 0.0 22.0 
502.0000042429968 240.0 80.0 457.1451157538115 0.49400166831004394 26.0 0.0 22.0 
504.0000042429968 240.0 80.0 457.1383399209489 0.5025486686874338 26.0 0.0 22.0 
506.0000042429968 239.0 80.0 457.13156408808595 0.551764134197065 26.0 0.0 22.0 
508.0000042429968 228.0 77.0 457.13382269904 0.4937980052784146 26.0 0.0 22.0 
510.0000042429968 228.0 77.0 457.113495200452 0.4937980012977988 26.0 0.0 22.0 
512.0000042429967 228.0 77.0 457.12252964426915 0.5557459575719532 26.0 0.0 22.0 
514.0000042429967 222.0 75.0 457.120271033315 0.493631544002155 25.0 0.0 22.0 
516.0000042429967 232.0 76.0 459.7018633540377 0.4945850131242813 26.0 0.0 23.0 
518.0000042429967 232.0 76.0 457.1699604743085 0.5035834262804875 25.0 0.0 22.0 
520.0000042429967 231.0 75.0 454.5499717673632 0.5142779263018803 25.0 0.0 21.0 
522.0000042429967 230.0 75.0 454.51835121400376 0.517419392154268 25.0 0.0 21.0 
524.0000042429967 227.0 74.0 454.565782044043 0.5179766746141594 25.0 0.0 21.0 
526.0000042429967 226.0 74.0 454.5319028797294 0.5309792719115495 25.0 0.0 21.0 
528.0000042429967 216.0 73.0 454.5002823263699 0.4944915413865075 25.0 0.0 21.0 
530.0000042429967 216.0 73.0 454.5206098249573 0.49449148516030794 25.0 0.0 21.0 
532.0000042429967 216.0 73.0 454.5296442687743 0.4944914618211301 25.0 0.0 21.0 
534.0000042429967 217.0 74.0 454.5115753811406 0.493239653755233 25.0 0.0 21.0 
536.0000042429967 218.0 74.0 454.52286843591133 0.5200584307804832 25.0 0.0 21.0 
538.0000042429967 214.0 73.0 454.5160926030497 0.49376267571594123 24.0 0.0 21.0 
540.0000042429967 214.0 73.0 454.52512704686643 0.4937627266873567 24.0 0.0 21.0 
542.0000042429967 214.0 73.0 451.9322416713719 0.4937626851745549 23.0 0.0 20.0 
544.0000042429967 214.0 73.0 451.90287972896607 0.5031085231817938 23.0 0.0 20.0 
546.0000042429967 214.0 73.0 451.93450028232695 0.5097065310758916 23.0 0.0 20.0 
548.0000042429967 214.0 73.0 451.9322416713719 0.5031084953314334 23.0 0.0 20.0 
550.0000042429967 213.0 72.0 451.90287972896607 0.5150805334599501 23.0 0.0 20.0 
552.0000042429967 212.0 72.0 451.9232072275548 0.49364422617385945 23.0 0.0 20.0 
554.0000042429967 212.0 72.0 451.93675889328097 0.4936442165350827 23.0 0.0 20.0 
556.0000042429967 212.0 72.0 451.9096555618291 0.5031680946013068 23.0 0.0 20.0 
558.0000042429967 211.0 71.0 451.92998306041795 0.5169818477493884 23.0 0.0 20.0 
560.0000042429967 212.0 72.0 449.3483907396953 0.4941978442452542 22.0 0.0 19.0 
562.0000042429967 212.0 72.0 449.3303218520614 0.49419775017449563 22.0 0.0 19.0 
564.0000042429967 215.0 73.0 446.75098814229284 0.49199653266747073 21.0 0.0 18.0 
566.0000042429967 216.0 73.0 446.7442123094297 0.494252285717376 21.0 0.0 18.0 
568.0000042429967 216.0 73.0 446.75324675324634 0.49425233765967563 21.0 0.0 18.0 
570.0000042429967 216.0 73.0 446.75098814229284 0.5085380899650117 21.0 0.0 18.0 
572.0000042429967 214.0 72.0 446.7216261998868 0.49358280750434547 21.0 0.0 18.0 
574.0000042429967 214.0 72.0 446.75324675324634 0.4935827685785155 21.0 0.0 18.0 
576.0000042429967 214.0 72.0 446.75098814229284 0.4935827788506094 21.0 0.0 18.0 
578.0000042429967 214.0 72.0 446.7216261998868 0.493582837239355 21.0 0.0 18.0 
580.0000042429967 214.0 72.0 446.7419536984757 0.4935827885820667 21.0 0.0 18.0 
582.0000042429967 219.0 74.0 446.75550536420036 0.49467307716974035 21.0 0.0 18.0 
584.0000042429967 222.0 75.0 444.1377752682106 0.5076375974531728 20.0 0.0 17.0 
586.0000042429967 219.0 74.0 444.158102766798 0.5159559899166841 20.0 0.0 17.0 
588.0000042429967 218.0 74.0 438.9858836815354 0.493826087521217 20.0 0.0 15.0 
590.0000042429967 229.0 75.0 446.7690570299261 0.4924242920666518 21.0 0.0 18.0 
592.0000042429967 232.0 77.0 446.780350084698 0.5002473757156776 24.0 0.0 18.0 
594.0000042429967 230.0 77.0 446.76679841897254 0.5378773338274588 24.0 0.0 18.0 
596.0000042429967 226.0 76.0 446.7758328627892 0.49416076781454665 23.0 0.0 18.0 
598.0000042429967 226.0 76.0 446.7848673066058 0.49416066498645134 22.0 0.0 18.0 
600.0000042429967 226.0 76.0 446.7329192546587 0.5031698198796551 22.0 0.0 18.0 
602.0000042429967 227.0 77.0 446.7826086956523 0.5878309945129535 22.0 0.0 18.0 
604.0000042429967 224.0 74.0 446.76228119706377 0.49503707791937646 22.0 0.0 18.0 
606.0000042429967 230.0 75.0 446.75098814229284 0.49508230464651326 22.0 0.0 18.0 
608.0000042429967 230.0 75.0 446.75324675324634 0.4950821031692955 22.0 0.0 18.0 
610.0000042429967 234.0 75.0 451.9796725014116 0.5185417279546881 24.0 0.0 20.0 
612.0000042429967 232.0 75.0 457.1586674195365 0.4915956311885506 26.0 0.0 22.0 
614.0000042429967 236.0 76.0 457.18802936194174 0.5006564584691762 26.0 0.0 22.0 
616.0000042429967 234.0 76.0 457.1677018633543 0.513859905263045 26.0 0.0 22.0 
618.0000042429967 227.0 75.0 459.73122529644235 0.4934418216789094 26.0 0.0 23.0 
620.0000042429967 242.0 76.0 464.97120271033305 0.5031217613495687 28.0 0.0 25.0 
622.0000042429967 245.0 77.0 467.5663466967813 0.5587041115377843 28.0 0.0 26.0 
624.0000042429967 242.0 75.0 467.53472614342184 0.5172874301193029 28.0 0.0 26.0 
626.0000042429967 240.0 74.0 467.5618294748723 0.4958460926508033 28.0 0.0 26.0 
628.0000042429967 246.0 76.0 467.50536420101594 0.500851711092925 29.0 0.0 26.0 
630.0000042429967 249.0 76.0 470.1208356860535 0.5580897756150828 30.0 0.0 27.0 
632.0000042429967 228.0 75.0 470.0959909655558 0.5079184632983976 30.0 0.0 27.0 
634.0000042429967 225.0 74.0 470.0869565217386 0.5040306640691995 30.0 0.0 27.0 
636.0000042429967 226.0 75.0 470.0914737436481 0.49676288078883424 30.0 0.0 27.0 
638.0000042429967 226.0 75.0 470.1027667984183 0.4967629364991982 30.0 0.0 27.0 
640.0000042429967 226.0 75.0 470.06211180124217 0.5135850176522732 30.0 0.0 27.0 
642.0000042429967 220.0 75.0 470.089215132694 0.515478599307829 30.0 0.0 27.0 
644.0000042429967 217.0 74.0 470.0846979107851 0.5320589353986783 30.0 0.0 27.0 
646.0000042429967 226.0 75.0 470.082439299831 0.49820497627129756 30.0 0.0 27.0 
648.0000042429967 225.0 75.0 470.1208356860535 0.5545723112143582 30.0 0.0 27.0 
650.0000042429967 218.0 73.0 470.0937323546016 0.49501176920334355 30.0 0.0 27.0 
652.0000042429967 218.0 73.0 470.0846979107851 0.49501184770784995 30.0 0.0 27.0 
654.0000042429967 226.0 74.0 470.10502540937375 0.49525308187677575 30.0 0.0 27.0 
656.0000042429967 226.0 74.0 470.082439299831 0.5186199871611377 30.0 0.0 27.0 
658.0000042429967 218.0 73.0 470.0914737436481 0.495330368132197 30.0 0.0 27.0 
660.0000042429967 218.0 73.0 470.1118012422356 0.4953303877583238 30.0 0.0 27.0 
662.0000042429967 218.0 73.0 470.0779220779219 0.49533041162793556 30.0 0.0 27.0 
664.0000042429967 218.0 73.0 470.0575945793332 0.5299230705994452 30.0 0.0 27.0 
#####################################################################
# End of data export. Simulation finished at: 2019-03-11T20:58+0000 #
#####################################################################
