#####################################################################
# Alchemist log file - simulation started at: 2019-03-03T06:43+0000 #
#####################################################################
# seed = 0.0, bandwidth = 17782.79410038923, accessPointCount = 141.4213562373095, baserange = 31.622776601683796
#
# The columns have the following meaning: 
# time neighbor_count[Sum] <value>@neighbor_count[Sum] packet_size[Mean] mean_delay[Mean] crowd[Sum] overcrowded[Sum] risk[Sum] 
0.0 NaN NaN NaN NaN NaN NaN NaN 
10.000405536260626 119.0 18.0 4986.332112332112 0.7479340953910854 1497.0 0.0 1497.0 
20.000405536260626 122.0 18.0 4986.351648351649 0.7989214526663033 1494.0 3.0 1494.0 
30.000405536260626 122.0 18.0 4986.224664224665 1.182520586204133 1493.0 4.0 1493.0 
40.00040553626063 122.0 18.0 4986.322344322344 0.7738753038558382 1493.0 4.0 1493.0 
50.00040553626063 122.0 18.0 4986.293040293041 0.7999045086125616 1493.0 4.0 1493.0 
60.00040553626063 122.0 18.0 4983.482295482296 1.1823872904826063 1492.0 4.0 1492.0 
70.00023014856866 122.0 18.0 428.08058608058616 0.7619571230975448 6.0 4.0 6.0 
80.00023014856866 122.0 18.0 428.08058608058616 0.7850198463440874 6.0 4.0 6.0 
90.00023014856866 122.0 18.0 428.08058608058616 1.1289498874963508 6.0 4.0 6.0 
100.00023014856866 122.0 18.0 428.08058608058616 0.7620774595128117 6.0 4.0 6.0 
110.00023014856866 122.0 18.0 428.08058608058616 0.7850198463440874 6.0 4.0 6.0 
120.00023014856866 122.0 18.0 428.08058608058616 1.1289498874963508 6.0 4.0 6.0 
130.00023014856865 122.0 18.0 428.08058608058616 0.7620774595128129 6.0 4.0 6.0 
140.00023014856865 122.0 18.0 428.08058608058616 0.7850198463440863 6.0 4.0 6.0 
150.00023014856865 122.0 18.0 428.08058608058616 1.7215424800889423 6.0 4.0 6.0 
160.00023014856865 122.0 18.0 428.08058608058616 2.095290456430877 6.0 4.0 6.0 
170.00023014856865 120.0 17.0 428.08058608058616 0.8096209262922224 6.0 4.0 6.0 
180.00023014856865 120.0 17.0 428.08058608058616 1.1810653707366667 6.0 4.0 6.0 
190.00023014856865 120.0 17.0 428.08058608058616 0.7847131851859565 6.0 4.0 6.0 
200.00023014856865 120.0 17.0 428.08058608058616 0.8096209262922224 6.0 4.0 6.0 
210.00023014856865 120.0 17.0 428.08058608058616 1.1810653707366667 6.0 4.0 6.0 
220.00023014856865 120.0 17.0 428.08058608058616 0.7847131851859565 6.0 4.0 6.0 
230.00023014856865 120.0 17.0 428.08058608058616 0.8096209262922224 6.0 4.0 6.0 
240.00023014856865 120.0 17.0 428.08058608058616 1.1810653707366667 6.0 4.0 6.0 
250.00023014856865 120.0 17.0 428.08058608058616 0.7847131851859565 6.0 4.0 6.0 
260.0002301485686 120.0 17.0 428.08058608058616 0.8096209262922441 6.0 4.0 6.0 
270.0002301485686 120.0 17.0 428.08058608058616 1.1810653707366887 6.0 4.0 6.0 
280.0002301485686 120.0 17.0 428.08058608058616 0.7848431485144665 6.0 4.0 6.0 
290.0002301485686 120.0 17.0 428.08058608058616 0.8096209262922441 6.0 4.0 6.0 
300.0002301485686 120.0 17.0 428.08058608058616 1.1810653707366887 6.0 4.0 6.0 
310.0002301485686 120.0 17.0 428.08058608058616 0.7848431485144665 6.0 4.0 6.0 
320.0002301485686 120.0 17.0 428.08058608058616 0.8096209262922441 6.0 4.0 6.0 
330.0002301485686 120.0 17.0 428.08058608058616 1.1810653707366887 6.0 4.0 6.0 
340.0002301485686 121.0 18.0 428.08058608058616 0.7746360665131069 6.0 4.0 6.0 
350.0002301485686 126.0 19.0 428.08058608058616 0.7716271871164434 6.0 4.0 6.0 
360.0002301485686 126.0 19.0 428.08058608058616 1.1032740125132687 6.0 4.0 6.0 
370.0002301485686 126.0 19.0 428.08058608058616 0.7852184569577132 6.0 4.0 6.0 
380.0002301485686 126.0 19.0 428.08058608058616 1.5216271871164433 6.0 4.0 6.0 
390.0002301485686 126.0 19.0 428.08058608058616 2.567559726798983 6.0 4.0 6.0 
400.0002301485686 124.0 18.0 428.08058608058616 0.7704270808011978 6.0 4.0 6.0 
410.0002301485686 126.0 19.0 428.08058608058616 0.7716271871164434 6.0 4.0 6.0 
420.0002301485686 128.0 20.0 428.08058608058616 1.1615561681452118 6.0 4.0 6.0 
430.0002301485686 128.0 20.0 428.08058608058616 1.4980376496266934 6.0 4.0 6.0 
440.0002301485686 127.0 19.0 428.08058608058616 1.4775152899761528 6.0 4.0 6.0 
450.0002301485686 126.0 19.0 428.08058608058616 1.6389882982275545 6.0 4.0 6.0 
460.0002301485686 126.0 19.0 428.08058608058616 1.9995041712434276 6.0 4.0 6.0 
470.0002301485686 124.0 18.0 428.08058608058616 0.7942518671259842 6.0 4.0 6.0 
480.0002301485686 124.0 18.0 428.08058608058616 1.151409986784104 6.0 4.0 6.0 
490.0002301485686 124.0 18.0 428.08058608058616 0.7704270808011978 6.0 4.0 6.0 
500.0002301485686 124.0 18.0 428.08058608058616 0.7942518671259842 6.0 4.0 6.0 
510.0002301485686 124.0 18.0 428.08058608058616 1.151409986784104 6.0 4.0 6.0 
520.0002301485686 124.0 18.0 428.08058608058616 0.7703021160622657 6.0 4.0 6.0 
530.0002301485686 124.0 18.0 428.08058608058616 0.7942518671259837 6.0 4.0 6.0 
540.0002301485686 124.0 18.0 428.08058608058616 1.1514099867841034 6.0 4.0 6.0 
550.0002301485686 124.0 18.0 428.08058608058616 0.7703021160622657 6.0 4.0 6.0 
560.0002301485686 124.0 18.0 428.08058608058616 0.7942518671259837 6.0 4.0 6.0 
570.0002301485686 124.0 18.0 428.08058608058616 1.1514099867841034 6.0 4.0 6.0 
580.0002301485686 124.0 18.0 428.08058608058616 0.7703021160622657 6.0 4.0 6.0 
590.0002301485686 130.0 21.0 428.08058608058616 0.7348620821009393 6.0 4.0 6.0 
600.0002301485686 130.0 21.0 428.08058608058616 1.3688030543231615 6.0 4.0 6.0 
610.0002301485686 130.0 21.0 428.08058608058616 2.0279029093616687 6.0 4.0 6.0 
620.0002301485686 128.0 20.0 428.08058608058616 1.7853524644415075 6.0 4.0 6.0 
630.0002301485686 126.0 19.0 428.08058608058616 1.1032740125132683 6.0 4.0 6.0 
640.0002301485686 126.0 19.0 428.08058608058616 0.749504171243427 6.0 4.0 6.0 
650.0002301485686 126.0 19.0 428.08058608058616 0.771627187116443 6.0 4.0 6.0 
660.0002301485686 126.0 19.0 428.08058608058616 1.1032740125132683 6.0 4.0 6.0 
#####################################################################
# End of data export. Simulation finished at: 2019-03-03T06:49+0000 #
#####################################################################
