#####################################################################
# Alchemist log file - simulation started at: 2019-03-06T07:45+0000 #
#####################################################################
# seed = 8.0, bandwidth = 5623413.251903491, accessPointCount = 531.8295896944988, baserange = 17.78279410038923
#
# The columns have the following meaning: 
# time neighbor_count[Sum] <value>@neighbor_count[Sum] packet_size[Mean] mean_delay[Mean] crowd[Sum] overcrowded[Sum] risk[Sum] 
0.0 NaN NaN NaN NaN NaN NaN NaN 
2.0003240043582746 90.0 44.0 4982.351084812623 0.49233665504781154 1497.0 0.0 1497.0 
4.000324004358275 94.0 44.0 4982.816568047338 0.49428144095139254 1497.0 0.0 1497.0 
6.000198348008885 96.0 44.0 4982.544378698225 0.49304491210698304 1497.0 0.0 1497.0 
8.000324004358275 125.0 44.0 4982.396449704142 0.49686681778295855 1497.0 0.0 1497.0 
10.000324004358275 136.0 44.0 4982.493096646943 0.49537301137887857 1497.0 0.0 1497.0 
12.000324004358275 136.0 44.0 4982.370808678501 0.4953741604209587 1497.0 0.0 1497.0 
14.000324004358275 136.0 44.0 4982.390532544378 0.49537411664792713 1497.0 0.0 1497.0 
16.000198348008887 136.0 44.0 4982.473372781065 0.49537367891761086 1497.0 0.0 1497.0 
18.000324004358273 136.0 44.0 4982.360946745563 0.49537440117263254 1497.0 0.0 1497.0 
20.000324004358273 136.0 44.0 4982.433925049309 0.49537399627208994 1497.0 0.0 1497.0 
22.000324004358273 136.0 44.0 4982.396449704142 0.495373985328832 1497.0 0.0 1497.0 
24.000324004358273 136.0 44.0 4982.422090729783 0.49537413853444284 1497.0 0.0 1497.0 
26.000198348008887 136.0 44.0 4982.39842209073 0.4953740291018637 1497.0 0.0 1497.0 
28.000324004358273 136.0 44.0 4982.337278106509 0.49537424796702184 1497.0 0.0 1497.0 
30.000324004358273 136.0 44.0 4982.428007889546 0.4953738649529952 1497.0 0.0 1497.0 
32.00032400435827 136.0 44.0 4982.420118343195 0.49537404004512153 1497.0 0.0 1497.0 
34.00032400435827 136.0 44.0 4982.376725838264 0.49537418230747493 1497.0 0.0 1497.0 
36.00019834800889 136.0 44.0 4982.426035502958 0.4953739087260272 1497.0 0.0 1497.0 
38.00032400435827 136.0 44.0 4982.402366863906 0.4953740400451221 1497.0 0.0 1497.0 
40.00032400435827 136.0 44.0 4982.463510848126 0.49537405098838 1497.0 0.0 1497.0 
42.00032400435827 136.0 44.0 4982.386587771203 0.4953741057046697 1497.0 0.0 1497.0 
44.00032400435827 136.0 44.0 4982.351084812623 0.49537417136421696 1497.0 0.0 1497.0 
46.00019834800889 136.0 44.0 4982.48717948718 0.49537381023670596 1497.0 0.0 1497.0 
48.00032400435827 136.0 44.0 4982.357001972387 0.4953741057046697 1497.0 0.0 1497.0 
50.00032400435827 136.0 44.0 4982.319526627219 0.4953744230591489 1497.0 0.0 1497.0 
52.00032400435827 136.0 44.0 4982.497041420118 0.4953736570310952 1497.0 0.0 1497.0 
54.00032400435827 136.0 44.0 4982.382642998027 0.4953738758962536 1497.0 0.0 1497.0 
56.00019834800889 136.0 44.0 4982.333333333333 0.49537469664059663 1497.0 0.0 1497.0 
58.00032400435827 136.0 44.0 4982.504930966469 0.49537355854177406 1497.0 0.0 1497.0 
60.00032400435827 136.0 44.0 4982.408284023669 0.49537384306647975 1497.0 0.0 1497.0 
62.000927030832834 136.0 44.0 431.73570019723934 0.4963304370132414 36.0 0.0 14.0 
64.00092703083283 136.0 44.0 431.73570019723934 0.4963618222769212 36.0 0.0 14.0 
66.0001983480089 136.0 44.0 431.73570019723934 0.4963618222769246 35.0 0.0 14.0 
68.00092703083283 136.0 44.0 431.73570019723934 0.4963618222769246 26.0 0.0 14.0 
70.00092703083283 136.0 44.0 431.73570019723934 0.4963618222769246 24.0 0.0 14.0 
72.00092703083283 137.0 44.0 431.73570019723934 0.49624425556115304 23.0 0.0 14.0 
74.00092703083283 138.0 45.0 431.73570019723934 0.496468301278318 19.0 0.0 14.0 
76.0001983480089 138.0 45.0 431.73570019723934 0.496468301278318 19.0 0.0 14.0 
78.00092703083283 138.0 45.0 431.73570019723934 0.496468301278318 17.0 0.0 14.0 
80.00092703083283 138.0 45.0 431.73570019723934 0.496468301278318 16.0 0.0 14.0 
82.00092703083283 139.0 46.0 431.73570019723934 0.4891684377061044 16.0 0.0 14.0 
84.00092703083283 140.0 46.0 431.73570019723934 0.49656860758397836 16.0 0.0 14.0 
86.0001983480089 140.0 46.0 431.73570019723934 0.49656860758397836 16.0 0.0 14.0 
88.00092703083283 140.0 46.0 431.73570019723934 0.49656860758397836 16.0 0.0 14.0 
90.00092703083283 140.0 46.0 431.73570019723934 0.49656860758397836 16.0 0.0 14.0 
92.00092703083283 140.0 46.0 431.73570019723934 0.49656860758397836 16.0 0.0 14.0 
94.00092703083283 140.0 46.0 431.73570019723934 0.49656860758397836 16.0 0.0 14.0 
96.0001983480089 140.0 46.0 431.73570019723934 0.49656860758397836 16.0 0.0 14.0 
98.00092703083283 140.0 46.0 431.73570019723934 0.49656860758397836 16.0 0.0 14.0 
100.00092703083283 140.0 46.0 431.73570019723934 0.49656860758397836 16.0 0.0 14.0 
102.00092703083283 140.0 46.0 431.73570019723934 0.5110613612071668 16.0 0.0 14.0 
104.00092703083283 139.0 45.0 431.73570019723934 0.5332817109548046 16.0 0.0 14.0 
106.0001983480089 138.0 45.0 431.73570019723934 0.496468301278318 16.0 0.0 14.0 
108.00092703083283 138.0 45.0 431.73570019723934 0.496468301278318 16.0 0.0 14.0 
110.00092703083283 138.0 45.0 431.73570019723934 0.496468301278318 16.0 0.0 14.0 
112.00092703083283 138.0 45.0 431.73570019723934 0.496468301278318 16.0 0.0 14.0 
114.00092703083283 138.0 45.0 431.73570019723934 0.496468301278318 16.0 0.0 14.0 
116.0001983480089 138.0 45.0 431.73570019723934 0.496468301278318 16.0 0.0 14.0 
118.00092703083283 138.0 45.0 431.73570019723934 0.496468301278318 15.0 0.0 14.0 
120.00092703083283 138.0 45.0 431.73570019723934 0.496468301278318 15.0 0.0 14.0 
122.00092703083283 138.0 45.0 431.73570019723934 0.49646723961896855 15.0 0.0 14.0 
124.00092703083283 142.0 46.0 431.73570019723934 0.4965160538373775 15.0 0.0 14.0 
126.0001983480089 142.0 46.0 431.73570019723934 0.4965160538373775 15.0 0.0 14.0 
128.00092703083283 142.0 46.0 431.73570019723934 0.4965160538373775 15.0 0.0 14.0 
130.00092703083283 142.0 46.0 431.73570019723934 0.49651605383737263 15.0 0.0 14.0 
132.00092703083283 142.0 46.0 431.73570019723934 0.49651605383737263 15.0 0.0 14.0 
134.00092703083283 142.0 46.0 431.73570019723934 0.49651605383737263 15.0 0.0 14.0 
136.0001983480089 142.0 46.0 431.73570019723934 0.49651605383737263 15.0 0.0 14.0 
138.00092703083283 142.0 46.0 431.73570019723934 0.49651605383737263 15.0 0.0 14.0 
140.00092703083283 142.0 46.0 431.73570019723934 0.49651605383737263 15.0 0.0 14.0 
142.00092703083283 142.0 46.0 431.73570019723934 0.49651605383737263 15.0 0.0 14.0 
144.00092703083283 142.0 46.0 431.73570019723934 0.49651605383737263 15.0 0.0 14.0 
146.0001983480089 142.0 46.0 431.73570019723934 0.49651605383737263 15.0 0.0 14.0 
148.00092703083283 142.0 46.0 431.73570019723934 0.49651605383737263 15.0 0.0 14.0 
150.00092703083283 142.0 46.0 431.73570019723934 0.49651605383737263 15.0 0.0 14.0 
152.00092703083283 142.0 46.0 431.73570019723934 0.49651605383737263 15.0 0.0 14.0 
154.00092703083283 142.0 46.0 431.73570019723934 0.49651605383737263 15.0 0.0 14.0 
156.0001983480089 143.0 46.0 431.73570019723934 0.4925467799342625 15.0 0.0 14.0 
158.00092703083283 146.0 48.0 431.73570019723934 0.49670565466994016 15.0 0.0 14.0 
160.00092703083283 146.0 48.0 431.73570019723934 0.49670565466994016 15.0 0.0 14.0 
162.00092703083283 148.0 49.0 431.73570019723934 0.49006754462095803 16.0 0.0 14.0 
164.00092703083283 150.0 49.0 431.73570019723934 0.4957617441448519 16.0 0.0 14.0 
166.0001983480089 150.0 49.0 431.73570019723934 0.4957617441448519 16.0 0.0 14.0 
168.00092703083283 150.0 49.0 431.73570019723934 0.4957617441448519 16.0 0.0 14.0 
170.00092703083283 150.0 49.0 431.73570019723934 0.4957617441448519 16.0 0.0 14.0 
172.00092703083283 150.0 49.0 431.73570019723934 0.5053775549230615 16.0 0.0 14.0 
174.00092703083283 148.0 48.0 431.73570019723934 0.5349363433588407 16.0 0.0 14.0 
176.0001983480089 146.0 48.0 431.73570019723934 0.49670565466994016 15.0 0.0 14.0 
178.00092703083283 146.0 48.0 431.73570019723934 0.49670565466994016 15.0 0.0 14.0 
180.00092703083283 146.0 48.0 431.73570019723934 0.49670565466994016 15.0 0.0 14.0 
182.00092703083283 146.0 48.0 431.73570019723934 0.49670565466994016 15.0 0.0 14.0 
184.00092703083283 146.0 48.0 431.73570019723934 0.49670565466994016 15.0 0.0 14.0 
186.0001983480089 146.0 48.0 431.73570019723934 0.49670565466994016 15.0 0.0 14.0 
188.00092703083283 150.0 49.0 431.73570019723934 0.4967468850894538 15.0 0.0 14.0 
190.00092703083283 150.0 49.0 431.73570019723934 0.4967468850894538 15.0 0.0 14.0 
192.00092703083283 150.0 49.0 431.73570019723934 0.4967468850894538 15.0 0.0 14.0 
194.00092703083283 150.0 49.0 431.73570019723934 0.4967468850894538 15.0 0.0 14.0 
196.0001983480089 150.0 49.0 431.73570019723934 0.4967468850894538 15.0 0.0 14.0 
198.00092703083283 150.0 49.0 431.73570019723934 0.5378437499000892 15.0 0.0 14.0 
200.00092703083283 146.0 48.0 431.73570019723934 0.49670565466994016 15.0 0.0 14.0 
202.00092703083283 146.0 48.0 431.73570019723934 0.49670565466994016 15.0 0.0 14.0 
204.00092703083283 146.0 48.0 431.73570019723934 0.49670565466994016 15.0 0.0 14.0 
206.0001983480089 146.0 48.0 431.73570019723934 0.49670565466994016 15.0 0.0 14.0 
208.00092703083283 146.0 48.0 431.73570019723934 0.49670565466994016 15.0 0.0 14.0 
210.00092703083283 146.0 48.0 431.73570019723934 0.49670565466994016 15.0 0.0 14.0 
212.00092703083283 146.0 48.0 431.73570019723934 0.49670565466994016 15.0 0.0 14.0 
214.00092703083283 146.0 48.0 431.73570019723934 0.49670565466994016 15.0 0.0 14.0 
216.0001983480089 146.0 48.0 431.73570019723934 0.49670565466994016 15.0 0.0 14.0 
218.00092703083283 148.0 49.0 431.73570019723934 0.49679276856598464 15.0 0.0 14.0 
220.00092703083283 148.0 49.0 431.73570019723934 0.49679276856598464 15.0 0.0 14.0 
222.00092703083283 148.0 49.0 431.73570019723934 0.49679276856598464 15.0 0.0 14.0 
224.00092703083283 148.0 49.0 431.73570019723934 0.49679276856598464 15.0 0.0 14.0 
226.0001983480089 148.0 49.0 431.73570019723934 0.49679276856598464 15.0 0.0 14.0 
228.00092703083283 148.0 49.0 431.73570019723934 0.49679276856598464 15.0 0.0 14.0 
230.00092703083283 148.0 49.0 431.73570019723934 0.49679276856598464 15.0 0.0 14.0 
232.00092703083283 149.0 49.0 431.73570019723934 0.49588745428751196 15.0 0.0 14.0 
234.00092703083283 150.0 50.0 431.73570019723934 0.49687529752013215 15.0 0.0 14.0 
236.0001983480089 150.0 50.0 431.73570019723934 0.49687529752013215 15.0 0.0 14.0 
238.00092703083283 150.0 50.0 431.73570019723934 0.49687529752013215 15.0 0.0 14.0 
240.00092703083283 150.0 50.0 431.73570019723934 0.49687529752013215 15.0 0.0 14.0 
242.00092703083283 150.0 50.0 431.73570019723934 0.49687529752013215 15.0 0.0 14.0 
244.00092703083283 150.0 50.0 431.73570019723934 0.49687529752013215 15.0 0.0 14.0 
246.0001983480089 150.0 50.0 431.73570019723934 0.5100331922569742 15.0 0.0 14.0 
248.00092703083283 149.0 50.0 431.73570019723934 0.5538651527600968 15.0 0.0 14.0 
250.00092703083283 146.0 48.0 431.73570019723934 0.4967056546699401 15.0 0.0 14.0 
252.00092703083283 146.0 48.0 431.73570019723934 0.4967056546699401 15.0 0.0 14.0 
254.00092703083283 147.0 49.0 431.73570019723934 0.4932626516198904 15.0 0.0 14.0 
256.0001983480089 148.0 49.0 431.73570019723934 0.49679276856598464 15.0 0.0 14.0 
258.0009270308328 148.0 49.0 431.73570019723934 0.49679276856597915 15.0 0.0 14.0 
260.0009270308328 148.0 49.0 431.73570019723934 0.49679276856597915 15.0 0.0 14.0 
262.0009270308328 148.0 49.0 431.73570019723934 0.49679324918203605 15.0 0.0 14.0 
264.0009270308328 148.0 49.0 431.73570019723934 0.5508477838521469 15.0 0.0 14.0 
266.0001983480089 144.0 48.0 431.73570019723934 0.4967527314875083 15.0 0.0 14.0 
268.0009270308328 144.0 48.0 431.73570019723934 0.4967527314875083 15.0 0.0 14.0 
270.0009270308328 144.0 48.0 431.73570019723934 0.4967527314875083 15.0 0.0 14.0 
272.0009270308328 144.0 48.0 431.73570019723934 0.4967527314875083 15.0 0.0 14.0 
274.0009270308328 144.0 48.0 431.73570019723934 0.5104513616244947 15.0 0.0 14.0 
276.0001983480089 143.0 47.0 431.73570019723934 0.5280219856468309 15.0 0.0 14.0 
278.0009270308328 142.0 47.0 431.73570019723934 0.496663262830154 15.0 0.0 14.0 
280.0009270308328 142.0 47.0 431.73570019723934 0.496663262830154 15.0 0.0 14.0 
282.0009270308328 142.0 47.0 431.73570019723934 0.496663262830154 15.0 0.0 14.0 
284.0009270308328 142.0 47.0 431.73570019723934 0.496663262830154 15.0 0.0 14.0 
286.0001983480089 142.0 47.0 431.73570019723934 0.496663262830154 15.0 0.0 14.0 
288.0009270308328 142.0 47.0 431.73570019723934 0.496663262830154 15.0 0.0 14.0 
290.0009270308328 142.0 47.0 431.73570019723934 0.496663262830154 15.0 0.0 14.0 
292.0009270308328 142.0 47.0 431.73570019723934 0.496663262830154 15.0 0.0 14.0 
294.0009270308328 142.0 47.0 431.73570019723934 0.496663262830154 15.0 0.0 14.0 
296.0001983480089 142.0 47.0 431.73570019723934 0.496663262830154 15.0 0.0 14.0 
298.0009270308328 142.0 47.0 431.73570019723934 0.496663262830154 15.0 0.0 14.0 
300.0009270308328 142.0 47.0 431.73570019723934 0.496663262830154 15.0 0.0 14.0 
302.0009270308328 142.0 47.0 431.73570019723934 0.496663262830154 15.0 0.0 14.0 
304.0009270308328 146.0 49.0 431.73570019723934 0.49683742848313706 15.0 0.0 14.0 
306.0001983480089 146.0 49.0 431.73570019723934 0.49683742848313706 15.0 0.0 14.0 
308.0009270308328 147.0 49.0 431.73570019723934 0.4926599363533014 15.0 0.0 14.0 
310.0009270308328 150.0 51.0 431.73570019723934 0.4926348507381447 15.0 0.0 14.0 
312.0009270308328 150.0 51.0 431.73570019723934 0.4926348507381447 15.0 0.0 14.0 
314.0009270308328 150.0 51.0 431.73570019723934 0.5182758763791704 15.0 0.0 14.0 
316.0001983480089 148.0 50.0 431.73570019723934 0.49244290289379095 15.0 0.0 14.0 
318.0009270308328 148.0 50.0 431.73570019723934 0.5056017335671648 15.0 0.0 14.0 
320.0009270308328 147.0 50.0 431.73570019723934 0.5499508345774998 15.0 0.0 14.0 
322.0009270308328 144.0 48.0 431.73570019723934 0.4967527314875083 15.0 0.0 14.0 
324.0009270308328 144.0 48.0 431.73570019723934 0.4967527314875083 15.0 0.0 14.0 
326.0001983480089 144.0 48.0 431.73570019723934 0.4967527314875083 15.0 0.0 14.0 
328.0009270308328 144.0 48.0 431.73570019723934 0.4967527314875083 15.0 0.0 14.0 
330.0009270308328 144.0 48.0 431.73570019723934 0.4967527314875083 15.0 0.0 14.0 
332.0009270308328 144.0 48.0 431.73570019723934 0.5104513616244947 15.0 0.0 14.0 
334.0009270308328 143.0 48.0 431.73570019723934 0.5246437080493348 15.0 0.0 14.0 
336.0001983480089 142.0 47.0 431.73570019723934 0.496663262830154 15.0 0.0 14.0 
338.0009270308328 142.0 47.0 431.73570019723934 0.496663262830154 15.0 0.0 14.0 
340.0009270308328 142.0 47.0 431.73570019723934 0.496663262830154 15.0 0.0 14.0 
342.0009270308328 146.0 48.0 431.73570019723934 0.4967056546699345 15.0 0.0 14.0 
344.0009270308328 148.0 49.0 431.73570019723934 0.4967927685659792 15.0 0.0 14.0 
346.0001983480089 148.0 49.0 431.73570019723934 0.4967927685659792 15.0 0.0 14.0 
348.0009270308328 148.0 49.0 431.73570019723934 0.4967927685659792 15.0 0.0 14.0 
350.0009270308328 148.0 49.0 431.73570019723934 0.4967927685659792 15.0 0.0 14.0 
352.0009270308328 148.0 49.0 431.73570019723934 0.5373342703386335 15.0 0.0 14.0 
354.0009270308328 146.0 49.0 431.73570019723934 0.49683742848313706 15.0 0.0 14.0 
356.0001983480089 146.0 49.0 431.73570019723934 0.49683742848313706 15.0 0.0 14.0 
358.0009270308328 146.0 49.0 431.73570019723934 0.5368374284831371 15.0 0.0 14.0 
360.0009270308328 146.0 49.0 431.73570019723934 0.49683742848313706 15.0 0.0 14.0 
362.0009270308328 146.0 49.0 431.73570019723934 0.49683742848313706 15.0 0.0 14.0 
364.0009270308328 146.0 49.0 431.73570019723934 0.5635040951498038 15.0 0.0 14.0 
366.0001983480089 142.0 47.0 431.73570019723934 0.496663262830154 15.0 0.0 14.0 
368.0009270308328 142.0 47.0 431.73570019723934 0.496663262830154 15.0 0.0 14.0 
370.0009270308328 142.0 47.0 431.73570019723934 0.5530012909991681 15.0 0.0 14.0 
372.0009270308328 140.0 46.0 431.73570019723934 0.49656860758396754 15.0 0.0 14.0 
374.0009270308328 142.0 47.0 431.73570019723934 0.496663262830154 15.0 0.0 14.0 
376.0001983480089 142.0 47.0 431.73570019723934 0.496663262830154 15.0 0.0 14.0 
378.0009270308328 143.0 47.0 431.73570019723934 0.4905591695150751 15.0 0.0 14.0 
380.0009270308328 146.0 48.0 431.73570019723934 0.4967056546699345 15.0 0.0 14.0 
382.0009270308328 148.0 49.0 431.73570019723934 0.49679276856597915 15.0 0.0 14.0 
384.0009270308328 148.0 49.0 431.73570019723934 0.5373333091065197 15.0 0.0 14.0 
386.0001983480089 146.0 48.0 431.73570019723934 0.4967056546699345 15.0 0.0 14.0 
388.0009270308328 146.0 48.0 431.73570019723934 0.503650099114379 15.0 0.0 14.0 
390.0009270308328 145.0 48.0 431.73570019723934 0.5533217567099494 15.0 0.0 14.0 
392.0009270308328 143.0 47.0 431.73570019723934 0.5392978405102371 15.0 0.0 14.0 
394.0009270308328 142.0 47.0 431.73570019723934 0.496663262830154 15.0 0.0 14.0 
396.0001983480089 142.0 47.0 431.73570019723934 0.496663262830154 15.0 0.0 14.0 
398.0009270308328 144.0 48.0 431.73570019723934 0.4966614025305302 15.0 0.0 14.0 
400.0009270308328 144.0 48.0 431.73570019723934 0.4966609085640273 15.0 0.0 14.0 
402.0009270308328 144.0 48.0 431.73570019723934 0.5105497974529162 15.0 0.0 14.0 
404.0009270308328 143.0 48.0 431.73570019723934 0.5238483459269553 15.0 0.0 14.0 
406.0001983480089 142.0 47.0 431.73570019723934 0.496567538270897 15.0 0.0 14.0 
408.0009270308328 142.0 47.0 431.73570019723934 0.5179971258591315 15.0 0.0 14.0 
410.0009270308328 140.0 46.0 431.73570019723934 0.49656860758396754 15.0 0.0 14.0 
412.0009270308328 140.0 46.0 431.73570019723934 0.49656860758396754 15.0 0.0 14.0 
414.0009270308328 142.0 47.0 431.73570019723934 0.49666326283015394 15.0 0.0 14.0 
416.0001983480089 142.0 47.0 431.73570019723934 0.49666326283015394 15.0 0.0 14.0 
418.0009270308328 142.0 47.0 431.73570019723934 0.49666326283015394 15.0 0.0 14.0 
420.0009270308328 142.0 47.0 431.73570019723934 0.49666326283015394 15.0 0.0 14.0 
422.0009270308328 142.0 47.0 431.73570019723934 0.49666326283015394 15.0 0.0 14.0 
424.0009270308328 144.0 48.0 431.73570019723934 0.4967527314875083 15.0 0.0 14.0 
426.0001983480089 144.0 48.0 431.73570019723934 0.4967527314875083 15.0 0.0 14.0 
428.0009270308328 144.0 48.0 431.73570019723934 0.4967527314875083 15.0 0.0 14.0 
430.0009270308328 144.0 48.0 431.73570019723934 0.4967527314875083 15.0 0.0 14.0 
432.0009270308328 145.0 49.0 431.73570019723934 0.49004090509399845 15.0 0.0 14.0 
434.0009270308328 148.0 50.0 431.73570019723934 0.5488657775828891 15.0 0.0 14.0 
436.0001983480089 149.0 49.0 431.73570019723934 0.49230103474366704 15.0 0.0 14.0 
438.0009270308328 150.0 50.0 431.73570019723934 0.49687529752012677 15.0 0.0 14.0 
440.0009270308328 150.0 50.0 431.73570019723934 0.49687529752012677 15.0 0.0 14.0 
442.0009270308328 150.0 50.0 431.73570019723934 0.49687529752012677 15.0 0.0 14.0 
444.0009270308328 150.0 50.0 431.73570019723934 0.5495078124040269 15.0 0.0 14.0 
446.0001983480089 148.0 50.0 431.73570019723934 0.5099047386218502 15.0 0.0 14.0 
448.0009270308328 147.0 50.0 431.73570019723934 0.5281958279431203 15.0 0.0 14.0 
450.0009270308328 146.0 49.0 431.73570019723934 0.4968374284831371 15.0 0.0 14.0 
452.0009270308328 146.0 49.0 431.73570019723934 0.4968374284831371 15.0 0.0 14.0 
454.0009270308328 146.0 49.0 431.73570019723934 0.5235040951498038 15.0 0.0 14.0 
456.0001983480089 144.0 48.0 431.73570019723934 0.5378486218984672 15.0 0.0 14.0 
458.0009270308328 142.0 47.0 431.73570019723934 0.496663262830154 15.0 0.0 14.0 
460.0009270308328 144.0 48.0 431.73570019723934 0.4967527314875083 15.0 0.0 14.0 
462.0009270308328 144.0 48.0 431.73570019723934 0.4967527314875083 15.0 0.0 14.0 
464.0009270308328 144.0 48.0 431.73570019723934 0.4967527314875083 15.0 0.0 14.0 
466.0001983480089 144.0 48.0 431.73570019723934 0.4967527314875083 15.0 0.0 14.0 
468.0009270308328 144.0 48.0 431.73570019723934 0.4967527314875083 15.0 0.0 14.0 
470.0009270308328 144.0 48.0 431.73570019723934 0.5378486218984673 15.0 0.0 14.0 
472.0009270308328 144.0 48.0 431.73570019723934 0.49825611417858146 15.0 0.0 14.0 
474.0009270308328 144.0 48.0 431.73570019723934 0.49825611417858146 15.0 0.0 14.0 
476.0001983480089 144.0 48.0 431.73570019723934 0.49825611417858146 15.0 0.0 14.0 
478.0009270308328 146.0 49.0 431.73570019723934 0.49830132376358166 15.0 0.0 14.0 
480.0009270308328 146.0 49.0 431.73570019723934 0.49830132376358166 15.0 0.0 14.0 
482.0009270308328 146.0 49.0 431.73570019723934 0.5388428255362359 15.0 0.0 14.0 
484.0009270308328 144.0 48.0 431.73570019723934 0.4967527314875083 15.0 0.0 14.0 
486.0001983480089 146.0 49.0 431.73570019723934 0.4968374284831371 15.0 0.0 14.0 
488.0009270308328 148.0 49.0 431.73570019723934 0.4967090928338942 15.0 0.0 14.0 
490.0009270308328 150.0 51.0 431.73570019723934 0.49699395710797006 15.0 0.0 14.0 
492.0009270308328 152.0 52.0 431.73570019723934 0.4975459345978957 15.0 0.0 14.0 
494.0009270308328 152.0 52.0 431.73570019723934 0.4975459345978957 15.0 0.0 14.0 
496.0001983480089 152.0 52.0 431.73570019723934 0.4975459345978957 15.0 0.0 14.0 
498.0009270308328 152.0 52.0 431.73570019723934 0.4975459345978957 15.0 0.0 14.0 
500.0009270308328 152.0 52.0 431.73570019723934 0.4975459345978957 15.0 0.0 14.0 
502.0009270308328 152.0 52.0 431.73570019723934 0.5475472683074534 15.0 0.0 14.0 
504.0009270308328 149.0 50.0 431.73570019723934 0.5290057055533571 15.0 0.0 14.0 
506.0001983480089 150.0 51.0 431.73570019723934 0.4969939571079701 15.0 0.0 14.0 
508.0009270308328 150.0 51.0 431.73570019723934 0.5476268685003751 15.0 0.0 14.0 
510.0009270308328 148.0 50.0 431.73570019723934 0.4969177256348371 15.0 0.0 14.0 
512.0009270308328 148.0 50.0 431.73570019723934 0.4969177256348371 15.0 0.0 14.0 
514.0009270308328 150.0 51.0 431.73570019723934 0.49699395710800476 15.0 0.0 14.0 
516.0001983480089 150.0 51.0 431.73570019723934 0.5349686406523085 15.0 0.0 14.0 
518.0009270308328 148.0 50.0 431.73570019723934 0.49691772563487124 15.0 0.0 14.0 
520.0009270308328 148.0 50.0 431.73570019723934 0.49691772563487124 15.0 0.0 14.0 
522.0009270308328 148.0 50.0 431.73570019723934 0.49691772563487124 15.0 0.0 14.0 
524.0009270308328 148.0 50.0 431.73570019723934 0.49691772563487124 15.0 0.0 14.0 
526.0001983480089 148.0 50.0 431.73570019723934 0.49691772563487124 15.0 0.0 14.0 
528.0009270308328 148.0 50.0 431.73570019723934 0.5228917516088972 15.0 0.0 14.0 
530.0009270308328 148.0 51.0 431.73570019723934 0.5513326823039921 15.0 0.0 14.0 
532.0009270308328 146.0 49.0 431.73570019723934 0.4984508296186968 15.0 0.0 14.0 
534.0009270308328 146.0 49.0 431.73570019723934 0.4984508296186968 15.0 0.0 14.0 
536.0001983480089 146.0 49.0 431.73570019723934 0.4984508296186968 15.0 0.0 14.0 
538.0009270308328 148.0 50.0 431.73570019723934 0.49848972538724806 15.0 0.0 14.0 
540.0009270308328 150.0 51.0 431.73570019723934 0.5241690200492672 15.0 0.0 14.0 
542.0009270308328 150.0 51.0 431.73570019723934 0.49844700108202966 15.0 0.0 14.0 
544.0009270308328 150.0 51.0 431.73570019723934 0.49844700108202966 15.0 0.0 14.0 
546.0001983480089 150.0 51.0 431.73570019723934 0.49844700108202966 15.0 0.0 14.0 
548.0009270308328 150.0 51.0 431.73570019723934 0.5176791382200386 15.0 0.0 14.0 
550.0009270308328 148.0 50.0 431.73570019723934 0.49691772563487124 15.0 0.0 14.0 
552.0009270308328 148.0 50.0 431.73570019723934 0.5488657775829232 15.0 0.0 14.0 
554.0009270308328 147.0 50.0 431.73570019723934 0.5310575324919445 15.0 0.0 14.0 
556.0001983480089 146.0 49.0 431.73570019723934 0.5368374284831706 15.0 0.0 14.0 
558.0009270308328 144.0 48.0 431.73570019723934 0.49675273148754123 15.0 0.0 14.0 
560.0009270308328 146.0 49.0 431.73570019723934 0.49683742848317064 15.0 0.0 14.0 
562.0009270308328 146.0 49.0 431.73570019723934 0.49683742848317064 15.0 0.0 14.0 
564.0009270308328 146.0 49.0 431.73570019723934 0.5101707618165039 15.0 0.0 14.0 
566.0001983480089 145.0 48.0 431.73570019723934 0.5292600243660515 15.0 0.0 14.0 
568.0009270308328 144.0 48.0 431.73570019723934 0.49675273148754123 15.0 0.0 14.0 
570.0009270308328 144.0 48.0 431.73570019723934 0.5241499917615139 15.0 0.0 14.0 
572.0009270308328 142.0 47.0 431.73570019723934 0.5107477698724397 15.0 0.0 14.0 
574.0009270308328 141.0 47.0 431.73570019723934 0.526202820903753 15.0 0.0 14.0 
576.0001983480089 140.0 46.0 431.73570019723934 0.496568607583999 15.0 0.0 14.0 
578.0009270308328 140.0 46.0 431.73570019723934 0.496568607583999 15.0 0.0 14.0 
580.0009270308328 142.0 47.0 431.73570019723934 0.4966632628301862 15.0 0.0 14.0 
582.0009270308328 143.0 47.0 431.73570019723934 0.49398127649590745 15.0 0.0 14.0 
584.0009270308328 146.0 49.0 431.73570019723934 0.49683742848317064 15.0 0.0 14.0 
586.0001983480089 146.0 49.0 431.73570019723934 0.49683742848317064 15.0 0.0 14.0 
588.0009270308328 148.0 50.0 431.73570019723934 0.4971450572160087 15.0 0.0 14.0 
590.0009270308328 148.0 50.0 431.73570019723934 0.4971450572160087 15.0 0.0 14.0 
592.0009270308328 149.0 50.0 431.73570019723934 0.5046046380469882 15.0 0.0 14.0 
594.0009270308328 149.0 51.0 431.73570019723934 0.5257054784324914 15.0 0.0 14.0 
596.0001983480089 148.0 50.0 431.73570019723934 0.4971450572160087 15.0 0.0 14.0 
598.0009270308328 148.0 50.0 431.73570019723934 0.4971450572160087 15.0 0.0 14.0 
600.0009270308328 148.0 50.0 431.73570019723934 0.5366201453313337 15.0 0.0 14.0 
602.0009270308328 146.0 49.0 431.73570019723934 0.510170761816504 15.0 0.0 14.0 
604.0009270308328 145.0 49.0 431.73570019723934 0.5296118156085996 15.0 0.0 14.0 
606.0001983480089 144.0 48.0 431.73570019723934 0.49675273148754123 15.0 0.0 14.0 
608.0009270308328 144.0 48.0 431.73570019723934 0.49675273148754123 15.0 0.0 14.0 
610.0009270308328 144.0 48.0 431.73570019723934 0.49675273148754123 15.0 0.0 14.0 
612.0009270308328 144.0 48.0 431.73570019723934 0.49675273148754123 15.0 0.0 14.0 
614.0009270308328 144.0 48.0 431.73570019723934 0.49675273148754123 15.0 0.0 14.0 
616.0001983480089 144.0 48.0 431.73570019723934 0.49675273148754123 15.0 0.0 14.0 
618.0009270308328 144.0 48.0 431.73570019723934 0.49675273148754123 15.0 0.0 14.0 
620.0009270308328 144.0 48.0 431.73570019723934 0.49675273148754123 15.0 0.0 14.0 
622.0009270308328 144.0 48.0 431.73570019723934 0.49675273148754123 15.0 0.0 14.0 
624.0009270308328 144.0 48.0 431.73570019723934 0.49675273148754123 15.0 0.0 14.0 
626.0001983480089 151.0 50.0 431.73570019723934 0.49387398117391323 15.0 0.0 14.0 
628.0009270308328 156.0 51.0 433.99802761341243 0.5143099130344575 16.0 0.0 15.0 
630.0009270308328 154.0 51.0 433.99802761341243 0.4959487107536412 18.0 0.0 15.0 
632.0009270308328 154.0 51.0 433.99802761341243 0.4959487107536412 18.0 0.0 15.0 
634.0009270308328 156.0 52.0 433.99802761341243 0.49605076608876947 18.0 0.0 15.0 
636.0001983480089 158.0 52.0 433.99802761341243 0.5160625193322483 18.0 0.0 15.0 
638.0009270308328 157.0 52.0 433.99802761341243 0.5425583520173354 18.0 0.0 15.0 
640.0009270308328 154.0 52.0 433.99802761341243 0.4961025571807224 18.0 0.0 15.0 
642.0009270308328 156.0 53.0 433.99802761341243 0.49619703401141185 18.0 0.0 15.0 
644.0009270308328 156.0 53.0 433.99802761341243 0.5455797500607945 18.0 0.0 15.0 
646.0001983480089 154.0 52.0 433.99802761341243 0.5298688387667733 18.0 0.0 15.0 
648.0009270308328 152.0 51.0 433.99802761341243 0.5930865205127261 17.0 0.0 15.0 
650.0009270308328 144.0 48.0 433.99802761341243 0.49675273148754123 16.0 0.0 15.0 
652.0009270308328 144.0 48.0 433.99802761341243 0.49675273148754123 16.0 0.0 15.0 
654.0009270308328 144.0 48.0 433.99802761341243 0.5241499917615139 16.0 0.0 15.0 
656.0001983480089 142.0 47.0 433.99802761341243 0.49666326283018614 16.0 0.0 15.0 
658.0009270308328 142.0 47.0 433.99802761341243 0.49666326283018614 16.0 0.0 15.0 
660.0009270308328 146.0 48.0 433.99802761341243 0.49670565466996464 16.0 0.0 15.0 
662.0009270308328 146.0 48.0 433.99802761341243 0.5383723213366314 16.0 0.0 15.0 
664.0009270308328 144.0 47.0 433.99802761341243 0.49661356283700236 16.0 0.0 15.0 
#####################################################################
# End of data export. Simulation finished at: 2019-03-06T07:47+0000 #
#####################################################################
