#####################################################################
# Alchemist log file - simulation started at: 2019-03-06T11:33+0000 #
#####################################################################
# seed = 6.0, bandwidth = 2.3713737056616552E7, accessPointCount = 19.39227447486858, baserange = 56.234132519034915
#
# The columns have the following meaning: 
# time neighbor_count[Sum] <value>@neighbor_count[Sum] packet_size[Mean] mean_delay[Mean] crowd[Sum] overcrowded[Sum] risk[Sum] 
0.0 NaN NaN NaN NaN NaN NaN NaN 
2.0013042135964882 23.0 10.0 4987.860158311346 0.45983875119632955 1497.0 0.0 1497.0 
4.001304213596488 24.0 10.0 4988.029023746702 0.4633702962184737 1497.0 0.0 1497.0 
6.001304213596488 24.0 10.0 4987.873350923483 0.4633713135612883 1497.0 0.0 1497.0 
8.001304213596487 24.0 10.0 4987.994722955145 0.4633704807106938 1497.0 0.0 1497.0 
10.001304213596487 26.0 10.0 4987.860158311346 0.47266333169663094 1497.0 0.0 1497.0 
12.001304213596487 26.0 10.0 4987.97889182058 0.4726624988460366 1497.0 0.0 1497.0 
14.001304213596487 26.0 10.0 4987.85488126649 0.4726634160359316 1497.0 0.0 1497.0 
16.001304213596487 26.0 10.0 4987.97889182058 0.4726624988460366 1497.0 0.0 1497.0 
18.001304213596487 26.0 10.0 4987.85488126649 0.4726634160359317 1497.0 0.0 1497.0 
20.001304213596487 26.0 10.0 4987.981530343008 0.47266245667638623 1497.0 0.0 1497.0 
22.001304213596487 26.0 10.0 4987.849604221636 0.47266334223904344 1497.0 0.0 1497.0 
24.001304213596487 26.0 10.0 4987.976253298153 0.4726625199308619 1497.0 0.0 1497.0 
26.001304213596487 26.0 10.0 4987.849604221636 0.47266334223904344 1497.0 0.0 1497.0 
28.001304213596487 26.0 10.0 4987.976253298153 0.4726625199308619 1497.0 0.0 1497.0 
30.001304213596487 26.0 10.0 4987.849604221636 0.47266334223904344 1497.0 0.0 1497.0 
32.001304213596484 26.0 10.0 4987.976253298153 0.4726625199308619 1497.0 0.0 1497.0 
34.001304213596484 26.0 10.0 4987.849604221636 0.4726633422390436 1497.0 0.0 1497.0 
36.001304213596484 26.0 10.0 4987.976253298153 0.4726625199308623 1497.0 0.0 1497.0 
38.001304213596484 26.0 10.0 4987.849604221636 0.4726633422390436 1497.0 0.0 1497.0 
40.001304213596484 26.0 10.0 4987.976253298153 0.4726625199308623 1497.0 0.0 1497.0 
42.001304213596484 26.0 10.0 4987.849604221636 0.4726633422390436 1497.0 0.0 1497.0 
44.001304213596484 26.0 10.0 4987.976253298153 0.4726625199308623 1497.0 0.0 1497.0 
46.001304213596484 26.0 10.0 4987.849604221636 0.4726633422390436 1497.0 0.0 1497.0 
48.001304213596484 26.0 10.0 4987.976253298153 0.4726625199308623 1497.0 0.0 1497.0 
50.001304213596484 26.0 10.0 4987.849604221636 0.4726633422390436 1497.0 0.0 1497.0 
52.001304213596484 26.0 10.0 4987.976253298153 0.4726625199308623 1497.0 0.0 1497.0 
54.001304213596484 26.0 10.0 4987.849604221636 0.4726633422390436 1497.0 0.0 1497.0 
56.001304213596484 26.0 10.0 4987.976253298153 0.4726625199308623 1497.0 0.0 1497.0 
58.001304213596484 26.0 10.0 4987.849604221636 0.4726633422390436 1497.0 0.0 1497.0 
60.001304213596484 26.0 10.0 4987.976253298153 0.4726625199308623 1497.0 0.0 1497.0 
62.001304213596484 26.0 10.0 400.0 0.47297779077923724 9.0 0.0 0.0 
64.00130421359648 26.0 10.0 400.0 0.47302632804678213 5.0 0.0 0.0 
66.00130421359648 26.0 10.0 400.0 0.4730263280467817 4.0 0.0 0.0 
68.00130421359648 26.0 10.0 400.0 0.4730263280467817 4.0 0.0 0.0 
70.00130421359648 26.0 10.0 400.0 0.4730263280467817 3.0 0.0 0.0 
72.00130421359648 26.0 10.0 400.0 0.4730263280467817 2.0 0.0 0.0 
74.00130421359648 26.0 10.0 400.0 0.4730263280467817 2.0 0.0 0.0 
76.00130421359648 26.0 10.0 400.0 0.4730263280467817 1.0 0.0 0.0 
78.00130421359648 26.0 10.0 400.0 0.4730263280467817 1.0 0.0 0.0 
80.00130421359648 26.0 10.0 400.0 0.4730263280467817 1.0 0.0 0.0 
82.00130421359648 26.0 10.0 400.0 0.4730263280467817 1.0 0.0 0.0 
84.00130421359648 26.0 10.0 400.0 0.4730263280467817 1.0 0.0 0.0 
86.00130421359648 26.0 10.0 400.0 0.4730263280467817 0.0 0.0 0.0 
88.00130421359648 26.0 10.0 400.0 0.4730263280467817 0.0 0.0 0.0 
90.00130421359648 26.0 10.0 400.0 0.4730263280467817 0.0 0.0 0.0 
92.00130421359648 26.0 10.0 400.0 0.4730263280467817 0.0 0.0 0.0 
94.00130421359648 26.0 10.0 400.0 0.4730263280467817 0.0 0.0 0.0 
96.00130421359648 26.0 10.0 400.0 0.4730263280467817 0.0 0.0 0.0 
98.00130421359648 26.0 10.0 400.0 0.4730263280467817 0.0 0.0 0.0 
100.00130421359648 26.0 10.0 400.0 0.4730263280467817 0.0 0.0 0.0 
102.00130421359648 26.0 10.0 400.0 0.4730263280467817 0.0 0.0 0.0 
104.00130421359648 26.0 10.0 400.0 0.4730263280467817 0.0 0.0 0.0 
106.00130421359648 26.0 10.0 400.0 0.4730263280467817 0.0 0.0 0.0 
108.00130421359648 26.0 10.0 400.0 0.4730263280467817 0.0 0.0 0.0 
110.00130421359648 26.0 10.0 400.0 0.4730263280467817 0.0 0.0 0.0 
112.00130421359648 26.0 10.0 400.0 0.4730263280467817 0.0 0.0 0.0 
114.00130421359648 26.0 10.0 400.0 0.4730263280467817 0.0 0.0 0.0 
116.00130421359648 26.0 10.0 400.0 0.4730263280467817 0.0 0.0 0.0 
118.00130421359648 26.0 10.0 400.0 0.4730263280467817 0.0 0.0 0.0 
120.00130421359648 26.0 10.0 400.0 0.4730263280467817 0.0 0.0 0.0 
122.00130421359648 26.0 10.0 400.0 0.4730263280467817 0.0 0.0 0.0 
124.00130421359648 26.0 10.0 400.0 0.4730263280467817 0.0 0.0 0.0 
126.00130421359648 26.0 10.0 400.0 0.4730263280467817 0.0 0.0 0.0 
128.00130421359648 26.0 10.0 400.0 0.4730263280467817 0.0 0.0 0.0 
130.00130421359648 26.0 10.0 400.0 0.4730263280467864 0.0 0.0 0.0 
132.00130421359648 26.0 10.0 400.0 0.4730263280467864 0.0 0.0 0.0 
134.00130421359648 26.0 10.0 400.0 0.4730263280467864 0.0 0.0 0.0 
136.00130421359648 26.0 10.0 400.0 0.4730263280467864 0.0 0.0 0.0 
138.00130421359648 26.0 10.0 400.0 0.4730263280467864 0.0 0.0 0.0 
140.00130421359648 26.0 10.0 400.0 0.4730263280467864 0.0 0.0 0.0 
142.00130421359648 26.0 10.0 400.0 0.4730263280467864 0.0 0.0 0.0 
144.00130421359648 26.0 10.0 400.0 0.4730263280467864 0.0 0.0 0.0 
146.00130421359648 26.0 10.0 400.0 0.4730263280467864 0.0 0.0 0.0 
148.00130421359648 26.0 10.0 400.0 0.4730263280467864 0.0 0.0 0.0 
150.00130421359648 26.0 10.0 400.0 0.4730263280467864 0.0 0.0 0.0 
152.00130421359648 26.0 10.0 400.0 0.4730263280467864 0.0 0.0 0.0 
154.00130421359648 26.0 10.0 400.0 0.4730263280467864 0.0 0.0 0.0 
156.00130421359648 26.0 10.0 400.0 0.4730263280467864 0.0 0.0 0.0 
158.00130421359648 26.0 10.0 400.0 0.4730263280467864 0.0 0.0 0.0 
160.00130421359648 26.0 10.0 400.0 0.4730263280467864 0.0 0.0 0.0 
162.00130421359648 26.0 10.0 400.0 0.4730263280467864 0.0 0.0 0.0 
164.00130421359648 26.0 10.0 400.0 0.4730263280467864 0.0 0.0 0.0 
166.00130421359648 26.0 10.0 400.0 0.4730263280467864 0.0 0.0 0.0 
168.00130421359648 26.0 10.0 400.0 0.4730263280467864 0.0 0.0 0.0 
170.00130421359648 26.0 10.0 400.0 0.4730263280467864 0.0 0.0 0.0 
172.00130421359648 26.0 10.0 400.0 0.4730263280467864 0.0 0.0 0.0 
174.00130421359648 26.0 10.0 400.0 0.4730263280467864 0.0 0.0 0.0 
176.00130421359648 26.0 10.0 400.0 0.4730263280467864 0.0 0.0 0.0 
178.00130421359648 26.0 10.0 400.0 0.4730263280467864 0.0 0.0 0.0 
180.00130421359648 26.0 10.0 400.0 0.4730263280467864 0.0 0.0 0.0 
182.00130421359648 26.0 10.0 400.0 0.4730263280467864 0.0 0.0 0.0 
184.00130421359648 26.0 10.0 400.0 0.4730263280467864 0.0 0.0 0.0 
186.00130421359648 26.0 10.0 400.0 0.4730263280467864 0.0 0.0 0.0 
188.00130421359648 26.0 10.0 400.0 0.4730263280467864 0.0 0.0 0.0 
190.00130421359648 26.0 10.0 400.0 0.4730263280467864 0.0 0.0 0.0 
192.00130421359648 26.0 10.0 400.0 0.4730263280467864 0.0 0.0 0.0 
194.00130421359648 26.0 10.0 400.0 0.4730263280467864 0.0 0.0 0.0 
196.00130421359648 26.0 10.0 400.0 0.4730263280467864 0.0 0.0 0.0 
198.00130421359648 26.0 10.0 400.0 0.4730263280467864 0.0 0.0 0.0 
200.00130421359648 26.0 10.0 400.0 0.4730263280467864 0.0 0.0 0.0 
202.00130421359648 26.0 10.0 400.0 0.4730263280467864 0.0 0.0 0.0 
204.00130421359648 26.0 10.0 400.0 0.4730263280467864 0.0 0.0 0.0 
206.00130421359648 26.0 10.0 400.0 0.4730263280467864 0.0 0.0 0.0 
208.00130421359648 26.0 10.0 400.0 0.4730263280467864 0.0 0.0 0.0 
210.00130421359648 26.0 10.0 400.0 0.4730263280467864 0.0 0.0 0.0 
212.00130421359648 26.0 10.0 400.0 0.4730263280467864 0.0 0.0 0.0 
214.00130421359648 26.0 10.0 400.0 0.4730263280467864 0.0 0.0 0.0 
216.00130421359648 26.0 10.0 400.0 0.4730263280467864 0.0 0.0 0.0 
218.00130421359648 26.0 10.0 400.0 0.4730263280467864 0.0 0.0 0.0 
220.00130421359648 26.0 10.0 400.0 0.4730263280467864 0.0 0.0 0.0 
222.00130421359648 26.0 10.0 400.0 0.4730263280467864 0.0 0.0 0.0 
224.00130421359648 26.0 10.0 400.0 0.4730263280467864 0.0 0.0 0.0 
226.00130421359648 26.0 10.0 400.0 0.4730263280467864 0.0 0.0 0.0 
228.00130421359648 26.0 10.0 400.0 0.4730263280467864 0.0 0.0 0.0 
230.00130421359648 26.0 10.0 400.0 0.4730263280467864 0.0 0.0 0.0 
232.00130421359648 26.0 10.0 400.0 0.4730263280467864 0.0 0.0 0.0 
234.00130421359648 26.0 10.0 400.0 0.4730263280467864 0.0 0.0 0.0 
236.00130421359648 26.0 10.0 400.0 0.4730263280467864 0.0 0.0 0.0 
238.00130421359648 26.0 10.0 400.0 0.4730263280467864 0.0 0.0 0.0 
240.00130421359648 26.0 10.0 400.0 0.4730263280467864 0.0 0.0 0.0 
242.00130421359648 26.0 10.0 400.0 0.4730263280467864 0.0 0.0 0.0 
244.00130421359648 26.0 10.0 400.0 0.4730263280467864 0.0 0.0 0.0 
246.00130421359648 26.0 10.0 400.0 0.4730263280467864 0.0 0.0 0.0 
248.00130421359648 26.0 10.0 400.0 0.4730263280467864 0.0 0.0 0.0 
250.00130421359648 26.0 10.0 400.0 0.4730263280467864 0.0 0.0 0.0 
252.00130421359648 26.0 10.0 400.0 0.4730263280467864 0.0 0.0 0.0 
254.00130421359648 26.0 10.0 400.0 0.4730263280467864 0.0 0.0 0.0 
256.0013042135965 26.0 10.0 400.0 0.4730263280467864 0.0 0.0 0.0 
258.0013042135965 26.0 10.0 400.0 0.47302632804678585 0.0 0.0 0.0 
260.0013042135965 26.0 10.0 400.0 0.47302632804678585 0.0 0.0 0.0 
262.0013042135965 26.0 10.0 400.0 0.47302632804678585 0.0 0.0 0.0 
264.0013042135965 26.0 10.0 400.0 0.47302632804678585 0.0 0.0 0.0 
266.0013042135965 26.0 10.0 400.0 0.47302632804678585 0.0 0.0 0.0 
268.0013042135965 26.0 10.0 400.0 0.47302632804678585 0.0 0.0 0.0 
270.0013042135965 26.0 10.0 400.0 0.47302632804678585 0.0 0.0 0.0 
272.0013042135965 26.0 10.0 400.0 0.47302632804678585 0.0 0.0 0.0 
274.0013042135965 26.0 10.0 400.0 0.47302632804678585 0.0 0.0 0.0 
276.0013042135965 26.0 10.0 400.0 0.47302632804678585 0.0 0.0 0.0 
278.0013042135965 26.0 10.0 400.0 0.47302632804678585 0.0 0.0 0.0 
280.0013042135965 26.0 10.0 400.0 0.47302632804678585 0.0 0.0 0.0 
282.0013042135965 26.0 10.0 400.0 0.47302632804678585 0.0 0.0 0.0 
284.0013042135965 26.0 10.0 400.0 0.47302632804678585 0.0 0.0 0.0 
286.0013042135965 26.0 10.0 400.0 0.47302632804678585 0.0 0.0 0.0 
288.0013042135965 26.0 10.0 400.0 0.47302632804678585 0.0 0.0 0.0 
290.0013042135965 26.0 10.0 400.0 0.47302632804678585 0.0 0.0 0.0 
292.0013042135965 26.0 10.0 400.0 0.47302632804678585 0.0 0.0 0.0 
294.0013042135965 26.0 10.0 400.0 0.47302632804678585 0.0 0.0 0.0 
296.0013042135965 26.0 10.0 400.0 0.47302632804678585 0.0 0.0 0.0 
298.0013042135965 32.0 11.0 400.0 0.4762671891053516 0.0 0.0 0.0 
300.0013042135965 32.0 11.0 400.0 0.4762671891053516 0.0 0.0 0.0 
302.0013042135965 32.0 11.0 400.0 0.4762671891053516 0.0 0.0 0.0 
304.0013042135965 32.0 11.0 400.0 0.4762671891053516 0.0 0.0 0.0 
306.0013042135965 32.0 11.0 400.0 0.4762671891053516 0.0 0.0 0.0 
308.0013042135965 34.0 11.0 403.04221635883897 0.5287800022493733 1.0 0.0 1.0 
310.0013042135965 32.0 11.0 403.02638522427446 0.4645540079420464 4.0 0.0 1.0 
312.0013042135965 32.0 11.0 403.02638522427446 0.4645540079420464 4.0 0.0 1.0 
314.0013042135965 32.0 11.0 403.02638522427446 0.4645540079420464 4.0 0.0 1.0 
316.0013042135965 32.0 11.0 403.02638522427446 0.4645540079420464 4.0 0.0 1.0 
318.0013042135965 32.0 11.0 403.02638522427446 0.6312361459092546 4.0 0.0 1.0 
320.0013042135965 26.0 10.0 403.02638522427446 0.4729779594578414 3.0 0.0 1.0 
322.0013042135965 26.0 10.0 403.02638522427446 0.4729779594578414 3.0 0.0 1.0 
324.0013042135965 26.0 10.0 403.02638522427446 0.4729779594578414 3.0 0.0 1.0 
326.0013042135965 26.0 10.0 403.02638522427446 0.4729779594578414 3.0 0.0 1.0 
328.0013042135965 26.0 10.0 403.02638522427446 0.4729779594578414 3.0 0.0 1.0 
330.0013042135965 26.0 10.0 403.02638522427446 0.4729779594578414 3.0 0.0 1.0 
332.0013042135965 26.0 10.0 403.02638522427446 0.4729779594578414 3.0 0.0 1.0 
334.0013042135965 26.0 10.0 403.02638522427446 0.4729779594578414 3.0 0.0 1.0 
336.0013042135965 26.0 10.0 403.02638522427446 0.4729779594578414 3.0 0.0 1.0 
338.0013042135965 26.0 10.0 403.02638522427446 0.4729779594578414 3.0 0.0 1.0 
340.0013042135965 26.0 10.0 403.02638522427446 0.4729779594578414 3.0 0.0 1.0 
342.0013042135965 26.0 10.0 403.02638522427446 0.4729779594578414 3.0 0.0 1.0 
344.0013042135965 26.0 10.0 403.02638522427446 0.4729779594578414 3.0 0.0 1.0 
346.0013042135965 26.0 10.0 403.02638522427446 0.4729779594578414 3.0 0.0 1.0 
348.0013042135965 26.0 10.0 403.02638522427446 0.4729779594578414 3.0 0.0 1.0 
350.0013042135965 26.0 10.0 403.02638522427446 0.4729779594578414 3.0 0.0 1.0 
352.0013042135965 26.0 10.0 403.02638522427446 0.4729779594578414 3.0 0.0 1.0 
354.0013042135965 26.0 10.0 403.02638522427446 0.4729779594578414 3.0 0.0 1.0 
356.0013042135965 26.0 10.0 403.02638522427446 0.4729779594578414 3.0 0.0 1.0 
358.0013042135965 26.0 10.0 403.02638522427446 0.4729779594578414 3.0 0.0 1.0 
360.0013042135965 26.0 10.0 403.02638522427446 0.4729779594578414 3.0 0.0 1.0 
362.0013042135965 26.0 10.0 403.02638522427446 0.4729779594578414 3.0 0.0 1.0 
364.0013042135965 26.0 10.0 403.02638522427446 0.4729779594578414 3.0 0.0 1.0 
366.0013042135965 26.0 10.0 403.02638522427446 0.4729779594578414 3.0 0.0 1.0 
368.0013042135965 26.0 10.0 403.02638522427446 0.4729779594578414 3.0 0.0 1.0 
370.0013042135965 26.0 10.0 403.02638522427446 0.4729779594578414 3.0 0.0 1.0 
372.0013042135965 26.0 10.0 403.02638522427446 0.4729779594578414 3.0 0.0 1.0 
374.0013042135965 26.0 10.0 403.02638522427446 0.4729779594578414 3.0 0.0 1.0 
376.0013042135965 26.0 10.0 403.02638522427446 0.4729779594578414 3.0 0.0 1.0 
378.0013042135965 26.0 10.0 403.02638522427446 0.4729779594578414 3.0 0.0 1.0 
380.0013042135965 26.0 10.0 400.0 0.47302632804678585 3.0 0.0 0.0 
382.0013042135965 26.0 10.0 400.0 0.47302632804678585 3.0 0.0 0.0 
384.0013042135965 26.0 10.0 400.0 0.47302632804678585 2.0 0.0 0.0 
386.0013042135965 26.0 10.0 400.0 0.47302632804678585 2.0 0.0 0.0 
388.0013042135965 26.0 10.0 400.0 0.47302632804678585 0.0 0.0 0.0 
390.0013042135965 26.0 10.0 400.0 0.47302632804678585 0.0 0.0 0.0 
392.0013042135965 26.0 10.0 400.0 0.47302632804678585 0.0 0.0 0.0 
394.0013042135965 26.0 10.0 400.0 0.47302632804678585 0.0 0.0 0.0 
396.0013042135965 26.0 10.0 400.0 0.47302632804678585 0.0 0.0 0.0 
398.0013042135965 26.0 10.0 400.0 0.47302632804678585 0.0 0.0 0.0 
400.0013042135965 26.0 10.0 400.0 0.47302632804678585 0.0 0.0 0.0 
402.0013042135965 26.0 10.0 400.0 0.47302632804678585 0.0 0.0 0.0 
404.0013042135965 26.0 10.0 400.0 0.47302632804678585 0.0 0.0 0.0 
406.0013042135965 26.0 10.0 400.0 0.47302632804678585 0.0 0.0 0.0 
408.0013042135965 26.0 10.0 400.0 0.47302632804678585 0.0 0.0 0.0 
410.0013042135965 26.0 10.0 400.0 0.47302632804678585 0.0 0.0 0.0 
412.0013042135965 26.0 10.0 400.0 0.47302632804678585 0.0 0.0 0.0 
414.0013042135965 26.0 10.0 400.0 0.47302632804678585 0.0 0.0 0.0 
416.0013042135965 26.0 10.0 400.0 0.47302632804678585 0.0 0.0 0.0 
418.0013042135965 26.0 10.0 400.0 0.47302632804678585 0.0 0.0 0.0 
420.0013042135965 26.0 10.0 400.0 0.47302632804678585 0.0 0.0 0.0 
422.0013042135965 26.0 10.0 400.0 0.47302632804678585 0.0 0.0 0.0 
424.0013042135965 26.0 10.0 400.0 0.47302632804678585 0.0 0.0 0.0 
426.0013042135965 26.0 10.0 400.0 0.47302632804678585 0.0 0.0 0.0 
428.0013042135965 28.0 11.0 400.0 0.4760215285015703 0.0 0.0 0.0 
430.0013042135965 28.0 11.0 400.0 0.4760215285015703 0.0 0.0 0.0 
432.0013042135965 28.0 11.0 400.0 0.4760215285015703 0.0 0.0 0.0 
434.0013042135965 28.0 11.0 400.0 0.4760215285015703 0.0 0.0 0.0 
436.0013042135965 28.0 11.0 400.0 0.4760215285015703 0.0 0.0 0.0 
438.0013042135965 28.0 11.0 400.0 0.4760215285015703 0.0 0.0 0.0 
440.0013042135965 28.0 11.0 400.0 0.4760215285015703 0.0 0.0 0.0 
442.0013042135965 28.0 11.0 400.0 0.4760215285015703 0.0 0.0 0.0 
444.0013042135965 28.0 11.0 400.0 0.4760215285015703 0.0 0.0 0.0 
446.0013042135965 28.0 11.0 400.0 0.4760215285015703 0.0 0.0 0.0 
448.0013042135965 28.0 11.0 400.0 0.4760215285015703 0.0 0.0 0.0 
450.0013042135965 28.0 11.0 400.0 0.4760215285015703 0.0 0.0 0.0 
452.0013042135965 28.0 11.0 400.0 0.4760215285015703 0.0 0.0 0.0 
454.0013042135965 28.0 11.0 400.0 0.4760215285015703 0.0 0.0 0.0 
456.0013042135965 28.0 11.0 400.0 0.4760215285015703 0.0 0.0 0.0 
458.0013042135965 28.0 11.0 400.0 0.6982437507237925 0.0 0.0 0.0 
460.0013042135965 26.0 10.0 400.0 0.47302632804678585 0.0 0.0 0.0 
462.0013042135965 26.0 10.0 400.0 0.47302632804678585 0.0 0.0 0.0 
464.0013042135965 26.0 10.0 400.0 0.47302632804678585 0.0 0.0 0.0 
466.0013042135965 26.0 10.0 400.0 0.47302632804678585 0.0 0.0 0.0 
468.0013042135965 26.0 10.0 400.0 0.47302632804678585 0.0 0.0 0.0 
470.0013042135965 26.0 10.0 400.0 0.47302632804678585 0.0 0.0 0.0 
472.0013042135965 26.0 10.0 400.0 0.47302632804678585 0.0 0.0 0.0 
474.0013042135965 26.0 10.0 400.0 0.47302632804678585 0.0 0.0 0.0 
476.0013042135965 26.0 10.0 400.0 0.47302632804678585 0.0 0.0 0.0 
478.0013042135965 26.0 10.0 400.0 0.47302632804678585 0.0 0.0 0.0 
480.0013042135965 26.0 10.0 400.0 0.47302632804678585 0.0 0.0 0.0 
482.0013042135965 26.0 10.0 400.0 0.47302632804678585 0.0 0.0 0.0 
484.0013042135965 26.0 10.0 400.0 0.47302632804678585 0.0 0.0 0.0 
486.0013042135965 26.0 10.0 400.0 0.47302632804678585 0.0 0.0 0.0 
488.0013042135965 26.0 10.0 400.0 0.47302632804678585 0.0 0.0 0.0 
490.0013042135965 26.0 10.0 400.0 0.47302632804678585 0.0 0.0 0.0 
492.0013042135965 26.0 10.0 400.0 0.47302632804678585 0.0 0.0 0.0 
494.0013042135965 26.0 10.0 400.0 0.47302632804678585 0.0 0.0 0.0 
496.0013042135965 26.0 10.0 400.0 0.47302632804678585 0.0 0.0 0.0 
498.0013042135965 26.0 10.0 400.0 0.47302632804678585 0.0 0.0 0.0 
500.0013042135965 26.0 10.0 400.0 0.47302632804678585 0.0 0.0 0.0 
502.0013042135965 26.0 10.0 400.0 0.47302632804678585 0.0 0.0 0.0 
504.0013042135965 26.0 10.0 400.0 0.47302632804678585 0.0 0.0 0.0 
506.0013042135965 26.0 10.0 400.0 0.47302632804678585 0.0 0.0 0.0 
508.0013042135965 26.0 10.0 400.0 0.47302632804678585 0.0 0.0 0.0 
510.0013042135965 26.0 10.0 400.0 0.47302632804678585 0.0 0.0 0.0 
512.0013042135965 26.0 10.0 400.0 0.47302632804678585 0.0 0.0 0.0 
514.0013042135965 26.0 10.0 400.0 0.4730263280467521 0.0 0.0 0.0 
516.0013042135965 26.0 10.0 400.0 0.4730263280467521 0.0 0.0 0.0 
518.0013042135965 26.0 10.0 400.0 0.4730263280467521 0.0 0.0 0.0 
520.0013042135965 26.0 10.0 400.0 0.4730263280467521 0.0 0.0 0.0 
522.0013042135965 26.0 10.0 400.0 0.4730263280467521 0.0 0.0 0.0 
524.0013042135965 26.0 10.0 400.0 0.4730263280467521 0.0 0.0 0.0 
526.0013042135965 26.0 10.0 400.0 0.4730263280467521 0.0 0.0 0.0 
528.0013042135965 26.0 10.0 400.0 0.4730263280467521 0.0 0.0 0.0 
530.0013042135965 26.0 10.0 400.0 0.4730263280467521 0.0 0.0 0.0 
532.0013042135965 26.0 10.0 400.0 0.4730263280467521 0.0 0.0 0.0 
534.0013042135965 26.0 10.0 400.0 0.4730263280467521 0.0 0.0 0.0 
536.0013042135965 26.0 10.0 400.0 0.4730263280467521 0.0 0.0 0.0 
538.0013042135965 26.0 10.0 400.0 0.4730263280467521 0.0 0.0 0.0 
540.0013042135965 26.0 10.0 400.0 0.4730263280467521 0.0 0.0 0.0 
542.0013042135965 26.0 10.0 400.0 0.4730263280467521 0.0 0.0 0.0 
544.0013042135965 26.0 10.0 400.0 0.4730263280467521 0.0 0.0 0.0 
546.0013042135965 26.0 10.0 400.0 0.4730263280467521 0.0 0.0 0.0 
548.0013042135965 26.0 10.0 400.0 0.4730263280467521 0.0 0.0 0.0 
550.0013042135965 26.0 10.0 400.0 0.4730263280467521 0.0 0.0 0.0 
552.0013042135965 26.0 10.0 400.0 0.4730263280467521 0.0 0.0 0.0 
554.0013042135965 26.0 10.0 400.0 0.4730263280467521 0.0 0.0 0.0 
556.0013042135965 26.0 10.0 400.0 0.4730263280467521 0.0 0.0 0.0 
558.0013042135965 26.0 10.0 400.0 0.4730263280467521 0.0 0.0 0.0 
560.0013042135965 26.0 10.0 400.0 0.4730263280467521 0.0 0.0 0.0 
562.0013042135965 26.0 10.0 400.0 0.4730263280467521 0.0 0.0 0.0 
564.0013042135965 26.0 10.0 400.0 0.4730263280467521 0.0 0.0 0.0 
566.0013042135965 26.0 10.0 400.0 0.4730263280467521 0.0 0.0 0.0 
568.0013042135965 26.0 10.0 400.0 0.4730263280467521 0.0 0.0 0.0 
570.0013042135965 26.0 10.0 400.0 0.4730263280467521 0.0 0.0 0.0 
572.0013042135965 26.0 10.0 400.0 0.4730263280467521 0.0 0.0 0.0 
574.0013042135965 26.0 10.0 400.0 0.4730263280467521 0.0 0.0 0.0 
576.0013042135965 26.0 10.0 400.0 0.4730263280467521 0.0 0.0 0.0 
578.0013042135965 26.0 10.0 400.0 0.4730263280467521 0.0 0.0 0.0 
580.0013042135965 26.0 10.0 400.0 0.4730263280467521 0.0 0.0 0.0 
582.0013042135965 26.0 10.0 400.0 0.4730263280467521 0.0 0.0 0.0 
584.0013042135965 26.0 10.0 400.0 0.4730263280467521 0.0 0.0 0.0 
586.0013042135965 26.0 10.0 400.0 0.4730263280467521 0.0 0.0 0.0 
588.0013042135965 26.0 10.0 400.0 0.4730263280467521 0.0 0.0 0.0 
590.0013042135965 26.0 10.0 400.0 0.4730263280467521 0.0 0.0 0.0 
592.0013042135965 26.0 10.0 400.0 0.4730263280467521 0.0 0.0 0.0 
594.0013042135965 26.0 10.0 400.0 0.4730263280467521 0.0 0.0 0.0 
596.0013042135965 26.0 10.0 400.0 0.4730263280467521 0.0 0.0 0.0 
598.0013042135965 26.0 10.0 400.0 0.4730263280467521 0.0 0.0 0.0 
600.0013042135965 26.0 10.0 400.0 0.4730263280467521 0.0 0.0 0.0 
602.0013042135965 26.0 10.0 400.0 0.4730263280467521 0.0 0.0 0.0 
604.0013042135965 26.0 10.0 400.0 0.4730263280467521 0.0 0.0 0.0 
606.0013042135965 26.0 10.0 400.0 0.4730263280467521 0.0 0.0 0.0 
608.0013042135965 26.0 10.0 400.0 0.4730263280467521 0.0 0.0 0.0 
610.0013042135965 26.0 10.0 400.0 0.4730263280467521 0.0 0.0 0.0 
612.0013042135965 26.0 10.0 400.0 0.4730263280467521 0.0 0.0 0.0 
614.0013042135965 26.0 10.0 400.0 0.4730263280467521 0.0 0.0 0.0 
616.0013042135965 26.0 10.0 400.0 0.4730263280467521 0.0 0.0 0.0 
618.0013042135965 26.0 10.0 400.0 0.4730263280467521 0.0 0.0 0.0 
620.0013042135965 26.0 10.0 400.0 0.4730263280467521 0.0 0.0 0.0 
622.0013042135965 26.0 10.0 400.0 0.4730263280467521 0.0 0.0 0.0 
624.0013042135965 26.0 10.0 400.0 0.4730263280467521 0.0 0.0 0.0 
626.0013042135965 26.0 10.0 400.0 0.4730263280467521 0.0 0.0 0.0 
628.0013042135965 26.0 10.0 400.0 0.4730263280467521 0.0 0.0 0.0 
630.0013042135965 26.0 10.0 400.0 0.4730263280467521 0.0 0.0 0.0 
632.0013042135965 26.0 10.0 400.0 0.4730263280467521 0.0 0.0 0.0 
634.0013042135965 26.0 10.0 400.0 0.4730263280467521 0.0 0.0 0.0 
636.0013042135965 26.0 10.0 400.0 0.4730263280467521 0.0 0.0 0.0 
638.0013042135965 26.0 10.0 400.0 0.4730263280467521 0.0 0.0 0.0 
640.0013042135965 26.0 10.0 400.0 0.4730263280467521 0.0 0.0 0.0 
642.0013042135965 26.0 10.0 400.0 0.4730263280467521 0.0 0.0 0.0 
644.0013042135965 26.0 10.0 400.0 0.4730263280467521 0.0 0.0 0.0 
646.0013042135965 26.0 10.0 400.0 0.4730263280467521 0.0 0.0 0.0 
648.0013042135965 26.0 10.0 400.0 0.4730263280467521 0.0 0.0 0.0 
650.0013042135965 26.0 10.0 400.0 0.4730263280467521 0.0 0.0 0.0 
652.0013042135965 26.0 10.0 400.0 0.4730263280467521 0.0 0.0 0.0 
654.0013042135965 26.0 10.0 400.0 0.4730263280467521 0.0 0.0 0.0 
656.0013042135965 26.0 10.0 400.0 0.4730263280467521 0.0 0.0 0.0 
658.0013042135965 26.0 10.0 400.0 0.4730263280467521 0.0 0.0 0.0 
660.0013042135965 26.0 10.0 400.0 0.4730263280467521 0.0 0.0 0.0 
662.0013042135965 26.0 10.0 400.0 0.4730263280467521 0.0 0.0 0.0 
664.0013042135965 26.0 10.0 400.0 0.4730263280467521 0.0 0.0 0.0 
#####################################################################
# End of data export. Simulation finished at: 2019-03-06T11:36+0000 #
#####################################################################
