#####################################################################
# Alchemist log file - simulation started at: 2019-03-07T00:38+0000 #
#####################################################################
# seed = 2.0, bandwidth = 17782.79410038923, accessPointCount = 141.4213562373095, baserange = 31.622776601683796
#
# The columns have the following meaning: 
# time neighbor_count[Sum] <value>@neighbor_count[Sum] packet_size[Mean] mean_delay[Mean] crowd[Sum] overcrowded[Sum] risk[Sum] 
0.0 NaN NaN NaN NaN NaN NaN NaN 
10.000005054009561 12.0 5.0 4986.04884004884 0.44066762850711017 1497.0 0.0 1497.0 
20.00000505400956 12.0 5.0 4985.992673992674 0.44103315036848423 1497.0 0.0 1497.0 
30.00000505400956 12.0 5.0 4986.03663003663 0.44103315036848445 1497.0 0.0 1497.0 
40.00000505400956 12.0 5.0 4986.026862026862 0.4412580868985604 1497.0 0.0 1497.0 
50.00000505400956 12.0 5.0 4985.992673992674 0.44111750156726226 1497.0 0.0 1497.0 
60.00000505400956 12.0 5.0 4986.03663003663 0.44103315036848445 1497.0 0.0 1497.0 
70.00015028382745 12.0 5.0 400.0 0.47903774194624954 0.0 0.0 0.0 
80.00015028382745 12.0 5.0 400.0 0.47903774194624954 0.0 0.0 0.0 
90.00015028382745 12.0 5.0 400.0 0.47903774194624954 0.0 0.0 0.0 
100.00015028382745 14.0 6.0 400.0 0.47873146295547664 0.0 0.0 0.0 
110.00015028382745 14.0 6.0 400.0 1.3787314629554765 0.0 0.0 0.0 
120.00015028382745 14.0 6.0 400.0 3.3787314629554763 0.0 0.0 0.0 
130.00015028382745 12.0 5.0 400.0 0.4790377419462484 0.0 0.0 0.0 
140.00015028382745 14.0 6.0 400.0 0.4787314629554757 0.0 0.0 0.0 
150.00015028382745 14.0 6.0 400.0 0.7787314629554757 0.0 0.0 0.0 
160.00015028382745 14.0 6.0 400.0 2.7787314629554762 0.0 0.0 0.0 
170.00015028382745 14.0 6.0 400.0 4.778731462955475 0.0 0.0 0.0 
180.00015028382745 12.0 5.0 400.0 0.4790377419462484 0.0 0.0 0.0 
190.00015028382745 12.0 5.0 400.0 0.4790377419462484 0.0 0.0 0.0 
200.00015028382745 12.0 5.0 400.0 0.4790377419462484 0.0 0.0 0.0 
210.00015028382745 12.0 5.0 400.0 0.4790377419462484 0.0 0.0 0.0 
220.00015028382745 12.0 5.0 400.0 0.4790377419462484 0.0 0.0 0.0 
230.00015028382745 12.0 5.0 400.0 0.4790377419462484 0.0 0.0 0.0 
240.00015028382745 12.0 5.0 400.0 0.4790377419462484 0.0 0.0 0.0 
250.00015028382745 12.0 5.0 400.0 0.4790377419462484 0.0 0.0 0.0 
260.00015028382745 12.0 5.0 400.0 0.4790377419462774 0.0 0.0 0.0 
270.00015028382745 12.0 5.0 400.0 0.4790377419462774 0.0 0.0 0.0 
280.00015028382745 12.0 5.0 400.0 0.4790377419462774 0.0 0.0 0.0 
290.00015028382745 12.0 5.0 400.0 0.4790377419462774 0.0 0.0 0.0 
300.00015028382745 12.0 5.0 400.0 0.4790377419462774 0.0 0.0 0.0 
310.00015028382745 12.0 5.0 400.0 0.4790377419462774 0.0 0.0 0.0 
320.00015028382745 12.0 5.0 400.0 0.4790377419462774 0.0 0.0 0.0 
330.00015028382745 12.0 5.0 400.0 0.4790377419462774 0.0 0.0 0.0 
340.00015028382745 12.0 5.0 400.0 0.4790377419462774 0.0 0.0 0.0 
350.00015028382745 12.0 5.0 400.0 0.4790377419462774 0.0 0.0 0.0 
360.00015028382745 12.0 5.0 400.0 0.4790377419462774 0.0 0.0 0.0 
370.00015028382745 12.0 5.0 400.0 0.4790377419462774 0.0 0.0 0.0 
380.00015028382745 12.0 5.0 400.0 0.4790377419462774 0.0 0.0 0.0 
390.00015028382745 12.0 5.0 400.0 0.4790377419462774 0.0 0.0 0.0 
400.00015028382745 12.0 5.0 400.0 0.4790377419462774 0.0 0.0 0.0 
410.00015028382745 12.0 5.0 400.0 0.4790377419462774 0.0 0.0 0.0 
420.00015028382745 14.0 6.0 400.0 0.4787314629555046 0.0 0.0 0.0 
430.00015028382745 16.0 7.0 400.0 1.7285272769616562 0.0 0.0 0.0 
440.00015028382745 16.0 7.0 400.0 3.8951939436283225 0.0 0.0 0.0 
450.00015028382745 14.0 6.0 400.0 3.078731462955505 0.0 0.0 0.0 
460.00015028382745 12.0 5.0 400.0 0.4790377419462774 0.0 0.0 0.0 
470.00015028382745 19.0 6.0 405.6092796092795 0.49868768137156677 4.0 0.0 2.0 
480.00015028382745 20.0 7.0 405.6092796092795 0.6205377017583662 4.0 0.0 2.0 
490.00015028382745 22.0 7.0 408.4175824175824 2.4839935288220674 4.0 0.0 3.0 
500.00015028382745 22.0 7.0 408.4175824175824 4.5751752700706465 4.0 0.0 3.0 
510.00015028382745 20.0 6.0 408.4175824175824 1.7635461418658092 4.0 0.0 3.0 
520.0001502838275 18.0 6.0 408.4175824175824 0.5414215375421718 4.0 0.0 3.0 
530.0001502838275 18.0 6.0 408.4175824175824 0.5414215375421718 4.0 0.0 3.0 
540.0001502838275 20.0 7.0 408.4175824175824 0.5298005938058521 4.0 0.0 3.0 
550.0001502838275 20.0 7.0 408.4175824175824 0.5298005938058521 4.0 0.0 3.0 
560.0001502838275 20.0 7.0 408.4175824175824 0.5298005938058521 4.0 0.0 3.0 
570.0001502838275 20.0 7.0 408.4175824175824 0.5298005938058521 4.0 0.0 3.0 
580.0001502838275 24.0 9.0 408.4175824175824 1.0794611259243532 4.0 0.0 3.0 
590.0005829790528 26.0 10.0 408.41025641025635 3.2257718348252755 4.0 0.0 3.0 
600.0005829790528 20.0 9.0 408.41025641025635 2.9328494085712107 4.0 0.0 3.0 
610.0001502838275 18.0 8.0 408.41025641025635 2.043959147238055 4.0 0.0 3.0 
620.0001502838275 18.0 8.0 408.41025641025635 5.159343762622671 4.0 0.0 3.0 
630.0001502838275 14.0 6.0 408.41025641025635 3.1828949938926065 4.0 0.0 3.0 
640.0001502838275 12.0 5.0 405.60927960927955 0.4842421556176551 3.0 0.0 2.0 
650.0001502838275 12.0 5.0 405.60927960927955 0.4842421556176551 3.0 0.0 2.0 
660.0001502838275 12.0 5.0 400.0 0.47903774194625726 3.0 0.0 0.0 
#####################################################################
# End of data export. Simulation finished at: 2019-03-07T00:44+0000 #
#####################################################################
