#####################################################################
# Alchemist log file - simulation started at: 2019-03-11T08:21+0000 #
#####################################################################
# seed = 4.0, bandwidth = 1333521.4321633242, accessPointCount = 19.39227447486858, baserange = 56.234132519034915
#
# The columns have the following meaning: 
# time neighbor_count[Sum] <value>@neighbor_count[Sum] packet_size[Mean] mean_delay[Mean] crowd[Sum] overcrowded[Sum] risk[Sum] 
0.0 NaN NaN NaN NaN NaN NaN NaN 
2.000244265926729 12.0 6.0 4987.786279683377 0.4445293931355693 1497.0 0.0 1497.0 
4.000244265926729 17.0 6.0 4987.87598944591 0.3869872852686743 1497.0 0.0 1497.0 
6.000244265926729 22.0 6.0 4987.8073878627965 0.49441849254119596 1497.0 0.0 1497.0 
8.00024426592673 23.0 6.0 4987.862796833773 0.48509132592614396 1497.0 0.0 1497.0 
10.00024426592673 24.0 6.0 4987.833773087072 0.49000007739697315 1497.0 0.0 1497.0 
12.00024426592673 24.0 6.0 4987.831134564643 0.48999141195277635 1497.0 0.0 1497.0 
14.00024426592673 24.0 6.0 4987.831134564643 0.49000274368749497 1497.0 0.0 1497.0 
16.000244265926728 24.0 6.0 4987.849604221636 0.49000241040117976 1497.0 0.0 1497.0 
18.000244265926728 24.0 6.0 4987.778364116095 0.49001674171273557 1497.0 0.0 1497.0 
20.000244265926728 24.0 6.0 4987.844327176781 0.49000707640959285 1497.0 0.0 1497.0 
22.000244265926728 24.0 6.0 4987.817941952507 0.49001174241800644 1497.0 0.0 1497.0 
24.000244265926728 24.0 6.0 4987.817941952507 0.49001174241800605 1497.0 0.0 1497.0 
26.000244265926728 24.0 6.0 4987.820580474934 0.4900110758453759 1497.0 0.0 1497.0 
28.000244265926728 24.0 6.0 4987.833773087072 0.49000607655064676 1497.0 0.0 1497.0 
30.000244265926728 24.0 6.0 4987.815303430079 0.49001374213589816 1497.0 0.0 1497.0 
32.00024426592673 24.0 6.0 4987.841688654354 0.49000640983696225 1497.0 0.0 1497.0 
34.00024426592673 24.0 6.0 4987.778364116095 0.49001507528115934 1497.0 0.0 1497.0 
36.00024426592673 24.0 6.0 4987.841688654354 0.49000707640959323 1497.0 0.0 1497.0 
38.00024426592673 24.0 6.0 4987.817941952507 0.4900120757043219 1497.0 0.0 1497.0 
40.00024426592673 24.0 6.0 4987.804749340369 0.4900117424180068 1497.0 0.0 1497.0 
42.00024426592673 24.0 6.0 4987.817941952507 0.4900120757043219 1497.0 0.0 1497.0 
44.00024426592673 24.0 6.0 4987.844327176781 0.49000674312327813 1497.0 0.0 1497.0 
46.00024426592673 24.0 6.0 4987.7915567282325 0.49001674171273557 1497.0 0.0 1497.0 
48.00024426592673 24.0 6.0 4987.846965699208 0.490006076550648 1497.0 0.0 1497.0 
50.00024426592673 24.0 6.0 4987.8073878627965 0.4900110758453767 1497.0 0.0 1497.0 
52.00024426592673 24.0 6.0 4987.841688654354 0.49000874284116946 1497.0 0.0 1497.0 
54.00024426592673 24.0 6.0 4987.815303430079 0.4900114091316918 1497.0 0.0 1497.0 
56.00024426592673 24.0 6.0 4987.804749340369 0.4900100759864306 1497.0 0.0 1497.0 
58.00024426592673 24.0 6.0 4987.815303430079 0.4900120757043219 1497.0 0.0 1497.0 
60.00024426592673 24.0 6.0 4987.844327176781 0.49000707640959323 1497.0 0.0 1497.0 
62.00027060971607 24.0 6.0 412.14511873350904 0.49306231206157175 6.0 0.0 4.0 
64.00027060971607 24.0 6.0 412.1398416886543 0.4930663114973552 6.0 0.0 4.0 
66.00027060971608 24.0 6.0 412.1398416886543 0.49306631149735364 4.0 0.0 4.0 
68.00027060971608 24.0 6.0 412.1398416886543 0.49306631149735364 4.0 0.0 4.0 
70.00027060971608 24.0 6.0 412.1398416886543 0.49306631149735364 4.0 0.0 4.0 
72.00027060971608 24.0 6.0 412.1398416886543 0.49306631149735364 4.0 0.0 4.0 
74.00027060971608 24.0 6.0 412.1398416886543 0.49306631149735364 4.0 0.0 4.0 
76.00027060971608 24.0 6.0 412.1398416886543 0.49306631149735364 4.0 0.0 4.0 
78.00027060971608 24.0 6.0 412.1398416886543 0.49306631149735364 4.0 0.0 4.0 
80.00027060971608 24.0 6.0 412.1398416886543 0.49306631149735364 4.0 0.0 4.0 
82.00027060971608 24.0 6.0 412.1398416886543 0.49306631149735364 4.0 0.0 4.0 
84.00027060971608 24.0 6.0 412.1398416886543 0.49306631149735364 4.0 0.0 4.0 
86.00027060971608 24.0 6.0 412.1398416886543 0.49306631149735364 4.0 0.0 4.0 
88.00027060971608 24.0 6.0 412.1398416886543 0.49306631149735364 4.0 0.0 4.0 
90.00027060971608 24.0 6.0 412.1398416886543 0.49306631149735364 4.0 0.0 4.0 
92.00027060971608 24.0 6.0 412.1398416886543 0.49306631149735364 4.0 0.0 4.0 
94.00027060971608 24.0 6.0 412.1398416886543 0.49306631149735364 4.0 0.0 4.0 
96.00027060971608 24.0 6.0 412.1398416886543 0.49306631149735364 4.0 0.0 4.0 
98.00027060971608 24.0 6.0 412.1398416886543 0.49306631149735364 4.0 0.0 4.0 
100.00027060971608 24.0 6.0 412.1398416886543 0.49306631149735364 4.0 0.0 4.0 
102.00027060971608 24.0 6.0 412.1398416886543 0.49306631149735364 4.0 0.0 4.0 
104.00027060971608 24.0 6.0 412.1398416886543 0.49306631149735364 4.0 0.0 4.0 
106.00027060971608 24.0 6.0 412.1398416886543 0.49306631149735364 4.0 0.0 4.0 
108.00027060971608 24.0 6.0 412.1398416886543 0.49306631149735364 4.0 0.0 4.0 
110.00027060971608 24.0 6.0 412.1398416886543 0.49306631149735364 4.0 0.0 4.0 
112.00027060971608 24.0 6.0 412.1398416886543 0.49306631149735364 4.0 0.0 4.0 
114.00027060971608 24.0 6.0 412.1398416886543 0.49306631149735364 4.0 0.0 4.0 
116.00027060971608 24.0 6.0 412.1398416886543 0.49306631149735364 4.0 0.0 4.0 
118.00027060971608 24.0 6.0 412.1398416886543 0.49306631149735364 4.0 0.0 4.0 
120.00027060971608 24.0 6.0 412.1398416886543 0.49306631149735364 4.0 0.0 4.0 
122.00027060971608 24.0 6.0 412.1398416886543 0.49306631149735364 4.0 0.0 4.0 
124.00027060971608 24.0 6.0 412.1398416886543 0.49306631149735364 4.0 0.0 4.0 
126.00027060971608 24.0 6.0 412.1398416886543 0.49306631149735364 4.0 0.0 4.0 
128.00027060971607 24.0 6.0 412.1398416886543 0.49306631149735364 4.0 0.0 4.0 
130.00027060971607 24.0 6.0 412.1398416886543 0.49306631149735836 4.0 0.0 4.0 
132.00027060971607 24.0 6.0 412.1398416886543 0.49306631149735836 4.0 0.0 4.0 
134.00027060971607 24.0 6.0 412.1398416886543 0.49306631149735836 4.0 0.0 4.0 
136.00027060971607 24.0 6.0 412.1398416886543 0.49306631149735836 4.0 0.0 4.0 
138.00027060971607 24.0 6.0 412.1398416886543 0.49306631149735836 4.0 0.0 4.0 
140.00027060971607 24.0 6.0 412.1398416886543 0.49306631149735836 4.0 0.0 4.0 
142.00027060971607 24.0 6.0 412.1398416886543 0.49306631149735836 4.0 0.0 4.0 
144.00027060971607 24.0 6.0 412.1398416886543 0.49306631149735836 4.0 0.0 4.0 
146.00027060971607 24.0 6.0 412.1398416886543 0.49306631149735836 4.0 0.0 4.0 
148.00027060971607 24.0 6.0 412.1398416886543 0.49306631149735836 4.0 0.0 4.0 
150.00027060971607 24.0 6.0 412.1398416886543 0.49306631149735836 4.0 0.0 4.0 
152.00027060971607 24.0 6.0 412.1398416886543 0.49306631149735836 4.0 0.0 4.0 
154.00027060971607 24.0 6.0 412.1398416886543 0.49306631149735836 4.0 0.0 4.0 
156.00027060971607 24.0 6.0 412.1398416886543 0.49306631149735836 4.0 0.0 4.0 
158.00027060971607 24.0 6.0 412.1398416886543 0.49306631149735836 4.0 0.0 4.0 
160.00027060971607 24.0 6.0 412.1398416886543 0.49306631149735836 4.0 0.0 4.0 
162.00027060971607 24.0 6.0 412.1398416886543 0.49306631149735836 4.0 0.0 4.0 
164.00027060971607 24.0 6.0 412.1398416886543 0.49306631149735836 4.0 0.0 4.0 
166.00027060971607 24.0 6.0 412.1398416886543 0.49306631149735836 4.0 0.0 4.0 
168.00027060971607 24.0 6.0 412.1398416886543 0.49306631149735836 4.0 0.0 4.0 
170.00027060971607 24.0 6.0 412.1398416886543 0.49306631149735836 4.0 0.0 4.0 
172.00027060971607 24.0 6.0 412.1398416886543 0.49306631149735836 4.0 0.0 4.0 
174.00027060971607 24.0 6.0 412.1398416886543 0.49306631149735836 4.0 0.0 4.0 
176.00027060971607 24.0 6.0 412.1398416886543 0.49306631149735836 4.0 0.0 4.0 
178.00027060971607 24.0 6.0 412.1398416886543 0.49306631149735836 4.0 0.0 4.0 
180.00027060971607 24.0 6.0 412.1398416886543 0.49306631149735836 4.0 0.0 4.0 
182.00027060971607 24.0 6.0 412.1398416886543 0.49306631149735836 4.0 0.0 4.0 
184.00027060971607 24.0 6.0 412.1398416886543 0.49306631149735836 4.0 0.0 4.0 
186.00027060971607 24.0 6.0 412.1398416886543 0.49306631149735836 4.0 0.0 4.0 
188.00027060971607 24.0 6.0 412.1398416886543 0.49306631149735836 4.0 0.0 4.0 
190.00027060971607 24.0 6.0 412.1398416886543 0.49306631149735836 4.0 0.0 4.0 
192.00027060971607 24.0 6.0 412.1398416886543 0.49306631149735836 4.0 0.0 4.0 
194.00027060971607 24.0 6.0 412.1398416886543 0.49306631149735836 4.0 0.0 4.0 
196.00027060971607 24.0 6.0 412.1398416886543 0.49306631149735836 4.0 0.0 4.0 
198.00027060971607 24.0 6.0 412.1398416886543 0.49306631149735836 4.0 0.0 4.0 
200.00027060971607 24.0 6.0 412.1398416886543 0.49306631149735836 4.0 0.0 4.0 
202.00027060971607 24.0 6.0 412.1398416886543 0.49306631149735836 4.0 0.0 4.0 
204.00027060971607 24.0 6.0 412.1398416886543 0.49306631149735836 4.0 0.0 4.0 
206.00027060971607 24.0 6.0 412.1398416886543 0.49306631149735836 4.0 0.0 4.0 
208.00027060971607 24.0 6.0 412.1398416886543 0.49306631149735836 4.0 0.0 4.0 
210.00027060971607 24.0 6.0 412.1398416886543 0.49306631149735836 4.0 0.0 4.0 
212.00027060971607 24.0 6.0 412.1398416886543 0.49306631149735836 4.0 0.0 4.0 
214.00027060971607 24.0 6.0 412.1398416886543 0.49306631149735836 4.0 0.0 4.0 
216.00027060971607 24.0 6.0 412.1398416886543 0.49306631149735836 4.0 0.0 4.0 
218.00027060971607 24.0 6.0 412.1398416886543 0.49306631149735836 4.0 0.0 4.0 
220.00027060971607 24.0 6.0 412.1398416886543 0.49306631149735836 4.0 0.0 4.0 
222.00027060971607 24.0 6.0 412.1398416886543 0.49306631149735836 4.0 0.0 4.0 
224.00027060971607 24.0 6.0 412.1398416886543 0.49306631149735836 4.0 0.0 4.0 
226.00027060971607 24.0 6.0 412.1398416886543 0.49306631149735836 4.0 0.0 4.0 
228.00027060971607 26.0 7.0 412.1398416886543 0.48181389025511934 4.0 0.0 4.0 
230.00027060971607 26.0 7.0 412.1398416886543 0.48181389025511934 4.0 0.0 4.0 
232.00027060971607 26.0 7.0 412.1398416886543 0.48181389025511934 4.0 0.0 4.0 
234.00027060971607 26.0 7.0 412.1398416886543 0.48181389025511934 4.0 0.0 4.0 
236.00027060971607 26.0 7.0 412.1398416886543 0.48181389025511934 4.0 0.0 4.0 
238.00027060971607 26.0 7.0 412.1398416886543 0.48181389025511934 4.0 0.0 4.0 
240.00027060971607 26.0 7.0 412.1398416886543 0.48181389025511934 4.0 0.0 4.0 
242.00027060971607 26.0 7.0 412.1398416886543 0.48181389025511934 4.0 0.0 4.0 
244.00027060971607 26.0 7.0 412.1398416886543 0.48181389025511934 4.0 0.0 4.0 
246.00027060971607 26.0 7.0 412.1398416886543 0.48181389025511934 4.0 0.0 4.0 
248.00027060971607 26.0 7.0 412.1398416886543 0.48181389025511934 4.0 0.0 4.0 
250.00027060971607 26.0 7.0 412.1398416886543 0.48181389025511934 4.0 0.0 4.0 
252.00027060971607 26.0 7.0 412.1398416886543 0.48181389025511934 4.0 0.0 4.0 
254.00027060971607 26.0 7.0 412.1398416886543 0.48181389025511934 4.0 0.0 4.0 
256.0002706097161 26.0 7.0 412.1398416886543 0.48181389025511934 4.0 0.0 4.0 
258.0002706097161 26.0 7.0 412.1398416886543 0.4818138902551118 4.0 0.0 4.0 
260.0002706097161 26.0 7.0 412.1398416886543 0.4818138902551118 4.0 0.0 4.0 
262.0002706097161 26.0 7.0 412.1398416886543 0.4818138902551118 4.0 0.0 4.0 
264.0002706097161 26.0 7.0 412.1398416886543 0.4818138902551118 4.0 0.0 4.0 
266.0002706097161 26.0 7.0 412.1398416886543 0.4818138902551118 4.0 0.0 4.0 
268.0002706097161 26.0 7.0 412.1398416886543 0.4818138902551118 4.0 0.0 4.0 
270.0002706097161 26.0 7.0 412.1398416886543 0.4818138902551118 4.0 0.0 4.0 
272.0002706097161 26.0 7.0 412.1398416886543 0.4818138902551118 4.0 0.0 4.0 
274.0002706097161 26.0 7.0 412.1398416886543 0.4818138902551118 4.0 0.0 4.0 
276.0002706097161 26.0 7.0 412.1398416886543 0.4818138902551118 4.0 0.0 4.0 
278.0002706097161 26.0 7.0 412.1398416886543 0.4818138902551118 4.0 0.0 4.0 
280.0002706097161 26.0 7.0 412.1398416886543 0.4818138902551118 4.0 0.0 4.0 
282.0002706097161 26.0 7.0 412.1398416886543 0.4818138902551118 4.0 0.0 4.0 
284.0002706097161 26.0 7.0 412.1398416886543 0.4818138902551118 4.0 0.0 4.0 
286.0002706097161 26.0 7.0 412.1398416886543 0.4818138902551118 4.0 0.0 4.0 
288.0002706097161 26.0 7.0 412.1398416886543 0.4818138902551118 4.0 0.0 4.0 
290.0002706097161 26.0 7.0 412.1398416886543 0.4818138902551118 4.0 0.0 4.0 
292.0002706097161 26.0 7.0 412.1398416886543 0.4818138902551118 4.0 0.0 4.0 
294.0002706097161 26.0 7.0 412.1398416886543 0.4818138902551118 4.0 0.0 4.0 
296.0002706097161 26.0 7.0 412.1398416886543 0.4818138902551118 4.0 0.0 4.0 
298.0002706097161 26.0 7.0 412.1398416886543 0.4818138902551118 4.0 0.0 4.0 
300.0002706097161 26.0 7.0 412.1398416886543 0.4818138902551118 4.0 0.0 4.0 
302.0002706097161 26.0 7.0 412.1398416886543 0.4818138902551118 4.0 0.0 4.0 
304.0002706097161 26.0 7.0 412.1398416886543 0.4818138902551118 4.0 0.0 4.0 
306.0002706097161 26.0 7.0 412.1398416886543 0.4818138902551118 4.0 0.0 4.0 
308.0002706097161 26.0 7.0 412.1398416886543 0.4818138902551118 4.0 0.0 4.0 
310.0002706097161 26.0 7.0 412.1398416886543 0.4818138902551118 4.0 0.0 4.0 
312.0002706097161 26.0 7.0 412.1398416886543 0.4818138902551118 4.0 0.0 4.0 
314.0002706097161 26.0 7.0 412.1398416886543 0.4818138902551118 4.0 0.0 4.0 
316.0002706097161 26.0 7.0 412.1398416886543 0.4818138902551118 4.0 0.0 4.0 
318.0002706097161 26.0 7.0 412.1398416886543 0.4818138902551118 4.0 0.0 4.0 
320.0002706097161 26.0 7.0 412.1398416886543 0.4818138902551118 4.0 0.0 4.0 
322.0002706097161 26.0 7.0 412.1398416886543 0.4818138902551118 4.0 0.0 4.0 
324.0002706097161 26.0 7.0 412.1398416886543 0.4818138902551118 4.0 0.0 4.0 
326.0002706097161 26.0 7.0 412.1398416886543 0.4818138902551118 4.0 0.0 4.0 
328.0002706097161 26.0 7.0 412.1398416886543 0.4818138902551118 4.0 0.0 4.0 
330.0002706097161 26.0 7.0 412.1398416886543 0.4818138902551118 4.0 0.0 4.0 
332.0002706097161 26.0 7.0 412.1398416886543 0.4818138902551118 4.0 0.0 4.0 
334.0002706097161 27.0 7.0 412.1398416886543 0.4557840934765243 4.0 0.0 4.0 
336.0002706097161 28.0 8.0 412.1398416886543 0.48479491559863463 4.0 0.0 4.0 
338.0002706097161 28.0 8.0 412.1398416886543 0.48479491559863463 4.0 0.0 4.0 
340.0002706097161 28.0 8.0 412.1398416886543 0.48479491559863463 4.0 0.0 4.0 
342.0002706097161 28.0 8.0 412.1398416886543 0.48479491559863463 4.0 0.0 4.0 
344.0002706097161 28.0 8.0 412.1398416886543 0.48479491559863463 4.0 0.0 4.0 
346.0002706097161 28.0 8.0 412.1398416886543 0.48479491559863463 4.0 0.0 4.0 
348.0002706097161 28.0 8.0 412.1398416886543 0.48479491559863463 4.0 0.0 4.0 
350.0002706097161 28.0 8.0 412.1398416886543 0.48479491559863463 4.0 0.0 4.0 
352.0002706097161 28.0 8.0 412.1398416886543 0.48479491559863463 4.0 0.0 4.0 
354.0002706097161 28.0 8.0 412.1398416886543 0.568128248931968 4.0 0.0 4.0 
356.0002706097161 27.0 8.0 412.1398416886543 0.6929138964993606 4.0 0.0 4.0 
358.0002706097161 26.0 7.0 412.1398416886543 0.7032689699810183 4.0 0.0 4.0 
360.0002706097161 24.0 6.0 412.1398416886543 0.49306631149734886 4.0 0.0 4.0 
362.0002706097161 24.0 6.0 412.1398416886543 0.49306631149734886 4.0 0.0 4.0 
364.0002706097161 24.0 6.0 412.1398416886543 0.49306631149734886 4.0 0.0 4.0 
366.0002706097161 24.0 6.0 412.1398416886543 0.49306631149734886 4.0 0.0 4.0 
368.0002706097161 24.0 6.0 412.1398416886543 0.49306631149734886 4.0 0.0 4.0 
370.0002706097161 24.0 6.0 412.1398416886543 0.49306631149734886 4.0 0.0 4.0 
372.0002706097161 24.0 6.0 412.1398416886543 0.49306631149734886 4.0 0.0 4.0 
374.0002706097161 24.0 6.0 412.1398416886543 0.49306631149734886 4.0 0.0 4.0 
376.0002706097161 24.0 6.0 412.1398416886543 0.49306631149734886 4.0 0.0 4.0 
378.0002706097161 24.0 6.0 412.1398416886543 0.49306631149734886 4.0 0.0 4.0 
380.0002706097161 24.0 6.0 412.1398416886543 0.49306631149734886 4.0 0.0 4.0 
382.0002706097161 24.0 6.0 412.1398416886543 0.49306631149734886 4.0 0.0 4.0 
384.0002706097161 24.0 6.0 412.1398416886543 0.49306631149734886 4.0 0.0 4.0 
386.0002706097161 24.0 6.0 412.1398416886543 0.49306631149734886 4.0 0.0 4.0 
388.0002706097161 24.0 6.0 412.1398416886543 0.49306631149734886 4.0 0.0 4.0 
390.0002706097161 29.0 8.0 412.1398416886543 0.4846498268508365 4.0 0.0 4.0 
392.0002706097161 34.0 9.0 412.1398416886543 0.494969017433767 4.0 0.0 4.0 
394.0002706097161 34.0 9.0 412.1398416886543 0.494969017433767 4.0 0.0 4.0 
396.0002706097161 40.0 10.0 421.2295514511874 0.49347484910137224 7.0 0.0 7.0 
398.0002706097161 40.0 10.0 421.26385224274395 0.49297691934637283 7.0 0.0 7.0 
400.0002706097161 40.0 10.0 421.26385224274395 0.49297649083539563 7.0 0.0 7.0 
402.0002706097161 44.0 10.0 424.28759894459097 0.6453793489437525 8.0 0.0 8.0 
404.0002706097161 50.0 11.0 424.3192612137203 0.49201999269070795 9.0 0.0 8.0 
406.0002706097161 50.0 11.0 424.27440633245385 0.580916847122535 9.0 0.0 8.0 
408.0002706097161 46.0 11.0 424.31398416886555 0.48689734468577334 9.0 0.0 8.0 
410.0002706097161 46.0 11.0 424.2612137203165 0.747387528866801 9.0 0.0 8.0 
412.0002706097161 33.0 9.0 424.24538258575205 0.6928022802815554 9.0 0.0 8.0 
414.0002706097161 33.0 9.0 427.29287598944603 0.7629106671671764 9.0 0.0 9.0 
416.0002706097161 30.0 8.0 427.28759894459097 0.7436685182082338 9.0 0.0 9.0 
418.0002706097161 26.0 7.0 427.29287598944603 0.49395748880559415 9.0 0.0 9.0 
420.0002706097161 26.0 7.0 427.2717678100265 0.49395967031602017 9.0 0.0 9.0 
422.0002706097161 26.0 7.0 427.2717678100265 0.49395967031602017 9.0 0.0 9.0 
424.0002706097161 26.0 7.0 427.2717678100265 0.7666869430432929 9.0 0.0 9.0 
426.0002706097161 26.0 7.0 427.2717678100265 0.49427244437351253 9.0 0.0 9.0 
428.0002706097161 26.0 7.0 427.2717678100265 0.49427244437351253 9.0 0.0 9.0 
430.0002706097161 26.0 7.0 427.2717678100265 0.49427244437351253 9.0 0.0 9.0 
432.0002706097161 26.0 7.0 427.2717678100265 0.49427244437351253 9.0 0.0 9.0 
434.0002706097161 26.0 7.0 427.2717678100265 0.49427244437351253 9.0 0.0 9.0 
436.0002706097161 26.0 7.0 427.2717678100265 0.49427244437351253 9.0 0.0 9.0 
438.0002706097161 26.0 7.0 427.2717678100265 0.49427244437351253 9.0 0.0 9.0 
440.0002706097161 26.0 7.0 427.2717678100265 0.49427244437351253 9.0 0.0 9.0 
442.0002706097161 26.0 7.0 427.2717678100265 0.49427244437351253 9.0 0.0 9.0 
444.0002706097161 26.0 7.0 427.2717678100265 0.49427244437351253 9.0 0.0 9.0 
446.0002706097161 26.0 7.0 427.2717678100265 0.49427244437351253 9.0 0.0 9.0 
448.0002706097161 28.0 8.0 427.2717678100265 0.4696131237861276 9.0 0.0 9.0 
450.0002706097161 28.0 8.0 427.2717678100265 0.4696131237861276 9.0 0.0 9.0 
452.0002706097161 28.0 8.0 427.2717678100265 0.4696131237861276 9.0 0.0 9.0 
454.0002706097161 28.0 8.0 427.2717678100265 0.4696131237861276 9.0 0.0 9.0 
456.0002706097161 28.0 8.0 427.2717678100265 0.5946381202597688 9.0 0.0 9.0 
458.0002706097161 30.0 8.0 427.2717678100265 0.49464975478115036 9.0 0.0 9.0 
460.0002706097161 30.0 8.0 427.2717678100265 0.49464975478115036 9.0 0.0 9.0 
462.0002706097161 30.0 8.0 427.2717678100265 0.49464975478115036 9.0 0.0 9.0 
464.0002706097161 30.0 8.0 424.24538258575205 0.49464975478115036 8.0 0.0 8.0 
466.0002706097161 30.0 8.0 424.24538258575205 0.49464975478115036 8.0 0.0 8.0 
468.0002706097161 30.0 8.0 421.2189973614775 0.49464975478115036 7.0 0.0 7.0 
470.0002706097161 30.0 8.0 418.1926121372032 0.49464975478115036 6.0 0.0 6.0 
472.0002706097161 30.0 8.0 415.16622691292895 0.49464975478115036 5.0 0.0 5.0 
474.0002706097161 30.0 8.0 412.1398416886543 0.49464975478115036 4.0 0.0 4.0 
476.0002706097161 30.0 8.0 412.1398416886543 0.49464975478115036 4.0 0.0 4.0 
478.0002706097161 30.0 8.0 412.1398416886543 0.9529830881144836 4.0 0.0 4.0 
480.0002706097161 24.0 6.0 412.1398416886543 0.49306631149734886 4.0 0.0 4.0 
482.0002706097161 24.0 6.0 412.1398416886543 0.49306631149734886 4.0 0.0 4.0 
484.0002706097161 24.0 6.0 412.1398416886543 0.49306631149734886 4.0 0.0 4.0 
486.0002706097161 24.0 6.0 412.1398416886543 0.49306631149734886 4.0 0.0 4.0 
488.0002706097161 24.0 6.0 412.1398416886543 0.49306631149734886 4.0 0.0 4.0 
490.0002706097161 24.0 6.0 412.1398416886543 0.49306631149734886 4.0 0.0 4.0 
492.0002706097161 26.0 7.0 412.1398416886543 0.49427244437351253 4.0 0.0 4.0 
494.0002706097161 26.0 7.0 412.1398416886543 0.49427244437351253 4.0 0.0 4.0 
496.0002706097161 28.0 8.0 412.1398416886543 0.47396142480326847 4.0 0.0 4.0 
498.0002706097161 32.0 9.0 412.1398416886543 0.466229195171845 4.0 0.0 4.0 
500.0002706097161 35.0 9.0 418.20052770448547 0.48497686817686314 7.0 0.0 6.0 
502.0002706097161 36.0 9.0 418.2242744063325 0.4933259415369399 7.0 0.0 6.0 
504.0002706097161 36.0 9.0 418.2058047493405 0.49332801816705374 7.0 0.0 6.0 
506.0002706097161 36.0 9.0 418.2137203166227 0.647376220432483 7.0 0.0 6.0 
508.0002706097161 30.0 8.0 418.2084432717678 0.49407333609890713 7.0 0.0 6.0 
510.0002706097161 30.0 8.0 418.1926121372032 0.49407633567574766 7.0 0.0 6.0 
512.000270609716 30.0 8.0 418.1926121372032 0.8275780202590728 7.0 0.0 6.0 
514.000270609716 26.0 7.0 418.1926121372032 0.4939596703160305 6.0 0.0 6.0 
516.000270609716 26.0 7.0 418.1926121372032 0.4939596703160305 6.0 0.0 6.0 
518.000270609716 26.0 7.0 418.1926121372032 0.5848687612251214 6.0 0.0 6.0 
520.000270609716 25.0 6.0 418.1926121372032 0.71097046615198 6.0 0.0 6.0 
522.000270609716 24.0 6.0 418.1926121372032 0.4930663114973615 6.0 0.0 6.0 
524.000270609716 24.0 6.0 418.1926121372032 0.4930663114973615 6.0 0.0 6.0 
526.000270609716 24.0 6.0 418.1926121372032 0.4930663114973615 6.0 0.0 6.0 
528.000270609716 24.0 6.0 418.1926121372032 0.4930663114973615 6.0 0.0 6.0 
530.000270609716 24.0 6.0 418.1926121372032 0.4930663114973615 6.0 0.0 6.0 
532.000270609716 24.0 6.0 418.1926121372032 0.4930663114973615 6.0 0.0 6.0 
534.000270609716 25.0 7.0 418.1926121372032 0.4797854627921538 6.0 0.0 6.0 
536.000270609716 26.0 7.0 418.1926121372032 0.49427244437352286 6.0 0.0 6.0 
538.000270609716 26.0 7.0 418.1926121372032 0.49427244437352286 6.0 0.0 6.0 
540.000270609716 26.0 7.0 418.1926121372032 0.49427244437352286 6.0 0.0 6.0 
542.000270609716 26.0 7.0 418.1926121372032 0.49427244437352286 6.0 0.0 6.0 
544.000270609716 26.0 7.0 418.1926121372032 0.5851815352826137 6.0 0.0 6.0 
546.000270609716 25.0 6.0 418.1926121372032 0.7076739063663467 6.0 0.0 6.0 
548.000270609716 24.0 6.0 418.1926121372032 0.4930663114973615 6.0 0.0 6.0 
550.000270609716 24.0 6.0 418.1926121372032 0.4930663114973615 6.0 0.0 6.0 
552.000270609716 24.0 6.0 418.1926121372032 0.4930663114973615 6.0 0.0 6.0 
554.000270609716 24.0 6.0 418.1926121372032 0.4930663114973615 6.0 0.0 6.0 
556.000270609716 24.0 6.0 418.1926121372032 0.4930663114973615 6.0 0.0 6.0 
558.000270609716 24.0 6.0 418.1926121372032 0.4930663114973615 6.0 0.0 6.0 
560.000270609716 24.0 6.0 415.1662269129289 0.4930663114973615 5.0 0.0 5.0 
562.000270609716 24.0 6.0 415.1662269129289 0.4930663114973615 5.0 0.0 5.0 
564.000270609716 24.0 6.0 412.1398416886543 0.4930663114973615 4.0 0.0 4.0 
566.000270609716 24.0 6.0 412.1398416886543 0.4930663114973615 4.0 0.0 4.0 
568.000270609716 24.0 6.0 412.1398416886543 0.4930663114973615 4.0 0.0 4.0 
570.000270609716 24.0 6.0 412.1398416886543 0.4930663114973615 4.0 0.0 4.0 
572.000270609716 24.0 6.0 412.1398416886543 0.4930663114973615 4.0 0.0 4.0 
574.000270609716 24.0 6.0 412.1398416886543 0.4930663114973615 4.0 0.0 4.0 
576.000270609716 24.0 6.0 412.1398416886543 0.4930663114973615 4.0 0.0 4.0 
578.000270609716 24.0 6.0 412.1398416886543 0.4930663114973615 4.0 0.0 4.0 
580.000270609716 24.0 6.0 412.1398416886543 0.4930663114973615 4.0 0.0 4.0 
582.000270609716 26.0 7.0 412.1398416886543 0.49427244437352286 4.0 0.0 4.0 
584.000270609716 26.0 7.0 412.1398416886543 0.49427244437352286 4.0 0.0 4.0 
586.000270609716 26.0 7.0 412.1398416886543 0.49427244437352286 4.0 0.0 4.0 
588.000270609716 26.0 7.0 412.1398416886543 0.49427244437352286 4.0 0.0 4.0 
590.000270609716 26.0 7.0 412.1398416886543 0.49427244437352286 4.0 0.0 4.0 
592.000270609716 26.0 7.0 412.1398416886543 0.49427244437352286 4.0 0.0 4.0 
594.000270609716 26.0 7.0 412.1398416886543 0.49427244437352286 4.0 0.0 4.0 
596.000270609716 26.0 7.0 412.1398416886543 0.49427244437352286 4.0 0.0 4.0 
598.000270609716 26.0 7.0 412.1398416886543 0.49427244437352286 4.0 0.0 4.0 
600.000270609716 26.0 7.0 412.1398416886543 0.49427244437352286 4.0 0.0 4.0 
602.000270609716 28.0 8.0 412.1398416886543 0.6577095355466582 4.0 0.0 4.0 
604.000270609716 26.0 7.0 412.1398416886543 0.49427244437352286 4.0 0.0 4.0 
606.000270609716 26.0 7.0 412.1398416886543 0.49427244437352286 4.0 0.0 4.0 
608.000270609716 26.0 7.0 412.1398416886543 0.49427244437352286 4.0 0.0 4.0 
610.000270609716 26.0 7.0 412.1398416886543 0.49427244437352286 4.0 0.0 4.0 
612.000270609716 26.0 7.0 412.1398416886543 0.49427244437352286 4.0 0.0 4.0 
614.000270609716 26.0 7.0 412.1398416886543 0.49427244437352286 4.0 0.0 4.0 
616.000270609716 26.0 7.0 412.1398416886543 0.49427244437352286 4.0 0.0 4.0 
618.000270609716 26.0 7.0 412.1398416886543 0.49427244437352286 4.0 0.0 4.0 
620.000270609716 26.0 7.0 412.1398416886543 0.49427244437352286 4.0 0.0 4.0 
622.000270609716 26.0 7.0 412.1398416886543 0.8579088080098864 4.0 0.0 4.0 
624.000270609716 24.0 6.0 412.1398416886543 0.4930663114973615 4.0 0.0 4.0 
626.000270609716 24.0 6.0 412.1398416886543 0.4930663114973615 4.0 0.0 4.0 
628.000270609716 26.0 7.0 412.1398416886543 0.49427244437352286 4.0 0.0 4.0 
630.000270609716 26.0 7.0 412.1398416886543 0.49427244437352286 4.0 0.0 4.0 
632.000270609716 26.0 7.0 412.1398416886543 0.49427244437352286 4.0 0.0 4.0 
634.000270609716 26.0 7.0 412.1398416886543 0.49427244437352286 4.0 0.0 4.0 
636.000270609716 26.0 7.0 412.1398416886543 0.49427244437352286 4.0 0.0 4.0 
638.000270609716 26.0 7.0 412.1398416886543 0.49427244437352286 4.0 0.0 4.0 
640.000270609716 26.0 7.0 412.1398416886543 0.49427244437352286 4.0 0.0 4.0 
642.000270609716 26.0 7.0 412.1398416886543 0.49427244437352286 4.0 0.0 4.0 
644.000270609716 26.0 7.0 412.1398416886543 0.49427244437352286 4.0 0.0 4.0 
646.000270609716 26.0 7.0 412.1398416886543 0.49427244437352286 4.0 0.0 4.0 
648.000270609716 26.0 7.0 412.1398416886543 0.7669997171007956 4.0 0.0 4.0 
650.000270609716 24.0 6.0 412.1398416886543 0.4930663114973615 4.0 0.0 4.0 
652.000270609716 24.0 6.0 412.1398416886543 0.4930663114973615 4.0 0.0 4.0 
654.000270609716 24.0 6.0 412.1398416886543 0.4930663114973615 4.0 0.0 4.0 
656.000270609716 24.0 6.0 412.1398416886543 0.4930663114973615 4.0 0.0 4.0 
658.000270609716 24.0 6.0 412.1398416886543 0.4930663114973615 4.0 0.0 4.0 
660.000270609716 24.0 6.0 412.1398416886543 0.49306164548895026 4.0 0.0 4.0 
662.000270609716 24.0 6.0 412.1398416886543 0.4930663114973615 4.0 0.0 4.0 
664.000270609716 24.0 6.0 412.1398416886543 0.4930663114973615 4.0 0.0 4.0 
#####################################################################
# End of data export. Simulation finished at: 2019-03-11T08:27+0000 #
#####################################################################
