#####################################################################
# Alchemist log file - simulation started at: 2019-03-08T08:06+0000 #
#####################################################################
# seed = 2.0, bandwidth = 1.0E8, accessPointCount = 72.92664737217109, baserange = 177.82794100389228
#
# The columns have the following meaning: 
# time neighbor_count[Sum] <value>@neighbor_count[Sum] packet_size[Mean] mean_delay[Mean] crowd[Sum] overcrowded[Sum] risk[Sum] 
0.0 NaN NaN NaN NaN NaN NaN NaN 
10.000582979052751 1061.0 144.0 4987.824091778202 0.5077732395863328 1497.0 0.0 1497.0 
20.00058297905275 1060.0 143.0 4987.778202676865 0.49798775053602884 1497.0 0.0 1497.0 
30.00058297905275 1060.0 143.0 4987.655831739962 0.4979878185895023 1497.0 0.0 1497.0 
40.00058297905275 1061.0 143.0 4987.734862970045 0.4959437360251262 1497.0 0.0 1497.0 
50.00058297905275 1062.0 144.0 4987.783301465902 0.49801018860390006 1497.0 0.0 1497.0 
60.00058297905275 1062.0 144.0 4984.785213511791 0.5065816590416614 1496.0 0.0 1496.0 
70.00058297905275 1062.0 145.0 493.8457616316128 0.5072213085884876 64.0 0.0 32.0 
80.00058297905275 1058.0 144.0 493.8049713193119 0.5153277438492276 57.0 0.0 32.0 
90.00058297905275 1068.0 144.0 493.7922243467174 0.4983413023755738 55.0 0.0 32.0 
100.00058297905275 1086.0 147.0 493.78457616316103 0.49842365288766555 56.0 0.0 32.0 
110.00058297905275 1065.0 147.0 493.80242192479295 0.5174349386119156 55.0 0.0 32.0 
120.00058297905275 1058.0 145.0 493.7820267686422 0.5127470507120367 55.0 0.0 32.0 
130.00058297905275 1052.0 145.0 493.8100701083491 0.5146098579908759 55.0 0.0 32.0 
140.00058297905275 1048.0 143.0 493.8049713193119 0.5001099455058032 55.0 0.0 32.0 
150.00058297905275 1048.0 143.0 493.7922243467174 0.5001099507270065 55.0 0.0 32.0 
160.00058297905275 1048.0 143.0 493.78457616316103 0.5001099826788097 55.0 0.0 32.0 
170.00058297905275 1048.0 143.0 487.9286169534728 0.5001107786131372 54.0 0.0 30.0 
180.00058297905275 1049.0 143.0 487.94901210962377 0.49969545869776916 53.0 0.0 30.0 
190.00058297905275 1050.0 143.0 487.93371574251154 0.5001470455048996 53.0 0.0 30.0 
200.00058297905275 1050.0 143.0 487.96175908221863 0.5008613047045971 53.0 0.0 30.0 
210.00058297905275 1048.0 143.0 487.9566602931801 0.5001107320200889 53.0 0.0 30.0 
220.00058297905275 1048.0 143.0 487.9439133205868 0.5001107372412922 53.0 0.0 30.0 
230.00058297905275 1048.0 143.0 487.9362651370304 0.5001107691930953 53.0 0.0 30.0 
240.00058297905275 1046.0 142.0 487.9286169534728 0.5001121055335203 53.0 0.0 30.0 
250.00058297905275 1058.0 143.0 487.94901210962377 0.49990379864508444 53.0 0.0 30.0 
260.00058297905275 1064.0 143.0 487.93371574251154 0.5001077511218579 54.0 0.0 30.0 
270.00058297905275 1070.0 143.0 490.8731676226901 0.5001420631332191 54.0 0.0 31.0 
280.00058297905275 1070.0 143.0 490.8833652007651 0.5001420741762345 54.0 0.0 31.0 
290.00058297905275 1070.0 143.0 496.7495219885271 0.5001371686052887 53.0 0.0 33.0 
300.00058297905275 1064.0 143.0 499.6864244741869 0.49994723528733837 53.0 0.0 34.0 
310.00058297905275 1052.0 143.0 499.66857871255587 0.500146278896479 53.0 0.0 34.0 
320.00058297905275 1052.0 143.0 499.68387507966935 0.5001462513607506 53.0 0.0 34.0 
330.00058297905275 1050.0 142.0 499.6507329509233 0.50014802437279 53.0 0.0 34.0 
340.00058297905275 1050.0 142.0 499.66857871255587 0.5001480162247618 53.0 0.0 34.0 
350.00058297905275 1049.0 141.0 499.68387507966935 0.5132199587654107 53.0 0.0 34.0 
360.00058297905275 1048.0 141.0 496.72657743785834 0.5001498024356296 52.0 0.0 33.0 
370.00058297905275 1050.0 142.0 487.9464627151047 0.5001545250521771 52.0 0.0 30.0 
380.00058297905275 1048.0 142.0 487.96175908221863 0.5000986547397152 52.0 0.0 30.0 
390.00058297905275 1048.0 142.0 487.94136392606765 0.5000986881007863 51.0 0.0 30.0 
400.00058297905275 1070.0 145.0 487.9439133205868 0.5009936462423067 51.0 0.0 30.0 
410.00058297905275 1061.0 145.0 487.93371574251154 0.526833166669932 51.0 0.0 30.0 
420.00058297905275 1058.0 144.0 487.95411089866104 0.5006233702818752 51.0 0.0 30.0 
430.00058297905275 1068.0 145.0 490.86806883365136 0.5013185415375186 55.0 0.0 31.0 
440.00058297905275 1068.0 145.0 490.85787125557727 0.5013185481692731 55.0 0.0 31.0 
450.00058297905275 1068.0 145.0 490.878266411727 0.5013185253386077 55.0 0.0 31.0 
460.00058297905275 1053.0 143.0 490.86806883365136 0.4981411746039702 54.0 0.0 31.0 
470.00058297905275 1056.0 144.0 493.78712555768004 0.5001527699951877 54.0 0.0 32.0 
480.00058297905275 1070.0 146.0 493.77437858508597 0.5010868000924358 54.0 0.0 32.0 
490.00058297905275 1072.0 146.0 493.7820267686423 0.5010826418946714 54.0 0.0 32.0 
500.00058297905275 1070.0 146.0 490.8502230720211 0.506749250275139 51.0 0.0 31.0 
510.00058297905275 1068.0 146.0 493.76927979604875 0.5135009681094403 51.0 0.0 32.0 
520.0005829790528 1066.0 145.0 493.81261950286864 0.5018191261081315 51.0 0.0 32.0 
530.0005829790528 1066.0 145.0 493.81261950286864 0.5018191393040027 51.0 0.0 32.0 
540.0005829790528 1066.0 145.0 493.8100701083496 0.5018191260252376 51.0 0.0 32.0 
550.0005829790528 1066.0 146.0 493.7998725302737 0.5020971882283517 51.0 0.0 32.0 
560.0005829790528 1070.0 146.0 493.81261950286864 0.5017513532297244 51.0 0.0 32.0 
570.0005829790528 1074.0 147.0 490.87316762269 0.5044903833108801 51.0 0.0 31.0 
580.0005829790528 1094.0 147.0 496.7367750159342 0.5000311036720537 56.0 0.0 33.0 
590.0005829790528 1091.0 147.0 496.729126832377 0.497968325026875 56.0 0.0 33.0 
600.0005829790528 1090.0 147.0 499.66347992351825 0.4983884430927647 57.0 0.0 34.0 
610.0005829790528 1078.0 146.0 499.66347992351825 0.4984756145690688 58.0 0.0 34.0 
620.0005829790528 1076.0 147.0 499.66347992351825 0.4997186734447443 58.0 0.0 34.0 
630.0005829790528 1044.0 146.0 499.65073295092384 0.5001048195076124 57.0 0.0 34.0 
640.0005829790528 1036.0 146.0 499.64563416188633 0.50073342112451 56.0 0.0 34.0 
650.0005829790528 1038.0 147.0 496.6806883365198 0.5007335860715667 56.0 0.0 33.0 
660.0005829790528 1042.0 148.0 496.6806883365198 0.5001741426656158 56.0 0.0 33.0 
#####################################################################
# End of data export. Simulation finished at: 2019-03-08T08:13+0000 #
#####################################################################
