#####################################################################
# Alchemist log file - simulation started at: 2019-03-08T04:33+0000 #
#####################################################################
# seed = 2.0, bandwidth = 2.3713737056616552E7, accessPointCount = 1031.338537721246, baserange = 177.82794100389228
#
# The columns have the following meaning: 
# time neighbor_count[Sum] <value>@neighbor_count[Sum] packet_size[Mean] mean_delay[Mean] crowd[Sum] overcrowded[Sum] risk[Sum] 
0.0 NaN NaN NaN NaN NaN NaN NaN 
10.00013478919344 7504.0 2274.0 4983.98417721519 0.5449397095604996 1494.0 3.0 1494.0 
20.00013478919344 7396.0 2221.0 4983.912974683544 0.4990211302799811 1473.0 24.0 1473.0 
30.00013478919344 7402.0 2221.0 4983.0490506329115 0.4989427091900606 1473.0 24.0 1473.0 
40.00013478919344 7425.0 2221.0 4983.742088607594 0.49887338659757197 1477.0 20.0 1477.0 
50.00013478919344 7442.0 2224.0 4983.064873417721 0.49922857108551616 1477.0 20.0 1477.0 
60.00013478919344 7460.0 2229.0 4983.572784810127 0.5006592903791034 1477.0 20.0 1477.0 
70.00058297905275 7483.0 2232.0 873.2674050633049 0.5013849850584764 369.0 23.0 237.0 
80.00058297905275 7452.0 2227.0 858.5933544303717 0.5011053337311574 335.0 24.0 228.0 
90.00058297905275 7436.0 2226.0 862.2183544303717 0.4993657284670928 326.0 24.0 230.0 
100.00058297905275 7431.0 2231.0 864.0237341772104 0.5034021729412036 324.0 24.0 231.0 
110.00058297905275 7434.0 2228.0 864.0806962025366 0.5014461493090554 325.0 24.0 231.0 
120.00058297905275 7453.0 2226.0 869.5569620253257 0.500886996059453 329.0 24.0 234.0 
130.00058297905275 7466.0 2226.0 865.884493670881 0.5020295574052392 330.0 24.0 232.0 
140.00058297905275 7446.0 2224.0 862.2943037974633 0.4995068486775917 321.0 26.0 228.0 
150.00058297905275 7505.0 2230.0 860.4382911392316 0.5027101995388666 318.0 24.0 229.0 
160.00058297905275 7503.0 2231.0 862.2753164556995 0.49971167937720884 322.0 28.0 226.0 
170.00058297905275 7498.0 2231.0 865.8702531645596 0.5006110474610674 328.0 28.0 228.0 
180.00058297905275 7474.0 2234.0 860.4303797468392 0.49915347788779324 329.0 24.0 229.0 
190.00058297905275 7499.0 2235.0 865.8734177215113 0.49964464316713575 336.0 24.0 232.0 
200.00058297905275 7539.0 2237.0 871.3322784810255 0.5003363978720089 328.0 32.0 227.0 
210.00058297905275 7524.0 2236.0 871.3101265822798 0.499542356359224 327.0 29.0 230.0 
220.00058297905275 7515.0 2236.0 873.1518987341864 0.5002656786792721 331.0 28.0 232.0 
230.00058297905275 7540.0 2241.0 876.77373417721 0.5012318776263079 340.0 25.0 237.0 
240.00058297905275 7463.0 2237.0 874.9414556962092 0.5021044822655167 340.0 21.0 240.0 
250.00058297905275 7457.0 2236.0 874.9034810126508 0.5019660183192031 336.0 23.0 238.0 
260.00058297905275 7443.0 2236.0 876.7610759493758 0.5011876289762128 333.0 27.0 235.0 
270.00058297905275 7427.0 2232.0 876.7231012658136 0.500107766182001 338.0 24.0 238.0 
280.00058297905275 7454.0 2237.0 891.3939873417639 0.5017382631008419 338.0 28.0 242.0 
290.00058297905275 7467.0 2238.0 882.2357594936767 0.5004311814938581 329.0 28.0 237.0 
300.00058297905275 7464.0 2237.0 878.6424050633053 0.5025253613805304 329.0 24.0 239.0 
310.00058297905275 7465.0 2236.0 873.134493670881 0.5024924401035489 327.0 23.0 237.0 
320.00058297905275 7502.0 2236.0 874.9889240506241 0.5006486172057675 324.0 27.0 234.0 
330.00058297905275 7489.0 2235.0 873.1503164556995 0.5014021110007346 327.0 24.0 236.0 
340.00058297905275 7475.0 2234.0 871.3243670886029 0.5004197215860657 321.0 28.0 231.0 
350.00058297905275 7444.0 2232.0 873.1819620253264 0.5053449857071156 317.0 28.0 232.0 
360.00058297905275 7420.0 2229.0 878.647151898746 0.4999657539850073 330.0 24.0 239.0 
370.00058297905275 7418.0 2233.0 867.6613924050694 0.5004493436383064 326.0 23.0 234.0 
380.00058297905275 7420.0 2234.0 867.6534810126509 0.5031534356165286 327.0 24.0 233.0 
390.00058297905275 7458.0 2238.0 873.115506329119 0.5049789852466658 341.0 21.0 239.0 
400.00058297905275 7489.0 2239.0 874.9620253164662 0.500122661474496 342.0 24.0 237.0 
410.00058297905275 7530.0 2239.0 882.1993670886029 0.5045600688364132 347.0 26.0 239.0 
420.00058297905275 7517.0 2236.0 884.0237341772103 0.4994601640177385 355.0 21.0 245.0 
430.00058297905275 7500.0 2235.0 878.5648734177202 0.5030643068168122 353.0 20.0 243.0 
440.00058297905275 7466.0 2232.0 878.5015822784886 0.5036382256285544 347.0 24.0 239.0 
450.00058297905275 7485.0 2231.0 887.6819620253261 0.5006674487937502 353.0 20.0 248.0 
460.00058297905275 7442.0 2226.0 882.1772151898857 0.49865075672907777 346.0 24.0 241.0 
470.00058297905275 7461.0 2228.0 878.5838607594842 0.5038608969334487 342.0 24.0 239.0 
480.00058297905275 7453.0 2230.0 873.0870253164661 0.5003307395877441 339.0 20.0 240.0 
490.00058297905275 7471.0 2233.0 873.2136075949307 0.4988401376480576 343.0 19.0 241.0 
500.00058297905275 7492.0 2237.0 871.346518987349 0.5019826579903975 335.0 24.0 235.0 
510.00058297905275 7495.0 2235.0 875.0284810126509 0.498297148035847 334.0 24.0 237.0 
520.0005829790528 7478.0 2237.0 864.003164556952 0.5031611476058045 332.0 27.0 228.0 
530.0005829790528 7418.0 2233.0 864.0727848101145 0.49853955739887706 330.0 27.0 228.0 
540.0005829790528 7463.0 2234.0 867.6756329113971 0.5015751033717726 336.0 23.0 234.0 
550.0005829790528 7486.0 2236.0 865.8813291139293 0.5007792853335675 335.0 22.0 234.0 
560.0005829790528 7563.0 2242.0 869.5379746835339 0.5030204184801816 335.0 26.0 232.0 
570.0005829790528 7493.0 2237.0 878.6186708860706 0.5002665194865789 337.0 23.0 240.0 
580.0005829790528 7514.0 2244.0 873.0949367088601 0.5036043137620233 327.0 27.0 233.0 
590.0005829790528 7463.0 2238.0 867.6708860759563 0.5030064562742231 315.0 27.0 230.0 
600.0005829790528 7484.0 2239.0 871.2816455696283 0.5045423560639248 333.0 24.0 235.0 
610.0005829790528 7515.0 2239.0 884.1139240506242 0.5034581569835295 331.0 27.0 239.0 
620.0005829790528 7651.0 2243.0 882.3275316455567 0.5007435696225004 330.0 28.0 237.0 
630.0005829790528 7643.0 2236.0 891.4161392405158 0.5031593941281799 331.0 25.0 245.0 
640.0005829790528 7657.0 2240.0 887.8069620253264 0.5013454880180045 319.0 37.0 231.0 
650.0005829790528 7674.0 2243.0 884.1329113923938 0.4986978504804166 329.0 28.0 238.0 
660.0005829790528 7665.0 2249.0 896.8971518987462 0.5026029384937194 337.0 27.0 246.0 
#####################################################################
# End of data export. Simulation finished at: 2019-03-08T04:54+0000 #
#####################################################################
