#####################################################################
# Alchemist log file - simulation started at: 2019-03-12T10:44+0000 #
#####################################################################
# seed = 5.0, bandwidth = 4216.965034285822, accessPointCount = 274.2481756762073, baserange = 177.82794100389228
#
# The columns have the following meaning: 
# time neighbor_count[Sum] <value>@neighbor_count[Sum] packet_size[Mean] mean_delay[Mean] crowd[Sum] overcrowded[Sum] risk[Sum] 
0.0 NaN NaN NaN NaN NaN NaN NaN 
2.000006022706755 39.0 30.0 4984.300395256917 0.29831713558436734 1497.0 0.0 1497.0 
4.000054491034843 241.0 138.0 4984.677583286279 0.9023616432731847 1497.0 0.0 1497.0 
6.000054491034843 469.0 218.0 4985.201581027668 1.3704667860589315 1497.0 0.0 1497.0 
8.000054491034842 740.0 264.0 4985.294184076793 1.5761859742288784 1497.0 0.0 1497.0 
10.000054491034842 1059.0 333.0 4985.813664596273 1.8944195295250377 1497.0 0.0 1497.0 
12.000054491034842 1348.0 372.0 4985.83850931677 2.45422976581438 1497.0 0.0 1497.0 
14.000054491034842 1611.0 405.0 4986.330886504799 2.853237413700388 1497.0 0.0 1497.0 
16.00005449103484 1798.0 424.0 4986.432523997742 3.26459673003308 1497.0 0.0 1497.0 
18.00005449103484 2084.0 447.0 4986.513833992095 3.399226023844895 1497.0 0.0 1497.0 
20.00005449103484 2185.0 459.0 4986.649350649351 3.9459121335417535 1497.0 0.0 1497.0 
22.00005449103484 2501.0 483.0 4986.692264257482 3.86027710747451 1497.0 0.0 1497.0 
24.00005449103484 2793.0 503.0 4986.88198757764 4.371491543176951 1497.0 0.0 1497.0 
26.00005449103484 2794.0 503.0 4986.877470355731 4.312289043837717 1497.0 0.0 1497.0 
28.00005449103484 3601.0 547.0 4987.105590062112 4.069470652300415 1497.0 0.0 1497.0 
30.00005449103484 3821.0 563.0 4987.322416713721 4.398348178550416 1497.0 0.0 1497.0 
32.000054491034845 3925.0 572.0 4987.358554488989 4.46018160888647 1497.0 0.0 1497.0 
34.000054491034845 3923.0 570.0 4987.428571428572 4.20050974013126 1497.0 0.0 1497.0 
36.000054491034845 3917.0 566.0 4987.38565782044 4.798282669086401 1497.0 0.0 1497.0 
38.000054491034845 3910.0 564.0 4987.306606437041 4.89187252335635 1497.0 0.0 1497.0 
40.000054491034845 3898.0 560.0 4987.259175607001 5.046473948255223 1497.0 0.0 1497.0 
42.000054491034845 3898.0 560.0 4987.387916431395 5.0859089447267944 1497.0 0.0 1497.0 
44.000054491034845 3898.0 560.0 4987.245623941276 5.6866015314539915 1496.0 1.0 1496.0 
46.000054491034845 3898.0 560.0 4987.26369282891 5.667299878777174 1496.0 1.0 1496.0 
48.000054491034845 3899.0 561.0 4987.195934500282 6.377773016860025 1496.0 1.0 1496.0 
50.000054491034845 3900.0 561.0 4987.274985883681 4.912052763875543 1496.0 1.0 1496.0 
52.000054491034845 3900.0 561.0 4987.116883116883 5.211930557323887 1496.0 1.0 1496.0 
54.000054491034845 3900.0 561.0 4987.21626199887 5.485398740121414 1496.0 1.0 1496.0 
56.000054491034845 3901.0 561.0 4987.137210615471 4.746769434665773 1494.0 3.0 1494.0 
58.000054491034845 3897.0 561.0 4987.022021456804 3.98241926609474 1491.0 6.0 1491.0 
60.000054491034845 3896.0 561.0 4986.965556182948 4.633622614262405 1490.0 7.0 1490.0 
62.00010179366992 3899.0 561.0 779.54601919819 4.011478084540773 367.0 7.0 139.0 
64.00010179366993 3904.0 562.0 779.5505364201015 4.211969836798381 319.0 8.0 138.0 
66.00010179366993 3901.0 562.0 779.5008469791047 3.717776535909804 280.0 13.0 133.0 
68.00010179366993 3901.0 563.0 779.4669678147916 3.8863495396409906 269.0 14.0 132.0 
70.00010179366993 3896.0 562.0 779.4534161490653 4.311978971152501 262.0 14.0 132.0 
72.00010179366993 3897.0 562.0 779.4737436476563 4.291562461757535 247.0 14.0 132.0 
74.00010179366993 3904.0 563.0 779.4466403162082 3.829679562441533 236.0 15.0 131.0 
76.00010179366993 3902.0 562.0 779.4195369847522 3.476665997612142 233.0 15.0 131.0 
78.00010179366993 3906.0 563.0 779.4105025409374 3.351750331474795 229.0 15.0 131.0 
80.00010179366993 3906.0 563.0 779.3924336533042 3.6572727180923335 223.0 12.0 134.0 
82.00010179366993 3911.0 563.0 779.4308300395287 2.772176301261368 221.0 12.0 134.0 
84.00010179366993 3930.0 565.0 779.3856578204384 3.0995072553701353 220.0 12.0 134.0 
86.00010179366993 3927.0 565.0 779.4127611518951 2.2466966967952757 218.0 12.0 134.0 
88.00010179366993 3923.0 565.0 782.0101637492915 2.5294664964006004 216.0 12.0 135.0 
90.00010179366993 3928.0 565.0 782.0711462450615 2.35570127136752 216.0 12.0 135.0 
92.00010179366993 3935.0 565.0 781.9559570863954 2.461883912000462 211.0 14.0 133.0 
94.00010179366993 3940.0 566.0 779.3337097684968 2.573663503948429 205.0 19.0 127.0 
96.00010179366993 3939.0 565.0 776.7385657820417 2.942352931497093 205.0 19.0 126.0 
98.00010179366993 3938.0 565.0 776.7837380011272 2.6529910437594664 205.0 19.0 126.0 
100.00010179366993 3938.0 565.0 776.7182382834582 2.8591008644027993 202.0 22.0 123.0 
102.00010179366993 3941.0 565.0 776.7137210615513 3.174571572160725 202.0 22.0 123.0 
104.00010179366993 3942.0 565.0 776.7159796725002 2.915750126289915 202.0 22.0 123.0 
106.00010179366993 3941.0 565.0 776.7272727272731 3.098923659924172 201.0 22.0 123.0 
108.00010179366993 3942.0 566.0 776.7092038396358 3.0796231105188996 199.0 22.0 123.0 
110.00010179366993 3946.0 567.0 776.7069452286867 2.9011558779736504 199.0 22.0 123.0 
112.00010179366993 3945.0 567.0 776.6933935629601 2.9916351233618053 199.0 22.0 123.0 
114.00010179366993 3942.0 566.0 776.7295313382266 2.569517035258217 204.0 15.0 130.0 
116.00010179366993 3942.0 566.0 776.6888763410522 2.16107094562559 203.0 15.0 130.0 
118.00010179366993 3945.0 566.0 776.6775832862805 2.4329703535214944 203.0 15.0 130.0 
120.00010179366993 3941.0 567.0 776.6685488424657 2.664647372050116 203.0 15.0 130.0 
122.00010179366993 3930.0 567.0 776.670807453415 2.4640866314858956 202.0 15.0 130.0 
124.00010179366993 3935.0 567.0 776.6685488424657 2.6792317496338893 202.0 15.0 130.0 
126.00010179366993 3938.0 568.0 776.6730660643727 3.0563140812592593 202.0 15.0 130.0 
128.00010179366993 3938.0 568.0 776.6753246753228 3.276955606078721 202.0 15.0 130.0 
130.00010179366993 3968.0 570.0 776.6911349520024 2.9825356460900023 202.0 15.0 130.0 
132.00010179366993 3975.0 571.0 776.6775832862805 3.014731339031762 202.0 15.0 130.0 
134.00010179366993 3973.0 570.0 776.654997176739 2.896337704316013 202.0 15.0 130.0 
136.00010179366993 3971.0 570.0 776.7024280067787 2.303136525936364 202.0 15.0 130.0 
138.00010179366993 3971.0 570.0 776.6437041219677 2.6320938156525577 202.0 15.0 130.0 
140.00010179366993 3963.0 570.0 776.6437041219677 2.966286264464332 202.0 15.0 130.0 
142.00010179366993 3957.0 568.0 776.6346696781484 3.038448038518783 202.0 15.0 130.0 
144.00010179366993 3970.0 569.0 776.6821005081874 2.574737720489073 203.0 15.0 130.0 
146.00010179366993 3973.0 568.0 776.6821005081874 2.1485321957690107 203.0 15.0 130.0 
148.00010179366993 3973.0 568.0 776.6685488424657 2.521592609486528 203.0 15.0 130.0 
150.00010179366993 3971.0 568.0 776.6595143986465 2.866512379908314 203.0 15.0 130.0 
152.00010179366993 3973.0 569.0 776.6685488424657 3.0556201379926398 203.0 15.0 130.0 
154.00010179366993 3972.0 569.0 776.6708074534157 3.3396420001731655 203.0 15.0 130.0 
156.00010179366993 3972.0 569.0 776.6572557876884 3.3138472453486427 203.0 15.0 130.0 
158.00010179366993 3967.0 568.0 774.0327498588406 3.084728128754206 201.0 15.0 129.0 
160.00010179366993 3935.0 565.0 774.0621118012467 2.939228903666052 201.0 15.0 129.0 
162.00010179366993 3925.0 565.0 771.4466403162071 2.793043885842137 201.0 15.0 128.0 
164.00010179366993 3925.0 565.0 771.4150197628444 2.710462753594105 201.0 15.0 128.0 
166.00010179366993 3925.0 565.0 771.4263128176217 2.7918920517574777 201.0 15.0 128.0 
168.00010179366993 3925.0 565.0 771.4082439299808 3.0507064379877784 201.0 15.0 128.0 
170.00010179366993 3922.0 565.0 771.4037267080738 3.114251726047023 199.0 15.0 128.0 
172.00010179366993 3919.0 565.0 771.4150197628444 3.34674934274096 199.0 15.0 128.0 
174.00010179366993 3897.0 563.0 768.8898927159789 2.6389649232237247 199.0 15.0 127.0 
176.00010179366993 3883.0 562.0 768.8356860530748 2.7940062786446034 199.0 15.0 127.0 
178.00010179366993 3890.0 563.0 768.8356860530748 2.517366252112954 199.0 15.0 127.0 
180.00010179366993 3891.0 563.0 768.8311688311678 2.808103509514277 199.0 15.0 127.0 
182.00010179366993 3889.0 563.0 768.8356860530748 2.754037447612896 199.0 15.0 127.0 
184.00010179366993 3889.0 563.0 768.8356860530748 2.930813466905047 199.0 15.0 127.0 
186.00010179366993 3885.0 562.0 768.8424618859383 3.1345610598195215 199.0 15.0 127.0 
188.00010179366993 3891.0 562.0 768.8560135516657 2.9043373855557353 199.0 15.0 127.0 
190.00010179366993 3891.0 562.0 774.0056465273851 2.4519000348954916 201.0 15.0 129.0 
192.00010179366993 3888.0 562.0 773.9695087521217 2.675884875959826 201.0 15.0 129.0 
194.00010179366993 3887.0 562.0 773.9695087521217 2.499165093851011 201.0 15.0 129.0 
196.00010179366993 3888.0 563.0 773.971767363072 2.691127689946333 202.0 15.0 129.0 
198.00010179366993 3890.0 563.0 776.5940146809696 2.679106884965896 205.0 15.0 130.0 
200.00010179366993 3896.0 563.0 779.1801242236029 2.5716568725303124 206.0 15.0 131.0 
202.00010179366993 3906.0 563.0 781.7820440429095 2.2158021470231697 206.0 15.0 132.0 
204.00010179366993 3910.0 564.0 784.3749294184065 2.5578647871996276 206.0 15.0 133.0 
206.00010179366993 3910.0 564.0 781.8091473743652 2.5724800133813392 205.0 15.0 132.0 
208.00010179366993 3911.0 564.0 781.8136645962726 2.9612283086463234 205.0 15.0 132.0 
210.00010179366993 3911.0 564.0 781.8046301524575 2.834762590827092 205.0 15.0 132.0 
212.00010179366993 3909.0 564.0 784.4268774703546 2.888329345700438 205.0 15.0 133.0 
214.00010179366993 3909.0 564.0 784.4065499717696 3.128579619692349 205.0 15.0 133.0 
216.00010179366993 3908.0 563.0 784.4155844155846 2.8185410562632702 205.0 15.0 133.0 
218.00010179366993 3909.0 563.0 784.4110671936775 2.534146502501594 205.0 15.0 133.0 
220.00010179366993 3914.0 565.0 784.4110671936775 2.518026811323587 207.0 15.0 133.0 
222.00010179366993 3917.0 565.0 784.3749294184065 2.6058080065856832 207.0 15.0 133.0 
224.00010179366993 3920.0 566.0 784.3749294184065 2.8838962135159805 209.0 15.0 133.0 
226.00010179366993 3919.0 566.0 784.3794466403137 2.727308288630827 209.0 15.0 133.0 
228.00010179366993 3919.0 566.0 784.3749294184065 2.8582803549178415 210.0 14.0 134.0 
230.00010179366993 3919.0 566.0 786.942970073406 2.482013545490937 209.0 14.0 135.0 
232.00010179366993 3920.0 566.0 784.3387916431368 2.787270403329067 210.0 14.0 134.0 
234.00010179366993 3932.0 567.0 784.3433088650507 2.9667258798746903 210.0 14.0 134.0 
236.00010179366993 3930.0 566.0 784.3387916431368 3.1254516213727235 208.0 14.0 134.0 
238.00010179366993 3928.0 566.0 784.3862224731787 3.2947621992261307 208.0 14.0 134.0 
240.00010179366993 3937.0 567.0 784.363636363635 3.268403899938111 208.0 14.0 134.0 
242.00010179366993 3920.0 565.0 784.3884810841334 2.815313218127706 208.0 14.0 134.0 
244.00010179366993 3917.0 565.0 784.4042913608126 1.9430526843085683 208.0 14.0 134.0 
246.00010179366993 3917.0 565.0 784.3862224731787 2.285238859348219 208.0 14.0 134.0 
248.00010179366993 3914.0 565.0 784.3907396950908 2.5868915496206704 208.0 14.0 134.0 
250.00010179366993 3914.0 565.0 781.800112930551 2.9856162077110504 208.0 14.0 133.0 
252.00010179366993 3923.0 566.0 781.7955957086363 3.1754132422330126 208.0 14.0 133.0 
254.00010179366993 3931.0 568.0 784.3681535855422 3.017190286437303 209.0 14.0 134.0 
256.00010179366996 3922.0 566.0 781.7662337662299 2.8669770744113596 208.0 14.0 133.0 
258.00010179366996 3914.0 566.0 781.7865612648209 2.2906858244871384 208.0 14.0 133.0 
260.00010179366996 3916.0 567.0 781.8272162619998 2.5307617329787457 208.0 14.0 133.0 
262.00010179366996 3932.0 569.0 781.8159232072269 2.66224717089098 209.0 14.0 133.0 
264.00010179366996 3934.0 569.0 781.8114059853157 2.9074122604927903 211.0 14.0 133.0 
266.00010179366996 3934.0 569.0 781.8159232072272 2.943365226918206 210.0 14.0 133.0 
268.00010179366996 3934.0 569.0 784.4133258046274 3.3159207415216327 210.0 14.0 134.0 
270.00010179366996 3934.0 569.0 787.0626764539803 3.1030974010523105 209.0 14.0 135.0 
272.00010179366996 3934.0 568.0 787.0310559006238 2.4430167062607016 209.0 14.0 135.0 
274.00010179366996 3934.0 568.0 784.440429136082 2.51889351301903 208.0 14.0 134.0 
276.00010179366996 3933.0 568.0 781.8633540372688 2.7098477886440957 207.0 14.0 133.0 
278.00010179366996 3936.0 569.0 781.8769057029966 2.8779327196933036 206.0 15.0 132.0 
280.00010179366996 3939.0 570.0 781.8678712591759 3.208499183233275 204.0 15.0 132.0 
282.00010179366996 3933.0 570.0 781.8769057029966 3.293283242693512 205.0 15.0 132.0 
284.00010179366996 3935.0 570.0 781.8543195934491 3.1125343871813924 203.0 17.0 130.0 
286.00010179366996 3934.0 569.0 784.4743083003959 2.5918759044375514 203.0 17.0 131.0 
288.00010179366996 3936.0 569.0 784.4584980237175 2.740497116335875 203.0 17.0 131.0 
290.00010179366996 3934.0 568.0 784.4584980237175 2.511323668043782 207.0 15.0 133.0 
292.00010179366996 3936.0 568.0 784.4584980237175 2.7282725409478727 207.0 15.0 133.0 
294.00010179366996 3943.0 569.0 784.45398080181 3.1032900034576967 207.0 15.0 133.0 
296.00010179366996 3946.0 570.0 784.45398080181 3.5117776873610262 207.0 15.0 133.0 
298.00010179366996 3953.0 569.0 784.4743083003959 2.96323184840695 207.0 15.0 133.0 
300.00010179366996 3972.0 570.0 787.0830039525656 2.6038238938629013 207.0 15.0 134.0 
302.00010179366996 3968.0 569.0 787.076228119707 2.51635316040687 207.0 15.0 134.0 
304.00010179366996 3969.0 569.0 786.9949181253535 2.5034612179612568 207.0 15.0 134.0 
306.00010179366996 3965.0 569.0 786.9904009034408 2.679219508377396 207.0 15.0 134.0 
308.00010179366996 3953.0 568.0 786.9949181253535 2.9534990788005295 206.0 16.0 133.0 
310.00010179366996 3954.0 568.0 786.9904009034408 3.121066991299058 206.0 16.0 133.0 
312.00010179366996 3935.0 566.0 786.9813664596259 3.0938102395775826 206.0 16.0 133.0 
314.00010179366996 3939.0 566.0 784.4065499717688 2.463367810998392 206.0 15.0 133.0 
316.00010179366996 3944.0 566.0 784.3929983060418 2.791987422595994 206.0 15.0 133.0 
318.00010179366996 3946.0 567.0 784.3952569169987 3.068661652170809 208.0 15.0 133.0 
320.00010179366996 3939.0 566.0 784.4110671936767 3.16759524862918 209.0 15.0 133.0 
322.00010179366996 3938.0 566.0 784.4201016374968 3.1372391747349564 209.0 15.0 133.0 
324.00010179366996 3938.0 566.0 784.4291360813116 2.8031073893029697 209.0 15.0 133.0 
326.00010179366996 3935.0 565.0 784.4381705251258 2.6640059363524276 209.0 15.0 133.0 
328.00010179366996 3941.0 565.0 787.022021456803 2.30513133871355 209.0 15.0 134.0 
330.00010179366996 3949.0 566.0 787.0175042348959 2.587647398168449 209.0 15.0 134.0 
332.00010179366996 3947.0 565.0 787.0175042348959 2.7456560708659463 209.0 15.0 134.0 
334.00010179366996 3952.0 567.0 789.6261998870656 2.790674368768033 209.0 15.0 135.0 
336.00010179366996 3951.0 567.0 789.6171654432508 3.2148241820771886 209.0 15.0 135.0 
338.00010179366996 3949.0 566.0 789.6126482213438 2.9711931016512176 209.0 15.0 135.0 
340.00010179366996 3948.0 566.0 789.6081309994368 3.1513605901423425 209.0 15.0 135.0 
342.00010179366996 3937.0 565.0 789.6081309994368 2.7571894966052435 209.0 15.0 135.0 
344.00010179366996 3947.0 566.0 789.6126482213438 2.5301834413807893 209.0 15.0 135.0 
346.00010179366996 3945.0 566.0 787.0129870129884 2.7568404892574767 208.0 15.0 134.0 
348.00010179366996 3949.0 567.0 787.0175042348961 3.1277324591037368 208.0 15.0 134.0 
350.00010179366996 3940.0 567.0 789.5945793337096 3.205845126845162 209.0 15.0 135.0 
352.00010179366996 3937.0 567.0 789.5945793337096 2.9547008996277535 208.0 15.0 135.0 
354.00010179366996 3936.0 567.0 789.6261998870656 2.725848191075514 209.0 15.0 135.0 
356.00010179366996 3934.0 566.0 789.6036137775291 2.8137523629567633 211.0 15.0 135.0 
358.00010179366996 3934.0 566.0 789.6261998870656 2.6253242169447746 211.0 15.0 135.0 
360.00010179366996 3935.0 566.0 789.6171654432508 2.8517173685905117 211.0 15.0 135.0 
362.00010179366996 3935.0 566.0 787.0310559006239 2.7849963548055663 210.0 15.0 134.0 
364.00010179366996 3928.0 565.0 787.0423489553947 2.8091971215372173 210.0 15.0 134.0 
366.00010179366996 3916.0 564.0 787.0197628458466 3.042068133789689 210.0 15.0 134.0 
368.00010179366996 3918.0 565.0 781.8272162619998 3.19343279733802 210.0 15.0 132.0 
370.00010179366996 3914.0 565.0 784.4178430265343 2.8995600647248922 210.0 15.0 133.0 
372.00010179366996 3916.0 566.0 784.4223602484461 2.7640297538933516 211.0 15.0 133.0 
374.00010179366996 3909.0 565.0 784.4133258046273 2.793953310116675 211.0 15.0 133.0 
376.00010179366996 3905.0 566.0 784.4178430265343 2.942022601074393 210.0 15.0 133.0 
378.00010179366996 3910.0 568.0 781.8272162619998 2.9832669702142156 208.0 15.0 132.0 
380.00010179366996 3911.0 568.0 781.8204404291342 2.697868703327581 207.0 15.0 132.0 
382.00010179366996 3913.0 568.0 781.8114059853154 2.895299102229813 207.0 15.0 132.0 
384.00010179366996 3913.0 568.0 781.8114059853154 3.2891083609081124 207.0 15.0 132.0 
386.00010179366996 3913.0 568.0 781.8091473743659 2.5392977747842402 207.0 15.0 132.0 
388.00010179366996 3907.0 568.0 781.7955957086363 2.4893533130864043 207.0 15.0 132.0 
390.00010179366996 3903.0 568.0 781.7910784867291 2.7441982935186044 207.0 15.0 132.0 
392.00010179366996 3908.0 569.0 781.788819875779 2.9708185591078036 207.0 15.0 132.0 
394.00010179366996 3905.0 568.0 781.7910784867291 3.21429731802376 208.0 14.0 133.0 
396.00010179366996 3908.0 569.0 781.7910784867291 3.256730054785057 208.0 14.0 133.0 
398.00010179366996 3916.0 571.0 781.7955957086363 2.826678397028496 208.0 14.0 133.0 
400.00010179366996 3923.0 571.0 781.7910784867291 2.8239098065090866 208.0 14.0 133.0 
402.00010179366996 3918.0 569.0 779.198193111239 2.6087511071672163 207.0 14.0 132.0 
404.00010179366996 3939.0 570.0 779.1869000564676 2.881159208619366 208.0 13.0 133.0 
406.00010179366996 3937.0 569.0 779.2117447769658 2.5269627165660764 208.0 13.0 133.0 
408.00010179366996 3938.0 569.0 779.1891586674172 2.6974212493580736 208.0 13.0 133.0 
410.00010179366996 3939.0 570.0 779.1846414455096 2.7208416000105338 208.0 13.0 133.0 
412.00010179366996 3939.0 570.0 779.1891586674172 3.0435320982025593 208.0 13.0 133.0 
414.00010179366996 3947.0 571.0 779.177865612648 3.328826555633024 208.0 13.0 133.0 
416.00010179366996 3951.0 572.0 779.2094861660082 2.9725219023729945 208.0 13.0 133.0 
418.00010179366996 3950.0 572.0 779.2140033879156 2.945761377380107 212.0 13.0 133.0 
420.00010179366996 3956.0 573.0 779.2275550536449 2.940818074550497 213.0 13.0 133.0 
422.00010179366996 3956.0 573.0 779.2162619988729 2.8331178237898476 213.0 13.0 133.0 
424.00010179366996 3966.0 574.0 776.6211180124254 2.8480026518743533 210.0 17.0 128.0 
426.00010179366996 3971.0 574.0 776.6233766233754 2.671939821486049 207.0 20.0 125.0 
428.00010179366996 3966.0 573.0 776.6233766233754 2.8849247976518257 206.0 20.0 125.0 
430.00010179366996 3945.0 572.0 779.2275550536443 2.979328084319348 204.0 20.0 126.0 
432.00010179366996 3935.0 571.0 779.2207792207805 2.9577430072531246 204.0 20.0 126.0 
434.00010179366996 3936.0 571.0 779.2298136645945 2.4538210853379323 204.0 20.0 126.0 
436.00010179366996 3936.0 571.0 787.0491247882524 2.709095051203595 204.0 20.0 129.0 
438.00010179366996 3940.0 571.0 787.0400903444377 2.660320054644739 202.0 22.0 127.0 
440.00010179366996 3969.0 574.0 787.0129870129882 2.919890168919771 203.0 21.0 128.0 
442.00010179366996 3968.0 574.0 787.0084697910809 3.105177160477447 203.0 21.0 128.0 
444.00010179366996 3970.0 574.0 787.0129870129882 2.785005368120991 201.0 21.0 128.0 
446.00010179366996 3966.0 574.0 786.9949181253535 2.801908762385842 201.0 21.0 128.0 
448.00010179366996 3966.0 574.0 789.5810276679819 3.311188547224138 202.0 21.0 129.0 
450.00010179366996 3965.0 574.0 789.5765104460745 3.4360895020970688 203.0 21.0 129.0 
452.00010179366996 3970.0 573.0 794.7758328627908 3.1485428469581285 205.0 21.0 131.0 
454.00010179366996 3977.0 573.0 794.76679841897 2.8032006561276517 205.0 21.0 131.0 
456.00010179366996 3997.0 574.0 797.402597402595 3.083908338160976 205.0 22.0 131.0 
458.00010179366996 4004.0 574.0 797.3754940711458 3.1021407449315728 208.0 22.0 131.0 
460.00010179366996 4005.0 574.0 794.789384528513 2.513156807979291 209.0 21.0 131.0 
462.00010179366996 4005.0 575.0 794.7622811970627 2.8979937837161955 210.0 21.0 131.0 
464.00010179366996 3999.0 577.0 794.7622811970627 3.057112920251878 216.0 17.0 135.0 
466.00010179366996 3989.0 576.0 794.789384528513 3.0049249951209664 218.0 15.0 137.0 
468.00010179366996 3965.0 574.0 794.7803500846982 3.2511592502294353 218.0 15.0 137.0 
470.00010179366996 3960.0 574.0 794.7939017504248 3.074980306909428 220.0 15.0 137.0 
472.00010179366996 3957.0 573.0 794.789384528513 3.2645086674740806 220.0 15.0 137.0 
474.00010179366996 3944.0 573.0 794.7916431394688 2.7889550152505813 220.0 15.0 137.0 
476.00010179366996 3948.0 573.0 794.7916431394688 3.023843609621348 220.0 15.0 137.0 
478.00010179366996 3948.0 573.0 794.7871259175621 3.416038200556346 220.0 15.0 137.0 
480.00010179366996 3946.0 572.0 794.7961603613759 3.2846983278033304 219.0 15.0 137.0 
482.00010179366996 3944.0 572.0 792.191981931113 2.7596316774302245 218.0 15.0 136.0 
484.00010179366996 3952.0 574.0 792.191981931113 2.993354706452916 218.0 15.0 136.0 
486.00010179366996 3949.0 573.0 792.2190852625628 2.6833509496562993 217.0 15.0 136.0 
488.00010179366996 3959.0 574.0 792.182947487294 2.5285567604015244 216.0 15.0 136.0 
490.00010179366996 3952.0 574.0 792.2032749858848 2.716605918018118 217.0 15.0 136.0 
492.00010179366996 3949.0 573.0 792.1897233201568 2.9851628801145407 217.0 15.0 136.0 
494.00010179366996 3954.0 574.0 792.1852060982499 3.056203907760566 217.0 15.0 136.0 
496.00010179366996 3946.0 573.0 792.216826651607 3.295726635834886 216.0 15.0 136.0 
498.00010179366996 3950.0 572.0 792.182947487294 3.1435748286630423 216.0 14.0 137.0 
500.00010179366996 3941.0 571.0 792.160361377751 3.0724531577483614 216.0 14.0 137.0 
502.00010179366996 3942.0 570.0 792.1490683229807 2.753940172652283 215.0 14.0 137.0 
504.00010179366996 3942.0 570.0 794.7509881422923 3.0414405262573165 215.0 14.0 138.0 
506.00010179366996 3948.0 571.0 794.7758328627907 3.1355706959694767 214.0 14.0 138.0 
508.00010179366996 3954.0 571.0 792.1716544325279 2.902715083995469 214.0 14.0 137.0 
510.00010179366996 3955.0 571.0 792.1671372106147 2.9222968387219344 215.0 14.0 137.0 
512.00010179367 3958.0 571.0 792.1852060982499 3.260383186404394 215.0 14.0 137.0 
514.00010179367 3944.0 570.0 792.1377752682087 2.5833567242366158 214.0 14.0 137.0 
516.00010179367 3942.0 570.0 789.5426312817618 2.6576373677838037 212.0 14.0 136.0 
518.00010179367 3948.0 572.0 792.153585544888 2.4672061314655247 212.0 14.0 137.0 
520.00010179367 3954.0 573.0 792.1581027667997 2.845302321061653 212.0 14.0 137.0 
522.00010179367 3965.0 573.0 792.1490683229808 3.030200563101347 211.0 14.0 137.0 
524.00010179367 3984.0 573.0 794.753246753249 3.0069670615666326 212.0 14.0 138.0 
526.00010179367 4003.0 576.0 794.76679841897 3.286490684226212 212.0 14.0 138.0 
528.00010179367 4007.0 576.0 794.7464709203853 3.493430218979048 214.0 14.0 138.0 
530.00010179367 4020.0 578.0 797.3551665725602 2.7240981457073064 213.0 14.0 139.0 
532.00010179367 4021.0 578.0 797.3732354601898 2.992700946582694 212.0 14.0 139.0 
534.00010179367 4013.0 576.0 797.3732354601898 3.0684112455799197 212.0 14.0 139.0 
536.00010179367 4014.0 576.0 797.3777526820969 3.2359907205462712 212.0 14.0 139.0 
538.00010179367 4013.0 575.0 802.592885375497 3.0070337809619727 212.0 14.0 141.0 
540.00010179367 4024.0 577.0 802.5702992659513 2.8161751196681863 213.0 14.0 141.0 
542.00010179367 4024.0 577.0 799.9796725014089 2.471153881080222 212.0 14.0 140.0 
544.00010179367 4039.0 576.0 802.581592320721 2.4377475253100034 212.0 14.0 141.0 
546.00010179367 4036.0 577.0 802.597402597405 2.77254413195641 211.0 14.0 141.0 
548.00010179367 4034.0 577.0 802.5996612083569 2.81949662204278 211.0 14.0 141.0 
550.00010179367 4022.0 577.0 802.5590062111839 3.0651777894358423 211.0 14.0 141.0 
552.00010179367 4021.0 576.0 802.568040654999 3.2249245295964193 211.0 14.0 141.0 
554.00010179367 4027.0 577.0 797.3529079616042 3.1421193522138102 213.0 14.0 139.0 
556.00010179367 4023.0 576.0 794.7442123094341 3.3701686922636584 214.0 14.0 138.0 
558.00010179367 4027.0 577.0 794.7555053641994 3.327367919447755 214.0 14.0 138.0 
560.00010179367 3994.0 576.0 792.151326933937 3.3718219534327125 213.0 14.0 137.0 
562.00010179367 3995.0 577.0 792.151326933937 3.450124904842285 214.0 14.0 137.0 
564.00010179367 3991.0 576.0 799.9345002823251 3.383547482775563 216.0 14.0 140.0 
566.00010179367 3995.0 577.0 799.9119141727822 3.00677324131104 216.0 14.0 140.0 
568.00010179367 3990.0 576.0 799.932241671374 2.545715158450745 217.0 14.0 140.0 
570.00010179367 3989.0 578.0 799.9209486165971 2.766696959105027 217.0 14.0 140.0 
572.00010179367 3997.0 578.0 802.5070581592313 2.841025448956703 218.0 14.0 141.0 
574.00010179367 3989.0 577.0 799.932241671374 2.8832057932562267 219.0 14.0 140.0 
576.00010179367 3993.0 576.0 799.9119141727822 3.266813843972247 220.0 14.0 140.0 
578.00010179367 3992.0 576.0 797.3303218520621 3.1953513185170968 219.0 14.0 139.0 
580.00010179367 4002.0 577.0 799.9299830604173 3.3347835167508117 219.0 14.0 140.0 
582.00010179367 3992.0 576.0 802.5251270468647 3.1507247271782135 219.0 14.0 141.0 
584.00010179367 3985.0 576.0 802.5296442687779 2.730668963002913 219.0 14.0 141.0 
586.00010179367 3997.0 576.0 799.9390175042369 3.029736735665755 219.0 14.0 140.0 
588.00010179367 3988.0 575.0 797.3438735177839 3.2178405591508263 220.0 14.0 139.0 
590.00010179367 3995.0 576.0 799.9457933370951 3.3425600583987154 221.0 14.0 140.0 
592.00010179367 4004.0 577.0 797.3483907396911 3.5384351378650027 220.0 14.0 139.0 
594.00010179367 4012.0 577.0 797.3506493506528 3.246412353223222 220.0 14.0 139.0 
596.00010179367 4014.0 577.0 805.1722190852615 3.096096357604282 220.0 14.0 142.0 
598.00010179367 4006.0 575.0 799.9751552795012 2.5091161451648434 219.0 14.0 140.0 
600.00010179367 4001.0 574.0 797.391304347824 2.6755490795090573 217.0 14.0 139.0 
602.00010179367 3999.0 574.0 794.7916431394688 2.8551229152672426 216.0 14.0 138.0 
604.00010179367 4011.0 574.0 794.8006775832837 3.1423957702598697 215.0 14.0 138.0 
606.00010179367 3998.0 573.0 794.8051948051909 3.175759203132567 216.0 14.0 138.0 
608.00010179367 3984.0 571.0 794.7916431394688 3.4254163367096417 217.0 14.0 138.0 
610.00010179367 3959.0 569.0 794.8232636928316 3.533018832188873 215.0 14.0 138.0 
612.00010179367 3960.0 570.0 799.986448334278 3.4605628168891904 215.0 14.0 140.0 
614.00010179367 3970.0 571.0 799.9909655561851 3.2723914441412782 215.0 14.0 140.0 
616.00010179367 3970.0 571.0 797.3664596273317 3.2181698122003444 213.0 14.0 139.0 
618.00010179367 3975.0 572.0 797.3619424054183 3.4074468622674425 213.0 14.0 139.0 
620.00010179367 3980.0 572.0 799.9638622247298 3.538922450877859 215.0 14.0 140.0 
622.00010179367 3968.0 570.0 799.9593450028223 2.633689199025168 214.0 14.0 140.0 
624.00010179367 3952.0 569.0 799.9683794466372 2.9592415917215296 214.0 14.0 140.0 
626.00010179367 3943.0 567.0 799.9548277809149 2.9059269932509793 215.0 14.0 140.0 
628.00010179367 3951.0 567.0 799.9593450028223 2.881606459895676 218.0 14.0 140.0 
630.00010179367 3963.0 566.0 805.1609260304913 2.7911562693842824 219.0 14.0 142.0 
632.00010179367 3960.0 566.0 802.5680406549989 2.882688659101072 218.0 14.0 141.0 
634.00010179367 3966.0 566.0 802.5725578769061 2.902719277056446 218.0 14.0 141.0 
636.00010179367 3971.0 568.0 802.5725578769061 3.1066289429872964 217.0 14.0 141.0 
638.00010179367 3989.0 570.0 802.5702992659488 2.742684672033397 216.0 14.0 141.0 
640.00010179367 4007.0 572.0 799.96160361378 2.972917486534266 215.0 14.0 140.0 
642.00010179367 4010.0 572.0 799.9661208356871 3.217330402093256 215.0 14.0 140.0 
644.00010179367 4011.0 572.0 799.9977413890432 3.3867466381424904 217.0 14.0 140.0 
646.00010179367 4018.0 571.0 802.6109542631262 3.420242063943783 220.0 14.0 141.0 
648.00010179367 4010.0 570.0 807.8125352907936 3.2167935258391154 219.0 14.0 143.0 
650.00010179367 4007.0 569.0 807.7809147374372 2.15256429170478 216.0 14.0 143.0 
652.00010179367 3998.0 569.0 810.3625070581575 2.0690344304341712 217.0 14.0 144.0 
654.00010179367 4002.0 569.0 810.3625070581575 2.28839004132135 218.0 14.0 144.0 
656.00010179367 4013.0 570.0 810.3647656691147 2.717474452997428 217.0 14.0 144.0 
658.00010179367 4014.0 571.0 810.3692828910221 2.8677726318715577 221.0 14.0 144.0 
660.00010179367 4027.0 572.0 812.9508752117474 3.246705918692934 221.0 14.0 145.0 
662.00010179367 4048.0 573.0 812.9282891022001 2.9783553680272075 223.0 14.0 145.0 
664.00010179367 4060.0 573.0 818.0982495765105 3.0276867519203083 224.0 14.0 147.0 
#####################################################################
# End of data export. Simulation finished at: 2019-03-12T10:54+0000 #
#####################################################################
