#####################################################################
# Alchemist log file - simulation started at: 2019-03-11T01:14+0000 #
#####################################################################
# seed = 4.0, bandwidth = 74989.42093324558, accessPointCount = 2000.0, baserange = 17.78279410038923
#
# The columns have the following meaning: 
# time neighbor_count[Sum] <value>@neighbor_count[Sum] packet_size[Mean] mean_delay[Mean] crowd[Sum] overcrowded[Sum] risk[Sum] 
0.0 NaN NaN NaN NaN NaN NaN NaN 
2.0000042429967895 292.0 186.0 4975.614526737203 0.49876105128708625 1497.0 0.0 1497.0 
4.0000042429967895 306.0 187.0 4976.98941950243 0.5052125742762341 1497.0 0.0 1497.0 
6.0000042429967895 325.0 187.0 4976.374034887047 0.5041384417828988 1497.0 0.0 1497.0 
8.00000424299679 334.0 188.0 4975.956534172148 0.5056326238875 1497.0 0.0 1497.0 
10.00000424299679 341.0 188.0 4976.118959107806 0.5167080535465176 1497.0 0.0 1497.0 
12.00000424299679 340.0 187.0 4976.130397483557 0.5014400736192425 1497.0 0.0 1497.0 
14.00000424299679 342.0 188.0 4976.234486702888 0.496940537724243 1497.0 0.0 1497.0 
16.000004242996788 342.0 188.0 4976.300829282242 0.5008890257827666 1497.0 0.0 1497.0 
18.000004242996788 342.0 188.0 4976.058335716329 0.5009196512749751 1497.0 0.0 1497.0 
20.000004242996788 342.0 188.0 4976.1075207320555 0.5009327764859215 1497.0 0.0 1497.0 
22.000004242996788 344.0 189.0 4976.051472690879 0.496493401109057 1497.0 0.0 1497.0 
24.000004242996788 344.0 189.0 4976.193308550186 0.500400692922676 1497.0 0.0 1497.0 
26.000004242996788 344.0 189.0 4976.030883614527 0.5004181606643525 1497.0 0.0 1497.0 
28.000004242996788 344.0 189.0 4975.973691735773 0.4965054166927948 1497.0 0.0 1497.0 
30.000004242996788 344.0 189.0 4976.106376894481 0.5004128474148961 1497.0 0.0 1497.0 
32.00000424299679 344.0 189.0 4976.110952244781 0.5082205550722494 1497.0 0.0 1497.0 
34.00000424299679 344.0 189.0 4975.8981984558195 0.5199821236119856 1497.0 0.0 1497.0 
36.00000424299679 343.0 188.0 4976.121246782956 0.5193609221329875 1497.0 0.0 1497.0 
38.00000424299679 342.0 188.0 4975.982842436374 0.5009488767446831 1497.0 0.0 1497.0 
40.00000424299679 342.0 188.0 4976.044609665428 0.512769035513549 1497.0 0.0 1497.0 
42.00000424299679 342.0 188.0 4976.003431512725 0.5324456747486223 1497.0 0.0 1497.0 
44.00000424299679 340.0 187.0 4975.873034029168 0.5014958486823183 1497.0 0.0 1497.0 
46.00000424299679 340.0 187.0 4976.108664569631 0.5133769035393974 1497.0 0.0 1497.0 
48.00000424299679 340.0 187.0 4975.986273949099 0.5332270635235485 1497.0 0.0 1497.0 
50.00000424299679 338.0 186.0 4975.722047469259 0.4980815497327506 1497.0 0.0 1497.0 
52.00000424299679 338.0 186.0 4976.134972833857 0.4940087928034119 1497.0 0.0 1497.0 
54.00000424299679 338.0 186.0 4975.988561624249 0.4980117798914202 1497.0 0.0 1497.0 
56.00000424299679 338.0 186.0 4975.791821561338 0.4980779225544552 1497.0 0.0 1497.0 
58.00000424299679 338.0 186.0 4976.021732913926 0.4940352498686261 1497.0 0.0 1497.0 
60.00000424299679 338.0 186.0 4974.696025164427 0.4980139135257116 1497.0 0.0 1497.0 
62.00000424299679 340.0 187.0 426.2933943380033 0.49220083515644514 94.0 0.0 20.0 
64.0000042429968 340.0 187.0 426.2933943380033 0.4968268845056401 95.0 0.0 20.0 
66.0000042429968 340.0 187.0 426.2933943380033 0.49682688450564494 85.0 0.0 20.0 
68.0000042429968 342.0 188.0 426.2933943380033 0.49680986899198903 62.0 0.0 20.0 
70.0000042429968 342.0 188.0 426.2933943380033 0.49680986899198903 45.0 0.0 20.0 
72.0000042429968 342.0 188.0 426.2933943380033 0.5007468768660048 38.0 0.0 20.0 
74.0000042429968 342.0 188.0 426.2933943380033 0.5164949083620678 34.0 0.0 20.0 
76.0000042429968 341.0 188.0 426.2933943380033 0.513168283472272 32.0 0.0 20.0 
78.0000042429968 340.0 187.0 426.2933943380033 0.4968268845056449 30.0 0.0 20.0 
80.0000042429968 340.0 187.0 426.2933943380033 0.4968268845056449 27.0 0.0 20.0 
82.0000042429968 340.0 187.0 426.2933943380033 0.5087316464104068 27.0 0.0 20.0 
84.0000042429968 340.0 187.0 426.2933943380033 0.5246046622834227 27.0 0.0 20.0 
86.0000042429968 338.0 186.0 426.2933943380033 0.4968441722675192 27.0 0.0 20.0 
88.0000042429968 338.0 186.0 426.2933943380033 0.4968441722675192 26.0 0.0 20.0 
90.0000042429968 342.0 187.0 426.2933943380033 0.4967717399361162 26.0 0.0 20.0 
92.0000042429968 342.0 187.0 426.2933943380033 0.4967717399361162 26.0 0.0 20.0 
94.0000042429968 342.0 187.0 426.2933943380033 0.5087239311711759 25.0 0.0 20.0 
96.0000042429968 342.0 187.0 426.2933943380033 0.5246601861512555 25.0 0.0 20.0 
98.0000042429968 340.0 186.0 426.2933943380033 0.5128529112265963 25.0 0.0 20.0 
100.0000042429968 340.0 186.0 426.2933943380033 0.5289171682547086 25.0 0.0 20.0 
102.0000042429968 338.0 185.0 426.2933943380033 0.4968058423760314 25.0 0.0 20.0 
104.0000042429968 338.0 185.0 426.2933943380033 0.4968058423760314 25.0 0.0 20.0 
106.0000042429968 338.0 185.0 426.2933943380033 0.4968058423760314 25.0 0.0 20.0 
108.0000042429968 338.0 185.0 426.2933943380033 0.4968058423760314 25.0 0.0 20.0 
110.0000042429968 340.0 186.0 426.2933943380033 0.4967886541984837 25.0 0.0 20.0 
112.0000042429968 340.0 186.0 426.2933943380033 0.4967886541984837 25.0 0.0 20.0 
114.0000042429968 340.0 186.0 426.2933943380033 0.4967886541984837 25.0 0.0 20.0 
116.0000042429968 340.0 186.0 426.2933943380033 0.4967886541984837 24.0 0.0 20.0 
118.0000042429968 340.0 186.0 426.2933943380033 0.4967886541984837 24.0 0.0 20.0 
120.0000042429968 340.0 186.0 426.2933943380033 0.5128529112265963 24.0 0.0 20.0 
122.0000042429968 342.0 187.0 426.2933943380033 0.5286442498962755 24.0 0.0 20.0 
124.0000042429968 340.0 186.0 426.2933943380033 0.4967886541984837 24.0 0.0 20.0 
126.0000042429968 340.0 186.0 426.2933943380033 0.4967886541984837 24.0 0.0 20.0 
128.0000042429968 342.0 187.0 426.2933943380033 0.4967717399361162 24.0 0.0 20.0 
130.0000042429968 343.0 187.0 426.2933943380033 0.4960142915284296 24.0 0.0 20.0 
132.0000042429968 344.0 188.0 426.2933943380033 0.5084955841201074 24.0 0.0 20.0 
134.0000042429968 344.0 188.0 426.2933943380033 0.5204003460248693 24.0 0.0 20.0 
136.0000042429968 342.0 187.0 426.2933943380033 0.496771739936107 24.0 0.0 20.0 
138.0000042429968 342.0 187.0 426.2933943380033 0.5087239311711668 24.0 0.0 20.0 
140.0000042429968 342.0 187.0 426.2933943380033 0.5286442498962663 24.0 0.0 20.0 
142.0000042429968 340.0 186.0 426.2933943380033 0.5168689754836151 24.0 0.0 20.0 
144.0000042429968 342.0 187.0 426.2933943380033 0.5341703573090216 24.0 0.0 20.0 
146.0000042429968 340.0 186.0 426.2933943380033 0.49819861894642237 23.0 0.0 20.0 
148.0000042429968 340.0 186.0 426.2933943380033 0.49819861894642237 22.0 0.0 20.0 
150.0000042429968 344.0 188.0 426.2933943380033 0.4981425442690401 22.0 0.0 20.0 
152.0000042429968 344.0 188.0 426.2933943380033 0.4981425442690401 22.0 0.0 20.0 
154.0000042429968 344.0 188.0 426.2933943380033 0.4981425442690401 21.0 0.0 20.0 
156.0000042429968 344.0 188.0 426.2933943380033 0.4981425442690401 21.0 0.0 20.0 
158.0000042429968 348.0 190.0 426.2933943380033 0.498088221925326 21.0 0.0 20.0 
160.0000042429968 348.0 190.0 426.2933943380033 0.505900721925326 21.0 0.0 20.0 
162.0000042429968 348.0 190.0 426.2933943380033 0.521525721925326 21.0 0.0 20.0 
164.0000042429968 349.0 189.0 427.60537603660214 0.5149581821222273 22.0 0.0 21.0 
166.0000042429968 348.0 189.0 427.60537603660214 0.4962998210621948 24.0 0.0 21.0 
168.0000042429968 348.0 189.0 427.60537603660214 0.5081108446842421 24.0 0.0 21.0 
170.0000042429968 348.0 189.0 427.60537603660214 0.523858876180305 24.0 0.0 21.0 
172.0000042429968 346.0 188.0 427.60537603660214 0.496312788576408 24.0 0.0 21.0 
174.0000042429968 346.0 188.0 427.60537603660214 0.496312788576408 24.0 0.0 21.0 
176.0000042429968 347.0 188.0 427.60537603660214 0.4967187766540274 24.0 0.0 21.0 
178.0000042429968 348.0 189.0 427.60537603660214 0.5011322257600644 24.0 0.0 21.0 
180.0000042429968 348.0 189.0 427.60537603660214 0.5142660855088742 24.0 0.0 21.0 
182.0000042429968 347.0 189.0 427.60537603660214 0.5207978589090976 24.0 0.0 21.0 
184.0000042429968 344.0 188.0 427.60537603660214 0.5081291487189337 23.0 0.0 21.0 
186.0000042429968 344.0 188.0 427.60537603660214 0.5239394253987756 23.0 0.0 21.0 
188.0000042429968 342.0 187.0 427.60537603660214 0.4962842342523806 23.0 0.0 21.0 
190.0000042429968 342.0 187.0 427.60537603660214 0.4962842342523806 23.0 0.0 21.0 
192.0000042429968 342.0 187.0 427.60537603660214 0.4962842342523806 23.0 0.0 21.0 
194.0000042429968 342.0 187.0 427.60537603660214 0.4962842342523806 23.0 0.0 21.0 
196.0000042429968 346.0 188.0 428.9242207606526 0.4983418146626556 24.0 0.0 22.0 
198.0000042429968 348.0 188.0 431.555047183301 0.5177896575625934 26.0 0.0 24.0 
200.0000042429968 347.0 188.0 431.5664855590501 0.5294339169601536 26.0 0.0 24.0 
202.0000042429968 346.0 187.0 431.5573348584493 0.5299929967638298 26.0 0.0 24.0 
204.0000042429968 342.0 186.0 431.5504718330006 0.4985436230793604 26.0 0.0 24.0 
206.0000042429968 342.0 186.0 431.5527595081489 0.5014154398857744 26.0 0.0 24.0 
208.0000042429968 344.0 187.0 431.5504718330006 0.5174749374271721 26.0 0.0 24.0 
210.0000042429968 343.0 186.0 431.5504718330006 0.5269653146071531 26.0 0.0 24.0 
212.0000042429968 338.0 186.0 431.5493279954249 0.49786270049343734 26.0 0.0 24.0 
214.0000042429968 338.0 186.0 431.5447526451244 0.49786398067401216 25.0 0.0 24.0 
216.0000042429968 338.0 186.0 431.5447526451244 0.49786398067401216 25.0 0.0 24.0 
218.0000042429968 338.0 186.0 431.5447526451244 0.49786398067401216 25.0 0.0 24.0 
220.0000042429968 338.0 186.0 431.5447526451244 0.49786398067401216 25.0 0.0 24.0 
222.0000042429968 338.0 186.0 431.5447526451244 0.49786398067401216 25.0 0.0 24.0 
224.0000042429968 338.0 186.0 431.5447526451244 0.49786398067401216 25.0 0.0 24.0 
226.0000042429968 338.0 186.0 431.5447526451244 0.49786398067401216 25.0 0.0 24.0 
228.0000042429968 338.0 186.0 431.5447526451244 0.5098639806740122 25.0 0.0 24.0 
230.0000042429968 338.0 186.0 431.5447526451244 0.5258639806740122 25.0 0.0 24.0 
232.0000042429968 336.0 185.0 431.5447526451244 0.4978897715320983 25.0 0.0 24.0 
234.0000042429968 336.0 185.0 431.5447526451244 0.4978897715320983 25.0 0.0 24.0 
236.0000042429968 336.0 185.0 431.5447526451244 0.4978897715320983 25.0 0.0 24.0 
238.0000042429968 336.0 185.0 431.5447526451244 0.5140188037901627 25.0 0.0 24.0 
240.0000042429968 336.0 185.0 431.5447526451244 0.5301478360482272 25.0 0.0 24.0 
242.0000042429968 334.0 184.0 430.23277094652644 0.4979159817537305 24.0 0.0 23.0 
244.0000042429968 334.0 184.0 430.23277094652644 0.4979159817537305 24.0 0.0 23.0 
246.0000042429968 337.0 185.0 430.23277094652644 0.49672941278918303 24.0 0.0 23.0 
248.0000042429968 338.0 186.0 430.23277094652644 0.4978639806740122 24.0 0.0 23.0 
250.0000042429968 342.0 188.0 430.23277094652644 0.4978136174235764 24.0 0.0 23.0 
252.0000042429968 344.0 189.0 430.23277094652644 0.5016952759926995 24.0 0.0 23.0 
254.0000042429968 344.0 189.0 430.23277094652644 0.5134140259926995 24.0 0.0 23.0 
256.0000042429968 345.0 189.0 430.23277094652644 0.5466748591540019 24.0 0.0 23.0 
258.0000042429968 344.0 189.0 430.23277094652644 0.550919620525756 24.0 0.0 23.0 
260.0000042429968 342.0 188.0 430.23277094652644 0.5454670851150917 24.0 0.0 23.0 
262.0000042429968 340.0 187.0 430.23277094652644 0.5219674928508985 24.0 0.0 23.0 
264.0000042429968 339.0 186.0 430.23277094652644 0.5014387324609566 24.0 0.0 23.0 
266.0000042429968 340.0 187.0 430.23277094652644 0.5057751071311528 24.0 0.0 23.0 
268.0000042429968 340.0 187.0 430.23277094652644 0.5216481230041686 24.0 0.0 23.0 
270.0000042429968 340.0 187.0 428.92650843580105 0.5360215246800766 24.0 0.0 22.0 
272.0000042429968 341.0 187.0 426.2933943380033 0.5006235119084634 23.0 0.0 20.0 
274.0000042429968 342.0 188.0 426.2933943380033 0.5007468768660137 23.0 0.0 20.0 
276.0000042429968 343.0 188.0 426.2933943380033 0.4989030380556133 23.0 0.0 20.0 
278.0000042429968 346.0 190.0 426.2933943380033 0.4996983323971572 23.0 0.0 20.0 
280.0000042429968 346.0 190.0 426.2933943380033 0.4996983323971572 23.0 0.0 20.0 
282.0000042429968 346.0 190.0 426.2933943380033 0.5113714841481299 23.0 0.0 20.0 
284.0000042429968 346.0 190.0 426.2933943380033 0.5308267370664179 23.0 0.0 20.0 
286.0000042429968 345.0 189.0 426.2933943380033 0.5192543312895165 23.0 0.0 20.0 
288.0000042429968 347.0 190.0 426.2933943380033 0.5166506856656373 23.0 0.0 20.0 
290.0000042429968 346.0 189.0 426.2933943380033 0.5047279567445779 23.0 0.0 20.0 
292.0000042429968 347.0 190.0 426.2933943380033 0.5172957414152507 23.0 0.0 20.0 
294.0000042429968 346.0 190.0 426.2933943380033 0.5245055806789233 23.0 0.0 20.0 
296.0000042429968 340.0 189.0 426.29911352588016 0.5008318051068079 23.0 0.0 20.0 
298.0000042429968 340.0 189.0 426.2899628252794 0.5281755551068079 23.0 0.0 20.0 
300.0000042429968 341.0 189.0 426.2899628252794 0.5582340913525281 23.0 0.0 20.0 
302.0000042429968 340.0 189.0 426.2899628252794 0.5047380551068079 23.0 0.0 20.0 
304.0000042429968 340.0 189.0 426.2899628252794 0.520363055106808 23.0 0.0 20.0 
306.0000042429968 340.0 189.0 426.2899628252794 0.5399047232429967 23.0 0.0 20.0 
308.0000042429968 338.0 188.0 426.2899628252794 0.5205863951359401 23.0 0.0 20.0 
310.0000042429968 337.0 188.0 426.2899628252794 0.5305310886854058 23.0 0.0 20.0 
312.0000042429968 334.0 187.0 426.2899628252794 0.5365412909949201 23.0 0.0 20.0 
314.0000042429968 336.0 188.0 426.2899628252794 0.5675854056872844 23.0 0.0 20.0 
316.0000042429968 332.0 186.0 426.2899628252794 0.5010183856301677 23.0 0.0 20.0 
318.0000042429968 332.0 186.0 426.2899628252794 0.5010183856301677 23.0 0.0 20.0 
320.0000042429968 334.0 187.0 426.2899628252794 0.5088733068051968 23.0 0.0 20.0 
322.0000042429968 334.0 187.0 426.2899628252794 0.5246835834850389 23.0 0.0 20.0 
324.0000042429968 333.0 187.0 426.2899628252794 0.5196520330515856 23.0 0.0 20.0 
326.0000042429968 332.0 186.0 426.2899628252794 0.5010183856301677 23.0 0.0 20.0 
328.0000042429968 332.0 186.0 426.2899628252794 0.5010183856301677 23.0 0.0 20.0 
330.0000042429968 334.0 187.0 426.2899628252794 0.5078321324455841 23.0 0.0 20.0 
332.0000042429968 334.0 187.0 426.2899628252794 0.5356099102233618 23.0 0.0 20.0 
334.0000042429968 334.0 187.0 426.2899628252794 0.5331942960559375 23.0 0.0 20.0 
336.0000042429968 334.0 187.0 426.2899628252794 0.4974800103416518 23.0 0.0 20.0 
338.0000042429968 335.0 187.0 426.2899628252794 0.496474669942874 23.0 0.0 20.0 
340.0000042429968 340.0 189.0 426.2899628252794 0.5209449381188913 23.0 0.0 20.0 
342.0000042429968 340.0 189.0 426.2899628252794 0.5483959185110482 23.0 0.0 20.0 
344.0000042429968 337.0 187.0 426.2899628252794 0.5076076302288661 23.0 0.0 20.0 
346.0000042429968 338.0 188.0 426.2899628252794 0.5323764184204728 23.0 0.0 20.0 
348.0000042429968 336.0 187.0 426.2899628252794 0.5247392001994339 23.0 0.0 20.0 
350.0000042429968 337.0 188.0 426.2899628252794 0.5513172163605 23.0 0.0 20.0 
352.0000042429968 337.0 188.0 426.2899628252794 0.5669228478231568 23.0 0.0 20.0 
354.0000042429968 332.0 186.0 426.2899628252794 0.5050024493751876 23.0 0.0 20.0 
356.0000042429968 332.0 186.0 424.9779811266805 0.5209387043552672 20.0 0.0 19.0 
358.0000042429968 332.0 186.0 424.9779811266805 0.5408590230803668 20.0 0.0 19.0 
360.0000042429968 331.0 185.0 424.9779811266805 0.5199769564244061 20.0 0.0 19.0 
362.0000042429968 332.0 186.0 424.9779811266805 0.5368749593353469 20.0 0.0 19.0 
364.0000042429968 331.0 186.0 424.9779811266805 0.5016702711247694 20.0 0.0 19.0 
366.0000042429968 334.0 187.0 424.9779811266805 0.5009681684652759 20.0 0.0 19.0 
368.0000042429968 337.0 189.0 424.9779811266805 0.4997496125761536 20.0 0.0 19.0 
370.0000042429968 338.0 189.0 424.9779811266805 0.5164342812404679 20.0 0.0 19.0 
372.0000042429968 338.0 189.0 424.9779811266805 0.5475626859097287 20.0 0.0 19.0 
374.0000042429968 336.0 188.0 424.9779811266805 0.5401344252951276 20.0 0.0 19.0 
376.0000042429968 334.0 187.0 424.9779811266805 0.5325887218249598 20.0 0.0 19.0 
378.0000042429968 333.0 186.0 424.9779811266805 0.5559272293855229 20.0 0.0 19.0 
380.0000042429968 332.0 186.0 424.9779811266805 0.5289068318453071 20.0 0.0 19.0 
382.0000042429968 334.0 186.0 424.9779811266805 0.5024892449828787 21.0 0.0 19.0 
384.0000042429968 334.0 186.0 424.9779811266805 0.5024892449828787 21.0 0.0 19.0 
386.0000042429968 335.0 187.0 424.9779811266805 0.5013834397898884 21.0 0.0 19.0 
388.0000042429968 336.0 187.0 424.9779811266805 0.5024271550565969 21.0 0.0 19.0 
390.0000042429968 336.0 187.0 424.9779811266805 0.5022300196660433 21.0 0.0 19.0 
392.0000042429968 345.0 188.0 427.6156705747787 0.5018014279648794 22.0 0.0 21.0 
394.0000042429968 346.0 188.0 427.61338289962674 0.5024777256247895 22.0 0.0 21.0 
396.0000042429968 348.0 189.0 427.6088075493297 0.5024163170629136 22.0 0.0 21.0 
398.0000042429968 348.0 189.0 427.61109522447816 0.5063402563951327 22.0 0.0 21.0 
400.0000042429968 349.0 189.0 427.6088075493297 0.537786983225963 22.0 0.0 21.0 
402.0000042429968 350.0 189.0 427.6088075493297 0.569480314174156 22.0 0.0 21.0 
404.0000042429968 346.0 187.0 427.6088075493297 0.5029447669421037 22.0 0.0 21.0 
406.0000042429968 350.0 189.0 427.6088075493297 0.5186468592480935 22.0 0.0 21.0 
408.0000042429968 354.0 191.0 427.6088075493297 0.5443519944680982 22.0 0.0 21.0 
410.0000042429968 356.0 192.0 427.6088075493297 0.5240559625508118 22.0 0.0 21.0 
412.0000042429968 356.0 191.0 427.61109522447816 0.5181595176546283 22.0 0.0 21.0 
414.0000042429968 356.0 191.0 427.6088075493297 0.5336654610987092 22.0 0.0 21.0 
416.0000042429968 355.0 190.0 427.6088075493297 0.5135995706497111 22.0 0.0 21.0 
418.0000042429968 356.0 191.0 427.6088075493297 0.5569423632981015 22.0 0.0 21.0 
420.0000042429968 353.0 190.0 427.6088075493297 0.5547806124644243 22.0 0.0 21.0 
422.0000042429968 348.0 188.0 427.61109522447816 0.5463550523348748 22.0 0.0 21.0 
424.0000042429968 347.0 188.0 427.6088075493297 0.5331220851823372 22.0 0.0 21.0 
426.0000042429968 346.0 187.0 427.6088075493297 0.5029447669421037 22.0 0.0 21.0 
428.0000042429968 348.0 188.0 427.6088075493297 0.5186895981462877 22.0 0.0 21.0 
430.0000042429968 349.0 188.0 427.6088075493297 0.5325601876353201 22.0 0.0 21.0 
432.0000042429968 348.0 188.0 427.61109522447816 0.5028784781327337 22.0 0.0 21.0 
434.0000042429968 348.0 188.0 427.6088075493297 0.5107840381395107 22.0 0.0 21.0 
436.0000042429968 346.0 188.0 427.6088075493297 0.5223873012231018 22.0 0.0 21.0 
438.0000042429968 347.0 189.0 427.6088075493297 0.559806787801015 22.0 0.0 21.0 
440.0000042429968 350.0 191.0 427.6088075493297 0.553181803825775 22.0 0.0 21.0 
442.0000042429968 349.0 189.0 427.61109522447816 0.5494151139409704 22.0 0.0 21.0 
444.0000042429968 348.0 189.0 427.6088075493297 0.5718382925372727 22.0 0.0 21.0 
446.0000042429968 340.0 187.0 427.6076637117541 0.5246046622834315 22.0 0.0 21.0 
448.0000042429968 338.0 186.0 427.60537603660214 0.5008441722675281 22.0 0.0 21.0 
450.0000042429968 338.0 186.0 427.60537603660214 0.524844172267528 22.0 0.0 21.0 
452.0000042429968 342.0 188.0 427.60537603660214 0.5716130185982973 22.0 0.0 21.0 
454.0000042429968 340.0 187.0 427.60537603660214 0.5682554559342252 22.0 0.0 21.0 
456.0000042429968 336.0 185.0 427.60537603660214 0.4968617388642713 22.0 0.0 21.0 
458.0000042429968 336.0 185.0 427.60537603660214 0.4968617388642713 22.0 0.0 21.0 
460.0000042429968 336.0 185.0 427.60537603660214 0.4968617388642713 22.0 0.0 21.0 
462.0000042429968 336.0 185.0 427.60537603660214 0.5089585130578197 22.0 0.0 21.0 
464.0000042429968 338.0 186.0 427.60537603660214 0.522093900367714 22.0 0.0 21.0 
466.0000042429968 339.0 186.0 427.60537603660214 0.4951266307942655 22.0 0.0 21.0 
468.0000042429968 342.0 188.0 427.60537603660214 0.49680986899199797 22.0 0.0 21.0 
470.0000042429968 344.0 189.0 427.60537603660214 0.49679311934574305 22.0 0.0 21.0 
472.0000042429968 344.0 189.0 427.60537603660214 0.5124181193457431 22.0 0.0 21.0 
474.0000042429968 344.0 189.0 427.60537603660214 0.531949369345743 22.0 0.0 21.0 
476.0000042429968 344.0 189.0 427.60537603660214 0.520230619345743 22.0 0.0 21.0 
478.0000042429968 344.0 189.0 427.60537603660214 0.563199369345743 22.0 0.0 21.0 
480.0000042429968 342.0 188.0 427.60537603660214 0.5598019949762498 22.0 0.0 21.0 
482.0000042429968 340.0 187.0 427.60537603660214 0.49682688450565377 22.0 0.0 21.0 
484.0000042429968 345.0 188.0 427.60537603660214 0.5004973735327283 22.0 0.0 21.0 
486.0000042429968 346.0 189.0 427.60537603660214 0.5281112563962853 22.0 0.0 21.0 
488.0000042429968 346.0 189.0 427.60537603660214 0.5594838054158932 22.0 0.0 21.0 
490.0000042429968 342.0 187.0 427.60537603660214 0.5087239311711845 22.0 0.0 21.0 
492.0000042429968 346.0 189.0 427.60537603660214 0.5281112563962853 22.0 0.0 21.0 
494.0000042429968 344.0 188.0 427.60537603660214 0.5165179389427275 22.0 0.0 21.0 
496.0000042429968 345.0 189.0 427.60537603660214 0.512641719541875 22.0 0.0 21.0 
498.0000042429968 347.0 189.0 427.60537603660214 0.4966346202007331 22.0 0.0 21.0 
500.0000042429968 348.0 190.0 427.60537603660214 0.4967225766910331 22.0 0.0 21.0 
502.0000042429968 352.0 192.0 427.60537603660214 0.5182357506117515 22.0 0.0 21.0 
504.0000042429968 352.0 192.0 426.2933943380033 0.5566972890732899 21.0 0.0 20.0 
506.0000042429968 349.0 190.0 426.2933943380033 0.5344072723419282 21.0 0.0 20.0 
508.0000042429968 351.0 192.0 426.2933943380033 0.522570155155215 21.0 0.0 20.0 
510.0000042429968 352.0 191.0 426.2933943380033 0.49900106450661336 21.0 0.0 20.0 
512.0000042429967 352.0 191.0 426.2933943380033 0.5262591737896043 21.0 0.0 20.0 
514.0000042429967 352.0 191.0 426.2933943380033 0.5573875784588337 21.0 0.0 20.0 
516.0000042429967 350.0 191.0 426.2933943380033 0.49710830135522754 21.0 0.0 20.0 
518.0000042429967 350.0 191.0 426.2933943380033 0.5009842703474756 21.0 0.0 20.0 
520.0000042429967 350.0 191.0 426.2933943380033 0.5436509413885332 21.0 0.0 20.0 
522.0000042429967 352.0 192.0 426.2933943380033 0.5894279796414775 21.0 0.0 20.0 
524.0000042429967 347.0 189.0 426.2933943380033 0.5009416186930645 21.0 0.0 20.0 
526.0000042429967 348.0 190.0 426.2933943380033 0.5200688801929447 21.0 0.0 20.0 
528.0000042429967 348.0 190.0 426.2933943380033 0.5511972848622055 21.0 0.0 20.0 
530.0000042429967 346.0 189.0 426.2933943380033 0.5006602760040948 21.0 0.0 20.0 
532.0000042429967 346.0 189.0 426.2933943380033 0.5163465505138987 21.0 0.0 20.0 
534.0000042429967 346.0 189.0 426.2933943380033 0.5320328250237025 21.0 0.0 20.0 
536.0000042429967 344.0 188.0 426.2933943380033 0.500707662262852 21.0 0.0 20.0 
538.0000042429967 346.0 189.0 426.2933943380033 0.5202681191413496 21.0 0.0 20.0 
540.0000042429967 346.0 189.0 426.2933943380033 0.5634053740433105 21.0 0.0 20.0 
542.0000042429967 344.0 188.0 426.2933943380033 0.559996199812259 21.0 0.0 20.0 
544.0000042429967 340.0 186.0 426.2933943380033 0.49678865419845913 21.0 0.0 20.0 
546.0000042429967 340.0 186.0 426.2933943380033 0.49678865419845913 21.0 0.0 20.0 
548.0000042429967 340.0 186.0 426.2933943380033 0.5128529112265715 21.0 0.0 20.0 
550.0000042429967 340.0 186.0 426.2933943380033 0.528917168254684 21.0 0.0 20.0 
552.0000042429967 340.0 186.0 426.2933943380033 0.49678865419845913 21.0 0.0 20.0 
554.0000042429967 341.0 187.0 426.2933943380033 0.501417307019374 21.0 0.0 20.0 
556.0000042429967 342.0 187.0 426.2933943380033 0.5167133099987551 21.0 0.0 20.0 
558.0000042429967 341.0 187.0 426.2933943380033 0.5318965733962056 21.0 0.0 20.0 
560.0000042429967 339.0 186.0 426.2933943380033 0.4956536087112078 21.0 0.0 20.0 
562.0000042429967 342.0 188.0 426.2933943380033 0.5007468768659787 21.0 0.0 20.0 
564.0000042429967 342.0 188.0 426.2933943380033 0.5243689241100732 21.0 0.0 20.0 
566.0000042429967 341.0 188.0 426.2933943380033 0.5527759825812634 21.0 0.0 20.0 
568.0000042429967 340.0 187.0 426.2933943380033 0.5403402945184309 21.0 0.0 20.0 
570.0000042429967 339.0 187.0 426.2933943380033 0.5296895107379782 21.0 0.0 20.0 
572.0000042429967 338.0 186.0 426.2933943380033 0.5328441722674935 21.0 0.0 20.0 
574.0000042429967 339.0 186.0 426.2933943380033 0.565188317027752 21.0 0.0 20.0 
576.0000042429967 340.0 187.0 426.2933943380033 0.49682688450561896 21.0 0.0 20.0 
578.0000042429967 340.0 187.0 426.2933943380033 0.5087316464103808 21.0 0.0 20.0 
580.0000042429967 345.0 189.0 426.2933943380033 0.5233640528228202 21.0 0.0 20.0 
582.0000042429967 347.0 190.0 426.2933943380033 0.512547852947932 21.0 0.0 20.0 
584.0000042429967 348.0 191.0 426.2933943380033 0.5467603931137941 21.0 0.0 20.0 
586.0000042429967 345.0 190.0 426.2933943380033 0.5229464358409383 21.0 0.0 20.0 
588.0000042429967 347.0 191.0 426.2933943380033 0.5386350490443788 21.0 0.0 20.0 
590.0000042429967 346.0 190.0 426.2933943380033 0.5418074485644072 21.0 0.0 20.0 
592.0000042429967 345.0 190.0 426.2933943380033 0.5669193696136534 21.0 0.0 20.0 
594.0000042429967 343.0 188.0 426.2933943380033 0.5938745663691846 21.0 0.0 20.0 
596.0000042429967 337.0 186.0 426.2933943380033 0.5125683515437863 21.0 0.0 20.0 
598.0000042429967 340.0 186.0 426.2933943380033 0.5088368469695435 21.0 0.0 20.0 
600.0000042429967 340.0 186.0 426.2933943380033 0.5409653610257684 21.0 0.0 20.0 
602.0000042429967 338.0 185.0 426.2933943380033 0.5453888383274239 21.0 0.0 20.0 
604.0000042429967 335.0 184.0 426.2933943380033 0.5132508915091964 21.0 0.0 20.0 
606.0000042429967 334.0 183.0 426.2933943380033 0.5009562938674422 21.0 0.0 20.0 
608.0000042429967 334.0 183.0 426.2933943380033 0.5174171992172365 21.0 0.0 20.0 
610.0000042429967 336.0 184.0 426.2933943380033 0.5335580050544126 21.0 0.0 20.0 
612.0000042429967 334.0 183.0 426.2933943380033 0.4968410675299937 21.0 0.0 20.0 
614.0000042429967 334.0 183.0 426.2933943380033 0.5009562938674422 21.0 0.0 20.0 
616.0000042429967 344.0 184.0 427.61338289962674 0.5182438914396758 22.0 0.0 21.0 
618.0000042429967 343.0 184.0 427.61109522447816 0.5131843481789724 22.0 0.0 21.0 
620.0000042429967 344.0 184.0 427.61109522447816 0.507631725045741 22.0 0.0 21.0 
622.0000042429967 348.0 186.0 427.6088075493297 0.5252245067642289 22.0 0.0 21.0 
624.0000042429967 348.0 186.0 427.6088075493297 0.4972608857259816 22.0 0.0 21.0 
626.0000042429967 350.0 187.0 427.6088075493297 0.5020584628089595 22.0 0.0 21.0 
628.0000042429967 350.0 187.0 427.6088075493297 0.5177219702926108 22.0 0.0 21.0 
630.0000042429967 346.0 187.0 427.61109522447816 0.5267795659721168 22.0 0.0 21.0 
632.0000042429967 342.0 187.0 427.6088075493297 0.534844062179917 22.0 0.0 21.0 
634.0000042429967 341.0 187.0 427.6088075493297 0.5556322730300984 22.0 0.0 21.0 
636.0000042429967 338.0 185.0 427.6088075493297 0.5460246570954319 22.0 0.0 21.0 
638.0000042429967 336.0 184.0 427.6088075493297 0.5357903299124928 22.0 0.0 21.0 
640.0000042429967 335.0 185.0 427.61452673720225 0.5169476530830237 22.0 0.0 21.0 
642.0000042429967 334.0 184.0 427.60537603660214 0.4977223847090532 22.0 0.0 21.0 
644.0000042429967 335.0 184.0 427.60537603660214 0.4964730098641844 22.0 0.0 21.0 
646.0000042429967 337.0 186.0 427.60537603660214 0.49850213607663807 22.0 0.0 21.0 
648.0000042429967 338.0 186.0 427.60537603660214 0.5057707258795009 22.0 0.0 21.0 
650.0000042429967 338.0 186.0 427.60537603660214 0.5259320162020816 22.0 0.0 21.0 
652.0000042429967 338.0 186.0 427.60537603660214 0.5203087339249638 22.0 0.0 21.0 
654.0000042429967 338.0 187.0 427.60537603660214 0.518596198675903 22.0 0.0 21.0 
656.0000042429967 338.0 186.0 427.60537603660214 0.5331362601852389 22.0 0.0 21.0 
658.0000042429967 339.0 187.0 427.60537603660214 0.5893753764967603 22.0 0.0 21.0 
660.0000042429967 335.0 185.0 427.60537603660214 0.5357018419465531 22.0 0.0 21.0 
662.0000042429967 332.0 183.0 427.60537603660214 0.5132911786116618 22.0 0.0 21.0 
664.0000042429967 332.0 183.0 427.60537603660214 0.5378813425460882 22.0 0.0 21.0 
#####################################################################
# End of data export. Simulation finished at: 2019-03-11T01:36+0000 #
#####################################################################
