#####################################################################
# Alchemist log file - simulation started at: 2019-03-11T21:26+0000 #
#####################################################################
# seed = 4.0, bandwidth = 2.3713737056616552E7, accessPointCount = 531.8295896944988, baserange = 100.0
#
# The columns have the following meaning: 
# time neighbor_count[Sum] <value>@neighbor_count[Sum] packet_size[Mean] mean_delay[Mean] crowd[Sum] overcrowded[Sum] risk[Sum] 
0.0 NaN NaN NaN NaN NaN NaN NaN 
2.0000042429967895 722.0 368.0 4983.236686390533 0.4935999777206129 1497.0 0.0 1497.0 
4.0000042429967895 901.0 370.0 4984.629191321499 0.5058966019580978 1497.0 0.0 1497.0 
6.0000042429967895 1029.0 370.0 4983.792899408284 0.509318121837006 1497.0 0.0 1497.0 
8.00000424299679 1161.0 378.0 4984.816568047338 0.5207232103852381 1497.0 0.0 1497.0 
10.00000424299679 1247.0 380.0 4984.278106508876 0.5312000671440709 1497.0 0.0 1497.0 
12.00000424299679 1220.0 371.0 4984.5187376725835 0.5100535609726826 1497.0 0.0 1497.0 
14.00000424299679 1202.0 368.0 4984.15976331361 0.5011283545585433 1493.0 4.0 1493.0 
16.000004242996788 1202.0 368.0 4984.449704142012 0.5011281573235515 1497.0 0.0 1497.0 
18.000004242996788 1202.0 368.0 4983.917159763314 0.5011285734304077 1497.0 0.0 1497.0 
20.000004242996788 1202.0 368.0 4984.465483234714 0.5011283859860463 1496.0 1.0 1496.0 
22.000004242996788 1202.0 368.0 4983.808678500986 0.5011286868282749 1496.0 1.0 1496.0 
24.000004242996788 1202.0 368.0 4984.465483234714 0.5011284150624539 1496.0 1.0 1496.0 
26.000004242996788 1204.0 368.0 4983.87573964497 0.5011537856678426 1496.0 1.0 1496.0 
28.000004242996788 1204.0 368.0 4984.396449704142 0.5011534620281356 1496.0 1.0 1496.0 
30.000004242996788 1212.0 368.0 4983.877712031558 0.5026757123420784 1496.0 1.0 1496.0 
32.00000424299679 1216.0 369.0 4984.422090729783 0.5048481016945504 1496.0 1.0 1496.0 
34.00000424299679 1214.0 368.0 4983.830374753452 0.5014935597481216 1496.0 1.0 1496.0 
36.00000424299679 1215.0 369.0 4984.4378698224855 0.5014606794823732 1496.0 1.0 1496.0 
38.00000424299679 1216.0 369.0 4983.934911242603 0.5014857501994959 1496.0 1.0 1496.0 
40.00000424299679 1216.0 369.0 4984.386587771203 0.5014854692384896 1496.0 1.0 1496.0 
42.00000424299679 1216.0 369.0 4983.863905325444 0.501485821366699 1496.0 1.0 1496.0 
44.00000424299679 1216.0 369.0 4984.392504930966 0.5014854572012628 1496.0 1.0 1496.0 
46.00000424299679 1216.0 369.0 4983.826429980276 0.5037793359758038 1496.0 1.0 1496.0 
48.00000424299679 1215.0 368.0 4984.412228796844 0.5061158045726906 1496.0 1.0 1496.0 
50.00000424299679 1216.0 369.0 4983.836291913215 0.5152695696056472 1496.0 1.0 1496.0 
52.00000424299679 1212.0 367.0 4984.370808678501 0.5015011430117162 1496.0 1.0 1496.0 
54.00000424299679 1212.0 367.0 4983.907297830375 0.5015015298584105 1496.0 1.0 1496.0 
56.00000424299679 1212.0 367.0 4984.30966469428 0.5015011787619057 1496.0 1.0 1496.0 
58.00000424299679 1212.0 367.0 4983.865877712032 0.501501436625138 1496.0 1.0 1496.0 
60.00000424299679 1212.0 367.0 4982.2307692307695 0.5015011990821272 1496.0 1.0 1496.0 
62.00000424299679 1212.0 367.0 549.8244575936893 0.5018784501475531 206.0 1.0 65.0 
64.0000042429968 1212.0 367.0 549.7278106508861 0.501914403440371 136.0 1.0 65.0 
66.0000042429968 1215.0 367.0 549.741617356999 0.5007542179464919 119.0 1.0 65.0 
68.0000042429968 1218.0 368.0 549.6903353057226 0.5020370397048838 109.0 1.0 65.0 
70.0000042429968 1238.0 369.0 547.4339250493115 0.5062868813726131 104.0 1.0 64.0 
72.0000042429968 1230.0 369.0 540.6390532544398 0.501959351257494 98.0 1.0 61.0 
74.0000042429968 1230.0 369.0 540.6193293885611 0.5019593384598157 95.0 1.0 61.0 
76.0000042429968 1232.0 370.0 540.6193293885611 0.5040480000488817 93.0 1.0 61.0 
78.0000042429968 1239.0 371.0 540.6410256410238 0.5080912747524793 93.0 1.0 61.0 
80.0000042429968 1236.0 370.0 540.6351084812617 0.5018686184669785 92.0 1.0 61.0 
82.0000042429968 1236.0 370.0 540.6173570019711 0.508733599092606 92.0 1.0 61.0 
84.0000042429968 1234.0 369.0 540.6331360946735 0.5018773118896214 92.0 1.0 61.0 
86.0000042429968 1234.0 369.0 540.6390532544398 0.5018773072813784 92.0 1.0 61.0 
88.0000042429968 1236.0 370.0 540.5996055226799 0.5148698802179109 89.0 1.0 61.0 
90.0000042429968 1226.0 369.0 540.6173570019711 0.5089468118962966 89.0 1.0 61.0 
92.0000042429968 1224.0 368.0 540.6134122287984 0.5018368415892379 89.0 1.0 61.0 
94.0000042429968 1224.0 368.0 540.6055226824482 0.5018368744913014 89.0 1.0 61.0 
96.0000042429968 1224.0 368.0 540.6232741617332 0.5018368686776039 89.0 1.0 61.0 
98.0000042429968 1230.0 369.0 540.6173570019711 0.505402826392455 89.0 1.0 61.0 
100.0000042429968 1228.0 368.0 540.615384615383 0.5018409262602552 89.0 1.0 61.0 
102.0000042429968 1228.0 368.0 540.6311637080895 0.5018409612173775 89.0 1.0 61.0 
104.0000042429968 1228.0 368.0 540.6193293885611 0.5018409351596874 89.0 1.0 61.0 
106.0000042429968 1230.0 368.0 540.6311637080895 0.5024001144415077 89.0 1.0 61.0 
108.0000042429968 1236.0 369.0 540.6173570019711 0.5073749968524877 89.0 1.0 61.0 
110.0000042429968 1232.0 369.0 540.6074950690322 0.5091759707391769 89.0 1.0 61.0 
112.0000042429968 1230.0 368.0 540.6055226824482 0.50240009313887 89.0 1.0 61.0 
114.0000042429968 1230.0 368.0 540.6232741617332 0.5024001711226702 89.0 1.0 61.0 
116.0000042429968 1230.0 368.0 540.6134122287984 0.5024001121995818 89.0 1.0 61.0 
118.0000042429968 1232.0 369.0 540.6094674556202 0.5092856343813393 89.0 1.0 61.0 
120.0000042429968 1226.0 368.0 540.6331360946735 0.5023947617061358 89.0 1.0 61.0 
122.0000042429968 1227.0 368.0 540.6213017751492 0.5020228607415845 89.0 1.0 61.0 
124.0000042429968 1228.0 369.0 540.6114398422104 0.5023836633273093 89.0 1.0 61.0 
126.0000042429968 1228.0 369.0 540.6489151873745 0.502383709779493 89.0 1.0 61.0 
128.0000042429968 1228.0 369.0 540.6074950690322 0.5069708445711045 89.0 1.0 61.0 
130.0000042429968 1226.0 368.0 540.5996055226799 0.5023947517815605 89.0 1.0 61.0 
132.0000042429968 1234.0 370.0 540.6232741617332 0.5028931820796027 89.0 1.0 61.0 
134.0000042429968 1234.0 370.0 540.6134122287984 0.5028932066887258 89.0 1.0 61.0 
136.0000042429968 1244.0 370.0 540.6055226824482 0.5016847023937451 90.0 1.0 61.0 
138.0000042429968 1262.0 372.0 542.8994082840248 0.502917337103082 90.0 1.0 62.0 
140.0000042429968 1273.0 374.0 542.9053254437854 0.5090749178972283 84.0 7.0 56.0 
142.0000042429968 1278.0 374.0 549.7455621301772 0.5146410105999882 84.0 8.0 58.0 
144.0000042429968 1285.0 373.0 552.0532544378708 0.5072437864039956 92.0 1.0 66.0 
146.0000042429968 1288.0 372.0 552.0512820512828 0.502573673620785 92.0 1.0 66.0 
148.0000042429968 1290.0 372.0 552.0295857988195 0.5038658538796293 92.0 1.0 66.0 
150.0000042429968 1286.0 372.0 551.9921104536497 0.513715814416931 92.0 1.0 66.0 
152.0000042429968 1285.0 370.0 552.0138067061125 0.5139843068518113 92.0 1.0 66.0 
154.0000042429968 1282.0 369.0 552.0059171597621 0.5023504136152215 92.0 1.0 66.0 
156.0000042429968 1282.0 369.0 552.023668639051 0.5040383283517396 92.0 1.0 66.0 
158.0000042429968 1274.0 370.0 552.0039447731783 0.5181574087709131 92.0 1.0 66.0 
160.0000042429968 1254.0 368.0 552.0098619329405 0.5021757459724384 92.0 1.0 66.0 
162.0000042429968 1258.0 368.0 552.0059171597621 0.502193038534338 92.0 1.0 66.0 
164.0000042429968 1258.0 368.0 551.9822485207089 0.5021930234826031 92.0 1.0 66.0 
166.0000042429968 1260.0 368.0 552.023668639051 0.502181891588854 92.0 1.0 66.0 
168.0000042429968 1260.0 368.0 551.9783037475369 0.5068223957623971 92.0 1.0 66.0 
170.0000042429968 1260.0 368.0 551.9585798816581 0.5017908464358203 92.0 1.0 66.0 
172.0000042429968 1260.0 368.0 551.9566074950676 0.502802822950943 92.0 1.0 66.0 
174.0000042429968 1256.0 368.0 551.9644970414182 0.501793817642864 92.0 1.0 66.0 
176.0000042429968 1256.0 368.0 551.9566074950676 0.5017937191908562 92.0 1.0 66.0 
178.0000042429968 1256.0 368.0 551.9605522682463 0.501793757051509 92.0 1.0 66.0 
180.0000042429968 1256.0 368.0 551.9822485207089 0.5017937730133173 92.0 1.0 66.0 
182.0000042429968 1256.0 368.0 551.9644970414182 0.5017937121412834 92.0 1.0 66.0 
184.0000042429968 1256.0 368.0 551.9625246548301 0.5017937330599279 92.0 1.0 66.0 
186.0000042429968 1256.0 368.0 554.2485207100606 0.501788849444164 93.0 1.0 67.0 
188.0000042429968 1256.0 368.0 554.2169625246529 0.5017887867870868 93.0 1.0 67.0 
190.0000042429968 1256.0 368.0 554.2248520710033 0.5017888092267497 93.0 1.0 67.0 
192.0000042429968 1256.0 368.0 554.2307692307717 0.501788811679046 93.0 1.0 67.0 
194.0000042429968 1256.0 368.0 554.2228796844192 0.5017888049651564 93.0 1.0 67.0 
196.0000042429968 1256.0 368.0 554.218934911241 0.5017887993090726 93.0 1.0 67.0 
198.0000042429968 1258.0 369.0 554.2307692307717 0.5017805307428358 93.0 1.0 67.0 
200.0000042429968 1260.0 370.0 554.2366863905316 0.5017528558410451 93.0 1.0 67.0 
202.0000042429968 1260.0 370.0 554.2268244575912 0.5017528378890647 93.0 1.0 67.0 
204.0000042429968 1276.0 372.0 556.5009861932954 0.5016673027841579 94.0 1.0 68.0 
206.0000042429968 1278.0 372.0 556.5088757396455 0.5018008232784832 94.0 1.0 68.0 
208.0000042429968 1280.0 373.0 556.4812623274139 0.501588177977763 94.0 1.0 68.0 
210.0000042429968 1282.0 373.0 556.4970414201166 0.5013200911830311 94.0 1.0 68.0 
212.0000042429968 1286.0 374.0 556.4871794871824 0.5013168353893309 94.0 1.0 68.0 
214.0000042429968 1286.0 374.0 556.4911242603545 0.5013169001612984 94.0 1.0 68.0 
216.0000042429968 1286.0 374.0 554.2287968441815 0.5013173481348754 94.0 1.0 67.0 
218.0000042429968 1290.0 374.0 554.2287968441815 0.5084350235535908 94.0 1.0 67.0 
220.0000042429968 1288.0 373.0 554.238658777122 0.5016087155789527 94.0 1.0 67.0 
222.0000042429968 1289.0 373.0 554.24063116371 0.501384262380172 94.0 1.0 67.0 
224.0000042429968 1290.0 374.0 554.238658777122 0.5051922983198169 93.0 1.0 67.0 
226.0000042429968 1278.0 373.0 554.2524654832324 0.5070224137283266 93.0 1.0 67.0 
228.0000042429968 1280.0 373.0 554.2209072978312 0.5014387865933729 94.0 1.0 67.0 
230.0000042429968 1282.0 374.0 551.9585798816581 0.5014321260274444 94.0 1.0 66.0 
232.0000042429968 1286.0 375.0 549.6903353057226 0.5014395611644641 88.0 7.0 59.0 
234.0000042429968 1291.0 376.0 549.6883629191346 0.5011589606245362 89.0 7.0 59.0 
236.0000042429968 1292.0 376.0 549.6785009861941 0.508222208999721 88.0 8.0 58.0 
238.0000042429968 1288.0 375.0 549.6785009861941 0.5014382363188832 88.0 8.0 58.0 
240.0000042429968 1294.0 376.0 551.9723865877706 0.5014334442251686 90.0 7.0 60.0 
242.0000042429968 1296.0 376.0 551.9526627218956 0.5009556310846642 91.0 8.0 59.0 
244.0000042429968 1298.0 377.0 551.9428007889575 0.5048601275725526 91.0 8.0 59.0 
246.0000042429968 1296.0 377.0 551.9802761341209 0.5022808428875192 91.0 7.0 60.0 
248.0000042429968 1298.0 379.0 551.9388560157768 0.5010869017231451 89.0 8.0 59.0 
250.0000042429968 1298.0 379.0 554.2268244575912 0.5010855851562741 89.0 8.0 60.0 
252.0000042429968 1298.0 379.0 554.238658777122 0.5061013899185325 90.0 7.0 61.0 
254.0000042429968 1291.0 379.0 554.2347140039437 0.506349209492292 89.0 8.0 60.0 
256.0000042429968 1302.0 378.0 556.4930966469448 0.49959817123580885 91.0 8.0 61.0 
258.0000042429968 1316.0 380.0 558.7830374753463 0.5036389869865858 93.0 7.0 63.0 
260.0000042429968 1322.0 381.0 558.7771203155816 0.511721440399028 94.0 8.0 62.0 
262.0000042429968 1314.0 380.0 558.7613412228781 0.5151248708596049 94.0 8.0 62.0 
264.0000042429968 1319.0 379.0 565.6193293885611 0.5016052037494608 99.0 7.0 66.0 
266.0000042429968 1322.0 380.0 565.6153846153828 0.5067076385545259 98.0 8.0 65.0 
268.0000042429968 1319.0 381.0 565.5641025641002 0.5120750477480207 104.0 2.0 71.0 
270.0000042429968 1314.0 379.0 565.5680473372786 0.5137202987756937 105.0 1.0 72.0 
272.0000042429968 1304.0 376.0 565.5463510848155 0.5086554895754516 104.0 1.0 72.0 
274.0000042429968 1300.0 376.0 565.5325443786967 0.5009857075765403 104.0 1.0 72.0 
276.0000042429968 1301.0 376.0 565.5424063116371 0.5054855043801382 104.0 1.0 72.0 
278.0000042429968 1302.0 375.0 565.5364891518751 0.501001874568368 103.0 2.0 71.0 
280.0000042429968 1302.0 375.0 565.5463510848155 0.5010018098765627 97.0 8.0 65.0 
282.0000042429968 1302.0 375.0 565.5562130177494 0.502135623383335 99.0 6.0 67.0 
284.0000042429968 1301.0 375.0 565.5443786982273 0.514507121270503 98.0 7.0 66.0 
286.0000042429968 1291.0 374.0 565.5660749506883 0.5020203389683842 97.0 7.0 66.0 
288.0000042429968 1294.0 373.0 565.5325443786967 0.5010032712319272 98.0 6.0 67.0 
290.0000042429968 1296.0 374.0 565.5226824457579 0.5075371334634126 97.0 7.0 66.0 
292.0000042429968 1295.0 373.0 565.524654832346 0.5000513205744198 98.0 6.0 67.0 
294.0000042429968 1300.0 374.0 565.5463510848155 0.5077633846178623 98.0 6.0 67.0 
296.0000042429968 1298.0 373.0 565.540433925047 0.5009495513993079 97.0 7.0 66.0 
298.0000042429968 1298.0 373.0 565.5364891518751 0.5123650701077691 97.0 7.0 66.0 
300.0000042429968 1297.0 372.0 565.5601577909283 0.5003992312813011 98.0 6.0 67.0 
302.0000042429968 1302.0 374.0 565.5483234713992 0.5020861925341786 97.0 7.0 66.0 
304.0000042429968 1301.0 374.0 565.5384615384587 0.5087328131639088 97.0 7.0 66.0 
306.0000042429968 1302.0 374.0 567.8461538461522 0.5009647457878007 98.0 7.0 67.0 
308.0000042429968 1302.0 374.0 570.0512820512828 0.5009622372284498 99.0 8.0 67.0 
310.0000042429968 1304.0 375.0 570.0433925049324 0.5088943471989769 100.0 8.0 67.0 
312.0000042429968 1301.0 374.0 570.0670611439832 0.5269265229864176 101.0 7.0 68.0 
314.0000042429968 1268.0 370.0 570.0571992110426 0.5009979703041979 99.0 8.0 67.0 
316.0000042429968 1269.0 370.0 570.0453648915206 0.5050236023563348 99.0 8.0 67.0 
318.0000042429968 1268.0 371.0 565.5384615384587 0.5025457738765109 98.0 7.0 66.0 
320.0000042429968 1264.0 371.0 565.5345167652869 0.5032972331942851 97.0 8.0 65.0 
322.0000042429968 1262.0 371.0 563.262327416173 0.5086213810814072 96.0 8.0 64.0 
324.0000042429968 1266.0 370.0 565.5562130177494 0.5004095818954487 96.0 7.0 66.0 
326.0000042429968 1270.0 371.0 565.5719921104568 0.5012201713654871 95.0 8.0 65.0 
328.0000042429968 1271.0 372.0 563.2603550295847 0.5013975156348698 94.0 8.0 64.0 
330.0000042429968 1270.0 372.0 563.2544378698228 0.5101532188005747 95.0 7.0 65.0 
332.0000042429968 1268.0 371.0 563.2583826430013 0.5010255246682671 94.0 8.0 64.0 
334.0000042429968 1270.0 371.0 563.2386587771219 0.5007394682101509 94.0 8.0 64.0 
336.0000042429968 1276.0 373.0 563.2682445759351 0.5010205584058007 95.0 7.0 65.0 
338.0000042429968 1276.0 373.0 563.2465483234726 0.5010205549995587 94.0 8.0 64.0 
340.0000042429968 1285.0 373.0 563.2524654832325 0.5001890695304777 101.0 3.0 69.0 
342.0000042429968 1297.0 375.0 567.8047337278101 0.5006122121171539 99.0 6.0 68.0 
344.0000042429968 1298.0 375.0 567.814595660751 0.5009581746738042 100.0 7.0 67.0 
346.0000042429968 1298.0 375.0 561.023668639051 0.5077816541794755 103.0 3.0 68.0 
348.0000042429968 1294.0 374.0 561.0157790927008 0.5100774327998471 100.0 6.0 65.0 
350.0000042429968 1293.0 373.0 558.715976331364 0.5094915550898454 97.0 7.0 63.0 
352.0000042429968 1300.0 374.0 558.714003944776 0.5015363532463015 102.0 3.0 67.0 
354.0000042429968 1299.0 374.0 558.7278106508861 0.5046085289549915 98.0 6.0 64.0 
356.0000042429968 1294.0 374.0 558.7337278106486 0.5056286834715628 95.0 7.0 63.0 
358.0000042429968 1292.0 374.0 558.7021696252451 0.5051932316102259 98.0 3.0 67.0 
360.0000042429968 1304.0 376.0 561.023668639051 0.4998676619134601 96.0 6.0 65.0 
362.0000042429968 1308.0 377.0 560.9960552268217 0.5087934889093367 95.0 7.0 64.0 
364.0000042429968 1301.0 375.0 561.0118343195287 0.5176517282824362 98.0 3.0 68.0 
366.0000042429968 1293.0 375.0 561.0335305719915 0.5176988354972322 94.0 6.0 65.0 
368.0000042429968 1287.0 373.0 560.9980276134097 0.5111473365851387 93.0 7.0 64.0 
370.0000042429968 1284.0 371.0 558.7080867850074 0.5032277458569376 96.0 3.0 67.0 
372.0000042429968 1282.0 371.0 558.7396449704152 0.5131057822969785 93.0 6.0 64.0 
374.0000042429968 1278.0 370.0 558.7179487179477 0.5006024669925244 92.0 7.0 63.0 
376.0000042429968 1282.0 371.0 558.7140039447759 0.5009268487268516 96.0 3.0 67.0 
378.0000042429968 1282.0 371.0 558.7317554240648 0.5009268701086392 93.0 6.0 64.0 
380.0000042429968 1284.0 372.0 558.7396449704152 0.5023417189650277 98.0 1.0 69.0 
382.0000042429968 1284.0 372.0 558.7061143984234 0.5086499571046725 98.0 1.0 69.0 
384.0000042429968 1282.0 371.0 558.737672583827 0.5009268744890709 98.0 1.0 69.0 
386.0000042429968 1288.0 372.0 558.7317554240648 0.5100778482288134 98.0 1.0 69.0 
388.0000042429968 1286.0 371.0 558.7120315581857 0.5009288374130507 98.0 1.0 69.0 
390.0000042429968 1296.0 373.0 567.7928994082815 0.500916824850819 102.0 1.0 73.0 
392.0000042429968 1302.0 373.0 570.0867850098645 0.5026396776992974 105.0 1.0 74.0 
394.0000042429968 1318.0 375.0 574.5976331360919 0.506651572970106 108.0 1.0 76.0 
396.0000042429968 1315.0 375.0 576.9329388560168 0.5006600594374234 109.0 1.0 77.0 
398.0000042429968 1320.0 377.0 576.8875739644963 0.5053716439355085 109.0 1.0 77.0 
400.0000042429968 1321.0 378.0 576.9053254437854 0.5107922269950328 109.0 1.0 77.0 
402.0000042429968 1321.0 378.0 576.9112426035475 0.5058943154914501 108.0 1.0 77.0 
404.0000042429968 1316.0 377.0 572.3688362919106 0.5008377774864083 107.0 1.0 75.0 
406.0000042429968 1327.0 377.0 572.3471400394473 0.5030746572670766 108.0 1.0 75.0 
408.0000042429968 1329.0 378.0 572.3589743589761 0.5057064165395867 108.0 1.0 75.0 
410.0000042429968 1328.0 377.0 572.3155818540458 0.5036703286182397 108.0 1.0 75.0 
412.0000042429968 1321.0 377.0 572.3431952662751 0.5067181625040803 108.0 1.0 75.0 
414.0000042429968 1325.0 377.0 570.0788954635119 0.5014225343564784 107.0 1.0 74.0 
416.0000042429968 1330.0 379.0 570.0650887573953 0.5153745369816032 107.0 1.0 74.0 
418.0000042429968 1301.0 378.0 572.3510848126253 0.5075467944386526 107.0 1.0 75.0 
420.0000042429968 1295.0 378.0 572.345167652859 0.5185215281237998 107.0 1.0 75.0 
422.0000042429968 1284.0 376.0 572.3392504930971 0.5022593171148574 107.0 1.0 75.0 
424.0000042429968 1284.0 376.0 572.3234714003959 0.5028277128406069 107.0 1.0 75.0 
426.0000042429968 1288.0 379.0 572.3727810650886 0.5024363753453972 107.0 1.0 75.0 
428.0000042429968 1285.0 379.0 572.333333333335 0.5022587569727393 107.0 1.0 75.0 
430.0000042429968 1284.0 378.0 572.3510848126253 0.5032521374313536 107.0 1.0 75.0 
432.0000042429968 1282.0 378.0 572.3846153846168 0.5086239094189207 107.0 1.0 75.0 
434.0000042429968 1279.0 378.0 572.325443786984 0.5108775151222421 107.0 1.0 75.0 
436.0000042429968 1274.0 376.0 572.325443786984 0.5004773860894148 107.0 1.0 75.0 
438.0000042429968 1274.0 376.0 572.3195266272177 0.500477496790143 107.0 1.0 75.0 
440.0000042429968 1274.0 376.0 572.3155818540456 0.5027196150483232 107.0 1.0 75.0 
442.0000042429968 1273.0 376.0 572.2859960552245 0.5171554127280233 107.0 1.0 75.0 
444.0000042429968 1269.0 374.0 572.3136094674558 0.5043875030388719 107.0 1.0 75.0 
446.0000042429968 1268.0 372.0 572.3116370808658 0.5135086288528313 107.0 1.0 75.0 
448.0000042429968 1283.0 374.0 572.2938856015764 0.5010869880946255 109.0 1.0 75.0 
450.0000042429968 1292.0 374.0 572.3057199211055 0.504057863961751 109.0 1.0 75.0 
452.0000042429968 1298.0 378.0 572.3195266272177 0.5013235548894701 109.0 1.0 75.0 
454.0000042429968 1298.0 378.0 572.2919132149924 0.5013235686549237 109.0 1.0 75.0 
456.0000042429968 1298.0 378.0 570.0512820512828 0.5049195968089792 107.0 1.0 74.0 
458.0000042429968 1294.0 378.0 574.5719921104557 0.5021714880500892 109.0 1.0 76.0 
460.0000042429968 1294.0 379.0 574.5857988165695 0.5102843467594111 110.0 1.0 76.0 
462.0000042429968 1280.0 378.0 570.0493096646929 0.5040118967820443 109.0 1.0 74.0 
464.0000042429968 1294.0 379.0 572.3293885601569 0.5014112893258937 108.0 1.0 75.0 
466.0000042429968 1298.0 380.0 572.3510848126253 0.5014039578570643 107.0 1.0 75.0 
468.0000042429968 1299.0 380.0 567.8047337278101 0.5028763091413193 107.0 1.0 73.0 
470.0000042429968 1299.0 380.0 567.7652859960567 0.5099570688398081 106.0 1.0 73.0 
472.0000042429968 1296.0 381.0 567.7534516765274 0.5077579470393055 106.0 1.0 73.0 
474.0000042429968 1295.0 381.0 565.5029585798837 0.5020593886913908 105.0 1.0 72.0 
476.0000042429968 1298.0 381.0 563.2327416173598 0.5059364855666617 104.0 1.0 71.0 
478.0000042429968 1294.0 380.0 558.7061143984236 0.5067650257606193 102.0 1.0 69.0 
480.0000042429968 1292.0 381.0 558.7357001972368 0.5022039110184991 101.0 1.0 69.0 
482.0000042429968 1301.0 384.0 560.9881656804714 0.5076926116577978 102.0 1.0 70.0 
484.0000042429968 1299.0 382.0 560.9723865877704 0.5017779402001323 104.0 1.0 70.0 
486.0000042429968 1306.0 384.0 561.0039447731784 0.5075327372923321 104.0 1.0 70.0 
488.0000042429968 1306.0 384.0 560.9723865877704 0.5112285302804094 104.0 1.0 70.0 
490.0000042429968 1303.0 382.0 563.2287968441815 0.5089271508823195 104.0 1.0 71.0 
492.0000042429968 1308.0 382.0 570.0808678500963 0.5112790742148002 107.0 1.0 74.0 
494.0000042429968 1306.0 381.0 570.057199211043 0.5043231376516086 107.0 1.0 74.0 
496.0000042429968 1310.0 382.0 570.0552268244551 0.5058437028333036 107.0 1.0 74.0 
498.0000042429968 1308.0 382.0 570.0591715976329 0.5154705149577473 107.0 1.0 74.0 
500.0000042429968 1298.0 380.0 570.0907297830364 0.5015909351789501 106.0 1.0 74.0 
502.0000042429968 1300.0 381.0 570.0355029585814 0.5082209720358566 105.0 1.0 74.0 
504.0000042429968 1298.0 380.0 570.0907297830364 0.5078873734203856 105.0 1.0 74.0 
506.0000042429968 1292.0 379.0 567.8205128205115 0.5149066169731972 105.0 1.0 73.0 
508.0000042429968 1285.0 379.0 567.7652859960559 0.5074838679980537 104.0 1.0 73.0 
510.0000042429968 1286.0 378.0 567.7988165680475 0.5025668123658427 103.0 1.0 73.0 
512.0000042429967 1290.0 380.0 567.8047337278101 0.513974610186042 103.0 1.0 73.0 
514.0000042429967 1296.0 379.0 570.0355029585812 0.5050045785253049 104.0 1.0 74.0 
516.0000042429967 1331.0 381.0 572.3629191321487 0.5104911389910982 105.0 1.0 75.0 
518.0000042429967 1323.0 378.0 570.1222879684428 0.5034854367071805 104.0 1.0 74.0 
520.0000042429967 1322.0 379.0 570.0571992110432 0.5225980833053537 104.0 1.0 74.0 
522.0000042429967 1316.0 376.0 570.0690335305729 0.5145193390618025 104.0 1.0 74.0 
524.0000042429967 1310.0 374.0 570.0571992110432 0.5050165846149939 104.0 1.0 74.0 
526.0000042429967 1307.0 375.0 567.7909270216971 0.5150321029699965 103.0 1.0 73.0 
528.0000042429967 1276.0 374.0 565.5364891518749 0.5100336595596354 100.0 1.0 72.0 
530.0000042429967 1261.0 372.0 565.5108481262337 0.5067142620182904 100.0 1.0 72.0 
532.0000042429967 1260.0 372.0 565.4930966469442 0.5017923507131311 100.0 1.0 72.0 
534.0000042429967 1261.0 373.0 565.5207100591736 0.5038313419486419 100.0 1.0 72.0 
536.0000042429967 1259.0 375.0 565.5167652859958 0.5186220429160132 100.0 1.0 72.0 
538.0000042429967 1242.0 372.0 565.4891518737664 0.5027228525800257 100.0 1.0 72.0 
540.0000042429967 1242.0 372.0 565.5167652859958 0.5027228805618604 100.0 1.0 72.0 
542.0000042429967 1248.0 373.0 565.5088757396455 0.5058378730958505 100.0 1.0 72.0 
544.0000042429967 1246.0 372.0 565.4950690335322 0.5099900369404159 100.0 1.0 72.0 
546.0000042429967 1244.0 372.0 565.532544378697 0.5054890360034399 100.0 1.0 72.0 
548.0000042429967 1242.0 372.0 565.4970414201167 0.5031916496519737 100.0 1.0 72.0 
550.0000042429967 1248.0 373.0 563.2287968441815 0.5029757963757276 100.0 1.0 71.0 
552.0000042429967 1252.0 375.0 563.2465483234726 0.50946539361195 99.0 1.0 71.0 
554.0000042429967 1253.0 376.0 563.2386587771216 0.5083351016510793 98.0 1.0 71.0 
556.0000042429967 1239.0 374.0 563.2347140039433 0.5146839534480702 98.0 1.0 71.0 
558.0000042429967 1233.0 374.0 563.2504930966445 0.503263578964922 98.0 1.0 71.0 
560.0000042429967 1235.0 375.0 558.7199211045358 0.5065890152539219 96.0 1.0 69.0 
562.0000042429967 1237.0 374.0 558.7080867850074 0.5078151625352914 96.0 1.0 69.0 
564.0000042429967 1236.0 374.0 561.0098619329406 0.5093706837667581 97.0 1.0 70.0 
566.0000042429967 1248.0 373.0 563.2958579881646 0.5117170399959933 100.0 1.0 71.0 
568.0000042429967 1246.0 373.0 563.2919132149927 0.5081410456833273 100.0 1.0 71.0 
570.0000042429967 1244.0 372.0 561.0118343195286 0.5036224428659576 99.0 1.0 70.0 
572.0000042429967 1247.0 374.0 561.021696252463 0.501668730234208 99.0 1.0 70.0 
574.0000042429967 1268.0 376.0 561.023668639051 0.5013069959865746 99.0 1.0 70.0 
576.0000042429967 1270.0 376.0 561.0118343195286 0.5035971441696698 99.0 1.0 70.0 
578.0000042429967 1262.0 376.0 561.0059171597621 0.5011950156412173 99.0 1.0 70.0 
580.0000042429967 1284.0 377.0 563.256410256411 0.5016957874185676 100.0 1.0 71.0 
582.0000042429967 1290.0 378.0 567.8106508875723 0.5112405668743994 103.0 1.0 73.0 
584.0000042429967 1286.0 377.0 565.5818540433908 0.5014589722029247 102.0 1.0 72.0 
586.0000042429967 1286.0 377.0 563.2721893491139 0.5150053141978821 100.0 1.0 71.0 
588.0000042429967 1268.0 375.0 563.274161735702 0.5011713244390167 100.0 1.0 71.0 
590.0000042429967 1274.0 375.0 563.2248520710032 0.50115696463915 100.0 1.0 71.0 
592.0000042429967 1282.0 378.0 563.2544378698228 0.5033808328685263 100.0 1.0 71.0 
594.0000042429967 1291.0 379.0 560.994082840238 0.5118188265380588 100.0 1.0 70.0 
596.0000042429967 1292.0 378.0 560.9822485207089 0.5067926935683272 101.0 1.0 70.0 
598.0000042429967 1290.0 378.0 560.9585798816581 0.5013104972599065 101.0 1.0 70.0 
600.0000042429967 1298.0 380.0 560.9980276134097 0.5032663835036667 101.0 1.0 70.0 
602.0000042429967 1297.0 380.0 560.9664694280085 0.5140501634494646 101.0 1.0 70.0 
604.0000042429967 1299.0 382.0 560.9861932938876 0.5083904402188423 101.0 1.0 70.0 
606.0000042429967 1286.0 381.0 561.0177514792911 0.507454048747594 102.0 1.0 70.0 
608.0000042429967 1295.0 381.0 565.5207100591742 0.5067875352608008 103.0 1.0 72.0 
610.0000042429967 1310.0 383.0 574.5996055226797 0.5076583003135674 107.0 1.0 76.0 
612.0000042429967 1302.0 384.0 576.9309664694265 0.5201911029007436 107.0 1.0 77.0 
614.0000042429967 1314.0 382.0 579.1755424063105 0.5027613013152723 107.0 1.0 78.0 
616.0000042429967 1317.0 381.0 579.1715976331388 0.5072579927387296 107.0 1.0 78.0 
618.0000042429967 1323.0 383.0 579.1755424063105 0.5028127595209603 108.0 1.0 78.0 
620.0000042429967 1366.0 382.0 583.7297830374767 0.5188777020245346 109.0 1.0 80.0 
622.0000042429967 1368.0 382.0 583.7120315581857 0.5034206858859975 109.0 1.0 80.0 
624.0000042429967 1370.0 382.0 583.7218934911261 0.5029519039703535 109.0 1.0 80.0 
626.0000042429967 1370.0 383.0 583.7238658777144 0.5002863997008148 109.0 1.0 80.0 
628.0000042429967 1377.0 383.0 583.6785009861941 0.5068578449208384 109.0 1.0 80.0 
630.0000042429967 1385.0 382.0 583.6982248520732 0.5119042611902548 109.0 1.0 80.0 
632.0000042429967 1372.0 381.0 583.6883629191345 0.5248081485234936 108.0 2.0 79.0 
634.0000042429967 1374.0 380.0 583.6982248520732 0.5095209716531816 107.0 3.0 78.0 
636.0000042429967 1384.0 380.0 583.6765285996038 0.5030470458860414 106.0 4.0 77.0 
638.0000042429967 1410.0 380.0 583.6923076923063 0.5009716728489116 102.0 8.0 73.0 
640.0000042429967 1414.0 380.0 583.7297830374767 0.5037142927709726 101.0 9.0 72.0 
642.0000042429967 1397.0 381.0 583.7179487179475 0.5075828961913308 101.0 9.0 72.0 
644.0000042429967 1381.0 382.0 576.9072978303756 0.5079948142070373 100.0 8.0 70.0 
646.0000042429967 1390.0 383.0 576.8796844181442 0.502164092084638 98.0 8.0 70.0 
648.0000042429967 1393.0 383.0 576.8757396449723 0.5074226425211271 100.0 6.0 72.0 
650.0000042429967 1381.0 383.0 576.8560157790928 0.5101065528598281 105.0 1.0 77.0 
652.0000042429967 1364.0 384.0 576.8658777120331 0.5166806411926059 106.0 2.0 76.0 
654.0000042429967 1352.0 381.0 576.8698224852048 0.5022828031339619 104.0 4.0 74.0 
656.0000042429967 1354.0 382.0 579.134122287967 0.5044961960642506 106.0 1.0 78.0 
658.0000042429967 1359.0 383.0 581.3964497041401 0.5188921808288579 107.0 1.0 79.0 
660.0000042429967 1328.0 380.0 581.4339250493115 0.5091996959922542 107.0 1.0 79.0 
662.0000042429967 1310.0 379.0 581.4260355029598 0.5013437185288018 106.0 2.0 78.0 
664.0000042429967 1312.0 380.0 581.3905325443798 0.515260594930679 107.0 1.0 79.0 
#####################################################################
# End of data export. Simulation finished at: 2019-03-11T21:35+0000 #
#####################################################################
