#####################################################################
# Alchemist log file - simulation started at: 2019-03-06T00:28+0000 #
#####################################################################
# seed = 1.0, bandwidth = 5623413.251903491, accessPointCount = 141.4213562373095, baserange = 31.622776601683796
#
# The columns have the following meaning: 
# time neighbor_count[Sum] <value>@neighbor_count[Sum] packet_size[Mean] mean_delay[Mean] crowd[Sum] overcrowded[Sum] risk[Sum] 
0.0 NaN NaN NaN NaN NaN NaN NaN 
10.000097218150408 58.0 20.0 4986.376068376068 0.49656774235612505 1497.0 0.0 1497.0 
20.000097218150408 58.0 20.0 4986.52503052503 0.49656576649011325 1497.0 0.0 1497.0 
30.000097218150408 58.0 20.0 4986.344322344323 0.4965684464829215 1497.0 0.0 1497.0 
40.00009721815041 58.0 20.0 4986.437118437118 0.49656844648292153 1497.0 0.0 1497.0 
50.00009721815041 58.0 20.0 4986.258852258852 0.49656876980645115 1497.0 0.0 1497.0 
60.00009721815041 58.0 20.0 4986.412698412699 0.4965676705064516 1497.0 0.0 1497.0 
70.00041737428027 58.0 20.0 416.8351648351647 0.49757643273227115 12.0 0.0 6.0 
80.00041737428027 58.0 20.0 416.8351648351647 0.49757643273227115 11.0 0.0 6.0 
90.00041737428027 58.0 20.0 416.8351648351647 0.49757643273227115 9.0 0.0 6.0 
100.00041737428027 58.0 20.0 416.8351648351647 0.49757643273227115 9.0 0.0 6.0 
110.00041737428027 58.0 20.0 416.8351648351647 0.49757643273227115 9.0 0.0 6.0 
120.00041737428027 58.0 20.0 416.8351648351647 0.49757643273227115 9.0 0.0 6.0 
130.0004173742803 58.0 20.0 416.8351648351647 0.4975764327322656 9.0 0.0 6.0 
140.0004173742803 58.0 20.0 416.8351648351647 0.4975764327322656 9.0 0.0 6.0 
150.0004173742803 58.0 20.0 416.8351648351647 0.4975764327322656 9.0 0.0 6.0 
160.0004173742803 58.0 20.0 416.8351648351647 0.4975764327322656 9.0 0.0 6.0 
170.0004173742803 56.0 19.0 416.8351648351647 0.49742466266185775 9.0 0.0 6.0 
180.0004173742803 56.0 19.0 416.8351648351647 0.49742466266185775 9.0 0.0 6.0 
190.0004173742803 58.0 20.0 416.8351648351647 0.4975764327322656 9.0 0.0 6.0 
200.0004173742803 56.0 19.0 416.8351648351647 0.49742466266185775 9.0 0.0 6.0 
210.0004173742803 56.0 19.0 416.8351648351647 0.49742466266185775 9.0 0.0 6.0 
220.0004173742803 58.0 20.0 416.8351648351647 0.4975764327322656 9.0 0.0 6.0 
230.0004173742803 58.0 20.0 416.8351648351647 0.4975764327322656 9.0 0.0 6.0 
240.0004173742803 56.0 19.0 416.8351648351647 0.49742466266185775 9.0 0.0 6.0 
250.0004173742803 58.0 20.0 416.8351648351647 0.4975764327322656 9.0 0.0 6.0 
260.0004173742803 58.0 20.0 416.8351648351647 0.49757643273225893 9.0 0.0 6.0 
270.0004173742803 56.0 19.0 416.8351648351647 0.49742466266185065 9.0 0.0 6.0 
280.0004173742803 56.0 19.0 416.8351648351647 0.49742466266185065 9.0 0.0 6.0 
290.0004173742803 60.0 20.0 416.8351648351647 0.4974962505566163 9.0 0.0 6.0 
300.0004173742803 62.0 21.0 416.8351648351647 0.4976393457487911 9.0 0.0 6.0 
310.0004173742803 60.0 20.0 416.8351648351647 0.4974962505566163 9.0 0.0 6.0 
320.0004173742803 60.0 20.0 416.8351648351647 0.4974962505566163 9.0 0.0 6.0 
330.0004173742803 62.0 21.0 416.8351648351647 0.4976393457487911 9.0 0.0 6.0 
340.0004173742803 62.0 21.0 416.8351648351647 0.4976393457487911 9.0 0.0 6.0 
350.0004173742803 62.0 21.0 416.8351648351647 0.4976393457487911 9.0 0.0 6.0 
360.0004173742803 62.0 21.0 416.8351648351647 0.5858746398664382 9.0 0.0 6.0 
370.0004173742803 60.0 20.0 416.8351648351647 0.4974962505566163 9.0 0.0 6.0 
380.0004173742803 60.0 20.0 416.8351648351647 0.5599962505566163 9.0 0.0 6.0 
390.0004173742803 58.0 20.0 416.8351648351647 0.4992785052361146 9.0 0.0 6.0 
400.0004173742803 60.0 21.0 416.8351648351647 0.49931676191773067 9.0 0.0 6.0 
410.0004173742803 60.0 21.0 416.8351648351647 0.49931676191773067 9.0 0.0 6.0 
420.0004173742803 58.0 20.0 416.8351648351647 0.4992785052361146 9.0 0.0 6.0 
430.0004173742803 58.0 20.0 416.8351648351647 0.4992785052361146 9.0 0.0 6.0 
440.0004173742803 58.0 20.0 416.8351648351647 0.4992785052361146 9.0 0.0 6.0 
450.0004173742803 58.0 20.0 416.8351648351647 0.4992785052361146 9.0 0.0 6.0 
460.0004173742803 58.0 20.0 416.8351648351647 0.4992785052361146 9.0 0.0 6.0 
470.0004173742803 62.0 21.0 416.8351648351647 0.4976393457487911 9.0 0.0 6.0 
480.0004173742803 60.0 20.0 416.8351648351647 0.4974962505566163 9.0 0.0 6.0 
490.0004173742803 60.0 20.0 416.8351648351647 0.4974962505566163 9.0 0.0 6.0 
500.0004173742803 60.0 20.0 416.8351648351647 0.4974962505566163 9.0 0.0 6.0 
510.0004173742803 60.0 20.0 416.8351648351647 0.4974962505566163 9.0 0.0 6.0 
520.0004173742802 66.0 21.0 425.2527472527473 0.49733628956978043 12.0 0.0 9.0 
530.0004173742802 62.0 21.0 425.2454212454212 0.4969336217214319 12.0 0.0 9.0 
540.0004173742802 60.0 20.0 425.2454212454212 0.4973941328615246 12.0 0.0 9.0 
550.0004173742802 61.0 21.0 425.2454212454212 0.4883580280052455 12.0 0.0 9.0 
560.0004173742802 62.0 21.0 425.2454212454212 0.49754323497694347 12.0 0.0 9.0 
570.0004173742802 67.0 23.0 425.2454212454212 0.5080559647807837 13.0 0.0 9.0 
580.0004173742802 70.0 23.0 428.0903540903542 0.560711614867618 13.0 0.0 10.0 
590.0004173742802 68.0 22.0 425.2771672771675 0.4967754798919537 13.0 0.0 9.0 
600.0004173742802 66.0 22.0 425.2454212454212 0.4961050341356938 13.0 0.0 9.0 
610.0004173742802 64.0 21.0 425.25030525030525 0.49746439035199835 12.0 0.0 9.0 
620.0004173742802 59.0 20.0 425.2454212454212 0.6256187131272654 12.0 0.0 9.0 
630.0004173742802 62.0 21.0 425.2380952380951 0.48834802864948246 14.0 0.0 9.0 
640.0004173742802 64.0 21.0 422.4371184371182 0.545862203254719 13.0 0.0 8.0 
650.0004173742802 76.0 23.0 430.93040293040286 0.5053006523406147 14.0 0.0 11.0 
660.0004173742802 70.0 23.0 433.6752136752137 0.5170627320734911 15.0 0.0 12.0 
#####################################################################
# End of data export. Simulation finished at: 2019-03-06T00:35+0000 #
#####################################################################
