#####################################################################
# Alchemist log file - simulation started at: 2019-03-03T11:20+0000 #
#####################################################################
# seed = 0.0, bandwidth = 74989.42093324558, accessPointCount = 141.4213562373095, baserange = 10.0
#
# The columns have the following meaning: 
# time neighbor_count[Sum] <value>@neighbor_count[Sum] packet_size[Mean] mean_delay[Mean] crowd[Sum] overcrowded[Sum] risk[Sum] 
0.0 NaN NaN NaN NaN NaN NaN NaN 
10.000405536260626 24.0 6.0 4986.0317460317465 0.4332726929178102 1497.0 0.0 1497.0 
20.000405536260626 24.0 6.0 4986.021978021978 0.4334149352039083 1497.0 0.0 1497.0 
30.000405536260626 24.0 6.0 4986.021978021978 0.4334149352039083 1497.0 0.0 1497.0 
40.00040553626063 24.0 6.0 4986.021978021978 0.43341493520390784 1497.0 0.0 1497.0 
50.00040553626063 24.0 6.0 4986.021978021978 0.43341493520390784 1497.0 0.0 1497.0 
60.00040553626063 24.0 6.0 4983.221001221002 0.43341493520390784 1496.0 0.0 1496.0 
70.00040553626063 24.0 6.0 411.22588522588524 0.46012780652528484 4.0 0.0 4.0 
80.00040553626063 24.0 6.0 411.22588522588524 0.46012780652528484 4.0 0.0 4.0 
90.00040553626063 24.0 6.0 411.22588522588524 0.46012780652528484 4.0 0.0 4.0 
100.00040553626063 24.0 6.0 411.22588522588524 0.46012780652528484 4.0 0.0 4.0 
110.00040553626063 24.0 6.0 411.22588522588524 0.46012780652528484 4.0 0.0 4.0 
120.00040553626063 24.0 6.0 411.22588522588524 0.46012780652528484 4.0 0.0 4.0 
130.00040553626064 24.0 6.0 411.22588522588524 0.46012780652528007 4.0 0.0 4.0 
140.00040553626064 24.0 6.0 411.22588522588524 0.46012780652528007 4.0 0.0 4.0 
150.00040553626064 24.0 6.0 411.22588522588524 0.46012780652528007 4.0 0.0 4.0 
160.00040553626064 24.0 6.0 411.22588522588524 0.46012780652528007 4.0 0.0 4.0 
170.00040553626064 24.0 6.0 411.22588522588524 0.46012780652528007 4.0 0.0 4.0 
180.00040553626064 24.0 6.0 411.22588522588524 0.46012780652528007 4.0 0.0 4.0 
190.00040553626064 24.0 6.0 411.22588522588524 0.46012780652528007 4.0 0.0 4.0 
200.00040553626064 24.0 6.0 411.22588522588524 0.46012780652528007 4.0 0.0 4.0 
210.00040553626064 24.0 6.0 411.22588522588524 0.46012780652528007 4.0 0.0 4.0 
220.00040553626064 24.0 6.0 411.22588522588524 0.46012780652528007 4.0 0.0 4.0 
230.00040553626064 24.0 6.0 411.22588522588524 0.46012780652528007 4.0 0.0 4.0 
240.00040553626064 24.0 6.0 411.22588522588524 0.46012780652528007 4.0 0.0 4.0 
250.00040553626064 24.0 6.0 411.22588522588524 0.46012780652528007 4.0 0.0 4.0 
260.00040553626064 24.0 6.0 411.22588522588524 0.4601278065252864 4.0 0.0 4.0 
270.00040553626064 24.0 6.0 411.22588522588524 0.4601278065252864 4.0 0.0 4.0 
280.00040553626064 24.0 6.0 411.22588522588524 0.4601278065252864 4.0 0.0 4.0 
290.00040553626064 24.0 6.0 411.22588522588524 0.4601278065252864 4.0 0.0 4.0 
300.00040553626064 24.0 6.0 411.22588522588524 0.4601278065252864 4.0 0.0 4.0 
310.00040553626064 24.0 6.0 411.22588522588524 0.4601278065252864 4.0 0.0 4.0 
320.00040553626064 24.0 6.0 411.22588522588524 0.4601278065252864 4.0 0.0 4.0 
330.00040553626064 24.0 6.0 411.22588522588524 0.4601278065252864 4.0 0.0 4.0 
340.00040553626064 24.0 6.0 411.22588522588524 0.4601278065252864 4.0 0.0 4.0 
350.00040553626064 25.0 7.0 411.22588522588524 0.4677768842485648 4.0 0.0 4.0 
360.00040553626064 26.0 7.0 411.22588522588524 0.55731655338821 4.0 0.0 4.0 
370.00040553626064 24.0 6.0 411.22588522588524 0.4601278065252864 4.0 0.0 4.0 
380.00040553626064 24.0 6.0 411.22588522588524 0.4601278065252864 4.0 0.0 4.0 
390.00040553626064 24.0 6.0 411.22588522588524 0.4601278065252864 4.0 0.0 4.0 
400.00040553626064 24.0 6.0 411.22588522588524 0.4601278065252864 4.0 0.0 4.0 
410.00040553626064 24.0 6.0 411.22588522588524 0.4601278065252864 4.0 0.0 4.0 
420.00040553626064 26.0 7.0 411.22588522588524 0.466407462479119 4.0 0.0 4.0 
430.00040553626064 26.0 7.0 411.22588522588524 0.466407462479119 4.0 0.0 4.0 
440.00040553626064 24.0 6.0 411.22588522588524 0.4601278065252864 4.0 0.0 4.0 
450.00040553626064 24.0 6.0 411.22588522588524 0.4601278065252864 4.0 0.0 4.0 
460.00040553626064 24.0 6.0 411.22588522588524 0.4601278065252864 4.0 0.0 4.0 
470.00040553626064 24.0 6.0 411.22588522588524 0.4601278065252864 4.0 0.0 4.0 
480.00040553626064 24.0 6.0 411.22588522588524 0.4601278065252864 4.0 0.0 4.0 
490.00040553626064 24.0 6.0 411.22588522588524 0.4601278065252864 4.0 0.0 4.0 
500.00040553626064 24.0 6.0 411.22588522588524 0.4601278065252864 4.0 0.0 4.0 
510.00040553626064 24.0 6.0 411.22588522588524 0.4601278065252864 4.0 0.0 4.0 
520.0004055362606 24.0 6.0 411.22588522588524 0.46012780652528007 4.0 0.0 4.0 
530.0004055362606 24.0 6.0 411.22588522588524 0.46012780652528007 4.0 0.0 4.0 
540.0004055362606 24.0 6.0 411.22588522588524 0.46012780652528007 4.0 0.0 4.0 
550.0004055362606 24.0 6.0 411.22588522588524 0.46012780652528007 4.0 0.0 4.0 
560.0004055362606 24.0 6.0 411.22588522588524 0.46012780652528007 4.0 0.0 4.0 
570.0004055362606 24.0 6.0 411.22588522588524 0.46012780652528007 4.0 0.0 4.0 
580.0004055362606 24.0 6.0 411.22588522588524 0.46012780652528007 4.0 0.0 4.0 
590.0004055362606 24.0 6.0 411.22588522588524 0.46012780652528007 4.0 0.0 4.0 
600.0004055362606 24.0 6.0 411.22588522588524 0.46012780652528007 4.0 0.0 4.0 
610.0004055362606 24.0 6.0 411.22588522588524 0.46012780652528007 4.0 0.0 4.0 
620.0004055362606 24.0 6.0 411.22588522588524 0.46012780652528007 4.0 0.0 4.0 
630.0004055362606 24.0 6.0 411.22588522588524 0.46012780652528007 4.0 0.0 4.0 
640.0004055362606 24.0 6.0 411.22588522588524 0.46012780652528007 4.0 0.0 4.0 
650.0004055362606 24.0 6.0 411.22588522588524 0.46012780652528007 4.0 0.0 4.0 
660.0004055362606 24.0 6.0 411.22588522588524 0.46012780652528007 4.0 0.0 4.0 
#####################################################################
# End of data export. Simulation finished at: 2019-03-03T11:27+0000 #
#####################################################################
