#####################################################################
# Alchemist log file - simulation started at: 2019-03-08T19:54+0000 #
#####################################################################
# seed = 3.0, bandwidth = 4216.965034285822, accessPointCount = 531.8295896944988, baserange = 10.0
#
# The columns have the following meaning: 
# time neighbor_count[Sum] <value>@neighbor_count[Sum] packet_size[Mean] mean_delay[Mean] crowd[Sum] overcrowded[Sum] risk[Sum] 
0.0 NaN NaN NaN NaN NaN NaN NaN 
2.0000956073805782 10.0 8.0 4981.735700197239 0.23979949287761917 1497.0 0.0 1497.0 
4.00059236981081 28.0 17.0 4982.236686390533 1.1044314126225439 1497.0 0.0 1497.0 
6.000084666035003 40.0 21.0 4982.147928994083 1.0038407028348273 1497.0 0.0 1497.0 
8.00059236981081 46.0 21.0 4982.128205128205 1.2697974051114467 1497.0 0.0 1497.0 
10.00033353340315 46.0 21.0 4982.045364891519 1.4975012912397492 1497.0 0.0 1497.0 
12.00059236981081 48.0 21.0 4982.011834319526 1.1259189886922223 1497.0 0.0 1497.0 
14.00059236981081 48.0 21.0 4982.003944773175 1.429754121586265 1497.0 0.0 1497.0 
16.000084666035004 48.0 21.0 4982.0197238658775 1.2004693196541885 1497.0 0.0 1497.0 
18.00059236981081 48.0 21.0 4982.0 1.2755370412428446 1497.0 0.0 1497.0 
20.00033353340315 48.0 21.0 4982.0 1.540918507784 1497.0 0.0 1497.0 
22.00059236981081 48.0 21.0 4982.0 1.1247692317440232 1497.0 0.0 1497.0 
24.00059236981081 48.0 21.0 4982.003944773175 1.4277995347743262 1497.0 0.0 1497.0 
26.000084666035004 48.0 21.0 4982.0 1.2011591738231087 1497.0 0.0 1497.0 
28.00059236981081 48.0 21.0 4982.0 1.2773766523599641 1497.0 0.0 1497.0 
30.00033353340315 48.0 21.0 4982.0 1.5425856553588888 1497.0 0.0 1497.0 
32.00059236981081 48.0 21.0 4982.0 1.1259189886922225 1497.0 0.0 1497.0 
34.00059236981081 48.0 21.0 4982.003944773175 1.4289492917225255 1497.0 0.0 1497.0 
36.00008466603501 48.0 21.0 4982.0 1.2016765644497984 1497.0 0.0 1497.0 
38.00059236981081 48.0 21.0 4982.0 1.2773766523599641 1497.0 0.0 1497.0 
40.00033353340315 48.0 21.0 4982.0 1.5425856553588893 1497.0 0.0 1497.0 
42.00059236981081 48.0 21.0 4982.0 1.1259189886922225 1497.0 0.0 1497.0 
44.00059236981081 48.0 21.0 4982.003944773175 1.4289492917225257 1497.0 0.0 1497.0 
46.00008466603501 48.0 21.0 4982.0 1.2016765644497984 1497.0 0.0 1497.0 
48.00059236981081 48.0 21.0 4982.0 1.2773766523599641 1497.0 0.0 1497.0 
50.00033353340315 48.0 21.0 4982.0 1.5425856553588893 1497.0 0.0 1497.0 
52.00059236981081 48.0 21.0 4982.0 1.1259189886922225 1497.0 0.0 1497.0 
54.00059236981081 48.0 21.0 4982.003944773175 1.4289492917225257 1497.0 0.0 1497.0 
56.00008466603501 48.0 21.0 4982.0 1.2016765644497984 1497.0 0.0 1497.0 
58.00059236981081 48.0 21.0 4982.0 1.2773766523599641 1497.0 0.0 1497.0 
60.00033353340315 48.0 21.0 4982.0 1.5425856553588893 1497.0 0.0 1497.0 
62.00036628093481 48.0 21.0 409.0670611439841 0.6050222568034652 15.0 0.0 4.0 
64.00036628093481 48.0 21.0 409.0670611439841 0.8031828668256642 15.0 0.0 4.0 
66.00008466603501 48.0 21.0 409.0670611439841 0.5531828668256642 15.0 0.0 4.0 
68.00036628093481 48.0 21.0 409.0670611439841 0.681970745613543 14.0 0.0 4.0 
70.00033353340315 48.0 21.0 409.0670611439841 0.8865162001589978 8.0 0.0 4.0 
72.00036628093481 48.0 21.0 409.0670611439841 0.5607586244014223 7.0 0.0 4.0 
74.00036628093481 48.0 21.0 409.0670611439841 0.8031828668256644 6.0 0.0 4.0 
76.00008466603501 48.0 21.0 409.0670611439841 0.6440919577347556 6.0 0.0 4.0 
78.00036628093481 48.0 21.0 409.0670611439841 0.8940919577347556 5.0 0.0 4.0 
80.00033353340315 48.0 21.0 409.0670611439841 1.2198495334923314 5.0 0.0 4.0 
82.00036628093481 48.0 21.0 409.0670611439841 1.0153040789468768 5.0 0.0 4.0 
84.00036628093481 48.0 21.0 409.0670611439841 1.3789404425832406 5.0 0.0 4.0 
86.00008466603501 48.0 21.0 409.0670611439841 1.2501525637953619 5.0 0.0 4.0 
88.00036628093481 48.0 21.0 409.0670611439841 1.5001525637953619 5.0 0.0 4.0 
90.00033353340315 48.0 21.0 409.0670611439841 1.8259101395529374 5.0 0.0 4.0 
92.00036628093481 48.0 21.0 409.0670611439841 1.6213646850074832 4.0 0.0 4.0 
94.00036628093481 48.0 21.0 409.0670611439841 1.9850010486438467 4.0 0.0 4.0 
96.00008466603501 48.0 21.0 409.0670611439841 1.8562131698559678 4.0 0.0 4.0 
98.00036628093481 48.0 21.0 409.0670611439841 2.106213169855968 4.0 0.0 4.0 
100.00033353340315 48.0 21.0 409.0670611439841 2.431970745613543 4.0 0.0 4.0 
102.00036628093481 48.0 21.0 409.0670611439841 2.227425291068089 4.0 0.0 4.0 
104.00036628093481 47.0 20.0 409.0670611439841 1.7325234780777146 4.0 0.0 4.0 
106.00008466603501 46.0 20.0 409.0670611439841 0.5627336936032217 4.0 0.0 4.0 
108.00036628093481 46.0 20.0 409.0670611439841 0.69983046779677 4.0 0.0 4.0 
110.00033353340315 46.0 20.0 409.0670611439841 0.9175724032806413 4.0 0.0 4.0 
112.00036628093481 46.0 20.0 409.0670611439841 0.570798209732254 4.0 0.0 4.0 
114.00036628093481 46.0 20.0 409.0670611439841 0.828862725861286 4.0 0.0 4.0 
116.00008466603501 46.0 20.0 409.0670611439841 0.5627336936032217 4.0 0.0 4.0 
118.00036628093481 46.0 20.0 409.0670611439841 0.69983046779677 4.0 0.0 4.0 
120.00033353340315 46.0 20.0 409.0670611439841 0.9175724032806413 4.0 0.0 4.0 
122.00036628093481 46.0 20.0 409.0670611439841 0.570798209732254 4.0 0.0 4.0 
124.00036628093481 46.0 20.0 409.0670611439841 0.828862725861286 4.0 0.0 4.0 
126.00008466603501 46.0 20.0 409.0670611439841 0.5627336936032217 4.0 0.0 4.0 
128.0003662809348 46.0 20.0 409.0670611439841 0.69983046779677 4.0 0.0 4.0 
130.00033353340314 46.0 20.0 409.0670611439841 0.9175724032806404 4.0 0.0 4.0 
132.0003662809348 46.0 20.0 409.0670611439841 0.5707982097322525 4.0 0.0 4.0 
134.0003662809348 46.0 20.0 409.0670611439841 0.8288627258612848 4.0 0.0 4.0 
136.000084666035 46.0 20.0 409.0670611439841 0.5627336936032212 4.0 0.0 4.0 
138.0003662809348 46.0 20.0 409.0670611439841 0.6998304677967696 4.0 0.0 4.0 
140.00033353340314 46.0 20.0 409.0670611439841 0.9175724032806406 4.0 0.0 4.0 
142.0003662809348 46.0 20.0 409.0670611439841 0.5707982097322534 4.0 0.0 4.0 
144.0003662809348 46.0 20.0 409.0670611439841 0.8288627258612857 4.0 0.0 4.0 
146.000084666035 46.0 20.0 409.0670611439841 0.5627336936032212 4.0 0.0 4.0 
148.0003662809348 46.0 20.0 409.0670611439841 0.6998304677967696 4.0 0.0 4.0 
150.00033353340314 46.0 20.0 409.0670611439841 0.9175724032806406 4.0 0.0 4.0 
152.0003662809348 46.0 20.0 409.0670611439841 0.5707982097322534 4.0 0.0 4.0 
154.0003662809348 46.0 20.0 409.0670611439841 0.8288627258612857 4.0 0.0 4.0 
156.000084666035 46.0 20.0 409.0670611439841 0.5627336936032212 4.0 0.0 4.0 
158.0003662809348 46.0 20.0 409.0670611439841 0.6998304677967696 4.0 0.0 4.0 
160.00033353340314 46.0 20.0 409.0670611439841 0.9175724032806406 4.0 0.0 4.0 
162.0003662809348 48.0 21.0 409.0670611439841 0.5653036920489989 5.0 0.0 4.0 
164.0003662809348 48.0 21.0 409.0670611439841 0.8028036920489988 5.0 0.0 4.0 
166.000084666035 48.0 21.0 409.0670611439841 1.040303692048999 5.0 0.0 4.0 
168.0003662809348 48.0 21.0 409.0670611439841 0.5433378584636024 5.0 0.0 4.0 
170.00033353340314 48.0 21.0 409.0670611439841 0.7808378584636025 5.0 0.0 4.0 
172.0003662809348 48.0 21.0 409.0670611439841 1.0884895755956787 5.0 0.0 4.0 
174.0003662809348 48.0 21.0 409.0670611439841 0.6884895755956788 5.0 0.0 4.0 
176.000084666035 48.0 21.0 409.0670611439841 1.000989575595679 5.0 0.0 4.0 
178.0003662809348 48.0 21.0 409.0670611439841 0.8545408735678528 5.0 0.0 4.0 
180.00033353340314 48.0 21.0 409.0670611439841 1.0542054091810753 5.0 0.0 4.0 
182.0003662809348 48.0 21.0 409.0670611439841 1.335455409181075 5.0 0.0 4.0 
184.0003662809348 48.0 21.0 409.0670611439841 1.1792054091810753 5.0 0.0 4.0 
186.000084666035 48.0 21.0 409.0670611439841 1.616705409181075 5.0 0.0 4.0 
188.0003662809348 48.0 21.0 409.0670611439841 1.577642909181075 5.0 0.0 4.0 
190.00033353340314 48.0 21.0 409.0670611439841 1.897955409181075 5.0 0.0 4.0 
192.0003662809348 48.0 21.0 409.0670611439841 2.304205409181075 5.0 0.0 4.0 
194.0003662809348 48.0 21.0 409.0670611439841 2.179205409181075 5.0 0.0 4.0 
196.000084666035 48.0 21.0 409.0670611439841 2.616705409181075 5.0 0.0 4.0 
198.0003662809348 48.0 21.0 409.0670611439841 2.577642909181075 5.0 0.0 4.0 
200.00033353340314 46.0 20.0 409.0670611439841 1.828862725861286 4.0 0.0 4.0 
202.0003662809348 46.0 20.0 409.0670611439841 2.1756369194096727 4.0 0.0 4.0 
204.0003662809348 46.0 20.0 409.0670611439841 1.957894983925802 4.0 0.0 4.0 
206.000084666035 46.0 20.0 409.0670611439841 2.3449917581193502 4.0 0.0 4.0 
208.0003662809348 46.0 20.0 409.0670611439841 2.207894983925802 4.0 0.0 4.0 
210.00033353340314 46.0 20.0 409.0670611439841 2.4740240161838662 4.0 0.0 4.0 
212.0003662809348 45.0 19.0 409.0670611439841 1.9036059093215223 4.0 0.0 4.0 
214.0003662809348 44.0 19.0 409.0670611439841 0.5822225654535448 4.0 0.0 4.0 
216.000084666035 44.0 19.0 409.0670611439841 0.858084634419062 4.0 0.0 4.0 
218.0003662809348 44.0 19.0 409.0670611439841 0.5736018757983722 4.0 0.0 4.0 
220.00033353340314 44.0 19.0 409.0670611439841 0.7201535999363035 4.0 0.0 4.0 
222.0003662809348 46.0 20.0 409.0670611439841 0.9175724032806406 4.0 0.0 4.0 
224.0003662809348 46.0 20.0 409.0670611439841 0.5707982097322535 4.0 0.0 4.0 
226.000084666035 46.0 20.0 409.0670611439841 0.8288627258612857 4.0 0.0 4.0 
228.0003662809348 46.0 20.0 409.0670611439841 0.5627336936032212 4.0 0.0 4.0 
230.00033353340314 46.0 20.0 409.0670611439841 0.6998304677967696 4.0 0.0 4.0 
232.0003662809348 46.0 20.0 409.0670611439841 1.0466046613451567 4.0 0.0 4.0 
234.0003662809348 46.0 20.0 409.0670611439841 0.8288627258612857 4.0 0.0 4.0 
236.000084666035 46.0 20.0 409.0670611439841 1.215959500054834 4.0 0.0 4.0 
238.0003662809348 46.0 20.0 409.0670611439841 1.0788627258612857 4.0 0.0 4.0 
240.00033353340314 46.0 20.0 409.0670611439841 1.3449917581193502 4.0 0.0 4.0 
242.0003662809348 46.0 20.0 409.0670611439841 1.6917659516677375 4.0 0.0 4.0 
244.0003662809348 46.0 20.0 409.0670611439841 1.4740240161838662 4.0 0.0 4.0 
246.000084666035 46.0 20.0 409.0670611439841 1.8611207903774147 4.0 0.0 4.0 
248.0003662809348 46.0 20.0 409.0670611439841 1.7240240161838665 4.0 0.0 4.0 
250.00033353340314 46.0 20.0 409.0670611439841 1.990153048441931 4.0 0.0 4.0 
252.0003662809348 46.0 20.0 409.0670611439841 2.3369272419903178 4.0 0.0 4.0 
254.0003662809348 46.0 20.0 409.0670611439841 2.119185306506447 4.0 0.0 4.0 
256.00008466603504 46.0 20.0 409.0670611439841 2.5062820806999957 4.0 0.0 4.0 
258.00036628093477 46.0 20.0 409.0670611439841 2.369185306506469 4.0 0.0 4.0 
260.00033353340314 44.0 19.0 409.0670611439841 0.7201535999363268 4.0 0.0 4.0 
262.00036628093477 44.0 19.0 409.0670611439841 0.9529122206259821 4.0 0.0 4.0 
264.00036628093477 44.0 19.0 409.0670611439841 0.5822225654535683 4.0 0.0 4.0 
266.00008466603504 44.0 19.0 409.0670611439841 0.8580846344190853 4.0 0.0 4.0 
268.00036628093477 44.0 19.0 409.0670611439841 0.5736018757983959 4.0 0.0 4.0 
270.00033353340314 44.0 19.0 409.0670611439841 0.7201535999363268 4.0 0.0 4.0 
272.00036628093477 44.0 19.0 409.0670611439841 0.9529122206259821 4.0 0.0 4.0 
274.00036628093477 44.0 19.0 409.0670611439841 0.5822225654535683 4.0 0.0 4.0 
276.00008466603504 44.0 19.0 409.0670611439841 0.8580846344190853 4.0 0.0 4.0 
278.00036628093477 44.0 19.0 409.0670611439841 0.5736018757983959 4.0 0.0 4.0 
280.00033353340314 44.0 19.0 409.0670611439841 0.7201535999363268 4.0 0.0 4.0 
282.00036628093477 44.0 19.0 409.0670611439841 0.9529122206259821 4.0 0.0 4.0 
284.00036628093477 44.0 19.0 409.0670611439841 0.5822225654535683 4.0 0.0 4.0 
286.00008466603504 44.0 19.0 409.0670611439841 0.8580846344190853 4.0 0.0 4.0 
288.00036628093477 44.0 19.0 409.0670611439841 0.5736018757983959 4.0 0.0 4.0 
290.00033353340314 44.0 19.0 409.0670611439841 0.7201535999363268 4.0 0.0 4.0 
292.00036628093477 44.0 19.0 409.0670611439841 0.9529122206259821 4.0 0.0 4.0 
294.00036628093477 44.0 19.0 409.0670611439841 0.5822225654535683 4.0 0.0 4.0 
296.00008466603504 44.0 19.0 409.0670611439841 0.8580846344190853 4.0 0.0 4.0 
298.00036628093477 44.0 19.0 409.0670611439841 0.5736018757983959 4.0 0.0 4.0 
300.00033353340314 44.0 19.0 409.0670611439841 0.7201535999363268 4.0 0.0 4.0 
302.00036628093477 44.0 19.0 409.0670611439841 0.9529122206259821 4.0 0.0 4.0 
304.00036628093477 44.0 19.0 409.0670611439841 0.5822225654535683 4.0 0.0 4.0 
306.00008466603504 44.0 19.0 409.0670611439841 0.8580846344190853 4.0 0.0 4.0 
308.00036628093477 44.0 19.0 409.0670611439841 0.5736018757983959 4.0 0.0 4.0 
310.00033353340314 44.0 19.0 409.0670611439841 0.7201535999363268 4.0 0.0 4.0 
312.00036628093477 46.0 20.0 409.0670611439841 0.9175724032806644 4.0 0.0 4.0 
314.00036628093477 46.0 20.0 409.0670611439841 0.5707982097322775 4.0 0.0 4.0 
316.00008466603504 46.0 20.0 409.0670611439841 0.8288627258613095 4.0 0.0 4.0 
318.00036628093477 46.0 20.0 409.0670611439841 0.562733693603245 4.0 0.0 4.0 
320.00033353340314 46.0 20.0 409.0670611439841 0.6998304677967934 4.0 0.0 4.0 
322.00036628093477 46.0 20.0 409.0670611439841 1.0143465968290515 4.0 0.0 4.0 
324.00036628093477 46.0 20.0 409.0670611439841 0.7966046613451805 4.0 0.0 4.0 
326.00008466603504 46.0 20.0 409.0670611439841 1.183701435538729 4.0 0.0 4.0 
328.00036628093477 46.0 20.0 409.0670611439841 1.0466046613451805 4.0 0.0 4.0 
330.00033353340314 48.0 21.0 409.0670611439841 1.2577283213711428 4.0 0.0 4.0 
332.00036628093477 48.0 21.0 409.0670611439841 1.5834858971287187 4.0 0.0 4.0 
334.00036628093477 48.0 21.0 409.0670611439841 1.378940442583264 4.0 0.0 4.0 
336.00008466603504 48.0 21.0 409.0670611439841 1.7425768062196276 4.0 0.0 4.0 
338.00036628093477 48.0 21.0 409.0670611439841 1.613788927431749 4.0 0.0 4.0 
340.00033353340314 48.0 21.0 409.0670611439841 1.95469801834084 4.0 0.0 4.0 
342.00036628093477 48.0 21.0 409.0670611439841 2.401667715310537 4.0 0.0 4.0 
344.00036628093477 48.0 21.0 409.0670611439841 2.3183343819772033 4.0 0.0 4.0 
346.00008466603504 48.0 21.0 409.0670611439841 2.803182866825688 4.0 0.0 4.0 
348.00036628093477 48.0 21.0 409.0670611439841 2.795607109249931 4.0 0.0 4.0 
350.00033353340314 47.0 20.0 409.0670611439841 2.3226807247992127 4.0 0.0 4.0 
352.00036628093477 46.0 20.0 409.0670611439841 1.7885401452161485 4.0 0.0 4.0 
354.00036628093477 46.0 20.0 409.0670611439841 1.570798209732277 4.0 0.0 4.0 
356.00008466603504 46.0 20.0 409.0670611439841 1.9578949839258257 4.0 0.0 4.0 
358.00036628093477 46.0 20.0 409.0670611439841 1.8207982097322772 4.0 0.0 4.0 
360.00033353340314 46.0 20.0 409.0670611439841 2.0869272419903417 4.0 0.0 4.0 
362.00036628093477 46.0 20.0 409.0670611439841 2.4337014355387288 4.0 0.0 4.0 
364.00036628093477 46.0 20.0 409.0670611439841 2.215959500054858 4.0 0.0 4.0 
366.00008466603504 46.0 20.0 409.0670611439841 2.6030562742484067 4.0 0.0 4.0 
368.00036628093477 45.0 20.0 409.0670611439841 1.5416103059720834 4.0 0.0 4.0 
370.00033353340314 44.0 19.0 409.0670611439841 0.7201535999363268 4.0 0.0 4.0 
372.00036628093477 44.0 19.0 409.0670611439841 0.9529122206259821 4.0 0.0 4.0 
374.00036628093477 44.0 19.0 409.0670611439841 0.5822225654535683 4.0 0.0 4.0 
376.00008466603504 44.0 19.0 409.0670611439841 0.8580846344190853 4.0 0.0 4.0 
378.00036628093477 44.0 19.0 409.0670611439841 0.5736018757983959 4.0 0.0 4.0 
380.00033353340314 44.0 19.0 409.0670611439841 0.7201535999363268 4.0 0.0 4.0 
382.00036628093477 44.0 19.0 409.0670611439841 0.9529122206259821 4.0 0.0 4.0 
384.00036628093477 44.0 19.0 409.0670611439841 0.5822225654535683 4.0 0.0 4.0 
386.00008466603504 44.0 19.0 409.0670611439841 0.8580846344190853 4.0 0.0 4.0 
388.00036628093477 44.0 19.0 409.0670611439841 0.5736018757983959 4.0 0.0 4.0 
390.00033353340314 44.0 19.0 409.0670611439841 0.7201535999363268 4.0 0.0 4.0 
392.00036628093477 44.0 19.0 409.0670611439841 0.9529122206259821 4.0 0.0 4.0 
394.00036628093477 44.0 19.0 409.0670611439841 0.5822225654535683 4.0 0.0 4.0 
396.00008466603504 44.0 19.0 409.0670611439841 0.8580846344190853 4.0 0.0 4.0 
398.00036628093477 44.0 19.0 409.0670611439841 0.5736018757983959 4.0 0.0 4.0 
400.00033353340314 44.0 19.0 409.0670611439841 0.7201535999363268 4.0 0.0 4.0 
402.00036628093477 44.0 19.0 409.0670611439841 0.9529122206259821 4.0 0.0 4.0 
404.00036628093477 46.0 20.0 409.0670611439841 0.5707982097322775 4.0 0.0 4.0 
406.00008466603504 46.0 20.0 409.0670611439841 0.8288627258613095 4.0 0.0 4.0 
408.00036628093477 46.0 20.0 409.0670611439841 0.562733693603245 4.0 0.0 4.0 
410.00033353340314 46.0 20.0 409.0670611439841 0.6998304677967934 4.0 0.0 4.0 
412.00036628093477 46.0 20.0 409.0670611439841 0.9175724032806644 4.0 0.0 4.0 
414.00036628093477 46.0 20.0 409.0670611439841 0.6675724032806644 4.0 0.0 4.0 
416.00008466603504 46.0 20.0 409.0670611439841 1.0546691774742127 4.0 0.0 4.0 
418.00036628093477 46.0 20.0 409.0670611439841 0.9175724032806644 4.0 0.0 4.0 
420.00033353340314 46.0 20.0 409.0670611439841 1.183701435538729 4.0 0.0 4.0 
422.00036628093477 46.0 20.0 409.0670611439841 1.530475629087116 4.0 0.0 4.0 
424.00036628093477 46.0 20.0 409.0670611439841 1.3127336936032452 4.0 0.0 4.0 
426.00008466603504 48.0 21.0 409.0670611439841 1.6213646850075065 4.0 0.0 4.0 
428.00036628093477 48.0 21.0 409.0670611439841 1.4925768062196276 4.0 0.0 4.0 
430.00033353340314 48.0 21.0 409.0670611439841 1.7425768062196276 4.0 0.0 4.0 
432.00036628093477 48.0 21.0 409.0670611439841 2.0683343819772033 4.0 0.0 4.0 
434.00036628093477 48.0 21.0 409.0670611439841 1.863788927431749 4.0 0.0 4.0 
436.00008466603504 48.0 21.0 409.0670611439841 2.2880313516741735 4.0 0.0 4.0 
438.00036628093477 48.0 21.0 409.0670611439841 2.2804555940984157 4.0 0.0 4.0 
440.00033353340314 48.0 21.0 409.0670611439841 2.651667715310537 4.0 0.0 4.0 
442.00036628093477 47.0 20.0 409.0670611439841 2.2519095350816656 4.0 0.0 4.0 
444.00036628093477 46.0 20.0 409.0670611439841 1.1514433710226 4.0 0.0 4.0 
446.00008466603504 46.0 20.0 409.0670611439841 1.5385401452161487 4.0 0.0 4.0 
448.00036628093477 46.0 20.0 409.0670611439841 1.4014433710226 4.0 0.0 4.0 
450.00033353340314 46.0 20.0 409.0670611439841 1.6675724032806647 4.0 0.0 4.0 
452.00036628093477 46.0 20.0 409.0670611439841 2.0143465968290513 4.0 0.0 4.0 
454.00036628093477 46.0 20.0 409.0670611439841 1.7966046613451807 4.0 0.0 4.0 
456.00008466603504 46.0 20.0 409.0670611439841 2.1837014355387283 4.0 0.0 4.0 
458.00036628093477 46.0 20.0 409.0670611439841 2.0466046613451803 4.0 0.0 4.0 
460.00033353340314 46.0 20.0 409.0670611439841 2.3127336936032448 4.0 0.0 4.0 
462.00036628093477 46.0 20.0 409.0670611439841 2.6595078871516318 4.0 0.0 4.0 
464.00036628093477 46.0 20.0 409.0670611439841 2.441765951667761 4.0 0.0 4.0 
466.00008466603504 44.0 19.0 409.0670611439841 0.8580846344190853 4.0 0.0 4.0 
468.00036628093477 44.0 19.0 409.0670611439841 0.5736018757983959 4.0 0.0 4.0 
470.00033353340314 44.0 19.0 409.0670611439841 0.7201535999363268 4.0 0.0 4.0 
472.00036628093477 44.0 19.0 409.0670611439841 0.9529122206259821 4.0 0.0 4.0 
474.00036628093477 44.0 19.0 409.0670611439841 0.5822225654535683 4.0 0.0 4.0 
476.00008466603504 44.0 19.0 409.0670611439841 0.8580846344190853 4.0 0.0 4.0 
478.00036628093477 44.0 19.0 409.0670611439841 0.5736018757983959 4.0 0.0 4.0 
480.00033353340314 44.0 19.0 409.0670611439841 0.7201535999363268 4.0 0.0 4.0 
482.00036628093477 44.0 19.0 409.0670611439841 0.9529122206259821 4.0 0.0 4.0 
484.00036628093477 46.0 20.0 409.0670611439841 0.5707982097322775 4.0 0.0 4.0 
486.00008466603504 46.0 20.0 409.0670611439841 0.8288627258613095 4.0 0.0 4.0 
488.00036628093477 48.0 21.0 409.0670611439841 0.5531828668256884 4.0 0.0 4.0 
490.00033353340314 48.0 21.0 409.0670611439841 0.6819707456135671 4.0 0.0 4.0 
492.00036628093477 48.0 21.0 409.0670611439841 0.8865162001590213 4.0 0.0 4.0 
494.00036628093477 48.0 21.0 409.0670611439841 0.560758624401446 4.0 0.0 4.0 
496.00008466603504 48.0 21.0 409.0670611439841 0.8031828668256884 4.0 0.0 4.0 
498.00036628093477 48.0 21.0 409.0670611439841 0.6743949880378096 4.0 0.0 4.0 
500.00033353340314 48.0 21.0 409.0670611439841 0.9243949880378096 4.0 0.0 4.0 
502.00036628093477 48.0 21.0 409.0670611439841 1.2501525637953854 4.0 0.0 4.0 
504.00036628093477 48.0 21.0 409.0670611439841 1.0456071092499308 4.0 0.0 4.0 
506.00008466603504 48.0 21.0 409.0670611439841 1.4092434728862946 4.0 0.0 4.0 
508.00036628093477 48.0 21.0 409.0670611439841 1.2804555940984153 4.0 0.0 4.0 
510.00033353340314 50.0 22.0 409.0670611439841 1.4947235631084237 4.0 0.0 4.0 
512.0003662809348 50.0 22.0 409.0670611439841 1.801866420251281 4.0 0.0 4.0 
514.0003662809348 50.0 22.0 409.0670611439841 1.6090092773940912 4.0 0.0 4.0 
516.000084666035 50.0 22.0 409.0670611439841 1.9518664202512324 4.0 0.0 4.0 
518.0003662809348 50.0 22.0 409.0670611439841 1.8304378488226596 4.0 0.0 4.0 
520.0003335334031 50.0 22.0 409.0670611439841 2.066152134536948 4.0 0.0 4.0 
522.0003662809348 50.0 22.0 409.0670611439841 2.373294991679805 4.0 0.0 4.0 
524.0003662809348 50.0 22.0 409.0670611439841 2.180437848822662 4.0 0.0 4.0 
526.000084666035 48.0 21.0 409.0670611439841 0.8334858971286704 4.0 0.0 4.0 
528.0003662809348 48.0 21.0 409.0670611439841 0.5834858971286703 4.0 0.0 4.0 
530.0003335334031 48.0 21.0 409.0670611439841 0.7122737759165491 4.0 0.0 4.0 
532.0003662809348 48.0 21.0 409.0670611439841 0.9168192304620039 4.0 0.0 4.0 
534.0003662809348 48.0 21.0 409.0670611439841 0.5910616547044281 4.0 0.0 4.0 
536.000084666035 48.0 21.0 409.0670611439841 0.8334858971286704 4.0 0.0 4.0 
538.0003662809348 48.0 21.0 409.0670611439841 0.5834858971286703 4.0 0.0 4.0 
540.0003335334031 48.0 21.0 409.0670611439841 0.7122737759165491 4.0 0.0 4.0 
542.0003662809348 48.0 21.0 409.0670611439841 0.9168192304620039 4.0 0.0 4.0 
544.0003662809348 48.0 21.0 409.0670611439841 0.5910616547044281 4.0 0.0 4.0 
546.000084666035 48.0 21.0 409.0670611439841 0.8334858971286704 4.0 0.0 4.0 
548.0003662809348 48.0 21.0 409.0670611439841 0.5834858971286703 4.0 0.0 4.0 
550.0003335334031 48.0 21.0 409.0670611439841 0.7122737759165491 4.0 0.0 4.0 
552.0003662809348 48.0 21.0 409.0670611439841 0.9168192304620039 4.0 0.0 4.0 
554.0003662809348 48.0 21.0 409.0670611439841 0.5910616547044281 4.0 0.0 4.0 
556.000084666035 48.0 21.0 409.0670611439841 0.8334858971286704 4.0 0.0 4.0 
558.0003662809348 48.0 21.0 409.0670611439841 0.5834858971286703 4.0 0.0 4.0 
560.0003335334031 48.0 21.0 409.0670611439841 0.7122737759165491 4.0 0.0 4.0 
562.0003662809348 48.0 21.0 409.0670611439841 0.9168192304620039 4.0 0.0 4.0 
564.0003662809348 48.0 21.0 409.0670611439841 0.5910616547044281 4.0 0.0 4.0 
566.000084666035 48.0 21.0 409.0670611439841 0.8334858971286704 4.0 0.0 4.0 
568.0003662809348 48.0 21.0 409.0670611439841 0.5834858971286703 4.0 0.0 4.0 
570.0003335334031 48.0 21.0 409.0670611439841 0.7122737759165491 4.0 0.0 4.0 
572.0003662809348 48.0 21.0 409.0670611439841 0.9168192304620039 4.0 0.0 4.0 
574.0003662809348 48.0 21.0 409.0670611439841 0.7122737759165492 4.0 0.0 4.0 
576.000084666035 50.0 22.0 409.0670611439841 1.0375807059655178 4.0 0.0 4.0 
578.0003662809348 50.0 22.0 409.0670611439841 0.9161521345369465 4.0 0.0 4.0 
580.0003335334031 50.0 22.0 409.0670611439841 1.1518664202512323 4.0 0.0 4.0 
582.0003662809348 50.0 22.0 409.0670611439841 1.4590092773940895 4.0 0.0 4.0 
584.0003662809348 50.0 22.0 409.0670611439841 1.2661521345369464 4.0 0.0 4.0 
586.000084666035 50.0 22.0 409.0670611439841 1.6090092773940894 4.0 0.0 4.0 
588.0003662809348 50.0 22.0 409.0670611439841 1.4875807059655177 4.0 0.0 4.0 
590.0003335334031 50.0 22.0 409.0670611439841 1.7232949916798035 4.0 0.0 4.0 
592.0003662809348 50.0 22.0 409.0670611439841 2.0304378488226607 4.0 0.0 4.0 
594.0003662809348 50.0 22.0 409.0670611439841 1.837580705965518 4.0 0.0 4.0 
596.000084666035 50.0 22.0 409.0670611439841 2.1804378488226606 4.0 0.0 4.0 
598.0003662809348 50.0 22.0 409.0670611439841 2.0590092773940896 4.0 0.0 4.0 
600.0003335334031 50.0 22.0 409.0670611439841 2.294723563108375 4.0 0.0 4.0 
602.0003662809348 48.0 21.0 409.0670611439841 0.9168192304620039 4.0 0.0 4.0 
604.0003662809348 48.0 21.0 409.0670611439841 0.5910616547044281 4.0 0.0 4.0 
606.000084666035 49.0 22.0 409.0670611439841 0.8158959575715967 4.0 0.0 4.0 
608.0003662809348 50.0 22.0 409.0670611439841 0.5732949916798036 4.0 0.0 4.0 
610.0003335334031 50.0 22.0 409.0670611439841 0.694723563108375 4.0 0.0 4.0 
612.0003662809348 50.0 22.0 409.0670611439841 0.887580705965518 4.0 0.0 4.0 
614.0003662809348 50.0 22.0 409.0670611439841 0.5804378488226607 4.0 0.0 4.0 
616.000084666035 50.0 22.0 409.0670611439841 0.8090092773940892 4.0 0.0 4.0 
618.0003662809348 52.0 23.0 409.0670611439841 0.5613244987551727 4.0 0.0 4.0 
620.0003335334031 52.0 23.0 409.0670611439841 0.6793800543107281 4.0 0.0 4.0 
622.0003662809348 52.0 23.0 409.0670611439841 0.866880054310728 4.0 0.0 4.0 
624.0003662809348 52.0 23.0 409.0670611439841 0.5682689431996171 4.0 0.0 4.0 
626.000084666035 52.0 23.0 409.0670611439841 0.7904911654218395 4.0 0.0 4.0 
628.0003662809348 54.0 23.0 409.0670611439841 0.5607195809968744 4.0 0.0 4.0 
630.0003335334031 54.0 23.0 409.0670611439841 0.67877513655243 4.0 0.0 4.0 
632.0003662809348 54.0 23.0 409.0670611439841 0.8662751365524302 4.0 0.0 4.0 
634.0003662809348 54.0 23.0 409.0670611439841 0.5676640254413187 4.0 0.0 4.0 
636.000084666035 54.0 23.0 409.0670611439841 0.7898862476635409 4.0 0.0 4.0 
638.0003662809348 54.0 23.0 409.0670611439841 0.5607195809968744 4.0 0.0 4.0 
640.0003335334031 54.0 23.0 409.0670611439841 0.67877513655243 4.0 0.0 4.0 
642.0003662809348 54.0 23.0 409.0670611439841 0.8662751365524302 4.0 0.0 4.0 
644.0003662809348 56.0 24.0 409.0670611439841 0.5854261847219601 4.0 0.0 4.0 
646.000084666035 59.0 25.0 411.3412228796846 0.8136181954334388 5.0 0.0 5.0 
648.0003662809348 59.0 25.0 411.32938856015767 0.6619087937240368 5.0 0.0 5.0 
650.0003335334031 60.0 25.0 411.32938856015767 0.7977362119750748 6.0 0.0 5.0 
652.0003662809348 60.0 25.0 411.32938856015767 1.0562832205220838 7.0 0.0 5.0 
654.0003662809348 62.0 26.0 411.32938856015767 0.8114527791742006 7.0 0.0 5.0 
656.000084666035 63.0 26.0 413.6015779092701 1.2029095334356408 7.0 0.0 6.0 
658.0003662809348 68.0 27.0 413.5976331360947 1.1382306804401976 8.0 0.0 6.0 
660.0003335334031 69.0 27.0 415.8737672583826 1.4421262533680865 8.0 0.0 7.0 
662.0003662809348 69.0 27.0 415.86587771203153 1.8171262533680863 8.0 0.0 7.0 
664.0003662809348 69.0 27.0 415.86587771203153 1.699187604894811 8.0 0.0 7.0 
#####################################################################
# End of data export. Simulation finished at: 2019-03-08T20:02+0000 #
#####################################################################
