#####################################################################
# Alchemist log file - simulation started at: 2019-03-03T01:04+0000 #
#####################################################################
# seed = 9.0, bandwidth = 17782.79410038923, accessPointCount = 1031.338537721246, baserange = 177.82794100389228
#
# The columns have the following meaning: 
# time neighbor_count[Sum] <value>@neighbor_count[Sum] packet_size[Mean] mean_delay[Mean] crowd[Sum] overcrowded[Sum] risk[Sum] 
0.0 NaN NaN NaN NaN NaN NaN NaN 
10.000337445961424 6967.0 2328.0 4983.697784810127 1.217775987538742 1497.0 0.0 1497.0 
20.000337445961424 7867.0 2414.0 4983.590189873417 2.099098320306589 1497.0 0.0 1497.0 
30.000337445961424 7359.0 2283.0 4983.541139240506 1.7200646861275493 1493.0 4.0 1493.0 
40.00033744596142 7075.0 2227.0 4983.5031645569625 1.107712717813753 1494.0 3.0 1494.0 
50.00024026177085 7161.0 2234.0 4983.231012658228 1.0559115005591875 1492.0 5.0 1492.0 
60.00033744596142 7211.0 2241.0 4983.481012658228 1.157666061627443 1487.0 10.0 1487.0 
70.00033744596142 7209.0 2242.0 893.1218354430479 0.8588482536557185 399.0 14.0 257.0 
80.00033744596142 7280.0 2245.0 894.8401898734196 0.8466509210045517 366.0 19.0 253.0 
90.00033744596142 7237.0 2243.0 880.3354430379785 0.8843660971816676 352.0 26.0 238.0 
100.00033744596142 7226.0 2241.0 880.2705696202581 0.7854638427530694 339.0 23.0 241.0 
110.00033744596142 7214.0 2243.0 883.9034810126518 0.8576021140059018 343.0 23.0 243.0 
120.00033744596142 7240.0 2245.0 887.5696202531614 0.8811031648312853 341.0 23.0 245.0 
130.0003374459614 7337.0 2245.0 891.1819620253251 0.8734881373707479 341.0 23.0 247.0 
140.0003374459614 7429.0 2248.0 894.81487341772 0.8874917946858285 337.0 23.0 249.0 
150.0003374459614 7466.0 2250.0 893.0886075949309 0.9009807216974466 338.0 25.0 246.0 
160.0003374459614 7466.0 2251.0 898.4936708860714 0.8962474223957716 347.0 25.0 249.0 
170.0003374459614 7523.0 2252.0 905.8212025316549 0.8853187589759984 349.0 25.0 253.0 
180.0003374459614 7592.0 2256.0 909.3781645569529 0.9299189647940396 356.0 25.0 255.0 
190.0003374459614 7528.0 2254.0 907.5727848101159 0.9119509761992356 356.0 23.0 256.0 
200.0003374459614 7447.0 2249.0 907.5221518987448 0.8657744881746932 353.0 23.0 256.0 
210.0003374459614 7547.0 2255.0 909.371835443047 0.9392011833209253 344.0 31.0 249.0 
220.0003374459614 7507.0 2255.0 905.7056962025364 0.9261020478532315 343.0 34.0 244.0 
230.0003374459614 7430.0 2251.0 909.3259493670952 0.9744940829539525 359.0 24.0 256.0 
240.0003374459614 7360.0 2248.0 909.3196202531612 0.901214117705828 359.0 24.0 256.0 
250.0003374459614 7330.0 2249.0 909.2911392405149 0.9868906612986502 355.0 27.0 253.0 
260.0003374459614 7222.0 2244.0 903.8797468354404 0.9029332348489152 360.0 24.0 253.0 
270.0003374459614 7248.0 2250.0 907.5205696202582 0.9284844781101153 358.0 25.0 254.0 
280.0003374459614 7266.0 2251.0 916.5743670886034 0.9960674512425693 360.0 24.0 260.0 
290.0003374459614 7265.0 2251.0 920.2310126582353 0.9237268613352551 358.0 24.0 262.0 
300.0003374459614 7282.0 2254.0 911.1613924050686 0.9351425881287242 356.0 27.0 254.0 
310.0003374459614 7266.0 2253.0 916.6471518987448 0.9193366183271112 355.0 26.0 258.0 
320.0003374459614 7237.0 2249.0 920.2753164556983 0.9728859119627566 345.0 26.0 260.0 
330.0003374459614 7233.0 2251.0 918.4810126582353 1.0050266109584294 348.0 26.0 259.0 
340.0003374459614 7174.0 2245.0 922.0727848101172 0.9795181703506134 348.0 26.0 261.0 
350.0003374459614 7123.0 2240.0 918.4066455696276 0.9771372984369373 350.0 24.0 261.0 
360.0003374459614 7118.0 2245.0 916.5158227848154 0.907762418515676 350.0 24.0 260.0 
370.0003374459614 7136.0 2249.0 912.9287974683455 0.9467372341511703 344.0 24.0 258.0 
380.0003374459614 7208.0 2256.0 918.367088607604 1.0204899466869932 352.0 23.0 262.0 
390.0003374459614 7247.0 2253.0 916.5933544303725 1.075279407370794 349.0 24.0 260.0 
400.0003374459614 7200.0 2249.0 918.4113924050686 0.955754681820924 354.0 25.0 260.0 
410.0003374459614 7169.0 2246.0 909.2721518987447 0.9327680837625876 357.0 23.0 257.0 
420.0003374459614 7229.0 2252.0 907.537974683535 1.0338156954806432 356.0 24.0 255.0 
430.0003374459614 7308.0 2245.0 912.9841772151842 0.9322508410644277 355.0 26.0 256.0 
440.0003374459614 7338.0 2248.0 911.1487341772108 0.9205177991704775 356.0 27.0 254.0 
450.0003374459614 7286.0 2247.0 911.1598101265806 0.9367605382969447 358.0 25.0 256.0 
460.0003374459614 7218.0 2252.0 909.3370253164651 0.9805992519160938 358.0 26.0 254.0 
470.0003374459614 7265.0 2255.0 911.1028481012552 0.9947973438364776 357.0 26.0 255.0 
480.0003374459614 7252.0 2253.0 912.876582278487 0.9845903233243188 361.0 26.0 256.0 
490.0003374459614 7243.0 2254.0 909.2990506329047 1.0000659909314629 352.0 26.0 254.0 
500.0003374459614 7265.0 2260.0 902.0094936708815 0.9252189184821755 352.0 26.0 250.0 
510.0003374459614 7273.0 2263.0 903.8496835443005 1.024694709147999 355.0 26.0 251.0 
520.0003374459613 7247.0 2263.0 900.2041139240438 0.9710449752521477 363.0 26.0 249.0 
530.0003374459613 7233.0 2256.0 900.2025316455567 0.9461630107104285 363.0 25.0 250.0 
540.0003374459613 7248.0 2251.0 902.0617088607672 0.89394066578512 363.0 25.0 251.0 
550.0003374459613 7325.0 2257.0 909.3069620253253 0.9571785357466814 362.0 25.0 255.0 
560.0003374459613 7364.0 2259.0 907.5237341772105 0.9785514406453981 363.0 26.0 253.0 
570.0003374459613 7400.0 2259.0 909.3449367088601 0.9252322044712978 371.0 25.0 255.0 
580.0003374459613 7495.0 2268.0 914.7990506329053 0.9657289830727575 372.0 25.0 258.0 
590.0003374459613 7490.0 2268.0 916.6234177215132 1.0813007069841443 368.0 25.0 259.0 
600.0003374459613 7374.0 2262.0 922.068037974676 0.9505509126032996 359.0 30.0 257.0 
610.0003374459613 7390.0 2266.0 923.8860759493737 0.9998144686988424 368.0 25.0 263.0 
620.0003374459613 7466.0 2268.0 933.0237341772107 0.9715518980024136 366.0 24.0 269.0 
630.0003374459613 7662.0 2279.0 931.2436708860735 1.0303597005808354 365.0 24.0 268.0 
640.0003374459613 7695.0 2278.0 931.2310126582353 1.1511054590402579 363.0 30.0 262.0 
650.0003374459613 7625.0 2277.0 945.8132911392366 1.133105684230163 369.0 28.0 272.0 
660.0003374459613 7641.0 2273.0 954.92405063291 1.0595483826952907 368.0 30.0 275.0 
#####################################################################
# End of data export. Simulation finished at: 2019-03-03T01:15+0000 #
#####################################################################
