#####################################################################
# Alchemist log file - simulation started at: 2019-03-04T18:19+0000 #
#####################################################################
# seed = 8.0, bandwidth = 1000.0, accessPointCount = 1031.338537721246, baserange = 31.622776601683796
#
# The columns have the following meaning: 
# time neighbor_count[Sum] <value>@neighbor_count[Sum] packet_size[Mean] mean_delay[Mean] crowd[Sum] overcrowded[Sum] risk[Sum] 
0.0 NaN NaN NaN NaN NaN NaN NaN 
2.000927030832833 NaN NaN 4978.212025316456 NaN 1497.0 0.0 1497.0 
4.000927030832833 NaN NaN 4978.212025316456 NaN 1497.0 0.0 1497.0 
6.000198348008885 84.0 54.0 4978.343354430379 0.32427894046345945 1497.0 0.0 1497.0 
8.000927030832834 161.0 110.0 4980.330696202532 2.017433175300334 1497.0 0.0 1497.0 
10.000272693243975 162.0 110.0 4979.993670886076 3.9925541770458484 1497.0 0.0 1497.0 
12.000927030832834 261.0 154.0 4980.754746835443 1.0724882183944524 1497.0 0.0 1497.0 
14.000927030832834 261.0 154.0 4979.6344936708865 3.0724882183944526 1497.0 0.0 1497.0 
16.000198348008887 281.0 160.0 4979.702531645569 3.063453643082792 1497.0 0.0 1497.0 
18.000927030832834 297.0 166.0 4980.566455696202 3.278121693908357 1497.0 0.0 1497.0 
20.000927030832834 297.0 166.0 4980.287974683544 5.256696801204495 1497.0 0.0 1497.0 
22.000927030832834 359.0 182.0 4980.64240506329 2.6951196859861493 1497.0 0.0 1497.0 
24.000927030832834 359.0 182.0 4979.661392405063 2.900655685986149 1497.0 0.0 1497.0 
26.000198348008887 361.0 183.0 4979.5490506329115 4.344713974192608 1497.0 0.0 1497.0 
28.000927030832834 361.0 183.0 4979.995253164557 4.486515561494196 1497.0 0.0 1497.0 
30.000927030832834 361.0 183.0 4980.362341772152 5.442309212287847 1497.0 0.0 1497.0 
32.000927030832834 434.0 195.0 4980.526898734177 3.35198824079685 1497.0 0.0 1497.0 
34.000927030832834 434.0 195.0 4980.223101265823 3.1055488468574555 1497.0 0.0 1497.0 
36.00019834800889 486.0 203.0 4979.860759493671 4.500751778984541 1497.0 0.0 1497.0 
38.000927030832834 526.0 210.0 4979.98259493671 4.918479475743506 1497.0 0.0 1497.0 
40.000927030832834 526.0 210.0 4980.302215189873 5.6737794757435065 1497.0 0.0 1497.0 
42.000927030832834 527.0 210.0 4980.487341772152 4.776333967182214 1497.0 0.0 1497.0 
44.000927030832834 528.0 210.0 4980.389240506329 4.026522839167788 1497.0 0.0 1497.0 
46.00019834800889 531.0 211.0 4979.960443037975 4.419727952455886 1497.0 0.0 1497.0 
48.000927030832834 531.0 210.0 4979.863924050633 5.0961531154934026 1497.0 0.0 1497.0 
50.000927030832834 531.0 210.0 4980.113924050633 5.7108341190776315 1497.0 0.0 1497.0 
52.000927030832834 537.0 211.0 4980.376582278481 6.1540471562671035 1497.0 0.0 1497.0 
54.000927030832834 537.0 211.0 4980.333860759494 5.865229951966029 1497.0 0.0 1497.0 
56.00019834800889 537.0 211.0 4980.26740506329 6.100369736912265 1497.0 0.0 1497.0 
58.000927030832834 543.0 212.0 4979.928797468355 6.919106425042391 1497.0 0.0 1497.0 
60.000927030832834 543.0 212.0 4978.150316455696 7.9573453736684385 1496.0 0.0 1496.0 
62.00017011082656 661.0 224.0 505.59968354430345 4.757225629783776 149.0 0.0 58.0 
64.00017011082656 665.0 225.0 505.5205696202553 3.391799826509357 149.0 0.0 58.0 
66.00017011082656 614.0 218.0 505.563291139239 2.9518919992091246 129.0 0.0 58.0 
68.00017011082656 577.0 212.0 507.2974683544301 2.1853265489534284 108.0 0.0 59.0 
70.00017011082656 577.0 212.0 507.27531645569667 2.5881820268089073 94.0 0.0 59.0 
72.00017011082656 664.0 225.0 509.21044303797606 2.4171041225466574 91.0 0.0 60.0 
74.00017011082656 664.0 225.0 509.1566455696212 2.8014884098642767 83.0 0.0 60.0 
76.00017011082656 664.0 225.0 509.14715189873345 3.08512398446551 79.0 0.0 60.0 
78.00017011082656 664.0 225.0 509.14082278480885 3.333202528443042 77.0 0.0 60.0 
80.00017011082656 668.0 226.0 510.96202531645423 3.6881944684756474 76.0 0.0 61.0 
82.00017011082656 659.0 224.0 510.95569620252957 3.841994942265776 75.0 0.0 61.0 
84.00017011082656 658.0 223.0 510.9604430379761 3.9988665155644587 75.0 0.0 61.0 
86.00017011082656 661.0 224.0 510.9509493670864 4.3538426401649994 74.0 0.0 61.0 
88.00017011082656 654.0 223.0 510.9572784810111 4.616669124766344 73.0 0.0 61.0 
90.00017011082656 651.0 222.0 510.94145569620395 4.811221774438033 71.0 0.0 61.0 
92.00017011082656 560.0 211.0 512.8180379746856 3.1703374373072055 71.0 0.0 62.0 
94.00017011082656 565.0 211.0 516.4224683544301 3.48001805374644 72.0 0.0 64.0 
96.00017011082656 548.0 210.0 516.4778481012667 3.0160042823127484 72.0 0.0 64.0 
98.00017011082656 549.0 209.0 516.3449367088602 3.0857537794454992 72.0 0.0 64.0 
100.00017011082656 552.0 209.0 516.3449367088602 3.3382419061596464 72.0 0.0 64.0 
102.00017011082656 468.0 195.0 516.409810126581 1.8822345662599005 73.0 0.0 64.0 
104.00017011082656 470.0 196.0 516.273734177215 2.0040858337500813 73.0 0.0 64.0 
106.00017011082656 494.0 200.0 516.2832278480994 2.1952385024269025 73.0 0.0 64.0 
108.00017011082656 511.0 203.0 518.1392405063308 2.1689224787384553 71.0 0.0 65.0 
110.00017011082656 510.0 203.0 518.1297468354412 2.3395961629015614 71.0 0.0 65.0 
112.00017011082656 558.0 210.0 521.8338607594945 2.4182270511759882 73.0 0.0 67.0 
114.00017011082656 557.0 209.0 521.840189873419 2.5590995285028244 73.0 0.0 67.0 
116.00017011082656 557.0 209.0 521.8132911392388 2.8207663390327333 73.0 0.0 67.0 
118.00017011082656 556.0 209.0 521.8006329113897 3.0281313501711202 73.0 0.0 67.0 
120.00017011082656 555.0 209.0 519.9920886075936 3.4670303305198074 71.0 0.0 66.0 
122.00017011082656 613.0 218.0 520.0981012658254 2.1868294662731746 72.0 0.0 66.0 
124.00017011082656 640.0 220.0 520.0506329113897 2.405190920002563 72.0 0.0 66.0 
126.00017011082656 656.0 222.0 520.0458860759485 2.639588907548422 72.0 0.0 66.0 
128.00017011082656 660.0 222.0 520.0332278480993 2.965794448307828 72.0 0.0 66.0 
130.00017011082656 663.0 222.0 523.6661392405055 3.358885805541655 73.0 0.0 68.0 
132.00017011082656 662.0 222.0 523.6645569620238 3.4839073816613824 73.0 0.0 68.0 
134.00017011082656 663.0 222.0 520.0284810126562 3.71948803068933 71.0 0.0 66.0 
136.00017011082656 642.0 218.0 520.0458860759484 3.792230447464635 72.0 0.0 66.0 
138.00017011082656 631.0 217.0 520.0 3.522294949401656 71.0 0.0 66.0 
140.00017011082656 632.0 218.0 519.9873417721506 3.756142661187859 71.0 0.0 66.0 
142.00017011082656 614.0 216.0 512.8212025316451 3.2887755684707516 68.0 0.0 62.0 
144.00017011082656 608.0 215.0 512.7278481012669 3.145033798719148 68.0 0.0 62.0 
146.00017011082656 606.0 214.0 512.7215189873436 3.406666786110108 68.0 0.0 62.0 
148.00017011082656 610.0 214.0 512.7183544303784 3.586797243777833 69.0 0.0 62.0 
150.00017011082656 613.0 215.0 512.7183544303784 3.969541922017222 68.0 0.0 62.0 
152.00017011082656 513.0 200.0 510.9810126582262 3.2413882680123556 67.0 0.0 61.0 
154.00017011082656 536.0 205.0 510.9272151898714 2.7522709702875274 68.0 0.0 61.0 
156.00017011082656 533.0 205.0 510.9794303797445 2.224297249333026 67.0 0.0 61.0 
158.00017011082656 555.0 211.0 510.92246835443007 2.0855481931394118 66.0 0.0 61.0 
160.00017011082656 559.0 212.0 510.90822784809933 2.2000164914603153 66.0 0.0 61.0 
162.00017011082656 560.0 212.0 510.9161392405054 2.1683703094032944 64.0 0.0 61.0 
164.00017011082656 563.0 212.0 510.9050632911398 2.422211997718658 63.0 0.0 61.0 
166.00017011082656 563.0 212.0 510.90189873417467 2.6929545320205146 63.0 0.0 61.0 
168.00017011082656 560.0 211.0 510.90189873417467 2.886180377643267 63.0 0.0 61.0 
170.00017011082656 560.0 210.0 510.90822784809933 3.1465205515986963 64.0 0.0 61.0 
172.00017011082656 525.0 204.0 510.9382911392388 2.501105742881392 64.0 0.0 61.0 
174.00017011082656 525.0 204.0 510.8655063291158 2.7815718569720773 64.0 0.0 61.0 
176.00017011082656 552.0 209.0 512.6882911392389 2.866088250963625 65.0 0.0 62.0 
178.00017011082656 569.0 213.0 514.542721518989 2.998298134329503 66.0 0.0 63.0 
180.00017011082656 572.0 214.0 514.5300632911398 3.3190605085680582 66.0 0.0 63.0 
182.00017011082656 646.0 223.0 514.6170886075937 3.0045454771054243 66.0 0.0 63.0 
184.00017011082656 641.0 224.0 514.582278481011 2.337629039184364 65.0 0.0 63.0 
186.00017011082656 659.0 226.0 516.4113924050645 2.5731269308227134 66.0 0.0 64.0 
188.00017011082656 634.0 222.0 516.417721518989 2.5750589341504173 67.0 0.0 64.0 
190.00017011082656 625.0 220.0 512.7278481012667 2.6002983361354004 65.0 0.0 62.0 
192.00017011082656 632.0 221.0 514.5506329113898 2.9256815778737986 66.0 0.0 63.0 
194.00017011082656 628.0 219.0 514.5379746835458 3.0840525017340066 67.0 0.0 63.0 
196.00017011082656 631.0 220.0 514.5537974683549 3.13463420604326 67.0 0.0 63.0 
198.00017011082656 641.0 223.0 514.5617088607611 3.417547383808123 66.0 0.0 63.0 
200.00017011082656 646.0 224.0 514.5537974683549 3.499252524340145 68.0 0.0 63.0 
202.00017011082656 649.0 225.0 514.5601265822795 3.6011662523320385 68.0 0.0 63.0 
204.00017011082656 646.0 224.0 512.7373417721507 3.6449553677837714 67.0 0.0 62.0 
206.00017011082656 623.0 221.0 512.7563291139247 3.6829994661162417 67.0 0.0 62.0 
208.00017011082656 610.0 219.0 512.7104430379761 3.5810126571499428 66.0 0.0 62.0 
210.00017011082656 612.0 220.0 510.8797468354412 3.884162494651827 65.0 0.0 61.0 
212.00017011082656 569.0 215.0 509.2041139240516 3.567842296207713 64.0 0.0 60.0 
214.00017011082656 539.0 212.0 510.9667721519009 3.201848260643049 65.0 0.0 61.0 
216.00017011082656 531.0 211.0 510.9398734177205 2.61659226337813 65.0 0.0 61.0 
218.00017011082656 530.0 213.0 510.933544303796 1.9788335613982688 65.0 0.0 61.0 
220.00017011082656 557.0 215.0 512.7088607594945 2.095600819462686 66.0 0.0 62.0 
222.00017011082656 554.0 215.0 512.715189873419 1.9712986653130102 66.0 0.0 62.0 
224.00017011082656 557.0 216.0 512.712025316454 2.241754012727748 68.0 0.0 62.0 
226.00017011082656 555.0 216.0 512.712025316454 2.3756829692333334 68.0 0.0 62.0 
228.00017011082656 554.0 215.0 512.7167721519008 2.5661239081240947 69.0 0.0 62.0 
230.00017011082656 559.0 216.0 512.7167721519008 2.8271250334537754 70.0 0.0 62.0 
232.00017011082656 561.0 217.0 514.537974683546 2.9080879375989244 69.0 0.0 63.0 
234.00017011082656 563.0 218.0 512.707278481011 3.254224577107203 68.0 0.0 62.0 
236.00017011082656 566.0 218.0 512.726265822785 3.3827286154012337 68.0 0.0 62.0 
238.00017011082656 563.0 217.0 512.7215189873436 3.495612508202809 68.0 0.0 62.0 
240.00017011082656 562.0 217.0 510.9050632911398 3.732971757886544 67.0 0.0 61.0 
242.00017011082656 601.0 219.0 511.02056962025557 2.9266556663932297 67.0 0.0 61.0 
244.00017011082656 587.0 215.0 514.5648734177205 2.936427930440478 67.0 0.0 63.0 
246.00017011082656 600.0 219.0 514.590189873419 2.7316745092133194 67.0 0.0 63.0 
248.00017011082656 627.0 222.0 510.98575949366926 2.8457694333778956 64.0 0.0 61.0 
250.00017011082656 619.0 221.0 510.9731012658252 2.402329161712222 65.0 0.0 61.0 
252.00017011082656 642.0 224.0 512.7705696202553 2.581780918989842 66.0 0.0 62.0 
254.00017011082656 653.0 227.0 512.7800632911398 2.8433746828872315 66.0 0.0 62.0 
256.00017011082656 663.0 228.0 512.7832278480995 2.912535284949342 66.0 0.0 62.0 
258.0001701108265 665.0 229.0 512.773734177215 3.178249939964549 67.0 0.0 62.0 
260.0001701108265 665.0 228.0 514.582278481011 3.4742810266691513 67.0 0.0 63.0 
262.0001701108265 659.0 228.0 514.582278481011 3.551145640510454 67.0 0.0 63.0 
264.0001701108265 658.0 227.0 514.5791139240513 3.7217700890427934 67.0 0.0 63.0 
266.0001701108265 655.0 226.0 514.5791139240513 3.984250425212992 67.0 0.0 63.0 
268.0001701108265 655.0 227.0 514.585443037976 4.309245459841517 67.0 0.0 63.0 
270.0001701108265 652.0 226.0 514.585443037976 4.505511220461423 67.0 0.0 63.0 
272.0001701108265 570.0 216.0 514.625 4.258504991218702 65.0 0.0 63.0 
274.0001701108265 566.0 215.0 514.6123417721507 4.4040593980477825 65.0 0.0 63.0 
276.0001701108265 530.0 208.0 514.6455696202553 4.281649868843523 65.0 0.0 63.0 
278.0001701108265 509.0 204.0 512.726265822785 3.2635583808622073 65.0 0.0 62.0 
280.0001701108265 501.0 203.0 512.6677215189889 3.0729336870648742 65.0 0.0 62.0 
282.0001701108265 536.0 210.0 512.7341772151909 2.412793779106015 65.0 0.0 62.0 
284.0001701108265 535.0 211.0 512.6946202531639 2.4917939506168905 65.0 0.0 62.0 
286.0001701108265 532.0 212.0 510.8702531645588 2.4607885567459564 65.0 0.0 61.0 
288.0001701108265 531.0 210.0 509.0601265822795 2.3839258952439373 65.0 0.0 60.0 
290.0001701108265 528.0 210.0 509.0601265822795 2.7162771678388746 65.0 0.0 60.0 
292.0001701108265 535.0 211.0 507.2389240506341 2.6797009535787226 63.0 0.0 59.0 
294.0001701108265 540.0 213.0 507.2389240506341 2.9678015196339707 63.0 0.0 59.0 
296.0001701108265 543.0 215.0 505.4240506329136 3.112816553021343 65.0 0.0 58.0 
298.0001701108265 547.0 216.0 501.7974683544301 3.4203749615818646 63.0 0.0 56.0 
300.0001701108265 547.0 215.0 501.7974683544301 3.705772637512313 63.0 0.0 56.0 
302.0001701108265 619.0 224.0 501.89556962025506 3.5541261021426793 62.0 0.0 56.0 
304.0001701108265 617.0 223.0 501.85443037974494 3.7045918440427403 61.0 0.0 56.0 
306.0001701108265 623.0 222.0 501.86550632911536 3.5763455379821885 61.0 0.0 56.0 
308.0001701108265 624.0 222.0 501.85126582278497 3.708202843569861 60.0 0.0 56.0 
310.0001701108265 617.0 222.0 500.0221518987337 3.7685913766507686 59.0 0.0 55.0 
312.0001701108265 570.0 213.0 498.23101265822623 2.487647053189662 58.0 0.0 54.0 
314.0001701108265 579.0 215.0 498.1613924050644 2.6141753325605697 59.0 0.0 54.0 
316.0001701108265 610.0 221.0 500.0015822784815 2.598639919392716 58.0 0.0 55.0 
318.0001701108265 638.0 225.0 501.8765822784817 2.601297025267133 59.0 0.0 56.0 
320.0001701108265 639.0 226.0 501.85443037974454 2.860998546273879 60.0 0.0 56.0 
322.0001701108265 632.0 225.0 501.8623417721506 2.9502145757928133 60.0 0.0 56.0 
324.0001701108265 632.0 224.0 503.67563291138976 3.034536074462282 60.0 0.0 57.0 
326.0001701108265 630.0 223.0 503.6867088607612 3.1249710565341347 60.0 0.0 57.0 
328.0001701108265 634.0 224.0 505.5142405063308 3.341475842383849 61.0 0.0 58.0 
330.0001701108265 636.0 225.0 505.5079113924063 3.735745422295241 61.0 0.0 58.0 
332.0001701108265 556.0 215.0 503.73575949366915 3.521754670728582 60.0 0.0 57.0 
334.0001701108265 560.0 216.0 503.7231012658254 3.841544952274983 60.0 0.0 57.0 
336.0001701108265 549.0 215.0 505.5601265822795 3.7988466677834576 60.0 0.0 58.0 
338.0001701108265 541.0 215.0 505.5490506329136 3.530043458387027 59.0 0.0 58.0 
340.0001701108265 534.0 213.0 505.4572784810111 3.7883624137579837 59.0 0.0 58.0 
342.0001701108265 543.0 216.0 510.90822784809893 3.202451796745251 63.0 0.0 61.0 
344.0001701108265 549.0 217.0 510.90822784809893 3.383094399093735 63.0 0.0 61.0 
346.0001701108265 524.0 212.0 510.9177215189889 3.237486822134516 63.0 0.0 61.0 
348.0001701108265 505.0 209.0 510.85917721519166 2.657903499653628 63.0 0.0 61.0 
350.0001701108265 502.0 208.0 510.8401898734191 2.544416929626 63.0 0.0 61.0 
352.0001701108265 542.0 216.0 510.90664556962173 2.4716683301566658 63.0 0.0 61.0 
354.0001701108265 539.0 214.0 510.8781645569594 2.777037073789609 63.0 0.0 61.0 
356.0001701108265 538.0 214.0 510.86867088607517 3.01265153188025 63.0 0.0 61.0 
358.0001701108265 542.0 214.0 510.8718354430406 2.763907161200809 64.0 0.0 61.0 
360.0001701108265 545.0 215.0 512.6867088607615 3.1610744939685267 65.0 0.0 62.0 
362.0001701108265 627.0 225.0 512.7800632911398 2.9308586086822115 65.0 0.0 62.0 
364.0001701108265 630.0 226.0 514.566455696204 3.0569284775651258 66.0 0.0 63.0 
366.0001701108265 632.0 225.0 518.2310126582263 3.0925738360503594 68.0 0.0 65.0 
368.0001701108265 645.0 228.0 516.4050632911398 3.3840310120500994 67.0 0.0 64.0 
370.0001701108265 654.0 229.0 516.4018987341742 3.847713087093338 67.0 0.0 64.0 
372.0001701108265 651.0 229.0 516.4018987341742 3.8327969679021323 68.0 0.0 64.0 
374.0001701108265 647.0 227.0 516.3987341772149 3.6509823532171906 68.0 0.0 64.0 
376.0001701108265 643.0 225.0 516.3987341772149 3.785004540990273 68.0 0.0 64.0 
378.0001701108265 643.0 227.0 514.5870253164536 3.808431747169168 67.0 0.0 63.0 
380.0001701108265 652.0 228.0 518.2278481012671 3.831065943879304 67.0 0.0 65.0 
382.0001701108265 617.0 223.0 516.4287974683549 3.149536251831472 66.0 0.0 64.0 
384.0001701108265 618.0 224.0 516.3560126582263 3.4467544275714395 66.0 0.0 64.0 
386.0001701108265 642.0 228.0 516.3655063291163 3.795549434956056 66.0 0.0 64.0 
388.0001701108265 650.0 229.0 516.4082278480989 3.9316004961320528 67.0 0.0 64.0 
390.0001701108265 647.0 230.0 516.3987341772149 4.117238625066205 67.0 0.0 64.0 
392.0001701108265 556.0 216.0 516.4493670886106 3.4996800850800796 67.0 0.0 64.0 
394.0001701108265 555.0 215.0 518.284810126581 3.740621713604634 69.0 0.0 65.0 
396.0001701108265 546.0 215.0 518.2753164556985 3.600436770476487 69.0 0.0 65.0 
398.0001701108265 541.0 215.0 518.2262658227851 3.5658718161568435 69.0 0.0 65.0 
400.0001701108265 539.0 216.0 518.1977848101286 3.536100022384465 69.0 0.0 65.0 
402.0001701108265 542.0 217.0 518.1566455696218 3.2493101651048275 69.0 0.0 65.0 
404.0001701108265 542.0 219.0 514.5205696202557 3.31753896869303 68.0 0.0 63.0 
406.0001701108265 546.0 220.0 514.5205696202557 3.2516686682181914 68.0 0.0 63.0 
408.0001701108265 542.0 217.0 514.5253164556985 2.848394839839875 68.0 0.0 63.0 
410.0001701108265 534.0 216.0 512.707278481011 2.882070333594826 67.0 0.0 62.0 
412.0001701108265 530.0 215.0 512.7041139240519 3.021940279869983 67.0 0.0 62.0 
414.0001701108265 530.0 215.0 512.7041139240519 3.516709991033138 67.0 0.0 62.0 
416.0001701108265 507.0 211.0 512.7231012658257 3.6569142810485338 66.0 0.0 62.0 
418.0001701108265 485.0 207.0 512.6803797468368 3.2286384681731173 65.0 0.0 62.0 
420.0001701108265 488.0 206.0 512.6740506329136 3.1305992772734976 65.0 0.0 62.0 
422.0001701108265 605.0 222.0 512.8117088607614 2.616354467932595 65.0 0.0 62.0 
424.0001701108265 597.0 220.0 512.7547468354412 2.6656624876176385 65.0 0.0 62.0 
426.0001701108265 603.0 220.0 510.941455696204 2.7133032603777036 64.0 0.0 61.0 
428.0001701108265 606.0 221.0 510.9319620253141 2.8108170623313637 64.0 0.0 61.0 
430.0001701108265 613.0 222.0 510.9382911392386 3.114281688515861 64.0 0.0 61.0 
432.0001701108265 617.0 221.0 514.5569620253141 3.1448384080606977 68.0 0.0 63.0 
434.0001701108265 629.0 224.0 514.5569620253141 3.3653958585909836 68.0 0.0 63.0 
436.0001701108265 630.0 225.0 514.5601265822795 3.2019400220250045 68.0 0.0 63.0 
438.0001701108265 622.0 224.0 514.5854430379765 3.014612565294153 67.0 0.0 63.0 
440.0001701108265 628.0 225.0 514.582278481011 3.0356904122449584 68.0 0.0 63.0 
442.0001701108265 631.0 225.0 514.5854430379765 3.0737717131318507 68.0 0.0 63.0 
444.0001701108265 639.0 228.0 516.4034810126562 3.26032714557591 70.0 0.0 64.0 
446.0001701108265 641.0 227.0 516.3939873417738 3.5774080297713726 70.0 0.0 64.0 
448.0001701108265 641.0 227.0 514.5854430379763 4.062839392579784 70.0 0.0 63.0 
450.0001701108265 642.0 227.0 510.94936708861013 4.298989506111081 68.0 0.0 61.0 
452.0001701108265 532.0 212.0 511.0332278480991 3.3769202972890935 68.0 0.0 61.0 
454.0001701108265 535.0 213.0 510.92563291138964 3.7141137914794533 68.0 0.0 61.0 
456.0001701108265 551.0 215.0 510.9572784810111 3.6994436888857267 67.0 0.0 61.0 
458.0001701108265 572.0 218.0 512.7958860759484 3.6509679209976538 67.0 0.0 62.0 
460.0001701108265 570.0 218.0 512.8085443037961 3.5412948845162773 67.0 0.0 62.0 
462.0001701108265 564.0 217.0 510.90189873417444 2.9717926926323854 65.0 0.0 61.0 
464.0001701108265 563.0 217.0 510.8955696202557 3.058607202438931 64.0 0.0 61.0 
466.0001701108265 552.0 215.0 510.8924050632904 2.934972174780895 64.0 0.0 61.0 
468.0001701108265 553.0 215.0 507.2689873417738 2.739841964531371 62.0 0.0 59.0 
470.0001701108265 558.0 216.0 503.63449367088424 2.873414160104611 62.0 0.0 57.0 
472.0001701108265 549.0 214.0 503.62974683544127 2.972092402273185 62.0 0.0 57.0 
474.0001701108265 551.0 214.0 505.4477848101286 3.327630091026478 62.0 0.0 58.0 
476.0001701108265 548.0 216.0 505.43829113923897 3.2092398634993904 62.0 0.0 58.0 
478.0001701108265 551.0 217.0 505.43829113923897 3.5562515779185744 62.0 0.0 58.0 
480.0001701108265 554.0 218.0 505.4493670886101 3.909490955351334 63.0 0.0 58.0 
482.0001701108265 628.0 227.0 505.52531645569667 3.7586903676324463 63.0 0.0 58.0 
484.0001701108265 628.0 226.0 507.3259493670864 3.658624538705463 66.0 0.0 59.0 
486.0001701108265 615.0 223.0 509.15506329113975 3.6871684364115906 67.0 0.0 60.0 
488.0001701108265 591.0 219.0 509.1091772151915 3.464441701326771 67.0 0.0 60.0 
490.0001701108265 576.0 217.0 509.1060126582262 3.361847819493831 66.0 0.0 60.0 
492.0001701108265 616.0 223.0 510.9541139240518 2.972980477156607 66.0 0.0 61.0 
494.0001701108265 615.0 223.0 510.9509493670864 2.8821885811210364 66.0 0.0 61.0 
496.0001701108265 633.0 227.0 510.9588607594946 2.9811752252096158 66.0 0.0 61.0 
498.0001701108265 622.0 223.0 510.9493670886104 2.8492978739648662 66.0 0.0 61.0 
500.0001701108265 641.0 228.0 516.4177215189889 2.6980117069583267 66.0 0.0 64.0 
502.0001701108265 642.0 228.0 516.4098101265811 2.8369401418048437 65.0 0.0 64.0 
504.0001701108265 643.0 228.0 516.4193037974705 2.989517227654071 66.0 0.0 64.0 
506.0001701108265 648.0 229.0 514.5949367088602 3.361139200043703 65.0 0.0 63.0 
508.0001701108265 649.0 230.0 514.601265822785 3.6763024804164672 65.0 0.0 63.0 
510.0001701108265 649.0 229.0 514.6044303797446 4.019313566663188 65.0 0.0 63.0 
512.0001701108265 569.0 219.0 514.6408227848087 3.754006590916515 65.0 0.0 63.0 
514.0001701108265 572.0 220.0 514.6344936708842 4.154221956098813 65.0 0.0 63.0 
516.0001701108265 562.0 219.0 514.6455696202554 4.1261024148774625 65.0 0.0 63.0 
518.0001701108265 561.0 218.0 516.4335443037961 4.165439370865059 66.0 0.0 64.0 
520.0001701108265 569.0 220.0 516.4414556962039 4.48763759697348 65.0 0.0 64.0 
522.0001701108265 520.0 211.0 514.6424050632903 3.1991730504213947 64.0 0.0 63.0 
524.0001701108265 513.0 209.0 512.7088607594945 3.2277479365772157 63.0 0.0 62.0 
526.0001701108265 537.0 214.0 512.6962025316452 3.079604702732453 63.0 0.0 62.0 
528.0001701108265 548.0 216.0 512.7484177215182 3.094664373398967 63.0 0.0 62.0 
530.0001701108265 533.0 216.0 512.7325949367097 2.794009907700074 63.0 0.0 62.0 
532.0001701108265 543.0 216.0 512.7310126582263 2.515499728349665 64.0 0.0 62.0 
534.0001701108265 539.0 215.0 512.7373417721507 2.7444732163472607 64.0 0.0 62.0 
536.0001701108265 539.0 216.0 512.7278481012668 2.9619620002864524 64.0 0.0 62.0 
538.0001701108265 542.0 217.0 512.7294303797445 3.224201103725632 64.0 0.0 62.0 
540.0001701108265 543.0 217.0 510.89873417721503 3.5575152103193632 62.0 0.0 61.0 
542.0001701108265 626.0 228.0 510.9873417721506 3.2415561005244293 62.0 0.0 61.0 
544.0001701108265 627.0 228.0 510.9572784810111 3.4468591233063135 62.0 0.0 61.0 
546.0001701108265 636.0 229.0 510.96518987341904 3.6067825345247813 62.0 0.0 61.0 
548.0001701108265 628.0 227.0 509.1439873417738 3.3836959025897326 61.0 0.0 60.0 
550.0001701108265 614.0 225.0 509.12974683544127 3.341974307869188 61.0 0.0 60.0 
552.0001701108265 618.0 226.0 509.12025316455873 3.476041728376273 61.0 0.0 60.0 
554.0001701108265 623.0 227.0 509.1281645569596 3.8349098722885397 62.0 0.0 60.0 
556.0001701108265 599.0 223.0 509.1360759493659 3.6252376371745103 62.0 0.0 60.0 
558.0001701108265 577.0 218.0 509.087025316454 3.218257705497137 62.0 0.0 60.0 
560.0001701108265 573.0 216.0 509.07436708861036 2.9194806973560343 62.0 0.0 60.0 
562.0001701108265 620.0 226.0 509.1360759493659 2.772869617384518 62.0 0.0 60.0 
564.0001701108265 623.0 227.0 509.1139240506341 2.9173948216623677 62.0 0.0 60.0 
566.0001701108265 627.0 227.0 509.1139240506341 3.1125827533034425 64.0 0.0 60.0 
568.0001701108265 629.0 227.0 509.10917721519144 3.506361050899938 66.0 0.0 60.0 
570.0001701108265 636.0 228.0 512.7610759493659 3.6798719047331114 66.0 0.0 62.0 
572.0001701108265 559.0 219.0 512.7974683544301 3.279269030464906 66.0 0.0 62.0 
574.0001701108265 562.0 220.0 512.7658227848085 3.4942055050485124 66.0 0.0 62.0 
576.0001701108265 552.0 219.0 512.7800632911398 3.44216418414826 66.0 0.0 62.0 
578.0001701108265 546.0 218.0 512.7341772151915 3.5493746960588086 66.0 0.0 62.0 
580.0001701108265 540.0 217.0 510.91297468354594 3.57439641794188 65.0 0.0 61.0 
582.0001701108265 534.0 217.0 510.9572784810111 3.2145661982987224 65.0 0.0 61.0 
584.0001701108265 535.0 217.0 510.8813291139247 3.238572692148603 64.0 0.0 61.0 
586.0001701108265 540.0 218.0 512.6867088607613 3.1938322922611224 66.0 0.0 62.0 
588.0001701108265 540.0 218.0 510.87816455695946 3.4228161049281063 65.0 0.0 61.0 
590.0001701108265 531.0 215.0 507.25 3.515292037062124 65.0 0.0 59.0 
592.0001701108265 497.0 209.0 507.2784810126563 2.358667627775933 64.0 0.0 59.0 
594.0001701108265 511.0 213.0 510.875 2.541759776467755 66.0 0.0 61.0 
596.0001701108265 535.0 217.0 510.84018987341904 2.7427882253725984 66.0 0.0 61.0 
598.0001701108265 556.0 222.0 510.8860759493659 3.107812261799183 66.0 0.0 61.0 
600.0001701108265 549.0 221.0 510.87183544304054 3.369575394765313 67.0 0.0 61.0 
602.0001701108265 623.0 231.0 510.9572784810111 3.2516997284867504 67.0 0.0 61.0 
604.0001701108265 611.0 227.0 510.9272151898714 3.0704910673741335 66.0 0.0 61.0 
606.0001701108265 619.0 227.0 510.9224683544301 3.2963724495248727 64.0 0.0 61.0 
608.0001701108265 620.0 226.0 507.28322784809916 3.462034856537873 62.0 0.0 59.0 
610.0001701108265 619.0 226.0 505.46835443037844 3.5624108141372015 61.0 0.0 58.0 
612.0001701108265 624.0 227.0 507.2911392405054 3.761723649050584 61.0 0.0 59.0 
614.0001701108265 635.0 228.0 507.2958860759482 3.89701617728327 61.0 0.0 59.0 
616.0001701108265 636.0 229.0 507.2958860759482 4.116408597151132 62.0 0.0 59.0 
618.0001701108265 646.0 231.0 507.2990506329136 4.457881116048141 62.0 0.0 59.0 
620.0001701108265 640.0 229.0 507.2958860759482 4.705525144109338 62.0 0.0 59.0 
622.0001701108265 629.0 225.0 507.2958860759482 4.162129314577065 62.0 0.0 59.0 
624.0001701108265 623.0 225.0 507.2958860759482 3.7958161751840196 62.0 0.0 59.0 
626.0001701108265 608.0 221.0 509.1408227848085 3.673382262196608 62.0 0.0 60.0 
628.0001701108265 598.0 219.0 509.09968354430305 3.556470492698833 63.0 0.0 60.0 
630.0001701108265 600.0 219.0 509.0743670886104 3.730776432632932 64.0 0.0 60.0 
632.0001701108265 559.0 215.0 511.02689873417444 2.9248274632946756 64.0 0.0 61.0 
634.0001701108265 563.0 216.0 512.8117088607614 3.2550497787233432 64.0 0.0 62.0 
636.0001701108265 549.0 213.0 512.8006329113896 2.9393019015446287 64.0 0.0 62.0 
638.0001701108265 547.0 213.0 512.7579113924065 2.985971541805316 64.0 0.0 62.0 
640.0001701108265 547.0 214.0 512.7531645569595 3.330626194207959 64.0 0.0 62.0 
642.0001701108265 545.0 214.0 512.7515822784819 3.1985889718953238 64.0 0.0 62.0 
644.0001701108265 547.0 215.0 516.3987341772149 2.8929790280379364 68.0 0.0 64.0 
646.0001701108265 555.0 217.0 516.3370253164538 2.9583564437175607 67.0 0.0 64.0 
648.0001701108265 556.0 217.0 516.340189873419 3.0656224467225894 68.0 0.0 64.0 
650.0001701108265 556.0 217.0 516.3306962025292 3.5685986371987757 68.0 0.0 64.0 
652.0001701108265 552.0 217.0 516.340189873419 3.4491471174251322 69.0 0.0 64.0 
654.0001701108265 556.0 218.0 516.340189873419 3.615280257003275 69.0 0.0 64.0 
656.0001701108265 553.0 218.0 516.3338607594945 3.8109980460330948 69.0 0.0 64.0 
658.0001701108265 548.0 217.0 514.5189873417737 3.852830117865728 68.0 0.0 63.0 
660.0001701108265 548.0 217.0 512.6977848101286 4.007641378132387 68.0 0.0 62.0 
662.0001701108265 585.0 219.0 507.375 2.979897193481899 65.0 0.0 59.0 
664.0001701108265 579.0 218.0 507.27373417721503 2.704123222784727 65.0 0.0 59.0 
#####################################################################
# End of data export. Simulation finished at: 2019-03-04T18:23+0000 #
#####################################################################
