#####################################################################
# Alchemist log file - simulation started at: 2019-03-06T04:30+0000 #
#####################################################################
# seed = 1.0, bandwidth = 2.3713737056616552E7, accessPointCount = 10.0, baserange = 1000.0
#
# The columns have the following meaning: 
# time neighbor_count[Sum] <value>@neighbor_count[Sum] packet_size[Mean] mean_delay[Mean] crowd[Sum] overcrowded[Sum] risk[Sum] 
0.0 NaN NaN NaN NaN NaN NaN NaN 
10.000417374280275 19492.0 349.0 4990.022561380226 0.5370065549816037 1497.0 0.0 1497.0 
20.000417374280275 18816.0 341.0 4990.216323822163 0.49758345738536314 1497.0 0.0 1497.0 
30.000417374280275 18816.0 341.0 4990.149966821499 0.49758195198690286 1497.0 0.0 1497.0 
40.000417374280275 18820.0 341.0 4990.285335102853 0.4978374482591 1497.0 0.0 1497.0 
50.000417374280275 18822.0 341.0 4990.197743861978 0.49782876118982083 1497.0 0.0 1497.0 
60.000417374280275 18824.0 341.0 4990.242866622429 0.49783470854891215 1497.0 0.0 1497.0 
70.00041737428027 18824.0 341.0 778.9090909090922 0.49770537965112915 185.0 1.0 123.0 
80.00041737428027 18824.0 341.0 778.9356337093541 0.49765954672217994 181.0 1.0 123.0 
90.00041737428027 18828.0 341.0 778.9197080291984 0.4976998429779764 180.0 0.0 124.0 
100.00041737428027 18948.0 342.0 778.9276708692761 0.4978924134507229 179.0 1.0 123.0 
110.00041737428027 18928.0 342.0 778.9143994691458 0.4978670599266996 179.0 1.0 123.0 
120.00041737428027 18988.0 343.0 785.0643662906459 0.4977511314948988 181.0 0.0 126.0 
130.0004173742803 18998.0 343.0 781.9854014598545 0.49778891177576096 180.0 1.0 124.0 
140.0004173742803 19010.0 343.0 781.9774386197765 0.49784703572657574 180.0 1.0 124.0 
150.0004173742803 19024.0 343.0 781.9854014598545 0.49783487786453534 181.0 0.0 125.0 
160.0004173742803 19024.0 343.0 781.9986728599857 0.49783512600504076 180.0 1.0 124.0 
170.0004173742803 19022.0 343.0 781.9508958195098 0.4978537993984716 180.0 1.0 124.0 
180.0004173742803 19018.0 343.0 782.0252156602528 0.4978396076174459 181.0 0.0 125.0 
190.0004173742803 19014.0 343.0 781.9588586595873 0.49780072254412044 180.0 1.0 124.0 
200.0004173742803 19030.0 343.0 781.9854014598545 0.49779765888521105 180.0 1.0 124.0 
210.0004173742803 19042.0 343.0 785.0404777704034 0.49773246030699786 182.0 0.0 126.0 
220.0004173742803 18994.0 342.0 785.000663570005 0.49821520612576753 182.0 1.0 125.0 
230.0004173742803 18986.0 342.0 784.9980092899808 0.49758931702121706 182.0 1.0 125.0 
240.0004173742803 18986.0 342.0 785.0431320504324 0.49758853610094383 183.0 0.0 126.0 
250.0004173742803 18984.0 342.0 785.0218978102183 0.49759729354445353 182.0 1.0 125.0 
260.0004173742803 18858.0 341.0 782.0066357000678 0.49764659123190863 181.0 1.0 124.0 
270.0004173742803 18860.0 341.0 781.9827471798251 0.4981961944826572 182.0 0.0 125.0 
280.0004173742803 18898.0 342.0 772.8201725282028 0.49784272913087685 179.0 1.0 121.0 
290.0004173742803 18895.0 342.0 772.8095554080966 0.4982248556434977 179.0 1.0 121.0 
300.0004173742803 18892.0 342.0 772.8307896483099 0.4984327958944561 180.0 0.0 122.0 
310.0004173742803 18888.0 342.0 769.7544790975426 0.49909986317422234 179.0 1.0 120.0 
320.0004173742803 18885.0 342.0 769.7624419376253 0.49909197621391826 179.0 1.0 120.0 
330.0004173742803 18881.0 342.0 769.7650962176494 0.4985605285593227 180.0 0.0 121.0 
340.0004173742803 18876.0 342.0 769.7650962176494 0.4980980936337305 179.0 1.0 120.0 
350.0004173742803 18876.0 342.0 766.6914399469158 0.49795006985554563 179.0 1.0 119.0 
360.0004173742803 18904.0 342.0 766.7206370272078 0.49833116577076325 179.0 0.0 120.0 
370.0004173742803 18882.0 341.0 766.6994027869936 0.4979138266518181 178.0 1.0 119.0 
380.0004173742803 18900.0 341.0 766.7259455872606 0.499096855562272 178.0 1.0 119.0 
390.0004173742803 18903.0 341.0 769.757133377572 0.4981755253007644 179.0 0.0 121.0 
400.0004173742803 18898.0 341.0 769.8022561380237 0.49813333532135634 179.0 0.0 121.0 
410.0004173742803 18880.0 341.0 772.788321167882 0.4988602119137586 179.0 0.0 122.0 
420.0004173742803 18934.0 341.0 772.8334439283337 0.49809112714762543 178.0 1.0 121.0 
430.0004173742803 18998.0 342.0 772.7750497677517 0.4980170925552451 178.0 1.0 121.0 
440.0004173742803 19028.0 342.0 772.8334439283337 0.501466561652271 178.0 1.0 121.0 
450.0004173742803 19032.0 341.0 772.7750497677517 0.4981705145078962 178.0 1.0 121.0 
460.0004173742803 19048.0 341.0 772.8334439283337 0.49867868670777754 178.0 1.0 121.0 
470.0004173742803 19066.0 342.0 775.8248175182468 0.49831465697495086 178.0 1.0 122.0 
480.0004173742803 19070.0 342.0 775.8832116788344 0.49848836305922234 178.0 1.0 122.0 
490.0004173742803 19056.0 342.0 775.8433974784361 0.4982168681266639 177.0 1.0 122.0 
500.0004173742803 19048.0 342.0 775.8672859986739 0.4981363701752248 177.0 1.0 122.0 
510.0004173742803 19038.0 342.0 775.8593231585918 0.49816626205679404 177.0 1.0 122.0 
520.0004173742802 19038.0 342.0 775.8672859986739 0.49798668909143357 177.0 1.0 122.0 
530.0004173742802 19034.0 342.0 775.8540145985381 0.49794061675684476 178.0 0.0 123.0 
540.0004173742802 19022.0 341.0 775.8646317186452 0.49858213620537467 178.0 0.0 123.0 
550.0004173742802 19020.0 341.0 775.8540145985381 0.49817444129513283 178.0 0.0 123.0 
560.0004173742802 19018.0 341.0 775.8646317186452 0.4981440405466845 178.0 0.0 123.0 
570.0004173742802 19018.0 341.0 772.7989382879892 0.4981094861740273 178.0 0.0 122.0 
580.0004173742802 19052.0 341.0 778.9170537491691 0.4981840913226711 178.0 0.0 124.0 
590.0004173742802 19058.0 341.0 775.8487060384846 0.4977808827894979 177.0 1.0 122.0 
600.0004173742802 19096.0 343.0 778.9276708692761 0.4981583323402749 181.0 1.0 123.0 
610.0004173742802 19222.0 344.0 778.935633709354 0.4977465739041849 183.0 0.0 124.0 
620.0004173742802 19222.0 344.0 778.9542136695434 0.49776803521617385 183.0 0.0 124.0 
630.0004173742802 19302.0 344.0 788.1114797611172 0.49691642628000077 184.0 0.0 127.0 
640.0004173742802 19293.0 344.0 785.0564034505632 0.4980840006368349 182.0 1.0 125.0 
650.0004173742802 19310.0 344.0 791.137358991375 0.4979386941955139 180.0 1.0 127.0 
660.0004173742802 19276.0 344.0 797.3032514930305 0.4984070850361838 180.0 1.0 129.0 
#####################################################################
# End of data export. Simulation finished at: 2019-03-06T04:47+0000 #
#####################################################################
