#####################################################################
# Alchemist log file - simulation started at: 2019-03-09T14:52+0000 #
#####################################################################
# seed = 3.0, bandwidth = 1333521.4321633242, accessPointCount = 274.2481756762073, baserange = 1000.0
#
# The columns have the following meaning: 
# time neighbor_count[Sum] <value>@neighbor_count[Sum] packet_size[Mean] mean_delay[Mean] crowd[Sum] overcrowded[Sum] risk[Sum] 
0.0 NaN NaN NaN NaN NaN NaN NaN 
2.000492103963704 7198.0 3753.0 4984.914737436477 0.4744637203569764 1497.0 0.0 1497.0 
4.0001062113023105 11402.0 3962.0 4986.166007905138 0.5349825015898546 1497.0 0.0 1497.0 
6.000084666035003 15968.0 3980.0 4987.446640316206 0.5482368654762572 1497.0 0.0 1497.0 
8.000332755923248 20989.0 3977.0 4989.016374929419 0.5831283979985118 1497.0 0.0 1497.0 
10.00033353340315 24300.0 3940.0 4989.998870694523 0.5755386771583717 1497.0 0.0 1497.0 
12.00059236981081 25911.0 3839.0 4990.782608695652 0.5568370765698311 1495.0 2.0 1495.0 
14.00059236981081 25292.0 3748.0 4990.979107848673 0.49803776243789 1494.0 3.0 1494.0 
16.000084666035004 25292.0 3748.0 4991.119141727838 0.4980393327645132 1494.0 3.0 1494.0 
18.00059236981081 25292.0 3748.0 4991.14172783738 0.49804676964241884 1494.0 3.0 1494.0 
20.00033353340315 25292.0 3748.0 4991.11010728402 0.4980423834148238 1493.0 4.0 1493.0 
22.00059236981081 25294.0 3748.0 4990.787125917561 0.49805608006549335 1494.0 3.0 1494.0 
24.00059236981081 25298.0 3749.0 4990.72840203275 0.49917712233638917 1494.0 3.0 1494.0 
26.000084666035004 25298.0 3748.0 4990.895539243365 0.4983481883244913 1494.0 3.0 1494.0 
28.00059236981081 25326.0 3751.0 4991.112365894975 0.5018404577585913 1493.0 4.0 1493.0 
30.00033353340315 25287.0 3748.0 4990.963297571993 0.49879728005062546 1493.0 4.0 1493.0 
32.00059236981081 25286.0 3748.0 4990.963297571993 0.49866075809471255 1494.0 3.0 1494.0 
34.00059236981081 25288.0 3749.0 4990.832298136646 0.5002189851586327 1494.0 3.0 1494.0 
36.00008466603501 25426.0 3749.0 4990.863918690005 0.49945067642131996 1493.0 4.0 1493.0 
38.00059236981081 25440.0 3749.0 4991.202710333145 0.49966486075151423 1492.0 5.0 1492.0 
40.00033353340315 25423.0 3748.0 4990.98814229249 0.4987042912407986 1492.0 5.0 1492.0 
42.00059236981081 25422.0 3748.0 4990.807453416149 0.4985406489849188 1493.0 4.0 1493.0 
44.00059236981081 25427.0 3749.0 4991.015245623941 0.4982112974232259 1493.0 4.0 1493.0 
46.00008466603501 25432.0 3749.0 4990.931677018633 0.49851643010676383 1494.0 3.0 1494.0 
48.00059236981081 25442.0 3751.0 4990.918125352908 0.49970293700115154 1492.0 5.0 1492.0 
50.00033353340315 25432.0 3750.0 4991.022021456804 0.4985953101143971 1492.0 5.0 1492.0 
52.00059236981081 25448.0 3751.0 4990.839073969509 0.500015409406445 1488.0 9.0 1488.0 
54.00059236981081 25434.0 3750.0 4990.746470920384 0.49994354219547116 1489.0 8.0 1489.0 
56.00008466603501 25429.0 3749.0 4990.999435347261 0.49929792882061924 1492.0 5.0 1492.0 
58.00059236981081 25426.0 3749.0 4991.101072840203 0.4984994319102611 1489.0 8.0 1489.0 
60.00033353340315 25429.0 3749.0 4990.952004517222 0.49876490446402194 1490.0 7.0 1490.0 
62.00059236981081 25442.0 3750.0 1292.0790513834027 0.4981841820122536 765.0 5.0 338.0 
64.00059236981082 25448.0 3751.0 1292.092603049125 0.5011499547865106 589.0 12.0 331.0 
66.00008466603501 25455.0 3753.0 1291.9751552795015 0.5030592656258973 539.0 11.0 332.0 
68.00059236981082 25466.0 3751.0 1291.9457933370954 0.5031675721280818 506.0 13.0 330.0 
70.00033353340315 25449.0 3752.0 1294.4212309429693 0.5047602616997083 485.0 14.0 330.0 
72.00059236981082 25422.0 3750.0 1291.7854319593441 0.5007019337614573 480.0 15.0 328.0 
74.00049880774137 25438.0 3751.0 1291.8035008469772 0.5022171564591462 476.0 15.0 328.0 
76.00008466603501 25436.0 3752.0 1291.7108977978523 0.5021925957381883 476.0 13.0 330.0 
78.00025163527944 25489.0 3751.0 1296.892151326936 0.5033470476828101 475.0 13.0 332.0 
80.00025163527944 25457.0 3750.0 1296.9057029926578 0.500690171981761 471.0 12.0 333.0 
82.00025163527944 25474.0 3751.0 1296.874082439303 0.5023417683431405 469.0 14.0 331.0 
84.00025163527944 25454.0 3750.0 1296.9373235460218 0.5007414582658475 469.0 14.0 331.0 
86.00008466603501 25473.0 3750.0 1296.9102202145652 0.5009666753930385 472.0 12.0 333.0 
88.00025163527944 25488.0 3750.0 1296.8334274421243 0.5007569736205061 472.0 12.0 333.0 
90.00025163527944 25488.0 3750.0 1299.4827780914711 0.5009031925231225 473.0 11.0 335.0 
92.00025163527944 25510.0 3751.0 1299.5347261434265 0.5019945880033795 467.0 17.0 329.0 
94.00025163527944 25492.0 3750.0 1299.4376058723851 0.5009767003783044 472.0 12.0 334.0 
96.00008466603501 25504.0 3749.0 1302.0801806888755 0.5032533343384159 471.0 13.0 334.0 
98.00025163527944 25504.0 3752.0 1304.636928289101 0.5050576978103778 472.0 13.0 335.0 
100.00025163527944 25487.0 3750.0 1309.92659514399 0.5016845981206195 470.0 15.0 335.0 
102.00025163527944 25478.0 3749.0 1309.8678712591782 0.5007627063484202 471.0 14.0 336.0 
104.00025163527944 25476.0 3749.0 1309.9604743083032 0.5019590278173399 472.0 13.0 337.0 
106.00008466603501 25495.0 3750.0 1309.854319593447 0.5015023041921115 472.0 13.0 337.0 
108.00025163527944 25534.0 3750.0 1309.9017504234916 0.5030657730638961 471.0 13.0 337.0 
110.00025163527944 25438.0 3748.0 1309.9130434782585 0.5021522581684832 470.0 14.0 336.0 
112.00025163527944 25376.0 3749.0 1309.883681535853 0.501405085221055 471.0 13.0 337.0 
114.00025163527944 25392.0 3749.0 1309.928853754939 0.5006919152504103 472.0 13.0 337.0 
116.00008466603501 25456.0 3750.0 1312.4630152456248 0.5018143524580285 473.0 13.0 338.0 
118.00025163527944 25457.0 3748.0 1315.0378317334796 0.501843827566665 474.0 14.0 338.0 
120.00025163527944 25437.0 3748.0 1317.5990965556214 0.5006340212307795 476.0 13.0 340.0 
122.00025163527944 25443.0 3750.0 1317.6307171089763 0.5040126181610638 477.0 13.0 340.0 
124.00025163527944 25410.0 3748.0 1317.6623376623404 0.5008995451870251 474.0 16.0 337.0 
126.00008466603501 25412.0 3748.0 1317.7052512704686 0.5004620588801233 475.0 15.0 338.0 
128.00025163527945 25445.0 3750.0 1315.087521174476 0.5027547694044572 477.0 13.0 339.0 
130.00025163527945 25436.0 3749.0 1315.0604178430287 0.5008475571042121 477.0 13.0 339.0 
132.00025163527945 25495.0 3749.0 1317.6916996047462 0.5013063959442605 474.0 16.0 337.0 
134.00025163527945 25492.0 3748.0 1317.6442687747076 0.5008978772087619 470.0 18.0 335.0 
136.000084666035 25494.0 3748.0 1320.3365330321863 0.5012811547002384 467.0 19.0 335.0 
138.00025163527945 25492.0 3748.0 1322.8255223037818 0.5007513596082604 468.0 17.0 338.0 
140.00025163527945 25492.0 3748.0 1322.9723320158114 0.5008073085854288 467.0 19.0 336.0 
142.00025163527945 25510.0 3749.0 1325.4184076792794 0.5017863681171442 467.0 18.0 338.0 
144.00025163527945 25506.0 3749.0 1325.54037267081 0.5014518409611639 466.0 19.0 337.0 
146.000084666035 25512.0 3749.0 1317.750423489555 0.502806298279759 466.0 18.0 335.0 
148.00025163527945 25497.0 3748.0 1317.6826651609288 0.502119082786386 463.0 20.0 333.0 
150.00025163527945 25520.0 3750.0 1317.687182382836 0.5036742067064949 464.0 20.0 333.0 
152.00025163527945 25358.0 3748.0 1317.7255787690597 0.5003602476718709 463.0 21.0 332.0 
154.00025163527945 25358.0 3748.0 1315.107848673064 0.5004078290655481 465.0 19.0 333.0 
156.000084666035 25369.0 3749.0 1317.7368718238317 0.5018962203169454 463.0 21.0 332.0 
158.00025163527945 25363.0 3749.0 1322.823263692833 0.5016760061405594 463.0 21.0 334.0 
160.00025163527945 25364.0 3749.0 1322.875211744779 0.5015014404763056 462.0 22.0 333.0 
162.00025163527945 25383.0 3749.0 1322.8435911914148 0.5018341869586814 467.0 17.0 338.0 
164.00049880774137 25368.0 3748.0 1322.9655561829456 0.5007026647668039 467.0 17.0 338.0 
166.000084666035 25460.0 3750.0 1325.4184076792794 0.5034662264185938 473.0 14.0 342.0 
168.00049880774137 25314.0 3750.0 1328.065499717677 0.5045530175340791 471.0 18.0 339.0 
170.00033353340314 25178.0 3749.0 1328.0880858272176 0.5022474844832227 472.0 18.0 339.0 
172.00049880774137 25014.0 3748.0 1328.002258610958 0.5005560173237701 473.0 17.0 340.0 
174.00049880774137 25022.0 3749.0 1325.4771315640908 0.5008366154217341 476.0 14.0 342.0 
176.000084666035 25022.0 3749.0 1320.318464144554 0.5009095504798217 474.0 15.0 339.0 
178.00049880774137 25074.0 3750.0 1320.2190852625627 0.5021835211565049 472.0 17.0 337.0 
180.00033353340314 24927.0 3750.0 1320.2574816487838 0.5049202012115672 470.0 17.0 337.0 
182.00049880774137 24796.0 3749.0 1320.1806888763424 0.5014537733320632 469.0 18.0 336.0 
184.00049880774137 24739.0 3750.0 1320.2687747035598 0.5032725909020477 467.0 18.0 336.0 
186.000084666035 24642.0 3749.0 1320.250705815927 0.5011511376048554 469.0 16.0 338.0 
188.00049880774137 24647.0 3751.0 1320.3342744212282 0.5024989784163688 467.0 17.0 337.0 
190.00033353340314 24681.0 3751.0 1320.1445511010709 0.5027358862509979 463.0 19.0 335.0 
192.00049880774137 24539.0 3750.0 1317.6826651609288 0.5019283309046182 462.0 20.0 333.0 
194.00049880774137 24526.0 3750.0 1317.6781479390208 0.501742460677959 465.0 17.0 336.0 
196.000084666035 24523.0 3750.0 1315.0626764539782 0.5013672514827047 465.0 17.0 335.0 
198.00049880774137 24526.0 3751.0 1314.967814793904 0.5015437380324748 466.0 17.0 335.0 
200.00033353340314 24528.0 3750.0 1317.6871823828362 0.5016215108853597 464.0 18.0 335.0 
202.00049880774137 24570.0 3751.0 1322.7780914737466 0.5026270739624563 465.0 17.0 338.0 
204.00049880774137 24644.0 3753.0 1320.3252399774103 0.5070167238657646 464.0 18.0 336.0 
206.000084666035 24652.0 3752.0 1320.2461885940108 0.5052533072712794 463.0 19.0 335.0 
208.00049880774137 24364.0 3750.0 1320.2574816487838 0.5029685939515468 462.0 21.0 333.0 
210.00033353340314 24330.0 3749.0 1312.4494635799022 0.5014648318634324 468.0 17.0 334.0 
212.00049880774137 24351.0 3750.0 1312.4856013551646 0.5030780410723155 470.0 17.0 334.0 
214.00049880774137 24336.0 3752.0 1309.7368718238317 0.5033433117472921 468.0 17.0 333.0 
216.000084666035 24321.0 3751.0 1309.8701298701274 0.5033439448334386 465.0 18.0 332.0 
218.00049880774137 24313.0 3752.0 1309.8204404291337 0.5046758397057493 466.0 17.0 333.0 
220.00033353340314 24291.0 3750.0 1309.8204404291337 0.5016449288844229 464.0 17.0 333.0 
222.00049880774137 24300.0 3752.0 1309.72557876906 0.5056138529406795 462.0 18.0 332.0 
224.00049880774137 24050.0 3750.0 1307.293054771314 0.5009567114723052 461.0 20.0 329.0 
226.000084666035 24215.0 3756.0 1307.2072275550552 0.5064993234085776 465.0 15.0 334.0 
228.00049880774137 24055.0 3752.0 1309.8927159796767 0.5048457460399763 466.0 14.0 336.0 
230.00033353340314 24023.0 3754.0 1309.7978543195936 0.506663169052717 465.0 14.0 336.0 
232.00049880774137 23888.0 3751.0 1312.476566911347 0.5015422318526405 463.0 15.0 336.0 
234.00049880774137 23890.0 3752.0 1315.1214003387895 0.5015485019887661 465.0 12.0 340.0 
236.000084666035 23903.0 3753.0 1315.1349520045208 0.5032802034954084 465.0 14.0 338.0 
238.00049880774137 23940.0 3754.0 1312.3094297007306 0.5049447697005875 463.0 15.0 336.0 
240.00033353340314 23760.0 3752.0 1307.189158667416 0.5047841182116704 461.0 18.0 331.0 
242.00049880774137 23728.0 3751.0 1309.8204404291337 0.5013349855057074 463.0 15.0 335.0 
244.00049880774137 23731.0 3751.0 1312.4494635799024 0.5038033316999864 467.0 12.0 339.0 
246.000084666035 23858.0 3753.0 1315.0265386787153 0.5029599382968124 469.0 10.0 342.0 
248.00049880774137 23996.0 3752.0 1307.2907961603646 0.5025897613337372 466.0 12.0 337.0 
250.00033353340314 24053.0 3754.0 1307.2027103331477 0.5043029539974672 467.0 10.0 339.0 
252.00049880774137 23996.0 3751.0 1304.6504799548231 0.5010055895357456 464.0 12.0 336.0 
254.00049880774137 24070.0 3752.0 1304.5872388481046 0.5021336803591889 463.0 11.0 337.0 
256.00008466603504 24165.0 3752.0 1304.6956521739098 0.5025469241135673 465.0 12.0 336.0 
258.00049880774134 24112.0 3752.0 1304.643704121967 0.5021340464310974 463.0 14.0 334.0 
260.00033353340314 24106.0 3752.0 1304.6911349520021 0.5024467097197162 459.0 18.0 330.0 
262.00049880774134 24076.0 3751.0 1307.0920383963837 0.5009300839380678 460.0 16.0 333.0 
264.00049880774134 24140.0 3753.0 1307.293054771314 0.5039272313824298 466.0 10.0 339.0 
266.00008466603504 24021.0 3755.0 1315.1552795031032 0.5056388089093622 463.0 11.0 341.0 
268.00049880774134 23791.0 3752.0 1317.6736307171045 0.5046931270263034 463.0 12.0 341.0 
270.00033353340314 23743.0 3752.0 1315.019762845847 0.5024456486338104 462.0 11.0 341.0 
272.00049880774134 23716.0 3751.0 1315.1033314511567 0.5005596208591752 461.0 12.0 340.0 
274.00049880774134 23718.0 3752.0 1314.9904009034412 0.5007757155746654 460.0 13.0 339.0 
276.00008466603504 23742.0 3753.0 1315.0717108978017 0.5008660301112143 462.0 12.0 340.0 
278.00049880774134 23774.0 3752.0 1322.6832298136633 0.5012428927236983 466.0 12.0 343.0 
280.00033353340314 23730.0 3754.0 1322.7713156408786 0.5025672315634385 466.0 12.0 343.0 
282.00049880774134 23714.0 3756.0 1322.7125917560666 0.5059954242399614 466.0 11.0 344.0 
284.00049880774134 23614.0 3755.0 1322.8345567475974 0.5023783713033626 464.0 12.0 343.0 
286.00008466603504 23582.0 3754.0 1320.0564652738533 0.5030852340215802 465.0 11.0 343.0 
288.00049880774134 23484.0 3755.0 1320.176171654435 0.5011784949876112 464.0 12.0 342.0 
290.00033353340314 23501.0 3755.0 1322.7645398080215 0.5015853534854509 463.0 12.0 343.0 
292.00049880774134 23560.0 3756.0 1322.8277809147405 0.5037717830453985 464.0 12.0 343.0 
294.00049880774134 23393.0 3754.0 1322.7238848108425 0.5020848486954053 464.0 11.0 344.0 
296.00008466603504 23389.0 3755.0 1325.393562958781 0.5030833425360448 464.0 12.0 344.0 
298.00049880774134 23390.0 3753.0 1327.990965556185 0.5015632214391329 465.0 11.0 346.0 
300.00033353340314 23471.0 3755.0 1327.9593450028208 0.5053498926177871 464.0 12.0 345.0 
302.00049880774134 23309.0 3755.0 1328.0158102766834 0.5043686256875729 462.0 12.0 345.0 
304.00049880774134 23194.0 3754.0 1325.4680971202731 0.5014424184320005 460.0 12.0 344.0 
306.00008466603504 23244.0 3754.0 1322.8255223037818 0.5024831411354719 462.0 11.0 344.0 
308.00049880774134 23225.0 3756.0 1317.5426312817592 0.5043069435846483 463.0 11.0 342.0 
310.00033353340314 23106.0 3754.0 1320.1535855448858 0.5022454330919925 462.0 9.0 345.0 
312.00049880774134 23118.0 3754.0 1317.6103896103857 0.5016005595909256 461.0 10.0 343.0 
314.00049880774134 23001.0 3754.0 1320.239412761154 0.5022610955978202 461.0 10.0 344.0 
316.00008466603504 23004.0 3754.0 1320.1987577639723 0.5022843151304807 463.0 10.0 344.0 
318.00049880774134 23002.0 3755.0 1322.6425748164907 0.5013871253767892 464.0 9.0 346.0 
320.00033353340314 23010.0 3755.0 1322.7442123094336 0.5037677371565543 462.0 10.0 345.0 
322.00049880774134 23051.0 3753.0 1325.384528514966 0.5004902848181336 463.0 9.0 347.0 
324.00049880774134 23203.0 3757.0 1325.3506493506522 0.5040900748237344 464.0 10.0 346.0 
326.00008466603504 23262.0 3756.0 1325.3574251835093 0.5024847703212674 465.0 10.0 346.0 
328.00049880774134 23250.0 3755.0 1322.7419536984723 0.5020536747974661 463.0 10.0 345.0 
330.00033353340314 23244.0 3756.0 1314.9474872953126 0.5043031133342959 463.0 9.0 343.0 
332.00049880774134 23188.0 3753.0 1312.4336533032188 0.5016048709211507 462.0 10.0 341.0 
334.00049880774134 23192.0 3755.0 1312.4020327498545 0.5015146971206312 463.0 9.0 342.0 
336.00008466603504 23187.0 3754.0 1304.6053077357462 0.500545887988221 461.0 10.0 338.0 
338.00049880774134 23283.0 3755.0 1304.51044607566 0.5012262063290805 458.0 10.0 338.0 
340.00033353340314 23287.0 3754.0 1301.9491812535302 0.5014023310810977 457.0 10.0 337.0 
342.00049880774134 23278.0 3754.0 1299.270468661774 0.5007280250106282 458.0 9.0 337.0 
344.00049880774134 23291.0 3755.0 1304.6211180124267 0.5024512019878768 461.0 10.0 338.0 
346.00008466603504 23340.0 3755.0 1307.143986448336 0.5027618291935716 462.0 9.0 340.0 
348.00049880774134 23319.0 3756.0 1307.0965556182912 0.5038653653499516 458.0 10.0 339.0 
350.00033353340314 23294.0 3754.0 1304.4856013551646 0.5009125869572433 459.0 10.0 338.0 
352.00049880774134 23294.0 3754.0 1304.5488424618836 0.5009284306124002 459.0 10.0 338.0 
354.00049880774134 23295.0 3754.0 1304.5352907961583 0.5008523609373243 460.0 9.0 339.0 
356.00008466603504 23298.0 3755.0 1304.5962732919281 0.5014693194270012 458.0 10.0 338.0 
358.00049880774134 23290.0 3755.0 1304.5217391304363 0.5041103856046668 457.0 9.0 339.0 
360.00033353340314 23255.0 3756.0 1307.1597967250104 0.5034493093468051 457.0 10.0 339.0 
362.00049880774134 23241.0 3756.0 1304.553359683791 0.5039402901742644 458.0 10.0 338.0 
364.00049880774134 23202.0 3754.0 1301.9627329192524 0.5012575812905262 457.0 10.0 337.0 
366.00008466603504 23201.0 3754.0 1283.6860530773538 0.5015208557636666 458.0 10.0 330.0 
368.00049880774134 23222.0 3755.0 1278.5974025974047 0.5030765120425291 457.0 10.0 328.0 
370.00033353340314 23223.0 3758.0 1283.7989836250692 0.5074677540072758 458.0 9.0 331.0 
372.00049880774134 22993.0 3756.0 1283.6928289102195 0.5020483352988468 458.0 10.0 330.0 
374.00049880774134 22965.0 3754.0 1283.717673630718 0.5017755776979733 458.0 10.0 330.0 
376.00008466603504 22991.0 3757.0 1283.7651044607533 0.5031944738178649 459.0 10.0 330.0 
378.00049880774134 22969.0 3755.0 1283.7063805759446 0.5007841014218977 462.0 9.0 331.0 
380.00033353340314 22971.0 3754.0 1283.747035573124 0.5007695248510281 459.0 10.0 330.0 
382.00049880774134 22994.0 3755.0 1283.717673630718 0.5011706665563599 459.0 9.0 331.0 
384.00049880774134 23012.0 3756.0 1288.9644268774694 0.5030912171228495 462.0 10.0 332.0 
386.00008466603504 23023.0 3757.0 1299.4105025409376 0.5044986963896415 461.0 10.0 336.0 
388.00049880774134 23152.0 3755.0 1289.0344438170546 0.5032622289058241 459.0 10.0 332.0 
390.00033353340314 23112.0 3755.0 1283.7786561264788 0.50321925008852 459.0 9.0 331.0 
392.00049880774134 23016.0 3754.0 1286.4257481648765 0.5007214584718068 458.0 12.0 329.0 
394.00049880774134 23016.0 3754.0 1286.448334274417 0.5011978614147111 459.0 11.0 330.0 
396.00008466603504 23014.0 3755.0 1286.3715415019724 0.5016941027643306 459.0 12.0 329.0 
398.00049880774134 23009.0 3754.0 1286.3354037267102 0.502406569341551 461.0 11.0 330.0 
400.00033353340314 23018.0 3755.0 1286.4325239977425 0.5020933109110394 461.0 11.0 330.0 
402.00049880774134 23045.0 3755.0 1286.3060417843044 0.5020876568291037 462.0 10.0 331.0 
404.00049880774134 23208.0 3758.0 1291.6363636363662 0.5054228639427846 463.0 12.0 331.0 
406.00008466603504 23209.0 3757.0 1291.6115189158675 0.5039276694847215 465.0 10.0 333.0 
408.00049880774134 23150.0 3754.0 1291.5121400338771 0.5038753476910801 463.0 11.0 332.0 
410.00033353340314 23223.0 3758.0 1294.1140598531888 0.5042534685183822 465.0 9.0 335.0 
412.00049880774134 23213.0 3756.0 1288.9350649350636 0.5020166705672496 466.0 10.0 332.0 
414.00049880774134 23245.0 3758.0 1286.3376623376594 0.5058316339905792 466.0 10.0 331.0 
416.00008466603504 23099.0 3756.0 1286.3150762281225 0.5025129482371637 466.0 11.0 330.0 
418.00049880774134 22990.0 3755.0 1286.3896103896143 0.502921597722129 466.0 10.0 331.0 
420.00033353340314 22986.0 3757.0 1283.6973461321268 0.5055200207300449 466.0 11.0 329.0 
422.00049880774134 22908.0 3754.0 1270.72840203275 0.5012923719260558 467.0 10.0 325.0 
424.00049880774134 22934.0 3754.0 1268.1468097120292 0.5029927958962224 463.0 11.0 323.0 
426.00008466603504 22931.0 3755.0 1275.873517786562 0.5024602768347284 459.0 11.0 326.0 
428.00049880774134 22932.0 3755.0 1270.6674195369897 0.50259787718794 458.0 11.0 324.0 
430.00033353340314 22958.0 3757.0 1270.6832298136633 0.5041048903401372 458.0 11.0 324.0 
432.00049880774134 22914.0 3754.0 1268.076792772441 0.5010572694940226 458.0 10.0 324.0 
434.00049880774134 22921.0 3754.0 1265.492941840772 0.501216407462933 458.0 11.0 322.0 
436.00008466603504 22948.0 3755.0 1275.9548277809135 0.5021918711697989 464.0 10.0 327.0 
438.00049880774134 23001.0 3756.0 1281.029926595147 0.5039046029456327 467.0 8.0 331.0 
440.00033353340314 22916.0 3755.0 1278.522868435909 0.5031916172481569 463.0 10.0 328.0 
442.00049880774134 22886.0 3755.0 1281.0773574251857 0.5018211258178085 467.0 8.0 331.0 
444.00049880774134 22878.0 3755.0 1281.1157538114062 0.50088437713742 462.0 11.0 328.0 
446.00008466603504 22917.0 3756.0 1281.0457368718212 0.5024120255531173 461.0 11.0 328.0 
448.00049880774134 22997.0 3758.0 1286.3241106719372 0.5069260065690698 463.0 12.0 329.0 
450.00033353340314 22967.0 3757.0 1288.8605307735718 0.504764107575087 467.0 9.0 333.0 
452.00049880774134 22976.0 3756.0 1291.5076228119692 0.5026761719225838 464.0 11.0 332.0 
454.00049880774134 22951.0 3757.0 1291.435347261436 0.5023769758111938 464.0 10.0 333.0 
456.00008466603504 22946.0 3755.0 1291.446640316209 0.5022990735542205 461.0 12.0 331.0 
458.00049880774134 23010.0 3756.0 1291.4782608695639 0.502848990905659 464.0 10.0 333.0 
460.00033353340314 22991.0 3756.0 1291.5482778091487 0.5027137296451462 464.0 11.0 332.0 
462.00049880774134 22970.0 3755.0 1293.9830604178435 0.500791961050478 464.0 10.0 334.0 
464.00049880774134 22974.0 3756.0 1294.0688876341026 0.5019503420260683 461.0 12.0 332.0 
466.00008466603504 22974.0 3756.0 1291.408243929979 0.5022160867452652 465.0 9.0 334.0 
468.00049880774134 22984.0 3757.0 1291.4150197628446 0.5027872760641527 462.0 11.0 332.0 
470.00033353340314 22969.0 3756.0 1291.4105025409376 0.5035669216025728 459.0 11.0 332.0 
472.00049880774134 22979.0 3757.0 1281.1564088085852 0.5026385408364212 457.0 12.0 327.0 
474.00049880774134 22894.0 3757.0 1281.0141163184664 0.5042861175489486 458.0 9.0 330.0 
476.00008466603504 22857.0 3756.0 1278.4618859401487 0.5017924757548651 454.0 11.0 327.0 
478.00049880774134 22849.0 3757.0 1273.1699604743103 0.5017876215807325 455.0 11.0 325.0 
480.00033353340314 22861.0 3758.0 1275.8351214003414 0.5051268675339935 449.0 13.0 324.0 
482.00049880774134 22836.0 3754.0 1275.8170525127086 0.5004730060640727 451.0 11.0 326.0 
484.00049880774134 22838.0 3755.0 1268.1197063805723 0.5007731418132901 451.0 12.0 322.0 
486.00008466603504 22843.0 3757.0 1265.386787125915 0.5043133180481567 452.0 11.0 322.0 
488.00049880774134 22818.0 3755.0 1257.6781479390215 0.5012457532534832 449.0 13.0 317.0 
490.00033353340314 22821.0 3754.0 1255.0942970073422 0.5013683865878736 453.0 11.0 318.0 
492.00049880774134 22825.0 3756.0 1249.8136645962752 0.5031928445725763 448.0 15.0 312.0 
494.00049880774134 22750.0 3756.0 1255.017504234898 0.5023739213692597 442.0 16.0 313.0 
496.00008466603504 22827.0 3757.0 1252.5488424618832 0.5027891240160489 439.0 17.0 311.0 
498.00049880774134 22890.0 3755.0 1252.4562394127584 0.5032732606638266 441.0 15.0 313.0 
500.00033353340314 22871.0 3755.0 1252.487859966123 0.502025594874022 438.0 16.0 312.0 
502.00049880774134 22860.0 3754.0 1244.6301524562418 0.5005886349261609 445.0 14.0 311.0 
504.00049880774134 22870.0 3755.0 1242.0237154150225 0.501910360458603 447.0 13.0 311.0 
506.00008466603504 22845.0 3754.0 1244.7069452286862 0.5011963449587967 447.0 12.0 313.0 
508.0005515929632 22803.0 3755.0 1242.1727837380004 0.5031060150437792 445.0 11.0 313.0 
510.00033353340314 22764.0 3757.0 1239.4150197628446 0.504148965363986 445.0 11.0 312.0 
512.0005515929632 22790.0 3756.0 1242.0508187464698 0.5033917784852285 439.0 15.0 309.0 
514.0005515929632 22788.0 3756.0 1244.6685488424653 0.5040129232357637 445.0 10.0 315.0 
516.000084666035 22742.0 3755.0 1244.6933935629606 0.5009695177305962 446.0 9.0 316.0 
518.0005515929632 22788.0 3755.0 1236.889892715977 0.5033201127445732 440.0 8.0 314.0 
520.0003335334031 22770.0 3756.0 1234.389610389615 0.5034876405113268 440.0 9.0 312.0 
522.0005515929632 22782.0 3756.0 1231.7380011293092 0.503499210796114 441.0 8.0 312.0 
524.0005515929632 22659.0 3754.0 1224.0429136081277 0.5016421823442869 432.0 11.0 306.0 
526.000084666035 22701.0 3755.0 1221.375494071149 0.5020331200331412 436.0 9.0 307.0 
528.0005515929632 22746.0 3757.0 1226.5951439864452 0.5052667454651982 435.0 9.0 309.0 
530.0003335334031 22734.0 3757.0 1229.1541501976264 0.5048627238078265 434.0 10.0 309.0 
532.0005515929632 22721.0 3754.0 1237.0841332580412 0.5025330509867172 441.0 11.0 311.0 
534.0005515929632 22719.0 3756.0 1236.9328063241157 0.5034411472680153 441.0 10.0 312.0 
536.000084666035 22711.0 3755.0 1237.0773574251857 0.5017455015916105 440.0 11.0 311.0 
538.0005515929632 22714.0 3756.0 1237.0615471485016 0.5025328608087133 442.0 9.0 313.0 
540.0003335334031 22715.0 3755.0 1236.9779785431938 0.5011054841523916 441.0 9.0 313.0 
542.0005515929632 22763.0 3757.0 1236.9937888198754 0.5038087488968879 442.0 10.0 312.0 
544.0005515929632 22685.0 3757.0 1239.6047430830017 0.5030586793318195 443.0 11.0 312.0 
546.000084666035 22777.0 3758.0 1247.3608130999403 0.5036313433313594 445.0 10.0 316.0 
548.0005515929632 22845.0 3757.0 1247.4014680971227 0.5036087313601888 445.0 11.0 315.0 
550.0003335334031 22822.0 3755.0 1242.1501976284612 0.5018338178216872 446.0 9.0 315.0 
552.0005515929632 22837.0 3757.0 1247.2659514398674 0.5036822510680924 451.0 9.0 317.0 
554.0005515929632 22807.0 3755.0 1249.8972332015846 0.5020894840624205 453.0 10.0 317.0 
556.000084666035 22835.0 3756.0 1249.9559570863964 0.5036560471395322 454.0 11.0 316.0 
558.0005515929632 22791.0 3759.0 1247.2659514398667 0.5073334501679315 455.0 10.0 316.0 
560.0003335334031 22675.0 3756.0 1236.898927159792 0.5029977690211648 452.0 11.0 311.0 
562.0005515929632 22699.0 3757.0 1236.9373235460232 0.5028776277906202 453.0 9.0 313.0 
564.0002516352795 22826.0 3758.0 1239.4692264257494 0.5061242825648171 453.0 9.0 314.0 
566.000084666035 22779.0 3760.0 1242.0485601355224 0.508034161007365 455.0 10.0 314.0 
568.0002516352795 22680.0 3755.0 1244.6911349520021 0.5013220596051535 454.0 11.0 314.0 
570.0002516352795 22679.0 3755.0 1244.6256352343355 0.5015401408536347 457.0 10.0 315.0 
572.0002516352795 22704.0 3757.0 1244.6595143986488 0.5025843636439511 454.0 13.0 312.0 
574.0002516352795 22740.0 3759.0 1247.2862789384471 0.5044380390260037 453.0 11.0 315.0 
576.000084666035 22576.0 3755.0 1254.9949181253512 0.5030464291936539 459.0 11.0 318.0 
578.0002516352795 22637.0 3756.0 1255.0333145115717 0.5020504063855344 457.0 12.0 317.0 
580.0002516352795 22676.0 3756.0 1257.662337662341 0.5036665145908809 458.0 13.0 317.0 
582.0002516352795 22676.0 3758.0 1255.012987012991 0.5059326376005383 455.0 12.0 317.0 
584.0002516352795 22643.0 3757.0 1252.4968944099376 0.5047713707054238 457.0 13.0 315.0 
586.000084666035 22650.0 3756.0 1255.1168831168811 0.5034250643304579 455.0 11.0 318.0 
588.0002516352795 22728.0 3755.0 1257.6533032185234 0.5021848934309041 456.0 11.0 319.0 
590.0002516352795 22706.0 3756.0 1262.780350084695 0.5038068360841449 461.0 12.0 320.0 
592.0002516352795 22692.0 3755.0 1262.8571428571468 0.5045324682596847 461.0 13.0 319.0 
594.0002516352795 22582.0 3754.0 1260.1761716544352 0.5021215806736118 465.0 12.0 319.0 
596.000084666035 22578.0 3755.0 1257.6487859966153 0.5022418116450856 464.0 13.0 317.0 
598.0002516352795 22724.0 3755.0 1255.0446075663451 0.5028033536179214 467.0 11.0 318.0 
600.0002516352795 22801.0 3758.0 1260.2145680406559 0.5045982620198481 469.0 11.0 320.0 
602.0002516352795 22838.0 3758.0 1257.6645962732894 0.5080517852060464 470.0 12.0 318.0 
604.0002516352795 22669.0 3756.0 1255.0423489553964 0.5037990715436174 470.0 14.0 315.0 
606.000084666035 22706.0 3754.0 1254.9497459062716 0.5025604687826761 469.0 12.0 317.0 
608.0002516352795 22691.0 3753.0 1260.205533596841 0.5034583671435273 472.0 11.0 320.0 
610.0002516352795 22730.0 3755.0 1268.0790513834029 0.505652455327389 473.0 10.0 324.0 
612.0002516352795 22714.0 3753.0 1270.6335403726666 0.5038550064156311 475.0 9.0 326.0 
614.0002516352795 22569.0 3751.0 1270.6041784302608 0.5023753732861296 473.0 11.0 324.0 
616.000084666035 22718.0 3753.0 1270.6403162055321 0.5039523472513735 474.0 11.0 324.0 
618.0002516352795 22699.0 3754.0 1262.8119706380603 0.5045805316635517 471.0 13.0 319.0 
620.0002516352795 22630.0 3752.0 1268.074534161492 0.5066138598586442 468.0 15.0 319.0 
622.0002516352795 22618.0 3751.0 1270.6741953698452 0.5054014306169927 468.0 12.0 323.0 
624.0002516352795 22456.0 3752.0 1270.6832298136637 0.5028051797879881 463.0 13.0 322.0 
626.000084666035 22434.0 3753.0 1283.6770186335389 0.502829411428854 460.0 14.0 326.0 
628.0002516352795 22451.0 3754.0 1286.3037831733461 0.5036538573785849 465.0 14.0 327.0 
630.0002516352795 22471.0 3755.0 1283.6092603049092 0.504263567493333 466.0 14.0 326.0 
632.0002516352795 22448.0 3755.0 1288.937323546022 0.5043386035078217 463.0 15.0 327.0 
634.0002516352795 22400.0 3754.0 1291.462450592883 0.5032538297555004 465.0 12.0 331.0 
636.000084666035 22400.0 3754.0 1291.4308300395287 0.5027899615495384 467.0 13.0 330.0 
638.0002516352795 22516.0 3756.0 1291.3337097684964 0.5055089069426257 467.0 14.0 329.0 
640.0002516352795 22269.0 3754.0 1291.4511575381168 0.5057052759349839 468.0 14.0 329.0 
642.0002516352795 22201.0 3755.0 1291.4534161490653 0.5027789057051655 469.0 14.0 329.0 
644.0002516352795 22128.0 3754.0 1286.3444381705283 0.5033423362484996 467.0 15.0 326.0 
646.000084666035 22134.0 3755.0 1286.2315076228124 0.5034025558376529 466.0 12.0 329.0 
648.0002516352795 22091.0 3753.0 1291.496329757196 0.502180465110883 463.0 13.0 330.0 
650.0002516352795 22101.0 3754.0 1294.1072840203224 0.5047930841495831 459.0 14.0 330.0 
652.0002516352795 22073.0 3752.0 1291.5550536420074 0.5031919735934732 459.0 14.0 329.0 
654.0002516352795 22075.0 3756.0 1291.4760022586158 0.5047166486747588 460.0 14.0 329.0 
656.000084666035 22109.0 3756.0 1291.5415019762827 0.5065546377973416 459.0 15.0 328.0 
658.0002516352795 22057.0 3756.0 1299.2975719932215 0.505992216141419 461.0 12.0 334.0 
660.0002516352795 22004.0 3754.0 1304.5443252399755 0.5051701965045436 461.0 13.0 335.0 
662.0000194546678 21990.0 3753.0 1304.4856013551637 0.5029525364764071 461.0 14.0 334.0 
664.0002516352795 22017.0 3755.0 1301.9220779220725 0.5078871878830894 462.0 14.0 333.0 
#####################################################################
# End of data export. Simulation finished at: 2019-03-09T15:16+0000 #
#####################################################################
