#####################################################################
# Alchemist log file - simulation started at: 2019-03-11T04:13+0000 #
#####################################################################
# seed = 4.0, bandwidth = 316227.76601683797, accessPointCount = 141.4213562373095, baserange = 17.78279410038923
#
# The columns have the following meaning: 
# time neighbor_count[Sum] <value>@neighbor_count[Sum] packet_size[Mean] mean_delay[Mean] crowd[Sum] overcrowded[Sum] risk[Sum] 
0.0 NaN NaN NaN NaN NaN NaN NaN 
2.0000042429967895 6.0 3.0 4986.002442002442 0.48422023447575985 1497.0 0.0 1497.0 
4.0000042429967895 6.0 3.0 4986.068376068376 0.4841443398119156 1497.0 0.0 1497.0 
6.0000042429967895 6.0 3.0 4986.01221001221 0.4841654216629836 1497.0 0.0 1497.0 
8.00000424299679 6.0 3.0 4986.04884004884 0.4841801789587312 1497.0 0.0 1497.0 
10.00000424299679 6.0 3.0 4986.046398046398 0.48415698892255676 1497.0 0.0 1497.0 
12.00000424299679 6.0 3.0 4986.007326007326 0.4841970444395856 1497.0 0.0 1497.0 
14.00000424299679 6.0 3.0 4986.056166056166 0.4841843953289449 1497.0 0.0 1497.0 
16.000004242996788 6.0 3.0 4986.056166056166 0.4841590971076635 1497.0 0.0 1497.0 
18.000004242996788 6.0 3.0 4986.004884004884 0.4841886116991567 1497.0 0.0 1497.0 
20.000004242996788 6.0 3.0 4986.053724053724 0.4841822871438364 1497.0 0.0 1497.0 
22.000004242996788 6.0 3.0 4986.046398046398 0.4841548807374482 1497.0 0.0 1497.0 
24.000004242996788 6.0 3.0 4986.026862026862 0.4841696380331957 1497.0 0.0 1497.0 
26.000004242996788 6.0 3.0 4986.04884004884 0.48418439532894314 1497.0 0.0 1497.0 
28.000004242996788 6.0 3.0 4986.019536019536 0.4841801789587296 1497.0 0.0 1497.0 
30.000004242996788 6.0 3.0 4986.026862026862 0.48415909710766175 1497.0 0.0 1497.0 
32.00000424299679 6.0 3.0 4986.051282051282 0.4841886116991567 1497.0 0.0 1497.0 
34.00000424299679 6.0 3.0 4986.019536019536 0.48419071988426526 1497.0 0.0 1497.0 
36.00000424299679 6.0 3.0 4986.029304029304 0.484159097107663 1497.0 0.0 1497.0 
38.00000424299679 6.0 3.0 4986.051282051282 0.4841865035140505 1497.0 0.0 1497.0 
40.00000424299679 6.0 3.0 4986.0317460317465 0.48419071988426526 1497.0 0.0 1497.0 
42.00000424299679 6.0 3.0 4986.0317460317465 0.484152772552342 1497.0 0.0 1497.0 
44.00000424299679 6.0 3.0 4986.041514041514 0.6508489538105037 1497.0 0.0 1497.0 
46.00000424299679 5.0 3.0 4986.053724053724 0.9717106263975979 1497.0 0.0 1497.0 
48.00000424299679 4.0 2.0 4986.009768009768 0.4841285284236143 1497.0 0.0 1497.0 
50.00000424299679 4.0 2.0 4985.992673992674 0.48420758536511777 1497.0 0.0 1497.0 
52.00000424299679 4.0 2.0 4986.0317460317465 0.4841380152565957 1497.0 0.0 1497.0 
54.00000424299679 4.0 2.0 4986.007326007326 0.48413485297893466 1497.0 0.0 1497.0 
56.00000424299679 4.0 2.0 4985.992673992674 0.4842233967534195 1497.0 0.0 1497.0 
58.00000424299679 4.0 2.0 4986.034188034188 0.4841380152565957 1497.0 0.0 1497.0 
60.00000424299679 4.0 2.0 4983.221001221002 0.4841316907012736 1497.0 0.0 1497.0 
62.00000424299679 4.0 2.0 400.0 0.49873508893593055 2.0 0.0 0.0 
64.0000042429968 4.0 2.0 400.0 0.49873508893593055 2.0 0.0 0.0 
66.0000042429968 4.0 2.0 400.0 0.49873508893593055 1.0 0.0 0.0 
68.0000042429968 4.0 2.0 400.0 0.49873508893593055 0.0 0.0 0.0 
70.0000042429968 4.0 2.0 400.0 0.49873508893593055 0.0 0.0 0.0 
72.0000042429968 4.0 2.0 400.0 0.49873508893593055 0.0 0.0 0.0 
74.0000042429968 4.0 2.0 400.0 0.49873508893593055 0.0 0.0 0.0 
76.0000042429968 4.0 2.0 400.0 0.49873508893593055 0.0 0.0 0.0 
78.0000042429968 4.0 2.0 400.0 0.49873508893593055 0.0 0.0 0.0 
80.0000042429968 4.0 2.0 400.0 0.49873508893593055 0.0 0.0 0.0 
82.0000042429968 4.0 2.0 400.0 0.49873508893593055 0.0 0.0 0.0 
84.0000042429968 4.0 2.0 400.0 0.49873508893593055 0.0 0.0 0.0 
86.0000042429968 4.0 2.0 400.0 0.49873508893593055 0.0 0.0 0.0 
88.0000042429968 4.0 2.0 400.0 0.49873508893593055 0.0 0.0 0.0 
90.0000042429968 4.0 2.0 400.0 0.49873508893593055 0.0 0.0 0.0 
92.0000042429968 4.0 2.0 400.0 0.49873508893593055 0.0 0.0 0.0 
94.0000042429968 4.0 2.0 400.0 0.49873508893593055 0.0 0.0 0.0 
96.0000042429968 4.0 2.0 400.0 0.49873508893593055 0.0 0.0 0.0 
98.0000042429968 4.0 2.0 400.0 0.49873508893593055 0.0 0.0 0.0 
100.0000042429968 4.0 2.0 400.0 0.49873508893593055 0.0 0.0 0.0 
102.0000042429968 4.0 2.0 400.0 0.49873508893593055 0.0 0.0 0.0 
104.0000042429968 4.0 2.0 400.0 0.49873508893593055 0.0 0.0 0.0 
106.0000042429968 4.0 2.0 400.0 0.49873508893593055 0.0 0.0 0.0 
108.0000042429968 4.0 2.0 400.0 0.49873508893593055 0.0 0.0 0.0 
110.0000042429968 4.0 2.0 400.0 0.49873508893593055 0.0 0.0 0.0 
112.0000042429968 4.0 2.0 400.0 0.49873508893593055 0.0 0.0 0.0 
114.0000042429968 4.0 2.0 400.0 0.49873508893593055 0.0 0.0 0.0 
116.0000042429968 4.0 2.0 400.0 0.49873508893593055 0.0 0.0 0.0 
118.0000042429968 4.0 2.0 400.0 0.49873508893593055 0.0 0.0 0.0 
120.0000042429968 4.0 2.0 400.0 0.49873508893593055 0.0 0.0 0.0 
122.0000042429968 4.0 2.0 400.0 0.49873508893593055 0.0 0.0 0.0 
124.0000042429968 4.0 2.0 400.0 0.49873508893593055 0.0 0.0 0.0 
126.0000042429968 4.0 2.0 400.0 0.49873508893593055 0.0 0.0 0.0 
128.0000042429968 4.0 2.0 400.0 0.49873508893593055 0.0 0.0 0.0 
130.0000042429968 4.0 2.0 400.0 0.49873508893594476 0.0 0.0 0.0 
132.0000042429968 4.0 2.0 400.0 0.49873508893594476 0.0 0.0 0.0 
134.0000042429968 4.0 2.0 400.0 0.49873508893594476 0.0 0.0 0.0 
136.0000042429968 4.0 2.0 400.0 0.49873508893594476 0.0 0.0 0.0 
138.0000042429968 4.0 2.0 400.0 0.49873508893594476 0.0 0.0 0.0 
140.0000042429968 4.0 2.0 400.0 0.49873508893594476 0.0 0.0 0.0 
142.0000042429968 4.0 2.0 400.0 0.49873508893594476 0.0 0.0 0.0 
144.0000042429968 4.0 2.0 400.0 0.49873508893594476 0.0 0.0 0.0 
146.0000042429968 4.0 2.0 400.0 0.49873508893594476 0.0 0.0 0.0 
148.0000042429968 4.0 2.0 400.0 0.49873508893594476 0.0 0.0 0.0 
150.0000042429968 4.0 2.0 400.0 0.49873508893594476 0.0 0.0 0.0 
152.0000042429968 4.0 2.0 400.0 0.49873508893594476 0.0 0.0 0.0 
154.0000042429968 4.0 2.0 400.0 0.49873508893594476 0.0 0.0 0.0 
156.0000042429968 4.0 2.0 400.0 0.49873508893594476 0.0 0.0 0.0 
158.0000042429968 4.0 2.0 400.0 0.49873508893594476 0.0 0.0 0.0 
160.0000042429968 4.0 2.0 400.0 0.49873508893594476 0.0 0.0 0.0 
162.0000042429968 4.0 2.0 400.0 0.49873508893594476 0.0 0.0 0.0 
164.0000042429968 4.0 2.0 400.0 0.49873508893594476 0.0 0.0 0.0 
166.0000042429968 4.0 2.0 400.0 0.49873508893594476 0.0 0.0 0.0 
168.0000042429968 4.0 2.0 400.0 0.49873508893594476 0.0 0.0 0.0 
170.0000042429968 4.0 2.0 400.0 0.49873508893594476 0.0 0.0 0.0 
172.0000042429968 4.0 2.0 400.0 0.49873508893594476 0.0 0.0 0.0 
174.0000042429968 4.0 2.0 400.0 0.49873508893594476 0.0 0.0 0.0 
176.0000042429968 4.0 2.0 400.0 0.49873508893594476 0.0 0.0 0.0 
178.0000042429968 4.0 2.0 400.0 0.49873508893594476 0.0 0.0 0.0 
180.0000042429968 4.0 2.0 400.0 0.49873508893594476 0.0 0.0 0.0 
182.0000042429968 4.0 2.0 400.0 0.49873508893594476 0.0 0.0 0.0 
184.0000042429968 4.0 2.0 400.0 0.49873508893594476 0.0 0.0 0.0 
186.0000042429968 4.0 2.0 400.0 0.49873508893594476 0.0 0.0 0.0 
188.0000042429968 4.0 2.0 400.0 0.49873508893594476 0.0 0.0 0.0 
190.0000042429968 4.0 2.0 400.0 0.49873508893594476 0.0 0.0 0.0 
192.0000042429968 4.0 2.0 400.0 0.49873508893594476 0.0 0.0 0.0 
194.0000042429968 4.0 2.0 400.0 0.49873508893594476 0.0 0.0 0.0 
196.0000042429968 4.0 2.0 400.0 0.49873508893594476 0.0 0.0 0.0 
198.0000042429968 4.0 2.0 400.0 0.49873508893594476 0.0 0.0 0.0 
200.0000042429968 4.0 2.0 400.0 0.49873508893594476 0.0 0.0 0.0 
202.0000042429968 4.0 2.0 400.0 0.49873508893594476 0.0 0.0 0.0 
204.0000042429968 4.0 2.0 400.0 0.49873508893594476 0.0 0.0 0.0 
206.0000042429968 4.0 2.0 400.0 0.49873508893594476 0.0 0.0 0.0 
208.0000042429968 4.0 2.0 400.0 0.49873508893594476 0.0 0.0 0.0 
210.0000042429968 4.0 2.0 400.0 0.49873508893594476 0.0 0.0 0.0 
212.0000042429968 4.0 2.0 400.0 0.49873508893594476 0.0 0.0 0.0 
214.0000042429968 4.0 2.0 400.0 0.49873508893594476 0.0 0.0 0.0 
216.0000042429968 4.0 2.0 400.0 0.49873508893594476 0.0 0.0 0.0 
218.0000042429968 4.0 2.0 400.0 0.49873508893594476 0.0 0.0 0.0 
220.0000042429968 4.0 2.0 400.0 0.49873508893594476 0.0 0.0 0.0 
222.0000042429968 4.0 2.0 400.0 0.49873508893594476 0.0 0.0 0.0 
224.0000042429968 4.0 2.0 400.0 0.49873508893594476 0.0 0.0 0.0 
226.0000042429968 4.0 2.0 400.0 0.49873508893594476 0.0 0.0 0.0 
228.0000042429968 4.0 2.0 400.0 0.49873508893594476 0.0 0.0 0.0 
230.0000042429968 4.0 2.0 400.0 0.49873508893594476 0.0 0.0 0.0 
232.0000042429968 4.0 2.0 400.0 0.49873508893594476 0.0 0.0 0.0 
234.0000042429968 4.0 2.0 400.0 0.49873508893594476 0.0 0.0 0.0 
236.0000042429968 4.0 2.0 400.0 0.49873508893594476 0.0 0.0 0.0 
238.0000042429968 4.0 2.0 400.0 0.49873508893594476 0.0 0.0 0.0 
240.0000042429968 4.0 2.0 400.0 0.49873508893594476 0.0 0.0 0.0 
242.0000042429968 4.0 2.0 400.0 0.49873508893594476 0.0 0.0 0.0 
244.0000042429968 4.0 2.0 400.0 0.49873508893594476 0.0 0.0 0.0 
246.0000042429968 4.0 2.0 400.0 0.49873508893594476 0.0 0.0 0.0 
248.0000042429968 4.0 2.0 400.0 0.49873508893594476 0.0 0.0 0.0 
250.0000042429968 4.0 2.0 400.0 0.49873508893594476 0.0 0.0 0.0 
252.0000042429968 4.0 2.0 400.0 0.49873508893594476 0.0 0.0 0.0 
254.0000042429968 4.0 2.0 400.0 0.49873508893594476 0.0 0.0 0.0 
256.0000042429968 4.0 2.0 400.0 0.49873508893594476 0.0 0.0 0.0 
258.0000042429968 4.0 2.0 400.0 0.49873508893591634 0.0 0.0 0.0 
260.0000042429968 4.0 2.0 400.0 0.49873508893591634 0.0 0.0 0.0 
262.0000042429968 4.0 2.0 400.0 0.49873508893591634 0.0 0.0 0.0 
264.0000042429968 4.0 2.0 400.0 0.49873508893591634 0.0 0.0 0.0 
266.0000042429968 4.0 2.0 400.0 0.49873508893591634 0.0 0.0 0.0 
268.0000042429968 4.0 2.0 400.0 0.49873508893591634 0.0 0.0 0.0 
270.0000042429968 4.0 2.0 400.0 0.49873508893591634 0.0 0.0 0.0 
272.0000042429968 4.0 2.0 400.0 0.49873508893591634 0.0 0.0 0.0 
274.0000042429968 4.0 2.0 400.0 0.49873508893591634 0.0 0.0 0.0 
276.0000042429968 5.0 2.0 400.0 0.40754317199028944 0.0 0.0 0.0 
278.0000042429968 6.0 3.0 400.0 0.4509299855922791 0.0 0.0 0.0 
280.0000042429968 6.0 3.0 400.0 0.4509299855922791 0.0 0.0 0.0 
282.0000042429968 6.0 3.0 400.0 0.4509299855922791 0.0 0.0 0.0 
284.0000042429968 6.0 3.0 400.0 0.4509299855922791 0.0 0.0 0.0 
286.0000042429968 7.0 3.0 400.0 0.44627296185228715 0.0 0.0 0.0 
288.0000042429968 8.0 3.0 400.0 0.49797614229750026 0.0 0.0 0.0 
290.0000042429968 8.0 3.0 400.0 0.49797614229750026 0.0 0.0 0.0 
292.0000042429968 8.0 3.0 400.0 0.49797614229750026 0.0 0.0 0.0 
294.0000042429968 8.0 3.0 400.0 0.49797614229750026 0.0 0.0 0.0 
296.0000042429968 8.0 3.0 400.0 0.49797614229750026 0.0 0.0 0.0 
298.0000042429968 8.0 3.0 400.0 0.49797614229750026 0.0 0.0 0.0 
300.0000042429968 8.0 3.0 400.0 0.49797614229750026 0.0 0.0 0.0 
302.0000042429968 8.0 3.0 400.0 0.49797614229750026 0.0 0.0 0.0 
304.0000042429968 8.0 3.0 400.0 0.49797614229750026 0.0 0.0 0.0 
306.0000042429968 8.0 3.0 400.0 0.6981026334039029 0.0 0.0 0.0 
308.0000042429968 6.0 3.0 400.0 1.1547158198019134 0.0 0.0 0.0 
310.0000042429968 4.0 2.0 400.0 0.49873508893591634 0.0 0.0 0.0 
312.0000042429968 4.0 2.0 400.0 0.49873508893591634 0.0 0.0 0.0 
314.0000042429968 4.0 2.0 400.0 0.49873508893591634 0.0 0.0 0.0 
316.0000042429968 4.0 2.0 400.0 0.49873508893591634 0.0 0.0 0.0 
318.0000042429968 4.0 2.0 400.0 0.49873508893591634 0.0 0.0 0.0 
320.0000042429968 4.0 2.0 400.0 0.49873508893591634 0.0 0.0 0.0 
322.0000042429968 4.0 2.0 400.0 0.49873508893591634 0.0 0.0 0.0 
324.0000042429968 4.0 2.0 400.0 0.49873508893591634 0.0 0.0 0.0 
326.0000042429968 4.0 2.0 400.0 0.49873508893591634 0.0 0.0 0.0 
328.0000042429968 4.0 2.0 400.0 0.49873508893591634 0.0 0.0 0.0 
330.0000042429968 4.0 2.0 400.0 0.49873508893591634 0.0 0.0 0.0 
332.0000042429968 4.0 2.0 400.0 0.49873508893591634 0.0 0.0 0.0 
334.0000042429968 4.0 2.0 400.0 0.49873508893591634 0.0 0.0 0.0 
336.0000042429968 4.0 2.0 400.0 0.49873508893591634 0.0 0.0 0.0 
338.0000042429968 4.0 2.0 400.0 0.49873508893591634 0.0 0.0 0.0 
340.0000042429968 4.0 2.0 400.0 0.49873508893591634 0.0 0.0 0.0 
342.0000042429968 4.0 2.0 400.0 0.49873508893591634 0.0 0.0 0.0 
344.0000042429968 5.0 2.0 400.0 0.4378923056107965 0.0 0.0 0.0 
346.0000042429968 6.0 3.0 400.0 0.49873508893591634 0.0 0.0 0.0 
348.0000042429968 6.0 3.0 400.0 0.49873508893591634 0.0 0.0 0.0 
350.0000042429968 6.0 3.0 400.0 0.49873508893591634 0.0 0.0 0.0 
352.0000042429968 6.0 3.0 400.0 0.49873508893591634 0.0 0.0 0.0 
354.0000042429968 6.0 3.0 400.0 0.665401755602583 0.0 0.0 0.0 
356.0000042429968 5.0 3.0 400.0 0.9595778722610362 0.0 0.0 0.0 
358.0000042429968 4.0 2.0 400.0 0.49873508893591634 0.0 0.0 0.0 
360.0000042429968 4.0 2.0 400.0 0.49873508893591634 0.0 0.0 0.0 
362.0000042429968 4.0 2.0 400.0 0.49873508893591634 0.0 0.0 0.0 
364.0000042429968 4.0 2.0 400.0 0.49873508893591634 0.0 0.0 0.0 
366.0000042429968 4.0 2.0 400.0 0.49873508893591634 0.0 0.0 0.0 
368.0000042429968 4.0 2.0 400.0 0.49873508893591634 0.0 0.0 0.0 
370.0000042429968 4.0 2.0 400.0 0.49873508893591634 0.0 0.0 0.0 
372.0000042429968 4.0 2.0 400.0 0.49873508893591634 0.0 0.0 0.0 
374.0000042429968 4.0 2.0 400.0 0.49873508893591634 0.0 0.0 0.0 
376.0000042429968 4.0 2.0 400.0 0.49873508893591634 0.0 0.0 0.0 
378.0000042429968 4.0 2.0 400.0 0.49873508893591634 0.0 0.0 0.0 
380.0000042429968 4.0 2.0 400.0 0.49873508893591634 0.0 0.0 0.0 
382.0000042429968 4.0 2.0 400.0 0.49873508893591634 0.0 0.0 0.0 
384.0000042429968 4.0 2.0 400.0 0.49873508893591634 0.0 0.0 0.0 
386.0000042429968 4.0 2.0 400.0 0.49873508893591634 0.0 0.0 0.0 
388.0000042429968 4.0 2.0 400.0 0.49873508893591634 0.0 0.0 0.0 
390.0000042429968 4.0 2.0 400.0 0.49873508893591634 0.0 0.0 0.0 
392.0000042429968 4.0 2.0 400.0 0.49873508893591634 0.0 0.0 0.0 
394.0000042429968 4.0 2.0 400.0 0.49873508893591634 0.0 0.0 0.0 
396.0000042429968 6.0 3.0 400.0 0.49873508893591634 0.0 0.0 0.0 
398.0000042429968 6.0 3.0 400.0 0.49873508893591634 0.0 0.0 0.0 
400.0000042429968 6.0 3.0 400.0 0.49873508893591634 0.0 0.0 0.0 
402.0000042429968 6.0 3.0 400.0 0.49873508893591634 0.0 0.0 0.0 
404.0000042429968 6.0 3.0 400.0 0.49873508893591634 0.0 0.0 0.0 
406.0000042429968 6.0 3.0 400.0 0.9987350889359163 0.0 0.0 0.0 
408.0000042429968 4.0 2.0 400.0 0.49873508893591634 0.0 0.0 0.0 
410.0000042429968 4.0 2.0 400.0 0.49873508893591634 0.0 0.0 0.0 
412.0000042429968 4.0 2.0 400.0 0.49873508893591634 0.0 0.0 0.0 
414.0000042429968 4.0 2.0 400.0 0.49873508893591634 0.0 0.0 0.0 
416.0000042429968 4.0 2.0 400.0 0.49873508893591634 0.0 0.0 0.0 
418.0000042429968 4.0 2.0 400.0 0.49873508893591634 0.0 0.0 0.0 
420.0000042429968 4.0 2.0 400.0 0.49873508893591634 0.0 0.0 0.0 
422.0000042429968 4.0 2.0 400.0 0.49873508893591634 0.0 0.0 0.0 
424.0000042429968 4.0 2.0 400.0 0.49873508893591634 0.0 0.0 0.0 
426.0000042429968 4.0 2.0 400.0 0.49873508893591634 0.0 0.0 0.0 
428.0000042429968 4.0 2.0 400.0 0.49873508893591634 0.0 0.0 0.0 
430.0000042429968 4.0 2.0 400.0 0.49873508893591634 0.0 0.0 0.0 
432.0000042429968 4.0 2.0 400.0 0.49873508893591634 0.0 0.0 0.0 
434.0000042429968 4.0 2.0 400.0 0.49873508893591634 0.0 0.0 0.0 
436.0000042429968 4.0 2.0 400.0 0.49873508893591634 0.0 0.0 0.0 
438.0000042429968 4.0 2.0 400.0 0.49873508893591634 0.0 0.0 0.0 
440.0000042429968 4.0 2.0 400.0 0.49873508893591634 0.0 0.0 0.0 
442.0000042429968 4.0 2.0 400.0 0.49873508893591634 0.0 0.0 0.0 
444.0000042429968 4.0 2.0 400.0 0.49873508893591634 0.0 0.0 0.0 
446.0000042429968 4.0 2.0 400.0 0.49873508893591634 0.0 0.0 0.0 
448.0000042429968 4.0 2.0 400.0 0.49873508893591634 0.0 0.0 0.0 
450.0000042429968 4.0 2.0 400.0 0.49873508893591634 0.0 0.0 0.0 
452.0000042429968 4.0 2.0 400.0 0.49873508893591634 0.0 0.0 0.0 
454.0000042429968 4.0 2.0 400.0 0.49873508893591634 0.0 0.0 0.0 
456.0000042429968 4.0 2.0 400.0 0.49873508893591634 0.0 0.0 0.0 
458.0000042429968 4.0 2.0 400.0 0.49873508893591634 0.0 0.0 0.0 
460.0000042429968 4.0 2.0 400.0 0.49873508893591634 0.0 0.0 0.0 
462.0000042429968 4.0 2.0 400.0 0.49873508893591634 0.0 0.0 0.0 
464.0000042429968 4.0 2.0 400.0 0.49873508893591634 0.0 0.0 0.0 
466.0000042429968 4.0 2.0 400.0 0.49873508893591634 0.0 0.0 0.0 
468.0000042429968 6.0 3.0 400.0 0.49873508893591634 0.0 0.0 0.0 
470.0000042429968 6.0 3.0 400.0 0.49873508893591634 0.0 0.0 0.0 
472.0000042429968 6.0 3.0 400.0 0.49873508893591634 0.0 0.0 0.0 
474.0000042429968 6.0 3.0 400.0 0.49873508893591634 0.0 0.0 0.0 
476.0000042429968 6.0 3.0 400.0 0.49873508893591634 0.0 0.0 0.0 
478.0000042429968 6.0 3.0 400.0 0.9987350889359163 0.0 0.0 0.0 
480.0000042429968 4.0 2.0 400.0 0.49873508893591634 0.0 0.0 0.0 
482.0000042429968 4.0 2.0 400.0 0.49873508893591634 0.0 0.0 0.0 
484.0000042429968 4.0 2.0 400.0 0.49873508893591634 0.0 0.0 0.0 
486.0000042429968 4.0 2.0 400.0 0.49873508893591634 0.0 0.0 0.0 
488.0000042429968 4.0 2.0 400.0 0.49873508893591634 0.0 0.0 0.0 
490.0000042429968 4.0 2.0 400.0 0.49873508893591634 0.0 0.0 0.0 
492.0000042429968 4.0 2.0 400.0 0.49873508893591634 0.0 0.0 0.0 
494.0000042429968 4.0 2.0 400.0 0.49873508893591634 0.0 0.0 0.0 
496.0000042429968 6.0 3.0 400.0 0.49873508893591634 0.0 0.0 0.0 
498.0000042429968 6.0 3.0 400.0 0.49873508893591634 0.0 0.0 0.0 
500.0000042429968 6.0 3.0 400.0 0.49873508893591634 0.0 0.0 0.0 
502.0000042429968 8.0 4.0 400.0 0.49873508893591634 0.0 0.0 0.0 
504.0000042429968 8.0 4.0 400.0 0.49873508893591634 0.0 0.0 0.0 
506.0000042429968 8.0 4.0 400.0 0.8737350889359163 0.0 0.0 0.0 
508.0000042429968 8.0 4.0 400.0 0.4712462990703206 0.0 0.0 0.0 
510.0000042429968 10.0 4.0 400.0 0.49819298419419056 0.0 0.0 0.0 
512.0000042429967 10.0 4.0 400.0 1.0698022572033372 0.0 0.0 0.0 
514.0000042429967 6.0 3.0 400.0 0.4987350889359732 0.0 0.0 0.0 
516.0000042429967 8.0 4.0 400.0 0.4987350889359732 0.0 0.0 0.0 
518.0000042429967 8.0 4.0 400.0 0.6237350889359732 0.0 0.0 0.0 
520.0000042429967 7.0 3.0 400.0 0.8090790626113014 0.0 0.0 0.0 
522.0000042429967 6.0 3.0 400.0 0.4987350889359732 0.0 0.0 0.0 
524.0000042429967 6.0 3.0 400.0 0.4987350889359732 0.0 0.0 0.0 
526.0000042429967 6.0 3.0 400.0 0.8320684222693066 0.0 0.0 0.0 
528.0000042429967 4.0 2.0 400.0 0.4987350889359732 0.0 0.0 0.0 
530.0000042429967 4.0 2.0 400.0 0.4987350889359732 0.0 0.0 0.0 
532.0000042429967 4.0 2.0 400.0 0.4987350889359732 0.0 0.0 0.0 
534.0000042429967 4.0 2.0 400.0 0.4987350889359732 0.0 0.0 0.0 
536.0000042429967 4.0 2.0 400.0 0.4987350889359732 0.0 0.0 0.0 
538.0000042429967 4.0 2.0 400.0 0.4987350889359732 0.0 0.0 0.0 
540.0000042429967 4.0 2.0 400.0 0.4987350889359732 0.0 0.0 0.0 
542.0000042429967 4.0 2.0 400.0 0.4987350889359732 0.0 0.0 0.0 
544.0000042429967 4.0 2.0 400.0 0.4987350889359732 0.0 0.0 0.0 
546.0000042429967 4.0 2.0 400.0 0.4987350889359732 0.0 0.0 0.0 
548.0000042429967 4.0 2.0 400.0 0.4987350889359732 0.0 0.0 0.0 
550.0000042429967 4.0 2.0 400.0 0.4987350889359732 0.0 0.0 0.0 
552.0000042429967 4.0 2.0 400.0 0.4987350889359732 0.0 0.0 0.0 
554.0000042429967 4.0 2.0 400.0 0.4987350889359732 0.0 0.0 0.0 
556.0000042429967 4.0 2.0 400.0 0.4987350889359732 0.0 0.0 0.0 
558.0000042429967 4.0 2.0 400.0 0.4987350889359732 0.0 0.0 0.0 
560.0000042429967 4.0 2.0 400.0 0.4987350889359732 0.0 0.0 0.0 
562.0000042429967 4.0 2.0 400.0 0.4987350889359732 0.0 0.0 0.0 
564.0000042429967 4.0 2.0 400.0 0.4987350889359732 0.0 0.0 0.0 
566.0000042429967 4.0 2.0 400.0 0.4987350889359732 0.0 0.0 0.0 
568.0000042429967 4.0 2.0 400.0 0.4987350889359732 0.0 0.0 0.0 
570.0000042429967 4.0 2.0 400.0 0.4987350889359732 0.0 0.0 0.0 
572.0000042429967 4.0 2.0 400.0 0.4987350889359732 0.0 0.0 0.0 
574.0000042429967 4.0 2.0 400.0 0.4987350889359732 0.0 0.0 0.0 
576.0000042429967 4.0 2.0 400.0 0.4987350889359732 0.0 0.0 0.0 
578.0000042429967 4.0 2.0 400.0 0.4987350889359732 0.0 0.0 0.0 
580.0000042429967 4.0 2.0 400.0 0.4987350889359732 0.0 0.0 0.0 
582.0000042429967 7.0 3.0 400.0 0.5111433201072941 0.0 0.0 0.0 
584.0000042429967 8.0 4.0 400.0 0.4987350889359732 0.0 0.0 0.0 
586.0000042429967 8.0 4.0 400.0 0.4987350889359732 0.0 0.0 0.0 
588.0000042429967 8.0 4.0 400.0 0.4987350889359732 0.0 0.0 0.0 
590.0000042429967 8.0 4.0 400.0 0.4987350889359732 0.0 0.0 0.0 
592.0000042429967 8.0 4.0 400.0 0.9987350889359732 0.0 0.0 0.0 
594.0000042429967 5.0 3.0 400.0 0.8813635652961238 0.0 0.0 0.0 
596.0000042429967 4.0 2.0 400.0 0.4987350889359732 0.0 0.0 0.0 
598.0000042429967 4.0 2.0 400.0 0.4987350889359732 0.0 0.0 0.0 
600.0000042429967 4.0 2.0 400.0 0.4987350889359732 0.0 0.0 0.0 
602.0000042429967 4.0 2.0 400.0 0.4987350889359732 0.0 0.0 0.0 
604.0000042429967 4.0 2.0 400.0 0.4987350889359732 0.0 0.0 0.0 
606.0000042429967 4.0 2.0 400.0 0.4987350889359732 0.0 0.0 0.0 
608.0000042429967 4.0 2.0 400.0 0.4987350889359732 0.0 0.0 0.0 
610.0000042429967 4.0 2.0 400.0 0.4987350889359732 0.0 0.0 0.0 
612.0000042429967 4.0 2.0 400.0 0.4987350889359732 0.0 0.0 0.0 
614.0000042429967 4.0 2.0 400.0 0.4987350889359732 0.0 0.0 0.0 
616.0000042429967 4.0 2.0 400.0 0.4987350889359732 0.0 0.0 0.0 
618.0000042429967 4.0 2.0 400.0 0.4987350889359732 0.0 0.0 0.0 
620.0000042429967 5.0 2.0 400.0 0.4768062865231514 0.0 0.0 0.0 
622.0000042429967 6.0 3.0 400.0 0.4987350889359732 0.0 0.0 0.0 
624.0000042429967 8.0 4.0 400.0 0.5093819251272212 0.0 0.0 0.0 
626.0000042429967 8.0 4.0 400.0 0.5093819251272212 0.0 0.0 0.0 
628.0000042429967 8.0 4.0 400.0 0.5093819251272212 0.0 0.0 0.0 
630.0000042429967 8.0 4.0 400.0 0.6525101203552514 0.0 0.0 0.0 
632.0000042429967 7.0 4.0 400.0 0.6966241127798393 0.0 0.0 0.0 
634.0000042429967 6.0 3.0 400.0 1.16540175560264 0.0 0.0 0.0 
636.0000042429967 4.0 2.0 400.0 0.4987350889359732 0.0 0.0 0.0 
638.0000042429967 4.0 2.0 400.0 0.4987350889359732 0.0 0.0 0.0 
640.0000042429967 4.0 2.0 400.0 0.4987350889359732 0.0 0.0 0.0 
642.0000042429967 4.0 2.0 400.0 0.4987350889359732 0.0 0.0 0.0 
644.0000042429967 4.0 2.0 400.0 0.4987350889359732 0.0 0.0 0.0 
646.0000042429967 4.0 2.0 400.0 0.4987350889359732 0.0 0.0 0.0 
648.0000042429967 4.0 2.0 400.0 0.4987350889359732 0.0 0.0 0.0 
650.0000042429967 4.0 2.0 400.0 0.4987350889359732 0.0 0.0 0.0 
652.0000042429967 6.0 3.0 400.0 0.4987350889359732 0.0 0.0 0.0 
654.0000042429967 6.0 3.0 400.0 0.4987350889359732 0.0 0.0 0.0 
656.0000042429967 6.0 3.0 400.0 0.4987350889359732 0.0 0.0 0.0 
658.0000042429967 6.0 3.0 400.0 0.4987350889359732 0.0 0.0 0.0 
660.0000042429967 6.0 3.0 400.0 0.4987350889359732 0.0 0.0 0.0 
662.0000042429967 6.0 3.0 400.0 1.16540175560264 0.0 0.0 0.0 
664.0000042429967 4.0 2.0 400.0 0.4987350889359732 0.0 0.0 0.0 
#####################################################################
# End of data export. Simulation finished at: 2019-03-11T04:19+0000 #
#####################################################################
