#####################################################################
# Alchemist log file - simulation started at: 2019-03-09T13:35+0000 #
#####################################################################
# seed = 3.0, bandwidth = 1333521.4321633242, accessPointCount = 37.60603093086394, baserange = 1000.0
#
# The columns have the following meaning: 
# time neighbor_count[Sum] <value>@neighbor_count[Sum] packet_size[Mean] mean_delay[Mean] crowd[Sum] overcrowded[Sum] risk[Sum] 
0.0 NaN NaN NaN NaN NaN NaN NaN 
2.0005923698108097 5416.0 909.0 4987.893089960887 0.42912185723543955 1497.0 0.0 1497.0 
4.00059236981081 13455.0 993.0 4989.35332464146 0.4997395225076122 1497.0 0.0 1497.0 
6.000084666035003 21088.0 983.0 4990.649282920469 0.5184884062137745 1497.0 0.0 1497.0 
8.00059236981081 28018.0 983.0 4991.308996088657 0.5451422229392617 1497.0 0.0 1497.0 
10.00033353340315 32917.0 976.0 4991.992177314211 0.5582895724713987 1497.0 0.0 1497.0 
12.00026608567758 34739.0 941.0 4992.631029986962 0.5581421377419733 1497.0 0.0 1497.0 
14.00026608567758 33888.0 910.0 4992.537157757497 0.5008069591429571 1497.0 0.0 1497.0 
16.000084666035004 33890.0 910.0 4992.529335071708 0.5008657943880642 1497.0 0.0 1497.0 
18.000266085677584 33894.0 911.0 4992.604954367666 0.5011414887455162 1497.0 0.0 1497.0 
20.000266085677584 33896.0 911.0 4992.537157757497 0.5010971108907892 1497.0 0.0 1497.0 
22.000266085677584 33896.0 911.0 4992.498044328553 0.5010326680003669 1497.0 0.0 1497.0 
24.000266085677584 33896.0 911.0 4992.64667535854 0.5011065621988409 1497.0 0.0 1497.0 
26.000084666035004 33896.0 911.0 4992.5084745762715 0.5010965361248457 1497.0 0.0 1497.0 
28.000266085677584 33950.0 911.0 4992.531942633637 0.5029036739101299 1497.0 0.0 1497.0 
30.000266085677584 33902.0 911.0 4992.6571056062585 0.5013556801181218 1497.0 0.0 1497.0 
32.00026608567758 33900.0 911.0 4992.495436766623 0.5011149421148899 1497.0 0.0 1497.0 
34.00026608567758 33900.0 911.0 4992.524119947849 0.5011611378111841 1497.0 0.0 1497.0 
36.00008466603501 33900.0 911.0 4992.623207301173 0.5011779507263514 1497.0 0.0 1497.0 
38.00026608567758 33904.0 911.0 4992.485006518905 0.5018131586169987 1497.0 0.0 1497.0 
40.00026608567758 33900.0 911.0 4992.571056062581 0.5011900304904932 1497.0 0.0 1497.0 
42.00026608567758 33900.0 911.0 4992.597131681878 0.5011520969397808 1497.0 0.0 1497.0 
44.00026608567758 33900.0 911.0 4992.537157757497 0.5012006269402527 1497.0 0.0 1497.0 
46.00008466603501 33933.0 911.0 4992.51890482399 0.5009537875437011 1497.0 0.0 1497.0 
48.00026608567758 33982.0 912.0 4992.576271186441 0.5046291541038126 1497.0 0.0 1497.0 
50.00026608567758 33943.0 912.0 4992.51890482399 0.5020075753437122 1497.0 0.0 1497.0 
52.00026608567758 33927.0 910.0 4992.479791395046 0.5022808206117528 1497.0 0.0 1497.0 
54.00026608567758 33916.0 910.0 4992.610169491525 0.5007711809212375 1497.0 0.0 1497.0 
56.00008466603501 33927.0 910.0 4992.521512385919 0.5007090709193782 1497.0 0.0 1497.0 
58.00059236981081 34023.0 911.0 4992.51629726206 0.5007740459722944 1497.0 0.0 1497.0 
60.00033353340315 34046.0 912.0 4992.604954367666 0.5034198716269511 1497.0 0.0 1497.0 
62.00059236981081 34030.0 911.0 1153.4732724902187 0.4941087405586303 543.0 2.0 249.0 
64.00059236981082 34030.0 911.0 1156.5788787483675 0.5034200095816292 442.0 5.0 247.0 
66.00008466603501 34001.0 910.0 1156.5084745762736 0.501124841538969 403.0 9.0 243.0 
68.00059236981082 34006.0 910.0 1153.5723598435447 0.501410289548931 380.0 9.0 242.0 
70.00033353340315 34002.0 910.0 1153.4185136896976 0.5007108067827791 372.0 11.0 240.0 
72.00059236981082 34032.0 911.0 1153.5097783572362 0.5008002277003921 369.0 12.0 239.0 
74.00059236981082 34032.0 911.0 1153.4654498044292 0.5008020355347156 367.0 12.0 239.0 
76.00008466603501 34034.0 911.0 1153.5462842242478 0.5025839687800272 368.0 11.0 240.0 
78.00059236981082 33988.0 912.0 1156.4980443285526 0.5055454221825101 365.0 11.0 241.0 
80.00033353340315 33924.0 911.0 1156.5032594524134 0.5014454610251333 363.0 11.0 241.0 
82.00059236981082 33976.0 912.0 1156.398956975227 0.5014300160590331 363.0 11.0 241.0 
84.00059236981082 33976.0 912.0 1156.5501955671455 0.5014858991835986 363.0 11.0 241.0 
86.00008466603501 33975.0 912.0 1156.4198174706662 0.5027624077431909 360.0 11.0 241.0 
88.00059236981082 33957.0 911.0 1156.5032594524134 0.5047816458713633 360.0 11.0 241.0 
90.00033353340315 33943.0 911.0 1156.4015645371562 0.5014880512222416 360.0 11.0 241.0 
92.00059236981082 33948.0 911.0 1156.5058670143387 0.5016310119549631 360.0 11.0 241.0 
94.00059236981082 33946.0 911.0 1156.4485006518883 0.501680914907776 360.0 11.0 241.0 
96.00008466603501 34016.0 912.0 1159.5645371577555 0.5020509794193546 359.0 11.0 242.0 
98.00059236981082 34035.0 912.0 1159.4576271186438 0.5022302246150486 360.0 11.0 242.0 
100.00033353340315 34006.0 912.0 1159.4550195567151 0.5012846408480898 360.0 11.0 242.0 
102.00059236981082 34026.0 913.0 1159.4185136896974 0.5038654980452199 360.0 11.0 242.0 
104.00059236981082 33986.0 912.0 1159.4915254237262 0.5012592571308611 360.0 11.0 242.0 
106.00008466603501 33992.0 912.0 1159.439374185136 0.501521819023451 360.0 11.0 242.0 
108.00059236981082 33998.0 912.0 1159.452411994786 0.5012967958815537 359.0 11.0 242.0 
110.00033353340315 34000.0 912.0 1159.3689700130365 0.5015196115854971 359.0 11.0 242.0 
112.00059236981082 34006.0 912.0 1156.4537157757522 0.501263426211525 359.0 11.0 241.0 
114.00059236981082 34006.0 912.0 1156.440677966099 0.5012653095942845 359.0 11.0 241.0 
116.00008466603501 34011.0 912.0 1165.4680573663645 0.5016530470129733 360.0 11.0 244.0 
118.00059236981082 34012.0 912.0 1165.392438070404 0.5015420012766222 360.0 11.0 244.0 
120.00033353340315 34037.0 912.0 1165.4028683181248 0.5012867859286024 360.0 11.0 244.0 
122.00059236981082 34146.0 913.0 1165.3950456323355 0.5013672571798926 360.0 11.0 244.0 
124.00059236981082 34147.0 913.0 1162.4615384615417 0.5013581343287861 359.0 11.0 243.0 
126.00008466603501 34154.0 913.0 1156.4693611473274 0.5013271719002098 358.0 11.0 241.0 
128.00059236981082 34152.0 913.0 1156.440677966099 0.5012062913602984 358.0 11.0 241.0 
130.00033353340314 34152.0 913.0 1156.451108213817 0.5012042440805744 358.0 11.0 241.0 
132.00059236981082 34158.0 913.0 1156.5058670143387 0.5013124210657081 357.0 12.0 240.0 
134.00059236981082 34156.0 913.0 1153.4445893089971 0.5012047739021673 354.0 12.0 239.0 
136.000084666035 34154.0 913.0 1156.4537157757522 0.5014563387054266 352.0 12.0 240.0 
138.00059236981082 34152.0 913.0 1156.3885267275127 0.5011599115338883 352.0 12.0 240.0 
140.00033353340314 34154.0 913.0 1159.5045632333756 0.5012314990506287 354.0 12.0 241.0 
142.00059236981082 34164.0 913.0 1165.439374185136 0.5012420925839539 355.0 12.0 243.0 
144.00059236981082 34162.0 913.0 1165.5228161668833 0.5010388955615896 355.0 12.0 243.0 
146.000084666035 34161.0 913.0 1165.481095176008 0.5017684293532928 354.0 12.0 243.0 
148.00059236981082 34166.0 912.0 1165.478487614083 0.5046502505488535 353.0 12.0 243.0 
150.00033353340314 34185.0 913.0 1165.4576271186436 0.5037803151742034 353.0 12.0 243.0 
152.00059236981082 34166.0 912.0 1165.4602346805752 0.5013854617324274 353.0 12.0 243.0 
154.00059236981082 34164.0 912.0 1162.445893089963 0.501184163997166 354.0 12.0 242.0 
156.000084666035 34163.0 912.0 1159.4706649282937 0.5014349576428855 354.0 12.0 241.0 
158.00059236981082 34162.0 912.0 1162.4537157757522 0.5020037615100235 352.0 12.0 242.0 
160.00033353340314 34144.0 912.0 1159.5045632333756 0.5012560865949878 349.0 12.0 241.0 
162.00059236981082 34144.0 912.0 1159.4654498044292 0.5015022870985187 348.0 12.0 241.0 
164.00059236981082 34142.0 912.0 1159.514993481094 0.5012761052672441 348.0 12.0 241.0 
166.000084666035 34142.0 912.0 1159.4106910039143 0.5012776345296259 349.0 12.0 241.0 
168.00059236981082 34142.0 912.0 1159.4941329856613 0.5041315858190504 348.0 12.0 241.0 
170.00033353340314 34030.0 911.0 1159.441981747065 0.5014312037704463 348.0 12.0 241.0 
172.00059236981082 34030.0 911.0 1159.4993481095157 0.5016542021807995 346.0 12.0 241.0 
174.00059236981082 34028.0 911.0 1153.5123859191651 0.501354425834334 346.0 12.0 239.0 
176.000084666035 34072.0 911.0 1153.5123859191651 0.5012701158517386 346.0 12.0 239.0 
178.00059236981082 34130.0 912.0 1153.4498044328543 0.5023306084778921 345.0 13.0 238.0 
180.00033353340314 34142.0 912.0 1153.486310299872 0.5031669353833914 341.0 14.0 237.0 
182.00059236981082 34128.0 911.0 1150.5084745762738 0.5012299750559337 344.0 9.0 241.0 
184.00059236981082 34124.0 911.0 1150.513689700128 0.500774268769478 348.0 5.0 245.0 
186.000084666035 34124.0 911.0 1147.478487614083 0.5007079716337753 345.0 8.0 241.0 
188.00059236981082 34124.0 911.0 1147.5254237288148 0.500769792150853 340.0 13.0 236.0 
190.00033353340314 34123.0 911.0 1147.4654498044292 0.5004512585856999 343.0 9.0 240.0 
192.00059236981082 34124.0 912.0 1147.4471968709254 0.5036906916759801 343.0 10.0 239.0 
194.00059236981082 34096.0 911.0 1147.4550195567151 0.5008466962157724 342.0 10.0 239.0 
196.000084666035 34095.0 911.0 1147.5045632333756 0.5010945931840874 339.0 14.0 235.0 
198.00059236981082 34092.0 911.0 1147.4132985658432 0.5007208963002259 340.0 12.0 237.0 
200.00033353340314 34098.0 911.0 1147.478487614083 0.500662877340152 341.0 12.0 237.0 
202.00059236981082 34152.0 911.0 1147.486310299872 0.502392415727185 344.0 10.0 239.0 
204.00059236981082 34104.0 911.0 1144.5006518904843 0.5010877833640888 342.0 11.0 237.0 
206.000084666035 34110.0 912.0 1144.440677966099 0.5049850385447769 345.0 8.0 240.0 
208.00059236981082 34085.0 911.0 1144.4797913950454 0.5009306769188427 346.0 8.0 240.0 
210.00033353340314 34085.0 911.0 1135.4680573663647 0.5007649724069154 346.0 8.0 237.0 
212.00059236981082 34084.0 911.0 1138.518904823992 0.5008482509497822 345.0 8.0 238.0 
214.00059236981082 34084.0 911.0 1135.5254237288152 0.5009239674255299 341.0 8.0 237.0 
216.000084666035 34108.0 912.0 1135.5488917861833 0.5009146862663654 339.0 8.0 237.0 
218.00059236981082 34210.0 913.0 1135.486310299872 0.5035572014141693 338.0 9.0 236.0 
220.00033353340314 34185.0 912.0 1135.4915254237258 0.5010688479298426 337.0 10.0 235.0 
222.00059236981082 34184.0 912.0 1135.4758800521543 0.5009327288004928 337.0 9.0 236.0 
224.00059236981082 34216.0 913.0 1141.5358539765332 0.5011447725085133 339.0 10.0 237.0 
226.000084666035 34221.0 913.0 1141.5254237288152 0.5015608398304646 338.0 11.0 236.0 
228.00059236981082 34218.0 913.0 1144.5006518904847 0.5009564601841767 337.0 13.0 235.0 
230.00033353340314 34220.0 913.0 1144.5345501955708 0.5009120719005586 338.0 11.0 237.0 
232.00059236981082 34220.0 913.0 1144.513689700128 0.500912876887131 338.0 13.0 235.0 
234.00059236981082 34223.0 914.0 1147.522816166883 0.5010075601936335 338.0 11.0 238.0 
236.000084666035 34332.0 915.0 1147.475880052154 0.5032319742983519 339.0 13.0 236.0 
238.00059236981082 34310.0 914.0 1147.525423728815 0.5006790293369007 340.0 10.0 239.0 
240.00033353340314 34308.0 914.0 1147.4993481095155 0.5007447254316532 342.0 10.0 239.0 
242.00059236981082 34308.0 914.0 1147.517601043026 0.5005311746648028 341.0 11.0 238.0 
244.00059236981082 34309.0 914.0 1147.5749674054764 0.5005141719674785 341.0 13.0 236.0 
246.000084666035 34310.0 914.0 1147.478487614083 0.5006129094743789 340.0 12.0 237.0 
248.00059236981082 34310.0 914.0 1147.522816166883 0.500556908118232 341.0 12.0 237.0 
250.00033353340314 34311.0 914.0 1147.4445893089971 0.5006484649736974 343.0 10.0 239.0 
252.00059236981082 34312.0 914.0 1144.513689700128 0.5005273002442971 343.0 10.0 238.0 
254.00059236981082 34313.0 914.0 1144.5058670143387 0.5004741835479182 343.0 11.0 237.0 
256.00008466603504 34312.0 914.0 1144.521512385917 0.5005773189958612 341.0 12.0 236.0 
258.0005923698108 34332.0 915.0 1144.5241199478457 0.5027773200847167 342.0 11.0 237.0 
260.00033353340314 34312.0 914.0 1144.4980443285522 0.5008396064824218 341.0 12.0 236.0 
262.0005923698108 34310.0 914.0 1144.5006518904847 0.5006133190055472 342.0 11.0 237.0 
264.0005923698108 34310.0 914.0 1144.5032594524134 0.5007946605352257 341.0 12.0 236.0 
266.00008466603504 34316.0 914.0 1144.4954367666244 0.5021517310266307 340.0 11.0 237.0 
268.0005923698108 34264.0 915.0 1144.5006518904847 0.5033995940994875 339.0 12.0 236.0 
270.00033353340314 34238.0 915.0 1144.4928292046955 0.5009039403138829 339.0 11.0 237.0 
272.0005923698108 34238.0 915.0 1144.5554106910026 0.5009016615932111 339.0 12.0 236.0 
274.0005923698108 34238.0 915.0 1147.514993481094 0.5010599514010773 339.0 11.0 238.0 
276.00008466603504 34237.0 915.0 1147.5097783572367 0.5010284169126723 338.0 13.0 236.0 
278.0005923698108 34235.0 915.0 1147.4576271186436 0.5008903872581641 339.0 11.0 238.0 
280.00033353340314 34236.0 915.0 1147.4967405475866 0.5005714433174869 338.0 12.0 237.0 
282.0005923698108 34236.0 915.0 1147.4837027379367 0.5005736403500392 337.0 11.0 238.0 
284.0005923698108 34236.0 915.0 1144.5319426336353 0.5009819500123506 336.0 13.0 235.0 
286.00008466603504 34232.0 915.0 1144.513689700128 0.5010210850842777 337.0 11.0 237.0 
288.0005923698108 34228.0 915.0 1144.4980443285524 0.5037933159432614 336.0 13.0 235.0 
290.00033353340314 34214.0 914.0 1144.477183833117 0.5007131275700935 337.0 11.0 237.0 
292.0005923698108 34212.0 914.0 1144.474576271185 0.5004845961225406 336.0 13.0 235.0 
294.0005923698108 34282.0 915.0 1144.5032594524134 0.5037047464371673 337.0 11.0 237.0 
296.00008466603504 34173.0 914.0 1144.4641460234668 0.5030155844255634 335.0 14.0 234.0 
298.0005923698108 34170.0 913.0 1144.482398956974 0.5004186508924792 336.0 12.0 236.0 
300.00033353340314 34168.0 913.0 1144.5110821382027 0.5015397707342139 336.0 13.0 235.0 
302.0005923698108 34157.0 913.0 1144.5345501955708 0.5006111429972927 336.0 12.0 236.0 
304.0005923698108 34158.0 913.0 1141.5462842242478 0.5003600340647495 335.0 13.0 234.0 
306.00008466603504 34172.0 914.0 1135.4889178617973 0.5018141851892644 335.0 12.0 233.0 
308.0005923698108 34156.0 913.0 1129.4993481095155 0.500949531648537 335.0 12.0 231.0 
310.00033353340314 34213.0 914.0 1129.4706649282937 0.5015556535015064 338.0 9.0 234.0 
312.0005923698108 34204.0 914.0 1129.561929595826 0.5004887718896134 339.0 8.0 235.0 
314.0005923698108 34206.0 914.0 1135.5306388526726 0.5015180247435319 339.0 9.0 236.0 
316.00008466603504 34204.0 914.0 1135.5410691003933 0.5038412597988833 340.0 8.0 237.0 
318.0005923698108 34188.0 913.0 1135.5123859191651 0.5005565884692516 339.0 8.0 237.0 
320.00033353340314 34184.0 913.0 1135.5123859191651 0.5003257060054521 339.0 8.0 237.0 
322.0005923698108 34184.0 913.0 1135.4967405475863 0.5003264455407664 339.0 8.0 237.0 
324.0005923698108 34187.0 913.0 1138.5919165580208 0.5005134573722495 339.0 8.0 238.0 
326.00008466603504 34196.0 913.0 1138.5058670143387 0.501338061286977 339.0 8.0 238.0 
328.0005923698108 34183.0 915.0 1138.5840938722317 0.503756256489251 339.0 8.0 238.0 
330.00033353340314 34160.0 915.0 1138.5110821382027 0.5023453336722612 339.0 8.0 238.0 
332.0005923698108 34150.0 915.0 1138.5762711864425 0.5009161883271894 339.0 8.0 238.0 
334.0005923698108 34158.0 916.0 1138.539765319425 0.5006328912235787 339.0 8.0 238.0 
336.00008466603504 34162.0 916.0 1138.571056062578 0.5009675281812962 338.0 9.0 237.0 
338.0005923698108 34161.0 916.0 1138.513689700128 0.5008281776254762 338.0 9.0 237.0 
340.00033353340314 34164.0 916.0 1138.5632333767926 0.5011867498366996 338.0 9.0 237.0 
342.0005923698108 34162.0 916.0 1138.518904823992 0.500804278019005 338.0 9.0 237.0 
344.0005923698108 34164.0 916.0 1138.5971316818755 0.5017298844390077 338.0 9.0 237.0 
346.00008466603504 34163.0 916.0 1138.521512385917 0.5013033223160515 338.0 9.0 237.0 
348.0005923698108 34160.0 916.0 1138.5684485006532 0.5009865259490018 338.0 9.0 237.0 
350.00033353340314 34159.0 916.0 1138.5423728813564 0.5010705566782384 339.0 9.0 237.0 
352.0005923698108 34158.0 916.0 1138.5501955671457 0.5010325339278805 343.0 9.0 237.0 
354.0005923698108 34159.0 916.0 1138.5267275097813 0.5009223197062916 344.0 9.0 237.0 
356.00008466603504 34160.0 916.0 1138.5267275097813 0.501103576064358 343.0 9.0 237.0 
358.0005923698108 34189.0 918.0 1138.492829204695 0.5026205930647787 343.0 9.0 237.0 
360.00033353340314 34189.0 917.0 1138.5267275097813 0.5020752168619664 343.0 9.0 237.0 
362.0005923698108 34180.0 917.0 1138.492829204695 0.5009350879204951 343.0 9.0 237.0 
364.0005923698108 34180.0 917.0 1138.5371577574956 0.5012731960822119 343.0 9.0 237.0 
366.00008466603504 34180.0 917.0 1138.4458930899632 0.5011497833001738 345.0 9.0 237.0 
368.0005923698108 34179.0 917.0 1138.5267275097813 0.5015188228893311 345.0 9.0 237.0 
370.00033353340314 34184.0 917.0 1141.4915254237262 0.50417796284377 345.0 9.0 238.0 
372.0005923698108 34168.0 916.0 1141.556714471966 0.5010844544241219 345.0 9.0 238.0 
374.0005923698108 34167.0 916.0 1141.4628422425044 0.5012452123323822 346.0 9.0 238.0 
376.00008466603504 34165.0 916.0 1141.559322033901 0.5016221254686667 345.0 10.0 237.0 
378.0005923698108 34174.0 917.0 1141.4915254237262 0.5040372428851716 345.0 10.0 237.0 
380.00033353340314 34151.0 916.0 1141.517601043026 0.5012621278015941 345.0 10.0 237.0 
382.0005923698108 34150.0 916.0 1138.4589308996065 0.5011357652889489 345.0 10.0 236.0 
384.0005923698108 34149.0 916.0 1141.5541069100368 0.5015278780286285 348.0 10.0 237.0 
386.00008466603504 34164.0 917.0 1144.5058670143387 0.5023590345344426 347.0 11.0 237.0 
388.0005923698108 34170.0 917.0 1144.5319426336353 0.5056380025726528 347.0 11.0 237.0 
390.00033353340314 34146.0 915.0 1144.474576271185 0.5015386792875278 347.0 11.0 237.0 
392.0005923698108 34146.0 915.0 1147.5697522816154 0.5013007497358318 348.0 11.0 238.0 
394.0005923698108 34168.0 915.0 1147.5045632333756 0.5019441891022699 348.0 11.0 238.0 
396.00008466603504 34183.0 916.0 1147.556714471966 0.5047190313600004 350.0 11.0 238.0 
398.0005923698108 34146.0 915.0 1147.4654498044292 0.5032579328039409 349.0 11.0 238.0 
400.00033353340314 34131.0 914.0 1147.5358539765332 0.5046210867810975 349.0 11.0 238.0 
402.0005923698108 34124.0 914.0 1147.452411994786 0.5014175175519235 349.0 11.0 238.0 
404.0005923698108 34126.0 914.0 1150.5423728813562 0.5014036747892857 349.0 11.0 239.0 
406.00008466603504 34161.0 915.0 1153.481095176008 0.5025646724722662 351.0 10.0 241.0 
408.0005923698108 34168.0 916.0 1153.5123859191651 0.5057166485511271 351.0 10.0 241.0 
410.00033353340314 34163.0 915.0 1153.4576271186438 0.5017994936905676 351.0 10.0 241.0 
412.0005923698108 34160.0 915.0 1153.5280312907441 0.5010312566149707 351.0 10.0 241.0 
414.0005923698108 34161.0 915.0 1153.4654498044292 0.5011276571945937 351.0 10.0 241.0 
416.00008466603504 34204.0 916.0 1156.516297262063 0.5018665010020211 351.0 10.0 242.0 
418.0005923698108 34205.0 917.0 1156.5006518904843 0.5089534863819073 351.0 10.0 242.0 
420.00033353340314 34142.0 914.0 1156.513689700128 0.5125764471367847 351.0 10.0 242.0 
422.0005923698108 34100.0 912.0 1153.4993481095155 0.5008524653117711 351.0 10.0 241.0 
424.0005923698108 34100.0 912.0 1153.5228161668829 0.5007981881660835 349.0 10.0 241.0 
426.00008466603504 34104.0 912.0 1159.4915254237258 0.5010793754312197 349.0 8.0 245.0 
428.0005923698108 34103.0 912.0 1159.5019556714478 0.5007947141724373 354.0 7.0 246.0 
430.00033353340314 34126.0 913.0 1159.4915254237258 0.5008128265373238 352.0 9.0 244.0 
432.0005923698108 34126.0 913.0 1156.571056062578 0.5009417850100184 352.0 8.0 244.0 
434.0005923698108 34125.0 913.0 1159.4993481095155 0.501251777548422 355.0 7.0 246.0 
436.00008466603504 34120.0 913.0 1165.5827900912657 0.5009743257760018 360.0 7.0 248.0 
438.0005923698108 34120.0 913.0 1165.5280312907441 0.5009764608135816 361.0 7.0 248.0 
440.00033353340314 34120.0 913.0 1162.5814863103028 0.5008172196797449 361.0 7.0 247.0 
442.0005923698108 34154.0 914.0 1162.516297262063 0.5024479251322287 361.0 7.0 247.0 
444.0005923698108 34117.0 914.0 1162.5293350717063 0.5026625187899332 361.0 7.0 247.0 
446.00008466603504 34105.0 914.0 1168.456323337677 0.5024933964707821 363.0 7.0 249.0 
448.0005923698108 34084.0 913.0 1168.550195567146 0.5027543147344667 363.0 7.0 249.0 
450.00033353340314 34082.0 913.0 1168.485006518906 0.5012102262022814 363.0 7.0 249.0 
452.0005923698108 34113.0 913.0 1168.5580182529352 0.5017671964264823 363.0 7.0 249.0 
454.0005923698108 34139.0 913.0 1168.521512385917 0.5030619094034453 363.0 7.0 249.0 
456.00008466603504 34130.0 914.0 1171.5853976531941 0.5013673529768125 362.0 7.0 250.0 
458.0005923698108 34137.0 915.0 1171.5202086049549 0.5016953333849288 362.0 7.0 250.0 
460.00033353340314 34135.0 915.0 1171.5671447196905 0.501692814112529 362.0 7.0 250.0 
462.0005923698108 34139.0 915.0 1171.4758800521538 0.5015492987545198 362.0 7.0 250.0 
464.0005923698108 34144.0 915.0 1171.5410691003935 0.5019052575274437 363.0 7.0 250.0 
466.00008466603504 34153.0 915.0 1171.478487614083 0.5022142016672329 363.0 7.0 250.0 
468.0005923698108 34147.0 915.0 1171.5488917861828 0.5016757829965863 363.0 7.0 250.0 
470.00033353340314 34146.0 915.0 1174.4667535853957 0.5017327486447053 363.0 7.0 251.0 
472.0005923698108 34147.0 915.0 1171.601043024773 0.5017009244065844 363.0 6.0 251.0 
474.0005923698108 34150.0 915.0 1168.5684485006532 0.5018149268222616 361.0 6.0 250.0 
476.00008466603504 34152.0 915.0 1168.5893089960857 0.5018149267970249 361.0 6.0 250.0 
478.0005923698108 34151.0 915.0 1168.4980443285526 0.5016534991661665 361.0 6.0 250.0 
480.00033353340314 34153.0 915.0 1168.565840938724 0.5017235177340642 360.0 6.0 250.0 
482.0005923698108 34153.0 915.0 1165.4993481095157 0.5016237670307735 360.0 6.0 249.0 
484.0005923698108 34154.0 915.0 1162.571056062578 0.5032313164483124 359.0 6.0 248.0 
486.00008466603504 34147.0 914.0 1162.518904823992 0.5042209512419886 359.0 6.0 248.0 
488.0005923698108 34140.0 914.0 1162.6023468057354 0.5015004456530893 358.0 6.0 248.0 
490.00033353340314 34156.0 915.0 1162.5110821382027 0.5015992876991561 358.0 6.0 248.0 
492.0005923698108 34159.0 915.0 1156.5475880052134 0.5015096126987076 358.0 6.0 246.0 
494.0005923698108 34164.0 915.0 1156.518904823992 0.5018668583070853 355.0 6.0 246.0 
496.00008466603504 34186.0 916.0 1153.5280312907441 0.504094610660762 353.0 6.0 245.0 
498.0005923698108 34157.0 915.0 1153.5514993481117 0.5021810736994982 352.0 6.0 245.0 
500.00033353340314 34158.0 915.0 1153.6140808344228 0.5016738515525958 352.0 6.0 245.0 
502.0005923698108 34158.0 915.0 1150.571056062578 0.501594396005437 352.0 6.0 244.0 
504.0005923698108 34158.0 915.0 1147.627118644066 0.5016073255520034 349.0 9.0 240.0 
506.00008466603504 34258.0 916.0 1147.5358539765332 0.5029309510425122 347.0 11.0 238.0 
508.0005923698108 34227.0 915.0 1147.5749674054766 0.5014105633869075 346.0 12.0 237.0 
510.00033353340314 34234.0 915.0 1150.4954367666246 0.5020372677546598 346.0 11.0 239.0 
512.0005923698109 34230.0 915.0 1150.5945241199458 0.5012530733938765 351.0 7.0 243.0 
514.0005923698109 34230.0 915.0 1147.5645371577552 0.5010507752538096 352.0 6.0 243.0 
516.000084666035 34360.0 916.0 1147.6401564537161 0.502579955984736 351.0 6.0 243.0 
518.0005923698109 34341.0 915.0 1147.548891786183 0.5011287697524591 350.0 6.0 243.0 
520.0003335334031 34362.0 916.0 1147.5749674054766 0.5022861438783879 350.0 6.0 243.0 
522.0005923698109 34358.0 916.0 1144.5475880052138 0.5010560739860639 350.0 6.0 242.0 
524.0005923698109 34384.0 917.0 1135.601043024773 0.5030074268072325 346.0 6.0 239.0 
526.000084666035 34387.0 917.0 1135.5671447196905 0.5020391385588735 345.0 7.0 238.0 
528.0005923698109 34349.0 917.0 1135.6375488917838 0.5052119461562081 343.0 8.0 237.0 
530.0003335334031 34313.0 916.0 1141.5749674054762 0.5049272713909727 345.0 8.0 239.0 
532.0005923698109 34344.0 916.0 1141.5958279009124 0.5012372719030745 351.0 8.0 239.0 
534.0005923698109 34344.0 916.0 1141.4889178617973 0.5042793712284626 351.0 8.0 239.0 
536.000084666035 34325.0 915.0 1147.561929595826 0.5014322983245553 350.0 10.0 239.0 
538.0005923698109 34321.0 915.0 1150.4693611473272 0.5013502363434126 351.0 10.0 240.0 
540.0003335334031 34325.0 915.0 1150.5501955671455 0.5015669913679006 350.0 10.0 240.0 
542.0005923698109 34348.0 915.0 1153.512385919165 0.50127663514716 351.0 10.0 241.0 
544.0005923698109 34348.0 915.0 1156.568448500653 0.5013810470588216 351.0 10.0 242.0 
546.000084666035 34360.0 916.0 1156.487614080835 0.502121251420349 350.0 10.0 242.0 
548.0005923698109 34374.0 916.0 1156.5267275097813 0.5043072614070295 350.0 10.0 242.0 
550.0003335334031 34334.0 915.0 1159.486310299872 0.5018697683814101 350.0 10.0 243.0 
552.0005923698109 34336.0 915.0 1165.559322033901 0.5014192624999914 352.0 10.0 245.0 
554.0005923698109 34347.0 915.0 1165.478487614083 0.501146473366425 355.0 10.0 245.0 
556.000084666035 34365.0 916.0 1168.539765319425 0.5014823329819491 355.0 10.0 246.0 
558.0005923698109 34364.0 916.0 1168.518904823992 0.5012596089327475 355.0 10.0 246.0 
560.0003335334031 34366.0 916.0 1168.5423728813562 0.5013018658127073 355.0 10.0 246.0 
562.0005923698109 34390.0 917.0 1168.487614080835 0.5012281489016389 355.0 10.0 246.0 
564.0005923698109 34424.0 918.0 1168.4928292046948 0.5014999809245573 355.0 10.0 246.0 
566.000084666035 34438.0 918.0 1171.4393741851359 0.5015963452449355 356.0 10.0 247.0 
568.0005923698109 34439.0 918.0 1171.494132985661 0.5015850103664046 357.0 10.0 247.0 
570.0003335334031 34506.0 919.0 1171.4550195567153 0.5033677939289365 358.0 10.0 247.0 
572.0005923698109 34480.0 918.0 1171.473272490219 0.5015913204952249 358.0 10.0 247.0 
574.0005923698109 34505.0 919.0 1174.4458930899632 0.5015566714773402 359.0 10.0 248.0 
576.000084666035 34560.0 919.0 1177.4654498044295 0.5014959665441712 363.0 10.0 249.0 
578.0005923698109 34624.0 920.0 1171.4498044328554 0.5025925573924587 363.0 10.0 247.0 
580.0003335334031 34624.0 919.0 1174.5006518904834 0.5010597956324538 363.0 10.0 248.0 
582.0005923698109 34748.0 920.0 1174.458930899608 0.502722927031683 362.0 10.0 248.0 
584.0005923698109 34775.0 921.0 1171.4706649282937 0.5031118710631114 362.0 10.0 247.0 
586.000084666035 34752.0 920.0 1171.4445893089965 0.5011463176690698 362.0 10.0 247.0 
588.0005923698109 34765.0 921.0 1171.4837027379378 0.5005131160292782 361.0 10.0 247.0 
590.0003335334031 34792.0 923.0 1171.4654498044295 0.5030033305817869 360.0 10.0 247.0 
592.0005923698109 34794.0 922.0 1177.5019556714471 0.5046910532690845 361.0 10.0 249.0 
594.0005923698109 34814.0 921.0 1174.4797913950451 0.5009491540950403 364.0 10.0 248.0 
596.000084666035 34849.0 922.0 1174.482398956975 0.5017943520420659 364.0 10.0 248.0 
598.0005923698109 34882.0 922.0 1168.4928292046948 0.5021679982285008 364.0 10.0 246.0 
600.0003335334031 34875.0 922.0 1168.5241199478467 0.5012641904456244 363.0 10.0 246.0 
602.0005923698109 34878.0 922.0 1168.4928292046948 0.5010908863364513 361.0 10.0 246.0 
604.0005923698109 34886.0 922.0 1168.4797913950451 0.501397524304244 360.0 10.0 246.0 
606.000084666035 34900.0 923.0 1168.4667535853962 0.5025717840985858 361.0 10.0 246.0 
608.0005923698109 34902.0 922.0 1168.5293350717063 0.5023212267274435 361.0 10.0 246.0 
610.0003335334031 34899.0 922.0 1168.4693611473272 0.5010447578540574 361.0 10.0 246.0 
612.0005923698109 34907.0 922.0 1168.513689700128 0.5011175366537876 362.0 10.0 246.0 
614.0005923698109 34919.0 922.0 1168.458930899607 0.5011549239720812 362.0 10.0 246.0 
616.000084666035 34984.0 923.0 1168.4693611473272 0.5033824072096479 362.0 10.0 246.0 
618.0005923698109 34931.0 922.0 1168.4693611473272 0.5015029737235153 362.0 10.0 246.0 
620.0003335334031 34933.0 921.0 1171.5176010430253 0.5038067224086452 362.0 10.0 247.0 
622.0005923698109 34918.0 921.0 1171.5306388526733 0.501182517054367 363.0 10.0 247.0 
624.0005923698109 34918.0 921.0 1168.5788787483675 0.500885642048932 362.0 10.0 246.0 
626.000084666035 34920.0 921.0 1171.4915254237271 0.5009592124714567 365.0 10.0 247.0 
628.0005923698109 34928.0 921.0 1171.5410691003924 0.5009648853211 366.0 10.0 247.0 
630.0003335334031 34932.0 921.0 1171.4576271186445 0.5009958306667646 366.0 10.0 247.0 
632.0005923698109 34932.0 921.0 1177.5488917861815 0.5012543033078943 366.0 10.0 249.0 
634.0005923698109 34942.0 921.0 1180.518904823992 0.5015687619960311 369.0 10.0 250.0 
636.000084666035 34946.0 922.0 1180.513689700128 0.5010146977051838 370.0 10.0 250.0 
638.0005923698109 34950.0 922.0 1180.5006518904834 0.5011161305906539 369.0 10.0 250.0 
640.0003335334031 34953.0 922.0 1177.5384615384585 0.501267970891814 368.0 10.0 249.0 
642.0005923698109 34957.0 922.0 1177.4524119947853 0.5008052602323244 366.0 10.0 249.0 
644.0005923698109 35080.0 923.0 1177.5332464146034 0.5025169615372133 365.0 10.0 249.0 
646.000084666035 35062.0 922.0 1177.4289439374218 0.5010800658061797 366.0 10.0 249.0 
648.0005923698109 35065.0 922.0 1177.5462842242478 0.5010562779490054 366.0 10.0 249.0 
650.0003335334031 35068.0 922.0 1177.486310299872 0.5034733139651889 364.0 10.0 249.0 
652.0005923698109 35096.0 922.0 1180.5267275097813 0.5015139201130444 363.0 10.0 250.0 
654.0005923698109 35106.0 922.0 1180.5345501955708 0.5022402500047757 363.0 10.0 250.0 
656.000084666035 35104.0 922.0 1180.5267275097813 0.5042798555352668 362.0 10.0 250.0 
658.0005923698109 35102.0 921.0 1177.5410691003924 0.5017151317122445 362.0 10.0 249.0 
660.0003335334031 35104.0 921.0 1180.4745762711862 0.5021470088468695 358.0 10.0 250.0 
662.0005923698109 35110.0 921.0 1180.513689700128 0.5018363818113369 358.0 10.0 250.0 
664.0005923698109 35184.0 922.0 1180.513689700128 0.5012911796499221 361.0 10.0 250.0 
#####################################################################
# End of data export. Simulation finished at: 2019-03-09T14:01+0000 #
#####################################################################
