#####################################################################
# Alchemist log file - simulation started at: 2019-03-05T00:45+0000 #
#####################################################################
# seed = 1.0, bandwidth = 4216.965034285822, accessPointCount = 531.8295896944988, baserange = 316.2277660168379
#
# The columns have the following meaning: 
# time neighbor_count[Sum] <value>@neighbor_count[Sum] packet_size[Mean] mean_delay[Mean] crowd[Sum] overcrowded[Sum] risk[Sum] 
0.0 NaN NaN NaN NaN NaN NaN NaN 
10.000417374280275 2425.0 1188.0 4982.850098619329 2.1010039525854443 1497.0 0.0 1497.0 
20.000268941983645 5222.0 1642.0 4984.577909270217 4.055005105320393 1497.0 0.0 1497.0 
30.000417374280275 6826.0 1779.0 4984.942800788955 5.612130514906026 1497.0 0.0 1497.0 
40.00026894198364 9634.0 1900.0 4985.950690335306 5.871806208285252 1497.0 0.0 1497.0 
50.000417374280275 10373.0 1926.0 4985.940828402367 5.769461583559925 1497.0 0.0 1497.0 
60.00026894198364 11639.0 1975.0 4986.242603550296 6.041001402509188 1497.0 0.0 1497.0 
70.00041737428027 10552.0 1940.0 1044.7712031558258 4.878801823979829 514.0 1.0 283.0 
80.00041737428027 11567.0 1978.0 1051.5364891518695 3.4252926751608586 419.0 3.0 284.0 
90.00041737428027 11834.0 2018.0 1146.7218934911261 3.25652654584044 448.0 3.0 326.0 
100.00041737428027 12022.0 2027.0 1151.3037475345152 3.751986500818682 439.0 2.0 329.0 
110.00041737428027 11117.0 1992.0 1151.1715976331304 3.2503392618983744 439.0 0.0 331.0 
120.00041737428027 12696.0 2052.0 1155.9053254437938 2.931998181603208 452.0 0.0 333.0 
130.0004173742803 12726.0 2052.0 1149.0256410256413 3.413607000159255 446.0 0.0 330.0 
140.0004173742803 12213.0 2032.0 1144.3865877712083 3.9665118637750028 436.0 0.0 328.0 
150.0004173742803 11626.0 2005.0 1148.7199211045358 2.7646505441994633 434.0 0.0 330.0 
160.0004173742803 12732.0 2048.0 1160.325443786986 3.0019643109994267 443.0 0.0 335.0 
170.0004173742803 12732.0 2048.0 1158.0927021696332 3.934788113545347 443.0 0.0 334.0 
180.0004173742803 11497.0 2007.0 1160.305719921097 3.5168769707985263 440.0 0.0 335.0 
190.0004173742803 12396.0 2039.0 1162.5246548323544 2.5395893601114583 445.0 1.0 335.0 
200.0004173742803 12841.0 2056.0 1155.7889546351093 3.550842388299648 445.0 1.0 332.0 
210.0004173742803 12793.0 2049.0 1160.2426035502922 3.775332434882496 449.0 1.0 334.0 
220.0004173742803 11223.0 1994.0 1164.613412228792 2.915831288803949 442.0 1.0 336.0 
230.0004173742803 12446.0 2038.0 1169.2426035502924 2.966769117603751 444.0 1.0 338.0 
240.0004173742803 12566.0 2042.0 1173.9309664694354 3.5511538898895565 449.0 1.0 340.0 
250.0004173742803 12893.0 2057.0 1169.4536489151917 3.564265192356853 449.0 1.0 338.0 
260.0004173742803 11602.0 2027.0 1169.0670611439832 3.330343402794773 450.0 1.0 338.0 
270.0004173742803 12187.0 2038.0 1160.234714003951 3.3070605680252307 445.0 2.0 333.0 
280.0004173742803 12250.0 2037.0 1146.7633136094682 2.9814562061779855 443.0 2.0 327.0 
290.0004173742803 12127.0 2023.0 1139.9644970414183 3.5145491450013018 440.0 1.0 325.0 
300.0004173742803 12205.0 2040.0 1139.8086785009816 3.4345025501736477 441.0 1.0 325.0 
310.0004173742803 12181.0 2044.0 1146.5404339250467 2.9216598449824365 440.0 1.0 328.0 
320.0004173742803 12670.0 2068.0 1142.1459566074973 3.532139944698754 440.0 4.0 323.0 
330.0004173742803 11489.0 2027.0 1142.0631163708044 3.2422347899701864 432.0 9.0 318.0 
340.0004173742803 12279.0 2054.0 1144.5325443786962 3.0435690693153 429.0 12.0 316.0 
350.0004173742803 12086.0 2048.0 1144.3865877712085 3.099751083075962 425.0 9.0 319.0 
360.0004173742803 12658.0 2066.0 1142.1893491124208 3.799463848187828 433.0 8.0 319.0 
370.0004173742803 11425.0 2036.0 1139.6528599605442 3.130129070750429 435.0 6.0 320.0 
380.0004173742803 12281.0 2057.0 1144.329388560165 3.146055471519487 441.0 3.0 325.0 
390.0004173742803 11960.0 2051.0 1141.9171597633072 3.380428527933878 438.0 7.0 320.0 
400.0004173742803 12413.0 2057.0 1157.9940828402398 3.546032145304368 444.0 7.0 327.0 
410.0004173742803 12184.0 2062.0 1155.7672583826468 3.0441417460968316 447.0 7.0 326.0 
420.0004173742803 12551.0 2070.0 1153.4142011834388 3.502422695060644 436.0 16.0 316.0 
430.0004173742803 11892.0 2043.0 1137.3885601577892 3.4160430576931584 425.0 17.0 308.0 
440.0004173742803 11520.0 2024.0 1142.0019723865814 2.9861638939459043 424.0 17.0 310.0 
450.0004173742803 12490.0 2071.0 1144.3806706114387 3.089375421901079 429.0 19.0 309.0 
460.0004173742803 12503.0 2070.0 1133.0532544378723 3.5250759328920744 424.0 20.0 303.0 
470.0004173742803 11999.0 2052.0 1128.3786982248578 3.625875421156915 415.0 20.0 301.0 
480.0004173742803 11247.0 2026.0 1128.1932938855998 3.033096426910147 413.0 19.0 302.0 
490.0004173742803 12403.0 2068.0 1123.8875739645032 3.1870924731760675 411.0 20.0 299.0 
500.0004173742803 12453.0 2072.0 1119.3984220907214 3.4742004772529813 412.0 20.0 297.0 
510.0004173742803 11955.0 2049.0 1123.952662721889 3.767303558900582 414.0 19.0 300.0 
520.0004173742802 12452.0 2072.0 1114.7948717948696 2.688905205542655 416.0 19.0 296.0 
530.0004173742802 12585.0 2073.0 1110.307692307695 3.0555991780459495 413.0 19.0 294.0 
540.0004173742802 12428.0 2065.0 1114.7790927021774 3.655030774967347 413.0 20.0 295.0 
550.0004173742802 11082.0 2014.0 1128.2919132149857 3.027273076213506 411.0 19.0 302.0 
560.0004173742802 12581.0 2072.0 1144.3570019723882 2.898376918464205 422.0 19.0 309.0 
570.0004173742802 12516.0 2069.0 1146.5877712031593 3.5284149553070807 426.0 19.0 310.0 
580.0004173742802 12538.0 2069.0 1155.692307692305 3.6168655083775363 429.0 20.0 313.0 
590.0004173742802 10976.0 2013.0 1157.59368836292 2.7606930078284995 421.0 19.0 315.0 
600.0004173742802 12691.0 2075.0 1155.639053254433 3.4853295625497167 433.0 20.0 313.0 
610.0004173742802 12567.0 2070.0 1164.8757396449648 3.341616934976033 434.0 20.0 317.0 
620.0004173742802 12672.0 2074.0 1158.0039447731801 3.8540727766251766 432.0 19.0 315.0 
630.0004173742802 11400.0 2027.0 1157.7120315581785 2.848973258059716 426.0 19.0 315.0 
640.0004173742802 12628.0 2067.0 1164.8698224852124 3.2601221399697717 434.0 19.0 318.0 
650.0004173742802 12357.0 2057.0 1169.327416173566 3.3345036931102805 438.0 19.0 320.0 
660.0004173742802 12484.0 2058.0 1178.3944773175494 3.75868085227627 441.0 19.0 324.0 
#####################################################################
# End of data export. Simulation finished at: 2019-03-05T01:01+0000 #
#####################################################################
