#####################################################################
# Alchemist log file - simulation started at: 2019-03-10T23:48+0000 #
#####################################################################
# seed = 4.0, bandwidth = 74989.42093324558, accessPointCount = 274.2481756762073, baserange = 177.82794100389228
#
# The columns have the following meaning: 
# time neighbor_count[Sum] <value>@neighbor_count[Sum] packet_size[Mean] mean_delay[Mean] crowd[Sum] overcrowded[Sum] risk[Sum] 
0.0 NaN NaN NaN NaN NaN NaN NaN 
2.0000042429967895 940.0 383.0 4984.88989271598 0.42704514596301363 1497.0 0.0 1497.0 
4.0000042429967895 2090.0 507.0 4986.730660643704 0.5847605618828033 1497.0 0.0 1497.0 
6.0000042429967895 2728.0 516.0 4987.1485036702425 0.6280911638549813 1497.0 0.0 1497.0 
8.00000424299679 3126.0 522.0 4987.4488989271595 0.6658324161688521 1497.0 0.0 1497.0 
10.00000424299679 3413.0 523.0 4987.311123658949 0.6903565093842606 1495.0 2.0 1495.0 
12.00000424299679 3440.0 520.0 4987.4443817052515 0.7097699276494773 1497.0 0.0 1497.0 
14.00000424299679 3359.0 507.0 4987.27950310559 0.6501653695952192 1493.0 4.0 1493.0 
16.000004242996788 3308.0 499.0 4987.211744776962 0.6015104840314759 1488.0 9.0 1488.0 
18.000004242996788 3308.0 499.0 4987.277244494636 0.6015257732399554 1488.0 9.0 1488.0 
20.000004242996788 3308.0 499.0 4987.101072840203 0.6013935081899014 1488.0 9.0 1488.0 
22.000004242996788 3308.0 499.0 4987.164313946922 0.6014296058285116 1488.0 9.0 1488.0 
24.000004242996788 3308.0 499.0 4987.116883116883 0.6014004206843342 1488.0 9.0 1488.0 
26.000004242996788 3308.0 499.0 4987.040090344438 0.6043850788028897 1488.0 9.0 1488.0 
28.000004242996788 3308.0 499.0 4987.096555618295 0.6179294250646745 1488.0 9.0 1488.0 
30.000004242996788 3308.0 498.0 4987.028797289667 0.6251763564209208 1488.0 9.0 1488.0 
32.00000424299679 3310.0 498.0 4987.058159232072 0.6067006204535752 1488.0 9.0 1488.0 
34.00000424299679 3309.0 498.0 4986.98814229249 0.6104550481531648 1488.0 9.0 1488.0 
36.00000424299679 3304.0 497.0 4987.116883116883 0.6018483078133315 1488.0 9.0 1488.0 
38.00000424299679 3306.0 498.0 4986.97233201581 0.6009766939920833 1488.0 9.0 1488.0 
40.00000424299679 3306.0 498.0 4987.105590062112 0.6009704796860629 1488.0 9.0 1488.0 
42.00000424299679 3306.0 498.0 4986.857142857143 0.600985013361633 1488.0 9.0 1488.0 
44.00000424299679 3306.0 498.0 4987.112365894975 0.6009664225255463 1488.0 9.0 1488.0 
46.00000424299679 3308.0 498.0 4986.854884246189 0.6003974749361379 1488.0 9.0 1488.0 
48.00000424299679 3308.0 498.0 4987.062676453981 0.6051464216762205 1488.0 9.0 1488.0 
50.00000424299679 3310.0 499.0 4986.918125352908 0.6087205051577602 1488.0 9.0 1488.0 
52.00000424299679 3308.0 498.0 4987.062676453981 0.6005713603976065 1488.0 9.0 1488.0 
54.00000424299679 3308.0 498.0 4986.88198757764 0.6006343307458826 1488.0 9.0 1488.0 
56.00000424299679 3308.0 498.0 4987.123658949746 0.6005546660701163 1488.0 9.0 1488.0 
58.00000424299679 3308.0 498.0 4986.886504799549 0.6005464501667025 1488.0 9.0 1488.0 
60.00000424299679 3313.0 500.0 4984.494635798984 0.6092545265750179 1488.0 9.0 1488.0 
62.00000424299679 3314.0 500.0 706.9316770186362 0.5898490938994566 297.0 9.0 109.0 
64.0000042429968 3310.0 498.0 706.7261434217958 0.5780239763697839 236.0 8.0 110.0 
66.0000042429968 3310.0 497.0 706.6583850931684 0.5679954303643354 216.0 10.0 108.0 
68.0000042429968 3316.0 499.0 706.6290231507637 0.5737134385395137 188.0 12.0 106.0 
70.0000042429968 3318.0 499.0 706.6380575945792 0.5853556155873599 178.0 12.0 106.0 
72.0000042429968 3314.0 499.0 703.9638622247327 0.5826110196807385 175.0 12.0 105.0 
74.0000042429968 3312.0 498.0 701.4093732354576 0.568158744003321 171.0 11.0 105.0 
76.0000042429968 3316.0 499.0 701.3913043478266 0.5689304144017222 172.0 11.0 105.0 
78.0000042429968 3340.0 500.0 703.952569169958 0.5766277730138553 169.0 11.0 106.0 
80.0000042429968 3342.0 501.0 704.0180688876362 0.5856276699724973 168.0 11.0 106.0 
82.0000042429968 3335.0 501.0 703.9390175042354 0.5796953007487772 168.0 11.0 106.0 
84.0000042429968 3332.0 499.0 704.0022586109543 0.5776764346886262 167.0 12.0 105.0 
86.0000042429968 3330.0 498.0 701.4093732354576 0.5691044459094605 166.0 12.0 104.0 
88.0000042429968 3332.0 499.0 701.3438735177842 0.5813648605070687 162.0 13.0 103.0 
90.0000042429968 3331.0 498.0 701.3980801806878 0.5940795793024038 162.0 13.0 103.0 
92.0000042429968 3306.0 498.0 701.3212874082466 0.5771762977411954 159.0 15.0 101.0 
94.0000042429968 3303.0 497.0 701.3800112930587 0.5821695519101924 159.0 15.0 101.0 
96.0000042429968 3300.0 496.0 701.3890457368741 0.568633054041884 159.0 15.0 101.0 
98.0000042429968 3320.0 497.0 701.3303218520621 0.5743485947935327 160.0 15.0 101.0 
100.0000042429968 3320.0 497.0 701.3867871259183 0.5826977431935362 160.0 15.0 101.0 
102.0000042429968 3316.0 495.0 701.3303218520621 0.5680528016092726 160.0 15.0 101.0 
104.0000042429968 3316.0 495.0 701.359683794468 0.5680699638697444 160.0 15.0 101.0 
106.0000042429968 3333.0 496.0 701.3664596273292 0.5676874096719812 161.0 15.0 101.0 
108.0000042429968 3338.0 497.0 703.918690005645 0.5744685397063212 160.0 15.0 102.0 
110.0000042429968 3340.0 498.0 703.975155279501 0.586300946986548 160.0 15.0 102.0 
112.0000042429968 3321.0 498.0 703.9412761151877 0.5797024133040531 160.0 15.0 102.0 
114.0000042429968 3319.0 496.0 703.9435347261424 0.5693145697921379 160.0 15.0 102.0 
116.0000042429968 3318.0 496.0 703.9661208356872 0.5682222353857741 160.0 15.0 102.0 
118.0000042429968 3352.0 498.0 709.1225296442676 0.5712576115940414 161.0 15.0 104.0 
120.0000042429968 3357.0 499.0 711.762845849801 0.5709571666699008 163.0 15.0 105.0 
122.0000042429968 3358.0 499.0 711.7108977978553 0.5687899998291073 163.0 15.0 105.0 
124.0000042429968 3359.0 499.0 711.7605872388464 0.5687807796430275 164.0 14.0 106.0 
126.0000042429968 3367.0 499.0 711.7696216826671 0.5687018032480261 163.0 15.0 105.0 
128.0000042429968 3386.0 500.0 714.306041784301 0.5803757968911455 164.0 15.0 106.0 
130.0000042429968 3383.0 500.0 714.3354037267069 0.5865771448405825 164.0 15.0 106.0 
132.0000042429968 3366.0 500.0 714.2970073404856 0.5772357781001604 164.0 15.0 106.0 
134.0000042429968 3392.0 501.0 716.9440993788786 0.5889485643623918 165.0 15.0 107.0 
136.0000042429968 3384.0 500.0 719.557312252966 0.5877092597940269 165.0 15.0 108.0 
138.0000042429968 3395.0 500.0 722.0846979107822 0.5918687616250502 165.0 15.0 109.0 
140.0000042429968 3392.0 499.0 722.1230942970036 0.5830693753085084 165.0 15.0 109.0 
142.0000042429968 3409.0 498.0 724.6888763410487 0.5909774998931376 166.0 15.0 110.0 
144.0000042429968 3424.0 499.0 727.3337097684965 0.6025526859225383 166.0 15.0 111.0 
146.0000042429968 3410.0 497.0 727.3585544889881 0.5761126066383719 166.0 15.0 111.0 
148.0000042429968 3414.0 497.0 729.8836815358575 0.5769429883468535 166.0 15.0 112.0 
150.0000042429968 3414.0 497.0 727.3314511575348 0.5758354920279126 166.0 15.0 111.0 
152.0000042429968 3416.0 497.0 724.7024280067783 0.5765977787152159 166.0 15.0 110.0 
154.0000042429968 3416.0 497.0 722.1366459627335 0.5768952449253951 163.0 15.0 109.0 
156.0000042429968 3415.0 497.0 722.1456804065485 0.5747806781887109 160.0 15.0 109.0 
158.0000042429968 3416.0 498.0 719.4556747600201 0.5819065238132234 162.0 15.0 108.0 
160.0000042429968 3416.0 498.0 719.4872953133787 0.5921353928086062 162.0 15.0 108.0 
162.0000042429968 3406.0 497.0 719.4760022586104 0.5853896502646413 162.0 15.0 108.0 
164.0000042429968 3420.0 496.0 719.4985883681553 0.5832184570356994 162.0 15.0 108.0 
166.0000042429968 3436.0 497.0 719.5189158667392 0.5778719762111642 162.0 15.0 108.0 
168.0000042429968 3436.0 497.0 719.4556747600201 0.5848524474614424 161.0 15.0 108.0 
170.0000042429968 3436.0 497.0 716.919254658387 0.5963135725861644 160.0 15.0 107.0 
172.0000042429968 3434.0 496.0 716.8695652173913 0.5848269237840126 160.0 15.0 107.0 
174.0000042429968 3433.0 495.0 716.8876341050277 0.5755996095314257 159.0 15.0 107.0 
176.0000042429968 3434.0 495.0 716.8989271597964 0.5756583218368891 157.0 15.0 107.0 
178.0000042429968 3434.0 495.0 716.8514963297538 0.5756725803562723 157.0 15.0 107.0 
180.0000042429968 3434.0 495.0 714.2947487295312 0.5758563073570174 157.0 15.0 106.0 
182.0000042429968 3434.0 495.0 714.2721626199876 0.5758338231434685 157.0 15.0 106.0 
184.0000042429968 3435.0 495.0 716.8921513269364 0.5771012563726057 157.0 15.0 107.0 
186.0000042429968 3440.0 496.0 719.485036702426 0.5797451189757655 159.0 14.0 109.0 
188.0000042429968 3458.0 497.0 719.4827780914718 0.5868011398868204 160.0 14.0 109.0 
190.0000042429968 3448.0 496.0 716.9621682665164 0.585809027336159 160.0 14.0 108.0 
192.0000042429968 3444.0 496.0 716.8740824392986 0.576407293102633 158.0 15.0 107.0 
194.0000042429968 3444.0 496.0 716.9373235460174 0.5764227388924563 158.0 15.0 107.0 
196.0000042429968 3444.0 496.0 716.9102202145657 0.5763960971789055 158.0 15.0 107.0 
198.0000042429968 3451.0 496.0 716.9057029926571 0.5763305316630872 158.0 15.0 107.0 
200.0000042429968 3454.0 497.0 716.921513269341 0.5761211684379743 158.0 15.0 107.0 
202.0000042429968 3454.0 497.0 716.8898927159806 0.5761064643319185 158.0 15.0 107.0 
204.0000042429968 3454.0 497.0 714.3083003952537 0.5757600679764683 158.0 15.0 106.0 
206.0000042429968 3454.0 497.0 714.3195934500304 0.5762434710245538 158.0 15.0 106.0 
208.0000042429968 3457.0 497.0 711.6860530773583 0.5754383895082941 157.0 15.0 105.0 
210.0000042429968 3458.0 497.0 711.7267080745321 0.5812185228542669 157.0 15.0 105.0 
212.0000042429968 3458.0 497.0 709.1044607566365 0.5884843048513749 157.0 15.0 104.0 
214.0000042429968 3458.0 497.0 711.7108977978556 0.5762446452448615 157.0 15.0 105.0 
216.0000042429968 3459.0 497.0 709.1360813099968 0.5751650803373808 157.0 15.0 104.0 
218.0000042429968 3460.0 498.0 706.4935064935037 0.5822021012615659 154.0 15.0 103.0 
220.0000042429968 3459.0 497.0 706.525127046864 0.58851165065419 153.0 15.0 103.0 
222.0000042429968 3446.0 497.0 706.5070581592329 0.5744327023903657 152.0 15.0 103.0 
224.0000042429968 3446.0 497.0 706.525127046864 0.5756909961817159 152.0 15.0 103.0 
226.0000042429968 3446.0 497.0 706.525127046864 0.5770818558829188 152.0 15.0 103.0 
228.0000042429968 3441.0 497.0 709.0773574251848 0.5829896041177145 153.0 15.0 104.0 
230.0000042429968 3440.0 497.0 709.1270468661759 0.5892012262246504 157.0 12.0 107.0 
232.0000042429968 3438.0 496.0 709.0999435347226 0.5767945823612617 157.0 12.0 107.0 
234.0000042429968 3438.0 496.0 709.1180124223603 0.5804363218732764 157.0 12.0 107.0 
236.0000042429968 3439.0 496.0 709.1202710333129 0.587296271567661 157.0 12.0 107.0 
238.0000042429968 3418.0 495.0 709.0818746470934 0.5844872905556894 158.0 11.0 108.0 
240.0000042429968 3410.0 495.0 709.113495200452 0.5763086473348055 157.0 12.0 107.0 
242.0000042429968 3410.0 495.0 709.0909090909071 0.5768548943815852 156.0 13.0 106.0 
244.0000042429968 3413.0 495.0 709.0909090909071 0.5769765437343949 154.0 15.0 104.0 
246.0000042429968 3422.0 496.0 709.1157538114062 0.5761558466261252 155.0 15.0 104.0 
248.0000042429968 3426.0 497.0 706.4686617730113 0.5748786166558424 154.0 15.0 103.0 
250.0000042429968 3426.0 497.0 703.9367588932812 0.5753518236449932 152.0 15.0 102.0 
252.0000042429968 3426.0 497.0 703.8961038961055 0.5759172989914196 152.0 15.0 102.0 
254.0000042429968 3427.0 497.0 703.9412761151877 0.5758417613576332 152.0 15.0 102.0 
256.0000042429968 3426.0 497.0 706.545454545454 0.5758821456318565 152.0 15.0 103.0 
258.0000042429968 3426.0 497.0 706.4709203839659 0.5751209800513507 152.0 15.0 103.0 
260.0000042429968 3429.0 498.0 706.5251270468638 0.5761789254952677 153.0 15.0 103.0 
262.0000042429968 3432.0 499.0 706.5115753811399 0.5838699062166162 153.0 15.0 103.0 
264.0000042429968 3434.0 499.0 706.5206098249566 0.5883395253116118 153.0 15.0 103.0 
266.0000042429968 3414.0 498.0 706.5522303783152 0.575539165648539 153.0 15.0 103.0 
268.0000042429968 3414.0 498.0 706.4867306606424 0.5828006674629687 151.0 15.0 103.0 
270.0000042429968 3416.0 499.0 706.5228684359095 0.594985620765754 151.0 15.0 103.0 
272.0000042429968 3414.0 498.0 706.4822134387351 0.5868766488029051 151.0 15.0 103.0 
274.0000042429968 3410.0 497.0 706.5273856578233 0.5830053822701324 151.0 15.0 103.0 
276.0000042429968 3410.0 497.0 706.5431959345001 0.5902442782546701 151.0 15.0 103.0 
278.0000042429968 3408.0 496.0 706.4844720496878 0.5760197361197137 151.0 15.0 103.0 
280.0000042429968 3408.0 496.0 703.9299830604186 0.5756580125366512 151.0 15.0 102.0 
282.0000042429968 3408.0 496.0 701.3145115753786 0.5761144815651118 151.0 15.0 101.0 
284.0000042429968 3408.0 496.0 701.3190287972926 0.5761422873886807 151.0 15.0 101.0 
286.0000042429968 3408.0 496.0 703.9232072275587 0.5758985591763262 152.0 15.0 102.0 
288.0000042429968 3408.0 496.0 703.914172783736 0.5757471549648557 152.0 15.0 102.0 
290.0000042429968 3410.0 497.0 703.9593450028248 0.5797177820716092 152.0 15.0 102.0 
292.0000042429968 3410.0 497.0 703.914172783736 0.5845543685168383 152.0 15.0 102.0 
294.0000042429968 3410.0 496.0 703.9638622247329 0.5767973156637589 152.0 15.0 102.0 
296.0000042429968 3411.0 497.0 706.6019198193122 0.5802876494475119 152.0 15.0 103.0 
298.0000042429968 3409.0 497.0 706.5522303783152 0.5840995782052053 152.0 15.0 103.0 
300.0000042429968 3409.0 497.0 706.540937323546 0.5890724041280927 152.0 15.0 103.0 
302.0000042429968 3408.0 496.0 706.5544889892699 0.5757624127209489 152.0 15.0 103.0 
304.0000042429968 3410.0 497.0 706.5635234330908 0.5782907934828648 152.0 15.0 103.0 
306.0000042429968 3427.0 498.0 709.1631846414482 0.5867312621839882 153.0 15.0 104.0 
308.0000042429968 3422.0 500.0 711.7041219649889 0.5941734891491337 153.0 15.0 105.0 
310.0000042429968 3415.0 498.0 711.7560700169383 0.5847662078069491 153.0 15.0 105.0 
312.0000042429968 3414.0 498.0 711.6950875211737 0.583986240651074 153.0 15.0 105.0 
314.0000042429968 3411.0 497.0 711.7538114059853 0.5818539818599631 153.0 15.0 105.0 
316.0000042429968 3410.0 497.0 711.7244494635793 0.5747781507778398 153.0 15.0 105.0 
318.0000042429968 3414.0 497.0 714.292490118577 0.577055731997809 153.0 15.0 106.0 
320.0000042429968 3415.0 498.0 714.3241106719374 0.5891845696537091 153.0 15.0 106.0 
322.0000042429968 3410.0 498.0 714.2970073404856 0.6000591638193679 153.0 15.0 106.0 
324.0000042429968 3413.0 497.0 711.7447769621697 0.576653421275516 153.0 15.0 105.0 
326.0000042429968 3416.0 498.0 711.7651044607535 0.579921308820436 153.0 15.0 105.0 
328.0000042429968 3417.0 498.0 711.7086391869029 0.5831513772939287 153.0 15.0 105.0 
330.0000042429968 3423.0 498.0 714.3602484472044 0.588757245782416 153.0 15.0 106.0 
332.0000042429968 3436.0 498.0 714.3466967814807 0.582877820715399 153.0 15.0 106.0 
334.0000042429968 3436.0 499.0 714.310559006215 0.5899770634339638 152.0 15.0 106.0 
336.0000042429968 3432.0 499.0 714.3489553924364 0.5913017110036003 152.0 15.0 106.0 
338.0000042429968 3428.0 498.0 711.7108977978554 0.5728746553520477 152.0 15.0 105.0 
340.0000042429968 3428.0 498.0 711.7402597402612 0.5800906768140808 152.0 15.0 105.0 
342.0000042429968 3433.0 499.0 714.3308865047987 0.5930515669948212 153.0 15.0 106.0 
344.0000042429968 3428.0 498.0 716.907961603613 0.5894713512995226 158.0 15.0 107.0 
346.0000042429968 3426.0 497.0 716.9486166007924 0.5734994896592721 159.0 15.0 107.0 
348.0000042429968 3428.0 497.0 716.9328063241106 0.5731887833002444 160.0 15.0 107.0 
350.0000042429968 3460.0 499.0 719.5234330886533 0.579119990409319 160.0 15.0 108.0 
352.0000042429968 3480.0 501.0 719.5324675324684 0.5909257923604901 162.0 15.0 108.0 
354.0000042429968 3484.0 501.0 719.5121400338775 0.5916097644132184 162.0 15.0 108.0 
356.0000042429968 3479.0 501.0 722.1298701298724 0.5924460078515045 162.0 15.0 109.0 
358.0000042429968 3477.0 500.0 722.1276115189175 0.5946744290490475 159.0 15.0 109.0 
360.0000042429968 3475.0 500.0 722.1230942970036 0.5942956540725127 159.0 15.0 109.0 
362.0000042429968 3464.0 499.0 722.1208356860512 0.5836092816217021 161.0 15.0 109.0 
364.0000042429968 3462.0 499.0 722.1389045736875 0.5864851078837958 161.0 15.0 109.0 
366.0000042429968 3459.0 499.0 724.7001693958237 0.5866578794099765 160.0 15.0 110.0 
368.0000042429968 3460.0 500.0 719.5460191981903 0.587319744119691 160.0 15.0 108.0 
370.0000042429968 3467.0 502.0 719.5482778091448 0.594544859942765 161.0 15.0 108.0 
372.0000042429968 3455.0 501.0 719.5256916996061 0.6038744877841654 160.0 15.0 108.0 
374.0000042429968 3442.0 500.0 719.5392433653298 0.6100644213563706 160.0 15.0 108.0 
376.0000042429968 3434.0 499.0 719.5166572557845 0.6027670467026985 160.0 15.0 108.0 
378.0000042429968 3423.0 498.0 719.5234330886534 0.602014498646461 159.0 15.0 108.0 
380.0000042429968 3418.0 498.0 722.1185770750966 0.6038158120649807 160.0 15.0 109.0 
382.0000042429968 3424.0 498.0 722.1005081874663 0.5861839256165442 164.0 15.0 109.0 
384.0000042429968 3439.0 500.0 729.9378881987537 0.5933123404451567 165.0 15.0 112.0 
386.0000042429968 3437.0 500.0 732.5172219085284 0.589294542029733 165.0 15.0 113.0 
388.0000042429968 3430.0 501.0 732.5262563523437 0.5902538123800933 163.0 15.0 113.0 
390.0000042429968 3433.0 502.0 732.4901185770768 0.5802951065944505 163.0 15.0 113.0 
392.0000042429968 3435.0 502.0 737.7210615471524 0.58633895802723 164.0 15.0 115.0 
394.0000042429968 3439.0 504.0 737.7188029361911 0.6031860149577282 167.0 15.0 115.0 
396.0000042429968 3449.0 503.0 740.3342744212332 0.5853905967789639 168.0 15.0 116.0 
398.0000042429968 3430.0 502.0 740.3229813664567 0.5776166794328295 168.0 15.0 116.0 
400.0000042429968 3426.0 502.0 740.2868435911887 0.5778523261316378 168.0 15.0 116.0 
402.0000042429968 3430.0 503.0 740.3049124788272 0.5900392236314091 167.0 15.0 116.0 
404.0000042429968 3428.0 502.0 737.6758893280626 0.5834783327817965 166.0 15.0 115.0 
406.0000042429968 3442.0 502.0 737.684923771878 0.576050664396572 167.0 15.0 115.0 
408.0000042429968 3456.0 504.0 737.6171654432508 0.584765700066661 167.0 15.0 115.0 
410.0000042429968 3455.0 504.0 737.671372106156 0.5939624038510398 167.0 15.0 115.0 
412.0000042429968 3450.0 503.0 737.6329757199346 0.5970120178571049 167.0 15.0 115.0 
414.0000042429968 3439.0 502.0 735.0897797854344 0.5909573625486416 166.0 15.0 114.0 
416.0000042429968 3428.0 502.0 735.0942970073427 0.5793538201278776 167.0 15.0 114.0 
418.0000042429968 3431.0 502.0 737.6623376623403 0.5836540774185588 167.0 15.0 115.0 
420.0000042429968 3428.0 502.0 737.6871823828317 0.5885247123431926 167.0 15.0 115.0 
422.0000042429968 3408.0 501.0 737.6781479390161 0.581881857870854 167.0 15.0 115.0 
424.0000042429968 3415.0 501.0 737.6623376623403 0.5893880815017887 167.0 15.0 115.0 
426.0000042429968 3439.0 501.0 737.6691134952022 0.6020277552839035 166.0 15.0 115.0 
428.0000042429968 3438.0 501.0 737.6307171089809 0.6170356077073063 166.0 15.0 115.0 
430.0000042429968 3417.0 500.0 735.0649350649367 0.6097098746509075 165.0 15.0 114.0 
432.0000042429968 3404.0 499.0 737.6397515527963 0.6036706887287915 166.0 15.0 115.0 
434.0000042429968 3395.0 497.0 737.6871823828318 0.5973093591831135 166.0 15.0 115.0 
436.0000042429968 3392.0 497.0 737.6600790513868 0.5806207532890046 166.0 15.0 115.0 
438.0000042429968 3413.0 500.0 737.6668548842488 0.5796006141899721 167.0 15.0 115.0 
440.0000042429968 3423.0 500.0 737.6758893280627 0.5853353061199561 167.0 15.0 115.0 
442.0000042429968 3450.0 504.0 735.0355731225309 0.5906778498676769 168.0 15.0 114.0 
444.0000042429968 3442.0 503.0 735.0739695087509 0.5993832972087534 168.0 15.0 114.0 
446.0000042429968 3429.0 503.0 735.0400903444377 0.6040035404581661 168.0 15.0 114.0 
448.0000042429968 3412.0 501.0 742.8458498023738 0.5836811351719599 172.0 15.0 117.0 
450.0000042429968 3415.0 502.0 748.0587238848121 0.5868661827760839 175.0 15.0 119.0 
452.0000042429968 3423.0 502.0 748.0271033314526 0.5811289049724327 176.0 15.0 119.0 
454.0000042429968 3428.0 503.0 748.0587238848121 0.5883823542098188 176.0 15.0 119.0 
456.0000042429968 3424.0 503.0 748.0429136081284 0.5919750661653453 176.0 15.0 119.0 
458.0000042429968 3420.0 502.0 750.6696781479379 0.5941409744799662 175.0 15.0 120.0 
460.0000042429968 3421.0 501.0 750.6516092603088 0.5832198082942974 175.0 15.0 120.0 
462.0000042429968 3441.0 502.0 748.0519480519503 0.5955176620081908 174.0 15.0 119.0 
464.0000042429968 3430.0 502.0 748.1151891586692 0.595194320855628 174.0 15.0 119.0 
466.0000042429968 3408.0 500.0 742.8887634105009 0.5814881848559741 173.0 15.0 117.0 
468.0000042429968 3409.0 500.0 742.879728966687 0.5858023504125471 172.0 15.0 117.0 
470.0000042429968 3410.0 500.0 742.8594014680948 0.5942077059412613 171.0 15.0 117.0 
472.0000042429968 3411.0 501.0 742.8164878599679 0.5934296773044974 171.0 15.0 117.0 
474.0000042429968 3398.0 501.0 742.8571428571418 0.5791780986476204 170.0 15.0 117.0 
476.0000042429968 3412.0 503.0 742.8255223037816 0.5823345400407883 170.0 15.0 117.0 
478.0000042429968 3415.0 504.0 742.8526256352346 0.5893206089329518 171.0 15.0 117.0 
480.0000042429968 3411.0 503.0 742.8345567475973 0.5900999199100158 169.0 15.0 117.0 
482.0000042429968 3413.0 503.0 745.409373235457 0.5889253735107798 169.0 15.0 118.0 
484.0000042429968 3412.0 503.0 742.8390739695117 0.5948065201665016 168.0 15.0 117.0 
486.0000042429968 3400.0 503.0 742.8481084133269 0.5695042263830851 168.0 15.0 117.0 
488.0000042429968 3400.0 503.0 742.8435911914189 0.5823671533265052 167.0 15.0 117.0 
490.0000042429968 3406.0 504.0 745.4500282326392 0.591662914798863 170.0 15.0 118.0 
492.0000042429968 3401.0 507.0 750.6290231507645 0.5683391667629879 170.0 15.0 120.0 
494.0000042429968 3403.0 507.0 742.8932806324091 0.5656024317152722 168.0 15.0 117.0 
496.0000042429968 3418.0 508.0 742.8774703557331 0.5668038115209538 168.0 15.0 117.0 
498.0000042429968 3429.0 509.0 742.9023150762306 0.5729468290317934 169.0 15.0 117.0 
500.0000042429968 3431.0 510.0 740.3003952569189 0.5806911835494464 169.0 15.0 116.0 
502.0000042429968 3431.0 508.0 740.2484472049688 0.5765062021556618 168.0 15.0 116.0 
504.0000042429968 3455.0 509.0 742.8910220214544 0.5846996124329403 169.0 15.0 117.0 
506.0000042429968 3490.0 511.0 745.4929418407667 0.622119652778469 170.0 15.0 118.0 
508.0000042429968 3481.0 509.0 742.8277809147355 0.6190556350569215 170.0 15.0 117.0 
510.0000042429968 3457.0 507.0 742.8571428571415 0.5826590724764147 173.0 15.0 117.0 
512.0000042429967 3452.0 506.0 742.8232636928284 0.5815080027168515 174.0 15.0 117.0 
514.0000042429967 3451.0 506.0 742.8458498023738 0.5834665051932905 174.0 15.0 117.0 
516.0000042429967 3472.0 507.0 745.4522868435928 0.5857446735653777 175.0 15.0 118.0 
518.0000042429967 3494.0 508.0 740.2529644268759 0.5904791650999567 174.0 15.0 116.0 
520.0000042429967 3499.0 507.0 737.6442687747032 0.5887528174015269 173.0 15.0 115.0 
522.0000042429967 3498.0 507.0 737.6239412761128 0.5979756587854235 173.0 15.0 115.0 
524.0000042429967 3496.0 506.0 735.0536420101602 0.6113718088246525 171.0 15.0 114.0 
526.0000042429967 3506.0 507.0 735.0604178430285 0.6029384814606217 170.0 15.0 114.0 
528.0000042429967 3501.0 506.0 729.8520609824974 0.6235884214728464 170.0 15.0 112.0 
530.0000042429967 3460.0 505.0 729.8588368153592 0.6050826221710557 170.0 15.0 112.0 
532.0000042429967 3446.0 504.0 732.426877470358 0.6069039213615628 169.0 15.0 113.0 
534.0000042429967 3430.0 503.0 732.4697910784855 0.5954096826578713 169.0 15.0 113.0 
536.0000042429967 3437.0 503.0 732.4630152456248 0.5943209647772195 170.0 15.0 113.0 
538.0000042429967 3449.0 505.0 732.4336533032188 0.6184736971439344 171.0 15.0 113.0 
540.0000042429967 3404.0 506.0 732.4291360813116 0.6096810777907968 172.0 15.0 113.0 
542.0000042429967 3381.0 504.0 732.4042913608126 0.592575017072812 172.0 15.0 113.0 
544.0000042429967 3384.0 504.0 737.6239412761132 0.5774346741549758 173.0 15.0 115.0 
546.0000042429967 3398.0 505.0 735.0287972896685 0.576257064480891 173.0 15.0 114.0 
548.0000042429967 3395.0 505.0 735.0310559006238 0.5854303975363295 173.0 15.0 114.0 
550.0000042429967 3380.0 504.0 732.4404291360796 0.5876000227245869 173.0 15.0 113.0 
552.0000042429967 3376.0 504.0 732.4223602484492 0.6110341960893286 171.0 15.0 113.0 
554.0000042429967 3366.0 501.0 732.4404291360796 0.5857526255615082 171.0 15.0 113.0 
556.0000042429967 3372.0 500.0 735.0513833992069 0.5786592800818395 171.0 15.0 114.0 
558.0000042429967 3384.0 501.0 735.0333145115768 0.5897146268811941 170.0 15.0 114.0 
560.0000042429967 3379.0 499.0 729.8475437605902 0.5749771216184616 169.0 15.0 112.0 
562.0000042429967 3384.0 503.0 729.8498023715433 0.5704549535061587 170.0 15.0 112.0 
564.0000042429967 3393.0 504.0 727.2614342179548 0.5830910972686352 168.0 15.0 111.0 
566.0000042429967 3389.0 505.0 732.4743083003946 0.5804516856081664 167.0 15.0 113.0 
568.0000042429967 3376.0 505.0 735.1326933935625 0.5701585310670826 167.0 15.0 114.0 
570.0000042429967 3382.0 507.0 732.4878599661225 0.5726628748259486 168.0 15.0 113.0 
572.0000042429967 3393.0 509.0 727.306606437043 0.5682523114963716 168.0 15.0 111.0 
574.0000042429967 3415.0 511.0 727.3630717108952 0.5715046001936406 168.0 15.0 111.0 
576.0000042429967 3422.0 510.0 727.2885375494063 0.580212456665081 168.0 15.0 111.0 
578.0000042429967 3422.0 509.0 724.7092038396395 0.5928971439965864 167.0 15.0 110.0 
580.0000042429967 3448.0 509.0 727.3066064370433 0.5852759028880946 166.0 15.0 111.0 
582.0000042429967 3468.0 510.0 732.469791078486 0.5857666222919139 170.0 15.0 113.0 
584.0000042429967 3469.0 509.0 729.8430265386761 0.590273449715531 166.0 15.0 112.0 
586.0000042429967 3505.0 510.0 727.3291925465816 0.6005034659558764 165.0 15.0 111.0 
588.0000042429967 3500.0 509.0 724.6821005081874 0.5927798296037662 165.0 15.0 110.0 
590.0000042429967 3499.0 509.0 724.704686617731 0.5936367876166074 165.0 15.0 110.0 
592.0000042429967 3500.0 509.0 724.7024280067784 0.5910632311994107 165.0 15.0 110.0 
594.0000042429967 3496.0 509.0 727.2636928289086 0.5804280444179215 167.0 15.0 111.0 
596.0000042429967 3499.0 509.0 729.8656126482196 0.5881184234854075 171.0 15.0 112.0 
598.0000042429967 3506.0 511.0 735.0875211744801 0.5983256582669436 172.0 15.0 114.0 
600.0000042429967 3509.0 513.0 732.4810841332608 0.5881408300092399 173.0 15.0 113.0 
602.0000042429967 3501.0 513.0 740.2190852625627 0.58323142297714 174.0 15.0 116.0 
604.0000042429967 3506.0 514.0 740.2868435911886 0.5951615164006511 176.0 15.0 116.0 
606.0000042429967 3497.0 513.0 740.2936194240515 0.5898734725617394 175.0 15.0 116.0 
608.0000042429967 3504.0 514.0 742.8571428571419 0.5881800143207778 175.0 15.0 117.0 
610.0000042429967 3523.0 513.0 742.9068322981377 0.5850202807950439 174.0 15.0 117.0 
612.0000042429967 3552.0 514.0 745.5132693393581 0.6111946891332419 173.0 15.0 118.0 
614.0000042429967 3572.0 516.0 745.529079616034 0.6326601034038063 172.0 15.0 118.0 
616.0000042429967 3545.0 513.0 745.5629587803472 0.6078452286036997 173.0 15.0 118.0 
618.0000042429967 3537.0 511.0 745.5223037831724 0.5872138541610689 174.0 15.0 118.0 
620.0000042429967 3543.0 511.0 748.0067758328605 0.5811981298088149 174.0 15.0 119.0 
622.0000042429967 3603.0 513.0 748.1287408243916 0.5967744341232214 174.0 15.0 119.0 
624.0000042429967 3593.0 513.0 748.110671936762 0.6109410320823111 174.0 15.0 119.0 
626.0000042429967 3570.0 511.0 745.4816487859989 0.5935324140094331 174.0 15.0 118.0 
628.0000042429967 3583.0 510.0 745.4952004517199 0.5994327403581527 174.0 16.0 117.0 
630.0000042429967 3611.0 510.0 745.4703557312223 0.6077804075035453 174.0 15.0 118.0 
632.0000042429967 3655.0 511.0 745.4793901750442 0.6139879255705526 174.0 16.0 117.0 
634.0000042429967 3626.0 510.0 748.1084133258087 0.6190269317355854 172.0 18.0 116.0 
636.0000042429967 3631.0 511.0 748.0722755505342 0.5899621405127413 174.0 16.0 118.0 
638.0000042429967 3653.0 512.0 748.0903444381715 0.5948821168331582 174.0 16.0 118.0 
640.0000042429967 3647.0 512.0 748.1264822134377 0.5893524134079264 174.0 16.0 118.0 
642.0000042429967 3636.0 511.0 748.0722755505342 0.5910715260757415 175.0 16.0 118.0 
644.0000042429967 3634.0 511.0 740.3297571993251 0.6041100235975254 168.0 21.0 110.0 
646.0000042429967 3617.0 510.0 742.9361942405441 0.5953861957463952 166.0 19.0 113.0 
648.0000042429967 3612.0 509.0 742.8977978543162 0.5805176774550155 168.0 15.0 117.0 
650.0000042429967 3612.0 509.0 745.5629587803472 0.5868761845484541 166.0 15.0 118.0 
652.0000042429967 3631.0 510.0 748.1242236024843 0.6059774694138872 167.0 15.0 119.0 
654.0000042429967 3609.0 510.0 745.5539243365317 0.6133680585536886 166.0 15.0 118.0 
656.0000042429967 3579.0 510.0 748.1151891586693 0.604440543012887 166.0 15.0 119.0 
658.0000042429967 3608.0 511.0 750.746470920387 0.6129956556445351 167.0 15.0 120.0 
660.0000042429967 3613.0 512.0 750.784867306608 0.6204249043647947 167.0 15.0 120.0 
662.0000042429967 3595.0 512.0 748.1151891586693 0.6451305175830256 167.0 15.0 119.0 
664.0000042429967 3532.0 510.0 748.1400338791675 0.6232303751486008 167.0 15.0 119.0 
#####################################################################
# End of data export. Simulation finished at: 2019-03-10T23:59+0000 #
#####################################################################
