#####################################################################
# Alchemist log file - simulation started at: 2019-03-05T14:06+0000 #
#####################################################################
# seed = 1.0, bandwidth = 316227.76601683797, accessPointCount = 274.2481756762073, baserange = 17.78279410038923
#
# The columns have the following meaning: 
# time neighbor_count[Sum] <value>@neighbor_count[Sum] packet_size[Mean] mean_delay[Mean] crowd[Sum] overcrowded[Sum] risk[Sum] 
0.0 NaN NaN NaN NaN NaN NaN NaN 
10.000043463686083 32.0 14.0 4984.668548842462 0.5189834359128893 1497.0 0.0 1497.0 
20.000043463686083 32.0 14.0 4984.5511010728405 0.519019576229005 1497.0 0.0 1497.0 
30.000043463686083 32.0 14.0 4984.5398080180685 0.519020178567607 1497.0 0.0 1497.0 
40.00004346368608 36.0 15.0 4984.56691134952 0.5379977505784007 1497.0 0.0 1497.0 
50.00004346368608 36.0 15.0 4984.501411631846 0.5380138494464889 1497.0 0.0 1497.0 
60.00004346368608 32.0 14.0 4984.528514963297 0.5190117458271786 1497.0 0.0 1497.0 
70.00002670321949 36.0 15.0 402.5906267645398 0.5173440863731917 8.0 0.0 1.0 
80.00002670321949 36.0 15.0 402.5906267645398 0.5173440863731917 5.0 0.0 1.0 
90.00002670321949 34.0 15.0 402.5906267645398 0.5175286544663946 3.0 0.0 1.0 
100.00002670321949 36.0 16.0 402.5906267645398 0.5159625240055227 3.0 0.0 1.0 
110.00002670321949 36.0 16.0 402.5906267645398 0.5159625240055227 3.0 0.0 1.0 
120.00002670321949 34.0 15.0 402.5906267645398 0.5166999879277547 3.0 0.0 1.0 
130.00002670321948 34.0 15.0 402.5906267645398 0.5166999879277623 3.0 0.0 1.0 
140.00002670321948 34.0 15.0 402.5906267645398 0.5166999879277623 3.0 0.0 1.0 
150.00002670321948 34.0 15.0 402.5906267645398 0.5166999879277623 3.0 0.0 1.0 
160.00002670321948 34.0 15.0 402.5906267645398 0.5166999879277623 3.0 0.0 1.0 
170.00002670321948 34.0 15.0 402.5906267645398 0.5166999879277623 3.0 0.0 1.0 
180.00002670321948 34.0 15.0 402.5906267645398 0.5166999879277623 3.0 0.0 1.0 
190.00002670321948 34.0 15.0 402.5906267645398 0.5166999879277623 3.0 0.0 1.0 
200.00002670321948 32.0 14.0 402.5906267645398 0.5184109306888878 3.0 0.0 1.0 
210.00002670321948 32.0 14.0 402.5906267645398 0.5184109306888878 3.0 0.0 1.0 
220.00002670321948 34.0 15.0 402.5906267645398 0.5166999879277623 3.0 0.0 1.0 
230.00002670321948 36.0 16.0 402.5906267645398 0.5152627960084168 3.0 0.0 1.0 
240.00002670321948 34.0 15.0 402.5906267645398 0.5166999879277623 3.0 0.0 1.0 
250.00002670321948 36.0 16.0 402.5906267645398 0.5152627960084168 3.0 0.0 1.0 
260.0000267032195 34.0 15.0 402.5906267645398 0.5166999879277586 3.0 0.0 1.0 
270.0000267032195 34.0 15.0 402.5906267645398 0.5166999879277586 3.0 0.0 1.0 
280.0000267032195 34.0 15.0 402.5906267645398 0.5166999879277586 3.0 0.0 1.0 
290.0000267032195 34.0 15.0 402.5906267645398 0.5166999879277586 3.0 0.0 1.0 
300.0000267032195 34.0 15.0 402.5906267645398 0.5166999879277586 3.0 0.0 1.0 
310.0000267032195 36.0 16.0 402.5906267645398 0.5152627960084112 3.0 0.0 1.0 
320.0000267032195 36.0 16.0 402.5906267645398 0.5152627960084112 3.0 0.0 1.0 
330.0000267032195 44.0 19.0 402.5906267645398 0.5123816870565927 3.0 0.0 1.0 
340.0000267032195 38.0 17.0 402.5906267645398 0.5140385214104486 3.0 0.0 1.0 
350.0000267032195 38.0 17.0 402.5906267645398 0.5140385214104486 3.0 0.0 1.0 
360.0000267032195 38.0 17.0 402.5906267645398 0.6251496325215598 3.0 0.0 1.0 
370.0000267032195 35.0 16.0 402.5906267645398 0.6067384011918039 3.0 0.0 1.0 
380.0000267032195 36.0 16.0 402.5906267645398 0.5152627960084112 3.0 0.0 1.0 
390.0000267032195 36.0 16.0 402.5906267645398 0.5152627960084112 3.0 0.0 1.0 
400.0000267032195 35.0 16.0 402.5906267645398 0.6118671669930874 3.0 0.0 1.0 
410.0000267032195 38.0 16.0 402.5906267645398 0.5157933365867619 3.0 0.0 1.0 
420.0000267032195 38.0 16.0 402.5906267645398 0.5157933365867619 3.0 0.0 1.0 
430.0000267032195 34.0 15.0 402.5906267645398 0.5166999879277586 3.0 0.0 1.0 
440.0000267032195 34.0 15.0 402.5906267645398 0.5166999879277586 3.0 0.0 1.0 
450.0000267032195 36.0 16.0 402.5906267645398 0.5152627960084112 3.0 0.0 1.0 
460.0000267032195 36.0 16.0 402.5906267645398 0.5152627960084112 3.0 0.0 1.0 
470.0000267032195 36.0 16.0 402.5906267645398 0.5152627960084112 3.0 0.0 1.0 
480.0000267032195 36.0 16.0 402.5906267645398 0.5152627960084112 3.0 0.0 1.0 
490.0000267032195 36.0 16.0 402.5906267645398 0.5152627960084112 3.0 0.0 1.0 
500.0000267032195 36.0 16.0 402.5906267645398 0.5152627960084112 3.0 0.0 1.0 
510.0000267032195 36.0 16.0 402.5906267645398 0.5152627960084112 3.0 0.0 1.0 
520.0000267032194 40.0 17.0 402.5906267645398 0.5144811636905404 3.0 0.0 1.0 
530.0000267032194 40.0 17.0 402.5906267645398 0.5144811636905404 3.0 0.0 1.0 
540.0000267032194 44.0 18.0 402.5906267645398 0.5137574300628741 3.0 0.0 1.0 
550.0000267032194 44.0 18.0 402.5906267645398 0.5137574300628741 3.0 0.0 1.0 
560.0000267032194 43.0 18.0 402.5906267645398 0.5981385515419445 3.0 0.0 1.0 
570.0000267032194 42.0 17.0 402.5906267645398 0.5149592173530262 3.0 0.0 1.0 
580.0000267032194 42.0 17.0 402.5906267645398 0.5149592173530262 3.0 0.0 1.0 
590.0000267032194 42.0 17.0 402.5906267645398 0.5149592173530262 3.0 0.0 1.0 
600.0000267032194 38.0 16.0 402.5906267645398 0.5157933365867543 3.0 0.0 1.0 
610.0000267032194 39.0 17.0 402.5906267645398 0.5172505536422485 3.0 0.0 1.0 
620.0000267032194 40.0 17.0 402.5906267645398 0.5529427021520789 3.0 0.0 1.0 
630.0000267032194 38.0 16.0 402.5906267645398 0.5157933365867543 3.0 0.0 1.0 
640.0000267032194 40.0 17.0 402.5906267645398 0.5144811636905404 3.0 0.0 1.0 
650.0000267032194 42.0 18.0 402.5906267645398 0.5016337542464594 3.0 0.0 1.0 
660.0000267032194 40.0 17.0 402.5906267645398 0.5144811636905404 3.0 0.0 1.0 
#####################################################################
# End of data export. Simulation finished at: 2019-03-05T14:13+0000 #
#####################################################################
