#####################################################################
# Alchemist log file - simulation started at: 2019-03-13T00:03+0000 #
#####################################################################
# seed = 5.0, bandwidth = 316227.76601683797, accessPointCount = 72.92664737217109, baserange = 100.0
#
# The columns have the following meaning: 
# time neighbor_count[Sum] <value>@neighbor_count[Sum] packet_size[Mean] mean_delay[Mean] crowd[Sum] overcrowded[Sum] risk[Sum] 
0.0 NaN NaN NaN NaN NaN NaN NaN 
2.000101793669918 275.0 81.0 4987.408540471638 0.49283459657432604 1497.0 0.0 1497.0 
4.000101793669918 423.0 82.0 4987.938814531549 0.4906360915740043 1497.0 0.0 1497.0 
6.000101793669918 508.0 82.0 4987.773103887826 0.5033658949290741 1497.0 0.0 1497.0 
8.000101793669918 553.0 83.0 4987.877629063098 0.5225977748388692 1497.0 0.0 1497.0 
10.000101793669918 578.0 82.0 4987.7603569152325 0.5011453441262663 1491.0 6.0 1491.0 
12.000101793669918 582.0 82.0 4987.806246016571 0.5009388146682711 1490.0 7.0 1490.0 
14.000101793669918 582.0 82.0 4987.576800509879 0.5010234295313407 1485.0 12.0 1485.0 
16.00010179366992 582.0 82.0 4987.630337794773 0.5010222084602115 1482.0 15.0 1482.0 
18.00010179366992 582.0 82.0 4987.525812619503 0.5010498637227008 1483.0 14.0 1483.0 
20.00010179366992 582.0 82.0 4987.6354365838115 0.5102058342996844 1485.0 12.0 1485.0 
22.00010179366992 581.0 81.0 4987.4238368387505 0.5217006416547366 1483.0 14.0 1483.0 
24.00010179366992 580.0 81.0 4987.599745060548 0.5013461264040291 1484.0 13.0 1484.0 
26.00010179366992 580.0 81.0 4987.474824729127 0.5013773400219635 1485.0 12.0 1485.0 
28.00010179366992 580.0 81.0 4987.543658381134 0.5013542537531556 1483.0 14.0 1483.0 
30.00010179366992 580.0 81.0 4987.49012109624 0.5013649207757426 1484.0 13.0 1484.0 
32.00010179366992 580.0 81.0 4987.599745060548 0.5013471969154695 1485.0 12.0 1485.0 
34.00010179366992 580.0 81.0 4987.418738049713 0.5013843968596495 1483.0 14.0 1483.0 
36.00010179366992 580.0 81.0 4987.627788400255 0.5013355723433851 1484.0 13.0 1484.0 
38.00010179366992 580.0 81.0 4987.459528362014 0.5013655223637666 1485.0 12.0 1485.0 
40.00010179366992 580.0 81.0 4987.59464627151 0.5013573917308626 1483.0 14.0 1483.0 
42.00010179366992 580.0 81.0 4987.464627151052 0.5013569714073524 1484.0 13.0 1484.0 
44.00010179366992 582.0 82.0 4987.620140216699 0.5010347123730505 1485.0 12.0 1485.0 
46.00010179366992 582.0 82.0 4987.428935627789 0.5010631374132213 1483.0 14.0 1483.0 
48.00010179366992 582.0 82.0 4987.6226896112175 0.5010260862211457 1484.0 13.0 1484.0 
50.00010179366992 582.0 82.0 4987.459528362014 0.5010513412471972 1485.0 12.0 1485.0 
52.00010179366992 582.0 82.0 4987.584448693436 0.5010459914857243 1483.0 14.0 1483.0 
54.00010179366992 582.0 82.0 4987.462077756532 0.5010450618212217 1484.0 13.0 1484.0 
56.00010179366992 582.0 82.0 4987.615041427661 0.5010345963261639 1485.0 12.0 1485.0 
58.00010179366992 582.0 82.0 4987.441682600383 0.5010634275304379 1483.0 14.0 1483.0 
60.00010179366992 582.0 82.0 4984.713830465264 0.5010204901823914 1483.0 13.0 1483.0 
62.00010179366992 582.0 82.0 493.8279158699811 0.5021114506627034 52.0 15.0 17.0 
64.00010179366993 582.0 82.0 493.7718291905673 0.5058901831622812 37.0 15.0 17.0 
66.00010179366993 582.0 82.0 493.7769279796049 0.505897016389786 36.0 15.0 17.0 
68.00010179366993 582.0 82.0 493.74123645634114 0.505906309166584 32.0 15.0 17.0 
70.00010179366993 582.0 82.0 493.7310388782663 0.5059162492271271 32.0 15.0 17.0 
72.00010179366993 582.0 82.0 493.7310388782663 0.5059170615553334 31.0 15.0 17.0 
74.00010179366993 582.0 82.0 493.7310388782663 0.5059170615553334 30.0 15.0 17.0 
76.00010179366993 582.0 82.0 493.7361376673043 0.5059170615553334 30.0 15.0 17.0 
78.00010179366993 582.0 82.0 493.7310388782663 0.5059152318827546 30.0 15.0 17.0 
80.00010179366993 582.0 82.0 493.7310388782663 0.5059170615553334 30.0 15.0 17.0 
82.00010179366993 582.0 82.0 493.7310388782663 0.5059170615553334 30.0 15.0 17.0 
84.00010179366993 582.0 82.0 493.7310388782663 0.5059170615553334 30.0 15.0 17.0 
86.00010179366993 582.0 82.0 493.7361376673043 0.5059170615553334 30.0 15.0 17.0 
88.00010179366993 582.0 82.0 493.7310388782663 0.5059152318827546 30.0 15.0 17.0 
90.00010179366993 582.0 82.0 493.7310388782663 0.5059170615553334 30.0 15.0 17.0 
92.00010179366993 582.0 82.0 493.7310388782663 0.5059170615553334 30.0 15.0 17.0 
94.00010179366993 586.0 83.0 493.7310388782663 0.5252667173990507 30.0 15.0 17.0 
96.00010179366993 584.0 82.0 493.7361376673043 0.5087827352100961 30.0 15.0 17.0 
98.00010179366993 583.0 82.0 493.7310388782663 0.5112980124999862 30.0 15.0 17.0 
100.00010179366993 582.0 82.0 493.7310388782663 0.5068320198315351 30.0 15.0 17.0 
102.00010179366993 582.0 82.0 493.7310388782663 0.5068320198315351 30.0 15.0 17.0 
104.00010179366993 582.0 82.0 493.7310388782663 0.5300074963051417 30.0 15.0 17.0 
106.00010179366993 578.0 81.0 493.74378585086066 0.5151603697726425 30.0 15.0 17.0 
108.00010179366993 573.0 81.0 493.72339069470996 0.5338553648808396 30.0 15.0 17.0 
110.00010179366993 567.0 80.0 493.72339069470996 0.5312371310352606 30.0 15.0 17.0 
112.00010179366993 566.0 79.0 493.72339069470996 0.5081766562479846 30.0 15.0 17.0 
114.00010179366993 566.0 79.0 493.72339069470996 0.5081766562479846 30.0 15.0 17.0 
116.00010179366993 566.0 79.0 493.72339069470996 0.5081766562479846 30.0 15.0 17.0 
118.00010179366993 566.0 79.0 493.72339069470996 0.5081766562479846 30.0 15.0 17.0 
120.00010179366993 570.0 80.0 493.72339069470996 0.5074991069712227 30.0 15.0 17.0 
122.00010179366993 570.0 80.0 493.72339069470996 0.5074991069712227 30.0 15.0 17.0 
124.00010179366993 571.0 80.0 493.72339069470996 0.503395988530183 30.0 15.0 17.0 
126.00010179366993 572.0 81.0 493.72339069470996 0.5073352935500022 30.0 15.0 17.0 
128.00010179366993 573.0 81.0 493.72339069470996 0.5046183770368052 30.0 15.0 17.0 
130.00010179366993 578.0 83.0 493.72339069470996 0.5254553123147367 30.0 15.0 17.0 
132.00010179366993 574.0 82.0 493.72339069470996 0.5077087427640208 30.0 15.0 17.0 
134.00010179366993 574.0 82.0 493.72339069470996 0.5168830546906263 30.0 15.0 17.0 
136.00010179366993 573.0 82.0 493.72339069470996 0.5302563371209005 30.0 15.0 17.0 
138.00010179366993 584.0 81.0 496.65519439133163 0.5064249286804827 30.0 16.0 17.0 
140.00010179366993 604.0 82.0 496.6704907584449 0.5367884827168458 30.0 16.0 17.0 
142.00010179366993 600.0 81.0 496.66029318036976 0.5091348560033186 30.0 16.0 17.0 
144.00010179366993 600.0 81.0 496.65519439133163 0.5091432104942779 30.0 16.0 17.0 
146.00010179366993 600.0 81.0 496.65519439133163 0.5091432104942779 30.0 16.0 17.0 
148.00010179366993 600.0 81.0 496.66029318036976 0.5184890048868013 30.0 16.0 17.0 
150.00010179366993 601.0 81.0 496.66029318036976 0.5310111415024648 30.0 16.0 17.0 
152.00010179366993 600.0 80.0 496.65519439133163 0.5095668084823498 30.0 16.0 17.0 
154.00010179366993 600.0 80.0 496.65519439133163 0.5095676999434806 30.0 16.0 17.0 
156.00010179366993 600.0 80.0 496.65519439133163 0.5095676999434806 30.0 16.0 17.0 
158.00010179366993 600.0 80.0 496.66029318036976 0.5095676999434806 30.0 16.0 17.0 
160.00010179366993 600.0 80.0 496.6653919694073 0.5095574341689489 30.0 16.0 17.0 
162.00010179366993 600.0 80.0 496.65519439133163 0.5095668084823498 30.0 16.0 17.0 
164.00010179366993 600.0 80.0 496.65519439133163 0.5095676999434806 30.0 16.0 17.0 
166.00010179366993 600.0 80.0 493.73103887826613 0.5095676999434806 29.0 16.0 16.0 
168.00010179366993 601.0 80.0 493.7361376673044 0.5095124904039741 29.0 16.0 16.0 
170.00010179366993 602.0 80.0 490.8196303377944 0.5107434169628449 29.0 16.0 15.0 
172.00010179366993 602.0 80.0 490.7992351816444 0.5107561004379139 29.0 16.0 15.0 
174.00010179366993 602.0 80.0 490.7992351816444 0.5107569918990448 29.0 16.0 15.0 
176.00010179366993 602.0 80.0 490.7992351816444 0.5107569918990448 29.0 16.0 15.0 
178.00010179366993 602.0 80.0 490.804333970682 0.5107569918990448 29.0 16.0 15.0 
180.00010179366993 602.0 80.0 490.7992351816444 0.5107497972480738 29.0 16.0 15.0 
182.00010179366993 602.0 80.0 490.7992351816444 0.5107569918990448 29.0 16.0 15.0 
184.00010179366993 602.0 80.0 490.7992351816444 0.5107569918990448 29.0 16.0 15.0 
186.00010179366993 602.0 80.0 490.7992351816444 0.5107569918990448 29.0 16.0 15.0 
188.00010179366993 602.0 80.0 490.7992351816444 0.5107569918990448 29.0 16.0 15.0 
190.00010179366993 602.0 80.0 490.7992351816444 0.5107561486250021 29.0 16.0 15.0 
192.00010179366993 602.0 80.0 490.7992351816444 0.5107569918990448 29.0 16.0 15.0 
194.00010179366993 602.0 80.0 490.7992351816444 0.5107569918990448 29.0 16.0 15.0 
196.00010179366993 602.0 80.0 490.7992351816444 0.5107569918990448 29.0 16.0 15.0 
198.00010179366993 602.0 80.0 490.804333970682 0.5187015310169119 29.0 16.0 15.0 
200.00010179366993 600.0 79.0 490.7992351816444 0.5331407273547109 29.0 16.0 15.0 
202.00010179366993 598.0 79.0 490.7992351816444 0.5127747265989552 29.0 16.0 15.0 
204.00010179366993 598.0 79.0 490.7992351816444 0.5127747265989552 29.0 16.0 15.0 
206.00010179366993 598.0 79.0 490.7992351816444 0.5127747265989552 29.0 16.0 15.0 
208.00010179366993 598.0 79.0 490.804333970682 0.5127747265989552 29.0 16.0 15.0 
210.00010179366993 598.0 79.0 490.7992351816444 0.5127687888149044 29.0 16.0 15.0 
212.00010179366993 598.0 79.0 490.7992351816444 0.5127747265989552 29.0 16.0 15.0 
214.00010179366993 598.0 79.0 490.7992351816444 0.5127747265989552 29.0 16.0 15.0 
216.00010179366993 598.0 79.0 490.7992351816444 0.5127747265989552 29.0 16.0 15.0 
218.00010179366993 598.0 79.0 490.804333970682 0.5127747265989552 29.0 16.0 15.0 
220.00010179366993 598.0 79.0 490.7992351816444 0.5127687888149044 29.0 16.0 15.0 
222.00010179366993 598.0 79.0 490.7992351816444 0.5127747265989552 29.0 16.0 15.0 
224.00010179366993 598.0 79.0 490.7992351816444 0.5127747265989552 29.0 16.0 15.0 
226.00010179366993 598.0 79.0 490.7992351816444 0.5127747265989552 29.0 16.0 15.0 
228.00010179366993 598.0 79.0 490.804333970682 0.5127747265989552 29.0 16.0 15.0 
230.00010179366993 598.0 79.0 490.7992351816444 0.5127687888149044 29.0 16.0 15.0 
232.00010179366993 598.0 79.0 490.7992351816444 0.5127747265989552 29.0 16.0 15.0 
234.00010179366993 598.0 79.0 490.7992351816444 0.5127747265989552 29.0 16.0 15.0 
236.00010179366993 598.0 79.0 490.7992351816444 0.5127747265989552 29.0 16.0 15.0 
238.00010179366993 598.0 79.0 490.804333970682 0.5127747265989552 29.0 16.0 15.0 
240.00010179366993 600.0 79.0 490.7992351816444 0.5131266946477575 29.0 16.0 15.0 
242.00010179366993 600.0 79.0 490.7992351816444 0.5131329799348479 29.0 16.0 15.0 
244.00010179366993 600.0 79.0 490.7992351816444 0.5131329799348479 29.0 16.0 15.0 
246.00010179366993 600.0 79.0 490.7992351816444 0.5131329799348479 29.0 16.0 15.0 
248.00010179366993 600.0 79.0 490.804333970682 0.5131329799348479 29.0 16.0 15.0 
250.00010179366993 600.0 79.0 487.87507966857913 0.5098042082565547 29.0 16.0 14.0 
252.00010179366993 600.0 79.0 487.87507966857913 0.5098104935436452 29.0 16.0 14.0 
254.00010179366993 600.0 79.0 487.87507966857913 0.5098104935436452 29.0 16.0 14.0 
256.00010179366996 600.0 79.0 487.87507966857913 0.5098104935436452 29.0 16.0 14.0 
258.00010179366996 600.0 79.0 487.8801784576157 0.5098104935436469 29.0 16.0 14.0 
260.00010179366996 600.0 79.0 487.87507966857913 0.5098050596390032 29.0 16.0 14.0 
262.00010179366996 600.0 79.0 487.87507966857913 0.5098104935436472 29.0 16.0 14.0 
264.00010179366996 600.0 79.0 487.87507966857913 0.5098104935436472 29.0 16.0 14.0 
266.00010179366996 600.0 79.0 487.87507966857913 0.5098104935436472 29.0 16.0 14.0 
268.00010179366996 600.0 79.0 487.8801784576157 0.5098104935436472 29.0 16.0 14.0 
270.00010179366996 600.0 79.0 490.8145315487576 0.5136411607352488 29.0 16.0 15.0 
272.00010179366996 602.0 80.0 490.7992351816444 0.512861321614115 29.0 16.0 15.0 
274.00010179366996 602.0 80.0 490.7992351816444 0.512861321614115 29.0 16.0 15.0 
276.00010179366996 602.0 80.0 490.7992351816444 0.512861321614115 29.0 16.0 15.0 
278.00010179366996 603.0 80.0 490.804333970682 0.5128636849113709 29.0 16.0 15.0 
280.00010179366996 604.0 80.0 490.7992351816444 0.5122978702292408 29.0 16.0 15.0 
282.00010179366996 604.0 80.0 490.7992351816444 0.512303883500139 29.0 16.0 15.0 
284.00010179366996 606.0 81.0 490.7992351816444 0.5131903722057114 29.0 16.0 15.0 
286.00010179366996 606.0 81.0 490.7992351816444 0.5131903722057114 29.0 16.0 15.0 
288.00010179366996 606.0 81.0 490.804333970682 0.5131903722057114 29.0 16.0 15.0 
290.00010179366996 606.0 81.0 490.7992351816444 0.5131844151336066 29.0 16.0 15.0 
292.00010179366996 606.0 81.0 490.7992351816444 0.5131903722057114 29.0 16.0 15.0 
294.00010179366996 606.0 81.0 490.7992351816444 0.531899693388852 29.0 16.0 15.0 
296.00010179366996 604.0 80.0 490.7992351816444 0.512303883500139 29.0 16.0 15.0 
298.00010179366996 604.0 80.0 490.804333970682 0.512303883500139 29.0 16.0 15.0 
300.00010179366996 604.0 80.0 490.7992351816444 0.5122978702292408 29.0 16.0 15.0 
302.00010179366996 604.0 80.0 490.7992351816444 0.512303883500139 29.0 16.0 15.0 
304.00010179366996 604.0 80.0 490.7992351816444 0.512303883500139 29.0 16.0 15.0 
306.00010179366996 604.0 80.0 490.7992351816444 0.512303883500139 29.0 16.0 15.0 
308.00010179366996 604.0 80.0 490.7992351816444 0.512303883500139 29.0 16.0 15.0 
310.00010179366996 604.0 80.0 490.7992351816444 0.512303883500139 29.0 16.0 15.0 
312.00010179366996 604.0 80.0 490.7992351816444 0.512303883500139 29.0 16.0 15.0 
314.00010179366996 604.0 80.0 490.7992351816444 0.512303883500139 29.0 16.0 15.0 
316.00010179366996 604.0 80.0 490.7992351816444 0.512303883500139 29.0 16.0 15.0 
318.00010179366996 604.0 80.0 490.804333970682 0.512303883500139 29.0 16.0 15.0 
320.00010179366996 604.0 80.0 490.7992351816444 0.5122978702292408 29.0 16.0 15.0 
322.00010179366996 604.0 80.0 490.7992351816444 0.512303883500139 29.0 16.0 15.0 
324.00010179366996 604.0 80.0 490.7992351816444 0.512303883500139 29.0 16.0 15.0 
326.00010179366996 604.0 80.0 490.7992351816444 0.512303883500139 29.0 16.0 15.0 
328.00010179366996 604.0 80.0 490.804333970682 0.512303883500139 29.0 16.0 15.0 
330.00010179366996 604.0 80.0 490.7992351816444 0.5122978702292408 29.0 16.0 15.0 
332.00010179366996 604.0 80.0 490.7992351816444 0.512303883500139 29.0 16.0 15.0 
334.00010179366996 604.0 80.0 490.7992351816444 0.512303883500139 29.0 16.0 15.0 
336.00010179366996 604.0 80.0 490.7992351816444 0.512303883500139 29.0 16.0 15.0 
338.00010179366996 604.0 80.0 490.804333970682 0.512303883500139 29.0 16.0 15.0 
340.00010179366996 604.0 80.0 490.7992351816444 0.5122978702292408 29.0 16.0 15.0 
342.00010179366996 604.0 80.0 490.7992351816444 0.512303883500139 29.0 16.0 15.0 
344.00010179366996 606.0 81.0 490.7992351816444 0.5120526095267275 29.0 16.0 15.0 
346.00010179366996 606.0 81.0 490.7992351816444 0.5120526095267275 29.0 16.0 15.0 
348.00010179366996 606.0 81.0 490.804333970682 0.5120526095267275 29.0 16.0 15.0 
350.00010179366996 606.0 81.0 490.7992351816444 0.5120467076126978 29.0 16.0 15.0 
352.00010179366996 610.0 82.0 490.7992351816444 0.5119697732501921 29.0 16.0 15.0 
354.00010179366996 614.0 82.0 490.7992351816444 0.5132875158466538 29.0 16.0 15.0 
356.00010179366996 614.0 82.0 490.7992351816444 0.5132875158466538 29.0 16.0 15.0 
358.00010179366996 614.0 82.0 490.804333970682 0.5132875158466538 30.0 15.0 16.0 
360.00010179366996 614.0 82.0 490.7992351816444 0.5132815278901782 30.0 15.0 16.0 
362.00010179366996 616.0 82.0 490.7992351816444 0.5394224710727834 30.0 15.0 16.0 
364.00010179366996 620.0 81.0 490.7992351816444 0.541093786802406 30.0 15.0 16.0 
366.00010179366996 618.0 80.0 490.7992351816444 0.5133291905712916 30.0 15.0 16.0 
368.00010179366996 618.0 80.0 490.804333970682 0.5133291905712916 30.0 15.0 16.0 
370.00010179366996 618.0 80.0 490.7992351816444 0.5133223849500725 30.0 15.0 16.0 
372.00010179366996 626.0 80.0 493.73868706182293 0.5128001192309682 31.0 15.0 17.0 
374.00010179366996 630.0 80.0 493.7284894837474 0.5115128954862745 31.0 15.0 17.0 
376.00010179366996 630.0 80.0 493.7284894837474 0.5115105516525069 31.0 15.0 17.0 
378.00010179366996 630.0 80.0 493.733588272785 0.5115105516525069 31.0 15.0 17.0 
380.00010179366996 630.0 80.0 493.7284894837474 0.5115041052153069 31.0 15.0 17.0 
382.00010179366996 635.0 80.0 493.7310388782664 0.5108817741953331 30.0 16.0 16.0 
384.00010179366996 644.0 80.0 493.7310388782664 0.5290277282282151 30.0 16.0 16.0 
386.00010179366996 614.0 79.0 493.74378585086066 0.5175743350558202 30.0 16.0 16.0 
388.00010179366996 609.0 80.0 493.7284894837474 0.5072028632567943 30.0 16.0 16.0 
390.00010179366996 610.0 80.0 493.72339069471 0.5100590392139315 30.0 16.0 16.0 
392.00010179366996 610.0 80.0 493.733588272785 0.5100621470070237 30.0 16.0 16.0 
394.00010179366996 610.0 80.0 493.72339069471 0.5100575416418566 30.0 16.0 16.0 
396.00010179366996 610.0 80.0 493.72339069471 0.5100648726780405 30.0 16.0 16.0 
398.00010179366996 610.0 80.0 493.7284894837474 0.5194988349421914 30.0 16.0 16.0 
400.00010179366996 609.0 79.0 493.72339069471 0.5321844175306075 30.0 16.0 16.0 
402.00010179366996 608.0 79.0 493.733588272785 0.5107607442776219 31.0 15.0 17.0 
404.00010179366996 607.0 79.0 493.7667304015293 0.5127177962678329 31.0 15.0 17.0 
406.00010179366996 606.0 79.0 493.7769279796049 0.5105234762708886 31.0 15.0 17.0 
408.00010179366996 606.0 79.0 493.78202676864254 0.5105135041708931 29.0 17.0 15.0 
410.00010179366996 606.0 79.0 493.75398342893544 0.5105336922087587 29.0 17.0 15.0 
412.00010179366996 606.0 79.0 493.76163161249235 0.5112446462491343 30.0 16.0 16.0 
414.00010179366996 605.0 79.0 493.78967495219877 0.5142299961659583 29.0 17.0 15.0 
416.00010179366996 602.0 79.0 493.75653282345445 0.510352649014108 30.0 16.0 16.0 
418.00010179366996 602.0 79.0 493.7743785850862 0.5103627737732345 30.0 16.0 16.0 
420.00010179366996 602.0 79.0 493.7514340344168 0.510369564668121 30.0 16.0 16.0 
422.00010179366996 602.0 79.0 493.7743785850862 0.5178333912683886 30.0 16.0 16.0 
424.00010179366996 588.0 79.0 493.74378585086066 0.5461355932444429 30.0 16.0 16.0 
426.00010179366996 568.0 78.0 493.76163161249235 0.5108065865584489 30.0 16.0 16.0 
428.00010179366996 568.0 78.0 493.73868706182293 0.5108134224124846 30.0 16.0 16.0 
430.00010179366996 568.0 78.0 493.76163161249235 0.5108065865584489 30.0 16.0 16.0 
432.00010179366996 568.0 78.0 493.73868706182293 0.5108134224124846 30.0 16.0 16.0 
434.00010179366996 568.0 78.0 493.76163161249235 0.5108065865584489 30.0 16.0 16.0 
436.00010179366996 568.0 78.0 493.73868706182293 0.5108134224124846 30.0 16.0 16.0 
438.00010179366996 568.0 78.0 493.76163161249235 0.5113175727618214 29.0 17.0 15.0 
440.00010179366996 567.0 78.0 493.73868706182293 0.513586612081461 30.0 16.0 16.0 
442.00010179366996 566.0 78.0 493.76163161249235 0.5113725906917432 29.0 17.0 15.0 
444.00010179366996 566.0 78.0 493.73868706182293 0.5113790990607138 30.0 16.0 16.0 
446.00010179366996 566.0 78.0 490.8374760994262 0.5113725906917432 28.0 17.0 14.0 
448.00010179366996 566.0 78.0 490.81453154875766 0.5113790990607138 28.0 17.0 14.0 
450.00010179366996 566.0 78.0 490.8323773103888 0.5113725906917432 28.0 17.0 14.0 
452.00010179366996 566.0 78.0 490.80943275971964 0.5113842928317935 28.0 17.0 14.0 
454.00010179366996 566.0 78.0 490.8323773103888 0.5113777844628231 28.0 17.0 14.0 
456.00010179366996 566.0 78.0 490.80943275971964 0.5113842928317935 28.0 17.0 14.0 
458.00010179366996 568.0 79.0 490.8374760994262 0.5111369712146915 28.0 17.0 14.0 
460.00010179366996 568.0 79.0 490.80943275971964 0.5111382607726224 28.0 17.0 14.0 
462.00010179366996 568.0 79.0 490.8323773103888 0.5111369712146915 28.0 17.0 14.0 
464.00010179366996 572.0 80.0 490.80943275971964 0.5109904971253811 28.0 17.0 14.0 
466.00010179366996 572.0 80.0 490.8323773103888 0.5109841729555324 28.0 17.0 14.0 
468.00010179366996 572.0 80.0 490.81453154875766 0.5109904971253811 28.0 17.0 14.0 
470.00010179366996 572.0 80.0 490.8323773103888 0.5109791261779738 28.0 17.0 14.0 
472.00010179366996 572.0 80.0 490.80943275971964 0.5109904971253811 28.0 17.0 14.0 
474.00010179366996 572.0 80.0 490.8323773103888 0.5204181352196835 28.0 17.0 14.0 
476.00010179366996 571.0 80.0 490.80943275971964 0.5347544849054626 28.0 17.0 14.0 
478.00010179366996 570.0 79.0 490.8374760994262 0.5112197322636021 28.0 17.0 14.0 
480.00010179366996 570.0 79.0 490.80943275971964 0.5112210342211284 28.0 17.0 14.0 
482.00010179366996 570.0 79.0 487.90822179732345 0.5112197322636021 27.0 17.0 13.0 
484.00010179366996 570.0 79.0 487.88527724665397 0.5112261780521017 27.0 17.0 13.0 
486.00010179366996 570.0 79.0 487.90822179732345 0.5112197322636021 27.0 17.0 13.0 
488.00010179366996 570.0 79.0 487.8903760356915 0.5112261780521017 27.0 17.0 13.0 
490.00010179366996 570.0 79.0 487.9133205863608 0.5112097013677896 27.0 17.0 13.0 
492.00010179366996 570.0 79.0 487.8903760356915 0.5112210342211284 27.0 17.0 13.0 
494.00010179366996 570.0 79.0 487.9133205863608 0.5112145884326288 27.0 17.0 13.0 
496.00010179366996 570.0 79.0 487.8903760356915 0.5112210342211284 27.0 17.0 13.0 
498.00010179366996 570.0 79.0 487.9133205863608 0.5112145884326288 27.0 17.0 13.0 
500.00010179366996 570.0 79.0 487.8903760356915 0.5112152957738425 27.0 17.0 13.0 
502.00010179366996 570.0 79.0 487.9133205863608 0.5112145884326288 27.0 17.0 13.0 
504.00010179366996 570.0 79.0 487.8903760356915 0.5256441111442053 27.0 17.0 13.0 
506.00010179366996 568.0 79.0 487.9133205863608 0.5100969150896748 27.0 17.0 13.0 
508.00010179366996 568.0 79.0 487.8903760356915 0.5389495147243283 27.0 17.0 13.0 
510.00010179366996 565.0 77.0 487.9133205863608 0.5334087191044213 27.0 17.0 13.0 
512.00010179367 564.0 77.0 487.8903760356915 0.5105580917558648 27.0 17.0 13.0 
514.00010179367 564.0 77.0 487.9133205863608 0.5105513881358203 27.0 17.0 13.0 
516.00010179367 564.0 77.0 487.8903760356915 0.5105580917558593 27.0 17.0 13.0 
518.00010179367 564.0 77.0 487.9133205863608 0.5105513881358198 27.0 17.0 13.0 
520.00010179367 564.0 77.0 487.8903760356915 0.5105521237706824 27.0 17.0 13.0 
522.00010179367 565.0 78.0 487.9133205863608 0.5092143580685399 27.0 17.0 13.0 
524.00010179367 568.0 78.0 487.8903760356915 0.5130809487296586 27.0 17.0 13.0 
526.00010179367 568.0 78.0 487.9133205863608 0.5130743114820948 27.0 17.0 13.0 
528.00010179367 568.0 78.0 487.8903760356915 0.5130809487296586 27.0 17.0 13.0 
530.00010179367 568.0 78.0 487.9133205863608 0.5156921079252926 27.0 17.0 13.0 
532.00010179367 567.0 78.0 487.8903760356915 0.5080274890802751 27.0 17.0 13.0 
534.00010179367 570.0 79.0 487.9133205863608 0.5243725357848654 27.0 17.0 13.0 
536.00010179367 568.0 79.0 487.8903760356915 0.5084122060454347 27.0 17.0 13.0 
538.00010179367 568.0 79.0 487.9133205863608 0.5089772829349726 27.0 17.0 13.0 
540.00010179367 568.0 80.0 487.8903760356915 0.5076279625914942 27.0 17.0 13.0 
542.00010179367 568.0 80.0 487.9133205863608 0.5085868472489755 27.0 17.0 13.0 
544.00010179367 568.0 80.0 487.8903760356915 0.5085967553269143 27.0 17.0 13.0 
546.00010179367 568.0 80.0 487.9133205863608 0.5085910304490343 27.0 17.0 13.0 
548.00010179367 568.0 80.0 487.8903760356915 0.5085967553269143 27.0 17.0 13.0 
550.00010179367 568.0 80.0 487.9133205863608 0.5085860039749328 27.0 17.0 13.0 
552.00010179367 568.0 80.0 487.8903760356915 0.5165372788541016 27.0 17.0 13.0 
554.00010179367 566.0 79.0 487.9133205863608 0.5572559349488063 27.0 17.0 13.0 
556.00010179367 562.0 78.0 487.8903760356915 0.5113751730819661 27.0 17.0 13.0 
558.00010179367 562.0 78.0 487.9184193753984 0.511369337041409 27.0 17.0 13.0 
560.00010179367 562.0 78.0 487.88527724665397 0.5235069117502232 27.0 17.0 13.0 
562.00010179367 559.0 77.0 487.90822179732345 0.5329161803488195 27.0 17.0 13.0 
564.00010179367 558.0 77.0 487.88527724665397 0.5113715137927854 27.0 17.0 13.0 
566.00010179367 562.0 77.0 487.90822179732345 0.5103641488556288 28.0 17.0 13.0 
568.00010179367 566.0 78.0 487.895474824729 0.517376152000699 28.0 17.0 13.0 
570.00010179367 555.0 78.0 487.92096876991707 0.5526974928817562 29.0 16.0 14.0 
572.00010179367 536.0 77.0 487.87762906309786 0.5116671016218206 29.0 16.0 14.0 
574.00010179367 536.0 77.0 487.90057361376716 0.5116614439201778 29.0 16.0 14.0 
576.00010179367 537.0 77.0 490.8196303377944 0.5116926150147585 29.0 16.0 15.0 
578.00010179367 538.0 77.0 493.7922243467173 0.5091359036278854 29.0 16.0 16.0 
580.00010179367 538.0 77.0 493.78202676864225 0.509136244945897 29.0 16.0 16.0 
582.00010179367 538.0 77.0 493.80497131931185 0.5091311842154824 29.0 16.0 16.0 
584.00010179367 538.0 77.0 493.7463352453793 0.5091449177272036 29.0 16.0 16.0 
586.00010179367 539.0 77.0 493.7998725302741 0.5087521248966889 29.0 16.0 16.0 
588.00010179367 540.0 77.0 493.78202676864225 0.5095726926530159 29.0 16.0 16.0 
590.00010179367 540.0 77.0 493.7896749521985 0.5095700135455787 29.0 16.0 16.0 
592.00010179367 540.0 77.0 493.77947737412376 0.5095806620101829 29.0 16.0 16.0 
594.00010179367 540.0 77.0 493.7998725302741 0.5095705374608875 29.0 16.0 16.0 
596.00010179367 540.0 77.0 493.76927979604875 0.5095720581101718 29.0 16.0 16.0 
598.00010179367 540.0 77.0 493.79477374123684 0.5095763673232676 29.0 16.0 16.0 
600.00010179367 540.0 77.0 493.7769279796049 0.5095740494058076 29.0 16.0 16.0 
602.00010179367 540.0 77.0 493.77947737412376 0.5095750272689719 29.0 16.0 16.0 
604.00010179367 540.0 77.0 493.7412364563411 0.5095846341648944 29.0 16.0 16.0 
606.00010179367 540.0 77.0 493.76927979604875 0.5095818444299219 29.0 16.0 16.0 
608.00010179367 540.0 77.0 493.7412364563411 0.509585527534425 29.0 16.0 16.0 
610.00010179367 540.0 77.0 493.76418100701034 0.5095809677588874 29.0 16.0 16.0 
612.00010179367 540.0 77.0 493.7412364563411 0.5095875021315648 29.0 16.0 16.0 
614.00010179367 540.0 77.0 493.76418100701034 0.5095818444299219 29.0 16.0 16.0 
616.00010179367 540.0 77.0 493.7463352453793 0.5095875021315648 29.0 16.0 16.0 
618.00010179367 540.0 77.0 493.76418100701034 0.5095798698327821 29.0 16.0 16.0 
620.00010179367 540.0 77.0 493.7412364563411 0.5095875021315648 29.0 16.0 16.0 
622.00010179367 540.0 77.0 493.76418100701034 0.5095818444299219 29.0 16.0 16.0 
624.00010179367 540.0 77.0 493.7412364563411 0.5095875021315648 29.0 16.0 16.0 
626.00010179367 540.0 77.0 493.76927979604875 0.5095818444299219 29.0 16.0 16.0 
628.00010179367 540.0 77.0 490.8170809432756 0.509585527534425 28.0 16.0 15.0 
630.00010179367 540.0 77.0 490.84002549394575 0.5095818444299219 28.0 16.0 15.0 
632.00010179367 552.0 78.0 490.8170809432756 0.5073257406107886 28.0 16.0 15.0 
634.00010179367 552.0 78.0 490.84002549394575 0.5068002494410353 28.0 16.0 15.0 
636.00010179367 552.0 78.0 490.8221797323138 0.5068059323187216 28.0 16.0 15.0 
638.00010179367 552.0 78.0 490.84002549394575 0.5067982942026908 28.0 16.0 15.0 
640.00010179367 552.0 78.0 490.8170809432756 0.5068059323187216 28.0 16.0 15.0 
642.00010179367 552.0 78.0 490.84002549394575 0.5068002494410353 28.0 16.0 15.0 
644.00010179367 552.0 78.0 490.8170809432756 0.5068059323187216 28.0 16.0 15.0 
646.00010179367 552.0 78.0 490.84512428298257 0.5068002494410353 28.0 16.0 15.0 
648.00010179367 552.0 78.0 490.8170809432756 0.5068039770803773 28.0 16.0 15.0 
650.00010179367 552.0 78.0 490.84002549394575 0.5068002494410353 28.0 16.0 15.0 
652.00010179367 552.0 78.0 490.8170809432756 0.5068059323187216 28.0 16.0 15.0 
654.00010179367 552.0 78.0 490.84002549394575 0.5068002494410353 28.0 16.0 15.0 
656.00010179367 552.0 78.0 490.8221797323138 0.5068059323187216 28.0 16.0 15.0 
658.00010179367 552.0 78.0 490.84002549394575 0.5067982942026908 28.0 16.0 15.0 
660.00010179367 552.0 78.0 490.8170809432756 0.5068059323187216 28.0 16.0 15.0 
662.00010179367 554.0 78.0 490.84002549394575 0.5068300980324195 28.0 16.0 15.0 
664.00010179367 554.0 78.0 490.8170809432756 0.5068361736112533 28.0 16.0 15.0 
#####################################################################
# End of data export. Simulation finished at: 2019-03-13T00:10+0000 #
#####################################################################
