#####################################################################
# Alchemist log file - simulation started at: 2019-03-03T08:26+0000 #
#####################################################################
# seed = 9.0, bandwidth = 2.3713737056616552E7, accessPointCount = 1031.338537721246, baserange = 17.78279410038923
#
# The columns have the following meaning: 
# time neighbor_count[Sum] <value>@neighbor_count[Sum] packet_size[Mean] mean_delay[Mean] crowd[Sum] overcrowded[Sum] risk[Sum] 
0.0 NaN NaN NaN NaN NaN NaN NaN 
10.000337445961424 188.0 82.0 4979.512658227848 0.49746509533725675 1497.0 0.0 1497.0 
20.000337445961424 193.0 82.0 4979.306962025317 0.4957249866418695 1497.0 0.0 1497.0 
30.000337445961424 196.0 84.0 4979.351265822785 0.5079933345665465 1497.0 0.0 1497.0 
40.00033744596142 194.0 83.0 4979.251582278481 0.49951417970915896 1497.0 0.0 1497.0 
50.00033744596142 192.0 82.0 4979.159810126583 0.4995094074255871 1497.0 0.0 1497.0 
60.00033744596142 192.0 82.0 4979.167721518987 0.4995093142084655 1497.0 0.0 1497.0 
70.00033744596142 190.0 81.0 421.85917721519 0.4997534735123289 35.0 0.0 12.0 
80.00033744596142 196.0 84.0 421.8670886075949 0.4997651424927829 24.0 0.0 12.0 
90.00033744596142 194.0 84.0 421.8670886075949 0.4999554957379405 19.0 0.0 12.0 
100.00033744596142 194.0 84.0 421.8401898734176 0.4999556143847532 19.0 0.0 12.0 
110.00033744596142 190.0 83.0 421.84335443037986 0.5341438454069679 19.0 0.0 12.0 
120.00033744596142 188.0 82.0 421.8401898734176 0.49995522313115853 18.0 0.0 12.0 
130.0003374459614 208.0 86.0 429.12025316455663 0.5181445559680974 22.0 0.0 16.0 
140.0003374459614 196.0 85.0 429.09968354430373 0.5193355664679814 22.0 0.0 16.0 
150.0003374459614 196.0 84.0 430.93987341772106 0.5014101798494763 21.0 0.0 17.0 
160.0003374459614 196.0 84.0 430.9193037974679 0.5014102297196714 21.0 0.0 17.0 
170.0003374459614 192.0 82.0 432.72310126582255 0.5002128852268292 21.0 0.0 18.0 
180.0003374459614 190.0 82.0 432.7215189873416 0.5176044734027079 22.0 0.0 18.0 
190.0003374459614 192.0 82.0 432.7215189873416 0.5002153778387864 22.0 0.0 18.0 
200.0003374459614 192.0 82.0 429.09177215189845 0.526765055759477 20.0 0.0 16.0 
210.0003374459614 190.0 82.0 425.4620253164563 0.49816125271719414 18.0 0.0 14.0 
220.0003374459614 192.0 82.0 425.4620253164563 0.5293946847248461 17.0 0.0 14.0 
230.0003374459614 192.0 82.0 423.64715189873385 0.4999125547644724 16.0 0.0 13.0 
240.0003374459614 188.0 80.0 423.64715189873385 0.5228459767120743 16.0 0.0 13.0 
250.0003374459614 190.0 81.0 423.64715189873385 0.49929959740136687 16.0 0.0 13.0 
260.0003374459614 192.0 82.0 423.64715189873385 0.4992732610216216 16.0 0.0 13.0 
270.0003374459614 194.0 82.0 423.64715189873385 0.49930524857240915 16.0 0.0 13.0 
280.0003374459614 194.0 83.0 423.64715189873385 0.49932337252269254 16.0 0.0 13.0 
290.0003374459614 198.0 84.0 423.64715189873385 0.5338113824885277 16.0 0.0 13.0 
300.0003374459614 200.0 85.0 423.64715189873385 0.4970219148496385 16.0 0.0 13.0 
310.0003374459614 198.0 85.0 423.64715189873385 0.49704743875532065 16.0 0.0 13.0 
320.0003374459614 202.0 86.0 423.64715189873385 0.4981129262933107 16.0 0.0 13.0 
330.0003374459614 204.0 86.0 423.64715189873385 0.5210894153903434 16.0 0.0 13.0 
340.0003374459614 195.0 82.0 423.64715189873385 0.49643941265617514 16.0 0.0 13.0 
350.0003374459614 202.0 85.0 425.4620253164564 0.5087222136890165 19.0 0.0 14.0 
360.0003374459614 200.0 84.0 429.1139240506325 0.5002369954506206 19.0 0.0 16.0 
370.0003374459614 197.0 83.0 429.09968354430373 0.5192666577184851 20.0 0.0 16.0 
380.0003374459614 184.0 79.0 429.0949367088603 0.5002711336714639 19.0 0.0 16.0 
390.0003374459614 186.0 80.0 429.09177215189845 0.5002642014424642 19.0 0.0 16.0 
400.0003374459614 184.0 79.0 429.09177215189845 0.5015537088394829 19.0 0.0 16.0 
410.0003374459614 184.0 78.0 429.09177215189845 0.49967142470308706 19.0 0.0 16.0 
420.0003374459614 182.0 78.0 429.09177215189845 0.5002765168776624 19.0 0.0 16.0 
430.0003374459614 186.0 80.0 425.4620253164563 0.49916980009168105 18.0 0.0 14.0 
440.0003374459614 190.0 81.0 425.4620253164563 0.49898049508391246 18.0 0.0 14.0 
450.0003374459614 196.0 84.0 425.4620253164563 0.5147196822070184 18.0 0.0 14.0 
460.0003374459614 196.0 83.0 425.4620253164563 0.506335112440538 18.0 0.0 14.0 
470.0003374459614 194.0 83.0 425.4620253164563 0.5055435755235612 18.0 0.0 14.0 
480.0003374459614 199.0 84.0 425.4620253164563 0.5059851738874008 18.0 0.0 14.0 
490.0003374459614 198.0 83.0 430.9398734177212 0.518017312503893 21.0 0.0 17.0 
500.0003374459614 196.0 84.0 429.10284810126615 0.5025138027215136 22.0 0.0 16.0 
510.0003374459614 192.0 82.0 429.0965189873415 0.5026050223718225 20.0 0.0 16.0 
520.0003374459613 196.0 84.0 429.0965189873415 0.4994614711810278 20.0 0.0 16.0 
530.0003374459613 198.0 85.0 429.0965189873415 0.5004781696307127 22.0 0.0 16.0 
540.0003374459613 204.0 84.0 432.7420886075947 0.5012931100212559 21.0 0.0 18.0 
550.0003374459613 212.0 86.0 432.7357594936714 0.5124616889419082 21.0 0.0 18.0 
560.0003374459613 198.0 85.0 430.9272151898737 0.5373761031011404 20.0 0.0 17.0 
570.0003374459613 194.0 83.0 430.91139240506396 0.5002483056590321 20.0 0.0 17.0 
580.0003374459613 192.0 82.0 430.91139240506396 0.5000712636159841 21.0 0.0 17.0 
590.0003374459613 194.0 83.0 430.91139240506396 0.5000697441077748 21.0 0.0 17.0 
600.0003374459613 198.0 84.0 430.91139240506396 0.5205393027657036 22.0 0.0 17.0 
610.0003374459613 194.0 84.0 430.9066455696204 0.5173094647585026 22.0 0.0 17.0 
620.0003374459613 207.0 89.0 427.27689873417745 0.5066153992590378 21.0 0.0 15.0 
630.0003374459613 214.0 88.0 432.77056962025273 0.5239414015435775 22.0 0.0 18.0 
640.0003374459613 203.0 85.0 432.7436708860753 0.5235116021291384 22.0 0.0 18.0 
650.0003374459613 192.0 83.0 432.73734177215107 0.5087967932956738 21.0 0.0 18.0 
660.0003374459613 188.0 81.0 432.72151898734154 0.5002609389269682 21.0 0.0 18.0 
#####################################################################
# End of data export. Simulation finished at: 2019-03-03T08:31+0000 #
#####################################################################
