#####################################################################
# Alchemist log file - simulation started at: 2019-03-03T05:03+0000 #
#####################################################################
# seed = 9.0, bandwidth = 1333521.4321633242, accessPointCount = 141.4213562373095, baserange = 31.622776601683796
#
# The columns have the following meaning: 
# time neighbor_count[Sum] <value>@neighbor_count[Sum] packet_size[Mean] mean_delay[Mean] crowd[Sum] overcrowded[Sum] risk[Sum] 
0.0 NaN NaN NaN NaN NaN NaN NaN 
10.000337445961424 46.0 16.0 4986.25641025641 0.48026590638231126 1497.0 0.0 1497.0 
20.000337445961424 46.0 16.0 4986.25641025641 0.4802641566291559 1497.0 0.0 1497.0 
30.000337445961424 46.0 16.0 4986.222222222223 0.48026440659389236 1497.0 0.0 1497.0 
40.00033744596142 46.0 16.0 4986.219780219781 0.48026590638231126 1497.0 0.0 1497.0 
50.00033744596142 50.0 18.0 4986.219780219781 0.49039276397162807 1497.0 0.0 1497.0 
60.00033744596142 50.0 18.0 4986.2979242979245 0.49039265287618977 1497.0 0.0 1497.0 
70.00033744596142 50.0 18.0 411.2747252747253 0.4954929889063153 12.0 0.0 4.0 
80.00033744596142 52.0 19.0 411.2747252747253 0.49578313052079453 4.0 0.0 4.0 
90.00033744596142 52.0 19.0 411.2747252747253 0.49578313052079453 4.0 0.0 4.0 
100.00033744596142 53.0 18.0 411.22588522588524 0.5674616399455618 4.0 0.0 4.0 
110.00033744596142 53.0 19.0 411.22588522588524 0.4751145751838598 4.0 0.0 4.0 
120.00033744596142 54.0 19.0 411.22588522588524 0.4833300482173118 4.0 0.0 4.0 
130.0003374459614 55.0 19.0 411.22588522588524 0.4885818747471372 4.0 0.0 4.0 
140.0003374459614 56.0 19.0 411.22588522588524 0.48716421929281933 4.0 0.0 4.0 
150.0003374459614 56.0 19.0 411.22588522588524 0.48716421929281933 4.0 0.0 4.0 
160.0003374459614 56.0 19.0 411.22588522588524 0.48716421929281933 4.0 0.0 4.0 
170.0003374459614 56.0 19.0 411.22588522588524 0.48716421929281933 4.0 0.0 4.0 
180.0003374459614 56.0 19.0 411.22588522588524 0.48716421929281933 4.0 0.0 4.0 
190.0003374459614 56.0 19.0 411.22588522588524 0.48716421929281933 4.0 0.0 4.0 
200.0003374459614 56.0 19.0 411.22588522588524 0.48716421929281933 4.0 0.0 4.0 
210.0003374459614 56.0 19.0 411.22588522588524 0.48716421929281933 4.0 0.0 4.0 
220.0003374459614 58.0 20.0 411.22588522588524 0.4879999408277166 4.0 0.0 4.0 
230.0003374459614 58.0 20.0 411.22588522588524 0.4879999408277166 4.0 0.0 4.0 
240.0003374459614 58.0 20.0 411.22588522588524 0.4879999408277166 4.0 0.0 4.0 
250.0003374459614 58.0 20.0 411.22588522588524 0.4879999408277166 4.0 0.0 4.0 
260.0003374459614 58.0 20.0 411.22588522588524 0.4879999408277128 4.0 0.0 4.0 
270.0003374459614 58.0 20.0 411.22588522588524 0.4879999408277128 4.0 0.0 4.0 
280.0003374459614 58.0 20.0 411.22588522588524 0.4879999408277128 4.0 0.0 4.0 
290.0003374459614 58.0 20.0 411.22588522588524 0.4879999408277128 4.0 0.0 4.0 
300.0003374459614 58.0 20.0 411.22588522588524 0.4879999408277128 4.0 0.0 4.0 
310.0003374459614 62.0 21.0 414.0268620268621 0.48598223595335155 7.0 0.0 5.0 
320.0003374459614 62.0 21.0 414.0268620268621 0.48598223595335155 7.0 0.0 5.0 
330.0003374459614 62.0 21.0 414.0268620268621 0.48598223595335155 7.0 0.0 5.0 
340.0003374459614 62.0 21.0 414.0268620268621 0.49673492412539455 7.0 0.0 5.0 
350.0003374459614 60.0 21.0 414.0268620268621 0.48858651822486293 7.0 0.0 5.0 
360.0003374459614 56.0 20.0 414.0268620268621 0.48430669733616044 6.0 0.0 5.0 
370.0003374459614 56.0 20.0 414.0268620268621 0.48430669733616044 6.0 0.0 5.0 
380.0003374459614 56.0 20.0 414.0268620268621 0.48430669733616044 6.0 0.0 5.0 
390.0003374459614 56.0 20.0 414.0268620268621 0.48430669733616044 6.0 0.0 5.0 
400.0003374459614 56.0 20.0 414.0268620268621 0.48430669733616044 6.0 0.0 5.0 
410.0003374459614 56.0 20.0 411.22588522588524 0.5010980464133641 4.0 0.0 4.0 
420.0003374459614 54.0 19.0 411.22588522588524 0.4876275191574557 4.0 0.0 4.0 
430.0003374459614 54.0 19.0 411.22588522588524 0.4876275191574557 4.0 0.0 4.0 
440.0003374459614 54.0 19.0 411.22588522588524 0.4876275191574557 4.0 0.0 4.0 
450.0003374459614 58.0 20.0 414.026862026862 0.4881445883616285 7.0 0.0 5.0 
460.0003374459614 58.0 20.0 414.026862026862 0.48777057318555167 6.0 0.0 5.0 
470.0003374459614 56.0 19.0 416.8278388278389 0.4934436595145342 9.0 0.0 6.0 
480.0003374459614 56.0 19.0 416.8278388278389 0.4934436595145342 9.0 0.0 6.0 
490.0003374459614 58.0 20.0 416.8278388278389 0.49384729711464487 9.0 0.0 6.0 
500.0003374459614 54.0 19.0 416.8278388278389 0.48883860216953334 9.0 0.0 6.0 
510.0003374459614 54.0 19.0 416.8278388278389 0.48883860216953334 7.0 0.0 6.0 
520.0003374459613 54.0 19.0 414.0268620268621 0.4890758790407149 7.0 0.0 5.0 
530.0003374459613 54.0 19.0 414.0268620268621 0.4890758790407149 5.0 0.0 5.0 
540.0003374459613 50.0 18.0 414.0268620268621 0.4887285829612763 5.0 0.0 5.0 
550.0003374459613 52.0 19.0 414.0268620268621 0.48946001358494107 5.0 0.0 5.0 
560.0003374459613 50.0 18.0 411.22588522588524 0.6315857258184191 4.0 0.0 4.0 
570.0003374459613 48.0 17.0 411.22588522588524 0.4878846245493552 4.0 0.0 4.0 
580.0003374459613 50.0 18.0 411.22588522588524 0.4887285829612763 4.0 0.0 4.0 
590.0003374459613 48.0 17.0 411.22588522588524 0.4878846245493552 4.0 0.0 4.0 
600.0003374459613 50.0 18.0 411.22588522588524 0.4887285829612763 4.0 0.0 4.0 
610.0003374459613 56.0 21.0 411.22588522588524 0.5330101177637735 4.0 0.0 4.0 
620.0003374459613 54.0 19.0 414.02686202686203 0.49434669466601483 7.0 0.0 5.0 
630.0003374459613 54.0 19.0 416.82783882783895 0.4915738583311032 8.0 0.0 6.0 
640.0003374459613 53.0 19.0 422.4517704517706 0.48141927821809405 9.0 0.0 8.0 
650.0003374459613 55.0 21.0 422.4297924297923 0.5144192954799275 10.0 0.0 8.0 
660.0003374459613 54.0 20.0 422.4297924297923 0.5404353932355194 10.0 0.0 8.0 
#####################################################################
# End of data export. Simulation finished at: 2019-03-03T05:05+0000 #
#####################################################################
