#####################################################################
# Alchemist log file - simulation started at: 2019-03-07T22:18+0000 #
#####################################################################
# seed = 7.0, bandwidth = 17782.79410038923, accessPointCount = 531.8295896944988, baserange = 177.82794100389228
#
# The columns have the following meaning: 
# time neighbor_count[Sum] <value>@neighbor_count[Sum] packet_size[Mean] mean_delay[Mean] crowd[Sum] overcrowded[Sum] risk[Sum] 
0.0 NaN NaN NaN NaN NaN NaN NaN 
2.0002189617048893 590.0 393.0 4981.966469428008 0.4478804105866951 1497.0 0.0 1497.0 
4.000218961704889 1451.0 732.0 4983.355029585799 0.6948805369589384 1497.0 0.0 1497.0 
6.000218961704889 2432.0 872.0 4984.4773175542405 0.9511300743800484 1497.0 0.0 1497.0 
8.00021896170489 3769.0 953.0 4985.039447731755 1.0697924320066579 1497.0 0.0 1497.0 
10.00021896170489 4637.0 1020.0 4985.136094674556 1.2445891606201787 1497.0 0.0 1497.0 
12.00021896170489 4836.0 1039.0 4985.2682445759365 1.6463676622771468 1497.0 0.0 1497.0 
14.00021896170489 4905.0 1042.0 4985.333333333333 1.8077697648681874 1497.0 0.0 1497.0 
16.000218961704892 5057.0 1045.0 4985.319526627219 1.6194654579335226 1496.0 1.0 1496.0 
18.000218961704892 5057.0 1045.0 4985.072978303748 1.9916154662115642 1496.0 1.0 1496.0 
20.000218961704892 5057.0 1045.0 4985.23865877712 2.2251073727351796 1495.0 2.0 1495.0 
22.000218961704892 5080.0 1046.0 4984.940828402367 2.063583798843577 1493.0 4.0 1493.0 
24.000218961704892 5080.0 1046.0 4985.201183431953 2.3058566915988052 1493.0 4.0 1493.0 
26.000218961704892 5034.0 1027.0 4985.025641025641 2.3562362203219784 1492.0 5.0 1492.0 
28.00006469220606 4917.0 995.0 4985.1893491124265 2.042344658346678 1493.0 4.0 1493.0 
30.000218961704892 4831.0 976.0 4985.171597633136 1.6134443477137281 1493.0 4.0 1493.0 
32.00021896170489 4680.0 955.0 4984.934911242603 1.3902438032409643 1493.0 4.0 1493.0 
34.000218961704896 4652.0 953.0 4984.838264299803 1.1920966885048652 1492.0 5.0 1492.0 
36.000218961704896 4656.0 953.0 4984.932938856016 1.1442471478706575 1491.0 6.0 1491.0 
38.000218961704896 4656.0 953.0 4984.923076923077 1.225921650850425 1492.0 5.0 1492.0 
40.000218961704896 4656.0 953.0 4985.043392504931 1.2066184391014436 1491.0 6.0 1491.0 
42.00006469220606 4659.0 953.0 4984.710059171598 1.41214435527303 1491.0 6.0 1491.0 
44.000218961704896 4684.0 955.0 4984.940828402367 1.142351818312719 1491.0 6.0 1491.0 
46.000218961704896 4684.0 955.0 4984.6883629191325 1.1532365334000596 1488.0 9.0 1488.0 
48.000218961704896 4705.0 956.0 4984.891518737672 1.4161376475325171 1489.0 8.0 1489.0 
50.000218961704896 4707.0 956.0 4984.897435897436 1.2546446316577702 1489.0 8.0 1489.0 
52.000218961704896 4704.0 955.0 4984.6883629191325 1.12678847312888 1490.0 7.0 1490.0 
54.000218961704896 4710.0 956.0 4984.81459566075 1.2845297013412675 1490.0 7.0 1490.0 
56.000218961704896 4711.0 956.0 4984.873767258383 1.3824074021603197 1489.0 8.0 1489.0 
58.000218961704896 4709.0 956.0 4984.775147928994 1.135362468077715 1490.0 7.0 1490.0 
60.000218961704896 4707.0 956.0 4984.842209072978 1.3621469627374976 1490.0 7.0 1490.0 
62.000820081749154 4711.0 956.0 792.7080867850055 1.3007358973636753 420.0 7.0 166.0 
64.00082008174915 4759.0 958.0 797.2110453648953 0.8953501976490612 325.0 7.0 168.0 
66.00029741811947 4696.0 957.0 797.0690335305738 0.8801244549743015 313.0 8.0 167.0 
68.00082008174915 4696.0 957.0 797.0276134122261 1.0344083826876984 290.0 7.0 168.0 
70.00082008174915 4697.0 957.0 797.0453648915171 1.0045431089268317 271.0 7.0 168.0 
72.00082008174915 4720.0 958.0 796.9546351084829 0.9094380507307761 265.0 8.0 167.0 
74.00082008174915 4756.0 961.0 799.1715976331393 1.010810112230933 265.0 8.0 168.0 
76.00029741811947 4733.0 958.0 799.1479289940823 0.9586779900115052 266.0 8.0 168.0 
78.00082008174915 4769.0 959.0 801.4832347139993 0.9182419495972853 265.0 7.0 170.0 
80.00082008174915 4753.0 959.0 801.520710059171 0.9602063702381994 264.0 6.0 171.0 
82.00082008174915 4765.0 959.0 801.5601577909283 0.9432098390392845 262.0 7.0 170.0 
84.00082008174915 4782.0 960.0 801.5266272189366 1.0738776709848543 258.0 7.0 170.0 
86.00029741811947 4774.0 959.0 799.2189349112406 0.9316859060350565 252.0 8.0 168.0 
88.00082008174915 4774.0 959.0 794.6568047337227 0.9838185245574489 253.0 6.0 168.0 
90.00082008174915 4771.0 958.0 794.6311637080917 1.100677654748138 253.0 6.0 168.0 
92.00082008174915 4777.0 958.0 783.3925049309694 1.0138544972449473 253.0 6.0 163.0 
94.00082008174915 4731.0 956.0 781.0729783037485 0.9073630436271913 248.0 6.0 162.0 
96.00029741811947 4750.0 957.0 781.0650887573936 1.0351837771149373 247.0 6.0 162.0 
98.00082008174915 4750.0 958.0 783.315581854042 1.1616253289493883 245.0 7.0 162.0 
100.00082008174915 4767.0 958.0 783.3313609467424 0.9481861291910273 246.0 7.0 162.0 
102.00082008174915 4766.0 958.0 783.2978303747507 1.0465191516831591 237.0 10.0 159.0 
104.00082008174915 4749.0 955.0 783.258382643003 1.041179862451895 237.0 10.0 159.0 
106.00029741811947 4747.0 955.0 785.5739644970392 0.8154628526735771 238.0 9.0 161.0 
108.00082008174915 4743.0 955.0 785.5759368836286 0.9235228937075166 237.0 10.0 160.0 
110.00082008174915 4735.0 954.0 785.5601577909283 0.9953947326659139 238.0 9.0 161.0 
112.00082008174915 4771.0 956.0 785.5857988165651 0.9423882174599274 237.0 10.0 160.0 
114.00082008174915 4818.0 957.0 787.8875739644994 0.8276465518872779 236.0 10.0 161.0 
116.00029741811947 4809.0 957.0 787.8461538461519 0.9408644541387653 237.0 9.0 162.0 
118.00082008174915 4849.0 959.0 787.8441814595627 0.9978970415036681 236.0 10.0 161.0 
120.00082008174915 4869.0 959.0 787.8678500986231 0.9211408155178519 237.0 9.0 162.0 
122.00082008174915 4890.0 960.0 792.4023668639051 0.9652830964190023 237.0 10.0 163.0 
124.00082008174915 4889.0 961.0 792.3688362919087 0.9741290950987166 238.0 10.0 163.0 
126.00029741811947 4918.0 963.0 792.3668639053232 1.0810342099082924 241.0 9.0 164.0 
128.00082008174917 4946.0 963.0 794.6844181459581 1.0006201068670897 242.0 10.0 164.0 
130.00082008174917 4957.0 963.0 794.6153846153858 0.996562393174023 243.0 9.0 165.0 
132.00082008174917 4965.0 963.0 794.639053254437 1.1472806365896844 242.0 10.0 164.0 
134.00082008174917 4967.0 962.0 792.400394477316 1.1486910543137083 242.0 10.0 163.0 
136.0002974181195 4972.0 962.0 792.370808678498 1.0078243341411273 243.0 9.0 164.0 
138.00082008174917 4977.0 962.0 796.8895463510885 1.1131892010641853 241.0 10.0 165.0 
140.00082008174917 5010.0 962.0 796.8639053254429 1.2078832611657302 241.0 9.0 166.0 
142.00082008174917 5001.0 961.0 806.00394477318 1.0315221408885173 244.0 10.0 169.0 
144.00082008174917 5017.0 962.0 808.2347140039423 1.0418145737832376 248.0 10.0 170.0 
146.0002974181195 4998.0 961.0 803.7061143984205 1.0947305893473915 248.0 9.0 169.0 
148.00082008174917 4981.0 961.0 805.9625246548281 1.1535928722814615 247.0 10.0 169.0 
150.00082008174917 4928.0 962.0 805.9487179487172 0.9701180036456296 247.0 9.0 170.0 
152.00082008174917 4923.0 961.0 803.7041420118308 1.0203624273853351 246.0 10.0 168.0 
154.00082008174917 4926.0 962.0 801.3865877711994 0.9860603004996681 246.0 10.0 167.0 
156.0002974181195 4942.0 964.0 799.1400394477315 1.1188813078409428 246.0 10.0 166.0 
158.00082008174917 4894.0 964.0 799.1617357001942 0.9702786587620057 244.0 11.0 165.0 
160.00082008174917 4872.0 962.0 801.3885601577891 0.975414754902828 246.0 9.0 168.0 
162.00082008174917 4885.0 964.0 801.3846153846147 1.073338901654585 245.0 10.0 167.0 
164.00082008174917 4896.0 966.0 803.6528599605487 1.087994695231942 248.0 10.0 168.0 
166.0002974181195 4910.0 965.0 805.9368836291914 0.8835482330607158 247.0 10.0 169.0 
168.00082008174917 4906.0 965.0 805.913214990135 1.041723417743281 246.0 11.0 168.0 
170.00006469220608 4903.0 965.0 805.9171597633165 1.1261475537809416 247.0 9.0 170.0 
172.00082008174917 4895.0 965.0 808.1518737672574 0.9773104186502078 245.0 10.0 170.0 
174.00082008174917 4892.0 967.0 810.4122287968454 1.01542006622832 245.0 10.0 171.0 
176.0002974181195 4909.0 969.0 808.1775147929026 1.133855775334259 246.0 9.0 171.0 
178.00082008174917 4897.0 968.0 808.1715976331393 1.0835624266805273 246.0 10.0 170.0 
180.00082008174917 4819.0 965.0 808.1873767258397 1.0509482670117185 247.0 9.0 171.0 
182.00082008174917 4818.0 965.0 803.6489151873768 1.1244610816857454 245.0 10.0 168.0 
184.00082008174917 4785.0 964.0 803.6469428007917 1.0511183699012492 245.0 10.0 168.0 
186.0002974181195 4743.0 962.0 801.3747534516793 1.108843685867051 243.0 10.0 167.0 
188.00082008174917 4702.0 962.0 801.3333333333321 1.090110826978843 243.0 10.0 167.0 
190.00082008174917 4704.0 963.0 799.0788954635096 1.0160034448881399 244.0 9.0 167.0 
192.00082008174917 4702.0 963.0 799.0591715976365 1.162255240627885 242.0 10.0 166.0 
194.00082008174917 4643.0 961.0 799.0788954635096 1.0899096570244222 242.0 10.0 166.0 
196.0002974181195 4641.0 961.0 796.8461538461519 0.9154294528355461 240.0 9.0 166.0 
198.00082008174917 4642.0 961.0 796.8067061143968 1.0297108420160501 240.0 10.0 165.0 
200.00082008174917 4630.0 961.0 794.5700197238639 1.0870618632249847 240.0 9.0 165.0 
202.00082008174917 4617.0 961.0 794.573964497039 1.0736693804634447 241.0 10.0 164.0 
204.00082008174917 4609.0 961.0 792.2919132149947 0.9940349940247519 241.0 10.0 163.0 
206.0002974181195 4564.0 959.0 790.037475345172 0.9676050102862405 240.0 10.0 162.0 
208.00082008174917 4546.0 957.0 790.0098619329366 0.9468409926502626 239.0 11.0 161.0 
210.00082008174917 4548.0 957.0 790.0138067061107 1.0062593151594605 240.0 10.0 162.0 
212.00082008174917 4549.0 958.0 787.759368836288 0.9784632519258919 236.0 11.0 160.0 
214.00082008174917 4598.0 960.0 790.0355029585822 0.9069121309722824 238.0 11.0 161.0 
216.0002974181195 4603.0 962.0 799.1084812623297 1.0351986240210034 242.0 10.0 166.0 
218.00082008174917 4603.0 964.0 796.7948717948692 1.141076656860391 241.0 11.0 164.0 
220.00082008174917 4594.0 962.0 796.8145956607513 0.9340780435733813 242.0 10.0 165.0 
222.00082008174917 4594.0 963.0 796.8027613412253 1.0298895744579066 242.0 11.0 164.0 
224.00082008174917 4590.0 964.0 796.7909270216945 1.0204074684326185 241.0 11.0 164.0 
226.0002974181195 4597.0 963.0 796.8244575936861 0.9599878185510952 241.0 10.0 165.0 
228.00082008174917 4615.0 966.0 796.7850098619341 1.0079240457863319 240.0 11.0 164.0 
230.00082008174917 4629.0 967.0 790.0059171597654 1.0665112926581466 241.0 10.0 162.0 
232.00082008174917 4645.0 968.0 787.737672583822 1.0651304027757862 238.0 11.0 160.0 
234.00082008174917 4659.0 968.0 790.0078895463549 1.0678207212463566 238.0 11.0 161.0 
236.0002974181195 4665.0 969.0 790.0295857988164 1.0246501926774816 237.0 10.0 162.0 
238.00082008174917 4675.0 968.0 790.013806706111 1.02058236986148 236.0 11.0 161.0 
240.00082008174917 4697.0 968.0 790.0453648915171 1.0777481077677196 235.0 10.0 162.0 
242.00082008174917 4708.0 969.0 792.3136094674512 1.1366119306976539 234.0 11.0 162.0 
244.00082008174917 4713.0 969.0 787.7790927021687 1.0237756854838007 232.0 11.0 160.0 
246.0002974181195 4724.0 971.0 785.5463510848169 1.1148544834640097 236.0 10.0 160.0 
248.00082008174917 4725.0 970.0 785.5147928994108 1.15332369946881 234.0 11.0 159.0 
250.00082008174917 4761.0 970.0 787.7909270216943 1.1143003349278269 237.0 10.0 161.0 
252.00082008174917 4752.0 971.0 787.7790927021687 1.009609783356064 237.0 11.0 160.0 
254.00082008174917 4752.0 972.0 790.065088757394 1.0057619787344483 237.0 11.0 161.0 
256.0002974181195 4789.0 974.0 790.0966469427998 0.9886632307982829 239.0 10.0 162.0 
258.00082008174917 4780.0 974.0 792.3175542406309 1.1084115004862058 238.0 11.0 162.0 
260.00082008174917 4778.0 974.0 794.5936883629199 1.121508853156015 238.0 10.0 164.0 
262.00082008174917 4763.0 976.0 796.8915187376705 0.9710117249082637 239.0 10.0 165.0 
264.00082008174917 4771.0 977.0 794.5897435897401 1.0560153888780885 240.0 10.0 164.0 
266.0002974181195 4767.0 976.0 796.8836291913232 1.0776431235037507 238.0 10.0 165.0 
268.00082008174917 4777.0 976.0 796.8619329388539 0.9804471318567861 241.0 11.0 164.0 
270.00082008174917 4784.0 979.0 796.844181459563 1.080253978932456 241.0 11.0 164.0 
272.00082008174917 4774.0 978.0 799.0867850098649 1.11532739089897 236.0 10.0 166.0 
274.00082008174917 4757.0 976.0 799.0670611439831 1.026423370333534 237.0 10.0 166.0 
276.0002974181195 4752.0 974.0 801.3471400394519 0.984334690626499 236.0 10.0 167.0 
278.00082008174917 4736.0 972.0 801.3116370808698 1.055350787102888 239.0 9.0 168.0 
280.00082008174917 4746.0 973.0 801.2978303747504 1.02878474851331 241.0 8.0 169.0 
282.00082008174917 4755.0 973.0 801.3214990138058 1.1224259613718945 242.0 8.0 169.0 
284.00082008174917 4746.0 971.0 808.1282051282019 1.009878639988685 241.0 8.0 172.0 
286.0002974181195 4746.0 972.0 808.0986193293857 0.9861678794226532 233.0 14.0 166.0 
288.00082008174917 4731.0 972.0 808.1360946745571 1.0684885919092901 231.0 16.0 164.0 
290.00082008174917 4747.0 970.0 808.1183431952658 1.0722917043664244 233.0 16.0 164.0 
292.00082008174917 4774.0 972.0 812.6706114398389 1.006934710133297 235.0 14.0 168.0 
294.00082008174917 4788.0 973.0 812.6706114398389 1.0647691824817684 234.0 14.0 168.0 
296.0002974181195 4786.0 974.0 814.9428007889528 1.1795851092363734 236.0 13.0 170.0 
298.00082008174917 4782.0 973.0 817.2051282051307 1.1945293497600131 237.0 13.0 171.0 
300.00082008174917 4790.0 975.0 819.5325443787012 1.099676892777757 235.0 14.0 171.0 
302.00082008174917 4799.0 977.0 819.5404339250465 1.179520184710944 236.0 14.0 171.0 
304.00082008174917 4801.0 975.0 824.0177514792912 1.0829299459823392 239.0 14.0 173.0 
306.0002974181195 4804.0 976.0 826.2879684418143 1.2010817909559843 243.0 13.0 175.0 
308.00082008174917 4765.0 975.0 824.0315581854019 1.2078442341742495 241.0 13.0 174.0 
310.00082008174917 4760.0 974.0 828.5246548323458 1.133868530205328 240.0 14.0 175.0 
312.00082008174917 4750.0 973.0 826.3155818540413 1.2177986420517148 239.0 14.0 174.0 
314.00082008174917 4728.0 970.0 821.751479289943 1.1985212270516945 239.0 14.0 172.0 
316.0002974181195 4748.0 973.0 819.4595660749536 1.1151304858981834 240.0 13.0 172.0 
318.00082008174917 4747.0 971.0 817.244575936887 1.1327629553394958 240.0 13.0 171.0 
320.00082008174917 4747.0 970.0 819.5147928994112 1.204502591400232 239.0 14.0 171.0 
322.00082008174917 4706.0 968.0 819.5285996055263 1.113516989466061 239.0 14.0 171.0 
324.00082008174917 4689.0 967.0 817.2209072978313 0.9761001958498348 240.0 14.0 170.0 
326.0002974181195 4698.0 967.0 814.9368836291919 1.0268037372845156 239.0 13.0 170.0 
328.00082008174917 4701.0 967.0 810.4102564102607 1.0625582420630428 239.0 13.0 168.0 
330.00082008174917 4686.0 964.0 803.5996055226856 1.071427429699601 237.0 14.0 164.0 
332.00082008174917 4660.0 963.0 803.641025641022 0.9986237329121248 238.0 14.0 164.0 
334.00082008174917 4663.0 963.0 803.5897435897393 0.9487655272394439 237.0 14.0 164.0 
336.0002974181195 4665.0 963.0 803.5700197238618 1.0199418332210455 238.0 13.0 165.0 
338.00082008174917 4656.0 963.0 803.5739644970388 1.0960401974669323 238.0 13.0 165.0 
340.00082008174917 4665.0 964.0 803.5818540433957 0.979075046027525 238.0 14.0 164.0 
342.00082008174917 4657.0 964.0 799.0591715976391 1.048608158744603 238.0 14.0 162.0 
344.00082008174917 4639.0 962.0 801.3274161735728 1.0028223879166362 239.0 14.0 163.0 
346.0002974181195 4654.0 963.0 803.5956607495096 1.0074755161890652 239.0 13.0 165.0 
348.00082008174917 4645.0 961.0 803.5700197238616 0.9947910970343893 239.0 13.0 165.0 
350.00082008174917 4684.0 964.0 808.1143984220853 0.9808653309502453 240.0 14.0 166.0 
352.00082008174917 4662.0 962.0 810.3806706114453 0.9445719718566064 239.0 14.0 167.0 
354.00082008174917 4660.0 962.0 810.3491124260313 1.015203667034254 239.0 14.0 167.0 
356.0002974181195 4663.0 962.0 808.1282051282002 0.9697168876556341 239.0 12.0 168.0 
358.00082008174917 4657.0 962.0 808.1242603550328 0.9690668737802277 239.0 12.0 168.0 
360.00082008174917 4651.0 961.0 810.3668639053217 1.0426003544985014 239.0 13.0 168.0 
362.00082008174917 4687.0 964.0 812.6725838264273 1.0251049974339452 238.0 13.0 169.0 
364.00082008174917 4687.0 964.0 812.6568047337223 0.9651394788934377 239.0 13.0 169.0 
366.0002974181195 4695.0 965.0 810.3648915187318 1.0361839799839085 240.0 12.0 169.0 
368.00082008174917 4711.0 966.0 812.6469428007923 1.1219040814276124 242.0 12.0 170.0 
370.00082008174917 4736.0 968.0 810.3668639053224 1.111676126434709 243.0 13.0 168.0 
372.00082008174917 4731.0 970.0 810.347140039453 1.0585099478725286 242.0 13.0 168.0 
374.00082008174917 4745.0 970.0 803.5483234714029 1.0388687102748388 243.0 13.0 165.0 
376.0002974181195 4747.0 969.0 801.3214990138058 1.057382035914442 244.0 12.0 165.0 
378.00082008174917 4739.0 969.0 794.5266272189366 1.0716282623521731 244.0 12.0 162.0 
380.00082008174917 4741.0 969.0 790.0059171597663 1.0451674467455403 241.0 13.0 159.0 
382.00082008174917 4736.0 969.0 783.228796844176 1.0013842358993157 241.0 13.0 156.0 
384.00082008174917 4729.0 969.0 783.2051282051307 1.0704734122218844 243.0 13.0 156.0 
386.0002974181195 4763.0 970.0 785.49704142012 1.1059318068012143 242.0 12.0 158.0 
388.00082008174917 4804.0 971.0 787.759368836288 1.036198270422418 241.0 13.0 158.0 
390.00082008174917 4837.0 972.0 787.7554240631132 1.078261202982653 239.0 14.0 157.0 
392.00056635452876 4845.0 971.0 790.0295857988167 1.1265933458895967 240.0 14.0 158.0 
394.00082008174917 4848.0 968.0 792.272189349114 1.067017994580899 240.0 14.0 159.0 
396.0002974181195 4849.0 968.0 792.2859960552237 1.083306664982238 240.0 13.0 160.0 
398.00082008174917 4852.0 968.0 796.8382642998065 1.1767819951039267 241.0 13.0 162.0 
400.00082008174917 4871.0 965.0 794.6311637080918 1.1386092104205956 239.0 14.0 160.0 
402.00082008174917 4866.0 966.0 799.145956607493 1.1217935859918748 240.0 14.0 162.0 
404.00082008174917 4869.0 965.0 799.1104536489111 1.1507429985379867 241.0 14.0 162.0 
406.0002974181195 4871.0 964.0 799.1577909270228 1.1189198254963368 243.0 12.0 164.0 
408.00082008174917 4871.0 963.0 801.4280078895463 1.160624329955372 244.0 12.0 165.0 
410.00082008174917 4875.0 965.0 799.1637080867832 1.2170252401704564 243.0 13.0 163.0 
412.0000077566766 4881.0 967.0 792.360946745563 1.1300431767055696 241.0 13.0 160.0 
414.00082008174917 4867.0 965.0 794.619329388556 1.1055961019072333 241.0 13.0 161.0 
416.0002974181195 4864.0 965.0 794.6311637080918 1.0931958979838707 242.0 12.0 162.0 
418.00082008174917 4858.0 965.0 794.6686390532582 1.1903634868346344 242.0 12.0 162.0 
420.00082008174917 4857.0 964.0 794.6449704142026 1.1317590971125955 240.0 14.0 160.0 
422.00082008174917 4842.0 963.0 801.4891518737646 1.083627338301343 241.0 15.0 162.0 
424.00082008174917 4833.0 962.0 801.4181459566055 1.0390723930147456 240.0 15.0 162.0 
426.0002974181195 4841.0 962.0 801.3846153846138 1.13329247628952 238.0 15.0 162.0 
428.00082008174917 4898.0 965.0 799.098619329385 1.1043889464636876 236.0 15.0 161.0 
430.00082008174917 4932.0 963.0 796.8343195266319 1.079064192096852 237.0 16.0 159.0 
432.00082008174917 4942.0 966.0 799.1597633136132 1.1673860138095584 237.0 16.0 160.0 
434.00082008174917 4960.0 965.0 803.6449704142026 1.1160488836732054 238.0 15.0 163.0 
436.0002974181195 4967.0 965.0 803.6587771203132 1.040968590916997 240.0 13.0 165.0 
438.00082008174917 4930.0 964.0 805.9684418145982 1.1125779990050688 240.0 13.0 166.0 
440.00082008174917 4911.0 962.0 805.9664694280085 1.1266258957129154 239.0 14.0 165.0 
442.00082008174917 4944.0 963.0 805.9605522682429 1.0389451627359958 239.0 15.0 164.0 
444.00082008174917 4934.0 961.0 803.6469428007921 1.032577525947668 239.0 15.0 163.0 
446.0002974181195 4939.0 963.0 803.6508875739669 1.0723020042611386 240.0 14.0 164.0 
448.00082008174917 4961.0 963.0 805.9309664694262 1.1112148014457948 242.0 14.0 165.0 
450.00082008174917 4981.0 964.0 808.1972386587746 1.0415073621919142 240.0 15.0 165.0 
452.00082008174917 4990.0 964.0 810.4950690335348 1.0224494457471485 240.0 15.0 166.0 
454.00082008174917 5010.0 965.0 812.7258382642964 0.9814398486806575 241.0 15.0 167.0 
456.0001262751351 5008.0 965.0 812.7159763313659 1.1105214991810346 242.0 14.0 168.0 
458.00082008174917 5011.0 966.0 812.729783037477 1.0848874715519967 243.0 14.0 168.0 
460.00082008174917 5015.0 965.0 814.9802761341191 1.0068326127499057 242.0 15.0 168.0 
462.00082008174917 5032.0 966.0 815.0039447731804 1.084370304344315 243.0 15.0 168.0 
464.00082008174917 5029.0 966.0 814.972386587774 1.1410608738181132 243.0 15.0 168.0 
466.0002974181195 5052.0 967.0 819.5187376725812 1.0584398713504752 245.0 14.0 171.0 
468.00082008174917 5051.0 968.0 824.0453648915167 1.1591940716375364 246.0 14.0 173.0 
470.00082008174917 5040.0 968.0 826.3175542406302 1.216549906101792 246.0 15.0 173.0 
472.00082008174917 5031.0 967.0 824.088757396454 1.197533505448689 245.0 15.0 172.0 
474.00082008174917 4994.0 968.0 821.7850098619348 1.1410404880993943 243.0 15.0 171.0 
476.0002974181195 4971.0 966.0 821.7692307692328 1.1034969603757314 244.0 14.0 172.0 
478.00082008174917 4967.0 966.0 819.5147928994115 1.1218954570506052 245.0 14.0 171.0 
480.00082008174917 4968.0 967.0 817.226824457596 1.2257205478863886 242.0 15.0 169.0 
482.00082008174917 4961.0 966.0 814.9881656804747 1.188992846447836 243.0 15.0 168.0 
484.00082008174917 4946.0 964.0 812.6883629191299 0.9529901363284143 243.0 15.0 167.0 
486.0002974181195 4942.0 964.0 810.4339250493069 1.0287992732128122 242.0 14.0 167.0 
488.00082008174917 4919.0 965.0 810.4635108481287 1.0800523293332007 241.0 15.0 166.0 
490.0004552485401 4920.0 968.0 810.4477317554273 0.9766917128479018 240.0 16.0 165.0 
492.00082008174917 4934.0 969.0 805.9151873767257 1.0047908388681408 240.0 16.0 163.0 
494.00082008174917 4929.0 969.0 805.8856015779146 1.0046524134375991 240.0 16.0 163.0 
496.0002974181195 4890.0 967.0 803.6646942800833 0.9186934015387344 238.0 17.0 161.0 
498.00082008174917 4890.0 968.0 794.5936883629199 1.033593179050187 239.0 17.0 157.0 
500.00082008174917 4890.0 968.0 792.3136094674496 0.9867711170666809 239.0 18.0 155.0 
502.00082008174917 4891.0 969.0 792.3076923076952 0.9348031100660019 241.0 16.0 157.0 
504.00082008174917 4898.0 969.0 792.262327416179 1.0225994963587828 241.0 16.0 157.0 
506.0002974181195 4897.0 969.0 792.2702169625231 1.1088643307270716 240.0 15.0 158.0 
508.00082008174917 4903.0 969.0 792.2741617357036 1.0727374422347034 241.0 15.0 158.0 
510.00082008174917 4902.0 971.0 794.5364891518707 1.0677514593498836 241.0 16.0 158.0 
512.0008200817492 4874.0 972.0 794.5443786982278 1.153991655087236 242.0 17.0 157.0 
514.0008200817492 4874.0 973.0 794.5226824457563 1.1855445209882218 243.0 16.0 158.0 
516.0002974181195 4870.0 973.0 792.293885601581 1.1879005985017892 241.0 17.0 156.0 
518.0008200817492 4876.0 974.0 790.0098619329348 1.2170266978235773 241.0 16.0 156.0 
520.0008200817492 4883.0 974.0 792.280078895458 1.269560272849543 241.0 17.0 156.0 
522.0008200817492 4890.0 975.0 790.0335305719915 1.406395970531551 240.0 16.0 156.0 
524.0008200817492 4892.0 975.0 783.2504930966423 1.2598349207432362 238.0 16.0 153.0 
526.0002974181195 4870.0 973.0 783.2110453648966 1.2021082489369563 238.0 16.0 153.0 
528.0008200817492 4847.0 971.0 778.6844181459599 1.322328278109374 237.0 15.0 152.0 
530.0008200817492 4810.0 967.0 778.6272189349114 1.2946005774793468 237.0 16.0 151.0 
532.0008200817492 4796.0 965.0 776.3550295857974 1.0627430147577943 238.0 15.0 151.0 
534.0008200817492 4804.0 966.0 774.0887573964546 1.0593226138016196 237.0 15.0 150.0 
536.0002974181195 4805.0 966.0 774.112426035499 1.1729453374236087 238.0 14.0 151.0 
538.0008200817492 4817.0 966.0 769.5838264299854 1.1399707751274368 237.0 14.0 149.0 
540.0008200817492 4807.0 964.0 769.5857988165632 1.1089355737028306 237.0 15.0 148.0 
542.0008200817492 4815.0 964.0 771.8678500986234 1.1617548611533743 237.0 15.0 149.0 
544.0008200817492 4805.0 964.0 771.8244575936842 1.1357997918494505 238.0 15.0 149.0 
546.0002974181195 4767.0 962.0 776.3589743589779 1.0532072081918256 239.0 14.0 152.0 
548.0008200817492 4754.0 962.0 776.3589743589779 1.1556650468879899 239.0 14.0 152.0 
550.0008200817492 4763.0 962.0 774.0887573964546 1.1246095189160894 240.0 15.0 150.0 
552.0008200817492 4765.0 960.0 771.8422090729755 1.1759738877138002 240.0 15.0 149.0 
554.0008200817492 4728.0 959.0 776.3589743589779 0.9925498258509206 241.0 15.0 151.0 
556.0002974181195 4731.0 960.0 776.3806706114453 0.9844521089982385 242.0 14.0 152.0 
558.0008200817492 4736.0 961.0 776.3944773175562 1.065968948025471 243.0 14.0 152.0 
560.0008200817492 4722.0 961.0 778.652859960546 1.023501743448464 241.0 15.0 152.0 
562.0008200817492 4739.0 962.0 780.9329388560169 0.9931072461005368 242.0 15.0 153.0 
564.0008200817492 4763.0 962.0 780.903353057202 1.0149662253097445 246.0 15.0 153.0 
566.0002974181195 4780.0 963.0 785.4457593688394 1.0497088091648632 247.0 14.0 156.0 
568.0008200817492 4789.0 964.0 789.9743589743649 1.0383092004397463 248.0 14.0 158.0 
570.0008200817492 4794.0 964.0 792.2524654832321 1.153017093804491 248.0 15.0 158.0 
572.0008200817492 4799.0 964.0 794.5147928994126 1.2426277137090025 248.0 15.0 159.0 
574.0008200817492 4807.0 965.0 794.5009861932891 1.0954741379463646 248.0 15.0 159.0 
576.0002974181195 4800.0 965.0 792.2544378698228 1.186178561279285 249.0 13.0 160.0 
578.0008200817492 4827.0 967.0 792.2662721893472 1.2889588851590732 249.0 13.0 160.0 
580.0008200817492 4805.0 967.0 790.0335305719915 1.2476388080975553 246.0 14.0 158.0 
582.0008200817492 4758.0 965.0 790.0394477317583 1.0852713751943788 245.0 14.0 158.0 
584.0008200817492 4739.0 961.0 790.0039447731804 1.1023865097212933 243.0 15.0 157.0 
586.0002974181195 4744.0 965.0 794.5463510848174 1.088880570113952 245.0 13.0 161.0 
588.0008200817492 4740.0 966.0 796.8362919132182 1.1295559158372008 244.0 13.0 162.0 
590.0008200817492 4734.0 967.0 796.7988165680496 1.1623540515897415 243.0 14.0 161.0 
592.0008200817492 4741.0 969.0 794.5226824457563 1.198247640736416 242.0 14.0 160.0 
594.0008200817492 4709.0 966.0 794.5207100591698 1.1630074376951578 240.0 14.0 160.0 
596.0002974181195 4695.0 967.0 796.8264299802711 1.1214459104954355 239.0 13.0 162.0 
598.0008200817492 4690.0 967.0 796.8007889546402 1.1870965474099835 239.0 13.0 162.0 
600.0008200817492 4688.0 966.0 799.0848126232743 1.2322383600396116 240.0 14.0 162.0 
602.0008200817492 4688.0 967.0 803.6114398422109 1.2265384261971601 243.0 14.0 164.0 
604.0008200817492 4665.0 967.0 805.8836291913238 1.2063709943554608 248.0 14.0 165.0 
606.0002974181195 4667.0 966.0 808.1282051282008 1.226346678239656 252.0 13.0 167.0 
608.0008200817492 4696.0 967.0 810.3964497041453 1.2929210372889053 254.0 13.0 168.0 
610.0008200817492 4703.0 967.0 812.6982248520746 1.1773308087306438 252.0 14.0 168.0 
612.0008200817492 4712.0 968.0 812.7041420118295 1.2480038648749758 252.0 14.0 168.0 
614.0008200817492 4698.0 964.0 817.2544378698228 1.202513347846171 250.0 14.0 170.0 
616.0002974181195 4717.0 967.0 819.4319526627273 1.1533912454111954 254.0 13.0 172.0 
618.0008200817492 4740.0 967.0 828.5029585798794 1.2145925322065894 256.0 13.0 176.0 
620.0008200817492 4736.0 969.0 828.5443786982277 1.2329349684720865 258.0 14.0 175.0 
622.0008200817492 4712.0 968.0 826.268244575934 1.2717658248670716 257.0 14.0 174.0 
624.0008200817492 4707.0 969.0 819.471400394474 1.2102970229117833 254.0 14.0 171.0 
626.0002974181195 4720.0 967.0 817.1715976331392 1.16935253577703 253.0 13.0 171.0 
628.0008200817492 4720.0 968.0 814.950690335308 1.329391485189553 251.0 13.0 170.0 
630.0008200817492 4699.0 964.0 814.9743589743633 1.2349449984687504 250.0 14.0 169.0 
632.0006791229401 4694.0 964.0 814.9447731755416 1.2754361596782913 250.0 14.0 169.0 
634.0008200817492 4679.0 965.0 814.9092702169597 1.3320189355819791 250.0 14.0 169.0 
636.0002974181195 4646.0 964.0 817.1735700197283 1.385522675443004 249.0 13.0 171.0 
638.0008200817492 4596.0 960.0 814.9230769230808 1.265831743786429 250.0 13.0 170.0 
640.0006791229401 4627.0 965.0 817.1992110453605 1.2935947524170437 249.0 14.0 170.0 
642.0008200817492 4630.0 964.0 819.4930966469451 1.395757847735069 248.0 14.0 171.0 
644.0006791229401 4621.0 963.0 812.6785009861942 1.358531698540347 247.0 14.0 168.0 
646.0002974181195 4577.0 960.0 810.3806706114437 1.23233847701634 245.0 13.0 168.0 
648.0006791229401 4518.0 958.0 808.0986193293857 1.3150361367230836 246.0 13.0 167.0 
650.0006695195323 4514.0 957.0 805.8777120315543 1.1824850403073626 244.0 14.0 165.0 
652.0006791229401 4470.0 953.0 808.145956607493 0.9685390566379068 242.0 14.0 166.0 
654.0008200817492 4468.0 955.0 799.1065088757405 0.9612870449723453 236.0 14.0 162.0 
656.0002974181195 4466.0 955.0 796.8284023668608 0.9874033267526027 238.0 13.0 162.0 
658.0008200817492 4421.0 953.0 796.7810650887594 0.8994008444200933 240.0 13.0 162.0 
660.0006791229401 4427.0 954.0 794.570019723863 0.933008657996396 239.0 14.0 160.0 
662.0006695195323 4429.0 953.0 794.5266272189366 0.914061679104348 237.0 14.0 160.0 
664.0006791229401 4453.0 955.0 794.5108481262349 0.9689539508071549 236.0 14.0 160.0 
#####################################################################
# End of data export. Simulation finished at: 2019-03-07T22:22+0000 #
#####################################################################
