#####################################################################
# Alchemist log file - simulation started at: 2019-03-10T23:44+0000 #
#####################################################################
# seed = 4.0, bandwidth = 74989.42093324558, accessPointCount = 274.2481756762073, baserange = 100.0
#
# The columns have the following meaning: 
# time neighbor_count[Sum] <value>@neighbor_count[Sum] packet_size[Mean] mean_delay[Mean] crowd[Sum] overcrowded[Sum] risk[Sum] 
0.0 NaN NaN NaN NaN NaN NaN NaN 
2.0000042429967895 409.0 174.0 4985.095426312818 0.4973951255981573 1497.0 0.0 1497.0 
4.0000042429967895 645.0 197.0 4986.260869565217 0.5235081062746442 1497.0 0.0 1497.0 
6.0000042429967895 746.0 198.0 4985.786561264822 0.5525564136747251 1497.0 0.0 1497.0 
8.00000424299679 881.0 200.0 4986.543195934501 0.5408842224220043 1497.0 0.0 1497.0 
10.00000424299679 928.0 202.0 4985.944664031621 0.5694870067182258 1497.0 0.0 1497.0 
12.00000424299679 926.0 200.0 4986.310559006211 0.5660434076048257 1495.0 2.0 1495.0 
14.00000424299679 920.0 197.0 4985.913043478261 0.5403990011728746 1495.0 2.0 1495.0 
16.000004242996788 920.0 197.0 4986.204404291361 0.5279653002623682 1495.0 2.0 1495.0 
18.000004242996788 920.0 197.0 4985.922077922078 0.5431484055883612 1495.0 2.0 1495.0 
20.000004242996788 920.0 197.0 4986.188594014681 0.5378789186492678 1495.0 2.0 1495.0 
22.000004242996788 920.0 197.0 4985.673630717109 0.540814653450813 1495.0 2.0 1495.0 
24.000004242996788 920.0 197.0 4986.240542066629 0.5379152744914779 1495.0 2.0 1495.0 
26.000004242996788 922.0 197.0 4985.856578204404 0.5347845890687213 1495.0 2.0 1495.0 
28.000004242996788 922.0 197.0 4986.125352907961 0.5347891407478774 1495.0 2.0 1495.0 
30.000004242996788 924.0 197.0 4985.8633540372675 0.5378178757252601 1495.0 2.0 1495.0 
32.00000424299679 936.0 198.0 4986.068887634105 0.5458281117611334 1495.0 2.0 1495.0 
34.00000424299679 936.0 198.0 4985.70073404856 0.55437386461737 1495.0 2.0 1495.0 
36.00000424299679 932.0 197.0 4986.1637492941845 0.5338863633363543 1495.0 2.0 1495.0 
38.00000424299679 932.0 197.0 4985.736871823829 0.5329474889963384 1495.0 2.0 1495.0 
40.00000424299679 932.0 197.0 4986.1366459627325 0.5334051406799053 1495.0 2.0 1495.0 
42.00000424299679 932.0 197.0 4985.743647656691 0.5334851929093235 1495.0 2.0 1495.0 
44.00000424299679 932.0 197.0 4986.068887634105 0.5328628523516433 1495.0 2.0 1495.0 
46.00000424299679 932.0 197.0 4985.727837380011 0.5334629751538141 1495.0 2.0 1495.0 
48.00000424299679 932.0 197.0 4986.168266516092 0.5338920686210991 1495.0 2.0 1495.0 
50.00000424299679 932.0 197.0 4985.770750988142 0.5334105888549836 1495.0 2.0 1495.0 
52.00000424299679 932.0 197.0 4986.057594579333 0.5334066995196305 1495.0 2.0 1495.0 
54.00000424299679 932.0 197.0 4985.82269904009 0.5339540078598207 1495.0 2.0 1495.0 
56.00000424299679 932.0 197.0 4986.050818746471 0.5333403143922093 1495.0 2.0 1495.0 
58.00000424299679 932.0 197.0 4985.750423489554 0.5334633298441994 1495.0 2.0 1495.0 
60.00000424299679 934.0 198.0 4983.584415584415 0.546452717587925 1495.0 2.0 1495.0 
62.00000424299679 934.0 198.0 540.4404291360798 0.5411275548414262 144.0 2.0 52.0 
64.0000042429968 932.0 197.0 540.395256916998 0.5268024785339062 90.0 8.0 46.0 
66.0000042429968 932.0 197.0 540.3613777526812 0.5196324689778467 80.0 8.0 46.0 
68.0000042429968 932.0 197.0 540.3003952569157 0.5246594999560005 71.0 10.0 44.0 
70.0000042429968 932.0 197.0 540.3139469226411 0.5246896471208848 67.0 10.0 44.0 
72.0000042429968 932.0 197.0 540.2891022021469 0.525161100836266 64.0 10.0 44.0 
74.0000042429968 932.0 197.0 540.2394127611503 0.5205708284414114 64.0 10.0 44.0 
76.0000042429968 932.0 197.0 540.3026538678732 0.5210309964548062 65.0 10.0 44.0 
78.0000042429968 942.0 198.0 540.2800677583282 0.5206495159129549 65.0 10.0 44.0 
80.0000042429968 944.0 199.0 540.2800677583282 0.5266492563285307 65.0 10.0 44.0 
82.0000042429968 944.0 199.0 540.2958780350081 0.5353054390745188 65.0 10.0 44.0 
84.0000042429968 942.0 198.0 540.2642574816485 0.5196509380986973 65.0 10.0 44.0 
86.0000042429968 942.0 198.0 540.2687747035562 0.5202273106385266 65.0 10.0 44.0 
88.0000042429968 944.0 199.0 540.2778091473748 0.5419436851933945 62.0 10.0 44.0 
90.0000042429968 944.0 199.0 540.2574816487873 0.5716022225090491 62.0 10.0 44.0 
92.0000042429968 933.0 197.0 540.2394127611503 0.524843220312202 62.0 10.0 44.0 
94.0000042429968 932.0 197.0 540.2597402597416 0.5205994688057125 62.0 10.0 44.0 
96.0000042429968 932.0 197.0 540.2710333145097 0.5205874681752597 62.0 10.0 44.0 
98.0000042429968 938.0 198.0 540.2574816487873 0.5270329177526168 62.0 10.0 44.0 
100.0000042429968 938.0 198.0 540.2642574816485 0.5361344724554918 62.0 10.0 44.0 
102.0000042429968 936.0 197.0 540.2732919254671 0.5205870555547901 62.0 10.0 44.0 
104.0000042429968 936.0 197.0 540.261998870695 0.5211514088053989 62.0 10.0 44.0 
106.0000042429968 938.0 197.0 540.2687747035562 0.5208568561572575 62.0 10.0 44.0 
108.0000042429968 938.0 197.0 540.2710333145097 0.5325187181306259 62.0 10.0 44.0 
110.0000042429968 940.0 198.0 540.2394127611503 0.5597458939013328 62.0 10.0 44.0 
112.0000042429968 935.0 198.0 540.2597402597416 0.5501605486609057 62.0 10.0 44.0 
114.0000042429968 932.0 196.0 540.266516092602 0.5210557936902811 62.0 10.0 44.0 
116.0000042429968 932.0 196.0 540.261998870695 0.5216190706298709 62.0 10.0 44.0 
118.0000042429968 932.0 196.0 540.2642574816485 0.5210666967578613 62.0 10.0 44.0 
120.0000042429968 932.0 196.0 540.2732919254671 0.5210546002664314 62.0 10.0 44.0 
122.0000042429968 932.0 196.0 540.261998870695 0.5216249372676086 62.0 10.0 44.0 
124.0000042429968 932.0 196.0 540.2642574816485 0.5210661778779266 62.0 10.0 44.0 
126.0000042429968 932.0 196.0 540.2755505364214 0.5210514836923474 62.0 10.0 44.0 
128.0000042429968 932.0 196.0 540.2394127611503 0.5216254042595498 62.0 10.0 44.0 
130.0000042429968 932.0 196.0 540.2597402597416 0.5210672156377923 62.0 10.0 44.0 
132.0000042429968 936.0 197.0 540.266516092602 0.5208914830832823 62.0 10.0 44.0 
134.0000042429968 936.0 197.0 540.2574816487873 0.5214561981420311 62.0 10.0 44.0 
136.0000042429968 944.0 197.0 540.2687747035562 0.5185091806934846 62.0 10.0 44.0 
138.0000042429968 964.0 199.0 542.8752117447755 0.524713265639674 63.0 10.0 45.0 
140.0000042429968 965.0 200.0 542.8639186900064 0.5245329829772238 63.0 10.0 45.0 
142.0000042429968 991.0 201.0 550.6809712027108 0.5453647691475464 64.0 10.0 48.0 
144.0000042429968 1008.0 202.0 553.27159796725 0.5600525663164867 65.0 10.0 49.0 
146.0000042429968 1008.0 201.0 553.2490118577094 0.531092962419424 65.0 10.0 49.0 
148.0000042429968 1014.0 201.0 555.8735177865622 0.5360642350682613 65.0 10.0 50.0 
150.0000042429968 1011.0 201.0 555.8667419536966 0.5541211783391101 65.0 10.0 50.0 
152.0000042429968 1010.0 201.0 555.8667419536966 0.5813884701646933 65.0 10.0 50.0 
154.0000042429968 1007.0 199.0 555.8983625070563 0.5484128731461909 65.0 10.0 50.0 
156.0000042429968 1006.0 199.0 555.8509316770169 0.5369637063271533 65.0 10.0 50.0 
158.0000042429968 1006.0 199.0 555.8441558441561 0.5599877057013037 65.0 10.0 50.0 
160.0000042429968 985.0 198.0 555.8848108413345 0.5723078100237463 65.0 10.0 50.0 
162.0000042429968 980.0 197.0 555.8486730660629 0.5284884434277868 65.0 10.0 50.0 
164.0000042429968 980.0 197.0 555.8373800112954 0.528999974936053 65.0 10.0 50.0 
166.0000042429968 982.0 197.0 555.8757763975157 0.5288371250456102 65.0 10.0 50.0 
168.0000042429968 982.0 197.0 555.8486730660629 0.5287451882202707 65.0 10.0 50.0 
170.0000042429968 982.0 197.0 555.8577075098824 0.5292541488094906 65.0 10.0 50.0 
172.0000042429968 982.0 197.0 555.8802936194229 0.5323250412314959 65.0 10.0 50.0 
174.0000042429968 982.0 197.0 555.8531902879749 0.5356980944122964 65.0 10.0 50.0 
176.0000042429968 976.0 197.0 555.8554488989286 0.529132103511971 65.0 10.0 50.0 
178.0000042429968 976.0 197.0 555.8667419536966 0.5290356271512815 65.0 10.0 50.0 
180.0000042429968 976.0 197.0 555.8577075098824 0.5295138616474545 65.0 10.0 50.0 
182.0000042429968 976.0 197.0 555.8328627893833 0.5291440738301624 65.0 10.0 50.0 
184.0000042429968 976.0 197.0 555.8644833427433 0.5290295689397774 65.0 10.0 50.0 
186.0000042429968 976.0 197.0 558.4347826086953 0.5287620273580372 65.0 10.0 51.0 
188.0000042429968 976.0 197.0 558.4392998306029 0.5284641030230041 66.0 10.0 51.0 
190.0000042429968 976.0 197.0 558.457368718236 0.5289427695896751 66.0 10.0 51.0 
192.0000042429968 976.0 197.0 558.4325239977421 0.5285498259728593 66.0 10.0 51.0 
194.0000042429968 976.0 197.0 558.4280067758345 0.5284818712015678 66.0 10.0 51.0 
196.0000042429968 976.0 197.0 558.4347826086953 0.5285654657553477 66.0 10.0 51.0 
198.0000042429968 978.0 198.0 558.4257481648766 0.5282119180512462 66.0 10.0 51.0 
200.0000042429968 980.0 199.0 558.4167137210624 0.529700394602186 66.0 10.0 51.0 
202.0000042429968 980.0 199.0 558.4347826086953 0.5292758772929393 66.0 10.0 51.0 
204.0000042429968 996.0 200.0 558.4144551101083 0.5293967924000068 67.0 10.0 51.0 
206.0000042429968 1006.0 201.0 561.0254093732347 0.5297125096427715 67.0 10.0 52.0 
208.0000042429968 1008.0 202.0 561.0525127046874 0.5307529989399924 65.0 12.0 50.0 
210.0000042429968 1010.0 202.0 561.0457368718218 0.5295491273098882 65.0 12.0 50.0 
212.0000042429968 1010.0 202.0 558.4460756634684 0.5280830295922911 64.0 13.0 48.0 
214.0000042429968 1010.0 202.0 558.4370412196488 0.5279154691456288 65.0 12.0 49.0 
216.0000042429968 1010.0 202.0 555.8441558441561 0.5280210849018577 66.0 10.0 50.0 
218.0000042429968 1014.0 202.0 555.8125352907967 0.5396093361639784 66.0 10.0 50.0 
220.0000042429968 1014.0 202.0 553.2467532467513 0.5539455003729598 66.0 10.0 49.0 
222.0000042429968 1012.0 201.0 553.2332015810299 0.5271849279255224 66.0 10.0 49.0 
224.0000042429968 1012.0 201.0 553.2422360248439 0.5311906510596524 66.0 10.0 49.0 
226.0000042429968 1015.0 201.0 553.2354601919834 0.5463813397237672 66.0 10.0 49.0 
228.0000042429968 1016.0 202.0 555.8306041784299 0.5542940343245389 67.0 10.0 50.0 
230.0000042429968 1006.0 201.0 555.8373800112954 0.5299544142676069 68.0 10.0 50.0 
232.0000042429968 1006.0 201.0 553.2444946357981 0.5270820112882814 68.0 10.0 49.0 
234.0000042429968 1006.0 201.0 553.2286843591177 0.5270263101604434 68.0 10.0 49.0 
236.0000042429968 1007.0 201.0 553.2128740824379 0.5271074528660916 68.0 10.0 49.0 
238.0000042429968 1010.0 201.0 553.2309429700719 0.5283077642126224 68.0 10.0 49.0 
240.0000042429968 1010.0 201.0 553.2377188029373 0.544354346860679 68.0 10.0 49.0 
242.0000042429968 1008.0 201.0 553.2399774138905 0.5559608213477228 68.0 10.0 49.0 
244.0000042429968 990.0 200.0 553.2399774138905 0.5256948821737972 68.0 10.0 49.0 
246.0000042429968 994.0 200.0 553.2286843591177 0.5241837629731606 69.0 9.0 50.0 
248.0000042429968 1000.0 201.0 553.2264257481642 0.5257386166733442 72.0 6.0 53.0 
250.0000042429968 1000.0 201.0 553.2490118577093 0.5248743512683676 72.0 6.0 53.0 
252.0000042429968 1000.0 201.0 553.2399774138905 0.5315932722070112 72.0 6.0 53.0 
254.0000042429968 999.0 201.0 553.2151326933921 0.5483085200123516 72.0 6.0 53.0 
256.0000042429968 996.0 201.0 555.8622247317893 0.5612559298303458 72.0 6.0 54.0 
258.0000042429968 994.0 200.0 555.8328627893833 0.5273904238177811 72.0 6.0 54.0 
260.0000042429968 997.0 201.0 555.8102766798432 0.5341035587036174 73.0 6.0 54.0 
262.0000042429968 998.0 201.0 555.8441558441561 0.5640384370469952 73.0 6.0 54.0 
264.0000042429968 995.0 200.0 555.8215697346112 0.5649708875214063 74.0 6.0 54.0 
266.0000042429968 984.0 200.0 555.8170525127035 0.5306944945924502 74.0 6.0 54.0 
268.0000042429968 988.0 200.0 555.8328627893833 0.545983880394614 74.0 6.0 54.0 
270.0000042429968 988.0 200.0 555.808018068889 0.5730050080378951 74.0 6.0 54.0 
272.0000042429968 986.0 199.0 555.7899491812518 0.5558494738659395 74.0 6.0 54.0 
274.0000042429968 984.0 198.0 555.8193111236578 0.5375808701250544 74.0 6.0 54.0 
276.0000042429968 982.0 198.0 555.8102766798432 0.5486002682013182 74.0 6.0 54.0 
278.0000042429968 983.0 197.0 555.8328627893833 0.5465265810696974 73.0 6.0 54.0 
280.0000042429968 982.0 197.0 555.8396386222485 0.5273990933429269 73.0 6.0 54.0 
282.0000042429968 982.0 197.0 555.8147939017501 0.5273870005885504 73.0 6.0 54.0 
284.0000042429968 982.0 197.0 553.2309429700724 0.5278541574620371 72.0 6.0 53.0 
286.0000042429968 984.0 197.0 553.2219085262574 0.526898046059358 72.0 6.0 53.0 
288.0000042429968 988.0 197.0 553.1993224167129 0.5265520784368923 72.0 6.0 53.0 
290.0000042429968 988.0 197.0 553.1812535290785 0.5265822006925748 72.0 6.0 53.0 
292.0000042429968 988.0 197.0 553.2038396386231 0.5265715430212862 72.0 6.0 53.0 
294.0000042429968 990.0 197.0 553.2083568605312 0.5266984291370488 72.0 6.0 53.0 
296.0000042429968 990.0 197.0 553.2128740824379 0.5266874056265474 72.0 6.0 53.0 
298.0000042429968 990.0 197.0 553.2083568605312 0.5280206084790727 72.0 6.0 53.0 
300.0000042429968 992.0 198.0 553.2015810276696 0.529102668815444 72.0 6.0 53.0 
302.0000042429968 990.0 198.0 550.6132128740838 0.5263409123015402 71.0 6.0 52.0 
304.0000042429968 990.0 198.0 550.6312817617171 0.5263293018675432 71.0 6.0 52.0 
306.0000042429968 990.0 198.0 550.6222473178987 0.5263095090624569 71.0 6.0 52.0 
308.0000042429968 990.0 198.0 553.1857707509861 0.5269167496712722 72.0 6.0 53.0 
310.0000042429968 990.0 198.0 553.2083568605312 0.5386402015273932 74.0 6.0 53.0 
312.0000042429968 990.0 198.0 553.1993224167124 0.5651317552997434 74.0 6.0 53.0 
314.0000042429968 986.0 197.0 553.2173913043498 0.553542994666204 74.0 6.0 53.0 
316.0000042429968 964.0 196.0 553.2173913043498 0.5271503405466921 74.0 6.0 53.0 
318.0000042429968 966.0 197.0 553.2060982495777 0.5302999871243449 74.0 6.0 53.0 
320.0000042429968 965.0 197.0 553.2083568605312 0.5365001435090444 74.0 6.0 53.0 
322.0000042429968 960.0 197.0 553.2128740824379 0.5465290071507909 74.0 6.0 53.0 
324.0000042429968 966.0 197.0 553.2467532467515 0.5619985246825111 75.0 6.0 53.0 
326.0000042429968 966.0 197.0 555.8531902879746 0.5274100572706123 73.0 6.0 54.0 
328.0000042429968 966.0 197.0 555.8441558441561 0.5287144541741002 73.0 6.0 54.0 
330.0000042429968 964.0 197.0 555.8351214003376 0.5264777206392932 73.0 6.0 54.0 
332.0000042429968 964.0 197.0 555.8328627893836 0.5270092673360046 73.0 6.0 54.0 
334.0000042429968 966.0 197.0 555.8599661208356 0.5258545138688218 73.0 6.0 54.0 
336.0000042429968 968.0 198.0 555.8554488989282 0.526841259025459 73.0 6.0 54.0 
338.0000042429968 968.0 198.0 553.2580463015244 0.5248741585357589 73.0 6.0 53.0 
340.0000042429968 978.0 198.0 553.2354601919833 0.5245850899340005 74.0 6.0 53.0 
342.0000042429968 989.0 200.0 558.421230942969 0.5240357355764701 75.0 6.0 55.0 
344.0000042429968 990.0 200.0 558.439299830603 0.5239853758621921 77.0 6.0 55.0 
346.0000042429968 990.0 200.0 558.486730660642 0.523539983681376 76.0 6.0 55.0 
348.0000042429968 990.0 200.0 558.4483342744218 0.5235676316431767 76.0 6.0 55.0 
350.0000042429968 990.0 200.0 555.8622247317896 0.5390779004636179 75.0 6.0 54.0 
352.0000042429968 998.0 201.0 555.8554488989282 0.5549323513173235 77.0 6.0 54.0 
354.0000042429968 996.0 200.0 555.8396386222489 0.5326583878408965 77.0 6.0 54.0 
356.0000042429968 996.0 200.0 555.8622247317896 0.5513256539561402 77.0 6.0 54.0 
358.0000042429968 991.0 200.0 555.8260869565227 0.5420315539583523 77.0 6.0 54.0 
360.0000042429968 1005.0 201.0 558.4415584415563 0.5422105730088127 74.0 6.0 55.0 
362.0000042429968 1002.0 202.0 558.4121964991549 0.5409411381029448 75.0 6.0 55.0 
364.0000042429968 1002.0 202.0 558.4460756634684 0.583093738318054 75.0 6.0 55.0 
366.0000042429968 996.0 200.0 558.4144551101084 0.611056348274003 75.0 6.0 55.0 
368.0000042429968 985.0 198.0 558.4280067758345 0.583294638018024 75.0 6.0 55.0 
370.0000042429968 978.0 197.0 558.421230942969 0.5447442464741447 74.0 6.0 55.0 
372.0000042429968 976.0 196.0 558.4189723320156 0.5442086430898372 74.0 6.0 55.0 
374.0000042429968 976.0 196.0 558.4438170525144 0.5600341349154004 74.0 6.0 55.0 
376.0000042429968 972.0 195.0 558.4302653867885 0.5265537783596983 74.0 6.0 55.0 
378.0000042429968 972.0 195.0 558.4167137210624 0.5265796705290244 74.0 6.0 55.0 
380.0000042429968 974.0 196.0 558.3941276115169 0.5253058916139762 74.0 6.0 55.0 
382.0000042429968 976.0 196.0 558.4167137210624 0.5263997664300734 74.0 6.0 55.0 
384.0000042429968 976.0 196.0 558.4234895539229 0.5264005251109695 74.0 6.0 55.0 
386.0000042429968 982.0 197.0 558.409937888197 0.5261549506684775 74.0 6.0 55.0 
388.0000042429968 982.0 197.0 558.4189723320156 0.5261718013204177 74.0 6.0 55.0 
390.0000042429968 992.0 199.0 568.7995482778109 0.5268312114222544 78.0 6.0 59.0 
392.0000042429968 997.0 199.0 571.4285714285706 0.5278946959834423 80.0 6.0 60.0 
394.0000042429968 1015.0 201.0 576.6166007905152 0.543900623152387 84.0 6.0 62.0 
396.0000042429968 1029.0 202.0 579.2343308865057 0.55008301279916 85.0 6.0 63.0 
398.0000042429968 1012.0 202.0 579.2456239412754 0.5254841096720689 85.0 6.0 63.0 
400.0000042429968 1014.0 203.0 579.2343308865057 0.5388111378745102 85.0 6.0 63.0 
402.0000042429968 1018.0 204.0 579.2365894974605 0.5659672644906008 84.0 6.0 63.0 
404.0000042429968 1014.0 203.0 574.0688876341038 0.5448477107604743 83.0 6.0 61.0 
406.0000042429968 1019.0 202.0 574.044042913609 0.5304898416137437 84.0 6.0 61.0 
408.0000042429968 1026.0 203.0 574.0237154150212 0.542222356138931 84.0 6.0 61.0 
410.0000042429968 1022.0 203.0 574.0304912478828 0.5472605172941459 84.0 6.0 61.0 
412.0000042429968 1020.0 202.0 574.0124223602496 0.5487324059925747 84.0 6.0 61.0 
414.0000042429968 1022.0 202.0 571.4760022586098 0.5617450806180861 83.0 6.0 60.0 
416.0000042429968 1017.0 201.0 571.3788819875781 0.5744640819602728 83.0 6.0 60.0 
418.0000042429968 1016.0 201.0 574.0033879164301 0.5926085973120899 83.0 6.0 61.0 
420.0000042429968 990.0 199.0 574.014680971203 0.5770642383546003 83.0 6.0 61.0 
422.0000042429968 978.0 199.0 574.0033879164301 0.5763300698255861 83.0 6.0 61.0 
424.0000042429968 973.0 197.0 574.0033879164301 0.555386587935668 83.0 6.0 61.0 
426.0000042429968 976.0 200.0 574.044042913609 0.5378908551694982 83.0 6.0 61.0 
428.0000042429968 974.0 200.0 574.0214568040645 0.5422746612463021 83.0 6.0 61.0 
430.0000042429968 973.0 200.0 574.010163749295 0.5383123526909622 83.0 6.0 61.0 
432.0000042429968 970.0 199.0 574.010163749295 0.5497364064995047 83.0 6.0 61.0 
434.0000042429968 967.0 198.0 573.9740259740253 0.565052527786175 83.0 6.0 61.0 
436.0000042429968 962.0 198.0 573.9830604178436 0.5485123598420191 83.0 6.0 61.0 
438.0000042429968 958.0 196.0 573.9649915302092 0.5282833544780743 83.0 6.0 61.0 
440.0000042429968 958.0 196.0 573.9649915302092 0.5283002757206139 83.0 6.0 61.0 
442.0000042429968 958.0 196.0 573.9627329192557 0.5283012757164244 83.0 6.0 61.0 
444.0000042429968 958.0 196.0 573.9695087521172 0.5283025395112457 83.0 6.0 61.0 
446.0000042429968 959.0 196.0 573.9582156973455 0.5397645979320034 83.0 6.0 61.0 
448.0000042429968 976.0 199.0 573.9582156973455 0.5529477743263875 85.0 6.0 61.0 
450.0000042429968 984.0 198.0 573.9424054206659 0.5289670206891276 85.0 6.0 61.0 
452.0000042429968 990.0 200.0 573.9378881987577 0.5345320712065754 85.0 6.0 61.0 
454.0000042429968 984.0 200.0 573.9808018068901 0.5251944905950282 85.0 6.0 61.0 
456.0000042429968 984.0 200.0 573.9469226425759 0.5316237878486645 84.0 6.0 61.0 
458.0000042429968 984.0 200.0 576.5736871823829 0.5462732097848314 84.0 6.0 62.0 
460.0000042429968 982.0 199.0 576.5849802371542 0.5644265620715754 86.0 6.0 62.0 
462.0000042429968 984.0 200.0 573.9604743082994 0.5651105354832496 85.0 6.0 61.0 
464.0000042429968 984.0 200.0 576.5759457933362 0.5457768476057919 86.0 6.0 62.0 
466.0000042429968 980.0 200.0 574.0033879164301 0.5265370091200974 85.0 6.0 61.0 
468.0000042429968 980.0 200.0 571.3946922642577 0.5265377960587424 83.0 6.0 60.0 
470.0000042429968 980.0 200.0 568.7611518915861 0.5300648072258272 82.0 6.0 59.0 
472.0000042429968 980.0 200.0 568.8040654997185 0.5411334129746043 82.0 6.0 59.0 
474.0000042429968 980.0 200.0 566.18859401468 0.5527166994835272 81.0 6.0 58.0 
476.0000042429968 976.0 199.0 566.1750423489548 0.5270609493442094 81.0 6.0 58.0 
478.0000042429968 976.0 199.0 566.195369847545 0.5348198411006732 81.0 6.0 58.0 
480.0000042429968 978.0 200.0 566.1773009599083 0.5451431134272653 81.0 6.0 58.0 
482.0000042429968 975.0 201.0 568.7611518915861 0.5262253672024485 82.0 6.0 59.0 
484.0000042429968 978.0 201.0 561.0231507622811 0.5276335405746133 80.0 6.0 56.0 
486.0000042429968 984.0 203.0 560.998306041783 0.5268172949504101 80.0 6.0 56.0 
488.0000042429968 988.0 204.0 560.9712027103342 0.5425461298801133 80.0 6.0 56.0 
490.0000042429968 992.0 204.0 563.6092603049136 0.5600776037403556 81.0 6.0 57.0 
492.0000042429968 992.0 203.0 571.3833992094848 0.5262003525794811 83.0 6.0 60.0 
494.0000042429968 992.0 203.0 571.4285714285706 0.5281011747784843 83.0 6.0 60.0 
496.0000042429968 998.0 204.0 571.38565782044 0.5335170213510348 83.0 6.0 60.0 
498.0000042429968 997.0 204.0 571.4195369847552 0.544835919324564 83.0 6.0 60.0 
500.0000042429968 996.0 204.0 571.3788819875781 0.5567812005503442 83.0 6.0 60.0 
502.0000042429968 990.0 204.0 571.405985319029 0.5272121072073012 81.0 6.0 60.0 
504.0000042429968 990.0 204.0 571.4014680971196 0.5291083501423617 81.0 6.0 60.0 
506.0000042429968 990.0 204.0 568.772444946359 0.5451411416070464 81.0 6.0 59.0 
508.0000042429968 990.0 205.0 568.7927724449456 0.5678028660049389 80.0 6.0 59.0 
510.0000042429968 988.0 204.0 568.8018068887634 0.5377686489017933 79.0 6.0 59.0 
512.0000042429967 988.0 205.0 568.7882552230387 0.5424348398392594 79.0 6.0 59.0 
514.0000042429967 997.0 205.0 571.415019762846 0.5675003421953009 80.0 6.0 60.0 
516.0000042429967 1032.0 206.0 574.014680971203 0.5388302718152524 81.0 6.0 61.0 
518.0000042429967 1030.0 206.0 571.4443817052504 0.5537809837427292 80.0 6.0 60.0 
520.0000042429967 1042.0 206.0 574.0666290231508 0.5637119402873522 81.0 6.0 61.0 
522.0000042429967 1040.0 205.0 573.9898362507056 0.583422503985009 80.0 7.0 60.0 
524.0000042429967 1036.0 204.0 573.9672501411638 0.5608762553391299 79.0 8.0 59.0 
526.0000042429967 1032.0 203.0 571.4127611518908 0.5617081886640516 76.0 10.0 56.0 
528.0000042429967 1030.0 203.0 568.7701863354039 0.6057579794233335 73.0 10.0 55.0 
530.0000042429967 997.0 202.0 568.779220779221 0.5654247080487723 73.0 10.0 55.0 
532.0000042429967 982.0 201.0 568.7995482778098 0.548731911756872 73.0 10.0 55.0 
534.0000042429967 981.0 201.0 568.7927724449455 0.5278109940450088 73.0 10.0 55.0 
536.0000042429967 987.0 203.0 568.7701863354039 0.5505675317487517 73.0 10.0 55.0 
538.0000042429967 981.0 203.0 568.7814793901745 0.5735642354498893 73.0 10.0 55.0 
540.0000042429967 964.0 201.0 568.7498588368151 0.5267246428051178 73.0 10.0 55.0 
542.0000042429967 964.0 201.0 568.7408243929996 0.5282937536785248 73.0 10.0 55.0 
544.0000042429967 964.0 201.0 568.7769621682659 0.5456599664125614 73.0 10.0 55.0 
546.0000042429967 966.0 201.0 568.7588932806327 0.5663333516176176 73.0 10.0 55.0 
548.0000042429967 960.0 200.0 568.7656691134947 0.5344517033191141 73.0 10.0 55.0 
550.0000042429967 965.0 201.0 566.1750423489551 0.530097599724159 73.0 10.0 54.0 
552.0000042429967 964.0 201.0 566.1795595708647 0.5237054972017045 72.0 10.0 54.0 
554.0000042429967 970.0 203.0 566.1976284584995 0.534173688007531 71.0 10.0 54.0 
556.0000042429967 974.0 203.0 566.161490683229 0.5794844046159745 71.0 10.0 54.0 
558.0000042429967 958.0 202.0 566.1953698475445 0.5889352413983534 71.0 10.0 54.0 
560.0000042429967 950.0 200.0 560.9937888198752 0.5243826629030768 69.0 10.0 52.0 
562.0000042429967 950.0 200.0 560.9983060417833 0.5235183332187491 69.0 10.0 52.0 
564.0000042429967 950.0 200.0 563.6228119706394 0.5376749814888354 70.0 10.0 53.0 
566.0000042429967 961.0 200.0 566.2450592885386 0.5709075302231242 73.0 10.0 54.0 
568.0000042429967 963.0 200.0 566.2518351213988 0.5638448350683318 73.0 10.0 54.0 
570.0000042429967 960.0 199.0 563.6228119706394 0.5294239803845117 72.0 10.0 53.0 
572.0000042429967 965.0 201.0 563.6250705815934 0.5357643961387226 72.0 10.0 53.0 
574.0000042429967 978.0 202.0 563.6318464144535 0.5302131112072856 72.0 10.0 53.0 
576.0000042429967 986.0 203.0 563.6431394692265 0.5282033990858466 72.0 10.0 53.0 
578.0000042429967 986.0 203.0 563.6295878035002 0.5341801849646558 72.0 10.0 53.0 
580.0000042429967 1000.0 204.0 566.2653867871251 0.5258579857784066 73.0 10.0 54.0 
582.0000042429967 1008.0 206.0 571.4195369847563 0.5355412298995483 76.0 10.0 56.0 
584.0000042429967 1006.0 205.0 568.8560135516644 0.5450170306383254 75.0 10.0 55.0 
586.0000042429967 1004.0 204.0 566.2699040090325 0.5434762924530839 74.0 10.0 54.0 
588.0000042429967 1002.0 204.0 566.2495765104455 0.5530241876567961 73.0 10.0 54.0 
590.0000042429967 990.0 203.0 566.2699040090325 0.5241109448446434 73.0 10.0 54.0 
592.0000042429967 998.0 205.0 566.2111801242253 0.524107919605401 73.0 10.0 54.0 
594.0000042429967 1008.0 206.0 563.6205533596861 0.5338309705278149 73.0 10.0 53.0 
596.0000042429967 1016.0 207.0 563.611518915867 0.5511038414186074 74.0 10.0 53.0 
598.0000042429967 1011.0 206.0 563.616036137774 0.5401111184121236 74.0 10.0 53.0 
600.0000042429967 1010.0 207.0 563.5957086391874 0.5265973026228731 74.0 10.0 53.0 
602.0000042429967 1012.0 207.0 563.593450028234 0.5576556934900163 74.0 10.0 53.0 
604.0000042429967 1015.0 208.0 563.602484472048 0.5850880374202218 74.0 10.0 53.0 
606.0000042429967 1014.0 208.0 563.5866741953685 0.5503762936490859 75.0 10.0 53.0 
608.0000042429967 1006.0 208.0 568.7950310558994 0.5425972148766267 76.0 10.0 55.0 
610.0000042429967 1022.0 209.0 576.6369282891017 0.5624876870560203 78.0 10.0 58.0 
612.0000042429967 1033.0 209.0 579.2185206098266 0.5716457344164488 78.0 10.0 59.0 
614.0000042429967 1044.0 210.0 581.8723884810855 0.6037509987013591 78.0 10.0 60.0 
616.0000042429967 1031.0 208.0 581.822699040092 0.5407035144365481 77.0 10.0 60.0 
618.0000042429967 1042.0 209.0 581.8543195934514 0.5579358120220407 78.0 10.0 60.0 
620.0000042429967 1075.0 208.0 587.0062111801248 0.5548634734814579 80.0 10.0 62.0 
622.0000042429967 1100.0 210.0 587.0175042348965 0.6032974491960232 80.0 10.0 62.0 
624.0000042429967 1095.0 209.0 587.0378317334844 0.5859939081790533 79.0 11.0 61.0 
626.0000042429967 1088.0 209.0 586.965556182947 0.5552059314112955 76.0 14.0 58.0 
628.0000042429967 1094.0 209.0 586.9632975719926 0.5569778198867947 80.0 10.0 62.0 
630.0000042429967 1101.0 209.0 586.9723320158109 0.573764931279452 79.0 11.0 61.0 
632.0000042429967 1117.0 209.0 586.9316770186331 0.6067572631482095 77.0 13.0 59.0 
634.0000042429967 1127.0 210.0 586.9542631281774 0.6241908315174213 74.0 16.0 56.0 
636.0000042429967 1101.0 208.0 586.9474872953127 0.5734496927666743 72.0 18.0 54.0 
638.0000042429967 1117.0 208.0 586.9768492377189 0.5612234387584857 71.0 19.0 53.0 
640.0000042429967 1134.0 209.0 586.990400903445 0.5634337970097538 71.0 19.0 53.0 
642.0000042429967 1138.0 209.0 586.9791078486721 0.572681638544325 70.0 20.0 52.0 
644.0000042429967 1128.0 209.0 579.2027103331463 0.5864606945088466 68.0 20.0 49.0 
646.0000042429967 1111.0 210.0 579.1936758893281 0.5784763570160487 66.0 20.0 49.0 
648.0000042429967 1107.0 209.0 579.1710897797868 0.567685268594689 70.0 16.0 53.0 
650.0000042429967 1109.0 209.0 579.175607001695 0.5811263744708133 71.0 15.0 54.0 
652.0000042429967 1104.0 210.0 579.1688311688301 0.6043473416897389 74.0 14.0 55.0 
654.0000042429967 1093.0 210.0 579.1710897797868 0.6171825578131669 78.0 10.0 59.0 
656.0000042429967 1070.0 207.0 581.7594579333695 0.547900488569801 77.0 10.0 60.0 
658.0000042429967 1088.0 208.0 584.3862224731795 0.5850753800010938 78.0 10.0 61.0 
660.0000042429967 1072.0 208.0 584.3636363636352 0.6233090658891612 78.0 10.0 61.0 
662.0000042429967 1040.0 205.0 584.3749294184067 0.5705953766842005 78.0 10.0 61.0 
664.0000042429967 1024.0 205.0 584.3704121964998 0.5442191716911453 78.0 10.0 61.0 
#####################################################################
# End of data export. Simulation finished at: 2019-03-10T23:53+0000 #
#####################################################################
