#####################################################################
# Alchemist log file - simulation started at: 2019-03-03T02:12+0000 #
#####################################################################
# seed = 9.0, bandwidth = 74989.42093324558, accessPointCount = 274.2481756762073, baserange = 56.234132519034915
#
# The columns have the following meaning: 
# time neighbor_count[Sum] <value>@neighbor_count[Sum] packet_size[Mean] mean_delay[Mean] crowd[Sum] overcrowded[Sum] risk[Sum] 
0.0 NaN NaN NaN NaN NaN NaN NaN 
10.000337445961424 475.0 103.0 4986.005646527386 0.6566265249478527 1494.0 3.0 1494.0 
20.00024711969022 482.0 102.0 4985.931112365895 0.5999090995554677 1490.0 7.0 1490.0 
30.00024711969022 482.0 102.0 4985.678147939017 0.6093989646555119 1490.0 7.0 1490.0 
40.00024711969022 480.0 102.0 4985.989836250706 0.608701852627072 1490.0 7.0 1490.0 
50.00024711969022 480.0 103.0 4985.614906832298 0.643252871713421 1490.0 7.0 1490.0 
60.00024711969022 474.0 102.0 4985.9582156973465 0.6039505103847406 1490.0 7.0 1490.0 
70.0001766131494 481.0 103.0 501.27611518915904 0.5773188743869664 43.0 7.0 32.0 
80.0001766131494 498.0 104.0 506.50931677018656 0.5759325593904356 40.0 7.0 34.0 
90.0001766131494 500.0 104.0 506.5228684359115 0.5749400707243518 40.0 7.0 34.0 
100.0001766131494 504.0 105.0 506.50931677018656 0.579451193741362 40.0 7.0 34.0 
110.0001766131494 507.0 106.0 506.47995482778117 0.5817462836999492 40.0 7.0 34.0 
120.0001766131494 502.0 106.0 506.4596273291925 0.6799519965266374 41.0 7.0 34.0 
130.00017661314942 488.0 105.0 506.468661773009 0.6171770145320793 41.0 7.0 34.0 
140.00017661314942 490.0 104.0 506.47769621682704 0.5831591786773842 40.0 7.0 34.0 
150.00017661314942 486.0 103.0 503.8915866741953 0.5816664432405437 40.0 7.0 33.0 
160.00017661314942 488.0 103.0 511.64991530208937 0.5822599698253309 41.0 7.0 36.0 
170.00017661314942 490.0 103.0 511.6657255787693 0.6189726423690756 41.0 7.0 36.0 
180.00017661314942 492.0 102.0 509.10220214568005 0.5863483587585033 40.0 7.0 35.0 
190.00017661314942 492.0 102.0 514.2721626199889 0.5850189202067745 42.0 7.0 37.0 
200.00017661314942 492.0 102.0 514.2631281761719 0.6037568181624171 43.0 7.0 37.0 
210.00017661314942 491.0 103.0 514.28345567476 0.5832881381301491 42.0 7.0 37.0 
220.00017661314942 491.0 102.0 514.2586109542633 0.5824838205185334 42.0 7.0 37.0 
230.00017661314942 498.0 103.0 514.2247317899496 0.5875540854166487 47.0 7.0 37.0 
240.00017661314942 500.0 103.0 516.8627893845284 0.6154110352862866 47.0 7.0 38.0 
250.00017661314942 488.0 101.0 516.8176171654429 0.5859079598944293 45.0 7.0 38.0 
260.0001766131494 490.0 101.0 516.8108413325807 0.5870789596519508 45.0 7.0 38.0 
270.0001766131494 484.0 101.0 514.2450592885378 0.5871462343949916 42.0 7.0 37.0 
280.0001766131494 488.0 101.0 519.4534161490691 0.5864543524527356 42.0 7.0 39.0 
290.0001766131494 496.0 102.0 522.0417843026538 0.5878339167067869 43.0 7.0 40.0 
300.0001766131494 498.0 102.0 519.469226425749 0.5854179863579956 41.0 7.0 39.0 
310.0001766131494 498.0 102.0 516.8469791078484 0.5854859698035569 40.0 7.0 38.0 
320.0001766131494 492.0 102.0 516.8582721626201 0.5882904447391183 41.0 7.0 38.0 
330.0001766131494 490.0 102.0 516.8469791078484 0.5891997943299411 41.0 7.0 38.0 
340.0001766131494 486.0 101.0 516.8695652173909 0.5838189233969759 41.0 7.0 38.0 
350.0001766131494 484.0 100.0 516.8266516092605 0.585133367624358 41.0 7.0 38.0 
360.0001766131494 486.0 101.0 516.8808582721631 0.5837757238878651 41.0 7.0 38.0 
370.0001766131494 484.0 101.0 511.6521739130433 0.6328210136012756 40.0 7.0 36.0 
380.0001766131494 470.0 99.0 511.63184641445565 0.6285478945980797 40.0 7.0 36.0 
390.0001766131494 470.0 100.0 511.66572557876924 0.5867975127405376 40.0 7.0 36.0 
400.0001766131494 470.0 100.0 511.64539808018014 0.5868386462374499 40.0 7.0 36.0 
410.0001766131494 470.0 100.0 511.63636363636357 0.5868082605252146 40.0 7.0 36.0 
420.0001766131494 480.0 103.0 511.66120835686013 0.6167558100595126 42.0 7.0 36.0 
430.0001766131494 474.0 101.0 511.6408808582726 0.5900628223612935 41.0 7.0 36.0 
440.0001766131494 478.0 101.0 509.04347826086996 0.5873249694850365 40.0 7.0 35.0 
450.0001766131494 490.0 103.0 519.469226425749 0.6269814441111531 43.0 7.0 39.0 
460.0001766131494 482.0 100.0 519.4398644833433 0.5895660486463821 44.0 7.0 39.0 
470.0001766131494 478.0 99.0 522.0259740259736 0.5910320838715923 43.0 7.0 40.0 
480.0001766131494 482.0 100.0 522.0440429136087 0.6457210533278493 43.0 7.0 40.0 
490.0001766131494 476.0 100.0 524.614342179559 0.5921123370757851 42.0 7.0 41.0 
500.0001766131494 474.0 99.0 524.5894974590626 0.6541745190641087 42.0 7.0 41.0 
510.0001766131494 472.0 98.0 524.614342179559 0.6089107504212915 42.0 7.0 41.0 
520.0001766131495 477.0 100.0 516.8311688311685 0.6017171749735829 42.0 7.0 38.0 
530.0001766131495 484.0 103.0 516.8311688311684 0.584055306217113 41.0 7.0 38.0 
540.0001766131495 474.0 101.0 514.2428006775829 0.6363013122484924 41.0 7.0 37.0 
550.0001766131495 480.0 101.0 516.8718238283449 0.6091012377977572 41.0 7.0 38.0 
560.0001766131495 478.0 101.0 516.8514963297575 0.6124686411681685 40.0 7.0 38.0 
570.0001766131495 478.0 101.0 514.3015245623943 0.6435533101901716 40.0 7.0 37.0 
580.0001766131495 484.0 101.0 514.3195934500279 0.6968857659092554 40.0 7.0 37.0 
590.0001766131495 480.0 101.0 514.3037831733482 0.6059927239439306 40.0 7.0 37.0 
600.0001766131495 481.0 101.0 514.3060417843021 0.621933814176811 40.0 7.0 37.0 
610.0001766131495 486.0 102.0 519.5031055900624 0.5999656710657536 44.0 7.0 39.0 
620.0001766131495 492.0 104.0 524.6572557876907 0.6165657297997833 45.0 7.0 41.0 
630.0001766131495 480.0 101.0 529.8791643139461 0.6424725146261351 46.0 7.0 43.0 
640.0001766131495 479.0 99.0 527.2749858836805 0.6114160218969366 46.0 7.0 42.0 
650.0001766131495 492.0 102.0 524.600790513835 0.6347694054475636 45.0 7.0 41.0 
660.0001766131495 508.0 106.0 527.2591756070008 0.5899990618801503 46.0 7.0 42.0 
#####################################################################
# End of data export. Simulation finished at: 2019-03-03T02:15+0000 #
#####################################################################
