#####################################################################
# Alchemist log file - simulation started at: 2019-03-11T07:53+0000 #
#####################################################################
# seed = 4.0, bandwidth = 1333521.4321633242, accessPointCount = 10.0, baserange = 100.0
#
# The columns have the following meaning: 
# time neighbor_count[Sum] <value>@neighbor_count[Sum] packet_size[Mean] mean_delay[Mean] crowd[Sum] overcrowded[Sum] risk[Sum] 
0.0 NaN NaN NaN NaN NaN NaN NaN 
2.000244265926729 43.0 13.0 4987.896483078965 0.4381576303540184 1497.0 0.0 1497.0 
4.000244265926729 58.0 13.0 4987.954877239549 0.39341690071930635 1497.0 0.0 1497.0 
6.000244265926729 78.0 13.0 4987.896483078965 0.47937986757224266 1497.0 0.0 1497.0 
8.00024426592673 117.0 13.0 4987.99203715992 0.469166491157068 1497.0 0.0 1497.0 
10.00024426592673 134.0 13.0 4987.997345719973 0.48494641620123025 1497.0 0.0 1497.0 
12.00024426592673 134.0 13.0 4987.986728599867 0.4849530902596934 1496.0 1.0 1496.0 
14.00024426592673 134.0 13.0 4987.978765759788 0.4849584520032902 1496.0 1.0 1496.0 
16.000244265926728 134.0 13.0 4987.960185799602 0.48497892411520493 1496.0 1.0 1496.0 
18.000244265926728 134.0 13.0 4987.957531519575 0.4849789991046264 1496.0 1.0 1496.0 
20.000244265926728 134.0 13.0 4987.946914399469 0.4849869479832453 1496.0 1.0 1496.0 
22.000244265926728 134.0 13.0 4987.946914399469 0.4849907724437128 1496.0 1.0 1496.0 
24.000244265926728 134.0 13.0 4987.946914399469 0.4849907724437128 1496.0 1.0 1496.0 
26.000244265926728 134.0 13.0 4987.946914399469 0.4849907724437128 1496.0 1.0 1496.0 
28.000244265926728 134.0 13.0 4987.946914399469 0.4849907724437128 1496.0 1.0 1496.0 
30.000244265926728 134.0 13.0 4987.946914399469 0.4849907724437128 1496.0 1.0 1496.0 
32.00024426592673 134.0 13.0 4987.946914399469 0.4849907724437128 1496.0 1.0 1496.0 
34.00024426592673 134.0 13.0 4987.946914399469 0.48499077244371197 1496.0 1.0 1496.0 
36.00024426592673 134.0 13.0 4987.946914399469 0.48499077244371197 1496.0 1.0 1496.0 
38.00024426592673 134.0 13.0 4987.946914399469 0.48499077244371197 1496.0 1.0 1496.0 
40.00024426592673 134.0 13.0 4987.946914399469 0.48499077244371197 1496.0 1.0 1496.0 
42.00024426592673 134.0 13.0 4987.946914399469 0.48499077244371197 1496.0 1.0 1496.0 
44.00024426592673 134.0 13.0 4987.946914399469 0.48499077244371197 1496.0 1.0 1496.0 
46.00024426592673 134.0 13.0 4987.946914399469 0.48499077244371197 1496.0 1.0 1496.0 
48.00024426592673 134.0 13.0 4987.946914399469 0.48499077244371197 1496.0 1.0 1496.0 
50.00024426592673 134.0 13.0 4987.946914399469 0.48499077244371197 1496.0 1.0 1496.0 
52.00024426592673 134.0 13.0 4987.946914399469 0.48499077244371197 1496.0 1.0 1496.0 
54.00024426592673 134.0 13.0 4987.946914399469 0.48499077244371197 1496.0 1.0 1496.0 
56.00024426592673 134.0 13.0 4987.946914399469 0.48499077244371197 1496.0 1.0 1496.0 
58.00024426592673 134.0 13.0 4987.946914399469 0.48499077244371197 1496.0 1.0 1496.0 
60.00024426592673 134.0 13.0 4987.946914399469 0.48499077244371197 1496.0 1.0 1496.0 
62.00027060971607 134.0 13.0 430.5613802256137 0.48470995482048107 12.0 1.0 9.0 
64.00027060971607 134.0 13.0 430.55607166556086 0.4846983314602363 5.0 6.0 4.0 
66.00027060971608 134.0 13.0 430.5454545454547 0.4847098048416371 5.0 6.0 4.0 
68.00027060971608 134.0 13.0 430.5454545454547 0.4847125044607911 5.0 6.0 4.0 
70.00027060971608 134.0 13.0 430.5454545454547 0.4847125044607911 5.0 6.0 4.0 
72.00027060971608 134.0 13.0 430.5454545454547 0.4847125044607911 5.0 6.0 4.0 
74.00027060971608 134.0 13.0 430.5454545454547 0.4847125044607911 5.0 6.0 4.0 
76.00027060971608 134.0 13.0 430.5454545454547 0.4847125044607911 5.0 6.0 4.0 
78.00027060971608 134.0 13.0 430.5454545454547 0.4847125044607911 5.0 6.0 4.0 
80.00027060971608 134.0 13.0 430.5454545454547 0.4847125044607911 5.0 6.0 4.0 
82.00027060971608 134.0 13.0 430.5454545454547 0.4847125044607911 5.0 6.0 4.0 
84.00027060971608 134.0 13.0 430.5454545454547 0.4847125044607911 5.0 6.0 4.0 
86.00027060971608 134.0 13.0 430.5454545454547 0.4847125044607911 5.0 6.0 4.0 
88.00027060971608 134.0 13.0 430.5454545454547 0.4847125044607911 5.0 6.0 4.0 
90.00027060971608 134.0 13.0 430.5454545454547 0.4847125044607911 5.0 6.0 4.0 
92.00027060971608 134.0 13.0 430.5454545454547 0.4847125044607911 5.0 6.0 4.0 
94.00027060971608 134.0 13.0 430.5454545454547 0.4847125044607911 5.0 6.0 4.0 
96.00027060971608 134.0 13.0 430.5454545454547 0.4847125044607911 5.0 6.0 4.0 
98.00027060971608 134.0 13.0 430.5454545454547 0.4847125044607911 5.0 6.0 4.0 
100.00027060971608 134.0 13.0 430.5454545454547 0.4847125044607911 5.0 6.0 4.0 
102.00027060971608 134.0 13.0 430.5454545454547 0.4847125044607911 5.0 6.0 4.0 
104.00027060971608 134.0 13.0 430.5454545454547 0.4847125044607911 5.0 6.0 4.0 
106.00027060971608 134.0 13.0 430.5454545454547 0.4847125044607911 5.0 6.0 4.0 
108.00027060971608 134.0 13.0 430.5454545454547 0.4847125044607911 5.0 6.0 4.0 
110.00027060971608 134.0 13.0 430.5454545454547 0.4847125044607911 5.0 6.0 4.0 
112.00027060971608 134.0 13.0 430.5454545454547 0.4847125044607911 5.0 6.0 4.0 
114.00027060971608 134.0 13.0 430.5454545454547 0.4847125044607911 5.0 6.0 4.0 
116.00027060971608 134.0 13.0 430.5454545454547 0.4847125044607911 5.0 6.0 4.0 
118.00027060971608 134.0 13.0 430.5454545454547 0.4847125044607911 5.0 6.0 4.0 
120.00027060971608 134.0 13.0 430.5454545454547 0.4847125044607911 5.0 6.0 4.0 
122.00027060971608 134.0 13.0 430.5454545454547 0.4847125044607911 5.0 6.0 4.0 
124.00027060971608 134.0 13.0 430.5454545454547 0.4847125044607911 5.0 6.0 4.0 
126.00027060971608 134.0 13.0 430.5454545454547 0.4847125044607911 5.0 6.0 4.0 
128.00027060971607 134.0 13.0 430.5454545454547 0.4847125044607911 5.0 6.0 4.0 
130.00027060971607 134.0 13.0 430.5454545454547 0.48471250446079267 5.0 6.0 4.0 
132.00027060971607 134.0 13.0 430.5454545454547 0.48471250446079267 5.0 6.0 4.0 
134.00027060971607 134.0 13.0 430.5454545454547 0.48471250446079267 5.0 6.0 4.0 
136.00027060971607 134.0 13.0 430.5454545454547 0.48471250446079267 5.0 6.0 4.0 
138.00027060971607 134.0 13.0 430.5454545454547 0.48471250446079267 5.0 6.0 4.0 
140.00027060971607 134.0 13.0 430.5454545454547 0.48471250446079267 5.0 6.0 4.0 
142.00027060971607 134.0 13.0 430.5454545454547 0.48471250446079267 5.0 6.0 4.0 
144.00027060971607 134.0 13.0 430.5454545454547 0.48471250446079267 5.0 6.0 4.0 
146.00027060971607 134.0 13.0 430.5454545454547 0.48471250446079267 5.0 6.0 4.0 
148.00027060971607 134.0 13.0 430.5454545454547 0.48471250446079267 5.0 6.0 4.0 
150.00027060971607 134.0 13.0 430.5454545454547 0.48471250446079267 5.0 6.0 4.0 
152.00027060971607 134.0 13.0 430.5454545454547 0.48471250446079267 5.0 6.0 4.0 
154.00027060971607 134.0 13.0 430.5454545454547 0.48471250446079267 5.0 6.0 4.0 
156.00027060971607 134.0 13.0 430.5454545454547 0.48471250446079267 5.0 6.0 4.0 
158.00027060971607 134.0 13.0 430.5454545454547 0.48471250446079267 5.0 6.0 4.0 
160.00027060971607 134.0 13.0 430.5454545454547 0.48471250446079267 5.0 6.0 4.0 
162.00027060971607 134.0 13.0 430.5454545454547 0.48471250446079267 5.0 6.0 4.0 
164.00027060971607 134.0 13.0 430.5454545454547 0.48471250446079267 5.0 6.0 4.0 
166.00027060971607 134.0 13.0 430.5454545454547 0.48471250446079267 5.0 6.0 4.0 
168.00027060971607 134.0 13.0 430.5454545454547 0.48471250446079267 5.0 6.0 4.0 
170.00027060971607 134.0 13.0 430.5454545454547 0.48471250446079267 5.0 6.0 4.0 
172.00027060971607 134.0 13.0 430.5454545454547 0.48471250446079267 5.0 6.0 4.0 
174.00027060971607 134.0 13.0 430.5454545454547 0.48471250446079267 5.0 6.0 4.0 
176.00027060971607 134.0 13.0 430.5454545454547 0.48471250446079267 5.0 6.0 4.0 
178.00027060971607 134.0 13.0 430.5454545454547 0.48471250446079267 5.0 6.0 4.0 
180.00027060971607 134.0 13.0 430.5454545454547 0.48471250446079267 5.0 6.0 4.0 
182.00027060971607 134.0 13.0 430.5454545454547 0.48471250446079267 5.0 6.0 4.0 
184.00027060971607 134.0 13.0 430.5454545454547 0.48471250446079267 5.0 6.0 4.0 
186.00027060971607 134.0 13.0 430.5454545454547 0.48471250446079267 5.0 6.0 4.0 
188.00027060971607 134.0 13.0 430.5454545454547 0.48471250446079267 5.0 6.0 4.0 
190.00027060971607 134.0 13.0 430.5454545454547 0.48471250446079267 5.0 6.0 4.0 
192.00027060971607 134.0 13.0 430.5454545454547 0.48471250446079267 5.0 6.0 4.0 
194.00027060971607 134.0 13.0 430.5454545454547 0.48471250446079267 5.0 6.0 4.0 
196.00027060971607 134.0 13.0 430.5454545454547 0.48471250446079267 5.0 6.0 4.0 
198.00027060971607 134.0 13.0 430.5454545454547 0.48471250446079267 5.0 6.0 4.0 
200.00027060971607 134.0 13.0 430.5454545454547 0.48471250446079267 5.0 6.0 4.0 
202.00027060971607 134.0 13.0 430.5454545454547 0.48471250446079267 5.0 6.0 4.0 
204.00027060971607 156.0 14.0 433.5978765759785 0.4788556725267494 6.0 6.0 5.0 
206.00027060971607 160.0 15.0 433.6270736562706 0.4856433123758733 4.0 8.0 3.0 
208.00027060971607 162.0 16.0 433.6111479761116 0.48743462075380867 3.0 9.0 2.0 
210.00027060971607 162.0 16.0 433.6138022561383 0.48744209123101706 6.0 6.0 5.0 
212.00027060971607 162.0 16.0 433.5978765759785 0.4874440392815575 6.0 6.0 5.0 
214.00027060971607 162.0 16.0 433.6031851360321 0.48744620069912514 6.0 6.0 5.0 
216.00027060971607 162.0 16.0 433.5978765759785 0.4874479062001496 6.0 6.0 5.0 
218.00027060971607 166.0 16.0 433.5978765759785 0.49652419224266753 6.0 6.0 5.0 
220.00027060971607 166.0 16.0 433.5978765759785 0.49652419224266753 6.0 6.0 5.0 
222.00027060971607 166.0 16.0 433.5978765759785 0.49652419224266753 6.0 6.0 5.0 
224.00027060971607 166.0 16.0 433.60849369608485 0.5717959086061871 5.0 7.0 4.0 
226.00027060971607 149.0 16.0 433.5952222959518 0.6475198760139715 6.0 6.0 5.0 
228.00027060971607 150.0 15.0 433.5899137358991 0.4826246051866175 7.0 6.0 5.0 
230.00027060971607 150.0 15.0 433.5899137358991 0.4826246051866175 7.0 6.0 5.0 
232.00027060971607 150.0 15.0 433.5899137358991 0.4826246051866175 7.0 6.0 5.0 
234.00027060971607 150.0 15.0 433.5899137358991 0.4826246051866175 7.0 6.0 5.0 
236.00027060971607 150.0 15.0 433.5899137358991 0.4826246051866175 7.0 6.0 5.0 
238.00027060971607 150.0 15.0 433.5899137358991 0.5057727533347656 7.0 6.0 5.0 
240.00027060971607 148.0 15.0 433.5899137358991 0.48533647222038323 7.0 6.0 5.0 
242.00027060971607 148.0 15.0 433.5899137358991 0.48533647222038323 7.0 6.0 5.0 
244.00027060971607 148.0 15.0 433.5899137358991 0.48533647222038323 7.0 6.0 5.0 
246.00027060971607 148.0 15.0 433.5899137358991 0.48533647222038323 7.0 6.0 5.0 
248.00027060971607 148.0 15.0 433.5899137358991 0.48533647222038323 7.0 6.0 5.0 
250.00027060971607 148.0 15.0 433.5899137358991 0.48533647222038323 7.0 6.0 5.0 
252.00027060971607 148.0 15.0 433.5899137358991 0.48533647222038323 7.0 6.0 5.0 
254.00027060971607 148.0 15.0 433.5899137358991 0.48533647222038323 7.0 6.0 5.0 
256.0002706097161 148.0 15.0 433.5899137358991 0.48533647222038323 7.0 6.0 5.0 
258.0002706097161 148.0 15.0 433.5899137358991 0.4853364722203896 7.0 6.0 5.0 
260.0002706097161 148.0 15.0 433.5899137358991 0.4853364722203896 7.0 6.0 5.0 
262.0002706097161 148.0 15.0 433.5899137358991 0.4853364722203896 7.0 6.0 5.0 
264.0002706097161 148.0 15.0 433.5899137358991 0.4853364722203896 7.0 6.0 5.0 
266.0002706097161 148.0 15.0 433.5899137358991 0.4853364722203896 7.0 6.0 5.0 
268.0002706097161 148.0 15.0 433.5899137358991 0.4853364722203896 7.0 6.0 5.0 
270.0002706097161 148.0 15.0 433.5899137358991 0.4853364722203896 7.0 6.0 5.0 
272.0002706097161 148.0 15.0 433.5899137358991 0.4853364722203896 7.0 6.0 5.0 
274.0002706097161 148.0 15.0 433.5899137358991 0.4853364722203896 7.0 6.0 5.0 
276.0002706097161 148.0 15.0 433.5899137358991 0.4853364722203896 7.0 6.0 5.0 
278.0002706097161 148.0 15.0 433.5899137358991 0.4853364722203896 7.0 6.0 5.0 
280.0002706097161 148.0 15.0 433.5899137358991 0.4853364722203896 7.0 6.0 5.0 
282.0002706097161 148.0 15.0 433.5899137358991 0.4853364722203896 7.0 6.0 5.0 
284.0002706097161 148.0 15.0 430.5454545454547 0.4853364722203896 6.0 6.0 4.0 
286.0002706097161 148.0 15.0 430.5454545454547 0.4853364722203896 6.0 6.0 4.0 
288.0002706097161 148.0 15.0 430.5454545454547 0.4853364722203896 6.0 6.0 4.0 
290.0002706097161 148.0 15.0 430.5454545454547 0.4853364722203896 6.0 6.0 4.0 
292.0002706097161 148.0 15.0 430.5454545454547 0.4853364722203896 6.0 6.0 4.0 
294.0002706097161 148.0 15.0 430.5454545454547 0.4853364722203896 6.0 6.0 4.0 
296.0002706097161 148.0 15.0 430.5454545454547 0.4853364722203896 6.0 6.0 4.0 
298.0002706097161 148.0 15.0 430.5454545454547 0.4853364722203896 6.0 6.0 4.0 
300.0002706097161 148.0 15.0 430.5454545454547 0.4853364722203896 6.0 6.0 4.0 
302.0002706097161 148.0 15.0 430.5454545454547 0.4853364722203896 6.0 6.0 4.0 
304.0002706097161 148.0 15.0 430.5454545454547 0.4853364722203896 6.0 6.0 4.0 
306.0002706097161 148.0 15.0 430.5454545454547 0.4853364722203896 6.0 6.0 4.0 
308.0002706097161 148.0 15.0 430.5454545454547 0.4853364722203896 6.0 6.0 4.0 
310.0002706097161 148.0 15.0 430.5454545454547 0.4853364722203896 6.0 6.0 4.0 
312.0002706097161 148.0 15.0 430.5454545454547 0.4853364722203896 6.0 6.0 4.0 
314.0002706097161 148.0 15.0 430.5454545454547 0.4853364722203896 6.0 6.0 4.0 
316.0002706097161 148.0 15.0 430.5454545454547 0.4853364722203896 6.0 6.0 4.0 
318.0002706097161 148.0 15.0 430.5454545454547 0.4853364722203896 6.0 6.0 4.0 
320.0002706097161 148.0 15.0 430.5454545454547 0.4853364722203896 6.0 6.0 4.0 
322.0002706097161 148.0 15.0 430.5454545454547 0.4853364722203896 6.0 6.0 4.0 
324.0002706097161 148.0 15.0 430.5454545454547 0.4853364722203896 6.0 6.0 4.0 
326.0002706097161 148.0 15.0 430.5454545454547 0.4853364722203896 6.0 6.0 4.0 
328.0002706097161 148.0 15.0 430.5454545454547 0.4853364722203896 6.0 6.0 4.0 
330.0002706097161 148.0 15.0 430.5454545454547 0.4853364722203896 6.0 6.0 4.0 
332.0002706097161 148.0 15.0 430.5454545454547 0.4853364722203896 6.0 6.0 4.0 
334.0002706097161 150.0 15.0 430.5454545454547 0.4795379790186733 6.0 6.0 4.0 
336.0002706097161 152.0 16.0 430.5454545454547 0.48604508785432526 6.0 6.0 4.0 
338.0002706097161 152.0 16.0 430.5454545454547 0.48604508785432526 6.0 6.0 4.0 
340.0002706097161 152.0 16.0 430.5454545454547 0.48604508785432526 6.0 6.0 4.0 
342.0002706097161 157.0 17.0 433.60583941605836 0.4790119990928826 7.0 6.0 5.0 
344.0002706097161 158.0 17.0 433.589913735899 0.4861367689616241 9.0 6.0 5.0 
346.0002706097161 158.0 17.0 433.589913735899 0.4861367689616241 8.0 6.0 5.0 
348.0002706097161 158.0 17.0 433.589913735899 0.4861367689616241 8.0 6.0 5.0 
350.0002706097161 158.0 17.0 433.589913735899 0.4861317696668949 8.0 6.0 5.0 
352.0002706097161 166.0 18.0 433.589913735899 0.49842358110143403 10.0 6.0 5.0 
354.0002706097161 165.0 18.0 433.589913735899 0.5529149397052898 10.0 6.0 5.0 
356.0002706097161 161.0 18.0 433.589913735899 0.5615777278905729 10.0 6.0 5.0 
358.0002706097161 158.0 18.0 433.59522229595206 0.566029671662541 6.0 6.0 5.0 
360.0002706097161 152.0 18.0 433.589913735899 0.4641954482810462 7.0 6.0 5.0 
362.0002706097161 156.0 19.0 433.589913735899 0.6437668419795266 7.0 6.0 5.0 
364.0002706097161 149.0 17.0 433.589913735899 0.7814472472560772 7.0 6.0 5.0 
366.0002706097161 142.0 16.0 433.589913735899 0.647101891939712 6.0 6.0 5.0 
368.0002706097161 140.0 15.0 433.59522229595206 0.5963895606864963 6.0 6.0 5.0 
370.0002706097161 138.0 14.0 433.589913735899 0.5149514731877914 6.0 6.0 5.0 
372.0002706097161 137.0 14.0 433.589913735899 0.7314575934932999 6.0 6.0 5.0 
374.0002706097161 134.0 13.0 433.589913735899 0.48471250446079495 6.0 6.0 5.0 
376.0002706097161 134.0 13.0 433.589913735899 0.48471250446079495 6.0 6.0 5.0 
378.0002706097161 134.0 13.0 433.59522229595206 0.4847098798310625 6.0 6.0 5.0 
380.0002706097161 136.0 14.0 433.589913735899 0.4631612108667927 6.0 6.0 5.0 
382.0002706097161 138.0 14.0 433.589913735899 0.48554119062575796 6.0 6.0 5.0 
384.0002706097161 138.0 14.0 433.589913735899 0.48554119062575796 6.0 6.0 5.0 
386.0002706097161 144.0 15.0 433.589913735899 0.48624447191863535 6.0 6.0 5.0 
388.0002706097161 144.0 15.0 433.59522229595206 0.48624213891442875 6.0 6.0 5.0 
390.0002706097161 152.0 16.0 445.80225613802264 0.48467023445703816 10.0 6.0 9.0 
392.0002706097161 156.0 16.0 445.8394160583943 0.47358120213190846 11.0 6.0 9.0 
394.0002706097161 174.0 18.0 451.9469143994691 0.4820171352336462 12.0 6.0 11.0 
396.0002706097161 188.0 19.0 455.03118779031183 0.48109207620166144 13.0 6.0 12.0 
398.0002706097161 188.0 19.0 455.017916390179 0.48043883069536114 13.0 6.0 12.0 
400.0002706097161 188.0 19.0 454.99137358991385 0.5194046417104609 13.0 6.0 12.0 
402.0002706097161 185.0 19.0 455.01260783012606 0.4789874067021848 13.0 6.0 12.0 
404.0002706097161 186.0 19.0 451.9389515593896 0.4812298568656309 12.0 6.0 11.0 
406.0002706097161 188.0 19.0 451.93629727936286 0.5194170490510138 12.0 6.0 11.0 
408.0002706097161 184.0 19.0 451.94426011944273 0.47932179197813074 12.0 6.0 11.0 
410.0002706097161 184.0 19.0 451.91506303915077 0.5399283616032915 12.0 6.0 11.0 
412.0002706097161 177.0 19.0 451.9495686794959 0.5180694233717807 12.0 6.0 11.0 
414.0002706097161 182.0 19.0 451.94426011944273 0.5176097427343277 12.0 6.0 11.0 
416.0002706097161 180.0 19.0 451.91771731917703 0.7365603941822727 12.0 6.0 11.0 
418.0002706097161 156.0 17.0 451.9389515593896 0.4921387765323415 12.0 6.0 11.0 
420.0002706097161 156.0 17.0 451.8779031187792 0.6000600670991453 12.0 6.0 11.0 
422.0002706097161 148.0 16.0 451.9124087591239 0.4927573896594657 12.0 6.0 11.0 
424.0002706097161 148.0 16.0 451.888520238885 0.5453896000966926 12.0 6.0 11.0 
426.0002706097161 150.0 17.0 451.91506303915077 0.48675612174879895 13.0 6.0 11.0 
428.0002706097161 150.0 17.0 451.8991373589913 0.4866781327510318 13.0 6.0 11.0 
430.0002706097161 150.0 17.0 451.91506303915077 0.5470370871118587 13.0 6.0 11.0 
432.0002706097161 146.0 16.0 451.90179163901803 0.6687546139538524 13.0 6.0 11.0 
434.0002706097161 143.0 16.0 451.8699402786993 0.730556330288162 13.0 6.0 11.0 
436.0002706097161 138.0 14.0 451.8619774386197 0.4851364241984149 13.0 6.0 11.0 
438.0002706097161 138.0 14.0 451.8566688785666 0.4851364241984149 13.0 6.0 11.0 
440.0002706097161 138.0 14.0 451.8566688785666 0.4851364241984149 13.0 6.0 11.0 
442.0002706097161 138.0 14.0 451.8566688785666 0.4851364241984149 13.0 6.0 11.0 
444.0002706097161 138.0 14.0 451.8566688785666 0.4851364241984149 13.0 6.0 11.0 
446.0002706097161 139.0 14.0 451.8566688785666 0.4795983601795964 13.0 6.0 11.0 
448.0002706097161 150.0 16.0 451.8566688785666 0.4839601352383121 15.0 6.0 11.0 
450.0002706097161 154.0 16.0 451.8566688785666 0.47364204789874714 15.0 6.0 11.0 
452.0002706097161 158.0 17.0 451.8566688785666 0.4822753305066685 15.0 6.0 11.0 
454.0002706097161 158.0 17.0 451.8566688785666 0.4822753305066685 15.0 6.0 11.0 
456.0002706097161 158.0 17.0 451.8566688785666 0.5624646487987546 14.0 6.0 11.0 
458.0002706097161 152.0 16.0 454.919708029197 0.4853887751947923 15.0 6.0 12.0 
460.0002706097161 152.0 16.0 454.9409422694092 0.5117006178568475 14.0 6.0 12.0 
462.0002706097161 150.0 16.0 451.88321167883186 0.5340293600580551 13.0 6.0 11.0 
464.0002706097161 148.0 16.0 451.89648307896505 0.47497723692641547 13.0 6.0 11.0 
466.0002706097161 148.0 16.0 451.89648307896505 0.4749750267119031 13.0 6.0 11.0 
468.0002706097161 148.0 16.0 445.7783676177837 0.475583256695867 13.0 6.0 9.0 
470.0002706097161 148.0 16.0 445.7677504976776 0.5283077067520529 12.0 6.0 9.0 
472.0002706097161 146.0 16.0 445.7677504976776 0.5464473683815383 12.0 6.0 9.0 
474.0002706097161 144.0 15.0 442.72329130723284 0.4856710528132327 11.0 6.0 8.0 
476.0002706097161 144.0 15.0 439.67883211678827 0.4856710528132327 10.0 6.0 7.0 
478.0002706097161 144.0 15.0 433.595222295952 0.5967798309201371 8.0 6.0 5.0 
480.0002706097161 140.0 15.0 433.589913735899 0.4830887462738033 7.0 6.0 5.0 
482.0002706097161 140.0 15.0 433.589913735899 0.4830901460763273 7.0 6.0 5.0 
484.0002706097161 140.0 15.0 433.589913735899 0.4830901460763273 7.0 6.0 5.0 
486.0002706097161 144.0 16.0 433.589913735899 0.476843508629583 7.0 6.0 5.0 
488.0002706097161 148.0 17.0 433.595222295952 0.6874281041828442 7.0 6.0 5.0 
490.0002706097161 145.0 15.0 436.65029860650293 0.48279268092059485 7.0 6.0 6.0 
492.0002706097161 152.0 16.0 445.8314532183145 0.4839341383011545 10.0 6.0 9.0 
494.0002706097161 152.0 16.0 445.82083609820836 0.4839314544692465 10.0 6.0 9.0 
496.0002706097161 152.0 16.0 445.82083609820836 0.4839327174489661 10.0 6.0 9.0 
498.0002706097161 152.0 16.0 445.8049104180491 0.4839355591533419 10.0 6.0 9.0 
500.0002706097161 152.0 16.0 445.8394160583943 0.4839263394013741 10.0 6.0 9.0 
502.0002706097161 152.0 16.0 445.7916390179165 0.48393303319389697 10.0 6.0 9.0 
504.0002706097161 152.0 16.0 445.8367617783675 0.48393129659677997 10.0 6.0 9.0 
506.0002706097161 152.0 16.0 445.82083609820836 0.5365589287325209 10.0 6.0 9.0 
508.0002706097161 150.0 16.0 445.7916390179165 0.48839858974501743 10.0 6.0 9.0 
510.0002706097161 150.0 16.0 445.8155275381554 0.4883925800665129 10.0 6.0 9.0 
512.000270609716 150.0 16.0 445.82614465826134 0.549793573403827 10.0 6.0 9.0 
514.000270609716 148.0 16.0 445.799601857996 0.49073175565544014 10.0 6.0 9.0 
516.000270609716 148.0 16.0 445.8102189781023 0.5874442419854828 10.0 6.0 9.0 
518.000270609716 142.0 15.0 445.8367617783675 0.5029627774048628 10.0 6.0 9.0 
520.000270609716 141.0 15.0 445.78898473788985 0.5517668592549259 10.0 6.0 9.0 
522.000270609716 140.0 15.0 445.7783676177837 0.6912675051459604 10.0 6.0 9.0 
524.000270609716 136.0 14.0 445.7730590577306 0.4943081311187306 10.0 6.0 9.0 
526.000270609716 136.0 14.0 442.72329130723284 0.4943084840101214 9.0 6.0 8.0 
528.000270609716 136.0 14.0 442.728599867286 0.5238277923679097 9.0 6.0 8.0 
530.000270609716 135.0 13.0 442.72329130723284 0.6131613094502787 9.0 6.0 8.0 
532.000270609716 134.0 13.0 442.72329130723284 0.48449747229627205 9.0 6.0 8.0 
534.000270609716 134.0 13.0 442.72329130723284 0.48449747229627205 9.0 6.0 8.0 
536.000270609716 134.0 13.0 442.72329130723284 0.48449747229627205 9.0 6.0 8.0 
538.000270609716 134.0 13.0 442.728599867286 0.48449484766654183 9.0 6.0 8.0 
540.000270609716 134.0 13.0 442.72329130723284 0.4844958975184339 9.0 6.0 8.0 
542.000270609716 134.0 13.0 442.72329130723284 0.48449747229627205 9.0 6.0 8.0 
544.000270609716 134.0 13.0 442.72329130723284 0.48449747229627205 9.0 6.0 8.0 
546.000270609716 134.0 13.0 442.72329130723284 0.48449747229627205 9.0 6.0 8.0 
548.000270609716 134.0 13.0 442.728599867286 0.48449484766654183 9.0 6.0 8.0 
550.000270609716 134.0 13.0 442.72329130723284 0.4844958975184339 9.0 6.0 8.0 
552.000270609716 134.0 13.0 442.72329130723284 0.48449747229627205 9.0 6.0 8.0 
554.000270609716 134.0 13.0 442.72329130723284 0.546997472296272 9.0 6.0 8.0 
556.000270609716 133.0 12.0 442.72329130723284 0.6263428164618323 9.0 6.0 8.0 
558.000270609716 132.0 12.0 442.728599867286 0.4825684280474705 9.0 6.0 8.0 
560.000270609716 132.0 12.0 436.6343729263437 0.48256962787820434 7.0 6.0 6.0 
562.000270609716 132.0 12.0 436.6343729263437 0.48257142762430505 7.0 6.0 6.0 
564.000270609716 132.0 12.0 433.589913735899 0.48257142762430505 6.0 6.0 5.0 
566.000270609716 132.0 12.0 433.589913735899 0.48257142762430505 6.0 6.0 5.0 
568.000270609716 132.0 12.0 433.5952222959519 0.4825684280474705 6.0 6.0 5.0 
570.000270609716 132.0 12.0 430.5454545454547 0.48256962787820434 5.0 6.0 4.0 
572.000270609716 134.0 13.0 430.5454545454547 0.48471250446079805 5.0 6.0 4.0 
574.000270609716 134.0 13.0 430.5454545454547 0.48471250446079805 5.0 6.0 4.0 
576.000270609716 134.0 13.0 430.5454545454547 0.48471250446079805 5.0 6.0 4.0 
578.000270609716 134.0 13.0 430.5507631055075 0.48470987983106784 5.0 6.0 4.0 
580.000270609716 134.0 13.0 430.5454545454547 0.4847109296829599 5.0 6.0 4.0 
582.000270609716 134.0 13.0 430.5454545454547 0.48471250446079805 5.0 6.0 4.0 
584.000270609716 134.0 13.0 430.5454545454547 0.48471250446079805 5.0 6.0 4.0 
586.000270609716 134.0 13.0 430.5454545454547 0.48471250446079805 5.0 6.0 4.0 
588.000270609716 134.0 13.0 430.5507631055075 0.48470987983106784 5.0 6.0 4.0 
590.000270609716 134.0 13.0 430.5454545454547 0.4847109296829599 5.0 6.0 4.0 
592.000270609716 138.0 14.0 430.5454545454547 0.48554119062575085 5.0 6.0 4.0 
594.000270609716 138.0 14.0 430.5454545454547 0.48554119062575085 5.0 6.0 4.0 
596.000270609716 138.0 14.0 430.5454545454547 0.48554119062575085 5.0 6.0 4.0 
598.000270609716 138.0 14.0 430.5507631055075 0.48553872038600476 5.0 6.0 4.0 
600.000270609716 138.0 14.0 430.5454545454547 0.4855397084819032 5.0 6.0 4.0 
602.000270609716 138.0 14.0 430.5454545454547 0.6031882494492803 5.0 6.0 4.0 
604.000270609716 136.0 14.0 430.5454545454547 0.4829422198101566 5.0 6.0 4.0 
606.000270609716 136.0 14.0 430.5454545454547 0.4829422198101566 5.0 6.0 4.0 
608.000270609716 136.0 14.0 430.5507631055075 0.4829397495704106 5.0 6.0 4.0 
610.000270609716 136.0 14.0 430.5454545454547 0.482940737666309 5.0 6.0 4.0 
612.000270609716 136.0 14.0 430.5454545454547 0.6006157454881347 5.0 6.0 4.0 
614.000270609716 134.0 13.0 430.5454545454547 0.48471250446079805 5.0 6.0 4.0 
616.000270609716 134.0 13.0 430.5454545454547 0.48471250446079805 5.0 6.0 4.0 
618.000270609716 136.0 14.0 430.5507631055075 0.4854751028852577 5.0 6.0 4.0 
620.000270609716 136.0 14.0 430.5454545454547 0.4854760909811561 5.0 6.0 4.0 
622.000270609716 136.0 14.0 430.5454545454547 0.4854775731250038 5.0 6.0 4.0 
624.000270609716 136.0 14.0 430.5454545454547 0.4854775731250038 5.0 6.0 4.0 
626.000270609716 136.0 14.0 430.5454545454547 0.4854775731250038 5.0 6.0 4.0 
628.000270609716 136.0 14.0 430.5454545454547 0.4854775731250038 5.0 6.0 4.0 
630.000270609716 136.0 14.0 430.5454545454547 0.4854775731250038 5.0 6.0 4.0 
632.000270609716 136.0 14.0 430.5454545454547 0.6619746282147465 5.0 6.0 4.0 
634.000270609716 136.0 14.0 430.5454545454547 0.48637778644473706 5.0 6.0 4.0 
636.000270609716 136.0 14.0 430.5454545454547 0.48637778644473706 5.0 6.0 4.0 
638.000270609716 136.0 14.0 430.5454545454547 0.48637778644473706 5.0 6.0 4.0 
640.000270609716 136.0 14.0 430.5454545454547 0.48637778644473706 5.0 6.0 4.0 
642.000270609716 136.0 14.0 430.5454545454547 0.48637778644473706 5.0 6.0 4.0 
644.000270609716 136.0 14.0 430.5454545454547 0.48637778644473706 5.0 6.0 4.0 
646.000270609716 136.0 14.0 430.5454545454547 0.48637778644473706 5.0 6.0 4.0 
648.000270609716 136.0 14.0 430.5454545454547 0.48637778644473706 5.0 6.0 4.0 
650.000270609716 136.0 14.0 430.5454545454547 0.48637778644473706 5.0 6.0 4.0 
652.000270609716 136.0 14.0 430.5454545454547 0.48637778644473706 5.0 6.0 4.0 
654.000270609716 136.0 14.0 430.5454545454547 0.48637778644473706 5.0 6.0 4.0 
656.000270609716 136.0 14.0 430.5454545454547 0.48637778644473706 5.0 6.0 4.0 
658.000270609716 136.0 14.0 430.5507631055075 0.6530441198250887 5.0 6.0 4.0 
660.000270609716 134.0 13.0 430.5454545454547 0.48470868000033407 5.0 6.0 4.0 
662.000270609716 134.0 13.0 430.5454545454547 0.48471250446079805 5.0 6.0 4.0 
664.000270609716 134.0 13.0 430.5454545454547 0.734712504460798 5.0 6.0 4.0 
#####################################################################
# End of data export. Simulation finished at: 2019-03-11T08:00+0000 #
#####################################################################
