#####################################################################
# Alchemist log file - simulation started at: 2019-03-03T11:16+0000 #
#####################################################################
# seed = 0.0, bandwidth = 74989.42093324558, accessPointCount = 72.92664737217109, baserange = 562.341325190349
#
# The columns have the following meaning: 
# time neighbor_count[Sum] <value>@neighbor_count[Sum] packet_size[Mean] mean_delay[Mean] crowd[Sum] overcrowded[Sum] risk[Sum] 
0.0 NaN NaN NaN NaN NaN NaN NaN 
10.000405536260626 20629.0 805.0 4991.117909496495 1.2579540341532838 1497.0 0.0 1497.0 
20.000405536260626 15668.0 682.0 4991.245379222435 1.2204664282235553 1497.0 0.0 1497.0 
30.000405536260626 22100.0 773.0 4991.112810707457 1.2547061057290336 1491.0 6.0 1491.0 
40.00040553626063 21264.0 760.0 4991.398342893563 1.362166547854181 1491.0 6.0 1491.0 
50.00040553626063 22193.0 776.0 4991.44678138942 1.0382507200625832 1491.0 6.0 1491.0 
60.00040553626063 22223.0 776.0 4988.354365838113 1.4677150991180636 1490.0 6.0 1490.0 
70.00040553626063 18602.0 733.0 1227.0388782664133 0.7042540273059054 384.0 7.0 275.0 
80.00040553626063 22334.0 778.0 1233.3639260675607 0.9816360477869713 383.0 2.0 282.0 
90.00040553626063 17143.0 705.0 1233.047801147227 0.9402629969647781 377.0 6.0 278.0 
100.00040553626063 22354.0 779.0 1236.1325685149768 0.82588150024661 380.0 6.0 279.0 
110.00040553626063 21549.0 766.0 1233.3180369662193 1.1697608423326626 380.0 6.0 278.0 
120.00040553626063 22177.0 778.0 1233.1752708731683 0.8202555150373881 382.0 6.0 278.0 
130.00040553626064 22333.0 780.0 1233.1115360101976 1.0310490641131251 380.0 6.0 278.0 
140.00040553626064 18586.0 737.0 1226.8884639898024 0.7447142953974281 377.0 5.0 277.0 
150.00040553626064 22233.0 782.0 1233.2313575525804 1.0237614505946766 378.0 6.0 278.0 
160.00040553626064 17208.0 709.0 1233.131931166349 0.860020111889194 376.0 6.0 278.0 
170.00040553626064 21756.0 780.0 1236.0637348629707 0.8981114743784245 380.0 5.0 280.0 
180.00040553626064 20760.0 765.0 1233.3358827278525 1.1769732953343568 379.0 6.0 278.0 
190.00040553626064 21487.0 778.0 1236.0662842574889 0.766701416476964 377.0 6.0 279.0 
200.00040553626064 20906.0 768.0 1233.1905672402816 1.0794562935675345 378.0 5.0 279.0 
210.00040553626064 21114.0 776.0 1230.2332695984692 0.9513005798770245 371.0 7.0 276.0 
220.00040553626064 19518.0 758.0 1227.3346080305928 0.7805340943244018 368.0 7.0 275.0 
230.00040553626064 20492.0 765.0 1233.1268323773097 1.0731860491255223 368.0 8.0 276.0 
240.00040553626064 20823.0 774.0 1224.186105799871 0.9469565857546896 366.0 8.0 273.0 
250.00040553626064 19517.0 757.0 1218.3760356915236 0.7761778908508449 363.0 7.0 272.0 
260.00040553626064 20417.0 768.0 1212.4588910133857 1.041426780387973 363.0 9.0 268.0 
270.00040553626064 20695.0 772.0 1209.527087316763 0.9669921792968081 360.0 9.0 267.0 
280.00040553626064 19963.0 762.0 1209.4684512428307 0.7448600013475128 360.0 7.0 269.0 
290.00040553626064 20232.0 765.0 1209.476099426387 1.0554450628887597 362.0 6.0 270.0 
300.0002750681702 20576.0 770.0 1203.520713830464 0.9691841878236153 359.0 7.0 267.0 
310.0002750681702 20066.0 767.0 1191.9311663479932 0.7663959138588865 357.0 7.0 263.0 
320.0002750681702 19935.0 759.0 1197.7335882727848 0.999353970333837 359.0 6.0 266.0 
330.0002750681702 20105.0 767.0 1200.606755895475 0.9911079997563461 358.0 7.0 266.0 
340.0002750681702 20099.0 770.0 1191.9923518164437 0.7926524193213786 357.0 7.0 263.0 
350.0002750681702 20011.0 761.0 1194.8884639898024 1.011946490214915 357.0 5.0 266.0 
360.0002750681702 20305.0 768.0 1186.103250478012 0.9400101427053553 356.0 6.0 262.0 
370.00040553626064 20216.0 766.0 1183.199490121097 0.8234394106525345 354.0 6.0 261.0 
380.00040553626064 20203.0 762.0 1186.0956022944556 0.9780357394594587 360.0 5.0 263.0 
390.00040553626064 20088.0 760.0 1186.0242192479293 0.969680475474911 361.0 2.0 266.0 
400.00040553626064 20153.0 761.0 1192.0280433397072 0.8373866661010586 360.0 6.0 264.0 
410.00040553626064 20130.0 762.0 1194.9267049075838 0.9162964749964532 362.0 5.0 266.0 
420.00040553626064 20098.0 760.0 1194.8757170172075 0.9214293056545926 360.0 6.0 265.0 
430.00040553626064 20006.0 760.0 1197.8789037603574 0.8765445535992048 359.0 7.0 265.0 
440.00040553626064 19961.0 759.0 1200.6908859145944 0.9088841725869008 363.0 7.0 266.0 
450.00040553626064 20013.0 761.0 1194.855321861057 0.9616832167137429 365.0 8.0 263.0 
460.00040553626064 19914.0 762.0 1197.827915869981 0.8623242849107449 361.0 8.0 264.0 
470.00040553626064 19918.0 762.0 1200.780114722754 0.9313067106152702 363.0 7.0 266.0 
480.00040553626064 19962.0 762.0 1191.8827278521353 0.9364354800533119 359.0 8.0 262.0 
490.00040553626064 19953.0 763.0 1180.1733588272787 0.8786511600017219 361.0 4.0 262.0 
500.00040553626064 19938.0 764.0 1168.5532186105804 0.900102352844199 359.0 2.0 260.0 
510.00040553626064 19858.0 763.0 1162.5442957297646 0.9434579509982319 362.0 3.0 257.0 
520.0004055362606 19769.0 761.0 1151.0133843212232 0.8552885741365004 356.0 3.0 253.0 
530.0002750681703 19865.0 763.0 1139.2071383046534 0.9055804833129217 353.0 4.0 248.0 
540.0004055362606 19900.0 765.0 1153.8992989165076 0.9222690281527283 353.0 4.0 253.0 
550.0004055362606 19832.0 764.0 1159.7527087316755 0.8692754276601732 353.0 3.0 256.0 
560.0004055362606 19918.0 768.0 1159.8036966220516 0.8917856701502138 354.0 4.0 255.0 
570.0004055362606 19843.0 765.0 1165.5117909496505 0.9437147537413882 354.0 4.0 257.0 
580.0004055362606 19954.0 765.0 1168.5149776927976 0.852892183821987 365.0 2.0 260.0 
590.0002750681703 19981.0 767.0 1171.4340344168263 0.9155966463375553 368.0 4.0 259.0 
600.0002750681703 19918.0 767.0 1174.2944550669224 0.9126126407289753 372.0 4.0 260.0 
610.0002750681703 19912.0 767.0 1177.3231357552586 0.8769247719627571 374.0 2.0 263.0 
620.0002750681703 19899.0 767.0 1168.4155513065652 0.875748924189131 368.0 4.0 258.0 
630.0002750681703 19724.0 767.0 1171.4824729126826 0.9513867616272402 366.0 4.0 259.0 
640.0004055362606 19693.0 768.0 1177.3766730401521 0.8457210074831524 365.0 3.0 262.0 
650.0004055362606 19381.0 765.0 1177.3256851497765 0.9340065872569342 357.0 4.0 261.0 
660.0004055362606 19486.0 767.0 1180.249840662842 0.9168029510981797 355.0 4.0 262.0 
#####################################################################
# End of data export. Simulation finished at: 2019-03-03T11:34+0000 #
#####################################################################
