#####################################################################
# Alchemist log file - simulation started at: 2019-03-13T10:27+0000 #
#####################################################################
# seed = 5.0, bandwidth = 5623413.251903491, accessPointCount = 72.92664737217109, baserange = 177.82794100389228
#
# The columns have the following meaning: 
# time neighbor_count[Sum] <value>@neighbor_count[Sum] packet_size[Mean] mean_delay[Mean] crowd[Sum] overcrowded[Sum] risk[Sum] 
0.0 NaN NaN NaN NaN NaN NaN NaN 
2.000101793669918 727.0 187.0 4987.518164435946 0.5081801809206866 1497.0 0.0 1497.0 
4.000101793669918 1318.0 188.0 4988.2090503505415 0.5051087986405809 1497.0 0.0 1497.0 
6.000101793669918 1626.0 188.0 4988.326322498407 0.513574814436174 1497.0 0.0 1497.0 
8.000101793669918 1798.0 188.0 4988.443594646272 0.5138742132360612 1497.0 0.0 1497.0 
10.000101793669918 1885.0 187.0 4988.372211599745 0.5046027969198913 1495.0 2.0 1495.0 
12.000101793669918 1900.0 187.0 4988.413001912046 0.5056435504741572 1493.0 4.0 1493.0 
14.000101793669918 1900.0 187.0 4988.2396430847675 0.5056461845472826 1489.0 8.0 1489.0 
16.00010179366992 1900.0 187.0 4988.359464627151 0.5056441316295667 1489.0 8.0 1489.0 
18.00010179366992 1900.0 187.0 4988.19120458891 0.5056470277593781 1489.0 8.0 1489.0 
20.00010179366992 1900.0 187.0 4988.288081580625 0.5056459087735821 1489.0 8.0 1489.0 
22.00010179366992 1900.0 187.0 4988.104525175271 0.5056471741300834 1488.0 9.0 1488.0 
24.00010179366992 1900.0 187.0 4988.231994901211 0.5056464051067164 1489.0 8.0 1489.0 
26.00010179366992 1900.0 187.0 4988.0841300191205 0.5056476473738422 1488.0 9.0 1488.0 
28.00010179366992 1900.0 187.0 4988.25493945188 0.5056457116980683 1490.0 7.0 1490.0 
30.00010179366992 1900.0 187.0 4988.109623964308 0.5100922401265034 1488.0 9.0 1488.0 
32.00010179366992 1899.0 186.0 4988.2090503505415 0.5155437009853852 1489.0 8.0 1489.0 
34.00010179366992 1898.0 186.0 4988.104525175271 0.5057057084161254 1488.0 9.0 1488.0 
36.00010179366992 1898.0 186.0 4988.25493945188 0.505705012315769 1489.0 8.0 1489.0 
38.00010179366992 1898.0 186.0 4988.045889101339 0.5057069491832554 1488.0 9.0 1488.0 
40.00010179366992 1898.0 186.0 4988.316124920331 0.506703188312744 1490.0 7.0 1490.0 
42.00010179366992 1896.0 186.0 4988.0713830465265 0.5056862383627166 1488.0 9.0 1488.0 
44.00010179366992 1896.0 186.0 4988.1963033779475 0.5056837518095902 1489.0 8.0 1489.0 
46.00010179366992 1896.0 186.0 4988.104525175271 0.5101696413738643 1488.0 9.0 1488.0 
48.00010179366992 1895.0 185.0 4988.2523900573615 0.5163232109365388 1489.0 8.0 1489.0 
50.00010179366992 1894.0 185.0 4988.010197578075 0.5057454778348225 1488.0 9.0 1488.0 
52.00010179366992 1894.0 185.0 4988.31867431485 0.5057422348177897 1490.0 7.0 1490.0 
54.00010179366992 1896.0 186.0 4988.061185468451 0.5048850182823058 1488.0 9.0 1488.0 
56.00010179366992 1896.0 186.0 4988.193753983429 0.5048821771544546 1489.0 8.0 1489.0 
58.00010179366992 1896.0 186.0 4988.10707456979 0.5048834094215799 1488.0 9.0 1488.0 
60.00010179366992 1902.0 187.0 4985.335882727853 0.5123211322210022 1488.0 8.0 1488.0 
62.00000817355984 1900.0 186.0 555.5385595920975 0.5049056323221479 132.0 10.0 43.0 
64.00000817355983 1902.0 186.0 555.5105162523896 0.5059473690222881 102.0 12.0 41.0 
66.00000817355983 1902.0 186.0 555.49012109624 0.5059488544485993 99.0 12.0 41.0 
68.00000817355983 1902.0 186.0 555.416188655194 0.5059502326997962 84.0 13.0 40.0 
70.00000817355983 1902.0 186.0 555.3575525812616 0.5059522219909636 78.0 14.0 39.0 
72.00000817355983 1902.0 186.0 555.3779477374128 0.5059518648172211 76.0 14.0 39.0 
74.00000817355983 1902.0 186.0 555.33970681963 0.5059528448455881 72.0 14.0 39.0 
76.00000817355983 1902.0 186.0 555.3320586360738 0.5059533500936875 69.0 14.0 39.0 
78.00000817355983 1903.0 186.0 555.3473550031877 0.5058461813579305 67.0 14.0 39.0 
80.00000817355983 1904.0 186.0 555.3295092415553 0.5059286116312715 66.0 14.0 39.0 
82.00000817355983 1904.0 186.0 555.3269598470365 0.5059287392572142 66.0 14.0 39.0 
84.00000817355983 1910.0 187.0 555.3473550031877 0.5147496571261125 66.0 14.0 39.0 
86.00000817355983 1906.0 186.0 555.3346080305928 0.5065232079367293 66.0 14.0 39.0 
88.00000817355983 1907.0 186.0 555.3269598470365 0.5065072556435092 66.0 14.0 39.0 
90.00000817355983 1908.0 186.0 555.3473550031877 0.5065144671273402 67.0 14.0 39.0 
92.00000817355983 1908.0 186.0 555.3295092415553 0.5065148674109492 67.0 14.0 39.0 
94.00000817355983 1910.0 186.0 555.3269598470365 0.5059191095152722 67.0 14.0 39.0 
96.00000817355983 1910.0 186.0 555.3524537922244 0.5059185740323766 67.0 14.0 39.0 
98.00000817355983 1910.0 186.0 558.271510516252 0.5062588470970305 67.0 14.0 40.0 
100.00000817355983 1910.0 186.0 558.2638623326958 0.5061966344173817 67.0 14.0 40.0 
102.00000817355983 1910.0 186.0 558.2842574888468 0.5061965546510186 67.0 14.0 40.0 
104.00000817355983 1910.0 186.0 558.2664117272152 0.5163320900697628 67.0 14.0 40.0 
106.00000817355983 1904.0 186.0 558.2766093052901 0.5090791827063211 67.0 14.0 40.0 
108.00000817355983 1901.0 186.0 558.2868068833649 0.5111163060117612 67.0 14.0 40.0 
110.00000817355983 1902.0 187.0 558.2638623326958 0.507154919746898 67.0 14.0 40.0 
112.00000817355983 1926.0 188.0 558.2613129381764 0.5058080741315436 67.0 14.0 40.0 
114.00000817355983 1945.0 188.0 558.2817080943274 0.5207845418452295 67.0 14.0 40.0 
116.00000817355983 1942.0 187.0 558.2638623326958 0.5107150927623534 67.0 14.0 40.0 
118.00000817355983 1937.0 187.0 558.2664117272152 0.5094189003052995 67.0 14.0 40.0 
120.00000817355983 1936.0 187.0 558.271510516252 0.5063158410202271 67.0 14.0 40.0 
122.00000817355983 1936.0 187.0 558.2536647546202 0.5080962050022092 67.0 14.0 40.0 
124.00000817355983 1934.0 187.0 558.2511153601023 0.5063294087613688 67.0 14.0 40.0 
126.00000817355983 1934.0 187.0 558.271510516252 0.5063288832191245 67.0 14.0 40.0 
128.00000817355985 1935.0 187.0 558.258763543659 0.5063047100865118 67.0 14.0 40.0 
130.00000817355985 1940.0 188.0 558.2511153601023 0.5158200609910353 67.0 14.0 40.0 
132.00000817355985 1934.0 187.0 558.271510516252 0.5063183623105161 67.0 14.0 40.0 
134.00000817355985 1934.0 187.0 558.2536647546202 0.5063187607991313 67.0 14.0 40.0 
136.00000817355985 1934.0 187.0 558.2511153601023 0.5063188878527606 67.0 14.0 40.0 
138.00000817355985 1934.0 187.0 558.2766093052901 0.5063183135597074 67.0 14.0 40.0 
140.00000817355985 1934.0 187.0 558.2638623326958 0.5197713023483082 67.0 14.0 40.0 
142.00000817355985 1930.0 186.0 558.2562141491397 0.5063483345543599 67.0 14.0 40.0 
144.00000817355985 1930.0 186.0 558.2766093052901 0.510852437140048 67.0 14.0 40.0 
146.00000817355985 1929.0 186.0 558.258763543659 0.5173555093934081 67.0 14.0 40.0 
148.00000817355985 1928.0 185.0 558.2562141491397 0.5109524366770554 67.0 14.0 40.0 
150.00000817355985 1926.0 185.0 558.2817080943274 0.5170271151884276 67.0 14.0 40.0 
152.00000817355985 1926.0 185.0 558.258763543659 0.5076413747935032 67.0 14.0 40.0 
154.00000817355985 1926.0 185.0 558.2562141491397 0.5115809039855466 67.0 14.0 40.0 
156.00000817355985 1924.0 185.0 558.2766093052901 0.5075718677765972 67.0 14.0 40.0 
158.00000817355985 1924.0 185.0 558.258763543659 0.5121177262446027 67.0 14.0 40.0 
160.00000817355985 1923.0 185.0 558.2664117272152 0.5187065338529911 67.0 14.0 40.0 
162.00000817355985 1922.0 184.0 558.2766093052901 0.5076419805072508 67.0 14.0 40.0 
164.00000817355985 1922.0 184.0 558.258763543659 0.5118472876276701 67.0 14.0 40.0 
166.00000817355985 1920.0 184.0 555.3320586360738 0.5080269235877372 66.0 14.0 39.0 
168.00000817355985 1920.0 184.0 552.4410452517528 0.5073000612929425 66.0 14.0 38.0 
170.00000817355985 1922.0 184.0 552.4028043339702 0.5073225479858444 66.0 14.0 38.0 
172.00000817355985 1922.0 184.0 552.4002549394514 0.5121734529664476 66.0 14.0 38.0 
174.00000817355985 1898.0 183.0 552.4206500956025 0.5215120915640491 66.0 14.0 38.0 
176.00000817355985 1881.0 184.0 552.4028043339702 0.506981632284945 66.0 14.0 38.0 
178.00000817355985 1882.0 184.0 552.4002549394514 0.5081108125825122 66.0 14.0 38.0 
180.00000817355985 1882.0 184.0 552.4206500956025 0.5081101501825163 66.0 14.0 38.0 
182.00000817355985 1882.0 184.0 552.4028043339702 0.508110682614809 66.0 14.0 38.0 
184.00000817355985 1882.0 184.0 552.4002549394514 0.5081108125825122 66.0 14.0 38.0 
186.00000817355985 1882.0 184.0 552.4206500956025 0.5092573630763557 66.0 14.0 38.0 
188.00000817355985 1881.0 183.0 552.4028043339702 0.5176284811670764 66.0 14.0 38.0 
190.00000817355985 1880.0 183.0 552.4002549394514 0.5073258960258306 66.0 14.0 38.0 
192.00000817355985 1880.0 183.0 552.4206500956025 0.50732536354347 66.0 14.0 38.0 
194.00000817355985 1880.0 183.0 552.4028043339702 0.5073257730502037 66.0 14.0 38.0 
196.00000817355985 1880.0 183.0 552.4002549394514 0.5073259036168365 66.0 14.0 38.0 
198.00000817355985 1882.0 183.0 552.4257488846392 0.507176684859202 66.0 14.0 38.0 
200.00000817355985 1882.0 183.0 552.4130019120456 0.5071765302977509 66.0 14.0 38.0 
202.00000817355985 1882.0 183.0 552.4002549394514 0.5071771003661255 66.0 14.0 38.0 
204.00000817355985 1882.0 183.0 552.4206500956025 0.507176684859202 66.0 14.0 38.0 
206.00000817355985 1882.0 183.0 552.4028043339702 0.5071770943659355 66.0 14.0 38.0 
208.00000817355985 1882.0 183.0 552.4053537284896 0.5071772249325683 66.0 14.0 38.0 
210.00000817355985 1882.0 183.0 552.4410452517528 0.5071759194463803 66.0 14.0 38.0 
212.00000817355985 1882.0 183.0 552.407903123009 0.5071768316803367 66.0 14.0 38.0 
214.00000817355985 1882.0 183.0 552.3951561504141 0.5071773922374022 66.0 14.0 38.0 
216.00000817355985 1882.0 183.0 552.4155513065651 0.5071768521640357 66.0 14.0 38.0 
218.00000817355985 1882.0 183.0 552.407903123009 0.5071772121540937 66.0 14.0 38.0 
220.00000817355985 1882.0 183.0 552.4155513065651 0.5071766181259927 66.0 14.0 38.0 
222.00000817355985 1882.0 183.0 552.4206500956025 0.5071766028633358 66.0 14.0 38.0 
224.00000817355985 1882.0 183.0 552.3977055449334 0.5071772616707694 66.0 14.0 38.0 
226.00000817355985 1882.0 183.0 552.3951561504141 0.5071773922374022 66.0 14.0 38.0 
228.00000817355985 1882.0 183.0 552.4257488846392 0.5071768026473601 66.0 14.0 38.0 
230.00000817355985 1882.0 183.0 552.4130019120456 0.5071767179456135 66.0 14.0 38.0 
232.00000817355985 1906.0 184.0 552.4002549394514 0.5057961321012926 66.0 14.0 38.0 
234.00000817355985 1924.0 184.0 552.4155513065651 0.5071744590441658 66.0 14.0 38.0 
236.00000817355985 1924.0 184.0 552.3977055449334 0.5071748666724282 66.0 14.0 38.0 
238.00000817355985 1924.0 184.0 552.4002549394514 0.5071749467711849 66.0 14.0 38.0 
240.00000817355985 1924.0 184.0 552.4308476736779 0.5071740028233541 66.0 14.0 38.0 
242.00000817355985 1924.0 184.0 552.4130019120456 0.507174444633049 66.0 14.0 38.0 
244.00000817355985 1924.0 184.0 552.3951561504141 0.5071747795700722 66.0 14.0 38.0 
246.00000817355985 1924.0 184.0 552.4257488846392 0.5071742202898432 66.0 14.0 38.0 
248.00000817355985 1924.0 184.0 552.407903123009 0.5071746545433532 66.0 14.0 38.0 
250.00000817355985 1924.0 184.0 549.4710006373481 0.5072129984753249 66.0 14.0 37.0 
252.00000817355985 1924.0 184.0 549.4913957934994 0.507212811209409 66.0 14.0 37.0 
254.00000817355985 1932.0 185.0 549.4735500318678 0.5071779269661343 67.0 14.0 37.0 
256.0000081735598 1932.0 185.0 549.4710006373481 0.5071778127404585 67.0 14.0 37.0 
258.0000081735598 1932.0 185.0 549.4964945825366 0.507177227958033 66.0 15.0 36.0 
260.0000081735598 1932.0 185.0 549.4735500318678 0.5071775582363978 66.0 15.0 36.0 
262.0000081735598 1932.0 185.0 549.4837476099432 0.5071776987718194 66.0 15.0 36.0 
264.0000081735598 1932.0 185.0 561.193116634799 0.50713298310395 66.0 15.0 40.0 
266.0000081735598 1932.0 185.0 561.221159974506 0.5071182264986748 66.0 15.0 40.0 
268.0000081735598 1932.0 185.0 561.2007648183553 0.5071183002813995 66.0 15.0 40.0 
270.0000081735598 1932.0 185.0 564.1147227533461 0.5167520745059949 66.0 15.0 41.0 
272.0000081735598 1918.0 184.0 564.0994263862328 0.5076229091047157 66.0 15.0 41.0 
274.0000081735598 1918.0 184.0 564.1096239643085 0.5076228373209598 66.0 15.0 41.0 
276.0000081735598 1918.0 184.0 564.0943275971961 0.5076229286821037 66.0 15.0 41.0 
278.0000081735598 1918.0 184.0 564.0994263862328 0.5076228870059974 66.0 15.0 41.0 
280.0000081735598 1918.0 184.0 564.0943275971961 0.5076228123972214 66.0 15.0 41.0 
282.0000081735598 1918.0 184.0 564.0943275971961 0.5076229352078997 66.0 15.0 41.0 
284.0000081735598 1922.0 185.0 564.0994263862328 0.5075867761170241 66.0 15.0 41.0 
286.0000081735598 1922.0 185.0 564.0943275971961 0.5075868215890089 66.0 15.0 41.0 
288.0000081735598 1922.0 185.0 564.0994263862328 0.5075867801032045 66.0 15.0 41.0 
290.0000081735598 1922.0 185.0 564.0943275971961 0.5075867058351079 66.0 15.0 41.0 
292.0000081735598 1922.0 185.0 564.0943275971961 0.5075868280850068 66.0 15.0 41.0 
294.0000081735598 1922.0 185.0 564.1045251752711 0.5075867566290306 66.0 15.0 41.0 
296.0000081735598 1923.0 186.0 564.0943275971961 0.5062330408841282 66.0 15.0 41.0 
298.0000081735598 1924.0 186.0 564.0994263862328 0.507517477738683 66.0 15.0 41.0 
300.0000081735598 1924.0 186.0 564.0943275971961 0.5075174041426959 66.0 15.0 41.0 
302.0000081735598 1924.0 186.0 564.0943275971961 0.5075175252862609 66.0 15.0 41.0 
304.0000081735598 1924.0 186.0 564.1121733588274 0.5210924369709561 66.0 15.0 41.0 
306.0000081735598 1920.0 185.0 564.0917782026767 0.507552969750449 66.0 15.0 41.0 
308.0000081735598 1920.0 185.0 564.0917782026767 0.5075530020828019 66.0 15.0 41.0 
310.0000081735598 1920.0 185.0 564.0917782026767 0.5075530020828019 66.0 15.0 41.0 
312.0000081735598 1920.0 185.0 564.0917782026767 0.5075530020828019 66.0 15.0 41.0 
314.0000081735598 1920.0 185.0 564.0917782026767 0.5075530020828019 66.0 15.0 41.0 
316.0000081735598 1920.0 185.0 564.0917782026767 0.5075529956163313 66.0 15.0 41.0 
318.0000081735598 1920.0 185.0 564.096876991714 0.5075529543190986 66.0 15.0 41.0 
320.0000081735598 1920.0 185.0 564.0917782026767 0.5075528803885843 66.0 15.0 41.0 
322.0000081735598 1920.0 185.0 564.0917782026767 0.5075530020828019 66.0 15.0 41.0 
324.0000081735598 1920.0 185.0 564.0917782026767 0.5075530020828019 66.0 15.0 41.0 
326.0000081735598 1920.0 185.0 564.0917782026767 0.5120984501617858 66.0 15.0 41.0 
328.0000081735598 1919.0 184.0 564.096876991714 0.5180451821172897 66.0 15.0 41.0 
330.0000081735598 1918.0 184.0 564.0917782026767 0.5076228254488135 66.0 15.0 41.0 
332.0000081735598 1923.0 185.0 564.0917782026767 0.5067542020848785 66.0 15.0 41.0 
334.0000081735598 1928.0 185.0 564.0917782026767 0.508011990942992 66.0 15.0 41.0 
336.0000081735598 1928.0 185.0 564.0917782026767 0.5080119844469941 66.0 15.0 41.0 
338.0000081735598 1928.0 185.0 564.096876991714 0.508011941375704 66.0 15.0 41.0 
340.0000081735598 1928.0 185.0 564.0917782026767 0.5080118649903499 66.0 15.0 41.0 
342.0000081735598 1934.0 185.0 564.0917782026767 0.5074192396756317 66.0 15.0 41.0 
344.0000081735598 1950.0 186.0 564.0917782026767 0.5181007141878938 66.0 15.0 41.0 
346.0000081735598 1942.0 185.0 564.096876991714 0.5079298824373151 66.0 15.0 41.0 
348.0000081735598 1942.0 185.0 564.0917782026767 0.5079298661295361 66.0 15.0 41.0 
350.0000081735598 1942.0 185.0 564.0866794136392 0.5079297782215191 66.0 15.0 41.0 
352.0000081735598 1946.0 185.0 564.0866794136392 0.5075148010912202 66.0 15.0 41.0 
354.0000081735598 1952.0 185.0 564.0866794136392 0.5077108161406811 66.0 15.0 41.0 
356.0000081735598 1952.0 185.0 564.0866794136392 0.5077108161406811 66.0 15.0 41.0 
358.0000081735598 1952.0 185.0 564.0917782026767 0.5077107676127529 66.0 15.0 41.0 
360.0000081735598 1952.0 185.0 564.0866794136392 0.5077106771629937 66.0 15.0 41.0 
362.0000081735598 1954.0 185.0 561.1625239005738 0.507578384112182 66.0 15.0 40.0 
364.0000081735598 1958.0 185.0 555.3218610579992 0.5213676447248248 66.0 15.0 38.0 
366.0000081735598 1954.0 184.0 555.3014659018482 0.5077052507327898 66.0 15.0 38.0 
368.0000081735598 1954.0 184.0 555.3065646908856 0.5077052022432883 66.0 15.0 38.0 
370.0000081735598 1954.0 184.0 555.3014659018482 0.5077051194049346 66.0 15.0 38.0 
372.0000081735598 1955.0 184.0 558.2409177820269 0.5075901507962581 66.0 15.0 39.0 
374.0000081735598 1956.0 184.0 555.3116634799243 0.5075784013984823 67.0 15.0 38.0 
376.0000081735598 1956.0 184.0 555.3116634799243 0.5075788081302575 67.0 15.0 38.0 
378.0000081735598 1956.0 184.0 555.3167622689609 0.5087255490355594 67.0 15.0 38.0 
380.0000081735598 1955.0 184.0 555.3116634799243 0.5097681507502569 67.0 15.0 38.0 
382.0000081735598 1957.0 184.0 555.3116634799243 0.5074764870622576 67.0 15.0 38.0 
384.0000081735598 1960.0 184.0 555.3065646908855 0.5076335457760366 68.0 15.0 38.0 
386.0000081735598 1960.0 184.0 555.3014659018482 0.507634397693021 67.0 15.0 38.0 
388.0000081735598 1961.0 185.0 555.3065646908855 0.506175234293539 67.0 15.0 38.0 
390.0000081735598 1962.0 185.0 555.3014659018482 0.5075642195007803 67.0 15.0 38.0 
392.0000081735598 1962.0 185.0 555.3295092415553 0.5132640672922386 68.0 14.0 39.0 
394.0000081735598 1956.0 185.0 555.372848948374 0.5080269650332924 70.0 13.0 40.0 
396.0000081735598 1956.0 186.0 555.3371574251115 0.5075949586952556 69.0 14.0 39.0 
398.0000081735598 1956.0 186.0 555.3167622689609 0.5259159338919425 68.0 15.0 38.0 
400.0000081735598 1953.0 184.0 555.3014659018482 0.5158380993343911 68.0 15.0 38.0 
402.0000081735598 1956.0 185.0 555.3116634799243 0.5184878282425716 67.0 15.0 38.0 
404.0000081735598 1948.0 184.0 555.3014659018482 0.5085447446792577 67.0 15.0 38.0 
406.0000081735598 1944.0 184.0 555.3065646908855 0.5074576728001029 67.0 15.0 38.0 
408.0000081735598 1944.0 184.0 555.3116634799243 0.5074576435008907 67.0 15.0 38.0 
410.0000081735598 1944.0 184.0 555.3065646908855 0.5074575633664179 67.0 15.0 38.0 
412.0000081735598 1944.0 184.0 555.3116634799243 0.5074576095799711 67.0 15.0 38.0 
414.0000081735598 1944.0 184.0 555.3014659018482 0.507873566732491 67.0 15.0 38.0 
416.0000081735598 1942.0 184.0 555.3065646908855 0.5072894578690736 67.0 15.0 38.0 
418.0000081735598 1942.0 184.0 555.3116634799243 0.5072895036065471 67.0 15.0 38.0 
420.0000081735598 1942.0 184.0 555.3065646908855 0.5072894242079938 68.0 15.0 38.0 
422.0000081735598 1942.0 184.0 555.3167622689609 0.5072893859817426 69.0 14.0 39.0 
424.0000081735598 1946.0 185.0 561.2058636073938 0.5178132973946911 69.0 14.0 41.0 
426.0000081735598 1902.0 184.0 561.2160611854689 0.5071547493558356 69.0 14.0 41.0 
428.0000081735598 1902.0 184.0 561.1752708731672 0.5071551862187211 69.0 14.0 41.0 
430.0000081735598 1912.0 185.0 567.0541746335244 0.5072232347318153 69.0 14.0 43.0 
432.0000081735598 1912.0 185.0 572.9458253664754 0.5077627656871702 69.0 14.0 45.0 
434.0000081735598 1909.0 185.0 572.9101338432125 0.5085216004572102 69.0 14.0 45.0 
436.0000081735598 1906.0 185.0 572.8948374761 0.5072084665455878 69.0 14.0 45.0 
438.0000081735598 1908.0 186.0 572.8948374761 0.507142913802533 69.0 14.0 45.0 
440.0000081735598 1908.0 186.0 572.8897386870618 0.5071427250480319 69.0 14.0 45.0 
442.0000081735598 1908.0 186.0 572.8897386870618 0.5161524190666928 69.0 14.0 45.0 
444.0000081735598 1906.0 185.0 572.8795411089867 0.5059474865834636 69.0 14.0 45.0 
446.0000081735598 1906.0 185.0 572.8795411089867 0.5059474865834636 69.0 14.0 45.0 
448.0000081735598 1906.0 185.0 572.8846398980244 0.5059474451247623 69.0 14.0 45.0 
450.0000081735598 1906.0 185.0 572.8846398980244 0.5059472555161686 69.0 14.0 45.0 
452.0000081735598 1906.0 185.0 572.8846398980244 0.5059474479602004 69.0 14.0 45.0 
454.0000081735598 1906.0 185.0 572.8795411089867 0.5059474865834636 69.0 14.0 45.0 
456.0000081735598 1906.0 185.0 572.8795411089867 0.5059474865834636 69.0 14.0 45.0 
458.0000081735598 1906.0 185.0 572.8846398980244 0.5059474451247623 69.0 14.0 45.0 
460.0000081735598 1920.0 186.0 572.8897386870618 0.5059422032682184 69.0 14.0 45.0 
462.0000081735598 1932.0 187.0 572.8897386870618 0.5052560046484849 69.0 14.0 45.0 
464.0000081735598 1932.0 187.0 572.8846398980244 0.5052539501642713 69.0 14.0 45.0 
466.0000081735598 1932.0 187.0 572.8846398980244 0.5052539501642713 69.0 14.0 45.0 
468.0000081735598 1932.0 187.0 572.8897386870618 0.5052539077929403 69.0 14.0 45.0 
470.0000081735598 1932.0 187.0 572.8973868706181 0.5121774293306679 69.0 14.0 45.0 
472.0000081735598 1928.0 187.0 572.8769917144681 0.5241012008647692 69.0 14.0 45.0 
474.0000081735598 1924.0 186.0 572.8769917144681 0.5056067901348306 69.0 14.0 45.0 
476.0000081735598 1924.0 186.0 572.87189292543 0.5056068157676868 69.0 14.0 45.0 
478.0000081735598 1924.0 186.0 572.8769917144681 0.505606773205494 69.0 14.0 45.0 
480.0000081735598 1924.0 186.0 572.87189292543 0.5056066837978691 69.0 14.0 45.0 
482.0000081735598 1928.0 186.0 569.9477374123645 0.5056351415800511 68.0 14.0 44.0 
484.0000081735598 1931.0 187.0 569.9477374123645 0.5048171870368323 68.0 14.0 44.0 
486.0000081735598 1932.0 187.0 564.0841300191204 0.5057752194090203 68.0 14.0 42.0 
488.0000081735598 1938.0 188.0 564.0841300191204 0.5061327623687256 69.0 13.0 43.0 
490.0000081735598 1938.0 188.0 564.0790312300829 0.5061327121970336 69.0 13.0 43.0 
492.0000081735598 1940.0 188.0 561.1548757170176 0.506343401450322 69.0 13.0 42.0 
494.0000081735598 1940.0 188.0 561.1548757170176 0.5063435538256079 69.0 13.0 42.0 
496.0000081735598 1940.0 188.0 561.1548757170176 0.5063435736618913 68.0 13.0 42.0 
498.0000081735598 1940.0 188.0 561.1599745060543 0.5078741274660614 68.0 13.0 42.0 
500.0000081735598 1938.0 188.0 561.1548757170176 0.5065096974780006 68.0 13.0 42.0 
502.0000081735598 1941.0 189.0 561.1548757170176 0.5060389552624664 68.0 13.0 42.0 
504.0000081735598 1948.0 189.0 561.1548757170176 0.5135228533399243 68.0 13.0 42.0 
506.0000081735598 1946.0 188.0 561.1548757170176 0.5105259269246404 68.0 13.0 42.0 
508.0000081735598 1946.0 189.0 561.1599745060543 0.5068261063802493 68.0 13.0 42.0 
510.0000081735598 1946.0 189.0 561.1548757170176 0.5068260276328164 68.0 13.0 42.0 
512.0000081735598 1948.0 189.0 561.1548757170176 0.5069186231959916 68.0 13.0 42.0 
514.0000081735598 1948.0 189.0 561.1548757170176 0.5069186231960012 68.0 13.0 42.0 
516.0000081735598 1948.0 189.0 561.1548757170176 0.5246177382402489 68.0 13.0 42.0 
518.0000081735598 1946.0 188.0 561.1599745060543 0.50698097503164 68.0 13.0 42.0 
520.0000081735598 1946.0 188.0 561.1548757170176 0.50698089382592 68.0 13.0 42.0 
522.0000081735598 1951.0 188.0 561.1548757170176 0.5059639579566587 68.0 13.0 42.0 
524.0000081735598 1954.0 188.0 561.1548757170176 0.506577152963294 69.0 13.0 42.0 
526.0000081735598 1954.0 188.0 561.1548757170176 0.506577152963294 69.0 13.0 42.0 
528.0000081735598 1954.0 188.0 561.1599745060543 0.5155056689572766 69.0 13.0 42.0 
530.0000081735598 1953.0 188.0 558.2307202039513 0.505662944829956 68.0 13.0 41.0 
532.0000081735598 1960.0 188.0 549.4455066921604 0.5067618607428714 68.0 13.0 38.0 
534.0000081735598 1961.0 188.0 549.4455066921604 0.5069590857336054 68.0 13.0 38.0 
536.0000081735598 1960.0 188.0 549.4455066921604 0.5065207593731066 68.0 13.0 38.0 
538.0000081735598 1960.0 188.0 549.4506054811985 0.5065207059043029 68.0 13.0 38.0 
540.0000081735598 1960.0 188.0 549.4455066921604 0.5196042304189501 68.0 13.0 38.0 
542.0000081735598 1951.0 188.0 552.384958572339 0.50440444370962 69.0 13.0 39.0 
544.0000081735598 1957.0 188.0 552.3696622052265 0.5140614725846058 72.0 13.0 39.0 
546.0000081735598 1954.0 188.0 552.3696622052265 0.5059191584509449 72.0 13.0 39.0 
548.0000081735598 1954.0 188.0 552.3747609942625 0.5059191049821411 72.0 13.0 39.0 
550.0000081735598 1954.0 188.0 552.3696622052265 0.5059190213218018 72.0 13.0 39.0 
552.0000081735598 1957.0 188.0 552.3696622052265 0.5057433841717551 72.0 13.0 39.0 
554.0000081735598 1958.0 188.0 552.3696622052265 0.5093684234051304 72.0 13.0 39.0 
556.0000081735598 1963.0 188.0 552.3696622052265 0.5058293332102474 72.0 13.0 39.0 
558.0000081735598 1968.0 189.0 552.3747609942625 0.5060812336384736 72.0 13.0 39.0 
560.0000081735598 1967.0 189.0 552.3696622052265 0.5063352894923425 72.0 13.0 39.0 
562.0000081735598 1970.0 189.0 555.3091140854051 0.5094474806806326 73.0 13.0 40.0 
564.0000081735598 1965.0 188.0 555.2938177182918 0.5230741689426239 75.0 13.0 40.0 
566.0000081735598 1960.0 188.0 555.2938177182918 0.5057172874279461 75.0 13.0 40.0 
568.0000081735598 1962.0 188.0 555.2989165073287 0.5064031036032329 75.0 13.0 40.0 
570.0000081735598 1960.0 188.0 555.2963671128118 0.5114786552565063 75.0 13.0 40.0 
572.0000081735598 1963.0 187.0 555.2912683237727 0.5159784602682238 75.0 13.0 40.0 
574.0000081735598 1962.0 187.0 555.2912683237727 0.5060936121795234 75.0 13.0 40.0 
576.0000081735598 1963.0 187.0 558.2332695984705 0.506025560776477 75.0 13.0 41.0 
578.0000081735598 1964.0 187.0 561.1880178457614 0.5066812330188537 73.0 13.0 42.0 
580.0000081735598 1964.0 187.0 561.1956660293175 0.5074328775091043 73.0 13.0 42.0 
582.0000081735598 1962.0 187.0 561.1956660293175 0.5065266584343701 73.0 13.0 42.0 
584.0000081735598 1962.0 187.0 561.17017208413 0.5065271279197378 73.0 13.0 42.0 
586.0000081735598 1962.0 187.0 561.1931166347985 0.506526662221042 73.0 13.0 42.0 
588.0000081735598 1962.0 187.0 561.17017208413 0.5071411445611225 73.0 13.0 42.0 
590.0000081735598 1959.0 187.0 561.17017208413 0.5086024032831016 73.0 13.0 42.0 
592.0000081735598 1955.0 187.0 561.1880178457614 0.5098559927565577 69.0 17.0 38.0 
594.0000081735598 1950.0 186.0 561.1854684512422 0.5266688614874263 72.0 15.0 40.0 
596.0000081735598 1940.0 185.0 561.1956660293175 0.5069265230856075 72.0 14.0 41.0 
598.0000081735598 1940.0 185.0 561.177820267686 0.5105616396924065 72.0 14.0 41.0 
600.0000081735598 1924.0 185.0 561.2058636073938 0.5351398142579193 70.0 14.0 41.0 
602.0000081735598 1898.0 183.0 561.1803696622052 0.5069572325004691 69.0 15.0 40.0 
604.0000081735598 1898.0 183.0 561.1956660293175 0.506957348418325 73.0 12.0 43.0 
606.0000081735598 1898.0 183.0 561.1905672402813 0.5069577789266092 67.0 17.0 38.0 
608.0000081735598 1898.0 183.0 561.1497769279785 0.5069583992144019 71.0 13.0 42.0 
610.0000081735598 1898.0 183.0 561.1497769279785 0.5069588407339 70.0 13.0 42.0 
612.0000081735598 1898.0 183.0 558.225621414914 0.5069585220002845 69.0 13.0 41.0 
614.0000081735598 1902.0 184.0 558.225621414914 0.5069257735275466 69.0 13.0 41.0 
616.0000081735598 1902.0 184.0 558.2307202039513 0.5069257658504582 69.0 13.0 41.0 
618.0000081735598 1905.0 184.0 558.225621414914 0.5065366702321212 69.0 13.0 41.0 
620.0000081735598 1906.0 184.0 558.225621414914 0.5067618267019018 69.0 13.0 41.0 
622.0000081735598 1906.0 184.0 558.225621414914 0.5100274091335314 69.0 13.0 41.0 
624.0000081735598 1890.0 183.0 558.225621414914 0.5221682020783361 69.0 13.0 41.0 
626.0000081735598 1864.0 183.0 558.2307202039513 0.5067396195929164 69.0 13.0 41.0 
628.0000081735598 1864.0 183.0 555.3014659018482 0.5067395508964361 68.0 13.0 40.0 
630.0000081735598 1864.0 183.0 555.3014659018482 0.5067396273052207 68.0 13.0 40.0 
632.0000081735598 1868.0 183.0 555.3014659018482 0.5066982070203953 68.0 13.0 40.0 
634.0000081735598 1868.0 183.0 555.3014659018482 0.5250469940185064 68.0 13.0 40.0 
636.0000081735598 1864.0 182.0 555.3065646908854 0.5067302138630476 68.0 13.0 40.0 
638.0000081735598 1864.0 182.0 555.3014659018482 0.5067301448499937 68.0 13.0 40.0 
640.0000081735598 1864.0 182.0 555.3014659018482 0.5067302216108925 68.0 13.0 40.0 
642.0000081735598 1864.0 182.0 555.3014659018482 0.5067302216108925 69.0 13.0 40.0 
644.0000081735598 1864.0 182.0 555.3014659018482 0.5067302216108925 69.0 13.0 40.0 
646.0000081735598 1864.0 182.0 555.3065646908854 0.5067302138630476 69.0 13.0 40.0 
648.0000081735598 1864.0 182.0 555.3014659018482 0.5067301448499937 69.0 13.0 40.0 
650.0000081735598 1864.0 182.0 555.3014659018482 0.5067302216108925 69.0 13.0 40.0 
652.0000081735598 1864.0 182.0 555.3014659018482 0.5067302216108925 69.0 13.0 40.0 
654.0000081735598 1864.0 182.0 552.3773103887825 0.5067583305227101 68.0 13.0 39.0 
656.0000081735598 1866.0 182.0 552.3824091778207 0.5062412340083946 68.0 13.0 39.0 
658.0000081735598 1870.0 184.0 552.3773103887825 0.5066683836697723 68.0 13.0 39.0 
660.0000081735598 1870.0 184.0 552.3773103887825 0.5066684597296583 68.0 13.0 39.0 
662.0000081735598 1870.0 184.0 552.3773103887825 0.5066684597296583 67.0 13.0 39.0 
664.0000081735598 1870.0 184.0 552.3773103887825 0.5066684597296583 66.0 13.0 39.0 
#####################################################################
# End of data export. Simulation finished at: 2019-03-13T10:35+0000 #
#####################################################################
