#####################################################################
# Alchemist log file - simulation started at: 2019-03-03T11:53+0000 #
#####################################################################
# seed = 0.0, bandwidth = 74989.42093324558, accessPointCount = 274.2481756762073, baserange = 17.78279410038923
#
# The columns have the following meaning: 
# time neighbor_count[Sum] <value>@neighbor_count[Sum] packet_size[Mean] mean_delay[Mean] crowd[Sum] overcrowded[Sum] risk[Sum] 
0.0 NaN NaN NaN NaN NaN NaN NaN 
10.000405536260626 92.0 20.0 4984.652738565782 0.5827997176297998 1496.0 1.0 1496.0 
20.000405536260626 92.0 20.0 4984.575945793337 0.5835905495707052 1497.0 0.0 1497.0 
30.000405536260626 92.0 20.0 4984.571428571428 0.5836237394374614 1497.0 0.0 1497.0 
40.00040553626063 92.0 20.0 4984.530773574252 0.5836196362945935 1497.0 0.0 1497.0 
50.00040553626063 92.0 20.0 4984.56691134952 0.5836606677232753 1497.0 0.0 1497.0 
60.00040553626063 92.0 20.0 4981.980801806889 0.5836237394374615 1496.0 0.0 1496.0 
70.00040553626063 92.0 20.0 423.38114059853194 0.5011469275613564 12.0 0.0 9.0 
80.00040553626063 92.0 20.0 423.38114059853194 0.5011469275613564 10.0 0.0 9.0 
90.00040553626063 92.0 20.0 423.38114059853194 0.5011469275613564 10.0 0.0 9.0 
100.00040553626063 92.0 20.0 423.38114059853194 0.5011469275613564 10.0 0.0 9.0 
110.00040553626063 92.0 20.0 423.38114059853194 0.5011469275613564 10.0 0.0 9.0 
120.00040553626063 92.0 20.0 423.38114059853194 0.5011469275613564 10.0 0.0 9.0 
130.00040553626064 92.0 20.0 423.38114059853194 0.5011469275613514 10.0 0.0 9.0 
140.00040553626064 92.0 20.0 423.38114059853194 0.5011469275613515 10.0 0.0 9.0 
150.00040553626064 92.0 20.0 423.38114059853194 0.5011469275613515 10.0 0.0 9.0 
160.00040553626064 92.0 20.0 423.38114059853194 0.5011469275613515 10.0 0.0 9.0 
170.00040553626064 94.0 21.0 423.38114059853194 0.5006839980406361 10.0 0.0 9.0 
180.00040553626064 94.0 21.0 423.38114059853194 0.5006839980406361 10.0 0.0 9.0 
190.00040553626064 94.0 21.0 423.38114059853194 0.5006839980406361 10.0 0.0 9.0 
200.00040553626064 94.0 21.0 423.38114059853194 0.5006839980406361 10.0 0.0 9.0 
210.00040553626064 94.0 21.0 423.38114059853194 0.5006839980406361 10.0 0.0 9.0 
220.00040553626064 92.0 20.0 423.38114059853194 0.5011469275613515 10.0 0.0 9.0 
230.00040553626064 92.0 20.0 423.38114059853194 0.5011469275613515 10.0 0.0 9.0 
240.00040553626064 92.0 20.0 423.38114059853194 0.5737965002109241 10.0 0.0 9.0 
250.00040553626064 88.0 20.0 423.38114059853194 0.4986176367801786 10.0 0.0 9.0 
260.00040553626064 88.0 20.0 423.38114059853194 0.4986176367801871 10.0 0.0 9.0 
270.00040553626064 88.0 20.0 423.38114059853194 0.4986176367801871 10.0 0.0 9.0 
280.00040553626064 88.0 20.0 423.38114059853194 0.4986176367801871 10.0 0.0 9.0 
290.00040553626064 88.0 20.0 423.38114059853194 0.4986176367801871 10.0 0.0 9.0 
300.00040553626064 88.0 20.0 423.38114059853194 0.4986176367801871 10.0 0.0 9.0 
310.00040553626064 88.0 20.0 423.38114059853194 0.4986176367801871 10.0 0.0 9.0 
320.00040553626064 90.0 21.0 423.38114059853194 0.4991506222443116 10.0 0.0 9.0 
330.00040553626064 92.0 21.0 423.38114059853194 0.497878600495191 10.0 0.0 9.0 
340.00040553626064 92.0 21.0 423.38114059853194 0.497878600495191 10.0 0.0 9.0 
350.00040553626064 93.0 22.0 423.38114059853194 0.4992621713260081 10.0 0.0 9.0 
360.00040553626064 94.0 22.0 423.38114059853194 0.5321397945487203 10.0 0.0 9.0 
370.00040553626064 92.0 21.0 423.38114059853194 0.497878600495191 10.0 0.0 9.0 
380.00040553626064 92.0 21.0 423.38114059853194 0.497878600495191 10.0 0.0 9.0 
390.00040553626064 92.0 21.0 423.38114059853194 0.497878600495191 10.0 0.0 9.0 
400.00040553626064 92.0 21.0 423.38114059853194 0.497878600495191 10.0 0.0 9.0 
410.00040553626064 92.0 21.0 423.38114059853194 0.497878600495191 10.0 0.0 9.0 
420.00040553626064 94.0 22.0 423.38114059853194 0.4976570359280306 10.0 0.0 9.0 
430.00040553626064 90.0 21.0 423.38114059853194 0.4983353708866999 10.0 0.0 9.0 
440.00040553626064 90.0 21.0 423.38114059853194 0.4983353708866999 10.0 0.0 9.0 
450.00040553626064 88.0 20.0 423.38114059853194 0.4986176367801871 10.0 0.0 9.0 
460.00040553626064 88.0 20.0 423.38114059853194 0.4986176367801871 10.0 0.0 9.0 
470.00040553626064 88.0 20.0 423.38114059853194 0.4986176367801871 10.0 0.0 9.0 
480.00040553626064 90.0 21.0 423.38114059853194 0.4983353708866999 10.0 0.0 9.0 
490.00040553626064 90.0 21.0 423.38114059853194 0.6769067994581285 10.0 0.0 9.0 
500.00040553626064 88.0 20.0 423.38114059853194 0.4986176367801871 10.0 0.0 9.0 
510.00040553626064 88.0 20.0 423.38114059853194 0.4986176367801871 10.0 0.0 9.0 
520.0004055362606 88.0 20.0 423.38114059853194 0.498617636780165 10.0 0.0 9.0 
530.0004055362606 88.0 20.0 423.38114059853194 0.498617636780165 10.0 0.0 9.0 
540.0004055362606 92.0 20.0 423.38114059853194 0.5011469275613377 10.0 0.0 9.0 
550.0004055362606 92.0 20.0 423.38114059853194 0.5011469275613377 10.0 0.0 9.0 
560.0004055362606 92.0 20.0 423.38114059853194 0.5011469275613377 10.0 0.0 9.0 
570.0004055362606 92.0 20.0 423.38114059853194 0.5011469275613377 10.0 0.0 9.0 
580.0004055362606 92.0 20.0 423.38114059853194 0.5011469275613377 10.0 0.0 9.0 
590.0004055362606 92.0 20.0 423.38114059853194 0.5011469275613377 10.0 0.0 9.0 
600.0004055362606 94.0 21.0 423.38114059853194 0.5006839980406214 10.0 0.0 9.0 
610.0004055362606 94.0 21.0 423.38114059853194 0.5006839980406214 10.0 0.0 9.0 
620.0004055362606 94.0 21.0 423.38114059853194 0.5006839980406214 10.0 0.0 9.0 
630.0004055362606 96.0 22.0 423.38114059853194 0.5002827924560005 10.0 0.0 9.0 
640.0004055362606 96.0 22.0 423.38114059853194 0.7336161257893339 10.0 0.0 9.0 
650.0004055362606 94.0 21.0 423.38114059853194 0.7506839980406214 10.0 0.0 9.0 
660.0004055362606 92.0 20.0 423.38114059853194 0.5011469275613377 10.0 0.0 9.0 
#####################################################################
# End of data export. Simulation finished at: 2019-03-03T12:00+0000 #
#####################################################################
