#####################################################################
# Alchemist log file - simulation started at: 2019-03-11T13:17+0000 #
#####################################################################
# seed = 4.0, bandwidth = 5623413.251903491, accessPointCount = 10.0, baserange = 316.2277660168379
#
# The columns have the following meaning: 
# time neighbor_count[Sum] <value>@neighbor_count[Sum] packet_size[Mean] mean_delay[Mean] crowd[Sum] overcrowded[Sum] risk[Sum] 
0.0 NaN NaN NaN NaN NaN NaN NaN 
2.0004793365590676 534.0 90.0 4988.026542800266 0.39905084372876054 1497.0 0.0 1497.0 
4.00042902272939 1008.0 90.0 4988.422030524221 0.4475376579734938 1497.0 0.0 1497.0 
6.000479336559067 1520.0 90.0 4988.581287325813 0.4998006230474877 1497.0 0.0 1497.0 
8.000479336559067 1844.0 90.0 4988.71400132714 0.4980474008390671 1497.0 0.0 1497.0 
10.000479336559067 2039.0 90.0 4988.671532846715 0.5028676547606808 1497.0 0.0 1497.0 
12.000479336559067 2078.0 90.0 4988.6317186463175 0.5032423454713322 1496.0 1.0 1496.0 
14.00042902272939 2078.0 90.0 4988.578633045787 0.5032459456310017 1496.0 1.0 1496.0 
16.000479336559067 2078.0 90.0 4988.629064366291 0.5032450659515032 1496.0 1.0 1496.0 
18.000479336559067 2078.0 90.0 4988.6343729263435 0.5032436530416905 1497.0 0.0 1497.0 
20.000479336559067 2078.0 90.0 4988.623755806238 0.5032442840450161 1497.0 0.0 1497.0 
22.000479336559067 2078.0 90.0 4988.666224286662 0.5032415714647044 1497.0 0.0 1497.0 
24.000429022729392 2078.0 90.0 4988.6449900464495 0.5032450219084221 1497.0 0.0 1497.0 
26.000479336559067 2078.0 90.0 4988.6449900464495 0.5032450231266447 1496.0 1.0 1496.0 
28.000479336559067 2078.0 90.0 4988.623755806238 0.5032453521801143 1496.0 1.0 1496.0 
30.000479336559067 2078.0 90.0 4988.602521566026 0.5032441212427394 1496.0 1.0 1496.0 
32.00047933655907 2078.0 90.0 4988.629064366291 0.5032408502526802 1497.0 0.0 1497.0 
34.00042902272939 2078.0 90.0 4988.6370272063705 0.5032434503034312 1497.0 0.0 1497.0 
36.00047933655907 2080.0 90.0 4988.660915726609 0.5032280846599124 1497.0 0.0 1497.0 
38.00047933655907 2080.0 90.0 4988.6423357664235 0.5032281417524299 1497.0 0.0 1497.0 
40.00047933655907 2080.0 90.0 4988.621101526211 0.5032299131957503 1496.0 1.0 1496.0 
42.00047933655907 2080.0 90.0 4988.6396814863965 0.5032262931696753 1496.0 1.0 1496.0 
44.00042902272939 2081.0 90.0 4988.6343729263435 0.503087249553894 1496.0 1.0 1496.0 
46.00047933655907 2082.0 90.0 4988.652952886529 0.5031971871829608 1496.0 1.0 1496.0 
48.00047933655907 2082.0 90.0 4988.6396814863965 0.5031993599360658 1496.0 1.0 1496.0 
50.00047933655907 2082.0 90.0 4988.615792966158 0.5031972716104984 1497.0 0.0 1497.0 
52.00047933655907 2082.0 90.0 4988.650298606503 0.5031935275316065 1497.0 0.0 1497.0 
54.00042902272939 2084.0 90.0 4988.668878566688 0.5127069821082896 1497.0 0.0 1497.0 
56.00047933655907 2059.0 90.0 4988.690112806901 0.5472948086786449 1497.0 0.0 1497.0 
58.00047933655907 2030.0 89.0 4988.668878566688 0.5029534087745036 1497.0 0.0 1497.0 
60.00047933655907 2030.0 89.0 4985.605839416058 0.5033283708472729 1495.0 1.0 1495.0 
62.000041783208744 2029.0 89.0 546.7020570670202 0.5049326028401482 79.0 1.0 47.0 
64.00004178320874 2029.0 89.0 546.6648971466486 0.5045839099305087 71.0 2.0 46.0 
66.00004178320874 2030.0 89.0 546.6436629064364 0.5046558822720648 66.0 2.0 46.0 
68.00004178320874 2030.0 89.0 546.6808228268078 0.5046558869392128 63.0 2.0 46.0 
70.00004178320874 2030.0 89.0 546.6622428666218 0.5125110715476784 62.0 3.0 45.0 
72.00004178320874 2008.0 89.0 546.6834771068347 0.548422504514985 61.0 4.0 44.0 
74.00004178320874 1976.0 88.0 546.6144658261451 0.5043252955211507 62.0 3.0 45.0 
76.00004178320874 1976.0 88.0 546.6675514266756 0.5043237906388875 62.0 3.0 45.0 
78.00004178320874 1976.0 88.0 546.6330457863312 0.5043241707466707 61.0 3.0 45.0 
80.00004178320874 1976.0 88.0 549.6960849369606 0.504075507820346 62.0 3.0 46.0 
82.00004178320874 1976.0 88.0 549.688122096881 0.504072054312624 60.0 3.0 46.0 
84.00004178320874 1976.0 88.0 549.7226277372272 0.5040727175556876 60.0 3.0 46.0 
86.00004178320874 1976.0 88.0 549.6509621765094 0.5040752781597295 60.0 3.0 46.0 
88.00004178320874 1976.0 88.0 549.7093563370928 0.5040735756479389 60.0 3.0 46.0 
90.00004178320874 1976.0 88.0 549.7146648971468 0.5054856963620037 58.0 5.0 44.0 
92.00004178320874 1974.0 88.0 549.7067020570662 0.5040962021237945 61.0 2.0 47.0 
94.00004178320874 1974.0 88.0 549.6854678168557 0.5040965986031543 61.0 2.0 47.0 
96.00004178320874 1974.0 88.0 549.7650962176507 0.5055498313458083 58.0 5.0 44.0 
98.00004178320874 1972.0 88.0 549.661579296616 0.5041013739619598 61.0 2.0 47.0 
100.00004178320874 2024.0 89.0 552.7909754479089 0.5053160067253091 62.0 2.0 48.0 
102.00004178320874 2022.0 89.0 552.7962840079623 0.5041178852865651 59.0 5.0 45.0 
104.00004178320874 2022.0 89.0 552.7113470471137 0.5041195600054108 62.0 2.0 48.0 
106.00004178320874 2022.0 89.0 552.7644326476448 0.5041180300625324 62.0 2.0 48.0 
108.00004178320874 2086.0 90.0 552.7830126078301 0.5043242804347607 58.0 6.0 44.0 
110.00004178320874 2086.0 90.0 555.798274717983 0.5063764694546329 62.0 2.0 49.0 
112.00004178320874 2082.0 90.0 555.8168546781691 0.5042393019411969 62.0 2.0 49.0 
114.00004178320874 2082.0 90.0 552.7856668878569 0.5044584843661856 59.0 5.0 45.0 
116.00004178320874 2082.0 90.0 549.7252820172524 0.5044647060476241 60.0 2.0 47.0 
118.00004178320874 2086.0 90.0 558.9143994691447 0.5066621623257256 63.0 0.0 52.0 
120.00004178320874 2088.0 90.0 558.9462508294625 0.5330341429235909 63.0 0.0 52.0 
122.00004178320874 2038.0 89.0 558.8613138686137 0.504109358225212 62.0 1.0 51.0 
124.00004178320874 2038.0 89.0 558.9568679495687 0.5041065267197253 63.0 0.0 52.0 
126.00004178320874 2038.0 89.0 558.9170537491702 0.5360134086558987 63.0 0.0 52.0 
128.00004178320876 1986.0 88.0 558.8852023888523 0.5071402246094959 63.0 0.0 52.0 
130.00004178320876 1982.0 88.0 558.901128069012 0.504877432635411 63.0 0.0 52.0 
132.00004178320876 1982.0 88.0 555.8487060384873 0.5048811239997794 62.0 0.0 51.0 
134.00004178320876 1982.0 88.0 555.8513603185141 0.5048790853862956 62.0 0.0 51.0 
136.00004178320876 1982.0 88.0 555.8433974784334 0.5048786675794765 62.0 0.0 51.0 
138.00004178320876 1982.0 88.0 555.8354346383547 0.5048808776948993 62.0 0.0 51.0 
140.00004178320876 1982.0 88.0 555.8593231585929 0.5093786197991664 62.0 0.0 51.0 
142.00004178320876 1972.0 88.0 555.832780358328 0.504722768665003 61.0 0.0 51.0 
144.00004178320876 1972.0 88.0 555.8168546781693 0.5047282828160852 61.0 0.0 51.0 
146.00004178320876 1972.0 88.0 555.8115461181158 0.5047230282486105 61.0 0.0 51.0 
148.00004178320876 1972.0 88.0 555.8380889183798 0.5320041045771785 61.0 0.0 51.0 
150.00004178320876 1922.0 87.0 555.8540145985409 0.5285004180441262 61.0 0.0 51.0 
152.00004178320876 1882.0 86.0 555.8407431984067 0.5051163925130774 61.0 0.0 51.0 
154.00004178320876 1882.0 86.0 555.8115461181158 0.5051167899746118 61.0 0.0 51.0 
156.00004178320876 1882.0 86.0 555.8168546781693 0.5051206724979407 61.0 0.0 51.0 
158.00004178320876 1882.0 86.0 555.8407431984067 0.5051138136717737 61.0 0.0 51.0 
160.00004178320876 1882.0 86.0 555.832780358328 0.5051171566957171 61.0 0.0 51.0 
162.00004178320876 1882.0 86.0 555.7823490378229 0.5377673358028925 61.0 0.0 51.0 
164.00004178320876 1838.0 85.0 555.8115461181158 0.5057962713604472 61.0 0.0 51.0 
166.00004178320876 1838.0 85.0 555.8115461181158 0.5057985150445699 61.0 0.0 51.0 
168.00004178320876 1838.0 85.0 555.7637690776369 0.5065311972599199 61.0 0.0 51.0 
170.00004178320876 1837.0 85.0 555.8274717982748 0.5070850360254976 61.0 0.0 51.0 
172.00004178320876 1836.0 85.0 555.7664233576635 0.5059847125204334 61.0 0.0 51.0 
174.00004178320876 1836.0 85.0 555.8009289980084 0.5059836484421726 61.0 0.0 51.0 
176.00004178320876 1836.0 85.0 555.7451891174516 0.5059854832866117 61.0 0.0 51.0 
178.00004178320876 1836.0 85.0 555.7717319177174 0.5059836397481259 61.0 0.0 51.0 
180.00004178320876 1884.0 86.0 555.7637690776369 0.505843134680737 61.0 0.0 51.0 
182.00004178320876 1884.0 86.0 555.7982747179832 0.5055114896267053 61.0 0.0 51.0 
184.00004178320876 1884.0 86.0 552.7246184472463 0.5055152694219303 60.0 0.0 50.0 
186.00004178320876 1924.0 87.0 552.7670869276715 0.5064927986370426 61.0 0.0 50.0 
188.00004178320876 1962.0 88.0 549.6801592568022 0.5053543660500635 60.0 1.0 48.0 
190.00004178320876 1964.0 88.0 549.6907763769076 0.5337670560342019 60.0 1.0 48.0 
192.00004178320876 1916.0 87.0 549.661579296616 0.5047156865898613 61.0 0.0 49.0 
194.00004178320876 1920.0 88.0 549.6934306569344 0.5042948590127824 61.0 0.0 49.0 
196.00004178320876 1924.0 88.0 549.6376907763768 0.5068117802804597 61.0 0.0 49.0 
198.00004178320876 1926.0 88.0 546.6197743861967 0.5045949069772208 61.0 0.0 48.0 
200.00004178320876 1926.0 88.0 546.6144658261452 0.504593165110458 61.0 0.0 48.0 
202.00004178320876 1926.0 88.0 546.6489714664898 0.506517974671073 61.0 0.0 48.0 
204.00004178320876 1924.0 88.0 546.6489714664898 0.5047931046645193 61.0 0.0 48.0 
206.00004178320876 1924.0 88.0 546.6436629064361 0.50479488104262 61.0 0.0 48.0 
208.00004178320876 1924.0 88.0 546.5985401459864 0.5047948666194909 61.0 0.0 48.0 
210.00004178320876 1924.0 88.0 543.6151293961507 0.504793436938205 60.0 0.0 47.0 
212.00004178320876 1924.0 88.0 543.5700066357009 0.5047942211356506 60.0 0.0 47.0 
214.00004178320876 1924.0 88.0 543.6071665560723 0.5047927412801054 60.0 0.0 47.0 
216.00004178320876 1924.0 88.0 543.5514266755151 0.5047942843113276 60.0 0.0 47.0 
218.00004178320876 1928.0 88.0 543.6496350364956 0.5048137841139066 59.0 0.0 47.0 
220.00004178320876 1928.0 88.0 543.5301924353025 0.5048188108175389 59.0 0.0 47.0 
222.00004178320876 1928.0 88.0 543.6151293961507 0.5378509436826455 59.0 0.0 47.0 
224.00004178320876 1880.0 87.0 540.5335102853351 0.5055356051388168 57.0 1.0 45.0 
226.00004178320876 1880.0 87.0 540.5228931652297 0.5055379205320549 59.0 0.0 46.0 
228.00004178320876 1884.0 87.0 540.549435965494 0.5054930204103238 60.0 0.0 46.0 
230.00004178320876 1884.0 87.0 540.549435965494 0.50549274723873 60.0 0.0 46.0 
232.00004178320876 1884.0 87.0 540.4910418049099 0.5087944898586055 60.0 0.0 46.0 
234.00004178320876 1880.0 87.0 540.552090245521 0.5062005865516894 60.0 0.0 46.0 
236.00004178320876 1891.0 87.0 540.4910418049099 0.5002359470657154 60.0 0.0 46.0 
238.00004178320876 1912.0 89.0 540.552090245521 0.5044695530332152 60.0 0.0 46.0 
240.00004178320876 1915.0 89.0 540.504313205044 0.5044494838705129 60.0 0.0 46.0 
242.00004178320876 1933.0 89.0 540.5441274054406 0.5329311792076074 61.0 0.0 46.0 
244.00004178320876 1918.0 89.0 543.5726609157258 0.5083765022818816 61.0 0.0 47.0 
246.00004178320876 1911.0 89.0 543.5779694757794 0.5088195594184807 61.0 0.0 47.0 
248.00004178320876 1920.0 89.0 543.5700066357008 0.505385043508175 61.0 0.0 47.0 
250.00004178320876 1920.0 89.0 543.5726609157258 0.5053856602931877 61.0 0.0 47.0 
252.00004178320876 1920.0 89.0 540.536164565362 0.5053874241151683 60.0 0.0 46.0 
254.00004178320876 1920.0 89.0 537.4518911745195 0.5190247113856934 60.0 0.0 45.0 
256.00004178320876 1885.0 89.0 537.5076310550767 0.564533129654896 61.0 0.0 45.0 
258.00004178320876 1828.0 87.0 537.4917053749175 0.5059326507436628 59.0 0.0 45.0 
260.00004178320876 1828.0 87.0 537.4890510948909 0.5059299872027618 59.0 0.0 45.0 
262.00004178320876 1828.0 87.0 537.4837425348371 0.5059311473841228 59.0 0.0 45.0 
264.00004178320876 1828.0 87.0 537.5262110152624 0.5059282178386739 59.0 0.0 45.0 
266.00004178320876 1830.0 87.0 537.4704711347051 0.5059067933280982 58.0 0.0 45.0 
268.00004178320876 1832.0 87.0 537.4731254147317 0.5138397402221843 58.0 0.0 45.0 
270.00004178320876 1824.0 87.0 537.459854014598 0.5061738291056278 58.0 0.0 45.0 
272.00004178320876 1824.0 87.0 537.5262110152624 0.506171781406371 58.0 0.0 45.0 
274.00004178320876 1850.0 88.0 537.4253483742531 0.5070186885567752 58.0 0.0 45.0 
276.00004178320876 1850.0 88.0 537.4890510948909 0.5134492112722596 58.0 0.0 45.0 
278.00004178320876 1837.0 88.0 537.4492368944926 0.5500645289299284 58.0 0.0 45.0 
280.00004178320876 1808.0 87.0 537.5102853351032 0.5073551276048106 59.0 0.0 45.0 
282.00004178320876 1808.0 87.0 534.3676177836765 0.5073596870892509 58.0 0.0 44.0 
284.00004178320876 1860.0 88.0 531.3974784339754 0.5070141330795798 58.0 0.0 43.0 
286.00004178320876 1860.0 88.0 531.392169873922 0.5069886595082175 58.0 0.0 43.0 
288.00004178320876 1860.0 88.0 531.3735899137363 0.5069902752066651 58.0 0.0 43.0 
290.00004178320876 1860.0 88.0 528.3078964830794 0.5069938879896443 57.0 0.0 42.0 
292.00004178320876 1860.0 88.0 528.3344392833436 0.5069919881167727 57.0 0.0 42.0 
294.00004178320876 1864.0 88.0 528.3344392833436 0.5070729211461084 57.0 0.0 42.0 
296.00004178320876 1867.0 88.0 528.3530192435294 0.5048992721318974 57.0 0.0 42.0 
298.00004178320876 1870.0 89.0 528.3025879230255 0.5069960455025593 57.0 0.0 42.0 
300.00004178320876 1870.0 89.0 528.3264764432652 0.5080591500905647 57.0 0.0 42.0 
302.00004178320876 1916.0 90.0 531.3842070338414 0.5089073634323691 57.0 0.0 43.0 
304.00004178320876 1918.0 90.0 531.3948241539488 0.5050327536294433 57.0 0.0 43.0 
306.00004178320876 1922.0 91.0 531.3151957531521 0.5353891477672873 57.0 0.0 43.0 
308.00004178320876 1874.0 90.0 531.3762441937631 0.5064966029398121 57.0 0.0 43.0 
310.00004178320876 1874.0 90.0 531.3550099535505 0.5075956111167487 57.0 0.0 43.0 
312.00004178320876 1874.0 90.0 531.4054412740538 0.5066636001849647 57.0 0.0 43.0 
314.00004178320876 1880.0 90.0 531.3364299933647 0.5098544106671788 57.0 0.0 43.0 
316.00004178320876 1874.0 90.0 531.392169873922 0.5444061599114985 57.0 0.0 43.0 
318.00004178320876 1836.0 89.0 531.3656270736557 0.5219635858757806 57.0 0.0 43.0 
320.00004178320876 1811.0 90.0 531.3948241539488 0.5334166604692677 57.0 0.0 43.0 
322.00004178320876 1810.0 90.0 531.3390842733913 0.5038095643433147 57.0 0.0 43.0 
324.00004178320876 1816.0 90.0 531.3603185136039 0.5068140636321548 57.0 0.0 43.0 
326.00004178320876 1814.0 90.0 531.3682813536824 0.5103923449867254 57.0 0.0 43.0 
328.00004178320876 1811.0 90.0 531.3762441937631 0.5164177813196926 56.0 0.0 43.0 
330.00004178320876 1808.0 90.0 531.3231585932325 0.505084808564204 56.0 0.0 43.0 
332.00004178320876 1808.0 90.0 531.4001327140023 0.50508360535839 56.0 0.0 43.0 
334.00004178320876 1808.0 90.0 531.3868613138682 0.5050805782042459 57.0 0.0 43.0 
336.00004178320876 1808.0 90.0 531.4001327140023 0.510237905132927 57.0 0.0 43.0 
338.00004178320876 1806.0 90.0 531.3576642335771 0.5194617721418773 57.0 0.0 43.0 
340.00004178320876 1815.0 91.0 531.3762441937631 0.4967910890108001 57.0 0.0 43.0 
342.00004178320876 1844.0 93.0 534.4472461844734 0.5045757216181526 58.0 0.0 44.0 
344.00000919370194 1843.0 93.0 534.4392833443931 0.5314260002243429 60.0 0.0 44.0 
346.00004178320876 1800.0 92.0 534.4047777040485 0.510700858478006 59.0 0.0 44.0 
348.00004178320876 1798.0 92.0 534.4127405441268 0.5521227751273892 59.0 0.0 44.0 
350.00004178320876 1780.0 91.0 534.4472461844734 0.5049032830887783 58.0 0.0 44.0 
352.00004178320876 1786.0 91.0 534.4100862641 0.5047151491641744 60.0 0.0 44.0 
354.00004178320876 1820.0 93.0 534.3915063039142 0.5075115833405993 60.0 0.0 44.0 
356.00004178320876 1839.0 94.0 549.7146648971468 0.5108261975332739 64.0 0.0 49.0 
358.00004178320876 1836.0 94.0 549.7226277372273 0.5072265484494675 61.0 0.0 49.0 
360.00004178320876 1832.0 94.0 549.6668878566677 0.5277353629580941 62.0 0.0 49.0 
362.00004178320876 1801.0 94.0 549.6801592568022 0.5626346644328437 64.0 0.0 49.0 
364.00004178320876 1777.0 93.0 549.7067020570661 0.5114689291832561 63.0 0.0 49.0 
366.00004178320876 1777.0 93.0 546.6648971466486 0.5160367125267514 62.0 0.0 48.0 
368.00004178320876 1772.0 93.0 546.6118115461179 0.5202582837010438 62.0 0.0 48.0 
370.00004178320876 1748.0 93.0 546.6065029860654 0.5257821168011451 63.0 0.0 48.0 
372.00004178320876 1717.0 93.0 546.6224286662236 0.5451216427596371 63.0 0.0 48.0 
374.00004178320876 1691.0 92.0 546.6224286662236 0.5101134409001948 62.0 0.0 48.0 
376.00004178320876 1744.0 94.0 546.6861313868608 0.5113754138266029 63.0 0.0 48.0 
378.00004178320876 1742.0 94.0 546.5852687458521 0.5287032060839537 63.0 0.0 48.0 
380.00004178320876 1716.0 93.0 543.5567352355672 0.5473100336184866 63.0 0.0 47.0 
382.00004178320876 1658.0 92.0 543.5408095554078 0.6266348423248609 62.0 0.0 47.0 
384.00004178320876 1575.0 89.0 543.5700066357006 0.5128264524224855 61.0 0.0 47.0 
386.00004178320876 1612.0 91.0 543.5116124751169 0.5063231638742185 62.0 0.0 47.0 
388.00004178320876 1610.0 91.0 543.5248838752486 0.5029523121535134 62.0 0.0 47.0 
390.00004178320876 1614.0 91.0 546.5932315859327 0.5156854525499771 62.0 0.0 48.0 
392.00004178320876 1606.0 91.0 543.6177836761776 0.562835019384172 60.0 0.0 47.0 
394.00004178320876 1590.0 89.0 543.5620437956201 0.5111968961744964 59.0 0.0 47.0 
396.00004178320876 1590.0 89.0 546.6091572660921 0.5137138556277473 60.0 0.0 48.0 
398.00004178320876 1588.0 88.0 546.6330457863311 0.5030721072063371 60.0 0.0 48.0 
400.00004178320876 1588.0 88.0 546.6542800265429 0.5424950456553427 60.0 0.0 48.0 
402.00004178320876 1552.0 86.0 546.6224286662236 0.5040870704423999 60.0 0.0 48.0 
404.00004178320876 1552.0 86.0 543.5355009953543 0.5040861948510572 59.0 0.0 47.0 
406.00004178320876 1554.0 86.0 543.607166556072 0.5072219026425236 59.0 0.0 47.0 
408.00004178320876 1566.0 86.0 543.6018579960185 0.5019475633897891 59.0 0.0 47.0 
410.00004178320876 1578.0 87.0 543.5487723954884 0.5076916121281636 60.0 0.0 47.0 
412.00004178320876 1576.0 87.0 543.5700066357006 0.5055524472711084 60.0 0.0 47.0 
414.00004178320876 1576.0 87.0 546.6038487060385 0.5053861830921587 60.0 0.0 48.0 
416.00004178320876 1578.0 87.0 546.6011944260117 0.5128960531668755 61.0 0.0 48.0 
418.00004178320876 1595.0 89.0 546.5242203052419 0.5044461033737739 61.0 0.0 48.0 
420.00004178320876 1603.0 89.0 543.490378234904 0.5029001001728847 61.0 0.0 47.0 
422.00004178320876 1610.0 90.0 540.461844724619 0.5057673758982847 60.0 0.0 46.0 
424.00004178320876 1609.0 90.0 540.4565361645653 0.5149482761917844 60.0 0.0 46.0 
426.00004178320876 1606.0 90.0 540.4193762441939 0.5270928757213651 60.0 0.0 46.0 
428.00004178320876 1600.0 89.0 540.4167219641669 0.5050439773980288 60.0 0.0 46.0 
430.00004178320876 1602.0 89.0 537.4226940942265 0.5092805032859734 59.0 0.0 45.0 
432.00004178320876 1600.0 89.0 534.3755806237554 0.5134075416328691 58.0 0.0 44.0 
434.00004178320876 1595.0 89.0 534.3516921035177 0.5288813403521768 58.0 0.0 44.0 
436.00004178320876 1586.0 89.0 534.407431984075 0.5443700145564804 59.0 0.0 44.0 
438.00004178320876 1575.0 88.0 534.3623092236232 0.5411442680689242 59.0 0.0 44.0 
440.00004178320876 1585.0 87.0 537.4465826144656 0.50752802928238 60.0 0.0 45.0 
442.00004178320876 1607.0 88.0 531.3125414731252 0.5118075557192189 58.0 0.0 43.0 
444.00004178320876 1603.0 88.0 531.376244193763 0.5212807984585639 58.0 0.0 43.0 
446.00004178320876 1641.0 89.0 534.4047777040483 0.5297342326213191 59.0 0.0 44.0 
448.00004178320876 1655.0 90.0 531.392169873922 0.5011152387093752 59.0 0.0 43.0 
450.00004178320876 1666.0 90.0 531.3337757133378 0.5248930823700555 59.0 0.0 43.0 
452.00004178320876 1665.0 90.0 531.3417385534182 0.5181744386700456 59.0 0.0 43.0 
454.00004178320876 1659.0 90.0 531.360318513604 0.5234300911350549 59.0 0.0 43.0 
456.00004178320876 1651.0 90.0 531.392169873922 0.504010459692768 58.0 0.0 43.0 
458.00004178320876 1654.0 90.0 534.4127405441269 0.504273615186328 59.0 0.0 44.0 
460.00004178320876 1656.0 90.0 534.455209024552 0.5164536748716172 58.0 0.0 44.0 
462.00004178320876 1651.0 89.0 531.3390842733913 0.5417617731041855 57.0 0.0 43.0 
464.00004178320876 1644.0 89.0 531.3497013934966 0.539776688479138 57.0 0.0 43.0 
466.00004178320876 1638.0 88.0 528.2495023224952 0.5073608142806529 58.0 0.0 42.0 
468.00004178320876 1636.0 88.0 528.268082282681 0.5041777112238924 59.0 0.0 42.0 
470.00004178320876 1644.0 88.0 528.2521566025222 0.501775444167906 58.0 0.0 42.0 
472.00004178320876 1650.0 89.0 528.2840079628398 0.503782781568622 58.0 0.0 42.0 
474.00004178320876 1650.0 89.0 528.2149966821505 0.5082037689201362 57.0 0.0 42.0 
476.00004178320876 1648.0 89.0 525.22096881221 0.5043601265805783 56.0 0.0 41.0 
478.00004178320876 1648.0 89.0 525.2023888520242 0.5092313890813895 56.0 0.0 41.0 
480.00004178320876 1688.0 90.0 528.2733908427346 0.5062456390807871 57.0 0.0 42.0 
482.00004178320876 1689.0 90.0 528.2654280026541 0.5177305065300475 57.0 0.0 42.0 
484.00004178320876 1671.0 90.0 528.2866622428668 0.5669063562581352 56.0 0.0 42.0 
486.00004178320876 1638.0 88.0 525.250165892501 0.5116013541884746 55.0 0.0 41.0 
488.00004178320876 1636.0 88.0 525.2262773722634 0.5206958045056805 55.0 0.0 41.0 
490.00004178320876 1630.0 88.0 531.3231585932327 0.5032136431807942 58.0 0.0 43.0 
492.00004178320876 1632.0 88.0 534.3941605839408 0.5044543452861879 59.0 0.0 44.0 
494.00004178320876 1632.0 88.0 534.4021234240216 0.5044530298138763 59.0 0.0 44.0 
496.00004178320876 1632.0 88.0 534.3994691439946 0.5216468892502886 59.0 0.0 44.0 
498.00004178320876 1623.0 87.0 534.3543463835424 0.5189921735688635 59.0 0.0 44.0 
500.00004178320876 1622.0 87.0 534.4127405441267 0.5060840242356153 59.0 0.0 44.0 
502.00004178320876 1623.0 87.0 534.3516921035178 0.5081661682939052 59.0 0.0 44.0 
504.00004178320876 1622.0 87.0 534.4339747843392 0.5060575633764967 59.0 0.0 44.0 
506.00004178320876 1622.0 87.0 534.3437292634372 0.5060602083283487 59.0 0.0 44.0 
508.00004178320876 1622.0 87.0 534.3729263437284 0.5175840603562772 59.0 0.0 44.0 
510.00004178320876 1618.0 87.0 531.3231585932328 0.5163235336292598 58.0 0.0 43.0 
512.0000417832088 1612.0 87.0 531.3709356337093 0.5482912762827931 58.0 0.0 43.0 
514.0000417832086 1604.0 86.0 528.2282680822826 0.5067217127453477 58.0 0.0 42.0 
516.0000417832086 1604.0 86.0 528.3185136031844 0.5109606267745189 58.0 0.0 42.0 
518.0000417832086 1601.0 86.0 528.2760451227617 0.536414316104765 58.0 0.0 42.0 
520.0000417832086 1588.0 85.0 525.2979429329798 0.5080057494730046 57.0 0.0 41.0 
522.0000417832086 1587.0 85.0 525.2103516921026 0.5184381635960653 57.0 0.0 41.0 
524.0000417832086 1584.0 85.0 525.247511612474 0.5052695199380163 57.0 0.0 41.0 
526.0000417832086 1584.0 85.0 522.1844724618443 0.5070776000085776 56.0 0.0 40.0 
528.0000417832086 1583.0 85.0 522.2269409422692 0.5445282411925861 56.0 0.0 40.0 
530.0000417832086 1573.0 84.0 522.1871267418708 0.5129999558811532 55.0 0.0 40.0 
532.0000417832086 1577.0 85.0 522.2083609820834 0.5100868800116479 55.0 0.0 40.0 
534.0000417832086 1577.0 85.0 522.1420039814209 0.5073135341959447 55.0 0.0 40.0 
536.0000417832086 1580.0 85.0 522.2136695421373 0.5369661233059102 56.0 0.0 40.0 
538.0000417832086 1544.0 85.0 522.1287325812866 0.5069550889211533 56.0 0.0 40.0 
540.0000417832086 1544.0 85.0 522.1526211015262 0.5223170443931572 55.0 0.0 40.0 
542.0000417832086 1536.0 85.0 522.1393497013939 0.5247406309635708 55.0 0.0 40.0 
544.0000417832086 1551.0 84.0 519.1320504313211 0.5064196669558918 55.0 0.0 39.0 
546.0000417832086 1564.0 85.0 522.1552753815531 0.551294821886019 55.0 0.0 40.0 
548.0000417832086 1532.0 84.0 522.1101526211011 0.5333951921792051 55.0 0.0 40.0 
550.0000417832086 1530.0 83.0 522.1632382216321 0.5097625442570263 55.0 0.0 40.0 
552.0000417832086 1535.0 84.0 522.1552753815531 0.5721881335167915 55.0 0.0 40.0 
554.0000417832086 1494.0 82.0 522.1234240212345 0.5072943351374317 55.0 0.0 40.0 
556.0000417832086 1494.0 82.0 522.088918380889 0.5264066394858475 55.0 0.0 40.0 
558.0000417832086 1488.0 81.0 522.1234240212345 0.5065719657791304 55.0 0.0 40.0 
560.0000417832086 1488.0 81.0 516.0318513603187 0.5066168077542773 53.0 0.0 38.0 
562.0000417832086 1488.0 81.0 516.0822826808227 0.506625811781637 53.0 0.0 38.0 
564.0000417832086 1498.0 81.0 512.995355009954 0.5070222041210246 53.0 0.0 37.0 
566.0000417832086 1509.0 82.0 513.011280690113 0.5467105928452659 52.0 1.0 36.0 
568.0000417832086 1476.0 81.0 513.0086264100861 0.5052016149633989 53.0 0.0 37.0 
570.0000417832086 1476.0 81.0 509.8951559389516 0.5052131690798533 51.0 0.0 36.0 
572.0000417832086 1476.0 81.0 509.93231585932307 0.5052243594192322 51.0 0.0 36.0 
574.0000417832086 1482.0 81.0 513.0218978102191 0.5044958669464245 52.0 0.0 37.0 
576.0000417832086 1488.0 81.0 516.1088254810885 0.5054454902152656 52.0 0.0 38.0 
578.0000417832086 1496.0 82.0 516.0318513603187 0.512729723167742 52.0 0.0 38.0 
580.0000417832086 1494.0 81.0 516.0424684804251 0.5389469379017707 52.0 0.0 38.0 
582.0000417832086 1492.0 81.0 516.0424684804251 0.5047361769444154 52.0 0.0 38.0 
584.0000417832086 1492.0 81.0 516.0424684804251 0.5054049811462861 52.0 0.0 38.0 
586.0000417832086 1491.0 81.0 516.0318513603187 0.5071404898466318 52.0 0.0 38.0 
588.0000417832086 1490.0 81.0 516.0716655607162 0.5048138342549573 52.0 0.0 38.0 
590.0000417832086 1495.0 81.0 516.0371599203714 0.5027349280853213 52.0 0.0 38.0 
592.0000417832086 1498.0 82.0 516.0982083609823 0.5043112960054664 51.0 1.0 37.0 
594.0000417832086 1498.0 82.0 516.0185799601857 0.5220719262334192 52.0 0.0 38.0 
596.0000417832086 1481.0 81.0 516.0424684804249 0.5802856485551219 55.0 0.0 38.0 
598.0000417832086 1464.0 80.0 509.9243530192436 0.5060285742500084 54.0 1.0 35.0 
600.0000417832086 1464.0 80.0 509.93231585932307 0.5214398251133827 54.0 0.0 36.0 
602.0000417832086 1456.0 80.0 509.8659588586595 0.5264175816176071 54.0 0.0 36.0 
604.0000417832086 1452.0 79.0 509.9137358991373 0.5150764507034 54.0 0.0 36.0 
606.0000417832086 1445.0 79.0 506.90909090909093 0.5086315283913607 53.0 0.0 35.0 
608.0000417832086 1444.0 79.0 506.8719309887193 0.5059629763895275 53.0 0.0 35.0 
610.0000417832086 1444.0 79.0 506.8427339084274 0.5381803797069196 53.0 0.0 35.0 
612.0000417832086 1416.0 78.0 503.8168546781684 0.5142180127566256 52.0 0.0 34.0 
614.0000417832086 1418.0 79.0 497.71731917717324 0.5050641312506206 51.0 0.0 32.0 
616.0000417832086 1418.0 79.0 497.71997345719967 0.5050671647304907 51.0 0.0 32.0 
618.0000417832086 1418.0 79.0 497.68812209688144 0.5050676791458214 51.0 0.0 32.0 
620.0000417832086 1418.0 79.0 497.6907763769076 0.5054379552474699 51.0 0.0 32.0 
622.0000417832086 1516.0 81.0 500.806901128069 0.5059901037029173 51.0 1.0 32.0 
624.0000417832086 1516.0 81.0 500.74585268745864 0.5307235516474658 53.0 0.0 33.0 
626.0000417832086 1512.0 80.0 500.72727272727286 0.506412115869609 53.0 0.0 33.0 
628.0000417832086 1515.0 81.0 500.7193098871929 0.5026293313688888 53.0 0.0 33.0 
630.0000417832086 1518.0 81.0 503.8168546781684 0.5133391761540854 53.0 0.0 34.0 
632.0000417832086 1526.0 81.0 506.8745852687457 0.5643123346703608 53.0 0.0 35.0 
634.0000417832086 1504.0 80.0 506.84538818845374 0.5181712995504049 53.0 0.0 35.0 
636.0000417832086 1491.0 80.0 506.8533510285334 0.570692198913487 53.0 0.0 35.0 
638.0000417832086 1461.0 79.0 506.8560053085599 0.5427904705462537 53.0 0.0 35.0 
640.0000417832086 1457.0 79.0 506.84538818845374 0.5056145806536813 53.0 0.0 35.0 
642.0000417832086 1468.0 79.0 506.8188453881884 0.5189137328988627 53.0 0.0 35.0 
644.0000417832086 1472.0 79.0 503.78765759787655 0.5071642343150059 52.0 0.0 34.0 
646.0000417832086 1472.0 79.0 503.81685467816845 0.5071632082463293 52.0 0.0 34.0 
648.0000417832086 1473.0 79.0 500.7723954877239 0.5066463732049565 51.0 0.0 33.0 
650.0000417832086 1476.0 79.0 497.6907763769075 0.5035616508428544 51.0 0.0 32.0 
652.0000417832086 1478.0 80.0 497.71731917717335 0.5340010494558813 51.0 0.0 32.0 
654.0000417832086 1472.0 79.0 497.71997345719984 0.5043780510187506 51.0 0.0 32.0 
656.0000417832086 1472.0 79.0 491.6310550763104 0.5044533696088448 50.0 0.0 30.0 
658.0000417832086 1472.0 79.0 491.63636363636346 0.5159894578750792 50.0 0.0 30.0 
660.0000417832086 1469.0 79.0 491.5885865958861 0.514073621040133 50.0 0.0 30.0 
662.0000417832086 1472.0 79.0 491.6098208360978 0.5057740477109935 48.0 0.0 30.0 
664.0000417832086 1472.0 79.0 494.65693430656967 0.505661251055841 49.0 0.0 31.0 
#####################################################################
# End of data export. Simulation finished at: 2019-03-11T13:24+0000 #
#####################################################################
