#####################################################################
# Alchemist log file - simulation started at: 2019-03-03T17:46+0000 #
#####################################################################
# seed = 0.0, bandwidth = 316227.76601683797, accessPointCount = 531.8295896944988, baserange = 562.341325190349
#
# The columns have the following meaning: 
# time neighbor_count[Sum] <value>@neighbor_count[Sum] packet_size[Mean] mean_delay[Mean] crowd[Sum] overcrowded[Sum] risk[Sum] 
0.0 NaN NaN NaN NaN NaN NaN NaN 
10.000405536260626 17071.0 4682.0 4987.558185404339 0.5981614111324871 1496.0 1.0 1496.0 
20.000405536260626 16280.0 4495.0 4988.211045364891 0.4979857033591542 1492.0 5.0 1492.0 
30.000405536260626 16238.0 4494.0 4988.201183431953 0.4959654793537899 1491.0 6.0 1491.0 
40.00040553626063 16222.0 4495.0 4988.258382642998 0.495273153626178 1491.0 6.0 1491.0 
50.00040553626063 16290.0 4496.0 4987.925049309664 0.49713302179653435 1491.0 6.0 1491.0 
60.00040553626063 16280.0 4499.0 4985.980276134122 0.4986206371642353 1490.0 6.0 1490.0 
70.00006235083339 16297.0 4497.0 1169.5779092702105 0.5023042608351338 465.0 13.0 326.0 
80.00006235083339 16284.0 4498.0 1176.335305719917 0.5028346406586726 441.0 24.0 318.0 
90.00006235083339 16366.0 4499.0 1180.786982248519 0.5035411931624744 441.0 18.0 326.0 
100.00006235083339 16342.0 4499.0 1187.4753451676454 0.5028977127051639 447.0 14.0 333.0 
110.00006235083339 16361.0 4499.0 1187.502958579885 0.5034785388134128 446.0 17.0 330.0 
120.00006235083339 16351.0 4500.0 1191.986193293889 0.5029385557339735 441.0 23.0 326.0 
130.0000623508334 16459.0 4501.0 1187.40631163708 0.5021417918826849 446.0 19.0 328.0 
140.0000623508334 16526.0 4500.0 1176.1735700197285 0.5011066226674247 445.0 22.0 320.0 
150.0000623508334 16579.0 4500.0 1167.0670611439832 0.5011115654245775 455.0 14.0 324.0 
160.0000623508334 16571.0 4502.0 1173.8895463510844 0.5049636466459837 455.0 17.0 324.0 
170.0000623508334 16540.0 4500.0 1173.8856015779056 0.5006725577839196 454.0 19.0 322.0 
180.0000623508334 16651.0 4503.0 1164.80473372781 0.5029692709575491 451.0 17.0 320.0 
190.0000623508334 16540.0 4502.0 1162.591715976338 0.5011625094524444 447.0 17.0 319.0 
200.0000623508334 16459.0 4504.0 1162.5522682445785 0.504146607506643 443.0 17.0 319.0 
210.00028331366755 16307.0 4503.0 1162.5069033530642 0.5021269437781746 446.0 14.0 322.0 
220.0000623508334 16274.0 4504.0 1160.2544378698228 0.5064985834712454 443.0 16.0 319.0 
230.0000623508334 16156.0 4500.0 1162.5463510848083 0.504194741777603 442.0 19.0 317.0 
240.0000623508334 16090.0 4498.0 1155.6942800789034 0.49969549656245316 437.0 18.0 315.0 
250.0000623508334 16114.0 4500.0 1155.6863905325529 0.5031569295807403 438.0 18.0 315.0 
260.0000623508334 16284.0 4501.0 1160.2130177514814 0.5020387611016992 435.0 18.0 317.0 
270.0000623508334 16394.0 4503.0 1162.479289940824 0.5026985922931086 438.0 15.0 321.0 
280.0000623508334 16344.0 4503.0 1166.9802761341277 0.5028273601341069 437.0 18.0 320.0 
290.0000623508334 16285.0 4503.0 1166.9881656804696 0.5015474649933354 435.0 18.0 320.0 
300.0000623508334 16238.0 4504.0 1169.2149901380626 0.5038534288190919 436.0 15.0 324.0 
310.0000623508334 16178.0 4504.0 1169.2820512820458 0.5012688049259945 433.0 18.0 321.0 
320.0000623508334 16262.0 4508.0 1171.5719921104487 0.5070447693624751 440.0 18.0 322.0 
330.0002833136676 16302.0 4508.0 1171.516765286004 0.5067579815383331 443.0 16.0 324.0 
340.0002833136676 16036.0 4503.0 1169.307692307695 0.502575171876406 441.0 19.0 320.0 
350.0002833136676 16060.0 4504.0 1153.3609467455665 0.5024849209785545 438.0 19.0 313.0 
360.0002833136676 16001.0 4504.0 1167.051282051274 0.5029857183006958 442.0 16.0 322.0 
370.0002833136676 15959.0 4502.0 1160.2998027613364 0.501118277551656 435.0 20.0 315.0 
380.0002833136676 15976.0 4503.0 1160.2051282051304 0.5039883195691888 435.0 19.0 316.0 
390.0002833136676 16050.0 4505.0 1160.1775147929072 0.5045015387503468 437.0 15.0 320.0 
400.0002833136676 16023.0 4503.0 1157.8875739645025 0.5023297800448695 436.0 17.0 317.0 
410.0002833136676 16167.0 4507.0 1157.8875739645025 0.5074484694260731 436.0 17.0 317.0 
420.0002833136676 16040.0 4505.0 1148.8027613412285 0.504254461271863 432.0 14.0 316.0 
430.0002833136676 16040.0 4505.0 1139.664694280083 0.5033907559195019 432.0 17.0 309.0 
440.0002833136676 16001.0 4506.0 1135.185404339258 0.5058637608859085 434.0 17.0 307.0 
450.0002833136676 15858.0 4504.0 1144.2406311637117 0.5043149843545822 449.0 14.0 314.0 
460.0002833136676 15832.0 4504.0 1142.029585798821 0.5031459319237094 443.0 17.0 310.0 
470.0002833136676 15784.0 4505.0 1128.390532544371 0.5012843141353471 431.0 17.0 304.0 
480.0002833136676 15778.0 4506.0 1132.9309664694351 0.5006491171577129 434.0 14.0 309.0 
490.0002833136676 15896.0 4509.0 1128.4536489151917 0.5060145085688602 430.0 17.0 304.0 
500.0002833136676 15973.0 4507.0 1126.1538461538391 0.5033870828558077 429.0 17.0 303.0 
510.0002833136676 16023.0 4509.0 1126.126232741616 0.506875913390793 437.0 14.0 306.0 
520.0002833136675 15912.0 4508.0 1108.0690335305653 0.5038587601047778 432.0 17.0 295.0 
530.0002833136675 15848.0 4504.0 1105.6745562130138 0.5005559874090898 429.0 18.0 293.0 
540.0002833136675 15866.0 4508.0 1119.2840236686432 0.505489585047376 438.0 20.0 297.0 
550.0002833136675 15815.0 4508.0 1116.8954635108537 0.5045244767781285 447.0 12.0 304.0 
560.0002833136675 15936.0 4506.0 1121.5601577909197 0.5036591557599445 454.0 11.0 307.0 
570.0002833136675 16064.0 4509.0 1123.9112426035458 0.5046680419647815 444.0 18.0 301.0 
580.0002833136675 16117.0 4510.0 1132.9723865877775 0.5034264777341111 447.0 17.0 306.0 
590.0002833136675 16050.0 4510.0 1132.8856015779056 0.505636384555129 454.0 17.0 306.0 
600.0002833136675 16109.0 4509.0 1144.325443786986 0.5035927319530121 456.0 19.0 309.0 
610.0002833136675 16077.0 4507.0 1153.3293885601645 0.5030499965055562 459.0 14.0 318.0 
620.0002833136675 16356.0 4510.0 1142.110453648916 0.5035967736112362 453.0 17.0 310.0 
630.0002833136675 16403.0 4508.0 1153.4102564102602 0.5026442967892211 450.0 16.0 316.0 
640.0002833136675 16513.0 4510.0 1160.185404339258 0.5040641878559665 458.0 12.0 323.0 
650.0002833136675 16512.0 4510.0 1164.8086785009818 0.5052437924182251 455.0 13.0 324.0 
660.0002833136675 16438.0 4508.0 1176.1558185404376 0.5026516714587661 456.0 12.0 330.0 
#####################################################################
# End of data export. Simulation finished at: 2019-03-03T18:06+0000 #
#####################################################################
