#####################################################################
# Alchemist log file - simulation started at: 2019-03-12T07:36+0000 #
#####################################################################
# seed = 5.0, bandwidth = 1000.0, accessPointCount = 1031.338537721246, baserange = 56.234132519034915
#
# The columns have the following meaning: 
# time neighbor_count[Sum] <value>@neighbor_count[Sum] packet_size[Mean] mean_delay[Mean] crowd[Sum] overcrowded[Sum] risk[Sum] 
0.0 NaN NaN NaN NaN NaN NaN NaN 
2.000101793669918 NaN NaN 4978.212025316456 NaN 1497.0 0.0 1497.0 
4.000101793669918 NaN NaN 4978.212025316456 NaN 1497.0 0.0 1497.0 
6.000101793669918 133.0 95.0 4978.401898734177 0.32949154040775225 1497.0 0.0 1497.0 
8.000101793669918 246.0 177.0 4981.137658227848 2.0294136291409 1497.0 0.0 1497.0 
10.000101793669918 246.0 177.0 4980.73259493671 4.0294136291409 1497.0 0.0 1497.0 
12.000101793669918 428.0 276.0 4981.545886075949 1.0861305423374543 1497.0 0.0 1497.0 
14.000101793669918 428.0 276.0 4980.055379746836 3.0861305423374543 1497.0 0.0 1497.0 
16.00010179366992 479.0 289.0 4980.215189873417 3.1024895686248266 1497.0 0.0 1497.0 
18.00010179366992 527.0 309.0 4982.066455696202 3.3758868590641726 1497.0 0.0 1497.0 
20.00010179366992 527.0 309.0 4981.598101265823 5.375886859064172 1497.0 0.0 1497.0 
22.00010179366992 641.0 345.0 4981.93670886076 2.951279721537561 1497.0 0.0 1497.0 
24.00010179366992 641.0 345.0 4980.044303797468 3.62447403433377 1497.0 0.0 1497.0 
26.00010179366992 665.0 348.0 4979.98259493671 4.613200910293631 1497.0 0.0 1497.0 
28.00010179366992 686.0 355.0 4980.738924050633 5.118901769449182 1497.0 0.0 1497.0 
30.00010179366992 686.0 355.0 4981.594936708861 6.207640799472277 1497.0 0.0 1497.0 
32.00010179366992 743.0 367.0 4981.9240506329115 4.010944776023821 1497.0 0.0 1497.0 
34.00010179366992 743.0 367.0 4981.368670886076 3.988068371529438 1497.0 0.0 1497.0 
36.00010179366992 769.0 372.0 4980.556962025316 5.0383461875657325 1497.0 0.0 1497.0 
38.00010179366992 804.0 381.0 4980.816455696202 5.31253392718828 1497.0 0.0 1497.0 
40.00010179366992 804.0 381.0 4981.376582278481 6.292421373075727 1497.0 0.0 1497.0 
42.00010179366992 808.0 382.0 4981.738924050633 4.757142337936753 1497.0 0.0 1497.0 
44.00010179366992 808.0 382.0 4981.507911392406 4.445195613674694 1497.0 0.0 1497.0 
46.00010179366992 847.0 386.0 4980.422468354431 4.687210345796966 1497.0 0.0 1497.0 
48.00010179366992 866.0 390.0 4980.35917721519 5.3113864984852555 1497.0 0.0 1497.0 
50.00010179366992 866.0 390.0 4980.833860759494 6.081172471008756 1497.0 0.0 1497.0 
52.00010179366992 944.0 400.0 4981.613924050633 5.201916964723097 1497.0 0.0 1497.0 
54.00010179366992 944.0 400.0 4981.553797468355 5.452902840429313 1497.0 0.0 1497.0 
56.00010179366992 943.0 400.0 4981.337025316456 5.310835914349524 1497.0 0.0 1497.0 
58.00010179366992 942.0 400.0 4980.534810126583 6.248249574169772 1497.0 0.0 1497.0 
60.00010179366992 942.0 400.0 4978.8655063291135 7.2943427945087524 1496.0 0.0 1496.0 
62.00010179366992 948.0 402.0 527.4351265822796 4.479479316026873 212.0 0.0 70.0 
64.00010179366993 950.0 403.0 527.3037974683547 3.5621314248858944 193.0 0.0 70.0 
66.00010179366993 947.0 403.0 527.3243670886109 3.1542008473599457 158.0 0.0 70.0 
68.00010179366993 937.0 403.0 527.3196202531625 3.053126179872888 136.0 0.0 70.0 
70.00010179366993 937.0 403.0 527.3037974683547 3.458584513206221 128.0 0.0 70.0 
72.00010179366993 939.0 404.0 527.3180379746866 3.266888615553008 117.0 0.0 70.0 
74.00010179366993 939.0 404.0 527.2990506329135 3.393280391944787 110.0 0.0 70.0 
76.00010179366993 900.0 399.0 527.3196202531625 3.327129843503303 109.0 0.0 70.0 
78.00010179366993 882.0 396.0 527.284810126581 2.586648064339571 102.0 0.0 70.0 
80.00010179366993 882.0 396.0 527.2563291139246 2.8482078393044086 98.0 0.0 70.0 
82.00010179366993 806.0 387.0 527.3117088607619 2.087722513949308 96.0 0.0 70.0 
84.00010179366993 806.0 387.0 527.2199367088601 2.0251969559939433 93.0 0.0 70.0 
86.00010179366993 813.0 389.0 527.2231012658264 2.1563797055031864 92.0 0.0 70.0 
88.00010179366993 829.0 392.0 527.2943037974711 2.021457253550119 92.0 0.0 70.0 
90.00010179366993 829.0 392.0 527.2436708860754 2.309896551795733 92.0 0.0 70.0 
92.00010179366993 823.0 391.0 527.2547468354412 1.8966527965885702 92.0 0.0 70.0 
94.00010179366993 825.0 392.0 527.2484177215176 1.9944084544909562 92.0 0.0 70.0 
96.00010179366993 863.0 397.0 527.25 2.1793949332566407 93.0 0.0 70.0 
98.00010179366993 891.0 402.0 529.0648734177204 2.2062162306551825 93.0 0.0 71.0 
100.00010179366993 891.0 401.0 529.0522151898713 2.439006154937285 92.0 0.0 71.0 
102.00010179366993 971.0 411.0 529.1297468354412 2.3357068291434646 91.0 0.0 71.0 
104.00010179366993 969.0 411.0 529.1234177215177 1.9891571614447319 91.0 0.0 71.0 
106.00010179366993 967.0 410.0 529.1028481012677 2.222194483849446 91.0 0.0 71.0 
108.00010179366993 967.0 410.0 529.0933544303779 2.457244947246301 91.0 0.0 71.0 
110.00010179366993 965.0 409.0 529.109177215192 2.5418969718304396 91.0 0.0 71.0 
112.00010179366993 963.0 408.0 529.0996835443013 2.4725797396477844 91.0 0.0 71.0 
114.00010179366993 963.0 408.0 529.0965189873434 2.4973382823959556 91.0 0.0 71.0 
116.00010179366993 959.0 408.0 529.1060126582265 2.7402297207020636 91.0 0.0 71.0 
118.00010179366993 947.0 406.0 529.1123417721504 2.965303402462222 91.0 0.0 71.0 
120.00010179366993 945.0 405.0 529.1060126582265 3.178382140914665 90.0 0.0 71.0 
122.00010179366993 934.0 404.0 529.1344936708833 2.9205328854889245 89.0 0.0 71.0 
124.00010179366993 941.0 404.0 529.140822784808 2.7199395811919476 89.0 0.0 71.0 
126.00010179366993 910.0 400.0 529.1360759493663 2.7625356313189102 89.0 0.0 71.0 
128.00010179366993 883.0 396.0 529.1012658227847 2.53289194716 89.0 0.0 71.0 
130.00010179366993 886.0 398.0 529.0933544303779 2.532380017965764 89.0 0.0 71.0 
132.00010179366993 815.0 387.0 529.1297468354412 2.025202316535875 89.0 0.0 71.0 
134.00010179366993 809.0 387.0 529.015822784808 1.977393826238938 89.0 0.0 71.0 
136.00010179366993 808.0 386.0 529.015822784808 2.040747631865392 89.0 0.0 71.0 
138.00010179366993 808.0 386.0 529.015822784808 1.9322138809955245 89.0 0.0 71.0 
140.00010179366993 810.0 386.0 529.0189873417735 2.0708230505006138 89.0 0.0 71.0 
142.00010179366993 823.0 387.0 529.0696202531625 1.7816406743962534 89.0 0.0 71.0 
144.00010179366993 825.0 388.0 529.0696202531625 1.8289921715862698 89.0 0.0 71.0 
146.00010179366993 825.0 388.0 527.2452531645588 1.9759866160307118 86.0 0.0 70.0 
148.00010179366993 825.0 388.0 527.2594936708833 2.012900986359065 86.0 0.0 70.0 
150.00010179366993 825.0 388.0 527.25 2.156572504030584 86.0 0.0 70.0 
152.00010179366993 934.0 402.0 523.7041139240524 1.9193425719981738 85.0 0.0 68.0 
154.00010179366993 956.0 405.0 523.6867088607621 1.671684152947452 85.0 0.0 68.0 
156.00010179366993 956.0 405.0 523.6693037974713 1.888224326466875 85.0 0.0 68.0 
158.00010179366993 956.0 406.0 523.6661392405055 2.0711680184155843 85.0 0.0 68.0 
160.00010179366993 956.0 406.0 523.6693037974713 2.3309083467794327 86.0 0.0 68.0 
162.00010179366993 955.0 406.0 520.0411392405053 2.3339534238218507 86.0 0.0 66.0 
164.00010179366993 954.0 405.0 520.0253164556987 2.2345465350853604 86.0 0.0 66.0 
166.00010179366993 954.0 405.0 518.2104430379771 2.2913992950501543 85.0 0.0 65.0 
168.00010179366993 955.0 405.0 518.2136075949354 2.33231006707888 85.0 0.0 65.0 
170.00010179366993 956.0 404.0 518.2167721519015 2.3717168419465273 85.0 0.0 65.0 
172.00010179366993 943.0 404.0 518.2420886075928 2.348396004690042 85.0 0.0 65.0 
174.00010179366993 944.0 404.0 518.2231012658264 2.5611658657395155 85.0 0.0 65.0 
176.00010179366993 944.0 404.0 518.2231012658264 2.7181415951737495 85.0 0.0 65.0 
178.00010179366993 946.0 404.0 518.2262658227851 2.885961540256591 85.0 0.0 65.0 
180.00010179366993 951.0 405.0 523.6962025316452 3.020619781638888 88.0 0.0 68.0 
182.00010179366993 831.0 388.0 525.5949367088601 2.216940046336016 89.0 0.0 69.0 
184.00010179366993 821.0 388.0 523.5996835443013 1.7705257182584484 89.0 0.0 68.0 
186.00010179366993 821.0 388.0 523.5443037974712 1.8206986089915065 89.0 0.0 68.0 
188.00010179366993 824.0 388.0 521.7262658227851 1.9118980470522013 89.0 0.0 67.0 
190.00010179366993 827.0 390.0 521.7310126582263 1.9576750660086293 88.0 0.0 67.0 
192.00010179366993 828.0 390.0 521.7215189873438 1.9057235292162342 87.0 0.0 67.0 
194.00010179366993 831.0 390.0 523.5379746835467 1.9319178533128647 88.0 0.0 68.0 
196.00010179366993 838.0 390.0 523.5537974683548 1.8897442141373 88.0 0.0 68.0 
198.00010179366993 852.0 392.0 525.455696202529 1.9829289896748044 88.0 0.0 69.0 
200.00010179366993 850.0 392.0 525.4113924050641 2.024060097301466 89.0 0.0 69.0 
202.00010179366993 918.0 402.0 525.4810126582267 2.065216570563943 89.0 0.0 69.0 
204.00010179366993 918.0 402.0 525.4620253164533 2.1967871464527007 89.0 0.0 69.0 
206.00010179366993 921.0 401.0 525.4620253164533 2.278717457586862 89.0 0.0 69.0 
208.00010179366993 974.0 407.0 527.292721518989 2.2001271510655327 89.0 0.0 70.0 
210.00010179366993 983.0 408.0 529.0886075949363 2.4200560298275944 90.0 0.0 71.0 
212.00010179366993 980.0 406.0 530.9145569620227 2.5340472609749716 91.0 0.0 72.0 
214.00010179366993 978.0 407.0 530.9161392405067 2.2008587923212306 91.0 0.0 72.0 
216.00010179366993 983.0 407.0 530.9367088607609 2.180011444853407 92.0 0.0 72.0 
218.00010179366993 987.0 409.0 532.7484177215191 2.300681708624944 93.0 0.0 73.0 
220.00010179366993 990.0 409.0 534.5664556962021 2.58317851878846 94.0 0.0 74.0 
222.00010179366993 989.0 409.0 534.5648734177204 2.6504756820491533 94.0 0.0 74.0 
224.00010179366993 996.0 411.0 534.5680379746866 2.705009776265512 96.0 0.0 74.0 
226.00010179366993 986.0 410.0 534.5775316455699 2.924467759385215 98.0 0.0 74.0 
228.00010179366993 975.0 409.0 534.5854430379773 2.8414348392155455 99.0 0.0 74.0 
230.00010179366993 979.0 410.0 534.582278481011 2.9443311275072643 99.0 0.0 74.0 
232.00010179366993 913.0 399.0 534.6329113924073 2.2928532384739153 99.0 0.0 74.0 
234.00010179366993 916.0 399.0 538.1471518987324 2.4643172548087042 99.0 0.0 76.0 
236.00010179366993 911.0 399.0 538.1439873417718 2.6429795129878535 100.0 0.0 76.0 
238.00010179366993 860.0 393.0 538.1756329113908 2.3495239992593273 101.0 0.0 76.0 
240.00010179366993 848.0 391.0 538.1503164556987 2.1665637264500734 101.0 0.0 76.0 
242.00010179366993 849.0 392.0 538.090189873419 2.062532845469998 101.0 0.0 76.0 
244.00010179366993 836.0 390.0 538.1170886075927 1.899268386354868 101.0 0.0 76.0 
246.00010179366993 850.0 392.0 538.0886075949373 1.9509013030955007 100.0 0.0 76.0 
248.00010179366993 854.0 394.0 536.2768987341736 2.0556032540177127 98.0 0.0 75.0 
250.00010179366993 852.0 394.0 534.465189873419 2.161805924698147 98.0 0.0 74.0 
252.00010179366993 939.0 406.0 534.5838607594926 2.2980851934643107 98.0 0.0 74.0 
254.00010179366993 953.0 409.0 534.5648734177204 2.348312822455029 98.0 0.0 74.0 
256.00010179366996 954.0 409.0 536.3797468354412 2.5526514632288944 98.0 0.0 75.0 
258.00010179366996 949.0 408.0 536.3939873417713 2.6280884255995023 98.0 0.0 75.0 
260.00010179366996 950.0 408.0 538.2104430379773 2.7631743609725063 99.0 0.0 76.0 
262.00010179366996 956.0 407.0 538.208860759492 2.7798504456914057 99.0 0.0 76.0 
264.00010179366996 993.0 412.0 538.2246835443013 2.6694972724603296 99.0 0.0 76.0 
266.00010179366996 995.0 411.0 538.1930379746867 2.6960725899953952 100.0 0.0 76.0 
268.00010179366996 992.0 410.0 538.1930379746867 2.6701662325694584 100.0 0.0 76.0 
270.00010179366996 986.0 408.0 540.0174050632903 2.6594504421773935 99.0 0.0 77.0 
272.00010179366996 984.0 408.0 541.8322784810109 2.6970995410375513 100.0 0.0 78.0 
274.00010179366996 987.0 409.0 543.6455696202565 2.7514873716726984 101.0 0.0 79.0 
276.00010179366996 981.0 408.0 541.8354430379773 2.53559767053916 100.0 0.0 78.0 
278.00010179366996 986.0 410.0 541.8291139240498 2.635768220819565 99.0 0.0 78.0 
280.00010179366996 989.0 410.0 541.8322784810109 2.769217383301469 100.0 0.0 78.0 
282.00010179366996 902.0 398.0 541.9303797468376 2.2501159311291774 100.0 0.0 78.0 
284.00010179366996 897.0 397.0 541.7943037974686 2.286004579899947 100.0 0.0 78.0 
286.00010179366996 893.0 396.0 541.7816455696194 2.495642962555491 100.0 0.0 78.0 
288.00010179366996 894.0 397.0 541.8132911392405 2.423466446755125 99.0 0.0 78.0 
290.00010179366996 891.0 396.0 541.8132911392405 2.3545472209331395 97.0 0.0 78.0 
292.00010179366996 883.0 396.0 541.8148734177204 2.303970688495105 97.0 0.0 78.0 
294.00010179366996 837.0 391.0 540.0158227848106 2.062126128035422 96.0 0.0 77.0 
296.00010179366996 830.0 390.0 539.9430379746867 2.1531175870466392 96.0 0.0 77.0 
298.00010179366996 835.0 391.0 538.1344936708831 2.252116532513169 96.0 0.0 76.0 
300.00010179366996 832.0 390.0 534.4936708860777 2.379236961865215 96.0 0.0 74.0 
302.00010179366996 900.0 400.0 534.5806962025309 2.161125163616044 97.0 0.0 74.0 
304.00010179366996 899.0 399.0 534.5553797468376 2.217112899723803 97.0 0.0 74.0 
306.00010179366996 900.0 400.0 532.7610759493682 2.0672111187289532 95.0 0.0 73.0 
308.00010179366996 921.0 404.0 532.7610759493682 2.0556276054202747 94.0 0.0 73.0 
310.00010179366996 923.0 404.0 532.7452531645589 2.2359889812620017 94.0 0.0 73.0 
312.00010179366996 920.0 403.0 532.7389240506318 2.3897240244585647 92.0 0.0 73.0 
314.00010179366996 924.0 404.0 532.7420886075927 2.4117581926058542 93.0 0.0 73.0 
316.00010179366996 923.0 404.0 532.7373417721504 2.563426138004766 93.0 0.0 73.0 
318.00010179366996 942.0 408.0 532.7389240506318 2.5193853482117965 94.0 0.0 73.0 
320.00010179366996 975.0 412.0 534.5490506329113 2.6680672418892173 94.0 0.0 74.0 
322.00010179366996 981.0 413.0 536.3607594936708 2.72067182946842 95.0 0.0 75.0 
324.00010179366996 979.0 412.0 532.7357594936703 2.761581360607183 92.0 0.0 73.0 
326.00010179366996 979.0 411.0 534.5601265822796 2.7786263326508878 93.0 0.0 74.0 
328.00010179366996 974.0 409.0 534.5617088607601 2.967486568790459 93.0 0.0 74.0 
330.00010179366996 975.0 410.0 534.5617088607601 3.0532582561673807 93.0 0.0 74.0 
332.00010179366996 906.0 400.0 534.5965189873416 2.6354139313880376 93.0 0.0 74.0 
334.00010179366996 906.0 400.0 534.4857594936705 2.6717611262945686 93.0 0.0 74.0 
336.00010179366996 893.0 398.0 534.5015822784806 2.8240973978666197 93.0 0.0 74.0 
338.00010179366996 881.0 396.0 534.5379746835468 2.6912089323389554 93.0 0.0 74.0 
340.00010179366996 882.0 396.0 534.5284810126584 2.710518479223047 92.0 0.0 74.0 
342.00010179366996 876.0 395.0 534.5221518987323 2.46916853813296 94.0 0.0 74.0 
344.00010179366996 883.0 398.0 534.5284810126584 2.2834848496899474 94.0 0.0 74.0 
346.00010179366996 882.0 397.0 534.5221518987323 2.4701851130303054 94.0 0.0 74.0 
348.00010179366996 861.0 393.0 532.7136075949375 2.2733263377450545 93.0 0.0 73.0 
350.00010179366996 837.0 391.0 532.7547468354412 1.8960933823265558 94.0 0.0 73.0 
352.00010179366996 907.0 401.0 530.9367088607603 1.949001064960604 93.0 0.0 72.0 
354.00010179366996 900.0 399.0 532.7357594936701 1.9274585729863898 93.0 0.0 73.0 
356.00010179366996 901.0 398.0 532.7357594936701 2.0208683893344648 93.0 0.0 73.0 
358.00010179366996 915.0 401.0 534.6107594936702 2.182397759247502 91.0 0.0 74.0 
360.00010179366996 914.0 401.0 534.582278481011 2.321587575314898 91.0 0.0 74.0 
362.00010179366996 916.0 403.0 534.5759493670882 2.383231050710774 91.0 0.0 74.0 
364.00010179366996 915.0 403.0 534.5791139240506 2.4070852760753323 91.0 0.0 74.0 
366.00010179366996 910.0 401.0 534.5743670886093 2.6380140178542595 91.0 0.0 74.0 
368.00010179366996 919.0 404.0 534.6123417721504 2.582176982666077 91.0 0.0 74.0 
370.00010179366996 940.0 405.0 534.534810126581 2.456111190657696 91.0 0.0 74.0 
372.00010179366996 961.0 408.0 530.8924050632903 2.4547536678288275 91.0 0.0 72.0 
374.00010179366996 965.0 408.0 536.3686708860773 2.578105275417541 94.0 0.0 75.0 
376.00010179366996 967.0 410.0 536.35917721519 2.7141277927014222 94.0 0.0 75.0 
378.00010179366996 968.0 410.0 536.3623417721506 3.0121789610232987 94.0 0.0 75.0 
380.00010179366996 964.0 409.0 536.3813291139227 3.094969001590916 94.0 0.0 75.0 
382.00010179366996 892.0 397.0 536.409810126581 2.380852544909563 94.0 0.0 75.0 
384.00010179366996 890.0 396.0 536.2990506329115 2.264929232403923 94.0 0.0 75.0 
386.00010179366996 889.0 397.0 536.3164556962018 2.323352181928145 94.0 0.0 75.0 
388.00010179366996 877.0 396.0 536.3386075949377 2.4601533111475815 94.0 0.0 75.0 
390.00010179366996 880.0 398.0 536.3417721518995 2.5729021928009446 94.0 0.0 75.0 
392.00010179366996 880.0 397.0 534.5079113924073 2.4984521531135697 92.0 0.0 74.0 
394.00010179366996 887.0 399.0 536.3291139240507 2.43893493567435 92.0 0.0 75.0 
396.00010179366996 891.0 400.0 536.3338607594928 2.506296406452331 92.0 0.0 75.0 
398.00010179366996 879.0 398.0 536.3417721518999 2.5492693040982926 92.0 0.0 75.0 
400.00010179366996 861.0 397.0 536.36075949367 2.3312832816117353 92.0 0.0 75.0 
402.00010179366996 918.0 405.0 536.4066455696207 2.113114663848976 92.0 0.0 75.0 
404.00010179366996 921.0 405.0 536.3655063291168 2.04460771088487 92.0 0.0 75.0 
406.00010179366996 930.0 406.0 536.36075949367 2.125827267127062 93.0 0.0 75.0 
408.00010179366996 945.0 409.0 536.4193037974698 2.2200434904699105 94.0 0.0 75.0 
410.00010179366996 946.0 409.0 538.2246835443015 2.3917461841362178 94.0 0.0 76.0 
412.00010179366996 950.0 410.0 538.2246835443015 2.5174834435575844 95.0 0.0 76.0 
414.00010179366996 948.0 409.0 538.2167721518995 2.5454656944053102 95.0 0.0 76.0 
416.00010179366996 948.0 408.0 536.4018987341736 2.6335440668534202 94.0 0.0 75.0 
418.00010179366996 956.0 410.0 538.2357594936707 2.797148669190419 94.0 0.0 76.0 
420.00010179366996 977.0 412.0 538.2167721518991 2.870366373794216 94.0 0.0 76.0 
422.00010179366996 995.0 414.0 538.2246835443015 2.9118800370162274 94.0 0.0 76.0 
424.00010179366996 992.0 412.0 538.2231012658264 2.8892831377940063 94.0 0.0 76.0 
426.00010179366996 995.0 413.0 538.2310126582287 3.0674910194414844 96.0 0.0 76.0 
428.00010179366996 987.0 410.0 536.4034810126587 2.988080309792441 95.0 0.0 75.0 
430.00010179366996 986.0 411.0 536.3876582278494 2.8133653934454985 97.0 0.0 75.0 
432.00010179366996 922.0 403.0 536.4636075949379 2.350009563154669 97.0 0.0 75.0 
434.00010179366996 920.0 402.0 536.340189873419 2.1138374933444175 97.0 0.0 75.0 
436.00010179366996 916.0 402.0 536.3528481012677 2.3179235390203226 97.0 0.0 75.0 
438.00010179366996 904.0 400.0 536.3765822784802 2.187862107358206 96.0 0.0 75.0 
440.00010179366996 898.0 398.0 536.3639240506317 2.3256755812043965 96.0 0.0 75.0 
442.00010179366996 898.0 398.0 536.3607594936707 2.355857902112777 96.0 0.0 75.0 
444.00010179366996 903.0 400.0 536.3686708860776 2.2884393721271126 97.0 0.0 75.0 
446.00010179366996 901.0 400.0 536.3496835443015 2.4517765341854534 97.0 0.0 75.0 
448.00010179366996 891.0 398.0 536.3528481012677 2.4834130609173015 96.0 0.0 75.0 
450.00010179366996 866.0 395.0 536.3528481012677 2.5538696769761318 96.0 0.0 75.0 
452.00010179366996 920.0 402.0 538.3022151898714 2.252914962079266 97.0 0.0 76.0 
454.00010179366996 923.0 402.0 538.18829113924 2.267501032899721 97.0 0.0 76.0 
456.00010179366996 929.0 403.0 538.1930379746866 2.2836303579528434 97.0 0.0 76.0 
458.00010179366996 924.0 402.0 538.1914556962018 2.2730959643801576 97.0 0.0 76.0 
460.00010179366996 926.0 404.0 538.207278481011 2.2329743328222835 97.0 0.0 76.0 
462.00010179366996 946.0 406.0 538.2183544303798 2.1837888599702278 96.0 0.0 76.0 
464.00010179366996 948.0 406.0 534.5933544303788 2.273780113901202 96.0 0.0 74.0 
466.00010179366996 952.0 408.0 536.4050632911398 2.4704716898578427 97.0 0.0 75.0 
468.00010179366996 949.0 407.0 536.4082278480996 2.503916108098406 97.0 0.0 75.0 
470.00010179366996 971.0 409.0 536.4018987341738 2.491360615987018 97.0 0.0 75.0 
472.00010179366996 1002.0 412.0 536.3987341772159 2.534191782179609 97.0 0.0 75.0 
474.00010179366996 1000.0 412.0 536.4018987341738 2.73405793717645 97.0 0.0 75.0 
476.00010179366996 1004.0 414.0 536.4018987341738 2.919384168181108 97.0 0.0 75.0 
478.00010179366996 1004.0 414.0 536.4050632911398 2.927496420482841 97.0 0.0 75.0 
480.00010179366996 1004.0 414.0 536.4082278480996 3.1684549857271187 96.0 0.0 75.0 
482.00010179366996 927.0 404.0 532.8053797468374 2.853301182595515 95.0 0.0 73.0 
484.00010179366996 917.0 404.0 532.7579113924072 2.474729487208302 95.0 0.0 73.0 
486.00010179366996 910.0 404.0 532.707278481011 2.5706550531599692 95.0 0.0 73.0 
488.00010179366996 905.0 402.0 532.7136075949361 2.4714675809726527 95.0 0.0 73.0 
490.00010179366996 905.0 402.0 532.6993670886104 2.544905110940188 95.0 0.0 73.0 
492.00010179366996 889.0 400.0 532.7231012658262 2.4604670744046193 95.0 0.0 73.0 
494.00010179366996 891.0 401.0 532.6930379746865 2.5211299066612014 95.0 0.0 73.0 
496.00010179366996 889.0 401.0 532.6867088607614 2.5126985640127697 95.0 0.0 73.0 
498.00010179366996 890.0 401.0 530.8591772151916 2.400794585417164 95.0 0.0 72.0 
500.00010179366996 868.0 400.0 529.0506329113892 2.600033002781775 93.0 0.0 71.0 
502.00010179366996 833.0 395.0 529.0917721519012 2.2906510538545133 93.0 0.0 71.0 
504.00010179366996 828.0 393.0 528.9936708860755 2.1621114464235194 93.0 0.0 71.0 
506.00010179366996 870.0 398.0 527.1882911392381 2.322519283195868 92.0 0.0 70.0 
508.00010179366996 903.0 403.0 527.2405063291167 2.3812131701633157 92.0 0.0 70.0 
510.00010179366996 907.0 403.0 525.4224683544301 2.4096438269893423 92.0 0.0 69.0 
512.00010179367 914.0 403.0 523.667721518989 2.489571694531879 91.0 0.0 68.0 
514.00010179367 913.0 403.0 523.6455696202563 2.400307826219862 90.0 0.0 68.0 
516.00010179367 919.0 405.0 523.6376582278496 2.4316726930765844 90.0 0.0 68.0 
518.00010179367 934.0 407.0 521.8148734177204 2.544069564139294 90.0 0.0 67.0 
520.00010179367 923.0 403.0 521.8148734177204 2.5848489597184576 90.0 0.0 67.0 
522.00010179367 923.0 406.0 521.8338607594947 2.28526194736918 90.0 0.0 67.0 
524.00010179367 936.0 406.0 521.840189873419 2.158415893963414 89.0 0.0 67.0 
526.00010179367 956.0 409.0 521.840189873419 2.3975849076176514 89.0 0.0 67.0 
528.00010179367 987.0 411.0 523.6629746835467 2.2833921797870915 90.0 0.0 68.0 
530.00010179367 987.0 411.0 523.6645569620229 2.4661224331402907 90.0 0.0 68.0 
532.00010179367 993.0 414.0 523.6582278480986 2.6819681249420477 90.0 0.0 68.0 
534.00010179367 997.0 415.0 525.4873417721504 2.777937678895896 91.0 0.0 69.0 
536.00010179367 953.0 409.0 525.5015822784824 2.8479119159082162 91.0 0.0 69.0 
538.00010179367 919.0 403.0 529.1139240506337 2.439495660070501 91.0 0.0 71.0 
540.00010179367 912.0 402.0 529.0838607594943 2.401808742156628 91.0 0.0 71.0 
542.00010179367 909.0 403.0 529.0775316455699 2.469939200394476 91.0 0.0 71.0 
544.00010179367 912.0 404.0 529.0806962025289 2.500894333545466 91.0 0.0 71.0 
546.00010179367 912.0 405.0 530.9003164556987 2.722542905898818 91.0 0.0 72.0 
548.00010179367 900.0 403.0 530.8971518987324 2.655906266315048 92.0 0.0 72.0 
550.00010179367 901.0 404.0 530.9066455696219 2.7661081967354058 91.0 0.0 72.0 
552.00010179367 898.0 402.0 530.9034810126567 2.8972837098348436 91.0 0.0 72.0 
554.00010179367 891.0 401.0 530.909810126581 2.644106384822555 91.0 0.0 72.0 
556.00010179367 872.0 398.0 530.875 2.6176214459273086 91.0 0.0 72.0 
558.00010179367 843.0 395.0 532.7547468354412 2.1577224676591213 91.0 0.0 73.0 
560.00010179367 844.0 396.0 532.6534810126567 2.2073896796768953 91.0 0.0 73.0 
562.00010179367 915.0 404.0 532.7341772151916 2.090319168586168 91.0 0.0 73.0 
564.00010179367 916.0 405.0 532.7088607594941 2.1294230602875897 91.0 0.0 73.0 
566.00010179367 924.0 406.0 532.707278481011 2.3692099852290935 92.0 0.0 73.0 
568.00010179367 937.0 410.0 532.7768987341738 2.4687451205719166 91.0 0.0 73.0 
570.00010179367 943.0 409.0 536.3987341772157 2.683332861826805 92.0 0.0 75.0 
572.00010179367 951.0 410.0 536.3924050632903 2.6802093509739104 92.0 0.0 75.0 
574.00010179367 964.0 412.0 538.2167721519006 2.7251305994918207 93.0 0.0 76.0 
576.00010179367 971.0 413.0 538.2215189873428 2.926369903115216 94.0 0.0 76.0 
578.00010179367 971.0 413.0 540.0189873417728 2.9778340348735393 94.0 0.0 77.0 
580.00010179367 986.0 416.0 540.0221518987324 3.099173225607406 93.0 0.0 77.0 
582.00010179367 1001.0 417.0 540.0158227848087 2.838514202884612 93.0 0.0 77.0 
584.00010179367 1010.0 418.0 540.0284810126573 2.5860191438731817 93.0 0.0 77.0 
586.00010179367 1020.0 419.0 540.0253164556987 2.8007392327612823 95.0 0.0 77.0 
588.00010179367 1011.0 415.0 540.0221518987324 2.812274422417802 96.0 0.0 77.0 
590.00010179367 1007.0 414.0 540.0253164556987 2.8012632251303367 96.0 0.0 77.0 
592.00010179367 936.0 405.0 540.0727848101287 2.593753267060137 96.0 0.0 77.0 
594.00010179367 938.0 406.0 539.9778481012676 2.7893109543828913 97.0 0.0 77.0 
596.00010179367 931.0 405.0 539.9699367088602 2.8398264947492358 97.0 0.0 77.0 
598.00010179367 924.0 404.0 539.9636075949364 2.7541963671596976 97.0 0.0 77.0 
600.00010179367 921.0 403.0 539.9699367088602 2.8270614997018546 97.0 0.0 77.0 
602.00010179367 910.0 402.0 539.9746835443013 2.8168654674233595 97.0 0.0 77.0 
604.00010179367 902.0 400.0 539.9857594936693 2.7419573101626407 95.0 0.0 77.0 
606.00010179367 902.0 400.0 539.9841772151913 2.8959555346675065 95.0 0.0 77.0 
608.00010179367 901.0 400.0 539.9810126582272 3.095199190048711 95.0 0.0 77.0 
610.00010179367 881.0 396.0 540.0079113924073 3.0382255136755845 95.0 0.0 77.0 
612.00010179367 864.0 396.0 539.9968354430403 3.07279824408659 95.0 0.0 77.0 
614.00010179367 841.0 393.0 540.0379746835467 2.5318165650593882 95.0 0.0 77.0 
616.00010179367 885.0 397.0 538.1360759493668 2.4932610532085144 94.0 0.0 76.0 
618.00010179367 912.0 401.0 538.178797468354 2.4485413391156015 94.0 0.0 76.0 
620.00010179367 913.0 401.0 538.1756329113898 2.272577721883619 93.0 0.0 76.0 
622.00010179367 925.0 402.0 538.167721518989 2.205331497098606 92.0 0.0 76.0 
624.00010179367 936.0 404.0 541.8734177215186 1.926701282385567 94.0 0.0 78.0 
626.00010179367 936.0 404.0 541.8417721519003 2.1925759380329533 94.0 0.0 78.0 
628.00010179367 933.0 403.0 541.8386075949365 2.374546708854516 94.0 0.0 78.0 
630.00010179367 933.0 403.0 541.8417721519003 2.611641256818629 94.0 0.0 78.0 
632.00010179367 946.0 402.0 540.0221518987324 2.6840596421907645 93.0 0.0 77.0 
634.00010179367 966.0 406.0 541.8417721519004 2.68697132759783 94.0 0.0 78.0 
636.00010179367 967.0 406.0 540.0079113924073 2.885616740092952 93.0 0.0 77.0 
638.00010179367 973.0 408.0 540.0015822784816 2.991629390100128 93.0 0.0 77.0 
640.00010179367 974.0 407.0 543.6360759493678 3.114257988622563 95.0 0.0 79.0 
642.00010179367 973.0 408.0 545.4731012658262 2.9870532467772692 96.0 0.0 80.0 
644.00010179367 977.0 409.0 545.4857594936698 2.935547087310938 96.0 0.0 80.0 
646.00010179367 938.0 406.0 543.6977848101286 2.868967286944847 95.0 0.0 79.0 
648.00010179367 908.0 402.0 543.6503164556985 2.6558217637714794 96.0 0.0 79.0 
650.00010179367 910.0 402.0 543.6360759493672 2.677054040550172 96.0 0.0 79.0 
652.00010179367 897.0 400.0 543.62183544304 2.304482848282019 96.0 0.0 79.0 
654.00010179367 885.0 398.0 543.6123417721504 2.3562468412050546 97.0 0.0 79.0 
656.00010179367 886.0 399.0 545.4382911392389 2.5428443803320686 97.0 0.0 80.0 
658.00010179367 888.0 399.0 545.4541139240514 2.4769012418156686 98.0 0.0 80.0 
660.00010179367 896.0 400.0 545.4446202531624 2.5931112255320405 101.0 0.0 80.0 
662.00010179367 889.0 401.0 549.0949367088601 2.399296861777469 103.0 0.0 82.0 
664.00010179367 876.0 399.0 552.7768987341736 1.948044470423981 102.0 0.0 84.0 
#####################################################################
# End of data export. Simulation finished at: 2019-03-12T07:50+0000 #
#####################################################################
