#####################################################################
# Alchemist log file - simulation started at: 2019-03-03T08:17+0000 #
#####################################################################
# seed = 9.0, bandwidth = 2.3713737056616552E7, accessPointCount = 531.8295896944988, baserange = 17.78279410038923
#
# The columns have the following meaning: 
# time neighbor_count[Sum] <value>@neighbor_count[Sum] packet_size[Mean] mean_delay[Mean] crowd[Sum] overcrowded[Sum] risk[Sum] 
0.0 NaN NaN NaN NaN NaN NaN NaN 
10.000337445961424 130.0 43.0 4982.384615384615 0.4955365716281071 1497.0 0.0 1497.0 
20.000337445961424 135.0 43.0 4982.317554240632 0.49239052380589887 1497.0 0.0 1497.0 
30.000337445961424 136.0 44.0 4982.36291913215 0.5149353044105611 1497.0 0.0 1497.0 
40.00033744596142 134.0 43.0 4982.280078895464 0.49929497017464874 1497.0 0.0 1497.0 
50.00033744596142 134.0 43.0 4982.301775147929 0.4992949756158939 1497.0 0.0 1497.0 
60.00033744596142 134.0 43.0 4982.2307692307695 0.49929503819021387 1497.0 0.0 1497.0 
70.00033744596142 134.0 43.0 427.2485207100589 0.499569897315301 30.0 0.0 12.0 
80.00033744596142 136.0 44.0 427.2583826429979 0.49958279508994957 21.0 0.0 12.0 
90.00033744596142 134.0 43.0 427.2583826429979 0.4995698764571944 19.0 0.0 12.0 
100.00033744596142 138.0 45.0 427.2248520710062 0.4995951343822636 19.0 0.0 12.0 
110.00033744596142 134.0 44.0 427.22879684418143 0.5611284043760578 19.0 0.0 12.0 
120.00033744596142 132.0 43.0 427.2248520710062 0.4995775222186012 18.0 0.0 12.0 
130.0003374459614 132.0 43.0 427.22879684418143 0.499577530250923 17.0 0.0 12.0 
140.0003374459614 132.0 44.0 427.21893491124246 0.5344472349339121 17.0 0.0 12.0 
150.0003374459614 134.0 44.0 427.20907297830394 0.5016301731430095 16.0 0.0 12.0 
160.0003374459614 134.0 44.0 427.21893491124246 0.5016301570783807 16.0 0.0 12.0 
170.0003374459614 136.0 44.0 429.47337278106494 0.5004074661775497 16.0 0.0 13.0 
180.0003374459614 136.0 44.0 429.47731755424036 0.5321534800739938 16.0 0.0 13.0 
190.0003374459614 136.0 44.0 429.47731755424036 0.500407448327962 16.0 0.0 13.0 
200.0003374459614 136.0 44.0 429.47731755424036 0.500407448327962 16.0 0.0 13.0 
210.0003374459614 136.0 44.0 429.47731755424036 0.500407448327962 16.0 0.0 13.0 
220.0003374459614 134.0 43.0 429.47731755424036 0.5004213603341288 16.0 0.0 13.0 
230.0003374459614 138.0 44.0 429.47731755424036 0.4998553153682619 16.0 0.0 13.0 
240.0003374459614 138.0 44.0 429.47731755424036 0.540178304106814 16.0 0.0 13.0 
250.0003374459614 138.0 44.0 429.47731755424036 0.49664908813274966 16.0 0.0 13.0 
260.0003374459614 138.0 44.0 429.47731755424036 0.4966490881327438 16.0 0.0 13.0 
270.0003374459614 138.0 44.0 429.47731755424036 0.4966490881327438 16.0 0.0 13.0 
280.0003374459614 140.0 45.0 429.47731755424036 0.49675167410219306 16.0 0.0 13.0 
290.0003374459614 140.0 45.0 429.47731755424036 0.5275209048714239 16.0 0.0 13.0 
300.0003374459614 138.0 44.0 429.47731755424036 0.4966490881327438 16.0 0.0 13.0 
310.0003374459614 140.0 45.0 429.47731755424036 0.4967516741021931 16.0 0.0 13.0 
320.0003374459614 144.0 46.0 429.47731755424036 0.4986772617033135 16.0 0.0 13.0 
330.0003374459614 144.0 46.0 429.47731755424036 0.5362357415346796 16.0 0.0 13.0 
340.0003374459614 135.0 42.0 429.47731755424036 0.4911617250245512 16.0 0.0 13.0 
350.0003374459614 136.0 43.0 429.47731755424036 0.5144567228051203 16.0 0.0 13.0 
360.0003374459614 134.0 43.0 429.47731755424036 0.49835477062916816 16.0 0.0 13.0 
370.0003374459614 133.0 42.0 429.47731755424036 0.5340975707928064 16.0 0.0 13.0 
380.0003374459614 130.0 41.0 429.47731755424036 0.49824437323861376 16.0 0.0 13.0 
390.0003374459614 130.0 41.0 429.47731755424036 0.49824437323861376 16.0 0.0 13.0 
400.0003374459614 130.0 41.0 429.47731755424036 0.49824437323861376 16.0 0.0 13.0 
410.0003374459614 130.0 41.0 429.47731755424036 0.49824437323861376 16.0 0.0 13.0 
420.0003374459614 130.0 41.0 429.47731755424036 0.49824437323861376 16.0 0.0 13.0 
430.0003374459614 132.0 42.0 429.47731755424036 0.4983013817271787 16.0 0.0 13.0 
440.0003374459614 132.0 42.0 429.47731755424036 0.4983013817271787 16.0 0.0 13.0 
450.0003374459614 134.0 43.0 429.47731755424036 0.5021466694550946 16.0 0.0 13.0 
460.0003374459614 138.0 44.0 429.47731755424036 0.5021115243615146 16.0 0.0 13.0 
470.0003374459614 134.0 43.0 429.47731755424036 0.5021466694550946 16.0 0.0 13.0 
480.0003374459614 134.0 43.0 429.47731755424036 0.5021466694550946 16.0 0.0 13.0 
490.0003374459614 130.0 42.0 429.47731755424036 0.5021829668468247 16.0 0.0 13.0 
500.0003374459614 132.0 43.0 429.47731755424036 0.49584585525109104 16.0 0.0 13.0 
510.0003374459614 130.0 42.0 429.47731755424036 0.49570794602146584 16.0 0.0 13.0 
520.0003374459613 130.0 42.0 429.47731755424036 0.4957079460214435 16.0 0.0 13.0 
530.0003374459613 130.0 42.0 429.47731755424036 0.5021829668468055 16.0 0.0 13.0 
540.0003374459613 130.0 42.0 429.47731755424036 0.4983293229205974 16.0 0.0 13.0 
550.0003374459613 132.0 43.0 429.47731755424036 0.49838100445869893 16.0 0.0 13.0 
560.0003374459613 132.0 43.0 429.47731755424036 0.5608810044586989 16.0 0.0 13.0 
570.0003374459613 136.0 44.0 429.47731755424036 0.4984048740602479 16.0 0.0 13.0 
580.0003374459613 132.0 43.0 429.47731755424036 0.49838100445869893 16.0 0.0 13.0 
590.0003374459613 132.0 43.0 429.47731755424036 0.49838100445869893 16.0 0.0 13.0 
600.0003374459613 133.0 43.0 429.47731755424036 0.5366073106581173 16.0 0.0 13.0 
610.0003374459613 132.0 43.0 429.47731755424036 0.5296310044586989 16.0 0.0 13.0 
620.0003374459613 134.0 44.0 429.47731755424036 0.4984295537823701 16.0 0.0 13.0 
630.0003374459613 138.0 45.0 429.47731755424036 0.4984519862417285 16.0 0.0 13.0 
640.0003374459613 135.0 44.0 429.47731755424036 0.4934024820744353 16.0 0.0 13.0 
650.0003374459613 136.0 45.0 429.47731755424036 0.5131811296164135 16.0 0.0 13.0 
660.0003374459613 132.0 43.0 429.47731755424036 0.49838100445869893 16.0 0.0 13.0 
#####################################################################
# End of data export. Simulation finished at: 2019-03-03T08:21+0000 #
#####################################################################
