#####################################################################
# Alchemist log file - simulation started at: 2019-03-12T15:35+0000 #
#####################################################################
# seed = 5.0, bandwidth = 17782.79410038923, accessPointCount = 531.8295896944988, baserange = 177.82794100389228
#
# The columns have the following meaning: 
# time neighbor_count[Sum] <value>@neighbor_count[Sum] packet_size[Mean] mean_delay[Mean] crowd[Sum] overcrowded[Sum] risk[Sum] 
0.0 NaN NaN NaN NaN NaN NaN NaN 
2.000101793669918 613.0 406.0 4982.007889546351 0.4154544691716149 1497.0 0.0 1497.0 
4.000101793669918 1697.0 802.0 4983.763313609467 0.7310413213328973 1497.0 0.0 1497.0 
6.000101793669918 2946.0 940.0 4984.755424063116 0.9915539262453287 1497.0 0.0 1497.0 
8.000101793669918 4312.0 1052.0 4985.441814595661 1.1374585980959315 1497.0 0.0 1497.0 
10.000101793669918 4956.0 1101.0 4985.992110453649 1.3661014498983457 1497.0 0.0 1497.0 
12.000101793669918 5335.0 1127.0 4986.207100591716 1.6175528817488343 1497.0 0.0 1497.0 
14.000101793669918 5582.0 1136.0 4986.323471400395 1.7744170143365416 1497.0 0.0 1497.0 
16.00010179366992 5655.0 1137.0 4986.112426035503 1.8110074038366877 1497.0 0.0 1497.0 
18.00010179366992 5656.0 1137.0 4985.7731755424065 2.1083322205338413 1497.0 0.0 1497.0 
20.00010179366992 5656.0 1137.0 4985.952662721894 2.2178603172185096 1497.0 0.0 1497.0 
22.00010179366992 5656.0 1137.0 4985.816568047338 2.414774839634442 1497.0 0.0 1497.0 
24.00010179366992 5654.0 1137.0 4985.94674556213 2.4753736401150537 1496.0 1.0 1496.0 
26.00010179366992 5591.0 1120.0 4985.680473372781 2.518999386658998 1496.0 1.0 1496.0 
28.00010179366992 5468.0 1085.0 4985.968441814595 2.2086672063488915 1495.0 2.0 1495.0 
30.00010179366992 5315.0 1047.0 4985.785009861933 1.763460595324501 1496.0 1.0 1496.0 
32.00010179366992 5143.0 1019.0 4985.759368836292 1.3186741091923784 1496.0 1.0 1496.0 
34.00010179366992 5112.0 1011.0 4985.644970414201 1.2412661285021969 1497.0 0.0 1497.0 
36.00010179366992 5112.0 1011.0 4985.570019723866 1.1501469214164364 1496.0 1.0 1496.0 
38.00010179366992 5113.0 1012.0 4985.678500986193 1.2047802923613318 1496.0 1.0 1496.0 
40.00010179366992 5114.0 1012.0 4985.656804733728 1.1701946238446852 1496.0 1.0 1496.0 
42.00010179366992 5114.0 1012.0 4985.495069033531 1.3314057421315633 1495.0 2.0 1495.0 
44.00010179366992 5114.0 1012.0 4985.710059171598 1.106582642872179 1495.0 2.0 1495.0 
46.00010179366992 5114.0 1012.0 4985.473372781065 1.2477616524658184 1495.0 2.0 1495.0 
48.00010179366992 5116.0 1013.0 4985.552268244576 1.2664283512839638 1497.0 0.0 1497.0 
50.00010179366992 5118.0 1013.0 4985.550295857988 1.2309207726139755 1494.0 3.0 1494.0 
52.00010179366992 5120.0 1013.0 4985.579881656805 1.1750668512331452 1494.0 3.0 1494.0 
54.00010179366992 5122.0 1014.0 4985.571992110454 1.2586748308190918 1495.0 2.0 1495.0 
56.00010179366992 5122.0 1014.0 4985.550295857988 1.2579115875206062 1495.0 2.0 1495.0 
58.00010179366992 5121.0 1014.0 4985.589743589744 1.2338382678925914 1496.0 1.0 1496.0 
60.00010179366992 5125.0 1016.0 4983.4358974358975 1.2015959967298602 1493.0 3.0 1493.0 
62.00010179366992 5136.0 1017.0 840.4556213017721 1.2096210251272161 480.0 2.0 192.0 
64.00010179366993 5136.0 1016.0 840.3096646942809 0.932718645747753 380.0 0.0 194.0 
66.00010179366993 5136.0 1016.0 840.2583826430036 0.9438393590120566 352.0 0.0 194.0 
68.00010179366993 5136.0 1016.0 840.2209072978286 0.9049271245871302 328.0 0.0 194.0 
70.00010179366993 5138.0 1016.0 840.1321499013789 0.9645814464538655 308.0 0.0 194.0 
72.00010179366993 5135.0 1015.0 840.1558185404381 0.8972283488647389 301.0 1.0 193.0 
74.00010179366993 5144.0 1016.0 840.0631163708049 0.89844914750739 289.0 10.0 184.0 
76.00010179366993 5144.0 1016.0 840.0808678500935 0.9554094284078404 287.0 10.0 184.0 
78.00010179366993 5148.0 1017.0 840.0433925049265 0.9755881597290676 283.0 11.0 183.0 
80.00010179366993 5152.0 1018.0 840.0355029585822 0.9156333631481893 279.0 11.0 183.0 
82.00010179366993 5166.0 1018.0 840.0177514792912 0.9953289951045667 278.0 11.0 183.0 
84.00010179366993 5168.0 1018.0 837.7416173569965 0.9830743486189517 275.0 11.0 182.0 
86.00010179366993 5168.0 1018.0 824.1262327416246 0.9264062252022709 272.0 11.0 176.0 
88.00010179366993 5168.0 1018.0 824.165680473368 0.9922745598945856 268.0 11.0 176.0 
90.00010179366993 5168.0 1018.0 821.8698224852119 0.9757370336620581 268.0 11.0 175.0 
92.00010179366993 5184.0 1019.0 821.8441814595622 0.92399549655488 267.0 11.0 175.0 
94.00010179366993 5185.0 1020.0 821.8560157790859 0.9468016451978322 266.0 11.0 175.0 
96.00010179366993 5186.0 1020.0 821.8422090729745 1.0129012887680555 264.0 12.0 174.0 
98.00010179366993 5186.0 1020.0 821.8284023668614 1.0623509652059602 263.0 12.0 174.0 
100.00010179366993 5178.0 1018.0 821.8796844181435 0.9418568013966133 264.0 11.0 175.0 
102.00010179366993 5173.0 1018.0 821.8658777120337 1.0183453661340387 264.0 11.0 175.0 
104.00010179366993 5162.0 1017.0 821.8481262327426 0.9494807791088623 274.0 1.0 185.0 
106.00010179366993 5158.0 1016.0 821.840236686384 0.94709027165071 277.0 1.0 185.0 
108.00010179366993 5161.0 1017.0 821.8303747534515 0.9542472959927059 277.0 1.0 185.0 
110.00010179366993 5163.0 1018.0 821.8284023668614 0.933889726019945 277.0 1.0 185.0 
112.00010179366993 5155.0 1017.0 821.8520710059207 0.9771482886536039 277.0 1.0 185.0 
114.00010179366993 5147.0 1017.0 821.8737672583761 0.8802253794873313 276.0 2.0 184.0 
116.00010179366993 5152.0 1017.0 821.8244575936834 0.8712607233124158 276.0 2.0 184.0 
118.00010179366993 5160.0 1018.0 821.8461538461526 0.9592473359678916 277.0 1.0 185.0 
120.00010179366993 5164.0 1019.0 821.8441814595622 0.8985854532822115 277.0 1.0 185.0 
122.00010179366993 5164.0 1019.0 821.8303747534515 0.9196906347391763 279.0 1.0 185.0 
124.00010179366993 5170.0 1020.0 821.8500986193319 0.9172719227033267 279.0 1.0 185.0 
126.00010179366993 5161.0 1019.0 821.8481262327426 0.9651300839406902 279.0 1.0 185.0 
128.00010179366993 5165.0 1019.0 824.1341222879663 0.8456041113545909 274.0 7.0 180.0 
130.00010179366993 5175.0 1021.0 824.130177514788 0.9033018781919372 269.0 12.0 175.0 
132.00010179366993 5179.0 1022.0 824.130177514788 0.9878654141909314 269.0 12.0 175.0 
134.00010179366993 5169.0 1021.0 824.104536489154 0.8442278015236637 268.0 12.0 175.0 
136.00010179366993 5168.0 1021.0 824.1143984220864 0.8608066333210421 266.0 12.0 175.0 
138.00010179366993 5168.0 1020.0 821.8441814595622 0.9450240921344734 266.0 12.0 174.0 
140.00010179366993 5173.0 1020.0 824.1380670611468 0.9062066465056662 266.0 12.0 175.0 
142.00010179366993 5172.0 1020.0 824.130177514788 0.9139986352087881 266.0 12.0 175.0 
144.00010179366993 5197.0 1021.0 826.4043392504913 0.918832360347623 267.0 12.0 176.0 
146.00010179366993 5198.0 1020.0 826.3668639053196 0.9559308410126225 267.0 12.0 176.0 
148.00010179366993 5199.0 1020.0 826.3786982248575 0.9387447069927269 267.0 12.0 176.0 
150.00010179366993 5198.0 1020.0 826.388560157789 0.9915048257165748 267.0 12.0 176.0 
152.00010179366993 5188.0 1019.0 826.370808678498 0.9720801802311932 267.0 12.0 176.0 
154.00010179366993 5186.0 1019.0 826.3905325443789 1.0055837424992307 267.0 12.0 176.0 
156.00010179366993 5185.0 1018.0 826.3806706114465 0.9639014837348909 267.0 12.0 176.0 
158.00010179366993 5185.0 1018.0 826.370808678498 1.0097933341082461 267.0 12.0 176.0 
160.00010179366993 5189.0 1019.0 824.1400394477339 1.0424110131332947 267.0 12.0 175.0 
162.00010179366993 5173.0 1018.0 821.8836291913241 1.0225444999051174 267.0 12.0 174.0 
164.00010179366993 5160.0 1017.0 821.8402366863838 0.9366693668927759 267.0 12.0 174.0 
166.00010179366993 5143.0 1015.0 821.8402366863838 0.9770341103348182 267.0 12.0 174.0 
168.00010179366993 5142.0 1016.0 821.8382642998102 0.9942857710447802 267.0 12.0 174.0 
170.00010179366993 5142.0 1015.0 821.8560157790865 0.8946036135487814 267.0 12.0 174.0 
172.00010179366993 5142.0 1015.0 821.8757396449653 0.9752167162929191 267.0 12.0 174.0 
174.00010179366993 5142.0 1015.0 821.869822485212 1.0259449482237586 267.0 12.0 174.0 
176.00010179366993 5141.0 1016.0 821.8244575936841 0.9277100179476001 267.0 12.0 174.0 
178.00010179366993 5131.0 1015.0 821.8757396449653 0.9659425730820581 267.0 12.0 174.0 
180.00010179366993 5124.0 1014.0 821.8461538461534 0.9296709766652682 267.0 12.0 174.0 
182.00010179366993 5119.0 1013.0 821.834319526632 0.9421253790695593 267.0 12.0 174.0 
184.00010179366993 5108.0 1013.0 821.891518737668 0.8294149642628943 267.0 12.0 174.0 
186.00010179366993 5112.0 1014.0 819.5996055226866 0.9269948566936732 267.0 12.0 173.0 
188.00010179366993 5117.0 1015.0 821.857988165675 0.9155586453072159 268.0 12.0 174.0 
190.00010179366993 5117.0 1015.0 824.1439842209145 0.8402901273866449 270.0 12.0 175.0 
192.00010179366993 5116.0 1015.0 824.1597633136162 0.8898305627152672 272.0 12.0 175.0 
194.00010179366993 5116.0 1015.0 824.1400394477348 0.8751644301976984 272.0 12.0 175.0 
196.00010179366993 5116.0 1015.0 824.1104536489083 0.9152252824548681 272.0 12.0 175.0 
198.00010179366993 5133.0 1017.0 826.4142011834389 0.9181542022277627 273.0 12.0 176.0 
200.00010179366993 5147.0 1018.0 828.6962524654853 0.8731727511564624 274.0 12.0 177.0 
202.00010179366993 5157.0 1019.0 828.7061143984167 0.9843640983046423 273.0 12.0 177.0 
204.00010179366993 5160.0 1020.0 828.6942800788951 0.8817155746275269 272.0 12.0 177.0 
206.00010179366993 5156.0 1019.0 826.3826429980219 0.8806390128828399 271.0 12.0 176.0 
208.00010179366993 5154.0 1018.0 828.6587771203136 0.900210466457688 271.0 12.0 177.0 
210.00010179366993 5154.0 1018.0 830.9368836291951 0.9411493218665217 273.0 12.0 178.0 
212.00010179366993 5143.0 1017.0 830.950690335308 0.8566023945238572 274.0 12.0 178.0 
214.00010179366993 5142.0 1017.0 830.9309664694265 0.8733740442480923 274.0 12.0 178.0 
216.00010179366993 5142.0 1017.0 830.9132149901353 0.9308626245214932 274.0 12.0 178.0 
218.00010179366993 5142.0 1017.0 830.9230769230844 0.8770434033766947 274.0 12.0 178.0 
220.00010179366993 5147.0 1018.0 830.9270216962482 0.8937037229636625 275.0 12.0 178.0 
222.00010179366993 5154.0 1020.0 830.9329388560169 1.0268537434564629 276.0 12.0 178.0 
224.00010179366993 5158.0 1020.0 830.9191321499063 0.973646917879642 277.0 12.0 178.0 
226.00010179366993 5158.0 1020.0 830.8796844181435 0.9680970813601398 278.0 12.0 178.0 
228.00010179366993 5154.0 1019.0 830.8619329388532 0.9848465741844461 278.0 12.0 178.0 
230.00010179366993 5151.0 1019.0 830.859960552265 0.9963407469879413 277.0 12.0 178.0 
232.00010179366993 5155.0 1020.0 830.9388560157847 0.9882923950984038 278.0 12.0 178.0 
234.00010179366993 5166.0 1022.0 830.9408284023596 1.0370437696884562 278.0 12.0 178.0 
236.00010179366993 5166.0 1021.0 833.1676528599578 1.002132574380577 276.0 12.0 179.0 
238.00010179366993 5163.0 1021.0 833.1854043392489 1.0876659991186064 276.0 12.0 179.0 
240.00010179366993 5154.0 1020.0 833.20315581854 0.9524516668351394 276.0 12.0 179.0 
242.00010179366993 5143.0 1018.0 833.1893491124295 0.9480916205188763 276.0 12.0 179.0 
244.00010179366993 5148.0 1019.0 833.1992110453597 0.9278492181958472 276.0 12.0 179.0 
246.00010179366993 5154.0 1020.0 833.1637080867798 0.9434335844225628 276.0 12.0 179.0 
248.00010179366993 5151.0 1020.0 833.1459566074896 0.9191489972018108 276.0 12.0 179.0 
250.00010179366993 5143.0 1018.0 830.9289940828365 0.9348996135267095 276.0 12.0 178.0 
252.00010179366993 5146.0 1021.0 830.9191321499062 0.9545107691374706 275.0 12.0 178.0 
254.00010179366993 5155.0 1023.0 833.1696252465485 0.8648075086885778 276.0 12.0 179.0 
256.00010179366996 5156.0 1023.0 830.9033530572033 0.9332103156672406 278.0 12.0 178.0 
258.00010179366996 5153.0 1022.0 828.6390532544337 1.0027011711450184 278.0 12.0 177.0 
260.00010179366996 5153.0 1023.0 828.6351084812699 0.874703799841742 277.0 12.0 177.0 
262.00010179366996 5169.0 1024.0 828.6627218934937 0.9773655167394393 277.0 12.0 177.0 
264.00010179366996 5168.0 1023.0 830.9289940828365 0.9784767791395188 277.0 12.0 178.0 
266.00010179366996 5168.0 1023.0 837.7001972386633 1.0198047451759729 277.0 12.0 181.0 
268.00010179366996 5168.0 1023.0 835.4516765285941 0.9963394529468174 276.0 12.0 180.0 
270.00010179366996 5168.0 1023.0 833.2307692307639 1.0707537121637298 275.0 12.0 179.0 
272.00010179366996 5169.0 1022.0 833.1854043392489 1.0969349321462083 275.0 12.0 179.0 
274.00010179366996 5158.0 1020.0 833.20315581854 0.9750081856507663 275.0 12.0 179.0 
276.00010179366996 5140.0 1018.0 830.9151873767257 0.9662053471829586 272.0 12.0 178.0 
278.00010179366996 5144.0 1019.0 830.8796844181435 1.0096836155248834 272.0 12.0 178.0 
280.00010179366996 5144.0 1019.0 830.9112426035452 0.998669657645194 272.0 12.0 178.0 
282.00010179366996 5142.0 1018.0 830.9151873767257 0.9808066684517752 273.0 12.0 178.0 
284.00010179366996 5154.0 1019.0 830.901380670615 0.8962724284063235 273.0 12.0 178.0 
286.00010179366996 5158.0 1019.0 833.1814595660709 1.0040277855847144 273.0 12.0 179.0 
288.00010179366996 5165.0 1020.0 830.8994082840253 0.985108904906486 272.0 12.0 178.0 
290.00010179366996 5179.0 1021.0 830.8994082840253 0.9826227939424554 272.0 12.0 178.0 
292.00010179366996 5178.0 1020.0 830.9270216962481 1.0018880062807016 271.0 12.0 178.0 
294.00010179366996 5186.0 1020.0 830.9270216962481 1.0075464085596537 271.0 12.0 178.0 
296.00010179366996 5187.0 1020.0 830.8954635108447 0.9082788885447534 272.0 12.0 178.0 
298.00010179366996 5210.0 1022.0 830.9349112426067 1.0095153636828433 272.0 12.0 178.0 
300.00010179366996 5220.0 1022.0 830.9625246548279 1.060783429929173 272.0 12.0 178.0 
302.00010179366996 5220.0 1022.0 828.6883629191266 1.034668384969822 272.0 12.0 177.0 
304.00010179366996 5220.0 1024.0 830.936883629195 1.038475519819023 272.0 12.0 178.0 
306.00010179366996 5198.0 1021.0 830.9230769230843 1.0941922541451474 274.0 12.0 178.0 
308.00010179366996 5195.0 1021.0 830.9033530572034 1.0779546435077145 275.0 11.0 179.0 
310.00010179366996 5183.0 1019.0 830.9329388560169 0.9724364345049619 274.0 11.0 179.0 
312.00010179366996 5182.0 1020.0 830.9171597633165 1.0357951236253096 275.0 11.0 179.0 
314.00010179366996 5174.0 1020.0 830.9053254437932 0.9825932201578454 275.0 11.0 179.0 
316.00010179366996 5185.0 1021.0 830.8836291913241 0.9292873285778314 275.0 11.0 179.0 
318.00010179366996 5190.0 1021.0 830.8934911242565 1.0287847453622565 275.0 11.0 179.0 
320.00010179366996 5186.0 1020.0 833.1479289940792 0.9668418629677108 275.0 11.0 180.0 
322.00010179366996 5185.0 1020.0 833.1755424063173 1.0675454734616308 275.0 11.0 180.0 
324.00010179366996 5186.0 1021.0 833.1715976331393 1.0294202049083545 276.0 11.0 180.0 
326.00010179366996 5184.0 1020.0 833.1459566074894 1.040387823279682 277.0 11.0 180.0 
328.00010179366996 5183.0 1021.0 833.1617357001899 1.093283578508735 277.0 11.0 180.0 
330.00010179366996 5185.0 1018.0 833.1577909270262 0.9949125452741617 277.0 11.0 180.0 
332.00010179366996 5192.0 1019.0 833.1617357001899 0.9781932633548218 277.0 11.0 180.0 
334.00010179366996 5204.0 1022.0 835.4615384615432 1.0328944452928324 276.0 11.0 181.0 
336.00010179366996 5194.0 1019.0 835.4398422090718 1.0264236758212275 276.0 11.0 181.0 
338.00010179366996 5180.0 1018.0 835.4201183431907 0.894504352019644 277.0 11.0 181.0 
340.00010179366996 5182.0 1019.0 835.4398422090719 0.9104706263896236 277.0 11.0 181.0 
342.00010179366996 5180.0 1019.0 835.4575936883631 1.040225089618917 277.0 11.0 181.0 
344.00010179366996 5178.0 1019.0 835.4260355029611 0.8484602280420328 277.0 11.0 181.0 
346.00010179366996 5172.0 1018.0 835.4575936883631 0.8991963133287287 274.0 11.0 181.0 
348.00010179366996 5179.0 1020.0 835.43195266273 0.9695714091618451 273.0 11.0 181.0 
350.00010179366996 5184.0 1021.0 835.4181459566025 0.9492420486608744 274.0 11.0 181.0 
352.00010179366996 5185.0 1021.0 837.7179487179545 0.9250334974923528 272.0 11.0 182.0 
354.00010179366996 5178.0 1022.0 837.7199211045445 0.9743855843481376 272.0 11.0 182.0 
356.00010179366996 5178.0 1022.0 837.6706114398353 0.9698104249887852 273.0 11.0 182.0 
358.00010179366996 5168.0 1021.0 837.6923076923047 0.9244935323987973 273.0 11.0 182.0 
360.00010179366996 5168.0 1021.0 837.6942800788944 0.965120636017112 273.0 11.0 182.0 
362.00010179366996 5170.0 1022.0 835.4220907297808 1.0154493723030025 272.0 11.0 181.0 
364.00010179366996 5170.0 1021.0 828.6607495069029 0.9949976854263093 272.0 11.0 178.0 
366.00010179366996 5162.0 1020.0 828.6351084812696 0.989183732760585 270.0 11.0 178.0 
368.00010179366996 5164.0 1021.0 828.6134122288001 0.9743520136682148 269.0 11.0 178.0 
370.00010179366996 5156.0 1020.0 826.3747534516792 1.0085023703661316 268.0 11.0 177.0 
372.00010179366996 5154.0 1019.0 828.6489151873802 0.9637645945566483 269.0 11.0 178.0 
374.00010179366996 5149.0 1019.0 826.3471400394558 0.9203510718792703 269.0 11.0 177.0 
376.00010179366996 5146.0 1019.0 826.3550295857983 0.9528034732159751 269.0 11.0 177.0 
378.00010179366996 5157.0 1022.0 826.3609467455665 1.0486733678080449 269.0 11.0 177.0 
380.00010179366996 5160.0 1022.0 828.6232741617318 0.8955940331173 270.0 11.0 178.0 
382.00010179366996 5164.0 1023.0 828.6508875739706 0.9890703087149689 270.0 11.0 178.0 
384.00010179366996 5162.0 1024.0 828.658777120314 1.0025411025887039 274.0 10.0 179.0 
386.00010179366996 5162.0 1024.0 828.59171597633 0.949815808136982 274.0 10.0 179.0 
388.00010179366996 5162.0 1024.0 828.6193293885534 0.9786045097936628 274.0 10.0 179.0 
390.00010179366996 5163.0 1024.0 828.6213017751425 1.0739387019674287 275.0 10.0 179.0 
392.00010179366996 5168.0 1025.0 828.6213017751425 1.019909748261677 275.0 10.0 179.0 
394.00010179366996 5173.0 1024.0 828.6390532544335 0.977088067347945 276.0 10.0 179.0 
396.00010179366996 5172.0 1024.0 830.9053254437935 1.0104808009673643 276.0 10.0 180.0 
398.00010179366996 5184.0 1026.0 830.8796844181435 1.0127741867568267 276.0 10.0 180.0 
400.00010179366996 5184.0 1026.0 830.8974358974345 0.9538108264804335 276.0 10.0 180.0 
402.00010179366996 5192.0 1028.0 830.9191321499063 1.0457429064185695 276.0 10.0 180.0 
404.00010179366996 5193.0 1026.0 828.6232741617318 0.9853927094377467 275.0 10.0 179.0 
406.00010179366996 5208.0 1028.0 828.6232741617318 1.07232388084312 276.0 9.0 180.0 
408.00010179366996 5205.0 1027.0 828.6351084812693 1.1007922611148957 276.0 9.0 180.0 
410.00010179366996 5200.0 1027.0 828.6213017751425 1.029388701916602 276.0 9.0 180.0 
412.00010179366996 5182.0 1027.0 826.4023668639018 1.0888605159596647 275.0 9.0 179.0 
414.00010179366996 5200.0 1027.0 826.3806706114468 1.093944328627266 274.0 10.0 178.0 
416.00010179366996 5209.0 1030.0 826.3589743589774 1.0597280369046704 274.0 10.0 178.0 
418.00010179366996 5215.0 1031.0 826.3747534516792 1.196694389012015 274.0 10.0 178.0 
420.00010179366996 5222.0 1031.0 826.3688362919087 1.1174328171180774 275.0 10.0 178.0 
422.00010179366996 5226.0 1032.0 824.0907297830423 1.096281745841418 275.0 10.0 177.0 
424.00010179366996 5212.0 1029.0 824.1104536489087 1.026733623044812 275.0 10.0 177.0 
426.00010179366996 5215.0 1028.0 824.1124260354969 1.0366276967073165 274.0 10.0 177.0 
428.00010179366996 5219.0 1027.0 824.0867850098641 0.9635359877818973 274.0 10.0 177.0 
430.00010179366996 5216.0 1027.0 826.3668639053196 1.0167160022921444 274.0 10.0 178.0 
432.00010179366996 5193.0 1026.0 833.1992110453596 1.0056136752468583 274.0 10.0 181.0 
434.00010179366996 5194.0 1026.0 833.1479289940792 1.0135781969543303 275.0 10.0 181.0 
436.00010179366996 5189.0 1026.0 833.1755424063174 1.0260203737256972 275.0 10.0 181.0 
438.00010179366996 5198.0 1026.0 833.1854043392489 1.0758725636276658 275.0 10.0 181.0 
440.00010179366996 5232.0 1030.0 833.165680473368 1.1120369513186503 274.0 11.0 180.0 
442.00010179366996 5229.0 1030.0 830.9112426035451 1.1115069919774554 273.0 11.0 179.0 
444.00010179366996 5203.0 1026.0 828.6213017751426 0.9903265672423239 271.0 11.0 178.0 
446.00010179366996 5199.0 1025.0 828.6055226824421 1.0355321190881432 271.0 11.0 178.0 
448.00010179366996 5198.0 1024.0 833.1577909270262 1.0866518220755574 273.0 11.0 180.0 
450.00010179366996 5196.0 1022.0 835.4418145956624 1.011449931973871 275.0 11.0 181.0 
452.00010179366996 5207.0 1023.0 835.4575936883629 1.0227456040868708 275.0 11.0 181.0 
454.00010179366996 5212.0 1024.0 835.4201183431908 1.1261594539748048 274.0 11.0 181.0 
456.00010179366996 5220.0 1025.0 837.6903353057164 1.02393874947701 275.0 11.0 182.0 
458.00010179366996 5204.0 1023.0 837.6785009861941 1.0324362896684522 276.0 11.0 182.0 
460.00010179366996 5198.0 1024.0 835.4220907297806 1.073970891928535 278.0 11.0 181.0 
462.00010179366996 5196.0 1023.0 835.4516765285941 1.031133927306717 277.0 11.0 181.0 
464.00010179366996 5196.0 1023.0 835.42998027614 0.9140815818516056 276.0 11.0 181.0 
466.00010179366996 5188.0 1023.0 835.4398422090717 1.0017028619987247 276.0 11.0 181.0 
468.00010179366996 5188.0 1024.0 835.4575936883629 0.9916608991707124 276.0 11.0 181.0 
470.00010179366996 5188.0 1024.0 835.4220907297806 0.9713386880924217 276.0 11.0 181.0 
472.00010179366996 5184.0 1023.0 835.4792899408321 0.9994637362308607 276.0 11.0 181.0 
474.00010179366996 5185.0 1024.0 837.7396449704086 1.0237986619911847 277.0 11.0 182.0 
476.00010179366996 5186.0 1023.0 837.7514792899459 0.981295019412332 279.0 11.0 182.0 
478.00010179366996 5182.0 1023.0 837.7514792899459 1.0211910303232608 278.0 11.0 182.0 
480.00010179366996 5192.0 1024.0 840.0118343195223 1.0052958382084054 280.0 11.0 183.0 
482.00010179366996 5193.0 1024.0 840.0197238658809 1.0445871259164294 284.0 10.0 184.0 
484.00010179366996 5193.0 1023.0 837.7238658777079 0.9640683802219921 287.0 8.0 185.0 
486.00010179366996 5194.0 1023.0 837.7376725838187 1.00667153224608 288.0 8.0 185.0 
488.00010179366996 5215.0 1027.0 837.7120315581857 1.0183605518495036 288.0 7.0 186.0 
490.00010179366996 5215.0 1025.0 835.495069033535 1.0930843142379647 287.0 8.0 184.0 
492.00010179366996 5212.0 1025.0 835.4930966469451 0.9415974999637524 285.0 9.0 183.0 
494.00010179366996 5218.0 1027.0 835.4418145956624 1.0064016622257717 288.0 6.0 186.0 
496.00010179366996 5213.0 1026.0 835.4575936883629 1.0257855104973548 290.0 4.0 188.0 
498.00010179366996 5214.0 1027.0 835.4457593688405 0.9951381050813969 291.0 3.0 189.0 
500.00010179366996 5214.0 1025.0 835.42998027614 0.9204152043324262 290.0 4.0 188.0 
502.00010179366996 5223.0 1028.0 835.4339250493039 1.0326264757638535 289.0 5.0 187.0 
504.00010179366996 5230.0 1027.0 837.715976331366 1.003657874262479 291.0 3.0 190.0 
506.00010179366996 5228.0 1030.0 837.6607495069029 0.9394528331653957 290.0 3.0 190.0 
508.00010179366996 5234.0 1030.0 837.7021696252531 1.0016591236067267 292.0 3.0 190.0 
510.00010179366996 5234.0 1030.0 837.7120315581857 1.0662709813035247 292.0 3.0 190.0 
512.00010179367 5237.0 1030.0 837.6923076923048 0.9690776457944509 291.0 4.0 189.0 
514.00010179367 5236.0 1030.0 837.7001972386633 1.0690679928425995 291.0 3.0 190.0 
516.00010179367 5229.0 1027.0 835.4201183431908 1.0149089537426648 290.0 3.0 189.0 
518.00010179367 5235.0 1028.0 837.6863905325525 1.011090124159659 290.0 3.0 190.0 
520.00010179367 5230.0 1029.0 839.9842209072996 0.9893055297207599 291.0 3.0 191.0 
522.00010179367 5239.0 1030.0 839.9881656804777 1.0261504329324482 291.0 4.0 190.0 
524.00010179367 5264.0 1032.0 839.9802761341191 0.9996256306283196 292.0 3.0 191.0 
526.00010179367 5255.0 1031.0 839.9763313609411 0.9694738987833008 292.0 3.0 191.0 
528.00010179367 5294.0 1034.0 842.2366863905316 0.9648930005881805 296.0 3.0 192.0 
530.00010179367 5297.0 1034.0 842.2090729783088 1.0054761941515216 295.0 3.0 192.0 
532.00010179367 5302.0 1035.0 849.0453648915138 1.055241778963376 295.0 4.0 194.0 
534.00010179367 5307.0 1036.0 849.0670611439831 1.0379009762135745 296.0 3.0 195.0 
536.00010179367 5297.0 1034.0 849.0177514792912 0.9391825557283614 297.0 3.0 195.0 
538.00010179367 5299.0 1033.0 849.0512820512828 1.0553503773483552 297.0 3.0 195.0 
540.00010179367 5320.0 1035.0 851.3510848126193 0.9647555014806424 298.0 3.0 196.0 
542.00010179367 5326.0 1036.0 849.037475345172 1.0273540578132232 296.0 4.0 194.0 
544.00010179367 5332.0 1036.0 851.2998027613365 1.0721047895869766 296.0 3.0 196.0 
546.00010179367 5330.0 1035.0 851.3116370808734 1.1123125972874235 297.0 2.0 197.0 
548.00010179367 5327.0 1035.0 851.3333333333283 1.0430421374227834 297.0 2.0 197.0 
550.00010179367 5324.0 1034.0 844.5207100591679 1.132968396732761 297.0 2.0 194.0 
552.00010179367 5327.0 1034.0 844.5285996055264 1.1343556978416847 297.0 2.0 194.0 
554.00010179367 5332.0 1035.0 844.5266272189367 1.108468953097605 299.0 2.0 194.0 
556.00010179367 5315.0 1035.0 844.495069033535 1.1080990512626487 299.0 2.0 194.0 
558.00010179367 5307.0 1035.0 842.2445759368902 1.1742055273516219 299.0 2.0 193.0 
560.00010179367 5312.0 1036.0 842.2366863905316 1.1447496383822684 298.0 2.0 193.0 
562.00010179367 5297.0 1036.0 844.5384615384567 1.1422037794970854 297.0 2.0 194.0 
564.00010179367 5288.0 1036.0 846.7988165680497 1.12321024645486 296.0 2.0 195.0 
566.00010179367 5282.0 1035.0 846.7652859960582 1.1023779252676704 296.0 2.0 195.0 
568.00010179367 5281.0 1035.0 846.7869822485275 1.0881457812484463 295.0 2.0 195.0 
570.00010179367 5292.0 1037.0 849.0138067061107 1.103504417778107 297.0 2.0 196.0 
572.00010179367 5294.0 1036.0 853.5522682445695 1.0761394244198772 300.0 2.0 198.0 
574.00010179367 5280.0 1035.0 851.3096646942836 1.1294410577896083 299.0 2.0 197.0 
576.00010179367 5291.0 1034.0 853.5996055226877 1.0187582114989913 298.0 3.0 197.0 
578.00010179367 5294.0 1035.0 853.5818540433975 1.0422800856567997 298.0 3.0 197.0 
580.00010179367 5297.0 1035.0 853.5838264299872 1.1034722479190362 296.0 4.0 196.0 
582.00010179367 5283.0 1033.0 855.8560157790852 1.0213649348944138 300.0 3.0 198.0 
584.00010179367 5305.0 1034.0 853.5700197238604 1.0205567035990364 300.0 3.0 197.0 
586.00010179367 5315.0 1035.0 853.5581854043377 1.1521726011643885 304.0 3.0 197.0 
588.00010179367 5319.0 1036.0 851.3175542406276 1.1455351688478472 301.0 7.0 192.0 
590.00010179367 5321.0 1037.0 851.3057199211055 1.1070426202412638 300.0 6.0 193.0 
592.00010179367 5313.0 1035.0 853.6074950690305 1.1198410808109303 301.0 5.0 195.0 
594.00010179367 5306.0 1035.0 849.0571992110506 1.1828099221761115 301.0 5.0 193.0 
596.00010179367 5305.0 1034.0 853.5877712031522 1.0588451997903205 302.0 5.0 195.0 
598.00010179367 5290.0 1031.0 853.5424063116361 1.1547893290687081 301.0 5.0 195.0 
600.00010179367 5296.0 1033.0 855.8323471400415 1.1318141337675338 300.0 5.0 196.0 
602.00010179367 5260.0 1031.0 853.562130177518 1.0961078165557077 300.0 5.0 195.0 
604.00010179367 5259.0 1030.0 853.6173570019782 0.9859421755665398 300.0 5.0 195.0 
606.00010179367 5273.0 1031.0 853.59171597633 1.039172812911105 300.0 5.0 195.0 
608.00010179367 5280.0 1032.0 858.1282051281984 1.0798989094628348 300.0 5.0 197.0 
610.00010179367 5285.0 1031.0 858.1360946745571 1.1118369388447389 300.0 5.0 197.0 
612.00010179367 5279.0 1031.0 855.8560157790852 1.0717393414230254 299.0 5.0 196.0 
614.00010179367 5284.0 1031.0 855.8461538461519 1.155008348690939 297.0 5.0 196.0 
616.00010179367 5286.0 1031.0 855.8481262327426 1.2117182943033895 295.0 5.0 196.0 
618.00010179367 5280.0 1031.0 855.8560157790855 1.1866133207026963 295.0 5.0 196.0 
620.00010179367 5286.0 1030.0 855.8106508875708 1.1240776169601396 296.0 5.0 196.0 
622.00010179367 5279.0 1030.0 855.8284023668609 1.109197817853216 297.0 5.0 196.0 
624.00010179367 5278.0 1030.0 855.8461538461521 0.9970844135786611 298.0 5.0 196.0 
626.00010179367 5273.0 1030.0 855.7988165680497 1.0455120152206345 297.0 5.0 196.0 
628.00010179367 5297.0 1031.0 855.826429980271 1.0638393551044203 297.0 5.0 196.0 
630.00010179367 5312.0 1032.0 858.0788954635063 1.0903408808498591 298.0 5.0 197.0 
632.00010179367 5322.0 1033.0 858.098619329385 1.0293644033890588 296.0 5.0 197.0 
634.00010179367 5320.0 1034.0 860.3688362919086 1.0431488540458695 299.0 5.0 198.0 
636.00010179367 5319.0 1034.0 860.3648915187305 1.0337724737545646 300.0 5.0 198.0 
638.00010179367 5348.0 1039.0 860.3431952662776 0.9748003874725019 300.0 5.0 198.0 
640.00010179367 5358.0 1039.0 858.0650887573934 0.9767935997586423 302.0 5.0 197.0 
642.00010179367 5370.0 1038.0 860.3767258382691 0.992991890920938 304.0 5.0 198.0 
644.00010179367 5379.0 1037.0 862.6094674556202 1.002945506459194 307.0 5.0 199.0 
646.00010179367 5373.0 1036.0 862.6311637080918 0.9744744082125555 307.0 5.0 199.0 
648.00010179367 5379.0 1037.0 864.9092702169571 1.00368759456838 307.0 5.0 200.0 
650.00010179367 5393.0 1039.0 871.7061143984168 1.036810030830667 307.0 5.0 203.0 
652.00010179367 5388.0 1038.0 873.9684418145982 1.0083969451547097 311.0 5.0 204.0 
654.00010179367 5393.0 1036.0 876.2366863905316 0.9916645928950166 314.0 5.0 205.0 
656.00010179367 5384.0 1037.0 878.4714003944754 0.9582782443794531 314.0 5.0 206.0 
658.00010179367 5407.0 1038.0 878.4852071005876 1.0449591782509045 314.0 5.0 206.0 
660.00010179367 5442.0 1039.0 885.3510848126217 0.959811276951277 315.0 5.0 209.0 
662.00010179367 5444.0 1040.0 885.3195266272194 1.0293159348583711 313.0 5.0 209.0 
664.00010179367 5441.0 1040.0 885.3136094674472 1.1150162078055748 312.0 5.0 209.0 
#####################################################################
# End of data export. Simulation finished at: 2019-03-12T15:48+0000 #
#####################################################################
