#####################################################################
# Alchemist log file - simulation started at: 2019-03-06T04:12+0000 #
#####################################################################
# seed = 6.0, bandwidth = 5623413.251903491, accessPointCount = 19.39227447486858, baserange = 1000.0
#
# The columns have the following meaning: 
# time neighbor_count[Sum] <value>@neighbor_count[Sum] packet_size[Mean] mean_delay[Mean] crowd[Sum] overcrowded[Sum] risk[Sum] 
0.0 NaN NaN NaN NaN NaN NaN NaN 
2.0000223517299225 3700.0 565.0 4987.9551451187335 0.4477601611887692 1497.0 0.0 1497.0 
4.000022351729923 8973.0 587.0 4988.934036939314 0.4972770435836064 1497.0 0.0 1497.0 
6.000022351729923 15330.0 603.0 4989.778364116095 0.5076774314316705 1497.0 0.0 1497.0 
8.000022351729923 21149.0 591.0 4990.224274406332 0.51170619631263 1497.0 0.0 1497.0 
10.000022351729923 27299.0 596.0 4990.78364116095 0.5152595764914564 1497.0 0.0 1497.0 
12.000022351729923 30113.0 576.0 4991.058047493404 0.5275359433146956 1497.0 0.0 1497.0 
14.000022351729923 29926.0 554.0 4991.034300791557 0.5056311260167881 1497.0 0.0 1497.0 
16.00002235172992 29915.0 553.0 4990.934036939314 0.5003686350904777 1497.0 0.0 1497.0 
18.00002235172992 29916.0 553.0 4990.989445910291 0.5004597111920966 1497.0 0.0 1497.0 
20.00002235172992 29916.0 553.0 4990.939313984169 0.5004575026225685 1497.0 0.0 1497.0 
22.00002235172992 29916.0 553.0 4991.010554089709 0.5004393902385804 1497.0 0.0 1497.0 
24.00002235172992 29916.0 553.0 4991.187335092348 0.5004556045130288 1497.0 0.0 1497.0 
26.00002235172992 29917.0 553.0 4991.065963060686 0.5003205655756222 1497.0 0.0 1497.0 
28.00002235172992 29918.0 553.0 4990.970976253298 0.5005360155012916 1497.0 0.0 1497.0 
30.00002235172992 29918.0 553.0 4990.997361477573 0.5005359466080731 1497.0 0.0 1497.0 
32.00002235172992 29918.0 553.0 4990.957783641161 0.5005216458254268 1497.0 0.0 1497.0 
34.00002235172992 29918.0 553.0 4991.039577836412 0.5005310160895057 1497.0 0.0 1497.0 
36.00002235172992 29920.0 553.0 4991.076517150395 0.5005371291989595 1497.0 0.0 1497.0 
38.00002235172992 29920.0 553.0 4991.031662269129 0.5005405442913161 1497.0 0.0 1497.0 
40.00002235172992 29920.0 553.0 4991.042216358839 0.5005350943398976 1497.0 0.0 1497.0 
42.00002235172992 29920.0 553.0 4990.984168865435 0.5005232206138447 1497.0 0.0 1497.0 
44.00002235172992 29920.0 553.0 4990.989445910291 0.5005362036518827 1497.0 0.0 1497.0 
46.00002235172992 29924.0 553.0 4990.934036939314 0.5006515849616243 1497.0 0.0 1497.0 
48.00002235172992 29924.0 553.0 4991.010554089709 0.5006562348754319 1497.0 0.0 1497.0 
50.00002235172992 29924.0 553.0 4991.0369393139845 0.5006548321442993 1497.0 0.0 1497.0 
52.00002235172992 29926.0 553.0 4991.050131926121 0.500631721662774 1497.0 0.0 1497.0 
54.00002235172992 29926.0 553.0 4991.166226912928 0.5006483986342899 1497.0 0.0 1497.0 
56.00002235172992 29944.0 554.0 4990.968337730871 0.5004366558364977 1497.0 0.0 1497.0 
58.00002235172992 29944.0 554.0 4990.926121372032 0.5004341102772993 1497.0 0.0 1497.0 
60.00002235172992 29945.0 554.0 4991.010554089709 0.5004164691588546 1497.0 0.0 1497.0 
62.001304213596484 29947.0 554.0 931.490765171504 0.498001749629664 355.0 0.0 175.0 
64.00130421359648 29948.0 554.0 931.4881266490775 0.49987892789486355 301.0 0.0 175.0 
66.00130421359648 29970.0 554.0 931.4802110817928 0.4999574648199373 276.0 3.0 172.0 
68.00130421359648 29970.0 554.0 931.467018469657 0.4999573350401822 265.0 5.0 170.0 
70.00130421359648 29970.0 554.0 931.4696569920854 0.49995751366981317 258.0 5.0 170.0 
72.00130421359648 29970.0 554.0 931.4828496042232 0.4999577556907665 256.0 5.0 170.0 
74.00130421359648 29970.0 554.0 931.4802110817928 0.4999582407755662 253.0 5.0 170.0 
76.00130421359648 29974.0 554.0 931.5250659630616 0.4999808374337707 251.0 5.0 170.0 
78.00130421359648 29974.0 554.0 931.4986807387847 0.49998000758130273 249.0 5.0 170.0 
80.00130421359648 29974.0 554.0 931.4775725593665 0.5001314105785643 248.0 5.0 170.0 
82.00130421359648 29972.0 554.0 931.4749340369384 0.500309727594859 248.0 5.0 170.0 
84.00130421359648 29970.0 554.0 931.4538258575201 0.4999689254870814 246.0 5.0 170.0 
86.00130421359648 29972.0 554.0 931.4432717678081 0.5006864464953531 245.0 5.0 170.0 
88.00130421359648 30000.0 555.0 931.4327176781015 0.5000543976124523 245.0 5.0 170.0 
90.00130421359648 30000.0 555.0 931.4432717678081 0.5002902841679182 246.0 5.0 170.0 
92.00130421359648 29996.0 555.0 931.4696569920854 0.5004863187918395 246.0 5.0 170.0 
94.00130421359648 29992.0 555.0 931.509234828496 0.5000742086855148 246.0 5.0 170.0 
96.00130421359648 29992.0 555.0 931.5171503957768 0.5008434604416206 246.0 5.0 170.0 
98.00130421359648 29986.0 555.0 931.5039577836415 0.5000655941480951 246.0 5.0 170.0 
100.00130421359648 29988.0 556.0 931.467018469657 0.507915003347818 245.0 5.0 170.0 
102.00130421359648 29937.0 554.0 931.4511873350936 0.5040338140659677 245.0 5.0 170.0 
104.00130421359648 29917.0 554.0 931.4511873350936 0.4996448496443935 245.0 5.0 170.0 
106.00130421359648 29932.0 555.0 931.4696569920854 0.5047009453102874 245.0 5.0 170.0 
108.00130421359648 29898.0 554.0 931.4327176781015 0.49987608932653976 245.0 5.0 170.0 
110.00130421359648 29937.0 554.0 931.4643799472312 0.4998671778795096 245.0 5.0 170.0 
112.00130421359648 29984.0 554.0 931.4511873350936 0.5015220967764654 245.0 5.0 170.0 
114.00130421359648 29980.0 554.0 931.4459102902392 0.49987393265909225 245.0 5.0 170.0 
116.00130421359648 29980.0 554.0 931.4353562005282 0.5002788502968171 245.0 5.0 170.0 
118.00130421359648 29978.0 554.0 931.4459102902392 0.4997668915881239 245.0 5.0 170.0 
120.00130421359648 29980.0 554.0 931.4802110817928 0.49983260177178457 246.0 5.0 170.0 
122.00130421359648 29982.0 554.0 931.4934036939301 0.4998290642008823 248.0 5.0 170.0 
124.00130421359648 29982.0 554.0 931.4670184696566 0.500049718061709 248.0 5.0 170.0 
126.00130421359648 29980.0 554.0 928.4485488126646 0.4996499649306384 248.0 5.0 169.0 
128.00130421359648 29980.0 554.0 928.3746701846969 0.49971621474811984 247.0 5.0 169.0 
130.00130421359648 29980.0 554.0 928.41424802111 0.49971464054500936 245.0 5.0 169.0 
132.00130421359648 29980.0 554.0 928.36147757256 0.4997149434310377 244.0 5.0 169.0 
134.00130421359648 29980.0 554.0 928.437994722954 0.49971328072346466 244.0 5.0 169.0 
136.00130421359648 29980.0 554.0 928.3957783641176 0.4997143468593284 244.0 5.0 169.0 
138.00130421359648 29980.0 554.0 931.5435356200538 0.49962757377251077 244.0 5.0 170.0 
140.00130421359648 29980.0 554.0 931.4485488126649 0.49962924689642046 243.0 5.0 170.0 
142.00130421359648 29980.0 554.0 931.5092348284959 0.4996294003853628 242.0 5.0 170.0 
144.00130421359648 29980.0 554.0 931.411609498681 0.49963013529240025 242.0 5.0 170.0 
146.00130421359648 29980.0 554.0 931.4802110817927 0.5001892804936977 242.0 5.0 170.0 
148.00130421359648 29963.0 554.0 931.3905013192633 0.5066052507939762 242.0 5.0 170.0 
150.00130421359648 29868.0 553.0 931.4828496042234 0.49971223046407254 242.0 5.0 170.0 
152.00130421359648 29936.0 553.0 934.4432717678081 0.4999321574978719 243.0 5.0 171.0 
154.00130421359648 29972.0 554.0 934.5013192612153 0.4997471168409527 243.0 5.0 171.0 
156.00130421359648 29972.0 554.0 934.4089709762552 0.4997480762805542 243.0 5.0 171.0 
158.00130421359648 29972.0 554.0 934.4696569920859 0.4997468859993719 244.0 5.0 171.0 
160.00130421359648 29972.0 554.0 934.4089709762552 0.49974773100084846 244.0 5.0 171.0 
162.00130421359648 29972.0 554.0 934.5013192612153 0.4997468471114862 244.0 5.0 171.0 
164.00130421359648 29972.0 554.0 934.474934036938 0.499748322352606 244.0 5.0 171.0 
166.00130421359648 29972.0 554.0 931.5303430079142 0.4997250120147473 244.0 5.0 170.0 
168.00130421359648 29972.0 554.0 934.4670184696565 0.4999403683458598 244.0 5.0 171.0 
170.00130421359648 29970.0 554.0 934.5013192612151 0.49977181817498634 244.0 5.0 171.0 
172.00130421359648 29970.0 554.0 934.4248021108161 0.499922996380061 244.0 5.0 171.0 
174.00130421359648 29968.0 554.0 934.4643799472312 0.49977282529129285 243.0 5.0 171.0 
176.00130421359648 29968.0 554.0 934.4221635883908 0.499772901074318 243.0 5.0 171.0 
178.00130421359648 29968.0 554.0 934.5171503957768 0.5004578307147384 243.0 5.0 171.0 
180.00130421359648 29958.0 554.0 934.49340369393 0.4997834421507905 242.0 5.0 171.0 
182.00130421359648 29958.0 554.0 934.5118733509221 0.49978313394736373 242.0 5.0 171.0 
184.00130421359648 29958.0 554.0 934.4168865435362 0.4997849461267983 242.0 5.0 171.0 
186.00130421359648 29958.0 554.0 934.4986807387849 0.4997839279648533 241.0 5.0 171.0 
188.00130421359648 29958.0 554.0 934.4300791556726 0.5003275558523946 241.0 5.0 171.0 
190.00130421359648 29950.0 554.0 931.4696569920859 0.4996880830025059 241.0 5.0 170.0 
192.00130421359648 29950.0 554.0 931.4300791556727 0.4996889340078225 241.0 5.0 170.0 
194.00130421359648 29950.0 554.0 931.4907651715041 0.4996881076310212 241.0 5.0 170.0 
196.00130421359648 29950.0 554.0 931.4116094986807 0.499688835337941 241.0 5.0 170.0 
198.00130421359648 29950.0 554.0 931.432717678102 0.5003035378358639 241.0 5.0 170.0 
200.00130421359648 29942.0 554.0 931.3667546174148 0.4996987251623212 241.0 5.0 170.0 
202.00130421359648 29942.0 554.0 931.3984168865442 0.5000024039225865 241.0 5.0 170.0 
204.00130421359648 29938.0 554.0 931.3905013192633 0.4996975551834314 241.0 5.0 170.0 
206.00130421359648 29938.0 554.0 928.4353562005282 0.499697342975832 240.0 5.0 169.0 
208.00130421359648 29938.0 554.0 925.4300791556728 0.5042345598813114 241.0 5.0 168.0 
210.00128464453866 29908.0 553.0 925.4089709762552 0.5012024146167722 240.0 5.0 168.0 
212.00128464453866 29904.0 555.0 925.3456464379939 0.5083047373587666 240.0 5.0 168.0 
214.00128464453866 29804.0 554.0 928.3984168865442 0.49878632102904424 240.0 5.0 169.0 
216.00128464453866 29816.0 554.0 928.3720316622713 0.5009501916999145 240.0 5.0 169.0 
218.00128464453866 29812.0 554.0 928.4063324538241 0.5000822533248254 240.0 5.0 169.0 
220.00128464453866 29808.0 554.0 928.3957783641174 0.4998179014077686 241.0 5.0 169.0 
222.00128464453866 29808.0 554.0 928.448548812665 0.5009079740823897 241.0 5.0 169.0 
224.00128464453866 29817.0 554.0 928.4010554089704 0.49981165766659796 241.0 5.0 169.0 
226.00128464453866 29819.0 554.0 928.4195250659624 0.49981729205622166 241.0 5.0 169.0 
228.00128464453866 29834.0 554.0 928.3878627968322 0.5055674474303952 241.0 5.0 169.0 
230.00128464453866 29810.0 554.0 928.4327176781017 0.4995419678966557 241.0 5.0 169.0 
232.00128464453866 29812.0 554.0 928.3931398416892 0.4995418066988226 241.0 5.0 169.0 
234.00128464453866 29812.0 554.0 928.4459102902391 0.5002409962702915 241.0 5.0 169.0 
236.00128464453866 29837.0 555.0 928.4353562005282 0.5007330864132274 241.0 5.0 169.0 
238.00128464453866 29832.0 555.0 928.4538258575201 0.49978910864621634 240.0 5.0 169.0 
240.00128464453866 29829.0 555.0 928.3509234828482 0.4995412005170649 240.0 5.0 169.0 
242.00128464453866 29830.0 555.0 928.3667546174146 0.49957760019840136 240.0 5.0 169.0 
244.00128464453866 29830.0 555.0 928.3509234828482 0.5002624555044899 240.0 5.0 169.0 
246.00128464453866 29861.0 556.0 928.4116094986811 0.5004981862947601 240.0 5.0 169.0 
248.00121351336227 29926.0 557.0 928.4248021108161 0.5031067341621969 240.0 5.0 169.0 
250.00121351336227 29850.0 556.0 928.4881266490776 0.4996956311148357 240.0 5.0 169.0 
252.00121351336227 29850.0 556.0 928.4406332453827 0.4996969326640285 240.0 5.0 169.0 
254.00121351336227 29850.0 556.0 928.4406332453827 0.49969663630285893 240.0 5.0 169.0 
256.00121351336225 29852.0 556.0 925.3456464379937 0.4996856240120796 240.0 5.0 168.0 
258.00121351336225 29852.0 556.0 925.4010554089705 0.4996213935979975 240.0 5.0 168.0 
260.00121351336225 29852.0 556.0 925.3456464379941 0.49964696617498905 238.0 5.0 168.0 
262.00121351336225 29852.0 556.0 922.3139841688641 0.49977026997739366 237.0 5.0 167.0 
264.00121351336225 29851.0 556.0 922.3482849604225 0.4998522348627307 237.0 5.0 167.0 
266.00121351336225 29852.0 556.0 922.3693931398402 0.5004607305925087 237.0 5.0 167.0 
268.00121351336225 29854.0 556.0 922.3350923482869 0.4996572926015953 237.0 5.0 167.0 
270.00121351336225 29854.0 556.0 922.3271767810021 0.4996578878615511 237.0 5.0 167.0 
272.00121351336225 29854.0 556.0 922.3350923482869 0.49977416715110873 237.0 5.0 167.0 
274.00121351336225 29853.0 556.0 922.3667546174145 0.4998549159078898 237.0 5.0 167.0 
276.00121351336225 29860.0 556.0 922.3482849604225 0.4996682897804456 237.0 5.0 167.0 
278.00121351336225 29860.0 556.0 922.36147757256 0.4996684415761284 237.0 5.0 167.0 
280.00121351336225 29860.0 556.0 922.3377308707131 0.4996685419982206 237.0 5.0 167.0 
282.00121351336225 29860.0 556.0 922.3377308707131 0.5027728676896909 237.0 5.0 167.0 
284.00121351336225 29856.0 555.0 922.321899736145 0.4996023042961016 237.0 5.0 167.0 
286.00121351336225 29858.0 555.0 922.3087071240101 0.5001582069242877 237.0 5.0 167.0 
288.00121351336225 29860.0 555.0 922.3298153034306 0.49962974688037365 237.0 5.0 167.0 
290.00121351336225 29860.0 555.0 922.345646437994 0.499629332941308 237.0 5.0 167.0 
292.00121351336225 29860.0 555.0 922.356200527705 0.49962956509531986 237.0 5.0 167.0 
294.00121351336225 29860.0 555.0 922.3667546174145 0.4996302104349187 237.0 5.0 167.0 
296.00121351336225 29860.0 555.0 922.36147757256 0.4996314996089296 237.0 5.0 167.0 
298.00121351336225 29862.0 555.0 922.3377308707131 0.4996286277510907 237.0 5.0 167.0 
300.00121351336225 29862.0 555.0 922.321899736145 0.49962849612713217 237.0 5.0 167.0 
302.00121351336225 29862.0 555.0 922.340369393137 0.49972136696389385 237.0 5.0 167.0 
304.00121351336225 29861.0 555.0 922.3350923482869 0.4997917952370231 237.0 5.0 167.0 
306.00121351336225 29878.0 555.0 922.340369393137 0.49851843644005217 237.0 5.0 167.0 
308.00121351336225 29970.0 556.0 928.3878627968322 0.4996942100899943 238.0 5.0 169.0 
310.00121351336225 29970.0 556.0 928.4010554089703 0.49966807578702155 238.0 5.0 169.0 
312.00121351336225 29970.0 556.0 928.4089709762551 0.49974916332454244 238.0 5.0 169.0 
314.00121351336225 29969.0 556.0 928.4168865435362 0.49984486178134413 238.0 5.0 169.0 
316.00121351336225 29972.0 556.0 928.4168865435362 0.5002295361326653 238.0 5.0 169.0 
318.00121351336225 29970.0 556.0 931.5039577836415 0.4996786469141885 238.0 5.0 170.0 
320.00121351336225 29970.0 556.0 931.4643799472314 0.4996792813457408 238.0 5.0 170.0 
322.00121351336225 29970.0 556.0 931.4617414248007 0.4996792423801764 238.0 5.0 170.0 
324.00121351336225 29970.0 556.0 931.4327176781015 0.4996794957144616 238.0 5.0 170.0 
326.00121351336225 29970.0 556.0 931.4168865435362 0.49967933647897506 238.0 5.0 170.0 
328.00121351336225 29972.0 556.0 931.3905013192632 0.4996790569732982 238.0 5.0 170.0 
330.00121351336225 29972.0 556.0 931.4195250659624 0.4996781960841727 238.0 5.0 170.0 
332.00121351336225 29972.0 556.0 931.4221635883903 0.4997524335561248 238.0 5.0 170.0 
334.00121351336225 29971.0 556.0 931.4511873350936 0.4998659404049623 238.0 5.0 170.0 
336.00121351336225 29970.0 556.0 931.4564643799463 0.4996825406185486 238.0 5.0 170.0 
338.00121351336225 29970.0 556.0 934.5039577836412 0.4997147602574552 238.0 5.0 171.0 
340.00121351336225 29970.0 556.0 934.5039577836412 0.49979040930061747 238.0 5.0 171.0 
342.00121351336225 29969.0 556.0 934.4960422163588 0.5003312427149049 238.0 5.0 171.0 
344.00121351336225 29963.0 556.0 934.467018469657 0.5002362405331214 238.0 5.0 171.0 
346.00121351336225 29960.0 556.0 934.4617414248007 0.4997248293935607 238.0 5.0 171.0 
348.00121351336225 29960.0 556.0 934.4511873350938 0.4997245139920747 238.0 5.0 171.0 
350.00121351336225 29960.0 556.0 934.4538258575201 0.4997240866105288 237.0 5.0 171.0 
352.00121351336225 29960.0 556.0 934.4881266490777 0.5014187471902684 237.0 5.0 171.0 
354.00121351336225 29940.0 555.0 934.4854881266493 0.5046088189339971 237.0 5.0 171.0 
356.00121351336225 29922.0 555.0 934.4775725593669 0.49966631341711404 237.0 5.0 171.0 
358.00121351336225 29922.0 555.0 934.4617414248007 0.49966633206545114 238.0 5.0 171.0 
360.00121351336225 29922.0 555.0 934.4643799472314 0.4996664950282079 238.0 5.0 171.0 
362.00121351336225 29924.0 555.0 931.4511873350936 0.4996083951906385 238.0 5.0 170.0 
364.00121351336225 29923.0 555.0 931.4591029023745 0.5001400535988366 238.0 5.0 170.0 
366.00121351336225 29920.0 555.0 931.4406332453826 0.4997418878571593 238.0 5.0 170.0 
368.00121351336225 29920.0 555.0 931.4485488126652 0.4997421668141781 238.0 5.0 170.0 
370.00121351336225 29921.0 555.0 931.4142480211096 0.4997163084211713 238.0 5.0 170.0 
372.00121351336225 29958.0 556.0 931.4089709762551 0.4997568535016036 238.0 5.0 170.0 
374.00121351336225 29958.0 556.0 931.3825857519781 0.49975624360618376 238.0 5.0 170.0 
376.00121351336225 29958.0 556.0 931.4221635883903 0.49975550102783123 238.0 5.0 170.0 
378.00121351336225 29958.0 556.0 928.3931398416892 0.4997290407369716 241.0 5.0 169.0 
380.00121351336225 29958.0 556.0 928.4274406332472 0.49972910637690376 241.0 5.0 169.0 
382.00121351336225 29962.0 556.0 928.4168865435362 0.4996950784785807 241.0 5.0 169.0 
384.00121351336225 29962.0 556.0 931.4854881266492 0.49962926294922116 241.0 5.0 170.0 
386.00121351336225 29962.0 556.0 931.4459102902392 0.49963026481049466 241.0 5.0 170.0 
388.00121351336225 29962.0 556.0 934.490765171504 0.4996141423555889 242.0 5.0 171.0 
390.00121351336225 29962.0 556.0 934.4696569920857 0.4996139450764309 242.0 5.0 171.0 
392.00121351336225 29966.0 556.0 934.4960422163587 0.4997715372817631 242.0 5.0 171.0 
394.00121351336225 29964.0 556.0 934.4670184696569 0.5016389885623829 242.0 5.0 171.0 
396.00121351336225 29950.0 555.0 934.5013192612153 0.5040281261463054 242.0 5.0 171.0 
398.00121351336225 29940.0 555.0 934.4696569920857 0.4994863689746114 241.0 5.0 171.0 
400.00121351336225 29940.0 555.0 934.4802110817928 0.4994860040736151 241.0 5.0 171.0 
402.00121351336225 29942.0 555.0 937.5065963060697 0.49975372614641983 241.0 5.0 172.0 
404.00121351336225 29939.0 555.0 937.5408970976255 0.49963200099588634 241.0 5.0 172.0 
406.00121351336225 29938.0 555.0 937.5620052770456 0.4998056605644716 241.0 5.0 172.0 
408.00121351336225 29924.0 555.0 937.5303430079144 0.4994506336951235 242.0 5.0 172.0 
410.00121351336225 29924.0 555.0 937.5039577836415 0.4995325318341433 242.0 5.0 172.0 
412.00121351336225 29923.0 555.0 937.5145118733504 0.499661603434513 242.0 5.0 172.0 
414.00121351336225 29922.0 555.0 937.4907651715041 0.49980813951604475 242.0 5.0 172.0 
416.00121351336225 29918.0 555.0 934.4485488126652 0.5001168956099824 242.0 5.0 171.0 
418.00121351336225 29896.0 555.0 934.4459102902392 0.4994920038515371 241.0 5.0 171.0 
420.00121351336225 29894.0 555.0 934.4802110817927 0.49964485682971327 241.0 5.0 171.0 
422.00121351336225 29896.0 555.0 934.4802110817927 0.49947713717508846 241.0 5.0 171.0 
424.00121351336225 29894.0 555.0 934.4934036939305 0.49934052059301437 241.0 5.0 171.0 
426.00121351336225 29894.0 555.0 934.4722955145121 0.5047998502098089 241.0 5.0 171.0 
428.00121351336225 29864.0 555.0 934.5039577836417 0.49940700668213367 241.0 5.0 171.0 
430.00121351336225 29864.0 555.0 934.4749340369385 0.4994070979537817 241.0 5.0 171.0 
432.00121351336225 29864.0 555.0 934.4934036939305 0.49940687152291774 241.0 5.0 171.0 
434.00121351336225 29864.0 555.0 934.4749340369385 0.4994068791081693 241.0 5.0 171.0 
436.00121351336225 29916.0 556.0 934.4960422163583 0.5039573804920009 241.0 5.0 171.0 
438.00121351336225 29706.0 555.0 934.443271767808 0.49939924661212215 241.0 5.0 171.0 
440.00121351336225 29706.0 555.0 934.4617414248007 0.4993986339987634 241.0 5.0 171.0 
442.00128464453866 29726.0 555.0 931.4010554089706 0.49866742172607825 241.0 5.0 170.0 
444.00128464453866 29752.0 556.0 931.4300791556732 0.49949643926325 241.0 5.0 170.0 
446.00128464453866 29752.0 556.0 931.4274406332472 0.49949661834339926 241.0 5.0 170.0 
448.00128464453866 29752.0 556.0 931.4591029023744 0.4996551295002428 241.0 5.0 170.0 
450.00128464453866 29750.0 556.0 931.4722955145121 0.4994955460170168 241.0 5.0 170.0 
452.00128464453866 29752.0 556.0 931.4643799472314 0.4994540997054042 241.0 5.0 170.0 
454.00128464453866 29754.0 556.0 931.4300791556732 0.49947628628866936 241.0 5.0 170.0 
456.00128464453866 29755.0 556.0 931.4327176781015 0.49857999994044866 241.0 5.0 170.0 
458.00128464453866 29760.0 557.0 931.4089709762552 0.5001797444524634 242.0 5.0 170.0 
460.00128464453866 29750.0 557.0 931.4142480211095 0.4996462674620468 242.0 5.0 170.0 
462.00128464453866 29751.0 557.0 931.4116094986812 0.500015261666467 242.0 5.0 170.0 
464.00128464453866 29748.0 557.0 931.4485488126651 0.499487647664772 242.0 5.0 170.0 
466.00128464453866 29748.0 557.0 925.3720316622713 0.4994123005641112 241.0 5.0 168.0 
468.00128464453866 29748.0 557.0 925.4063324538241 0.5000576700738049 240.0 5.0 168.0 
470.00128464453866 29741.0 557.0 925.3641160949857 0.4994412083265612 240.0 5.0 168.0 
472.00128464453866 29774.0 558.0 928.4775725593665 0.49940401667803536 240.0 5.0 169.0 
474.00128464453866 29788.0 558.0 928.4195250659625 0.49945860320556323 239.0 5.0 169.0 
476.00128464453866 29788.0 558.0 928.4617414248007 0.49945790461217515 239.0 5.0 169.0 
478.00128464453866 29788.0 558.0 928.4327176781017 0.4999034866705056 238.0 5.0 169.0 
480.00128464453866 29783.0 558.0 928.4617414248007 0.4994271593253388 238.0 5.0 169.0 
482.00128464453866 29791.0 558.0 928.3852242744066 0.4993819513457619 237.0 5.0 169.0 
484.00128464453866 29796.0 558.0 928.411609498681 0.49944853323968186 237.0 5.0 169.0 
486.00128464453866 29796.0 558.0 928.3852242744066 0.4994480099039972 237.0 5.0 169.0 
488.00128464453866 29797.0 558.0 928.4485488126649 0.5001409156258557 236.0 5.0 169.0 
490.00128464453866 29790.0 558.0 928.4353562005282 0.49944617783214207 235.0 5.0 169.0 
492.00128464453866 29792.0 558.0 928.4828496042232 0.49953827672622747 235.0 5.0 169.0 
494.00128464453866 29791.0 558.0 928.4379947229545 0.4997087190501816 235.0 5.0 169.0 
496.00128464453866 29790.0 558.0 928.4591029023745 0.4994864211055537 235.0 5.0 169.0 
498.00128464453866 29836.0 559.0 928.411609498681 0.5077854700858753 235.0 5.0 169.0 
500.00128464453866 29776.0 557.0 928.4564643799464 0.49951961371774967 235.0 5.0 169.0 
502.00128464453866 29776.0 557.0 928.4089709762553 0.49970820896789936 235.0 5.0 169.0 
504.00128464453866 29774.0 557.0 928.4221635883905 0.49954071996635296 235.0 5.0 169.0 
506.00128464453866 29774.0 557.0 928.4036939313985 0.4995401091055344 235.0 5.0 169.0 
508.00128464453866 29776.0 557.0 928.4459102902392 0.501025333202538 235.0 5.0 169.0 
510.00128464453866 29775.0 557.0 928.4168865435362 0.4994840720817102 235.0 5.0 169.0 
512.0012846445387 29784.0 558.0 931.4907651715041 0.49960941680615195 235.0 5.0 170.0 
514.0012846445387 29784.0 558.0 931.4459102902393 0.4996099369728404 235.0 5.0 170.0 
516.0012846445387 29784.0 558.0 931.5171503957766 0.4996100087876996 235.0 5.0 170.0 
518.0012846445387 29784.0 558.0 931.4643799472314 0.4996089362169322 235.0 5.0 170.0 
520.0012846445387 29784.0 558.0 931.5250659630615 0.4996090827838794 235.0 5.0 170.0 
522.0012846445387 29784.0 558.0 931.443271767808 0.4998066810971116 235.0 5.0 170.0 
524.0012846445387 29782.0 558.0 931.467018469657 0.4996313521388269 235.0 5.0 170.0 
526.0012846445387 29782.0 558.0 931.3878627968322 0.4996310005317049 235.0 5.0 170.0 
528.0012846445387 29784.0 558.0 931.443271767808 0.4999660167165618 235.0 5.0 170.0 
530.0012846445387 29782.0 558.0 931.4168865435362 0.49961973087350486 235.0 5.0 170.0 
532.0012846445387 29782.0 558.0 931.4775725593663 0.4998789290971586 235.0 5.0 170.0 
534.0012846445387 29779.0 558.0 931.4300791556731 0.49979011454686045 235.0 5.0 170.0 
536.0012846445387 29824.0 559.0 931.4775725593663 0.5003608131625149 235.0 5.0 170.0 
538.0012846445387 29822.0 559.0 931.4459102902393 0.5015942240462135 235.0 5.0 170.0 
540.0012846445387 29820.0 559.0 931.4881266490775 0.49952070957131184 235.0 5.0 170.0 
542.0012846445387 29819.0 559.0 931.4221635883903 0.4996355586347757 235.0 5.0 170.0 
544.0012846445387 29818.0 559.0 931.4617414248007 0.4994308036846274 235.0 5.0 170.0 
546.0012846445387 29848.0 559.0 931.4089709762553 0.4995009024260658 235.0 5.0 170.0 
548.0012846445387 29854.0 559.0 931.4538258575201 0.49948291283796614 235.0 5.0 170.0 
550.0012846445387 29856.0 560.0 931.4063324538241 0.49901774136014615 235.0 5.0 170.0 
552.0012846445387 29861.0 560.0 931.4511873350934 0.49799861171602555 235.0 5.0 170.0 
554.0012846445387 29865.0 561.0 931.3852242744064 0.49932572060114727 235.0 5.0 170.0 
556.0012846445387 29864.0 561.0 931.4511873350934 0.5002874978319057 235.0 5.0 170.0 
558.0012846445387 29860.0 560.0 931.4195250659626 0.5027231641700279 235.0 5.0 170.0 
560.0012846445387 29886.0 561.0 931.5118733509225 0.4997101830406801 235.0 5.0 170.0 
562.0012846445387 29928.0 562.0 931.448548812665 0.5033692115986014 235.0 5.0 170.0 
564.0012846445387 29918.0 561.0 931.467018469657 0.4996232730267115 235.0 5.0 170.0 
566.0012846445387 29920.0 561.0 931.4010554089707 0.500791586614372 238.0 5.0 170.0 
568.0012846445387 29913.0 561.0 931.4459102902393 0.5074319385776905 239.0 5.0 170.0 
570.0012846445387 29906.0 560.0 931.3852242744064 0.49960802089085454 239.0 5.0 170.0 
572.0013042135965 29906.0 560.0 931.4459102902393 0.5002227871390428 239.0 5.0 170.0 
574.0013042135965 29973.0 561.0 931.3957783641173 0.5011924523492028 239.0 5.0 170.0 
576.0013042135965 29982.0 562.0 934.5145118733504 0.5042599375644302 239.0 5.0 171.0 
578.0013042135965 29955.0 561.0 934.4670184696568 0.5057033809829434 241.0 5.0 171.0 
580.0013042135965 29984.0 561.0 928.4617414248007 0.4999890492772993 241.0 5.0 169.0 
582.0013042135965 29982.0 561.0 934.4828496042232 0.5063712165856006 241.0 5.0 171.0 
584.0013042135965 29957.0 559.0 934.5118733509224 0.5058683073007657 241.0 5.0 171.0 
586.0013042135965 29948.0 559.0 931.4353562005282 0.4996375070199107 241.0 5.0 170.0 
588.0013042135965 29986.0 560.0 931.4960422163588 0.49948016120162264 241.0 5.0 170.0 
590.0013042135965 30002.0 560.0 931.4564643799462 0.4995441621116431 241.0 5.0 170.0 
592.0013042135965 30002.0 560.0 931.4670184696565 0.4995437714368819 241.0 5.0 170.0 
594.0013042135965 30014.0 560.0 934.4274406332472 0.499529318121708 245.0 5.0 171.0 
596.0013042135965 30015.0 560.0 934.4828496042232 0.49955265445681096 245.0 5.0 171.0 
598.0013042135965 30020.0 560.0 934.4485488126647 0.49976431943958854 245.0 5.0 171.0 
600.0013042135965 30020.0 560.0 934.5277044854879 0.49954929182473573 245.0 5.0 171.0 
602.0013042135965 30020.0 560.0 934.4670184696568 0.4995989005077523 245.0 5.0 171.0 
604.0013042135965 30020.0 560.0 934.5435356200537 0.49955107046456754 245.0 5.0 171.0 
606.0013042135965 30023.0 560.0 934.4670184696568 0.4995092531084326 245.0 5.0 171.0 
608.0013042135965 30030.0 560.0 934.5118733509224 0.49979152164124857 246.0 5.0 171.0 
610.0013042135965 30030.0 560.0 934.4538258575201 0.4995459743763568 246.0 5.0 171.0 
612.0013042135965 30030.0 560.0 934.4934036939303 0.49959754172530857 246.0 5.0 171.0 
614.0013042135965 30028.0 560.0 934.4274406332472 0.4995481521095451 246.0 5.0 171.0 
616.0013042135965 30028.0 560.0 934.4881266490776 0.49983801024066865 246.0 5.0 171.0 
618.0013042135965 30024.0 560.0 934.4749340369383 0.4996221774469588 246.0 5.0 171.0 
620.0013042135965 30024.0 560.0 934.5171503957768 0.4995510042661345 246.0 5.0 171.0 
622.0013042135965 30028.0 561.0 937.5277044854879 0.502118470016759 246.0 5.0 172.0 
624.0013042135965 30016.0 560.0 937.5461741424799 0.4995795075622129 246.0 5.0 172.0 
626.0013042135965 30100.0 561.0 937.5250659630616 0.5030102245423088 245.0 5.0 172.0 
628.0013042135965 30034.0 560.0 937.5804749340375 0.499811503352391 245.0 5.0 172.0 
630.0013042135965 30046.0 560.0 937.5461741424799 0.49958195965319135 245.0 5.0 172.0 
632.0013042135965 30046.0 560.0 937.5857519788904 0.499754667548081 245.0 5.0 172.0 
634.0013042135965 30038.0 560.0 937.509234828496 0.49958979505504947 245.0 5.0 172.0 
636.0013042135965 30038.0 560.0 937.5224274406335 0.4995889532905902 245.0 5.0 172.0 
638.0013042135965 30038.0 560.0 937.4828496042232 0.49966564163041877 245.0 5.0 172.0 
640.0013042135965 30041.0 560.0 937.5593667546174 0.5057780614565784 245.0 5.0 172.0 
642.0013042135965 30030.0 559.0 934.5013192612153 0.5002810773661105 245.0 5.0 171.0 
644.0013042135965 30026.0 559.0 934.5277044854879 0.4998300663678199 244.0 5.0 171.0 
646.0013042135965 30026.0 559.0 934.5329815303429 0.49983044643756896 244.0 5.0 171.0 
648.0013042135965 30026.0 559.0 934.5751978891839 0.49983185319112283 244.0 5.0 171.0 
650.0013042135965 30042.0 559.0 934.5382585751993 0.5007436915749268 244.0 5.0 171.0 
652.0013042135965 30038.0 559.0 934.5224274406337 0.5024876365127562 244.0 5.0 171.0 
654.0013042135965 30035.0 559.0 934.4696569920853 0.504841243911436 244.0 5.0 171.0 
656.0013042135965 30034.0 558.0 940.6042216358827 0.4999173521993704 244.0 5.0 173.0 
658.0013042135965 30034.0 558.0 943.6226912928789 0.49986522396969385 244.0 5.0 174.0 
660.0013042135965 30147.0 559.0 940.6437994722954 0.5015284855060139 244.0 5.0 173.0 
662.0013042135965 30244.0 559.0 943.6200527704478 0.5034431267545552 242.0 5.0 174.0 
664.0013042135965 30254.0 558.0 943.6490765171518 0.4994642152539938 242.0 5.0 174.0 
#####################################################################
# End of data export. Simulation finished at: 2019-03-06T04:21+0000 #
#####################################################################
