#####################################################################
# Alchemist log file - simulation started at: 2019-03-04T14:11+0000 #
#####################################################################
# seed = 6.0, bandwidth = 1000.0, accessPointCount = 1031.338537721246, baserange = 177.82794100389228
#
# The columns have the following meaning: 
# time neighbor_count[Sum] <value>@neighbor_count[Sum] packet_size[Mean] mean_delay[Mean] crowd[Sum] overcrowded[Sum] risk[Sum] 
0.0 NaN NaN NaN NaN NaN NaN NaN 
2.0013042135964882 NaN NaN 4978.212025316456 NaN 1497.0 0.0 1497.0 
4.001304213596488 NaN NaN 4978.212025316456 NaN 1497.0 0.0 1497.0 
6.001304213596488 192.0 132.0 4978.256329113924 0.3222461499323373 1497.0 0.0 1497.0 
8.001304213596487 362.0 246.0 4978.873417721519 2.031972788359307 1497.0 0.0 1497.0 
10.001304213596487 362.0 246.0 4978.76740506329 4.003528343914862 1497.0 0.0 1497.0 
12.001304213596487 888.0 561.0 4979.344936708861 1.3751454168363817 1497.0 0.0 1497.0 
14.001304213596487 888.0 561.0 4979.2594936708865 3.375145416836382 1497.0 0.0 1497.0 
16.001304213596487 1104.0 715.0 4979.297468354431 3.362806109780609 1497.0 0.0 1497.0 
18.001304213596487 1293.0 824.0 4980.066455696202 4.061961133916705 1497.0 0.0 1497.0 
20.001304213596487 1293.0 824.0 4979.920886075949 6.056496653042388 1497.0 0.0 1497.0 
22.001304213596487 1790.0 1124.0 4980.3844936708865 3.292294453349098 1497.0 0.0 1497.0 
24.001304213596487 1790.0 1124.0 4980.007911392406 5.196979846607524 1497.0 0.0 1497.0 
26.001304213596487 2062.0 1279.0 4980.080696202532 5.244018818209647 1497.0 0.0 1497.0 
28.001304213596487 2246.0 1349.0 4980.639240506329 6.041841691890435 1497.0 0.0 1497.0 
30.001304213596487 2249.0 1350.0 4980.694620253164 7.945629729940438 1497.0 0.0 1497.0 
32.001304213596484 2774.0 1587.0 4981.257911392406 5.03760927697025 1497.0 0.0 1497.0 
34.001304213596484 2774.0 1587.0 4981.117088607594 6.92783184265804 1497.0 0.0 1497.0 
36.001304213596484 2874.0 1619.0 4981.068037974683 7.645653191841809 1497.0 0.0 1497.0 
38.001304213596484 2963.0 1640.0 4981.229430379747 8.4215983203061 1497.0 0.0 1497.0 
40.001304213596484 2967.0 1641.0 4981.245253164557 10.338536258549546 1497.0 0.0 1497.0 
42.001304213596484 3178.0 1705.0 4981.504746835443 6.94025698394119 1497.0 0.0 1497.0 
44.001304213596484 3178.0 1705.0 4981.23259493671 8.722280747301866 1497.0 0.0 1497.0 
46.001304213596484 3343.0 1735.0 4981.199367088608 8.568825258343466 1497.0 0.0 1497.0 
48.001304213596484 3416.0 1745.0 4981.346518987341 8.780528828715925 1497.0 0.0 1497.0 
50.001304213596484 3418.0 1746.0 4981.346518987341 10.638054930046819 1497.0 0.0 1497.0 
52.001304213596484 3296.0 1720.0 4981.43670886076 7.710034454474414 1497.0 0.0 1497.0 
54.001304213596484 3296.0 1720.0 4981.242088607594 9.48632399548269 1497.0 0.0 1497.0 
56.001304213596484 3398.0 1735.0 4981.417721518987 9.066238838753959 1497.0 0.0 1497.0 
58.001304213596484 3415.0 1734.0 4981.337025316456 9.351921265979694 1497.0 0.0 1497.0 
60.001304213596484 3420.0 1737.0 4981.287974683544 11.209024318489456 1497.0 0.0 1497.0 
62.001304213596484 3344.0 1686.0 509.21360759493547 6.009775852518019 442.0 0.0 60.0 
64.00130421359648 3344.0 1686.0 509.1376582278495 6.8689489709116325 404.0 0.0 60.0 
66.00130421359648 3478.0 1724.0 540.1867088607601 6.493642307645545 374.0 0.0 77.0 
68.00130421359648 3602.0 1753.0 565.5854430379775 6.325504373227799 345.0 0.0 91.0 
70.00003228022989 3599.0 1753.0 565.5189873417693 6.990607677916579 337.0 0.0 91.0 
72.00130421359648 3837.0 1780.0 602.0110759493721 5.1051227811051785 301.0 0.0 111.0 
74.00130421359648 3839.0 1780.0 601.8639240506279 5.559685083516754 292.0 0.0 111.0 
76.00130421359648 4038.0 1806.0 636.6645569620218 4.481776561658836 286.0 0.0 130.0 
78.00130421359648 4174.0 1810.0 654.580696202535 3.8261306349648283 279.0 0.0 140.0 
80.00003228022989 4174.0 1810.0 654.5632911392446 4.2191259479434855 273.0 0.0 140.0 
82.00130421359648 4401.0 1866.0 665.561708860757 3.6196896672458405 272.0 0.0 146.0 
84.00130421359648 4405.0 1867.0 665.6360759493734 4.044599424064299 275.0 0.0 146.0 
86.00130421359648 4397.0 1869.0 691.1787974683466 3.36951106136479 261.0 0.0 160.0 
88.00130421359648 4382.0 1868.0 700.1170886075977 2.8277687871812875 243.0 0.0 165.0 
90.00003228022989 4384.0 1867.0 700.0854430379784 3.0917571533048713 234.0 0.0 165.0 
92.00130421359648 4557.0 1904.0 716.5585443037949 2.7747504068521724 242.0 0.0 174.0 
94.00130421359648 4557.0 1905.0 716.5253164556993 3.0162626511418353 241.0 0.0 174.0 
96.00038520705421 4652.0 1939.0 718.3797468354405 3.0334115408621267 245.0 0.0 175.0 
98.00130421359648 4626.0 1938.0 718.3607594936755 3.083281030454119 241.0 0.0 175.0 
100.00003228022989 4626.0 1939.0 718.3417721519039 3.3642376369848077 237.0 0.0 175.0 
102.00038520705421 5347.0 1980.0 782.0490506329052 3.104829114864757 272.0 0.0 210.0 
104.00130421359648 5303.0 1974.0 781.9034810126536 3.2746285960986405 269.0 0.0 210.0 
106.00130421359648 5107.0 1950.0 781.9699367088601 2.7138744720826162 261.0 0.0 210.0 
108.00038520705421 4954.0 1951.0 781.6914556962065 2.5961871377801553 259.0 0.0 210.0 
110.00003228022989 4983.0 1954.0 781.7183544303743 2.67988222990395 258.0 0.0 210.0 
112.00130421359648 5494.0 1991.0 814.6803797468386 2.674512386806848 292.0 0.0 228.0 
114.00038520705421 5408.0 1985.0 814.4651898734195 2.5186883039021706 286.0 0.0 228.0 
116.00130421359648 5430.0 1987.0 825.3718354430441 2.718100163676154 294.0 0.0 234.0 
118.00130421359648 5428.0 1989.0 827.1202531645594 2.8325117582628274 295.0 0.0 235.0 
120.00003228022989 5453.0 1991.0 821.764240506324 3.0081082327897195 304.0 0.0 232.0 
122.00130421359648 5721.0 2027.0 851.0775316455587 2.747235050654151 327.0 0.0 248.0 
124.00130421359648 5700.0 2023.0 850.9905063291184 2.9663157749802784 324.0 0.0 248.0 
126.00038520705421 5750.0 2030.0 851.0981012658156 2.9721864167230523 325.0 0.0 248.0 
128.00130421359648 5752.0 2026.0 850.9477848101166 3.021031694148278 324.0 0.0 248.0 
130.0000322802299 5758.0 2027.0 850.9193037974637 3.2965170488406423 325.0 0.0 248.0 
132.00038520705422 5332.0 2010.0 849.1392405063239 2.9807644641539808 325.0 0.0 247.0 
134.00130421359648 5339.0 2011.0 849.0981012658156 3.038559398533418 324.0 0.0 247.0 
136.00130421359648 5402.0 2014.0 849.1408227848159 3.170941227352503 329.0 0.0 247.0 
138.00038520705422 5483.0 2017.0 850.9034810126524 3.184092953308983 330.0 0.0 248.0 
140.0000322802299 5379.0 2009.0 850.9256329113965 3.175576618143125 327.0 0.0 248.0 
142.00130421359648 5499.0 2020.0 883.5870253164658 2.778332014330032 340.0 0.0 266.0 
144.00038520705422 5512.0 2024.0 883.4018987341859 3.1261707589576457 340.0 0.0 266.0 
146.00130421359648 5569.0 2039.0 890.7104430379787 3.1268777249039887 342.0 0.0 270.0 
148.00130421359648 5623.0 2041.0 901.6139240506246 3.312565175578759 346.0 0.0 276.0 
150.0000322802299 5437.0 2032.0 901.6661392405152 3.2522266831092095 335.0 0.0 276.0 
152.00130421359648 5428.0 2029.0 899.9414556962093 2.8068110792365637 340.0 0.0 275.0 
154.00130421359648 5395.0 2023.0 897.9699367088601 2.7329667145493066 342.0 0.0 274.0 
156.00038520705422 5433.0 2027.0 905.2215189873494 2.584542350685005 345.0 0.0 278.0 
158.00130421359648 5623.0 2044.0 912.604430379742 2.634059099511061 350.0 0.0 282.0 
160.0000322802299 5661.0 2045.0 914.3117088607682 2.641885928841328 351.0 0.0 283.0 
162.00038520705422 5988.0 2070.0 925.4525316455563 2.6115909371168318 371.0 0.0 289.0 
164.00130421359648 6090.0 2080.0 925.3401898734182 2.8611882796658863 370.0 1.0 288.0 
166.00130421359648 6349.0 2092.0 938.1867088607651 2.8620042556530905 385.0 1.0 295.0 
168.00038520705422 6577.0 2116.0 947.3623417721608 2.960404374199623 386.0 1.0 300.0 
170.0000322802299 6608.0 2119.0 949.125 3.155862212767162 385.0 1.0 301.0 
172.00130421359648 6409.0 2108.0 952.8053797468389 2.9136413573833795 390.0 1.0 303.0 
174.00038520705422 6414.0 2106.0 952.776898734186 3.1182592912084823 388.0 1.0 303.0 
176.00130421359648 6449.0 2115.0 954.5743670886033 3.2783302147303375 391.0 1.0 304.0 
178.00130421359648 6471.0 2119.0 956.4287974683497 3.5321251617826634 392.0 1.0 305.0 
180.0000322802299 6442.0 2118.0 958.2151898734148 3.5964584429608895 393.0 1.0 306.0 
182.00130421359648 6269.0 2103.0 958.219936708865 3.4405160633800156 390.0 1.0 306.0 
184.00130421359648 6269.0 2105.0 958.0759493670907 3.702578854104349 391.0 1.0 306.0 
186.00038520705422 6183.0 2095.0 956.3528481012542 3.5425035971308976 386.0 1.0 305.0 
188.00130421359648 5983.0 2075.0 956.2436708860753 3.5173806415047837 385.0 1.0 305.0 
190.0000322802299 5925.0 2071.0 950.6962025316506 3.669051450546168 379.0 1.0 302.0 
192.00038520705422 5702.0 2053.0 936.2405063291186 3.571761748608193 375.0 1.0 294.0 
194.00130421359648 5611.0 2047.0 937.9398734177202 3.4672240830609353 374.0 1.0 295.0 
196.00130421359648 5457.0 2042.0 938.0332278480927 3.337919577724809 371.0 1.0 295.0 
198.00038520705422 5227.0 2017.0 934.25 2.9748813401385408 369.0 0.0 294.0 
200.0000322802299 5108.0 2009.0 919.580696202535 2.9681003781552326 356.0 0.0 286.0 
202.00130421359648 5048.0 2005.0 908.6851265822798 2.9218505188476533 350.0 0.0 280.0 
204.00038520705422 5035.0 2006.0 908.5427215189754 2.8573004251800453 348.0 0.0 280.0 
206.00130421359648 5013.0 2002.0 908.553797468345 2.6505186353902515 349.0 0.0 280.0 
208.00130421359648 5042.0 2003.0 903.3101265822798 2.453390979180086 340.0 0.0 277.0 
210.0000322802299 5034.0 2006.0 897.7246835443005 2.5002359929983493 337.0 0.0 274.0 
212.00130421359648 5217.0 2028.0 905.1170886076048 2.4025921919126776 345.0 0.0 278.0 
214.00130421359648 5326.0 2035.0 916.0632911392333 2.41379062697545 348.0 0.0 284.0 
216.00038520705422 5385.0 2038.0 921.4984177215134 2.3543195278205045 350.0 0.0 287.0 
218.00130421359648 5436.0 2043.0 923.2911392405152 2.383837605716748 352.0 0.0 288.0 
220.0000322802299 5497.0 2047.0 923.3101265822798 2.6659825319315034 352.0 0.0 288.0 
222.00038520705422 5553.0 2052.0 917.9936708860723 2.6599451864521586 357.0 0.0 285.0 
224.00130421359648 5609.0 2058.0 918.0221518987447 2.7948298162097704 356.0 0.0 285.0 
226.00130421359648 5770.0 2069.0 916.248417721513 2.731026809613584 355.0 0.0 284.0 
228.00038520705422 6043.0 2082.0 936.3939873417645 2.7677165323240436 367.0 0.0 295.0 
230.0000322802299 6099.0 2087.0 925.4240506329064 2.904099462005099 362.0 0.0 289.0 
232.00130421359648 6139.0 2091.0 907.3291139240441 2.9721819908892044 354.0 0.0 279.0 
234.00038520705422 6162.0 2091.0 903.6962025316546 3.170138340330749 358.0 0.0 277.0 
236.00130421359648 6191.0 2093.0 903.7863924050686 3.1884471717572733 364.0 0.0 277.0 
238.00130421359648 6281.0 2100.0 898.4794303797418 3.2694145200503124 362.0 0.0 274.0 
240.0000322802299 6292.0 2100.0 896.5332278480929 3.4220951743408015 361.0 0.0 273.0 
242.00130421359648 6384.0 2095.0 923.9113924050688 3.0081379219782405 376.0 0.0 288.0 
244.00130421359648 6311.0 2090.0 923.6677215189758 3.114143013323755 378.0 0.0 288.0 
246.00038520705422 6265.0 2088.0 925.4382911392337 3.1841720206833237 375.0 0.0 289.0 
248.00130421359648 6303.0 2095.0 925.4414556962073 3.3045067412598232 371.0 0.0 289.0 
250.0000322802299 6265.0 2094.0 929.1218354430458 3.2230002677129663 376.0 0.0 291.0 
252.00038520705422 6306.0 2101.0 927.3259493670939 3.0989694930206446 375.0 0.0 290.0 
254.00130421359648 6333.0 2099.0 929.1091772151851 3.2136738866557697 377.0 0.0 291.0 
256.0013042135965 6200.0 2092.0 920.0743670886033 3.225676129455793 376.0 0.0 286.0 
258.0003852070542 6024.0 2088.0 918.2215189873488 2.9534126441562925 376.0 0.0 285.0 
260.0000322802299 6036.0 2087.0 905.3322784810251 3.005817742244004 370.0 0.0 278.0 
262.0013042135965 6131.0 2091.0 916.3670886076048 3.0424791571437058 378.0 0.0 284.0 
264.0003852070542 6108.0 2089.0 916.2816455696282 3.253325689070676 377.0 0.0 284.0 
266.0013042135965 6008.0 2084.0 919.9905063291186 3.1776401403501087 374.0 0.0 286.0 
268.0013042135965 5900.0 2075.0 923.5174050633044 2.958235658807459 374.0 0.0 288.0 
270.0000322802299 5899.0 2076.0 925.2310126582354 3.0417283989941537 374.0 0.0 289.0 
272.0013042135965 5795.0 2075.0 928.9287974683464 2.9807188495083814 380.0 0.0 291.0 
274.0013042135965 5804.0 2077.0 934.390822784814 3.1243908243595766 383.0 0.0 294.0 
276.0003852070542 5805.0 2076.0 938.0047468354404 3.2108597180343827 381.0 0.0 296.0 
278.0013042135965 5857.0 2075.0 943.5063291139251 3.0106397102418634 388.0 0.0 299.0 
280.0000322802299 5802.0 2071.0 945.2848101265845 3.0893750628622483 386.0 0.0 300.0 
282.0003852070542 5711.0 2065.0 945.2626582278398 2.9019127476827884 382.0 1.0 299.0 
284.0013042135965 5643.0 2059.0 945.1740506329085 2.800463963146007 378.0 1.0 299.0 
286.0013042135965 5632.0 2055.0 943.3417721519073 2.8757280906081086 374.0 1.0 298.0 
288.0003852070542 5627.0 2057.0 943.5110759493716 2.926617499294812 373.0 0.0 299.0 
290.0000322802299 5619.0 2056.0 943.2721518987452 2.895962977440006 370.0 0.0 299.0 
292.0013042135965 5643.0 2065.0 945.2136075949312 2.646558110281881 373.0 0.0 300.0 
294.0003852070542 5692.0 2071.0 945.1471518987452 2.917610192983092 372.0 0.0 300.0 
296.0013042135965 5703.0 2073.0 930.5712025316534 3.07019930924464 373.0 0.0 292.0 
298.0013042135965 5763.0 2081.0 932.5 3.0526580979062623 377.0 0.0 293.0 
300.0000322802299 5786.0 2082.0 934.2958860759562 3.1617379631421487 376.0 0.0 294.0 
302.0013042135965 5730.0 2076.0 930.6993670886033 3.0525053998498 372.0 0.0 292.0 
304.0013042135965 5742.0 2075.0 930.6946202531611 3.2169141651260262 374.0 0.0 292.0 
306.0003852070542 5803.0 2087.0 930.677215189883 3.27162240204073 373.0 0.0 292.0 
308.0013042135965 5715.0 2086.0 929.0854430379774 2.9880299852954146 363.0 0.0 291.0 
310.0000322802299 5668.0 2080.0 930.6867088607667 3.0110055682998222 364.0 0.0 292.0 
312.0013042135965 5625.0 2072.0 930.6946202531611 2.849610761884913 361.0 0.0 292.0 
314.0013042135965 5640.0 2075.0 930.6471518987456 2.8905717812992773 363.0 0.0 292.0 
316.0013042135965 5670.0 2078.0 914.3639240506252 2.959654249874758 357.0 0.0 283.0 
318.0013042135965 5776.0 2090.0 918.0743670886033 2.956229684634722 363.0 0.0 285.0 
320.0000322802299 5826.0 2090.0 914.3623417721632 3.1896926426869037 368.0 0.0 283.0 
322.0013042135965 5730.0 2083.0 912.5411392405152 3.0060523083095907 369.0 0.0 282.0 
324.0013042135965 5723.0 2084.0 912.5363924050685 2.9986600920585182 368.0 0.0 282.0 
326.0013042135965 5781.0 2085.0 905.3132911392328 2.9876856905164413 362.0 0.0 278.0 
328.0013042135965 5753.0 2085.0 905.3496835443004 3.0361041601821146 359.0 0.0 278.0 
330.0000322802299 5706.0 2084.0 901.6297468354404 3.273239987347505 356.0 0.0 276.0 
332.0003852070542 5744.0 2084.0 879.9430379746756 3.0114233309792198 343.0 0.0 264.0 
334.0013042135965 5730.0 2082.0 879.9145569620214 2.981861033024927 342.0 0.0 264.0 
336.0013042135965 5650.0 2073.0 878.0886075949319 2.9451473337790692 342.0 0.0 263.0 
338.0003852070542 5560.0 2062.0 874.3544303797418 2.866982187492289 337.0 0.0 261.0 
340.0000322802299 5564.0 2063.0 872.4731012658161 2.948350421887157 334.0 0.0 260.0 
342.0013042135965 5652.0 2073.0 885.2689873417648 2.9571755161650533 343.0 0.0 267.0 
344.0003852070542 5865.0 2080.0 896.31012658228 2.8186517195468292 348.0 0.0 273.0 
346.0013042135965 5825.0 2075.0 899.9430379746752 2.9405880518874823 348.0 0.0 275.0 
348.0013042135965 5735.0 2063.0 903.6107594936763 2.8485874656488095 348.0 0.0 277.0 
350.0000322802299 5728.0 2063.0 908.9272151898838 2.8823543559734666 348.0 0.0 280.0 
352.0013042135965 5988.0 2086.0 910.930379746839 2.8717611344233465 361.0 0.0 281.0 
354.0013042135965 6232.0 2093.0 930.9857594936765 2.8784589601780515 379.0 0.0 292.0 
356.0003852070542 6179.0 2091.0 930.8908227848142 2.899125776622958 378.0 0.0 292.0 
358.0013042135965 6174.0 2094.0 934.4952531645596 2.8745779532414626 375.0 0.0 294.0 
360.0000322802299 6161.0 2092.0 930.8132911392344 3.0337941860841973 371.0 0.0 292.0 
362.0003852070542 6130.0 2088.0 934.5490506329066 2.9193738052324325 372.0 0.0 294.0 
364.0013042135965 6111.0 2088.0 927.1487341772107 2.9758898033516425 364.0 0.0 290.0 
366.0013042135965 6087.0 2084.0 923.5174050633042 3.0496424579453096 361.0 0.0 288.0 
368.0003852070542 6074.0 2083.0 912.6313291139292 3.0670284685496823 353.0 0.0 282.0 
370.0000322802299 6058.0 2081.0 905.3196202531609 3.2738311124985437 351.0 0.0 278.0 
372.0013042135965 6050.0 2079.0 907.3386075949302 3.276699427137944 354.0 0.0 279.0 
374.0003852070542 5865.0 2077.0 909.196202531655 3.298412853102958 360.0 1.0 279.0 
376.0013042135965 5910.0 2084.0 907.371835443048 3.2932894406427375 370.0 1.0 278.0 
378.0013042135965 5958.0 2086.0 914.7610759493748 3.297154484320502 372.0 0.0 283.0 
380.0000322802299 6073.0 2096.0 914.625 3.4496343590363994 376.0 0.0 283.0 
382.0013042135965 5884.0 2073.0 916.5870253164651 3.0797356801377944 380.0 0.0 284.0 
384.0013042135965 5689.0 2070.0 921.7879746835346 2.8809686008620554 369.0 0.0 287.0 
386.0003852070542 5768.0 2078.0 921.7167721519078 2.8158322427346487 368.0 0.0 287.0 
388.0013042135965 5834.0 2086.0 921.7768987341855 2.778653248136754 368.0 0.0 287.0 
390.0000322802299 5900.0 2092.0 916.2768987341859 2.881653687837754 365.0 0.0 284.0 
392.0003852070542 5908.0 2094.0 912.6898734177202 2.808278232916445 364.0 0.0 282.0 
394.0013042135965 5935.0 2094.0 914.4794303797419 2.8248950524451124 371.0 0.0 283.0 
396.0013042135965 5978.0 2100.0 918.093354430371 2.9755422190769445 374.0 0.0 285.0 
398.0003852070542 6068.0 2110.0 916.3085443037912 3.096195976796084 377.0 0.0 284.0 
400.0000322802299 6114.0 2113.0 916.2943037974642 3.3947027677048056 377.0 0.0 284.0 
402.0013042135965 6124.0 2114.0 918.1677215189748 3.4896814224408153 375.0 0.0 285.0 
404.0003852070542 6128.0 2106.0 916.352848101254 3.481080500103225 376.0 0.0 284.0 
406.0013042135965 6084.0 2105.0 918.1708860759562 3.5929987009383875 374.0 0.0 285.0 
408.0013042135965 6000.0 2099.0 912.6914556962089 3.5314915493934387 375.0 0.0 282.0 
410.0000322802299 5876.0 2088.0 912.6471518987458 3.467554051099849 378.0 0.0 282.0 
412.0013042135965 5746.0 2078.0 912.6028481012542 3.3595842361181827 373.0 0.0 282.0 
414.0013042135965 5692.0 2075.0 916.1550632911392 3.400057914437699 374.0 0.0 284.0 
416.0003852070542 5621.0 2068.0 916.1661392405152 3.275531640445002 378.0 0.0 284.0 
418.0013042135965 5534.0 2058.0 914.4272151898846 3.0730966052799498 375.0 0.0 283.0 
420.0000322802299 5439.0 2050.0 916.0569620253254 3.002299376204107 373.0 0.0 284.0 
422.0003852070542 5454.0 2058.0 916.1392405063235 2.8392128938490284 369.0 0.0 284.0 
424.0013042135965 5421.0 2054.0 917.8291139240438 2.884420079867544 363.0 0.0 285.0 
426.0013042135965 5455.0 2054.0 921.5379746835338 2.8376902354041813 365.0 0.0 287.0 
428.0003852070542 5386.0 2047.0 919.7911392405152 2.764514912824245 366.0 0.0 286.0 
430.0000322802299 5399.0 2050.0 919.6677215189749 2.814531408632194 367.0 0.0 286.0 
432.0013042135965 5425.0 2056.0 896.1155063291185 2.8067941668183964 356.0 0.0 273.0 
434.0003852070542 5387.0 2053.0 894.2215189873482 2.7744589624475746 353.0 0.0 272.0 
436.0013042135965 5440.0 2056.0 899.7136075949314 2.7957022856602913 349.0 0.0 275.0 
438.0013042135965 5482.0 2055.0 905.2974683544433 2.817572306192105 354.0 0.0 278.0 
440.0000322802299 5480.0 2052.0 903.3939873417647 2.7665140096348297 350.0 0.0 277.0 
442.0013042135965 5495.0 2054.0 885.2373417721633 2.92172424496293 340.0 0.0 267.0 
444.0013042135965 5666.0 2066.0 907.1329113923953 2.980776189054852 352.0 0.0 279.0 
446.00016695427536 5666.0 2067.0 903.4841772151841 3.127063717649207 353.0 0.0 277.0 
448.00016695427536 5716.0 2072.0 905.4398734177202 3.0401324976283544 354.0 0.0 278.0 
450.0000322802299 5757.0 2074.0 905.3670886076047 3.1128524090938794 353.0 0.0 278.0 
452.00016695427536 5781.0 2074.0 901.819620253161 2.98588463882436 351.0 0.0 276.0 
454.00016695427536 5805.0 2073.0 901.8069620253248 3.2054993824610385 345.0 0.0 276.0 
456.00016695427536 5809.0 2079.0 905.4335443037917 3.1932157025473327 350.0 0.0 278.0 
458.00016695427536 5880.0 2085.0 905.5363924050686 3.172289376770292 350.0 0.0 278.0 
460.0000322802299 5865.0 2082.0 907.2879746835353 3.1167645990727246 355.0 0.0 279.0 
462.00016695427536 5876.0 2081.0 907.3132911392323 2.9908374854428548 359.0 0.0 279.0 
464.00016695427536 5929.0 2091.0 905.4825949366965 3.0167430563019986 359.0 0.0 278.0 
466.00016695427536 5960.0 2093.0 905.5996835443005 3.137276422455388 359.0 0.0 278.0 
468.0013042135965 5922.0 2089.0 901.8971518987444 3.0734377629184437 352.0 0.0 276.0 
470.0000322802299 5895.0 2088.0 903.5395569620214 3.081843552511938 352.0 0.0 277.0 
472.0013042135965 5875.0 2088.0 903.5791139240441 3.2144792851032955 357.0 0.0 277.0 
474.0013042135965 5708.0 2078.0 896.3481012658151 3.2050103385280178 357.0 0.0 273.0 
476.0003852070542 5697.0 2078.0 889.0363924050685 3.2620292656355234 351.0 0.0 269.0 
478.00016695427536 5837.0 2087.0 911.020569620258 3.2789271428118694 377.0 0.0 281.0 
480.0000322802299 6059.0 2101.0 912.7911392405149 3.450890512777014 375.0 0.0 282.0 
482.00016695427536 5987.0 2094.0 909.2452531645596 3.2800825306271477 380.0 0.0 280.0 
484.00016695427536 6016.0 2097.0 909.0806962025362 3.385896904849127 381.0 0.0 280.0 
486.00016695427536 5995.0 2091.0 905.4746835443005 3.2998937797866597 382.0 0.0 278.0 
488.00016695427536 5935.0 2084.0 905.4319620253251 3.2521190554042967 379.0 0.0 278.0 
490.0000322802299 5946.0 2090.0 903.4572784810239 3.2660368653110727 376.0 0.0 277.0 
492.00016695427536 5911.0 2091.0 901.7832278480928 3.173932161442852 372.0 0.0 276.0 
494.00016695427536 5896.0 2083.0 908.9873417721644 3.2116043485646806 369.0 0.0 280.0 
496.00016695427536 5837.0 2073.0 916.2737341772099 3.1355541785162906 369.0 0.0 284.0 
498.00016695427536 5835.0 2074.0 919.908227848092 3.062495937276437 368.0 0.0 286.0 
500.0000322802299 5787.0 2072.0 919.8322784810247 2.978241334295294 365.0 0.0 286.0 
502.0013042135965 5828.0 2078.0 919.8386075949306 3.2165128659522835 367.0 0.0 286.0 
504.0013042135965 5818.0 2079.0 921.6487341772098 3.246976972565369 367.0 0.0 287.0 
506.0003852070542 5844.0 2079.0 921.6360759493743 3.295036937941934 371.0 0.0 287.0 
508.0013042135965 5649.0 2063.0 921.7642405063235 3.3167660672171753 368.0 0.0 287.0 
510.0000322802299 5399.0 2050.0 921.6756329113966 3.2746798352516073 369.0 0.0 287.0 
512.0003852070541 5414.0 2052.0 921.6550632911388 3.0112442651556344 372.0 0.0 287.0 
514.0013042135965 5462.0 2058.0 921.6851265822798 2.974912024140601 374.0 0.0 287.0 
516.0013042135965 5463.0 2059.0 919.7626582278359 2.974186422954675 376.0 0.0 286.0 
518.0001669542754 5493.0 2062.0 921.6803797468389 2.9870871214083454 374.0 0.0 287.0 
520.0000322802298 5448.0 2055.0 921.6408227848153 2.859021439380853 369.0 0.0 287.0 
522.0001669542754 5411.0 2053.0 921.6155063291186 2.839535159064944 370.0 0.0 287.0 
524.0001669542754 5421.0 2055.0 919.7231012658136 2.7688483903406733 367.0 0.0 286.0 
526.0001669542754 5461.0 2062.0 921.5506329113967 2.9174248135830734 370.0 0.0 287.0 
528.0001669542754 5558.0 2072.0 919.8781645569527 2.8572858907654006 371.0 0.0 286.0 
530.0000322802298 5642.0 2074.0 916.1566455696286 2.8598168064866116 371.0 0.0 284.0 
532.0013042135965 5741.0 2083.0 916.1993670886033 2.8269040364653617 375.0 0.0 284.0 
534.0013042135965 5777.0 2088.0 896.2246835443007 2.9211523504419556 361.0 0.0 273.0 
536.0003852070541 5759.0 2091.0 898.0775316455572 2.8266649281746514 364.0 0.0 274.0 
538.0013042135965 5801.0 2094.0 894.5743670886034 3.0114729238702007 371.0 0.0 272.0 
540.0000322802298 5877.0 2099.0 898.2183544303725 3.1841368783289496 375.0 0.0 274.0 
542.0003852070541 5870.0 2094.0 890.9794303797418 3.252207815524001 372.0 0.0 270.0 
544.0013042135965 5965.0 2097.0 907.3275316455556 3.270225485069135 376.0 0.0 279.0 
546.0013042135965 6051.0 2105.0 905.6107594936765 3.2136152086053897 376.0 0.0 278.0 
548.0003852070541 6003.0 2098.0 898.2452531645596 3.1059408080322544 371.0 0.0 274.0 
550.0000322802298 5975.0 2095.0 898.1487341772098 3.453101377734196 371.0 0.0 274.0 
552.0013042135965 6052.0 2096.0 892.742088607606 3.4942114804854034 367.0 0.0 271.0 
554.0003852070541 6108.0 2105.0 898.2753164556995 3.5367828609017398 369.0 0.0 274.0 
556.0013042135965 6155.0 2110.0 898.2768987341863 3.5574143557476834 364.0 0.0 274.0 
558.0013042135965 6080.0 2103.0 896.4604430379788 3.3619704900831775 366.0 0.0 273.0 
560.0000322802298 6055.0 2103.0 896.3892405063236 3.350447187621419 366.0 0.0 273.0 
562.0013042135965 5994.0 2100.0 896.4351265822798 3.3684050515648303 373.0 0.0 273.0 
564.0013042135965 5990.0 2102.0 898.1882911392313 3.388948937029849 372.0 0.0 274.0 
566.0003852070541 5942.0 2097.0 900.0838607594848 3.2564328363180364 372.0 0.0 275.0 
568.0013042135965 5930.0 2095.0 896.3718354430483 3.2845641417541804 364.0 0.0 273.0 
570.0000322802298 5871.0 2090.0 896.2990506329046 3.309413868086402 358.0 0.0 273.0 
572.0003852070541 5840.0 2095.0 898.0268987341858 3.2850228418785883 358.0 0.0 274.0 
574.0013042135965 5668.0 2081.0 896.1661392405152 3.357545391232669 355.0 0.0 273.0 
576.0013042135965 5524.0 2068.0 896.2215189873491 3.269855575220659 353.0 0.0 273.0 
578.0003852070541 5534.0 2073.0 890.7151898734197 3.262828772560116 355.0 0.0 270.0 
580.0000322802298 5602.0 2080.0 896.2088607594848 3.29523996193603 355.0 0.0 273.0 
582.0013042135965 5499.0 2076.0 894.378164556952 3.3166176279812185 355.0 0.0 272.0 
584.0003852070541 5425.0 2070.0 892.4477848101152 3.1558920702023285 353.0 0.0 271.0 
586.0013042135965 5389.0 2069.0 896.0727848101154 3.193761847921355 348.0 0.0 273.0 
588.0013042135965 5357.0 2065.0 894.3069620253256 3.108991277736526 346.0 0.0 272.0 
590.0000322802298 5265.0 2057.0 894.2389240506246 3.0288331759189444 343.0 0.0 272.0 
592.0013042135965 5234.0 2051.0 885.2246835443004 2.805386311296887 343.0 0.0 267.0 
594.0013042135965 5196.0 2048.0 885.1376582278364 2.9079008284301895 347.0 0.0 267.0 
596.0003852070541 5248.0 2052.0 885.1598101265803 2.8717712191925178 346.0 0.0 267.0 
598.0013042135965 5274.0 2056.0 885.2025316455573 2.8621453788299456 344.0 0.0 267.0 
600.0000322802298 5296.0 2053.0 886.9952531645597 2.7455432608010284 342.0 0.0 268.0 
602.0003852070541 5406.0 2064.0 876.1471518987444 2.7648494148340306 349.0 0.0 262.0 
604.0013042135965 5673.0 2079.0 901.7990506329045 2.961342965974142 358.0 0.0 276.0 
606.0013042135965 5817.0 2083.0 901.7674050633046 2.9529701786399163 360.0 0.0 276.0 
608.0003852070541 5805.0 2078.0 905.4699367088601 2.852032280661749 357.0 0.0 278.0 
610.0000322802298 5771.0 2071.0 901.710443037979 2.9428800272289823 356.0 0.0 276.0 
612.0013042135965 5886.0 2079.0 903.6756329113965 2.8851555010637173 364.0 0.0 277.0 
614.0003852070541 5957.0 2081.0 900.0363924050696 2.992988702318654 365.0 0.0 275.0 
616.0013042135965 6068.0 2093.0 898.262658227835 2.8393538286761855 368.0 0.0 274.0 
618.0013042135965 6118.0 2099.0 898.2515822784889 2.9295223131521553 374.0 0.0 274.0 
620.0000322802298 6248.0 2111.0 892.7246835443004 3.138426649835332 375.0 0.0 271.0 
622.0013042135965 6300.0 2113.0 896.390822784816 3.240778816287165 380.0 0.0 273.0 
624.0013042135965 6354.0 2116.0 898.2246835443005 3.179869667072424 385.0 0.0 274.0 
626.0003852070541 6341.0 2115.0 900.0617088607687 3.255767183033091 384.0 0.0 275.0 
628.0013042135965 6363.0 2115.0 898.1977848101149 3.3842821704142243 385.0 0.0 274.0 
630.0000322802298 6372.0 2112.0 903.6740506329046 3.503185452217496 381.0 0.0 277.0 
632.0003852070541 6363.0 2109.0 911.0743670886034 3.407274052129375 380.0 0.0 281.0 
634.0013042135965 6157.0 2100.0 887.3386075949315 3.4361538512890157 370.0 0.0 268.0 
636.0013042135965 6130.0 2102.0 890.9620253164649 3.288689410904835 369.0 0.0 270.0 
638.0003852070541 6157.0 2106.0 896.5063291139286 3.3946480485442097 377.0 0.0 273.0 
640.0000322802298 6167.0 2106.0 900.0727848101161 3.6336646484420227 374.0 0.0 275.0 
642.0013042135965 6112.0 2098.0 892.9414556962082 3.4920216983790646 372.0 0.0 271.0 
644.0003852070541 6101.0 2097.0 903.7974683544425 3.4183404690321764 374.0 0.0 277.0 
646.0013042135965 6159.0 2097.0 911.1344936708814 3.357220571068619 382.0 0.0 281.0 
648.0013042135965 6200.0 2096.0 918.3449367088609 3.4119803667058806 381.0 0.0 285.0 
650.0000322802298 6075.0 2083.0 918.337025316465 3.2332811720556247 381.0 0.0 285.0 
652.0013042135965 5999.0 2079.0 918.2642405063236 3.2337641340245202 377.0 0.0 285.0 
654.0013042135965 5978.0 2076.0 919.9588607594848 3.3464971731231072 374.0 0.0 286.0 
656.0003852070541 5994.0 2077.0 921.8370253164654 3.2681075811671887 376.0 0.0 287.0 
658.0013042135965 6049.0 2088.0 925.5253164556984 3.231409724850749 375.0 0.0 289.0 
660.0000322802298 6050.0 2083.0 925.4082278480923 3.385339023254921 375.0 0.0 289.0 
662.0003852070541 6016.0 2080.0 929.0822784810243 3.3438958567942647 376.0 0.0 291.0 
664.0013042135965 5989.0 2081.0 929.0268987341855 3.4644114129119603 377.0 0.0 291.0 
#####################################################################
# End of data export. Simulation finished at: 2019-03-04T14:18+0000 #
#####################################################################
