#####################################################################
# Alchemist log file - simulation started at: 2019-03-03T01:04+0000 #
#####################################################################
# seed = 9.0, bandwidth = 17782.79410038923, accessPointCount = 1031.338537721246, baserange = 100.0
#
# The columns have the following meaning: 
# time neighbor_count[Sum] <value>@neighbor_count[Sum] packet_size[Mean] mean_delay[Mean] crowd[Sum] overcrowded[Sum] risk[Sum] 
0.0 NaN NaN NaN NaN NaN NaN NaN 
10.000337445961424 3115.0 992.0 4983.447784810127 0.9550695808427595 1497.0 0.0 1497.0 
20.000337445961424 3307.0 1009.0 4982.965189873417 1.443117808737632 1494.0 3.0 1494.0 
30.000337445961424 3119.0 968.0 4982.833860759494 1.1981552467862189 1482.0 15.0 1482.0 
40.00033744596142 3049.0 951.0 4983.1344936708865 0.8598711980116124 1478.0 19.0 1478.0 
50.00033744596142 3060.0 956.0 4982.401898734177 0.9507230943667955 1477.0 20.0 1477.0 
60.00033744596142 3043.0 954.0 4982.912974683544 0.9840584693506738 1477.0 20.0 1477.0 
70.00033744596142 3034.0 951.0 720.1803797468386 0.7789267487782671 245.0 20.0 156.0 
80.00033744596142 3059.0 953.0 723.7658227848152 0.747960846978521 233.0 20.0 158.0 
90.00033744596142 3089.0 958.0 721.9272151898774 0.7368202520453935 229.0 20.0 157.0 
100.00033744596142 3097.0 961.0 720.098101265821 0.8161941158233528 223.0 20.0 156.0 
110.00033744596142 3150.0 967.0 723.7389240506261 0.7966104989574746 230.0 20.0 158.0 
120.00033744596142 3189.0 970.0 727.3955696202578 0.8949349866376777 229.0 20.0 160.0 
130.0003374459614 3210.0 966.0 729.2231012658208 0.8574515042499691 226.0 20.0 161.0 
140.0003374459614 3233.0 968.0 734.6772151898779 0.9100036615011987 231.0 20.0 164.0 
150.0003374459614 3285.0 967.0 734.6993670886043 0.8346606543863341 231.0 20.0 164.0 
160.0003374459614 3305.0 969.0 740.1471518987389 0.8498587206637341 237.0 20.0 167.0 
170.0003374459614 3322.0 971.0 743.8085443037965 0.8405361370916027 238.0 20.0 169.0 
180.0003374459614 3339.0 971.0 747.4161392405139 0.9368369506783204 238.0 21.0 170.0 
190.0003374459614 3327.0 967.0 745.5838607594861 0.9494102623471812 239.0 20.0 170.0 
200.0003374459614 3272.0 964.0 745.5854430379783 0.910974885938168 235.0 20.0 170.0 
210.0003374459614 3246.0 965.0 743.761075949374 0.9565623011999979 235.0 20.0 169.0 
220.0003374459614 3186.0 959.0 741.9208860759551 0.8379541611444388 236.0 20.0 168.0 
230.0003374459614 3181.0 960.0 745.5363924050639 0.8703085931750205 242.0 20.0 170.0 
240.0003374459614 3154.0 961.0 749.2183544303775 0.9220462895012311 244.0 20.0 172.0 
250.0003374459614 3141.0 962.0 740.0870253164591 0.9162789579766696 240.0 20.0 167.0 
260.0003374459614 3099.0 958.0 738.2753164556995 0.9782449352070193 240.0 20.0 166.0 
270.0003374459614 3095.0 956.0 738.2674050632969 0.9385856728388324 235.0 20.0 166.0 
280.0003374459614 3071.0 955.0 740.0712025316537 0.9744118010265094 232.0 20.0 167.0 
290.0003374459614 3069.0 957.0 738.2768987341786 0.8967653280856172 225.0 21.0 165.0 
300.0003374459614 3064.0 957.0 729.1977848101232 0.8554289071316983 221.0 23.0 158.0 
310.0003374459614 3058.0 956.0 723.7389240506261 0.9189509302678633 215.0 22.0 156.0 
320.0003374459614 3085.0 958.0 731.0395569620217 0.8877509815158005 218.0 22.0 160.0 
330.0003374459614 3104.0 961.0 734.6566455696221 0.826115296470838 219.0 22.0 162.0 
340.0003374459614 3120.0 966.0 736.4604430379783 0.9930765052487612 218.0 22.0 163.0 
350.0003374459614 3083.0 959.0 734.6566455696226 0.8787765373601529 216.0 21.0 163.0 
360.0003374459614 3079.0 963.0 734.6503164556995 0.8837400819516784 215.0 21.0 163.0 
370.0003374459614 3081.0 964.0 732.8006329113957 1.0121088278686639 213.0 21.0 162.0 
380.0003374459614 3079.0 964.0 727.3702531645596 0.9749858636765332 215.0 21.0 159.0 
390.00024026177084 3105.0 964.0 725.5791139240449 0.97024957104306 214.0 21.0 158.0 
400.0003374459614 3089.0 964.0 729.1882911392377 0.8709602310931172 215.0 20.0 161.0 
410.0003374459614 3118.0 966.0 729.1914556962033 0.9650412908607585 223.0 21.0 160.0 
420.0003374459614 3071.0 964.0 729.1898734177202 0.996600391260041 221.0 21.0 160.0 
430.0003374459614 3068.0 961.0 732.8417721519022 0.9527758794749321 228.0 20.0 163.0 
440.0003374459614 3093.0 962.0 740.0886075949365 0.8784794732974244 232.0 20.0 167.0 
450.0003374459614 3107.0 964.0 740.1123417721576 1.0221019504815474 228.0 20.0 167.0 
460.0003374459614 3117.0 964.0 736.4873417721574 1.0317798753177156 232.0 19.0 166.0 
470.0003374459614 3097.0 961.0 734.6566455696218 0.9593453349691955 232.0 19.0 165.0 
480.0003374459614 3086.0 961.0 736.449367088604 0.946237012629958 235.0 19.0 166.0 
490.0003374459614 3094.0 963.0 736.4477848101225 0.9953043109311497 232.0 19.0 166.0 
500.0003374459614 3071.0 961.0 738.2848101265804 0.9763610473093447 229.0 19.0 167.0 
510.0003374459614 3071.0 964.0 743.7199367088601 1.0274949715412356 238.0 13.0 176.0 
520.0003374459613 3111.0 968.0 743.6977848101226 0.9768890912287731 248.0 12.0 177.0 
530.0003374459613 3114.0 967.0 745.5268987341797 0.9331212430002912 246.0 12.0 178.0 
540.0003374459613 3114.0 963.0 743.7041139240446 0.975752927809359 244.0 12.0 177.0 
550.0003374459613 3156.0 965.0 747.3386075949361 0.9389928750921648 246.0 12.0 179.0 
560.0003374459613 3188.0 966.0 745.5189873417659 0.9180030824882054 247.0 12.0 178.0 
570.0003374459613 3245.0 972.0 752.8433544303773 1.015369126935449 255.0 12.0 182.0 
580.0003374459613 3306.0 977.0 752.8354430379783 1.0695546590294744 255.0 12.0 182.0 
590.0003374459613 3298.0 980.0 741.9161392405138 1.0888684829799822 251.0 12.0 176.0 
600.0003374459613 3251.0 979.0 741.9272151898782 1.0951458032973067 241.0 12.0 176.0 
610.0003374459613 3320.0 984.0 745.5569620253198 1.0325457240785256 244.0 12.0 178.0 
620.0003374459613 3297.0 980.0 749.1946202531615 1.1237755412680706 243.0 12.0 180.0 
630.0003374459613 3412.0 982.0 754.7373417721582 1.1340775128246843 242.0 12.0 183.0 
640.0003374459613 3520.0 989.0 754.6993670886044 1.2486856355984641 246.0 12.0 183.0 
650.0003374459613 3436.0 981.0 754.6962025316537 1.03540048961066 240.0 15.0 180.0 
660.0003374459613 3449.0 985.0 752.8892405063247 1.0907566501228514 245.0 13.0 181.0 
#####################################################################
# End of data export. Simulation finished at: 2019-03-03T01:14+0000 #
#####################################################################
