#####################################################################
# Alchemist log file - simulation started at: 2019-03-08T23:15+0000 #
#####################################################################
# seed = 3.0, bandwidth = 17782.79410038923, accessPointCount = 72.92664737217109, baserange = 316.2277660168379
#
# The columns have the following meaning: 
# time neighbor_count[Sum] <value>@neighbor_count[Sum] packet_size[Mean] mean_delay[Mean] crowd[Sum] overcrowded[Sum] risk[Sum] 
0.0 NaN NaN NaN NaN NaN NaN NaN 
2.000070686187014 107.0 56.0 4986.908859145953 0.39896717291468914 1497.0 0.0 1497.0 
4.00056088243009 515.0 142.0 4987.158699808795 0.5531921393374423 1497.0 0.0 1497.0 
6.000084666035003 1434.0 232.0 4987.867431485022 1.1753429666019495 1497.0 0.0 1497.0 
8.00056088243009 2485.0 273.0 4988.514977692798 1.6974297653118133 1497.0 0.0 1497.0 
10.00033353340315 4368.0 353.0 4989.142128744424 1.7812437779181436 1497.0 0.0 1497.0 
12.00056088243009 5563.0 404.0 4989.397068196304 2.3552597467278473 1497.0 0.0 1497.0 
14.00056088243009 5971.0 407.0 4989.499043977055 2.992581223539118 1497.0 0.0 1497.0 
16.000084666035004 7709.0 457.0 4989.896749521989 2.789276075031808 1497.0 0.0 1497.0 
18.00056088243009 7791.0 457.0 4989.8789037603565 3.2312685440105513 1497.0 0.0 1497.0 
20.00033353340315 7816.0 458.0 4989.901848311026 3.2327313845680075 1497.0 0.0 1497.0 
22.00056088243009 7912.0 459.0 4989.843212237094 3.1760615006164845 1497.0 0.0 1497.0 
24.00056088243009 7912.0 458.0 4989.838113448056 3.6613913122474044 1497.0 0.0 1497.0 
26.000084666035004 7907.0 456.0 4989.761631612492 3.8504342093020565 1496.0 1.0 1496.0 
28.00056088243009 7889.0 451.0 4989.7973231357555 4.398824274594429 1496.0 1.0 1496.0 
30.00033353340315 7831.0 445.0 4989.855959209688 4.182819345037 1496.0 1.0 1496.0 
32.00056088243009 7798.0 440.0 4989.710643722116 2.7056901130629867 1496.0 1.0 1496.0 
34.00056088243009 7798.0 440.0 4989.565328234545 2.4601339334883683 1496.0 1.0 1496.0 
36.00008466603501 7798.0 440.0 4989.674952198853 2.8739550144213566 1496.0 1.0 1496.0 
38.00056088243009 7796.0 440.0 4989.613766730402 3.4164870438535333 1495.0 2.0 1495.0 
40.00033353340315 7798.0 440.0 4989.65965583174 3.3412312559439155 1495.0 2.0 1495.0 
42.00056088243009 7798.0 440.0 4989.708094327597 3.541446451295051 1495.0 2.0 1495.0 
44.00056088243009 7789.0 440.0 4989.662205226259 4.047121960173035 1495.0 2.0 1495.0 
46.00008466603501 7778.0 439.0 4989.6290630975145 2.9094748564509754 1495.0 2.0 1495.0 
48.00056088243009 7776.0 439.0 4989.85086042065 2.8272383143361273 1495.0 2.0 1495.0 
50.00033353340315 7776.0 439.0 4989.815168897387 2.506402576278085 1495.0 2.0 1495.0 
52.00056088243009 7790.0 440.0 4989.95793499044 2.855101211638228 1495.0 2.0 1495.0 
54.00056088243009 7796.0 440.0 4989.891650732951 3.4394130241270364 1495.0 2.0 1495.0 
56.00008466603501 7799.0 440.0 4989.830465264499 3.8757745896333415 1495.0 2.0 1495.0 
58.00056088243009 7804.0 440.0 4989.756532823454 3.6848761424524503 1495.0 2.0 1495.0 
60.00033353340315 7804.0 440.0 4989.912045889101 3.5205559379649936 1495.0 2.0 1495.0 
62.00059236981081 7812.0 441.0 904.8081580624627 2.1619223777363534 334.0 1.0 171.0 
64.00019450405355 7812.0 441.0 904.5812619502879 2.5117431510357267 300.0 2.0 170.0 
66.00008466603501 7820.0 441.0 904.5634161886549 2.596723951237727 280.0 2.0 170.0 
68.00019450405355 7831.0 442.0 904.6246016571042 2.80790311416468 268.0 3.0 169.0 
70.00019450405355 7833.0 443.0 904.6067558954716 2.1444271336909226 255.0 3.0 169.0 
72.00019450405355 7830.0 443.0 904.5889101338456 2.235649757358503 249.0 4.0 168.0 
74.00019450405355 7826.0 442.0 904.5685149776909 2.367802831123269 243.0 4.0 168.0 
76.00008466603501 7836.0 442.0 904.5736137667317 1.9409132082914595 240.0 3.0 169.0 
78.00019450405355 7868.0 443.0 904.6730401529635 1.9430135249780254 234.0 8.0 164.0 
80.00019450405355 7908.0 443.0 907.5818992989141 1.8240505990447737 234.0 8.0 165.0 
82.00019450405355 7908.0 443.0 907.7068196303348 1.6976670360071333 234.0 8.0 165.0 
84.00019450405355 7908.0 443.0 907.6838750796666 2.0454567917997446 234.0 8.0 165.0 
86.00008466603501 7908.0 443.0 907.6660293180388 2.3037244229260945 234.0 8.0 165.0 
88.00019450405355 7908.0 443.0 907.6048438495828 2.623361174424852 234.0 8.0 165.0 
90.00019450405355 7908.0 443.0 907.6099426386252 2.5703168855480265 233.0 8.0 165.0 
92.00019450405355 7909.0 443.0 907.5283620140189 1.6273300576555245 233.0 8.0 165.0 
94.00019450405355 7902.0 442.0 907.4238368387531 1.6271104207336293 233.0 8.0 165.0 
96.00008466603501 7913.0 443.0 910.3505417463365 1.8834727693172026 232.0 8.0 166.0 
98.00019450405355 7924.0 443.0 910.3709369024843 2.007649874376775 230.0 8.0 166.0 
100.00019450405355 7923.0 443.0 910.360739324408 2.076490992890966 230.0 8.0 166.0 
102.00019450405355 7922.0 443.0 910.3581899298927 2.4046006774403548 230.0 8.0 166.0 
104.00019450405355 7922.0 443.0 910.3428935627803 2.5825824344623975 230.0 8.0 166.0 
106.00008466603501 7924.0 443.0 910.3811344805628 1.7794436260326387 231.0 7.0 167.0 
108.00019450405355 7935.0 443.0 910.3326959847036 1.7509067987289286 230.0 8.0 166.0 
110.00019450405355 7938.0 443.0 910.3046526449994 1.6910207530151977 230.0 8.0 166.0 
112.00019450405355 7939.0 443.0 910.3326959847036 1.915093795264813 230.0 8.0 166.0 
114.00019450405355 7934.0 443.0 910.3072020395146 2.2139184058406722 230.0 8.0 166.0 
116.00008466603501 7948.0 444.0 913.2670490758431 2.3630165500830826 231.0 8.0 167.0 
118.00019450405355 7958.0 443.0 916.1810070108365 2.433012993002723 231.0 8.0 168.0 
120.00019450405355 7960.0 443.0 916.1657106437239 2.4740699250010563 231.0 8.0 168.0 
122.00019450405355 7966.0 444.0 916.32377310389 1.4050389235911303 231.0 8.0 168.0 
124.00019450405355 7979.0 444.0 916.3033779477348 1.8081577892165752 231.0 8.0 168.0 
126.00008466603501 8021.0 445.0 916.3441682600378 2.1039780248067106 234.0 8.0 168.0 
128.00019450405355 8021.0 445.0 916.3212237093695 2.3253566150817466 234.0 8.0 168.0 
130.00019450405355 8037.0 445.0 916.3212237093695 1.9846455553767712 234.0 8.0 168.0 
132.00019450405355 8077.0 446.0 916.3390694710023 2.233843755532992 234.0 8.0 168.0 
134.00019450405355 8084.0 446.0 916.3084767367774 2.4993090330816385 234.0 8.0 168.0 
136.000084666035 8085.0 445.0 919.2504780114749 2.062118645582112 235.0 7.0 170.0 
138.00019450405355 8055.0 445.0 922.1618865519457 1.8821400675100743 235.0 7.0 171.0 
140.00019450405355 8055.0 445.0 922.1491395793474 1.8516954381457758 236.0 7.0 171.0 
142.00019450405355 8082.0 445.0 922.1797323135781 1.9262735947875886 237.0 7.0 171.0 
144.00019450405355 8089.0 445.0 925.0630975143386 2.1065095969603385 237.0 7.0 172.0 
146.000084666035 8089.0 445.0 925.080943275973 2.210627323249603 235.0 7.0 172.0 
148.00019450405355 8085.0 445.0 925.0681963033803 2.6367813096139803 234.0 7.0 172.0 
150.00019450405355 8084.0 445.0 925.0401529636697 2.671193407298247 234.0 7.0 172.0 
152.00019450405355 8084.0 445.0 925.1191841937537 1.7276598604255247 233.0 8.0 171.0 
154.00019450405355 8083.0 445.0 922.0624601657132 1.8945137248519004 233.0 8.0 170.0 
156.000084666035 8084.0 445.0 921.9630337794752 1.952989506214416 234.0 8.0 170.0 
158.00019450405355 8073.0 444.0 924.9738687061841 2.143311137824763 234.0 8.0 171.0 
160.00019450405355 8073.0 444.0 922.0420650095587 2.303805769538302 234.0 8.0 170.0 
162.00019450405355 8074.0 444.0 922.0548119821572 2.3598996250910673 232.0 8.0 170.0 
164.00019450405355 8073.0 444.0 922.0242192479269 2.600584809341032 232.0 8.0 170.0 
166.000084666035 8067.0 444.0 922.0726577437837 2.2877722477073594 233.0 7.0 171.0 
168.00019450405355 8061.0 444.0 922.1108986615666 1.9524581954216864 234.0 7.0 171.0 
170.00019450405355 8061.0 444.0 922.1032504780104 1.5789896437381419 235.0 7.0 171.0 
172.00019450405355 8060.0 444.0 922.1210962396427 1.9933203910678432 234.0 7.0 171.0 
174.00019450405355 8054.0 443.0 922.0701083492694 2.241013636143917 234.0 7.0 171.0 
176.000084666035 8052.0 443.0 922.0395156150391 2.341789302491595 233.0 7.0 171.0 
178.00019450405355 8052.0 443.0 922.0828553218621 2.6915050385480948 232.0 7.0 171.0 
180.00019450405355 8052.0 443.0 922.0701083492694 2.5718017705085576 232.0 7.0 171.0 
182.00019450405355 8052.0 443.0 922.1057998725305 1.3155948472618146 231.0 8.0 170.0 
184.00019450405355 8054.0 443.0 919.1255576800518 1.7969623122455904 231.0 8.0 169.0 
186.000084666035 8055.0 443.0 916.219247928617 2.0317498246090318 232.0 8.0 168.0 
188.00019450405355 8056.0 444.0 916.1963033779488 2.174317952553787 232.0 8.0 168.0 
190.00019450405355 8057.0 444.0 916.1886551943926 2.3120435576669136 232.0 8.0 168.0 
192.00019450405355 8057.0 444.0 916.2065009560243 2.5564498731176686 232.0 8.0 168.0 
194.00019450405355 8057.0 444.0 916.1733588272799 2.4005304286180906 232.0 8.0 168.0 
196.000084666035 8057.0 444.0 916.2065009560243 1.959296698958538 233.0 7.0 169.0 
198.00019450405355 8058.0 444.0 916.1402166985331 1.9973736526885038 233.0 7.0 169.0 
200.00019450405355 8061.0 444.0 916.1249203314208 1.7611129947482564 233.0 7.0 169.0 
202.00019450405355 8062.0 444.0 916.1478648820892 1.9642718363806915 232.0 8.0 168.0 
204.00019450405355 8077.0 444.0 916.1300191204574 2.3894496947692696 232.0 8.0 168.0 
206.000084666035 8082.0 445.0 916.1631612492018 2.3411417097658367 232.0 8.0 168.0 
208.00019450405355 8100.0 446.0 916.1529636711258 2.4982200993703065 235.0 6.0 170.0 
210.00019450405355 8101.0 446.0 913.2058636073939 2.5014036650343363 238.0 3.0 172.0 
212.00019450405355 8100.0 445.0 913.3639260675615 1.4989563486398119 238.0 3.0 172.0 
214.00019450405355 8100.0 445.0 907.487571701718 1.8890152254870427 235.0 4.0 169.0 
216.000084666035 8100.0 445.0 904.5863607393233 2.2257222703909365 228.0 7.0 165.0 
218.00019450405355 8100.0 445.0 907.4773741236481 2.2830038662417085 228.0 7.0 166.0 
220.00019450405355 8091.0 445.0 907.4901210962382 2.1283188967630826 226.0 9.0 164.0 
222.00019450405355 8065.0 444.0 907.5411089866175 2.252064834037757 228.0 5.0 168.0 
224.00019450405355 8065.0 444.0 907.479923518162 2.4726744073660103 229.0 4.0 169.0 
226.000084666035 8060.0 446.0 907.5130656469067 1.9582126066201815 230.0 3.0 170.0 
228.00019450405355 8081.0 446.0 910.4040790312316 1.972476154832925 231.0 3.0 171.0 
230.00019450405355 8089.0 446.0 910.3938814531531 1.8766605628331956 232.0 2.0 172.0 
232.00019450405355 8090.0 446.0 910.4423199490122 1.9888678746658963 233.0 2.0 172.0 
234.00019450405355 8098.0 446.0 910.3938814531531 2.092931053503992 233.0 2.0 172.0 
236.000084666035 8098.0 446.0 913.3664754620752 2.183253848852707 232.0 3.0 172.0 
238.00019450405355 8094.0 445.0 913.3792224346737 2.6498115580399215 233.0 3.0 172.0 
240.00019450405355 8098.0 446.0 913.3409815168912 2.7404981415033824 232.0 3.0 172.0 
242.00019450405355 8098.0 446.0 913.3486297004474 1.5340722614548528 232.0 3.0 172.0 
244.00019450405355 8093.0 446.0 916.1427660930555 1.9688977915882544 234.0 3.0 173.0 
246.000084666035 8123.0 447.0 916.1784576163141 2.157481566568862 235.0 3.0 173.0 
248.00019450405355 8103.0 446.0 916.1861057998702 2.10237018341248 235.0 3.0 173.0 
250.00019450405355 8109.0 447.0 916.1988527724689 2.060198191926989 234.0 4.0 172.0 
252.00019450405355 8117.0 447.0 919.1485022307224 2.3505156318111005 232.0 4.0 173.0 
254.00019450405355 8125.0 447.0 919.0975143403429 2.630264562431783 232.0 4.0 173.0 
256.00008466603504 8125.0 447.0 919.1612492033129 2.20654551351567 233.0 3.0 174.0 
258.0001945040536 8134.0 448.0 916.2676864244761 1.9413860745884295 233.0 3.0 173.0 
260.0001945040536 8139.0 448.0 916.2549394518776 1.613671083484638 233.0 3.0 173.0 
262.0001945040536 8140.0 448.0 916.2574888463977 1.8780862979538322 231.0 3.0 173.0 
264.0001945040536 8139.0 448.0 916.2217973231377 2.3396136942901467 231.0 3.0 173.0 
266.00008466603504 8134.0 448.0 916.219247928617 2.292080371828997 231.0 3.0 173.0 
268.0001945040536 8135.0 448.0 916.2039515615048 2.6608204384966907 231.0 3.0 173.0 
270.0001945040536 8134.0 448.0 916.1861057998702 2.8803752591254597 231.0 3.0 173.0 
272.0001945040536 8123.0 448.0 916.2217973231377 1.5898592597776469 231.0 3.0 173.0 
274.0001945040536 8105.0 447.0 919.1994901210951 1.651659976087398 231.0 3.0 174.0 
276.00008466603504 8097.0 447.0 919.1816443594674 2.0423130810454664 234.0 3.0 174.0 
278.0001945040536 8097.0 447.0 919.1663479923552 2.2539135042153107 234.0 3.0 174.0 
280.0001945040536 8098.0 447.0 919.1485022307224 2.3302926135563196 233.0 4.0 173.0 
282.0001945040536 8090.0 447.0 919.1969407265798 2.5544226389610833 233.0 4.0 173.0 
284.0001945040536 8072.0 447.0 919.1663479923552 2.606808138253171 233.0 4.0 173.0 
286.00008466603504 8068.0 447.0 919.1765455704251 1.9946252455480045 231.0 6.0 171.0 
288.0001945040536 8027.0 446.0 919.0847673677512 1.9530101322816897 230.0 7.0 170.0 
290.0001945040536 8035.0 447.0 919.0618228170823 1.8066279097934492 230.0 7.0 170.0 
292.0001945040536 8084.0 448.0 919.0720203951589 1.9854342211170684 230.0 7.0 170.0 
294.0001945040536 8091.0 448.0 919.0414276609276 2.471875830248741 230.0 7.0 170.0 
296.00008466603504 8095.0 448.0 919.0618228170823 2.6507269867129883 230.0 7.0 170.0 
298.0001945040536 8113.0 449.0 919.072020395159 2.6275333188650354 230.0 7.0 170.0 
300.0001945040536 8107.0 448.0 919.1000637348634 2.398779526847132 229.0 7.0 170.0 
302.0001945040536 8125.0 447.0 922.2179732313596 1.5651626326358774 229.0 8.0 170.0 
304.0001945040536 8124.0 447.0 922.1848311026145 1.912386809194071 229.0 8.0 170.0 
306.00008466603504 8116.0 447.0 919.2428298279169 2.118798596258877 229.0 8.0 169.0 
308.0001945040536 8117.0 448.0 919.2632249840648 2.2991615923349102 226.0 8.0 169.0 
310.0001945040536 8118.0 448.0 919.258126195031 2.24164168437213 225.0 8.0 169.0 
312.0001945040536 8118.0 448.0 919.2912683237761 2.246039915364855 225.0 8.0 169.0 
314.0001945040536 8125.0 449.0 919.2224346717636 2.3772132954123704 225.0 8.0 169.0 
316.00008466603504 8125.0 449.0 919.2326322498402 2.352439862012317 226.0 7.0 170.0 
318.0001945040536 8125.0 449.0 913.261950286809 1.9883853768331345 226.0 7.0 168.0 
320.0001945040536 8125.0 449.0 913.1905672402816 1.9094576244522163 226.0 7.0 168.0 
322.0001945040536 8121.0 448.0 913.2160611854704 1.9987013306446242 226.0 7.0 168.0 
324.0001945040536 8123.0 448.0 913.2262587635419 2.1223080025089787 226.0 7.0 168.0 
326.00008466603504 8124.0 448.0 916.2217973231376 2.16471825407982 226.0 7.0 169.0 
328.0001945040536 8124.0 448.0 916.1912045889127 2.582178906691702 226.0 7.0 169.0 
330.0001945040536 8124.0 448.0 916.1937539834263 2.5700689053878514 226.0 7.0 169.0 
332.0001945040536 8122.0 448.0 916.1988527724689 2.230088938668127 222.0 11.0 165.0 
334.0001945040536 8122.0 448.0 916.3110261312927 1.9399437410337117 225.0 8.0 168.0 
336.00008466603504 8129.0 448.0 916.3288718929257 2.1249097040329348 225.0 8.0 168.0 
338.0001945040536 8130.0 448.0 916.3339706819612 1.9073749673584677 225.0 8.0 168.0 
340.0001945040536 8131.0 448.0 916.2727852135104 2.018717760905173 225.0 8.0 168.0 
342.0001945040536 8128.0 448.0 916.2753346080323 2.4105742540456827 225.0 8.0 168.0 
344.0001945040536 8129.0 448.0 916.2472912683215 2.555735644145345 225.0 8.0 168.0 
346.00008466603504 8134.0 448.0 913.3307839388146 2.7892486531451146 225.0 8.0 167.0 
348.0001945040536 8130.0 448.0 916.3110261312927 2.6860573835617862 226.0 7.0 169.0 
350.0001945040536 8130.0 448.0 919.1663479923552 1.6622092244406061 227.0 7.0 170.0 
352.0001945040536 8125.0 447.0 919.2300828553198 1.6182830754416138 227.0 7.0 170.0 
354.0001945040536 8127.0 447.0 919.1663479923552 1.9588311123159055 231.0 7.0 170.0 
356.00008466603504 8132.0 447.0 919.1714467813908 2.079442621650135 230.0 7.0 170.0 
358.0001945040536 8132.0 447.0 919.2020395156159 2.4628743397659703 231.0 7.0 170.0 
360.0001945040536 8132.0 447.0 919.2045889101358 2.609736643492797 231.0 7.0 170.0 
362.0001945040536 8132.0 447.0 919.2071383046514 2.405335717053113 231.0 7.0 170.0 
364.0001945040536 8132.0 447.0 919.2555768005087 2.04815529708091 227.0 11.0 166.0 
366.00008466603504 8132.0 447.0 919.2147864882074 1.7585635977703742 231.0 8.0 169.0 
368.0001945040536 8132.0 447.0 919.2173358827281 2.0154751786752176 231.0 8.0 169.0 
370.0001945040536 8130.0 447.0 922.1261950286787 1.9182469459002018 232.0 8.0 170.0 
372.0001945040536 8131.0 447.0 922.1618865519457 2.234573139271267 232.0 8.0 170.0 
374.0001945040536 8129.0 447.0 922.1312938177194 2.541110119254089 232.0 8.0 170.0 
376.00008466603504 8130.0 447.0 922.1567877629033 2.5815765706889144 232.0 8.0 170.0 
378.0001945040536 8128.0 447.0 922.1338432122349 2.7123895420309014 232.0 8.0 170.0 
380.0001945040536 8126.0 447.0 922.1134480560866 2.3123267911652263 233.0 7.0 171.0 
382.0001945040536 8125.0 447.0 922.1159974506071 1.7990839016494091 233.0 7.0 171.0 
384.0001945040536 8123.0 447.0 922.1261950286787 2.245453434440233 233.0 7.0 171.0 
386.00008466603504 8121.0 446.0 925.0885914595292 2.264205782657222 232.0 8.0 171.0 
388.0001945040536 8128.0 446.0 925.0554493307824 2.327529184014038 233.0 7.0 172.0 
390.0001945040536 8137.0 446.0 925.0554493307824 2.1258342490860946 234.0 7.0 172.0 
392.0001945040536 8141.0 446.0 925.0630975143386 2.2818946706074144 234.0 7.0 172.0 
394.0001945040536 8142.0 446.0 927.9821542383671 2.5335457264489203 235.0 7.0 173.0 
396.00008466603504 8144.0 447.0 927.9770554493316 2.440239213892103 231.0 11.0 169.0 
398.0001945040536 8149.0 447.0 927.9745060548108 1.9823440056349857 236.0 8.0 172.0 
400.0001945040536 8147.0 447.0 927.959209687697 2.0913973089823417 239.0 8.0 172.0 
402.0001945040536 8145.0 447.0 928.0 1.9917159481251274 238.0 8.0 172.0 
404.0001945040536 8096.0 446.0 928.0254939451892 1.9795622187552888 238.0 8.0 172.0 
406.00008466603504 8093.0 446.0 928.0254939451892 2.369276414299493 237.0 8.0 172.0 
408.0001945040536 8095.0 446.0 927.9949012109645 2.7904359662280407 238.0 8.0 172.0 
410.0001945040536 8097.0 446.0 927.987253027408 2.6852513852716573 238.0 8.0 172.0 
412.0005923698108 8085.0 447.0 925.0885914595292 2.167543707297858 237.0 8.0 171.0 
414.0005923698108 8089.0 448.0 925.0630975143386 2.088850830868117 238.0 7.0 172.0 
416.00008466603504 8088.0 448.0 925.0783938814508 1.9726706779313405 238.0 7.0 172.0 
418.0005923698108 8092.0 448.0 925.0478011472262 2.2362054449396065 238.0 7.0 172.0 
420.00033353340314 8079.0 448.0 925.0528999362617 2.437078806656556 237.0 7.0 172.0 
422.0005923698108 8071.0 447.0 925.042702358192 2.4324072152925855 237.0 7.0 172.0 
424.0005923698108 8059.0 447.0 922.1287444231988 2.7920562325956366 236.0 7.0 171.0 
426.00008466603504 8061.0 448.0 925.0605481198244 3.0378068124834865 233.0 7.0 172.0 
428.0005923698108 8055.0 447.0 922.0369662205248 1.8371729703923436 232.0 8.0 170.0 
430.00033353340314 8050.0 446.0 925.0274059910797 1.7463883674737746 232.0 8.0 171.0 
432.0005923698108 8050.0 446.0 922.0420650095587 2.0890308537739193 232.0 8.0 170.0 
434.0005923698108 8012.0 445.0 924.9942638623329 2.0563829352082847 232.0 8.0 171.0 
436.00008466603504 8009.0 444.0 919.1765455704251 2.245391574385212 232.0 8.0 169.0 
438.0005923698108 8010.0 444.0 919.1485022307224 2.7751194034597026 231.0 9.0 168.0 
440.00033353340314 8010.0 444.0 919.1536010197563 2.577887945634111 232.0 8.0 169.0 
442.0005923698108 8008.0 444.0 919.1663479923552 1.6043676167838927 233.0 7.0 170.0 
444.0005923698108 8008.0 444.0 919.1485022307224 1.7596450703057869 233.0 7.0 170.0 
446.00008466603504 8007.0 444.0 916.2090503505403 1.94975593522907 233.0 7.0 169.0 
448.0005923698108 8012.0 444.0 916.1427660930553 2.2179418243749174 233.0 7.0 169.0 
450.00033353340314 8012.0 444.0 916.1376673040129 2.360830612315692 233.0 7.0 169.0 
452.0005923698108 8010.0 444.0 916.1019757807525 2.3936642947274107 233.0 7.0 169.0 
454.0005923698108 8006.0 444.0 916.1223709369003 2.551275957529133 233.0 7.0 169.0 
456.00008466603504 7992.0 443.0 916.211599745061 2.629480103072016 233.0 7.0 169.0 
458.0005923698108 7994.0 443.0 916.2574888463977 1.697398537977129 232.0 8.0 168.0 
460.00033353340314 7994.0 443.0 919.204588910136 1.7751519013505648 232.0 8.0 169.0 
462.0005923698108 7994.0 443.0 913.3435309114064 2.090669157369941 230.0 8.0 167.0 
464.0005923698108 7994.0 443.0 913.358827278519 2.3691149310939834 228.0 8.0 167.0 
466.00008466603504 8000.0 443.0 913.3868706182299 2.2582968364358584 228.0 8.0 167.0 
468.0005923698108 8002.0 443.0 913.3409815168914 2.4678347579973425 228.0 8.0 167.0 
470.00033353340314 8001.0 443.0 916.2829827915884 2.4492844755867296 228.0 8.0 168.0 
472.0005923698108 8001.0 442.0 916.2472912683214 1.9514158094292333 229.0 7.0 169.0 
474.0005923698108 8000.0 442.0 916.1835564053565 1.824090290938268 229.0 7.0 169.0 
476.00008466603504 7999.0 442.0 916.2345442957293 1.9044095742968492 229.0 7.0 169.0 
478.0005923698108 8004.0 442.0 916.219247928617 2.318992022451443 229.0 7.0 169.0 
480.00033353340314 8004.0 442.0 916.2166985340965 2.2932898194904254 229.0 7.0 169.0 
482.0005923698108 8001.0 442.0 916.2166985340965 2.0235353903328908 229.0 7.0 169.0 
484.0005923698108 7995.0 441.0 916.2039515615048 2.3704024476921486 229.0 7.0 169.0 
486.00008466603504 7997.0 441.0 916.2651370299538 2.721137524492436 229.0 7.0 169.0 
488.0005923698108 7999.0 441.0 916.3033779477349 1.8684242318930981 227.0 8.0 168.0 
490.00033353340314 7999.0 441.0 913.3205863607379 1.862814439614921 227.0 8.0 167.0 
492.0005923698108 7998.0 441.0 910.3632887189282 1.9764603249840635 227.0 8.0 166.0 
494.0005923698108 7998.0 441.0 910.3403441682598 1.9712290252870566 227.0 8.0 166.0 
496.00008466603504 8005.0 442.0 910.355640535372 2.24295730577839 227.0 8.0 166.0 
498.0005923698108 8007.0 442.0 907.4442319949012 2.6534871544860104 227.0 8.0 165.0 
500.00033353340314 8006.0 442.0 904.4818355640508 2.5272643492404825 227.0 8.0 164.0 
502.0005923698108 7999.0 442.0 904.4869343530931 2.044228781118601 228.0 7.0 165.0 
504.0005923698108 7991.0 441.0 904.451242829826 2.073022424706839 228.0 7.0 165.0 
506.00008466603504 7994.0 442.0 904.4767367750148 1.7816885179253248 227.0 7.0 165.0 
508.0005923698108 7987.0 442.0 904.5353728489506 1.930686380790258 227.0 7.0 165.0 
510.00033353340314 7986.0 442.0 901.5933715742484 2.2387414039748186 227.0 7.0 164.0 
512.0005923698109 7972.0 441.0 901.6010197578047 2.270899847658267 226.0 7.0 164.0 
514.0005923698109 7936.0 441.0 904.5302740599096 2.4056753847186463 226.0 7.0 165.0 
516.000084666035 7936.0 441.0 904.5532186105781 2.7717568897913747 227.0 7.0 165.0 
518.0005923698109 7938.0 441.0 904.5787125557673 1.7834471333277533 226.0 8.0 164.0 
520.0003335334031 7940.0 441.0 904.5532186105781 1.5607841249217047 226.0 8.0 164.0 
522.0005923698109 7938.0 441.0 901.6061185468469 1.8089887216685037 226.0 8.0 163.0 
524.0005923698109 7936.0 441.0 901.5653282345439 2.075698822442885 226.0 8.0 163.0 
526.000084666035 7963.0 442.0 901.5882727852123 2.26391421886746 223.0 8.0 163.0 
528.0005923698109 7960.0 442.0 901.5933715742483 2.7130541081277686 222.0 8.0 163.0 
530.0003335334031 7960.0 442.0 901.5704270235799 2.4881183986966295 222.0 8.0 163.0 
532.0005923698109 7964.0 442.0 901.5398342893549 1.6965541973707552 223.0 7.0 164.0 
534.0005923698109 7964.0 442.0 901.5296367112835 1.6808076489075758 223.0 7.0 164.0 
536.000084666035 7978.0 443.0 904.479286169537 1.8296871536169694 223.0 7.0 165.0 
538.0005923698109 7999.0 443.0 904.5047801147261 2.0515641097865656 223.0 7.0 165.0 
540.0003335334031 8008.0 445.0 904.4843849585709 2.239968717174768 223.0 7.0 165.0 
542.0005923698109 8009.0 445.0 904.4971319311633 2.3746762321010206 223.0 7.0 165.0 
544.0005923698109 8010.0 445.0 904.4614404079024 2.5606668656061045 223.0 7.0 165.0 
546.000084666035 8010.0 445.0 904.489483747607 2.4936906292552092 222.0 7.0 165.0 
548.0005923698109 8006.0 445.0 904.5736137667319 1.7041372737560556 221.0 8.0 164.0 
550.0003335334031 8008.0 445.0 904.5787125557672 1.8801820073071154 221.0 8.0 164.0 
552.0005923698109 8008.0 445.0 904.5506692160634 2.157525761547044 221.0 8.0 164.0 
554.0005923698109 8014.0 446.0 904.5175270873181 2.2890272220720624 221.0 8.0 164.0 
556.000084666035 8006.0 446.0 904.5302740599095 2.573006614699308 221.0 8.0 164.0 
558.0005923698109 7987.0 444.0 904.5379222434657 2.7780524261541166 221.0 8.0 164.0 
560.0003335334031 7979.0 444.0 904.5481198215426 2.421661304621107 221.0 8.0 164.0 
562.0005923698109 8003.0 444.0 904.5251752708742 1.7846351370325213 223.0 7.0 165.0 
564.0005923698109 8001.0 444.0 904.4690885914587 1.861177365664668 223.0 7.0 165.0 
566.000084666035 7999.0 444.0 904.4920331421273 1.9857620423768887 223.0 7.0 165.0 
568.0005923698109 7997.0 444.0 904.5175270873181 2.368990044981113 223.0 7.0 165.0 
570.0003335334031 7990.0 444.0 904.5124282982823 2.2146109304774826 223.0 7.0 165.0 
572.0005923698109 7991.0 443.0 904.5098789037617 1.9866134525412065 224.0 7.0 165.0 
574.0005923698109 7990.0 443.0 904.4843849585709 2.438313351238888 224.0 7.0 165.0 
576.000084666035 7992.0 444.0 907.4365838113451 2.823939820054782 226.0 7.0 166.0 
578.0005923698109 7991.0 444.0 904.5277246653945 1.767842723159405 225.0 8.0 164.0 
580.0003335334031 7979.0 444.0 904.4971319311633 1.8619494728626445 225.0 8.0 164.0 
582.0005923698109 7953.0 444.0 904.4996813256836 2.211930303781703 223.0 8.0 164.0 
584.0005923698109 7953.0 444.0 904.4945825366493 2.138581949500013 224.0 8.0 164.0 
586.000084666035 7946.0 444.0 904.5200764818383 2.151194373740637 224.0 8.0 164.0 
588.0005923698109 7942.0 443.0 901.5908221797347 2.6775848740182298 224.0 8.0 163.0 
590.0003335334031 7940.0 443.0 904.5124282982822 2.5085203667157425 222.0 8.0 164.0 
592.0005923698109 7949.0 443.0 904.5022307202055 2.0632058951611887 222.0 7.0 165.0 
594.0005923698109 7946.0 443.0 904.4818355640507 2.015597879772155 222.0 7.0 165.0 
596.000084666035 7975.0 444.0 904.4716379859809 1.7477937095033946 222.0 7.0 165.0 
598.0005923698109 7980.0 444.0 904.4920331421274 2.123746669936426 222.0 7.0 165.0 
600.0003335334031 7974.0 444.0 904.4716379859809 2.3246895018607647 222.0 7.0 165.0 
602.0005923698109 7975.0 444.0 904.4716379859809 2.2347835985370654 222.0 7.0 165.0 
604.0005923698109 7954.0 443.0 901.5653282345438 2.5653762077088635 222.0 7.0 164.0 
606.000084666035 7958.0 443.0 898.6207775653263 2.899873535457061 223.0 7.0 163.0 
608.0005923698109 7931.0 442.0 898.6462715105171 1.738663240426459 222.0 8.0 162.0 
610.0003335334031 7931.0 442.0 898.6513702995525 1.6063970614346874 222.0 8.0 162.0 
612.0004650202667 7961.0 443.0 898.6462715105171 1.8971705536466827 220.0 8.0 162.0 
614.0004650202667 7980.0 444.0 898.6462715105171 2.086679972101536 220.0 8.0 162.0 
616.000084666035 7982.0 445.0 901.6086679413609 2.328275692822278 220.0 8.0 163.0 
618.0004650202667 7971.0 445.0 901.5882727852123 2.631285186537453 220.0 8.0 163.0 
620.0003335334031 7972.0 445.0 901.5806246016562 2.2554367176297827 220.0 8.0 163.0 
622.0005923698109 8003.0 446.0 901.5882727852123 1.777237177788843 221.0 7.0 164.0 
624.0005923698109 8004.0 446.0 901.5576800509878 1.8796165722633136 220.0 7.0 164.0 
626.000084666035 8002.0 445.0 901.5372848948397 1.8051493423251006 219.0 7.0 164.0 
628.0005923698109 7983.0 446.0 901.5576800509878 2.1784219039389496 219.0 7.0 164.0 
630.0003335334031 7959.0 446.0 901.5372848948397 2.3475115908379616 219.0 7.0 164.0 
632.0005923698109 7962.0 446.0 904.4869343530931 2.108775370621878 220.0 7.0 165.0 
634.0005923698109 7963.0 446.0 907.416188655197 2.255072943552631 222.0 7.0 166.0 
636.000084666035 7964.0 446.0 907.3855959209658 2.627113599412454 221.0 9.0 164.0 
638.0005923698109 7954.0 446.0 907.3957934990422 1.782827012009355 222.0 8.0 165.0 
640.0003335334031 7953.0 448.0 907.3906947100079 1.8292988686979523 222.0 8.0 165.0 
642.0005923698109 7953.0 447.0 907.3983428935641 2.014163555787199 222.0 8.0 165.0 
644.0005923698109 7935.0 447.0 907.3906947100079 2.00261195832209 224.0 8.0 165.0 
646.000084666035 7944.0 448.0 907.4059910771206 2.070049003338924 224.0 8.0 165.0 
648.0005923698109 7941.0 448.0 907.3957934990422 2.6415474196711446 225.0 8.0 165.0 
650.0003335334031 7954.0 449.0 904.5098789037617 2.248550728713443 222.0 10.0 162.0 
652.0005923698109 7968.0 450.0 904.5532186105781 1.684351649246352 223.0 9.0 163.0 
654.0005923698109 7980.0 450.0 904.5685149776908 2.0233187394461356 224.0 9.0 163.0 
656.000084666035 7991.0 450.0 904.6271510516267 1.9249877470562173 219.0 14.0 158.0 
658.0005923698109 7975.0 449.0 904.5991077119154 1.833840761407718 215.0 17.0 155.0 
660.0003335334031 7980.0 450.0 904.6144040790342 2.0686258215964473 215.0 17.0 155.0 
662.0005923698109 7985.0 450.0 904.6042065009578 2.4535327921432204 214.0 17.0 155.0 
664.0005923698109 8011.0 451.0 901.6978967495209 2.398548779776595 218.0 12.0 159.0 
#####################################################################
# End of data export. Simulation finished at: 2019-03-08T23:26+0000 #
#####################################################################
