#####################################################################
# Alchemist log file - simulation started at: 2019-03-04T18:52+0000 #
#####################################################################
# seed = 8.0, bandwidth = 1000.0, accessPointCount = 2000.0, baserange = 10.0
#
# The columns have the following meaning: 
# time neighbor_count[Sum] <value>@neighbor_count[Sum] packet_size[Mean] mean_delay[Mean] crowd[Sum] overcrowded[Sum] risk[Sum] 
0.0 NaN NaN NaN NaN NaN NaN NaN 
2.000354102472554 NaN NaN 4974.273949099228 NaN 1497.0 0.0 1497.0 
4.000354102472555 NaN NaN 4974.273949099228 NaN 1497.0 0.0 1497.0 
6.000198348008885 67.0 47.0 4974.355161567057 0.35574698737135546 1497.0 0.0 1497.0 
8.000354102472555 125.0 91.0 4975.496711466973 2.0218496214772115 1497.0 0.0 1497.0 
10.000272693243975 125.0 91.0 4975.322848155562 3.9815915569610825 1497.0 0.0 1497.0 
12.000354102472555 171.0 111.0 4975.625965112953 1.0283690024833654 1497.0 0.0 1497.0 
14.000354102472555 171.0 111.0 4975.10323134115 3.028369002483365 1497.0 0.0 1497.0 
16.000198348008887 189.0 117.0 4975.185587646554 2.8611717010839737 1497.0 0.0 1497.0 
18.000354102472556 204.0 124.0 4975.192450672005 2.8554192266671725 1497.0 0.0 1497.0 
20.000272693243975 204.0 124.0 4975.1444094938515 4.8554192266671725 1497.0 0.0 1497.0 
22.000354102472556 224.0 128.0 4975.230197311981 3.021335334419095 1497.0 0.0 1497.0 
24.000354102472556 224.0 128.0 4975.151272519302 3.0121957995353745 1497.0 0.0 1497.0 
26.000198348008887 226.0 129.0 4975.151272519302 4.451986652414279 1497.0 0.0 1497.0 
28.000354102472556 226.0 129.0 4975.160423219902 3.5514923995407157 1497.0 0.0 1497.0 
30.00027269324397 226.0 129.0 4975.158135544752 5.034848721379795 1497.0 0.0 1497.0 
32.000354102472556 226.0 129.0 4975.210752073205 2.8701743918778804 1497.0 0.0 1497.0 
34.000354102472556 226.0 129.0 4975.164998570203 2.6805192194640868 1497.0 0.0 1497.0 
36.00019834800889 226.0 129.0 4975.164998570203 4.074197380383627 1497.0 0.0 1497.0 
38.000354102472556 230.0 130.0 4975.162710895053 3.904001784841559 1497.0 0.0 1497.0 
40.00027269324397 230.0 130.0 4975.162710895053 4.654047761853053 1497.0 0.0 1497.0 
42.000354102472556 231.0 130.0 4975.178724621104 4.041723279421723 1497.0 0.0 1497.0 
44.000354102472556 232.0 130.0 4975.175293108378 3.7568503560095645 1497.0 0.0 1497.0 
46.00019834800889 232.0 130.0 4975.179868458679 3.6122789274381364 1497.0 0.0 1497.0 
48.000354102472556 232.0 130.0 4975.175293108378 3.1905646417238502 1497.0 0.0 1497.0 
50.00027269324397 232.0 130.0 4975.166142407777 4.356278927438137 1497.0 0.0 1497.0 
52.000354102472556 232.0 130.0 4975.166142407777 4.17913607029528 1497.0 0.0 1497.0 
54.000354102472556 232.0 130.0 4975.173005433228 3.7537722607714694 1497.0 0.0 1497.0 
56.00019834800889 234.0 131.0 4975.178724621104 4.600598270744247 1497.0 0.0 1497.0 
58.000354102472556 234.0 131.0 4975.177580783528 4.306302816198792 1497.0 0.0 1497.0 
60.00027269324397 234.0 131.0 4975.173005433228 5.599022513168488 1497.0 0.0 1497.0 
62.00017011082656 233.0 130.0 409.2101801544179 3.6746343065596245 68.0 0.0 7.0 
64.00017011082656 233.0 130.0 409.2010294538179 1.905959977057711 68.0 0.0 7.0 
66.00017011082656 233.0 130.0 409.2010294538179 1.3582549962147936 68.0 0.0 7.0 
68.00017011082656 232.0 129.0 409.2010294538179 1.2108902614934387 67.0 0.0 7.0 
70.00017011082656 233.0 130.0 409.2010294538179 1.1983922077540532 64.0 0.0 7.0 
72.00017011082656 234.0 130.0 409.2010294538179 1.2961063132934634 59.0 0.0 7.0 
74.00017011082656 234.0 131.0 409.2010294538179 1.238386461924382 51.0 0.0 7.0 
76.00017011082656 235.0 131.0 409.2010294538179 1.188603804696989 49.0 0.0 7.0 
78.00017011082656 236.0 132.0 409.2010294538179 1.2198160343198656 43.0 0.0 7.0 
80.00017011082656 236.0 132.0 409.2010294538179 1.231186820836722 41.0 0.0 7.0 
82.00017011082656 236.0 132.0 409.2010294538179 1.0601980567917775 39.0 0.0 7.0 
84.00017011082656 238.0 133.0 409.2010294538179 1.002284745049646 38.0 0.0 7.0 
86.00017011082656 236.0 132.0 409.2010294538179 0.8056137871288559 32.0 0.0 7.0 
88.00017011082656 238.0 132.0 409.2010294538179 0.9296862114326211 31.0 0.0 7.0 
90.00017011082656 239.0 132.0 409.2010294538179 1.0575493793020692 27.0 0.0 7.0 
92.00017011082656 242.0 133.0 410.51301115241665 1.0678910883964097 27.0 0.0 8.0 
94.00017011082656 242.0 133.0 410.51301115241665 1.129733785025623 26.0 0.0 8.0 
96.00017011082656 242.0 133.0 410.51301115241665 1.2919060696698181 26.0 0.0 8.0 
98.00017011082656 242.0 133.0 410.51301115241665 1.4879734854001543 24.0 0.0 8.0 
100.00017011082656 242.0 133.0 410.51301115241665 1.6939659947634496 24.0 0.0 8.0 
102.00017011082656 242.0 133.0 410.51301115241665 1.613441650194162 23.0 0.0 8.0 
104.00017011082656 242.0 133.0 410.51301115241665 1.6452768561866713 23.0 0.0 8.0 
106.00017011082656 242.0 133.0 410.51301115241665 1.7499772307185057 21.0 0.0 8.0 
108.00017011082656 242.0 133.0 410.51301115241665 1.8155203018795565 20.0 0.0 8.0 
110.00017011082656 242.0 133.0 410.51301115241665 1.9372431483215036 21.0 0.0 8.0 
112.00017011082656 244.0 133.0 414.462682299114 1.7952785128081474 22.0 0.0 11.0 
114.00017011082656 245.0 134.0 414.45353159851356 1.8393585784201483 22.0 0.0 11.0 
116.00017011082656 246.0 134.0 414.45353159851356 1.858273725591307 21.0 0.0 11.0 
118.00017011082656 246.0 134.0 414.45353159851356 2.0459832227980104 21.0 0.0 11.0 
120.00017011082656 244.0 133.0 414.45353159851356 2.0164304218802434 21.0 0.0 11.0 
122.00017011082656 242.0 132.0 414.45353159851356 1.5036057675834278 20.0 0.0 11.0 
124.00017011082656 241.0 131.0 414.45353159851356 1.1990691747038242 20.0 0.0 11.0 
126.00017011082656 236.0 130.0 414.45353159851356 0.8714708188104094 18.0 0.0 11.0 
128.00017011082656 236.0 130.0 414.45353159851356 1.0161068341360795 18.0 0.0 11.0 
130.00017011082656 236.0 130.0 414.45353159851356 1.1607428494617502 18.0 0.0 11.0 
132.00017011082656 236.0 130.0 414.45353159851356 1.3092102824119414 18.0 0.0 11.0 
134.00017011082656 236.0 130.0 414.45810694881357 1.3222984050173046 18.0 0.0 11.0 
136.00017011082656 236.0 130.0 414.462682299114 1.4420302057835885 18.0 0.0 11.0 
138.00017011082656 236.0 130.0 414.462682299114 1.3749803973544692 17.0 0.0 11.0 
140.00017011082656 236.0 130.0 414.462682299114 1.4372409337529366 17.0 0.0 11.0 
142.00017011082656 231.0 129.0 414.4684014869887 1.3346369735864017 17.0 0.0 11.0 
144.00017011082656 231.0 129.0 414.4615384615381 1.1794645597932976 17.0 0.0 11.0 
146.00017011082656 231.0 129.0 414.4615384615381 1.202453065540424 17.0 0.0 11.0 
148.00017011082656 231.0 129.0 414.4615384615381 1.3461312264599643 17.0 0.0 11.0 
150.00017011082656 231.0 129.0 414.462682299114 1.3370124525136038 17.0 0.0 11.0 
152.00017011082656 231.0 129.0 414.462682299114 1.2651733720538338 17.0 0.0 11.0 
154.00017011082656 231.0 129.0 414.462682299114 1.2939090042377426 17.0 0.0 11.0 
156.00017011082656 229.0 128.0 414.462682299114 1.0868614345195762 17.0 0.0 11.0 
158.00017011082656 231.0 129.0 414.462682299114 1.2019549812492356 17.0 0.0 11.0 
160.00017011082656 232.0 130.0 414.462682299114 1.140238842854465 17.0 0.0 11.0 
162.00017011082656 234.0 131.0 414.462682299114 1.1813562308646774 17.0 0.0 11.0 
164.00017011082656 234.0 131.0 414.462682299114 0.9900683520767997 17.0 0.0 11.0 
166.00017011082656 234.0 131.0 414.462682299114 0.8694622914707391 17.0 0.0 11.0 
168.00017011082656 234.0 131.0 414.462682299114 0.8618865338949817 17.0 0.0 11.0 
170.00017011082656 234.0 131.0 414.462682299114 0.9224925945010416 17.0 0.0 11.0 
172.00017011082656 234.0 131.0 414.462682299114 1.0910532005616485 17.0 0.0 11.0 
174.00017011082656 234.0 131.0 414.462682299114 1.2571516854101323 17.0 0.0 11.0 
176.00017011082656 235.0 132.0 414.462682299114 1.351129883313471 17.0 0.0 11.0 
178.00017011082656 236.0 132.0 414.462682299114 1.487708033514139 17.0 0.0 11.0 
180.00017011082656 238.0 133.0 413.1507006005145 1.6463631294380545 17.0 0.0 10.0 
182.00017011082656 236.0 132.0 413.1507006005145 1.4820162593028365 17.0 0.0 10.0 
184.00017011082656 238.0 133.0 413.1507006005145 1.4649977656108637 17.0 0.0 10.0 
186.00017011082656 238.0 133.0 413.1507006005145 1.2314812820943788 17.0 0.0 10.0 
188.00017011082656 242.0 134.0 413.1507006005145 1.3411453188042461 17.0 0.0 10.0 
190.00017011082656 241.0 134.0 413.1507006005145 1.5164917443930752 16.0 0.0 10.0 
192.00017011082656 238.0 133.0 413.1507006005145 1.3169132301990965 15.0 0.0 10.0 
194.00017011082656 238.0 133.0 413.1507006005145 1.4973920515618968 15.0 0.0 10.0 
196.00017011082656 238.0 133.0 413.1507006005145 1.6502465635324297 14.0 0.0 10.0 
198.00017011082656 238.0 133.0 413.1507006005145 1.6147032854477155 14.0 0.0 10.0 
200.00017011082656 235.0 132.0 413.1507006005145 1.2054848309266277 13.0 0.0 10.0 
202.00017011082656 234.0 131.0 409.2010294538179 1.2643318101126466 12.0 0.0 7.0 
204.00017011082656 234.0 131.0 409.2010294538179 1.3766913606744453 12.0 0.0 7.0 
206.00017011082656 234.0 131.0 409.2010294538179 1.3443879898879287 12.0 0.0 7.0 
208.00017011082656 234.0 131.0 409.2010294538179 1.3261295629216363 12.0 0.0 7.0 
210.00017011082656 234.0 131.0 409.2010294538179 1.445365517977815 12.0 0.0 7.0 
212.00017011082656 234.0 131.0 409.2010294538179 1.4690958550564674 12.0 0.0 7.0 
214.00017011082656 234.0 131.0 409.2010294538179 1.5252756303373654 12.0 0.0 7.0 
216.00017011082656 234.0 131.0 409.2010294538179 1.6938149561800635 12.0 0.0 7.0 
218.00017011082656 234.0 131.0 409.2010294538179 1.5252756303373654 12.0 0.0 7.0 
220.00017011082656 234.0 131.0 409.2010294538179 1.6713430460677026 12.0 0.0 7.0 
222.00017011082656 232.0 130.0 409.2010294538179 1.4335173988639276 12.0 0.0 7.0 
224.00017011082656 232.0 130.0 409.2010294538179 1.5016992170457455 12.0 0.0 7.0 
226.00017011082656 230.0 130.0 409.2010294538179 1.4265328643115862 12.0 0.0 7.0 
228.00017011082656 228.0 129.0 409.2010294538179 0.8771374982860066 12.0 0.0 7.0 
230.00017011082656 236.0 131.0 409.2010294538179 0.8892602384183677 12.0 0.0 7.0 
232.00017011082656 238.0 132.0 409.2010294538179 0.983234984357827 12.0 0.0 7.0 
234.00017011082656 238.0 132.0 409.2010294538179 1.0837936435757063 12.0 0.0 7.0 
236.00017011082656 237.0 131.0 409.2010294538179 0.8428397135327685 12.0 0.0 7.0 
238.00017011082656 242.0 133.0 409.2010294538179 0.9428748374506049 12.0 0.0 7.0 
240.00017011082656 244.0 134.0 409.2010294538179 1.0742718172588388 12.0 0.0 7.0 
242.00017011082656 244.0 134.0 409.2010294538179 1.0478981908852125 12.0 0.0 7.0 
244.00017011082656 244.0 134.0 409.2010294538179 1.0478981908852125 12.0 0.0 7.0 
246.00017011082656 246.0 135.0 410.5198741778673 1.1190802704956293 13.0 0.0 8.0 
248.00017011082656 249.0 135.0 411.83185587646534 1.0224089709919446 14.0 0.0 9.0 
250.00017011082656 249.0 135.0 411.8249928510147 1.2227732697168996 14.0 0.0 9.0 
252.00017011082656 250.0 135.0 411.8249928510147 1.4172145944636976 14.0 0.0 9.0 
254.00017011082656 255.0 137.0 411.8249928510147 1.5953200711332847 14.0 0.0 9.0 
256.00017011082656 257.0 137.0 413.1449814126397 1.7620541320067835 15.0 0.0 10.0 
258.0001701108265 257.0 137.0 413.14040606233925 1.8663552072756202 15.0 0.0 10.0 
260.0001701108265 259.0 138.0 413.14040606233925 2.0100448885359405 15.0 0.0 10.0 
262.0001701108265 261.0 139.0 413.1449814126397 2.174136124283357 15.0 0.0 10.0 
264.0001701108265 261.0 139.0 413.13926222476334 2.2648874470346767 17.0 0.0 10.0 
266.0001701108265 261.0 139.0 413.13697454961465 2.4456634611440276 17.0 0.0 10.0 
268.0001701108265 260.0 137.0 417.0935087217613 1.910437024110118 18.0 0.0 13.0 
270.0001701108265 255.0 136.0 417.08092650843594 1.5529119607794855 18.0 0.0 13.0 
272.0001701108265 257.0 137.0 417.08092650843594 1.6394182837818556 18.0 0.0 13.0 
274.0001701108265 257.0 137.0 417.08092650843594 1.7720347712370539 18.0 0.0 13.0 
276.0001701108265 257.0 137.0 417.08092650843594 2.0202426565417135 18.0 0.0 13.0 
278.0001701108265 257.0 137.0 417.08092650843594 1.9431817246420706 18.0 0.0 13.0 
280.0001701108265 257.0 137.0 417.08092650843594 2.179740864427018 18.0 0.0 13.0 
282.0001701108265 257.0 137.0 417.08092650843594 2.353575989875048 18.0 0.0 13.0 
284.0001701108265 253.0 136.0 417.0912210466108 2.188076850336293 18.0 0.0 13.0 
286.0001701108265 248.0 134.0 417.08435802116077 2.0085271882222386 18.0 0.0 13.0 
288.0001701108265 247.0 134.0 417.08435802116077 1.7762807489734918 18.0 0.0 13.0 
290.0001701108265 251.0 135.0 417.08435802116077 1.804728197452623 19.0 0.0 13.0 
292.0001701108265 249.0 134.0 417.08435802116077 1.7032772740485795 19.0 0.0 13.0 
294.0001701108265 245.0 133.0 417.08435802116077 1.5337474511438647 19.0 0.0 13.0 
296.0001701108265 246.0 134.0 417.08435802116077 1.6964532544831836 20.0 0.0 13.0 
298.0001701108265 246.0 134.0 417.08435802116077 1.8669450577618718 20.0 0.0 13.0 
300.0001701108265 244.0 133.0 417.0797826708604 1.6578394782896282 20.0 0.0 13.0 
302.0001701108265 244.0 133.0 417.08435802116077 1.6514858871294067 20.0 0.0 13.0 
304.0001701108265 247.0 135.0 417.08435802116077 1.622216450485615 20.0 0.0 13.0 
306.0001701108265 244.0 135.0 417.08435802116077 1.5728933927027984 20.0 0.0 13.0 
308.0001701108265 246.0 136.0 417.08321418358634 1.613002065899542 20.0 0.0 13.0 
310.0001701108265 246.0 136.0 417.0855018587363 1.5283891626737367 20.0 0.0 13.0 
312.0001701108265 246.0 136.0 417.0820703460103 1.6830020658995415 20.0 0.0 13.0 
314.0001701108265 246.0 136.0 417.0820703460103 1.6203405124044943 20.0 0.0 13.0 
316.0001701108265 242.0 135.0 417.0820703460103 1.5369708644484141 18.0 0.0 13.0 
318.0001701108265 240.0 134.0 417.0820703460103 1.24757528191051 17.0 0.0 13.0 
320.0001701108265 240.0 134.0 417.0774949957099 1.2893239157902903 17.0 0.0 13.0 
322.0001701108265 240.0 134.0 415.7655132971115 1.3839832964824594 16.0 0.0 12.0 
324.0001701108265 243.0 136.0 415.7655132971115 1.5003578735381118 16.0 0.0 12.0 
326.0001701108265 244.0 136.0 415.7655132971115 1.685233366343805 17.0 0.0 12.0 
328.0001701108265 240.0 135.0 415.7655132971115 1.4767631423273435 16.0 0.0 12.0 
330.0001701108265 240.0 135.0 415.7655132971115 1.4841000792642807 16.0 0.0 12.0 
332.0001701108265 240.0 135.0 415.7655132971115 1.3617505297147303 16.0 0.0 12.0 
334.0001701108265 239.0 134.0 415.7655132971115 1.4431078663979306 16.0 0.0 12.0 
336.0001701108265 238.0 134.0 415.7655132971115 1.5419801511535216 16.0 0.0 12.0 
338.0001701108265 248.0 137.0 415.7655132971115 1.7143246295040855 17.0 0.0 12.0 
340.0001701108265 252.0 137.0 418.4054904203612 1.9186911103080933 18.0 0.0 14.0 
342.0001701108265 260.0 139.0 418.4032027452105 2.0420972120599625 19.0 0.0 14.0 
344.0001701108265 262.0 140.0 417.0889333714608 1.9142281438787825 18.0 0.0 13.0 
346.0001701108265 262.0 140.0 417.0889333714608 2.1295059216565604 18.0 0.0 13.0 
348.0001701108265 260.0 139.0 417.0912210466108 1.8697287910073297 18.0 0.0 13.0 
350.0001701108265 260.0 139.0 417.0889333714608 1.9035007208318921 18.0 0.0 13.0 
352.0001701108265 256.0 138.0 417.0889333714608 1.7444151867269468 18.0 0.0 13.0 
354.0001701108265 256.0 138.0 417.0889333714608 2.026602135580563 18.0 0.0 13.0 
356.0001701108265 256.0 138.0 415.77695167286265 2.3193710950161877 17.0 0.0 12.0 
358.0001701108265 256.0 138.0 415.77923934801294 2.625367567679326 17.0 0.0 12.0 
360.0001701108265 258.0 139.0 415.77923934801294 2.835255516359825 16.0 0.0 12.0 
362.0001701108265 255.0 137.0 415.77923934801294 2.364861839518235 16.0 0.0 12.0 
364.0001701108265 250.0 135.0 415.77695167286265 1.8141326203007067 16.0 0.0 12.0 
366.0001701108265 250.0 135.0 414.46496997426414 2.061415228996359 15.0 0.0 11.0 
368.0001701108265 250.0 135.0 414.46725764941436 2.3086978376920113 15.0 0.0 11.0 
370.0001701108265 248.0 135.0 414.46496997426414 2.442449848098446 15.0 0.0 11.0 
372.0001701108265 242.0 134.0 414.4615384615381 2.422611113841476 15.0 0.0 11.0 
374.0001701108265 244.0 135.0 414.4592507863879 2.509866436853269 15.0 0.0 11.0 
376.0001701108265 242.0 134.0 414.4592507863879 2.3868267257806304 15.0 0.0 11.0 
378.0001701108265 242.0 134.0 414.46382613668817 2.436109057292467 15.0 0.0 11.0 
380.0001701108265 241.0 133.0 414.4592507863879 1.9943065686537196 15.0 0.0 11.0 
382.0001701108265 241.0 133.0 414.4592507863879 1.8083028854124674 15.0 0.0 11.0 
384.0001701108265 241.0 133.0 414.4592507863879 1.67871192366247 15.0 0.0 11.0 
386.0001701108265 242.0 134.0 414.4592507863879 1.6514150423768283 15.0 0.0 11.0 
388.0001701108265 240.0 133.0 414.4615384615381 1.4567566450550247 15.0 0.0 11.0 
390.0001701108265 241.0 134.0 414.45581927366334 1.4982513578975958 14.0 0.0 11.0 
392.0001701108265 238.0 133.0 414.45353159851356 1.276606331064791 14.0 0.0 11.0 
394.0001701108265 239.0 134.0 414.45353159851356 1.2644818428591842 14.0 0.0 11.0 
396.0001701108265 239.0 134.0 414.45353159851356 1.4590764374537781 14.0 0.0 11.0 
398.0001701108265 236.0 133.0 414.45353159851356 1.2968036185795362 14.0 0.0 11.0 
400.0001701108265 236.0 133.0 414.45353159851356 1.5427052579237963 14.0 0.0 11.0 
402.0001701108265 236.0 133.0 414.45353159851356 1.7448910502735246 14.0 0.0 11.0 
404.0001701108265 236.0 133.0 414.45353159851356 1.9634702852462014 14.0 0.0 11.0 
406.0001701108265 236.0 133.0 414.45353159851356 2.154727115847295 14.0 0.0 11.0 
408.0001701108265 240.0 135.0 414.45353159851356 2.1963372310163356 14.0 0.0 11.0 
410.0001701108265 240.0 135.0 414.45353159851356 2.276551134759652 14.0 0.0 11.0 
412.0001701108265 240.0 135.0 414.45353159851356 2.4369789422462826 14.0 0.0 11.0 
414.0001701108265 240.0 135.0 414.45353159851356 2.37280781925163 14.0 0.0 11.0 
416.0001701108265 242.0 136.0 414.45353159851356 2.4485798012031363 14.0 0.0 11.0 
418.0001701108265 239.0 136.0 414.45353159851356 2.437991161620007 14.0 0.0 11.0 
420.0001701108265 237.0 135.0 414.45353159851356 2.4772548871777356 14.0 0.0 11.0 
422.0001701108265 234.0 133.0 414.45353159851356 2.0859726919463912 14.0 0.0 11.0 
424.0001701108265 230.0 131.0 414.45353159851356 1.549346383386534 14.0 0.0 11.0 
426.0001701108265 230.0 131.0 414.45353159851356 1.7281173331072037 14.0 0.0 11.0 
428.0001701108265 231.0 132.0 414.45353159851356 1.7052877838919565 14.0 0.0 11.0 
430.0001701108265 234.0 132.0 413.1415498999137 1.6358338695163561 13.0 0.0 10.0 
432.0001701108265 232.0 131.0 413.1415498999137 1.3989506364035478 13.0 0.0 10.0 
434.0001701108265 236.0 134.0 413.1415498999137 1.5600830539684727 13.0 0.0 10.0 
436.0001701108265 241.0 135.0 413.1415498999137 1.5381621367126619 13.0 0.0 10.0 
438.0001701108265 242.0 135.0 413.1415498999137 1.5386644708881956 13.0 0.0 10.0 
440.0001701108265 242.0 135.0 413.1415498999137 1.6712731665403702 13.0 0.0 10.0 
442.0001701108265 242.0 135.0 413.1415498999137 1.8370340361055875 13.0 0.0 10.0 
444.0001701108265 244.0 136.0 413.1415498999137 2.026806849875648 13.0 0.0 10.0 
446.0001701108265 247.0 136.0 413.1415498999137 2.081710278802351 13.0 0.0 10.0 
448.0001701108265 244.0 135.0 411.82956820131506 1.939456884693594 12.0 0.0 9.0 
450.0001701108265 244.0 135.0 409.2010294538179 2.1147286238240306 12.0 0.0 7.0 
452.0001701108265 240.0 133.0 409.2010294538179 1.56922259324234 12.0 0.0 7.0 
454.0001701108265 240.0 133.0 409.2010294538179 1.5731114821312295 12.0 0.0 7.0 
456.0001701108265 240.0 133.0 409.2010294538179 1.6652892599090074 12.0 0.0 7.0 
458.0001701108265 242.0 134.0 409.2010294538179 1.7898373124783435 12.0 0.0 7.0 
460.0001701108265 242.0 134.0 409.2010294538179 2.021881511373372 12.0 0.0 7.0 
462.0001701108265 242.0 134.0 409.2010294538179 2.1986770914838676 12.0 0.0 7.0 
464.0001701108265 242.0 134.0 409.2010294538179 2.3754726715943675 12.0 0.0 7.0 
466.0001701108265 242.0 134.0 409.2010294538179 2.3194728944155045 12.0 0.0 7.0 
468.0001701108265 239.0 133.0 409.2010294538179 2.1776325261067835 12.0 0.0 7.0 
470.0001701108265 238.0 133.0 409.2010294538179 2.228420258473046 12.0 0.0 7.0 
472.0001701108265 234.0 132.0 409.2010294538179 2.1530225932423432 12.0 0.0 7.0 
474.0001701108265 230.0 130.0 409.2010294538179 1.5860458339978492 12.0 0.0 7.0 
476.0001701108265 228.0 129.0 409.2010294538179 1.3100233723196644 12.0 0.0 7.0 
478.0001701108265 228.0 129.0 409.2010294538179 1.4766900389863291 12.0 0.0 7.0 
480.0001701108265 228.0 129.0 409.2010294538179 1.6433567056529967 12.0 0.0 7.0 
482.0001701108265 228.0 129.0 409.2010294538179 1.6088739470323075 12.0 0.0 7.0 
484.0001701108265 224.0 127.0 409.2010294538179 1.006427264327805 12.0 0.0 7.0 
486.0001701108265 227.0 129.0 409.2010294538179 1.124097674814181 12.0 0.0 7.0 
488.0001701108265 230.0 130.0 409.2010294538179 1.2355879220342083 12.0 0.0 7.0 
490.0001701108265 231.0 131.0 409.2010294538179 1.3529503259589821 12.0 0.0 7.0 
492.0001701108265 232.0 131.0 409.2010294538179 1.3807210178774016 12.0 0.0 7.0 
494.0001701108265 232.0 131.0 409.2010294538179 1.4742964368718139 12.0 0.0 7.0 
496.0001701108265 233.0 132.0 409.2010294538179 1.1881465600504244 12.0 0.0 7.0 
498.0001701108265 232.0 131.0 409.2010294538179 1.0106092860338254 12.0 0.0 7.0 
500.0001701108265 232.0 131.0 409.2010294538179 1.055302023463993 12.0 0.0 7.0 
502.0001701108265 232.0 131.0 409.2010294538179 1.1446874983243285 12.0 0.0 7.0 
504.0001701108265 232.0 131.0 409.2010294538179 0.9044640346371773 12.0 0.0 7.0 
506.0001701108265 232.0 131.0 409.2010294538179 1.0553020234639927 12.0 0.0 7.0 
508.0001701108265 232.0 131.0 409.2010294538179 1.2173131966483512 12.0 0.0 7.0 
510.0001701108265 232.0 131.0 409.2010294538179 1.3849109620114786 12.0 0.0 7.0 
512.0001701108265 232.0 131.0 409.2010294538179 1.3290450402237708 12.0 0.0 7.0 
514.0001701108265 234.0 132.0 409.2010294538179 1.3648412399124172 12.0 0.0 7.0 
516.0001701108265 234.0 132.0 409.2010294538179 1.43706346213464 12.0 0.0 7.0 
518.0001701108265 234.0 132.0 409.2010294538179 1.5037301288013059 12.0 0.0 7.0 
520.0001701108265 235.0 133.0 409.2010294538179 1.678201403934824 12.0 0.0 7.0 
522.0001701108265 236.0 133.0 409.2010294538179 1.7551159478372438 12.0 0.0 7.0 
524.0001701108265 235.0 133.0 409.2010294538179 1.7397963376885632 12.0 0.0 7.0 
526.0001701108265 234.0 132.0 409.2010294538179 1.7345027182041404 12.0 0.0 7.0 
528.0001701108265 235.0 133.0 409.2010294538179 1.7887440071494505 12.0 0.0 7.0 
530.0001701108265 234.0 132.0 409.2010294538179 1.661534925971599 12.0 0.0 7.0 
532.0001701108265 234.0 132.0 409.2010294538179 1.8905852053012095 12.0 0.0 7.0 
534.0001701108265 234.0 132.0 409.2010294538179 1.6671215181503702 12.0 0.0 7.0 
536.0001701108265 233.0 131.0 409.2010294538179 1.59618437377137 12.0 0.0 7.0 
538.0001701108265 236.0 132.0 409.2010294538179 1.4987230345487994 12.0 0.0 7.0 
540.0001701108265 236.0 132.0 409.2010294538179 1.68308057644824 12.0 0.0 7.0 
542.0001701108265 235.0 131.0 409.2010294538179 1.5115815262619332 12.0 0.0 7.0 
544.0001701108265 234.0 131.0 409.2010294538179 1.4522419224722243 12.0 0.0 7.0 
546.0001701108265 237.0 133.0 409.2010294538179 1.6233618645282382 12.0 0.0 7.0 
548.0001701108265 238.0 133.0 409.2010294538179 1.8285662758244832 12.0 0.0 7.0 
550.0001701108265 238.0 133.0 409.2010294538179 2.059335506593716 12.0 0.0 7.0 
552.0001701108265 236.0 133.0 409.2010294538179 1.9464429628418367 11.0 0.0 7.0 
554.0001701108265 236.0 133.0 409.2010294538179 2.0448036185795417 11.0 0.0 7.0 
556.0001701108265 236.0 133.0 409.2010294538179 2.137699793442929 10.0 0.0 7.0 
558.0001701108265 234.0 132.0 409.2010294538179 1.7955749292820777 10.0 0.0 7.0 
560.0001701108265 230.0 130.0 409.2010294538179 1.2745709728816719 10.0 0.0 7.0 
562.0001701108265 230.0 130.0 409.2010294538179 1.404514475706531 10.0 0.0 7.0 
564.0001701108265 230.0 130.0 409.2010294538179 1.5401076960455133 10.0 0.0 7.0 
566.0001701108265 230.0 130.0 409.2010294538179 1.7378478090398646 10.0 0.0 7.0 
568.0001701108265 230.0 130.0 409.2010294538179 1.9525370745765864 10.0 0.0 7.0 
570.0001701108265 230.0 130.0 409.2010294538179 2.1672263401133107 10.0 0.0 7.0 
572.0001701108265 228.0 129.0 409.2010294538179 1.916566069714605 10.0 0.0 7.0 
574.0001701108265 232.0 130.0 409.2010294538179 1.899190867350048 10.0 0.0 7.0 
576.0001701108265 231.0 130.0 409.2010294538179 1.783386805462355 10.0 0.0 7.0 
578.0001701108265 226.0 128.0 409.2010294538179 1.4422404199630536 10.0 0.0 7.0 
580.0001701108265 229.0 130.0 409.2010294538179 1.4553535315375923 10.0 0.0 7.0 
582.0001701108265 231.0 131.0 409.2010294538179 1.5348537150318529 10.0 0.0 7.0 
584.0001701108265 230.0 130.0 409.2010294538179 1.2932632353311206 10.0 0.0 7.0 
586.0001701108265 230.0 130.0 409.2010294538179 1.3893084330712329 10.0 0.0 7.0 
588.0001701108265 232.0 131.0 409.2010294538179 1.3637295678972534 10.0 0.0 7.0 
590.0001701108265 231.0 131.0 409.2010294538179 1.2617377543616344 10.0 0.0 7.0 
592.0001701108265 230.0 130.0 409.2010294538179 1.231116342675753 10.0 0.0 7.0 
594.0001701108265 232.0 131.0 409.2010294538179 1.369316160076025 10.0 0.0 7.0 
596.0001701108265 230.0 130.0 409.2010294538179 1.0672745347661494 10.0 0.0 7.0 
598.0001701108265 232.0 131.0 409.2010294538179 1.067640182422393 10.0 0.0 7.0 
600.0001701108265 234.0 132.0 409.2010294538179 1.0735226113459027 10.0 0.0 7.0 
602.0001701108265 237.0 133.0 409.2010294538179 1.017493114933261 10.0 0.0 7.0 
604.0001701108265 240.0 134.0 409.2010294538179 1.0022151774652648 10.0 0.0 7.0 
606.0001701108265 240.0 134.0 409.2010294538179 1.1652586557261335 10.0 0.0 7.0 
608.0001701108265 240.0 134.0 409.2010294538179 1.3391716992043947 10.0 0.0 7.0 
610.0001701108265 240.0 134.0 409.2010294538179 1.5239543079000466 10.0 0.0 7.0 
612.0001701108265 242.0 135.0 409.2010294538179 1.7070300680301538 10.0 0.0 7.0 
614.0001701108265 242.0 135.0 409.2010294538179 1.9274601755570355 10.0 0.0 7.0 
616.0001701108265 242.0 135.0 409.2010294538179 2.041707487384993 10.0 0.0 7.0 
618.0001701108265 243.0 135.0 409.2010294538179 1.6752993956132778 10.0 0.0 7.0 
620.0001701108265 244.0 135.0 409.2010294538179 1.6879562108936021 10.0 0.0 7.0 
622.0001701108265 242.0 134.0 409.2010294538179 1.5421731262294027 10.0 0.0 7.0 
624.0001701108265 252.0 138.0 409.2010294538179 1.6458476878740051 10.0 0.0 7.0 
626.0001701108265 256.0 140.0 410.5130111524166 1.853436816294679 11.0 0.0 8.0 
628.0001701108265 256.0 140.0 410.5130111524166 2.072337159937292 11.0 0.0 8.0 
630.0001701108265 254.0 139.0 410.5130111524166 2.0026045609088605 11.0 0.0 8.0 
632.0001701108265 255.0 139.0 410.5130111524166 2.07418781785802 11.0 0.0 8.0 
634.0001701108265 254.0 139.0 410.5130111524166 1.901910116464417 11.0 0.0 8.0 
636.0001701108265 254.0 139.0 410.5130111524166 2.17586844979775 11.0 0.0 8.0 
638.0001701108265 252.0 138.0 410.5130111524166 1.9482460124272 11.0 0.0 8.0 
640.0001701108265 256.0 140.0 410.5130111524166 2.0225261633737186 12.0 0.0 8.0 
642.0001701108265 253.0 140.0 410.5130111524166 1.7793827623968612 12.0 0.0 8.0 
644.0001701108265 252.0 139.0 410.5130111524166 1.8475133455673647 12.0 0.0 8.0 
646.0001701108265 252.0 139.0 410.5130111524166 2.0962180087797995 12.0 0.0 8.0 
648.0001701108265 252.0 139.0 410.5130111524166 2.241295728987053 12.0 0.0 8.0 
650.0001701108265 250.0 138.0 410.5130111524166 2.1590056319083826 12.0 0.0 8.0 
652.0001701108265 250.0 138.0 410.5130111524166 2.3992325079991343 12.0 0.0 8.0 
654.0001701108265 250.0 138.0 410.5130111524166 2.713368633653582 12.0 0.0 8.0 
656.0001701108265 249.0 138.0 410.5130111524166 3.0124494247674534 12.0 0.0 8.0 
658.0001701108265 247.0 137.0 410.5130111524166 2.824574110038364 12.0 0.0 8.0 
660.0001701108265 249.0 138.0 410.5130111524166 3.0658459729983663 12.0 0.0 8.0 
662.0001701108265 248.0 137.0 410.5130111524166 2.7057331165690557 12.0 0.0 8.0 
664.0001701108265 246.0 136.0 410.5130111524166 2.032720088288152 12.0 0.0 8.0 
#####################################################################
# End of data export. Simulation finished at: 2019-03-04T18:58+0000 #
#####################################################################
