#####################################################################
# Alchemist log file - simulation started at: 2019-03-08T03:57+0000 #
#####################################################################
# seed = 2.0, bandwidth = 2.3713737056616552E7, accessPointCount = 531.8295896944988, baserange = 100.0
#
# The columns have the following meaning: 
# time neighbor_count[Sum] <value>@neighbor_count[Sum] packet_size[Mean] mean_delay[Mean] crowd[Sum] overcrowded[Sum] risk[Sum] 
0.0 NaN NaN NaN NaN NaN NaN NaN 
10.00013478919344 1701.0 396.0 4984.236686390533 0.5107679919535665 1491.0 6.0 1491.0 
20.00013478919344 1698.0 394.0 4984.396449704142 0.49904914533131206 1485.0 12.0 1485.0 
30.00013478919344 1698.0 394.0 4983.7731755424065 0.49904943976353533 1485.0 12.0 1485.0 
40.00013478919344 1696.0 394.0 4984.203155818541 0.4995742292294582 1484.0 13.0 1484.0 
50.00013478919344 1695.0 394.0 4983.733727810651 0.49826417597265904 1484.0 13.0 1484.0 
60.00013478919344 1688.0 395.0 4984.236686390533 0.5016354819674654 1484.0 13.0 1484.0 
70.00058297905275 1675.0 393.0 581.4201183431926 0.4997516278353191 113.0 13.0 67.0 
80.00058297905275 1688.0 394.0 581.380670611439 0.5016264690422126 98.0 12.0 68.0 
90.00058297905275 1688.0 393.0 585.925049309666 0.4983944386135917 94.0 12.0 70.0 
100.00058297905275 1687.0 396.0 588.2110453648905 0.5033970917254416 94.0 12.0 71.0 
110.00058297905275 1676.0 393.0 590.4694280078918 0.4995931889096266 96.0 12.0 72.0 
120.00058297905275 1682.0 396.0 590.467455621303 0.5004989088612853 96.0 12.0 72.0 
130.00058297905275 1690.0 398.0 590.4694280078918 0.5012323290982779 96.0 12.0 72.0 
140.00058297905275 1702.0 397.0 590.4733727810641 0.4991955508575216 96.0 12.0 72.0 
150.00058297905275 1746.0 400.0 588.2228796844201 0.5066399829523913 98.0 12.0 71.0 
160.00058297905275 1736.0 399.0 588.2149901380697 0.5071721773618065 99.0 12.0 71.0 
170.00058297905275 1746.0 401.0 588.2051282051299 0.49918967368076195 99.0 12.0 71.0 
180.00058297905275 1754.0 401.0 585.925049309666 0.49934751216214407 98.0 12.0 70.0 
190.00058297905275 1760.0 402.0 585.925049309666 0.49891548156786136 98.0 12.0 70.0 
200.00058297905275 1772.0 403.0 588.1992110453615 0.5000960504127885 98.0 12.0 71.0 
210.00058297905275 1792.0 409.0 592.7357001972372 0.4989721117007873 103.0 12.0 73.0 
220.00058297905275 1810.0 411.0 597.2426035502936 0.5009568481077668 109.0 13.0 74.0 
230.00058297905275 1810.0 410.0 601.7731755424084 0.5066641147280236 113.0 13.0 76.0 
240.00058297905275 1765.0 408.0 606.3333333333356 0.5044573692373983 111.0 13.0 78.0 
250.00058297905275 1748.0 406.0 610.8185404339224 0.4994596356497539 112.0 13.0 80.0 
260.00058297905275 1736.0 402.0 615.3471400394473 0.499999050081172 110.0 13.0 82.0 
270.00058297905275 1727.0 401.0 617.5956607495087 0.5082579878909246 116.0 13.0 83.0 
280.00058297905275 1724.0 400.0 617.6528599605525 0.49935418305842766 115.0 13.0 83.0 
290.00058297905275 1732.0 401.0 615.3629191321485 0.5012119729101527 112.0 13.0 82.0 
300.00058297905275 1737.0 403.0 613.1656804733698 0.5052050481552176 106.0 13.0 81.0 
310.00058297905275 1750.0 402.0 610.8816568047342 0.5076164333307221 104.0 13.0 80.0 
320.00058297905275 1749.0 403.0 613.1656804733698 0.5079023642915366 103.0 13.0 81.0 
330.00058297905275 1745.0 403.0 610.8619329388541 0.5058316632704253 103.0 13.0 80.0 
340.00058297905275 1740.0 401.0 606.3234714003959 0.5004733462373454 101.0 12.0 79.0 
350.00058297905275 1746.0 403.0 610.8579881656826 0.5065877521852411 101.0 12.0 81.0 
360.00058297905275 1725.0 399.0 610.8362919132129 0.5080213881534597 103.0 12.0 81.0 
370.00058297905275 1720.0 400.0 597.2386587771216 0.5031120805491079 99.0 12.0 75.0 
380.00058297905275 1720.0 400.0 597.2642998027628 0.5128396809034823 99.0 12.0 75.0 
390.00058297905275 1748.0 403.0 599.5404339250474 0.501936514193364 100.0 13.0 75.0 
400.00058297905275 1740.0 402.0 599.562130177517 0.5025107704347304 101.0 12.0 76.0 
410.00058297905275 1715.0 401.0 597.2899408284042 0.5126574773917906 104.0 12.0 75.0 
420.00058297905275 1718.0 402.0 595.0039447731787 0.4992102379922522 104.0 12.0 74.0 
430.00058297905275 1700.0 400.0 592.76725838264 0.4986449553999298 103.0 12.0 73.0 
440.00058297905275 1722.0 402.0 592.7218934911258 0.4991690006075598 107.0 12.0 73.0 
450.00058297905275 1727.0 402.0 597.250493096644 0.5039852131786229 110.0 12.0 75.0 
460.00058297905275 1730.0 403.0 597.2268244575916 0.5013134441849844 111.0 12.0 75.0 
470.00058297905275 1740.0 404.0 597.260355029584 0.500126216858797 107.0 13.0 74.0 
480.00058297905275 1733.0 405.0 597.2366863905319 0.5016062840013961 106.0 13.0 74.0 
490.00058297905275 1722.0 404.0 599.5364891518757 0.5054291129861282 109.0 13.0 75.0 
500.00058297905275 1705.0 403.0 599.530571992108 0.5010044821336459 110.0 13.0 75.0 
510.00058297905275 1710.0 403.0 599.5384615384585 0.5011787535374682 112.0 13.0 75.0 
520.0005829790528 1713.0 406.0 592.6923076923058 0.5108595453194137 111.0 13.0 72.0 
530.0005829790528 1712.0 404.0 592.7140039447754 0.5100655056080299 109.0 13.0 72.0 
540.0005829790528 1707.0 404.0 597.2307692307712 0.5032145183768308 112.0 13.0 74.0 
550.0005829790528 1716.0 407.0 594.9723865877698 0.507162280857308 113.0 13.0 73.0 
560.0005829790528 1657.0 402.0 597.2465483234722 0.5059807123321745 113.0 12.0 75.0 
570.0005829790528 1655.0 403.0 606.3353057199183 0.5065909771400016 113.0 12.0 79.0 
580.0005829790528 1648.0 403.0 608.5029585798837 0.5004574379199508 117.0 12.0 80.0 
590.0005829790528 1646.0 403.0 610.808678500989 0.5067268631193488 114.0 12.0 81.0 
600.0005829790528 1624.0 400.0 613.0927021696244 0.5059995949234853 116.0 12.0 82.0 
610.0005829790528 1619.0 399.0 615.3846153846177 0.5054945912049712 115.0 12.0 83.0 
620.0005829790528 1604.0 396.0 610.8481262327425 0.510579946191878 112.0 12.0 81.0 
630.0005829790528 1592.0 393.0 610.8500986193316 0.5007272730370232 110.0 12.0 81.0 
640.0005829790528 1592.0 394.0 597.2485207100613 0.5001876011269111 108.0 12.0 75.0 
650.0005829790528 1604.0 395.0 585.9270216962547 0.4999953807980613 106.0 12.0 70.0 
660.0005829790528 1618.0 399.0 592.7297830374767 0.49931164177996734 103.0 12.0 73.0 
#####################################################################
# End of data export. Simulation finished at: 2019-03-08T04:08+0000 #
#####################################################################
