#####################################################################
# Alchemist log file - simulation started at: 2019-03-10T00:22+0000 #
#####################################################################
# seed = 3.0, bandwidth = 2.3713737056616552E7, accessPointCount = 141.4213562373095, baserange = 562.341325190349
#
# The columns have the following meaning: 
# time neighbor_count[Sum] <value>@neighbor_count[Sum] packet_size[Mean] mean_delay[Mean] crowd[Sum] overcrowded[Sum] risk[Sum] 
0.0 NaN NaN NaN NaN NaN NaN NaN 
2.0005923698108097 5491.0 1305.0 4986.852258852259 0.4890745572574902 1497.0 0.0 1497.0 
4.000465177810951 10084.0 1367.0 4988.400488400488 0.5258322979783827 1497.0 0.0 1497.0 
6.000084666035003 15070.0 1392.0 4989.655677655677 0.5424720670936958 1497.0 0.0 1497.0 
8.000465177810952 19836.0 1372.0 4990.722832722833 0.5469871929647325 1497.0 0.0 1497.0 
10.00033353340315 23381.0 1373.0 4991.416361416362 0.5629302159438119 1496.0 1.0 1496.0 
12.000465177810952 24230.0 1316.0 4991.96336996337 0.557544189630452 1496.0 1.0 1496.0 
14.000465177810952 23656.0 1271.0 4992.144078144078 0.501903813819456 1496.0 1.0 1496.0 
16.000084666035004 23657.0 1271.0 4992.0952380952385 0.5019125402616956 1496.0 1.0 1496.0 
18.000465177810952 23659.0 1271.0 4992.043956043956 0.5018976103666881 1495.0 2.0 1495.0 
20.00033353340315 23664.0 1271.0 4991.992673992674 0.501953644888914 1495.0 2.0 1495.0 
22.000465177810952 23689.0 1272.0 4991.885225885226 0.5037308930148328 1494.0 3.0 1494.0 
24.000465177810952 23664.0 1271.0 4992.026862026862 0.5018934792280265 1495.0 2.0 1495.0 
26.000084666035004 23764.0 1272.0 4992.19536019536 0.5029838874338957 1495.0 2.0 1495.0 
28.000465177810952 23761.0 1272.0 4992.246642246642 0.5036489658233225 1496.0 1.0 1496.0 
30.00033353340315 23717.0 1271.0 4992.01221001221 0.5019326649106941 1495.0 2.0 1495.0 
32.00046517781095 23719.0 1271.0 4991.97557997558 0.5020681178163071 1496.0 1.0 1496.0 
34.00046517781095 23716.0 1271.0 4992.053724053724 0.5019122149511941 1496.0 1.0 1496.0 
36.00008466603501 23755.0 1271.0 4992.06105006105 0.5018763214944741 1495.0 2.0 1495.0 
38.00046517781095 23769.0 1272.0 4992.192918192918 0.5035864439261427 1496.0 1.0 1496.0 
40.00033353340315 23751.0 1271.0 4992.214896214896 0.5019180343825765 1496.0 1.0 1496.0 
42.00046517781095 23753.0 1271.0 4992.139194139194 0.502113774487526 1495.0 2.0 1495.0 
44.00046517781095 23750.0 1271.0 4992.002442002442 0.5018612804840868 1495.0 2.0 1495.0 
46.00008466603501 23778.0 1271.0 4991.982905982906 0.5029677706416384 1494.0 3.0 1494.0 
48.00046517781095 23781.0 1271.0 4991.960927960928 0.5031244477427215 1492.0 5.0 1492.0 
50.00033353340315 23776.0 1271.0 4991.919413919414 0.5028888302818905 1494.0 3.0 1494.0 
52.00046517781095 23827.0 1273.0 4991.873015873016 0.5032179725093661 1494.0 3.0 1494.0 
54.00046517781095 23812.0 1272.0 4992.0317460317465 0.5021847218265325 1495.0 2.0 1495.0 
56.00008466603501 23821.0 1272.0 4992.175824175824 0.5021001242191052 1495.0 2.0 1495.0 
58.00046517781095 23831.0 1273.0 4992.156288156289 0.5041618036643372 1495.0 2.0 1495.0 
60.00033353340315 23823.0 1272.0 4992.056166056166 0.5049737761285698 1495.0 2.0 1495.0 
62.00059236981081 23823.0 1271.0 1353.2258852258872 0.501714944487639 673.0 1.0 338.0 
64.00059236981082 23822.0 1271.0 1353.2429792429816 0.5017839644587276 556.0 3.0 336.0 
66.00008466603501 23819.0 1272.0 1353.1013431013441 0.5034634477065562 516.0 6.0 333.0 
68.00059236981082 23839.0 1272.0 1350.2686202686207 0.5068706476697586 488.0 8.0 330.0 
70.00033353340315 23827.0 1272.0 1350.197802197804 0.5052551623302274 477.0 8.0 330.0 
72.00059236981082 23794.0 1271.0 1347.4456654456671 0.5031724561575528 472.0 7.0 330.0 
74.00059236981082 23798.0 1272.0 1347.3650793650804 0.5031704168403724 468.0 6.0 331.0 
76.00008466603501 23829.0 1272.0 1347.3626373626382 0.5029851036978786 468.0 6.0 331.0 
78.00059236981082 23900.0 1272.0 1353.0500610500615 0.5043275701751102 466.0 7.0 332.0 
80.00033353340315 23858.0 1271.0 1352.9450549450544 0.5018167176108981 462.0 8.0 331.0 
82.00059236981082 23860.0 1271.0 1352.9010989010978 0.5040741246191152 461.0 8.0 331.0 
84.00059236981082 23864.0 1270.0 1353.013431013431 0.5017815653501309 459.0 9.0 330.0 
86.00008466603501 23871.0 1270.0 1352.9426129426124 0.5018809624442341 460.0 8.0 331.0 
88.00059236981082 23873.0 1270.0 1352.9548229548225 0.5022913602022218 460.0 7.0 332.0 
90.00033353340315 23869.0 1270.0 1355.7338217338213 0.5019426967269444 459.0 7.0 333.0 
92.00059236981082 23868.0 1270.0 1355.7191697191695 0.5017701344469092 459.0 7.0 333.0 
94.00059236981082 23872.0 1270.0 1355.7484737484713 0.5018179399459947 458.0 8.0 332.0 
96.00008466603501 23876.0 1270.0 1358.6031746031738 0.5023803496359422 458.0 8.0 333.0 
98.00059236981082 23868.0 1271.0 1358.498168498171 0.5041542702416206 457.0 8.0 333.0 
100.00033353340315 23856.0 1270.0 1358.6031746031738 0.5016062067733233 457.0 9.0 332.0 
102.00059236981082 23868.0 1271.0 1358.5738705738693 0.5018338211094623 457.0 8.0 333.0 
104.00059236981082 23869.0 1271.0 1358.6373626373615 0.5019160612348355 458.0 8.0 333.0 
106.00008466603501 23892.0 1273.0 1358.500610500613 0.5035078369575594 459.0 8.0 333.0 
108.00059236981082 23907.0 1273.0 1358.5811965811954 0.5042397458214789 459.0 7.0 334.0 
110.00033353340315 23897.0 1273.0 1358.551892551891 0.5024099521043712 458.0 8.0 333.0 
112.00059236981082 23899.0 1273.0 1358.62271062271 0.501969045773162 459.0 7.0 334.0 
114.00059236981082 23955.0 1274.0 1358.522588522587 0.5025702286938162 460.0 6.0 335.0 
116.00008466603501 24099.0 1275.0 1361.3113553113558 0.5044972109989615 461.0 8.0 334.0 
118.00059236981082 24098.0 1273.0 1364.1147741147754 0.503032439192105 463.0 8.0 335.0 
120.00033353340315 24066.0 1273.0 1364.1391941391955 0.5021145830376318 465.0 6.0 337.0 
122.00059236981082 24070.0 1273.0 1364.0488400488407 0.5027340212980562 464.0 7.0 336.0 
124.00059236981082 23996.0 1273.0 1364.0854700854711 0.5051802551716263 460.0 11.0 332.0 
126.00008466603501 23899.0 1272.0 1364.2100122100142 0.5023923954114957 462.0 7.0 336.0 
128.00059236981082 23886.0 1272.0 1364.197802197804 0.5029545988888263 459.0 11.0 332.0 
130.00033353340314 23881.0 1273.0 1364.063492063493 0.5030997237073936 462.0 7.0 336.0 
132.00059236981082 23919.0 1273.0 1366.989010989011 0.5030945871901483 462.0 8.0 336.0 
134.00059236981082 23908.0 1272.0 1366.8717948717936 0.5019083286152943 458.0 8.0 336.0 
136.000084666035 23910.0 1272.0 1366.9377289377285 0.5044493508076279 459.0 6.0 338.0 
138.00059236981082 23882.0 1273.0 1369.7264957264954 0.5040301568970372 458.0 7.0 338.0 
140.00033353340314 23861.0 1272.0 1369.8363858363844 0.5022837682954636 463.0 6.0 339.0 
142.00059236981082 23832.0 1272.0 1372.4981684981708 0.5033098980410247 463.0 5.0 341.0 
144.00059236981082 23820.0 1272.0 1375.4432234432243 0.5016979157514483 462.0 7.0 340.0 
146.000084666035 23819.0 1272.0 1372.5128205128199 0.5032737977900709 460.0 6.0 340.0 
148.00059236981082 23795.0 1271.0 1372.5860805860802 0.5023171700474232 460.0 6.0 340.0 
150.00033353340314 23777.0 1271.0 1372.6056166056164 0.5024897198726302 459.0 7.0 339.0 
152.00059236981082 23748.0 1271.0 1372.6129426129426 0.5022930120427302 458.0 8.0 338.0 
154.00059236981082 23744.0 1272.0 1369.7557997557972 0.501834935240594 459.0 7.0 338.0 
156.000084666035 23744.0 1272.0 1372.6300366300368 0.502513588500974 461.0 6.0 340.0 
158.00059236981082 23691.0 1271.0 1378.0976800976812 0.5067225331854531 460.0 6.0 342.0 
160.00033353340314 23582.0 1270.0 1378.1831501831518 0.5047810721029827 461.0 6.0 342.0 
162.00059236981082 23470.0 1269.0 1378.1489621489636 0.5044819918335631 460.0 7.0 341.0 
164.00059236981082 23452.0 1268.0 1378.2612942612946 0.5020214044096759 454.0 12.0 336.0 
166.000084666035 23508.0 1269.0 1378.1416361416375 0.5053750414550149 459.0 6.0 342.0 
168.00059236981082 23396.0 1267.0 1378.2637362637365 0.5047970422515342 456.0 10.0 338.0 
170.00033353340314 23376.0 1268.0 1378.078144078145 0.5044142102501273 463.0 6.0 342.0 
172.00059236981082 23260.0 1267.0 1378.1587301587315 0.5022399244994384 463.0 6.0 342.0 
174.00059236981082 23252.0 1267.0 1375.3748473748474 0.5018945862675929 459.0 11.0 336.0 
176.000084666035 23252.0 1267.0 1372.5592185592182 0.5022573646162721 461.0 7.0 339.0 
178.00059236981082 23237.0 1267.0 1372.5006105006128 0.5028761166996942 460.0 7.0 339.0 
180.00033353340314 23176.0 1266.0 1372.6153846153848 0.5046971638752703 456.0 7.0 339.0 
182.00059236981082 23117.0 1266.0 1369.7118437118436 0.5053327266795856 457.0 7.0 338.0 
184.00059236981082 23088.0 1265.0 1369.7802197802177 0.5020765049394206 458.0 5.0 340.0 
186.000084666035 23084.0 1265.0 1369.7387057387057 0.5023235552572318 456.0 7.0 338.0 
188.00059236981082 23075.0 1267.0 1366.9304029304026 0.5049405915227544 454.0 7.0 337.0 
190.00033353340314 23048.0 1267.0 1369.6874236874232 0.5064934328656489 454.0 7.0 338.0 
192.00059236981082 22980.0 1265.0 1367.0158730158728 0.502454566842682 453.0 7.0 337.0 
194.00059236981082 22970.0 1265.0 1364.065934065935 0.502053651350981 453.0 7.0 336.0 
196.000084666035 22974.0 1266.0 1364.1831501831518 0.5044643203598596 456.0 5.0 338.0 
198.00059236981082 22980.0 1266.0 1364.1391941391955 0.5018907196350101 454.0 7.0 336.0 
200.00033353340314 22996.0 1267.0 1364.1318681318696 0.5031025781194187 452.0 8.0 335.0 
202.00059236981082 22931.0 1266.0 1364.073260073261 0.5049388925037709 453.0 8.0 335.0 
204.00059236981082 22966.0 1268.0 1361.387057387058 0.5053620300143843 453.0 7.0 335.0 
206.000084666035 22902.0 1266.0 1361.2527472527495 0.5064795611856233 454.0 6.0 336.0 
208.00023073967506 22718.0 1265.0 1361.3675213675215 0.5025433772549023 455.0 7.0 335.0 
210.00001989142334 22735.0 1265.0 1352.8986568986559 0.5023398013185892 456.0 8.0 331.0 
212.00001989142334 22740.0 1266.0 1352.8669108669098 0.5046531280326115 455.0 6.0 333.0 
214.00001989142334 22630.0 1265.0 1350.0341880341884 0.5019881389918922 447.0 11.0 327.0 
216.00001989142334 22659.0 1268.0 1350.0586080586088 0.5068231333226456 448.0 7.0 331.0 
218.00059236981082 22651.0 1267.0 1349.9438339438332 0.5035778669822868 448.0 7.0 331.0 
220.00033353340314 22648.0 1267.0 1350.068376068377 0.504075159785936 444.0 11.0 327.0 
222.00059236981082 22535.0 1266.0 1350.0561660561668 0.5015485915816896 449.0 6.0 332.0 
224.00059236981082 22528.0 1266.0 1350.0805860805872 0.5017998887257367 451.0 6.0 332.0 
226.000084666035 22573.0 1269.0 1349.9706959706955 0.5056789333487695 454.0 1.0 337.0 
228.00059236981082 22505.0 1267.0 1350.0488400488407 0.5047987971145502 455.0 3.0 335.0 
230.00033353340314 22510.0 1268.0 1352.7496947496927 0.5025367748137303 455.0 2.0 337.0 
232.00059236981082 22449.0 1267.0 1355.6678876678868 0.5039373638935473 453.0 3.0 337.0 
234.00059236981082 22416.0 1268.0 1358.5323565323556 0.5030920416636272 453.0 2.0 339.0 
236.000084666035 22458.0 1269.0 1361.2869352869345 0.5029712330598025 454.0 3.0 339.0 
238.00059236981082 22472.0 1269.0 1358.439560439562 0.5045212767538216 454.0 1.0 340.0 
240.00033353340314 22373.0 1268.0 1352.9010989010985 0.502578705174101 453.0 2.0 337.0 
242.00059236981082 22364.0 1268.0 1352.8278388278381 0.5018192682335906 453.0 1.0 338.0 
244.00059236981082 22352.0 1268.0 1355.6678876678868 0.5014235563379417 452.0 3.0 337.0 
246.000084666035 22466.0 1270.0 1358.4517704517723 0.5038657832219793 453.0 2.0 339.0 
248.00059236981082 22524.0 1270.0 1355.675213675213 0.502961654689331 453.0 3.0 337.0 
250.00033353340314 22526.0 1269.0 1352.7887667887655 0.502353668535479 453.0 2.0 337.0 
252.00059236981082 22516.0 1268.0 1350.068376068377 0.5016768037704296 452.0 3.0 335.0 
254.00059236981082 22570.0 1269.0 1349.936507936507 0.5034449967332455 451.0 1.0 337.0 
256.00008466603504 22543.0 1269.0 1350.0195360195362 0.5015123936144674 455.0 3.0 335.0 
258.0005923698108 22551.0 1269.0 1350.002442002442 0.501712011751632 451.0 7.0 331.0 
260.00033353340314 22594.0 1270.0 1349.9584859584854 0.5032666486593624 452.0 6.0 332.0 
262.0005923698108 22612.0 1271.0 1352.7326007326012 0.5016807993461255 454.0 6.0 333.0 
264.0005923698108 22702.0 1273.0 1352.8864468864465 0.5057174251299843 454.0 7.0 332.0 
266.00008466603504 22660.0 1273.0 1366.8522588522594 0.504245928672112 453.0 5.0 339.0 
268.0005923698108 22609.0 1271.0 1369.7020757020753 0.5037318745746133 453.0 6.0 339.0 
270.00033353340314 22536.0 1272.0 1369.628815628815 0.5037059483966239 453.0 6.0 339.0 
272.0005923698108 22494.0 1272.0 1372.4126984126997 0.5016332372748974 452.0 6.0 340.0 
274.0005923698108 22476.0 1272.0 1372.442002442004 0.5015084746676115 452.0 6.0 340.0 
276.00008466603504 22510.0 1273.0 1369.675213675213 0.5031173479592813 450.0 8.0 337.0 
278.0005923698108 22468.0 1273.0 1369.5433455433438 0.5020789531100721 450.0 6.0 339.0 
280.00033353340314 22461.0 1273.0 1369.628815628815 0.5024913643954513 449.0 8.0 337.0 
282.0005923698108 22462.0 1274.0 1369.5238095238076 0.5014628036042016 449.0 7.0 338.0 
284.0005923698108 22476.0 1275.0 1369.623931623931 0.5030768886875886 448.0 6.0 339.0 
286.00008466603504 22385.0 1275.0 1369.55067155067 0.5047706221812591 448.0 7.0 338.0 
288.0005923698108 22306.0 1275.0 1369.6166056166046 0.5048394210732842 447.0 8.0 337.0 
290.00033353340314 22287.0 1274.0 1366.703296703298 0.5018320415480431 446.0 7.0 337.0 
292.0005923698108 22280.0 1274.0 1364.0195360195362 0.5026303535650033 443.0 11.0 332.0 
294.0005923698108 22200.0 1273.0 1364.0293040293045 0.5046385249900517 447.0 6.0 337.0 
296.00008466603504 22171.0 1273.0 1363.934065934065 0.5017662744078443 448.0 5.0 338.0 
298.0005923698108 22163.0 1273.0 1363.8730158730143 0.5025515610196272 442.0 11.0 332.0 
300.00033353340314 22151.0 1273.0 1363.9120879120867 0.5038760301747063 446.0 7.0 336.0 
302.0005923698108 22115.0 1272.0 1363.9072039072028 0.5045387637672936 446.0 7.0 336.0 
304.0005923698108 22073.0 1272.0 1361.2039072039079 0.5016194058228504 444.0 7.0 335.0 
306.00008466603504 22074.0 1272.0 1358.312576312577 0.5030228276778759 445.0 6.0 335.0 
308.0005923698108 22074.0 1272.0 1355.5579975579963 0.5069013232864158 444.0 6.0 334.0 
310.00033353340314 22047.0 1272.0 1358.3101343101348 0.502599046064698 443.0 7.0 334.0 
312.0005923698108 22077.0 1273.0 1355.623931623931 0.5029116381738786 443.0 6.0 334.0 
314.0005923698108 22012.0 1272.0 1358.2905982905986 0.5048679642256716 443.0 7.0 334.0 
316.00008466603504 22016.0 1272.0 1361.1575091575094 0.5039445224085506 444.0 7.0 335.0 
318.0005923698108 22045.0 1274.0 1361.0842490842488 0.5041424818254323 445.0 6.0 336.0 
320.00033353340314 22040.0 1273.0 1361.2649572649564 0.5035528391751783 446.0 5.0 337.0 
322.0005923698108 22019.0 1272.0 1364.007326007326 0.5031012022374027 444.0 7.0 336.0 
324.0005923698108 22025.0 1272.0 1361.2063492063498 0.5022175517768505 445.0 5.0 337.0 
326.00008466603504 22120.0 1273.0 1363.9706959706955 0.504907616076959 444.0 7.0 336.0 
328.0005923698108 22109.0 1272.0 1361.216117216118 0.5040200916303724 444.0 7.0 335.0 
330.00033353340314 22066.0 1271.0 1363.8754578754563 0.5099876609665606 444.0 6.0 337.0 
332.0005923698108 22002.0 1271.0 1364.078144078145 0.5028108871257453 442.0 7.0 336.0 
334.0005923698108 22036.0 1272.0 1364.007326007326 0.5039687638660139 442.0 8.0 335.0 
336.00008466603504 22032.0 1272.0 1352.8351648351645 0.5027675994901963 444.0 6.0 333.0 
338.0005923698108 22026.0 1272.0 1352.7496947496934 0.5023096466183841 444.0 6.0 333.0 
340.00033353340314 22025.0 1272.0 1350.004884004884 0.5049083938091758 442.0 7.0 331.0 
342.0005923698108 22000.0 1272.0 1349.924297924297 0.5071235631461022 443.0 6.0 332.0 
344.0005923698108 21890.0 1270.0 1350.0512820512827 0.5018000350280692 442.0 7.0 331.0 
346.00008466603504 21900.0 1271.0 1352.81807081807 0.5052528210667083 443.0 6.0 333.0 
348.0005923698108 21846.0 1270.0 1350.0366300366304 0.5051445662190778 441.0 6.0 332.0 
350.00033353340314 21834.0 1269.0 1344.3907203907218 0.5040007297083259 441.0 6.0 330.0 
352.0005923698108 21850.0 1268.0 1341.5775335775318 0.5019800973065435 441.0 5.0 330.0 
354.0005923698108 21863.0 1269.0 1341.4627594627611 0.5026967329917997 440.0 7.0 328.0 
356.00008466603504 21858.0 1270.0 1341.5653235653215 0.5062491213547348 438.0 7.0 328.0 
358.0005923698108 21819.0 1268.0 1341.5238095238071 0.5026958984410772 440.0 6.0 329.0 
360.00033353340314 21835.0 1269.0 1344.3858363858376 0.5056614103040313 439.0 7.0 329.0 
362.0005923698108 21821.0 1267.0 1341.445665445667 0.5027011332041262 441.0 7.0 328.0 
364.0005923698108 21816.0 1267.0 1338.7130647130648 0.5048438050062201 441.0 6.0 328.0 
366.00008466603504 21825.0 1268.0 1324.6227106227095 0.5033537544680142 443.0 5.0 324.0 
368.0005923698108 21881.0 1268.0 1321.934065934065 0.5052906989915096 440.0 8.0 320.0 
370.00033353340314 21854.0 1268.0 1330.2417582417604 0.5071209437099343 441.0 6.0 325.0 
372.0005923698108 21728.0 1266.0 1330.2930402930417 0.5026948271056865 440.0 7.0 324.0 
374.0005923698108 21722.0 1266.0 1330.2490842490865 0.5022952607335215 441.0 7.0 324.0 
376.00008466603504 21728.0 1266.0 1330.2979242979256 0.5018708133918538 442.0 6.0 325.0 
378.0005923698108 21736.0 1266.0 1330.2515262515287 0.502326067973897 442.0 6.0 325.0 
380.00033353340314 21728.0 1268.0 1330.2442002442026 0.5039945231643618 442.0 6.0 325.0 
382.0005923698108 21681.0 1267.0 1330.1514041514054 0.5026861218782283 440.0 6.0 325.0 
384.0005923698108 21670.0 1267.0 1335.8559218559205 0.5053034926138893 442.0 7.0 326.0 
386.00008466603504 21667.0 1268.0 1344.1831501831518 0.5076538116902941 443.0 7.0 329.0 
388.0005923698108 21633.0 1266.0 1333.0842490842492 0.5049904781305552 442.0 6.0 326.0 
390.00033353340314 21581.0 1263.0 1333.0964590964595 0.5058950637314705 440.0 7.0 325.0 
392.0005923698108 21526.0 1263.0 1333.1452991452998 0.5038737026180188 440.0 6.0 326.0 
394.0005923698108 21512.0 1262.0 1333.0256410256407 0.503020868297764 441.0 5.0 327.0 
396.00008466603504 21505.0 1263.0 1333.1062271062276 0.5020392133141252 440.0 7.0 325.0 
398.0005923698108 21517.0 1264.0 1333.0769230769233 0.5058543925433425 441.0 7.0 325.0 
400.00033353340314 21522.0 1264.0 1335.9413919413912 0.5027219709476445 442.0 6.0 327.0 
402.0005923698108 21529.0 1265.0 1335.8705738705723 0.50272355094385 441.0 7.0 326.0 
404.0005923698108 21527.0 1265.0 1338.8009768009751 0.505472188334604 440.0 7.0 327.0 
406.00008466603504 21472.0 1264.0 1341.543345543343 0.5043530932332598 443.0 5.0 330.0 
408.0005923698108 21459.0 1263.0 1336.063492063493 0.5058162856411824 442.0 5.0 328.0 
410.00033353340314 21481.0 1264.0 1338.7423687423666 0.5063882014700493 440.0 8.0 326.0 
412.0005923698108 21469.0 1263.0 1335.9780219780218 0.5020688100339089 441.0 6.0 327.0 
414.0005923698108 21457.0 1263.0 1335.931623931623 0.501580176313358 440.0 7.0 326.0 
416.00008466603504 21462.0 1263.0 1338.7667887667867 0.5029237648209345 440.0 7.0 327.0 
418.0005923698108 21447.0 1263.0 1338.7252747252742 0.5054617495462003 438.0 7.0 327.0 
420.00033353340314 21435.0 1263.0 1327.5018315018283 0.504107825195464 439.0 6.0 324.0 
422.0005923698108 21423.0 1262.0 1324.7301587301574 0.5030563281960617 440.0 6.0 323.0 
424.0005923698108 21409.0 1262.0 1321.9853479853477 0.5040601327883165 436.0 5.0 323.0 
426.00008466603504 21449.0 1262.0 1330.3345543345565 0.506697242299748 432.0 7.0 324.0 
428.0005923698108 21389.0 1261.0 1327.5360195360165 0.5045521387888741 437.0 6.0 324.0 
430.00033353340314 21390.0 1262.0 1327.4725274725301 0.5069836340186852 437.0 7.0 323.0 
432.0005923698108 21397.0 1261.0 1321.931623931623 0.5018025656237954 437.0 7.0 321.0 
434.0005923698108 21419.0 1263.0 1321.7313797313782 0.50428811003248 439.0 6.0 322.0 
436.00008466603504 21426.0 1264.0 1335.919413919413 0.5032017868873783 441.0 8.0 325.0 
438.0005923698108 21442.0 1264.0 1338.6373626373606 0.5019923350431919 443.0 8.0 326.0 
440.00033353340314 21435.0 1264.0 1335.9853479853477 0.5022141517563753 445.0 8.0 325.0 
442.0005923698108 21426.0 1264.0 1335.816849816848 0.5022824373930375 446.0 8.0 325.0 
444.0005923698108 21418.0 1264.0 1338.715506715506 0.5015334212057101 444.0 10.0 324.0 
446.00008466603504 21418.0 1265.0 1338.615384615383 0.5021815166010346 446.0 8.0 326.0 
448.0005923698108 21414.0 1264.0 1338.7789987789968 0.5042546335456412 448.0 6.0 328.0 
450.00033353340314 21368.0 1264.0 1338.6031746031733 0.5057302620888163 445.0 5.0 329.0 
452.0005923698108 21385.0 1265.0 1341.5164835164803 0.5021664107759602 443.0 7.0 328.0 
454.0005923698108 21457.0 1265.0 1344.2857142857151 0.5026449351773555 442.0 8.0 328.0 
456.00008466603504 21454.0 1267.0 1350.0 0.5079666385962439 445.0 7.0 331.0 
458.0005923698108 21510.0 1267.0 1349.8461538461522 0.509872327133528 446.0 7.0 331.0 
460.00033353340314 21509.0 1265.0 1355.5921855921836 0.505178004251711 447.0 8.0 332.0 
462.0005923698108 21490.0 1265.0 1355.4993894993863 0.5067431533873382 446.0 9.0 331.0 
464.0005923698108 21507.0 1266.0 1355.6361416361399 0.5043553958646396 447.0 8.0 332.0 
466.00008466603504 21558.0 1265.0 1352.6324786324783 0.5017042974922068 450.0 6.0 333.0 
468.0005923698108 21671.0 1267.0 1352.7716727716715 0.5015999778831878 449.0 8.0 331.0 
470.00033353340314 21699.0 1268.0 1355.4505494505506 0.5018354402662288 446.0 9.0 331.0 
472.0005923698108 21693.0 1268.0 1347.1794871794875 0.5017340421476862 449.0 8.0 329.0 
474.0005923698108 21736.0 1269.0 1347.0989010989008 0.5022429436846976 449.0 7.0 330.0 
476.00008466603504 21767.0 1270.0 1344.3076923076935 0.5049051004309971 448.0 5.0 331.0 
478.0005923698108 21733.0 1269.0 1344.2002442002463 0.5014835501938973 449.0 5.0 331.0 
480.00033353340314 21835.0 1271.0 1344.3101343101357 0.5050651693813204 448.0 6.0 330.0 
482.0005923698108 21752.0 1269.0 1344.1465201465217 0.5018754247389662 448.0 6.0 330.0 
484.0005923698108 21750.0 1269.0 1338.6715506715502 0.5014829718460417 447.0 6.0 328.0 
486.00008466603504 21753.0 1270.0 1338.5421245421228 0.5023024165570852 447.0 6.0 328.0 
488.0005923698108 21748.0 1270.0 1330.2808302808317 0.502889673245497 445.0 6.0 325.0 
490.00033353340314 21748.0 1269.0 1330.1465201465214 0.5051168707099479 447.0 6.0 325.0 
492.0005923698108 21756.0 1269.0 1324.6275946275937 0.5049629602753959 447.0 6.0 323.0 
494.0005923698108 21683.0 1270.0 1327.401709401711 0.5014939462241952 444.0 6.0 324.0 
496.00008466603504 21700.0 1271.0 1324.6715506715495 0.5018289153395992 444.0 6.0 323.0 
498.0005923698108 21716.0 1270.0 1324.6153846153832 0.5062312663928038 444.0 6.0 323.0 
500.00033353340314 21704.0 1270.0 1324.749694749693 0.5038605200539764 443.0 6.0 323.0 
502.0005923698108 21693.0 1269.0 1321.8412698412683 0.5016727898170447 445.0 5.0 323.0 
504.0005923698108 21704.0 1270.0 1319.1111111111118 0.5041300760852574 444.0 6.0 321.0 
506.00008466603504 21674.0 1269.0 1316.0927960927972 0.5020359069151096 441.0 5.0 321.0 
508.0005923698108 21639.0 1270.0 1313.4334554334578 0.5047600678793562 439.0 8.0 317.0 
510.00033353340314 21603.0 1270.0 1313.350427350429 0.5052318544103006 434.0 11.0 314.0 
512.0005923698109 21570.0 1269.0 1316.2588522588533 0.5055593834311349 436.0 8.0 318.0 
514.0005923698109 21491.0 1269.0 1318.918192918192 0.5061152347842032 438.0 6.0 321.0 
516.000084666035 21559.0 1268.0 1310.630036630035 0.5027717934850423 440.0 8.0 316.0 
518.0005923698109 21583.0 1268.0 1299.421245421248 0.5026185847166318 430.0 11.0 309.0 
520.0003335334031 21567.0 1269.0 1299.5042735042698 0.5060281308594194 433.0 7.0 313.0 
522.0005923698109 21579.0 1270.0 1293.7167277167262 0.5041588545121617 433.0 6.0 312.0 
524.0005923698109 21526.0 1268.0 1285.4114774114798 0.5028446761712184 429.0 8.0 307.0 
526.000084666035 21569.0 1270.0 1285.3260073260094 0.5020318246592302 426.0 11.0 304.0 
528.0005923698109 21612.0 1271.0 1291.05982905983 0.503999749527849 429.0 8.0 309.0 
530.0003335334031 21616.0 1272.0 1293.7289377289364 0.5040391891178965 433.0 5.0 313.0 
532.0005923698109 21643.0 1272.0 1293.8705738705723 0.5025887395976297 435.0 7.0 311.0 
534.0005923698109 21646.0 1273.0 1293.7802197802177 0.5038081947928844 432.0 9.0 309.0 
536.000084666035 21651.0 1273.0 1299.5042735042698 0.5030651601624413 436.0 7.0 313.0 
538.0005923698109 21692.0 1273.0 1299.3406593406617 0.5040512520372867 444.0 6.0 314.0 
540.0003335334031 21672.0 1274.0 1299.3894993895017 0.5053866514938554 444.0 6.0 314.0 
542.0005923698109 21672.0 1274.0 1299.3357753357775 0.503572081833361 445.0 6.0 314.0 
544.0005923698109 21645.0 1273.0 1302.2075702075722 0.5015985973822479 447.0 6.0 315.0 
546.000084666035 21694.0 1273.0 1299.260073260075 0.5048268398690254 446.0 6.0 314.0 
548.0005923698109 21795.0 1274.0 1299.3382173382197 0.5025235190679231 444.0 5.0 315.0 
550.0003335334031 21786.0 1273.0 1293.7362637362621 0.5027922735759397 439.0 6.0 312.0 
552.0005923698109 21822.0 1274.0 1299.4383394383424 0.5026689242862841 444.0 6.0 314.0 
554.0005923698109 21833.0 1274.0 1302.1050061050073 0.5026496626012332 446.0 6.0 315.0 
556.000084666035 21851.0 1275.0 1305.0134310134313 0.5018936290616256 446.0 6.0 316.0 
558.0005923698109 21866.0 1275.0 1305.0427350427356 0.503026195247843 447.0 6.0 316.0 
560.0003335334031 21860.0 1276.0 1302.3028083028103 0.5101456207686965 446.0 6.0 315.0 
562.0005923698109 21884.0 1275.0 1304.993894993895 0.5026178042876187 448.0 5.0 317.0 
564.0005923698109 21949.0 1275.0 1307.8095238095223 0.5061720419162029 446.0 7.0 316.0 
566.000084666035 21968.0 1277.0 1313.3968253968278 0.5081297597546545 443.0 12.0 313.0 
568.0005923698109 21920.0 1277.0 1321.912087912087 0.5028005198068765 452.0 8.0 320.0 
570.0003335334031 21900.0 1277.0 1321.799755799754 0.5013847627653081 455.0 7.0 321.0 
572.0005923698109 21942.0 1279.0 1321.9145299145289 0.5033620222494468 454.0 8.0 320.0 
574.0005923698109 21954.0 1279.0 1327.5238095238064 0.505288214672256 454.0 11.0 319.0 
576.000084666035 21851.0 1278.0 1333.1330891330904 0.5030567774326332 462.0 7.0 325.0 
578.0005923698109 21911.0 1280.0 1330.2295482295506 0.5026868564977359 463.0 6.0 325.0 
580.0003335334031 21913.0 1279.0 1333.0354090354094 0.5038340500095161 465.0 8.0 324.0 
582.0005923698109 21891.0 1279.0 1333.1135531135544 0.503434191180096 458.0 12.0 320.0 
584.0005923698109 21930.0 1280.0 1330.3369963369983 0.5058000729752329 464.0 9.0 322.0 
586.000084666035 21934.0 1280.0 1330.3296703296721 0.5027668761654039 461.0 8.0 323.0 
588.0005923698109 21941.0 1279.0 1333.0549450549458 0.5011263992688273 464.0 7.0 325.0 
590.0003335334031 21943.0 1279.0 1335.8339438339422 0.5036574815929103 464.0 11.0 322.0 
592.0005923698109 21941.0 1280.0 1338.6446886446865 0.504396861282943 467.0 10.0 324.0 
594.0005923698109 21910.0 1278.0 1332.9499389499385 0.5034993836897936 470.0 7.0 325.0 
596.000084666035 21880.0 1278.0 1332.9792429792428 0.5041159566413773 470.0 8.0 324.0 
598.0005923698109 21921.0 1277.0 1324.5958485958465 0.5037549910521602 467.0 12.0 317.0 
600.0003335334031 21949.0 1279.0 1330.2783882783897 0.5047855157329211 470.0 9.0 322.0 
602.0005923698109 21971.0 1279.0 1327.4236874236897 0.5096269317347757 472.0 5.0 325.0 
604.0005923698109 21797.0 1280.0 1327.4041514041535 0.5097651937022918 475.0 6.0 324.0 
606.000084666035 21731.0 1275.0 1333.0940170940175 0.5045222155178767 472.0 7.0 325.0 
608.0005923698109 21746.0 1275.0 1335.8803418803404 0.5045037525276131 476.0 3.0 330.0 
610.0003335334031 21800.0 1277.0 1338.6324786324776 0.5028084337417156 477.0 1.0 333.0 
612.0005923698109 21789.0 1276.0 1341.4749694749714 0.5019611744305861 475.0 2.0 333.0 
614.0005923698109 21776.0 1276.0 1341.5897435897414 0.5018931876997782 468.0 9.0 326.0 
616.000084666035 21804.0 1278.0 1338.7838827838814 0.5028073339165443 472.0 7.0 327.0 
618.0005923698109 21792.0 1278.0 1335.8388278388263 0.5049353410298454 470.0 6.0 327.0 
620.0003335334031 21761.0 1281.0 1344.2710622710633 0.5086665806493543 472.0 5.0 331.0 
622.0005923698109 21705.0 1278.0 1344.3565323565342 0.506583009129822 466.0 10.0 326.0 
624.0005923698109 21611.0 1278.0 1347.1965811965815 0.5051820169181308 463.0 9.0 328.0 
626.000084666035 21562.0 1277.0 1349.9389499389492 0.5023471479045154 464.0 7.0 331.0 
628.0005923698109 21579.0 1277.0 1352.7277167277175 0.5051806031116954 466.0 9.0 330.0 
630.0003335334031 21595.0 1276.0 1350.007326007326 0.502915918881047 465.0 10.0 328.0 
632.0005923698109 21552.0 1276.0 1352.7936507936508 0.5073865670250839 465.0 7.0 332.0 
634.0005923698109 21358.0 1274.0 1355.5799755799733 0.5094432842336898 465.0 5.0 335.0 
636.000084666035 21280.0 1274.0 1358.3052503052515 0.5057222296586389 468.0 7.0 334.0 
638.0005923698109 21203.0 1272.0 1358.346764346766 0.5062875407819826 462.0 11.0 330.0 
640.0003335334031 21069.0 1271.0 1358.4224664224687 0.5102115955574863 462.0 9.0 332.0 
642.0005923698109 20999.0 1271.0 1355.4652014652029 0.5026215310166166 464.0 7.0 333.0 
644.0005923698109 20995.0 1272.0 1355.4969474969444 0.5038721963867626 464.0 7.0 333.0 
646.000084666035 20934.0 1271.0 1355.5750915750893 0.5027456838579057 463.0 10.0 330.0 
648.0005923698109 20948.0 1271.0 1358.3272283272297 0.5043200487817575 467.0 9.0 332.0 
650.0003335334031 20949.0 1275.0 1363.8583638583625 0.5054004556201793 463.0 8.0 335.0 
652.0005923698109 20952.0 1274.0 1361.1135531135528 0.5054374843060183 466.0 7.0 335.0 
654.0005923698109 20931.0 1272.0 1361.1868131868134 0.5048996973015262 463.0 11.0 331.0 
656.000084666035 20939.0 1274.0 1361.2136752136757 0.5045482952561658 464.0 8.0 334.0 
658.0005923698109 21018.0 1275.0 1369.5360195360172 0.5056306616442752 463.0 5.0 340.0 
660.0003335334031 20943.0 1273.0 1375.1233211233205 0.5054964974810291 462.0 6.0 341.0 
662.0005923698109 20907.0 1273.0 1372.4078144078162 0.5090918118337551 457.0 11.0 335.0 
664.0005923698109 20906.0 1274.0 1372.4346764346785 0.5122458834122962 461.0 8.0 338.0 
#####################################################################
# End of data export. Simulation finished at: 2019-03-10T00:45+0000 #
#####################################################################
