#####################################################################
# Alchemist log file - simulation started at: 2019-03-05T13:11+0000 #
#####################################################################
# seed = 8.0, bandwidth = 74989.42093324558, accessPointCount = 2000.0, baserange = 100.0
#
# The columns have the following meaning: 
# time neighbor_count[Sum] <value>@neighbor_count[Sum] packet_size[Mean] mean_delay[Mean] crowd[Sum] overcrowded[Sum] risk[Sum] 
0.0 NaN NaN NaN NaN NaN NaN NaN 
2.0002639004834504 3284.0 2330.0 4977.69173577352 0.48527739259586644 1497.0 0.0 1497.0 
4.000354102472555 4381.0 2550.0 4982.605661995996 0.5451348167674028 1497.0 0.0 1497.0 
6.000198348008885 4983.0 2585.0 4980.545610523306 0.5937137736515528 1497.0 0.0 1497.0 
8.000354102472555 5491.0 2583.0 4982.896196740063 0.6049722274363509 1497.0 0.0 1497.0 
10.000354102472555 6001.0 2606.0 4981.293680297397 0.6276609935603648 1496.0 1.0 1496.0 
12.000354102472555 6172.0 2595.0 4982.252216185302 0.650854955735294 1494.0 3.0 1494.0 
14.000354102472555 5975.0 2538.0 4981.503002573634 0.6055861125581263 1490.0 7.0 1490.0 
16.000198348008887 5788.0 2498.0 4982.038318558765 0.5211746874211012 1488.0 9.0 1488.0 
18.000354102472556 5786.0 2496.0 4980.908207034601 0.5201309418755952 1482.0 15.0 1482.0 
20.000354102472556 5786.0 2496.0 4981.997140406062 0.5200644550136102 1481.0 16.0 1481.0 
22.000354102472556 5794.0 2496.0 4980.434658278524 0.5203554450206508 1478.0 19.0 1478.0 
24.000354102472556 5816.0 2499.0 4981.910208750358 0.5214946086773805 1481.0 16.0 1481.0 
26.000198348008887 5819.0 2500.0 4980.403774663997 0.5237864545315967 1475.0 22.0 1475.0 
28.000354102472556 5816.0 2499.0 4981.60594795539 0.5245594517642601 1474.0 23.0 1474.0 
30.000354102472556 5813.0 2498.0 4980.538747497855 0.5249208075647142 1479.0 18.0 1479.0 
32.00020220350423 5819.0 2498.0 4981.384043465829 0.5241332827426668 1471.0 26.0 1471.0 
34.000354102472556 5828.0 2498.0 4980.668001143838 0.523855360211401 1477.0 20.0 1477.0 
36.00019834800889 5831.0 2499.0 4981.25135830712 0.5246814774641446 1478.0 19.0 1478.0 
38.00020220350423 5825.0 2498.0 4980.562768086931 0.5270300868449237 1479.0 18.0 1479.0 
40.00020220350423 5804.0 2496.0 4981.565913640263 0.5225316063099191 1479.0 18.0 1479.0 
42.00020220350423 5827.0 2498.0 4980.236774378039 0.5247599695643449 1479.0 18.0 1479.0 
44.00020220350423 5806.0 2497.0 4981.497283385759 0.5240839603007993 1478.0 19.0 1478.0 
46.00019834800889 5804.0 2499.0 4980.323706033743 0.5297409996480426 1478.0 19.0 1478.0 
48.00020220350423 5793.0 2497.0 4981.531598513011 0.531917494531765 1479.0 18.0 1479.0 
50.00020220350423 5807.0 2495.0 4980.35458964827 0.5291231114454884 1479.0 18.0 1479.0 
52.00020220350423 5839.0 2497.0 4981.301687160423 0.5318265089585149 1479.0 18.0 1479.0 
54.00020220350423 5851.0 2498.0 4980.510151558478 0.5383610483426873 1479.0 18.0 1479.0 
56.00019834800889 5838.0 2496.0 4981.2227623677445 0.5346231583428832 1481.0 16.0 1481.0 
58.00020220350423 5808.0 2495.0 4980.569631112382 0.5297747918429462 1480.0 17.0 1480.0 
60.00020220350423 5796.0 2493.0 4981.401201029454 0.5308140699863871 1478.0 19.0 1478.0 
62.0000849495033 5793.0 2495.0 780.3042607949618 0.5113466184210652 664.0 12.0 277.0 
64.00008494950329 5814.0 2499.0 780.1509865598982 0.5258725849629242 488.0 17.0 272.0 
66.00008494950329 5789.0 2498.0 780.1372605090191 0.5214042328289276 436.0 19.0 270.0 
68.00008494950329 5776.0 2499.0 778.8378610237401 0.517548430958705 403.0 17.0 271.0 
70.00008494950329 5798.0 2500.0 776.1647126108148 0.5191244986357331 388.0 17.0 269.0 
72.00008494950329 5810.0 2501.0 773.5967972547952 0.519677977558686 378.0 17.0 267.0 
74.00008494950329 5841.0 2501.0 765.6837289104828 0.5210791378767605 367.0 17.0 261.0 
76.00008494950329 5863.0 2505.0 768.3248498713084 0.5291977406735621 355.0 25.0 255.0 
78.00008494950329 5838.0 2505.0 768.2813840434588 0.5280986503191737 353.0 23.0 257.0 
80.00008494950329 5803.0 2502.0 768.2779525307417 0.5197197517095212 353.0 23.0 257.0 
82.00008494950329 5819.0 2502.0 769.5990849299563 0.5179834782466087 348.0 23.0 258.0 
84.00008494950329 5830.0 2504.0 769.6025164426735 0.519465188953359 346.0 23.0 258.0 
86.00008494950329 5850.0 2506.0 769.5670574778255 0.5225717837210574 344.0 24.0 257.0 
88.00008494950329 5851.0 2507.0 769.5693451529984 0.5279269219574146 341.0 24.0 257.0 
90.00008494950329 5818.0 2504.0 769.5910780669047 0.5214298264398435 341.0 22.0 259.0 
92.00008494950329 5832.0 2505.0 769.5762081784491 0.5255719458529976 338.0 24.0 257.0 
94.00008494950329 5823.0 2505.0 772.213897626543 0.5337049375730055 341.0 23.0 260.0 
96.00008494950329 5798.0 2503.0 773.5567629396577 0.5309076005134427 337.0 27.0 257.0 
98.00008494950329 5790.0 2502.0 773.521303974842 0.5286139004947736 340.0 24.0 260.0 
100.00008494950329 5792.0 2502.0 774.7886760080129 0.5282268323801729 338.0 25.0 260.0 
102.00008494950329 5796.0 2503.0 773.4583929082019 0.5327676211710725 338.0 29.0 255.0 
104.00008494950329 5756.0 2500.0 773.470975121543 0.5323005018635661 338.0 29.0 255.0 
106.00008494950329 5739.0 2498.0 773.4412353445717 0.526185811875325 336.0 29.0 255.0 
108.00008494950329 5770.0 2500.0 773.4343723191226 0.5285038343917943 335.0 29.0 255.0 
110.00008494950329 5773.0 2502.0 773.4149270803505 0.5284313259475091 334.0 29.0 255.0 
112.00008494950329 5775.0 2501.0 773.4046325421889 0.5273341200156899 334.0 29.0 255.0 
114.00008494950329 5779.0 2503.0 772.169287961118 0.5333076764007351 334.0 29.0 254.0 
116.00008494950329 5793.0 2501.0 773.4252216185317 0.5333288304127345 333.0 29.0 255.0 
118.00008494950329 5769.0 2499.0 774.7715184443633 0.5232744179741945 332.0 29.0 256.0 
120.00008494950329 5755.0 2498.0 776.0915070060082 0.5208773217258459 332.0 29.0 257.0 
122.00008494950329 5754.0 2500.0 772.148698884756 0.5212619492971058 331.0 29.0 254.0 
124.00008494950329 5757.0 2500.0 769.5270231627208 0.5235308636087571 329.0 29.0 252.0 
126.00008494950329 5784.0 2502.0 768.2470689162133 0.5285167461823215 329.0 29.0 251.0 
128.0000849495033 5776.0 2500.0 766.8756076636997 0.5299525492932653 329.0 29.0 250.0 
130.0000849495033 5765.0 2498.0 766.9133543036899 0.5254502019344647 327.0 29.0 250.0 
132.0000849495033 5782.0 2500.0 768.1887331998931 0.5303592463117319 326.0 29.0 251.0 
134.0000849495033 5767.0 2500.0 765.6322562196074 0.5326208021133745 324.0 29.0 249.0 
136.0000849495033 5730.0 2497.0 765.5876465541863 0.5259838400633271 322.0 29.0 249.0 
138.0000849495033 5756.0 2497.0 766.9259365169986 0.5293196145118538 323.0 29.0 250.0 
140.0000849495033 5765.0 2495.0 769.5476122390661 0.5274929265505499 324.0 29.0 252.0 
142.0000849495033 5776.0 2496.0 770.840148698882 0.5305385071929533 323.0 30.0 252.0 
144.0000849495033 5787.0 2498.0 772.1715756362648 0.5305517584762245 317.0 37.0 246.0 
146.0000849495033 5784.0 2498.0 772.1944523877723 0.5265189711566294 325.0 29.0 254.0 
148.0000849495033 5782.0 2497.0 772.170431798693 0.5278783196503846 323.0 30.0 253.0 
150.0000849495033 5790.0 2497.0 772.1910208750355 0.5265037617766382 325.0 32.0 251.0 
152.0000849495033 5796.0 2499.0 772.1452673720436 0.5317499317739607 319.0 38.0 245.0 
154.0000849495033 5788.0 2500.0 770.9213611667109 0.5339743766495085 323.0 33.0 249.0 
156.0000849495033 5769.0 2496.0 770.9076351158305 0.5288456758129425 320.0 37.0 245.0 
158.0000849495033 5768.0 2495.0 770.844724049171 0.5307398405025749 323.0 34.0 248.0 
160.0000849495033 5768.0 2495.0 770.866456963103 0.5214811822180274 323.0 34.0 248.0 
162.0000849495033 5782.0 2497.0 773.5190162996994 0.5254949504714198 327.0 32.0 252.0 
164.0000849495033 5793.0 2500.0 773.4984272233376 0.52921476884424 329.0 31.0 253.0 
166.0000849495033 5789.0 2499.0 773.5030025736417 0.5273869236038982 329.0 30.0 254.0 
168.0000849495033 5766.0 2498.0 773.4869888475686 0.5239687224831638 331.0 29.0 255.0 
170.0000849495033 5786.0 2501.0 773.4869888475686 0.5275522169911014 332.0 29.0 255.0 
172.0000849495033 5827.0 2506.0 773.4824134972796 0.5428181664453177 332.0 29.0 255.0 
174.0000849495033 5819.0 2506.0 773.5327423505796 0.5468897775107905 333.0 29.0 255.0 
176.0000849495033 5767.0 2502.0 773.4835573348511 0.5421278787037016 333.0 29.0 255.0 
178.0000849495033 5730.0 2498.0 772.1647126108139 0.52565460182237 332.0 29.0 254.0 
180.0000849495033 5736.0 2498.0 772.1532742350448 0.521976759905546 332.0 29.0 254.0 
182.0000849495033 5733.0 2499.0 772.1349728338449 0.5256163830012899 332.0 29.0 254.0 
184.0000849495033 5722.0 2498.0 772.1418358593065 0.5268943478718142 332.0 29.0 254.0 
186.0000849495033 5717.0 2499.0 772.1338289962736 0.5238836634578846 332.0 29.0 254.0 
188.0000849495033 5717.0 2499.0 772.1269659708237 0.5263377245203297 332.0 29.0 254.0 
190.0000849495033 5699.0 2499.0 773.4503860451805 0.5262231872461272 333.0 29.0 255.0 
192.0000849495033 5696.0 2497.0 774.7772376322424 0.5269335878798392 334.0 29.0 256.0 
194.0000849495033 5691.0 2497.0 773.4469545324633 0.5322376455497492 335.0 29.0 255.0 
196.0000849495033 5688.0 2496.0 772.100657706599 0.5275517256203675 334.0 30.0 253.0 
198.0000849495033 5706.0 2497.0 773.4641120960799 0.5228196662157351 328.0 37.0 247.0 
200.0000849495033 5711.0 2499.0 773.4446668573212 0.5242727571889991 329.0 37.0 247.0 
202.0000849495033 5713.0 2501.0 772.1452673720436 0.5274385352188726 329.0 37.0 246.0 
204.0000849495033 5706.0 2503.0 772.1601372604949 0.5236746627076565 328.0 38.0 245.0 
206.0000849495033 5700.0 2503.0 772.1315413211279 0.5245737472384492 323.0 43.0 240.0 
208.0000849495033 5706.0 2502.0 770.8126965970907 0.52518515428258 328.0 37.0 245.0 
210.0000849495033 5727.0 2504.0 769.5338861881502 0.525451959946801 330.0 37.0 244.0 
212.0000849495033 5716.0 2503.0 768.1818701744273 0.5224947227227258 329.0 38.0 242.0 
214.0000849495033 5735.0 2505.0 768.1727194738353 0.523869283484244 321.0 43.0 237.0 
216.0000849495033 5729.0 2505.0 766.9042036030929 0.5270723588682523 323.0 38.0 241.0 
218.0000849495033 5727.0 2505.0 768.2299113525842 0.5251187242213077 313.0 47.0 233.0 
220.0000849495033 5769.0 2508.0 772.1326851586986 0.5345549753421094 314.0 46.0 237.0 
222.0000849495033 5756.0 2508.0 772.1269659708237 0.541555503451849 317.0 47.0 236.0 
224.0000849495033 5729.0 2503.0 772.1052330569066 0.5344267087698438 316.0 47.0 236.0 
226.0000849495033 5689.0 2500.0 770.810408921945 0.5265241797633293 317.0 46.0 236.0 
228.0000849495033 5692.0 2500.0 770.8332856734336 0.5233609378845272 317.0 45.0 237.0 
230.0000849495033 5694.0 2502.0 774.7577923934842 0.5265829080518492 328.0 37.0 248.0 
232.0000849495033 5696.0 2504.0 774.7566485559126 0.532357127036409 328.0 38.0 247.0 
234.0000849495033 5705.0 2504.0 770.840148698882 0.5367964142924515 318.0 45.0 237.0 
236.0000849495033 5720.0 2502.0 770.8046897340657 0.5343865002627272 315.0 46.0 236.0 
238.0000849495033 5713.0 2499.0 772.142979696897 0.5267412033147825 316.0 45.0 238.0 
240.0000849495033 5706.0 2500.0 772.0915070060076 0.5298401343868078 318.0 43.0 240.0 
242.0000849495033 5690.0 2499.0 772.1098084071953 0.5296038975548166 320.0 40.0 243.0 
244.0000849495033 5668.0 2499.0 769.4755504718499 0.521831605487132 320.0 42.0 239.0 
246.0000849495033 5683.0 2500.0 769.4984272233374 0.5282285480428296 319.0 42.0 239.0 
248.0000849495033 5682.0 2501.0 769.497283385767 0.531816435334259 318.0 42.0 239.0 
250.0000849495033 5665.0 2499.0 770.8390048613119 0.5325808607788336 318.0 42.0 240.0 
252.0000849495033 5662.0 2500.0 772.129253645966 0.5424495081289517 320.0 42.0 241.0 
254.0000849495033 5654.0 2497.0 772.0903631684362 0.5457553416344375 323.0 37.0 246.0 
256.0000849495033 5613.0 2493.0 772.1018015441695 0.5315870218593124 324.0 36.0 247.0 
258.0000849495033 5601.0 2492.0 772.1201029453897 0.5265206003653462 321.0 40.0 243.0 
260.0000849495033 5601.0 2492.0 772.0571918787496 0.5260783031604126 319.0 40.0 243.0 
262.0000849495033 5618.0 2492.0 770.8012582213213 0.5232411784954462 323.0 36.0 246.0 
264.0000849495033 5627.0 2496.0 770.8058335716411 0.5289323956535802 323.0 36.0 246.0 
266.0000849495033 5624.0 2497.0 773.4446668573217 0.5326919737573989 323.0 36.0 248.0 
268.0000849495033 5609.0 2495.0 769.5030025736418 0.5229211256905582 321.0 36.0 245.0 
270.0000849495033 5621.0 2496.0 765.5487560766378 0.5284330576485641 324.0 34.0 244.0 
272.0000849495033 5621.0 2497.0 765.5327423505797 0.5341580641765427 330.0 29.0 249.0 
274.0000849495033 5616.0 2497.0 765.5384615384577 0.532875585911997 328.0 29.0 249.0 
276.0000849495033 5621.0 2496.0 768.199027738055 0.5323921933083215 326.0 29.0 251.0 
278.0000849495033 5641.0 2497.0 768.1692879611181 0.5296873708171567 328.0 29.0 251.0 
280.0000849495033 5671.0 2500.0 776.0812124678271 0.5353131960428055 329.0 29.0 257.0 
282.0000849495033 5637.0 2499.0 774.753217043196 0.5324677101680145 327.0 30.0 255.0 
284.0000849495033 5608.0 2496.0 773.418358593069 0.5241059107942486 320.0 37.0 247.0 
286.0000849495033 5628.0 2500.0 773.418358593069 0.5260453664863853 319.0 37.0 247.0 
288.0000849495033 5618.0 2498.0 773.3760366028031 0.521162473707453 318.0 37.0 247.0 
290.0000849495033 5621.0 2500.0 772.1109522447654 0.5296128021949349 318.0 37.0 246.0 
292.0000849495033 5617.0 2499.0 770.7440663425716 0.5352650187434078 318.0 37.0 245.0 
294.0000849495033 5597.0 2497.0 769.4378038318398 0.5313968339087097 317.0 37.0 244.0 
296.0000849495033 5585.0 2497.0 769.4526737203427 0.5317049940658427 314.0 37.0 244.0 
298.0000849495033 5575.0 2497.0 768.1509865598982 0.5287588398103674 308.0 37.0 243.0 
300.0000849495033 5567.0 2494.0 762.9144981412602 0.5285813173004588 306.0 37.0 239.0 
302.0000849495033 5564.0 2495.0 762.8573062625118 0.5322534349462831 305.0 37.0 239.0 
304.0000849495033 5596.0 2497.0 760.2722333428626 0.5383746781945673 306.0 37.0 237.0 
306.0000849495033 5578.0 2494.0 761.5865027166152 0.5285052701953964 307.0 37.0 238.0 
308.0000849495033 5560.0 2492.0 760.2333428653026 0.5290435542126768 305.0 37.0 237.0 
310.0000849495033 5582.0 2494.0 761.584215041454 0.5288145041086568 305.0 37.0 238.0 
312.0000849495033 5578.0 2492.0 760.2493565913555 0.5245017671644735 304.0 37.0 237.0 
314.0000849495033 5567.0 2494.0 761.5819273663085 0.5329467421992836 304.0 37.0 238.0 
316.0000849495033 5561.0 2493.0 758.9362310551971 0.5379172482392076 302.0 37.0 236.0 
318.0000849495033 5565.0 2492.0 758.9625393194185 0.534199029210416 301.0 37.0 236.0 
320.0000849495033 5576.0 2493.0 758.9842722333507 0.5276354865790639 300.0 37.0 236.0 
322.0000849495033 5589.0 2495.0 757.6368315699152 0.5257977646691842 300.0 37.0 235.0 
324.0000849495033 5599.0 2496.0 758.9465255933609 0.5262679730959583 301.0 37.0 236.0 
326.0000849495033 5610.0 2497.0 758.9591078067014 0.5266117972691101 305.0 36.0 237.0 
328.0000849495033 5631.0 2497.0 758.9922790963569 0.5278519956798355 304.0 36.0 237.0 
330.0000849495033 5661.0 2500.0 760.3179868458787 0.5314124269605843 302.0 36.0 238.0 
332.0000849495033 5680.0 2501.0 760.2973977695121 0.5338291311292209 306.0 36.0 238.0 
334.0000849495033 5668.0 2499.0 760.3099799828526 0.5267428723774649 308.0 35.0 239.0 
336.0000849495033 5655.0 2499.0 758.9728338575854 0.52885955263698 310.0 33.0 240.0 
338.0000849495033 5640.0 2498.0 758.9682585072777 0.5230469595616442 321.0 28.0 245.0 
340.0000849495033 5639.0 2500.0 759.0082928224297 0.529669420186166 319.0 28.0 245.0 
342.0000849495033 5646.0 2501.0 759.0620531884458 0.5332878316367712 318.0 28.0 245.0 
344.0000849495033 5652.0 2500.0 760.3134114955711 0.5341105362451843 320.0 28.0 246.0 
346.0000849495033 5640.0 2497.0 760.315699170732 0.5434804872482367 320.0 28.0 246.0 
348.0000849495033 5620.0 2490.0 762.9682585072775 0.5324482559172801 320.0 28.0 248.0 
350.0000849495033 5605.0 2489.0 764.2722333428626 0.5286848606222527 320.0 28.0 249.0 
352.0000849495033 5598.0 2491.0 764.2081784386515 0.529845112721473 320.0 28.0 249.0 
354.0000849495033 5611.0 2493.0 765.5682013154278 0.53566967967129 320.0 28.0 250.0 
356.0000849495033 5595.0 2491.0 765.536173863297 0.5351583481464623 320.0 28.0 250.0 
358.0000849495033 5579.0 2491.0 765.5167286245255 0.5288114071310024 320.0 28.0 250.0 
360.0000849495033 5603.0 2493.0 765.5418930511761 0.5382831458679592 322.0 28.0 250.0 
362.0000849495033 5599.0 2493.0 765.5064340863586 0.5342992560414361 322.0 28.0 250.0 
364.0000849495033 5596.0 2491.0 764.1853016871756 0.5283255041370667 323.0 28.0 249.0 
366.0000849495033 5618.0 2493.0 766.8035458964944 0.5274773791682223 323.0 28.0 251.0 
368.0000849495033 5599.0 2492.0 762.8744638261282 0.5223830169519 320.0 28.0 248.0 
370.0000849495033 5598.0 2494.0 762.9064912782401 0.5242125558628588 321.0 28.0 248.0 
372.0000849495033 5608.0 2496.0 762.8412925364537 0.5305669779600691 323.0 28.0 248.0 
374.0000849495033 5608.0 2495.0 764.1853016871758 0.5322677433966315 323.0 28.0 249.0 
376.0000849495033 5599.0 2492.0 764.1830140120021 0.5258767810624276 324.0 28.0 249.0 
378.0000849495033 5613.0 2491.0 764.1750071489771 0.5280590596030322 324.0 28.0 249.0 
380.0000849495033 5618.0 2495.0 764.1990277380552 0.5366969721426432 324.0 28.0 249.0 
382.0000849495033 5617.0 2492.0 764.1761509865524 0.5427414149329517 324.0 27.0 250.0 
384.0000849495033 5623.0 2490.0 765.4961395481922 0.544044151716877 326.0 26.0 252.0 
386.0000849495033 5605.0 2489.0 764.183014012002 0.539880768661641 326.0 26.0 251.0 
388.0000849495033 5596.0 2486.0 762.8778953388726 0.5237677522856595 325.0 26.0 250.0 
390.0000849495033 5613.0 2489.0 762.9270803546012 0.5307269695994312 325.0 26.0 250.0 
392.0000849495033 5610.0 2488.0 762.8527309122231 0.5384541413619336 324.0 25.0 251.0 
394.0000849495033 5583.0 2486.0 761.5910780669049 0.5302172484582827 322.0 25.0 250.0 
396.0000849495033 5579.0 2486.0 760.2630826422708 0.5265008137731637 323.0 25.0 249.0 
398.0000849495033 5615.0 2490.0 760.2630826422708 0.5248992515327887 323.0 25.0 249.0 
400.0000849495033 5639.0 2494.0 758.9774092079006 0.5352609799379175 323.0 25.0 248.0 
402.0000849495033 5625.0 2495.0 760.3202745210211 0.5400436586192376 326.0 25.0 249.0 
404.0000849495033 5593.0 2492.0 761.5762081784488 0.5264924035856192 328.0 25.0 250.0 
406.0000849495033 5587.0 2492.0 760.2973977695123 0.5254353830364757 326.0 25.0 249.0 
408.0000849495033 5591.0 2493.0 760.2871032313498 0.525675303065554 325.0 25.0 249.0 
410.0000849495033 5624.0 2495.0 762.953388618822 0.5326990047001741 327.0 25.0 251.0 
412.0000849495033 5640.0 2496.0 764.2344867028739 0.5344636730032148 327.0 25.0 252.0 
414.0000849495033 5650.0 2495.0 765.5430368887465 0.5365407815125152 328.0 25.0 253.0 
416.0000849495033 5663.0 2498.0 762.89505290247 0.5394485643379381 326.0 25.0 251.0 
418.0000849495033 5652.0 2496.0 764.2585072919518 0.5391672019564444 327.0 25.0 252.0 
420.0000849495033 5648.0 2494.0 762.9236488418564 0.5341795256906237 327.0 25.0 251.0 
422.0000849495033 5626.0 2495.0 760.2916785816527 0.5402058518482862 328.0 25.0 249.0 
424.0000849495033 5601.0 2493.0 762.93165570489 0.5347390929678055 329.0 27.0 249.0 
426.0000849495033 5584.0 2491.0 761.5853588790258 0.5281788413326461 327.0 28.0 247.0 
428.0000849495033 5585.0 2492.0 760.2642264798429 0.5260594268489245 327.0 28.0 246.0 
430.0000849495033 5623.0 2496.0 760.3008292822295 0.5290307594900311 329.0 27.0 247.0 
432.0000849495033 5630.0 2496.0 761.6196740062989 0.5346177281238826 330.0 26.0 249.0 
434.0000849495033 5626.0 2498.0 765.5556191020872 0.5341407513080423 332.0 26.0 252.0 
436.0000849495033 5635.0 2497.0 764.2196168144217 0.5387467856301734 335.0 26.0 251.0 
438.0000849495033 5638.0 2497.0 764.2253360022809 0.5342886155766008 333.0 26.0 251.0 
440.0000849495033 5651.0 2498.0 764.239062053192 0.5312673942600324 331.0 26.0 251.0 
442.0000849495033 5684.0 2499.0 769.5258793251489 0.5343470275407987 332.0 26.0 255.0 
444.0000849495033 5689.0 2498.0 770.8767515013021 0.5374959362051537 332.0 26.0 256.0 
446.0000849495033 5687.0 2498.0 770.8344295110228 0.539433266077849 328.0 30.0 252.0 
448.0000849495033 5677.0 2501.0 769.5373177008868 0.5320927655319161 327.0 32.0 249.0 
450.0000849495033 5685.0 2501.0 769.540749213604 0.5329798654445803 327.0 32.0 249.0 
452.0000849495033 5676.0 2500.0 769.4835573348512 0.5320976965761104 330.0 28.0 253.0 
454.0000849495033 5667.0 2502.0 768.2276236774234 0.5406275756646247 336.0 26.0 254.0 
456.0000849495033 5671.0 2500.0 768.147555047186 0.5396336702099748 338.0 26.0 254.0 
458.0000849495033 5646.0 2499.0 768.2070346010809 0.5368522777313154 336.0 26.0 254.0 
460.0000849495033 5639.0 2500.0 768.161281098097 0.5426487296945306 336.0 26.0 254.0 
462.0000849495033 5596.0 2496.0 766.810408921945 0.5351607958052529 335.0 26.0 253.0 
464.0000849495033 5597.0 2496.0 766.804689734066 0.5350740469354944 339.0 26.0 253.0 
466.0000849495033 5595.0 2495.0 766.8081212467835 0.5315934060554436 339.0 27.0 252.0 
468.0000849495033 5620.0 2497.0 766.7738061195251 0.5346206389034265 338.0 27.0 252.0 
470.0000849495033 5626.0 2496.0 762.892765227328 0.5357749740580452 337.0 26.0 250.0 
472.0000849495033 5628.0 2496.0 764.1750071489773 0.5308895124210996 334.0 27.0 250.0 
474.0000849495033 5636.0 2497.0 764.2024592507738 0.5318818664264362 334.0 27.0 250.0 
476.0000849495033 5640.0 2499.0 764.148698884756 0.5368525977927356 334.0 27.0 250.0 
478.0000849495033 5595.0 2497.0 762.8470117243317 0.526205896483427 330.0 27.0 249.0 
480.0000849495033 5603.0 2498.0 758.9282241921718 0.5342927450164026 328.0 27.0 246.0 
482.0000849495033 5592.0 2499.0 758.9099227909726 0.5301318836500903 327.0 28.0 245.0 
484.0000849495033 5622.0 2503.0 762.8458678867614 0.5257990335278359 333.0 28.0 248.0 
486.0000849495033 5604.0 2502.0 766.83786102374 0.5275004212210906 335.0 28.0 251.0 
488.0000849495033 5592.0 2502.0 766.7738061195254 0.5247007113611252 335.0 28.0 251.0 
490.0000849495033 5592.0 2501.0 770.7600800686448 0.5305997951702179 334.0 28.0 254.0 
492.0000849495033 5595.0 2501.0 774.7063197026096 0.5392185149302657 333.0 28.0 257.0 
494.0000849495033 5576.0 2499.0 773.363454389462 0.5289567313613628 333.0 28.0 256.0 
496.0000849495033 5566.0 2498.0 772.0835001429739 0.5263158657926136 332.0 28.0 255.0 
498.0000849495033 5595.0 2502.0 772.0606233914666 0.5245079719864127 332.0 27.0 256.0 
500.0000849495033 5621.0 2504.0 772.1098084071951 0.5228987420026133 333.0 27.0 256.0 
502.0000849495033 5609.0 2504.0 772.1086645696232 0.5258460111857708 332.0 28.0 255.0 
504.0000849495033 5621.0 2505.0 769.4766943094203 0.5329726661226695 332.0 28.0 253.0 
506.0000849495033 5616.0 2503.0 769.4675436087965 0.5325892845947913 333.0 27.0 254.0 
508.0000849495033 5634.0 2501.0 770.7497855304459 0.5245195334018908 333.0 26.0 256.0 
510.0000849495033 5640.0 2503.0 770.7966828710321 0.5290874127313099 330.0 29.0 253.0 
512.0000849495033 5640.0 2502.0 768.11323991994 0.5270274700067752 329.0 30.0 250.0 
514.0000849495034 5633.0 2503.0 766.8390048613119 0.5310894747158867 331.0 29.0 250.0 
516.0000849495034 5651.0 2503.0 766.8332856734337 0.5291678937308475 332.0 29.0 250.0 
518.0000849495034 5673.0 2504.0 765.500714898499 0.5296600868592897 328.0 30.0 248.0 
520.0000849495034 5680.0 2508.0 764.1944523877723 0.539197606809233 322.0 30.0 247.0 
522.0000849495034 5656.0 2508.0 760.2619388046953 0.5405296869222486 319.0 30.0 244.0 
524.0000849495034 5651.0 2503.0 758.9362310551973 0.5320537035108378 319.0 29.0 244.0 
526.0000849495034 5649.0 2502.0 757.608235630533 0.5237732573677328 318.0 29.0 243.0 
528.0000849495034 5652.0 2506.0 756.3076923076812 0.5285555665469657 320.0 29.0 242.0 
530.0000849495034 5673.0 2508.0 760.2733771804344 0.5312239700239213 323.0 28.0 246.0 
532.0000849495034 5665.0 2508.0 760.2653703174136 0.5353264724489138 329.0 26.0 248.0 
534.0000849495034 5685.0 2509.0 758.9419502430565 0.544775128949091 328.0 26.0 247.0 
536.0000849495034 5669.0 2505.0 758.9350872176223 0.5329729627307593 325.0 26.0 247.0 
538.0000849495034 5701.0 2505.0 758.9545324563966 0.5321290061304839 326.0 26.0 247.0 
540.0000849495034 5706.0 2505.0 757.663139834137 0.5335515806858451 327.0 26.0 246.0 
542.0000849495034 5674.0 2501.0 756.3431512725282 0.5308554480306376 324.0 26.0 245.0 
544.0000849495034 5662.0 2501.0 756.3854732628017 0.5252979041739633 324.0 26.0 245.0 
546.0000849495034 5666.0 2501.0 757.6722905347436 0.5198351272808486 324.0 26.0 246.0 
548.0000849495034 5696.0 2503.0 760.2756648555801 0.5217094895274248 324.0 26.0 248.0 
550.0000849495034 5723.0 2505.0 760.3237060337335 0.524350563510247 324.0 26.0 248.0 
552.0000849495034 5769.0 2508.0 762.9293680297473 0.5288675748542148 325.0 26.0 250.0 
554.0000849495034 5776.0 2505.0 762.9430940806282 0.531626868690939 325.0 26.0 250.0 
556.0000849495034 5791.0 2507.0 760.3717472118902 0.5330208549186926 325.0 26.0 248.0 
558.0000849495034 5807.0 2510.0 762.9991421218065 0.5416713572468379 324.0 27.0 249.0 
560.0000849495034 5784.0 2510.0 763.0071489848582 0.538840471428946 325.0 25.0 251.0 
562.0000849495034 5746.0 2506.0 765.6368315699149 0.5332815554689415 324.0 25.0 253.0 
564.0000849495034 5765.0 2508.0 765.6116671432653 0.5378414900832972 325.0 25.0 253.0 
566.0000849495034 5745.0 2509.0 765.5670574778258 0.543284962813197 331.0 25.0 253.0 
568.0000849495034 5722.0 2506.0 765.5533314269452 0.5386580189421731 333.0 25.0 253.0 
570.0000849495034 5690.0 2505.0 765.5876465541863 0.5234349956908293 333.0 25.0 253.0 
572.0000849495034 5685.0 2504.0 766.8881898770405 0.5306916592249226 333.0 25.0 254.0 
574.0000849495034 5714.0 2509.0 768.1658564483857 0.5341312854581771 334.0 25.0 255.0 
576.0000849495034 5706.0 2509.0 766.8492993994784 0.5417079854611873 331.0 25.0 254.0 
578.0000849495034 5675.0 2507.0 768.1555619102056 0.5322643303759267 331.0 25.0 255.0 
580.0000849495034 5675.0 2505.0 766.879039176444 0.5250975572645565 333.0 25.0 254.0 
582.0000849495034 5670.0 2506.0 764.2047469259346 0.5219465187587677 332.0 25.0 252.0 
584.0000849495034 5694.0 2510.0 766.8836145267516 0.521051852587194 337.0 25.0 254.0 
586.0000849495034 5715.0 2513.0 768.2001715756268 0.5323569001722313 335.0 25.0 255.0 
588.0000849495034 5697.0 2510.0 766.8973405776318 0.5313177728408174 334.0 25.0 254.0 
590.0000849495034 5705.0 2511.0 766.8710323134108 0.5221733618486445 338.0 25.0 254.0 
592.0000849495034 5718.0 2511.0 768.204746925934 0.5271789532523452 339.0 25.0 255.0 
594.0000849495034 5720.0 2514.0 770.8390048613119 0.5392913289849552 337.0 25.0 257.0 
596.0000849495034 5719.0 2514.0 770.8298541607159 0.5542393051192906 337.0 25.0 257.0 
598.0000849495034 5690.0 2510.0 770.8367171861696 0.5437123837168027 335.0 25.0 257.0 
600.0000849495034 5671.0 2508.0 774.8275664855739 0.5273227198494851 336.0 25.0 260.0 
602.0000849495034 5669.0 2508.0 774.7692307692209 0.5234197124295129 334.0 25.0 260.0 
604.0000849495034 5675.0 2511.0 772.1772948241227 0.5274398042927654 331.0 25.0 258.0 
606.0000849495034 5705.0 2514.0 773.4675436087963 0.5370692817317121 330.0 25.0 259.0 
608.0000849495034 5692.0 2510.0 774.8172719473747 0.5291657435449368 331.0 26.0 259.0 
610.0000849495034 5689.0 2510.0 777.4092078924731 0.5248475246429488 331.0 27.0 260.0 
612.0000849495034 5700.0 2510.0 780.0823563053983 0.5354850956231013 331.0 27.0 262.0 
614.0000849495034 5776.0 2516.0 781.3977695167362 0.5456239811496966 336.0 27.0 263.0 
616.0000849495034 5815.0 2519.0 781.4195024306387 0.5564944083450781 335.0 27.0 263.0 
618.0000849495034 5785.0 2510.0 780.0789247926667 0.543827476518891 332.0 30.0 259.0 
620.0000849495034 5818.0 2510.0 778.6925936516964 0.5372701420527092 332.0 30.0 258.0 
622.0000849495034 5844.0 2509.0 782.6868744638386 0.5363102027180009 336.0 26.0 265.0 
624.0000849495034 5848.0 2510.0 783.9565341721305 0.5437967493153346 341.0 21.0 271.0 
626.0000849495034 5870.0 2514.0 782.6811552759606 0.5547899265059901 335.0 28.0 263.0 
628.0000849495034 5812.0 2509.0 782.7211895910643 0.5353270441009474 332.0 29.0 262.0 
630.0000849495034 5848.0 2510.0 781.4149270803497 0.5391872950187252 335.0 24.0 266.0 
632.0000849495034 5832.0 2508.0 781.379468115535 0.5373343166494927 328.0 31.0 259.0 
634.0000849495034 5857.0 2515.0 781.382899628252 0.5412672426622142 333.0 27.0 263.0 
636.0000849495034 5875.0 2517.0 780.0800686302372 0.5452777664202145 332.0 27.0 262.0 
638.0000849495034 5835.0 2513.0 780.053760366016 0.5383736031096218 333.0 27.0 262.0 
640.0000849495034 5820.0 2512.0 777.4709751215437 0.5341141113683606 329.0 29.0 258.0 
642.0000849495034 5788.0 2511.0 778.7555047183388 0.5367977693963746 333.0 26.0 262.0 
644.0000849495034 5773.0 2511.0 778.6971690019853 0.5318294855753618 337.0 25.0 263.0 
646.0000849495034 5775.0 2511.0 778.7051758650382 0.5371920530839858 338.0 25.0 263.0 
648.0000849495034 5759.0 2508.0 778.699456677146 0.5234323532728641 337.0 25.0 263.0 
650.0000849495034 5806.0 2514.0 781.3714612525149 0.5322990435452398 339.0 25.0 265.0 
652.0000849495034 5810.0 2514.0 781.319988561611 0.5459610827157221 338.0 25.0 265.0 
654.0000849495034 5770.0 2513.0 780.0732056048076 0.5452333124522508 336.0 25.0 264.0 
656.0000849495034 5776.0 2514.0 782.6537031741346 0.5528470382286079 336.0 26.0 265.0 
658.0000849495034 5750.0 2510.0 782.6811552759606 0.5373546246966329 337.0 22.0 269.0 
660.0000849495034 5715.0 2507.0 782.6960251644149 0.5331667037811422 336.0 23.0 268.0 
662.0000849495034 5740.0 2511.0 782.6319702602323 0.5406273057325564 335.0 24.0 267.0 
664.0000849495034 5759.0 2514.0 782.6582785244567 0.536243983100668 337.0 26.0 265.0 
#####################################################################
# End of data export. Simulation finished at: 2019-03-05T13:18+0000 #
#####################################################################
