#####################################################################
# Alchemist log file - simulation started at: 2019-03-07T05:06+0000 #
#####################################################################
# seed = 2.0, bandwidth = 74989.42093324558, accessPointCount = 72.92664737217109, baserange = 31.622776601683796
#
# The columns have the following meaning: 
# time neighbor_count[Sum] <value>@neighbor_count[Sum] packet_size[Mean] mean_delay[Mean] crowd[Sum] overcrowded[Sum] risk[Sum] 
0.0 NaN NaN NaN NaN NaN NaN NaN 
10.00031849080864 12.0 5.0 4987.0643722116 0.5153795300300706 1497.0 0.0 1497.0 
20.00031849080864 12.0 5.0 4987.008285532186 0.5155595554234128 1497.0 0.0 1497.0 
30.00031849080864 12.0 5.0 4987.036328871893 0.5154895455482241 1497.0 0.0 1497.0 
40.00031849080864 12.0 5.0 4987.033779477374 0.5154528737088407 1497.0 0.0 1497.0 
50.00031849080864 12.0 5.0 4987.036328871893 0.5155095483697073 1497.0 0.0 1497.0 
60.00031849080864 12.0 5.0 4987.005736137668 0.5156062286735397 1497.0 0.0 1497.0 
70.00058297905275 12.0 5.0 400.0 0.4716902098375086 0.0 0.0 0.0 
80.00058297905275 12.0 5.0 400.0 0.4716902098375086 0.0 0.0 0.0 
90.00058297905275 12.0 5.0 400.0 0.4716902098375086 0.0 0.0 0.0 
100.00058297905275 14.0 6.0 400.0 0.47628535072427713 0.0 0.0 0.0 
110.00058297905275 14.0 6.0 400.0 1.3762853507242772 0.0 0.0 0.0 
120.00058297905275 12.0 5.0 400.0 0.4716902098375086 0.0 0.0 0.0 
130.00058297905275 12.0 5.0 400.0 0.47169020983750026 0.0 0.0 0.0 
140.00058297905275 12.0 5.0 400.0 0.47169020983750026 0.0 0.0 0.0 
150.00058297905275 12.0 5.0 400.0 0.47169020983750026 0.0 0.0 0.0 
160.00058297905275 12.0 5.0 400.0 0.47169020983750026 0.0 0.0 0.0 
170.00058297905275 12.0 5.0 400.0 0.47169020983750026 0.0 0.0 0.0 
180.00058297905275 12.0 5.0 400.0 0.47169020983750026 0.0 0.0 0.0 
190.00058297905275 12.0 5.0 400.0 0.47169020983750026 0.0 0.0 0.0 
200.00058297905275 12.0 5.0 400.0 0.47169020983750026 0.0 0.0 0.0 
210.00058297905275 12.0 5.0 400.0 0.47169020983750026 0.0 0.0 0.0 
220.00058297905275 12.0 5.0 400.0 0.47169020983750026 0.0 0.0 0.0 
230.00058297905275 12.0 5.0 400.0 0.47169020983750026 0.0 0.0 0.0 
240.00058297905275 12.0 5.0 400.0 0.47169020983750026 0.0 0.0 0.0 
250.00058297905275 12.0 5.0 400.0 0.47169020983750026 0.0 0.0 0.0 
260.00058297905275 12.0 5.0 400.0 0.4716902098375151 0.0 0.0 0.0 
270.00058297905275 12.0 5.0 400.0 0.4716902098375151 0.0 0.0 0.0 
280.00058297905275 12.0 5.0 400.0 0.4716902098375151 0.0 0.0 0.0 
290.00058297905275 12.0 5.0 400.0 0.4716902098375151 0.0 0.0 0.0 
300.00058297905275 12.0 5.0 400.0 0.4716902098375151 0.0 0.0 0.0 
310.00058297905275 12.0 5.0 400.0 0.4716902098375151 0.0 0.0 0.0 
320.00058297905275 12.0 5.0 400.0 0.4716902098375151 0.0 0.0 0.0 
330.00058297905275 12.0 5.0 400.0 0.4716902098375151 0.0 0.0 0.0 
340.00058297905275 12.0 5.0 400.0 0.4716902098375151 0.0 0.0 0.0 
350.00058297905275 12.0 5.0 400.0 0.4716902098375151 0.0 0.0 0.0 
360.00058297905275 12.0 5.0 400.0 0.4716902098375151 0.0 0.0 0.0 
370.00058297905275 12.0 5.0 400.0 0.4716902098375151 0.0 0.0 0.0 
380.00058297905275 12.0 5.0 400.0 0.4716902098375151 0.0 0.0 0.0 
390.00058297905275 12.0 5.0 400.0 0.4716902098375151 0.0 0.0 0.0 
400.00058297905275 12.0 5.0 400.0 0.4716902098375151 0.0 0.0 0.0 
410.00058297905275 12.0 5.0 400.0 0.4716902098375151 0.0 0.0 0.0 
420.00058297905275 12.0 5.0 400.0 0.4716902098375151 0.0 0.0 0.0 
430.00058297905275 14.0 6.0 400.0 0.4762853507242852 0.0 0.0 0.0 
440.00058297905275 14.0 6.0 400.0 1.076285350724285 0.0 0.0 0.0 
450.00058297905275 12.0 5.0 400.0 0.4716902098375151 0.0 0.0 0.0 
460.00058297905275 12.0 5.0 400.0 0.4716902098375151 0.0 0.0 0.0 
470.00058297905275 19.0 6.0 405.8738049713194 0.43750862007844565 4.0 0.0 2.0 
480.00058297905275 20.0 7.0 405.8610579987253 0.5661355868681486 4.0 0.0 2.0 
490.00058297905275 20.0 6.0 408.8234544295731 0.4958514077362658 4.0 0.0 3.0 
500.00058297905275 20.0 6.0 408.8285532186105 0.8292756180857163 4.0 0.0 3.0 
510.00058297905275 18.0 6.0 408.810707456979 0.4484966677470505 4.0 0.0 3.0 
520.0005829790528 18.0 6.0 408.81835564053523 0.44822008552404424 4.0 0.0 3.0 
530.0005829790528 18.0 6.0 408.8234544295731 0.44820428082558733 4.0 0.0 3.0 
540.0005829790528 18.0 6.0 408.8158062460165 0.4481726714286778 4.0 0.0 3.0 
550.0005829790528 18.0 6.0 408.8285532186105 0.4482299634605761 4.0 0.0 3.0 
560.0005829790528 18.0 6.0 408.81835564053523 0.4481647690794514 4.0 0.0 3.0 
570.0005829790528 18.0 6.0 408.8209050350541 0.44838998603244323 4.0 0.0 3.0 
580.0005829790528 20.0 7.0 408.80815806246005 1.191916008071029 4.0 0.0 3.0 
590.0005829790528 14.0 6.0 408.78521351179097 0.47886234574617675 4.0 0.0 3.0 
600.0005829790528 14.0 6.0 408.810707456979 0.4788196730603507 4.0 0.0 3.0 
610.0005829790528 14.0 6.0 408.8132568514978 1.2788196730603507 4.0 0.0 3.0 
620.0005829790528 12.0 5.0 408.8056086679413 0.47493479023995394 4.0 0.0 3.0 
630.0005829790528 12.0 5.0 408.8056086679413 0.4748747817755117 4.0 0.0 3.0 
640.0005829790528 12.0 5.0 400.0 0.452520839250153 3.0 0.0 0.0 
650.0005829790528 12.0 5.0 400.0 0.47169020983749493 0.0 0.0 0.0 
660.0005829790528 12.0 5.0 400.0 0.47169020983749493 0.0 0.0 0.0 
#####################################################################
# End of data export. Simulation finished at: 2019-03-07T05:12+0000 #
#####################################################################
