#####################################################################
# Alchemist log file - simulation started at: 2019-03-03T09:42+0000 #
#####################################################################
# seed = 9.0, bandwidth = 1.0E8, accessPointCount = 274.2481756762073, baserange = 100.0
#
# The columns have the following meaning: 
# time neighbor_count[Sum] <value>@neighbor_count[Sum] packet_size[Mean] mean_delay[Mean] crowd[Sum] overcrowded[Sum] risk[Sum] 
0.0 NaN NaN NaN NaN NaN NaN NaN 
10.000337445961424 1279.0 229.0 4986.40542066629 0.5077260405740903 1495.0 2.0 1495.0 
20.000337445961424 1290.0 228.0 4986.538678712592 0.5045331821588734 1490.0 7.0 1490.0 
30.000337445961424 1292.0 228.0 4986.14568040655 0.5046147970351995 1490.0 7.0 1490.0 
40.00033744596142 1291.0 228.0 4986.315076228119 0.5127077862214627 1490.0 7.0 1490.0 
50.00033744596142 1291.0 227.0 4986.118577075099 0.505994011264825 1490.0 7.0 1490.0 
60.00033744596142 1288.0 226.0 4986.409937888198 0.5044714644787978 1490.0 7.0 1490.0 
70.00033744596142 1290.0 226.0 568.8018068887635 0.5048424126225728 83.0 7.0 58.0 
80.00033744596142 1314.0 228.0 581.7910784867317 0.5047233062883252 87.0 7.0 63.0 
90.00033744596142 1306.0 229.0 581.7843026538673 0.5150823972243226 88.0 7.0 63.0 
100.00033744596142 1309.0 229.0 581.7526821005079 0.5078396737312084 89.0 7.0 63.0 
110.00033744596142 1316.0 228.0 584.3478260869555 0.5105237816241612 93.0 7.0 64.0 
120.00033744596142 1334.0 229.0 594.7306606437033 0.5042254203874791 95.0 7.0 68.0 
130.0003374459614 1302.0 228.0 597.3032185206094 0.507450317474204 95.0 7.0 69.0 
140.0003374459614 1326.0 229.0 602.536420101638 0.5161432160791563 97.0 7.0 71.0 
150.0003374459614 1298.0 226.0 594.7058159232082 0.5046647032267741 97.0 7.0 68.0 
160.0003374459614 1318.0 226.0 599.9209486166013 0.5049524183611167 100.0 7.0 70.0 
170.0003374459614 1322.0 226.0 599.929983060417 0.5051622281264283 100.0 7.0 70.0 
180.0003374459614 1316.0 225.0 597.3619424054214 0.5079054554997711 100.0 7.0 69.0 
190.0003374459614 1318.0 225.0 589.5765104460762 0.5056731442751042 99.0 7.0 66.0 
200.0003374459614 1321.0 226.0 589.6103896103904 0.5086542373565187 98.0 7.0 66.0 
210.0003374459614 1320.0 228.0 586.9678147939007 0.505328526779732 96.0 7.0 65.0 
220.0003374459614 1330.0 229.0 592.1648785996618 0.5135010363742066 99.0 7.0 67.0 
230.0003374459614 1298.0 226.0 589.5335968379451 0.5048319839296053 101.0 7.0 66.0 
240.0003374459614 1298.0 226.0 581.7368718238281 0.5085016418681959 99.0 7.0 63.0 
250.0003374459614 1296.0 226.0 579.1394692264245 0.5158030834050528 96.0 7.0 62.0 
260.0003374459614 1276.0 223.0 579.1281761716555 0.5082549500773164 95.0 7.0 62.0 
270.0003374459614 1280.0 223.0 576.5104460756639 0.5051752287968685 96.0 7.0 61.0 
280.0003374459614 1279.0 223.0 586.9023150762271 0.5043474334006959 93.0 7.0 65.0 
290.0003374459614 1280.0 224.0 584.3478260869559 0.5089749489438712 92.0 7.0 64.0 
300.0003374459614 1282.0 223.0 576.5488424618856 0.5059532641294865 89.0 7.0 61.0 
310.0003374459614 1282.0 222.0 576.5601355166565 0.5062346485414102 87.0 7.0 61.0 
320.0003374459614 1304.0 223.0 579.1891586674197 0.5063259406009446 88.0 7.0 62.0 
330.0003374459614 1306.0 223.0 579.1688311688306 0.5059996865191025 88.0 7.0 62.0 
340.0003374459614 1302.0 224.0 579.1756070016949 0.5056770188799262 88.0 7.0 62.0 
350.0003374459614 1306.0 225.0 584.3568605307735 0.5060460909054502 90.0 7.0 64.0 
360.0003374459614 1290.0 224.0 584.3817052512708 0.5050778624932524 89.0 7.0 64.0 
370.0003374459614 1291.0 224.0 579.2117447769614 0.5130155223350444 88.0 7.0 62.0 
380.0003374459614 1285.0 224.0 584.3365330321855 0.5182337029200463 92.0 7.0 64.0 
390.0003374459614 1258.0 220.0 584.3568605307735 0.5035469375368865 91.0 7.0 64.0 
400.0003374459614 1256.0 220.0 584.3365330321855 0.5035060291078151 91.0 7.0 64.0 
410.0003374459614 1254.0 221.0 581.7684923771876 0.5036463166764193 91.0 7.0 63.0 
420.0003374459614 1251.0 221.0 581.7639751552806 0.5033097581201086 90.0 7.0 63.0 
430.0003374459614 1253.0 222.0 579.1981931112363 0.5151673664187888 89.0 7.0 62.0 
440.0003374459614 1248.0 221.0 571.3698475437598 0.5046415335491177 87.0 7.0 59.0 
450.0003374459614 1272.0 223.0 584.4223602484459 0.5065983677782107 89.0 7.0 64.0 
460.0003374459614 1262.0 222.0 586.9497459062676 0.5028711470344028 90.0 7.0 65.0 
470.0003374459614 1263.0 222.0 592.1761716544318 0.5112028549322245 91.0 7.0 67.0 
480.0003374459614 1248.0 222.0 592.1219649915308 0.5045049337243716 91.0 7.0 67.0 
490.0003374459614 1254.0 223.0 594.7374364765677 0.5031273609195183 90.0 7.0 68.0 
500.0003374459614 1242.0 221.0 594.6787125917572 0.503346044523586 90.0 7.0 68.0 
510.0003374459614 1234.0 219.0 592.1174477696225 0.502925198084783 89.0 7.0 67.0 
520.0003374459613 1268.0 222.0 592.1242236024843 0.502674591926981 90.0 7.0 67.0 
530.0003374459613 1272.0 224.0 592.1603613777519 0.5026920830619616 89.0 7.0 67.0 
540.0003374459613 1266.0 226.0 589.5268210050803 0.5059609832056751 90.0 7.0 66.0 
550.0003374459613 1240.0 224.0 592.088085827217 0.5228499820218631 90.0 7.0 67.0 
560.0003374459613 1232.0 223.0 592.088085827217 0.5060924340110604 91.0 7.0 67.0 
570.0003374459613 1272.0 226.0 599.9819311123667 0.5148039306515955 96.0 7.0 70.0 
580.0003374459613 1254.0 224.0 607.6905702992657 0.5022578456170697 96.0 7.0 73.0 
590.0003374459613 1252.0 224.0 602.4641445511015 0.506492761203567 96.0 7.0 71.0 
600.0003374459613 1236.0 221.0 597.2828910220226 0.5252338487415403 92.0 7.0 69.0 
610.0003374459613 1254.0 223.0 597.2828910220226 0.5175905245696596 93.0 7.0 69.0 
620.0003374459613 1272.0 224.0 599.9322416713726 0.5194446818399696 94.0 7.0 70.0 
630.0003374459613 1258.0 221.0 610.2495765104456 0.5014780573324827 95.0 7.0 74.0 
640.0003374459613 1286.0 224.0 599.8757763975157 0.5002741066028681 96.0 7.0 70.0 
650.0003374459613 1328.0 228.0 605.158667419537 0.5018685776154648 101.0 7.0 72.0 
660.0003374459613 1361.0 229.0 610.3579898362501 0.5022647925012935 104.0 7.0 74.0 
#####################################################################
# End of data export. Simulation finished at: 2019-03-03T09:48+0000 #
#####################################################################
