#####################################################################
# Alchemist log file - simulation started at: 2019-03-03T04:11+0000 #
#####################################################################
# seed = 9.0, bandwidth = 316227.76601683797, accessPointCount = 2000.0, baserange = 56.234132519034915
#
# The columns have the following meaning: 
# time neighbor_count[Sum] <value>@neighbor_count[Sum] packet_size[Mean] mean_delay[Mean] crowd[Sum] overcrowded[Sum] risk[Sum] 
0.0 NaN NaN NaN NaN NaN NaN NaN 
10.000099222111881 2398.0 1104.0 4981.490420360309 0.5047078130588588 1487.0 10.0 1487.0 
20.000023327448037 2387.0 1096.0 4983.373177008865 0.4969777081472181 1477.0 20.0 1477.0 
30.000023327448037 2360.0 1094.0 4980.639405204462 0.4986123905172635 1481.0 16.0 1481.0 
40.00002332744804 2370.0 1094.0 4982.904203603089 0.5007309382364757 1481.0 16.0 1481.0 
50.00002332744804 2407.0 1096.0 4980.387760937947 0.49731768010948535 1480.0 17.0 1480.0 
60.00002332744804 2388.0 1095.0 4982.865313125536 0.4981382202791289 1480.0 17.0 1480.0 
70.00033744596142 2403.0 1099.0 617.0340291678673 0.5122549706297067 224.0 11.0 154.0 
80.00033744596142 2409.0 1096.0 616.974549613958 0.5015632397230971 190.0 11.0 154.0 
90.00033744596142 2386.0 1096.0 617.0168716042261 0.5007880047339797 181.0 12.0 153.0 
100.00033744596142 2370.0 1097.0 619.5824992850947 0.5054783062723072 195.0 7.0 160.0 
110.00033744596142 2361.0 1096.0 623.5573348584452 0.5032655713974683 195.0 6.0 164.0 
120.00033744596142 2349.0 1096.0 622.2499285101422 0.5042557325807785 199.0 6.0 163.0 
130.0003374459614 2343.0 1096.0 620.9287961109436 0.5024181142370812 197.0 6.0 162.0 
140.0003374459614 2356.0 1097.0 619.5870746354096 0.5116813784613237 193.0 6.0 161.0 
150.0003374459614 2357.0 1093.0 622.2750929368001 0.49956222511824205 197.0 6.0 163.0 
160.0003374459614 2360.0 1093.0 628.8315699170657 0.5032109978528861 201.0 6.0 168.0 
170.0003374459614 2371.0 1096.0 631.4875607663603 0.5079979675817861 198.0 10.0 166.0 
180.0003374459614 2354.0 1093.0 631.4555333142739 0.5082330179324386 204.0 6.0 170.0 
190.0003374459614 2320.0 1088.0 630.1435516156777 0.5027618867585534 205.0 6.0 169.0 
200.0003374459614 2347.0 1093.0 632.7732342007504 0.5065399454330453 206.0 6.0 171.0 
210.0003374459614 2316.0 1090.0 634.106948813274 0.5061021996315965 205.0 6.0 172.0 
220.0003374459614 2326.0 1091.0 632.7995424649789 0.5102096008050259 203.0 6.0 171.0 
230.0003374459614 2313.0 1090.0 631.4303688876228 0.5015674372765576 206.0 6.0 170.0 
240.0003374459614 2305.0 1090.0 627.4806977409235 0.5098270082557218 202.0 6.0 167.0 
250.0003374459614 2286.0 1091.0 628.7537889619645 0.5016352207642689 203.0 6.0 168.0 
260.0003374459614 2274.0 1088.0 626.1321132399235 0.5060549029234068 204.0 6.0 166.0 
270.0003374459614 2282.0 1089.0 623.5081498427166 0.5025092178304905 198.0 6.0 164.0 
280.0003374459614 2290.0 1092.0 628.7926794395122 0.5041347652059706 195.0 6.0 168.0 
290.0003374459614 2264.0 1088.0 626.1435516156772 0.5048146896099986 193.0 6.0 166.0 
300.0003374459614 2285.0 1092.0 614.319702602235 0.5055875452350934 188.0 6.0 157.0 
310.0003374459614 2295.0 1096.0 615.6568487274736 0.5031283629095542 186.0 6.0 158.0 
320.0003374459614 2293.0 1092.0 618.2739490992216 0.5040735779152868 189.0 6.0 160.0 
330.0003374459614 2292.0 1091.0 622.2053188447303 0.5092349052335633 188.0 6.0 163.0 
340.0003374459614 2276.0 1088.0 620.8498713182785 0.5017916944834515 190.0 6.0 162.0 
350.0003374459614 2272.0 1088.0 614.3105519016246 0.5006081190116857 186.0 6.0 157.0 
360.0003374459614 2254.0 1086.0 615.5927938232762 0.5061503525687862 184.0 6.0 158.0 
370.0003374459614 2234.0 1080.0 612.9962825278843 0.5011473706579119 184.0 6.0 156.0 
380.0003374459614 2247.0 1080.0 607.719759794106 0.5002516839662918 181.0 6.0 152.0 
390.0003374459614 2244.0 1082.0 599.8798970546168 0.5043786335043242 172.0 6.0 146.0 
400.0003374459614 2246.0 1083.0 610.3700314555348 0.5036642745629194 176.0 6.0 154.0 
410.0003374459614 2244.0 1084.0 615.66371175294 0.50396935260158 179.0 6.0 158.0 
420.0003374459614 2258.0 1087.0 615.66371175294 0.5043591498854483 180.0 6.0 158.0 
430.0003374459614 2291.0 1089.0 620.9276522733725 0.5030601142015219 184.0 6.0 162.0 
440.0003374459614 2278.0 1085.0 623.5230197311918 0.5095355443811674 184.0 6.0 164.0 
450.0003374459614 2279.0 1085.0 632.7709465255849 0.503933578414354 190.0 6.0 171.0 
460.0003374459614 2302.0 1093.0 634.0909350872109 0.5062776019148639 192.0 6.0 172.0 
470.0003374459614 2307.0 1092.0 635.4086359736874 0.5046461133158585 189.0 7.0 172.0 
480.0003374459614 2318.0 1090.0 634.1252502144646 0.5095032211183136 188.0 7.0 171.0 
490.0003374459614 2334.0 1091.0 632.7812410637657 0.5103250898885667 189.0 6.0 171.0 
500.0003374459614 2338.0 1089.0 628.8979124964278 0.5043259745985442 188.0 6.0 168.0 
510.0003374459614 2378.0 1094.0 627.5138690306029 0.5082577804101033 190.0 6.0 167.0 
520.0003374459613 2353.0 1088.0 624.8624535316033 0.51163813150044 190.0 6.0 165.0 
530.0003374459613 2357.0 1091.0 622.2533600228861 0.5030908212974377 189.0 6.0 163.0 
540.0003374459613 2346.0 1094.0 623.5641978839044 0.5093205645984656 187.0 6.0 164.0 
550.0003374459613 2336.0 1093.0 623.5298827566519 0.5047629978613 190.0 6.0 164.0 
560.0003374459613 2303.0 1088.0 624.8533028309928 0.5052960001826301 189.0 6.0 165.0 
570.0003374459613 2318.0 1095.0 619.6271089505362 0.503275565493832 189.0 6.0 161.0 
580.0003374459613 2315.0 1092.0 618.2968258507269 0.5073849809963096 186.0 6.0 160.0 
590.0003374459613 2382.0 1099.0 628.8441521303921 0.5036818753151882 191.0 6.0 168.0 
600.0003374459613 2377.0 1098.0 627.5241635687646 0.5067467624249697 189.0 6.0 167.0 
610.0003374459613 2388.0 1105.0 628.7881040892253 0.5049323834003125 191.0 6.0 168.0 
620.0003374459613 2392.0 1104.0 632.7412067486398 0.5096124622922893 200.0 6.0 171.0 
630.0003374459613 2371.0 1096.0 639.3228481555567 0.5082338269541279 202.0 6.0 176.0 
640.0003374459613 2334.0 1091.0 640.5444666857259 0.5108309793679634 196.0 9.0 174.0 
650.0003374459613 2288.0 1085.0 639.2816700028667 0.5044378276277858 200.0 6.0 176.0 
660.0003374459613 2275.0 1087.0 631.3708893337124 0.5072846031908388 195.0 6.0 170.0 
#####################################################################
# End of data export. Simulation finished at: 2019-03-03T04:30+0000 #
#####################################################################
