#####################################################################
# Alchemist log file - simulation started at: 2019-03-09T09:09+0000 #
#####################################################################
# seed = 3.0, bandwidth = 316227.76601683797, accessPointCount = 141.4213562373095, baserange = 31.622776601683796
#
# The columns have the following meaning: 
# time neighbor_count[Sum] <value>@neighbor_count[Sum] packet_size[Mean] mean_delay[Mean] crowd[Sum] overcrowded[Sum] risk[Sum] 
0.0 NaN NaN NaN NaN NaN NaN NaN 
2.0004081062052084 35.0 17.0 4986.253968253968 0.4888574233881291 1497.0 0.0 1497.0 
4.000408106205208 39.0 17.0 4986.576312576312 0.4835474363001672 1497.0 0.0 1497.0 
6.000084666035003 53.0 17.0 4986.334554334554 0.4988292792743194 1497.0 0.0 1497.0 
8.000408106205208 56.0 17.0 4986.410256410257 0.5026609763567824 1497.0 0.0 1497.0 
10.00033353340315 56.0 17.0 4986.336996336996 0.5027016342124132 1497.0 0.0 1497.0 
12.000408106205208 56.0 17.0 4986.466422466422 0.502653070662632 1497.0 0.0 1497.0 
14.000408106205208 56.0 17.0 4986.273504273504 0.5026971166728987 1497.0 0.0 1497.0 
16.000084666035004 56.0 17.0 4986.454212454212 0.5026616539877096 1497.0 0.0 1497.0 
18.00040810620521 56.0 17.0 4986.31746031746 0.502709088152611 1497.0 0.0 1497.0 
20.00033353340315 56.0 17.0 4986.415140415141 0.5026582658330725 1497.0 0.0 1497.0 
22.00040810620521 56.0 17.0 4986.31746031746 0.5026858228241111 1497.0 0.0 1497.0 
24.00040810620521 56.0 17.0 4986.446886446886 0.5026668491581501 1497.0 0.0 1497.0 
26.000084666035004 56.0 17.0 4986.25641025641 0.5026912438715286 1497.0 0.0 1497.0 
28.00040810620521 56.0 17.0 4986.400488400488 0.5026835640543539 1497.0 0.0 1497.0 
30.00033353340315 56.0 17.0 4986.293040293041 0.5026957614110431 1497.0 0.0 1497.0 
32.00040810620521 56.0 17.0 4986.346764346765 0.5026822087924995 1497.0 0.0 1497.0 
34.00040810620521 56.0 17.0 4986.307692307692 0.5027093140295874 1497.0 0.0 1497.0 
36.00008466603501 56.0 17.0 4986.45177045177 0.5026718184516161 1497.0 0.0 1497.0 
38.00040810620521 56.0 17.0 4986.202686202686 0.5027061517519268 1497.0 0.0 1497.0 
40.00033353340315 56.0 17.0 4986.43956043956 0.5026867263320142 1497.0 0.0 1497.0 
42.00040810620521 56.0 17.0 4986.332112332112 0.5026916956254806 1497.0 0.0 1497.0 
44.00040810620521 56.0 17.0 4986.285714285715 0.5026831123004023 1497.0 0.0 1497.0 
46.00008466603501 56.0 17.0 4986.322344322344 0.5027038929821699 1497.0 0.0 1497.0 
48.00040810620521 56.0 17.0 4986.4297924297925 0.502675432483228 1497.0 0.0 1497.0 
50.00033353340315 56.0 17.0 4986.236874236874 0.5027061517519268 1497.0 0.0 1497.0 
52.00040810620521 56.0 17.0 4986.417582417583 0.5026880815938687 1497.0 0.0 1497.0 
54.00040810620521 56.0 17.0 4986.310134310134 0.5026925991333833 1497.0 0.0 1497.0 
56.00008466603501 56.0 17.0 4986.3638583638585 0.5026835640543539 1497.0 0.0 1497.0 
58.00040810620521 56.0 17.0 4986.283272283273 0.5027034412282183 1497.0 0.0 1497.0 
60.00033353340315 56.0 17.0 4986.410256410257 0.5026749807292764 1497.0 0.0 1497.0 
62.00027805237796 56.0 17.0 414.0341880341879 0.48464302230577266 17.0 0.0 5.0 
64.00027805237795 56.0 17.0 414.0341880341879 0.4851629911038946 12.0 0.0 5.0 
66.00008466603501 56.0 17.0 414.0341880341879 0.48516299110389516 12.0 0.0 5.0 
68.00027805237796 56.0 17.0 414.0341880341879 0.48516299110389516 8.0 0.0 5.0 
70.00027805237796 56.0 17.0 414.0341880341879 0.48516299110389516 7.0 0.0 5.0 
72.00027805237796 56.0 17.0 414.0341880341879 0.48516299110389516 5.0 0.0 5.0 
74.00027805237796 56.0 17.0 414.0341880341879 0.48516299110389516 5.0 0.0 5.0 
76.00008466603501 56.0 17.0 414.0341880341879 0.48516299110389516 5.0 0.0 5.0 
78.00027805237796 56.0 17.0 414.0341880341879 0.48516299110389516 5.0 0.0 5.0 
80.00027805237796 56.0 17.0 414.0341880341879 0.48516299110389516 5.0 0.0 5.0 
82.00027805237796 56.0 17.0 414.0341880341879 0.48516299110389516 5.0 0.0 5.0 
84.00027805237796 56.0 17.0 414.0341880341879 0.48516299110389516 5.0 0.0 5.0 
86.00008466603501 56.0 17.0 414.0341880341879 0.48516299110389516 5.0 0.0 5.0 
88.00027805237796 56.0 17.0 414.0341880341879 0.48516299110389516 5.0 0.0 5.0 
90.00027805237796 56.0 17.0 414.0341880341879 0.48516299110389516 5.0 0.0 5.0 
92.00027805237796 56.0 17.0 414.0341880341879 0.48516299110389516 5.0 0.0 5.0 
94.00027805237796 56.0 17.0 414.0341880341879 0.48516299110389516 5.0 0.0 5.0 
96.00008466603501 56.0 17.0 414.0341880341879 0.48516299110389516 5.0 0.0 5.0 
98.00027805237796 56.0 17.0 414.0341880341879 0.48516299110389516 5.0 0.0 5.0 
100.00027805237796 56.0 17.0 414.0341880341879 0.48516299110389516 5.0 0.0 5.0 
102.00027805237796 56.0 17.0 414.0341880341879 0.48516299110389516 5.0 0.0 5.0 
104.00027805237796 56.0 17.0 414.0341880341879 0.48516299110389516 5.0 0.0 5.0 
106.00008466603501 56.0 17.0 414.0341880341879 0.48516299110389516 5.0 0.0 5.0 
108.00027805237796 56.0 17.0 414.0341880341879 0.48516299110389516 5.0 0.0 5.0 
110.00027805237796 56.0 17.0 414.0341880341879 0.48516299110389516 5.0 0.0 5.0 
112.00027805237796 56.0 17.0 414.0341880341879 0.48516299110389516 5.0 0.0 5.0 
114.00027805237796 56.0 17.0 414.0341880341879 0.48516299110389516 5.0 0.0 5.0 
116.00008466603501 56.0 17.0 414.0341880341879 0.48516299110389516 5.0 0.0 5.0 
118.00027805237796 56.0 17.0 414.0341880341879 0.48516299110389516 5.0 0.0 5.0 
120.00027805237796 56.0 17.0 414.0341880341879 0.48516299110389516 5.0 0.0 5.0 
122.00027805237796 56.0 17.0 414.0341880341879 0.48516299110389516 5.0 0.0 5.0 
124.00027805237796 56.0 17.0 414.0341880341879 0.48516299110389516 5.0 0.0 5.0 
126.00008466603501 56.0 17.0 414.0341880341879 0.48516299110389516 5.0 0.0 5.0 
128.00027805237795 56.0 17.0 414.0341880341879 0.48516299110389516 5.0 0.0 5.0 
130.00027805237795 56.0 17.0 414.0341880341879 0.4851629911039062 5.0 0.0 5.0 
132.00027805237795 58.0 18.0 414.0341880341879 0.48606779762604213 5.0 0.0 5.0 
134.00027805237795 58.0 18.0 414.0341880341879 0.48606779762604213 5.0 0.0 5.0 
136.000084666035 58.0 18.0 414.0341880341879 0.48606779762604213 5.0 0.0 5.0 
138.00027805237795 58.0 18.0 414.0341880341879 0.48606779762604213 5.0 0.0 5.0 
140.00027805237795 58.0 18.0 414.0341880341879 0.48606779762604213 5.0 0.0 5.0 
142.00027805237795 58.0 18.0 414.0341880341879 0.5860677976260421 5.0 0.0 5.0 
144.00027805237795 56.0 17.0 414.0341880341879 0.4851629911039062 5.0 0.0 5.0 
146.000084666035 56.0 17.0 414.0341880341879 0.4851629911039062 5.0 0.0 5.0 
148.00027805237795 56.0 17.0 414.0341880341879 0.4851629911039062 5.0 0.0 5.0 
150.00027805237795 56.0 17.0 414.0341880341879 0.4851629911039062 5.0 0.0 5.0 
152.00027805237795 56.0 17.0 414.0341880341879 0.4851629911039062 5.0 0.0 5.0 
154.00027805237795 56.0 17.0 414.0341880341879 0.4851629911039062 5.0 0.0 5.0 
156.000084666035 56.0 17.0 414.0341880341879 0.4851629911039062 5.0 0.0 5.0 
158.00027805237795 56.0 17.0 414.0341880341879 0.4851629911039062 5.0 0.0 5.0 
160.00027805237795 57.0 18.0 414.0341880341879 0.4886428478817339 5.0 0.0 5.0 
162.00027805237795 66.0 18.0 416.84737484737485 0.4985231136619358 6.0 0.0 6.0 
164.00027805237795 66.0 18.0 416.84737484737485 0.49851753060620524 6.0 0.0 6.0 
166.000084666035 66.0 18.0 416.84737484737485 0.49851753060620524 6.0 0.0 6.0 
168.00027805237795 66.0 18.0 416.84737484737485 0.49851753060620524 6.0 0.0 6.0 
170.00027805237795 67.0 18.0 416.8522588522589 0.49473592634781915 6.0 0.0 6.0 
172.00027805237795 68.0 18.0 416.84737484737485 0.4957163656510083 6.0 0.0 6.0 
174.00027805237795 68.0 18.0 416.84737484737485 0.4957215997657567 6.0 0.0 6.0 
176.000084666035 68.0 18.0 416.84737484737485 0.4957215997657567 6.0 0.0 6.0 
178.00027805237795 68.0 18.0 416.84737484737485 0.4957215997657567 6.0 0.0 6.0 
180.00027805237795 68.0 18.0 416.8522588522589 0.4957215997657567 6.0 0.0 6.0 
182.00027805237795 68.0 18.0 416.84737484737485 0.4957163656510083 6.0 0.0 6.0 
184.00027805237795 68.0 18.0 416.84737484737485 0.4957215997657567 6.0 0.0 6.0 
186.000084666035 68.0 18.0 416.84737484737485 0.4957215997657567 6.0 0.0 6.0 
188.00027805237795 68.0 18.0 416.84737484737485 0.4957215997657567 6.0 0.0 6.0 
190.00027805237795 68.0 18.0 416.8522588522589 0.4957215997657567 6.0 0.0 6.0 
192.00027805237795 68.0 18.0 416.84737484737485 0.4957163656510083 6.0 0.0 6.0 
194.00027805237795 68.0 18.0 416.84737484737485 0.4957215997657567 6.0 0.0 6.0 
196.000084666035 68.0 18.0 416.84737484737485 0.4957215997657567 6.0 0.0 6.0 
198.00027805237795 68.0 18.0 416.84737484737485 0.4957215997657567 6.0 0.0 6.0 
200.00027805237795 68.0 18.0 416.8522588522589 0.4957215997657567 6.0 0.0 6.0 
202.00027805237795 68.0 18.0 416.84737484737485 0.4957163656510083 6.0 0.0 6.0 
204.00027805237795 68.0 18.0 416.84737484737485 0.4957215997657567 6.0 0.0 6.0 
206.000084666035 68.0 18.0 416.84737484737485 0.4957215997657567 6.0 0.0 6.0 
208.00027805237795 68.0 18.0 416.84737484737485 0.4957215997657567 6.0 0.0 6.0 
210.00027805237795 68.0 18.0 416.8522588522589 0.4957215997657567 6.0 0.0 6.0 
212.00027805237795 68.0 18.0 416.84737484737485 0.4957163656510083 6.0 0.0 6.0 
214.00027805237795 68.0 18.0 416.84737484737485 0.4957215997657567 6.0 0.0 6.0 
216.000084666035 68.0 18.0 416.84737484737485 0.4957215997657567 6.0 0.0 6.0 
218.00027805237795 68.0 18.0 416.84737484737485 0.4957215997657567 6.0 0.0 6.0 
220.00027805237795 68.0 18.0 416.8522588522589 0.4957215997657567 6.0 0.0 6.0 
222.00027805237795 68.0 18.0 416.84737484737485 0.4957163656510083 6.0 0.0 6.0 
224.00027805237795 68.0 18.0 416.84737484737485 0.4957215997657567 6.0 0.0 6.0 
226.000084666035 68.0 18.0 416.84737484737485 0.4957215997657567 6.0 0.0 6.0 
228.00027805237795 68.0 18.0 416.84737484737485 0.4957215997657567 6.0 0.0 6.0 
230.00027805237795 68.0 18.0 416.8522588522589 0.4957215997657567 6.0 0.0 6.0 
232.00027805237795 68.0 18.0 416.84737484737485 0.4957163656510083 6.0 0.0 6.0 
234.00027805237795 68.0 18.0 416.84737484737485 0.4957215997657567 6.0 0.0 6.0 
236.000084666035 68.0 18.0 416.84737484737485 0.4957215997657567 6.0 0.0 6.0 
238.00027805237795 68.0 18.0 416.84737484737485 0.4957215997657567 6.0 0.0 6.0 
240.00027805237795 68.0 18.0 416.8522588522589 0.4957215997657567 6.0 0.0 6.0 
242.00027805237795 68.0 18.0 416.84737484737485 0.4957163656510083 6.0 0.0 6.0 
244.00027805237795 68.0 18.0 416.84737484737485 0.4957215997657567 6.0 0.0 6.0 
246.000084666035 68.0 18.0 416.84737484737485 0.4957215997657567 6.0 0.0 6.0 
248.00027805237795 68.0 18.0 416.84737484737485 0.4957215997657567 6.0 0.0 6.0 
250.00027805237795 68.0 18.0 416.8522588522589 0.49599435530095093 6.0 0.0 6.0 
252.00027805237795 67.0 18.0 416.84737484737485 0.6339948478016609 6.0 0.0 6.0 
254.00027805237795 58.0 17.0 416.84004884004884 0.47563054509306923 6.0 0.0 6.0 
256.00008466603504 60.0 18.0 416.8351648351648 0.4855001416087265 6.0 0.0 6.0 
258.00027805237795 60.0 18.0 416.8351648351648 0.4855001416087098 6.0 0.0 6.0 
260.00027805237795 60.0 18.0 416.8351648351648 0.4855001416087098 6.0 0.0 6.0 
262.00027805237795 60.0 18.0 416.8351648351648 0.4855001416087098 6.0 0.0 6.0 
264.00027805237795 60.0 18.0 416.8351648351648 0.4855001416087098 6.0 0.0 6.0 
266.00008466603504 62.0 19.0 416.8351648351648 0.4758047279965778 6.0 0.0 6.0 
268.00027805237795 64.0 19.0 416.8351648351648 0.48581481541321403 6.0 0.0 6.0 
270.00027805237795 64.0 19.0 416.8351648351648 0.48581481541321403 6.0 0.0 6.0 
272.00027805237795 64.0 19.0 416.8351648351648 0.48581481541321403 6.0 0.0 6.0 
274.00027805237795 64.0 19.0 416.8351648351648 0.48581481541321403 6.0 0.0 6.0 
276.00008466603504 65.0 20.0 416.8351648351648 0.5065885370478095 6.0 0.0 6.0 
278.00027805237795 64.0 19.0 416.8351648351648 0.557928565329753 6.0 0.0 6.0 
280.00027805237795 62.0 19.0 416.8351648351648 0.486354009178207 6.0 0.0 6.0 
282.00027805237795 62.0 19.0 416.8351648351648 0.486354009178207 6.0 0.0 6.0 
284.00027805237795 62.0 19.0 416.8351648351648 0.486354009178207 6.0 0.0 6.0 
286.00008466603504 62.0 19.0 416.8351648351648 0.486354009178207 6.0 0.0 6.0 
288.00027805237795 62.0 19.0 416.8351648351648 0.486354009178207 6.0 0.0 6.0 
290.00027805237795 62.0 19.0 416.8351648351648 0.486354009178207 6.0 0.0 6.0 
292.00027805237795 62.0 19.0 416.8351648351648 0.486354009178207 6.0 0.0 6.0 
294.00027805237795 66.0 20.0 416.8351648351648 0.4866223325083829 6.0 0.0 6.0 
296.00008466603504 66.0 20.0 416.8351648351648 0.4866223325083829 6.0 0.0 6.0 
298.00027805237795 66.0 20.0 416.8351648351648 0.4866223325083829 6.0 0.0 6.0 
300.00027805237795 66.0 20.0 416.8351648351648 0.4866223325083829 6.0 0.0 6.0 
302.00027805237795 66.0 20.0 416.8351648351648 0.4866223325083829 6.0 0.0 6.0 
304.00027805237795 74.0 21.0 419.6434676434676 0.5736487141264478 7.0 0.0 7.0 
306.00008466603504 74.0 20.0 419.6483516483516 0.4906748239216151 7.0 0.0 7.0 
308.00027805237795 74.0 20.0 419.6483516483516 0.4906771956298609 7.0 0.0 7.0 
310.00027805237795 74.0 20.0 419.6483516483516 0.4906771956298609 7.0 0.0 7.0 
312.00027805237795 74.0 20.0 419.6483516483516 0.4906771956298609 7.0 0.0 7.0 
314.00027805237795 74.0 20.0 416.85714285714283 0.49067245221337014 6.0 0.0 6.0 
316.00008466603504 74.0 20.0 416.84249084249075 0.4906748239216151 6.0 0.0 6.0 
318.00027805237795 74.0 20.0 416.84249084249075 0.4906819390463525 6.0 0.0 6.0 
320.00027805237795 74.0 20.0 416.84249084249075 0.4906819390463525 6.0 0.0 6.0 
322.00027805237795 74.0 20.0 416.84249084249075 0.4906819390463525 6.0 0.0 6.0 
324.00027805237795 74.0 20.0 416.85225885225884 0.5601715570333387 6.0 0.0 6.0 
326.00008466603504 64.0 19.0 416.85225885225884 0.6758840434528732 6.0 0.0 6.0 
328.00027805237795 58.0 18.0 416.84004884004884 0.48606779762601937 6.0 0.0 6.0 
330.00027805237795 58.0 18.0 416.83516483516485 0.48606779762601937 6.0 0.0 6.0 
332.00027805237795 58.0 18.0 416.83516483516485 0.48606779762601937 6.0 0.0 6.0 
334.00027805237795 58.0 18.0 416.83516483516485 0.48606779762601937 6.0 0.0 6.0 
336.00008466603504 58.0 18.0 416.83516483516485 0.48606779762601937 6.0 0.0 6.0 
338.00027805237795 58.0 18.0 416.83516483516485 0.48606779762601937 6.0 0.0 6.0 
340.00027805237795 58.0 18.0 416.83516483516485 0.48606779762601937 6.0 0.0 6.0 
342.00027805237795 58.0 18.0 416.83516483516485 0.48606779762601937 6.0 0.0 6.0 
344.00027805237795 58.0 18.0 416.83516483516485 0.48606779762601937 6.0 0.0 6.0 
346.00008466603504 58.0 18.0 416.83516483516485 0.5194011309593527 6.0 0.0 6.0 
348.00027805237795 57.0 17.0 416.83516483516485 0.5673402137319629 6.0 0.0 6.0 
350.00027805237795 56.0 17.0 416.83516483516485 0.4851629911038839 6.0 0.0 6.0 
352.00027805237795 56.0 17.0 416.83516483516485 0.4851629911038839 6.0 0.0 6.0 
354.00027805237795 56.0 17.0 416.83516483516485 0.4851629911038839 6.0 0.0 6.0 
356.00008466603504 56.0 17.0 416.83516483516485 0.4851629911038839 6.0 0.0 6.0 
358.00027805237795 56.0 17.0 416.83516483516485 0.4851629911038839 6.0 0.0 6.0 
360.00027805237795 56.0 17.0 416.83516483516485 0.4851629911038839 6.0 0.0 6.0 
362.00027805237795 56.0 17.0 416.83516483516485 0.4851629911038839 6.0 0.0 6.0 
364.00027805237795 56.0 17.0 416.83516483516485 0.4851629911038839 6.0 0.0 6.0 
366.00008466603504 56.0 17.0 416.83516483516485 0.4851629911038839 6.0 0.0 6.0 
368.00027805237795 56.0 17.0 416.83516483516485 0.4851629911038839 6.0 0.0 6.0 
370.00027805237795 56.0 17.0 416.83516483516485 0.4851629911038839 6.0 0.0 6.0 
372.00027805237795 56.0 17.0 416.83516483516485 0.4851629911038839 6.0 0.0 6.0 
374.00027805237795 56.0 17.0 416.83516483516485 0.4851629911038839 6.0 0.0 6.0 
376.00008466603504 56.0 17.0 416.83516483516485 0.4851629911038839 6.0 0.0 6.0 
378.00027805237795 56.0 17.0 416.83516483516485 0.4851629911038839 6.0 0.0 6.0 
380.00027805237795 56.0 17.0 416.83516483516485 0.4851629911038839 6.0 0.0 6.0 
382.00027805237795 56.0 17.0 416.83516483516485 0.4851629911038839 6.0 0.0 6.0 
384.00027805237795 56.0 17.0 416.83516483516485 0.4851629911038839 6.0 0.0 6.0 
386.00008466603504 56.0 17.0 414.0341880341879 0.4851629911038839 5.0 0.0 5.0 
388.00027805237795 56.0 17.0 414.0341880341879 0.4851629911038839 5.0 0.0 5.0 
390.00027805237795 56.0 17.0 414.0341880341879 0.4851629911038839 5.0 0.0 5.0 
392.00027805237795 56.0 17.0 414.0341880341879 0.4851629911038839 5.0 0.0 5.0 
394.00027805237795 56.0 17.0 414.0341880341879 0.4851629911038839 5.0 0.0 5.0 
396.00008466603504 57.0 18.0 414.0341880341879 0.472840090153549 5.0 0.0 5.0 
398.00027805237795 58.0 18.0 414.0341880341879 0.48606779762601937 5.0 0.0 5.0 
400.00027805237795 58.0 18.0 414.0341880341879 0.48606779762601937 5.0 0.0 5.0 
402.00027805237795 58.0 18.0 414.0341880341879 0.48606779762601937 5.0 0.0 5.0 
404.00027805237795 58.0 18.0 414.0341880341879 0.48606779762601937 5.0 0.0 5.0 
406.00008466603504 58.0 18.0 414.0341880341879 0.5194011309593527 5.0 0.0 5.0 
408.00027805237795 57.0 17.0 414.0341880341879 0.5673874160426349 5.0 0.0 5.0 
410.00027805237795 56.0 17.0 414.0341880341879 0.4851629911038839 5.0 0.0 5.0 
412.00027805237795 56.0 17.0 414.0341880341879 0.4851629911038839 5.0 0.0 5.0 
414.00027805237795 56.0 17.0 414.0341880341879 0.4851629911038839 5.0 0.0 5.0 
416.00008466603504 57.0 17.0 414.0341880341879 0.46960432311270617 5.0 0.0 5.0 
418.00027805237795 58.0 18.0 414.0341880341879 0.48606779762601937 5.0 0.0 5.0 
420.00027805237795 58.0 18.0 414.0341880341879 0.48606779762601937 5.0 0.0 5.0 
422.00027805237795 58.0 18.0 414.0341880341879 0.48606779762601937 5.0 0.0 5.0 
424.00027805237795 58.0 18.0 414.0341880341879 0.48606779762601937 5.0 0.0 5.0 
426.00008466603504 58.0 18.0 414.0341880341879 0.48606779762601937 5.0 0.0 5.0 
428.00027805237795 58.0 18.0 414.0341880341879 0.48606779762601937 5.0 0.0 5.0 
430.00027805237795 58.0 18.0 414.0341880341879 0.48606779762601937 5.0 0.0 5.0 
432.00027805237795 58.0 18.0 414.0341880341879 0.48606779762601937 5.0 0.0 5.0 
434.00027805237795 58.0 18.0 414.0341880341879 0.48606779762601937 5.0 0.0 5.0 
436.00008466603504 58.0 18.0 414.0341880341879 0.48606779762601937 5.0 0.0 5.0 
438.00027805237795 58.0 18.0 414.0341880341879 0.48606779762601937 5.0 0.0 5.0 
440.00027805237795 58.0 18.0 414.0341880341879 0.48606779762601937 5.0 0.0 5.0 
442.00027805237795 58.0 18.0 414.0341880341879 0.48606779762601937 5.0 0.0 5.0 
444.00027805237795 58.0 18.0 414.0341880341879 0.48606779762601937 5.0 0.0 5.0 
446.00008466603504 58.0 18.0 414.0341880341879 0.48606779762601937 5.0 0.0 5.0 
448.00027805237795 58.0 18.0 414.0341880341879 0.48606779762601937 5.0 0.0 5.0 
450.00027805237795 58.0 18.0 414.0341880341879 0.48606779762601937 5.0 0.0 5.0 
452.00027805237795 58.0 18.0 414.0341880341879 0.48606779762601937 5.0 0.0 5.0 
454.00027805237795 58.0 18.0 414.0341880341879 0.48606779762601937 5.0 0.0 5.0 
456.00008466603504 58.0 18.0 414.0341880341879 0.48606779762601937 5.0 0.0 5.0 
458.00027805237795 58.0 18.0 414.0341880341879 0.48606779762601937 5.0 0.0 5.0 
460.00027805237795 58.0 18.0 414.0341880341879 0.48606779762601937 5.0 0.0 5.0 
462.00027805237795 58.0 18.0 414.0341880341879 0.48606779762601937 5.0 0.0 5.0 
464.00027805237795 58.0 18.0 414.0341880341879 0.48606779762601937 5.0 0.0 5.0 
466.00008466603504 58.0 18.0 414.0341880341879 0.48606779762601937 5.0 0.0 5.0 
468.00027805237795 58.0 18.0 414.0341880341879 0.48606779762601937 5.0 0.0 5.0 
470.00027805237795 58.0 18.0 414.0341880341879 0.48606779762601937 5.0 0.0 5.0 
472.00027805237795 59.0 18.0 414.0341880341879 0.48196301492914545 5.0 0.0 5.0 
474.00027805237795 60.0 19.0 414.0341880341879 0.48685950333288797 5.0 0.0 5.0 
476.00008466603504 60.0 19.0 414.0341880341879 0.48685950333288797 5.0 0.0 5.0 
478.00027805237795 60.0 19.0 414.0341880341879 0.48685950333288797 5.0 0.0 5.0 
480.00027805237795 60.0 19.0 414.0341880341879 0.48685950333288797 5.0 0.0 5.0 
482.00027805237795 60.0 19.0 414.0341880341879 0.48685950333288797 5.0 0.0 5.0 
484.00027805237795 60.0 19.0 414.0341880341879 0.48685950333288797 5.0 0.0 5.0 
486.00008466603504 60.0 19.0 414.0341880341879 0.48685950333288797 5.0 0.0 5.0 
488.00027805237795 62.0 20.0 414.0341880341879 0.4875580671918896 5.0 0.0 5.0 
490.00027805237795 62.0 20.0 414.0341880341879 0.4875580671918896 5.0 0.0 5.0 
492.00027805237795 62.0 20.0 414.0341880341879 0.516969831897772 5.0 0.0 5.0 
494.00027805237795 61.0 20.0 414.0341880341879 0.5520652954697369 5.0 0.0 5.0 
496.00008466603504 60.0 19.0 414.0341880341879 0.48685950333288797 5.0 0.0 5.0 
498.00027805237795 60.0 19.0 414.0341880341879 0.580609503332888 5.0 0.0 5.0 
500.00027805237795 58.0 18.0 414.0341880341879 0.48606779762601937 5.0 0.0 5.0 
502.00027805237795 58.0 18.0 414.0341880341879 0.48606779762601937 5.0 0.0 5.0 
504.00027805237795 58.0 18.0 414.0341880341879 0.48606779762601937 5.0 0.0 5.0 
506.00008466603504 58.0 18.0 414.0341880341879 0.48606779762601937 5.0 0.0 5.0 
508.00027805237795 58.0 18.0 414.0341880341879 0.48606779762601937 5.0 0.0 5.0 
510.00027805237795 58.0 18.0 414.0341880341879 0.48606779762601937 5.0 0.0 5.0 
512.0002780523779 58.0 18.0 414.0341880341879 0.48606779762601937 5.0 0.0 5.0 
514.0002780523779 58.0 18.0 414.0341880341879 0.4860677976260639 5.0 0.0 5.0 
516.000084666035 60.0 19.0 414.0341880341879 0.5181095033329333 5.0 0.0 5.0 
518.0002780523779 59.0 19.0 414.0341880341879 0.5659852415256136 5.0 0.0 5.0 
520.0002780523779 58.0 18.0 414.0341880341879 0.48606779762606395 5.0 0.0 5.0 
522.0002780523779 58.0 18.0 414.0341880341879 0.48606779762606395 5.0 0.0 5.0 
524.0002780523779 58.0 18.0 414.0341880341879 0.48606779762606395 5.0 0.0 5.0 
526.000084666035 58.0 18.0 414.0341880341879 0.5527344642927305 5.0 0.0 5.0 
528.0002780523779 56.0 17.0 414.0341880341879 0.4851629911039275 5.0 0.0 5.0 
530.0002780523779 56.0 17.0 414.0341880341879 0.4851629911039275 5.0 0.0 5.0 
532.0002780523779 56.0 17.0 414.0341880341879 0.4851629911039275 5.0 0.0 5.0 
534.0002780523779 56.0 17.0 414.0341880341879 0.4851629911039275 5.0 0.0 5.0 
536.000084666035 56.0 17.0 414.0341880341879 0.4851629911039275 5.0 0.0 5.0 
538.0002780523779 56.0 17.0 414.0341880341879 0.4851629911039275 5.0 0.0 5.0 
540.0002780523779 56.0 17.0 414.0341880341879 0.4851629911039275 5.0 0.0 5.0 
542.0002780523779 56.0 17.0 414.0341880341879 0.4851629911039275 5.0 0.0 5.0 
544.0002780523779 56.0 17.0 414.0341880341879 0.4851629911039275 5.0 0.0 5.0 
546.000084666035 56.0 17.0 414.0341880341879 0.4851629911039275 5.0 0.0 5.0 
548.0002780523779 56.0 17.0 414.0341880341879 0.4851629911039275 5.0 0.0 5.0 
550.0002780523779 56.0 17.0 414.0341880341879 0.4851629911039275 5.0 0.0 5.0 
552.0002780523779 56.0 17.0 414.0341880341879 0.4851629911039275 5.0 0.0 5.0 
554.0002780523779 56.0 17.0 414.0341880341879 0.4851629911039275 5.0 0.0 5.0 
556.000084666035 56.0 17.0 414.0341880341879 0.4851629911039275 5.0 0.0 5.0 
558.0002780523779 56.0 17.0 414.0341880341879 0.4851629911039275 5.0 0.0 5.0 
560.0002780523779 56.0 17.0 414.0341880341879 0.4851629911039275 5.0 0.0 5.0 
562.0002780523779 56.0 17.0 414.0341880341879 0.4851629911039275 5.0 0.0 5.0 
564.0002780523779 56.0 17.0 414.0341880341879 0.4851629911039275 5.0 0.0 5.0 
566.000084666035 56.0 17.0 414.0341880341879 0.4851629911039275 5.0 0.0 5.0 
568.0002780523779 56.0 17.0 414.0341880341879 0.4851629911039275 5.0 0.0 5.0 
570.0002780523779 56.0 17.0 414.0341880341879 0.4851629911039275 5.0 0.0 5.0 
572.0002780523779 56.0 17.0 414.0341880341879 0.4851629911039275 5.0 0.0 5.0 
574.0002780523779 56.0 17.0 414.0341880341879 0.4851629911039275 5.0 0.0 5.0 
576.000084666035 56.0 17.0 414.0341880341879 0.4851629911039275 5.0 0.0 5.0 
578.0002780523779 56.0 17.0 414.0341880341879 0.4851629911039275 5.0 0.0 5.0 
580.0002780523779 56.0 17.0 414.0341880341879 0.4851629911039275 5.0 0.0 5.0 
582.0002780523779 56.0 17.0 414.0341880341879 0.4851629911039275 5.0 0.0 5.0 
584.0002780523779 56.0 17.0 414.0341880341879 0.4851629911039275 5.0 0.0 5.0 
586.000084666035 56.0 17.0 414.0341880341879 0.4851629911039275 5.0 0.0 5.0 
588.0002780523779 56.0 17.0 414.0341880341879 0.4851629911039275 5.0 0.0 5.0 
590.0002780523779 56.0 17.0 414.0341880341879 0.4851629911039275 5.0 0.0 5.0 
592.0002780523779 56.0 17.0 414.0341880341879 0.4851629911039275 5.0 0.0 5.0 
594.0002780523779 56.0 17.0 414.0341880341879 0.4851629911039275 5.0 0.0 5.0 
596.000084666035 56.0 17.0 414.0341880341879 0.4851629911039275 5.0 0.0 5.0 
598.0002780523779 56.0 17.0 414.0341880341879 0.4851629911039275 5.0 0.0 5.0 
600.0002780523779 56.0 17.0 414.0341880341879 0.4851629911039275 5.0 0.0 5.0 
602.0002780523779 56.0 17.0 414.0341880341879 0.4851629911039275 5.0 0.0 5.0 
604.0002780523779 56.0 17.0 414.0341880341879 0.4851629911039275 5.0 0.0 5.0 
606.000084666035 56.0 17.0 414.0341880341879 0.4851629911039275 5.0 0.0 5.0 
608.0002780523779 56.0 17.0 414.0341880341879 0.4851629911039275 5.0 0.0 5.0 
610.0002780523779 56.0 17.0 414.0341880341879 0.4851629911039275 5.0 0.0 5.0 
612.0002780523779 56.0 17.0 414.0341880341879 0.4851629911039275 5.0 0.0 5.0 
614.0002780523779 56.0 17.0 414.0341880341879 0.4851629911039275 5.0 0.0 5.0 
616.000084666035 56.0 17.0 414.0341880341879 0.4851629911039275 5.0 0.0 5.0 
618.0002780523779 56.0 17.0 414.0341880341879 0.4851629911039275 5.0 0.0 5.0 
620.0002780523779 56.0 17.0 414.0341880341879 0.4851629911039275 5.0 0.0 5.0 
622.0002780523779 56.0 17.0 414.0341880341879 0.4851629911039275 5.0 0.0 5.0 
624.0002780523779 56.0 17.0 414.0341880341879 0.4851629911039275 5.0 0.0 5.0 
626.000084666035 56.0 17.0 414.0341880341879 0.4851629911039275 5.0 0.0 5.0 
628.0002780523779 56.0 17.0 414.0341880341879 0.4851629911039275 5.0 0.0 5.0 
630.0002780523779 56.0 17.0 414.0341880341879 0.4851629911039275 5.0 0.0 5.0 
632.0002780523779 56.0 17.0 414.0341880341879 0.4851629911039275 5.0 0.0 5.0 
634.0002780523779 56.0 17.0 414.0341880341879 0.4851629911039275 5.0 0.0 5.0 
636.000084666035 56.0 17.0 414.0341880341879 0.4851629911039275 5.0 0.0 5.0 
638.0002780523779 56.0 17.0 414.0341880341879 0.4851629911039275 5.0 0.0 5.0 
640.0002780523779 56.0 17.0 414.0341880341879 0.4851629911039275 5.0 0.0 5.0 
642.0002780523779 56.0 17.0 414.0341880341879 0.4851629911039275 5.0 0.0 5.0 
644.0002780523779 58.0 18.0 414.0341880341879 0.48606779762606395 5.0 0.0 5.0 
646.000084666035 58.0 18.0 414.0341880341879 0.48606779762606395 5.0 0.0 5.0 
648.0002780523779 58.0 18.0 414.0341880341879 0.48606779762606395 5.0 0.0 5.0 
650.0002780523779 58.0 18.0 414.0341880341879 0.48606779762606395 5.0 0.0 5.0 
652.0002780523779 60.0 19.0 414.0341880341879 0.48685950333293326 5.0 0.0 5.0 
654.0002780523779 60.0 19.0 414.0341880341879 0.5806095033329333 5.0 0.0 5.0 
656.000084666035 58.0 18.0 414.0341880341879 0.48606779762606395 5.0 0.0 5.0 
658.0002780523779 58.0 18.0 414.0341880341879 0.48606779762606395 5.0 0.0 5.0 
660.0002780523779 58.0 18.0 414.0341880341879 0.48606779762606395 5.0 0.0 5.0 
662.0002780523779 58.0 18.0 414.0341880341879 0.48606779762606395 5.0 0.0 5.0 
664.0002780523779 58.0 18.0 414.0341880341879 0.48606779762606395 5.0 0.0 5.0 
#####################################################################
# End of data export. Simulation finished at: 2019-03-09T09:15+0000 #
#####################################################################
