#####################################################################
# Alchemist log file - simulation started at: 2019-03-12T01:49+0000 #
#####################################################################
# seed = 4.0, bandwidth = 1.0E8, accessPointCount = 141.4213562373095, baserange = 100.0
#
# The columns have the following meaning: 
# time neighbor_count[Sum] <value>@neighbor_count[Sum] packet_size[Mean] mean_delay[Mean] crowd[Sum] overcrowded[Sum] risk[Sum] 
0.0 NaN NaN NaN NaN NaN NaN NaN 
2.0000042429967895 286.0 105.0 4986.5665445665445 0.4836141726909023 1497.0 0.0 1497.0 
4.0000042429967895 427.0 105.0 4987.081807081807 0.482837119721085 1497.0 0.0 1497.0 
6.0000042429967895 518.0 105.0 4986.920634920635 0.5033505870707141 1497.0 0.0 1497.0 
8.00000424299679 610.0 106.0 4987.199023199023 0.504961415320701 1497.0 0.0 1497.0 
10.00000424299679 654.0 106.0 4987.015873015873 0.5112793140592338 1497.0 0.0 1497.0 
12.00000424299679 654.0 105.0 4987.089133089133 0.5062833663155775 1495.0 2.0 1495.0 
14.00000424299679 654.0 105.0 4986.930402930403 0.5062834564702462 1495.0 2.0 1495.0 
16.000004242996788 654.0 105.0 4987.067155067155 0.5062833988059403 1494.0 3.0 1494.0 
18.000004242996788 654.0 105.0 4986.876678876679 0.506283524080186 1493.0 4.0 1493.0 
20.000004242996788 654.0 105.0 4987.008547008547 0.5062834542009831 1493.0 4.0 1493.0 
22.000004242996788 654.0 105.0 4986.864468864469 0.5062835314985636 1493.0 4.0 1493.0 
24.000004242996788 654.0 105.0 4987.023199023199 0.5062834807394745 1493.0 4.0 1493.0 
26.000004242996788 656.0 105.0 4986.857142857143 0.5063648432787933 1493.0 4.0 1493.0 
28.000004242996788 656.0 105.0 4987.020757020757 0.5063647806909706 1493.0 4.0 1493.0 
30.000004242996788 664.0 105.0 4986.869352869353 0.5100643936869688 1493.0 4.0 1493.0 
32.00000424299679 668.0 106.0 4987.020757020757 0.5172834935611692 1493.0 4.0 1493.0 
34.00000424299679 666.0 105.0 4986.879120879121 0.5064184319939506 1493.0 4.0 1493.0 
36.00000424299679 666.0 105.0 4987.052503052503 0.506418358599769 1493.0 4.0 1493.0 
38.00000424299679 666.0 105.0 4986.822954822955 0.5064184439605165 1493.0 4.0 1493.0 
40.00000424299679 666.0 105.0 4986.969474969475 0.5064183768225444 1493.0 4.0 1493.0 
42.00000424299679 666.0 105.0 4986.822954822955 0.5064184598566999 1493.0 4.0 1493.0 
44.00000424299679 666.0 105.0 4986.952380952381 0.5064183890295316 1493.0 4.0 1493.0 
46.00000424299679 666.0 105.0 4986.810744810745 0.5064184455326425 1493.0 4.0 1493.0 
48.00000424299679 666.0 105.0 4986.9670329670325 0.5064184090146857 1493.0 4.0 1493.0 
50.00000424299679 666.0 105.0 4986.793650793651 0.5064184524679791 1493.0 4.0 1493.0 
52.00000424299679 666.0 105.0 4986.964590964591 0.5064183930314996 1493.0 4.0 1493.0 
54.00000424299679 666.0 105.0 4986.822954822955 0.5064184598566999 1493.0 4.0 1493.0 
56.00000424299679 666.0 105.0 4986.957264957265 0.5064183837179941 1493.0 4.0 1493.0 
58.00000424299679 666.0 105.0 4986.805860805861 0.50641845084418 1493.0 4.0 1493.0 
60.00000424299679 668.0 106.0 4984.180708180708 0.5265550045696106 1493.0 4.0 1493.0 
62.00000424299679 666.0 105.0 512.4444444444438 0.505840935832396 83.0 4.0 36.0 
64.0000042429968 666.0 105.0 512.4151404151398 0.5058470801433874 57.0 9.0 31.0 
66.0000042429968 666.0 105.0 512.42735042735 0.5058470981267247 48.0 12.0 28.0 
68.0000042429968 666.0 105.0 512.354090354091 0.5058471527024836 46.0 10.0 30.0 
70.0000042429968 666.0 105.0 512.4029304029298 0.5058471517338109 45.0 10.0 30.0 
72.0000042429968 666.0 105.0 512.351648351649 0.5058472116674885 45.0 10.0 30.0 
74.0000042429968 666.0 105.0 512.3882783882776 0.5058471602221544 45.0 10.0 30.0 
76.0000042429968 666.0 105.0 512.354090354091 0.5058471857507653 46.0 10.0 30.0 
78.0000042429968 676.0 106.0 512.3980463980457 0.5059532155016845 47.0 10.0 30.0 
80.0000042429968 678.0 107.0 512.3418803418808 0.5194738062685023 47.0 10.0 30.0 
82.0000042429968 676.0 106.0 512.3956043956036 0.5061502435060308 47.0 10.0 30.0 
84.0000042429968 676.0 106.0 512.351648351649 0.5061502876429974 47.0 10.0 30.0 
86.0000042429968 676.0 106.0 512.3931623931616 0.5061502272629322 47.0 10.0 30.0 
88.0000042429968 678.0 107.0 512.349206349207 0.5257091113169479 44.0 10.0 30.0 
90.0000042429968 668.0 106.0 512.3980463980457 0.5059575427725259 44.0 10.0 30.0 
92.0000042429968 668.0 106.0 512.3418803418808 0.5059575295107263 44.0 10.0 30.0 
94.0000042429968 668.0 106.0 512.3956043956036 0.5059575210922943 44.0 10.0 30.0 
96.0000042429968 668.0 106.0 512.3565323565331 0.5059575568477683 44.0 10.0 30.0 
98.0000042429968 668.0 106.0 512.3882783882776 0.5280163337314688 44.0 10.0 30.0 
100.0000042429968 666.0 105.0 512.349206349207 0.5060465186159033 44.0 10.0 30.0 
102.0000042429968 666.0 105.0 512.3980463980457 0.5060465210228621 44.0 10.0 30.0 
104.0000042429968 666.0 105.0 512.3418803418808 0.5060465075631253 44.0 10.0 30.0 
106.0000042429968 668.0 105.0 512.4004884004877 0.5063615876006987 44.0 10.0 30.0 
108.0000042429968 668.0 105.0 512.351648351649 0.5063616344299927 44.0 10.0 30.0 
110.0000042429968 668.0 105.0 512.3882783882776 0.5063615817765393 44.0 10.0 30.0 
112.0000042429968 668.0 105.0 512.349206349207 0.5063616124261756 44.0 10.0 30.0 
114.0000042429968 668.0 105.0 512.3980463980457 0.5063616148331345 44.0 10.0 30.0 
116.0000042429968 668.0 105.0 512.3467643467649 0.5063615961447788 44.0 10.0 30.0 
118.0000042429968 668.0 105.0 512.3956043956036 0.5063615928293175 44.0 10.0 30.0 
120.0000042429968 668.0 105.0 512.351648351649 0.5063616344299927 44.0 10.0 30.0 
122.0000042429968 668.0 105.0 512.3882783882776 0.5063615817765393 44.0 10.0 30.0 
124.0000042429968 668.0 105.0 512.349206349207 0.5063616124261756 44.0 10.0 30.0 
126.0000042429968 668.0 105.0 512.4029304029298 0.5063616096045157 44.0 10.0 30.0 
128.0000042429968 668.0 105.0 512.3418803418808 0.5063616013733976 44.0 10.0 30.0 
130.0000042429968 668.0 105.0 512.3956043956036 0.5362123390979809 44.0 10.0 30.0 
132.0000042429968 666.0 104.0 512.351648351649 0.5064580834365149 44.0 10.0 30.0 
134.0000042429968 666.0 104.0 512.3882783882776 0.5064580299852817 44.0 10.0 30.0 
136.0000042429968 676.0 104.0 512.354090354091 0.5027220292764447 45.0 10.0 30.0 
138.0000042429968 690.0 105.0 515.2112332112329 0.5068599460762445 45.0 10.0 31.0 
140.0000042429968 691.0 106.0 515.1550671550667 0.5063023576281531 45.0 10.0 31.0 
142.0000042429968 718.0 107.0 523.660561660561 0.5064289465964528 46.0 10.0 34.0 
144.0000042429968 734.0 108.0 526.459096459096 0.5062731173400434 47.0 10.0 35.0 
146.0000042429968 739.0 108.0 526.4786324786321 0.5069939238020608 42.0 15.0 30.0 
148.0000042429968 742.0 108.0 529.2600732600733 0.5113214525541003 47.0 10.0 36.0 
150.0000042429968 738.0 108.0 529.2844932844937 0.5138305993312728 47.0 10.0 36.0 
152.0000042429968 739.0 107.0 529.2356532356531 0.5218411476479622 47.0 10.0 36.0 
154.0000042429968 738.0 107.0 529.2600732600733 0.5066855577910362 47.0 10.0 36.0 
156.0000042429968 738.0 107.0 529.2454212454212 0.512585153538066 47.0 10.0 36.0 
158.0000042429968 727.0 107.0 529.2478632478633 0.5268010458713549 47.0 10.0 36.0 
160.0000042429968 712.0 106.0 529.2185592185588 0.5067779821294922 47.0 10.0 36.0 
162.0000042429968 716.0 106.0 529.2478632478633 0.5068232533961698 47.0 10.0 36.0 
164.0000042429968 716.0 106.0 529.2234432234429 0.5068232524569452 42.0 15.0 31.0 
166.0000042429968 718.0 106.0 529.2380952380951 0.5069648492739001 47.0 10.0 36.0 
168.0000042429968 718.0 106.0 529.2210012210008 0.506964861622177 43.0 14.0 32.0 
170.0000042429968 718.0 106.0 529.2478632478633 0.5069648542996769 47.0 10.0 36.0 
172.0000042429968 718.0 106.0 529.2185592185588 0.5125954489007458 42.0 15.0 31.0 
174.0000042429968 712.0 106.0 529.2478632478633 0.5071800225951669 47.0 10.0 36.0 
176.0000042429968 712.0 106.0 529.228327228327 0.507180013719325 42.0 15.0 31.0 
178.0000042429968 712.0 106.0 529.233211233211 0.5071800417884315 47.0 10.0 36.0 
180.0000042429968 712.0 106.0 529.230769230769 0.5071800404838009 43.0 14.0 32.0 
182.0000042429968 712.0 106.0 529.2429792429791 0.5071800341515345 47.0 10.0 36.0 
184.0000042429968 712.0 106.0 529.2087912087908 0.5071800377813923 42.0 15.0 31.0 
186.0000042429968 712.0 106.0 532.0439560439565 0.5071762468966431 48.0 10.0 37.0 
188.0000042429968 712.0 106.0 532.0293040293044 0.5071762376451718 43.0 15.0 32.0 
190.0000042429968 712.0 106.0 532.0488400488406 0.5071762541786234 48.0 10.0 37.0 
192.0000042429968 712.0 106.0 532.0317460317465 0.5071762520750042 44.0 14.0 33.0 
194.0000042429968 712.0 106.0 532.0439560439565 0.5071762595662541 48.0 10.0 37.0 
196.0000042429968 712.0 106.0 532.0146520146523 0.5071762610505229 43.0 15.0 32.0 
198.0000042429968 712.0 106.0 532.0439560439565 0.5071762525599931 48.0 10.0 37.0 
200.0000042429968 712.0 106.0 532.0341880341884 0.5071762398254609 43.0 15.0 32.0 
202.0000042429968 712.0 106.0 532.0390720390725 0.5071762555599236 48.0 10.0 37.0 
204.0000042429968 734.0 108.0 534.8302808302814 0.506204561521003 45.0 14.0 34.0 
206.0000042429968 738.0 108.0 534.8742368742357 0.5071021852518357 47.0 12.0 36.0 
208.0000042429968 740.0 109.0 534.8302808302814 0.5063341730881581 41.0 18.0 30.0 
210.0000042429968 740.0 109.0 532.0683760683764 0.5063357053427645 49.0 10.0 37.0 
212.0000042429968 740.0 109.0 532.0195360195363 0.5063395366648907 49.0 10.0 37.0 
214.0000042429968 740.0 109.0 532.0268620268623 0.5063395698869828 49.0 10.0 37.0 
216.0000042429968 740.0 109.0 529.1990231990226 0.5063396000656134 48.0 10.0 36.0 
218.0000042429968 744.0 109.0 526.4249084249079 0.5073623967823373 48.0 10.0 35.0 
220.0000042429968 744.0 109.0 526.3907203907195 0.5073634988500213 48.0 10.0 35.0 
222.0000042429968 744.0 109.0 526.4420024420018 0.5073635061117232 48.0 10.0 35.0 
224.0000042429968 744.0 109.0 526.4249084249079 0.5186646123948696 47.0 11.0 34.0 
226.0000042429968 731.0 108.0 526.4175824175818 0.5225459426175006 48.0 10.0 35.0 
228.0000042429968 738.0 109.0 529.1965811965806 0.5065767275935986 50.0 10.0 36.0 
230.0000042429968 738.0 109.0 529.2234432234429 0.506576753142371 50.0 10.0 36.0 
232.0000042429968 738.0 109.0 526.3711843711834 0.5065817514305893 50.0 10.0 35.0 
234.0000042429968 738.0 109.0 526.3907203907196 0.506581809354556 50.0 10.0 35.0 
236.0000042429968 739.0 109.0 526.3589743589752 0.5065947685060247 50.0 10.0 35.0 
238.0000042429968 742.0 109.0 526.3760683760673 0.5097418410977317 50.0 10.0 35.0 
240.0000042429968 740.0 109.0 526.3809523809515 0.5317250786227828 50.0 10.0 35.0 
242.0000042429968 722.0 108.0 526.3663003663013 0.507066384043069 50.0 10.0 35.0 
244.0000042429968 722.0 108.0 526.3345543345549 0.5070663818326527 51.0 9.0 36.0 
246.0000042429968 725.0 108.0 526.3931623931616 0.5065769675974523 54.0 6.0 39.0 
248.0000042429968 730.0 108.0 526.3565323565331 0.5073650160740363 54.0 6.0 39.0 
250.0000042429968 730.0 108.0 526.3785103785094 0.5073649989106774 54.0 6.0 39.0 
252.0000042429968 730.0 108.0 526.3760683760673 0.5188186196351342 54.0 6.0 39.0 
254.0000042429968 725.0 108.0 526.3785103785094 0.5249119477146361 54.0 6.0 39.0 
256.0000042429968 724.0 107.0 529.1746031746028 0.5073929220213202 54.0 6.0 40.0 
258.0000042429968 724.0 107.0 529.2210012210008 0.5073914279583565 54.0 6.0 40.0 
260.0000042429968 726.0 107.0 529.1721611721608 0.5142717503524769 55.0 6.0 40.0 
262.0000042429968 719.0 108.0 529.2210012210008 0.5263722961611927 55.0 6.0 40.0 
264.0000042429968 712.0 107.0 529.1916971916966 0.5074324586366987 55.0 6.0 40.0 
266.0000042429968 714.0 107.0 529.2087912087908 0.5073821264395454 55.0 6.0 40.0 
268.0000042429968 716.0 107.0 529.179487179487 0.5074557218341832 55.0 6.0 40.0 
270.0000042429968 716.0 107.0 529.2112332112328 0.5074557382257703 55.0 6.0 40.0 
272.0000042429968 716.0 107.0 529.1770451770449 0.5092735577003752 55.0 6.0 40.0 
274.0000042429968 714.0 107.0 529.179487179487 0.5074191440133599 55.0 6.0 40.0 
276.0000042429968 715.0 107.0 529.1843711843704 0.5073703299046022 55.0 6.0 40.0 
278.0000042429968 718.0 107.0 529.1819291819289 0.5074642594303522 55.0 6.0 40.0 
280.0000042429968 718.0 107.0 529.1599511599508 0.5074642438016627 55.0 6.0 40.0 
282.0000042429968 718.0 107.0 529.2112332112328 0.507464251281093 55.0 6.0 40.0 
284.0000042429968 718.0 107.0 526.3638583638589 0.5074642333215122 50.0 10.0 35.0 
286.0000042429968 720.0 107.0 526.3809523809518 0.507099950305567 54.0 6.0 39.0 
288.0000042429968 724.0 107.0 526.3711843711837 0.5074479680347007 54.0 6.0 39.0 
290.0000042429968 724.0 107.0 526.3785103785098 0.5074479654644786 54.0 6.0 39.0 
292.0000042429968 724.0 107.0 526.3516483516487 0.5074479547803412 54.0 6.0 39.0 
294.0000042429968 726.0 107.0 526.3907203907199 0.5072663487620396 54.0 6.0 39.0 
296.0000042429968 726.0 107.0 526.3565323565327 0.5080955394897058 54.0 6.0 39.0 
298.0000042429968 725.0 107.0 526.3663003663008 0.5082712125974036 54.0 6.0 39.0 
300.0000042429968 724.0 107.0 523.545787545788 0.5073699289055406 53.0 6.0 38.0 
302.0000042429968 724.0 107.0 523.5653235653242 0.5073699363960473 53.0 6.0 38.0 
304.0000042429968 724.0 107.0 523.545787545788 0.507369919593766 53.0 6.0 38.0 
306.0000042429968 724.0 107.0 523.5702075702077 0.5073699314232921 53.0 6.0 38.0 
308.0000042429968 724.0 107.0 523.545787545788 0.5073699289055406 53.0 6.0 38.0 
310.0000042429968 724.0 107.0 523.5653235653242 0.5073699674905747 53.0 6.0 38.0 
312.0000042429968 724.0 107.0 523.545787545788 0.5283340538130327 53.0 6.0 38.0 
314.0000042429968 700.0 106.0 523.5653235653242 0.5075025356464858 53.0 6.0 38.0 
316.0000042429968 700.0 106.0 523.5506715506721 0.5085408419437677 53.0 6.0 38.0 
318.0000042429968 698.0 106.0 523.5653235653242 0.512392540122023 53.0 6.0 38.0 
320.0000042429968 694.0 106.0 523.545787545788 0.5150803347218103 53.0 6.0 38.0 
322.0000042429968 692.0 106.0 520.764346764347 0.532532779416856 52.0 6.0 37.0 
324.0000042429968 696.0 105.0 523.5628815628822 0.5056237759981259 52.0 6.0 38.0 
326.0000042429968 700.0 106.0 526.4126984126979 0.5082293886034577 52.0 6.0 39.0 
328.0000042429968 699.0 106.0 526.356532356533 0.5088574301641297 52.0 6.0 39.0 
330.0000042429968 698.0 106.0 526.358974358975 0.5076180924431035 52.0 6.0 39.0 
332.0000042429968 698.0 106.0 526.3736263736254 0.5076180804130278 52.0 6.0 39.0 
334.0000042429968 700.0 106.0 526.3467643467648 0.5066362474411767 52.0 6.0 39.0 
336.0000042429968 702.0 107.0 523.5555555555562 0.5070986002313983 52.0 6.0 38.0 
338.0000042429968 702.0 107.0 523.53601953602 0.5070997902130986 52.0 6.0 38.0 
340.0000042429968 711.0 107.0 523.53601953602 0.5043633080061494 53.0 6.0 38.0 
342.0000042429968 723.0 109.0 529.1623931623927 0.5058445599041772 54.0 6.0 40.0 
344.0000042429968 724.0 109.0 529.1697191697189 0.5069671911047069 56.0 6.0 40.0 
346.0000042429968 724.0 109.0 529.2039072039067 0.5069671537211876 55.0 6.0 40.0 
348.0000042429968 724.0 109.0 529.1721611721608 0.5069671671215147 55.0 6.0 40.0 
350.0000042429968 724.0 109.0 526.356532356533 0.5363789453285633 54.0 6.0 39.0 
352.0000042429968 730.0 109.0 526.3467643467648 0.5088701417630956 56.0 6.0 39.0 
354.0000042429968 729.0 109.0 526.3516483516489 0.5188364301285491 56.0 6.0 39.0 
356.0000042429968 724.0 109.0 526.356532356533 0.5221450102380565 56.0 6.0 39.0 
358.0000042429968 722.0 109.0 526.3467643467648 0.5155361549836126 53.0 6.0 39.0 
360.0000042429968 732.0 110.0 529.1623931623926 0.5029258432528593 54.0 6.0 40.0 
362.0000042429968 736.0 111.0 529.1623931623926 0.5317205403870007 54.0 6.0 40.0 
364.0000042429968 729.0 109.0 529.1843711843704 0.5606078263746698 54.0 6.0 40.0 
366.0000042429968 717.0 108.0 529.1794871794868 0.5540704708596971 53.0 6.0 40.0 
368.0000042429968 712.0 106.0 529.1623931623926 0.5216151961518077 53.0 6.0 40.0 
370.0000042429968 710.0 105.0 529.1672771672767 0.5104703502440582 53.0 6.0 40.0 
372.0000042429968 709.0 105.0 529.1477411477406 0.5385641362605115 53.0 6.0 40.0 
374.0000042429968 706.0 104.0 529.1526251526246 0.5067048698818324 53.0 6.0 40.0 
376.0000042429968 706.0 104.0 529.1526251526246 0.5067048798992612 53.0 6.0 40.0 
378.0000042429968 706.0 104.0 529.1526251526246 0.5067048705043893 53.0 6.0 40.0 
380.0000042429968 708.0 105.0 529.1575091575087 0.5037472230903125 53.0 6.0 40.0 
382.0000042429968 710.0 105.0 529.1477411477406 0.5066535776824109 53.0 6.0 40.0 
384.0000042429968 710.0 105.0 529.1477411477406 0.5066535691031836 53.0 6.0 40.0 
386.0000042429968 716.0 106.0 529.1526251526246 0.5066029877795745 53.0 6.0 40.0 
388.0000042429968 716.0 106.0 529.1526251526246 0.506602978527049 53.0 6.0 40.0 
390.0000042429968 724.0 107.0 540.393162393162 0.5065489524960269 57.0 6.0 44.0 
392.0000042429968 730.0 107.0 543.2185592185588 0.5121668687901902 60.0 6.0 45.0 
394.0000042429968 746.0 109.0 548.8327228327229 0.5251806158420551 63.0 6.0 47.0 
396.0000042429968 743.0 109.0 551.6874236874232 0.5055097731298178 64.0 6.0 48.0 
398.0000042429968 744.0 110.0 551.6532356532357 0.5072125788568906 64.0 6.0 48.0 
400.0000042429968 746.0 111.0 551.6581196581197 0.5132752137069555 64.0 6.0 48.0 
402.0000042429968 743.0 111.0 551.6654456654455 0.5242495623286927 63.0 6.0 48.0 
404.0000042429968 738.0 110.0 546.0366300366303 0.5070432845182836 62.0 6.0 46.0 
406.0000042429968 749.0 110.0 546.0195360195363 0.514238717622215 63.0 6.0 46.0 
408.0000042429968 751.0 111.0 546.0268620268623 0.5227871277222422 63.0 6.0 46.0 
410.0000042429968 750.0 110.0 546.0048840048842 0.5163428368627867 63.0 6.0 46.0 
412.0000042429968 743.0 110.0 546.0219780219783 0.5127922540016352 63.0 6.0 46.0 
414.0000042429968 748.0 110.0 543.2161172161169 0.5127461161748649 62.0 6.0 45.0 
416.0000042429968 748.0 110.0 543.196581196581 0.5532508638388512 62.0 6.0 45.0 
418.0000042429968 718.0 108.0 546.0463980463983 0.5206548235439475 62.0 6.0 46.0 
420.0000042429968 712.0 108.0 545.9902319902319 0.545627667572395 62.0 6.0 46.0 
422.0000042429968 702.0 106.0 546.0170940170942 0.5075567763042359 62.0 6.0 46.0 
424.0000042429968 702.0 106.0 545.9902319902319 0.5151325166564598 62.0 6.0 46.0 
426.0000042429968 706.0 108.0 546.0293040293044 0.5139209520386133 62.0 6.0 46.0 
428.0000042429968 703.0 108.0 546.0073260073261 0.5133997094039563 62.0 6.0 46.0 
430.0000042429968 702.0 107.0 546.0586080586085 0.5167150655190321 62.0 6.0 46.0 
432.0000042429968 698.0 106.0 546.0512820512823 0.5347579335595123 62.0 6.0 46.0 
434.0000042429968 695.0 106.0 546.0097680097681 0.542543841019493 62.0 6.0 46.0 
436.0000042429968 690.0 104.0 546.0048840048842 0.5076101214615724 62.0 6.0 46.0 
438.0000042429968 690.0 104.0 545.9853479853477 0.5076101671519885 62.0 6.0 46.0 
440.0000042429968 690.0 104.0 545.9658119658117 0.507610172439882 62.0 6.0 46.0 
442.0000042429968 690.0 104.0 545.9609279609278 0.5076102095077367 62.0 6.0 46.0 
444.0000042429968 690.0 104.0 545.9560439560438 0.507610191106549 62.0 6.0 46.0 
446.0000042429968 691.0 104.0 545.9658119658117 0.5297844037612127 62.0 6.0 46.0 
448.0000042429968 701.0 105.0 545.9682539682536 0.5067460609346841 64.0 6.0 46.0 
450.0000042429968 708.0 105.0 545.9804639804637 0.5150585259906213 64.0 6.0 46.0 
452.0000042429968 708.0 107.0 545.9829059829058 0.5064275279118632 64.0 6.0 46.0 
454.0000042429968 708.0 107.0 545.9780219780217 0.5064275203396053 64.0 6.0 46.0 
456.0000042429968 708.0 107.0 543.167277167277 0.5183682234034542 62.0 6.0 45.0 
458.0000042429968 702.0 106.0 545.9706959706957 0.5093347796518979 63.0 6.0 46.0 
460.0000042429968 700.0 106.0 545.9853479853479 0.536684073043463 62.0 6.0 46.0 
462.0000042429968 684.0 105.0 540.3687423687426 0.5144053996059412 61.0 6.0 44.0 
464.0000042429968 698.0 106.0 543.1868131868127 0.505713989412726 60.0 6.0 45.0 
466.0000042429968 698.0 106.0 543.2234432234429 0.5057108030619679 59.0 6.0 45.0 
468.0000042429968 698.0 106.0 537.5873015873018 0.5057119730025336 59.0 6.0 43.0 
470.0000042429968 698.0 106.0 537.5702075702076 0.5132309406626356 58.0 6.0 43.0 
472.0000042429968 696.0 106.0 537.5384615384619 0.51551084158577 58.0 6.0 43.0 
474.0000042429968 694.0 105.0 534.7496947496948 0.5072284432704697 57.0 6.0 42.0 
476.0000042429968 694.0 105.0 531.9365079365073 0.5072284754900467 56.0 6.0 41.0 
478.0000042429968 694.0 105.0 526.3516483516489 0.5223799649236683 54.0 6.0 39.0 
480.0000042429968 690.0 105.0 526.3394383394389 0.5068636649216757 53.0 6.0 39.0 
482.0000042429968 690.0 105.0 526.3467643467648 0.5068636537223009 53.0 6.0 39.0 
484.0000042429968 692.0 105.0 526.3345543345548 0.5069815836599171 53.0 6.0 39.0 
486.0000042429968 698.0 107.0 526.3516483516489 0.5057715217464136 53.0 6.0 39.0 
488.0000042429968 702.0 108.0 526.3394383394389 0.5367579738559676 53.0 6.0 39.0 
490.0000042429968 699.0 106.0 529.1623931623928 0.5067085979502365 53.0 6.0 40.0 
492.0000042429968 706.0 107.0 537.5970695970695 0.5071157582439277 56.0 6.0 43.0 
494.0000042429968 706.0 107.0 537.5995115995116 0.5108470697573129 56.0 6.0 43.0 
496.0000042429968 711.0 108.0 537.5921855921856 0.5108265215422945 56.0 6.0 43.0 
498.0000042429968 710.0 108.0 537.5848595848597 0.5063650850888233 56.0 6.0 43.0 
500.0000042429968 710.0 108.0 537.6043956043957 0.5063650839356191 56.0 6.0 43.0 
502.0000042429968 710.0 108.0 537.5726495726495 0.5063650803480821 56.0 6.0 43.0 
504.0000042429968 710.0 108.0 537.6019536019537 0.5137725246187472 56.0 6.0 43.0 
506.0000042429968 708.0 108.0 537.6043956043957 0.532334666820276 56.0 6.0 43.0 
508.0000042429968 702.0 107.0 537.56043956044 0.5080062740090463 56.0 6.0 43.0 
510.0000042429968 702.0 107.0 537.5946275946276 0.5080062366070087 56.0 6.0 43.0 
512.0000042429967 702.0 107.0 537.5921855921856 0.5167127255513349 56.0 6.0 43.0 
514.0000042429967 712.0 107.0 540.3833943833943 0.5087635933109077 57.0 6.0 44.0 
516.0000042429967 748.0 109.0 543.228327228327 0.5273885960064666 58.0 6.0 45.0 
518.0000042429967 740.0 107.0 540.4761904761903 0.5094289428870515 57.0 6.0 44.0 
520.0000042429967 757.0 108.0 543.1965811965808 0.5159065317367708 57.0 7.0 44.0 
522.0000042429967 756.0 108.0 543.211233211233 0.5344470714648288 55.0 9.0 42.0 
524.0000042429967 752.0 107.0 543.1770451770452 0.5104925023391236 54.0 10.0 41.0 
526.0000042429967 748.0 107.0 540.3809523809522 0.5346050414875624 53.0 10.0 40.0 
528.0000042429967 718.0 107.0 540.3882783882783 0.5339599283774498 53.0 10.0 40.0 
530.0000042429967 703.0 105.0 540.3882783882783 0.5232993493816899 53.0 10.0 40.0 
532.0000042429967 702.0 105.0 540.3443223443222 0.5070183601351942 53.0 10.0 40.0 
534.0000042429967 703.0 106.0 540.3760683760681 0.513809573342672 53.0 10.0 40.0 
536.0000042429967 699.0 107.0 540.3687423687426 0.5543554709902363 53.0 10.0 40.0 
538.0000042429967 682.0 105.0 540.3540903540904 0.5097331317341567 53.0 10.0 40.0 
540.0000042429967 682.0 105.0 540.3443223443222 0.5097331359888467 53.0 10.0 40.0 
542.0000042429967 682.0 105.0 540.3638583638585 0.5097331213402171 53.0 10.0 40.0 
544.0000042429967 682.0 105.0 540.3394383394384 0.5125109124080384 53.0 10.0 40.0 
546.0000042429967 682.0 105.0 540.3638583638585 0.5161028456190959 53.0 10.0 40.0 
548.0000042429967 680.0 105.0 540.3467643467643 0.5084623150475228 53.0 10.0 40.0 
550.0000042429967 686.0 106.0 540.373626373626 0.5077059804610605 53.0 10.0 40.0 
552.0000042429967 686.0 106.0 540.3418803418803 0.5077059846961726 53.0 10.0 40.0 
554.0000042429967 686.0 106.0 540.3638583638585 0.5332342208649592 53.0 10.0 40.0 
556.0000042429967 669.0 104.0 540.3540903540904 0.5520921105303184 53.0 10.0 40.0 
558.0000042429967 660.0 103.0 540.3614163614164 0.5094731620306756 53.0 10.0 40.0 
560.0000042429967 662.0 103.0 534.7423687423686 0.507502327044974 51.0 10.0 38.0 
562.0000042429967 662.0 103.0 534.7545787545789 0.507502320576167 51.0 10.0 38.0 
564.0000042429967 662.0 103.0 531.9365079365073 0.5264300353208449 50.0 10.0 37.0 
566.0000042429967 675.0 103.0 534.7789987789992 0.5258152996928647 51.0 10.0 38.0 
568.0000042429967 674.0 103.0 534.8083028083034 0.5067464257698994 51.0 10.0 38.0 
570.0000042429967 674.0 103.0 531.997557997558 0.5144983605276207 50.0 10.0 37.0 
572.0000042429967 677.0 105.0 531.9902319902319 0.507619908599215 50.0 10.0 37.0 
574.0000042429967 698.0 107.0 532.0170940170942 0.5065120128608126 50.0 10.0 37.0 
576.0000042429967 700.0 107.0 531.9706959706956 0.5140618099659953 50.0 10.0 37.0 
578.0000042429967 692.0 107.0 531.9853479853477 0.5060389262723853 50.0 10.0 37.0 
580.0000042429967 714.0 108.0 534.7594627594628 0.5077587440584711 51.0 10.0 38.0 
582.0000042429967 714.0 108.0 540.393162393162 0.5281264342109203 54.0 10.0 40.0 
584.0000042429967 712.0 107.0 537.6190476190482 0.5061571760031524 53.0 10.0 39.0 
586.0000042429967 712.0 107.0 534.7814407814412 0.5298165706799888 52.0 10.0 38.0 
588.0000042429967 696.0 106.0 534.7814407814412 0.5062662528735417 52.0 10.0 38.0 
590.0000042429967 702.0 106.0 534.7570207570209 0.5062211313001009 52.0 10.0 38.0 
592.0000042429967 708.0 108.0 534.771672771673 0.5060837396675908 52.0 10.0 38.0 
594.0000042429967 718.0 109.0 531.9706959706956 0.5145414987932033 52.0 10.0 37.0 
596.0000042429967 724.0 110.0 531.9536019536015 0.5062306324521567 53.0 10.0 37.0 
598.0000042429967 724.0 110.0 531.9438339438333 0.5062306082483806 53.0 10.0 37.0 
600.0000042429967 724.0 110.0 531.9487179487173 0.513074398010933 53.0 10.0 37.0 
602.0000042429967 719.0 110.0 531.9389499389492 0.5530942326612873 53.0 10.0 37.0 
604.0000042429967 716.0 109.0 531.9560439560435 0.523992332857077 53.0 10.0 37.0 
606.0000042429967 702.0 109.0 531.9731379731377 0.506353275203119 53.0 10.0 37.0 
608.0000042429967 714.0 110.0 537.575091575092 0.5054536824620719 54.0 10.0 39.0 
610.0000042429967 728.0 111.0 546.0488400488405 0.5257646605601787 56.0 10.0 42.0 
612.0000042429967 720.0 112.0 548.8815628815624 0.542493943689295 55.0 10.0 43.0 
614.0000042429967 738.0 111.0 551.6923076923075 0.5056553416540511 56.0 10.0 44.0 
616.0000042429967 744.0 111.0 551.6825396825398 0.5087762025322774 56.0 10.0 44.0 
618.0000042429967 753.0 113.0 551.6752136752137 0.5087153224246311 57.0 10.0 44.0 
620.0000042429967 797.0 113.0 557.2991452991452 0.5183210626835355 59.0 10.0 46.0 
622.0000042429967 808.0 114.0 557.3089133089134 0.5123501112326634 59.0 10.0 46.0 
624.0000042429967 810.0 114.0 557.2820512820513 0.5109068261740198 59.0 10.0 46.0 
626.0000042429967 809.0 114.0 557.2967032967032 0.5054921470600712 59.0 10.0 46.0 
628.0000042429967 815.0 114.0 557.264957264957 0.5234013347633318 59.0 10.0 46.0 
630.0000042429967 823.0 113.0 557.2869352869352 0.5207810318192294 59.0 10.0 46.0 
632.0000042429967 813.0 114.0 557.260073260073 0.5705348626823982 58.0 11.0 45.0 
634.0000042429967 816.0 113.0 557.3015873015872 0.5329961487497153 57.0 12.0 44.0 
636.0000042429967 826.0 113.0 557.2380952380954 0.5124076928716611 56.0 13.0 43.0 
638.0000042429967 852.0 113.0 557.2796092796092 0.5058414091340042 52.0 17.0 39.0 
640.0000042429967 855.0 113.0 557.3089133089134 0.5163039437518175 51.0 18.0 38.0 
642.0000042429967 837.0 113.0 557.2942612942612 0.5278441421963551 51.0 18.0 38.0 
644.0000042429967 820.0 113.0 554.4590964590963 0.5301021799486275 51.0 17.0 38.0 
646.0000042429967 824.0 113.0 554.4346764346759 0.5105707519765994 51.0 17.0 38.0 
648.0000042429967 827.0 113.0 554.4224664224662 0.5273844582105754 53.0 15.0 40.0 
650.0000042429967 815.0 113.0 554.4297924297923 0.5194679060954454 58.0 10.0 45.0 
652.0000042429967 801.0 114.0 554.4249084249083 0.5506949532172255 59.0 11.0 44.0 
654.0000042429967 790.0 112.0 554.4273504273503 0.509274784824965 57.0 13.0 42.0 
656.0000042429967 790.0 112.0 557.2283272283273 0.5164351643245685 59.0 10.0 46.0 
658.0000042429967 795.0 113.0 560.0537240537243 0.5620918126588383 60.0 10.0 47.0 
660.0000042429967 764.0 110.0 560.0463980463983 0.5320471693442399 60.0 10.0 47.0 
662.0000042429967 746.0 109.0 560.0708180708182 0.506336744754212 59.0 11.0 46.0 
664.0000042429967 746.0 109.0 560.0195360195362 0.5468655817420122 60.0 10.0 47.0 
#####################################################################
# End of data export. Simulation finished at: 2019-03-12T01:56+0000 #
#####################################################################
