#####################################################################
# Alchemist log file - simulation started at: 2019-03-03T03:03+0000 #
#####################################################################
# seed = 9.0, bandwidth = 316227.76601683797, accessPointCount = 10.0, baserange = 562.341325190349
#
# The columns have the following meaning: 
# time neighbor_count[Sum] <value>@neighbor_count[Sum] packet_size[Mean] mean_delay[Mean] crowd[Sum] overcrowded[Sum] risk[Sum] 
0.0 NaN NaN NaN NaN NaN NaN NaN 
10.000337445961424 10692.0 225.0 4989.324485733245 0.9181635633001081 1497.0 0.0 1497.0 
20.000337445961424 11048.0 225.0 4989.430656934306 0.9237674679060774 1497.0 0.0 1497.0 
30.000337445961424 11048.0 225.0 4989.388188453882 0.9237976223495781 1497.0 0.0 1497.0 
40.00033744596142 11048.0 225.0 4989.43596549436 0.923758192017076 1497.0 0.0 1497.0 
50.00033744596142 11048.0 225.0 4989.3510285335105 0.9237905821754899 1497.0 0.0 1497.0 
60.00033744596142 11049.0 225.0 4989.467816854678 0.923717520392239 1497.0 0.0 1497.0 
70.00033744596142 11050.0 225.0 699.4346383543469 0.732881788392847 143.0 0.0 98.0 
80.00033744596142 11048.0 225.0 699.4001327140024 0.7328834833796735 141.0 0.0 98.0 
90.00033744596142 11060.0 226.0 699.3629727936296 0.7324179960452547 140.0 0.0 98.0 
100.00033744596142 11168.0 227.0 699.389515593895 0.7347101167975452 141.0 0.0 98.0 
110.00033744596142 11194.0 227.0 699.3576642335762 0.7335377335756554 140.0 0.0 98.0 
120.00033744596142 11228.0 227.0 708.5547445255463 0.7474757080237897 141.0 0.0 101.0 
130.0003374459614 11213.0 227.0 708.5149303251478 0.7465816986447178 141.0 0.0 101.0 
140.0003374459614 11208.0 226.0 705.4943596549446 0.7519629878018137 142.0 0.0 100.0 
150.0003374459614 11256.0 227.0 711.5859323158593 0.7434425352989649 142.0 1.0 101.0 
160.0003374459614 11256.0 227.0 711.6177836761776 0.7434336611889761 145.0 0.0 102.0 
170.0003374459614 11229.0 227.0 711.5832780358331 0.7438147019605668 145.0 0.0 102.0 
180.0003374459614 11217.0 227.0 711.6177836761776 0.7438574850471422 145.0 0.0 102.0 
190.0003374459614 11210.0 227.0 708.5706702057066 0.7407016803480007 145.0 0.0 101.0 
200.0003374459614 11198.0 226.0 708.5335102853344 0.7407956710009695 145.0 0.0 101.0 
210.0003374459614 11208.0 226.0 708.4910418049099 0.740829052236875 145.0 0.0 101.0 
220.0003374459614 11208.0 226.0 705.5129396151289 0.7403417673041333 142.0 0.0 100.0 
230.0003374459614 11204.0 226.0 705.4359654943597 0.7403534059548303 143.0 0.0 100.0 
240.0003374459614 11204.0 226.0 708.5043132050434 0.7394395262837233 144.0 0.0 101.0 
250.0003374459614 11220.0 227.0 708.467153284672 0.7389762707576896 145.0 0.0 101.0 
260.0003374459614 11213.0 227.0 708.4936960849373 0.7387799890961385 145.0 0.0 101.0 
270.0003374459614 11208.0 227.0 708.469807564698 0.7367704803575343 143.0 0.0 101.0 
280.0003374459614 11204.0 227.0 705.4386197743852 0.7330997805016969 143.0 0.0 100.0 
290.0003374459614 11145.0 226.0 711.5169210351692 0.7360165810499992 144.0 0.0 102.0 
300.0003374459614 11138.0 227.0 714.5932315859319 0.7403429123671226 144.0 0.0 103.0 
310.0003374459614 11060.0 226.0 711.5009953550102 0.7298286838280852 144.0 0.0 102.0 
320.0003374459614 11060.0 226.0 711.5275381552744 0.7298171491643078 144.0 0.0 102.0 
330.0003374459614 11059.0 226.0 711.4956867949566 0.7327284514688763 144.0 0.0 102.0 
340.0003374459614 11058.0 226.0 711.5195753151966 0.7298525886394589 144.0 0.0 102.0 
350.0003374459614 11054.0 226.0 705.390842733908 0.7305853101922922 143.0 0.0 100.0 
360.0003374459614 11048.0 226.0 699.317850033178 0.7274860159957741 141.0 0.0 98.0 
370.0003374459614 11032.0 226.0 690.1207697412077 0.7247907141182197 141.0 0.0 95.0 
380.0003374459614 11008.0 226.0 690.1526211015248 0.7250149112052314 141.0 0.0 95.0 
390.0003374459614 10978.0 226.0 690.1207697412077 0.7254865291153101 140.0 0.0 95.0 
400.0003374459614 10928.0 225.0 693.2050431320497 0.6775970173735278 140.0 0.0 96.0 
410.0003374459614 10922.0 224.0 696.230922362309 0.6635058860677815 140.0 0.0 97.0 
420.0003374459614 10916.0 223.0 696.2946250829465 0.6654217543788913 140.0 0.0 97.0 
430.0003374459614 10916.0 223.0 696.291970802919 0.6655400110284506 140.0 0.0 97.0 
440.0003374459614 10914.0 223.0 696.2760451227608 0.6655258268555457 140.0 0.0 97.0 
450.0003374459614 10778.0 222.0 696.2707365627073 0.6672167524596639 139.0 0.0 97.0 
460.0003374459614 10780.0 223.0 696.3025879230255 0.6679660256183655 139.0 0.0 97.0 
470.0003374459614 10770.0 222.0 699.3205043132057 0.6693178276085027 139.0 0.0 98.0 
480.0003374459614 10770.0 221.0 699.3337757133364 0.6685234961341628 139.0 0.0 98.0 
490.0003374459614 10768.0 221.0 699.3311214333123 0.6685670136116557 139.0 0.0 98.0 
500.0003374459614 10796.0 222.0 699.3098871930982 0.7113127186516975 139.0 0.0 98.0 
510.0003374459614 10890.0 223.0 702.338420703385 0.713032193579913 139.0 0.0 99.0 
520.0003374459613 10926.0 223.0 702.3543463835434 0.7120970691778575 139.0 0.0 99.0 
530.0003374459613 10927.0 223.0 702.338420703385 0.7122834119815736 139.0 0.0 99.0 
540.0003374459613 10884.0 222.0 702.3543463835434 0.7127996278226875 139.0 0.0 99.0 
550.0003374459613 10884.0 222.0 702.338420703385 0.712815551428979 139.0 0.0 99.0 
560.0003374459613 10884.0 222.0 702.3543463835434 0.7127996278226875 139.0 0.0 99.0 
570.0003374459613 10884.0 222.0 702.338420703385 0.712815551428979 139.0 0.0 99.0 
580.0003374459613 10935.0 223.0 702.3543463835434 0.711379754548594 140.0 0.0 99.0 
590.0003374459613 10994.0 224.0 699.2859986728612 0.7094533895736913 140.0 0.0 98.0 
600.0003374459613 10998.0 225.0 699.3205043132057 0.7082460213681315 139.0 0.0 98.0 
610.0003374459613 11002.0 225.0 699.2992700729918 0.7086069524948037 140.0 0.0 98.0 
620.0003374459613 11016.0 225.0 702.3623092236232 0.7115597578307558 141.0 0.0 99.0 
630.0003374459613 11016.0 225.0 705.3988055739875 0.7128384750195754 142.0 0.0 100.0 
640.0003374459613 11088.0 226.0 705.4067684140681 0.7134032495657594 141.0 0.0 100.0 
650.0003374459613 11111.0 226.0 702.3463835434628 0.709196579964934 140.0 0.0 99.0 
660.0003374459613 11123.0 226.0 705.4147312541479 0.7108039918377197 139.0 0.0 100.0 
#####################################################################
# End of data export. Simulation finished at: 2019-03-03T03:13+0000 #
#####################################################################
