#####################################################################
# Alchemist log file - simulation started at: 2019-03-04T16:39+0000 #
#####################################################################
# seed = 8.0, bandwidth = 1000.0, accessPointCount = 72.92664737217109, baserange = 562.341325190349
#
# The columns have the following meaning: 
# time neighbor_count[Sum] <value>@neighbor_count[Sum] packet_size[Mean] mean_delay[Mean] crowd[Sum] overcrowded[Sum] risk[Sum] 
0.0 NaN NaN NaN NaN NaN NaN NaN 
2.000927030832833 NaN NaN 4986.898661567878 NaN 1497.0 0.0 1497.0 
4.000927030832833 NaN NaN 4986.898661567878 NaN 1497.0 0.0 1497.0 
6.000198348008885 5.0 3.0 4986.898661567878 0.24126404905740878 1497.0 0.0 1497.0 
8.000927030832834 12.0 4.0 4986.898661567878 1.9561935035966398 1497.0 0.0 1497.0 
10.000927030832834 12.0 4.0 4986.898661567878 3.95619350359664 1497.0 0.0 1497.0 
12.000927030832834 80.0 23.0 4986.919056724028 1.6097519214752731 1497.0 0.0 1497.0 
14.000927030832834 80.0 23.0 4986.91395793499 3.609751921475273 1497.0 0.0 1497.0 
16.000198348008887 166.0 40.0 4986.921606118547 2.891483717040796 1497.0 0.0 1497.0 
18.000927030832834 239.0 58.0 4986.967495219886 3.8926894459690544 1497.0 0.0 1497.0 
20.000927030832834 239.0 58.0 4986.967495219886 5.892689445969054 1497.0 0.0 1497.0 
22.000927030832834 349.0 86.0 4986.9878903760355 5.387238166919894 1497.0 0.0 1497.0 
24.000927030832834 349.0 86.0 4986.998087954111 7.387238166919894 1497.0 0.0 1497.0 
26.000198348008887 464.0 102.0 4987.038878266411 6.407358293027817 1497.0 0.0 1497.0 
28.000927030832834 498.0 108.0 4987.082217973231 7.930403993251059 1497.0 0.0 1497.0 
30.000927030832834 498.0 108.0 4987.066921606119 9.930403993251058 1497.0 0.0 1497.0 
32.000927030832834 568.0 110.0 4987.296367112811 8.848173003249128 1497.0 0.0 1497.0 
34.000927030832834 568.0 110.0 4987.2555768005095 10.84817300324913 1497.0 0.0 1497.0 
36.00019834800889 702.0 129.0 4987.352453792224 11.189687627935534 1497.0 0.0 1497.0 
38.000927030832834 799.0 136.0 4987.444231994901 12.534288018049612 1497.0 0.0 1497.0 
40.000927030832834 799.0 136.0 4987.444231994901 14.534288018049612 1497.0 0.0 1497.0 
42.000927030832834 917.0 147.0 4987.57425111536 12.96169706455535 1497.0 0.0 1497.0 
44.000927030832834 917.0 147.0 4987.620140216699 14.96169706455535 1497.0 0.0 1497.0 
46.00019834800889 959.0 154.0 4987.668578712556 13.10950967149437 1497.0 0.0 1497.0 
48.000927030832834 1015.0 155.0 4987.650732950924 11.829359503176681 1497.0 0.0 1497.0 
50.000927030832834 1015.0 155.0 4987.620140216699 13.829359503176681 1497.0 0.0 1497.0 
52.000927030832834 1078.0 148.0 4987.645634161887 10.319063260244729 1497.0 0.0 1497.0 
54.000927030832834 1078.0 148.0 4987.645634161887 12.319063260244729 1497.0 0.0 1497.0 
56.00019834800889 1320.0 176.0 4987.663479923518 9.731289301282516 1497.0 0.0 1497.0 
58.000927030832834 1536.0 189.0 4987.836838750796 10.293791624752403 1497.0 0.0 1497.0 
60.0006995600939 1541.0 189.0 4987.831739961759 12.140879280081606 1497.0 0.0 1497.0 
62.000927030832834 2437.0 233.0 476.39770554493333 10.64700151767184 156.0 0.0 26.0 
64.00092703083283 2437.0 233.0 476.31102613129366 12.427517342587665 151.0 0.0 26.0 
66.0001983480089 2468.0 229.0 476.3416188655195 11.660523841165876 145.0 0.0 26.0 
68.00092703083283 2634.0 231.0 476.2753346080306 10.952940166242508 139.0 0.0 26.0 
70.00092703083283 2640.0 231.0 476.25493945188015 12.311233707055086 139.0 0.0 26.0 
72.00092703083283 2794.0 248.0 476.2753346080306 11.567821939535214 131.0 0.0 26.0 
74.00092703083283 2794.0 248.0 476.19375398342896 12.858398757889724 131.0 0.0 26.0 
76.0001983480089 2811.0 246.0 476.1963033779478 11.963081099921801 124.0 0.0 26.0 
78.00092703083283 2799.0 250.0 476.1963033779478 10.595402817059862 112.0 0.0 26.0 
80.00092703083283 2799.0 250.0 476.1963033779478 11.572829120770582 110.0 0.0 26.0 
82.00092703083283 2870.0 267.0 479.2377310388784 9.901042752235664 104.0 0.0 27.0 
84.00092703083283 2870.0 267.0 479.1663479923518 11.075199030287113 105.0 0.0 27.0 
86.0001983480089 2575.0 240.0 479.1714467813895 9.718245515992292 83.0 0.0 27.0 
88.00092703083283 2366.0 223.0 479.19949012109606 7.406879007299859 61.0 0.0 27.0 
90.00092703083283 2366.0 223.0 479.1892925430211 8.028026085401414 57.0 0.0 27.0 
92.00092703083283 2025.0 216.0 479.2071383046525 7.213649856168744 55.0 0.0 27.0 
94.00092703083283 2025.0 216.0 479.1816443594645 3.37150886114844 55.0 0.0 27.0 
96.0001983480089 2117.0 221.0 479.1816443594645 3.8646547274531002 55.0 0.0 27.0 
98.00092703083283 2131.0 223.0 479.1816443594645 4.489716042631791 55.0 0.0 27.0 
100.00092703083283 2133.0 223.0 479.1816443594645 4.6501260832464455 42.0 0.0 27.0 
102.00092703083283 2133.0 223.0 479.1816443594645 5.499680716278401 42.0 0.0 27.0 
104.00092703083283 2133.0 223.0 479.1816443594645 6.411796102739791 42.0 0.0 27.0 
106.0001983480089 2328.0 247.0 479.17654557042727 5.860046187402611 37.0 0.0 27.0 
108.00092703083283 2436.0 261.0 479.0261312938178 5.857459849433889 35.0 0.0 27.0 
110.00092703083283 2437.0 261.0 479.0210325047798 6.347792926227829 32.0 0.0 27.0 
112.00092703083283 2578.0 277.0 479.06692160611874 5.4561426544848715 32.0 0.0 27.0 
114.00092703083283 2570.0 276.0 478.9751434034417 5.381202124779329 31.0 0.0 27.0 
116.0001983480089 2744.0 285.0 478.99808795411093 5.259581727620701 31.0 0.0 27.0 
118.00092703083283 2922.0 306.0 481.88655194391345 5.937902962234305 32.0 0.0 28.0 
120.00092703083283 2924.0 306.0 478.9521988527724 5.014490694717216 31.0 0.0 27.0 
122.00092703083283 3023.0 315.0 473.1038878266414 3.9411138062207627 29.0 0.0 25.0 
124.00092703083283 3023.0 315.0 473.1038878266414 4.288299268684933 27.0 0.0 25.0 
126.0001983480089 3280.0 330.0 499.5742511153606 3.3817970035022924 36.0 0.0 34.0 
128.00092703083283 3566.0 344.0 514.0930528999361 3.9223980356885324 41.0 0.0 39.0 
130.00092703083283 3587.0 345.0 514.0879541108984 3.7797917391441755 41.0 0.0 39.0 
132.00092703083283 4168.0 385.0 520.1988527724665 4.346467220433491 43.0 0.0 41.0 
134.00092703083283 4177.0 386.0 520.1121733588274 4.842721736782008 43.0 0.0 41.0 
136.0001983480089 4245.0 394.0 520.1121733588274 5.682823327219665 43.0 0.0 41.0 
138.00092703083283 4280.0 397.0 520.1121733588274 6.457393164692092 47.0 0.0 41.0 
140.00092703083283 4288.0 398.0 520.1121733588274 6.954777963704655 46.0 0.0 41.0 
142.00092703083283 4291.0 398.0 520.1121733588274 7.114182788215661 45.0 0.0 41.0 
144.00092703083283 4291.0 398.0 520.1121733588274 8.157158893474518 45.0 0.0 41.0 
146.0001983480089 4293.0 398.0 520.1121733588274 7.8714265944089465 45.0 0.0 41.0 
148.00092703083283 4290.0 398.0 520.1121733588274 5.102379316591131 45.0 0.0 41.0 
150.00092703083283 4282.0 397.0 514.2638623326957 4.2970316018948225 43.0 0.0 39.0 
152.00092703083283 4275.0 396.0 490.8706182281705 4.568157620452769 36.0 0.0 31.0 
154.00092703083283 4284.0 397.0 490.8706182281705 5.532667940705804 36.0 0.0 31.0 
156.0001983480089 4188.0 394.0 490.91140854047194 5.897386824998502 36.0 0.0 31.0 
158.00092703083283 3967.0 386.0 490.84512428298257 5.797016775996511 36.0 0.0 31.0 
160.00092703083283 3966.0 385.0 490.8247291268323 6.50992465604832 36.0 0.0 31.0 
162.00092703083283 3775.0 378.0 490.7686424474183 5.78991560825385 35.0 0.0 31.0 
164.00092703083283 3775.0 378.0 490.67176545570396 5.481302640203351 35.0 0.0 31.0 
166.0001983480089 3794.0 377.0 484.84130019120437 5.94342207083739 33.0 0.0 29.0 
168.00092703083283 3804.0 379.0 490.7227533460802 6.849805970135331 36.0 0.0 31.0 
170.00092703083283 3804.0 379.0 490.7074569789674 7.472751951710271 36.0 0.0 31.0 
172.00092703083283 3889.0 386.0 490.8323773103887 5.585838753896201 35.0 0.0 31.0 
174.00092703083283 3890.0 386.0 490.7304015296371 5.052676672141884 35.0 0.0 31.0 
176.0001983480089 4342.0 394.0 514.2460165710643 3.601541009633515 43.0 0.0 39.0 
178.00092703083283 4863.0 414.0 543.3652007648179 3.90032358500058 52.0 0.0 49.0 
180.00092703083283 4862.0 414.0 543.3652007648179 3.9948331479453527 51.0 0.0 49.0 
182.00092703083283 5016.0 419.0 549.2797960484384 4.531627012919875 53.0 0.0 51.0 
184.00092703083283 5017.0 419.0 549.2721478648823 5.253696263703808 53.0 0.0 51.0 
186.0001983480089 5035.0 420.0 555.1816443594641 5.982739150579547 55.0 0.0 53.0 
188.00092703083283 5035.0 420.0 555.1408540471646 6.6024122710264965 55.0 0.0 53.0 
190.00092703083283 5057.0 421.0 558.0828553218616 5.960763084389223 59.0 0.0 54.0 
192.00092703083283 5098.0 424.0 561.0528999362652 6.285452762595848 60.0 0.0 55.0 
194.00092703083283 5098.0 424.0 561.0528999362652 6.722784232625268 60.0 0.0 55.0 
196.0001983480089 5091.0 424.0 561.0605481198213 6.2225641003642105 60.0 0.0 55.0 
198.00092703083283 5025.0 421.0 561.1089866156792 5.73088171493663 60.0 0.0 55.0 
200.00092703083283 5016.0 420.0 561.0452517527092 6.7418976027140545 59.0 0.0 55.0 
202.00092703083283 4997.0 415.0 561.1064372211596 6.219884375852723 61.0 0.0 55.0 
204.00092703083283 5015.0 416.0 561.1013384321228 5.194865446488904 61.0 0.0 55.0 
206.0001983480089 5013.0 420.0 561.1013384321228 4.801830040913092 61.0 0.0 55.0 
208.00092703083283 4841.0 415.0 561.1013384321228 5.120453307040582 61.0 0.0 55.0 
210.00092703083283 4860.0 415.0 561.1013384321228 6.107072170167878 61.0 0.0 55.0 
212.00092703083283 4818.0 413.0 561.1089866156792 6.105885854083518 60.0 0.0 55.0 
214.00092703083283 4801.0 411.0 561.0987890376034 6.51327485874746 60.0 0.0 55.0 
216.0001983480089 5066.0 422.0 543.4901210962397 6.170188923152217 54.0 0.0 49.0 
218.00092703083283 5092.0 422.0 543.5156150414285 5.198838102890016 54.0 0.0 49.0 
220.00092703083283 5075.0 421.0 523.0414276609309 5.47158969935644 46.0 0.0 42.0 
222.00092703083283 5298.0 425.0 520.124920331421 5.497245552530387 45.0 0.0 41.0 
224.00092703083283 5226.0 420.0 520.1453154875724 6.215396876324292 45.0 0.0 41.0 
226.0001983480089 5270.0 425.0 528.8973868706186 6.262179552146357 48.0 0.0 44.0 
228.00092703083283 5384.0 429.0 555.16889738687 7.0708373280759185 59.0 0.0 53.0 
230.00092703083283 5449.0 432.0 555.1790949649462 7.371992464296546 61.0 0.0 53.0 
232.00092703083283 7572.0 476.0 681.2415551306569 5.104480639929122 109.0 0.0 96.0 
234.00092703083283 7207.0 470.0 680.9611217335879 5.186974145171236 107.0 0.0 96.0 
236.0001983480089 7444.0 482.0 683.8954748247294 5.22036968662541 113.0 0.0 97.0 
238.00092703083283 7559.0 482.0 695.7170172084127 5.901916886039304 113.0 0.0 101.0 
240.00092703083283 7563.0 483.0 695.6966220522631 5.3612265790591085 113.0 0.0 101.0 
242.00092703083283 7653.0 486.0 695.7654557042705 5.790731633040384 116.0 0.0 101.0 
244.00092703083283 7658.0 486.0 695.8444869343532 6.581927479864203 116.0 0.0 101.0 
246.0001983480089 9121.0 530.0 748.7928616953475 6.450563708662073 132.0 0.0 119.0 
248.00092703083283 9595.0 542.0 760.1580624601654 7.078630275610514 136.0 0.0 123.0 
250.00092703083283 9599.0 542.0 760.132568514977 7.952672945878938 136.0 0.0 123.0 
252.00092703083283 9931.0 551.0 783.5920968769908 7.544853792225913 144.0 0.0 131.0 
254.00092703083283 9931.0 551.0 783.530911408541 8.272927576269984 145.0 0.0 131.0 
256.0001983480089 10000.0 555.0 771.8291905672402 8.049417383012013 141.0 0.0 127.0 
258.0009270308328 10094.0 558.0 771.8470363288715 7.251879146388518 139.0 0.0 127.0 
260.0009270308328 10086.0 557.0 771.8674314850231 8.130853968964448 139.0 0.0 127.0 
262.0009270308328 8690.0 538.0 772.0866794136396 6.42527078938651 143.0 0.0 127.0 
264.0009270308328 8696.0 538.0 772.1223709369019 6.158403718971775 146.0 0.0 127.0 
266.0001983480089 8424.0 526.0 745.9120458891013 6.402509134373427 137.0 0.0 118.0 
268.0009270308328 8577.0 532.0 757.5041427660933 6.72242393253496 149.0 0.0 122.0 
270.0009270308328 8548.0 530.0 757.4888463989802 7.224160439784983 149.0 0.0 122.0 
272.0009270308328 8669.0 543.0 801.2746972594011 7.0524199014067195 163.0 0.0 137.0 
274.0009270308328 8659.0 545.0 801.1242829827926 7.582961534753902 163.0 0.0 137.0 
276.0001983480089 8371.0 549.0 827.6175908221794 7.70555064290708 181.0 0.0 146.0 
278.0009270308328 8100.0 544.0 827.6073932441047 8.152441869693634 182.0 0.0 146.0 
280.0009270308328 8100.0 544.0 821.7284894837479 8.608274983583373 182.0 0.0 144.0 
282.0009270308328 8017.0 544.0 815.918419375399 8.337294128922622 179.0 0.0 142.0 
284.0009270308328 8039.0 545.0 813.001912045889 7.160867399886789 177.0 0.0 141.0 
286.0001983480089 8027.0 546.0 824.7265774378583 5.4474236023417815 179.0 0.0 145.0 
288.0009270308328 7821.0 543.0 821.794773741236 5.930918972623516 178.0 0.0 144.0 
290.0009270308328 7808.0 542.0 818.7890376035689 6.51595178924204 177.0 0.0 143.0 
292.0009270308328 7702.0 535.0 807.2173358827281 6.388418263732569 170.0 0.0 139.0 
294.0009270308328 7750.0 540.0 827.4340344168265 7.2311623304687185 172.0 0.0 146.0 
296.0001983480089 7789.0 543.0 830.2740599107713 7.214782544141954 176.0 0.0 147.0 
298.0009270308328 7511.0 535.0 830.3352453792219 6.934135147796983 173.0 0.0 147.0 
300.0009270308328 7499.0 534.0 830.1312938177174 7.037724943297574 172.0 0.0 147.0 
302.0009270308328 9016.0 560.0 915.0694710006387 6.429529250246739 202.0 0.0 176.0 
304.0009270308328 9022.0 561.0 914.962396430847 7.360640452987456 203.0 0.0 176.0 
306.0001983480089 9889.0 583.0 935.7221159974506 7.408053687847608 215.0 0.0 183.0 
308.0001569092609 9903.0 581.0 926.9343530911399 7.106598367576878 211.0 0.0 180.0 
310.0009270308328 9852.0 578.0 926.911408540471 6.9321339267462765 207.0 0.0 180.0 
312.0009270308328 9747.0 575.0 923.961759082219 5.992366735614058 204.0 0.0 179.0 
314.0009270308328 9659.0 572.0 923.862332695984 6.002300437694134 202.0 0.0 179.0 
316.0001983480089 9602.0 568.0 920.9177820267706 5.634851233514509 200.0 0.0 178.0 
318.0009270308328 9863.0 575.0 953.1038878266414 5.880108175811669 210.0 0.0 189.0 
320.0009270308328 9874.0 576.0 926.7635436583815 6.783347028553317 203.0 0.0 180.0 
322.0001569092609 10030.0 579.0 906.4678138942011 6.952392713389743 193.0 0.0 173.0 
324.0009270308328 9937.0 574.0 891.7782026768631 6.932909665550748 187.0 0.0 168.0 
326.0001983480089 9897.0 572.0 874.2332695984711 7.564469666206314 180.0 0.0 162.0 
328.0009270308328 9892.0 572.0 874.2332695984711 8.017310108306859 180.0 0.0 162.0 
330.0009270308328 9878.0 572.0 856.6883365200757 7.650382986663338 174.0 0.0 156.0 
332.0009270308328 8961.0 556.0 830.4423199490122 6.4791611952112005 164.0 0.0 147.0 
334.0009270308328 8972.0 556.0 827.4110898661547 6.963093240860096 162.0 0.0 146.0 
336.0001569092609 8256.0 537.0 754.2766093052887 6.944465512257295 134.0 0.0 121.0 
338.0009270308328 8154.0 536.0 751.1153601019756 6.42261559838377 133.0 0.0 120.0 
340.0009270308328 8143.0 535.0 748.155513065646 6.470223693989267 132.0 0.0 119.0 
342.0009270308328 8197.0 539.0 759.8827278521353 6.795095695791053 136.0 0.0 123.0 
344.0009270308328 8198.0 539.0 759.8521351179105 6.9048889600715695 136.0 0.0 123.0 
346.0001983480089 8265.0 543.0 771.6379859783281 6.563754364597375 141.0 0.0 127.0 
348.0009270308328 8022.0 536.0 774.5442957297646 6.280356144685823 140.0 0.0 128.0 
350.0001569092609 8054.0 536.0 774.5289993626521 6.565302148654865 139.0 0.0 128.0 
352.0009270308328 9939.0 593.0 847.8980242192475 5.1220942983566795 164.0 0.0 153.0 
354.0009270308328 9682.0 588.0 847.6532823454443 5.349480024232164 163.0 0.0 153.0 
356.0001983480089 9740.0 589.0 827.1536010197563 5.848744951668251 155.0 0.0 146.0 
358.0009270308328 9777.0 590.0 815.4926704907591 6.577162338096892 154.0 0.0 142.0 
360.0009270308328 9787.0 592.0 809.6622052262588 7.254238493952056 152.0 0.0 140.0 
362.0009270308328 9743.0 588.0 800.8846398980245 7.259174836463627 148.0 0.0 137.0 
364.0001569092609 9717.0 588.0 797.8636073932448 6.6899340864701005 148.0 0.0 136.0 
366.0001983480089 10111.0 597.0 789.3180369662193 5.916598884884074 148.0 0.0 133.0 
368.0009270308328 10111.0 597.0 780.5022307202037 6.409997673669092 145.0 0.0 130.0 
370.0009270308328 10209.0 598.0 768.8107074569796 5.755655902850934 144.0 0.0 126.0 
372.0009270308328 10216.0 599.0 774.6666666666669 6.314423087160041 145.0 0.0 128.0 
374.0009270308328 10240.0 600.0 774.6641172721476 6.171164017355028 144.0 0.0 128.0 
376.0001983480089 10204.0 598.0 765.917144678138 6.387085263295192 142.0 0.0 125.0 
378.0001569092609 10207.0 598.0 768.8107074569797 6.910814630253476 142.0 0.0 126.0 
380.0009270308328 10195.0 596.0 771.7603569152313 6.972352181706971 141.0 0.0 127.0 
382.0009270308328 9561.0 580.0 765.9094964945817 6.273526423219178 139.0 0.0 125.0 
384.0009270308328 9503.0 578.0 759.966857871254 7.081090269982534 141.0 0.0 123.0 
386.0001983480089 9513.0 581.0 768.7469725940082 6.955458267775634 148.0 0.0 126.0 
388.0009270308328 9609.0 582.0 765.7896749521993 6.948568775022384 147.0 0.0 125.0 
390.0009270308328 9604.0 580.0 742.3938814531537 7.589198815423691 141.0 0.0 117.0 
392.0009270308328 9630.0 581.0 721.899298916508 6.975786468776265 135.0 0.0 110.0 
394.0009270308328 9647.0 582.0 730.7380497131917 6.848387050759578 138.0 0.0 113.0 
396.0001983480089 9486.0 584.0 683.8980242192475 6.049998603268486 121.0 0.0 97.0 
398.0009270308328 9536.0 586.0 678.1261950286802 5.628332073714361 120.0 0.0 95.0 
400.0009270308328 9274.0 581.0 683.9235181644378 5.755709959833903 120.0 0.0 97.0 
402.0009270308328 9337.0 584.0 695.6711281070743 6.1526178771573194 122.0 0.0 101.0 
404.0009270308328 9051.0 576.0 695.683875079669 6.476590984345126 121.0 0.0 101.0 
406.0001983480089 9075.0 577.0 686.8374760994279 6.5754149804887785 121.0 0.0 98.0 
408.0009270308328 9108.0 577.0 689.78712555768 7.245643190863975 124.0 0.0 99.0 
410.0009270308328 9121.0 578.0 666.3632887189283 7.827386517906921 118.0 0.0 91.0 
412.0009270308328 9315.0 585.0 678.1899298916488 7.291533987940046 125.0 0.0 95.0 
414.0009270308328 9311.0 584.0 683.9209687699162 7.0545773744475 125.0 0.0 97.0 
416.0001983480089 9476.0 589.0 719.2045889101353 6.661058181792999 139.0 0.0 109.0 
418.0009270308328 9599.0 592.0 730.7915869980877 6.3050598339447985 146.0 0.0 113.0 
420.0009270308328 9575.0 592.0 730.758444869344 5.504025736770443 141.0 0.0 113.0 
422.0009270308328 9688.0 594.0 742.6360739324391 6.168197321804813 146.0 0.0 117.0 
424.0001569092609 9756.0 593.0 745.6137667304026 6.606981964492623 148.0 0.0 118.0 
426.0001983480089 10568.0 598.0 775.0541746335256 5.9031046295739005 158.0 0.0 128.0 
428.0009270308328 11391.0 633.0 839.1179094964948 5.696118806263786 177.0 0.0 150.0 
430.0009270308328 11364.0 632.0 836.1759082217975 5.824695845938864 176.0 0.0 149.0 
432.0009270308328 11689.0 638.0 845.27724665392 6.115242676016904 188.0 0.0 152.0 
434.0009270308328 11663.0 636.0 848.1606118546845 7.010754121888227 188.0 0.0 153.0 
436.0001983480089 12388.0 643.0 895.2453792224355 7.03376965060706 201.0 0.0 169.0 
438.0001569092609 12473.0 652.0 895.0006373486293 6.614693672713182 200.0 0.0 169.0 
440.0009270308328 12590.0 654.0 874.5978330146578 6.411315633108266 199.0 0.0 162.0 
442.0009270308328 13285.0 675.0 877.6978967495212 6.422533736724317 201.0 0.0 163.0 
444.0009270308328 13323.0 675.0 877.7004461440416 6.475431824085511 208.0 0.0 163.0 
446.0001983480089 13594.0 684.0 886.4703632887197 5.7875362509864114 212.0 0.0 166.0 
448.0009270308328 13468.0 679.0 883.5411089866144 6.231126685190684 208.0 0.0 165.0 
450.0009270308328 13458.0 678.0 886.4703632887197 6.811269994295874 208.0 0.0 166.0 
452.0001569092609 13895.0 692.0 936.4257488846389 7.028039699114985 230.0 0.0 183.0 
454.0009270308328 13949.0 690.0 941.9885277246658 7.621542705697306 232.0 0.0 185.0 
456.0001983480089 13655.0 682.0 918.5646908859153 8.097297700646132 223.0 0.0 177.0 
458.0009270308328 13321.0 673.0 938.998087954111 7.56563933100036 237.0 0.0 184.0 
460.0009270308328 13381.0 676.0 956.601657106436 7.592549587099394 244.0 0.0 190.0 
462.0009270308328 13114.0 669.0 965.46845124283 6.897300475189452 246.0 0.0 193.0 
464.0009270308328 13103.0 668.0 962.3199490121096 7.213539977835519 246.0 0.0 192.0 
466.0001983480089 12504.0 662.0 965.4047163798608 6.277697004338685 247.0 0.0 193.0 
468.0009270308328 12615.0 659.0 965.2313575525811 6.351173599881952 250.0 0.0 193.0 
470.0009270308328 12505.0 657.0 962.2281708094325 6.911013457070318 247.0 0.0 192.0 
472.0009270308328 12105.0 647.0 965.1523263225005 6.958742107035423 247.0 0.0 193.0 
474.0009270308328 12076.0 646.0 950.4907584448712 7.220765212197707 238.0 0.0 188.0 
476.0001983480089 11862.0 642.0 950.5035054174616 6.655562483345931 244.0 0.0 188.0 
478.0009270308328 11857.0 642.0 947.5309114085413 6.965076445776817 242.0 0.0 187.0 
480.0009270308328 11833.0 641.0 947.5258126195024 7.504045637325483 240.0 0.0 187.0 
482.0009270308328 11245.0 624.0 944.5098789037615 7.239583805871278 235.0 0.0 186.0 
484.0009270308328 10759.0 618.0 935.7272147864893 6.8839872843868655 228.0 0.0 183.0 
486.0001983480089 10789.0 623.0 935.7323135755244 6.746690982101379 227.0 0.0 183.0 
488.0009270308328 10483.0 616.0 935.8215423836855 6.525914328888073 223.0 0.0 183.0 
490.0009270308328 10412.0 613.0 932.7699171446776 6.6318648748542675 221.0 0.0 182.0 
492.0009270308328 10382.0 613.0 923.9464627151062 6.779916686536611 216.0 0.0 179.0 
494.0009270308328 10328.0 611.0 921.0044614404069 6.887953518493205 213.0 0.0 178.0 
496.0001983480089 10298.0 614.0 926.8910133843204 6.788456315065129 220.0 0.0 180.0 
498.0009270308328 10055.0 610.0 932.6781389420014 7.125021935182448 216.0 0.0 182.0 
500.0009270308328 10058.0 609.0 932.4435946462721 6.728006534173725 218.0 0.0 182.0 
502.0009270308328 10029.0 607.0 926.6233269598481 6.494154645899137 217.0 0.0 180.0 
504.0009270308328 9832.0 602.0 923.7119184193771 6.750585890858729 214.0 0.0 179.0 
506.0001983480089 9792.0 601.0 911.8878266411725 6.295430415884823 206.0 0.0 175.0 
508.0009270308328 9980.0 601.0 932.4639898024228 5.51599040425607 212.0 0.0 182.0 
510.0009270308328 10089.0 611.0 941.1599745060564 5.5710555982191385 214.0 0.0 185.0 
512.0009270308328 10346.0 616.0 953.0503505417479 5.490922520075979 217.0 0.0 189.0 
514.0009270308328 10496.0 620.0 955.9031230082837 5.740637422206476 218.0 0.0 190.0 
516.0001983480089 10551.0 619.0 923.7731038878269 5.960943899926707 207.0 0.0 179.0 
518.0009270308328 10534.0 618.0 900.3390694710013 6.244483352287485 200.0 0.0 171.0 
520.0009270308328 10539.0 619.0 862.2893562778845 6.815374946296795 186.0 0.0 158.0 
522.0009270308328 10554.0 619.0 844.7444231994914 6.7936408838211 179.0 0.0 152.0 
524.0009270308328 10626.0 622.0 835.9770554493316 7.240551880486935 176.0 0.0 149.0 
526.0001983480089 10576.0 620.0 809.7004461440428 7.208182710061797 165.0 0.0 140.0 
528.0009270308328 10539.0 617.0 797.9451880178458 6.695234919133512 157.0 0.0 136.0 
530.0009270308328 10501.0 614.0 759.923518164437 6.243732937605836 142.0 0.0 123.0 
532.0009270308328 10520.0 615.0 754.1695347355007 5.947905239647628 138.0 0.0 121.0 
534.0009270308328 10558.0 616.0 748.2574888463976 6.011048072085304 136.0 0.0 119.0 
536.0001983480089 10648.0 614.0 736.5506692160609 6.115595196537862 130.0 0.0 115.0 
538.0009270308328 10621.0 618.0 745.3843212237091 6.509460541572574 133.0 0.0 118.0 
540.0009270308328 10799.0 614.0 763.0108349267055 6.407438793209769 138.0 0.0 124.0 
542.0009270308328 10629.0 610.0 719.1179094964939 6.152561722064378 125.0 0.0 109.0 
544.0009270308328 10591.0 609.0 710.2536647546196 6.3196663289643435 123.0 0.0 106.0 
546.0001983480089 10585.0 606.0 713.1854684512422 6.526995754819386 123.0 0.0 107.0 
548.0009270308328 10572.0 605.0 689.8100701083507 6.472206448366385 112.0 0.0 99.0 
550.0009270308328 10595.0 606.0 686.8782664117281 6.507657315237382 111.0 0.0 98.0 
552.0009270308328 10591.0 606.0 686.8884639898024 6.405174117696678 113.0 0.0 98.0 
554.0009270308328 10526.0 604.0 651.8393881453153 5.8684150275122855 101.0 0.0 86.0 
556.0001983480089 10539.0 606.0 640.0611854684504 5.619734706884993 96.0 0.0 82.0 
558.0009270308328 11290.0 625.0 666.4780114722761 5.494577962680888 114.0 0.0 91.0 
560.0009270308328 11309.0 625.0 666.4117272147873 6.330596072785529 113.0 0.0 91.0 
562.0009270308328 11323.0 624.0 678.2230720203952 6.276470274001978 115.0 0.0 95.0 
564.0009270308328 11354.0 626.0 669.3766730401535 6.378467596525801 115.0 0.0 92.0 
566.0001983480089 11412.0 628.0 672.2931803696616 6.358669155297482 117.0 0.0 93.0 
568.0009270308328 11465.0 628.0 675.270873167623 6.691309257901598 124.0 0.0 94.0 
570.0009270308328 11134.0 626.0 672.2319949012108 6.677520576133474 127.0 0.0 93.0 
572.0009270308328 11212.0 629.0 681.0554493307839 6.427460685298501 134.0 0.0 96.0 
574.0009270308328 11228.0 628.0 692.7367750159348 6.397814988425425 138.0 0.0 100.0 
576.0001983480089 11319.0 637.0 707.4391332058635 6.11037157715154 145.0 0.0 105.0 
578.0009270308328 12833.0 671.0 836.6373486296995 6.07982011400599 182.0 0.0 149.0 
580.0009270308328 13077.0 680.0 859.8368387507973 5.976297651591733 198.0 0.0 157.0 
582.0009270308328 13626.0 685.0 865.904397705544 5.64167391572141 213.0 0.0 159.0 
584.0009270308328 13627.0 684.0 868.757170172085 6.232927175116801 212.0 0.0 160.0 
586.0001983480089 13984.0 692.0 862.9751434034423 6.472380040923954 207.0 0.0 158.0 
588.0009270308328 13840.0 689.0 857.1446781389429 6.226200254371445 216.0 0.0 156.0 
590.0009270308328 13901.0 693.0 860.030592734225 6.568375082688846 220.0 0.0 157.0 
592.0009270308328 13938.0 690.0 868.8489483747605 6.614383128330441 221.0 0.0 160.0 
594.0001569092608 13836.0 691.0 877.547482472913 7.139643568112065 224.0 0.0 163.0 
596.0001983480089 13810.0 689.0 889.2619502868076 7.256297058472532 231.0 0.0 167.0 
598.0009270308328 13926.0 693.0 897.9630337794764 7.536870295653765 233.0 0.0 170.0 
600.0009270308328 14176.0 698.0 895.1612492033138 7.5855243747843755 230.0 0.0 169.0 
602.0009270308328 14278.0 704.0 889.3562778840019 7.433288027576557 236.0 0.0 167.0 
604.0009270308328 14342.0 708.0 924.6755895474821 7.31009277525628 261.0 0.0 179.0 
606.0001983480089 14397.0 708.0 948.1529636711285 7.214414519601881 266.0 0.0 187.0 
608.0001569092608 13524.0 692.0 959.9490121096237 6.081835571327657 270.0 0.0 191.0 
610.0009270308328 13226.0 680.0 959.7629063097522 6.455588820630191 272.0 0.0 191.0 
612.0009270308328 12971.0 679.0 971.4646271510528 6.4494891777925565 272.0 0.0 195.0 
614.0009270308328 12976.0 680.0 982.9521988527728 6.856568312017446 276.0 0.0 199.0 
616.0001983480089 12762.0 676.0 985.8457616316115 6.824411028515995 279.0 0.0 200.0 
618.0009270308328 12639.0 672.0 982.8782664117281 7.013058299966098 275.0 0.0 199.0 
620.0009270308328 12509.0 669.0 982.7941363926061 6.990772446322832 272.0 0.0 199.0 
622.0001569092608 12436.0 673.0 982.9012109623968 7.093826258132717 270.0 0.0 199.0 
624.0009270308328 12379.0 669.0 982.8145315487577 7.314173155922928 262.0 0.0 199.0 
626.0001983480089 12268.0 667.0 979.908221797322 7.66209409866391 256.0 0.0 198.0 
628.0009270308328 12113.0 662.0 947.681325685149 7.889334962301077 244.0 0.0 187.0 
630.0009270308328 11481.0 649.0 944.6908859145944 7.390798223612605 240.0 0.0 186.0 
632.0009270308328 11436.0 647.0 938.8884639898024 7.395461927462715 239.0 0.0 184.0 
634.0009270308328 11349.0 645.0 941.7794773741233 6.9256758976794615 234.0 0.0 185.0 
636.0001983480089 11088.0 633.0 941.7233906947104 6.193557129594982 222.0 0.0 185.0 
638.0009270308328 10791.0 623.0 932.813256851497 6.163053815118124 217.0 0.0 182.0 
640.0009270308328 10741.0 623.0 923.8266411727212 6.600078509061314 210.0 0.0 179.0 
642.0009270308328 10596.0 617.0 926.8247291268322 6.76419411152957 209.0 0.0 180.0 
644.0009270308328 10516.0 615.0 923.7042702358196 6.735049837543913 207.0 0.0 179.0 
646.0001983480089 10466.0 612.0 920.7673677501598 6.632863194819748 204.0 0.0 178.0 
648.0009270308328 10445.0 610.0 917.8279158699811 6.8731005641224305 207.0 0.0 177.0 
650.0009270308328 10718.0 617.0 920.864244741873 6.4108122194452495 208.0 0.0 178.0 
652.0009270308328 10667.0 613.0 915.0108349267049 5.893545647026599 206.0 0.0 176.0 
654.0009270308328 10623.0 613.0 914.8961121733585 6.396491642181521 206.0 0.0 176.0 
656.0001983480089 10629.0 613.0 909.0197578075201 5.985950026125268 206.0 0.0 174.0 
658.0009270308328 11056.0 627.0 947.1867431485033 6.149971982808638 220.0 0.0 187.0 
660.0009270308328 11123.0 626.0 952.9866156787768 6.531534269130392 221.0 0.0 189.0 
662.0009270308328 10963.0 625.0 950.0650095602293 6.37751161151863 217.0 0.0 188.0 
664.0009270308328 10984.0 623.0 955.9388145315489 6.6342120718810245 220.0 0.0 190.0 
#####################################################################
# End of data export. Simulation finished at: 2019-03-04T16:42+0000 #
#####################################################################
