#####################################################################
# Alchemist log file - simulation started at: 2019-03-06T17:33+0000 #
#####################################################################
# seed = 8.0, bandwidth = 2.3713737056616552E7, accessPointCount = 2000.0, baserange = 1000.0
#
# The columns have the following meaning: 
# time neighbor_count[Sum] <value>@neighbor_count[Sum] packet_size[Mean] mean_delay[Mean] crowd[Sum] overcrowded[Sum] risk[Sum] 
0.0 NaN NaN NaN NaN NaN NaN NaN 
2.0001424076810785 132639.0 130703.0 4977.390906491278 0.5010735564540232 1497.0 0.0 1497.0 
4.000316445008414 134110.0 130953.0 4977.0237346296835 0.5509449856911638 1497.0 0.0 1497.0 
6.000097042185649 135034.0 130945.0 4977.842722333428 0.5510030836492419 1497.0 0.0 1497.0 
8.000316445008414 136165.0 130962.0 4979.9050614812695 0.5655149826432498 1496.0 1.0 1496.0 
10.000316445008414 137671.0 130978.0 4982.355161567057 0.5723939295363922 1497.0 0.0 1497.0 
12.000316445008414 137472.0 130811.0 4982.2041750071485 0.547240038420565 1495.0 2.0 1495.0 
14.000316445008414 136812.0 130671.0 4981.071775807835 0.5038259940372053 1487.0 10.0 1487.0 
16.000198348008887 136812.0 130671.0 4980.727480697741 0.5038125978900263 1486.0 11.0 1486.0 
18.000316445008416 136814.0 130672.0 4981.658564483844 0.5042131175500438 1484.0 13.0 1484.0 
20.000316445008416 136812.0 130671.0 4982.3814698312835 0.5039138360211585 1480.0 17.0 1480.0 
22.000316445008416 136834.0 130674.0 4981.362310551902 0.5042859814912733 1478.0 19.0 1478.0 
24.000316445008416 136849.0 130673.0 4980.698884758365 0.504843517501039 1480.0 17.0 1480.0 
26.000198348008887 136843.0 130673.0 4980.35458964827 0.5042630700430653 1480.0 17.0 1480.0 
28.000316445008416 136842.0 130672.0 4981.464112096083 0.5041641824878768 1475.0 22.0 1475.0 
30.000316445008416 136840.0 130671.0 4982.455819273664 0.503920894693843 1480.0 17.0 1480.0 
32.000316445008416 136852.0 130671.0 4981.094652559337 0.5042011586062597 1481.0 16.0 1481.0 
34.000316445008416 136870.0 130673.0 4980.242493565913 0.5052508173996821 1483.0 14.0 1483.0 
36.00019834800889 136849.0 130672.0 4980.424363740349 0.5040565564421091 1480.0 17.0 1480.0 
38.000316445008416 136847.0 130672.0 4981.212467829568 0.5036891786383928 1480.0 17.0 1480.0 
40.000316445008416 136846.0 130671.0 4982.3723191306835 0.5036800460336283 1483.0 14.0 1483.0 
42.000316445008416 136860.0 130671.0 4981.404632542179 0.5037774599426147 1480.0 17.0 1480.0 
44.000316445008416 136881.0 130674.0 4980.161281098084 0.5050743336914354 1480.0 17.0 1480.0 
46.00019834800889 136865.0 130675.0 4980.070917929654 0.5046021985586852 1482.0 15.0 1482.0 
48.000316445008416 136849.0 130672.0 4981.162138976265 0.505105685512525 1480.0 17.0 1480.0 
50.000316445008416 136853.0 130672.0 4982.108092650844 0.5047216021566624 1479.0 18.0 1479.0 
52.000316445008416 136869.0 130674.0 4981.209036316843 0.5056846412668381 1481.0 16.0 1481.0 
54.000316445008416 136884.0 130675.0 4980.514726908779 0.5058218904808575 1480.0 17.0 1480.0 
56.00019834800889 136853.0 130674.0 4980.2996854446665 0.505880006577003 1483.0 14.0 1483.0 
58.000316445008416 136835.0 130675.0 4981.116385473263 0.5057735786592682 1483.0 14.0 1483.0 
60.000316445008416 136840.0 130674.0 4982.239633971975 0.505388439393303 1482.0 15.0 1482.0 
62.000354102472556 136874.0 130674.0 833.1941664283548 0.5052758142856637 843.0 15.0 314.0 
64.00035410247256 136863.0 130672.0 835.6374034886968 0.5052179928520555 594.0 15.0 316.0 
66.0001983480089 136852.0 130672.0 836.9470975121412 0.5046415766019928 523.0 18.0 314.0 
68.00035410247256 136867.0 130674.0 836.8029739777143 0.5060491843660289 471.0 21.0 311.0 
70.00035410247256 136860.0 130674.0 835.5619102087471 0.5054861040037875 459.0 15.0 316.0 
72.00035410247256 136861.0 130672.0 832.9047755218877 0.505244030415354 444.0 16.0 313.0 
74.00035410247256 136867.0 130673.0 832.8796110952343 0.5057889393063552 432.0 21.0 308.0 
76.0001983480089 136860.0 130675.0 835.4498141263996 0.5063405454259801 425.0 21.0 310.0 
78.00035410247256 136831.0 130674.0 835.4852730912106 0.5052415674106134 421.0 19.0 312.0 
80.00035410247256 136856.0 130674.0 835.3834715470371 0.5063327585446722 414.0 23.0 308.0 
82.00035410247256 136856.0 130672.0 835.4154989991329 0.5048066668007144 412.0 22.0 309.0 
84.00035410247256 136880.0 130674.0 835.3983414355291 0.5052083539192265 412.0 22.0 309.0 
86.0001983480089 136891.0 130675.0 836.7011724335023 0.5061427885041913 410.0 22.0 310.0 
88.00035410247256 136864.0 130672.0 836.7011724335023 0.5050785965295751 407.0 23.0 309.0 
90.00035410247256 136858.0 130673.0 836.7263368601518 0.5055065435367052 406.0 23.0 309.0 
92.00035410247256 136882.0 130674.0 836.6920217329109 0.506303452639877 407.0 22.0 310.0 
94.00035410247256 136864.0 130672.0 839.3788961967507 0.5053355363357538 410.0 21.0 313.0 
96.0001983480089 136860.0 130672.0 843.3022590792145 0.5057107682579373 412.0 21.0 316.0 
98.00035410247256 136857.0 130673.0 843.3434372318994 0.506214804644605 414.0 20.0 317.0 
100.00035410247256 136882.0 130676.0 844.5639119245178 0.5077698740992395 414.0 20.0 318.0 
102.00035410247256 136816.0 130674.0 843.2953960537421 0.5067928159137536 415.0 20.0 317.0 
104.00035410247256 136786.0 130672.0 843.2530740634868 0.5058332646488599 413.0 21.0 316.0 
106.0001983480089 136784.0 130671.0 841.9868458678684 0.5053132469430817 412.0 20.0 316.0 
108.00035410247256 136799.0 130673.0 841.9479553903443 0.5063161025331858 411.0 20.0 316.0 
110.00035410247256 136759.0 130673.0 841.9937088933403 0.5054733308104715 409.0 20.0 316.0 
112.00035410247256 136789.0 130674.0 840.626822991124 0.5062970856541953 409.0 20.0 315.0 
114.00035410247256 136776.0 130672.0 841.997140406073 0.5058053867780723 408.0 20.0 316.0 
116.0001983480089 136818.0 130676.0 843.2782384901515 0.5068088577951692 409.0 20.0 317.0 
118.00035410247256 136828.0 130674.0 839.3491564198007 0.5060489565930005 409.0 20.0 314.0 
120.00035410247256 136786.0 130671.0 840.6108092650883 0.505382554449991 410.0 20.0 315.0 
122.00035410247256 136784.0 130673.0 838.0394623963524 0.5059628160521916 409.0 20.0 313.0 
124.00035410247256 136799.0 130677.0 836.6416928796124 0.5064275484190485 409.0 20.0 312.0 
126.0001983480089 136790.0 130673.0 835.4200743494622 0.5064957137715286 409.0 20.0 311.0 
128.00035410247256 136774.0 130673.0 835.3079782670891 0.5053287430740147 406.0 20.0 311.0 
130.00035410247256 136783.0 130672.0 835.3720331713054 0.5057819714447652 404.0 20.0 311.0 
132.00035410247256 136796.0 130677.0 836.668001143832 0.506717171594822 402.0 20.0 312.0 
134.00035410247256 136759.0 130674.0 834.0486130969437 0.5067099346533498 399.0 22.0 308.0 
136.0001983480089 136736.0 130672.0 834.0337432084514 0.5048296640415912 398.0 21.0 309.0 
138.00035410247256 136790.0 130674.0 835.4200743494623 0.5047096597925462 400.0 21.0 310.0 
140.00035410247256 136818.0 130674.0 836.6943094080531 0.5072542585356465 397.0 22.0 310.0 
142.00035410247256 136766.0 130675.0 838.0566199599589 0.5060745477843792 396.0 23.0 310.0 
144.00035410247256 136808.0 130674.0 839.3525879325293 0.5053578152238135 398.0 23.0 311.0 
146.0001983480089 136795.0 130673.0 839.3068344295174 0.505175738970686 400.0 22.0 312.0 
148.00035410247256 136795.0 130673.0 840.6565627681002 0.5046951829950023 399.0 24.0 311.0 
150.00035410247256 136793.0 130672.0 840.6428367171826 0.5050169430706387 404.0 23.0 312.0 
152.00035410247256 136788.0 130673.0 839.3400057191834 0.5047171499856578 408.0 22.0 312.0 
154.00035410247256 136803.0 130675.0 839.3022590792141 0.5048691554453579 404.0 24.0 310.0 
156.0001983480089 136795.0 130674.0 839.2965398913557 0.5045903179604891 406.0 23.0 311.0 
158.00035410247256 136791.0 130672.0 839.32742350588 0.5041343684615229 406.0 24.0 310.0 
160.00035410247256 136809.0 130674.0 837.9639691164027 0.506024090908663 406.0 24.0 309.0 
162.00035410247256 136805.0 130674.0 837.991421218198 0.504563642003293 407.0 23.0 310.0 
164.00035410247256 136810.0 130674.0 838.005147269073 0.5053991832471176 410.0 21.0 312.0 
166.0001983480089 136782.0 130672.0 837.9959965684983 0.5041471008748861 409.0 21.0 312.0 
168.00035410247256 136785.0 130671.0 837.9891335430522 0.5041060692930805 407.0 22.0 311.0 
170.00035410247256 136825.0 130675.0 837.9902773806235 0.506452751230366 408.0 22.0 311.0 
172.00035410247256 136816.0 130680.0 839.3068344295175 0.5079699707995207 409.0 21.0 313.0 
174.00035410247256 136761.0 130675.0 839.3194166428209 0.5066522084868446 411.0 21.0 313.0 
176.0001983480089 136724.0 130672.0 839.293108378597 0.5042462686242645 412.0 21.0 313.0 
178.00035410247256 136737.0 130674.0 839.3056905919469 0.5045438020520573 410.0 21.0 313.0 
180.00035410247256 136728.0 130674.0 839.3182728052503 0.5052283139960284 409.0 21.0 313.0 
182.00035410247256 136734.0 130676.0 839.3056905919469 0.5059780460889871 411.0 21.0 313.0 
184.00035410247256 136720.0 130673.0 837.9822705175811 0.5043776768454274 410.0 21.0 312.0 
186.0001983480089 136712.0 130672.0 838.008578781802 0.5041408921998449 410.0 21.0 312.0 
188.00035410247256 136694.0 130672.0 838.0120102945185 0.503699149709202 410.0 21.0 312.0 
190.00035410247256 136716.0 130673.0 838.002859593927 0.5043912262200794 410.0 21.0 312.0 
192.00035410247256 136711.0 130675.0 837.9674006291191 0.505616851382796 413.0 21.0 312.0 
194.00035410247256 136699.0 130673.0 837.9651129539739 0.5046640356524311 410.0 22.0 311.0 
196.0001983480089 136705.0 130672.0 836.6519874177741 0.5049973334729623 411.0 23.0 309.0 
198.00035410247256 136715.0 130676.0 839.2862453531513 0.5055192214495094 412.0 23.0 311.0 
200.00035410247256 136748.0 130677.0 839.2416356877268 0.5069708508482864 414.0 23.0 311.0 
202.00035410247256 136728.0 130677.0 839.3411495567551 0.505605147121114 411.0 28.0 306.0 
204.00035410247256 136737.0 130676.0 839.2953960537428 0.5070669089123068 416.0 23.0 311.0 
206.0001983480089 136712.0 130672.0 839.3285673434506 0.5052056902272422 413.0 23.0 311.0 
208.00035410247256 136728.0 130676.0 838.0142979697022 0.5065020615921616 413.0 23.0 310.0 
210.00035410247256 136712.0 130674.0 836.6885902201989 0.5058812418543874 411.0 24.0 308.0 
212.00035410247256 136711.0 130674.0 835.4074921361163 0.5052121304228024 408.0 29.0 302.0 
214.00035410247256 136716.0 130672.0 835.3605947955296 0.5053874227601514 407.0 26.0 305.0 
216.0001983480089 136702.0 130672.0 835.3628824706756 0.5048458982576247 403.0 29.0 302.0 
218.00035410247256 136726.0 130674.0 836.6737203317075 0.505159545740224 401.0 29.0 303.0 
220.00035410247256 136750.0 130675.0 839.3171289676762 0.5066634022942965 404.0 28.0 306.0 
222.00035410247256 136748.0 130676.0 840.6245353159784 0.5066960497533461 406.0 28.0 307.0 
224.00035410247256 136718.0 130674.0 839.3262796682928 0.506415460859638 406.0 28.0 306.0 
226.0001983480089 136705.0 130674.0 839.3319988561677 0.5056781352754472 405.0 29.0 305.0 
228.00035410247256 136691.0 130672.0 839.3159851301045 0.5049955886503115 404.0 30.0 304.0 
230.00035410247256 136680.0 130674.0 843.3114097798011 0.5061248043230584 402.0 33.0 304.0 
232.00035410247256 136662.0 130675.0 841.9296539891233 0.5073561776883304 406.0 31.0 305.0 
234.00035410247256 136651.0 130674.0 836.6851587074668 0.5054997442055922 403.0 31.0 301.0 
236.0001983480089 136708.0 130676.0 836.6577066056745 0.505507183888161 405.0 30.0 302.0 
238.00035410247256 136698.0 130674.0 836.700028595928 0.5062411015026408 409.0 25.0 307.0 
240.00035410247256 136686.0 130674.0 836.6897340577694 0.5063359727900211 408.0 26.0 306.0 
242.00035410247256 136667.0 130673.0 835.3594509579582 0.5050920597296016 409.0 25.0 306.0 
244.00035410247256 136672.0 130675.0 832.6771518444237 0.5059799123178496 405.0 29.0 300.0 
246.0001983480089 136674.0 130674.0 832.7148984844198 0.5060434231566219 408.0 26.0 303.0 
248.00035410247256 136639.0 130674.0 834.0211609951479 0.5065865654421223 408.0 24.0 306.0 
250.00035410247256 136610.0 130672.0 834.0680583357345 0.5054265533916146 408.0 24.0 306.0 
252.00035410247256 136647.0 130676.0 836.7046039462574 0.5064389541378298 409.0 24.0 308.0 
254.00035410247256 136663.0 130674.0 836.7091792965452 0.5066163698710919 407.0 24.0 308.0 
256.00010372299243 136647.0 130674.0 836.692021732911 0.5056260641682211 407.0 24.0 308.0 
258.00035410247256 136657.0 130673.0 836.6794395196077 0.5048165116573418 406.0 24.0 308.0 
260.00035410247256 136668.0 130675.0 836.692021732911 0.5067285914275037 405.0 24.0 308.0 
262.00035410247256 136685.0 130676.0 835.388046897325 0.5068875174232216 406.0 24.0 307.0 
264.00035410247256 136654.0 130674.0 835.3525879325293 0.5064993180744627 405.0 24.0 307.0 
266.0001983480089 136645.0 130674.0 838.0223048327224 0.5050410596877125 406.0 23.0 310.0 
268.00035410247256 136681.0 130677.0 834.0520446096556 0.5075177676788043 407.0 22.0 308.0 
270.00035410247256 136635.0 130676.0 836.6817271947499 0.5054584776658971 408.0 22.0 310.0 
272.00035410247256 136634.0 130674.0 836.7091792965454 0.5060289092901021 403.0 22.0 310.0 
274.00035410247256 136633.0 130674.0 836.6908778953409 0.5071152432374444 405.0 22.0 310.0 
276.0001983480089 136614.0 130676.0 838.0188733200059 0.5063162524856089 405.0 22.0 311.0 
278.00035410247256 136627.0 130677.0 837.978839004852 0.5073231308036973 406.0 22.0 311.0 
280.00035410247256 136583.0 130675.0 839.3217043180052 0.5062956344107498 405.0 23.0 311.0 
282.00035410247256 136550.0 130672.0 840.6211038032493 0.5050640732005319 402.0 25.0 310.0 
284.00035410247256 136566.0 130678.0 840.629110666266 0.5074983479222994 403.0 25.0 310.0 
286.0001983480089 136556.0 130674.0 838.0005719187851 0.505410525540333 402.0 25.0 308.0 
288.00035410247256 136563.0 130673.0 837.9513869030563 0.5058013635112922 403.0 25.0 308.0 
290.00035410247256 136574.0 130673.0 837.9776951672777 0.5059003809393935 405.0 25.0 308.0 
292.00035410247256 136548.0 130672.0 837.952530740628 0.5039847641217814 403.0 25.0 308.0 
294.00035410247256 136577.0 130676.0 837.9559622533444 0.5051965331326932 402.0 25.0 308.0 
296.0001983480089 136589.0 130675.0 840.6222476408209 0.5053900265615906 401.0 25.0 310.0 
298.00035410247256 136588.0 130675.0 836.670288818978 0.5049157807899702 398.0 25.0 307.0 
300.00035410247256 136586.0 130673.0 837.9696883042774 0.5049028328958687 399.0 25.0 308.0 
302.00035410247256 136617.0 130678.0 837.9879897054817 0.5064466202799728 401.0 25.0 308.0 
304.00035410247256 136607.0 130678.0 835.3274235058799 0.5075925939284508 402.0 25.0 306.0 
306.0001983480089 136600.0 130674.0 836.6348298541669 0.5052008916159628 404.0 25.0 307.0 
308.00035410247256 136568.0 130676.0 836.6165284529629 0.5054283093927073 402.0 24.0 308.0 
310.00035410247256 136594.0 130678.0 836.6394052044702 0.5074612557398792 404.0 24.0 308.0 
312.00035410247256 136517.0 130674.0 835.3400057191834 0.505727122687056 401.0 24.0 307.0 
314.00035410247256 136525.0 130676.0 836.6622819559749 0.505764731090648 400.0 24.0 308.0 
316.0001983480089 136524.0 130674.0 832.7000285959282 0.5048931389992471 400.0 24.0 305.0 
318.00035410247256 136545.0 130674.0 831.4029167858295 0.5059100400684211 396.0 24.0 304.0 
320.00035410247256 136525.0 130673.0 830.1515584786872 0.5055137417315173 393.0 24.0 303.0 
322.00035410247256 136543.0 130675.0 828.7926794395104 0.5055774334448074 394.0 25.0 301.0 
324.00035410247256 136571.0 130675.0 828.7549327995569 0.5053582034159715 392.0 27.0 299.0 
326.0001983480089 136590.0 130678.0 827.4761223906362 0.5063870202926201 389.0 29.0 296.0 
328.00035410247256 136611.0 130676.0 828.783528738923 0.5068970980073032 388.0 30.0 296.0 
330.00035410247256 136612.0 130677.0 830.1126680011596 0.5071710405348875 387.0 29.0 298.0 
332.00035410247256 136597.0 130676.0 830.1058049756876 0.5073088966710365 388.0 28.0 299.0 
334.00035410247256 136552.0 130672.0 830.0840720617543 0.506084782970536 392.0 22.0 305.0 
336.0001983480089 136513.0 130671.0 831.4074921361163 0.5052849205113882 395.0 22.0 306.0 
338.00035410247256 136520.0 130675.0 827.4280812124789 0.5052969365702139 394.0 22.0 303.0 
340.00035410247256 136521.0 130673.0 827.4589648269866 0.5049113191319609 394.0 22.0 303.0 
342.00035410247256 136540.0 130676.0 830.0840720617543 0.5060346350119396 395.0 22.0 305.0 
344.00035410247256 136559.0 130676.0 830.065770660576 0.5057642609337154 396.0 22.0 305.0 
346.0001983480089 136533.0 130672.0 830.0875035745091 0.5048857121330591 395.0 22.0 305.0 
348.00035410247256 136529.0 130674.0 830.0749213611634 0.5052891506502328 395.0 22.0 305.0 
350.00035410247256 136516.0 130673.0 831.3949099227705 0.5060009877158576 395.0 22.0 306.0 
352.00035410247256 136495.0 130673.0 830.0646268230016 0.504749230159352 395.0 22.0 305.0 
354.00035410247256 136520.0 130679.0 830.0543322848016 0.5072266025655414 396.0 22.0 305.0 
356.0001983480089 136488.0 130673.0 830.0806405490381 0.5053594429822531 397.0 21.0 306.0 
358.00035410247256 136480.0 130674.0 830.073777523593 0.5047885419578274 399.0 21.0 306.0 
360.00035410247256 136523.0 130676.0 830.0794967114514 0.5075430965451099 399.0 21.0 306.0 
362.00035410247256 136499.0 130675.0 826.1035173005303 0.5066434678549858 403.0 21.0 303.0 
364.00035410247256 136509.0 130676.0 826.1160995138756 0.506790095843669 399.0 24.0 300.0 
366.0001983480089 136513.0 130675.0 826.0657706605758 0.5070778032356246 401.0 22.0 302.0 
368.00035410247256 136462.0 130674.0 819.5493279954277 0.5052230949673063 400.0 21.0 298.0 
370.00035410247256 136484.0 130675.0 819.5092936802898 0.5053161951271959 402.0 21.0 298.0 
372.00035410247256 136486.0 130678.0 820.8144123534476 0.5076206170035332 403.0 21.0 299.0 
374.00035410247256 136458.0 130678.0 822.1332570774834 0.507111613579142 404.0 21.0 300.0 
376.0001983480089 136435.0 130673.0 822.1126680011592 0.5051516269757027 403.0 21.0 300.0 
378.00035410247256 136488.0 130677.0 824.7652273377189 0.5060243959601947 403.0 21.0 302.0 
380.00035410247256 136483.0 130676.0 824.7846725765098 0.5058853983392763 403.0 21.0 302.0 
382.00035410247256 136484.0 130674.0 824.7560766371273 0.5062422031539471 401.0 21.0 302.0 
384.00035410247256 136515.0 130680.0 826.0577637975304 0.508433381910466 400.0 22.0 302.0 
386.0001983480089 136437.0 130675.0 826.0714898484509 0.5057415607465559 402.0 21.0 303.0 
388.00035410247256 136505.0 130683.0 824.7434944237818 0.5078122387066767 400.0 21.0 302.0 
390.00035410247256 136462.0 130676.0 826.0932227623838 0.505409991589126 400.0 21.0 303.0 
392.00035410247256 136432.0 130672.0 826.0840720617543 0.5046319283134902 399.0 21.0 303.0 
394.00035410247256 136445.0 130674.0 824.7720903631642 0.505461638661006 400.0 22.0 301.0 
396.0001983480089 136422.0 130675.0 823.4395195882113 0.5045282403514285 401.0 22.0 300.0 
398.00035410247256 136494.0 130678.0 824.7789533886352 0.5060501212215279 403.0 22.0 301.0 
400.00035410247256 136483.0 130676.0 823.4555333142745 0.5053125767908629 402.0 22.0 300.0 
402.00035410247256 136495.0 130676.0 823.4452387761115 0.5052899612092684 406.0 22.0 300.0 
404.00035410247256 136525.0 130678.0 826.0852158993262 0.5074909917991165 407.0 21.0 303.0 
406.0001983480089 136480.0 130675.0 826.1000857878128 0.5056187079038063 407.0 21.0 303.0 
408.00035410247256 136495.0 130677.0 827.4040606234 0.5068599390175944 407.0 21.0 304.0 
410.00035410247256 136504.0 130676.0 827.4475264512533 0.5067679614890336 406.0 21.0 304.0 
412.00035410247256 136474.0 130673.0 828.7320560480524 0.5042266678478549 406.0 21.0 305.0 
414.00035410247256 136502.0 130675.0 826.116099513876 0.5044889954767314 404.0 22.0 302.0 
416.0001983480089 136520.0 130679.0 826.1206748641794 0.5058277053082674 404.0 21.0 303.0 
418.00035410247256 136532.0 130676.0 823.4601086645613 0.5059700914445929 400.0 22.0 300.0 
420.00035410247256 136513.0 130679.0 822.1950243065575 0.5060239432911904 399.0 21.0 300.0 
422.00035410247256 136481.0 130674.0 820.8247068916095 0.5055420818699757 400.0 22.0 298.0 
424.00035410247256 136525.0 130675.0 824.7961109522269 0.5057166559299262 404.0 21.0 302.0 
426.0001983480089 136463.0 130675.0 823.480697740924 0.5053319463904873 402.0 21.0 301.0 
428.00035410247256 136432.0 130672.0 823.4818415784941 0.5046539755012306 401.0 22.0 300.0 
430.00035410247256 136465.0 130673.0 823.4623963397033 0.5056256019316463 400.0 23.0 299.0 
432.00035410247256 136438.0 130672.0 823.4543894767029 0.5043830606783254 400.0 23.0 299.0 
434.00035410247256 136454.0 130675.0 826.0657706605759 0.5051266551996312 404.0 24.0 300.0 
436.0001983480089 136442.0 130674.0 827.3914784100542 0.5044142149252459 406.0 24.0 301.0 
438.00035410247256 136446.0 130674.0 826.1218187017499 0.5045167787874115 404.0 25.0 299.0 
440.00035410247256 136474.0 130675.0 827.4738347154788 0.5049130952921898 400.0 26.0 299.0 
442.00035410247256 136521.0 130679.0 834.0657706605762 0.5069029922479275 402.0 25.0 305.0 
444.00035410247256 136484.0 130677.0 835.3731770088758 0.5074734536386389 406.0 23.0 308.0 
446.0001983480089 136460.0 130675.0 836.6508435801994 0.5046609367033368 406.0 25.0 307.0 
448.00035410247256 136478.0 130674.0 835.3125536173758 0.5051378118871509 409.0 25.0 306.0 
450.00035410247256 136500.0 130678.0 836.6291106662663 0.5071124885777293 414.0 24.0 308.0 
452.00035410247256 136454.0 130675.0 836.638261366896 0.5059265263453624 414.0 24.0 308.0 
454.00035410247256 136497.0 130676.0 836.6073777523718 0.505547801515397 415.0 25.0 307.0 
456.0001983480089 136470.0 130673.0 837.890763511596 0.5043777216364309 418.0 25.0 308.0 
458.00035410247256 136515.0 130677.0 839.2336288247106 0.5056582105795322 419.0 24.0 310.0 
460.00035410247256 136472.0 130676.0 840.5627680869463 0.5054465739580294 419.0 24.0 311.0 
462.00035410247256 136477.0 130674.0 837.9159279382459 0.5059132545953854 417.0 25.0 308.0 
464.00035410247256 136463.0 130677.0 837.9102087503447 0.5064947201191452 420.0 26.0 307.0 
466.0001983480089 136441.0 130676.0 839.1867314841229 0.50522131734237 418.0 27.0 307.0 
468.00035410247256 136480.0 130679.0 839.2130397483478 0.5068751503359505 417.0 27.0 307.0 
470.00035410247256 136438.0 130672.0 833.9674006291191 0.5037945034634779 415.0 26.0 304.0 
472.00035410247256 136467.0 130676.0 836.5318844724222 0.5053803968466843 416.0 27.0 305.0 
474.00035410247256 136463.0 130677.0 835.2713754646638 0.5073908156655687 416.0 27.0 304.0 
476.0001983480089 136396.0 130673.0 835.2530740634865 0.5047829541077471 415.0 28.0 303.0 
478.00035410247256 136390.0 130673.0 836.5799256505377 0.5048321950898068 416.0 26.0 306.0 
480.00035410247256 136411.0 130674.0 832.6256791535499 0.5053625315821898 417.0 25.0 304.0 
482.00035410247256 136374.0 130672.0 828.7148984844198 0.5044841212891188 418.0 25.0 301.0 
484.00035410247256 136384.0 130676.0 828.6863025450529 0.5068736365841559 418.0 25.0 301.0 
486.0001983480089 136344.0 130674.0 827.4063482985459 0.5049502556230262 414.0 26.0 299.0 
488.00035410247256 136352.0 130676.0 828.6863025450529 0.5053084100904478 414.0 24.0 302.0 
490.00035410247256 136364.0 130677.0 828.7469259365137 0.5057272015021309 415.0 24.0 302.0 
492.00035410247256 136362.0 130679.0 831.3125536173757 0.5054527931067985 415.0 23.0 305.0 
494.00035410247256 136377.0 130680.0 832.6588504432451 0.50653390927761 417.0 23.0 306.0 
496.0001983480089 136379.0 130675.0 831.317128967676 0.5048634252300467 417.0 23.0 305.0 
498.00035410247256 136399.0 130674.0 831.2896768658682 0.5046418138796467 418.0 23.0 305.0 
500.00035410247256 136420.0 130677.0 831.2828138404393 0.5055672133685771 419.0 25.0 303.0 
502.00035410247256 136400.0 130675.0 828.6577066056744 0.5042726393086279 418.0 25.0 301.0 
504.00035410247256 136440.0 130677.0 827.3503002573719 0.5050568332097629 418.0 25.0 300.0 
506.0001983480089 136421.0 130672.0 829.9799828424236 0.503176039461592 419.0 23.0 304.0 
508.00035410247256 136460.0 130676.0 831.275950814993 0.5056400119808447 423.0 23.0 305.0 
510.00035410247256 136464.0 130675.0 832.6336860165957 0.5056129693864527 426.0 22.0 307.0 
512.0003541024726 136480.0 130677.0 828.6416928796124 0.5054268616599561 424.0 24.0 302.0 
514.0003541024726 136473.0 130677.0 823.3949099227709 0.5056667129772173 422.0 25.0 297.0 
516.0001983480089 136444.0 130674.0 820.7606519874308 0.5047869612109371 411.0 24.0 296.0 
518.0003541024726 136469.0 130676.0 820.746925936514 0.5055215065218704 409.0 23.0 297.0 
520.0003541024726 136461.0 130679.0 819.4578209894153 0.5075648245601656 403.0 26.0 293.0 
522.0003541024726 136410.0 130676.0 814.1950243065575 0.5056875243470411 401.0 26.0 289.0 
524.0003541024726 136421.0 130674.0 807.6110952244596 0.5046444385344623 396.0 25.0 285.0 
526.0001983480089 136405.0 130677.0 807.637403488698 0.5062691639982774 391.0 26.0 284.0 
528.0003541024726 136419.0 130678.0 807.6019445238887 0.5053306302530685 393.0 24.0 286.0 
530.0003541024726 136435.0 130675.0 811.5733485845057 0.5049241789635518 394.0 22.0 291.0 
532.0003541024726 136409.0 130673.0 811.5859307978101 0.5042361409068958 396.0 22.0 291.0 
534.0003541024726 136422.0 130676.0 810.2522161852866 0.5051531520838323 393.0 22.0 290.0 
536.0001983480089 136424.0 130672.0 810.2716614240776 0.5041110298522061 393.0 22.0 290.0 
538.0003541024726 136492.0 130677.0 810.2670860737906 0.5049007157494407 396.0 22.0 290.0 
540.0003541024726 136488.0 130678.0 808.9734057763663 0.5070110621219392 398.0 22.0 289.0 
542.0003541024726 136459.0 130675.0 807.677437803837 0.5041180515193117 400.0 22.0 288.0 
544.0003541024726 136469.0 130674.0 808.959679725487 0.5039971459057027 401.0 22.0 289.0 
546.0001983480089 136483.0 130675.0 808.9997140405874 0.5044060743101688 401.0 22.0 289.0 
548.0003541024726 136472.0 130675.0 810.287675150139 0.5041056568893683 401.0 22.0 290.0 
550.0003541024726 136517.0 130677.0 810.3185587646641 0.5049193045874589 400.0 22.0 290.0 
552.0001639120252 136544.0 130676.0 815.5458964827102 0.5049643523893217 406.0 22.0 294.0 
554.0001322004481 136537.0 130673.0 811.6740062911206 0.504674300447716 405.0 22.0 291.0 
556.0001322004481 136538.0 130675.0 814.231627108941 0.5051832493620968 405.0 23.0 292.0 
558.0001322004481 136506.0 130673.0 814.2830997998113 0.5045691636813008 406.0 21.0 294.0 
560.0003430486998 136545.0 130678.0 814.2064626822875 0.5067915044154834 405.0 21.0 294.0 
562.0003541024726 136502.0 130674.0 815.5607663711605 0.5052038483934551 404.0 21.0 295.0 
564.0003541024726 136576.0 130680.0 815.5230197312055 0.5080756850657349 406.0 21.0 295.0 
566.0001983480089 136497.0 130674.0 815.5756362596646 0.5061186756012801 406.0 21.0 295.0 
568.0003541024726 136494.0 130675.0 816.8304260795093 0.5053732192483671 406.0 21.0 296.0 
570.0003541024726 136516.0 130679.0 816.9230769230669 0.5068919948436517 407.0 21.0 296.0 
572.0003541024726 136521.0 130677.0 818.1824420932122 0.5053812140795342 406.0 21.0 297.0 
574.0003541024726 136557.0 130683.0 818.2487846725699 0.5100519249726627 403.0 21.0 297.0 
576.0001983480089 136469.0 130675.0 818.1790105804788 0.5046505999146955 403.0 21.0 297.0 
578.0003541024726 136464.0 130673.0 818.1973119816996 0.5045633276151157 404.0 21.0 297.0 
580.0003541024726 136482.0 130675.0 815.5870746353971 0.5047524241775123 405.0 21.0 295.0 
582.0003187589813 136489.0 130675.0 816.9219330854922 0.5054072167180208 404.0 21.0 296.0 
584.0003541024726 136545.0 130678.0 819.5664855590359 0.5075421750931982 402.0 21.0 298.0 
586.0001983480089 136493.0 130676.0 818.2819559622401 0.5066272916757942 400.0 21.0 297.0 
588.0003541024726 136455.0 130675.0 816.9059193594588 0.5049646845795006 399.0 21.0 296.0 
590.000334952127 136474.0 130676.0 818.2453531598566 0.5055395264663477 406.0 21.0 297.0 
592.0003541024726 136453.0 130672.0 822.1469831284004 0.5034889774581426 404.0 21.0 300.0 
594.0003541024726 136514.0 130681.0 823.5047183300031 0.5079398129254384 404.0 21.0 301.0 
596.0001983480089 136489.0 130681.0 824.8132685158772 0.5068497635509539 404.0 21.0 302.0 
598.0003541024726 136432.0 130674.0 824.8281384043635 0.5049564504088103 404.0 21.0 302.0 
600.0003541024726 136441.0 130674.0 826.1492708035412 0.505006740882252 406.0 21.0 303.0 
602.0003541024726 136464.0 130674.0 824.8018301401021 0.5057486244072549 402.0 21.0 302.0 
604.0003541024726 136485.0 130678.0 824.829282241935 0.5075931264281285 400.0 21.0 302.0 
606.0001983480089 136499.0 130675.0 826.1778667429083 0.5053720702042239 400.0 21.0 303.0 
608.0003541024726 136476.0 130672.0 826.1527023162577 0.5039753050468228 401.0 22.0 302.0 
610.0003541024726 136476.0 130674.0 828.7720903631641 0.5053086732889884 398.0 24.0 302.0 
612.0003541024726 136461.0 130672.0 830.1035173005304 0.5050456761120287 397.0 25.0 302.0 
614.0003541024726 136588.0 130686.0 836.6565627681006 0.5088750253590703 399.0 28.0 304.0 
616.0001983480089 136579.0 130677.0 836.6691449814036 0.5056914425250654 401.0 28.0 304.0 
618.0003541024726 136577.0 130673.0 835.3331426937384 0.5045684072566596 403.0 26.0 305.0 
620.0003541024726 136602.0 130678.0 836.640549042042 0.50566110850836 408.0 21.0 311.0 
622.0003541024726 136589.0 130673.0 836.60509007723 0.5040044306853082 408.0 21.0 311.0 
624.0003541024726 136672.0 130681.0 837.9079210752022 0.5071140574850291 406.0 22.0 311.0 
626.0001983480089 136601.0 130677.0 836.6268229911241 0.506410983102523 404.0 22.0 310.0 
628.0003541024726 136638.0 130680.0 836.6817271947499 0.5072887851429486 404.0 22.0 310.0 
630.0003541024726 136637.0 130674.0 837.9490992279161 0.5058354701177231 406.0 21.0 312.0 
632.0003541024726 136631.0 130678.0 837.9376608521401 0.5076432974508931 406.0 22.0 311.0 
634.0003541024726 136590.0 130678.0 839.2725193022769 0.5077082020887382 406.0 22.0 312.0 
636.0001983480089 136541.0 130678.0 839.2553617386437 0.5062654644668433 406.0 22.0 312.0 
638.0003541024726 136545.0 130674.0 839.2473548756274 0.5053713528607656 407.0 22.0 312.0 
640.0003541024726 136549.0 130677.0 835.337718044025 0.50701419208162 406.0 22.0 309.0 
642.0003541024726 136476.0 130675.0 836.5833571632967 0.504471908655845 405.0 22.0 310.0 
644.0003541024726 136505.0 130677.0 838.0074349442301 0.5071938771922272 409.0 22.0 311.0 
646.0001983480089 136438.0 130673.0 835.3056905919469 0.5043405468396164 408.0 22.0 309.0 
648.0002897754898 136461.0 130677.0 835.3125536173757 0.5058863712719407 410.0 21.0 310.0 
650.0002897754898 136494.0 130679.0 834.0371747212104 0.509328477496291 409.0 22.0 308.0 
652.0002897754898 136434.0 130674.0 831.3823277094671 0.5053222527019806 406.0 21.0 307.0 
654.0002897754898 136485.0 130682.0 831.3823277094671 0.5090573878080559 404.0 21.0 307.0 
656.0001983480089 136415.0 130675.0 832.6931655704826 0.5058497162411697 397.0 21.0 308.0 
658.0002897754898 136397.0 130674.0 832.6508435801994 0.5053085663684368 395.0 21.0 308.0 
660.0002897754898 136416.0 130673.0 832.658850443245 0.5047110296826571 397.0 21.0 308.0 
662.0002897754898 136432.0 130676.0 832.6474120674708 0.5064088002622719 397.0 21.0 308.0 
664.0002897754898 136436.0 130678.0 833.938804689753 0.5057289829870759 398.0 21.0 309.0 
#####################################################################
# End of data export. Simulation finished at: 2019-03-06T18:04+0000 #
#####################################################################
