#####################################################################
# Alchemist log file - simulation started at: 2019-03-03T06:03+0000 #
#####################################################################
# seed = 9.0, bandwidth = 5623413.251903491, accessPointCount = 10.0, baserange = 56.234132519034915
#
# The columns have the following meaning: 
# time neighbor_count[Sum] <value>@neighbor_count[Sum] packet_size[Mean] mean_delay[Mean] crowd[Sum] overcrowded[Sum] risk[Sum] 
0.0 NaN NaN NaN NaN NaN NaN NaN 
10.000001410132539 10.0 4.0 4987.92302587923 0.4987326456684569 1497.0 0.0 1497.0 
20.00000141013254 10.0 4.0 4987.960185799602 0.4987304101171982 1497.0 0.0 1497.0 
30.00000141013254 10.0 4.0 4987.912408759124 0.49873366182811957 1497.0 0.0 1497.0 
40.00000141013254 10.0 4.0 4987.960185799602 0.4987304101171982 1497.0 0.0 1497.0 
50.00000141013254 10.0 4.0 4987.912408759124 0.49873366182812007 1497.0 0.0 1497.0 
60.00000141013254 10.0 4.0 4987.960185799602 0.4987304101171982 1497.0 0.0 1497.0 
70.00033744596142 10.0 4.0 400.0 0.49989838403371123 0.0 0.0 0.0 
80.00033744596142 10.0 4.0 400.0 0.49989838403371123 0.0 0.0 0.0 
90.00033744596142 10.0 4.0 400.0 0.49989838403371123 0.0 0.0 0.0 
100.00033744596142 10.0 4.0 400.0 0.49989838403371123 0.0 0.0 0.0 
110.00033744596142 10.0 4.0 400.0 0.49989838403371123 0.0 0.0 0.0 
120.00033744596142 10.0 4.0 400.0 0.49989838403371123 0.0 0.0 0.0 
130.0003374459614 10.0 4.0 400.0 0.4998983840337092 0.0 0.0 0.0 
140.0003374459614 10.0 4.0 400.0 0.4998983840337092 0.0 0.0 0.0 
150.0003374459614 10.0 4.0 400.0 0.4998983840337092 0.0 0.0 0.0 
160.0003374459614 10.0 4.0 400.0 0.4998983840337092 0.0 0.0 0.0 
170.0003374459614 12.0 5.0 400.0 0.4979025060160727 0.0 0.0 0.0 
180.0003374459614 16.0 5.0 400.0 0.49985773764719 0.0 0.0 0.0 
190.0003374459614 16.0 5.0 406.1021897810219 0.5412168508898911 2.0 0.0 2.0 
200.0003374459614 16.0 5.0 406.09422694094224 0.8743279882109422 3.0 0.0 2.0 
210.0003374459614 10.0 4.0 406.0889183808892 0.49966527700704383 3.0 0.0 2.0 
220.0003374459614 10.0 4.0 406.0889183808892 0.49966527700704383 3.0 0.0 2.0 
230.0003374459614 10.0 4.0 406.0889183808892 0.49966527700704383 3.0 0.0 2.0 
240.0003374459614 10.0 4.0 406.0889183808892 0.49966527700704383 3.0 0.0 2.0 
250.0003374459614 10.0 4.0 406.0889183808892 0.49966527700704383 3.0 0.0 2.0 
260.0003374459614 10.0 4.0 403.04445919044457 0.4996652770070357 2.0 0.0 1.0 
270.0003374459614 10.0 4.0 400.0 0.499898384033697 0.0 0.0 0.0 
280.0003374459614 10.0 4.0 400.0 0.499898384033697 0.0 0.0 0.0 
290.0003374459614 10.0 4.0 400.0 0.499898384033697 0.0 0.0 0.0 
300.0003374459614 10.0 4.0 400.0 0.499898384033697 0.0 0.0 0.0 
310.0003374459614 10.0 4.0 400.0 0.499898384033697 0.0 0.0 0.0 
320.0003374459614 10.0 4.0 400.0 0.499898384033697 0.0 0.0 0.0 
330.0003374459614 10.0 4.0 400.0 0.499898384033697 0.0 0.0 0.0 
340.0003374459614 10.0 4.0 400.0 0.499898384033697 0.0 0.0 0.0 
350.0003374459614 10.0 4.0 400.0 0.499898384033697 0.0 0.0 0.0 
360.0003374459614 10.0 4.0 400.0 0.499898384033697 0.0 0.0 0.0 
370.0003374459614 10.0 4.0 400.0 0.499898384033697 0.0 0.0 0.0 
380.0003374459614 10.0 4.0 400.0 0.499898384033697 0.0 0.0 0.0 
390.0003374459614 10.0 4.0 400.0 0.499898384033697 0.0 0.0 0.0 
400.0003374459614 10.0 4.0 400.0 0.499898384033697 0.0 0.0 0.0 
410.0003374459614 10.0 4.0 400.0 0.499898384033697 0.0 0.0 0.0 
420.0003374459614 10.0 4.0 400.0 0.499898384033697 0.0 0.0 0.0 
430.0003374459614 10.0 4.0 400.0 0.499898384033697 0.0 0.0 0.0 
440.0003374459614 10.0 4.0 400.0 0.499898384033697 0.0 0.0 0.0 
450.0003374459614 10.0 4.0 400.0 0.499898384033697 0.0 0.0 0.0 
460.0003374459614 10.0 4.0 400.0 0.499898384033697 0.0 0.0 0.0 
470.0003374459614 10.0 4.0 400.0 0.499898384033697 0.0 0.0 0.0 
480.0003374459614 10.0 4.0 400.0 0.499898384033697 0.0 0.0 0.0 
490.0003374459614 10.0 4.0 400.0 0.499898384033697 0.0 0.0 0.0 
500.0003374459614 10.0 4.0 400.0 0.499898384033697 0.0 0.0 0.0 
510.0003374459614 10.0 4.0 400.0 0.499898384033697 0.0 0.0 0.0 
520.0003374459613 10.0 4.0 400.0 0.49989838403372944 0.0 0.0 0.0 
530.0003374459613 10.0 4.0 400.0 0.49989838403372944 0.0 0.0 0.0 
540.0003374459613 10.0 4.0 400.0 0.49989838403372944 0.0 0.0 0.0 
550.0003374459613 10.0 4.0 400.0 0.49989838403372944 0.0 0.0 0.0 
560.0003374459613 10.0 4.0 400.0 0.49989838403372944 0.0 0.0 0.0 
570.0003374459613 10.0 4.0 400.0 0.49989838403372944 0.0 0.0 0.0 
580.0003374459613 10.0 4.0 400.0 0.49989838403372944 0.0 0.0 0.0 
590.0003374459613 10.0 4.0 400.0 0.49989838403372944 0.0 0.0 0.0 
600.0003374459613 10.0 4.0 400.0 0.49989838403372944 0.0 0.0 0.0 
610.0003374459613 10.0 4.0 400.0 0.49989838403372944 0.0 0.0 0.0 
620.0003374459613 10.0 4.0 400.0 0.49989838403372944 0.0 0.0 0.0 
630.0003374459613 10.0 4.0 400.0 0.49989838403372944 0.0 0.0 0.0 
640.0003374459613 10.0 4.0 400.0 0.49989838403372944 0.0 0.0 0.0 
650.0003374459613 10.0 4.0 400.0 0.49989838403372944 0.0 0.0 0.0 
660.0003374459613 10.0 4.0 400.0 0.49989838403372944 0.0 0.0 0.0 
#####################################################################
# End of data export. Simulation finished at: 2019-03-03T06:08+0000 #
#####################################################################
