#####################################################################
# Alchemist log file - simulation started at: 2019-03-03T06:57+0000 #
#####################################################################
# seed = 9.0, bandwidth = 5623413.251903491, accessPointCount = 1031.338537721246, baserange = 10.0
#
# The columns have the following meaning: 
# time neighbor_count[Sum] <value>@neighbor_count[Sum] packet_size[Mean] mean_delay[Mean] crowd[Sum] overcrowded[Sum] risk[Sum] 
0.0 NaN NaN NaN NaN NaN NaN NaN 
10.000001410132539 70.0 35.0 4978.670886075949 0.5005715909699051 1497.0 0.0 1497.0 
20.00000141013254 71.0 35.0 4978.661392405063 0.49303821876713244 1497.0 0.0 1497.0 
30.00000141013254 72.0 36.0 4978.625 0.5174712272182128 1497.0 0.0 1497.0 
40.00000141013254 70.0 35.0 4978.664556962025 0.5005713164285236 1497.0 0.0 1497.0 
50.00000141013254 76.0 37.0 4978.636075949367 0.5004541685820854 1497.0 0.0 1497.0 
60.00000141013254 78.0 38.0 4978.68670886076 0.5004106295468279 1497.0 0.0 1497.0 
70.00033744596142 76.0 37.0 401.81487341772146 0.5015030096333228 20.0 0.0 1.0 
80.00033744596142 76.0 38.0 401.81487341772146 0.5018145206404221 11.0 0.0 1.0 
90.00033744596142 78.0 39.0 401.81487341772146 0.5017555940211464 6.0 0.0 1.0 
100.00033744596142 74.0 37.0 401.81487341772146 0.501480702300856 6.0 0.0 1.0 
110.00033744596142 78.0 39.0 401.81487341772146 0.5013852048561019 6.0 0.0 1.0 
120.00033744596142 78.0 39.0 401.81487341772146 0.5321544356253327 6.0 0.0 1.0 
130.0003374459614 76.0 38.0 401.81487341772146 0.5004310372015297 5.0 0.0 1.0 
140.0003374459614 80.0 39.0 405.44462025316466 0.498567828140478 8.0 0.0 3.0 
150.0003374459614 78.0 39.0 405.44462025316466 0.49853301450367526 7.0 0.0 3.0 
160.0003374459614 78.0 38.0 405.44462025316466 0.501425912362247 7.0 0.0 3.0 
170.0003374459614 78.0 38.0 405.44462025316466 0.5336845505168952 7.0 0.0 3.0 
180.0003374459614 76.0 37.0 405.44462025316466 0.5026821790001134 6.0 0.0 3.0 
190.0003374459614 76.0 37.0 405.44462025316466 0.5026821790001134 6.0 0.0 3.0 
200.0003374459614 75.0 37.0 401.81487341772146 0.4973743413991557 4.0 0.0 1.0 
210.0003374459614 74.0 36.0 401.81487341772146 0.5009398938577667 4.0 0.0 1.0 
220.0003374459614 78.0 38.0 401.81487341772146 0.5008735971342141 4.0 0.0 1.0 
230.0003374459614 80.0 39.0 401.81487341772146 0.5008436057592736 4.0 0.0 1.0 
240.0003374459614 78.0 38.0 401.81487341772146 0.5500539250030664 4.0 0.0 1.0 
250.0003374459614 76.0 37.0 401.81487341772146 0.5009056218227098 4.0 0.0 1.0 
260.0003374459614 78.0 38.0 401.81487341772146 0.5008735971342145 4.0 0.0 1.0 
270.0003374459614 82.0 40.0 401.81487341772146 0.5320200005068816 4.0 0.0 1.0 
280.0003374459614 82.0 40.0 401.81487341772146 0.5008154600074067 4.0 0.0 1.0 
290.0003374459614 84.0 40.0 401.81487341772146 0.5320759787207595 4.0 0.0 1.0 
300.0003374459614 80.0 39.0 401.81487341772146 0.5087812427620741 4.0 0.0 1.0 
310.0003374459614 80.0 39.0 401.81487341772146 0.5025100971140818 4.0 0.0 1.0 
320.0003374459614 78.0 38.0 401.81487341772146 0.5025933625428074 4.0 0.0 1.0 
330.0003374459614 80.0 39.0 401.81487341772146 0.4982542078274183 4.0 0.0 1.0 
340.0003374459614 78.0 38.0 401.81487341772146 0.4981993009095111 4.0 0.0 1.0 
350.0003374459614 80.0 39.0 401.81487341772146 0.4982542078274183 4.0 0.0 1.0 
360.0003374459614 90.0 41.0 407.28164556962025 0.5023115693897992 7.0 0.0 4.0 
370.0003374459614 79.0 38.0 407.26582278481004 0.537739419738739 7.0 0.0 4.0 
380.0003374459614 76.0 37.0 407.2594936708859 0.5026685810902257 7.0 0.0 4.0 
390.0003374459614 78.0 38.0 407.2594936708859 0.5025670440075383 7.0 0.0 4.0 
400.0003374459614 74.0 36.0 407.2594936708859 0.5027630539270064 7.0 0.0 4.0 
410.0003374459614 78.0 37.0 407.2594936708859 0.5027114000518765 7.0 0.0 4.0 
420.0003374459614 74.0 36.0 407.2594936708859 0.5027630539270064 7.0 0.0 4.0 
430.0003374459614 72.0 35.0 401.81487341772146 0.5028788440127239 5.0 0.0 1.0 
440.0003374459614 76.0 37.0 401.81487341772146 0.49705170401727616 4.0 0.0 1.0 
450.0003374459614 84.0 41.0 401.81487341772146 0.5212720463733375 4.0 0.0 1.0 
460.0003374459614 84.0 40.0 401.81487341772146 0.5066441735470876 4.0 0.0 1.0 
470.0003374459614 86.0 41.0 401.81487341772146 0.5051493442118863 4.0 0.0 1.0 
480.0003374459614 82.0 40.0 401.81487341772146 0.5055327446155868 4.0 0.0 1.0 
490.0003374459614 80.0 39.0 401.81487341772146 0.5326089300848564 4.0 0.0 1.0 
500.0003374459614 84.0 41.0 401.81487341772146 0.49976531366024024 4.0 0.0 1.0 
510.0003374459614 78.0 37.0 401.81487341772146 0.511199804706001 4.0 0.0 1.0 
520.0003374459613 78.0 37.0 401.81487341772146 0.5111998047060411 4.0 0.0 1.0 
530.0003374459613 76.0 36.0 401.81487341772146 0.511595276140511 4.0 0.0 1.0 
540.0003374459613 87.0 40.0 401.81487341772146 0.5057299911729014 4.0 0.0 1.0 
550.0003374459613 96.0 43.0 407.2689873417721 0.516710747554129 7.0 0.0 4.0 
560.0003374459613 86.0 41.0 407.28006329113924 0.5620438954078397 7.0 0.0 4.0 
570.0003374459613 90.0 42.0 407.28322784810126 0.5023036774384347 7.0 0.0 4.0 
580.0003374459613 86.0 41.0 407.26424050632926 0.5023425090364604 7.0 0.0 4.0 
590.0003374459613 86.0 42.0 407.2594936708859 0.504299199377 7.0 0.0 4.0 
600.0003374459613 84.0 41.0 407.2594936708859 0.5383564598926515 7.0 0.0 4.0 
610.0003374459613 84.0 41.0 407.2594936708859 0.5023342638442916 7.0 0.0 4.0 
620.0003374459613 88.0 43.0 401.81487341772146 0.5145179126216448 6.0 0.0 1.0 
630.0003374459613 96.0 44.0 403.6297468354429 0.5148574342521745 7.0 0.0 2.0 
640.0003374459613 85.0 40.0 403.6297468354429 0.49730186631261863 6.0 0.0 2.0 
650.0003374459613 86.0 41.0 403.6297468354429 0.5173167078842623 5.0 0.0 2.0 
660.0003374459613 86.0 41.0 403.6297468354429 0.502391334749934 5.0 0.0 2.0 
#####################################################################
# End of data export. Simulation finished at: 2019-03-03T07:01+0000 #
#####################################################################
