#####################################################################
# Alchemist log file - simulation started at: 2019-03-13T21:13+0000 #
#####################################################################
# seed = 5.0, bandwidth = 1.0E8, accessPointCount = 141.4213562373095, baserange = 17.78279410038923
#
# The columns have the following meaning: 
# time neighbor_count[Sum] <value>@neighbor_count[Sum] packet_size[Mean] mean_delay[Mean] crowd[Sum] overcrowded[Sum] risk[Sum] 
0.0 NaN NaN NaN NaN NaN NaN NaN 
2.000101793669918 30.0 12.0 4986.1611721611725 0.5250067342482803 1497.0 0.0 1497.0 
4.000101793669918 30.0 12.0 4986.3003663003665 0.5250063513071037 1497.0 0.0 1497.0 
6.000101793669918 31.0 12.0 4986.156288156289 0.5262345833035221 1497.0 0.0 1497.0 
8.000101793669918 32.0 12.0 4986.1636141636145 0.5277617707075734 1497.0 0.0 1497.0 
10.000101793669918 34.0 12.0 4986.2442002442 0.5317008854582168 1497.0 0.0 1497.0 
12.000101793669918 34.0 12.0 4986.214896214896 0.5317009133013542 1497.0 0.0 1497.0 
14.000101793669918 34.0 12.0 4986.1660561660565 0.5317010548699816 1497.0 0.0 1497.0 
16.00010179366992 34.0 12.0 4986.190476190476 0.5317010427131189 1497.0 0.0 1497.0 
18.00010179366992 34.0 12.0 4986.136752136752 0.5317010529091966 1497.0 0.0 1497.0 
20.00010179366992 34.0 12.0 4986.18315018315 0.5317011140856671 1497.0 0.0 1497.0 
22.00010179366992 34.0 12.0 4986.14652014652 0.5317010905562556 1497.0 0.0 1497.0 
24.00010179366992 34.0 12.0 4986.1221001221 0.5317010670268437 1497.0 0.0 1497.0 
26.00010179366992 34.0 12.0 4986.180708180708 0.5317010905562554 1497.0 0.0 1497.0 
28.00010179366992 34.0 12.0 4986.1611721611725 0.5317010646739025 1497.0 0.0 1497.0 
30.00010179366992 34.0 12.0 4986.141636141636 0.5317011046739027 1497.0 0.0 1497.0 
32.00010179366992 34.0 12.0 4986.180708180708 0.5317010811444907 1497.0 0.0 1497.0 
34.00010179366992 34.0 12.0 4986.156288156289 0.5317010599680204 1497.0 0.0 1497.0 
36.00010179366992 34.0 12.0 4986.124542124542 0.5317011140856673 1497.0 0.0 1497.0 
38.00010179366992 34.0 12.0 4986.178266178266 0.5317010882033143 1497.0 0.0 1497.0 
40.00010179366992 34.0 12.0 4986.14652014652 0.531701067026844 1497.0 0.0 1497.0 
42.00010179366992 34.0 12.0 4986.13431013431 0.5317010717327264 1497.0 0.0 1497.0 
44.00010179366992 34.0 12.0 4986.1636141636145 0.5317010929091966 1497.0 0.0 1497.0 
46.00010179366992 34.0 12.0 4986.17094017094 0.5317010905562553 1497.0 0.0 1497.0 
48.00010179366992 34.0 12.0 4986.148962148962 0.5317010717327264 1497.0 0.0 1497.0 
50.00010179366992 34.0 12.0 4986.119658119658 0.5317011023209612 1497.0 0.0 1497.0 
52.00010179366992 34.0 12.0 4986.190476190476 0.531701083497432 1497.0 0.0 1497.0 
54.00010179366992 34.0 12.0 4986.14652014652 0.531701067026844 1497.0 0.0 1497.0 
56.00010179366992 34.0 12.0 4986.13431013431 0.5317010717327264 1497.0 0.0 1497.0 
58.00010179366992 34.0 12.0 4986.18315018315 0.5317010787915497 1497.0 0.0 1497.0 
60.00010179366992 34.0 12.0 4983.328449328449 0.531701083497432 1496.0 0.0 1496.0 
62.00010179366992 34.0 12.0 411.2429792429792 0.531763694673904 10.0 0.0 4.0 
64.00010179366993 34.0 12.0 411.2771672771672 0.5317663772229239 10.0 0.0 4.0 
66.00010179366993 34.0 12.0 411.2478632478632 0.53176629722292 9.0 0.0 4.0 
68.00010179366993 36.0 13.0 411.26495726495733 0.5284221038310333 5.0 0.0 4.0 
70.00010179366993 36.0 13.0 411.2600732600733 0.5284220411994541 5.0 0.0 4.0 
72.00010179366993 36.0 13.0 411.2454212454212 0.5284221576906829 5.0 0.0 4.0 
74.00010179366993 36.0 13.0 411.24053724053715 0.5284221699713848 5.0 0.0 4.0 
76.00010179366993 36.0 13.0 411.2307692307692 0.5284222282169995 5.0 0.0 4.0 
78.00010179366993 36.0 13.0 411.2258852258853 0.6863169797959471 5.0 0.0 4.0 
80.00010179366993 34.0 12.0 411.2258852258853 0.5317665068307649 5.0 0.0 4.0 
82.00010179366993 34.0 12.0 411.2258852258853 0.5317665068307649 5.0 0.0 4.0 
84.00010179366993 34.0 12.0 411.2258852258853 0.5317665068307649 5.0 0.0 4.0 
86.00010179366993 34.0 12.0 411.2258852258853 0.5317665068307649 5.0 0.0 4.0 
88.00010179366993 34.0 12.0 411.2258852258853 0.5317665068307649 5.0 0.0 4.0 
90.00010179366993 34.0 12.0 411.2258852258853 0.5317665068307649 5.0 0.0 4.0 
92.00010179366993 34.0 12.0 411.2258852258853 0.5317665068307649 5.0 0.0 4.0 
94.00010179366993 34.0 12.0 411.2258852258853 0.5317665068307649 5.0 0.0 4.0 
96.00010179366993 34.0 12.0 411.2258852258853 0.5317665068307649 5.0 0.0 4.0 
98.00010179366993 34.0 12.0 411.2258852258853 0.5317665068307649 5.0 0.0 4.0 
100.00010179366993 34.0 12.0 411.2258852258853 0.5317665068307649 5.0 0.0 4.0 
102.00010179366993 34.0 12.0 411.2258852258853 0.5317665068307649 5.0 0.0 4.0 
104.00010179366993 34.0 12.0 411.2258852258853 0.5317665068307649 5.0 0.0 4.0 
106.00010179366993 34.0 12.0 411.2258852258853 0.5317665068307649 5.0 0.0 4.0 
108.00010179366993 34.0 12.0 411.2258852258853 0.5317665068307649 5.0 0.0 4.0 
110.00010179366993 34.0 12.0 411.2258852258853 0.5317665068307649 5.0 0.0 4.0 
112.00010179366993 34.0 12.0 411.2258852258853 0.5317665068307649 5.0 0.0 4.0 
114.00010179366993 34.0 12.0 411.2258852258853 0.5317665068307649 5.0 0.0 4.0 
116.00010179366993 34.0 12.0 411.2258852258853 0.5317665068307649 5.0 0.0 4.0 
118.00010179366993 34.0 12.0 411.2258852258853 0.5317665068307649 5.0 0.0 4.0 
120.00010179366993 34.0 12.0 411.2258852258853 0.5317665068307649 5.0 0.0 4.0 
122.00010179366993 34.0 12.0 411.2258852258853 0.5317665068307649 5.0 0.0 4.0 
124.00010179366993 34.0 12.0 411.2258852258853 0.5317665068307649 5.0 0.0 4.0 
126.00010179366993 34.0 12.0 411.2258852258853 0.5317665068307649 5.0 0.0 4.0 
128.00010179366993 35.0 12.0 411.2258852258853 0.5300434579576853 6.0 0.0 4.0 
130.00010179366993 36.0 13.0 411.2258852258853 0.5307701913457139 6.0 0.0 4.0 
132.00010179366993 36.0 13.0 411.2258852258853 0.5307701913457139 6.0 0.0 4.0 
134.00010179366993 36.0 13.0 411.2258852258853 0.5307701913457139 6.0 0.0 4.0 
136.00010179366993 36.0 13.0 411.2258852258853 0.5307701913457139 6.0 0.0 4.0 
138.00010179366993 37.0 13.0 411.2258852258853 0.5333843354680328 6.0 0.0 4.0 
140.00010179366993 38.0 13.0 414.06349206349205 0.526789990303673 6.0 0.0 5.0 
142.00010179366993 38.0 13.0 414.07326007326014 0.5267898980814534 6.0 0.0 5.0 
144.00010179366993 39.0 13.0 414.08302808302807 0.5112556493217587 6.0 0.0 5.0 
146.00010179366993 40.0 14.0 414.08791208791206 0.5241103972733083 6.0 0.0 5.0 
148.00010179366993 40.0 14.0 414.06349206349205 0.5241105272733081 6.0 0.0 5.0 
150.00010179366993 40.0 14.0 414.058608058608 0.5241106082733077 6.0 0.0 5.0 
152.00010179366993 40.0 14.0 414.06593406593413 0.5241105232733073 6.0 0.0 5.0 
154.00010179366993 40.0 14.0 414.04151404151406 0.5741106012733077 6.0 0.0 5.0 
156.00010179366993 39.0 14.0 414.026862026862 0.6447670280957294 6.0 0.0 5.0 
158.00010179366993 39.0 13.0 416.84493284493277 0.5205333166490772 6.0 0.0 6.0 
160.00010179366993 40.0 13.0 416.85470085470087 0.5245171869081109 6.0 0.0 6.0 
162.00010179366993 40.0 13.0 416.84493284493277 0.5245172522414452 6.0 0.0 6.0 
164.00010179366993 40.0 13.0 416.83516483516485 0.5245172522414452 6.0 0.0 6.0 
166.00010179366993 40.0 13.0 416.83516483516485 0.5245172709081112 6.0 0.0 6.0 
168.00010179366993 41.0 13.0 416.84004884004884 0.5196676799827821 6.0 0.0 6.0 
170.00010179366993 42.0 13.0 416.84004884004884 0.5242276484004912 6.0 0.0 6.0 
172.00010179366993 42.0 13.0 416.84004884004884 0.5242276670671572 6.0 0.0 6.0 
174.00010179366993 42.0 13.0 416.84004884004884 0.5242276670671572 6.0 0.0 6.0 
176.00010179366993 42.0 13.0 416.84004884004884 0.5242276670671572 6.0 0.0 6.0 
178.00010179366993 42.0 13.0 416.84493284493277 0.5242276617338241 6.0 0.0 6.0 
180.00010179366993 42.0 13.0 416.84004884004884 0.5242276164004904 6.0 0.0 6.0 
182.00010179366993 42.0 13.0 416.84004884004884 0.5242276670671572 6.0 0.0 6.0 
184.00010179366993 42.0 13.0 416.84004884004884 0.5242276670671572 6.0 0.0 6.0 
186.00010179366993 42.0 13.0 416.84004884004884 0.5242276670671572 6.0 0.0 6.0 
188.00010179366993 42.0 13.0 416.84004884004884 0.5242276670671572 6.0 0.0 6.0 
190.00010179366993 42.0 13.0 416.84004884004884 0.5242276670671572 6.0 0.0 6.0 
192.00010179366993 42.0 13.0 416.84004884004884 0.5242276670671572 6.0 0.0 6.0 
194.00010179366993 42.0 13.0 416.84004884004884 0.5242276670671572 6.0 0.0 6.0 
196.00010179366993 42.0 13.0 416.84004884004884 0.5242276670671572 6.0 0.0 6.0 
198.00010179366993 43.0 13.0 416.84493284493277 0.5221594286280133 6.0 0.0 6.0 
200.00010179366993 46.0 13.0 416.84004884004884 0.5267628529984543 6.0 0.0 6.0 
202.00010179366993 46.0 13.0 416.84004884004884 0.5267629098873426 6.0 0.0 6.0 
204.00010179366993 46.0 13.0 416.84004884004884 0.5267629098873426 6.0 0.0 6.0 
206.00010179366993 46.0 13.0 416.84004884004884 0.5267629098873426 6.0 0.0 6.0 
208.00010179366993 46.0 13.0 416.84493284493277 0.5267629045540095 6.0 0.0 6.0 
210.00010179366993 46.0 13.0 416.83516483516485 0.5267628792206771 6.0 0.0 6.0 
212.00010179366993 46.0 13.0 416.83516483516485 0.5267629361095639 6.0 0.0 6.0 
214.00010179366993 46.0 13.0 416.83516483516485 0.5267629361095639 6.0 0.0 6.0 
216.00010179366993 46.0 13.0 416.83516483516485 0.5267629361095639 6.0 0.0 6.0 
218.00010179366993 46.0 13.0 416.84493284493277 0.5360221847021566 6.0 0.0 6.0 
220.00010179366993 45.0 13.0 416.8717948717948 0.5629386496054933 6.0 0.0 6.0 
222.00010179366993 44.0 13.0 416.87912087912093 0.5324868661772622 6.0 0.0 6.0 
224.00010179366993 44.0 13.0 416.8742368742369 0.5324868415105934 6.0 0.0 6.0 
226.00010179366993 44.0 13.0 416.88156288156296 0.5324868321772602 6.0 0.0 6.0 
228.00010179366993 44.0 13.0 416.87667887667885 0.532486872843927 6.0 0.0 6.0 
230.00010179366993 44.0 13.0 416.88156288156296 0.5324868457328152 6.0 0.0 6.0 
232.00010179366993 44.0 13.0 416.87667887667885 0.5324868457328152 6.0 0.0 6.0 
234.00010179366993 44.0 13.0 416.8717948717948 0.5324868510661487 6.0 0.0 6.0 
236.00010179366993 44.0 13.0 416.85714285714283 0.5324869323994836 6.0 0.0 6.0 
238.00010179366993 44.0 13.0 416.85225885225884 0.5324870137328147 6.0 0.0 6.0 
240.00010179366993 44.0 13.0 416.8620268620268 0.5324869541772607 6.0 0.0 6.0 
242.00010179366993 44.0 13.0 416.85714285714283 0.5324869812883708 6.0 0.0 6.0 
244.00010179366993 44.0 13.0 416.8424908424908 0.5324870079550371 6.0 0.0 6.0 
246.00010179366993 44.0 13.0 416.8424908424908 0.5324870395105915 6.0 0.0 6.0 
248.00010179366993 44.0 13.0 416.84737484737485 0.5769337555846658 6.0 0.0 6.0 
250.00010179366993 40.0 13.0 416.84737484737485 0.7520659424532113 6.0 0.0 6.0 
252.00010179366993 34.0 12.0 416.84004884004884 0.5317603921248867 6.0 0.0 6.0 
254.00010179366993 34.0 12.0 416.83516483516485 0.5317603921248867 6.0 0.0 6.0 
256.00010179366996 34.0 12.0 416.83516483516485 0.5317603921248867 6.0 0.0 6.0 
258.00010179366996 34.0 12.0 416.83516483516485 0.5317603921248933 6.0 0.0 6.0 
260.00010179366996 34.0 12.0 416.83516483516485 0.5317603921248933 6.0 0.0 6.0 
262.00010179366996 34.0 12.0 416.83516483516485 0.5317603921248933 6.0 0.0 6.0 
264.00010179366996 34.0 12.0 416.83516483516485 0.5317603921248933 6.0 0.0 6.0 
266.00010179366996 34.0 12.0 416.83516483516485 0.5317603921248933 6.0 0.0 6.0 
268.00010179366996 34.0 12.0 416.83516483516485 0.5317603921248933 6.0 0.0 6.0 
270.00010179366996 34.0 12.0 416.83516483516485 0.5317603921248933 6.0 0.0 6.0 
272.00010179366996 34.0 12.0 416.83516483516485 0.5317603921248933 6.0 0.0 6.0 
274.00010179366996 34.0 12.0 416.83516483516485 0.5317603921248933 6.0 0.0 6.0 
276.00010179366996 34.0 12.0 416.83516483516485 0.5317603921248933 6.0 0.0 6.0 
278.00010179366996 34.0 12.0 416.83516483516485 0.5317603921248933 6.0 0.0 6.0 
280.00010179366996 34.0 12.0 414.04639804639794 0.5317664527131276 6.0 0.0 5.0 
282.00010179366996 34.0 12.0 414.04151404151406 0.5317663813405735 6.0 0.0 5.0 
284.00010179366996 34.0 12.0 414.0610500610501 0.5317663376150836 6.0 0.0 5.0 
286.00010179366996 34.0 12.0 414.0439560439561 0.5317664664386176 6.0 0.0 5.0 
288.00010179366996 34.0 12.0 414.056166056166 0.5317663036935171 6.0 0.0 5.0 
290.00010179366996 34.0 12.0 414.051282051282 0.5317663766346964 6.0 0.0 5.0 
292.00010179366996 34.0 12.0 414.04151404151406 0.5317664358503791 6.0 0.0 5.0 
294.00010179366996 34.0 12.0 414.0317460317461 0.5317664903601867 6.0 0.0 5.0 
296.00010179366996 34.0 12.0 414.02686202686203 0.5317665068307763 6.0 0.0 5.0 
298.00010179366996 34.0 12.0 414.02686202686203 0.5317665068307763 6.0 0.0 5.0 
300.00010179366996 34.0 12.0 414.02686202686203 0.5317665068307763 6.0 0.0 5.0 
302.00010179366996 34.0 12.0 414.02686202686203 0.5317665068307763 6.0 0.0 5.0 
304.00010179366996 34.0 12.0 414.02686202686203 0.5317665068307763 6.0 0.0 5.0 
306.00010179366996 34.0 12.0 414.02686202686203 0.5317665068307763 6.0 0.0 5.0 
308.00010179366996 34.0 12.0 414.02686202686203 0.5317665068307763 6.0 0.0 5.0 
310.00010179366996 34.0 12.0 411.2258852258853 0.5317665068307763 5.0 0.0 4.0 
312.00010179366996 34.0 12.0 411.2258852258853 0.5317665068307763 5.0 0.0 4.0 
314.00010179366996 34.0 12.0 411.2258852258853 0.5317665068307763 5.0 0.0 4.0 
316.00010179366996 34.0 12.0 411.2258852258853 0.5317665068307763 5.0 0.0 4.0 
318.00010179366996 34.0 12.0 411.2258852258853 0.5317665068307763 5.0 0.0 4.0 
320.00010179366996 34.0 12.0 411.2258852258853 0.5317665068307763 5.0 0.0 4.0 
322.00010179366996 34.0 12.0 411.2258852258853 0.5317665068307763 5.0 0.0 4.0 
324.00010179366996 34.0 12.0 411.2258852258853 0.5317665068307763 5.0 0.0 4.0 
326.00010179366996 34.0 12.0 411.2258852258853 0.5317665068307763 5.0 0.0 4.0 
328.00010179366996 34.0 12.0 411.2258852258853 0.5317665068307763 5.0 0.0 4.0 
330.00010179366996 34.0 12.0 411.2258852258853 0.5317665068307763 5.0 0.0 4.0 
332.00010179366996 34.0 12.0 411.2258852258853 0.5317665068307763 5.0 0.0 4.0 
334.00010179366996 34.0 12.0 411.2258852258853 0.5317665068307763 5.0 0.0 4.0 
336.00010179366996 34.0 12.0 411.2258852258853 0.5317665068307763 5.0 0.0 4.0 
338.00010179366996 34.0 12.0 411.2258852258853 0.5317665068307763 5.0 0.0 4.0 
340.00010179366996 34.0 12.0 411.2258852258853 0.5317665068307763 5.0 0.0 4.0 
342.00010179366996 34.0 12.0 411.2258852258853 0.5317665068307763 5.0 0.0 4.0 
344.00010179366996 34.0 12.0 411.2258852258853 0.5317665068307763 5.0 0.0 4.0 
346.00010179366996 34.0 12.0 411.2258852258853 0.5317665068307763 5.0 0.0 4.0 
348.00010179366996 34.0 12.0 411.2258852258853 0.5317665068307763 5.0 0.0 4.0 
350.00010179366996 34.0 12.0 411.2258852258853 0.5317665068307763 5.0 0.0 4.0 
352.00010179366996 34.0 12.0 411.2258852258853 0.5317665068307763 5.0 0.0 4.0 
354.00010179366996 34.0 12.0 411.2258852258853 0.5317665068307763 5.0 0.0 4.0 
356.00010179366996 34.0 12.0 411.2258852258853 0.5317665068307763 5.0 0.0 4.0 
358.00010179366996 34.0 12.0 411.2258852258853 0.5317665068307763 5.0 0.0 4.0 
360.00010179366996 34.0 12.0 411.2258852258853 0.5317665068307763 5.0 0.0 4.0 
362.00010179366996 34.0 12.0 411.2258852258853 0.5317665068307763 5.0 0.0 4.0 
364.00010179366996 34.0 12.0 411.2258852258853 0.5317665068307763 5.0 0.0 4.0 
366.00010179366996 34.0 12.0 411.2258852258853 0.5317665068307763 5.0 0.0 4.0 
368.00010179366996 34.0 12.0 411.2258852258853 0.5317665068307763 5.0 0.0 4.0 
370.00010179366996 34.0 12.0 411.2258852258853 0.5317665068307763 5.0 0.0 4.0 
372.00010179366996 34.0 12.0 411.2258852258853 0.5317665068307763 5.0 0.0 4.0 
374.00010179366996 34.0 12.0 411.2258852258853 0.5317665068307763 5.0 0.0 4.0 
376.00010179366996 34.0 12.0 411.2258852258853 0.5317665068307763 5.0 0.0 4.0 
378.00010179366996 34.0 12.0 411.2258852258853 0.5317665068307763 5.0 0.0 4.0 
380.00010179366996 34.0 12.0 411.2258852258853 0.5317665068307763 5.0 0.0 4.0 
382.00010179366996 34.0 12.0 411.2258852258853 0.5317665068307763 5.0 0.0 4.0 
384.00010179366996 34.0 12.0 411.2258852258853 0.5317665068307763 5.0 0.0 4.0 
386.00010179366996 34.0 12.0 411.2258852258853 0.5317665068307763 5.0 0.0 4.0 
388.00010179366996 34.0 12.0 411.2258852258853 0.5317665068307763 5.0 0.0 4.0 
390.00010179366996 34.0 12.0 411.2258852258853 0.5317665068307763 5.0 0.0 4.0 
392.00010179366996 34.0 12.0 411.2258852258853 0.5317665068307763 5.0 0.0 4.0 
394.00010179366996 34.0 12.0 411.2258852258853 0.5317665068307763 5.0 0.0 4.0 
396.00010179366996 34.0 12.0 411.2258852258853 0.5317665068307763 5.0 0.0 4.0 
398.00010179366996 34.0 12.0 411.2258852258853 0.5317665068307763 5.0 0.0 4.0 
400.00010179366996 34.0 12.0 411.2258852258853 0.5317665068307763 5.0 0.0 4.0 
402.00010179366996 34.0 12.0 411.2258852258853 0.5317665068307763 5.0 0.0 4.0 
404.00010179366996 34.0 12.0 411.2258852258853 0.5317665068307763 5.0 0.0 4.0 
406.00010179366996 34.0 12.0 411.2258852258853 0.5317665068307763 5.0 0.0 4.0 
408.00010179366996 34.0 12.0 411.2258852258853 0.5317665068307763 5.0 0.0 4.0 
410.00010179366996 34.0 12.0 411.2258852258853 0.5317665068307763 5.0 0.0 4.0 
412.00010179366996 34.0 12.0 411.2258852258853 0.5317665068307763 5.0 0.0 4.0 
414.00010179366996 34.0 12.0 411.2258852258853 0.5317665068307763 5.0 0.0 4.0 
416.00010179366996 34.0 12.0 411.2258852258853 0.5317665068307763 5.0 0.0 4.0 
418.00010179366996 34.0 12.0 411.2258852258853 0.5317665068307763 5.0 0.0 4.0 
420.00010179366996 34.0 12.0 411.2258852258853 0.5317665068307763 5.0 0.0 4.0 
422.00010179366996 34.0 12.0 411.2258852258853 0.5317665068307763 5.0 0.0 4.0 
424.00010179366996 34.0 12.0 411.2258852258853 0.5317665068307763 5.0 0.0 4.0 
426.00010179366996 34.0 12.0 411.2258852258853 0.5317665068307763 5.0 0.0 4.0 
428.00010179366996 34.0 12.0 411.2258852258853 0.5317665068307763 5.0 0.0 4.0 
430.00010179366996 34.0 12.0 411.2258852258853 0.5317665068307763 5.0 0.0 4.0 
432.00010179366996 35.0 12.0 411.2258852258853 0.5210690459169436 5.0 0.0 4.0 
434.00010179366996 36.0 13.0 411.2258852258853 0.5284222429538535 5.0 0.0 4.0 
436.00010179366996 36.0 13.0 411.2258852258853 0.5284222429538535 5.0 0.0 4.0 
438.00010179366996 36.0 13.0 411.2258852258853 0.5284222429538535 5.0 0.0 4.0 
440.00010179366996 36.0 13.0 411.2258852258853 0.5284222429538535 5.0 0.0 4.0 
442.00010179366996 36.0 13.0 411.2258852258853 0.5810538219012219 5.0 0.0 4.0 
444.00010179366996 35.0 13.0 411.2258852258853 0.6500450225411905 5.0 0.0 4.0 
446.00010179366996 34.0 12.0 411.2258852258853 0.5317665068307763 5.0 0.0 4.0 
448.00010179366996 34.0 12.0 411.2258852258853 0.5317665068307763 5.0 0.0 4.0 
450.00010179366996 34.0 12.0 411.2258852258853 0.5317665068307763 5.0 0.0 4.0 
452.00010179366996 34.0 12.0 411.2258852258853 0.5317665068307763 5.0 0.0 4.0 
454.00010179366996 34.0 12.0 411.2258852258853 0.5317665068307763 5.0 0.0 4.0 
456.00010179366996 34.0 12.0 411.2258852258853 0.5317665068307763 5.0 0.0 4.0 
458.00010179366996 34.0 12.0 411.2258852258853 0.5317665068307763 5.0 0.0 4.0 
460.00010179366996 34.0 12.0 411.2258852258853 0.5317665068307763 5.0 0.0 4.0 
462.00010179366996 34.0 12.0 411.2258852258853 0.5317665068307763 5.0 0.0 4.0 
464.00010179366996 35.0 12.0 411.2258852258853 0.5205336091394513 5.0 0.0 4.0 
466.00010179366996 36.0 13.0 411.2258852258853 0.5284222429538535 5.0 0.0 4.0 
468.00010179366996 36.0 13.0 411.2258852258853 0.5284222429538535 5.0 0.0 4.0 
470.00010179366996 36.0 13.0 411.2258852258853 0.5284222429538535 5.0 0.0 4.0 
472.00010179366996 36.0 13.0 411.2258852258853 0.5284222429538535 5.0 0.0 4.0 
474.00010179366996 36.0 13.0 411.2258852258853 0.581053821901222 5.0 0.0 4.0 
476.00010179366996 35.0 13.0 411.2258852258853 0.6505804593186828 5.0 0.0 4.0 
478.00010179366996 34.0 12.0 411.2258852258853 0.5317665068307763 5.0 0.0 4.0 
480.00010179366996 34.0 12.0 411.2258852258853 0.5317665068307763 5.0 0.0 4.0 
482.00010179366996 34.0 12.0 411.2258852258853 0.5317665068307763 5.0 0.0 4.0 
484.00010179366996 34.0 12.0 411.2258852258853 0.5317665068307763 5.0 0.0 4.0 
486.00010179366996 34.0 12.0 411.2258852258853 0.5317665068307763 5.0 0.0 4.0 
488.00010179366996 34.0 12.0 411.2258852258853 0.5317665068307763 5.0 0.0 4.0 
490.00010179366996 34.0 12.0 411.2258852258853 0.5317665068307763 5.0 0.0 4.0 
492.00010179366996 34.0 12.0 411.2258852258853 0.5317665068307763 5.0 0.0 4.0 
494.00010179366996 34.0 12.0 411.2258852258853 0.5317665068307763 5.0 0.0 4.0 
496.00010179366996 34.0 12.0 411.2258852258853 0.5317665068307763 5.0 0.0 4.0 
498.00010179366996 34.0 12.0 411.2258852258853 0.5317665068307763 5.0 0.0 4.0 
500.00010179366996 34.0 12.0 411.2258852258853 0.5317665068307763 5.0 0.0 4.0 
502.00010179366996 34.0 12.0 411.2258852258853 0.5317665068307763 5.0 0.0 4.0 
504.00010179366996 34.0 12.0 411.2258852258853 0.5317665068307763 5.0 0.0 4.0 
506.00010179366996 34.0 12.0 411.2258852258853 0.5317665068307763 5.0 0.0 4.0 
508.00010179366996 37.0 12.0 411.2258852258853 0.5204810728216664 6.0 0.0 4.0 
510.00010179366996 42.0 13.0 414.0390720390721 0.5325542608780973 6.0 0.0 5.0 
512.00010179367 42.0 13.0 414.06349206349205 0.5325542004336509 6.0 0.0 5.0 
514.00010179367 42.0 13.0 414.04884004883996 0.532554203989197 6.0 0.0 5.0 
516.00010179367 42.0 13.0 414.0439560439561 0.5325542457669711 6.0 0.0 5.0 
518.00010179367 42.0 13.0 414.0390720390721 0.5325542839891898 6.0 0.0 5.0 
520.00010179367 42.0 13.0 414.03418803418805 0.5325542991002985 6.0 0.0 5.0 
522.00010179367 42.0 13.0 414.03418803418805 0.5325542991002985 6.0 0.0 5.0 
524.00010179367 42.0 13.0 414.03418803418805 0.5325542991002985 6.0 0.0 5.0 
526.00010179367 42.0 13.0 414.03418803418805 0.5325542991002985 6.0 0.0 5.0 
528.00010179367 42.0 13.0 414.0390720390721 0.5325542937669661 6.0 0.0 5.0 
530.00010179367 42.0 13.0 414.03418803418805 0.5325542991002985 6.0 0.0 5.0 
532.00010179367 42.0 13.0 414.03418803418805 0.5325542991002985 6.0 0.0 5.0 
534.00010179367 42.0 13.0 414.03418803418805 0.5325542991002985 6.0 0.0 5.0 
536.00010179367 42.0 13.0 414.03418803418805 0.5325542991002985 6.0 0.0 5.0 
538.00010179367 42.0 13.0 414.0390720390721 0.5325542937669661 6.0 0.0 5.0 
540.00010179367 42.0 13.0 414.03418803418805 0.5325542991002985 6.0 0.0 5.0 
542.00010179367 44.0 14.0 414.03418803418805 0.5292984691902697 6.0 0.0 5.0 
544.00010179367 48.0 16.0 414.03418803418805 0.5244147243252264 6.0 0.0 5.0 
546.00010179367 48.0 16.0 414.03418803418805 0.5244147243252264 6.0 0.0 5.0 
548.00010179367 48.0 16.0 414.0390720390721 0.5244147203252271 6.0 0.0 5.0 
550.00010179367 48.0 16.0 414.03418803418805 0.5244147243252264 6.0 0.0 5.0 
552.00010179367 48.0 16.0 414.03418803418805 0.6494147243252264 6.0 0.0 5.0 
554.00010179367 46.0 15.0 414.03418803418805 0.6175436992638825 6.0 0.0 5.0 
556.00010179367 44.0 14.0 414.03418803418805 0.5292984691902697 6.0 0.0 5.0 
558.00010179367 44.0 14.0 414.04639804639794 0.5642996913236088 6.0 0.0 5.0 
560.00010179367 41.0 14.0 414.02686202686203 0.7032716849414269 6.0 0.0 5.0 
562.00010179367 36.0 13.0 414.02686202686203 0.5284222429538469 6.0 0.0 5.0 
564.00010179367 36.0 13.0 414.02686202686203 0.5284222429538469 6.0 0.0 5.0 
566.00010179367 36.0 13.0 414.02686202686203 0.5284222429538469 6.0 0.0 5.0 
568.00010179367 36.0 13.0 414.02686202686203 0.5284222429538469 6.0 0.0 5.0 
570.00010179367 36.0 13.0 414.02686202686203 0.5284222429538469 6.0 0.0 5.0 
572.00010179367 36.0 13.0 414.02686202686203 0.5284222429538469 6.0 0.0 5.0 
574.00010179367 36.0 13.0 414.02686202686203 0.5284222429538469 6.0 0.0 5.0 
576.00010179367 36.0 13.0 414.02686202686203 0.5284222429538469 6.0 0.0 5.0 
578.00010179367 36.0 13.0 414.02686202686203 0.5284222429538469 6.0 0.0 5.0 
580.00010179367 36.0 13.0 414.02686202686203 0.5284222429538469 6.0 0.0 5.0 
582.00010179367 36.0 13.0 414.02686202686203 0.5284222429538469 6.0 0.0 5.0 
584.00010179367 36.0 13.0 414.02686202686203 0.5284222429538469 6.0 0.0 5.0 
586.00010179367 36.0 13.0 414.02686202686203 0.5284222429538469 6.0 0.0 5.0 
588.00010179367 36.0 13.0 414.02686202686203 0.5284222429538469 6.0 0.0 5.0 
590.00010179367 36.0 13.0 414.02686202686203 0.5284222429538469 6.0 0.0 5.0 
592.00010179367 36.0 13.0 414.02686202686203 0.5284222429538469 6.0 0.0 5.0 
594.00010179367 36.0 13.0 414.02686202686203 0.5284222429538469 6.0 0.0 5.0 
596.00010179367 36.0 13.0 414.02686202686203 0.5284222429538469 6.0 0.0 5.0 
598.00010179367 36.0 13.0 414.02686202686203 0.5284222429538469 6.0 0.0 5.0 
600.00010179367 36.0 13.0 414.02686202686203 0.5284222429538469 6.0 0.0 5.0 
602.00010179367 36.0 13.0 414.02686202686203 0.5284222429538469 6.0 0.0 5.0 
604.00010179367 36.0 13.0 414.02686202686203 0.5284222429538469 6.0 0.0 5.0 
606.00010179367 36.0 13.0 414.02686202686203 0.5284222429538469 6.0 0.0 5.0 
608.00010179367 36.0 13.0 414.02686202686203 0.5284222429538469 6.0 0.0 5.0 
610.00010179367 36.0 13.0 414.02686202686203 0.5284222429538469 6.0 0.0 5.0 
612.00010179367 36.0 13.0 414.02686202686203 0.5284222429538469 6.0 0.0 5.0 
614.00010179367 36.0 13.0 414.02686202686203 0.5284222429538469 6.0 0.0 5.0 
616.00010179367 36.0 13.0 414.02686202686203 0.5284222429538469 6.0 0.0 5.0 
618.00010179367 36.0 13.0 414.02686202686203 0.5284222429538469 6.0 0.0 5.0 
620.00010179367 36.0 13.0 411.2258852258853 0.5284222429538469 5.0 0.0 4.0 
622.00010179367 36.0 13.0 411.2258852258853 0.5284222429538469 5.0 0.0 4.0 
624.00010179367 36.0 13.0 411.2258852258853 0.5284222429538469 5.0 0.0 4.0 
626.00010179367 36.0 13.0 411.2258852258853 0.5284222429538469 5.0 0.0 4.0 
628.00010179367 36.0 13.0 411.2258852258853 0.5284222429538469 5.0 0.0 4.0 
630.00010179367 36.0 13.0 411.2258852258853 0.5284222429538469 5.0 0.0 4.0 
632.00010179367 36.0 13.0 411.2258852258853 0.5284222429538469 5.0 0.0 4.0 
634.00010179367 36.0 13.0 411.2258852258853 0.5284222429538469 5.0 0.0 4.0 
636.00010179367 36.0 13.0 411.2258852258853 0.5284222429538469 5.0 0.0 4.0 
638.00010179367 36.0 13.0 411.2258852258853 0.5284222429538469 5.0 0.0 4.0 
640.00010179367 36.0 13.0 411.2258852258853 0.5284222429538469 5.0 0.0 4.0 
642.00010179367 36.0 13.0 411.2258852258853 0.5284222429538469 5.0 0.0 4.0 
644.00010179367 36.0 13.0 411.2258852258853 0.5284222429538469 5.0 0.0 4.0 
646.00010179367 36.0 13.0 411.2258852258853 0.5284222429538469 5.0 0.0 4.0 
648.00010179367 36.0 13.0 411.2258852258853 0.5284222429538469 5.0 0.0 4.0 
650.00010179367 36.0 13.0 411.2258852258853 0.5284222429538469 5.0 0.0 4.0 
652.00010179367 36.0 13.0 411.2258852258853 0.5284222429538469 5.0 0.0 4.0 
654.00010179367 38.0 14.0 411.2258852258853 0.5257149817201482 5.0 0.0 4.0 
656.00010179367 38.0 14.0 411.2258852258853 0.5257149817201482 5.0 0.0 4.0 
658.00010179367 38.0 14.0 411.2258852258853 0.5257149817201482 5.0 0.0 4.0 
660.00010179367 39.0 15.0 411.2258852258853 0.5194111366617873 5.0 0.0 4.0 
662.00010179367 40.0 15.0 411.2258852258853 0.5215941519121818 5.0 0.0 4.0 
664.00010179367 40.0 15.0 411.2258852258853 0.6352307882758176 5.0 0.0 4.0 
#####################################################################
# End of data export. Simulation finished at: 2019-03-13T21:19+0000 #
#####################################################################
