#####################################################################
# Alchemist log file - simulation started at: 2019-03-03T09:54+0000 #
#####################################################################
# seed = 9.0, bandwidth = 1.0E8, accessPointCount = 1031.338537721246, baserange = 10.0
#
# The columns have the following meaning: 
# time neighbor_count[Sum] <value>@neighbor_count[Sum] packet_size[Mean] mean_delay[Mean] crowd[Sum] overcrowded[Sum] risk[Sum] 
0.0 NaN NaN NaN NaN NaN NaN NaN 
10.000337445961424 70.0 35.0 4978.670886075949 0.5017187803328118 1497.0 0.0 1497.0 
20.000337445961424 71.0 35.0 4978.661392405063 0.49418020109810784 1497.0 0.0 1497.0 
30.000337445961424 72.0 36.0 4978.625 0.5186079742198351 1497.0 0.0 1497.0 
40.00033744596142 70.0 35.0 4978.664556962025 0.5017187648942152 1497.0 0.0 1497.0 
50.00033744596142 76.0 37.0 4978.636075949367 0.5016278453161709 1497.0 0.0 1497.0 
60.00033744596142 78.0 38.0 4978.68670886076 0.5015737096608106 1497.0 0.0 1497.0 
70.00033744596142 76.0 37.0 401.81487341772146 0.5016868259828356 20.0 0.0 1.0 
80.00033744596142 76.0 38.0 401.81487341772146 0.5019945729520923 11.0 0.0 1.0 
90.00033744596142 78.0 39.0 401.81487341772146 0.5019321175473392 6.0 0.0 1.0 
100.00033744596142 74.0 37.0 401.81487341772146 0.5016593042454116 6.0 0.0 1.0 
110.00033744596142 78.0 39.0 401.81487341772146 0.5015569470610783 6.0 0.0 1.0 
120.00033744596142 78.0 39.0 401.81487341772146 0.5323261778303091 6.0 0.0 1.0 
130.0003374459614 76.0 38.0 401.81487341772146 0.5006195437459036 5.0 0.0 1.0 
140.0003374459614 80.0 39.0 405.44462025316466 0.4987941934017458 8.0 0.0 3.0 
150.0003374459614 78.0 39.0 405.44462025316466 0.49872156919540844 7.0 0.0 3.0 
160.0003374459614 78.0 38.0 405.44462025316466 0.5016308032092052 7.0 0.0 3.0 
170.0003374459614 78.0 38.0 405.44462025316466 0.5338888999833988 7.0 0.0 3.0 
180.0003374459614 76.0 37.0 405.44462025316466 0.5028682330555277 6.0 0.0 3.0 
190.0003374459614 76.0 37.0 405.44462025316466 0.5028682330555277 6.0 0.0 3.0 
200.0003374459614 75.0 37.0 401.81487341772146 0.4975662323946138 4.0 0.0 1.0 
210.0003374459614 74.0 36.0 401.81487341772146 0.5011357402318841 4.0 0.0 1.0 
220.0003374459614 78.0 38.0 401.81487341772146 0.501061003167499 4.0 0.0 1.0 
230.0003374459614 80.0 39.0 401.81487341772146 0.5010271935431343 4.0 0.0 1.0 
240.0003374459614 78.0 38.0 401.81487341772146 0.5502413310363514 4.0 0.0 1.0 
250.0003374459614 76.0 37.0 401.81487341772146 0.5010971049697868 4.0 0.0 1.0 
260.0003374459614 78.0 38.0 401.81487341772146 0.5010610031674975 4.0 0.0 1.0 
270.0003374459614 82.0 40.0 401.81487341772146 0.532204915430144 4.0 0.0 1.0 
280.0003374459614 82.0 40.0 401.81487341772146 0.5009954645110367 4.0 0.0 1.0 
290.0003374459614 84.0 40.0 401.81487341772146 0.532260893644022 4.0 0.0 1.0 
300.0003374459614 80.0 39.0 401.81487341772146 0.508963764971704 4.0 0.0 1.0 
310.0003374459614 80.0 39.0 401.81487341772146 0.5026887184895547 4.0 0.0 1.0 
320.0003374459614 78.0 38.0 401.81487341772146 0.5027755803763142 4.0 0.0 1.0 
330.0003374459614 80.0 39.0 401.81487341772146 0.4984377956112772 4.0 0.0 1.0 
340.0003374459614 78.0 38.0 401.81487341772146 0.4983867069427942 4.0 0.0 1.0 
350.0003374459614 80.0 39.0 401.81487341772146 0.4984377956112772 4.0 0.0 1.0 
360.0003374459614 90.0 41.0 407.28164556962025 0.5026003555050227 7.0 0.0 4.0 
370.0003374459614 79.0 38.0 407.26582278481004 0.5379320329363131 7.0 0.0 4.0 
380.0003374459614 76.0 37.0 407.2594936708859 0.5028674683888574 7.0 0.0 4.0 
390.0003374459614 78.0 38.0 407.2594936708859 0.5027741003763136 7.0 0.0 4.0 
400.0003374459614 74.0 36.0 407.2594936708859 0.502966484540197 7.0 0.0 4.0 
410.0003374459614 78.0 37.0 407.2594936708859 0.5029159339547705 7.0 0.0 4.0 
420.0003374459614 74.0 36.0 407.2594936708859 0.502966484540197 7.0 0.0 4.0 
430.0003374459614 72.0 35.0 401.81487341772146 0.5030733925594897 5.0 0.0 1.0 
440.0003374459614 76.0 37.0 401.81487341772146 0.4972431871643511 4.0 0.0 1.0 
450.0003374459614 84.0 41.0 401.81487341772146 0.5214486815239164 4.0 0.0 1.0 
460.0003374459614 84.0 40.0 401.81487341772146 0.50682908847035 4.0 0.0 1.0 
470.0003374459614 86.0 41.0 401.81487341772146 0.5053355454394938 4.0 0.0 1.0 
480.0003374459614 82.0 40.0 401.81487341772146 0.5057227258448193 4.0 0.0 1.0 
490.0003374459614 80.0 39.0 401.81487341772146 0.5327960203424583 4.0 0.0 1.0 
500.0003374459614 84.0 41.0 401.81487341772146 0.4999515148878478 4.0 0.0 1.0 
510.0003374459614 78.0 37.0 401.81487341772146 0.5029167115818894 4.0 0.0 1.0 
520.0003374459613 78.0 37.0 401.81487341772146 0.5029167115818972 4.0 0.0 1.0 
530.0003374459613 76.0 36.0 401.81487341772146 0.5030191926900336 4.0 0.0 1.0 
540.0003374459613 87.0 40.0 401.81487341772146 0.4979839972527078 4.0 0.0 1.0 
550.0003374459613 96.0 43.0 407.2689873417721 0.5169804397584359 7.0 0.0 4.0 
560.0003374459613 86.0 41.0 407.28006329113924 0.5622667107959987 7.0 0.0 4.0 
570.0003374459613 90.0 42.0 407.28322784810126 0.5025272538725304 7.0 0.0 4.0 
580.0003374459613 86.0 41.0 407.26424050632926 0.5025652242288359 7.0 0.0 4.0 
590.0003374459613 86.0 42.0 407.2594936708859 0.5044949791831712 7.0 0.0 4.0 
600.0003374459613 84.0 41.0 407.2594936708859 0.5385675724130465 7.0 0.0 4.0 
610.0003374459613 84.0 41.0 407.2594936708859 0.5025289738725289 7.0 0.0 4.0 
620.0003374459613 88.0 43.0 401.81487341772146 0.5146883785342068 6.0 0.0 1.0 
630.0003374459613 96.0 44.0 403.6297468354429 0.5150797897275686 7.0 0.0 2.0 
640.0003374459613 85.0 40.0 403.6297468354429 0.49748016061428646 6.0 0.0 2.0 
650.0003374459613 86.0 41.0 403.6297468354429 0.5174933430348062 5.0 0.0 2.0 
660.0003374459613 86.0 41.0 403.6297468354429 0.5025679699004778 5.0 0.0 2.0 
#####################################################################
# End of data export. Simulation finished at: 2019-03-03T10:01+0000 #
#####################################################################
