#####################################################################
# Alchemist log file - simulation started at: 2019-03-03T09:25+0000 #
#####################################################################
# seed = 9.0, bandwidth = 1.0E8, accessPointCount = 37.60603093086394, baserange = 1000.0
#
# The columns have the following meaning: 
# time neighbor_count[Sum] <value>@neighbor_count[Sum] packet_size[Mean] mean_delay[Mean] crowd[Sum] overcrowded[Sum] risk[Sum] 
0.0 NaN NaN NaN NaN NaN NaN NaN 
10.000065915287088 30500.0 893.0 4991.838331160365 0.5629500070468452 1496.0 1.0 1496.0 
20.000065915287088 29614.0 848.0 4992.273794002607 0.49914043871950775 1496.0 1.0 1496.0 
30.000115795287087 29635.0 850.0 4992.367666232073 0.49888568391291815 1496.0 1.0 1496.0 
40.00011579528709 29646.0 850.0 4992.438070404172 0.499183863481736 1496.0 1.0 1496.0 
50.00006591528709 29584.0 851.0 4992.297262059974 0.5015002302758395 1496.0 1.0 1496.0 
60.00006591528709 29593.0 849.0 4992.367666232073 0.49900531750279536 1496.0 1.0 1496.0 
70.00033744596142 29616.0 850.0 1120.3415906127766 0.500692997539445 378.0 1.0 239.0 
80.00033744596142 29668.0 849.0 1117.4471968709254 0.4999720234996338 360.0 2.0 237.0 
90.00033744596142 29710.0 849.0 1120.3441981747055 0.5014306762419176 359.0 0.0 240.0 
100.00033744596142 29683.0 849.0 1120.3129074315486 0.4997794530357813 360.0 0.0 240.0 
110.00033744596142 29684.0 849.0 1123.3715775749683 0.5012399927573278 359.0 0.0 241.0 
120.00033744596142 29675.0 848.0 1132.3520208604948 0.49963629609910276 360.0 0.0 244.0 
130.0003374459614 29718.0 848.0 1126.558018252935 0.4993858811108222 360.0 0.0 242.0 
140.0003374459614 29736.0 848.0 1126.325945241198 0.49978165611283343 355.0 0.0 242.0 
150.0003374459614 29682.0 848.0 1135.3428943937395 0.4996597624121079 354.0 0.0 245.0 
160.0003374459614 29687.0 848.0 1126.4693611473274 0.5010226457033565 349.0 1.0 241.0 
170.0003374459614 29672.0 848.0 1129.4758800521533 0.49927621030870445 347.0 1.0 242.0 
180.0003374459614 29728.0 848.0 1123.4367666232076 0.5024225432201677 345.0 1.0 240.0 
190.0003374459614 29730.0 847.0 1117.4159061277685 0.4991967347600327 340.0 4.0 235.0 
200.0003374459614 29694.0 847.0 1117.4524119947862 0.4994685635088754 343.0 1.0 238.0 
210.0003374459614 29693.0 848.0 1111.40026075619 0.49945774635506585 336.0 1.0 236.0 
220.0003374459614 29697.0 848.0 1108.6336375488931 0.4994128467978074 336.0 1.0 235.0 
230.0003374459614 29703.0 849.0 1105.3741851368964 0.4994224737402877 337.0 1.0 234.0 
240.0003374459614 29706.0 850.0 1111.4993481095155 0.49939011005937467 338.0 3.0 234.0 
250.0003374459614 29799.0 851.0 1111.4367666232079 0.4995064181079687 339.0 2.0 235.0 
260.0003374459614 29790.0 852.0 1108.5136897001282 0.49977753366541716 338.0 1.0 235.0 
270.0003374459614 29776.0 852.0 1108.440677966099 0.5002461506296619 339.0 0.0 236.0 
280.0003374459614 29830.0 853.0 1105.4550195567153 0.5000840248032058 339.0 0.0 235.0 
290.0003374459614 29886.0 854.0 1108.4015645371558 0.5037050765148559 337.0 0.0 236.0 
300.0003374459614 29917.0 854.0 1108.4719687092559 0.5036592387983749 340.0 1.0 235.0 
310.0003374459614 29889.0 854.0 1102.5110821382027 0.5004704244213337 338.0 0.0 234.0 
320.0003374459614 29807.0 853.0 1105.494132985661 0.4995114912116273 337.0 0.0 235.0 
330.0003374459614 29831.0 854.0 1108.4354628422443 0.4995716436510045 332.0 3.0 233.0 
340.0003374459614 29836.0 854.0 1111.444589308997 0.4995653414773831 335.0 0.0 237.0 
350.0003374459614 29840.0 854.0 1111.5097783572367 0.4998490164800605 340.0 0.0 237.0 
360.0003374459614 29842.0 854.0 1111.4054758800544 0.5007217534299535 341.0 0.0 237.0 
370.0003374459614 29842.0 854.0 1108.3285528031272 0.5047618296810255 342.0 0.0 236.0 
380.0003374459614 29733.0 851.0 1111.4211212516325 0.49967133646752016 346.0 0.0 237.0 
390.0003374459614 29732.0 851.0 1114.417209908735 0.49978879749994726 347.0 0.0 238.0 
400.0003374459614 29715.0 852.0 1114.4928292046948 0.5000762992260439 346.0 1.0 237.0 
410.0003374459614 29610.0 852.0 1117.4080834419792 0.5009265181675039 349.0 0.0 239.0 
420.0003374459614 29604.0 854.0 1111.3142112125179 0.49985326661976304 343.0 1.0 236.0 
430.0003374459614 29658.0 854.0 1129.4132985658432 0.5002020381197594 354.0 0.0 243.0 
440.0003374459614 29607.0 854.0 1129.436766623208 0.501892703871768 355.0 1.0 242.0 
450.0003374459614 29600.0 854.0 1132.378096479794 0.5009915533525963 352.0 4.0 240.0 
460.0003374459614 29601.0 854.0 1135.4028683181248 0.5005899086552613 357.0 0.0 245.0 
470.0003374459614 29615.0 856.0 1132.3520208604948 0.5035405225493415 355.0 0.0 244.0 
480.0003374459614 29732.0 855.0 1132.453715775752 0.4999132034401577 352.0 0.0 244.0 
490.0003374459614 29859.0 856.0 1126.3963494133022 0.5017253941237226 350.0 1.0 241.0 
500.0003374459614 29846.0 853.0 1111.4680573663652 0.49966080419218956 346.0 0.0 237.0 
510.0003374459614 29847.0 854.0 1108.417209908734 0.4994327584933666 344.0 0.0 236.0 
520.0003374459613 29935.0 855.0 1105.4967405475866 0.49990562408494943 343.0 0.0 235.0 
530.0003374459613 29986.0 855.0 1105.4263363754874 0.501953365864556 343.0 0.0 235.0 
540.0003374459613 29969.0 855.0 1111.4524119947862 0.5029086151713736 345.0 0.0 237.0 
550.0003374459613 29946.0 855.0 1114.365058670145 0.4995961331968679 345.0 0.0 238.0 
560.0003374459613 29976.0 856.0 1114.398956975227 0.499826592949395 345.0 0.0 238.0 
570.0003374459613 30053.0 857.0 1117.4054758800542 0.5000484237972624 349.0 0.0 239.0 
580.0003374459613 30278.0 858.0 1123.4628422425042 0.49966497613858485 353.0 0.0 241.0 
590.0003374459613 30330.0 859.0 1126.4406779660992 0.5001773069520307 351.0 0.0 242.0 
600.0003374459613 30354.0 859.0 1126.4432855280331 0.4991759750344689 355.0 0.0 242.0 
610.0003374459613 30464.0 860.0 1126.3572359843558 0.49922146647291965 359.0 0.0 242.0 
620.0003374459613 30486.0 860.0 1129.3898305084756 0.4991013777876293 360.0 0.0 243.0 
630.0003374459613 30420.0 860.0 1135.413298565843 0.5003021034887767 369.0 0.0 245.0 
640.0003374459613 30502.0 859.0 1141.366362451107 0.49957202137737927 374.0 0.0 247.0 
650.0003374459613 30621.0 860.0 1138.378096479792 0.4995205708555471 373.0 0.0 246.0 
660.0003374459613 30754.0 859.0 1150.3937418513694 0.49966779833059977 370.0 0.0 250.0 
#####################################################################
# End of data export. Simulation finished at: 2019-03-03T09:37+0000 #
#####################################################################
