#####################################################################
# Alchemist log file - simulation started at: 2019-03-04T05:14+0000 #
#####################################################################
# seed = 0.0, bandwidth = 5623413.251903491, accessPointCount = 1031.338537721246, baserange = 100.0
#
# The columns have the following meaning: 
# time neighbor_count[Sum] <value>@neighbor_count[Sum] packet_size[Mean] mean_delay[Mean] crowd[Sum] overcrowded[Sum] risk[Sum] 
0.0 NaN NaN NaN NaN NaN NaN NaN 
10.000170975296044 3334.0 1021.0 4983.001582278481 0.5316917073191847 1495.0 2.0 1495.0 
20.000170975296044 3254.0 996.0 4983.40664556962 0.49940725264524183 1488.0 9.0 1488.0 
30.000170975296044 3260.0 996.0 4982.10759493671 0.499334290280579 1489.0 8.0 1489.0 
40.000170975296044 3262.0 996.0 4983.123417721519 0.499846716091621 1491.0 6.0 1491.0 
50.000170975296044 3319.0 1001.0 4982.2009493670885 0.500386592171821 1489.0 8.0 1489.0 
60.000170975296044 3298.0 998.0 4981.458860759494 0.5039610010615613 1489.0 8.0 1489.0 
70.00000964764325 3273.0 998.0 749.3591772151844 0.5029566136529182 262.0 9.0 183.0 
80.00000964764325 3264.0 999.0 749.3639240506255 0.5046132243181182 249.0 9.0 183.0 
90.00000964764325 3231.0 997.0 752.9620253164624 0.5025658103755806 248.0 9.0 185.0 
100.00000964764325 3248.0 996.0 752.9667721519047 0.5111297882631364 252.0 9.0 185.0 
110.00000964764325 3262.0 998.0 758.4003164556993 0.5069830384360867 255.0 9.0 188.0 
120.00000964764325 3274.0 999.0 758.4066455696247 0.5035645570747499 254.0 9.0 188.0 
130.00000964764325 3313.0 1002.0 758.4699367088601 0.5045791078334497 256.0 9.0 188.0 
140.00000964764325 3346.0 1003.0 762.1028481012587 0.502615219092965 255.0 9.0 190.0 
150.00000964764325 3403.0 1004.0 767.6060126582347 0.5013244350866122 258.0 9.0 193.0 
160.00000964764325 3378.0 1004.0 769.4556962025359 0.5024650581835938 258.0 9.0 194.0 
170.00000964764325 3310.0 1004.0 771.1914556962043 0.5051072320968795 258.0 9.0 195.0 
180.00000964764325 3281.0 1001.0 767.5110759493745 0.5026298733699647 260.0 9.0 193.0 
190.00000964764325 3299.0 1001.0 767.482594936701 0.5039445378123708 258.0 9.0 193.0 
200.00000964764325 3322.0 1002.0 765.7088607594857 0.5091870755272524 255.0 10.0 191.0 
210.00000964764325 3286.0 1002.0 765.6882911392358 0.503308047185483 254.0 11.0 190.0 
220.00000964764325 3327.0 1009.0 767.5395569620215 0.50810933832138 253.0 10.0 192.0 
230.00000964764325 3318.0 1006.0 773.0601265822797 0.5069691861649049 251.0 13.0 192.0 
240.00000964764325 3311.0 1004.0 773.0363924050653 0.5064960946859298 254.0 11.0 194.0 
250.00000964764325 3302.0 1003.0 774.8275316455612 0.5004908762448508 256.0 11.0 195.0 
260.00000964764325 3309.0 1002.0 771.2215189873453 0.5015552539119059 253.0 10.0 194.0 
270.00000964764325 3326.0 1001.0 769.3734177215157 0.5072205722682175 254.0 9.0 194.0 
280.00000964764325 3282.0 1001.0 769.2895569620215 0.5105132172371418 252.0 10.0 193.0 
290.00000964764325 3268.0 1000.0 763.8449367088601 0.5088175764197381 252.0 9.0 191.0 
300.00000964764325 3230.0 996.0 758.3813291139254 0.5024491782889681 250.0 9.0 188.0 
310.00000964764325 3188.0 993.0 751.1408227848156 0.5014213021451008 244.0 9.0 184.0 
320.00000964764325 3198.0 995.0 751.1186708860743 0.5012287808888567 244.0 9.0 184.0 
330.00000964764325 3181.0 995.0 745.6518987341823 0.5066574801411214 243.0 9.0 181.0 
340.00000964764325 3242.0 1002.0 749.32753164556 0.5006456315563502 248.0 9.0 183.0 
350.00000964764325 3294.0 1008.0 754.7452531645594 0.5027799526955737 251.0 9.0 186.0 
360.00000964764325 3331.0 1014.0 760.2515822784852 0.5115923424272284 248.0 9.0 189.0 
370.00000964764325 3301.0 1006.0 758.4699367088601 0.5127302515970108 247.0 9.0 188.0 
380.00000964764325 3294.0 1003.0 760.2310126582347 0.5090978753831282 248.0 9.0 189.0 
390.00000964764325 3286.0 1004.0 765.6566455696249 0.5085316885478502 255.0 9.0 192.0 
400.00000964764325 3295.0 1005.0 765.6155063291183 0.5090572257239672 258.0 9.0 192.0 
410.00000964764325 3251.0 1005.0 760.213607594934 0.5096425501767624 255.0 9.0 189.0 
420.00000964764325 3248.0 1006.0 758.3765822784853 0.5075741222188987 250.0 9.0 188.0 
430.00000964764325 3235.0 1002.0 751.1202531645594 0.517180987616316 248.0 9.0 184.0 
440.00000964764325 3214.0 1000.0 754.7895569620215 0.5113094324229224 246.0 9.0 186.0 
450.00000964764325 3221.0 1003.0 756.5727848101184 0.5037824220770195 250.0 9.0 187.0 
460.00000964764325 3203.0 999.0 754.7563291139264 0.5067583446145684 247.0 9.0 186.0 
470.00000964764325 3185.0 1001.0 751.1044303797419 0.5071111871421389 240.0 9.0 184.0 
480.00000964764325 3180.0 995.0 756.5253164556993 0.5062435632999241 245.0 9.0 187.0 
490.00000964764325 3172.0 994.0 749.248417721515 0.5127853258755674 243.0 9.0 183.0 
500.00000964764325 3142.0 991.0 747.4193037974641 0.5036909309734305 241.0 9.0 182.0 
510.00000964764325 3140.0 994.0 741.9699367088601 0.5043000207736669 239.0 9.0 179.0 
520.0000096476432 3143.0 995.0 732.8829113923988 0.5010772984328186 235.0 9.0 174.0 
530.0000096476432 3145.0 998.0 729.253164556956 0.50704028705756 233.0 9.0 172.0 
540.0000096476432 3174.0 999.0 734.7088607594858 0.507532677776484 239.0 9.0 175.0 
550.0000096476432 3170.0 997.0 727.4841772151846 0.5050283886928308 232.0 9.0 171.0 
560.0000096476432 3156.0 993.0 727.4335443037946 0.5005307321181874 229.0 9.0 171.0 
570.0000096476432 3194.0 996.0 736.5632911392341 0.5100485985688845 239.0 9.0 176.0 
580.0000096476432 3211.0 995.0 742.0300632911399 0.5086876253135544 241.0 9.0 179.0 
590.0000096476432 3212.0 997.0 741.9920886076027 0.5091196297605367 240.0 9.0 179.0 
600.0000096476432 3199.0 998.0 742.0775316455595 0.5085321669269179 239.0 9.0 179.0 
610.0000096476432 3191.0 996.0 743.8417721519056 0.5058730149229299 240.0 9.0 180.0 
620.0000096476432 3216.0 998.0 742.0348101265805 0.5010941900603955 240.0 9.0 179.0 
630.0000096476432 3234.0 1002.0 745.6756329113961 0.51002616159434 242.0 9.0 181.0 
640.0000096476432 3252.0 1006.0 745.6487341772123 0.5072608934779436 248.0 9.0 181.0 
650.0000096476432 3262.0 1007.0 749.2943037974641 0.5073845221635582 246.0 9.0 183.0 
660.0000096476432 3271.0 1008.0 752.9398734177202 0.5032098386825056 255.0 9.0 185.0 
#####################################################################
# End of data export. Simulation finished at: 2019-03-04T05:31+0000 #
#####################################################################
