#####################################################################
# Alchemist log file - simulation started at: 2019-03-07T00:20+0000 #
#####################################################################
# seed = 8.0, bandwidth = 1.0E8, accessPointCount = 2000.0, baserange = 562.341325190349
#
# The columns have the following meaning: 
# time neighbor_count[Sum] <value>@neighbor_count[Sum] packet_size[Mean] mean_delay[Mean] crowd[Sum] overcrowded[Sum] risk[Sum] 
0.0 NaN NaN NaN NaN NaN NaN NaN 
2.000354102472554 48496.0 46530.0 4977.568201315413 0.5058266931361517 1497.0 0.0 1497.0 
4.000354102472555 49891.0 46723.0 4977.214755504718 0.5525387253951454 1497.0 0.0 1497.0 
6.000198348008885 50768.0 46721.0 4977.878181298256 0.5521843202522634 1497.0 0.0 1497.0 
8.000354102472555 51887.0 46739.0 4980.036602802403 0.5622302699629907 1496.0 1.0 1496.0 
10.000354102472555 53249.0 46740.0 4982.428367171861 0.572304479722745 1496.0 1.0 1496.0 
12.000354102472555 53078.0 46597.0 4982.0097226193875 0.5492692827100621 1492.0 5.0 1492.0 
14.000354102472555 52496.0 46475.0 4980.941378324278 0.5042327336247685 1489.0 8.0 1489.0 
16.000198348008887 52496.0 46475.0 4980.662281955962 0.504232419724129 1480.0 17.0 1480.0 
18.000354102472556 52498.0 46476.0 4981.506434086359 0.5047289999502097 1482.0 15.0 1482.0 
20.000354102472556 52496.0 46475.0 4982.257935373176 0.5043616209543379 1485.0 12.0 1485.0 
22.000354102472556 52520.0 46479.0 4981.301687160423 0.5049824825213023 1482.0 15.0 1482.0 
24.000354102472556 52535.0 46478.0 4980.2790963683165 0.5053174381466043 1477.0 20.0 1477.0 
26.000198348008887 52529.0 46478.0 4980.133828996283 0.5047171549521768 1476.0 21.0 1476.0 
28.000354102472556 52528.0 46477.0 4981.336002287676 0.5046837389518138 1478.0 19.0 1478.0 
30.000354102472556 52526.0 46476.0 4982.325421790107 0.5043281605321951 1477.0 20.0 1477.0 
32.000354102472556 52536.0 46476.0 4980.958535887903 0.5046084757294493 1477.0 20.0 1477.0 
34.000354102472556 52556.0 46479.0 4980.059479553904 0.5056627470272596 1475.0 22.0 1475.0 
36.00019834800889 52535.0 46478.0 4980.129253645983 0.5045128011862202 1476.0 21.0 1476.0 
38.000354102472556 52532.0 46477.0 4981.06148126966 0.504990986404055 1476.0 21.0 1476.0 
40.000354102472556 52528.0 46476.0 4982.342579353732 0.5040337741165122 1478.0 19.0 1478.0 
42.000354102472556 52542.0 46476.0 4981.24907063197 0.5041294262868717 1474.0 23.0 1474.0 
44.000354102472556 52559.0 46479.0 4980.061767229054 0.5055052978232405 1476.0 21.0 1476.0 
46.00019834800889 52543.0 46480.0 4980.028595939377 0.5048843898534278 1475.0 22.0 1475.0 
48.000354102472556 52528.0 46478.0 4980.948241349728 0.5047755695194622 1475.0 22.0 1475.0 
50.000354102472556 52535.0 46478.0 4982.064626822992 0.5050300861763074 1475.0 22.0 1475.0 
52.000354102472556 52551.0 46480.0 4981.139262224764 0.5060460783110367 1476.0 21.0 1476.0 
54.000354102472556 52566.0 46481.0 4980.233342865313 0.5061963333121777 1473.0 24.0 1473.0 
56.00019834800889 52535.0 46480.0 4980.168144123534 0.5062610629878538 1478.0 19.0 1478.0 
58.000354102472556 52517.0 46481.0 4981.100371747212 0.5063387881818979 1477.0 20.0 1477.0 
60.000354102472556 52522.0 46480.0 4980.821275378896 0.5057345457971569 1477.0 20.0 1477.0 
62.000354102472556 52556.0 46480.0 833.2593651701454 0.5061087976743307 833.0 22.0 307.0 
64.00035410247256 52545.0 46478.0 835.6385473262674 0.5055033913974805 586.0 21.0 310.0 
66.0001983480089 52532.0 46478.0 836.9825564769949 0.504701156381431 520.0 18.0 314.0 
68.00035410247256 52543.0 46479.0 836.8430082928132 0.5072157059132638 467.0 23.0 309.0 
70.00035410247256 52534.0 46478.0 835.5722047469351 0.505819068829014 453.0 19.0 312.0 
72.00035410247256 52535.0 46476.0 832.8979124964129 0.5051181369592497 437.0 23.0 306.0 
74.00035410247256 52540.0 46477.0 832.8487274806844 0.5057875772038383 435.0 18.0 311.0 
76.0001983480089 52538.0 46479.0 835.4429511009287 0.5065984045075839 424.0 22.0 309.0 
78.00035410247256 52511.0 46479.0 835.5001429797152 0.5055239038797186 418.0 22.0 309.0 
80.00035410247256 52536.0 46479.0 835.377752359179 0.5065725422801828 417.0 20.0 311.0 
82.00035410247256 52536.0 46477.0 835.3914784100541 0.5049601067915286 412.0 22.0 309.0 
84.00035410247256 52560.0 46479.0 835.3983414355291 0.5053351598761409 413.0 21.0 310.0 
86.0001983480089 52572.0 46480.0 836.7034601086443 0.5062939246412952 410.0 22.0 310.0 
88.00035410247256 52544.0 46477.0 836.6817271947498 0.5051834950592963 408.0 22.0 310.0 
90.00035410247256 52538.0 46478.0 836.7343437231947 0.5056624076285355 406.0 23.0 309.0 
92.00035410247256 52562.0 46479.0 836.6805833571793 0.5064491544221211 408.0 21.0 311.0 
94.00035410247256 52544.0 46477.0 839.3274235058799 0.5054665598861732 410.0 21.0 313.0 
96.0001983480089 52540.0 46477.0 843.2805261652935 0.5058478278270288 410.0 23.0 314.0 
98.00035410247256 52537.0 46478.0 843.2988275664982 0.5063659417348969 412.0 22.0 315.0 
100.00035410247256 52562.0 46481.0 844.5673434372343 0.5080298352224095 412.0 22.0 316.0 
102.00035410247256 52496.0 46479.0 843.2873891907258 0.5076212585158361 412.0 23.0 314.0 
104.00035410247256 52464.0 46476.0 843.2107520732021 0.5060253675929841 412.0 22.0 315.0 
106.0001983480089 52461.0 46475.0 841.9468115527701 0.5055081087667552 409.0 23.0 313.0 
108.00035410247256 52478.0 46477.0 841.9342293394235 0.5064953334821403 407.0 24.0 312.0 
110.00035410247256 52439.0 46477.0 841.9410923648956 0.5056890915084875 407.0 22.0 314.0 
112.00035410247256 52469.0 46478.0 840.5787818129671 0.5065515443195361 406.0 23.0 312.0 
114.00035410247256 52456.0 46476.0 841.959393766073 0.506026624807714 406.0 22.0 314.0 
116.0001983480089 52498.0 46480.0 843.2576494137888 0.5071249527128815 410.0 19.0 318.0 
118.00035410247256 52508.0 46478.0 839.3056905919469 0.506281643643084 409.0 20.0 314.0 
120.00035410247256 52466.0 46475.0 840.6336860165958 0.505584984192954 410.0 20.0 315.0 
122.00035410247256 52464.0 46477.0 838.0097226193762 0.5061897831725125 410.0 19.0 314.0 
124.00035410247256 52479.0 46481.0 836.6542750929157 0.5067044116568972 409.0 20.0 312.0 
126.0001983480089 52470.0 46477.0 835.428081212479 0.5067438166876936 409.0 20.0 311.0 
128.00035410247256 52455.0 46477.0 835.3766085216085 0.5054651526284071 407.0 19.0 312.0 
130.00035410247256 52463.0 46476.0 835.3422933943253 0.5059621653711115 404.0 20.0 311.0 
132.00035410247256 52475.0 46481.0 836.7091792965455 0.5073473512160858 402.0 20.0 312.0 
134.00035410247256 52439.0 46477.0 834.047469259372 0.5069117031469682 401.0 20.0 310.0 
136.0001983480089 52416.0 46475.0 834.0897912496553 0.5049636716138148 399.0 20.0 310.0 
138.00035410247256 52470.0 46477.0 835.4418072633568 0.5049272221102562 401.0 20.0 311.0 
140.00035410247256 52497.0 46477.0 836.7515012868013 0.507434978548958 399.0 20.0 312.0 
142.00035410247256 52438.0 46477.0 838.0714898484509 0.5058276633010113 396.0 23.0 310.0 
144.00035410247256 52484.0 46477.0 839.4040606234 0.5055878112918414 399.0 22.0 312.0 
146.0001983480089 52471.0 46476.0 839.2976837289261 0.5054561778120222 402.0 20.0 314.0 
148.00035410247256 52472.0 46476.0 840.7034601086442 0.5050035404107424 400.0 23.0 312.0 
150.00035410247256 52469.0 46475.0 840.6588504432452 0.5052389264888641 405.0 22.0 313.0 
152.00035410247256 52464.0 46476.0 839.3491564198006 0.5049398469379063 410.0 20.0 314.0 
154.00035410247256 52479.0 46478.0 839.299971404072 0.5050973134775731 405.0 23.0 311.0 
156.0001983480089 52471.0 46477.0 839.321704318005 0.5048979072445294 407.0 22.0 312.0 
158.00035410247256 52467.0 46475.0 839.299971404072 0.504323379740434 408.0 22.0 312.0 
160.00035410247256 52485.0 46477.0 837.9639691164027 0.5063062313638466 407.0 23.0 310.0 
162.00035410247256 52481.0 46477.0 837.9593937660734 0.5047997685016299 408.0 22.0 311.0 
164.00035410247256 52484.0 46477.0 837.978839004852 0.5057266820535169 412.0 19.0 314.0 
166.0001983480089 52455.0 46475.0 837.978839004852 0.5043064577847436 410.0 20.0 313.0 
168.00035410247256 52461.0 46474.0 837.9799828424235 0.5042314516889554 408.0 21.0 312.0 
170.00035410247256 52500.0 46478.0 837.9502430654865 0.506617959224305 410.0 20.0 313.0 
172.00035410247256 52490.0 46483.0 839.2988275664976 0.5082680603311863 410.0 20.0 314.0 
174.00035410247256 52435.0 46478.0 839.2873891907259 0.506410733985964 411.0 21.0 313.0 
176.0001983480089 52402.0 46476.0 839.2862453531513 0.5043719817474771 413.0 20.0 314.0 
178.00035410247256 52417.0 46478.0 839.2679439519475 0.504802598771593 411.0 20.0 314.0 
180.00035410247256 52405.0 46478.0 839.3136974549469 0.5056028768538168 410.0 20.0 314.0 
182.00035410247256 52410.0 46479.0 839.2427795252977 0.5056121887433277 413.0 19.0 315.0 
184.00035410247256 52404.0 46477.0 837.9731198169941 0.5046572838004489 410.0 21.0 312.0 
186.0001983480089 52396.0 46476.0 837.984558192727 0.5044132171791348 405.0 26.0 307.0 
188.00035410247256 52378.0 46476.0 838.00629110666 0.5043959312681573 406.0 25.0 308.0 
190.00035410247256 52398.0 46476.0 837.9765513297061 0.5046795194415465 405.0 26.0 307.0 
192.00035410247256 52394.0 46478.0 837.9651129539739 0.5059708079786078 408.0 26.0 307.0 
194.00035410247256 52379.0 46476.0 837.9239348012654 0.5050370928149107 406.0 26.0 307.0 
196.0001983480089 52385.0 46475.0 836.6531312553454 0.5052542019903734 406.0 28.0 304.0 
198.00035410247256 52387.0 46477.0 839.2679439519477 0.5049256685079572 407.0 28.0 306.0 
200.00035410247256 52427.0 46480.0 839.1993136974696 0.5072339090077117 409.0 28.0 306.0 
202.00035410247256 52400.0 46479.0 839.2679439519477 0.5056113826983116 406.0 33.0 301.0 
204.00035410247256 52411.0 46479.0 839.2656562768057 0.5079251303697401 411.0 28.0 306.0 
206.0001983480089 52380.0 46474.0 839.2656562768057 0.5049986808049977 409.0 27.0 307.0 
208.00035410247256 52394.0 46476.0 837.9937088933395 0.5057728631446538 408.0 28.0 305.0 
210.00035410247256 52386.0 46476.0 836.643980554754 0.5060085842041318 406.0 29.0 303.0 
212.00035410247256 52385.0 46476.0 835.3445810694718 0.5052769328309076 402.0 35.0 296.0 
214.00035410247256 52390.0 46474.0 835.3125536173758 0.5052087579702567 397.0 36.0 295.0 
216.0001983480089 52378.0 46474.0 835.3136974549469 0.504859084721451 401.0 31.0 300.0 
218.00035410247256 52403.0 46476.0 836.619959965675 0.5049422558393712 400.0 30.0 302.0 
220.00035410247256 52430.0 46478.0 839.2690877895219 0.5068100168118085 401.0 31.0 303.0 
222.00035410247256 52428.0 46479.0 840.5845010008672 0.5068347284973559 404.0 30.0 305.0 
224.00035410247256 52398.0 46477.0 839.2690877895218 0.5059809978881813 404.0 30.0 304.0 
226.0001983480089 52387.0 46477.0 839.2919645410262 0.5053855602518348 404.0 30.0 304.0 
228.00035410247256 52377.0 46476.0 839.2873891907259 0.5051444811038148 404.0 30.0 304.0 
230.00035410247256 52366.0 46478.0 843.2462110380142 0.5063111183050664 404.0 31.0 306.0 
232.00035410247256 52345.0 46478.0 841.8919073491666 0.5069478029537857 405.0 32.0 304.0 
234.00035410247256 52337.0 46477.0 836.6508435801995 0.505670759152409 402.0 32.0 300.0 
236.0001983480089 52394.0 46479.0 836.6165284529629 0.5057283846876949 409.0 26.0 306.0 
238.00035410247256 52384.0 46477.0 836.6405490420418 0.5065664767864164 410.0 24.0 308.0 
240.00035410247256 52373.0 46477.0 836.6485559050575 0.5066059450374015 411.0 23.0 309.0 
242.00035410247256 52353.0 46476.0 835.307978267089 0.5052577248733949 412.0 22.0 309.0 
244.00035410247256 52358.0 46478.0 832.6336860165954 0.5061912143462521 411.0 23.0 306.0 
246.0001983480089 52360.0 46477.0 832.7011724335026 0.5061742413900693 411.0 23.0 306.0 
248.00035410247256 52325.0 46477.0 833.9593937660735 0.5067682387009549 410.0 22.0 308.0 
250.00035410247256 52296.0 46475.0 834.0280240205807 0.5055905494787372 409.0 23.0 307.0 
252.00035410247256 52332.0 46479.0 836.6508435801994 0.5066020312874796 410.0 23.0 309.0 
254.00035410247256 52348.0 46478.0 836.638261366896 0.5067175528225688 409.0 22.0 310.0 
256.0001983480089 52333.0 46478.0 836.6394052044704 0.5057916152408963 408.0 23.0 309.0 
258.00035410247256 52343.0 46477.0 836.6211038032494 0.5049924663706943 407.0 23.0 309.0 
260.00035410247256 52354.0 46479.0 836.6096654275175 0.5070072291955044 407.0 22.0 310.0 
262.00035410247256 52371.0 46480.0 835.326279668293 0.50708461547011 407.0 23.0 308.0 
264.00035410247256 52340.0 46478.0 835.3125536173758 0.5066842197098131 406.0 23.0 308.0 
266.0001983480089 52331.0 46478.0 837.9399485273249 0.505126096154128 408.0 21.0 312.0 
268.00035410247256 52367.0 46481.0 833.9914212181981 0.5077857072216413 407.0 22.0 308.0 
270.00035410247256 52323.0 46480.0 836.662281955975 0.5057026551117905 408.0 22.0 310.0 
272.00035410247256 52322.0 46478.0 836.638261366896 0.5062709255221732 405.0 20.0 312.0 
274.00035410247256 52322.0 46478.0 836.6565627681002 0.5077132329617081 405.0 22.0 310.0 
276.0001983480089 52300.0 46480.0 837.9834143551523 0.5065964155688856 403.0 24.0 309.0 
278.00035410247256 52313.0 46481.0 837.9456677151984 0.5076541774120275 408.0 20.0 313.0 
280.00035410247256 52269.0 46479.0 839.3091221046591 0.5065664304885235 405.0 23.0 311.0 
282.00035410247256 52236.0 46476.0 840.5982270517419 0.5053912079285952 403.0 24.0 311.0 
284.00035410247256 52250.0 46482.0 840.5890763511674 0.5076688697805434 405.0 23.0 312.0 
286.0001983480089 52243.0 46477.0 837.9662567915487 0.5056715282533253 403.0 24.0 309.0 
288.00035410247256 52249.0 46476.0 837.915927938246 0.5063492316573097 404.0 24.0 309.0 
290.00035410247256 52260.0 46476.0 837.9273663139774 0.5060613307882661 407.0 23.0 310.0 
292.00035410247256 52234.0 46475.0 837.9285101515491 0.5040958568562482 404.0 24.0 309.0 
294.00035410247256 52263.0 46479.0 837.9468115527701 0.5053582402143385 403.0 24.0 309.0 
296.0001983480089 52275.0 46478.0 840.5845010008674 0.5055634367422189 403.0 23.0 312.0 
298.00035410247256 52275.0 46479.0 836.6394052044703 0.5050843986879691 399.0 24.0 308.0 
300.00035410247256 52274.0 46477.0 837.9468115527701 0.5051974596166725 400.0 24.0 309.0 
302.00035410247256 52305.0 46482.0 837.9536745781985 0.5078816695659597 403.0 23.0 310.0 
304.00035410247256 52291.0 46481.0 835.329711181022 0.50816056960983 403.0 24.0 307.0 
306.0001983480089 52280.0 46476.0 836.6439805547541 0.5052005960327375 405.0 24.0 308.0 
308.00035410247256 52252.0 46479.0 836.635973691754 0.5058538575330294 404.0 22.0 310.0 
310.00035410247256 52278.0 46481.0 836.635973691754 0.5079432735013064 405.0 23.0 309.0 
312.00035410247256 52202.0 46477.0 835.329711181022 0.5060938125541214 402.0 23.0 308.0 
314.00035410247256 52209.0 46479.0 836.6611381184033 0.5061801928657454 402.0 22.0 310.0 
316.0001983480089 52209.0 46477.0 832.6943094080533 0.5051566933469156 401.0 23.0 306.0 
318.00035410247256 52229.0 46477.0 831.4097798112585 0.5061751003151403 397.0 23.0 305.0 
320.00035410247256 52207.0 46476.0 830.1092364884042 0.505825958529975 394.0 22.0 305.0 
322.00035410247256 52228.0 46478.0 828.7961109522269 0.5051611781532408 394.0 24.0 302.0 
324.00035410247256 52258.0 46479.0 828.7354875607816 0.5055452308233405 393.0 26.0 300.0 
326.0001983480089 52279.0 46482.0 827.466971690007 0.5067346138645586 391.0 27.0 298.0 
328.00035410247256 52303.0 46480.0 828.7663711752894 0.5071980416350961 388.0 29.0 297.0 
330.00035410247256 52302.0 46481.0 830.1195310266049 0.5074615921485992 388.0 28.0 299.0 
332.00035410247256 52289.0 46480.0 830.08292822418 0.5075422280148054 390.0 26.0 301.0 
334.00035410247256 52244.0 46476.0 830.0760651987347 0.5062305251397083 393.0 21.0 306.0 
336.0001983480089 52205.0 46475.0 831.3960537603833 0.5053951634522554 397.0 20.0 308.0 
338.00035410247256 52212.0 46479.0 827.4383757506399 0.5056569987803046 397.0 19.0 306.0 
340.00035410247256 52213.0 46477.0 827.4338004003372 0.5046932114926524 396.0 20.0 305.0 
342.00035410247256 52229.0 46479.0 830.0966542751006 0.5060510000815087 397.0 20.0 307.0 
344.00035410247256 52249.0 46480.0 830.0406062339264 0.5059083454053586 399.0 19.0 308.0 
346.0001983480089 52223.0 46476.0 830.0852158993259 0.5049471520317678 397.0 20.0 307.0 
348.00035410247256 52219.0 46478.0 830.073777523593 0.5054471512326747 397.0 20.0 307.0 
350.00035410247256 52205.0 46477.0 831.3754646840214 0.5061147126188702 398.0 19.0 309.0 
352.00035410247256 52185.0 46477.0 830.0749213611634 0.5048542791321533 397.0 20.0 307.0 
354.00035410247256 52210.0 46483.0 830.065770660576 0.5074525096389317 398.0 20.0 307.0 
356.0001983480089 52178.0 46477.0 830.0817843866087 0.5054374137484265 399.0 19.0 308.0 
358.00035410247256 52170.0 46478.0 830.1023734629587 0.5048517614847613 400.0 20.0 307.0 
360.00035410247256 52213.0 46480.0 830.1023734629587 0.5076844934050881 400.0 20.0 307.0 
362.00035410247256 52190.0 46479.0 826.1149556763042 0.5068185469798157 405.0 19.0 305.0 
364.00035410247256 52200.0 46480.0 826.1195310266048 0.5083852655883974 397.0 26.0 298.0 
366.0001983480089 52195.0 46477.0 826.108092650834 0.5072780068800361 399.0 24.0 300.0 
368.00035410247256 52144.0 46476.0 819.5436088075683 0.5053179024065422 401.0 20.0 299.0 
370.00035410247256 52166.0 46477.0 819.5401772948148 0.5054497145124717 402.0 21.0 298.0 
372.00035410247256 52170.0 46480.0 820.8292822419347 0.5078260571543908 403.0 21.0 299.0 
374.00035410247256 52140.0 46479.0 822.1424077781124 0.5068873060521966 403.0 22.0 299.0 
376.0001983480089 52121.0 46475.0 822.129825564767 0.5054254721265785 402.0 22.0 299.0 
378.00035410247256 52174.0 46479.0 824.8132685158772 0.5063076141504828 402.0 22.0 301.0 
380.00035410247256 52169.0 46478.0 824.7881040892266 0.5062174273683272 404.0 20.0 303.0 
382.00035410247256 52170.0 46476.0 824.7778095510646 0.5065472075607177 399.0 23.0 300.0 
384.00035410247256 52201.0 46482.0 826.0726336860225 0.5091101661013525 399.0 23.0 301.0 
386.0001983480089 52123.0 46477.0 826.0829282241801 0.5062197446980607 403.0 20.0 304.0 
388.00035410247256 52191.0 46485.0 824.7720903631641 0.508349977625441 400.0 21.0 302.0 
390.00035410247256 52148.0 46478.0 826.1389762653835 0.5057676890101868 399.0 22.0 302.0 
392.00035410247256 52118.0 46474.0 826.0966542751006 0.5049353198759783 401.0 19.0 305.0 
394.00035410247256 52131.0 46476.0 824.7995424649598 0.5055354080851238 402.0 20.0 303.0 
396.0001983480089 52110.0 46477.0 823.4601086645613 0.5048885549824745 403.0 20.0 302.0 
398.00035410247256 52181.0 46480.0 824.781241063781 0.5070086816224451 406.0 19.0 304.0 
400.00035410247256 52169.0 46478.0 823.472690877907 0.5056313638941862 404.0 20.0 302.0 
402.00035410247256 52181.0 46478.0 823.4715470403327 0.505575603051761 408.0 20.0 302.0 
404.00035410247256 52211.0 46480.0 826.0932227623838 0.5073568337759945 409.0 19.0 305.0 
406.0001983480089 52170.0 46478.0 826.095510437526 0.5061456177566683 408.0 20.0 304.0 
408.00035410247256 52187.0 46480.0 827.4143551615614 0.5070775568442564 408.0 20.0 305.0 
410.00035410247256 52194.0 46479.0 827.4372319130537 0.5070820595417297 408.0 19.0 306.0 
412.00035410247256 52166.0 46476.0 828.750357449231 0.504581102331539 407.0 20.0 306.0 
414.00035410247256 52195.0 46478.0 826.1229625393215 0.5050178657742751 405.0 21.0 303.0 
416.0001983480089 52212.0 46482.0 826.1172433514473 0.5064831189992718 406.0 19.0 305.0 
418.00035410247256 52221.0 46478.0 823.4406634257831 0.5077461873518174 401.0 21.0 301.0 
420.00035410247256 52195.0 46480.0 822.200743494416 0.5071645922989787 400.0 20.0 301.0 
422.00035410247256 52159.0 46474.0 820.8064054904304 0.505400127526115 402.0 20.0 300.0 
424.00035410247256 52208.0 46476.0 824.7972547898138 0.5060980761671119 405.0 20.0 303.0 
426.0001983480089 52144.0 46475.0 823.4795539033526 0.5057314682253579 403.0 20.0 302.0 
428.00035410247256 52113.0 46473.0 823.4715470403326 0.5042144100939476 403.0 20.0 302.0 
430.00035410247256 52150.0 46474.0 823.4475264512532 0.505812120371963 401.0 22.0 300.0 
432.00035410247256 52124.0 46474.0 823.4646840148621 0.5043839243389358 401.0 22.0 300.0 
434.00035410247256 52139.0 46476.0 826.0566199599591 0.5051204371447203 406.0 22.0 302.0 
436.0001983480089 52129.0 46476.0 827.3926222476285 0.5053795869737475 407.0 23.0 302.0 
438.00035410247256 52132.0 46475.0 826.1149556763044 0.504682594448107 405.0 24.0 300.0 
440.00035410247256 52161.0 46476.0 827.4669716900069 0.5050875004818268 402.0 24.0 301.0 
442.00035410247256 52207.0 46480.0 834.0394623963523 0.5074961819233319 403.0 24.0 306.0 
444.00035410247256 52170.0 46478.0 835.3857592221791 0.5078844429662428 407.0 22.0 309.0 
446.0001983480089 52146.0 46476.0 836.6233914783915 0.5049280581982466 409.0 22.0 310.0 
448.00035410247256 52164.0 46475.0 835.297683728926 0.5054586791713886 410.0 24.0 307.0 
450.00035410247256 52186.0 46479.0 836.6233914783915 0.5075229634697037 415.0 23.0 309.0 
452.00035410247256 52142.0 46477.0 836.6153846153915 0.5055790474774785 416.0 22.0 310.0 
454.00035410247256 52191.0 46479.0 836.5959393766 0.5058677468423645 416.0 24.0 308.0 
456.0001983480089 52164.0 46476.0 837.9056334000445 0.5046266426421666 418.0 25.0 308.0 
458.00035410247256 52209.0 46480.0 839.2496425507693 0.5060297090978713 420.0 23.0 311.0 
460.00035410247256 52166.0 46479.0 840.5753503002496 0.505846687619365 419.0 24.0 311.0 
462.00035410247256 52172.0 46477.0 837.9433800400411 0.5062366689707 417.0 25.0 308.0 
464.00035410247256 52156.0 46480.0 837.926222476407 0.5067602161608298 421.0 25.0 308.0 
466.0001983480089 52133.0 46479.0 839.1970260222855 0.5052713872440795 419.0 26.0 308.0 
468.00035410247256 52174.0 46483.0 839.2484987131987 0.507548550810759 418.0 26.0 308.0 
470.00035410247256 52132.0 46476.0 833.9616814412192 0.5041379583522586 417.0 24.0 306.0 
472.00035410247256 52161.0 46480.0 836.5536173863168 0.5056865898320103 417.0 26.0 306.0 
474.00035410247256 52157.0 46481.0 835.3045467543723 0.5074313050638183 417.0 26.0 305.0 
476.0001983480089 52093.0 46477.0 835.2507863883437 0.5052343470620416 417.0 26.0 305.0 
478.00035410247256 52086.0 46477.0 836.6028024020454 0.504764065816812 417.0 25.0 307.0 
480.00035410247256 52106.0 46478.0 832.6474120674709 0.5059825787265768 418.0 24.0 305.0 
482.00035410247256 52069.0 46476.0 828.7343437231945 0.5048177219726036 420.0 23.0 303.0 
484.00035410247256 52081.0 46480.0 828.697740920786 0.5072614263636649 419.0 24.0 302.0 
486.0001983480089 52041.0 46478.0 827.4429511009289 0.5052273557909117 415.0 25.0 300.0 
488.00035410247256 52046.0 46479.0 828.692021732911 0.5060752743406659 416.0 22.0 304.0 
490.00035410247256 52058.0 46480.0 828.754932799557 0.5060692408308662 416.0 23.0 303.0 
492.00035410247256 52056.0 46482.0 831.3228481555767 0.5059683187039019 416.0 22.0 306.0 
494.00035410247256 52071.0 46483.0 832.6531312553452 0.5081689140096266 419.0 21.0 308.0 
496.0001983480089 52069.0 46477.0 831.314841292533 0.5054178472804101 418.0 22.0 306.0 
498.00035410247256 52091.0 46477.0 831.3068344295174 0.5049527205143762 419.0 22.0 306.0 
500.00035410247256 52112.0 46480.0 831.2690877895216 0.5059651399589002 421.0 23.0 305.0 
502.00035410247256 52091.0 46478.0 828.6531312553453 0.5047006959299372 419.0 24.0 302.0 
504.00035410247256 52130.0 46480.0 827.3583071203876 0.5055382614921746 419.0 24.0 301.0 
506.0001983480089 52111.0 46475.0 829.967400629119 0.5034465643804362 421.0 21.0 306.0 
508.00035410247256 52150.0 46479.0 831.2770946525646 0.505853402863074 424.0 22.0 306.0 
510.00035410247256 52156.0 46478.0 832.630254503879 0.5060256315565674 427.0 21.0 308.0 
512.0003541024726 52172.0 46480.0 828.6394052044702 0.5057000620311284 426.0 22.0 304.0 
514.0003541024726 52166.0 46479.0 823.3949099227709 0.5060012795774693 423.0 24.0 298.0 
516.0001983480089 52138.0 46477.0 820.7709465255775 0.5051958561835412 412.0 23.0 297.0 
518.0003541024726 52163.0 46479.0 820.7503574492314 0.5058097108690925 411.0 21.0 299.0 
520.0003541024726 52155.0 46482.0 819.4623963397034 0.507971281498479 404.0 25.0 294.0 
522.0003541024726 52104.0 46479.0 814.2133257077608 0.50646206620022 402.0 25.0 290.0 
524.0003541024726 52114.0 46476.0 807.6145267371935 0.5050386553750891 398.0 23.0 287.0 
526.0001983480089 52094.0 46478.0 807.6476980268833 0.5067272990993514 392.0 25.0 285.0 
528.0003541024726 52111.0 46480.0 807.6213897626624 0.5059113579081502 394.0 23.0 287.0 
530.0003541024726 52127.0 46477.0 811.5824992850934 0.5054595735145615 397.0 20.0 293.0 
532.0003541024726 52101.0 46475.0 811.5893623105395 0.5047262864064898 397.0 21.0 292.0 
534.0003541024726 52110.0 46477.0 810.2773806119362 0.5052994406302429 394.0 21.0 291.0 
536.0001983480089 52116.0 46474.0 810.2728052616479 0.505368094629414 395.0 20.0 292.0 
538.0003541024726 52180.0 46478.0 810.2773806119362 0.5053732750312777 397.0 21.0 291.0 
540.0003541024726 52176.0 46479.0 808.983700314566 0.5076729111722988 399.0 21.0 290.0 
542.0003541024726 52143.0 46475.0 807.6843008292672 0.5045376201904636 402.0 20.0 290.0 
544.0003541024726 52155.0 46475.0 808.9676865884918 0.5046468386751983 402.0 21.0 290.0 
546.0001983480089 52171.0 46477.0 809.0271661424191 0.5050732554437983 402.0 21.0 290.0 
548.0003541024726 52160.0 46477.0 810.2865313125645 0.5047533807192754 403.0 20.0 292.0 
550.0003541024726 52205.0 46479.0 810.3311409779689 0.5055515835414071 401.0 21.0 291.0 
552.0003541024726 52232.0 46478.0 815.5550471833022 0.5056181275094804 407.0 21.0 295.0 
554.0003541024726 52225.0 46475.0 811.682013154121 0.5052286721516501 407.0 20.0 293.0 
556.0001983480089 52224.0 46476.0 814.233914784083 0.5051969141509476 406.0 22.0 293.0 
558.0003541024726 52196.0 46475.0 814.3002573634436 0.505243814547651 407.0 20.0 295.0 
560.0003541024726 52233.0 46480.0 814.2018873319863 0.5074419998268692 407.0 19.0 296.0 
562.0003541024726 52192.0 46476.0 815.5664855590361 0.5060636063984361 405.0 20.0 296.0 
564.0003541024726 52265.0 46482.0 815.5470403202845 0.5089080741658356 407.0 20.0 296.0 
566.0001983480089 52187.0 46476.0 815.5893623105392 0.5069574286136982 408.0 19.0 297.0 
568.0003541024726 52184.0 46477.0 816.8384329425267 0.5061878172295345 407.0 20.0 297.0 
570.0003541024726 52206.0 46481.0 816.9493851872879 0.5077549646635235 408.0 20.0 297.0 
572.0003541024726 52212.0 46479.0 818.1847297683544 0.5064798465759658 408.0 19.0 299.0 
574.0003541024726 52252.0 46485.0 818.2602230483438 0.5111961137770442 404.0 20.0 298.0 
576.0001983480089 52159.0 46476.0 818.2007434944161 0.5049703151157114 404.0 20.0 298.0 
578.0003541024726 52156.0 46475.0 818.19845581927 0.5051235591829648 406.0 19.0 299.0 
580.0003541024726 52174.0 46477.0 815.5767800972351 0.5054933673814753 406.0 20.0 296.0 
582.0003541024726 52181.0 46477.0 816.9287961109621 0.506070934242373 405.0 20.0 297.0 
584.0003541024726 52237.0 46480.0 819.5504718330141 0.5080325298713851 403.0 20.0 299.0 
586.0001983480089 52187.0 46478.0 818.2785244495233 0.5069469606121924 401.0 20.0 298.0 
588.0003541024726 52158.0 46479.0 816.9368029739838 0.5058593836464049 400.0 20.0 297.0 
590.0003541024726 52170.0 46479.0 818.2464969974282 0.5061353327763307 408.0 19.0 299.0 
592.0003541024726 52149.0 46475.0 822.1515584786873 0.5039294591090486 405.0 20.0 301.0 
594.0003541024726 52205.0 46484.0 823.5344581069394 0.5087830537114123 405.0 20.0 302.0 
596.0001983480089 52180.0 46484.0 824.8086931655891 0.507549115435454 406.0 19.0 304.0 
598.0003541024726 52124.0 46477.0 824.8269945667514 0.5054556973398768 405.0 20.0 303.0 
600.0003541024726 52133.0 46477.0 826.1607091793165 0.5055281720136998 407.0 20.0 304.0 
602.0003541024726 52156.0 46477.0 824.7972547898138 0.506329006426036 404.0 19.0 304.0 
604.0003541024726 52181.0 46481.0 824.8338575922384 0.5081563383347794 401.0 20.0 303.0 
606.0001983480089 52196.0 46478.0 826.1927366314115 0.5060366791303648 401.0 20.0 304.0 
608.0003541024726 52173.0 46475.0 826.1572776665582 0.5044046124172322 403.0 20.0 304.0 
610.0003541024726 52172.0 46477.0 828.7869602516521 0.5057686897602064 399.0 23.0 303.0 
612.0003541024726 52157.0 46475.0 830.1183871890335 0.5054795122143295 399.0 23.0 304.0 
614.0003541024726 52283.0 46490.0 836.7046039462579 0.5097643585371893 406.0 21.0 311.0 
616.0001983480089 52273.0 46480.0 836.7229053474349 0.506230905111641 408.0 21.0 311.0 
618.0003541024726 52271.0 46476.0 835.3674578209788 0.5050851348809257 407.0 22.0 309.0 
620.0003541024726 52296.0 46481.0 836.6874463826243 0.5061712648857281 410.0 19.0 313.0 
622.0003541024726 52283.0 46476.0 836.6279668286944 0.5044116081721697 409.0 20.0 312.0 
624.0003541024726 52367.0 46485.0 837.9582499285011 0.5086660597940409 408.0 20.0 313.0 
626.0001983480089 52290.0 46479.0 836.6554189305289 0.506450287960321 406.0 20.0 312.0 
628.0003541024726 52330.0 46483.0 836.7023162710739 0.5076982231840372 405.0 21.0 311.0 
630.0003541024726 52329.0 46477.0 837.9914212181983 0.506035028100253 407.0 20.0 313.0 
632.0003541024726 52325.0 46481.0 837.9536745781983 0.5081267366075946 409.0 19.0 314.0 
634.0003541024726 52284.0 46481.0 839.3125536173757 0.5081453106342453 409.0 20.0 314.0 
636.0001983480089 52232.0 46481.0 839.2828138404394 0.5075962913877976 409.0 20.0 314.0 
638.0003541024726 52233.0 46476.0 839.28510151558 0.505963803234998 410.0 19.0 315.0 
640.0003541024726 52237.0 46479.0 835.3628824706758 0.5076201703157137 407.0 21.0 310.0 
642.0003541024726 52164.0 46477.0 836.6634257935452 0.5050763502715241 406.0 21.0 311.0 
644.0003541024726 52193.0 46479.0 838.026880183006 0.507769500933317 411.0 20.0 313.0 
646.0001983480089 52126.0 46475.0 835.3457249070846 0.5045643067569988 410.0 20.0 311.0 
648.0003541024726 52151.0 46480.0 835.3400057191832 0.5061784513321446 411.0 20.0 311.0 
650.0003541024726 52185.0 46482.0 834.0554761223719 0.5096824770487267 412.0 19.0 311.0 
652.0003541024726 52127.0 46477.0 831.4120674864045 0.5058081415883618 407.0 20.0 308.0 
654.0003541024726 52179.0 46485.0 831.4097798112584 0.5097062080878073 405.0 20.0 308.0 
656.0001983480089 52109.0 46478.0 832.682871032324 0.5063771833944848 399.0 19.0 310.0 
658.0003541024726 52091.0 46477.0 832.6782956819951 0.5057623602080161 396.0 20.0 309.0 
660.0003541024726 52112.0 46476.0 832.638261366896 0.5051788573143117 398.0 20.0 309.0 
662.0003541024726 52128.0 46479.0 832.6542750929157 0.5071930486344339 399.0 19.0 310.0 
664.0003541024726 52130.0 46481.0 833.967400629119 0.5066649280523359 399.0 20.0 310.0 
#####################################################################
# End of data export. Simulation finished at: 2019-03-07T00:34+0000 #
#####################################################################
