#####################################################################
# Alchemist log file - simulation started at: 2019-03-05T13:19+0000 #
#####################################################################
# seed = 8.0, bandwidth = 74989.42093324558, accessPointCount = 2000.0, baserange = 177.82794100389228
#
# The columns have the following meaning: 
# time neighbor_count[Sum] <value>@neighbor_count[Sum] packet_size[Mean] mean_delay[Mean] crowd[Sum] overcrowded[Sum] risk[Sum] 
0.0 NaN NaN NaN NaN NaN NaN NaN 
2.000354102472554 6173.0 5123.0 4976.374034887047 0.46299749239525123 1497.0 0.0 1497.0 
4.000004673335046 8660.0 6196.0 4979.926794395195 0.576404854955452 1497.0 0.0 1497.0 
6.000198348008885 9707.0 6302.0 4980.818987703747 0.6463393405143054 1497.0 0.0 1497.0 
8.000004673335047 10596.0 6350.0 4981.764941378324 0.6622581993793519 1497.0 0.0 1497.0 
10.000354102472555 11728.0 6372.0 4981.449242207606 0.6962060402910739 1496.0 1.0 1496.0 
12.000004673335047 11961.0 6308.0 4982.453531598513 0.6974875202342534 1493.0 4.0 1493.0 
14.000354102472555 11440.0 6182.0 4981.76837289105 0.6242508512533571 1492.0 5.0 1492.0 
16.000198348008887 11093.0 6112.0 4982.323134114956 0.5399584940430489 1487.0 10.0 1487.0 
18.000354102472556 11092.0 6111.0 4981.60366028024 0.5387515143867998 1486.0 11.0 1486.0 
20.000354102472556 11092.0 6111.0 4982.2293394338 0.5386944558673971 1485.0 12.0 1485.0 
22.000354102472556 11098.0 6112.0 4981.553331426938 0.5375060925054899 1485.0 12.0 1485.0 
24.000354102472556 11134.0 6114.0 4981.942236202459 0.5416423875867615 1486.0 11.0 1486.0 
26.000198348008887 11137.0 6115.0 4981.189591078068 0.5441296289118946 1488.0 9.0 1488.0 
28.000354102472556 11126.0 6113.0 4981.910208750358 0.5402170885317078 1488.0 9.0 1488.0 
30.000354102472556 11122.0 6112.0 4981.253645982271 0.5376216432081865 1487.0 10.0 1487.0 
32.000354102472556 11131.0 6112.0 4981.6139548184165 0.538404199949581 1486.0 11.0 1486.0 
34.000354102472556 11160.0 6115.0 4981.4389476694305 0.5407830005216323 1487.0 10.0 1487.0 
36.00019834800889 11160.0 6116.0 4981.69402344867 0.5455794138365683 1490.0 7.0 1490.0 
38.000354102472556 11130.0 6114.0 4980.944809837003 0.5411792168836619 1491.0 6.0 1491.0 
40.000354102472556 11128.0 6113.0 4982.018873319988 0.5432742216167276 1489.0 8.0 1489.0 
42.000354102472556 11138.0 6112.0 4981.0260223048335 0.537800578349223 1487.0 10.0 1487.0 
44.000354102472556 11161.0 6113.0 4981.572776665713 0.5421892912381845 1486.0 11.0 1486.0 
46.00019834800889 11192.0 6115.0 4981.130111524163 0.5421228176421375 1485.0 12.0 1485.0 
48.000354102472556 11156.0 6113.0 4981.702030311696 0.5415424914540229 1484.0 13.0 1484.0 
50.000354102472556 11157.0 6113.0 4981.002001715756 0.5398854313734626 1481.0 16.0 1481.0 
52.000354102472556 11184.0 6115.0 4981.750071489849 0.5428394147158946 1483.0 14.0 1483.0 
54.000354102472556 11192.0 6119.0 4981.027166142408 0.5450993701791462 1484.0 13.0 1484.0 
56.00019834800889 11184.0 6119.0 4981.541893051186 0.5461835263310368 1486.0 11.0 1486.0 
58.000354102472556 11171.0 6119.0 4981.109522447812 0.5467126140004789 1488.0 9.0 1488.0 
60.000354102472556 11154.0 6116.0 4980.448384329426 0.5483028815237403 1486.0 11.0 1486.0 
62.000032625063085 11171.0 6115.0 835.7540749213571 0.5212265868051037 793.0 16.0 315.0 
64.00003262506308 11205.0 6115.0 836.8590220188883 0.5361446346045188 583.0 21.0 311.0 
66.0000326250631 11169.0 6114.0 838.174435230192 0.5352517406044345 512.0 23.0 310.0 
68.0000326250631 11164.0 6114.0 838.1389762653839 0.5325603045339999 482.0 15.0 318.0 
70.0000326250631 11179.0 6116.0 834.1172433514478 0.536571648287493 460.0 17.0 313.0 
72.0000326250631 11152.0 6113.0 834.1206748641795 0.5313942900586943 443.0 20.0 310.0 
74.0000326250631 11159.0 6111.0 827.5641978838895 0.5304819188705572 439.0 18.0 307.0 
76.0000326250631 11159.0 6113.0 828.7949671146563 0.5331743785999922 426.0 19.0 307.0 
78.0000326250631 11156.0 6116.0 828.8292822419351 0.5315664392954749 416.0 21.0 305.0 
80.0000326250631 11147.0 6115.0 828.8109808407313 0.531749152180563 410.0 23.0 303.0 
82.0000326250631 11158.0 6114.0 828.8006863025303 0.5324072495054698 406.0 23.0 303.0 
84.0000326250631 11172.0 6115.0 828.8235630540348 0.5281169808736536 407.0 22.0 304.0 
86.0000326250631 11206.0 6116.0 830.1092364884042 0.5315543595945932 405.0 22.0 305.0 
88.0000326250631 11204.0 6116.0 830.1332570774832 0.535958278456523 402.0 23.0 304.0 
90.0000326250631 11153.0 6114.0 830.1126680011596 0.5314141093054701 399.0 24.0 303.0 
92.0000326250631 11176.0 6117.0 830.137832427809 0.536807018479981 399.0 24.0 303.0 
94.0000326250631 11199.0 6115.0 834.1149556763045 0.534819390709335 407.0 19.0 311.0 
96.0000326250631 11179.0 6113.0 835.3971975979547 0.534124328780136 411.0 17.0 314.0 
98.0000326250631 11178.0 6113.0 838.0463254218016 0.5332127905892595 409.0 19.0 314.0 
100.0000326250631 11213.0 6116.0 839.320560480392 0.5397779252379814 411.0 19.0 315.0 
102.0000326250631 11172.0 6116.0 837.9868458678685 0.5395214864496717 415.0 17.0 316.0 
104.0000326250631 11099.0 6112.0 839.3342865313086 0.5328958703013424 415.0 16.0 318.0 
106.0000326250631 11076.0 6109.0 839.3091221046591 0.5280396973988369 413.0 16.0 318.0 
108.0000326250631 11095.0 6110.0 837.9982842436433 0.5294252823710555 411.0 16.0 317.0 
110.0000326250631 11088.0 6113.0 838.0085787818018 0.5314477598581349 407.0 17.0 316.0 
112.0000326250631 11093.0 6114.0 837.973119816994 0.5336445212032024 406.0 17.0 316.0 
114.0000326250631 11099.0 6114.0 839.3056905919469 0.5343828620789045 407.0 16.0 318.0 
116.0000326250631 11121.0 6114.0 837.9914212181981 0.534766314813609 406.0 16.0 317.0 
118.0000326250631 11123.0 6114.0 838.0040034315016 0.5345489406832046 406.0 16.0 317.0 
120.0000326250631 11099.0 6110.0 838.0188733200059 0.5303203670369402 406.0 17.0 316.0 
122.0000326250631 11097.0 6112.0 835.361738633104 0.5314401119289378 406.0 17.0 314.0 
124.0000326250631 11118.0 6113.0 835.3743208464502 0.5337881745213473 406.0 16.0 315.0 
126.0000326250631 11132.0 6118.0 832.7103231341318 0.5376947979234262 405.0 17.0 312.0 
128.00003262506308 11116.0 6116.0 831.4292250500536 0.5358860454293676 405.0 17.0 311.0 
130.00003262506308 11090.0 6111.0 832.738919073498 0.532325775515415 401.0 18.0 311.0 
132.00003262506308 11123.0 6113.0 832.7663711752892 0.5385350354096894 399.0 18.0 311.0 
134.00003262506308 11108.0 6114.0 830.1069488132591 0.5348833091098739 398.0 16.0 311.0 
136.00003262506308 11063.0 6111.0 830.0852158993262 0.5315332158650844 396.0 17.0 310.0 
138.00003262506308 11102.0 6112.0 830.1275378896083 0.5300372370135177 399.0 16.0 311.0 
140.00003262506308 11154.0 6113.0 831.428081212479 0.5348321745329188 398.0 17.0 311.0 
142.00003262506308 11141.0 6113.0 834.0428939090687 0.5382550368653173 396.0 18.0 312.0 
144.00003262506308 11133.0 6113.0 835.4006291106713 0.5355522859243852 396.0 19.0 312.0 
146.00003262506308 11141.0 6115.0 835.3491564198006 0.5360917341637793 398.0 18.0 313.0 
148.00003262506308 11129.0 6112.0 836.6817271947497 0.5339209806639444 399.0 18.0 314.0 
150.00003262506308 11144.0 6112.0 836.6817271947497 0.5333176541337039 400.0 20.0 312.0 
152.00003262506308 11146.0 6113.0 836.6760080068531 0.5348141805299976 402.0 19.0 313.0 
154.00003262506308 11148.0 6117.0 835.3869030597536 0.5356996701995673 405.0 18.0 313.0 
156.00003262506308 11134.0 6115.0 835.3697454961211 0.5376276609822657 405.0 19.0 312.0 
158.00003262506308 11128.0 6114.0 835.3960537603832 0.5374452657124336 405.0 18.0 313.0 
160.00003262506308 11134.0 6113.0 835.3571632828173 0.5326528754423664 404.0 19.0 312.0 
162.00003262506308 11162.0 6116.0 835.3708893337335 0.5366914610370687 405.0 20.0 311.0 
164.00003262506308 11157.0 6115.0 834.0348870460263 0.5350498441443439 409.0 17.0 313.0 
166.00003262506308 11155.0 6115.0 834.0509007720841 0.5366491736140564 408.0 16.0 314.0 
168.00003262506308 11142.0 6113.0 834.0520446096557 0.535458971186297 410.0 16.0 314.0 
170.00003262506308 11177.0 6116.0 835.3342865313087 0.5357046908275037 407.0 17.0 314.0 
172.00003262506308 11208.0 6121.0 835.3503002573719 0.539860166723542 408.0 17.0 314.0 
174.00003262506308 11179.0 6120.0 835.356019445246 0.5407162973944231 411.0 16.0 315.0 
176.00003262506308 11106.0 6116.0 835.3571632828173 0.5331378253296785 411.0 16.0 315.0 
178.00003262506308 11088.0 6115.0 835.3468687446547 0.528555141904386 410.0 16.0 315.0 
180.00003262506308 11085.0 6114.0 835.3857592221791 0.5308354705351643 407.0 17.0 314.0 
182.00003262506308 11063.0 6114.0 835.364026308246 0.5292167827432662 409.0 17.0 314.0 
184.00003262506308 11061.0 6114.0 835.3331426937384 0.52986422987197 408.0 17.0 314.0 
186.00003262506308 11050.0 6113.0 835.3811838718965 0.5265636248139887 408.0 17.0 314.0 
188.00003262506308 11043.0 6113.0 835.3262796682927 0.527046802183607 409.0 16.0 315.0 
190.00003262506308 11028.0 6112.0 834.0154418072727 0.5249407360270719 407.0 18.0 312.0 
192.00003262506308 11037.0 6114.0 834.0806405490382 0.5294704462600653 409.0 18.0 312.0 
194.00003262506308 11036.0 6115.0 834.0440377466557 0.5330325482754595 411.0 16.0 314.0 
196.00003262506308 11030.0 6113.0 832.6748641692789 0.529170346295714 412.0 17.0 312.0 
198.00003262506308 11063.0 6115.0 834.0371747212097 0.5303851846753024 411.0 18.0 312.0 
200.00003262506308 11072.0 6117.0 835.2942522161719 0.5320788260307802 412.0 19.0 312.0 
202.00003262506308 11066.0 6118.0 835.33543036888 0.5344455755881523 413.0 20.0 311.0 
204.00003262506308 11045.0 6117.0 835.3297111810219 0.5324307415012167 407.0 26.0 305.0 
206.00003262506308 11030.0 6115.0 835.3411495567553 0.5330589457312817 408.0 25.0 306.0 
208.00003262506308 11018.0 6113.0 834.0131541321307 0.5272969434513517 413.0 18.0 312.0 
210.00003262506308 11024.0 6114.0 832.6943094080531 0.5288156095312387 411.0 19.0 310.0 
212.00003262506308 11009.0 6112.0 831.4052044609746 0.5270722092385021 411.0 20.0 308.0 
214.00003262506308 11014.0 6112.0 831.3605947955296 0.5287098192339863 404.0 23.0 305.0 
216.00003262506308 11010.0 6112.0 831.3628824706757 0.5322479740540362 399.0 27.0 301.0 
218.00003262506308 11005.0 6110.0 832.7068916214024 0.5283354193812368 397.0 28.0 301.0 
220.00003262506308 11050.0 6114.0 833.9674006291186 0.531173682250759 397.0 28.0 302.0 
222.00003262506308 11083.0 6119.0 836.6622819559749 0.5354449435465343 400.0 28.0 304.0 
224.00003262506308 11053.0 6117.0 836.6485559050576 0.5364752790321057 400.0 28.0 304.0 
226.00003262506308 11023.0 6114.0 835.3056905919469 0.5324663460170009 401.0 28.0 303.0 
228.00003262506308 11018.0 6113.0 835.3468687446547 0.5311617186211118 401.0 27.0 304.0 
230.00003262506308 11005.0 6115.0 839.3091221046591 0.5321142066050325 403.0 29.0 305.0 
232.00003262506308 11001.0 6116.0 840.5845010008672 0.5336815926168158 405.0 28.0 307.0 
234.00003262506308 10990.0 6115.0 836.6634257935453 0.5336451840812859 405.0 26.0 306.0 
236.00003262506308 11002.0 6115.0 834.0394623963521 0.5321380081153191 406.0 25.0 305.0 
238.00003262506308 11006.0 6112.0 834.0554761223719 0.5309267390414254 407.0 23.0 307.0 
240.00003262506308 10991.0 6113.0 834.0497569345135 0.5325843593905304 409.0 21.0 309.0 
242.00003262506308 10981.0 6115.0 834.0211609951479 0.5345007331813013 409.0 20.0 310.0 
244.00003262506308 10957.0 6113.0 830.0303116957227 0.5262114702832129 410.0 20.0 307.0 
246.00003262506308 10971.0 6114.0 830.0829282241803 0.5286645472288574 408.0 22.0 305.0 
248.00003262506308 10983.0 6117.0 831.3560194452459 0.5312542131822499 409.0 19.0 309.0 
250.00003262506308 10963.0 6116.0 831.3754646840213 0.5303640243242871 407.0 20.0 308.0 
252.00003262506308 10983.0 6120.0 834.0348870460261 0.5308334147717879 408.0 20.0 310.0 
254.00003262506308 11035.0 6120.0 834.0131541321311 0.5384443573864722 408.0 19.0 311.0 
256.0000326250631 11013.0 6119.0 834.0062911066601 0.5364454498431591 410.0 19.0 311.0 
258.0000326250631 10984.0 6118.0 834.0303116957226 0.5350246419559151 407.0 19.0 311.0 
260.0000326250631 10936.0 6115.0 834.0005719187851 0.5303075950768064 404.0 20.0 310.0 
262.0000326250631 10929.0 6115.0 832.7034601086445 0.5321958246148762 404.0 21.0 308.0 
264.0000326250631 10924.0 6117.0 832.697740920786 0.5335743682798426 403.0 22.0 307.0 
266.0000326250631 10890.0 6114.0 834.0303116957226 0.5293068192747179 402.0 22.0 308.0 
268.0000326250631 10900.0 6115.0 832.6702888189781 0.5245046214092958 403.0 21.0 308.0 
270.0000326250631 10933.0 6118.0 834.032599370881 0.528456334500806 405.0 21.0 309.0 
272.0000326250631 10913.0 6116.0 832.6943094080531 0.5298629238406571 403.0 21.0 308.0 
274.0000326250631 10902.0 6115.0 833.9502430654865 0.529015284313778 403.0 20.0 310.0 
276.0000326250631 10915.0 6117.0 835.341149556755 0.5282189272355651 401.0 20.0 311.0 
278.0000326250631 10949.0 6120.0 834.0165856448476 0.5302438428261721 402.0 20.0 310.0 
280.0000326250631 10941.0 6119.0 835.3114097798011 0.5343004784656505 401.0 21.0 310.0 
282.0000326250631 10906.0 6120.0 837.949099227916 0.5321278122493871 401.0 22.0 311.0 
284.0000326250631 10870.0 6119.0 836.6039462396166 0.5274754317266411 399.0 23.0 309.0 
286.0000326250631 10880.0 6119.0 835.3114097798011 0.5308828161583337 397.0 23.0 308.0 
288.0000326250631 10873.0 6118.0 833.9719759794194 0.5295902523295215 397.0 23.0 307.0 
290.0000326250631 10903.0 6121.0 833.978839004852 0.5290228974196797 399.0 24.0 306.0 
292.0000326250631 10876.0 6118.0 835.3102659422307 0.5294335260159989 399.0 24.0 307.0 
294.0000326250631 10869.0 6121.0 833.9822705175809 0.5271235112636006 399.0 23.0 307.0 
296.0000326250631 10877.0 6120.0 835.2702316270933 0.5293375050242103 398.0 23.0 308.0 
298.0000326250631 10870.0 6119.0 836.5845010008672 0.526915549636139 394.0 23.0 309.0 
300.0000326250631 10867.0 6118.0 834.0074349442305 0.5280272521467912 394.0 24.0 306.0 
302.0000326250631 10881.0 6121.0 833.9479553903442 0.5286737367503636 396.0 24.0 306.0 
304.0000326250631 10923.0 6126.0 831.3274235058799 0.5356046836518727 398.0 23.0 305.0 
306.0000326250631 10891.0 6124.0 832.6474120674708 0.5376247242061285 400.0 23.0 306.0 
308.0000326250631 10852.0 6120.0 832.6336860165956 0.5289071761140355 400.0 22.0 307.0 
310.0000326250631 10870.0 6123.0 832.6394052044702 0.5324546972123355 400.0 23.0 306.0 
312.0000326250631 10860.0 6121.0 832.6245353159785 0.5355862407542079 400.0 23.0 306.0 
314.0000326250631 10825.0 6121.0 832.658850443245 0.5326257615832126 397.0 22.0 307.0 
316.0000326250631 10816.0 6118.0 829.9948527309269 0.5304810042242406 396.0 22.0 305.0 
318.0000326250631 10844.0 6119.0 826.1149556763041 0.5303886164083393 393.0 22.0 302.0 
320.0000326250631 10856.0 6119.0 823.5161567057354 0.533010439914853 388.0 23.0 299.0 
322.0000326250631 10849.0 6119.0 822.1710037174785 0.5291064719016847 387.0 23.0 298.0 
324.0000326250631 10877.0 6120.0 822.182442093212 0.5312020746093653 388.0 22.0 299.0 
326.0000326250631 10888.0 6122.0 820.8647412067462 0.5329658498922528 385.0 23.0 297.0 
328.0000326250631 10898.0 6121.0 822.1298255647671 0.5380748682467997 386.0 23.0 298.0 
330.0000326250631 10929.0 6121.0 824.8144123534476 0.5380820941509027 384.0 25.0 298.0 
332.0000326250631 10927.0 6118.0 824.8384329425267 0.534464234897119 382.0 26.0 297.0 
334.0000326250631 10911.0 6116.0 826.0806405490382 0.533077568247482 383.0 27.0 297.0 
336.0000326250631 10875.0 6114.0 827.4635401772902 0.5297406181054346 384.0 25.0 300.0 
338.0000326250631 10852.0 6113.0 824.8075493280019 0.5264914854849931 391.0 19.0 304.0 
340.0000326250631 10846.0 6114.0 822.1412639405256 0.5273388258073619 388.0 20.0 301.0 
342.0000326250631 10847.0 6116.0 823.5413211323852 0.5297067790064731 389.0 20.0 302.0 
344.0000326250631 10871.0 6117.0 823.478410065782 0.5305247313588605 391.0 19.0 303.0 
346.0000326250631 10855.0 6115.0 823.4944237918397 0.5320150769652777 391.0 19.0 303.0 
348.0000326250631 10836.0 6113.0 823.5138690305896 0.5303667949848287 390.0 19.0 303.0 
350.0000326250631 10792.0 6112.0 823.4669716900072 0.5288996817886459 389.0 20.0 302.0 
352.0000326250631 10783.0 6111.0 823.4715470403324 0.5275645252401039 390.0 20.0 302.0 
354.0000326250631 10800.0 6116.0 823.4601086645613 0.5301120566424284 392.0 19.0 303.0 
356.0000326250631 10796.0 6116.0 823.4543894767029 0.5385624405904206 392.0 19.0 303.0 
358.0000326250631 10754.0 6112.0 823.4486702888278 0.5250177765590394 392.0 19.0 303.0 
360.0000326250631 10790.0 6115.0 823.4612525021319 0.5241373662493848 393.0 20.0 302.0 
362.0000326250631 10835.0 6117.0 823.4715470403324 0.5312227672167709 396.0 20.0 302.0 
364.0000326250631 10828.0 6116.0 819.5035744924315 0.5353683679963158 397.0 19.0 300.0 
366.0000326250631 10852.0 6117.0 820.8109808407312 0.5371022422337772 399.0 19.0 301.0 
368.0000326250631 10803.0 6111.0 815.5424649699572 0.5274186785409548 397.0 19.0 297.0 
370.0000326250631 10806.0 6112.0 814.2545038604444 0.5265349850173889 395.0 20.0 295.0 
372.0000326250631 10813.0 6115.0 815.559622533589 0.531246144844429 397.0 20.0 296.0 
374.0000326250631 10818.0 6118.0 815.5584786960144 0.534623578755861 400.0 19.0 297.0 
376.0000326250631 10793.0 6114.0 815.540177294815 0.5288968067606031 400.0 19.0 297.0 
378.0000326250631 10817.0 6114.0 818.1824420932122 0.5240290009885544 399.0 19.0 299.0 
380.0000326250631 10831.0 6119.0 818.193880468983 0.5284927401825888 398.0 20.0 298.0 
382.0000326250631 10832.0 6119.0 818.1664283671748 0.5323589786214495 398.0 20.0 298.0 
384.0000326250631 10849.0 6119.0 823.49442379184 0.5311459016749951 397.0 20.0 302.0 
386.0000326250631 10838.0 6121.0 823.4452387761116 0.5346372962848109 397.0 20.0 302.0 
388.0000326250631 10854.0 6123.0 822.1263940520337 0.5316878324171285 396.0 20.0 301.0 
390.0000326250631 10859.0 6123.0 823.498999142128 0.5355008484848592 394.0 21.0 301.0 
392.0000326250631 10798.0 6116.0 823.4726908779071 0.5324888181779928 394.0 21.0 301.0 
394.0000326250631 10785.0 6114.0 822.1629968544586 0.5309094998151052 399.0 19.0 302.0 
396.0000326250631 10767.0 6114.0 820.8247068916094 0.5257735102629363 398.0 19.0 301.0 
398.0000326250631 10823.0 6117.0 819.4841292536363 0.5267109143253389 402.0 19.0 300.0 
400.0000326250631 10857.0 6120.0 819.5470403202847 0.5336156002049282 399.0 20.0 299.0 
402.0000326250631 10829.0 6116.0 822.1870174435376 0.5282971617095444 402.0 20.0 301.0 
404.0000326250631 10838.0 6115.0 822.1218187017499 0.5297859588539013 404.0 19.0 302.0 
406.0000326250631 10855.0 6115.0 823.4612525021317 0.5322439356655772 405.0 19.0 303.0 
408.0000326250631 10851.0 6116.0 823.4875607663528 0.5278878804016744 404.0 19.0 303.0 
410.0000326250631 10888.0 6119.0 822.2018873319864 0.5337065961316905 401.0 20.0 301.0 
412.0000326250631 10903.0 6118.0 823.4955676294117 0.5354315308028144 400.0 20.0 302.0 
414.0000326250631 10885.0 6114.0 823.4989991421281 0.5302535680593328 402.0 19.0 303.0 
416.0000326250631 10895.0 6119.0 822.2041750071447 0.5373971101085044 402.0 19.0 302.0 
418.0000326250631 10908.0 6119.0 819.574492422093 0.5435560210358295 400.0 20.0 299.0 
420.0000326250631 10909.0 6116.0 818.3219902773765 0.5377462751318925 397.0 21.0 297.0 
422.0000326250631 10840.0 6112.0 818.224764083491 0.5301402584893135 396.0 22.0 296.0 
424.0000326250631 10830.0 6109.0 818.238490134411 0.528051751536152 400.0 19.0 299.0 
426.0000326250631 10816.0 6111.0 818.2442093222861 0.5260214381834187 399.0 19.0 299.0 
428.0000326250631 10785.0 6111.0 818.2144695453319 0.5255919699436055 400.0 19.0 299.0 
430.0000326250631 10796.0 6111.0 818.2259079210653 0.5274642169694825 397.0 20.0 298.0 
432.0000326250631 10812.0 6112.0 818.2956820131568 0.5323801075115048 397.0 20.0 298.0 
434.0000326250631 10797.0 6111.0 822.1389762653833 0.526105513410331 403.0 19.0 302.0 
436.0000326250631 10799.0 6112.0 823.4452387761116 0.5290969437114322 405.0 19.0 303.0 
438.0000326250631 10785.0 6110.0 822.1812982556372 0.5313136607917331 404.0 19.0 302.0 
440.0000326250631 10782.0 6110.0 822.1664283671751 0.5303247801293672 401.0 21.0 300.0 
442.0000326250631 10820.0 6112.0 827.4818415784941 0.5316506590092843 399.0 22.0 303.0 
444.0000326250631 10826.0 6111.0 827.5264512439361 0.53402384335578 403.0 21.0 304.0 
446.0000326250631 10838.0 6112.0 828.8361452673805 0.5304363668558486 404.0 21.0 305.0 
448.0000326250631 10813.0 6111.0 827.5012868172855 0.5270884010700492 404.0 21.0 304.0 
450.0000326250631 10837.0 6112.0 828.8544466685846 0.5312246249199893 406.0 23.0 303.0 
452.0000326250631 10823.0 6112.0 828.7778095510646 0.5296868291879683 405.0 23.0 303.0 
454.0000326250631 10829.0 6114.0 830.1092364884043 0.532641187377729 408.0 23.0 304.0 
456.0000326250631 10857.0 6113.0 828.7297683729062 0.5334749951960148 407.0 25.0 301.0 
458.0000326250631 10863.0 6113.0 830.0932227623839 0.5276565170018187 408.0 24.0 303.0 
460.0000326250631 10868.0 6114.0 830.0989419502423 0.5298042083239771 407.0 25.0 302.0 
462.0000326250631 10849.0 6115.0 827.4463826136828 0.5328935219083557 409.0 24.0 301.0 
464.0000326250631 10838.0 6114.0 828.712610809274 0.5357202695820151 411.0 24.0 302.0 
466.0000326250631 10807.0 6112.0 830.0634829854309 0.5360355069801227 411.0 25.0 302.0 
468.0000326250631 10816.0 6111.0 830.0062911066602 0.5331436687713426 408.0 26.0 301.0 
470.0000326250631 10814.0 6108.0 826.0554761223722 0.5305967576951538 403.0 28.0 296.0 
472.0000326250631 10779.0 6107.0 827.3983414355288 0.5207889422019967 402.0 30.0 295.0 
474.0000326250631 10808.0 6113.0 827.3903345724827 0.5275001198676207 403.0 29.0 296.0 
476.0000326250631 10792.0 6110.0 827.3960537603829 0.5318103075930632 407.0 25.0 300.0 
478.0000326250631 10738.0 6108.0 828.7263368601524 0.5247547510785205 408.0 24.0 302.0 
480.0000326250631 10743.0 6108.0 828.730912210478 0.5240660547750452 405.0 26.0 300.0 
482.0000326250631 10750.0 6109.0 822.167572204762 0.5264375038692914 407.0 24.0 297.0 
484.0000326250631 10743.0 6111.0 822.1195310266048 0.5284343161390246 410.0 23.0 298.0 
486.0000326250631 10717.0 6108.0 823.4864169287823 0.5308967040642885 408.0 23.0 299.0 
488.0000326250631 10687.0 6110.0 822.1275378896084 0.5240072828765361 407.0 23.0 298.0 
490.0000326250631 10715.0 6113.0 823.4795539033527 0.5270471567963833 404.0 25.0 297.0 
492.0000326250631 10730.0 6113.0 826.073777523593 0.5270584429397174 402.0 25.0 299.0 
494.0000326250631 10723.0 6115.0 827.3823277094671 0.5256562294990589 405.0 23.0 302.0 
496.0000326250631 10738.0 6115.0 826.0886474120804 0.5254989443254361 405.0 23.0 301.0 
498.0000326250631 10751.0 6113.0 824.8155561910175 0.5234049595994407 404.0 24.0 299.0 
500.0000326250631 10788.0 6117.0 824.8041178152856 0.5284305975416728 404.0 25.0 298.0 
502.0000326250631 10758.0 6115.0 824.7537889619852 0.5282537679182947 405.0 24.0 299.0 
504.0000326250631 10754.0 6114.0 819.5115813554322 0.52729441080174 404.0 23.0 296.0 
506.0000326250631 10744.0 6113.0 820.804117815285 0.5292462647031504 405.0 23.0 297.0 
508.0000326250631 10752.0 6109.0 822.12181870175 0.5212015433982297 401.0 25.0 296.0 
510.0000326250631 10768.0 6112.0 823.4601086645613 0.5205953653578002 402.0 26.0 296.0 
512.0000326250631 10793.0 6112.0 822.0909350872253 0.5225093152737832 405.0 26.0 295.0 
514.000032625063 10790.0 6111.0 818.2053188447168 0.5236904550605328 405.0 25.0 293.0 
516.000032625063 10799.0 6111.0 819.5115813554322 0.5277878609092221 401.0 23.0 296.0 
518.000032625063 10818.0 6113.0 816.8498713182595 0.5288730340371384 397.0 26.0 291.0 
520.000032625063 10818.0 6115.0 816.8670288818885 0.5355990099413132 391.0 26.0 291.0 
522.000032625063 10805.0 6118.0 812.9791249642648 0.5364229668115027 390.0 25.0 289.0 
524.000032625063 10791.0 6115.0 808.9791249642647 0.5317448533584647 392.0 23.0 288.0 
526.000032625063 10772.0 6112.0 807.6088075493175 0.5267387375840025 388.0 24.0 286.0 
528.000032625063 10793.0 6118.0 807.6934515298952 0.5338929027876882 389.0 24.0 286.0 
530.000032625063 10794.0 6117.0 810.2968258507268 0.5276329337420066 388.0 21.0 291.0 
532.000032625063 10793.0 6115.0 810.3002573634437 0.5271623621278493 390.0 21.0 291.0 
534.000032625063 10787.0 6114.0 810.3116957392135 0.5289871621258813 390.0 21.0 291.0 
536.000032625063 10775.0 6112.0 810.3002573634437 0.5308885224114417 388.0 20.0 292.0 
538.000032625063 10809.0 6114.0 809.0122962539322 0.5249035174259635 389.0 21.0 290.0 
540.000032625063 10838.0 6119.0 809.0248784672767 0.5348386587667777 389.0 21.0 290.0 
542.000032625063 10813.0 6117.0 806.3597369173718 0.5380680176882108 392.0 21.0 288.0 
544.000032625063 10770.0 6108.0 807.6877323419969 0.5220381743298353 392.0 20.0 290.0 
546.000032625063 10792.0 6111.0 807.7117529310759 0.5227807242478593 392.0 20.0 290.0 
548.000032625063 10812.0 6114.0 808.983700314566 0.5250219218726379 392.0 20.0 291.0 
550.000032625063 10851.0 6115.0 808.9928510151411 0.5252507589548755 391.0 21.0 290.0 
552.000032625063 10891.0 6118.0 811.6271089505381 0.5294352068614239 396.0 21.0 292.0 
554.000032625063 10904.0 6115.0 810.2968258507268 0.5348284646182527 398.0 20.0 292.0 
556.000032625063 10910.0 6112.0 807.7392050328717 0.5282643985353827 396.0 20.0 290.0 
558.000032625063 10910.0 6114.0 809.0420360308697 0.526162437070853 395.0 20.0 291.0 
560.000032625063 10907.0 6115.0 809.0374606805815 0.5291141318628598 394.0 20.0 291.0 
562.000032625063 10866.0 6116.0 811.7026022304879 0.5298101117889863 392.0 20.0 293.0 
564.000032625063 10890.0 6119.0 810.3242779525227 0.5284284216589018 394.0 19.0 293.0 
566.000032625063 10885.0 6120.0 810.3208464398062 0.5353731158469145 394.0 19.0 293.0 
568.000032625063 10843.0 6118.0 810.3197026022358 0.5354905137353461 395.0 19.0 293.0 
570.000032625063 10799.0 6117.0 810.3277094652519 0.5302604859893701 394.0 20.0 292.0 
572.000032625063 10814.0 6118.0 811.6602802401882 0.5394162757134144 395.0 20.0 293.0 
574.000032625063 10828.0 6120.0 812.9287961109621 0.5386503581507792 397.0 19.0 295.0 
576.000032625063 10811.0 6118.0 811.6671432656744 0.5477707948661682 393.0 19.0 294.0 
578.000032625063 10747.0 6111.0 811.6305404632506 0.530993952404561 394.0 19.0 294.0 
580.000032625063 10762.0 6111.0 811.6339719759673 0.5259264060884549 397.0 20.0 293.0 
582.000032625063 10753.0 6110.0 807.6968830426122 0.5252488570722516 395.0 20.0 290.0 
584.000032625063 10777.0 6112.0 811.668287103246 0.5257490431884357 397.0 19.0 294.0 
586.000032625063 10794.0 6117.0 813.0111524163616 0.5364914004467338 394.0 19.0 295.0 
588.000032625063 10780.0 6113.0 810.3665999428182 0.5379654167345698 391.0 19.0 293.0 
590.000032625063 10736.0 6111.0 810.3849013440213 0.5271789523321129 394.0 20.0 292.0 
592.000032625063 10739.0 6111.0 813.0283099799937 0.5234508156987809 395.0 20.0 294.0 
594.000032625063 10770.0 6116.0 815.6396911638426 0.5246882714209877 395.0 19.0 297.0 
596.000032625063 10810.0 6125.0 816.9139262224749 0.5398569127716357 394.0 19.0 298.0 
598.000032625063 10772.0 6121.0 816.9379468115542 0.5366692994956521 392.0 19.0 298.0 
600.000032625063 10733.0 6116.0 818.3002573634436 0.5278079564364542 392.0 20.0 298.0 
602.000032625063 10747.0 6114.0 818.2945381755851 0.5273640453387864 390.0 20.0 298.0 
604.000032625063 10801.0 6121.0 816.9345152988377 0.533081188450335 388.0 19.0 298.0 
606.000032625063 10799.0 6118.0 818.283099799811 0.5341294069161976 388.0 19.0 299.0 
608.000032625063 10769.0 6114.0 818.3059765513187 0.5243289248214692 387.0 20.0 298.0 
610.000032625063 10790.0 6114.0 819.5676293966062 0.5256137128309942 388.0 21.0 298.0 
612.000032625063 10805.0 6116.0 824.8704603946204 0.5272366125768705 388.0 21.0 302.0 
614.000032625063 10889.0 6121.0 828.7983986273849 0.535643201235706 393.0 21.0 305.0 
616.000032625063 10938.0 6129.0 830.1023734629586 0.5449689016179109 396.0 19.0 308.0 
618.000032625063 10913.0 6122.0 830.0852158993259 0.5373206924715064 396.0 20.0 307.0 
620.000032625063 10930.0 6122.0 830.097798112672 0.5385479345165476 393.0 23.0 304.0 
622.000032625063 10928.0 6119.0 830.0772090363091 0.5346509358401634 396.0 20.0 307.0 
624.000032625063 10975.0 6123.0 831.33543036888 0.533584652976854 395.0 20.0 308.0 
626.000032625063 11023.0 6130.0 830.0840720617543 0.5441686277946464 389.0 28.0 299.0 
628.000032625063 10975.0 6125.0 830.0646268230015 0.5361462035680503 386.0 29.0 298.0 
630.000032625063 11010.0 6127.0 831.4303688876239 0.5378153436973678 387.0 30.0 298.0 
632.000032625063 11002.0 6125.0 831.4040606233999 0.5327316878949008 390.0 27.0 301.0 
634.000032625063 10969.0 6126.0 831.3731770088757 0.536287650545901 390.0 29.0 299.0 
636.000032625063 10959.0 6128.0 832.7137546468485 0.5386813214873204 393.0 26.0 303.0 
638.000032625063 10899.0 6123.0 832.7309122104783 0.5343884052638179 393.0 26.0 303.0 
640.000032625063 10922.0 6122.0 828.8144123534477 0.5321126591323443 390.0 27.0 299.0 
642.000032625063 10877.0 6120.0 830.1401201029543 0.5318093577875338 390.0 26.0 301.0 
644.000032625063 10852.0 6121.0 832.6897340577693 0.5362503404196327 394.0 25.0 304.0 
646.000032625063 10841.0 6119.0 831.4109236488326 0.5380871645077419 397.0 25.0 303.0 
648.000032625063 10804.0 6112.0 828.7846725765098 0.5252265684603981 395.0 25.0 301.0 
650.000032625063 10856.0 6119.0 828.7972547898137 0.5253243785857354 393.0 26.0 300.0 
652.000032625063 10909.0 6123.0 827.4829854160646 0.5333279657662168 392.0 26.0 299.0 
654.000032625063 10893.0 6124.0 827.4681155275782 0.5309852784952344 389.0 25.0 300.0 
656.000032625063 10897.0 6125.0 828.8018301401019 0.5411879709811822 389.0 26.0 300.0 
658.000032625063 10846.0 6120.0 828.7938232770847 0.5312708127270374 385.0 26.0 300.0 
660.000032625063 10840.0 6117.0 828.7606519874307 0.5287427695606599 383.0 28.0 298.0 
662.000032625063 10878.0 6119.0 828.7663711752892 0.5350395006186979 388.0 25.0 301.0 
664.000032625063 10887.0 6118.0 828.7309122104782 0.5317137490413859 387.0 26.0 300.0 
#####################################################################
# End of data export. Simulation finished at: 2019-03-05T13:28+0000 #
#####################################################################
