#####################################################################
# Alchemist log file - simulation started at: 2019-03-03T06:04+0000 #
#####################################################################
# seed = 9.0, bandwidth = 5623413.251903491, accessPointCount = 10.0, baserange = 177.82794100389228
#
# The columns have the following meaning: 
# time neighbor_count[Sum] <value>@neighbor_count[Sum] packet_size[Mean] mean_delay[Mean] crowd[Sum] overcrowded[Sum] risk[Sum] 
0.0 NaN NaN NaN NaN NaN NaN NaN 
10.000001410132539 557.0 39.0 4988.236230922363 0.5034433837908848 1497.0 0.0 1497.0 
20.00000141013254 558.0 39.0 4988.233576642336 0.5037646450768766 1497.0 0.0 1497.0 
30.00000141013254 558.0 39.0 4988.204379562044 0.5037666778342138 1497.0 0.0 1497.0 
40.00000141013254 558.0 39.0 4988.254810882549 0.5037650449152589 1497.0 0.0 1497.0 
50.00000141013254 582.0 40.0 4988.209688122097 0.5032998504028837 1497.0 0.0 1497.0 
60.00000141013254 584.0 40.0 4988.257465162575 0.5031363811298439 1497.0 0.0 1497.0 
70.00033744596142 586.0 40.0 473.35633709356335 0.5024057472023511 34.0 0.0 24.0 
80.00033744596142 590.0 40.0 473.3271400132711 0.5035308338867046 33.0 1.0 23.0 
90.00033744596142 590.0 40.0 473.3828798938288 0.50353213827214 33.0 1.0 23.0 
100.00033744596142 590.0 40.0 473.3589913735899 0.5035355657388355 33.0 1.0 23.0 
110.00033744596142 590.0 40.0 473.3828798938288 0.50353213827214 33.0 1.0 23.0 
120.00033744596142 648.0 42.0 482.5268745852685 0.5075785734477586 35.0 0.0 27.0 
130.0003374459614 626.0 42.0 482.54014598540175 0.5066980126707967 34.0 1.0 26.0 
140.0003374459614 622.0 41.0 482.54014598540175 0.506842568528227 35.0 0.0 27.0 
150.0003374459614 622.0 41.0 482.50298606503003 0.5068483488426558 35.0 0.0 27.0 
160.0003374459614 636.0 41.0 482.54280026542745 0.5074509307334146 35.0 0.0 27.0 
170.0003374459614 640.0 41.0 482.53483742534837 0.5074114129343005 35.0 0.0 27.0 
180.0003374459614 642.0 41.0 482.52422030524184 0.5074731392446382 35.0 0.0 27.0 
190.0003374459614 648.0 41.0 479.4717982747182 0.506027489849513 34.0 1.0 25.0 
200.0003374459614 652.0 41.0 479.43198407432004 0.5059423989784537 32.0 3.0 23.0 
210.0003374459614 658.0 41.0 479.4479097544788 0.5130875545486411 32.0 3.0 23.0 
220.0003374459614 652.0 41.0 479.4240212342399 0.5198623398145862 31.0 3.0 23.0 
230.0003374459614 636.0 41.0 479.43463835434676 0.5636412742291907 35.0 0.0 26.0 
240.0003374459614 596.0 40.0 479.4187126741873 0.5024269042552737 32.0 3.0 23.0 
250.0003374459614 596.0 40.0 479.43463835434676 0.502426885209694 32.0 3.0 23.0 
260.0003374459614 596.0 40.0 476.3609820836101 0.500827258900743 32.0 3.0 22.0 
270.0003374459614 596.0 40.0 476.37956204379543 0.5012661185420602 32.0 3.0 22.0 
280.0003374459614 596.0 40.0 470.25348374253514 0.5019202452024687 31.0 3.0 20.0 
290.0003374459614 596.0 40.0 470.298606502986 0.5019199456725193 31.0 3.0 20.0 
300.0003374459614 596.0 40.0 470.27206370272063 0.5019183858069121 31.0 3.0 20.0 
310.0003374459614 596.0 40.0 470.2800265428 0.501920641849992 31.0 3.0 20.0 
320.0003374459614 596.0 40.0 470.2773722627733 0.5019184312097908 31.0 3.0 20.0 
330.0003374459614 596.0 40.0 470.29329794293324 0.5019199002696405 31.0 3.0 20.0 
340.0003374459614 596.0 40.0 470.25879230258784 0.5019191273872636 31.0 3.0 20.0 
350.0003374459614 596.0 40.0 470.298606502986 0.5019199456725193 31.0 3.0 20.0 
360.0003374459614 576.0 40.0 470.27206370272063 0.5052270214725706 30.0 3.0 20.0 
370.0003374459614 558.0 39.0 470.2800265428 0.5030679708063784 30.0 3.0 20.0 
380.0003374459614 558.0 39.0 470.2773722627733 0.5030657205491114 30.0 3.0 20.0 
390.0003374459614 558.0 39.0 470.28798938288026 0.5030674467393061 30.0 3.0 20.0 
400.0003374459614 562.0 40.0 470.25879230258784 0.5029951349126529 30.0 3.0 20.0 
410.0003374459614 556.0 39.0 470.29329794293324 0.5031405920627969 30.0 3.0 20.0 
420.0003374459614 556.0 39.0 470.27206370272063 0.5031387665101325 30.0 3.0 20.0 
430.0003374459614 556.0 39.0 470.2747179827473 0.5031413033745625 30.0 3.0 20.0 
440.0003374459614 554.0 39.0 470.2773722627733 0.5033860045688741 30.0 3.0 20.0 
450.0003374459614 554.0 39.0 470.28798938288026 0.5033878426728352 30.0 3.0 20.0 
460.0003374459614 554.0 39.0 470.25879230258784 0.5033867158806397 30.0 3.0 20.0 
470.0003374459614 554.0 39.0 470.29329794293324 0.5033878890627331 30.0 3.0 20.0 
480.0003374459614 554.0 39.0 470.27206370272063 0.5033859581789761 30.0 3.0 20.0 
490.0003374459614 554.0 39.0 470.2747179827473 0.5033886003744987 30.0 3.0 20.0 
500.0003374459614 554.0 39.0 470.2773722627733 0.5033860045688741 30.0 3.0 20.0 
510.0003374459614 548.0 39.0 470.2800265428 0.5023938984238955 31.0 2.0 21.0 
520.0003374459613 546.0 39.0 470.24021234240183 0.5022829267547124 33.0 0.0 23.0 
530.0003374459613 546.0 39.0 470.2641008626411 0.5022853135868617 32.0 1.0 22.0 
540.0003374459613 546.0 39.0 470.25348374253514 0.5022821690530529 32.0 1.0 22.0 
550.0003374459613 546.0 39.0 470.24552090245487 0.5022860248986241 33.0 0.0 23.0 
560.0003374459613 544.0 39.0 470.25879230258784 0.5023581302411281 32.0 1.0 22.0 
570.0003374459613 544.0 39.0 470.25879230258784 0.5023590983710872 32.0 1.0 22.0 
580.0003374459613 544.0 39.0 470.2428666224282 0.5023583785646585 33.0 0.0 23.0 
590.0003374459613 544.0 39.0 470.24552090245487 0.5023611294726708 32.0 1.0 22.0 
600.0003374459613 544.0 39.0 470.22959522229587 0.5023627103118611 32.0 1.0 22.0 
610.0003374459613 544.0 39.0 470.21632382216364 0.5023634680135205 33.0 0.0 23.0 
620.0003374459613 542.0 39.0 470.23490378234914 0.5022722595693283 32.0 1.0 22.0 
630.0003374459613 566.0 40.0 473.2740544127406 0.5020055199962884 33.0 1.0 23.0 
640.0003374459613 568.0 40.0 473.27936297279354 0.5029444386166038 34.0 0.0 24.0 
650.0003374459613 574.0 40.0 473.2926343729261 0.5025263768398779 33.0 1.0 23.0 
660.0003374459613 607.0 40.0 473.35633709356335 0.5029451810762474 33.0 1.0 23.0 
#####################################################################
# End of data export. Simulation finished at: 2019-03-03T06:12+0000 #
#####################################################################
